数据由邢不行整理
股票代码,股票名称,交易日期,开盘价,最高价,最低价,收盘价,前收盘价,成交量,成交额,流通市值,总市值
bj832885,星辰科技,2021-11-15,26.76,27.98,25.05,25.38,25.27,2616915.0,69279373.0,698607138.96,2156391396.0
bj832885,星辰科技,2021-11-16,25.4,25.44,21.13,21.98,25.38,1491034.0,34063208.0,605019106.16,1867513116.0
bj832885,星辰科技,2021-11-17,21.96,22.17,21.4,21.85,21.98,456848.0,9956460.0,601440740.2,1856467770.0
bj832885,星辰科技,2021-11-18,21.9,22.28,21.48,21.49,21.85,238409.0,5187638.0,591531419.0799999,1825880658.0
bj832885,星辰科技,2021-11-19,21.83,21.85,20.72,21.05,21.49,458068.0,9638543.0,579420026.6,1788496410.0
bj832885,星辰科技,2021-11-22,21.39,21.89,21.22,21.58,21.05,411368.0,8851732.0,594008749.36,1833527435.9999998
bj832885,星辰科技,2021-11-23,21.71,24.5,21.71,23.41,21.58,946534.0,21983906.0,644381131.72,1989011922.0
bj832885,星辰科技,2021-11-24,23.01,24.5,23.0,23.82,23.41,738841.0,17793309.0,655666747.44,2023847244.0
bj832885,星辰科技,2021-11-25,24.2,24.96,23.8,24.13,23.82,552186.0,13476106.0,664199773.96,2050186146.0
bj832885,星辰科技,2021-11-26,24.23,24.5,23.46,23.53,24.13,488425.0,11629962.0,647684238.76,1999207625.9999998
bj832885,星辰科技,2021-11-29,23.32,24.55,23.08,24.2,23.53,1148434.0,27698994.0,666126586.4,2056133640.0
bj832885,星辰科技,2021-11-30,24.19,24.2,23.8,24.14,24.2,347205.0,8319165.0,664475032.8800001,2051035788.0
bj832885,星辰科技,2021-12-01,24.14,24.15,23.76,24.06,24.14,294547.0,7058946.0,662272961.52,2044238652.0
bj832885,星辰科技,2021-12-02,24.07,24.09,23.63,23.66,24.06,188384.0,4477745.0,651262604.72,2010252972.0
bj832885,星辰科技,2021-12-03,23.45,23.65,22.61,22.98,23.66,373014.0,8578617.0,632544998.1600001,1952477316.0
bj832885,星辰科技,2021-12-06,22.72,23.0,21.9,22.0,22.98,356017.0,7969592.0,605569624.0,1869212400.0
bj832885,星辰科技,2021-12-07,21.72,22.0,21.69,21.78,22.0,224717.0,4909972.0,599513927.76,1850520276.0
bj832885,星辰科技,2021-12-08,21.8,22.64,21.8,22.01,21.78,179920.0,3997437.0,605844882.9200001,1870062042.0
bj832885,星辰科技,2021-12-09,22.16,22.16,21.92,22.02,22.01,130614.0,2875703.0,606120141.84,1870911684.0
bj832885,星辰科技,2021-12-10,22.35,22.35,21.55,21.58,22.02,243888.0,5300655.0,594008749.36,1833527435.9999998
bj832885,星辰科技,2021-12-13,21.6,21.85,21.55,21.59,21.58,198755.0,4296223.0,594284008.28,1834377078.0
bj832885,星辰科技,2021-12-14,21.95,22.57,21.66,22.05,21.59,216228.0,4777613.0,606945918.6,1873460609.9999998
bj832885,星辰科技,2021-12-15,21.8,22.32,21.52,21.72,22.05,122426.0,2668960.0,597862374.24,1845422424.0
bj832885,星辰科技,2021-12-16,21.8,21.84,21.61,21.61,21.72,65051.0,1411655.0,594834526.12,1836076362.0
bj832885,星辰科技,2021-12-17,21.84,22.46,21.66,22.09,21.61,250861.0,5562992.0,608046954.28,1876859178.0
bj832885,星辰科技,2021-12-20,21.6,22.16,21.0,21.3,22.09,196282.0,4250801.0,586301499.6,1809737460.0000002
bj832885,星辰科技,2021-12-21,21.32,21.45,21.01,21.27,21.3,78803.0,1664035.0,585475722.84,1807188534.0
bj832885,星辰科技,2021-12-22,21.08,21.2,20.8,20.82,21.27,167229.0,3491327.0,573089071.4399999,1768954644.0
bj832885,星辰科技,2021-12-23,21.2,21.2,20.6,20.69,20.82,93899.0,1949809.0,569510705.48,1757909298.0000002
bj832885,星辰科技,2021-12-24,20.62,20.63,19.49,19.63,20.69,252766.0,5033350.0,540333259.96,1667847245.9999998
bj832885,星辰科技,2021-12-27,19.68,20.2,19.68,19.85,19.63,124219.0,2482988.0,546388956.2,1686539370.0
bj832885,星辰科技,2021-12-28,20.13,21.0,19.88,20.8,19.85,154199.0,3176561.0,572538553.6,1767255360.0
bj832885,星辰科技,2021-12-29,20.86,21.19,20.74,20.88,20.8,137627.0,2868831.0,574740624.96,1774052496.0
bj832885,星辰科技,2021-12-30,21.08,21.5,21.0,21.2,20.88,224510.0,4778651.0,583548910.4,1801241040.0
bj832885,星辰科技,2021-12-31,21.49,22.5,21.0,21.5,21.2,416418.0,9125963.0,591806678.0,1826730300.0
bj832885,星辰科技,2022-01-04,21.5,21.5,20.52,20.8,21.5,209069.0,4353748.0,572538553.6,1767255360.0
bj832885,星辰科技,2022-01-05,21.03,21.1,20.04,20.25,20.8,164519.0,3362687.0,557399313.0,1720525050.0
bj832885,星辰科技,2022-01-06,20.25,20.4,19.6,20.13,20.25,141066.0,2812818.0,554096205.96,1710329346.0
bj832885,星辰科技,2022-01-07,20.2,20.2,19.72,19.84,20.13,66532.0,1320677.0,546113697.28,1685689728.0
bj832885,星辰科技,2022-01-10,20.37,20.38,19.77,19.94,19.84,73488.0,1461239.0,548866286.48,1694186148.0
bj832885,星辰科技,2022-01-11,19.86,20.18,19.51,19.56,19.94,91257.0,1804744.0,538406447.52,1661899751.9999998
bj832885,星辰科技,2022-01-12,19.99,20.04,19.64,19.9,19.56,102137.0,2028302.0,547765250.8,1690787580.0
bj832885,星辰科技,2022-01-13,19.73,19.94,19.68,19.69,19.9,76698.0,1515071.0,541984813.48,1672945098.0
bj832885,星辰科技,2022-01-14,19.69,19.99,19.56,19.73,19.69,84423.0,1671775.0,543085849.16,1676343666.0
