数据由邢不行整理
股票代码,股票名称,交易日期,开盘价,最高价,最低价,收盘价,前收盘价,成交量,成交额,流通市值,总市值
sh605388,N均瑶,2020-08-18,16.12,19.34,16.12,19.34,13.43,224852.0,4331430.0,1353800000.0,8316200000.0
sh605388,均瑶健康,2020-08-19,21.27,21.27,21.27,21.27,19.34,68340.0,1453592.0,1488900000.0,9146100000.0
sh605388,均瑶健康,2020-08-20,23.4,23.4,23.4,23.4,21.27,134300.0,3142620.0,1638000000.0,10062000000.0
sh605388,均瑶健康,2020-08-21,25.74,25.74,25.74,25.74,23.4,331827.0,8541227.0,1801800000.0,11068200000.0
sh605388,均瑶健康,2020-08-24,28.31,28.31,28.31,28.31,25.74,3576111.0,101239702.0,1981700000.0,12173300000.0
sh605388,均瑶健康,2020-08-25,29.72,31.14,29.1,31.14,28.31,28174377.0,856580794.0,2179800000.0,13390200000.0
sh605388,均瑶健康,2020-08-26,31.2,32.25,29.04,29.9,31.14,40965701.0,1250810777.0,2093000000.0,12857000000.0
sh605388,均瑶健康,2020-08-27,28.43,28.55,26.91,26.93,29.9,30603712.0,833264502.0,1885100000.0,11579900000.0
sh605388,均瑶健康,2020-08-28,26.6,28.8,26.4,27.52,26.93,24702342.0,682995182.0,1926400000.0,11833600000.0
sh605388,均瑶健康,2020-08-31,27.29,29.11,27.27,28.31,27.52,20328897.0,573444235.0,1981700000.0,12173300000.0
sh605388,均瑶健康,2020-09-01,27.85,28.15,26.64,27.07,28.31,16200389.0,440795408.0,1894900000.0,11640100000.0
sh605388,均瑶健康,2020-09-02,26.9,27.77,26.78,26.99,27.07,14022528.0,382293628.0,1889300000.0,11605700000.0
sh605388,均瑶健康,2020-09-03,27.1,27.29,25.41,25.55,26.99,15112535.0,393552125.0,1788500000.0,10986500000.0
sh605388,均瑶健康,2020-09-04,24.6,24.95,24.12,24.22,25.55,10070190.0,246016384.0,1695400000.0,10414600000.0
sh605388,均瑶健康,2020-09-07,24.2,24.26,22.74,22.79,24.22,10745546.0,251588080.0,1595300000.0,9799700000.0
sh605388,均瑶健康,2020-09-08,22.79,23.0,21.98,22.35,22.79,8441752.0,189193348.0,1564500000.0,9610500000.0
sh605388,均瑶健康,2020-09-09,21.78,22.98,21.66,22.14,22.35,9199307.0,205905559.0,1549800000.0,9520200000.0
sh605388,均瑶健康,2020-09-10,22.16,22.67,20.1,21.1,22.14,8205535.0,179072455.0,1477000000.0,9073000000.0
sh605388,均瑶健康,2020-09-11,20.55,21.5,20.55,21.18,21.1,6466699.0,136380861.0,1482600000.0,9107400000.0
sh605388,均瑶健康,2020-09-14,21.19,21.38,20.67,20.8,21.18,5924418.0,124429769.0,1456000000.0,8944000000.0
sh605388,均瑶健康,2020-09-15,20.69,21.78,20.66,21.66,20.8,8044681.0,172436074.0,1516200000.0,9313800000.0
sh605388,均瑶健康,2020-09-16,21.4,22.73,21.04,22.31,21.66,10082995.0,220672852.0,1561700000.0,9593300000.0
sh605388,均瑶健康,2020-09-17,22.01,22.55,21.75,22.07,22.31,7182439.0,159317265.0,1544900000.0,9490100000.0
sh605388,均瑶健康,2020-09-18,21.88,22.56,21.71,22.21,22.07,6564012.0,144959116.0,1554700000.0,9550300000.0
sh605388,均瑶健康,2020-09-21,22.23,22.23,21.76,21.8,22.21,3977319.0,87284477.0,1526000000.0,9374000000.0
sh605388,均瑶健康,2020-09-22,21.46,21.5,20.81,20.82,21.8,5291273.0,111663363.0,1457400000.0,8952600000.0
sh605388,均瑶健康,2020-09-23,20.97,22.65,20.88,22.0,20.82,8962557.0,196083592.0,1540000000.0,9460000000.0
sh605388,均瑶健康,2020-09-24,21.75,22.71,21.7,22.07,22.0,9104477.0,202690455.0,1544900000.0,9490100000.0
sh605388,均瑶健康,2020-09-25,22.09,22.68,21.22,21.46,22.07,6517887.0,143671300.0,1502200000.0,9227800000.0
sh605388,均瑶健康,2020-09-28,21.52,21.67,20.43,20.6,21.46,5374567.0,111524799.0,1442000000.0,8858000000.0
sh605388,均瑶健康,2020-09-29,20.66,21.02,20.4,20.75,20.6,3820794.0,79059344.0,1452500000.0,8922500000.0
sh605388,均瑶健康,2020-09-30,20.76,20.95,20.34,20.4,20.75,3663880.0,75394799.0,1428000000.0,8772000000.0
sh605388,均瑶健康,2020-10-09,20.67,21.28,20.65,21.1,20.4,4489927.0,94240777.0,1477000000.0,9073000000.0
sh605388,均瑶健康,2020-10-12,21.2,21.88,21.19,21.73,21.1,5060759.0,108884061.0,1521100000.0,9343900000.0
sh605388,均瑶健康,2020-10-13,21.73,22.22,21.45,22.0,21.73,5183007.0,113355196.0,1540000000.0,9460000000.0
sh605388,均瑶健康,2020-10-14,21.92,22.16,21.6,21.68,22.0,2984273.0,64980177.0,1517600000.0,9322400000.0
sh605388,均瑶健康,2020-10-15,21.44,22.1,21.28,21.92,21.68,5092331.0,110684379.0,1534400000.0,9425600000.0
sh605388,均瑶健康,2020-10-16,21.79,21.96,20.82,21.09,21.92,6504872.0,137942780.0,1476300000.0,9068700000.0
sh605388,均瑶健康,2020-10-19,20.93,21.23,20.71,20.92,21.09,2591292.0,54317754.0,1464400000.0,8995600000.0
sh605388,均瑶健康,2020-10-20,20.67,21.35,20.67,21.27,20.92,3137915.0,66134985.0,1488900000.0,9146100000.0
sh605388,均瑶健康,2020-10-21,21.28,21.89,20.92,21.57,21.27,5111785.0,109473292.0,1509900000.0,9275100000.0
sh605388,均瑶健康,2020-10-22,21.6,21.99,21.21,21.26,21.57,5130242.0,110503065.0,1488200000.0,9141800000.0
sh605388,均瑶健康,2020-10-23,21.01,22.01,21.01,21.65,21.26,6700086.0,144948962.0,1515500000.0,9309500000.0
sh605388,均瑶健康,2020-10-26,21.53,21.66,20.0,21.0,21.65,4789259.0,101109197.0,1470000000.0,9030000000.0
sh605388,均瑶健康,2020-10-27,21.04,21.18,20.23,20.46,21.0,4063122.0,83480265.0,1432200000.0,8797800000.0
sh605388,均瑶健康,2020-10-28,20.33,20.6,20.03,20.23,20.46,3320767.0,67172674.0,1416100000.0,8698900000.0
sh605388,均瑶健康,2020-10-29,19.49,19.5,18.21,18.58,20.23,9919114.0,185434864.0,1300600000.0,7989400000.0
sh605388,均瑶健康,2020-10-30,18.54,18.54,17.57,17.63,18.58,5559976.0,100282212.0,1234100000.0,7580900000.0
sh605388,均瑶健康,2020-11-02,17.57,17.8,17.45,17.68,17.63,2894671.0,50996112.0,1237600000.0,7602400000.0
sh605388,均瑶健康,2020-11-03,17.7,18.16,17.6,18.14,17.68,3368835.0,60578117.0,1269800000.0,7800200000.0
sh605388,均瑶健康,2020-11-04,18.2,18.21,17.7,17.74,18.14,2894821.0,51661431.0,1241800000.0,7628200000.0
sh605388,均瑶健康,2020-11-05,17.89,18.1,17.78,18.06,17.74,3352017.0,60172376.0,1264200000.0,7765800000.0
sh605388,均瑶健康,2020-11-06,18.0,18.3,17.9,18.05,18.06,3155554.0,56917154.0,1263500000.0,7761500000.0
sh605388,均瑶健康,2020-11-09,18.1,18.45,18.0,18.39,18.05,4048336.0,74039791.0,1287300000.0,7907700000.0
sh605388,均瑶健康,2020-11-10,18.4,19.19,18.18,18.99,18.39,6699906.0,125918021.0,1329300000.0,8165700000.0
sh605388,均瑶健康,2020-11-11,18.78,19.5,18.65,19.09,18.99,5893907.0,112870515.0,1336300000.0,8208700000.0
sh605388,均瑶健康,2020-11-12,19.25,19.34,18.57,19.23,19.09,4881314.0,92303234.0,1346100000.0,8268900000.0
sh605388,均瑶健康,2020-11-13,19.0,19.18,18.5,18.61,19.23,3691164.0,68955272.0,1302700000.0,8002300000.0
sh605388,均瑶健康,2020-11-16,18.54,18.95,18.41,18.86,18.61,3296434.0,61691460.0,1320200000.0,8109800000.0
sh605388,均瑶健康,2020-11-17,18.88,19.26,18.73,19.21,18.86,4764620.0,90734941.0,1344700000.0,8260300000.0
sh605388,均瑶健康,2020-11-18,19.03,19.65,18.92,19.15,19.21,5443829.0,104991786.0,1340500000.0,8234500000.0
sh605388,均瑶健康,2020-11-19,18.98,19.67,18.8,19.2,19.15,6123204.0,117952908.0,1344000000.0,8256000000.0
sh605388,均瑶健康,2020-11-20,19.18,19.87,18.87,19.69,19.2,7852827.0,153647658.0,1378300000.0,8466700000.0
sh605388,均瑶健康,2020-11-23,19.6,19.7,19.03,19.11,19.69,6231480.0,119812077.0,1337700000.0,8217300000.0
sh605388,均瑶健康,2020-11-24,19.1,19.1,18.7,18.81,19.11,3539082.0,66620132.0,1316700000.0,8088300000.0
sh605388,均瑶健康,2020-11-25,18.77,18.96,18.27,18.33,18.81,3380916.0,62941611.0,1283100000.0,7881900000.0
sh605388,均瑶健康,2020-11-26,18.48,18.5,18.11,18.45,18.33,2228560.0,40856732.0,1291500000.0,7933500000.0
sh605388,均瑶健康,2020-11-27,18.28,18.58,18.11,18.52,18.45,2499635.0,45913949.0,1296400000.0,7963600000.0
sh605388,均瑶健康,2020-11-30,18.48,18.68,18.21,18.29,18.52,2477918.0,45616681.0,1280300000.0,7864700000.0
sh605388,均瑶健康,2020-12-01,18.2,18.46,18.17,18.36,18.29,2022858.0,37147302.0,1285200000.0,7894800000.0
sh605388,均瑶健康,2020-12-02,18.42,19.99,18.35,19.88,18.36,10002204.0,192938261.0,1391600000.0,8548400000.0
sh605388,均瑶健康,2020-12-03,19.52,19.75,19.19,19.46,19.88,6059325.0,117668256.0,1362200000.0,8367800000.0
sh605388,均瑶健康,2020-12-04,19.57,19.94,19.45,19.72,19.46,6294354.0,124300039.0,1380400000.0,8479600000.0
sh605388,均瑶健康,2020-12-07,20.13,21.69,19.59,21.69,19.72,17191056.0,365416305.0,1518300000.0,9326700000.0
sh605388,均瑶健康,2020-12-08,21.13,23.47,21.13,21.76,21.69,21412548.0,470048901.0,1523200000.0,9356800000.0
sh605388,均瑶健康,2020-12-09,21.7,23.42,21.29,22.63,21.76,19993571.0,452400716.0,1584100000.0,9730900000.0
sh605388,均瑶健康,2020-12-10,22.17,22.51,21.63,21.79,22.63,12935330.0,284819260.0,1525300000.0,9369700000.0
sh605388,均瑶健康,2020-12-11,21.43,22.22,20.69,21.19,21.79,12101920.0,257163044.0,1483300000.0,9111700000.0
sh605388,均瑶健康,2020-12-14,21.1,23.31,21.1,23.31,21.19,16746849.0,380356671.0,1631700000.0,10023300000.0
sh605388,均瑶健康,2020-12-15,24.0,24.98,23.38,23.98,23.31,24094643.0,579661313.0,1678600000.0,10311400000.0
sh605388,均瑶健康,2020-12-16,23.51,26.28,23.51,25.68,23.98,26693606.0,658627559.0,1797600000.0,11042400000.0
sh605388,均瑶健康,2020-12-17,24.4,24.75,23.8,24.1,25.68,18465698.0,447959936.0,1687000000.0,10363000000.0
sh605388,均瑶健康,2020-12-18,23.58,24.94,23.33,23.9,24.1,12464382.0,300912623.0,1673000000.0,10277000000.0
sh605388,均瑶健康,2020-12-21,23.58,24.36,22.58,24.31,23.9,13612661.0,320742835.0,1701700000.0,10453300000.0
sh605388,均瑶健康,2020-12-22,23.81,24.47,23.12,23.22,24.31,13005843.0,308893872.0,1625400000.0,9984600000.0
sh605388,均瑶健康,2020-12-23,23.2,23.25,21.83,22.28,23.22,13605361.0,305224306.0,1559600000.0,9580400000.0
sh605388,均瑶健康,2020-12-24,22.36,22.84,21.2,21.39,22.28,10455894.0,231874494.0,1497300000.0,9197700000.0
sh605388,均瑶健康,2020-12-25,20.87,20.99,19.82,20.49,21.39,10710510.0,219740374.0,1434300000.0,8810700000.0
sh605388,均瑶健康,2020-12-28,20.88,22.54,20.57,22.54,20.49,11095856.0,242881834.0,1577800000.0,9692200000.0
sh605388,均瑶健康,2020-12-29,23.16,23.16,21.16,21.42,22.54,12517482.0,276722119.0,1499400000.0,9210600000.0
sh605388,均瑶健康,2020-12-30,21.44,23.29,21.42,22.68,21.42,13477494.0,303565910.0,1587600000.0,9752400000.0
sh605388,均瑶健康,2020-12-31,22.66,23.16,22.12,22.38,22.68,10502241.0,236478530.0,1566600000.0,9623400000.0
sh605388,均瑶健康,2021-01-04,22.41,23.41,22.08,23.21,22.38,11128366.0,255216462.0,1624700000.0,9980300000.0
sh605388,均瑶健康,2021-01-05,22.79,25.53,22.79,24.65,23.21,23566294.0,587732457.0,1725500000.0,10599500000.0
sh605388,均瑶健康,2021-01-06,24.1,24.5,23.05,23.48,24.65,16672761.0,395267340.0,1643600000.0,10096400000.0
sh605388,均瑶健康,2021-01-07,23.0,23.28,21.47,21.78,23.48,12479259.0,276758206.0,1524600000.0,9365400000.0
sh605388,均瑶健康,2021-01-08,21.93,22.4,20.75,21.95,21.78,9246692.0,200206311.0,1536500000.0,9438500000.0
sh605388,均瑶健康,2021-01-11,21.53,21.93,20.54,20.54,21.95,7643189.0,160847343.0,1437800000.0,8832200000.0
sh605388,均瑶健康,2021-01-12,20.2,21.5,20.2,20.86,20.54,5692665.0,119182236.0,1460200000.0,8969800000.0
sh605388,均瑶健康,2021-01-13,20.71,20.71,19.43,19.81,20.86,7556362.0,151123467.0,1386700000.0,8518300000.0
sh605388,均瑶健康,2021-01-14,19.58,19.75,18.68,18.91,19.81,5445430.0,103916187.0,1323700000.0,8131300000.0
sh605388,均瑶健康,2021-01-15,18.99,19.98,18.79,19.74,18.91,4993134.0,96563785.0,1381800000.0,8488200000.0
sh605388,均瑶健康,2021-01-18,19.68,20.16,19.07,20.0,19.74,5175640.0,102287841.0,1400000000.0,8600000000.0
sh605388,均瑶健康,2021-01-19,19.8,20.39,19.74,19.79,20.0,4454537.0,89212848.0,1385300000.0,8509700000.0
sh605388,均瑶健康,2021-01-20,19.83,20.14,19.18,20.06,19.79,6025130.0,118496291.0,1404200000.0,8625800000.0
sh605388,均瑶健康,2021-01-21,19.93,20.49,19.8,20.25,20.06,6152363.0,124397990.0,1417500000.0,8707500000.0
sh605388,均瑶健康,2021-01-22,20.2,20.2,19.27,19.35,20.25,5323633.0,104593793.0,1354500000.0,8320500000.0
sh605388,均瑶健康,2021-01-25,19.21,19.78,18.71,19.07,19.35,4522552.0,86924078.0,1334900000.0,8200100000.0
sh605388,均瑶健康,2021-01-26,19.07,19.2,18.45,18.47,19.07,4087859.0,76712817.0,1292900000.0,7942100000.0
sh605388,均瑶健康,2021-01-27,18.47,18.88,18.13,18.78,18.47,3110070.0,57556726.0,1314600000.0,8075400000.0
sh605388,均瑶健康,2021-01-28,18.5,18.76,17.98,18.01,18.78,3312270.0,60558999.0,1260700000.0,7744300000.0
sh605388,均瑶健康,2021-01-29,18.13,18.35,17.35,17.55,18.01,3344020.0,59643032.0,1228500000.0,7546500000.0
sh605388,均瑶健康,2021-02-01,17.4,17.88,17.3,17.76,17.55,2847800.0,50185921.0,1243200000.0,7636800000.0
sh605388,均瑶健康,2021-02-02,17.92,18.59,17.8,18.33,17.76,3653217.0,66740685.0,1283100000.0,7881900000.0
sh605388,均瑶健康,2021-02-03,18.35,18.36,17.7,17.84,18.33,3065430.0,54890455.0,1248800000.0,7671200000.0
sh605388,均瑶健康,2021-02-04,17.81,18.56,17.66,18.48,17.84,4816472.0,87841318.0,1293600000.0,7946400000.0
sh605388,均瑶健康,2021-02-05,18.5,18.55,17.78,17.88,18.48,3378919.0,61346662.0,1251600000.0,7688400000.0
sh605388,均瑶健康,2021-02-08,18.84,19.67,18.42,19.0,17.88,9241044.0,179228140.0,1330000000.0,8170000000.0
sh605388,均瑶健康,2021-02-09,18.34,18.88,17.88,18.69,19.0,8670851.0,158738568.0,1308300000.0,8036700000.0
sh605388,均瑶健康,2021-02-10,18.6,18.63,18.09,18.28,18.69,4609760.0,84192899.0,1279600000.0,7860400000.0
sh605388,均瑶健康,2021-02-18,18.45,18.59,18.21,18.4,18.28,3634133.0,66774789.0,1288000000.0,7912000000.0
sh605388,均瑶健康,2021-02-19,18.41,19.47,18.41,19.25,18.4,6404267.0,121110260.0,1347500000.0,8277500000.0
sh605388,均瑶健康,2021-02-22,19.06,19.31,18.86,18.91,19.25,5890918.0,112034207.0,1323700000.0,8131300000.0
sh605388,均瑶健康,2021-02-23,18.84,18.84,18.2,18.35,18.91,3555959.0,65574903.0,1284500000.0,7890500000.0
sh605388,均瑶健康,2021-02-24,18.3,18.48,18.18,18.3,18.35,2423475.0,44345717.0,1281000000.0,7869000000.0
sh605388,均瑶健康,2021-02-25,18.41,18.42,17.84,17.99,18.3,2867873.0,51697616.0,1259300000.0,7735700000.0
sh605388,均瑶健康,2021-02-26,17.58,18.08,17.58,17.88,17.99,1875800.0,33515893.0,1251600000.0,7688400000.0
sh605388,均瑶健康,2021-03-01,17.86,18.15,17.84,18.14,17.88,1881300.0,33966935.0,1269800000.0,7800200000.0
sh605388,均瑶健康,2021-03-02,18.38,18.38,17.86,17.94,18.14,1947482.0,35123262.0,1255800000.0,7714200000.0
sh605388,均瑶健康,2021-03-03,17.97,18.17,17.86,18.15,17.94,1871100.0,33792683.0,1270500000.0,7804500000.0
sh605388,均瑶健康,2021-03-04,18.12,18.12,17.75,17.82,18.15,2577866.0,46159147.0,1247400000.0,7662600000.0
sh605388,均瑶健康,2021-03-05,17.66,18.03,17.58,17.95,17.82,1615068.0,28829016.0,1256500000.0,7718500000.0
sh605388,均瑶健康,2021-03-08,18.1,18.11,17.57,17.57,17.95,2375322.0,42376087.0,1229900000.0,7555100000.0
sh605388,均瑶健康,2021-03-09,17.56,17.6,16.2,16.68,17.57,3279369.0,55534669.0,1167600000.0,7172400000.0
sh605388,均瑶健康,2021-03-10,16.85,17.09,16.64,16.85,16.68,2318841.0,39050538.0,1179500000.0,7245500000.0
sh605388,均瑶健康,2021-03-11,16.75,16.99,16.52,16.93,16.85,2160112.0,36365205.0,1185100000.0,7279900000.0
sh605388,均瑶健康,2021-03-12,17.0,17.08,16.6,16.69,16.93,1690060.0,28306080.0,1168300000.0,7176700000.0
sh605388,均瑶健康,2021-03-15,16.66,16.66,16.22,16.3,16.69,1836700.0,30098245.0,1141000000.0,7009000000.0
sh605388,均瑶健康,2021-03-16,16.33,16.62,16.3,16.55,16.3,1439260.0,23727297.0,1158500000.0,7116500000.0
sh605388,均瑶健康,2021-03-17,16.65,17.14,16.58,16.94,16.55,2479975.0,42097171.0,1185800000.0,7284200000.0
sh605388,均瑶健康,2021-03-18,17.0,17.17,16.81,17.11,16.94,1880800.0,32052246.0,1197700000.0,7357300000.0
sh605388,均瑶健康,2021-03-19,17.29,17.68,17.18,17.28,17.11,2787555.0,48551230.0,1209600000.0,7430400000.0
sh605388,均瑶健康,2021-03-22,17.19,17.45,17.01,17.32,17.28,1882198.0,32543381.0,1212400000.0,7447600000.0
sh605388,均瑶健康,2021-03-23,17.38,17.47,16.94,17.03,17.32,1842352.0,31610222.0,1192100000.0,7322900000.0
sh605388,均瑶健康,2021-03-24,16.93,18.73,16.86,18.29,17.03,7093259.0,128330361.0,1280300000.0,7864700000.0
sh605388,均瑶健康,2021-03-25,17.95,18.39,17.6,18.1,18.29,4857904.0,87256774.0,1267000000.0,7783000000.0
sh605388,均瑶健康,2021-03-26,17.95,18.19,17.77,17.99,18.1,3099307.0,55685491.0,1259300000.0,7735700000.0
sh605388,均瑶健康,2021-03-29,17.87,18.08,17.81,17.95,17.99,2240162.0,40227566.0,1256500000.0,7718500000.0
sh605388,均瑶健康,2021-03-30,17.95,17.99,17.43,17.53,17.95,2748130.0,48331768.0,1227100000.0,7537900000.0
sh605388,均瑶健康,2021-03-31,17.35,17.74,17.2,17.68,17.53,1899000.0,33098167.0,1237600000.0,7602400000.0
sh605388,均瑶健康,2021-04-01,17.6,17.77,17.31,17.33,17.68,2099400.0,36627001.0,1213100000.0,7451900000.0
sh605388,均瑶健康,2021-04-02,17.7,18.36,17.68,18.18,17.33,6156361.0,111640264.0,1272600000.0,7817400000.0
sh605388,均瑶健康,2021-04-06,18.21,18.5,18.0,18.26,18.18,4646521.0,84999949.0,1278200000.0,7851800000.0
sh605388,均瑶健康,2021-04-07,18.18,18.75,17.98,18.55,18.26,4594641.0,84299789.0,1298500000.0,7976500000.0
sh605388,均瑶健康,2021-04-08,18.43,18.87,18.24,18.46,18.55,4931130.0,91558209.0,1292200000.0,7937800000.0
sh605388,均瑶健康,2021-04-09,18.31,19.2,18.1,19.1,18.46,7254222.0,136017409.0,1337000000.0,8213000000.0
sh605388,均瑶健康,2021-04-12,19.37,19.78,18.49,18.55,19.1,7330929.0,139649766.0,1298500000.0,7976500000.0
sh605388,均瑶健康,2021-04-13,18.54,19.39,18.5,18.68,18.55,5433275.0,102677549.0,1307600000.0,8032400000.0
sh605388,均瑶健康,2021-04-14,18.46,20.55,17.84,20.55,18.68,11523320.0,226768081.0,1438500000.0,8836500000.0
sh605388,均瑶健康,2021-04-15,21.4,21.4,19.93,20.86,20.55,17299088.0,357866973.0,1460200000.0,8969800000.0
sh605388,均瑶健康,2021-04-16,20.86,22.45,20.44,20.48,20.86,17094488.0,363738061.0,1433600000.0,8806400000.0
sh605388,均瑶健康,2021-04-19,20.1,22.53,20.05,22.53,20.48,16874238.0,359151445.0,1577100000.0,9687900000.0
sh605388,均瑶健康,2021-04-20,23.18,24.66,22.66,23.51,22.53,22987475.0,540722618.0,1645700000.0,10109300000.0
sh605388,均瑶健康,2021-04-21,23.2,24.18,22.7,24.0,23.51,15914870.0,376386020.0,1680000000.0,10320000000.0
sh605388,均瑶健康,2021-04-22,24.85,25.45,23.61,24.09,24.0,14713510.0,359427261.0,1686300000.0,10358700000.0
sh605388,均瑶健康,2021-04-23,23.75,24.1,22.18,22.37,24.09,15958901.0,366936311.0,1565900000.0,9619100000.0
sh605388,均瑶健康,2021-04-26,22.2,23.4,22.06,22.6,22.37,10305697.0,233990508.0,1582000000.0,9718000000.0
sh605388,均瑶健康,2021-04-27,22.53,24.86,21.77,24.2,22.6,16594845.0,392379670.0,1694000000.0,10406000000.0
sh605388,均瑶健康,2021-04-28,24.2,25.0,23.68,24.3,24.2,11916244.0,288291718.0,1701000000.0,10449000000.0
sh605388,均瑶健康,2021-04-29,24.16,24.42,23.23,23.4,24.3,7861075.0,186824871.0,1638000000.0,10062000000.0
sh605388,均瑶健康,2021-04-30,23.8,25.74,23.8,24.79,23.4,18907927.0,477198079.0,1735300000.0,10659700000.0
sh605388,均瑶健康,2021-05-06,24.5,26.28,24.5,25.82,24.79,15838846.0,401919071.0,1807400000.0,11102600000.0
sh605388,均瑶健康,2021-05-07,25.7,28.4,25.2,28.4,25.82,17341166.0,474987940.0,1988000000.0,12212000000.0
sh605388,均瑶健康,2021-05-10,27.23,28.39,26.86,27.45,28.4,15284735.0,420381621.0,1921500000.0,11803500000.0
sh605388,均瑶健康,2021-05-11,27.8,30.1,27.27,29.69,27.45,17422518.0,500532366.0,2078300000.0,12766700000.0
sh605388,均瑶健康,2021-05-12,29.21,30.49,28.76,29.68,29.69,13181574.0,391809261.0,2077600000.0,12762400000.0
sh605388,均瑶健康,2021-05-13,29.61,29.61,28.4,29.17,29.68,9252834.0,268875501.0,2041900000.0,12543100000.0
sh605388,均瑶健康,2021-05-14,29.17,31.28,27.02,27.08,29.17,18343130.0,524531988.0,1895600000.0,11644400000.0
sh605388,均瑶健康,2021-05-17,26.0,27.17,25.53,26.58,27.08,15821088.0,414880422.0,1860600000.0,11429400000.0
sh605388,均瑶健康,2021-05-18,26.3,27.32,25.98,27.0,26.58,11318822.0,300378874.0,1890000000.0,11610000000.0
sh605388,均瑶健康,2021-05-19,26.9,26.9,25.61,26.24,27.0,9308860.0,243395082.0,1836800000.0,11283200000.0
sh605388,均瑶健康,2021-05-20,26.35,28.86,26.18,28.86,26.24,23249771.0,655439099.0,2020200000.0,12409800000.0
sh605388,均瑶健康,2021-05-21,29.21,29.21,25.97,26.16,28.86,24040421.0,649704414.0,1831200000.0,11248800000.0
sh605388,均瑶健康,2021-05-24,24.55,25.07,23.54,23.54,26.16,14579882.0,349817140.0,1647800000.0,10122200000.0
sh605388,均瑶健康,2021-05-25,23.0,24.21,22.8,23.35,23.54,10562600.0,247939762.0,1634500000.0,10040500000.0
sh605388,均瑶健康,2021-05-26,23.03,23.95,23.02,23.85,23.35,8338363.0,196632458.0,1669500000.0,10255500000.0
sh605388,均瑶健康,2021-05-27,23.8,25.37,23.65,24.5,23.85,10466164.0,257385831.0,1715000000.0,10535000000.0
sh605388,均瑶健康,2021-05-28,24.29,24.6,23.78,24.07,24.5,8336045.0,200220888.0,1684900000.0,10350100000.0
sh605388,XD均瑶健,2021-05-31,23.96,25.08,23.73,24.57,23.75,9395069.0,229629187.0,1719900000.0,10565100000.0
sh605388,均瑶健康,2021-06-01,25.17,25.38,24.21,24.45,24.57,9208696.0,227363521.0,1711500000.0,10513500000.0
sh605388,均瑶健康,2021-06-02,24.1,24.49,23.0,23.37,24.45,9123601.0,215790152.0,1635900000.0,10049100000.0
sh605388,均瑶健康,2021-06-03,23.12,25.0,23.12,24.34,23.37,11297680.0,274024480.0,1703800000.0,10466200000.0
sh605388,均瑶健康,2021-06-04,24.49,24.5,23.26,23.42,24.34,8249064.0,194531502.0,1639400000.0,10070600000.0
sh605388,均瑶健康,2021-06-07,23.09,23.72,22.7,23.58,23.42,5740647.0,133495413.0,1650600000.0,10139400000.0
sh605388,均瑶健康,2021-06-08,23.62,23.65,22.4,22.7,23.58,6348550.0,144777616.0,1589000000.0,9761000000.0
sh605388,均瑶健康,2021-06-09,22.55,22.74,22.02,22.22,22.7,4258430.0,95109856.0,1555400000.0,9554600000.0
sh605388,均瑶健康,2021-06-10,22.07,22.72,22.01,22.27,22.22,4207350.0,93988526.0,1558900000.0,9576100000.0
sh605388,均瑶健康,2021-06-11,22.26,24.5,22.1,24.5,22.27,16631679.0,397468407.0,1715000000.0,10535000000.0
sh605388,均瑶健康,2021-06-15,24.35,24.37,22.9,23.7,24.5,10224784.0,239885897.0,1659000000.0,10191000000.0
sh605388,均瑶健康,2021-06-16,23.64,25.95,22.6,24.99,23.7,16022570.0,388416611.0,1749300000.0,10745700000.0
sh605388,均瑶健康,2021-06-17,24.5,25.83,24.4,24.9,24.99,11280083.0,280999465.0,1743000000.0,10707000000.0
sh605388,均瑶健康,2021-06-18,24.6,25.8,24.27,24.9,24.9,11043609.0,276683632.0,1743000000.0,10707000000.0
sh605388,均瑶健康,2021-06-21,24.4,24.6,23.82,24.22,24.9,8799022.0,212190538.0,1695400000.0,10414600000.0
sh605388,均瑶健康,2021-06-22,24.16,26.15,23.93,25.67,24.22,14071308.0,356786152.0,1796900000.0,11038100000.0
sh605388,均瑶健康,2021-06-23,25.44,25.6,24.3,24.72,25.67,9989459.0,246941674.0,1730400000.0,10629600000.0
sh605388,均瑶健康,2021-06-24,24.68,24.7,23.18,23.2,24.72,8934901.0,210266238.0,1624000000.0,9976000000.0
sh605388,均瑶健康,2021-06-25,23.17,23.49,22.6,22.97,23.2,5946150.0,137046440.0,1607900000.0,9877100000.0
sh605388,均瑶健康,2021-06-28,22.6,23.6,22.6,23.22,22.97,4970950.0,115284208.0,1625400000.0,9984600000.0
sh605388,均瑶健康,2021-06-29,23.22,23.98,22.71,23.59,23.22,6769729.0,158029969.0,1651300000.0,10143700000.0
sh605388,均瑶健康,2021-06-30,23.32,23.35,22.65,22.76,23.59,5218452.0,119542569.0,1593200000.0,9786800000.0
sh605388,均瑶健康,2021-07-01,22.76,23.89,22.72,23.08,22.76,7620368.0,177578183.0,1615600000.0,9924400000.0
sh605388,均瑶健康,2021-07-02,22.96,23.8,22.72,23.03,23.08,4249035.0,98475523.0,1612100000.0,9902900000.0
sh605388,均瑶健康,2021-07-05,22.71,22.98,21.4,21.49,23.03,8066005.0,177078405.0,1504300000.0,9240700000.0
sh605388,均瑶健康,2021-07-06,21.49,21.63,20.48,20.84,21.49,6599505.0,137706843.0,1458800000.0,8961200000.0
sh605388,均瑶健康,2021-07-07,20.61,21.35,20.61,21.01,20.84,4063500.0,85577763.0,1470700000.0,9034300000.0
sh605388,均瑶健康,2021-07-08,20.7,21.06,20.46,20.59,21.01,4133541.0,85468202.0,1441300000.0,8853700000.0
sh605388,均瑶健康,2021-07-09,20.75,20.78,20.21,20.53,20.59,3085000.0,62955531.0,1437100000.0,8827900000.0
sh605388,均瑶健康,2021-07-12,20.48,21.19,20.06,20.99,20.53,3752400.0,78151645.0,1469300000.0,9025700000.0
sh605388,均瑶健康,2021-07-13,20.9,21.45,20.84,21.03,20.99,3764317.0,79245503.0,1472100000.0,9042900000.0
sh605388,均瑶健康,2021-07-14,20.85,21.25,20.63,20.95,21.03,2736000.0,57315651.0,1466500000.0,9008500000.0
sh605388,均瑶健康,2021-07-15,20.9,21.0,20.2,20.6,20.95,2915687.0,60065457.0,1442000000.0,8858000000.0
sh605388,均瑶健康,2021-07-16,20.7,20.7,19.98,20.01,20.6,4332100.0,87466490.0,1400700000.0,8604300000.0
sh605388,均瑶健康,2021-07-19,20.01,20.01,19.26,19.42,20.01,3473709.0,67577330.0,1359400000.0,8350600000.0
sh605388,均瑶健康,2021-07-20,19.35,19.7,19.11,19.64,19.42,2622200.0,50973975.0,1374800000.0,8445200000.0
sh605388,均瑶健康,2021-07-21,19.6,20.2,19.6,19.85,19.64,2537900.0,50455915.0,1389500000.0,8535500000.0
sh605388,均瑶健康,2021-07-22,19.77,20.05,19.3,19.36,19.85,2763014.0,53897545.0,1355200000.0,8324800000.0
sh605388,均瑶健康,2021-07-23,19.36,19.5,18.58,18.7,19.36,3554100.0,67060348.0,1309000000.0,8041000000.0
sh605388,均瑶健康,2021-07-26,18.46,18.7,17.71,18.2,18.7,3187500.0,57644218.0,1274000000.0,7826000000.0
sh605388,均瑶健康,2021-07-27,17.96,18.42,17.56,17.6,18.2,2536200.0,45677307.0,1232000000.0,7568000000.0
sh605388,均瑶健康,2021-07-28,17.44,17.76,16.92,17.51,17.6,2526800.0,43640743.0,1225700000.0,7529300000.0
sh605388,均瑶健康,2021-07-29,17.65,18.15,17.62,17.98,17.51,3840800.0,68884748.0,1258600000.0,7731400000.0
sh605388,均瑶健康,2021-07-30,17.8,17.8,16.95,17.4,17.98,4468887.0,77109170.0,1218000000.0,7482000000.0
sh605388,均瑶健康,2021-08-02,17.09,17.89,16.83,17.87,17.4,4130700.0,72514287.0,1250900000.0,7684100000.0
sh605388,均瑶健康,2021-08-03,17.89,19.66,17.65,19.1,17.87,9444900.0,177005944.0,1337000000.0,8213000000.0
sh605388,均瑶健康,2021-08-04,18.58,18.98,18.31,18.75,19.1,6752900.0,125692833.0,1312500000.0,8062500000.0
sh605388,均瑶健康,2021-08-05,18.6,19.45,18.45,18.84,18.75,4517122.0,85691688.0,1318800000.0,8101200000.0
sh605388,均瑶健康,2021-08-06,18.85,18.85,17.9,17.99,18.84,4182822.0,75841493.0,1259300000.0,7735700000.0
sh605388,均瑶健康,2021-08-09,17.9,19.1,17.71,18.85,17.99,6418456.0,119439808.0,1319500000.0,8105500000.0
sh605388,均瑶健康,2021-08-10,18.97,19.66,18.6,19.39,18.85,6553944.0,125752351.0,1357300000.0,8337700000.0
sh605388,均瑶健康,2021-08-11,19.39,19.97,19.02,19.85,19.39,7690244.0,150736760.0,1389500000.0,8535500000.0
sh605388,均瑶健康,2021-08-12,19.75,19.78,19.12,19.15,19.85,5441744.0,105272568.0,1340500000.0,8234500000.0
sh605388,均瑶健康,2021-08-13,19.15,19.19,18.74,18.82,19.15,2829522.0,53498888.0,1317400000.0,8092600000.0
sh605388,均瑶健康,2021-08-16,18.8,19.7,18.8,19.19,18.82,3876644.0,74829422.0,1343300000.0,8251700000.0
sh605388,均瑶健康,2021-08-17,18.88,19.2,18.11,18.21,19.19,3436809.0,64227370.0,1274700000.0,7830300000.0
sh605388,均瑶健康,2021-08-18,18.06,18.23,17.79,18.05,18.21,4351037.0,78461788.0,2542492008.15,7761500000.0
sh605388,均瑶健康,2021-08-19,18.22,18.35,17.82,17.87,18.05,3708212.0,66838823.0,2517137517.21,7684100000.0
sh605388,均瑶健康,2021-08-20,17.87,17.87,17.2,17.43,17.87,2506900.0,43712792.0,2455159872.69,7494900000.0
sh605388,均瑶健康,2021-08-23,17.45,17.81,17.45,17.6,17.43,3348522.0,59085111.0,2479105780.8,7568000000.0
sh605388,均瑶健康,2021-08-24,17.55,17.73,17.43,17.52,17.6,3902500.0,68597528.0,2467837118.16,7533600000.0
sh605388,均瑶健康,2021-08-25,17.52,17.88,17.38,17.59,17.52,3821100.0,67254392.0,2477697197.97,7563700000.0
sh605388,均瑶健康,2021-08-26,17.59,17.63,17.09,17.21,17.59,3095422.0,53246766.0,2424171050.43,7400300000.0
sh605388,均瑶健康,2021-08-27,17.34,17.34,16.94,17.02,17.21,2189122.0,37270790.0,2397407976.66,7318600000.0
sh605388,均瑶健康,2021-08-30,16.8,17.08,16.35,16.66,17.02,3339500.0,55736226.0,2346698994.78,7163800000.0
sh605388,均瑶健康,2021-08-31,16.58,16.77,16.23,16.36,16.66,2895700.0,47759276.0,2304441509.88,7034800000.0
sh605388,均瑶健康,2021-09-01,16.36,17.1,16.15,16.81,16.36,4190400.0,69836828.0,2367827737.23,7228300000.0
sh605388,均瑶健康,2021-09-02,16.83,16.84,16.51,16.56,16.81,2710500.0,45007430.0,2332613166.48,7120800000.0
sh605388,均瑶健康,2021-09-03,16.5,17.19,16.38,17.06,16.56,4613500.0,78192029.0,2403042307.98,7335800000.0
sh605388,均瑶健康,2021-09-06,17.09,17.48,16.86,17.25,17.06,4457491.0,76763968.0,2429805381.75,7417500000.0
sh605388,均瑶健康,2021-09-07,17.11,17.29,17.03,17.2,17.25,2658889.0,45660146.0,2422762467.6,7396000000.0
sh605388,均瑶健康,2021-09-08,17.16,17.39,17.11,17.27,17.2,2757719.0,47511250.0,2432622547.4100003,7426100000.0
sh605388,均瑶健康,2021-09-09,17.26,17.44,17.02,17.14,17.27,3040411.0,52347331.0,2414310970.62,7370200000.0
sh605388,均瑶健康,2021-09-10,17.14,17.25,16.92,16.99,17.14,3107158.0,52944255.0,2393182228.17,7305700000.0
sh605388,均瑶健康,2021-09-13,16.99,17.08,16.87,17.05,16.99,1793700.0,30465810.0,2401633725.15,7331500000.0
sh605388,均瑶健康,2021-09-14,17.0,17.4,16.75,16.78,17.05,3529519.0,60296984.0,2363601988.74,7215400000.0
sh605388,均瑶健康,2021-09-15,16.64,16.84,16.46,16.67,16.78,2180388.0,36202236.0,2348107577.61,7168100000.0
sh605388,均瑶健康,2021-09-16,16.7,17.04,16.63,16.78,16.67,2705096.0,45526663.0,2363601988.74,7215400000.0
sh605388,均瑶健康,2021-09-17,16.76,16.76,16.33,16.57,16.78,3158762.0,52250460.0,2334021749.31,7125100000.0
sh605388,均瑶健康,2021-09-22,16.45,16.55,16.34,16.43,16.57,1419015.0,23288058.0,2314301589.69,7064900000.0
sh605388,均瑶健康,2021-09-23,16.43,16.78,16.43,16.63,16.43,2052544.0,34190838.0,2342473246.29,7150900000.0
sh605388,均瑶健康,2021-09-24,16.65,17.87,16.62,17.25,16.63,8245279.0,143364300.0,2429805381.75,7417500000.0
sh605388,均瑶健康,2021-09-27,17.28,18.2,17.03,17.92,17.25,8216531.0,146042559.0,2524180431.36,7705600000.0
sh605388,均瑶健康,2021-09-28,17.92,17.92,17.07,17.59,17.92,4195069.0,73021863.0,2477697197.97,7563700000.0
sh605388,均瑶健康,2021-09-29,17.28,17.88,17.09,17.19,17.59,3731550.0,64841428.0,2421353884.77,7391700000.0
sh605388,均瑶健康,2021-09-30,17.15,17.37,17.11,17.33,17.19,2252483.0,38934073.0,2441074044.39,7451900000.0
sh605388,均瑶健康,2021-10-08,17.33,17.85,17.2,17.85,17.33,4883100.0,86173642.0,2514320351.55,7675500000.0
sh605388,均瑶健康,2021-10-11,17.79,18.33,17.58,17.62,17.85,4674574.0,83739544.0,2481922946.46,7576600000.0
sh605388,均瑶健康,2021-10-12,17.78,18.8,17.36,18.75,17.62,11462770.0,209574745.0,2641092806.25,8062500000.0
sh605388,均瑶健康,2021-10-13,18.68,19.85,18.35,19.28,18.75,13838370.0,267346546.0,2715747696.24,8290400000.0
sh605388,均瑶健康,2021-10-14,19.0,19.21,18.65,19.08,19.28,7232312.0,136520282.0,2687576039.64,8204400000.0
sh605388,均瑶健康,2021-10-15,18.9,19.35,18.31,18.37,19.08,5390438.0,100809761.0,2587566658.71,7899100000.0
sh605388,均瑶健康,2021-10-18,18.22,18.66,17.82,18.58,18.37,4727326.0,86464434.0,2617146898.1400003,7989400000.0
sh605388,均瑶健康,2021-10-19,18.59,18.67,18.3,18.35,18.58,3095201.0,56990291.0,2584749493.05,7890500000.0
sh605388,均瑶健康,2021-10-20,18.28,18.34,17.9,18.14,18.35,3576100.0,64695886.0,2555169253.62,7800200000.0
sh605388,均瑶健康,2021-10-21,18.15,19.15,18.01,18.98,18.14,6598453.0,122832988.0,2673490211.34,8161400000.0
sh605388,均瑶健康,2021-10-22,18.76,19.36,18.51,19.14,18.98,7024553.0,133101014.0,2696027536.62,8230200000.0
sh605388,均瑶健康,2021-10-25,19.29,19.29,18.34,18.45,19.14,5351715.0,100408865.0,2598835321.35,7933500000.0
sh605388,均瑶健康,2021-10-26,18.42,18.8,18.1,18.58,18.45,4027825.0,74695743.0,2617146898.1400003,7989400000.0
sh605388,均瑶健康,2021-10-27,18.38,18.47,17.05,17.17,18.58,6755146.000000001,119360107.0,2418536719.11,7383100000.0
sh605388,均瑶健康,2021-10-28,16.5,17.17,16.4,16.89,17.17,3526087.0,59240684.0,2379096399.87,7262700000.0
sh605388,均瑶健康,2021-10-29,16.9,17.78,16.88,17.58,16.89,4114639.0,71787353.0,2476288615.14,7559400000.0
sh605388,均瑶健康,2021-11-01,17.69,17.95,17.16,17.59,17.58,3533371.0,62138561.0,2477697197.97,7563700000.0
sh605388,均瑶健康,2021-11-02,17.54,18.33,17.51,17.68,17.59,3903287.0,69741240.0,2490374443.44,7602400000.0
sh605388,均瑶健康,2021-11-03,17.68,18.25,17.45,17.71,17.68,2611530.0,46411038.0,2494600191.93,7615300000.0
sh605388,均瑶健康,2021-11-04,17.7,18.8,17.7,18.5,17.71,5901613.0,108346660.0,2605878235.5,7955000000.0
sh605388,均瑶健康,2021-11-05,18.49,18.72,18.26,18.3,18.5,3985000.0,73749734.0,2577706578.9,7869000000.0
sh605388,均瑶健康,2021-11-08,18.18,18.24,17.87,18.03,18.3,2729102.0,49166600.0,2539674842.49,7752900000.0
sh605388,均瑶健康,2021-11-09,18.18,19.21,18.15,18.99,18.03,8889509.0,167975934.0,2674898794.17,8165700000.0
sh605388,均瑶健康,2021-11-10,19.06,19.15,18.6,18.75,18.99,3676322.0,68956315.0,2641092806.25,8062500000.0
sh605388,均瑶健康,2021-11-11,18.75,18.89,18.61,18.75,18.75,3150698.0,58987607.0,2641092806.25,8062500000.0
sh605388,均瑶健康,2021-11-12,18.76,18.87,18.25,18.63,18.75,3700700.0,68743774.0,2624189812.2900004,8010900000.0
sh605388,均瑶健康,2021-11-15,18.76,19.06,18.54,18.72,18.63,3669000.0,69008903.0,2636867057.76,8049600000.0
sh605388,均瑶健康,2021-11-16,18.81,19.19,18.38,18.42,18.72,3891530.0,72807411.0,2594609572.86,7920600000.0
sh605388,均瑶健康,2021-11-17,18.4,18.49,17.92,17.98,18.42,4892800.0,88560610.0,2532631928.34,7731400000.0
sh605388,均瑶健康,2021-11-18,17.98,18.08,17.56,17.61,17.98,3499500.0,62227514.0,2480514363.63,7572300000.0
sh605388,均瑶健康,2021-11-19,17.65,17.85,17.4,17.52,17.61,3805561.0,66863058.0,2467837118.16,7533600000.0
sh605388,均瑶健康,2021-11-22,17.53,17.82,17.47,17.62,17.52,4279776.0,75428552.0,2481922946.46,7576600000.0
sh605388,均瑶健康,2021-11-23,17.62,17.68,17.29,17.32,17.62,3650226.0,63387514.0,2439665461.56,7447600000.0
sh605388,均瑶健康,2021-11-24,17.35,17.62,17.35,17.56,17.32,3299330.0,57754861.0,2473471449.48,7550800000.0
sh605388,均瑶健康,2021-11-25,17.48,17.78,17.44,17.68,17.56,3675893.0,64776545.0,2490374443.44,7602400000.0
sh605388,均瑶健康,2021-11-26,17.62,17.62,17.19,17.34,17.68,3387107.0,58671658.0,2442482627.2200003,7456200000.0
sh605388,均瑶健康,2021-11-29,17.15,17.28,17.02,17.15,17.34,1883862.0,32356239.0,2415719553.45,7374500000.0
sh605388,均瑶健康,2021-11-30,17.2,17.67,17.2,17.59,17.15,3701526.0,64774428.0,2477697197.97,7563700000.0
sh605388,均瑶健康,2021-12-01,17.59,17.75,17.4,17.6,17.59,3055693.0,53595653.0,2479105780.8,7568000000.0
sh605388,均瑶健康,2021-12-02,17.54,17.9,17.46,17.51,17.6,3765726.0,66606048.0,2466428535.33,7529300000.0
sh605388,均瑶健康,2021-12-03,17.48,17.7,17.36,17.5,17.51,2315200.0,40498106.0,2465019952.5,7525000000.0
sh605388,均瑶健康,2021-12-06,17.55,17.58,17.06,17.08,17.5,3036734.0,52181966.0,2405859473.64,7344400000.0
sh605388,均瑶健康,2021-12-07,17.13,17.45,17.13,17.27,17.08,2377239.0,41064291.0,2432622547.4100003,7426100000.0
sh605388,均瑶健康,2021-12-08,17.4,17.63,17.17,17.52,17.27,3114200.0,54315721.0,2467837118.16,7533600000.0
sh605388,均瑶健康,2021-12-09,17.51,18.07,17.5,17.94,17.52,6255711.0,111772307.0,2526997597.02,7714200000.0
sh605388,均瑶健康,2021-12-10,17.83,18.24,17.79,17.95,17.94,4211608.0,75696365.0,2528406179.85,7718500000.0
sh605388,均瑶健康,2021-12-13,17.94,18.11,17.71,17.97,17.95,3257000.0,58507819.0,2531223345.51,7727100000.0
sh605388,均瑶健康,2021-12-14,17.98,18.33,17.8,18.22,17.97,4634310.0,84074906.0,2566437916.2599998,7834600000.0
sh605388,均瑶健康,2021-12-15,18.23,18.23,17.82,17.86,18.22,3200808.0,57540952.0,2515728934.38,7679800000.0
sh605388,均瑶健康,2021-12-16,17.88,18.08,17.6,17.8,17.86,2612600.0,46555991.0,2507277437.4,7654000000.0
sh605388,均瑶健康,2021-12-17,17.72,17.78,17.43,17.44,17.8,2734118.0,48029678.0,2456568455.52,7499200000.0
sh605388,均瑶健康,2021-12-20,17.35,17.67,17.27,17.39,17.44,2877703.0,50138174.0,2449525541.37,7477700000.0
sh605388,均瑶健康,2021-12-21,17.4,17.51,17.21,17.47,17.39,1973004.0,34382865.0,2460794204.01,7512100000.0
sh605388,均瑶健康,2021-12-22,17.58,17.58,17.24,17.34,17.47,2566100.0,44616630.0,2442482627.2200003,7456200000.0
sh605388,均瑶健康,2021-12-23,17.34,17.57,17.29,17.41,17.34,2210000.0,38463733.0,2452342707.0299997,7486300000.0
sh605388,均瑶健康,2021-12-24,17.38,17.57,17.25,17.55,17.41,3577801.0,62469821.0,2472062866.65,7546500000.0
sh605388,均瑶健康,2021-12-27,17.64,18.62,17.48,18.56,17.55,11445017.0,207109326.0,2614329732.48,7980800000.0
sh605388,均瑶健康,2021-12-28,18.54,18.9,18.32,18.43,18.56,7864001.0,145670002.0,2596018155.69,7924900000.0
sh605388,均瑶健康,2021-12-29,18.24,18.4,17.17,17.44,18.43,12136000.0,213418715.0,2456568455.52,7499200000.0
sh605388,均瑶健康,2021-12-30,17.4,17.95,17.35,17.61,17.44,6882100.0,121496667.0,2480514363.6299996,7572300000.0
sh605388,均瑶健康,2021-12-31,17.7,18.29,17.53,18.19,17.61,6977415.0,126235103.0,2562212167.77,7821700000.0
sh605388,均瑶健康,2022-01-04,18.19,18.5,17.99,18.32,18.19,7340386.0,134421232.0,2580523744.56,7877600000.0
sh605388,均瑶健康,2022-01-05,18.42,20.15,18.32,20.15,18.32,16789852.0,329521094.0,2838294402.4500003,8664500000.0
sh605388,均瑶健康,2022-01-06,22.17,22.17,22.17,22.17,20.15,5313900.0,117809163.0,3122828134.11,9533100000.0
sh605388,均瑶健康,2022-01-07,24.39,24.39,21.55,22.0,22.17,51124656.0,1180865353.0,3098882226.0,9460000000.0
sh605388,均瑶健康,2022-01-10,20.0,21.0,19.8,20.2,22.0,30773349.0,623705201.0,2845337316.6,8686000000.0
sh605388,均瑶健康,2022-01-11,20.0,22.0,19.8,20.75,20.2,24343093.0,505896016.0,2922809372.25,8922500000.0
sh605388,均瑶健康,2022-01-12,20.36,22.0,20.01,21.58,20.75,22827345.0,485006051.0,3039721747.1400003,9279400000.0
sh605388,均瑶健康,2022-01-13,21.21,21.7,20.77,21.41,21.58,17929302.0,379926916.0,3015775839.0299997,9206300000.0
sh605388,均瑶健康,2022-01-14,21.21,22.55,21.02,22.1,21.41,20213752.0,441711196.0,3112968054.3,9503000000.0
