数据由邢不行整理
股票代码,股票名称,交易日期,开盘价,最高价,最低价,收盘价,前收盘价,成交量,成交额,流通市值,总市值
sh603697,N有友,2019-05-08,11.33,11.33,11.33,11.33,7.87,96633.0,1094852.0,900735000.0,3450494850.0
sh603697,有友食品,2019-05-09,12.46,12.46,12.46,12.46,11.33,41212.0,513502.0,990570000.0,3794630700.0
sh603697,有友食品,2019-05-10,13.71,13.71,13.71,13.71,12.46,67471.0,925027.0,1089945000.0,4175311950.0
sh603697,有友食品,2019-05-13,15.08,15.08,15.08,15.08,13.71,185903.0,2803417.0,1198860000.0,4592538600.0
sh603697,有友食品,2019-05-14,16.59,16.59,16.59,16.59,15.08,339698.0,5635590.0,1318905000.0,5052401550.0
sh603697,有友食品,2019-05-15,18.25,18.25,18.25,18.25,16.59,434098.0,7922289.0,1450875000.0,5557946250.0
sh603697,有友食品,2019-05-16,20.08,20.08,20.08,20.08,18.25,4086171.0,82050314.0,1596360000.0,6115263600.0
sh603697,有友食品,2019-05-17,22.09,22.09,22.08,22.09,20.08,18290794.0,404043473.0,1756155000.0,6727399050.0
sh603697,有友食品,2019-05-20,22.3,22.33,19.92,20.09,22.09,45644319.0,950838090.0,1597155000.0,6118309050.0
sh603697,有友食品,2019-05-21,20.3,20.97,19.43,20.03,20.09,33357048.0,675298605.0,1592385000.0,6100036350.0
sh603697,有友食品,2019-05-22,19.5,19.85,18.62,19.3,20.03,35691844.0,685171079.0,1534350000.0,5877718500.0
sh603697,有友食品,2019-05-23,19.31,19.68,18.63,18.76,19.3,27895779.0,535494850.0,1491420000.0,5713264200.0
sh603697,有友食品,2019-05-24,18.23,19.19,17.88,18.73,18.76,22619170.0,420224396.0,1489035000.0,5704127850.0
sh603697,有友食品,2019-05-27,18.43,18.98,18.1,18.8,18.73,20925997.0,387989071.0,1494600000.0,5725446000.0
sh603697,有友食品,2019-05-28,18.55,19.16,18.23,18.28,18.8,21033604.0,393040151.0,1453260000.0,5567082600.0
sh603697,有友食品,2019-05-29,18.05,19.49,17.93,18.78,18.28,26240234.0,494938978.0,1493010000.0,5719355100.0
sh603697,有友食品,2019-05-30,18.68,20.66,18.31,20.66,18.78,34145264.0,667861615.0,1642470000.0,6291899700.0
sh603697,有友食品,2019-05-31,21.17,22.73,21.03,22.73,20.66,34930689.0,768481636.0,1807035000.0,6922307850.0
sh603697,有友食品,2019-06-03,22.93,23.18,20.46,20.46,22.73,38450086.0,821701945.0,1626570000.0,6230990700.0
sh603697,有友食品,2019-06-04,19.45,19.64,18.41,18.82,20.46,30549338.0,574783926.0,1496190000.0,5731536900.0
sh603697,有友食品,2019-06-05,18.8,18.94,18.08,18.31,18.82,18460804.0,340828134.0,1455645000.0,5576218950.0
sh603697,有友食品,2019-06-06,18.19,18.8,17.37,18.32,18.31,21861155.0,399648132.0,1456440000.0,5579264400.0
sh603697,有友食品,2019-06-10,18.13,19.37,17.77,19.2,18.32,22890879.0,428274265.0,1526400000.0,5847264000.0
sh603697,有友食品,2019-06-11,19.1,20.73,18.9,20.14,19.2,28585898.0,562742621.0,1601130000.0,6133536300.0
sh603697,有友食品,2019-06-12,19.77,20.19,18.81,18.81,20.14,26643680.0,518421249.0,1495395000.0,5728491450.0
sh603697,有友食品,2019-06-13,18.49,19.15,18.21,19.0,18.81,15398952.0,287926544.0,1510500000.0,5786355000.0
sh603697,有友食品,2019-06-14,18.9,18.9,17.79,17.8,19.0,14136801.0,258432747.0,1415100000.0,5420901000.0
sh603697,有友食品,2019-06-17,17.36,17.72,17.25,17.45,17.8,8477613.0,148071803.0,1387275000.0,5314310250.0
sh603697,有友食品,2019-06-18,17.5,18.15,17.47,17.7,17.45,10465637.0,186247735.0,1407150000.0,5390446500.0
sh603697,有友食品,2019-06-19,18.19,18.28,17.9,17.97,17.7,12735556.0,230091544.0,1428615000.0,5472673650.0
sh603697,有友食品,2019-06-20,17.82,18.18,17.63,17.98,17.97,11110419.0,199306435.0,1429410000.0,5475719100.0
sh603697,有友食品,2019-06-21,17.95,18.58,17.89,18.21,17.98,13315193.0,242482381.0,1447695000.0,5545764450.0
sh603697,有友食品,2019-06-24,18.21,18.25,17.55,17.72,18.21,11574171.0,205839698.0,1408740000.0,5396537400.0
sh603697,有友食品,2019-06-25,17.67,18.19,17.51,17.97,17.72,11932179.0,213073458.0,1428615000.0,5472673650.0
sh603697,有友食品,2019-06-26,17.8,19.11,17.71,18.64,17.97,21876566.0,406140334.0,1481880000.0,5676718800.0
sh603697,有友食品,2019-06-27,18.48,19.06,18.11,18.99,18.64,22252230.0,413508135.0,1509705000.0,5783309550.0
sh603697,有友食品,2019-06-28,18.77,19.87,18.71,18.92,18.99,23679613.0,455823757.0,1504140000.0,5761991400.0
sh603697,有友食品,2019-07-01,19.17,20.81,18.89,20.38,18.92,32304641.0,648891317.0,1620210000.0,6206627100.0
sh603697,有友食品,2019-07-02,19.91,22.35,19.83,21.2,20.38,34745390.0,718631484.0,1685400000.0,6456354000.0
sh603697,有友食品,2019-07-03,20.65,23.12,20.51,21.3,21.2,36876302.0,802216468.0,1693350000.0,6486808500.0
sh603697,有友食品,2019-07-04,20.98,20.98,19.57,19.99,21.3,27205895.0,548196922.0,1589205000.0,6087854550.0
sh603697,有友食品,2019-07-05,19.91,20.54,19.62,20.4,19.99,18834794.0,378659579.0,1621800000.0,6212718000.0
sh603697,有友食品,2019-07-08,20.1,20.99,19.72,20.12,20.4,21387519.0,435016233.0,1599540000.0,6127445400.0
sh603697,有友食品,2019-07-09,19.46,19.46,18.45,18.5,20.12,19618040.0,368717343.0,1470750000.0,5634082500.0
sh603697,有友食品,2019-07-10,18.52,18.65,17.94,18.12,18.5,11649331.0,212872631.0,1440540000.0,5518355400.0
sh603697,有友食品,2019-07-11,18.2,18.38,17.8,18.31,18.12,10257763.0,185987591.0,1455645000.0,5576218950.0
sh603697,有友食品,2019-07-12,18.23,18.55,18.14,18.39,18.31,8766991.0,161062951.0,1462005000.0,5600582550.0
sh603697,有友食品,2019-07-15,18.2,18.83,17.94,18.7,18.39,9172778.0,169341240.0,1486650000.0,5694991500.0
sh603697,有友食品,2019-07-16,18.6,18.87,18.43,18.62,18.7,7772976.0,144875412.0,1480290000.0,5670627900.0
sh603697,有友食品,2019-07-17,18.5,18.54,18.13,18.25,18.62,8066774.0,147715626.0,1450875000.0,5557946250.0
sh603697,有友食品,2019-07-18,18.06,18.24,17.92,17.95,18.25,7501501.0,135264632.0,1427025000.0,5466582750.0
sh603697,有友食品,2019-07-19,17.96,18.14,17.77,17.8,17.95,5989077.0,107598965.0,1415100000.0,5420901000.0
sh603697,有友食品,2019-07-22,17.71,17.75,16.02,16.07,17.8,12343139.0,203974557.0,1277565000.0,4894038150.0
sh603697,有友食品,2019-07-23,16.15,16.38,16.01,16.36,16.07,5381751.0,87283134.0,1300620000.0,4982356200.0
sh603697,有友食品,2019-07-24,16.36,16.67,16.25,16.47,16.36,5817989.0,95913858.0,1309365000.0,5015856150.0
sh603697,有友食品,2019-07-25,16.36,18.12,16.21,17.66,16.47,15520954.0,268459278.0,1403970000.0,5378264700.0
sh603697,有友食品,2019-07-26,17.35,17.7,17.05,17.05,17.66,9034088.0,156142579.0,1355475000.0,5192492250.0
sh603697,有友食品,2019-07-29,16.99,17.22,16.84,17.03,17.05,4419898.0,75297064.0,1353885000.0,5186401350.0
sh603697,有友食品,2019-07-30,16.91,17.13,16.76,16.79,17.03,5064469.0,85835523.0,1334805000.0,5113310550.0
sh603697,有友食品,2019-07-31,16.7,16.78,16.31,16.43,16.79,5327884.0,87858337.0,1306185000.0,5003674350.0
sh603697,有友食品,2019-08-01,16.36,16.69,16.33,16.59,16.43,4348969.0,72014022.0,1318905000.0,5052401550.0
sh603697,有友食品,2019-08-02,16.27,16.84,16.04,16.73,16.59,7470244.0,122851486.0,1330035000.0,5095037850.0
sh603697,有友食品,2019-08-05,16.64,17.26,16.6,16.64,16.73,7671755.0,129567595.0,1322880000.0,5067628800.0
sh603697,有友食品,2019-08-06,16.2,17.08,16.04,16.97,16.64,10387329.0,172237241.0,1349115000.0,5168128650.0
sh603697,有友食品,2019-08-07,17.0,17.08,16.45,16.45,16.97,6499136.0,108682790.0,1307775000.0,5009765250.0
sh603697,有友食品,2019-08-08,16.53,16.56,16.27,16.42,16.45,4546141.0,74603385.0,1305390000.0,5000628900.0
sh603697,有友食品,2019-08-09,16.43,16.69,16.18,16.19,16.42,5078211.0,83467956.0,1287105000.0,4930583550.0
sh603697,有友食品,2019-08-12,16.19,16.48,16.02,16.45,16.19,4089883.0,66741791.0,1307775000.0,5009765250.0
sh603697,有友食品,2019-08-13,16.32,16.36,16.18,16.25,16.45,3262831.0,53035316.0,1291875000.0,4948856250.0
sh603697,有友食品,2019-08-14,16.46,16.75,16.29,16.65,16.25,7107318.0,117351559.0,1323675000.0,5070674250.0
sh603697,有友食品,2019-08-15,16.25,17.28,16.25,17.2,16.65,10530112.0,177398870.0,1367400000.0,5238174000.0
sh603697,有友食品,2019-08-16,16.56,16.83,16.46,16.51,17.2,13483826.0,224068915.0,1312545000.0,5028037950.0
sh603697,有友食品,2019-08-19,16.37,16.57,16.08,16.51,16.51,11957721.0,195042420.0,1312545000.0,5028037950.0
sh603697,有友食品,2019-08-20,16.49,16.51,16.25,16.39,16.51,7867991.0,128916606.0,1303005000.0,4991492550.0
sh603697,有友食品,2019-08-21,16.37,16.37,16.1,16.14,16.39,6994987.0,113234077.0,1283130000.0,4915356300.0
sh603697,有友食品,2019-08-22,16.17,16.23,16.07,16.18,16.14,4425536.0,71455081.0,1286310000.0,4927538100.0
sh603697,有友食品,2019-08-23,16.2,16.45,16.07,16.26,16.18,6097605.0,99184941.0,1292670000.0,4951901700.0
sh603697,有友食品,2019-08-26,15.86,15.93,15.5,15.57,16.26,8108873.0,127080203.0,1237815000.0,4741765650.0
sh603697,有友食品,2019-08-27,15.7,15.85,15.6,15.76,15.57,6549696.0,102969508.0,1252920000.0,4799629200.0
sh603697,有友食品,2019-08-28,15.72,16.05,15.72,16.03,15.76,7572101.0,120266947.0,1274385000.0,4881856350.0
sh603697,有友食品,2019-08-29,16.02,16.02,15.62,15.63,16.03,6203123.0,97698393.0,1242585000.0,4760038350.0
sh603697,有友食品,2019-08-30,15.74,15.74,15.22,15.25,15.63,6810135.0,105578702.0,1212375000.0,4644311250.0
sh603697,有友食品,2019-09-02,15.21,15.43,15.13,15.38,15.25,4718423.0,72351529.0,1222710000.0,4683902100.0
sh603697,有友食品,2019-09-03,15.4,15.64,15.34,15.54,15.38,4546699.0,70618581.0,1235430000.0,4732629300.0
sh603697,有友食品,2019-09-04,15.55,15.65,15.43,15.59,15.54,4930970.0,76658874.0,1239405000.0,4747856550.0
sh603697,有友食品,2019-09-05,15.65,15.9,15.55,15.65,15.59,7337526.0,115398866.0,1244175000.0,4766129250.0
sh603697,有友食品,2019-09-06,15.75,15.75,15.48,15.57,15.65,5467041.0,85035719.0,1237815000.0,4741765650.0
sh603697,有友食品,2019-09-09,15.66,15.88,15.59,15.85,15.57,6944118.0,109200380.0,1260075000.0,4827038250.0
sh603697,有友食品,2019-09-10,15.82,16.09,15.69,16.04,15.85,7716061.0,122970686.0,1275180000.0,4884901800.0
sh603697,有友食品,2019-09-11,16.08,16.31,15.91,15.92,16.04,8148583.0,131320919.0,1265640000.0,4848356400.0
sh603697,有友食品,2019-09-12,16.0,16.48,15.73,16.45,15.92,13619156.0,220425605.0,1307775000.0,5009765250.0
sh603697,有友食品,2019-09-16,16.45,16.45,16.22,16.32,16.45,8414160.0,137396171.0,1297440000.0,4970174400.0
sh603697,有友食品,2019-09-17,16.2,16.22,15.7,15.78,16.32,7401367.0,117890546.0,1254510000.0,4805720100.0
sh603697,有友食品,2019-09-18,15.78,16.96,15.7,16.64,15.78,18485196.0,305482530.0,1322880000.0,5067628800.0
sh603697,有友食品,2019-09-19,16.65,17.1,16.4,17.03,16.64,16520616.0,277685106.0,1353885000.0,5186401350.0
sh603697,有友食品,2019-09-20,17.0,17.66,16.65,16.94,17.03,16062078.0,275960916.0,1346730000.0,5158992300.0
sh603697,有友食品,2019-09-23,16.78,17.05,16.42,16.54,16.94,9711841.0,161955529.0,1314930000.0,5037174300.0
sh603697,有友食品,2019-09-24,16.59,16.73,16.28,16.28,16.54,8108378.0,133660979.0,1294260000.0,4957992600.0
sh603697,XD有友食,2019-09-25,16.12,17.2,16.0,16.8,16.1,15038773.0,250506794.0,1335600000.0,5116356000.0
sh603697,有友食品,2019-09-26,16.5,16.71,15.5,15.67,16.8,12640856.0,202896706.0,1245765000.0,4772220150.0
sh603697,有友食品,2019-09-27,15.68,16.05,15.2,15.67,15.67,6526992.0,102483990.0,1245765000.0,4772220150.0
sh603697,有友食品,2019-09-30,15.65,15.85,15.25,15.27,15.67,5176970.0,80177622.0,1213965000.0,4650402150.0
sh603697,有友食品,2019-10-08,15.32,15.45,14.73,14.81,15.27,5948723.0,89501314.0,1177395000.0,4510311450.0
sh603697,有友食品,2019-10-09,14.73,14.94,14.52,14.91,14.81,4090817.0,60235908.0,1185345000.0,4540765950.0
sh603697,有友食品,2019-10-10,14.83,15.12,14.81,15.08,14.91,3975904.0,59606429.0,1198860000.0,4592538600.0
sh603697,有友食品,2019-10-11,15.09,15.12,14.76,14.97,15.08,4203288.0,62836273.0,1190115000.0,4559038650.0
sh603697,有友食品,2019-10-14,15.0,15.38,14.97,15.25,14.97,4632935.0,70396529.0,1212375000.0,4644311250.0
sh603697,有友食品,2019-10-15,15.17,15.3,15.06,15.14,15.25,3024510.0,45839577.0,1203630000.0,4610811300.0
sh603697,有友食品,2019-10-16,15.15,15.35,15.08,15.13,15.14,3337463.0,50761156.0,1202835000.0,4607765850.0
sh603697,有友食品,2019-10-17,15.09,15.19,14.91,14.93,15.13,3481320.0,52295521.0,1186935000.0,4546856850.0
sh603697,有友食品,2019-10-18,14.94,15.8,14.94,15.37,14.93,10333790.0,160176579.0,1221915000.0,4680856650.0
sh603697,有友食品,2019-10-21,15.18,15.18,14.5,14.79,15.37,6445094.0,94640809.0,1175805000.0,4504220550.0
sh603697,有友食品,2019-10-22,14.7,14.87,14.59,14.77,14.79,3829361.0,56333205.0,1174215000.0,4498129650.0
sh603697,有友食品,2019-10-23,14.71,14.87,14.6,14.62,14.77,3076924.0,45289234.0,1162290000.0,4452447900.0
sh603697,有友食品,2019-10-24,14.61,14.66,14.34,14.42,14.62,3363657.0,48765036.0,1146390000.0,4391538900.0
sh603697,有友食品,2019-10-25,14.41,14.46,14.11,14.34,14.42,4134693.0,59000678.0,1140030000.0,4367175300.0
sh603697,有友食品,2019-10-28,14.28,14.47,14.12,14.43,14.34,3645015.0,52160113.0,1147185000.0,4394584350.0
sh603697,有友食品,2019-10-29,14.7,15.14,14.61,14.81,14.43,9190840.0,137015366.0,1177395000.0,4510311450.0
sh603697,有友食品,2019-10-30,14.58,14.74,14.5,14.52,14.81,3725230.0,54308822.0,1154340000.0,4421993400.0
sh603697,有友食品,2019-10-31,14.58,14.58,14.2,14.21,14.52,3567640.0,51243780.0,1129695000.0,4327584450.0
sh603697,有友食品,2019-11-01,14.27,14.48,14.2,14.4,14.21,2379053.0,34162372.0,1144800000.0,4385448000.0
sh603697,有友食品,2019-11-04,14.43,14.82,14.37,14.77,14.4,4590352.0,67139457.0,1174215000.0,4498129650.0
sh603697,有友食品,2019-11-05,14.77,15.05,14.62,14.82,14.77,4933266.0,73216095.0,1178190000.0,4513356900.0
sh603697,有友食品,2019-11-06,14.85,14.9,14.63,14.74,14.82,2825966.0,41682214.0,1171830000.0,4488993300.0
sh603697,有友食品,2019-11-07,14.79,14.82,14.64,14.8,14.74,2036008.0,29974285.0,1176600000.0,4507266000.0
sh603697,有友食品,2019-11-08,14.8,14.85,14.4,14.44,14.8,4283832.0,62617029.0,1147980000.0,4397629800.0
sh603697,有友食品,2019-11-11,14.25,14.25,13.63,13.66,14.44,5107483.0,71102583.0,1085970000.0,4160084700.0
sh603697,有友食品,2019-11-12,13.64,13.76,13.34,13.62,13.66,2995788.0,40595204.0,1082790000.0,4147902900.0
sh603697,有友食品,2019-11-13,13.76,14.15,13.66,13.98,13.62,4666500.0,65106758.0,1111410000.0,4257539100.0
sh603697,有友食品,2019-11-14,14.0,14.06,13.74,13.92,13.98,2536400.0,35208819.0,1106640000.0,4239266400.0
sh603697,有友食品,2019-11-15,13.91,13.92,13.51,13.51,13.92,2517000.0,34439217.0,1074045000.0,4114402950.0
sh603697,有友食品,2019-11-18,13.52,13.65,13.43,13.6,13.51,1642752.0,22261653.0,1081200000.0,4141812000.0
sh603697,有友食品,2019-11-19,13.56,13.81,13.5,13.77,13.6,2195901.0,30066544.0,1094715000.0,4193584650.0
sh603697,有友食品,2019-11-20,13.8,13.97,13.61,13.71,13.77,2325252.0,32063484.0,1089945000.0,4175311950.0
sh603697,有友食品,2019-11-21,13.65,13.79,13.5,13.62,13.71,1578437.0,21482778.0,1082790000.0,4147902900.0
sh603697,有友食品,2019-11-22,13.64,13.74,13.38,13.4,13.62,2382671.0,32212355.0,1065300000.0,4080903000.0
sh603697,有友食品,2019-11-25,13.42,13.42,13.05,13.09,13.4,2923200.0,38506297.0,1040655000.0,3986494050.0
sh603697,有友食品,2019-11-26,13.13,13.18,13.03,13.11,13.09,1596934.0,20902274.0,1042245000.0,3992584950.0
sh603697,有友食品,2019-11-27,13.02,13.17,13.02,13.07,13.11,1400002.0,18305781.0,1039065000.0,3980403150.0
sh603697,有友食品,2019-11-28,13.04,13.06,12.68,12.74,13.07,3961731.0,50803436.0,1012830000.0,3879903300.0
sh603697,有友食品,2019-11-29,12.71,12.77,12.52,12.75,12.74,2909400.0,36756259.0,1013625000.0,3882948750.0
sh603697,有友食品,2019-12-02,12.7,12.93,12.67,12.78,12.75,2457027.0,31434518.0,1016010000.0,3892085100.0
sh603697,有友食品,2019-12-03,12.73,13.05,12.56,12.98,12.78,3524127.0,45276087.0,1031910000.0,3952994100.0
sh603697,有友食品,2019-12-04,12.86,13.12,12.81,12.97,12.98,3061166.0,39759873.0,1031115000.0,3949948650.0
sh603697,有友食品,2019-12-05,12.96,13.05,12.81,13.03,12.97,2844355.0,36822455.0,1035885000.0,3968221350.0
sh603697,有友食品,2019-12-06,13.03,13.13,12.97,13.08,13.03,2562474.0,33433059.0,1039860000.0,3983448600.0
sh603697,有友食品,2019-12-09,13.1,13.14,12.98,13.02,13.08,2165506.0,28253129.0,1035090000.0,3965175900.0
sh603697,有友食品,2019-12-10,12.95,13.09,12.95,13.05,13.02,1765870.0,22994611.0,1037475000.0,3974312250.0
sh603697,有友食品,2019-12-11,13.06,13.58,13.06,13.3,13.05,5619300.0,75026732.0,1057350000.0,4050448500.0
sh603697,有友食品,2019-12-12,13.25,13.25,13.12,13.14,13.3,2843379.0,37434765.0,1044630000.0,4001721300.0
sh603697,有友食品,2019-12-13,13.17,13.28,13.13,13.23,13.14,2593700.0,34199703.0,1051785000.0,4029130350.0
sh603697,有友食品,2019-12-16,13.22,13.38,13.08,13.37,13.23,3359357.0,44464708.0,1062915000.0,4071766650.0
sh603697,有友食品,2019-12-17,13.37,13.69,13.31,13.61,13.37,4277729.0,57905946.0,1081995000.0,4144857450.0
sh603697,有友食品,2019-12-18,13.55,13.9,13.5,13.55,13.61,3606199.0,49209678.0,1077225000.0,4126584750.0
sh603697,有友食品,2019-12-19,13.52,13.6,13.38,13.55,13.55,3244226.0,43752074.0,1077225000.0,4126584750.0
sh603697,有友食品,2019-12-20,13.61,13.65,13.35,13.38,13.55,2605326.0,35206403.0,1063710000.0,4074812100.0
sh603697,有友食品,2019-12-23,13.34,13.75,13.27,13.35,13.38,3530741.0,47766584.0,1061325000.0,4065675750.0
sh603697,有友食品,2019-12-24,13.36,13.5,13.28,13.47,13.35,2252891.0,30184278.0,1070865000.0,4102221150.0
sh603697,有友食品,2019-12-25,13.42,13.47,13.3,13.34,13.47,2141652.0,28632508.0,1060530000.0,4062630300.0
sh603697,有友食品,2019-12-26,13.39,13.6,13.28,13.55,13.34,2880860.0,38683132.0,1077225000.0,4126584750.0
sh603697,有友食品,2019-12-27,13.5,13.78,13.35,13.38,13.55,3401546.0,46103754.0,1063710000.0,4074812100.0
sh603697,有友食品,2019-12-30,13.33,13.38,12.99,13.33,13.38,2977132.0,39374371.0,1059735000.0,4059584850.0
sh603697,有友食品,2019-12-31,13.25,13.65,13.23,13.59,13.33,4118337.0,55732121.0,1080405000.0,4138766550.0
sh603697,有友食品,2020-01-02,13.67,13.95,13.54,13.74,13.59,6009619.0,82422137.0,1092330000.0,4184448300.0
sh603697,有友食品,2020-01-03,13.74,13.94,13.66,13.9,13.74,5064613.0,70058458.0,1105050000.0,4233175500.0
sh603697,有友食品,2020-01-06,13.82,14.06,13.72,14.05,13.9,5618042.0,78400945.0,1116975000.0,4278857250.0
sh603697,有友食品,2020-01-07,14.11,14.17,13.91,14.02,14.05,4503540.0,63082306.0,1114590000.0,4269720900.0
sh603697,有友食品,2020-01-08,13.95,13.95,13.67,13.68,14.02,3830200.0,52921224.0,1087560000.0,4166175600.0
sh603697,有友食品,2020-01-09,13.79,13.89,13.77,13.86,13.68,3004617.0,41562291.0,1101870000.0,4220993700.0
sh603697,有友食品,2020-01-10,13.9,14.65,13.79,14.36,13.86,8181698.0,116537286.0,1141620000.0,4373266200.0
sh603697,有友食品,2020-01-13,14.25,14.45,14.12,14.32,14.36,4809005.0,68545933.0,1138440000.0,4361084400.0
sh603697,有友食品,2020-01-14,14.36,14.36,14.08,14.13,14.32,3502887.0,49698923.0,1123335000.0,4303220850.0
sh603697,有友食品,2020-01-15,14.12,14.21,13.91,13.95,14.13,2186173.0,30613192.0,1109025000.0,4248402750.0
sh603697,有友食品,2020-01-16,13.98,14.11,13.85,13.89,13.95,2001200.0,27851742.0,1104255000.0,4230130050.0
sh603697,有友食品,2020-01-17,13.97,14.0,13.8,13.82,13.89,1933052.0,26770728.0,1098690000.0,4208811900.0
sh603697,有友食品,2020-01-20,13.82,13.86,13.6,13.74,13.82,2418952.0,33169999.0,1092330000.0,4184448300.0
sh603697,有友食品,2020-01-21,13.75,13.75,13.24,13.27,13.74,3365400.0,45158395.0,1054965000.0,4041312150.0
sh603697,有友食品,2020-01-22,13.16,13.38,13.03,13.23,13.27,2464774.0,32521166.0,1051785000.0,4029130350.0
sh603697,有友食品,2020-01-23,13.18,13.28,12.54,12.66,13.23,2968800.0,38258105.0,1006470000.0,3855539700.0
sh603697,有友食品,2020-02-03,11.39,11.39,11.39,11.39,12.66,471700.0,5372663.0,905505000.0,3468767550.0
sh603697,有友食品,2020-02-04,10.31,11.19,10.31,10.74,11.39,5516776.0,59175297.0,853830000.0,3270813300.0
sh603697,有友食品,2020-02-05,10.73,11.15,10.65,10.95,10.74,4431817.0,48434538.0,870525000.0,3334767750.0
sh603697,有友食品,2020-02-06,10.96,11.49,10.78,11.45,10.95,4829500.0,54215090.0,910275000.0,3487040250.0
sh603697,有友食品,2020-02-07,11.43,11.47,11.21,11.46,11.45,3361500.0,38134378.0,911070000.0,3490085700.0
sh603697,有友食品,2020-02-10,11.48,12.06,11.35,11.81,11.46,4497452.0,52972699.0,938895000.0,3596676450.0
sh603697,有友食品,2020-02-11,11.73,11.95,11.6,11.62,11.81,3067700.0,35957240.0,923790000.0,3538812900.0
sh603697,有友食品,2020-02-12,11.6,11.75,11.48,11.73,11.62,2793900.0,32607892.0,932535000.0,3572312850.0
sh603697,有友食品,2020-02-13,11.73,11.87,11.53,11.58,11.73,2847900.0,33332473.0,920610000.0,3526631100.0
sh603697,有友食品,2020-02-14,11.5,11.75,11.4,11.5,11.58,2646700.0,30578963.0,914250000.0,3502267500.0
sh603697,有友食品,2020-02-17,11.5,11.94,11.5,11.87,11.5,3765637.0,44320610.0,943665000.0,3614949150.0
sh603697,有友食品,2020-02-18,11.91,12.44,11.82,12.26,11.87,5818483.0,70632019.0,974670000.0,3733721700.0
sh603697,有友食品,2020-02-19,12.25,12.83,12.07,12.6,12.26,7166069.0,89180044.0,1001700000.0,3837267000.0
sh603697,有友食品,2020-02-20,12.5,13.14,12.48,12.79,12.6,7785000.0,99811577.0,1016805000.0,3895130550.0
sh603697,有友食品,2020-02-21,12.61,12.8,12.5,12.59,12.79,6119105.0,77041954.0,1000905000.0,3834221550.0
sh603697,有友食品,2020-02-24,12.48,12.48,12.23,12.42,12.59,4518402.0,55910711.0,987390000.0,3782448900.0
sh603697,有友食品,2020-02-25,12.1,12.26,11.82,12.17,12.42,4819352.0,58219280.0,967515000.0,3706312650.0
sh603697,有友食品,2020-02-26,11.94,12.42,11.89,12.13,12.17,3938800.0,48043828.0,964335000.0,3694130850.0
sh603697,有友食品,2020-02-27,12.13,12.94,12.13,12.73,12.13,8235257.0,104169717.0,1012035000.0,3876857850.0
sh603697,有友食品,2020-02-28,12.35,12.58,11.79,11.83,12.73,6514078.0,79391735.0,940485000.0,3602767350.0
sh603697,有友食品,2020-03-02,11.9,12.65,11.87,12.55,11.83,6024431.0,74589052.0,997725000.0,3822039750.0
sh603697,有友食品,2020-03-03,12.62,13.1,12.51,12.61,12.55,6297300.0,80311250.0,1002495000.0,3840312450.0
sh603697,有友食品,2020-03-04,12.49,13.13,12.46,12.95,12.61,8140014.0,105037313.0,1029525000.0,3943857750.0
sh603697,有友食品,2020-03-05,13.1,14.18,12.9,13.89,12.95,14692448.0,200420165.0,1104255000.0,4230130050.0
sh603697,有友食品,2020-03-06,13.55,13.78,13.28,13.29,13.89,8925715.0,119773857.0,1056555000.0,4047403050.0
sh603697,有友食品,2020-03-09,12.95,13.16,12.52,12.64,13.29,6622458.0,84954820.0,1004880000.0,3849448800.0
sh603697,有友食品,2020-03-10,12.39,12.94,12.3,12.9,12.64,5483830.0,69497164.0,1025550000.0,3928630500.0
sh603697,有友食品,2020-03-11,12.92,13.37,12.73,12.9,12.9,6353902.0,82500129.0,1025550000.0,3928630500.0
sh603697,有友食品,2020-03-12,12.62,12.85,12.32,12.49,12.9,4421902.0,55682880.0,992955000.0,3803767050.0
sh603697,有友食品,2020-03-13,11.81,12.23,11.8,12.06,12.49,5151100.0,61710497.0,958770000.0,3672812700.0
sh603697,有友食品,2020-03-16,12.1,12.33,11.56,11.64,12.06,4433400.0,53355979.0,925380000.0,3544903800.0
sh603697,有友食品,2020-03-17,11.7,11.88,11.0,11.52,11.64,3959304.0,45158091.0,915840000.0,3508358400.0
sh603697,有友食品,2020-03-18,11.59,12.15,11.58,11.62,11.52,5056779.0,59754091.0,923790000.0,3538812900.0
sh603697,有友食品,2020-03-19,11.69,11.93,11.45,11.88,11.62,4127846.0,48598492.0,944460000.0,3617994600.0
sh603697,有友食品,2020-03-20,12.12,12.46,11.81,12.44,11.88,5734743.0,69634354.0,988980000.0,3788539800.0
sh603697,有友食品,2020-03-23,12.08,12.75,12.08,12.54,12.44,7043362.0,88455809.0,996930000.0,3818994300.0
sh603697,有友食品,2020-03-24,12.66,13.35,12.35,13.25,12.54,12193884.0,157941345.0,1053375000.0,4035221250.0
sh603697,有友食品,2020-03-25,13.32,13.78,13.0,13.13,13.25,14552534.0,193446822.0,1043835000.0,3998675850.0
sh603697,有友食品,2020-03-26,12.9,13.43,12.75,13.24,13.13,9249450.0,121612315.0,1052580000.0,4032175800.0
sh603697,有友食品,2020-03-27,13.31,13.75,13.16,13.7,13.24,13340564.0,180700349.0,1089150000.0,4172266500.0
sh603697,有友食品,2020-03-30,13.55,14.04,13.37,13.49,13.7,11920114.0,162943772.0,1072455000.0,4108312050.0
sh603697,有友食品,2020-03-31,13.51,14.69,13.13,14.47,13.49,17452649.0,243972744.0,1150365000.0,4406766150.0
sh603697,有友食品,2020-04-01,14.1,14.22,13.7,13.86,14.47,13996044.0,195068532.0,1101870000.0,4220993700.0
sh603697,有友食品,2020-04-02,13.6,13.8,13.05,13.39,13.86,9510875.0,126818940.0,1064505000.0,4077857550.0
sh603697,有友食品,2020-04-03,13.26,13.63,13.2,13.38,13.39,6708771.0,90129064.0,1063710000.0,4074812100.0
sh603697,有友食品,2020-04-07,13.47,14.14,13.32,14.09,13.38,11585765.0,159732869.0,1120155000.0,4291039050.0
sh603697,有友食品,2020-04-08,13.86,13.91,13.4,13.48,14.09,8610985.0,117365318.0,1071660000.0,4105266600.0
sh603697,有友食品,2020-04-09,13.54,13.91,13.31,13.73,13.48,8976490.0,122637129.0,1091535000.0,4181402850.0
sh603697,有友食品,2020-04-10,13.58,13.61,13.05,13.09,13.73,7176039.0,95447458.0,1040655000.0,3986494050.0
sh603697,有友食品,2020-04-13,13.0,13.24,12.81,13.13,13.09,3953487.0,51823544.0,1043835000.0,3998675850.0
sh603697,有友食品,2020-04-14,13.1,13.29,13.08,13.28,13.13,3609946.0,47625318.0,1055760000.0,4044357600.0
sh603697,有友食品,2020-04-15,13.3,13.43,13.03,13.1,13.28,3828803.0,50660951.0,1041450000.0,3989539500.0
sh603697,有友食品,2020-04-16,13.17,13.43,13.01,13.4,13.1,4004085.0,52918870.0,1065300000.0,4080903000.0
sh603697,有友食品,2020-04-17,13.4,13.48,13.06,13.08,13.4,4299744.0,56859746.0,1039860000.0,3983448600.0
sh603697,有友食品,2020-04-20,13.02,13.06,12.71,12.81,13.08,4721202.0,60561247.0,1018395000.0,3901221450.0
sh603697,有友食品,2020-04-21,12.71,12.95,12.55,12.82,12.81,3709942.0,47308502.0,1019190000.0,3904266900.0
sh603697,有友食品,2020-04-22,12.67,13.86,12.65,13.62,12.82,10191727.0,136500527.0,1082790000.0,4147902900.0
sh603697,有友食品,2020-04-23,13.84,14.49,13.64,14.17,13.62,14410698.0,202532381.0,1126515000.0,4315402650.0
sh603697,有友食品,2020-04-24,14.29,14.55,13.8,13.89,14.17,8974295.0,126255793.0,1104255000.0,4230130050.0
sh603697,有友食品,2020-04-27,13.97,14.54,13.76,14.3,13.89,10648395.0,151678672.0,1136850000.0,4354993500.0
sh603697,有友食品,2020-04-28,14.16,14.37,13.0,13.65,14.3,9578827.0,130877477.0,1085175000.0,4157039250.0
sh603697,有友食品,2020-04-29,13.34,13.45,13.02,13.26,13.65,9245000.0,122226414.0,1054170000.0,4038266700.0
sh603697,有友食品,2020-04-30,13.21,13.26,12.83,12.88,13.26,7464061.0,97052222.0,1023960000.0,3922539600.0
sh603697,有友食品,2020-05-06,12.69,13.09,12.4,13.09,12.88,5885927.0,74911761.0,1040655000.0,3986494050.0
sh603697,有友食品,2020-05-07,12.94,13.68,12.94,13.62,13.09,8732840.0,117043903.0,1082790000.0,4147902900.0
sh603697,有友食品,2020-05-08,13.3,13.95,13.25,13.73,13.62,9391547.0,128228510.0,1234367119.06,4181402850.0
sh603697,有友食品,2020-05-11,13.78,14.13,13.7,13.88,13.73,8574720.0,119174448.0,1247852557.36,4227084600.0
sh603697,有友食品,2020-05-12,13.95,14.59,13.72,14.29,13.88,11872015.0,168859062.0,1284712755.38,4351948050.0
sh603697,有友食品,2020-05-13,14.14,15.72,14.02,15.72,14.29,14489551.0,217467071.0,1413273933.84,4787447400.0
sh603697,有友食品,2020-05-14,16.03,16.65,15.37,15.54,15.72,29083959.0,463801134.0,1397091407.88,4732629300.0
sh603697,有友食品,2020-05-15,15.52,15.88,15.18,15.23,15.54,16296847.0,252792144.0,1369221502.06,4638220350.0
sh603697,有友食品,2020-05-18,15.27,16.26,15.22,15.61,15.23,18536666.0,290487882.0,1403384612.42,4753947450.0
sh603697,有友食品,2020-05-19,15.6,15.71,15.02,15.68,15.61,13593871.0,209331760.0,1409677816.96,4775265600.0
sh603697,有友食品,2020-05-20,15.52,16.98,15.42,16.39,15.68,22065480.0,359595080.0,1473508891.58,4991492550.0
sh603697,有友食品,2020-05-21,16.16,16.3,15.3,15.59,16.39,12774692.0,202427545.0,1401586553.98,4747856550.0
sh603697,有友食品,2020-05-22,15.59,15.71,14.81,14.9,15.59,9626087.0,145942468.0,1339553537.8,4537720500.0
sh603697,有友食品,2020-05-25,15.38,16.39,15.21,16.39,14.9,9672861.0,153025870.0,1473508891.58,4991492550.0
sh603697,有友食品,2020-05-26,17.45,18.03,16.79,18.03,16.39,18549804.0,323643617.0,1620949683.66,5490946350.0
sh603697,有友食品,2020-05-27,19.0,19.48,17.33,17.86,18.03,31496964.0,581132125.0,1605666186.92,5439173700.0
sh603697,有友食品,2020-05-28,17.55,18.39,16.65,17.2,17.86,20184657.0,351632099.0,1546330258.4,5238174000.0
sh603697,有友食品,2020-05-29,17.1,18.92,17.04,18.45,17.2,25008214.0,449656219.0,1658708910.9,5618855250.0
sh603697,有友食品,2020-06-01,19.4,20.3,19.4,20.3,18.45,16932349.0,340439640.0,1825029316.6,6182263500.0
sh603697,有友食品,2020-06-02,20.46,21.88,18.89,19.11,20.3,28385869.0,576795087.0,1718044839.42,5819854950.0
sh603697,有友食品,2020-06-03,19.4,20.8,19.0,19.92,19.11,16592511.0,329767804.0,1790866206.24,6066536400.0
sh603697,有友食品,2020-06-04,20.0,20.98,19.58,20.17,19.92,15074578.0,305004862.0,1813341936.74,6142672650.0
sh603697,有友食品,2020-06-05,19.98,19.98,18.15,18.15,20.17,20166908.0,372168823.0,1631738034.3,5527491750.0
sh603697,有友食品,2020-06-08,18.08,18.3,17.02,18.1,18.15,13265419.0,236730883.0,1627242888.2,5512264500.0
sh603697,有友食品,2020-06-09,18.1,18.2,17.5,17.7,18.1,9162151.0,162352921.0,1591281719.4,5390446500.0
sh603697,有友食品,2020-06-10,17.7,18.65,17.5,18.17,17.7,11175287.0,203936118.0,1633536092.74,5533582650.0
sh603697,有友食品,2020-06-11,18.0,18.45,17.61,18.09,18.17,8423456.0,151820292.0,1626343858.98,5509219050.0
sh603697,有友食品,2020-06-12,17.59,18.4,17.36,18.09,18.09,6156600.0,110975733.0,1626343858.98,5509219050.0
sh603697,有友食品,2020-06-15,17.92,18.32,17.42,17.42,18.09,7592806.0,134690304.0,1566108901.24,5305173900.0
sh603697,有友食品,2020-06-16,17.26,17.64,17.06,17.63,17.42,7971372.0,138351642.0,1584988514.86,5369128350.0
sh603697,有友食品,2020-06-17,17.48,19.19,17.35,18.94,17.63,13619760.0,249506024.0,1702761342.6799998,5768082300.0
sh603697,有友食品,2020-06-18,18.72,19.12,18.2,18.87,18.94,9028593.0,168487630.0,1696468138.14,5746764150.0
sh603697,有友食品,2020-06-19,18.8,19.88,18.7,19.06,18.87,10099066.0,194691750.0,1713549693.3200002,5804627700.0
sh603697,有友食品,2020-06-22,18.9,19.38,18.7,19.2,19.06,6842322.0,130281282.0,1726136102.4,5847264000.0
sh603697,有友食品,2020-06-23,19.22,19.7,19.06,19.26,19.2,7223370.0,139793365.0,1731530277.72,5865536700.0
sh603697,有友食品,2020-06-24,19.2,19.38,18.78,18.97,19.26,5926822.0,112850088.0,1705458430.34,5777218650.0
sh603697,有友食品,2020-06-29,19.0,20.28,18.67,19.92,18.97,9027700.0,176992903.0,1790866206.24,6066536400.0
sh603697,XD有友食,2020-06-30,20.52,21.6,19.82,20.18,19.84,11218859.0,228019436.0,1814240965.96,6145718100.000001
sh603697,有友食品,2020-07-01,20.12,21.99,19.65,21.85,20.18,13614040.0,285219233.0,1964378845.7,6654308250.0
sh603697,有友食品,2020-07-02,22.07,22.44,21.25,21.53,21.85,9866418.0,213713216.0,1935609910.66,6556853850.0
sh603697,有友食品,2020-07-03,21.26,21.46,19.52,20.51,21.53,11509152.0,235246890.0,1843908930.22,6246217950.0
sh603697,有友食品,2020-07-06,20.37,20.62,19.8,19.94,20.51,18607300.0,374027270.0,1792664264.6799998,6072627300.0
sh603697,有友食品,2020-07-07,19.8,20.61,19.51,20.35,19.94,16853264.0,338658145.0,1829524462.7,6197490750.0
sh603697,有友食品,2020-07-08,20.11,20.35,19.75,19.97,20.35,12993208.0,258806823.0,1795361352.34,6081763650.0
sh603697,有友食品,2020-07-09,19.9,20.4,19.6,20.14,19.97,14017111.0,282486300.0,1810644849.08,6133536300.0
sh603697,有友食品,2020-07-10,20.17,20.45,19.8,20.02,20.14,12806643.0,257383270.0,1799856498.44,6096990900.0
sh603697,有友食品,2020-07-13,20.18,21.1,19.95,21.05,20.02,15649047.0,324643637.0,1892456508.1,6410672250.0
sh603697,有友食品,2020-07-14,21.09,21.2,19.88,20.19,21.05,13001553.0,266082365.0,1815139995.18,6148763550.0
sh603697,有友食品,2020-07-15,20.12,20.85,19.85,20.48,20.19,12162304.0,246851878.0,1841211842.56,6237081600.0
sh603697,有友食品,2020-07-16,20.45,20.47,18.43,18.43,20.48,12163900.0,232392680.0,1656910852.46,5612764350.000001
sh603697,有友食品,2020-07-17,17.9,18.18,16.78,17.2,18.43,9654600.0,167473975.0,1546330258.4,5238174000.0
sh603697,有友食品,2020-07-20,17.41,17.54,16.85,17.48,17.2,5486248.0,95019450.0,1571503076.56,5323446600.0
sh603697,有友食品,2020-07-21,17.52,18.97,17.32,18.77,17.48,9716967.0,177731432.0,1687477845.94,5716309650.0
sh603697,有友食品,2020-07-22,18.5,18.84,18.28,18.66,18.77,5470000.0,101837629.0,1677588524.52,5682809700.0
sh603697,有友食品,2020-07-23,18.5,18.82,18.1,18.58,18.66,4410872.0,81224701.0,1670396290.7600002,5658446100.0
sh603697,有友食品,2020-07-24,18.48,18.48,16.82,17.13,18.58,7252700.0,127522931.0,1540037053.86,5216855850.0
sh603697,有友食品,2020-07-27,17.0,17.41,16.65,16.73,17.13,4014292.0,68037557.0,1504075885.06,5095037850.0
sh603697,有友食品,2020-07-28,16.8,18.4,16.77,18.4,16.73,8607654.0,154115990.0,1654213764.8,5603628000.0
sh603697,有友食品,2020-07-29,18.68,19.16,18.33,18.85,18.4,10204905.0,191945719.0,1694670079.7,5740673250.0
sh603697,有友食品,2020-07-30,18.85,19.1,18.2,18.46,18.85,7367919.0,137105903.0,1659607940.12,5621900699.999999
sh603697,有友食品,2020-07-31,18.77,19.35,18.25,18.81,18.46,9114738.0,172024743.0,1691073962.82,5728491450.0
sh603697,有友食品,2020-08-03,18.95,20.1,18.77,19.8,18.81,11328839.0,222656379.0,1780077855.6,6029991000.0
sh603697,有友食品,2020-08-04,19.97,20.41,19.61,19.91,19.8,10600195.0,212143652.0,1789967177.02,6063490950.0
sh603697,有友食品,2020-08-05,19.95,20.62,19.56,20.4,19.91,9035942.0,183485323.0,1834019608.8,6212718000.0
sh603697,有友食品,2020-08-06,20.3,20.67,19.8,20.08,20.4,7530650.0,151820456.0,1805250673.76,6115263600.0
sh603697,有友食品,2020-08-07,20.45,20.56,19.69,20.22,20.08,7945752.0,159812609.0,1817837082.84,6157899900.0
sh603697,有友食品,2020-08-10,20.07,20.31,19.71,19.85,20.22,4896578.0,97607121.0,1784573001.7,6045218250.0
sh603697,有友食品,2020-08-11,20.04,21.1,19.71,19.78,19.85,7594356.0,154792201.0,1778279797.16,6023900100.0
sh603697,有友食品,2020-08-12,19.86,20.39,19.42,19.81,19.78,8864523.0,175997850.0,1780976884.82,6033036450.0
sh603697,有友食品,2020-08-13,19.89,20.41,19.35,19.59,19.81,6735658.0,133087890.0,1761198241.9799998,5966036550.0
sh603697,有友食品,2020-08-14,19.37,19.8,19.12,19.51,19.59,5741812.0,111556284.0,1754006008.22,5941672950.0
sh603697,有友食品,2020-08-17,19.46,20.88,19.46,20.74,19.51,10557442.0,215030999.0,1864586602.28,6316263300.0
sh603697,有友食品,2020-08-18,20.72,22.11,20.46,21.95,20.74,12709020.0,274295143.0,1973369137.9,6684762750.0
sh603697,有友食品,2020-08-19,24.15,24.15,24.15,24.15,21.95,2900800.0,70054320.0,2171155566.3,7354761750.0
sh603697,有友食品,2020-08-20,25.92,26.57,25.35,26.57,24.15,11532258.0,302090525.0,2388720637.54,8091760649.999999
sh603697,有友食品,2020-08-21,27.5,27.96,25.5,26.67,26.57,28936281.0,774790964.0,2397710929.74,8122215150.0
sh603697,有友食品,2020-08-24,26.3,29.0,26.3,27.8,26.67,24396395.0,674787030.0,2499301231.6,8466351000.0
sh603697,有友食品,2020-08-25,28.55,30.3,27.89,28.86,27.8,22437810.0,649591275.0,2594598328.92,8789168700.0
sh603697,有友食品,2020-08-26,28.54,29.29,27.61,28.0,28.86,15333440.0,436121089.0,2517281816.0,8527260000.0
sh603697,有友食品,2020-08-27,28.07,29.7,27.9,29.2,28.0,14669665.0,421611026.0,2625165322.4,8892714000.0
sh603697,有友食品,2020-08-28,28.75,31.7,28.72,30.78,29.2,15803721.0,475819501.0,2767211939.1600003,9373895100.0
sh603697,有友食品,2020-08-31,30.72,33.86,30.05,33.86,30.78,13937513.0,448403641.0,3044112938.92,10311893700.0
sh603697,有友食品,2020-09-01,33.8,34.66,32.02,32.97,33.86,13944189.0,460851108.0,2964099338.34,10040848650.0
sh603697,有友食品,2020-09-02,33.2,34.0,31.8,32.31,32.97,12323913.0,404644543.0,2904763409.82,9839848950.0
sh603697,有友食品,2020-09-03,32.3,32.32,30.45,31.1,32.31,11616402.0,365111113.0,2795980874.2,9471349500.0
sh603697,有友食品,2020-09-04,30.21,30.47,28.9,29.29,31.1,12652538.0,373225887.0,2633256585.38,8920123050.0
sh603697,有友食品,2020-09-07,29.6,29.71,27.15,27.48,29.29,10834752.0,306904267.0,2470532296.56,8368896600.0
sh603697,有友食品,2020-09-08,28.08,28.25,26.55,27.18,27.48,8831248.0,239817809.0,2443561419.96,8277533100.000001
sh603697,有友食品,2020-09-09,26.5,26.7,25.25,25.6,27.18,8265333.0,213763800.0,2301514803.2,7796352000.0
sh603697,有友食品,2020-09-10,26.02,26.45,25.16,25.29,25.6,8441105.0,216983879.0,2273644897.38,7701943050.000001
sh603697,有友食品,2020-09-11,25.3,26.69,25.3,26.17,25.29,8758237.0,227991920.0,2352759468.74,7969942650.0
sh603697,有友食品,2020-09-14,26.35,26.55,25.58,25.73,26.17,7126252.0,185030184.0,2313202183.06,7835942850.0
sh603697,有友食品,2020-09-15,25.79,26.39,25.66,26.1,25.73,5964405.0,155149674.0,2346466264.2,7948624500.0
sh603697,有友食品,2020-09-16,26.14,26.15,25.0,25.41,26.1,7909552.0,200918849.0,2284433248.02,7738488450.0
sh603697,有友食品,2020-09-17,25.17,25.3,24.37,25.08,25.41,7160852.0,177592820.0,2254765283.76,7637988600.0
sh603697,有友食品,2020-09-18,25.12,25.61,24.7,25.46,25.08,4864000.0,122542912.0,2288928394.12,7753715699.999999
sh603697,有友食品,2020-09-21,25.7,26.1,24.4,24.6,25.46,8138507.0,202837351.0,2211611881.2000003,7491807000.0
sh603697,有友食品,2020-09-22,24.3,24.73,24.15,24.3,24.6,4550195.0,111095888.0,2184641004.6,7400443500.0
sh603697,有友食品,2020-09-23,24.5,24.73,24.22,24.57,24.3,4356201.0,106753167.0,2208914793.54,7482670649.999999
sh603697,有友食品,2020-09-24,24.55,25.02,23.58,23.79,24.57,6689984.0,161212374.0,2138790514.38,7245125550.000001
sh603697,有友食品,2020-09-25,23.79,24.64,23.57,24.22,23.79,4845900.0,116783398.0,2177448770.84,7376079900.0
sh603697,有友食品,2020-09-28,24.38,24.5,23.85,24.34,24.22,3530200.0,85243272.0,2188237121.48,7412625300.0
sh603697,有友食品,2020-09-29,24.22,24.74,23.75,23.81,24.34,5377726.0,129519343.0,2140588572.82,7251216450.0
sh603697,有友食品,2020-09-30,23.97,24.87,23.65,24.05,23.81,6500852.0,157774669.0,2162165274.1,7324307250.0
sh603697,有友食品,2020-10-09,24.59,24.8,24.23,24.59,24.05,5743903.0,140864509.0,2210712851.98,7488761550.0
sh603697,有友食品,2020-10-12,24.66,26.0,24.66,25.99,24.59,6951467.0,177134006.0,2336576942.78,7915124550.0
sh603697,有友食品,2020-10-13,25.74,26.4,25.51,25.82,25.99,6754536.0,174481008.0,2321293446.04,7863351899.999999
sh603697,有友食品,2020-10-14,25.82,26.66,25.61,26.21,25.82,6868709.0,180191585.0,2356355585.62,7982124449.999999
sh603697,有友食品,2020-10-15,26.01,26.15,24.21,24.5,26.21,9004890.0,224793597.0,2202621589.0,7461352500.0
sh603697,有友食品,2020-10-16,24.2,24.84,24.15,24.62,24.5,3939800.0,96874081.0,2213409939.64,7497897900.0
sh603697,有友食品,2020-10-19,24.69,25.01,24.01,24.23,24.62,3690103.0,90167969.0,2178347800.06,7379125350.0
sh603697,有友食品,2020-10-20,24.23,24.49,23.65,24.49,24.23,3953800.0,95353238.0,2201722559.78,7458307050.0
sh603697,有友食品,2020-10-21,24.48,24.68,23.08,23.24,24.49,5764492.0,136486331.0,2089343907.28,7077625800.0
sh603697,有友食品,2020-10-22,22.96,23.46,21.88,22.85,23.24,7262368.0,163591502.0,2054281767.7,6958853250.0
sh603697,有友食品,2020-10-23,22.8,22.98,22.14,22.43,22.85,4642519.0,104654915.0,2016522540.46,6830944350.000001
sh603697,有友食品,2020-10-26,22.23,22.62,21.91,22.48,22.43,2575323.0,57492244.0,2021017686.56,6846171600.0
sh603697,有友食品,2020-10-27,22.03,23.6,22.03,23.33,22.48,5240745.0,120779547.0,2097435170.26,7105034850.0
sh603697,有友食品,2020-10-28,23.3,24.38,23.24,23.71,23.33,5914693.0,140999040.0,2131598280.62,7220761949.999999
sh603697,有友食品,2020-10-29,22.11,22.18,21.34,21.34,23.71,12407800.0,266981988.0,1918528355.48,6498990300.0
sh603697,有友食品,2020-10-30,20.36,21.13,19.21,19.43,21.34,16435889.0,326209232.0,1746813774.46,5917309350.000001
sh603697,有友食品,2020-11-02,19.54,19.55,18.73,18.98,19.43,9440162.0,179281907.0,1706357459.56,5780264100.0
sh603697,有友食品,2020-11-03,19.2,19.29,18.78,19.25,18.98,6138393.0,117108557.0,1730631248.5,5862491250.0
sh603697,有友食品,2020-11-04,19.24,19.63,18.65,19.16,19.25,7371493.0,140970054.0,1722539985.52,5835082200.0
sh603697,有友食品,2020-11-05,19.32,19.64,19.19,19.52,19.16,6555124.0,127372125.0,1754905037.4399998,5944718400.0
sh603697,有友食品,2020-11-06,19.55,19.89,19.21,19.38,19.52,6591040.0,128228919.0,1742318628.36,5902082100.0
sh603697,有友食品,2020-11-09,19.45,20.62,19.3,20.09,19.38,10205751.0,203990279.0,1806149702.98,6118309050.0
sh603697,有友食品,2020-11-10,20.45,20.49,19.75,19.88,20.09,5554200.0,111021693.0,1787270089.36,6054354600.0
sh603697,有友食品,2020-11-11,19.89,20.19,19.51,19.68,19.88,4881100.0,96858732.0,1769289504.96,5993445600.000001
sh603697,有友食品,2020-11-12,19.87,19.87,19.4,19.63,19.68,3014993.0,59121057.0,1764794358.86,5978218350.0
sh603697,有友食品,2020-11-13,19.66,19.66,19.11,19.34,19.63,3571893.0,68827190.0,1738722511.48,5889900300.0
sh603697,有友食品,2020-11-16,19.35,19.53,19.03,19.37,19.34,3979400.0,76756062.0,1741419599.14,5899036650.0
sh603697,有友食品,2020-11-17,19.25,19.43,18.72,18.88,19.37,4659600.0,88061345.0,1697367167.36,5749809600.0
sh603697,有友食品,2020-11-18,18.96,19.8,18.79,19.73,18.88,7563283.0,147531461.0,1773784651.06,6008672850.0
sh603697,有友食品,2020-11-19,19.7,19.74,19.24,19.6,19.73,4036639.0,78714478.0,1762097271.2,5969082000.0
sh603697,有友食品,2020-11-20,19.45,20.4,19.45,20.1,19.6,8254439.0,165591972.0,1807048732.2,6121354500.0
sh603697,有友食品,2020-11-23,20.1,20.32,19.66,19.73,20.1,6626640.0,131519615.0,1773784651.06,6008672850.0
sh603697,有友食品,2020-11-24,19.58,19.88,18.98,19.71,19.73,6276492.0,121639482.0,1771986592.62,6002581949.999999
sh603697,有友食品,2020-11-25,19.67,19.72,19.09,19.09,19.71,4297400.0,82885738.0,1716246780.98,5813764050.0
sh603697,有友食品,2020-11-26,18.98,19.17,18.56,18.62,19.09,5218500.0,97893029.0,1673992407.64,5670627900.0
sh603697,有友食品,2020-11-27,18.75,18.86,18.57,18.84,18.62,2676100.0,50099033.0,1693771050.48,5737627800.0
sh603697,有友食品,2020-11-30,18.88,18.99,18.5,18.73,18.84,3539252.0,66218416.0,1683881729.06,5704127850.0
sh603697,有友食品,2020-12-01,18.73,19.16,18.63,18.99,18.73,3414877.0,64784228.0,1707256488.78,5783309550.0
sh603697,有友食品,2020-12-02,18.94,19.65,18.85,19.27,18.99,4612760.0,88896941.0,1732429306.94,5868582150.0
sh603697,有友食品,2020-12-03,19.22,19.45,18.89,19.18,19.27,4323400.0,82776643.0,1724338043.96,5841173100.000001
sh603697,有友食品,2020-12-04,19.11,21.1,19.03,21.1,19.18,12293772.0,247030832.0,1896951654.2,6425899500.0
sh603697,有友食品,2020-12-07,21.32,22.65,20.71,21.98,21.1,21117675.0,459499938.0,1976066225.56,6693899100.0
sh603697,有友食品,2020-12-08,21.49,22.53,21.3,21.92,21.98,12717413.0,277068879.0,1970672050.24,6675626400.0
sh603697,有友食品,2020-12-09,21.79,22.09,21.26,21.41,21.92,9209631.0,198660812.0,1924821560.02,6520308450.0
sh603697,有友食品,2020-12-10,21.24,21.75,21.0,21.39,21.41,6911000.0,148088293.0,1923023501.58,6514217550.0
sh603697,有友食品,2020-12-11,21.34,21.38,20.5,20.94,21.39,7822100.0,163105744.0,1882567186.68,6377172300.0
sh603697,有友食品,2020-12-14,21.01,22.25,20.87,22.07,20.94,11016179.0,238189580.0,1984157488.54,6721308149.999999
sh603697,有友食品,2020-12-15,22.08,22.39,21.6,22.23,22.07,9548999.0,209821598.0,1998541956.06,6770035350.0
sh603697,有友食品,2020-12-16,22.16,24.45,21.93,23.38,22.23,18823800.0,441372024.0,2101930316.36,7120262100.0
sh603697,有友食品,2020-12-17,23.16,23.8,22.8,23.71,23.38,12308434.0,285809325.0,2131598280.62,7220761949.999999
sh603697,有友食品,2020-12-18,23.26,23.62,22.9,23.04,23.71,8544703.0,198107848.0,2071363322.88,7016716800.000001
sh603697,有友食品,2020-12-21,22.76,23.25,22.25,23.18,23.04,8719715.0,198900213.0,2083949731.96,7059353100.000001
sh603697,有友食品,2020-12-22,22.9,24.0,22.83,23.36,23.18,11595650.0,272419041.0,2100132257.92,7114171200.0
sh603697,有友食品,2020-12-23,23.2,23.66,22.56,22.7,23.36,10697776.0,247076082.0,2040796329.4,6913171500.0
sh603697,有友食品,2020-12-24,22.35,22.35,20.43,20.43,22.7,12052322.0,251556727.0,1836716696.46,6221854350.000001
sh603697,有友食品,2020-12-25,19.5,19.87,19.09,19.47,20.43,8954300.0,174797324.0,1750409891.34,5929491150.0
sh603697,有友食品,2020-12-28,19.48,19.48,18.55,18.72,19.47,8342200.0,157400532.0,1682982699.8400002,5701082400.0
sh603697,有友食品,2020-12-29,18.82,19.25,18.81,18.9,18.72,4922163.0,93335001.0,1699165225.8,5755900500.0
sh603697,有友食品,2020-12-30,18.88,19.5,18.65,19.25,18.9,4587671.0,87976910.0,1730631248.5,5862491250.0
sh603697,有友食品,2020-12-31,19.1,19.92,19.04,19.65,19.25,5473553.0,106889417.0,1766592417.3000002,5984309250.0
sh603697,有友食品,2021-01-04,19.66,20.35,19.34,20.09,19.65,6930500.0,137918658.0,1806149702.98,6118309050.0
sh603697,有友食品,2021-01-05,19.95,21.04,19.88,20.66,20.09,8632463.0,177077163.0,1857394368.52,6291899700.0
sh603697,有友食品,2021-01-06,20.67,21.18,20.03,20.19,20.66,6596900.0,134239032.0,1815139995.18,6148763550.0
sh603697,有友食品,2021-01-07,19.9,20.04,18.92,19.3,20.19,7723908.0,149845161.0,1735126394.6,5877718500.0
sh603697,有友食品,2021-01-08,19.06,19.33,18.65,19.18,19.3,5098000.0,96913511.0,1724338043.96,5841173100.000001
sh603697,有友食品,2021-01-11,19.15,19.48,18.71,19.18,19.18,4998652.0,95306702.0,1724338043.96,5841173100.000001
sh603697,有友食品,2021-01-12,19.08,19.38,18.92,19.01,19.18,4368300.0,83503127.0,1709054547.22,5789400450.0
sh603697,有友食品,2021-01-13,19.09,19.13,18.65,18.74,19.01,5045052.0,94661007.0,1684780758.28,5707173300.0
sh603697,有友食品,2021-01-14,18.76,18.77,17.69,17.84,18.74,6325555.0,113664103.0,1603868128.48,5433082800.0
sh603697,有友食品,2021-01-15,17.7,18.0,17.36,18.0,17.84,3780504.0,66656004.0,1618252596.0,5481810000.0
sh603697,有友食品,2021-01-18,17.88,18.15,17.7,17.93,18.0,3131704.0,56168498.0,1611959391.4599998,5460491850.000001
sh603697,有友食品,2021-01-19,17.9,18.4,17.9,18.3,17.93,2963652.0,53924425.0,1645223472.6,5573173500.0
sh603697,有友食品,2021-01-20,18.3,18.31,18.02,18.1,18.3,1896300.0,34323874.0,1627242888.1999998,5512264500.0
sh603697,有友食品,2021-01-21,18.03,19.08,17.92,18.76,18.1,6018481.0,112205788.0,1686578816.7199998,5713264200.0
sh603697,有友食品,2021-01-22,18.77,19.44,18.62,19.02,18.76,5970417.0,114228356.0,1709953576.44,5792445900.0
sh603697,有友食品,2021-01-25,19.03,19.13,17.96,18.08,19.02,6125426.0,112020656.0,1625444829.76,5506173600.0
sh603697,有友食品,2021-01-26,17.81,17.88,17.39,17.61,18.08,3595576.0,63163051.0,1583190456.42,5363037450.0
sh603697,有友食品,2021-01-27,17.66,17.7,16.88,16.99,17.61,4504076.0,76970885.0,1527450644.78,5174219550.0
sh603697,有友食品,2021-01-28,16.72,17.51,16.66,17.0,16.99,3108600.0,53082414.0,1528349674.0,5177265000.0
sh603697,有友食品,2021-01-29,17.01,17.25,16.2,16.35,17.0,4053126.0,66905392.0,1469912774.7,4979310750.0
sh603697,有友食品,2021-02-01,16.3,16.3,15.53,16.18,16.35,3878509.0,61968678.0,1454629277.96,4927538100.0
sh603697,有友食品,2021-02-02,16.17,17.24,16.02,17.07,16.18,4663133.0,78397472.0,1534642878.54,5198583150.0
sh603697,有友食品,2021-02-03,16.79,17.04,16.51,16.63,17.07,2589276.0,43272105.0,1495085592.86,5064583350.0
sh603697,有友食品,2021-02-04,16.5,17.5,16.45,17.35,16.63,6222636.0,106714437.0,1559815696.7,5283855750.0
sh603697,有友食品,2021-02-05,17.29,17.76,16.79,16.98,17.35,4877600.0,83986413.0,1526551615.5600002,5171174100.0
sh603697,有友食品,2021-02-08,16.71,16.76,15.9,16.24,16.98,4515900.0,73216255.0,1460023453.28,4945810800.0
sh603697,有友食品,2021-02-09,16.8,17.86,16.56,17.86,16.24,9312952.0,163779969.0,1605666186.9199998,5439173700.0
sh603697,有友食品,2021-02-10,17.69,17.93,17.17,17.44,17.86,6910600.0,120392499.0,1567906959.68,5311264800.0
sh603697,有友食品,2021-02-18,17.43,17.71,17.3,17.62,17.44,4603100.0,80518841.0,1584089485.64,5366082900.0
sh603697,有友食品,2021-02-19,17.52,18.06,17.3,17.94,17.62,5138225.0,90729625.0,1612858420.68,5463537300.0
sh603697,有友食品,2021-02-22,17.81,18.53,17.75,18.01,17.94,5858200.0,106130061.0,1619151625.22,5484855450.0
sh603697,有友食品,2021-02-23,17.8,17.84,17.33,17.52,18.01,3245052.0,56882526.0,1575099193.44,5335628400.0
sh603697,有友食品,2021-02-24,17.51,17.63,16.85,17.11,17.52,3527249.0,60511613.0,1538238995.42,5210764950.0
sh603697,有友食品,2021-02-25,17.23,17.24,16.85,16.89,17.11,2229716.0,37833628.0,1518460352.58,5143765050.0
sh603697,有友食品,2021-02-26,16.64,17.16,16.5,17.08,16.89,2210818.0,37372011.0,1535541907.76,5201628600.0
sh603697,有友食品,2021-03-01,17.48,18.79,17.43,18.32,17.08,10926081.0,202142021.0,1647021531.04,5579264399.999999
sh603697,有友食品,2021-03-02,18.24,18.28,17.52,17.87,18.32,7013606.0,125527337.0,1606565216.14,5442219150.0
sh603697,有友食品,2021-03-03,17.88,18.28,17.75,18.15,17.87,4024570.0,72513870.0,1631738034.3,5527491750.0
sh603697,有友食品,2021-03-04,18.0,18.09,17.62,17.72,18.15,3081670.0,54854867.0,1593079777.84,5396537400.0
sh603697,有友食品,2021-03-05,17.46,18.0,17.42,17.9,17.72,3063045.0,54556430.0,1609262303.8,5451355500.0
sh603697,有友食品,2021-03-08,18.01,18.37,17.63,17.64,17.9,2936300.0,52850605.0,1585887544.0800002,5372173800.0
sh603697,有友食品,2021-03-09,17.5,17.78,16.52,17.0,17.64,3610876.0,61869225.0,1528349674.0,5177265000.0
sh603697,有友食品,2021-03-10,17.13,17.35,16.68,16.99,17.0,2058700.0,34880360.0,1527450644.78,5174219550.0
sh603697,有友食品,2021-03-11,16.76,17.26,16.76,17.05,16.99,2295267.0,39157545.0,1532844820.1,5192492250.0
sh603697,有友食品,2021-03-12,17.12,17.12,16.81,16.87,17.05,1876700.0,31708222.0,1516662294.14,5137674150.0
sh603697,有友食品,2021-03-15,16.7,16.75,16.1,16.29,16.87,2717857.0,44589265.0,1464518599.38,4961038050.0
sh603697,有友食品,2021-03-16,16.5,17.24,16.41,17.06,16.29,3810288.0,64262920.0,1533743849.32,5195537700.0
sh603697,有友食品,2021-03-17,17.17,17.2,16.85,16.93,17.06,1592100.0,27041553.0,1522056469.46,5155946850.0
sh603697,有友食品,2021-03-18,16.93,17.03,16.78,16.93,16.93,1372425.0,23169622.0,1522056469.46,5155946850.0
sh603697,有友食品,2021-03-19,16.73,16.98,16.61,16.87,16.93,1394450.0,23472492.0,1516662294.14,5137674150.0
sh603697,有友食品,2021-03-22,16.8,17.06,16.73,16.97,16.87,1651725.0,27907195.0,1525652586.34,5168128650.0
sh603697,有友食品,2021-03-23,17.0,17.15,16.8,17.11,16.97,1928450.0,32755196.0,1538238995.42,5210764950.0
sh603697,有友食品,2021-03-24,17.01,17.63,16.96,17.52,17.11,3813721.0,66289353.0,1575099193.44,5335628400.0
sh603697,有友食品,2021-03-25,17.35,17.83,17.18,17.66,17.52,3131500.0,54641038.0,1587685602.52,5378264700.0
sh603697,有友食品,2021-03-26,17.64,17.68,17.32,17.45,17.66,2244700.0,39315099.0,1568805988.9,5376781250.0
sh603697,有友食品,2021-03-29,17.62,17.65,17.14,17.18,17.45,1871910.0,32397524.0,1544532199.96,5293587500.0
sh603697,有友食品,2021-03-30,17.12,17.28,16.82,16.92,17.18,1860383.0,31630342.0,1521157440.2400002,5213475000.0
sh603697,有友食品,2021-03-31,16.95,17.14,16.75,17.12,16.92,1484117.0,25188615.0,1539138024.64,5275100000.0
sh603697,有友食品,2021-04-01,17.15,17.15,16.89,17.04,17.12,1385200.0,23525993.0,1531945790.88,5250450000.0
sh603697,有友食品,2021-04-02,17.07,17.49,16.9,17.2,17.04,2249583.0,38653935.0,1546330258.4,5299750000.0
sh603697,有友食品,2021-04-06,17.15,17.19,16.95,17.04,17.2,1235700.0,21057352.0,1531945790.88,5250450000.0
sh603697,有友食品,2021-04-07,17.04,17.04,16.8,16.99,17.04,1499700.0,25348282.0,1527450644.78,5235043750.0
sh603697,有友食品,2021-04-08,16.99,17.33,16.83,17.05,16.99,1966218.0,33601754.0,1532844820.1,5253531250.0
sh603697,有友食品,2021-04-09,17.05,17.1,16.84,16.85,17.05,1298605.0,21960507.0,1514864235.7,5191906250.0
sh603697,有友食品,2021-04-12,16.85,16.88,16.46,16.5,16.85,1669154.0,27687172.0,1483398213.0,5084062500.0
sh603697,有友食品,2021-04-13,16.43,16.66,16.25,16.31,16.5,1307576.0,21510959.0,1466316657.82,5025518750.0
sh603697,有友食品,2021-04-14,16.31,16.68,16.24,16.5,16.31,1361276.0,22415032.0,1483398213.0,5084062500.0
sh603697,有友食品,2021-04-15,16.5,16.61,16.28,16.38,16.5,1146800.0,18790515.0,1472609862.36,5047087500.0
sh603697,有友食品,2021-04-16,16.43,16.72,16.39,16.66,16.38,1800517.0,29841484.0,1497782680.52,5133362500.0
sh603697,有友食品,2021-04-19,16.65,17.04,16.52,17.02,16.66,2323500.0,39155476.0,1530147732.44,5244287500.0
sh603697,有友食品,2021-04-20,17.02,17.22,16.92,17.08,17.02,2199100.0,37601230.0,1535541907.76,5262775000.0
sh603697,有友食品,2021-04-21,16.99,17.28,16.92,17.12,17.08,2307184.0,39560657.0,1539138024.64,5275100000.0
sh603697,有友食品,2021-04-22,17.12,18.28,17.12,17.79,17.12,6120584.0,108852364.0,1599372982.38,5481543750.0
sh603697,有友食品,2021-04-23,17.56,19.04,17.4,18.43,17.79,9983502.0,182367020.0,1656910852.46,5678743750.0
sh603697,有友食品,2021-04-26,18.01,19.45,18.01,18.99,18.43,10011693.0,191019050.0,1707256488.78,5851293750.0
sh603697,有友食品,2021-04-27,18.9,18.92,18.27,18.32,18.99,5986100.0,110877718.0,1647021531.04,5644850000.0
sh603697,有友食品,2021-04-28,18.8,18.99,17.6,18.51,18.32,6019183.0,110296741.0,1664103086.22,5703393750.0
sh603697,有友食品,2021-04-29,18.51,18.55,17.9,17.96,18.51,3686000.0,66866442.0,1614656479.12,5533925000.0
sh603697,有友食品,2021-04-30,18.03,18.06,17.55,17.72,17.96,2832200.0,50180843.0,1593079777.84,5459975000.0
sh603697,有友食品,2021-05-06,17.64,17.81,17.36,17.51,17.72,2875100.0,50263744.0,1574200164.2199998,5395268750.0
sh603697,有友食品,2021-05-07,17.53,17.97,17.5,17.78,17.51,4364300.0,77630999.0,1598473953.16,5478462500.0
sh603697,有友食品,2021-05-10,17.72,17.75,16.77,16.92,17.78,4339898.0,74702261.0,1521157440.2400002,5213475000.0
sh603697,有友食品,2021-05-11,16.8,18.24,16.68,18.12,16.92,5993700.0,106238945.0,1629040946.64,5583225000.0
sh603697,有友食品,2021-05-12,18.13,18.26,17.83,17.88,18.12,3361900.0,60395466.0,1607464245.36,5509275000.0
sh603697,有友食品,2021-05-13,17.77,18.25,17.72,18.14,17.88,4222700.0,76085887.0,1630839005.08,5589387500.0
sh603697,有友食品,2021-05-14,18.3,18.99,18.15,18.21,18.14,7240404.0,133861010.0,1637132209.62,5610956250.0
sh603697,有友食品,2021-05-17,18.11,18.8,17.75,18.65,18.21,7747079.0,141657695.0,1676689495.3000002,5746531250.0
sh603697,有友食品,2021-05-18,18.52,18.85,18.04,18.25,18.65,5489128.0,100921704.0,1640728326.5,5623281250.0
sh603697,有友食品,2021-05-19,18.28,18.41,17.67,17.81,18.25,3980711.0,71239398.0,1601171040.8200002,5487706250.0
sh603697,有友食品,2021-05-20,17.7,17.89,17.55,17.65,17.81,3026433.0,53556172.0,1586786573.3,5438406250.0
sh603697,有友食品,2021-05-21,17.66,17.84,17.47,17.55,17.65,2571633.0,45416451.0,1577796281.1,5407593750.0
sh603697,有友食品,2021-05-24,17.48,17.74,17.4,17.61,17.55,2205100.0,38743277.0,1583190456.42,5426081250.0
sh603697,有友食品,2021-05-25,17.67,18.22,17.61,18.16,17.61,4380279.0,78888791.0,1632637063.52,5595550000.0
sh603697,有友食品,2021-05-26,18.08,18.54,18.07,18.23,18.16,4104308.0,75170879.0,1638930268.0600002,5617118750.0
sh603697,有友食品,2021-05-27,18.23,18.46,18.1,18.4,18.23,3746712.0,68692587.0,1654213764.8,5669500000.0
sh603697,有友食品,2021-05-28,18.4,18.68,18.24,18.52,18.4,4360390.0,80612069.0,1665002115.4399998,5706475000.0
sh603697,有友食品,2021-05-31,18.45,18.47,18.05,18.27,18.52,2932990.0,53401858.0,1642526384.94,5629443750.0
sh603697,有友食品,2021-06-01,18.3,18.83,18.1,18.75,18.27,5405969.0,99776238.0,1685679787.5,5777343750.0
sh603697,有友食品,2021-06-02,18.65,18.7,18.23,18.25,18.75,2999825.0,55370785.0,1640728326.5,5623281250.0
sh603697,有友食品,2021-06-03,18.33,18.44,18.05,18.05,18.25,2304825.0,42033363.0,1622747742.1,5561656250.0
sh603697,有友食品,2021-06-04,18.0,18.24,17.9,18.02,18.05,1716300.0,30971284.0,1620050654.44,5552412500.0
sh603697,有友食品,2021-06-07,18.01,18.88,17.94,18.72,18.02,5082500.0,94261349.0,1682982699.8400002,5768100000.0
sh603697,有友食品,2021-06-08,18.72,18.85,18.38,18.75,18.72,3596600.0,66951003.0,1685679787.5,5777343750.0
sh603697,有友食品,2021-06-09,18.8,19.3,18.59,19.09,18.75,6387200.0,121161293.0,1716246780.98,5882106250.0
sh603697,有友食品,2021-06-10,19.08,19.9,18.83,19.56,19.09,7686817.0,148871481.0,1758501154.32,6026925000.0
sh603697,有友食品,2021-06-11,19.48,19.75,18.83,19.0,19.56,4578729.0,88493935.0,1708155517.9999998,5854375000.0
sh603697,XD有友食,2021-06-15,18.7,18.95,18.0,18.31,18.68,3258813.0,59847488.0,1646122501.82,5641768750.0
sh603697,有友食品,2021-06-16,18.35,18.74,18.0,18.21,18.31,2310112.0,42435454.0,1637132209.62,5610956250.0
sh603697,有友食品,2021-06-17,18.25,19.91,18.18,19.31,18.21,6875007.0,131698004.0,1736025423.8200002,5949893750.0
sh603697,有友食品,2021-06-18,19.27,19.49,18.75,18.95,19.31,5184306.0,98627475.0,1703660371.9,5838968750.0
sh603697,有友食品,2021-06-21,18.89,19.79,18.71,19.57,18.95,5305500.0,102610516.0,1759400183.54,6030006250.0
sh603697,有友食品,2021-06-22,19.57,20.68,19.31,20.51,19.57,8430176.0,169794640.0,1843908930.22,6319643750.0
sh603697,有友食品,2021-06-23,20.38,20.64,19.95,20.15,20.51,5072981.0,102297611.0,1811543878.3,6208718750.0
sh603697,有友食品,2021-06-24,20.14,20.66,19.81,20.15,20.15,4456391.0,89871015.0,1811543878.3,6208718750.0
sh603697,有友食品,2021-06-25,20.18,20.62,19.51,20.26,20.15,5081595.0,101634636.0,1821433199.72,6242612500.0
sh603697,有友食品,2021-06-28,20.08,21.08,19.88,20.92,20.26,5646781.0,116071044.0,1880769128.24,6445975000.0
sh603697,有友食品,2021-06-29,20.71,21.36,20.2,20.21,20.92,4448479.0,92325165.0,1816938053.62,6227206250.0
sh603697,有友食品,2021-06-30,20.21,20.57,20.0,20.22,20.21,3329619.0,67371091.0,1817837082.84,6230287500.0
sh603697,有友食品,2021-07-01,20.22,21.04,19.52,19.74,20.22,5065789.0,102729881.0,1774683680.28,6082387500.0
sh603697,有友食品,2021-07-02,19.61,20.0,19.31,19.48,19.74,3411287.0,66921632.0,1751308920.5600002,6002275000.0
sh603697,有友食品,2021-07-05,19.48,19.75,19.28,19.59,19.48,2203498.0,43066917.0,1761198241.9799998,6036168750.0
sh603697,有友食品,2021-07-06,19.59,19.63,18.61,18.87,19.59,4893881.0,92893332.0,1696468138.14,5814318750.0
sh603697,有友食品,2021-07-07,18.76,19.54,18.68,19.16,18.87,2850800.0,54596277.0,1722539985.52,5903675000.0
sh603697,有友食品,2021-07-08,19.16,19.21,18.8,18.89,19.16,1987600.0,37665935.0,1698266196.5800002,5820481250.0
sh603697,有友食品,2021-07-09,18.78,19.46,18.65,19.36,18.89,2793700.0,53526633.0,1740520569.92,5965300000.0
sh603697,有友食品,2021-07-12,19.5,20.11,19.3,19.99,19.36,3859011.0,76390599.0,1797159410.78,6159418750.0
sh603697,有友食品,2021-07-13,20.03,20.75,20.0,20.04,19.99,3900911.0,78994891.0,1801654556.88,6174825000.0
sh603697,有友食品,2021-07-14,19.89,20.26,19.73,19.82,20.04,2451996.0,48879911.0,1781875914.04,6107037500.0
sh603697,有友食品,2021-07-15,19.84,19.93,19.1,19.52,19.82,2554500.0,49680560.0,1754905037.4399998,6014600000.0
sh603697,有友食品,2021-07-16,19.53,19.63,19.0,19.31,19.52,2218500.0,42879124.0,1736025423.8200002,5949893750.0
sh603697,有友食品,2021-07-19,19.31,19.61,19.01,19.39,19.31,1657100.0,32102753.0,1743217657.58,5974543750.0
sh603697,有友食品,2021-07-20,19.32,19.85,19.18,19.83,19.39,2262300.0,44411789.0,1782774943.2599998,6110118750.0
sh603697,有友食品,2021-07-21,19.83,20.12,19.75,20.05,19.83,2268400.0,45298348.0,1802553586.1,6177906250.0
sh603697,有友食品,2021-07-22,20.05,20.05,19.44,19.57,20.05,2725800.0,53604544.0,1759400183.54,6030006250.0
sh603697,有友食品,2021-07-23,19.52,19.71,19.12,19.3,19.57,1956400.0,37806317.0,1735126394.6,5946812500.0
sh603697,有友食品,2021-07-26,19.39,19.48,18.51,18.7,19.3,2634400.0,49876054.0,1681184641.4,5761937500.0
sh603697,有友食品,2021-07-27,18.7,18.77,17.79,17.79,18.7,3227038.0,58560890.0,1599372982.38,5481543750.0
sh603697,有友食品,2021-07-28,17.71,17.76,16.88,17.04,17.79,2987000.0,51178786.0,1531945790.88,5250450000.0
sh603697,有友食品,2021-07-29,17.19,17.43,17.09,17.25,17.04,1831828.0,31541800.0,1550825404.5,5315156250.0
sh603697,有友食品,2021-07-30,17.28,17.75,17.07,17.73,17.25,2251990.0,39101816.0,1593978807.06,5463056250.0
sh603697,有友食品,2021-08-02,17.57,18.07,17.43,17.8,17.73,2158630.0,38365134.0,1600272011.6,5484625000.0
sh603697,有友食品,2021-08-03,17.86,18.06,17.52,17.63,17.8,1961500.0,34774280.0,1584988514.86,5432243750.0
sh603697,有友食品,2021-08-04,17.63,17.73,17.28,17.37,17.63,2359638.0,41188225.0,1561613755.14,5352131250.0
sh603697,有友食品,2021-08-05,17.33,17.45,17.2,17.22,17.37,1913800.0,33098336.0,1548128316.8400002,5305912500.0
sh603697,有友食品,2021-08-06,16.99,17.83,16.99,17.69,17.22,1926400.0,33691391.0,1590382690.1799998,5450731250.0
sh603697,有友食品,2021-08-09,17.6,18.5,17.52,18.37,17.69,3098290.0,56326537.0,1651516677.14,5660256250.0
sh603697,有友食品,2021-08-10,18.32,18.67,18.05,18.52,18.37,2312200.0,42528897.0,1665002115.4399998,5706475000.0
sh603697,有友食品,2021-08-11,18.52,18.6,18.27,18.3,18.52,1475973.0,27137390.0,1645223472.6,5638687500.0
sh603697,有友食品,2021-08-12,18.32,18.65,18.1,18.36,18.3,1440622.0,26425536.0,1650617647.92,5657175000.0
sh603697,有友食品,2021-08-13,18.1,19.1,18.1,18.89,18.36,2965246.0,55789379.0,1698266196.5800002,5820481250.0
sh603697,有友食品,2021-08-16,18.86,19.06,18.62,18.86,18.89,1612500.0,30392872.0,1695569108.92,5811237500.0
sh603697,有友食品,2021-08-17,18.79,18.97,18.33,18.51,18.86,2047800.0,38093835.0,1664103086.22,5703393750.0
sh603697,有友食品,2021-08-18,17.99,18.08,17.3,17.61,18.51,4568108.0,80411243.0,1583190456.42,5426081250.0
sh603697,有友食品,2021-08-19,17.95,18.28,17.23,17.43,17.61,3395408.0,59714936.0,1567007930.46,5370618750.0
sh603697,有友食品,2021-08-20,17.17,17.89,16.83,17.76,17.43,3206307.0,55454715.0,1596675894.72,5472300000.0
sh603697,有友食品,2021-08-23,17.55,17.67,17.15,17.28,17.76,3143600.0,54514692.0,1553522492.1599998,5324400000.0
sh603697,有友食品,2021-08-24,17.25,17.34,16.96,17.3,17.28,2411534.0,41337694.0,1555320550.6,5330562500.0
sh603697,有友食品,2021-08-25,17.3,17.48,17.12,17.17,17.3,1922200.0,33174829.0,1543633170.74,5290506250.0
sh603697,有友食品,2021-08-26,17.1,17.24,16.9,16.96,17.17,2439800.0,41569754.0,1524753557.12,5225800000.0
sh603697,有友食品,2021-08-27,16.91,17.09,16.86,16.96,16.96,1226053.0,20781271.0,1524753557.12,5225800000.0
sh603697,有友食品,2021-08-30,17.01,17.24,16.96,17.1,16.96,1589700.0,27134443.0,1537339966.1999998,5268937500.0
sh603697,有友食品,2021-08-31,17.12,17.17,16.7,16.81,17.1,1450710.0,24454070.0,1511268118.8200002,5179581250.0
sh603697,有友食品,2021-09-01,16.75,16.98,16.63,16.85,16.81,1390799.0,23356738.0,1514864235.7,5191906250.0
sh603697,有友食品,2021-09-02,16.88,17.0,16.75,16.93,16.85,904621.0,15273399.0,1522056469.46,5216556250.0
sh603697,有友食品,2021-09-03,16.94,17.42,16.83,17.21,16.93,1924090.0,32858579.0,1547229287.62,5302831250.0
sh603697,有友食品,2021-09-06,17.3,17.36,17.04,17.15,17.21,1850038.0,31677920.0,1541835112.3,5284343750.0
sh603697,有友食品,2021-09-07,17.15,17.17,17.05,17.12,17.15,1196200.0,20469951.0,1539138024.64,5275100000.0
sh603697,有友食品,2021-09-08,17.15,17.24,17.08,17.18,17.12,1320621.0,22636812.0,1544532199.96,5293587500.0
sh603697,有友食品,2021-09-09,17.2,17.24,17.03,17.07,17.18,1338229.0,22913732.0,1534642878.54,5259693750.0
sh603697,有友食品,2021-09-10,17.07,17.09,16.73,16.8,17.07,2049924.0,34510550.0,1510369089.6,5176500000.0
sh603697,有友食品,2021-09-13,16.84,16.88,16.66,16.68,16.8,1277800.0,21375262.0,1499580738.9599998,5139525000.0
sh603697,有友食品,2021-09-14,16.68,17.62,16.67,17.2,16.68,3631207.0,62313305.0,1546330258.4,5299750000.0
sh603697,有友食品,2021-09-15,17.1,17.21,16.8,16.94,17.2,1449410.0,24568735.0,1522955498.68,5219637500.0
sh603697,有友食品,2021-09-16,16.89,17.16,16.81,16.83,16.94,1826081.0,30988463.0,1513066177.26,5185743750.0
sh603697,有友食品,2021-09-17,16.76,16.87,16.69,16.82,16.83,1119100.0,18779375.0,1512167148.04,5182662500.0
sh603697,有友食品,2021-09-22,16.7,16.72,16.38,16.57,16.82,1343065.0,22194238.0,1489691417.5400002,5105631250.0
sh603697,有友食品,2021-09-23,16.5,16.77,16.5,16.66,16.57,1071210.0,17840580.0,1497782680.52,5133362500.0
sh603697,有友食品,2021-09-24,16.66,17.59,16.66,17.08,16.66,3750078.0,64532311.0,1535541907.76,5262775000.0
sh603697,有友食品,2021-09-27,16.98,17.58,16.95,17.4,17.08,3582153.0,62323296.0,1564310842.8000002,5361375000.0
sh603697,有友食品,2021-09-28,17.38,17.38,16.66,16.88,17.4,2278319.0,38342701.0,1517561323.36,5201150000.0
sh603697,有友食品,2021-09-29,16.8,16.95,16.69,16.73,16.88,1049048.0,17592909.0,1504075885.06,5154931250.0
sh603697,有友食品,2021-09-30,16.73,16.91,16.68,16.8,16.73,720700.0,12106854.0,1510369089.6,5176500000.0
sh603697,有友食品,2021-10-08,16.91,17.23,16.81,17.19,16.8,1799600.0,30794790.0,1545431229.18,5296668750.0
sh603697,有友食品,2021-10-11,17.2,17.58,17.1,17.24,17.19,1777300.0,30759391.0,1549926375.28,5312075000.0
sh603697,有友食品,2021-10-12,17.19,17.48,17.1,17.34,17.24,2051800.0,35505122.0,1558916667.4799998,5342887500.0
sh603697,有友食品,2021-10-13,17.3,17.67,17.18,17.56,17.34,2890200.0,50433580.0,1578695310.32,5410675000.0
sh603697,有友食品,2021-10-14,17.58,17.6,17.3,17.42,17.56,1860200.0,32381063.0,1566108901.24,5367537500.0
sh603697,有友食品,2021-10-15,17.31,17.45,17.16,17.2,17.42,1413200.0,24404532.0,1546330258.4,5299750000.0
sh603697,有友食品,2021-10-18,17.2,17.24,16.61,16.92,17.2,1926100.0,32397081.0,1521157440.2400002,5213475000.0
sh603697,有友食品,2021-10-19,16.95,17.14,16.85,17.0,16.92,876400.0,14895847.0,1528349674.0,5238125000.0
sh603697,有友食品,2021-10-20,17.0,17.05,16.69,16.83,17.0,1255000.0,21082822.0,1513066177.26,5185743750.0
sh603697,有友食品,2021-10-21,16.83,16.92,16.69,16.74,16.83,846000.0,14211287.0,1504974914.28,5158012500.0
sh603697,有友食品,2021-10-22,16.85,16.95,16.7,16.83,16.74,809600.0,13632254.0,1513066177.26,5185743750.0
sh603697,有友食品,2021-10-25,16.82,16.91,16.69,16.87,16.83,727800.0,12199479.0,1516662294.14,5198068750.0
sh603697,有友食品,2021-10-26,16.87,17.06,16.76,16.78,16.87,1043900.0,17634175.0,1508571031.16,5170337500.0
sh603697,有友食品,2021-10-27,16.81,16.81,16.46,16.52,16.78,1334300.0,22070855.0,1485196271.44,5090225000.0
sh603697,有友食品,2021-10-28,16.0,16.3,15.02,15.32,16.52,4063532.0,62871062.0,1377312765.0400002,4720475000.0
sh603697,有友食品,2021-10-29,15.38,15.97,15.2,15.75,15.32,1552800.0,24278566.0,1415971021.5,4852968750.0
sh603697,有友食品,2021-11-01,15.76,16.36,15.59,16.19,15.75,1632548.0,26313524.0,1455528307.18,4988543750.0
sh603697,有友食品,2021-11-02,16.28,16.6,16.17,16.29,16.19,2021500.0,33077172.0,1464518599.38,5019356250.0
sh603697,有友食品,2021-11-03,16.33,16.6,16.25,16.53,16.29,1671500.0,27532783.0,1486095300.66,5093306250.0
sh603697,有友食品,2021-11-04,16.53,17.59,16.47,17.57,16.53,4553130.0,78390782.0,1579594339.54,5413756250.0
sh603697,有友食品,2021-11-05,17.47,17.89,17.2,17.23,17.57,2670084.0,46624842.0,1549027346.0600002,5308993750.0
sh603697,有友食品,2021-11-08,17.13,17.23,16.72,16.82,17.23,1873413.0,31663222.0,1512167148.04,5182662500.0
sh603697,有友食品,2021-11-09,16.79,16.98,16.75,16.88,16.82,1334500.0,22462510.0,1517561323.36,5201150000.0
sh603697,有友食品,2021-11-10,16.87,16.93,16.55,16.83,16.88,1325100.0,22129559.0,1513066177.26,5185743750.0
sh603697,有友食品,2021-11-11,16.84,16.85,16.38,16.45,16.83,1903300.0,31623638.0,1478903066.9,5068656250.0
sh603697,有友食品,2021-11-12,16.46,16.77,16.33,16.37,16.45,1721000.0,28344591.0,1471710833.14,5044006250.0
sh603697,有友食品,2021-11-15,16.38,17.18,16.37,17.18,16.37,3145637.0,53109925.0,1544532199.96,5293587500.0
sh603697,有友食品,2021-11-16,17.25,17.4,16.98,17.0,17.18,2359382.0,40431141.0,1528349674.0,5238125000.0
sh603697,有友食品,2021-11-17,16.96,17.14,16.75,17.0,17.0,2106984.0,35594400.0,1528349674.0,5238125000.0
sh603697,有友食品,2021-11-18,17.0,17.33,16.8,17.11,17.0,2374213.0,40622170.0,1538238995.42,5272018750.0
sh603697,有友食品,2021-11-19,17.1,17.37,16.81,17.1,17.11,1629400.0,27747097.0,1537339966.1999998,5268937500.0
sh603697,有友食品,2021-11-22,17.0,17.04,16.71,16.8,17.1,2579902.0,43407804.0,1510369089.6,5176500000.0
sh603697,有友食品,2021-11-23,16.7,16.93,16.6,16.68,16.8,1863376.0,31093220.0,1499580738.9599998,5139525000.0
sh603697,有友食品,2021-11-24,16.65,16.82,16.58,16.64,16.68,2079700.0,34645295.0,1495984622.0800002,5127200000.0
sh603697,有友食品,2021-11-25,16.64,16.68,16.39,16.48,16.64,1783600.0,29491393.0,1481600154.56,5077900000.0
sh603697,有友食品,2021-11-26,16.5,16.51,16.07,16.34,16.48,2738569.0,44573288.0,1469013745.48,5034762500.0
sh603697,有友食品,2021-11-29,16.24,16.36,16.01,16.23,16.34,1552456.0,25101931.0,1459124424.06,5015810088.0
sh603697,有友食品,2021-11-30,16.23,16.32,16.13,16.28,16.23,1000748.0,16246188.0,1463619570.16,5031262368.0
sh603697,有友食品,2021-12-01,16.2,16.5,16.15,16.46,16.28,1216100.0,19903255.0,1479802096.1200001,5086890576.0
sh603697,有友食品,2021-12-02,16.4,16.54,16.01,16.02,16.46,1420934.0,23099327.0,1440244810.4399998,4950910512.0
sh603697,有友食品,2021-12-03,16.09,16.36,16.07,16.35,16.02,1097583.0,17792280.0,1469912774.7,5052895560.0
sh603697,有友食品,2021-12-06,16.36,16.37,16.06,16.11,16.35,1229300.0,19860721.0,1448336073.42,4978724616.0
sh603697,有友食品,2021-12-07,16.11,16.35,16.11,16.33,16.11,1195400.0,19392877.0,1468114716.2600002,5046714648.0
sh603697,有友食品,2021-12-08,16.31,16.58,16.22,16.49,16.33,1633900.0,26879122.0,1482499183.78,5096161944.0
sh603697,有友食品,2021-12-09,16.47,16.95,16.4,16.75,16.49,2785760.0,46554477.0,1505873943.4999998,5176513800.0
sh603697,有友食品,2021-12-10,16.75,16.99,16.66,16.92,16.75,2333265.0,39302909.0,1521157440.2400002,5229051552.0
sh603697,有友食品,2021-12-13,16.92,17.09,16.83,17.04,16.92,1913852.0,32510697.0,1531945790.8799999,5266137023.999999
sh603697,有友食品,2021-12-14,17.01,18.14,16.9,17.92,17.04,7284559.0,128771033.0,1611060362.24,5538097152.0
sh603697,有友食品,2021-12-15,17.92,17.96,17.45,17.55,17.92,3743000.0,65920440.0,1577796281.1,5423750280.000001
sh603697,有友食品,2021-12-16,17.35,19.31,17.35,18.67,17.55,13046535.0,245656974.0,1678487553.74,5769881352.0
sh603697,有友食品,2021-12-17,18.58,18.61,18.0,18.17,18.67,6464558.0,117939842.0,1633536092.7399998,5615358552.0
sh603697,有友食品,2021-12-20,18.21,18.5,17.86,18.02,18.17,2506046.0,45241940.0,1620050654.44,5569001712.0
sh603697,有友食品,2021-12-21,18.02,18.28,17.7,18.18,18.02,2455084.0,44251243.0,1634435121.96,5618449007.999999
sh603697,有友食品,2021-12-22,18.21,18.24,17.99,18.15,18.18,1921152.0,34821972.0,1631738034.3,5609177640.0
sh603697,有友食品,2021-12-23,18.15,18.25,17.78,17.82,18.15,2118100.0,37911511.0,1602070070.0400002,5507192592.0
sh603697,有友食品,2021-12-24,17.8,18.35,17.65,18.09,17.82,2767800.0,50101869.0,1626343858.98,5590634904.0
sh603697,有友食品,2021-12-27,18.23,18.25,17.51,17.98,18.09,2880200.0,51375674.0,1616454537.56,5556639888.000001
sh603697,有友食品,2021-12-28,17.98,18.14,17.75,17.82,17.98,1407700.0,25184736.0,1602070070.0400002,5507192592.0
sh603697,有友食品,2021-12-29,17.98,17.98,17.39,17.47,17.82,2183700.0,38388812.0,1570604047.3400002,5399026631.999999
sh603697,有友食品,2021-12-30,17.54,17.75,17.31,17.32,17.47,2233100.0,38981241.0,1557118609.04,5352669791.999999
sh603697,有友食品,2021-12-31,17.43,17.75,17.28,17.57,17.32,2214091.0,38849179.0,1579594339.54,5429931192.0
sh603697,有友食品,2022-01-04,17.55,17.95,17.48,17.77,17.57,2302800.0,40990926.0,1597574923.94,5491740312.0
sh603697,有友食品,2022-01-05,17.8,18.4,17.66,17.67,17.77,3170105.0,56878463.0,1588584631.74,5460835752.0
sh603697,有友食品,2022-01-06,17.56,17.98,17.51,17.88,17.67,2210805.0,39223144.0,1607464245.3600001,5525735328.0
sh603697,有友食品,2022-01-07,17.86,18.0,17.32,17.45,17.88,2628846.0,46170794.0,1568805988.8999999,5392845720.0
sh603697,有友食品,2022-01-10,17.35,18.1,17.26,17.84,17.45,2343605.0,41503238.0,1603868128.48,5513373504.0
sh603697,有友食品,2022-01-11,17.75,18.06,17.53,17.55,17.84,1561900.0,27696811.0,1577796281.1,5423750280.000001
sh603697,有友食品,2022-01-12,17.72,18.39,17.5,18.35,17.55,4911600.0,88926982.0,1649718618.7,5670986760.0
sh603697,有友食品,2022-01-13,18.35,18.5,18.06,18.24,18.35,3789900.0,69239268.0,1639829297.28,5636991744.0
sh603697,有友食品,2022-01-14,18.15,18.46,17.45,17.58,18.24,4452600.0,79596587.0,1580493368.7599998,5433021648.0
