数据由邢不行整理
股票代码,股票名称,交易日期,开盘价,最高价,最低价,收盘价,前收盘价,成交量,成交额,流通市值,总市值
sh601528,N瑞丰,2021-06-25,9.74,11.69,9.74,11.69,8.12,1482700.0,17240325.0,1764435901.4799998,17644359003.11
sh601528,瑞丰银行,2021-06-28,12.86,12.86,12.86,12.86,11.69,1009082.0,12976795.0,1941030427.12,19410304258.34
sh601528,瑞丰银行,2021-06-29,14.15,14.15,14.15,14.15,12.86,1369388.0,19376840.0,2135737211.8,21357372103.85
sh601528,瑞丰银行,2021-06-30,15.57,15.57,15.57,15.57,14.15,24024760.0,374065513.0,2350065610.44,23500656088.83
sh601528,瑞丰银行,2021-07-01,15.64,17.08,15.01,16.78,15.57,103029003.0,1673976292.0,2532697555.76,25326975540.820004
sh601528,瑞丰银行,2021-07-02,15.1,15.23,15.1,15.1,16.78,11130500.0,168090986.0,2279125929.2,22791259276.9
sh601528,瑞丰银行,2021-07-05,13.59,13.59,13.59,13.59,15.1,2444800.0,33224832.0,2051213336.28,20512133349.21
sh601528,瑞丰银行,2021-07-06,12.3,14.65,12.3,13.3,13.59,81748973.0,1056377727.0,2007442043.6,20074420422.7
sh601528,瑞丰银行,2021-07-07,12.5,12.71,12.13,12.26,13.3,62208551.0,768526458.0,1850469131.92,18504691306.94
sh601528,瑞丰银行,2021-07-08,12.5,12.84,12.31,12.37,12.26,50220143.0,631683401.0,1867072036.04,18670720348.03
sh601528,瑞丰银行,2021-07-09,12.1,12.8,11.8,12.4,12.37,43042243.0,532114127.0,1871600100.8,18716000995.6
sh601528,瑞丰银行,2021-07-12,12.7,12.91,12.23,12.33,12.4,43156925.0,540184046.0,1861034616.36,18610346151.27
sh601528,瑞丰银行,2021-07-13,12.02,12.81,11.88,12.52,12.33,44544241.0,549111399.0,1889712359.84,18897123585.88
sh601528,瑞丰银行,2021-07-14,12.36,12.66,12.15,12.24,12.52,34236019.0,423179100.0,1847450422.08,18474504208.56
sh601528,瑞丰银行,2021-07-15,12.26,13.46,12.15,13.46,12.24,79280939.0,1039262589.0,2031591722.32,20315917209.74
sh601528,瑞丰银行,2021-07-16,13.0,13.2,12.75,12.85,13.46,59692258.0,771587562.0,1939521072.2,19395210709.15
sh601528,瑞丰银行,2021-07-19,12.69,12.69,11.95,12.16,12.85,39727381.0,486513478.0,1835375582.72,18353755815.04
sh601528,瑞丰银行,2021-07-20,12.0,12.24,11.84,12.07,12.16,29344639.0,351563350.0,1821791388.44,18217913872.33
sh601528,瑞丰银行,2021-07-21,12.06,12.34,11.94,12.22,12.07,30588545.0,371750886.0,1844431712.24,18444317110.18
sh601528,瑞丰银行,2021-07-22,12.22,12.38,11.88,11.88,12.22,31449248.0,381435262.0,1793113644.96,17931136437.72
sh601528,瑞丰银行,2021-07-23,11.65,12.1,11.16,11.53,11.88,39458634.0,455734167.0,1740286222.76,17402862216.07
sh601528,瑞丰银行,2021-07-26,11.27,11.39,10.95,10.97,11.53,27017554.0,301523325.0,1655762347.24,16557623461.43
sh601528,瑞丰银行,2021-07-27,10.93,11.29,10.74,10.97,10.97,23533778.0,259963820.0,1655762347.24,16557623461.43
sh601528,瑞丰银行,2021-07-28,10.97,12.02,10.92,11.31,10.97,38758630.0,443751856.0,1707080414.52,17070804133.89
sh601528,瑞丰银行,2021-07-29,11.02,11.48,10.85,11.47,11.31,32756844.0,364937894.0,1731230093.2400002,17312300920.93
sh601528,瑞丰银行,2021-07-30,11.3,11.35,11.0,11.01,11.47,22387493.0,249450994.0,1661799766.92,16617997658.19
sh601528,瑞丰银行,2021-08-02,10.88,11.47,10.78,11.21,11.01,25822867.0,287523619.0,1691986865.32,16919868641.99
sh601528,瑞丰银行,2021-08-03,11.02,11.33,11.02,11.2,11.21,21018362.0,234211741.0,1690477510.4,16904775092.8
sh601528,瑞丰银行,2021-08-04,11.22,11.28,11.02,11.08,11.2,15786361.0,175264262.0,1672365251.36,16723652502.52
sh601528,瑞丰银行,2021-08-05,11.03,11.23,10.9,10.9,11.08,16763657.0,185311545.0,1645196862.8,16451968617.1
sh601528,瑞丰银行,2021-08-06,10.8,11.09,10.67,10.86,10.9,16957201.0,184117234.0,1639159443.12,16391594420.34
sh601528,瑞丰银行,2021-08-09,10.78,11.28,10.78,11.1,10.86,23849801.0,265019544.0,1675383961.1999998,16753839600.9
sh601528,瑞丰银行,2021-08-10,11.04,11.26,10.97,11.26,11.1,22563874.0,251084362.0,1699533639.92,16995336387.94
sh601528,瑞丰银行,2021-08-11,11.22,11.69,11.09,11.12,11.26,30571251.0,345933989.0,1678402671.04,16784026699.28
sh601528,瑞丰银行,2021-08-12,11.0,11.15,10.88,10.9,11.12,19517779.0,214410358.0,1645196862.8,16451968617.1
sh601528,瑞丰银行,2021-08-13,10.91,11.04,10.82,11.01,10.9,16356758.0,178704797.0,1661799766.92,16617997658.19
sh601528,瑞丰银行,2021-08-16,11.11,11.27,10.9,11.14,11.01,23534115.0,261311905.0,1681421380.88,16814213797.66
sh601528,瑞丰银行,2021-08-17,11.14,11.88,11.05,11.3,11.14,37685506.0,430546713.0,1705571059.6,17055710584.7
sh601528,瑞丰银行,2021-08-18,11.12,12.43,11.1,12.43,11.3,58990779.0,706706840.0,1876128165.56,18761281643.17
sh601528,瑞丰银行,2021-08-19,12.93,13.17,11.86,12.0,12.43,69075472.0,865116383.0,1811225904.0,18112259028.0
sh601528,瑞丰银行,2021-08-20,11.77,11.99,11.3,11.36,12.0,40698488.0,469308870.0,1714627189.12,17146271879.84
sh601528,瑞丰银行,2021-08-23,11.36,11.5,11.23,11.3,11.36,23485965.0,265964431.0,1705571059.6,17055710584.7
sh601528,瑞丰银行,2021-08-24,11.26,11.41,11.08,11.22,11.3,23561052.0,264393606.0,1693496220.24,16934962191.18
sh601528,瑞丰银行,2021-08-25,11.13,11.28,11.05,11.12,11.22,15970438.0,177786747.0,1678402671.04,16784026699.28
sh601528,瑞丰银行,2021-08-26,11.11,11.19,10.93,10.96,11.12,19013488.0,210073122.0,1654252992.32,16542529912.24
sh601528,瑞丰银行,2021-08-27,10.91,11.06,10.47,10.48,10.96,24510028.0,264089976.0,1581803956.1599998,15818039551.12
sh601528,瑞丰银行,2021-08-30,10.4,10.42,10.05,10.17,10.48,19189451.0,195024785.0,1535013953.64,15350139526.23
sh601528,瑞丰银行,2021-08-31,10.13,10.39,10.11,10.36,10.17,16887117.0,173437855.0,1563691697.12,15636916960.84
sh601528,瑞丰银行,2021-09-01,10.26,10.87,10.15,10.56,10.36,23193072.0,243438876.0,1593878795.52,15938787944.64
sh601528,瑞丰银行,2021-09-02,10.44,10.54,10.31,10.46,10.56,15191529.0,158376085.0,1578785246.32,15787852452.740002
sh601528,瑞丰银行,2021-09-03,10.5,10.75,10.36,10.48,10.46,16894052.0,178216840.0,1581803956.1599998,15818039551.12
sh601528,瑞丰银行,2021-09-06,10.4,10.47,10.32,10.45,10.48,13933596.0,144876328.0,1577275891.4,15772758903.55
sh601528,瑞丰银行,2021-09-07,10.44,10.75,10.32,10.66,10.45,20750594.0,217835526.0,1608972344.72,16089723436.54
sh601528,瑞丰银行,2021-09-08,10.61,10.85,10.56,10.63,10.66,16242089.0,173347048.0,1604444279.96,16044442788.97
sh601528,瑞丰银行,2021-09-09,10.54,11.16,10.49,10.93,10.63,23187826.0,251188957.0,1649724927.56,16497249264.67
sh601528,瑞丰银行,2021-09-10,10.95,12.02,10.81,11.48,10.93,63756639.0,742988428.0,1732739448.16,17327394470.12
sh601528,瑞丰银行,2021-09-13,11.2,11.46,11.04,11.32,11.48,37697708.0,424070656.0,1708589769.44,17085897683.08
sh601528,瑞丰银行,2021-09-14,11.29,11.45,10.8,10.89,11.32,30071665.0,332151496.0,1643687507.88,16436875067.91
sh601528,瑞丰银行,2021-09-15,10.78,10.94,10.64,10.75,10.89,17713496.0,190529270.0,1622556539.0,16225565379.25
sh601528,瑞丰银行,2021-09-16,10.78,10.86,10.45,10.48,10.75,17111714.0,182414712.0,1581803956.1599998,15818039551.12
sh601528,瑞丰银行,2021-09-17,10.48,10.56,10.37,10.45,10.48,11415261.0,119400012.0,1577275891.4,15772758903.55
sh601528,瑞丰银行,2021-09-22,10.14,10.2,10.02,10.19,10.45,15667065.0,158127862.0,1538032663.48,15380326624.61
sh601528,瑞丰银行,2021-09-23,10.22,10.38,10.21,10.26,10.19,10126118.0,104031987.0,1548598147.9199998,15485981468.94
sh601528,瑞丰银行,2021-09-24,10.23,10.26,10.05,10.06,10.26,10581912.0,107275468.0,1518411049.52,15184110485.14
sh601528,瑞丰银行,2021-09-27,10.06,10.23,9.88,10.19,10.06,15300169.0,153868788.0,1538032663.48,15380326624.61
sh601528,瑞丰银行,2021-09-28,10.15,10.47,10.11,10.38,10.19,16684632.0,172217314.0,1566710406.96,15667104059.22
sh601528,瑞丰银行,2021-09-29,10.23,10.58,10.12,10.33,10.38,17331893.0,178801369.0,1559163632.36,15591636313.27
sh601528,瑞丰银行,2021-09-30,10.22,10.26,10.1,10.13,10.33,11238288.0,114136556.0,1528976533.96,15289765329.47
sh601528,瑞丰银行,2021-10-08,10.19,10.38,10.15,10.28,10.13,11199068.0,115129555.0,1551616857.76,15516168567.32
sh601528,瑞丰银行,2021-10-11,10.29,11.31,10.25,10.76,10.28,35939164.0,392026530.0,1624065893.9199998,16240658928.44
sh601528,瑞丰银行,2021-10-12,10.54,10.72,10.35,10.43,10.76,23645352.0,247857925.0,1574257181.56,15742571805.17
sh601528,瑞丰银行,2021-10-13,10.39,11.47,10.33,11.47,10.43,38509643.0,426917067.0,1731230093.2400002,17312300920.93
sh601528,瑞丰银行,2021-10-14,11.08,11.45,11.05,11.3,11.47,37920558.0,425892313.0,1705571059.6,17055710584.7
sh601528,瑞丰银行,2021-10-15,11.18,11.66,11.12,11.39,11.3,31285860.0,355482010.0,1719155253.88,17191552527.41
sh601528,瑞丰银行,2021-10-18,11.11,11.7,10.89,11.7,11.39,33349156.0,380452372.0,1765945256.4,17659452552.3
sh601528,瑞丰银行,2021-10-19,11.54,11.75,11.25,11.37,11.7,25673022.0,294737674.0,1716136544.04,17161365429.03
sh601528,瑞丰银行,2021-10-20,11.37,11.57,11.06,11.2,11.37,23711973.0,266125868.0,1690477510.4,16904775092.8
sh601528,瑞丰银行,2021-10-21,11.34,12.05,11.24,11.47,11.2,38998238.0,451626079.0,1731230093.2400002,17312300920.93
sh601528,瑞丰银行,2021-10-22,11.48,11.75,10.89,10.93,11.47,31500838.0,354935643.0,1649724927.56,16497249264.67
sh601528,瑞丰银行,2021-10-25,10.75,10.95,10.46,10.87,10.93,18793429.0,201548368.0,1640668798.04,16406687969.53
sh601528,瑞丰银行,2021-10-26,10.8,11.17,10.76,10.98,10.87,15737951.0,173471299.0,1657271702.16,16572717010.62
sh601528,瑞丰银行,2021-10-27,11.0,11.02,10.41,10.46,10.98,17484473.0,185334988.0,1578785246.32,15787852452.74
sh601528,瑞丰银行,2021-10-28,10.39,10.73,10.38,10.45,10.46,12078920.0,127190821.0,1577275891.4,15772758903.55
sh601528,瑞丰银行,2021-10-29,10.43,10.64,10.25,10.52,10.45,13089501.0,136847224.0,1587841375.8400002,15878413747.88
sh601528,瑞丰银行,2021-11-01,10.46,10.86,10.44,10.7,10.52,15860414.0,169314659.0,1615009764.4,16150097633.3
sh601528,瑞丰银行,2021-11-02,10.6,10.79,10.21,10.33,10.7,17263243.0,180369583.0,1559163632.36,15591636313.27
sh601528,瑞丰银行,2021-11-03,10.27,10.49,10.24,10.48,10.33,10183569.0,105887748.0,1581803956.1599998,15818039551.12
sh601528,瑞丰银行,2021-11-04,10.4,10.48,10.37,10.46,10.48,8429196.0,87835808.0,1578785246.32,15787852452.740002
sh601528,瑞丰银行,2021-11-05,10.45,10.47,10.3,10.38,10.46,8525398.0,88612433.0,1566710406.96,15667104059.22
sh601528,瑞丰银行,2021-11-08,10.36,10.7,10.24,10.55,10.38,12239960.0,128394253.0,1592369440.6,15923694395.45
sh601528,瑞丰银行,2021-11-09,10.59,10.7,10.46,10.68,10.55,11271731.0,119414826.0,1611991054.56,16119910534.92
sh601528,瑞丰银行,2021-11-10,10.62,10.98,10.52,10.82,10.68,17299974.0,186210567.0,1633122023.4399998,16331220223.58
sh601528,瑞丰银行,2021-11-11,10.74,11.22,10.72,11.08,10.82,23557613.0,259734196.0,1672365251.36,16723652502.52
sh601528,瑞丰银行,2021-11-12,11.0,11.06,10.85,11.0,11.08,15209962.0,166512314.0,1660290412.0,16602904109.0
sh601528,瑞丰银行,2021-11-15,10.95,11.06,10.79,10.99,11.0,12339648.0,134929827.0,1658781057.08,16587810559.81
sh601528,瑞丰银行,2021-11-16,10.96,11.13,10.61,10.63,10.99,15513860.0,168451609.0,1604444279.96,16044442788.97
sh601528,瑞丰银行,2021-11-17,10.61,10.78,10.52,10.66,10.63,11035406.0,117375954.0,1608972344.72,16089723436.54
sh601528,瑞丰银行,2021-11-18,10.69,10.7,10.44,10.48,10.66,10560411.0,111689393.0,1581803956.1599998,15818039551.12
sh601528,瑞丰银行,2021-11-19,10.48,10.94,10.46,10.83,10.48,18270431.0,195740240.0,1634631378.36,16346313772.77
sh601528,瑞丰银行,2021-11-22,10.79,11.02,10.69,10.9,10.83,16073060.0,174405409.0,1645196862.8,16451968617.1
sh601528,瑞丰银行,2021-11-23,10.89,11.19,10.88,11.0,10.9,18069631.0,199588073.0,1660290412.0,16602904109.0
sh601528,瑞丰银行,2021-11-24,11.06,11.75,10.89,11.2,11.0,30762793.0,344749754.0,1690477510.4,16904775092.800001
sh601528,瑞丰银行,2021-11-25,11.16,11.42,11.1,11.25,11.2,20707623.0,232718614.0,1698024285.0,16980242838.75
sh601528,瑞丰银行,2021-11-26,11.16,11.33,11.03,11.12,11.25,15373730.0,171281229.0,1678402671.04,16784026699.28
sh601528,瑞丰银行,2021-11-29,10.95,11.1,10.89,10.92,11.12,13047751.0,143350372.0,1648215572.64,16482155715.48
sh601528,瑞丰银行,2021-11-30,10.95,11.08,10.82,11.01,10.92,11935500.0,130911308.0,1661799766.92,16617997658.19
sh601528,瑞丰银行,2021-12-01,10.92,11.32,10.9,11.15,11.01,17554656.0,195379552.0,1682930735.8,16829307346.85
sh601528,瑞丰银行,2021-12-02,11.09,11.54,11.02,11.32,11.15,27931831.0,315342838.0,1708589769.44,17085897683.08
sh601528,瑞丰银行,2021-12-03,11.36,11.43,11.1,11.25,11.32,21470299.0,241808156.0,1698024285.0,16980242838.75
sh601528,瑞丰银行,2021-12-06,11.4,12.38,11.23,11.6,11.25,56009956.0,660968204.0,1750851707.2,17508517060.4
sh601528,瑞丰银行,2021-12-07,11.67,11.82,11.16,11.24,11.6,39106125.0,447009394.0,1696514930.08,16965149289.56
sh601528,瑞丰银行,2021-12-08,11.22,11.43,11.13,11.4,11.24,23377614.0,264153836.0,1720664608.8,17206646076.6
sh601528,瑞丰银行,2021-12-09,11.27,12.54,11.25,12.11,11.4,73392727.0,890435208.0,1827828808.12,18278288069.09
sh601528,瑞丰银行,2021-12-10,11.87,11.98,11.64,11.72,12.11,45622633.0,537707611.0,1768963966.2399998,17689639650.68
sh601528,瑞丰银行,2021-12-13,11.77,12.05,11.54,11.6,11.72,31157471.0,366225639.0,1750851707.2,17508517060.4
sh601528,瑞丰银行,2021-12-14,11.62,11.74,11.5,11.72,11.6,21241737.0,246775750.0,1768963966.2399998,17689639650.68
sh601528,瑞丰银行,2021-12-15,11.73,11.76,11.5,11.54,11.72,20975892.0,243223321.0,1741795577.68,17417955765.26
sh601528,瑞丰银行,2021-12-16,11.55,11.75,11.44,11.65,11.54,17305850.0,200793942.0,1758398481.8,17583984806.35
sh601528,瑞丰银行,2021-12-17,11.65,11.75,11.49,11.63,11.65,17952058.0,208789263.0,1755379771.96,17553797707.97
sh601528,瑞丰银行,2021-12-20,11.47,11.57,11.15,11.15,11.63,20798376.0,235536638.0,1682930735.8,16829307346.85
sh601528,瑞丰银行,2021-12-21,11.21,11.77,11.16,11.56,11.15,25365979.0,291707085.0,1744814287.52,17448142863.64
sh601528,瑞丰银行,2021-12-22,11.48,11.54,11.27,11.28,11.56,15759629.0,178878574.0,1702552349.76,17025523486.32
sh601528,瑞丰银行,2021-12-23,11.25,11.34,11.16,11.2,11.28,11558130.0,129753105.0,1690477510.4,16904775092.800001
sh601528,瑞丰银行,2021-12-24,11.19,11.34,11.12,11.13,11.2,12341330.0,138442762.0,1679912025.9599998,16799120248.47
sh601528,瑞丰银行,2021-12-27,11.13,11.22,11.03,11.17,11.13,9305220.0,103487793.0,1685949445.64,16859494445.23
sh601528,瑞丰银行,2021-12-28,11.17,11.32,11.14,11.3,11.17,9670491.0,108662487.0,1705571059.6,17055710584.7
sh601528,瑞丰银行,2021-12-29,11.29,11.3,11.11,11.11,11.3,8850088.0,98966520.0,1676893316.1200001,16768933150.09
sh601528,瑞丰银行,2021-12-30,11.12,11.35,11.11,11.27,11.11,11059107.0,124490652.0,1701042994.84,17010429937.130001
sh601528,瑞丰银行,2021-12-31,11.23,11.36,11.18,11.28,11.27,10727096.0,120749186.0,1702552349.76,17025523486.32
sh601528,瑞丰银行,2022-01-04,11.24,11.48,11.17,11.39,11.28,14571122.0,165030999.0,1719155253.88,17191552527.41
sh601528,瑞丰银行,2022-01-05,11.39,11.85,11.33,11.54,11.39,30188840.0,350279043.0,1741795577.68,17417955765.26
sh601528,瑞丰银行,2022-01-06,11.46,11.67,11.4,11.46,11.54,21062838.0,242375021.0,1729720738.32,17297207371.739998
sh601528,瑞丰银行,2022-01-07,11.45,11.74,11.37,11.62,11.46,23128714.0,268134345.0,1753870417.04,17538704158.78
sh601528,瑞丰银行,2022-01-10,11.66,11.98,11.51,11.79,11.62,26825392.0,313802177.0,1779529450.68,17795294495.010002
sh601528,瑞丰银行,2022-01-11,11.69,12.08,11.62,11.75,11.79,23132534.0,273735186.0,1773492031.0000002,17734920298.25
sh601528,瑞丰银行,2022-01-12,11.7,11.78,11.54,11.59,11.75,18072090.0,209996136.0,1749342352.28,17493423511.21
sh601528,瑞丰银行,2022-01-13,11.58,11.96,11.53,11.65,11.59,18695520.0,219149927.0,1758398481.8,17583984806.35
sh601528,瑞丰银行,2022-01-14,11.55,11.57,11.11,11.16,11.65,23433428.0,263257387.0,1684440090.7199998,16844400896.04
