数据由邢不行整理
股票代码,股票名称,交易日期,开盘价,最高价,最低价,收盘价,前收盘价,成交量,成交额,流通市值,总市值
sh605001,N威奥,2020-05-22,19.37,23.24,19.37,23.24,16.14,398633.0,9247780.0,1756014400.0,7023592800.0
sh605001,威奥股份,2020-05-25,25.56,25.56,25.56,25.56,23.24,479074.0,12245131.0,1931313600.0,7724743200.0
sh605001,威奥股份,2020-05-26,28.11,28.11,25.62,26.4,25.56,38565131.0,1026371465.0,1994784000.0,7978608000.0
sh605001,威奥股份,2020-05-27,25.21,27.87,25.21,27.43,26.4,31814575.0,848026076.0,2072610800.0,8289894600.0
sh605001,威奥股份,2020-05-28,27.0,27.16,24.72,24.83,27.43,25209280.0,651759660.0,1876154800.0,7504122600.0
sh605001,威奥股份,2020-05-29,24.15,24.25,22.95,22.99,24.83,21663043.0,508441509.0,1737124400.0,6948037800.0
sh605001,威奥股份,2020-06-01,22.6,23.47,22.0,23.05,22.99,14884060.0,341176246.0,1741658000.0,6966171000.0
sh605001,威奥股份,2020-06-02,22.84,23.48,22.53,23.05,23.05,11338608.0,261606984.0,1741658000.0,6966171000.0
sh605001,威奥股份,2020-06-03,23.1,23.1,22.32,22.33,23.05,11871176.0,268065094.0,1687254800.0,6748572600.0
sh605001,威奥股份,2020-06-04,22.22,23.3,22.12,23.27,22.33,13054782.0,297260680.0,1758281200.0,7032659400.0
sh605001,威奥股份,2020-06-05,23.02,23.4,22.62,22.73,23.27,8285424.0,190034560.0,1717478800.0,6869460600.0
sh605001,威奥股份,2020-06-08,22.76,23.16,22.69,22.83,22.73,6222635.0,142498289.0,1725034800.0,6899682600.0
sh605001,威奥股份,2020-06-09,22.71,22.77,22.35,22.39,22.83,6776349.0,152400131.0,1691788400.0,6766705800.0
sh605001,威奥股份,2020-06-10,22.37,22.5,21.61,21.74,22.39,7798206.0,170947508.0,1642674400.0,6570262800.0
sh605001,威奥股份,2020-06-11,21.8,21.97,21.6,21.96,21.74,5812877.0,126930720.0,1659297600.0,6636751200.0
sh605001,威奥股份,2020-06-12,21.38,22.22,21.04,21.88,21.96,6743861.0,146252322.0,1653252800.0,6612573600.0
sh605001,威奥股份,2020-06-15,21.76,21.76,21.41,21.43,21.88,5701642.0,122925136.0,1619250799.9999998,6476574600.0
sh605001,威奥股份,2020-06-16,21.5,21.79,21.5,21.66,21.43,4828839.0,104674641.0,1636629600.0,6546085200.0
sh605001,威奥股份,2020-06-17,21.54,22.47,21.52,22.07,21.66,8026744.0,177637499.0,1667609200.0000002,6669995400.0
sh605001,威奥股份,2020-06-18,21.91,22.64,21.78,22.41,22.07,7670048.0,170910029.0,1693299600.0,6772750200.0
sh605001,威奥股份,2020-06-19,22.35,22.55,22.01,22.04,22.41,5981967.0,132608382.0,1665342400.0,6660928800.0
sh605001,威奥股份,2020-06-22,22.04,22.09,21.63,21.65,22.04,5603574.0,122062857.0,1635874000.0,6543063000.0
sh605001,威奥股份,2020-06-23,21.76,21.76,21.36,21.37,21.65,4174345.0,89705139.0,1614717200.0,6458441400.0
sh605001,威奥股份,2020-06-24,21.37,21.46,20.83,20.86,21.37,5530679.0,116663313.0,1576181600.0,6304309200.0
sh605001,威奥股份,2020-06-29,20.78,20.78,20.28,20.29,20.86,4553324.0,93092156.0,1533112400.0,6132043800.0
sh605001,威奥股份,2020-06-30,20.26,20.6,20.26,20.48,20.29,3591188.0,73616593.0,1547468800.0,6189465600.000001
sh605001,威奥股份,2020-07-01,20.48,20.59,20.24,20.35,20.48,3953594.0,80613046.0,1537646000.0,6150177000.0
sh605001,威奥股份,2020-07-02,20.35,21.08,20.34,20.91,20.35,6062097.0,125804780.0,1579959600.0,6319420200.0
sh605001,威奥股份,2020-07-03,20.95,20.98,20.7,20.86,20.91,4400980.0,91611670.0,1576181600.0,6304309200.0
sh605001,威奥股份,2020-07-06,20.85,21.57,20.85,21.45,20.86,7295348.0,155202479.0,1620762000.0,6482619000.0
sh605001,威奥股份,2020-07-07,21.53,21.68,21.24,21.44,21.45,7986848.0,171082287.0,1620006400.0000002,6479596800.000001
sh605001,威奥股份,2020-07-08,21.4,21.55,21.23,21.5,21.44,6564888.0,140658177.0,1624540000.0,6497730000.0
sh605001,威奥股份,2020-07-09,21.5,21.95,21.42,21.89,21.5,8555451.0,185829459.0,1654008400.0,6615595800.0
sh605001,威奥股份,2020-07-10,21.88,22.09,21.62,21.68,21.89,7874138.0,171513619.0,1638140799.9999998,6552129600.0
sh605001,威奥股份,2020-07-13,21.67,22.06,21.66,21.92,21.68,6947610.0,151961858.0,1656275200.0,6624662400.0
sh605001,威奥股份,2020-07-14,21.9,21.96,21.45,21.7,21.92,7047411.0,152700586.0,1639652000.0,6558174000.0
sh605001,威奥股份,2020-07-15,21.71,21.81,20.8,20.81,21.7,6232426.0,132135065.0,1572403599.9999998,6289198199.999999
sh605001,威奥股份,2020-07-16,20.84,20.93,20.07,20.11,20.81,5754265.0,117869461.0,1519511600.0,6077644200.0
sh605001,威奥股份,2020-07-17,20.18,20.39,20.02,20.24,20.11,3605688.0,72828074.0,1529334400.0,6116932800.0
sh605001,威奥股份,2020-07-20,20.38,20.78,20.25,20.72,20.24,3599325.0,73947902.0,1565603200.0,6261998400.0
sh605001,威奥股份,2020-07-21,20.73,20.84,20.54,20.65,20.72,2712828.0,56056867.0,1560314000.0,6240843000.0
sh605001,威奥股份,2020-07-22,20.6,20.9,20.56,20.58,20.65,3236284.0,67063680.0,1555024800.0,6219687600.0
sh605001,威奥股份,2020-07-23,20.45,20.52,20.03,20.27,20.58,3288176.0,66529422.0,1531601200.0,6125999399.999999
sh605001,威奥股份,2020-07-24,20.16,20.48,19.7,19.88,20.27,3954922.0,79484031.0,1502132800.0,6008133600.0
sh605001,威奥股份,2020-07-27,19.9,20.38,19.77,20.31,19.88,2987517.0,60089850.0,1534623599.9999998,6138088199.999999
sh605001,威奥股份,2020-07-28,20.35,20.47,20.09,20.22,20.31,2480630.0,50242937.0,1527823200.0,6110888400.0
sh605001,威奥股份,2020-07-29,20.1,20.46,20.1,20.42,20.22,3033761.0,61670026.0,1542935200.0,6171332400.0
sh605001,威奥股份,2020-07-30,20.42,20.48,20.18,20.22,20.42,2850769.0,57888107.0,1527823200.0,6110888400.0
sh605001,威奥股份,2020-07-31,20.17,20.38,20.1,20.22,20.22,2708406.0,54801888.0,1527823200.0,6110888400.0
sh605001,威奥股份,2020-08-03,20.22,20.63,20.21,20.59,20.22,4083079.0,83539153.0,1555780400.0,6222709800.0
sh605001,威奥股份,2020-08-04,20.59,21.0,20.31,20.8,20.59,5888398.0,121660077.0,1571648000.0,6286176000.0
sh605001,威奥股份,2020-08-05,20.69,20.88,20.42,20.82,20.8,4149367.0,85698409.0,1573159200.0000002,6292220400.0
sh605001,威奥股份,2020-08-06,20.78,21.18,20.71,21.18,20.82,6891169.0,144916008.0,1600360799.9999998,6401019600.0
sh605001,威奥股份,2020-08-07,21.11,22.09,20.82,21.77,21.18,12203257.0,262850352.0,1644941200.0,6579329399.999999
sh605001,威奥股份,2020-08-10,21.61,22.98,21.51,22.66,21.77,12771113.0,286726134.0,1712189600.0,6848305200.0
sh605001,威奥股份,2020-08-11,22.69,22.7,21.36,21.49,22.66,10833443.0,238697267.0,1623784400.0,6494707800.0
sh605001,威奥股份,2020-08-12,21.18,21.51,20.53,20.87,21.49,6779652.0,141922327.0,1576937200.0,6307331400.0
sh605001,威奥股份,2020-08-13,20.99,21.47,20.95,21.0,20.87,4790877.0,101589124.0,1586760000.0,6346620000.0
sh605001,威奥股份,2020-08-14,20.78,21.0,20.62,20.93,21.0,3692673.0,76907067.0,1581470799.9999998,6325464600.0
sh605001,威奥股份,2020-08-17,20.85,21.19,20.84,21.15,20.93,3972668.0,83712360.0,1598094000.0,6391953000.0
sh605001,威奥股份,2020-08-18,21.2,21.2,20.84,21.04,21.15,3713591.0,78045232.0,1589782400.0,6358708800.0
sh605001,威奥股份,2020-08-19,21.02,21.05,20.72,20.78,21.04,2772708.0,57901113.0,1570136800.0,6280131600.0
sh605001,威奥股份,2020-08-20,20.61,20.71,20.39,20.44,20.78,3017654.0,61871492.0,1544446400.0000002,6177376800.000001
sh605001,威奥股份,2020-08-21,20.44,20.65,20.41,20.53,20.44,2035787.0,41789574.0,1551246800.0,6204576600.0
sh605001,威奥股份,2020-08-24,20.6,20.68,20.33,20.64,20.53,1705676.0,35030300.0,1559558400.0,6237820800.0
sh605001,威奥股份,2020-08-25,20.66,20.66,20.36,20.47,20.64,2110125.0,43185558.0,1546713200.0,6186443400.0
sh605001,威奥股份,2020-08-26,20.21,20.29,19.91,19.98,20.47,3738059.0,75021082.0,1509688800.0,6038355600.000001
sh605001,威奥股份,2020-08-27,19.89,20.23,19.89,20.19,19.98,1909011.0,38356916.0,1525556400.0000002,6101821800.000001
sh605001,威奥股份,2020-08-28,20.1,20.24,20.1,20.19,20.19,1667724.0,33612904.0,1525556400.0000002,6101821800.000001
sh605001,威奥股份,2020-08-31,20.2,20.32,20.1,20.14,20.19,1757824.0,35594938.0,1521778400.0,6086710800.0
sh605001,威奥股份,2020-09-01,20.1,20.45,20.0,20.4,20.14,2294065.0,46418458.0,1541424000.0,6165288000.0
sh605001,威奥股份,2020-09-02,20.41,20.44,20.15,20.28,20.4,1581331.0,32054970.0,1532356800.0,6129021600.0
sh605001,威奥股份,2020-09-03,20.35,20.35,20.11,20.13,20.28,1660911.0,33592901.0,1521022800.0,6083688600.0
sh605001,威奥股份,2020-09-04,19.92,20.05,19.8,19.98,20.13,1753280.0,34966161.0,1509688800.0,6038355600.000001
sh605001,威奥股份,2020-09-07,19.98,20.1,19.8,19.88,19.98,1885306.0,37586048.0,1502132800.0,6008133600.0
sh605001,威奥股份,2020-09-08,19.83,19.97,19.7,19.92,19.88,1675463.0,33229967.0,1505155200.0,6020222400.0
sh605001,威奥股份,2020-09-09,19.78,19.78,19.15,19.22,19.92,2954017.0,57434751.0,1452263200.0,5808668400.0
sh605001,威奥股份,2020-09-10,19.36,19.38,18.28,18.36,19.22,3117967.0,58519175.0,1387281600.0,5548759200.0
sh605001,威奥股份,2020-09-11,18.35,18.52,18.1,18.5,18.36,1694433.0,30954955.0,1397860000.0,5591070000.0
sh605001,威奥股份,2020-09-14,18.53,18.68,18.4,18.44,18.5,1261904.0,23397043.0,1393326400.0000002,5572936800.000001
sh605001,威奥股份,2020-09-15,18.55,18.55,18.3,18.39,18.44,1104351.0,20299666.0,1389548400.0,5557825800.0
sh605001,威奥股份,2020-09-16,18.39,18.74,18.28,18.74,18.39,1908032.0,35366068.0,1415994400.0,5663602800.0
sh605001,威奥股份,2020-09-17,18.7,18.99,18.58,18.8,18.74,2014933.0,37827301.0,1420528000.0,5681736000.0
sh605001,威奥股份,2020-09-18,18.74,18.88,18.62,18.88,18.8,1399850.0,26264423.0,1426572800.0,5705913600.0
sh605001,威奥股份,2020-09-21,18.86,18.99,18.76,18.76,18.88,1250608.0,23580443.0,1417505600.0,5669647200.0
sh605001,威奥股份,2020-09-22,18.6,18.6,18.14,18.21,18.76,1671300.0,30740087.0,1375947600.0,5503426200.0
sh605001,威奥股份,2020-09-23,18.19,19.1,18.19,18.78,18.21,3176323.0,59733014.0,1419016800.0,5675691600.0
sh605001,威奥股份,2020-09-24,18.46,18.55,18.25,18.3,18.78,2169199.0,39810465.0,1382748000.0,5530626000.0
sh605001,威奥股份,2020-09-25,18.3,18.39,18.11,18.18,18.3,1096726.0,19993383.0,1373680799.9999998,5494359600.0
sh605001,威奥股份,2020-09-28,18.18,18.2,17.68,17.68,18.18,1600687.0,28661083.0,1335900799.9999998,5343249600.0
sh605001,威奥股份,2020-09-29,17.79,17.82,17.6,17.6,17.68,1002531.0,17753833.0,1329856000.0,5319072000.0
sh605001,威奥股份,2020-09-30,17.62,17.74,17.5,17.57,17.6,833511.0,14679341.0,1327589200.0000002,5310005400.0
sh605001,威奥股份,2020-10-09,17.85,17.95,17.75,17.88,17.57,1128847.0,20187308.0,1351012800.0,5403693600.0
sh605001,威奥股份,2020-10-12,17.93,18.3,17.93,18.28,17.88,1423714.0,25869234.0,1381236800.0,5524581600.0
sh605001,威奥股份,2020-10-13,18.18,18.33,18.06,18.24,18.28,1115388.0,20322819.0,1378214400.0,5512492800.0
sh605001,威奥股份,2020-10-14,18.24,18.36,18.01,18.08,18.24,1087128.0,19741211.0,1366124800.0,5464137600.0
sh605001,威奥股份,2020-10-15,18.1,18.15,17.82,17.82,18.08,1145463.0,20547001.0,1346479200.0000002,5385560400.0
sh605001,威奥股份,2020-10-16,17.8,17.92,17.79,17.85,17.82,802406.0,14304425.0,1348746000.0,5394627000.0
sh605001,威奥股份,2020-10-19,17.88,17.99,17.77,17.89,17.85,858900.0,15350160.0,1351768400.0,5406715800.0
sh605001,威奥股份,2020-10-20,17.88,18.07,17.75,18.04,17.89,953166.0,17047084.0,1363102400.0,5452048800.0
sh605001,威奥股份,2020-10-21,18.1,18.1,17.8,17.84,18.04,871100.0,15578791.0,1347990400.0,5391604800.0
sh605001,威奥股份,2020-10-22,17.85,17.92,17.63,17.78,17.84,776655.0,13790652.0,1343456800.0,5373471600.0
sh605001,威奥股份,2020-10-23,17.8,17.85,17.6,17.63,17.78,803400.0,14234692.0,1332122800.0,5328138600.0
sh605001,威奥股份,2020-10-26,17.64,17.71,17.36,17.57,17.63,678600.0,11899133.0,1327589200.0000002,5310005400.0
sh605001,威奥股份,2020-10-27,17.5,17.6,17.4,17.46,17.57,656800.0,11477186.0,1319277600.0,5276761200.0
sh605001,威奥股份,2020-10-28,17.42,17.47,17.23,17.34,17.46,1015927.0,17602779.0,1310210400.0,5240494800.0
sh605001,威奥股份,2020-10-29,17.28,17.28,17.04,17.13,17.34,1158852.0,19831697.0,1294342800.0,5177028600.0
sh605001,威奥股份,2020-10-30,17.12,17.24,16.81,16.81,17.13,1248700.0,21264984.0,1270163600.0,5080318200.0
sh605001,威奥股份,2020-11-02,16.49,16.49,16.02,16.12,16.81,2269739.0,36627073.0,1218027200.0,4871786400.0
sh605001,威奥股份,2020-11-03,16.26,16.77,16.21,16.58,16.12,1668806.0,27465284.0,1252784800.0,5010807600.0
sh605001,威奥股份,2020-11-04,16.6,16.72,16.46,16.52,16.58,1023354.0,16935956.0,1248251200.0,4992674400.0
sh605001,威奥股份,2020-11-05,16.6,16.67,16.51,16.63,16.52,1004767.0,16685989.0,1256562800.0,5025918600.0
sh605001,威奥股份,2020-11-06,16.65,16.65,16.36,16.45,16.63,1056997.0,17399663.0,1242962000.0,4971519000.0
sh605001,威奥股份,2020-11-09,16.56,16.79,16.53,16.74,16.45,1542538.0,25759594.0,1264874400.0,5059162800.0
sh605001,威奥股份,2020-11-10,16.79,16.93,16.72,16.83,16.74,1502058.0,25269098.0,1271674800.0,5086362600.0
sh605001,威奥股份,2020-11-11,16.83,16.86,16.63,16.82,16.83,1019053.0,17058317.0,1270919200.0,5083340400.0
sh605001,威奥股份,2020-11-12,16.83,16.88,16.56,16.6,16.82,913900.0,15248555.0,1254296000.0,5016852000.0
sh605001,威奥股份,2020-11-13,16.6,16.6,16.36,16.5,16.6,791061.0,13009146.0,1246740000.0,4986630000.0
sh605001,威奥股份,2020-11-16,16.46,16.65,16.45,16.65,16.5,682276.0,11314268.0,1258074000.0,5031963000.0
sh605001,威奥股份,2020-11-17,16.66,16.94,16.6,16.9,16.65,1517500.0,25471255.0,1276964000.0,5107518000.0
sh605001,威奥股份,2020-11-18,16.91,17.03,16.76,16.96,16.9,1363600.0,23062174.0,1281497600.0,5125651200.0
sh605001,威奥股份,2020-11-19,16.96,17.11,16.85,16.98,16.96,1135220.0,19279100.0,1283008800.0,5131695600.0
sh605001,威奥股份,2020-11-20,17.65,18.12,17.33,17.34,16.98,4494717.0,79393643.0,1310210400.0,5240494800.0
sh605001,威奥股份,2020-11-23,17.11,17.28,16.88,17.16,17.34,2087908.0,35701003.0,1296609600.0,5186095200.0
sh605001,威奥股份,2020-11-24,17.17,17.24,16.85,16.89,17.16,1699648.0,28866684.0,1276208400.0,5104495800.0
sh605001,威奥股份,2020-11-25,16.91,17.01,16.64,16.64,16.89,1417900.0,23754397.0,1257318400.0,5028940800.0
sh605001,威奥股份,2020-11-26,16.63,16.79,16.59,16.76,16.64,767643.0,12793186.0,1266385600.0,5065207200.0
sh605001,威奥股份,2020-11-27,16.77,16.77,16.58,16.69,16.76,731000.0,12165509.0,1261096400.0,5044051800.0
sh605001,威奥股份,2020-11-30,16.69,16.8,16.69,16.7,16.69,814810.0,13644968.0,1261852000.0,5047074000.0
sh605001,威奥股份,2020-12-01,16.71,16.9,16.67,16.81,16.7,853010.0,14307373.0,1270163600.0,5080318200.0
sh605001,威奥股份,2020-12-02,16.81,16.88,16.74,16.8,16.81,891887.0,14981911.0,1269408000.0,5077296000.0
sh605001,威奥股份,2020-12-03,16.8,16.81,16.7,16.75,16.8,957809.0,16047025.0,1265630000.0,5062185000.0
sh605001,威奥股份,2020-12-04,16.79,16.79,16.54,16.71,16.75,901525.0,15024766.0,1262607600.0,5050096200.0
sh605001,威奥股份,2020-12-07,16.73,16.73,16.58,16.58,16.71,651200.0,10825677.0,1252784800.0,5010807600.0
sh605001,威奥股份,2020-12-08,16.58,16.64,16.55,16.55,16.58,635200.0,10532998.0,1250518000.0,5001741000.0
sh605001,威奥股份,2020-12-09,16.5,16.59,16.28,16.31,16.55,887915.0,14582836.0,1232383600.0,4929208200.0
sh605001,威奥股份,2020-12-10,16.34,16.72,16.21,16.55,16.31,1007857.0,16585467.0,1250518000.0,5001741000.0
sh605001,威奥股份,2020-12-11,16.5,16.62,16.37,16.56,16.55,1283310.0,21144360.0,1251273600.0,5004763200.0
sh605001,威奥股份,2020-12-14,16.57,16.79,16.56,16.78,16.56,1589200.0,26584258.0,1267896800.0,5071251600.0
sh605001,威奥股份,2020-12-15,16.85,16.93,16.64,16.68,16.78,1117634.0,18724143.0,1260340800.0,5041029600.0
sh605001,威奥股份,2020-12-16,16.62,16.66,16.31,16.34,16.68,947269.0,15543589.0,1234650400.0,4938274800.0
sh605001,威奥股份,2020-12-17,16.33,16.43,16.27,16.38,16.34,715453.0,11704486.0,1237672800.0,4950363600.0
sh605001,威奥股份,2020-12-18,16.37,16.45,16.23,16.3,16.38,865400.0,14127152.0,1231628000.0,4926186000.0
sh605001,威奥股份,2020-12-21,16.28,16.28,16.09,16.26,16.3,950976.0,15434654.0,1228605600.0,4914097200.0
sh605001,威奥股份,2020-12-22,16.26,16.42,16.17,16.17,16.26,1049700.0,17069093.0,1221805200.0,4886897400.0
sh605001,威奥股份,2020-12-23,16.18,16.29,16.14,16.25,16.17,900486.0,14586040.0,1227850000.0,4911075000.0
sh605001,威奥股份,2020-12-24,16.31,16.93,16.25,16.92,16.25,4764876.0,79520162.0,1278475200.0,5113562400.0
sh605001,威奥股份,2020-12-25,16.8,17.16,16.71,16.99,16.92,4036056.0,68471877.0,1283764400.0,5134717800.0
sh605001,威奥股份,2020-12-28,16.87,17.29,16.8,16.91,16.99,3046060.0,51941449.0,1277719600.0,5110540200.0
sh605001,威奥股份,2020-12-29,16.81,17.49,16.8,17.18,16.91,3695943.0,63422595.0,1298120800.0,5192139600.0
sh605001,威奥股份,2020-12-30,17.18,17.34,16.9,17.18,17.18,2579206.0,44143730.0,1298120800.0,5192139600.0
sh605001,威奥股份,2020-12-31,17.12,17.4,17.06,17.2,17.18,3131470.0,54117946.0,1299632000.0,5198184000.0
sh605001,威奥股份,2021-01-04,17.2,17.2,16.9,17.02,17.2,2053452.0,34926085.0,1286031200.0,5143784400.0
sh605001,威奥股份,2021-01-05,16.99,17.5,16.91,17.45,17.02,5454180.0,94041392.0,1318522000.0,5273739000.0
sh605001,威奥股份,2021-01-06,17.32,17.4,16.42,16.46,17.45,4556131.0,76561647.0,1243717600.0,4974541200.0
sh605001,威奥股份,2021-01-07,16.47,16.55,15.3,15.38,16.46,3644618.0,57571841.0,1162112800.0,4648143600.0
sh605001,威奥股份,2021-01-08,15.42,15.48,14.55,15.06,15.38,1743215.0,26072390.0,1137933600.0,4551433200.0
sh605001,威奥股份,2021-01-11,15.08,15.08,14.23,14.24,15.06,2352000.0,34267414.0,1075974400.0,4303612800.0
sh605001,威奥股份,2021-01-12,14.24,14.44,14.01,14.12,14.24,1218323.0,17332438.0,1066907200.0,4267346400.0
sh605001,威奥股份,2021-01-13,14.11,14.16,13.33,13.55,14.12,2380211.0,32642908.0,1023838000.0,4095081000.0
sh605001,威奥股份,2021-01-14,13.49,13.97,13.21,13.76,13.55,1610000.0,22074396.0,1039705600.0,4158547200.0
sh605001,威奥股份,2021-01-15,13.7,14.18,13.63,14.09,13.76,1476210.0,20635758.0,1064640400.0,4258279800.0
sh605001,威奥股份,2021-01-18,14.04,14.19,13.9,13.99,14.09,1108290.0,15551053.0,1057084400.0,4228057800.000001
sh605001,威奥股份,2021-01-19,13.99,14.31,13.95,14.19,13.99,1328863.0,18830920.0,1072196400.0,4288501800.0
sh605001,威奥股份,2021-01-20,14.16,14.45,14.1,14.3,14.19,1171194.0,16717348.0,1080508000.0,4321746000.0
sh605001,威奥股份,2021-01-21,14.23,14.3,14.0,14.1,14.3,1255384.0,17725442.0,1065396000.0,4261302000.0
sh605001,威奥股份,2021-01-22,14.08,14.1,13.77,13.94,14.1,1501700.0,20830190.0,1053306400.0,4212946800.0
sh605001,威奥股份,2021-01-25,13.99,13.99,13.5,13.55,13.94,1168101.0,15931988.0,1023838000.0,4095081000.0
sh605001,威奥股份,2021-01-26,13.46,14.18,13.46,13.89,13.55,1726700.0,24056707.0,1049528400.0,4197835800.0
sh605001,威奥股份,2021-01-27,13.76,13.95,13.6,13.62,13.89,950200.0,13025475.0,1029127200.0,4116236400.0
sh605001,威奥股份,2021-01-28,13.35,13.77,13.35,13.59,13.62,889507.0,12118863.0,1026860400.0,4107169800.0
sh605001,威奥股份,2021-01-29,13.59,14.18,13.5,13.82,13.59,2436805.0,33885862.0,1044239200.0,4176680400.0
sh605001,威奥股份,2021-02-01,13.68,13.96,13.45,13.94,13.82,1357900.0,18590440.0,1053306400.0,4212946800.0
sh605001,威奥股份,2021-02-02,13.85,14.22,13.7,13.94,13.94,1994200.0,27915069.0,1053306400.0,4212946800.0
sh605001,威奥股份,2021-02-03,13.84,13.89,13.56,13.59,13.94,1109800.0,15234704.0,1026860400.0,4107169800.0
sh605001,威奥股份,2021-02-04,13.49,13.65,13.21,13.51,13.59,1361057.0,18244117.0,1020815600.0,4082992200.0
sh605001,威奥股份,2021-02-05,13.49,13.66,13.35,13.39,13.51,768084.0,10331030.0,1011748400.0,4046725800.0
sh605001,威奥股份,2021-02-08,13.39,13.59,13.3,13.49,13.39,603787.0,8138972.0,1019304400.0,4076947800.000001
sh605001,威奥股份,2021-02-09,13.56,13.63,13.48,13.58,13.49,660745.0,8956810.0,1026104800.0,4104147600.0
sh605001,威奥股份,2021-02-10,13.42,14.0,13.35,13.75,13.58,1405094.0,19475199.0,1038950000.0,4155525000.0
sh605001,威奥股份,2021-02-18,14.0,14.2,13.86,14.11,13.75,2332769.0,32886949.0,1066151600.0,4264324200.0
sh605001,威奥股份,2021-02-19,14.02,14.26,13.83,14.25,14.11,2309211.0,32440032.0,1076730000.0,4306635000.0
sh605001,威奥股份,2021-02-22,14.17,14.45,14.11,14.23,14.25,2024100.0,29007546.0,1075218800.0,4300590600.0
sh605001,威奥股份,2021-02-23,14.18,14.25,14.04,14.09,14.23,1241211.0,17551110.0,1064640400.0,4258279800.0
sh605001,威奥股份,2021-02-24,14.11,14.28,14.04,14.08,14.09,842753.0,11911268.0,1063884800.0,4255257600.0
sh605001,威奥股份,2021-02-25,14.08,14.25,14.01,14.23,14.08,995938.0,14071595.0,1075218800.0,4300590600.0
sh605001,威奥股份,2021-02-26,14.12,14.34,14.12,14.3,14.23,1624300.0,23139256.0,1080508000.0,4321746000.0
sh605001,威奥股份,2021-03-01,14.34,14.98,14.29,14.8,14.3,2342974.0,34365456.0,1118288000.0,4472856000.0
sh605001,威奥股份,2021-03-02,14.8,14.94,14.55,14.72,14.8,1204800.0,17670554.0,1112243200.0,4448678400.0
sh605001,威奥股份,2021-03-03,14.64,14.83,14.6,14.82,14.72,1080562.0,15962390.0,1119799200.0,4478900400.0
sh605001,威奥股份,2021-03-04,14.85,15.49,14.71,15.11,14.82,3253829.0,49299444.0,1141711600.0,4566544200.0
sh605001,威奥股份,2021-03-05,15.07,15.7,15.02,15.5,15.11,2616127.0,40443104.0,1171180000.0,4684410000.0
sh605001,威奥股份,2021-03-08,15.4,15.58,15.19,15.27,15.5,1332097.0,20417662.0,1153801200.0,4614899400.0
sh605001,威奥股份,2021-03-09,15.16,15.28,14.65,14.9,15.27,2028154.0,30297736.0,1125844000.0,4503078000.0
sh605001,威奥股份,2021-03-10,14.9,15.11,14.6,14.62,14.9,884710.0,13055479.0,1104687200.0,4418456400.0
sh605001,威奥股份,2021-03-11,14.66,14.79,14.62,14.74,14.62,681986.0,10037506.0,1113754400.0,4454722800.0
sh605001,威奥股份,2021-03-12,14.88,14.89,14.58,14.72,14.74,483963.0,7114387.0,1112243200.0,4448678400.0
sh605001,威奥股份,2021-03-15,14.72,14.75,14.57,14.62,14.72,736247.0,10790695.0,1104687200.0,4418456400.0
sh605001,威奥股份,2021-03-16,14.57,14.74,14.55,14.7,14.62,538755.0,7901342.0,1110732000.0,4442634000.0
sh605001,威奥股份,2021-03-17,14.71,15.13,14.71,15.0,14.7,1023014.0,15298963.0,1133400000.0,4533300000.0
sh605001,威奥股份,2021-03-18,15.13,15.13,14.91,14.94,15.0,516797.0,7737238.0,1128866400.0,4515166800.0
sh605001,威奥股份,2021-03-19,14.92,15.06,14.77,14.93,14.94,593900.0,8888306.0,1128110800.0,4512144600.0
sh605001,威奥股份,2021-03-22,14.84,15.24,14.84,15.13,14.93,693600.0,10481388.0,1143222800.0,4572588600.0
sh605001,威奥股份,2021-03-23,15.11,15.25,14.88,14.96,15.13,753300.0,11300094.0,1130377600.0,4521211200.0
sh605001,威奥股份,2021-03-24,14.99,15.05,14.01,14.74,14.96,684400.0,10132414.0,1113754400.0,4454722800.0
sh605001,威奥股份,2021-03-25,14.72,14.85,14.45,14.48,14.74,665300.0,9706810.0,1094108800.0,4376145600.0
sh605001,威奥股份,2021-03-26,14.45,14.6,14.45,14.57,14.48,448153.0,6517167.0,1100909200.0,4403345400.0
sh605001,威奥股份,2021-03-29,14.56,14.75,14.38,14.43,14.57,637900.0,9297079.0,1090330800.0,4361034600.0
sh605001,威奥股份,2021-03-30,14.49,14.49,14.18,14.26,14.43,835500.0,11920540.0,1077485600.0,4309657200.0
sh605001,威奥股份,2021-03-31,14.25,14.51,14.09,14.42,14.26,510600.0,7344816.0,1089575200.0,4358012400.0
sh605001,威奥股份,2021-04-01,14.42,14.65,14.32,14.62,14.42,448800.0,6505464.0,1104687200.0,4418456400.0
sh605001,威奥股份,2021-04-02,14.67,14.67,14.45,14.59,14.62,395400.0,5764472.0,1102420400.0,4409389800.0
sh605001,威奥股份,2021-04-06,14.58,14.81,14.51,14.81,14.59,722124.0,10646756.0,1119043600.0,4475878200.0
sh605001,威奥股份,2021-04-07,14.81,15.08,14.76,15.01,14.81,861141.0,12886980.0,1134155600.0,4536322200.0
sh605001,威奥股份,2021-04-08,15.01,15.09,14.78,14.78,15.01,735500.0,10981678.0,1116776800.0,4466811600.0
sh605001,威奥股份,2021-04-09,14.76,15.13,14.68,15.0,14.78,826256.0,12339087.0,1133400000.0,4533300000.0
sh605001,威奥股份,2021-04-12,14.91,15.1,14.84,14.92,15.0,668000.0,9991900.0,1127355200.0,4509122400.0
sh605001,威奥股份,2021-04-13,14.8,14.97,14.8,14.88,14.92,403900.0,6000500.0,1124332800.0,4497033600.0
sh605001,威奥股份,2021-04-14,14.88,15.24,14.87,15.08,14.88,910300.0,13706471.0,1139444800.0,4557477600.0
sh605001,威奥股份,2021-04-15,14.95,15.07,14.82,14.86,15.08,540653.0,8059972.0,1122821600.0,4490989200.0
sh605001,威奥股份,2021-04-16,14.82,14.89,14.72,14.8,14.86,1198763.0,17729982.0,1118288000.0,4472856000.0
sh605001,威奥股份,2021-04-19,14.74,14.78,14.56,14.78,14.8,1259813.0,18498551.0,1116776800.0,4466811600.0
sh605001,威奥股份,2021-04-20,14.7,14.84,14.69,14.81,14.78,1533706.0,22653283.0,1119043600.0,4475878200.0
sh605001,威奥股份,2021-04-21,14.81,14.99,14.62,14.65,14.81,1807396.0,26679227.0,1106954000.0,4427523000.0
sh605001,威奥股份,2021-04-22,14.58,14.71,14.39,14.49,14.65,1386053.0,20136597.0,1094864400.0,4379167800.0
sh605001,威奥股份,2021-04-23,14.48,14.48,14.35,14.42,14.49,1112391.0,16020349.0,1089575200.0,4358012400.0
sh605001,威奥股份,2021-04-26,14.43,14.7,14.43,14.65,14.42,1896249.0,27693653.0,1106954000.0,4427523000.0
sh605001,威奥股份,2021-04-27,14.56,14.56,14.35,14.47,14.65,559400.0,8071520.0,1093353200.0,4373123400.0
sh605001,威奥股份,2021-04-28,14.01,14.32,14.0,14.06,14.47,1188308.0,16735813.0,1062373600.0,4249213200.0
sh605001,威奥股份,2021-04-29,13.95,14.08,13.76,13.77,14.06,1029834.0,14336818.0,1040461200.0,4161569400.0
sh605001,威奥股份,2021-04-30,13.84,13.91,13.7,13.78,13.77,457471.0,6308333.0,1041216800.0,4164591600.0
sh605001,威奥股份,2021-05-06,13.78,13.97,13.78,13.86,13.78,317753.0,4402054.0,1047261600.0,4188769200.0
sh605001,威奥股份,2021-05-07,14.0,14.02,13.71,13.72,13.86,367800.0,5076693.0,1036683200.0,4146458400.000001
sh605001,威奥股份,2021-05-10,13.72,13.86,13.62,13.75,13.72,1008977.0,13903694.0,1038950000.0,4155525000.0
sh605001,威奥股份,2021-05-11,13.75,13.9,13.7,13.75,13.75,311400.0,4280320.0,1038950000.0,4155525000.0
sh605001,威奥股份,2021-05-12,13.75,13.84,13.7,13.84,13.75,263400.0,3632836.0,1045750400.0,4182724800.0
sh605001,威奥股份,2021-05-13,13.84,13.84,13.7,13.75,13.84,383730.0,5285087.0,1038950000.0,4155525000.0
sh605001,威奥股份,2021-05-14,13.75,13.87,13.75,13.81,13.75,469500.0,6492014.0,1043483600.0,4173658200.0
sh605001,威奥股份,2021-05-17,13.89,13.93,13.8,13.87,13.81,501032.0,6949514.0,1048017200.0,4191791400.0
sh605001,威奥股份,2021-05-18,13.88,13.99,13.76,13.8,13.87,392830.0,5424925.0,1042728000.0,4170636000.0
sh605001,威奥股份,2021-05-19,13.8,13.8,13.43,13.43,13.8,1291221.0,17510697.0,1014770800.0,4058814600.0
sh605001,威奥股份,2021-05-20,13.45,13.49,13.2,13.28,13.43,1027076.0,13612378.0,1003436800.0,4013481600.0
sh605001,威奥股份,2021-05-21,13.25,13.34,13.22,13.27,13.28,437057.0,5803697.0,1002681200.0,4010459400.0
sh605001,威奥股份,2021-05-24,13.26,13.38,13.26,13.31,13.27,334700.0,4457475.0,1005703600.0,4022548200.0
sh605001,威奥股份,2021-05-25,13.31,13.87,13.28,13.42,13.31,1018985.0,13774937.0,2470711471.14,4055792400.0
sh605001,威奥股份,2021-05-26,13.41,13.53,13.38,13.48,13.42,609232.0,8210934.0,2481757871.16,4073925600.0
sh605001,威奥股份,2021-05-27,13.42,13.54,13.41,13.41,13.48,1093300.0,14720299.0,2468870404.4700003,4052770200.0
sh605001,威奥股份,2021-05-28,13.5,13.5,13.28,13.3,13.41,1208100.0,16161120.0,2448618671.1,4019526000.0
sh605001,威奥股份,2021-05-31,13.3,13.42,13.3,13.41,13.3,833800.0,11167105.0,2468870404.4700003,4052770200.0
sh605001,威奥股份,2021-06-01,13.44,13.54,13.35,13.49,13.41,1425423.0,19214780.0,2483598937.83,4076947800.000001
sh605001,威奥股份,2021-06-02,13.57,13.57,13.38,13.39,13.49,1196659.0,16085047.0,2465188271.13,4046725800.0
sh605001,威奥股份,2021-06-03,13.44,13.46,13.27,13.28,13.39,1586200.0,21206070.0,2444936537.76,4013481600.0
sh605001,威奥股份,2021-06-04,13.33,13.38,13.23,13.35,13.28,1186100.0,15770060.0,2457824004.4500003,4034637000.0
sh605001,威奥股份,2021-06-07,13.39,13.41,13.24,13.26,13.35,873891.0,11619194.0,2441254404.42,4007437200.0
sh605001,威奥股份,2021-06-08,13.26,13.33,13.22,13.32,13.26,774500.0,10277537.0,2452300804.44,4025570400.0
sh605001,威奥股份,2021-06-09,13.32,13.35,13.23,13.23,13.32,1033265.0,13705243.0,2435731204.41,3998370600.0
sh605001,威奥股份,2021-06-10,13.27,13.34,13.22,13.31,13.23,855464.0,11355908.0,2450459737.77,4022548200.0
sh605001,威奥股份,2021-06-11,13.31,13.34,13.26,13.32,13.31,813945.0,10819564.0,2452300804.44,4025570400.0
sh605001,威奥股份,2021-06-15,13.33,13.52,13.32,13.47,13.32,1587667.0,21341411.0,2479916804.49,4070903400.000001
sh605001,威奥股份,2021-06-16,13.41,13.47,13.33,13.33,13.47,922466.0,12334645.0,2454141871.11,4028592600.0
sh605001,威奥股份,2021-06-17,13.34,13.47,13.3,13.35,13.33,913101.0,12214751.0,2457824004.4500003,4034637000.0
sh605001,威奥股份,2021-06-18,13.37,13.37,13.2,13.25,13.35,956800.0,12672657.0,2439413337.75,4004415000.0
sh605001,威奥股份,2021-06-21,13.25,13.31,13.14,13.17,13.25,1198346.0,15843007.0,2424684804.39,3980237400.0
sh605001,DR威奥股,2021-06-22,10.17,10.17,9.96,10.0,9.98,1200046.0,12036262.0,1841066670.0,3022200000.0
sh605001,威奥股份,2021-06-23,9.94,9.98,9.38,9.43,10.0,6521212.0,62592920.0,2256963629.81,3704914980.0
sh605001,威奥股份,2021-06-24,9.42,9.54,9.19,9.26,9.43,4237672.0,39565378.0,2216276056.42,3638124360.0
sh605001,威奥股份,2021-06-25,9.28,9.28,9.14,9.17,9.26,2410753.0,22147537.0,2194735576.39,3602764620.0
sh605001,威奥股份,2021-06-28,9.2,9.26,9.13,9.24,9.17,1631490.0,15022003.0,2211489283.08,3630266640.0
sh605001,威奥股份,2021-06-29,9.25,9.26,9.13,9.14,9.24,1573307.0,14448028.0,2187555416.38,3590978040.0
sh605001,威奥股份,2021-06-30,9.19,9.26,9.15,9.23,9.14,1217752.0,11230782.0,2209095896.41,3626337780.0
sh605001,威奥股份,2021-07-01,9.23,9.23,9.16,9.17,9.23,999660.0,9187413.0,2194735576.39,3602764620.0
sh605001,威奥股份,2021-07-02,9.1,9.17,9.07,9.08,9.17,1227071.0,11182241.0,2173195096.36,3567404880.0
sh605001,威奥股份,2021-07-05,9.01,9.22,9.01,9.12,9.08,930752.0,8489117.0,2182768643.04,3583120320.0
sh605001,威奥股份,2021-07-06,9.03,9.03,8.85,8.89,9.12,2557971.0,22779549.0,2127720749.63,3492756540.0
sh605001,威奥股份,2021-07-07,8.88,8.92,8.86,8.91,8.89,1017761.0,9051256.0,2132507522.97,3500614260.0
sh605001,威奥股份,2021-07-08,8.89,8.93,8.79,8.81,8.91,1605674.0,14226891.0,2108573656.27,3461325660.0
sh605001,威奥股份,2021-07-09,8.81,8.85,8.79,8.84,8.81,922053.0,8141151.0,2115753816.28,3473112240.0
sh605001,威奥股份,2021-07-12,8.85,8.91,8.85,8.89,8.84,1127902.0,10022813.0,2127720749.63,3492756540.0
sh605001,威奥股份,2021-07-13,8.92,8.93,8.86,8.93,8.89,836264.0,7438744.0,2137294296.31,3508471979.9999995
sh605001,威奥股份,2021-07-14,8.93,8.97,8.84,8.86,8.93,1297480.0,11525305.0,2120540589.62,3480969960.0
sh605001,威奥股份,2021-07-15,8.86,8.86,8.63,8.64,8.86,2036040.0,17728486.0,2067886082.88,3394535040.0
sh605001,威奥股份,2021-07-16,8.63,8.72,8.63,8.66,8.64,966560.0,8384216.0,2072672856.22,3402392760.0
sh605001,威奥股份,2021-07-19,8.66,8.66,8.41,8.43,8.66,1766711.0,14986043.0,2017624962.81,3312028980.0
sh605001,威奥股份,2021-07-20,8.43,8.43,8.28,8.33,8.43,1157085.0,9629199.0,1993691096.11,3272740380.0
sh605001,威奥股份,2021-07-21,8.33,8.55,8.33,8.41,8.33,1618377.0,13650690.0,2012838189.47,3304171260.0
sh605001,威奥股份,2021-07-22,8.38,8.53,8.38,8.51,8.41,1170277.0,9939576.0,2036772056.17,3343459859.9999995
sh605001,威奥股份,2021-07-23,8.5,8.54,8.35,8.39,8.51,1115070.0,9383608.0,2008051416.13,3296313540.0
sh605001,威奥股份,2021-07-26,8.37,8.42,8.18,8.28,8.39,1140010.0,9435640.0,1981724162.76,3253096080.0
sh605001,威奥股份,2021-07-27,8.28,8.37,8.17,8.18,8.28,1019910.0,8429449.0,1957790296.06,3213807480.0
sh605001,威奥股份,2021-07-28,8.14,8.16,7.82,7.85,8.18,1581300.0,12532150.0,1878808535.95,3084155100.0
sh605001,威奥股份,2021-07-29,7.86,8.01,7.86,7.95,7.85,1060176.0,8425788.0,1902742402.65,3123443700.0
sh605001,威奥股份,2021-07-30,7.95,8.01,7.89,7.99,7.95,711926.0,5675032.0,1912315949.33,3139159140.0
sh605001,威奥股份,2021-08-02,7.98,8.18,7.91,8.13,7.99,1030700.0,8326593.0,1945823362.71,3194163180.0000005
sh605001,威奥股份,2021-08-03,8.13,8.39,8.13,8.18,8.13,2369950.0,19611202.0,1957790296.06,3213807480.0
sh605001,威奥股份,2021-08-04,8.24,8.25,8.13,8.19,8.18,928100.0,7591729.0,1960183682.73,3217736340.0
sh605001,威奥股份,2021-08-05,8.19,8.24,8.13,8.16,8.19,667520.0,5453355.0,1953003522.72,3205949760.0000005
sh605001,威奥股份,2021-08-06,8.18,8.19,8.06,8.11,8.16,855260.0,6937788.0,1941036589.37,3186305459.9999995
sh605001,威奥股份,2021-08-09,8.12,8.25,8.12,8.18,8.11,1537270.0,12585008.0,1957790296.06,3213807480.0
sh605001,威奥股份,2021-08-10,8.2,8.25,8.14,8.25,8.18,1009210.0,8295235.0,1974544002.75,3241309500.0
sh605001,威奥股份,2021-08-11,8.26,8.31,8.22,8.31,8.25,1200026.0,9913405.0,1988904322.77,3264882660.0
sh605001,威奥股份,2021-08-12,8.31,8.43,8.27,8.39,8.31,1525374.0,12748790.0,2008051416.13,3296313540.0
sh605001,威奥股份,2021-08-13,8.36,8.51,8.36,8.41,8.39,1395330.0,11761227.0,2012838189.47,3304171260.0
sh605001,威奥股份,2021-08-16,8.41,8.55,8.36,8.52,8.41,1337184.0,11358573.0,2039165442.84,3347388719.9999995
sh605001,威奥股份,2021-08-17,8.52,8.52,8.34,8.35,8.52,1350740.0,11348670.0,1998477869.45,3280598100.0
sh605001,威奥股份,2021-08-18,8.35,8.46,8.35,8.42,8.35,824840.0,6924066.0,2015231576.14,3308100120.0
sh605001,威奥股份,2021-08-19,8.43,8.54,8.39,8.47,8.42,1083190.0,9170356.0,2027198509.49,3327744420.0
sh605001,威奥股份,2021-08-20,8.49,8.49,8.31,8.38,8.47,1033451.0,8652739.0,2005658029.46,3292384680.0
sh605001,威奥股份,2021-08-23,8.38,8.64,8.38,8.56,8.38,1871621.0,15964286.0,2048738989.52,3363104160.0000005
sh605001,威奥股份,2021-08-24,8.56,8.63,8.51,8.52,8.56,837380.0,7162940.0,2039165442.84,3347388719.9999995
sh605001,威奥股份,2021-08-25,8.52,8.55,8.48,8.51,8.52,579350.0,4929803.0,2036772056.17,3343459859.9999995
sh605001,威奥股份,2021-08-26,8.53,8.53,8.4,8.43,8.51,987520.0,8336528.0,2017624962.81,3312028980.0
sh605001,威奥股份,2021-08-27,8.4,8.43,8.15,8.2,8.43,1971320.0,16256486.0,1962577069.4,3221665200.0
sh605001,威奥股份,2021-08-30,8.2,8.26,8.09,8.13,8.2,1129455.0,9225754.0,1945823362.71,3194163180.0000005
sh605001,威奥股份,2021-08-31,8.11,8.11,7.82,7.94,8.13,1891130.0,14933868.0,1900349015.98,3119514840.0
sh605001,威奥股份,2021-09-01,7.94,8.2,7.9,8.1,7.94,2160423.0,17368075.0,1938643202.7,3182376599.9999995
sh605001,威奥股份,2021-09-02,8.65,8.65,8.27,8.31,8.1,3932684.0,33065378.0,1988904322.77,3264882660.0
sh605001,威奥股份,2021-09-03,8.22,8.37,8.22,8.34,8.31,2183510.0,18092669.0,1996084482.78,3276669240.0
sh605001,威奥股份,2021-09-06,8.31,8.38,8.28,8.33,8.34,1313490.0,10952574.0,1993691096.11,3272740380.0
sh605001,威奥股份,2021-09-07,8.43,8.43,8.37,8.38,8.33,1365695.0,11463984.0,2005658029.46,3292384680.0
sh605001,威奥股份,2021-09-08,8.38,8.4,8.32,8.36,8.38,1773000.0,14814434.0,2000871256.12,3284526960.0
sh605001,威奥股份,2021-09-09,8.37,8.48,8.34,8.43,8.36,2084502.0,17528448.0,2017624962.81,3312028980.0
sh605001,威奥股份,2021-09-10,8.42,8.7,8.35,8.57,8.43,4274714.0,36442042.0,2051132376.19,3367033020.0000005
sh605001,威奥股份,2021-09-13,8.54,8.72,8.46,8.71,8.57,3299573.0,28431320.0,2084639789.57,3422037060.0
sh605001,威奥股份,2021-09-14,8.71,8.85,8.63,8.85,8.71,3575770.0,31265251.0,2118147202.95,3477041100.0
sh605001,威奥股份,2021-09-15,8.85,9.07,8.78,8.82,8.85,4228624.0,37818120.0,2110967042.94,3465254520.0
sh605001,威奥股份,2021-09-16,8.79,8.79,8.57,8.58,8.82,2128193.0,18507336.0,2053525762.86,3370961880.0
sh605001,威奥股份,2021-09-17,8.59,8.67,8.35,8.43,8.58,1705408.0,14424754.0,2017624962.81,3312028980.0
sh605001,威奥股份,2021-09-22,8.41,8.47,8.31,8.45,8.43,1100030.0,9226012.0,2022411736.15,3319886700.0
sh605001,威奥股份,2021-09-23,8.46,8.54,8.4,8.48,8.45,2639945.0,22362707.0,2029591896.16,3331673280.0
sh605001,威奥股份,2021-09-24,8.46,8.52,8.33,8.33,8.48,2042990.0,17274862.0,1993691096.11,3272740380.0
sh605001,威奥股份,2021-09-27,8.36,8.38,8.06,8.07,8.33,1840154.0,15015131.0,1931463042.69,3170590020.0
sh605001,威奥股份,2021-09-28,8.09,8.21,8.07,8.14,8.07,1044539.0,8489543.0,1948216749.38,3198092040.0000005
sh605001,威奥股份,2021-09-29,8.11,8.16,7.98,8.0,8.14,1205750.0,9720495.0,1914709336.0,3143088000.0
sh605001,威奥股份,2021-09-30,8.04,8.3,8.01,8.26,8.0,2180019.0,17955564.0,1976937389.42,3245238360.0
sh605001,威奥股份,2021-10-08,8.27,8.47,8.26,8.45,8.26,1651090.0,13853974.0,2022411736.15,3319886700.0
sh605001,威奥股份,2021-10-11,8.45,8.66,8.45,8.61,8.45,1562140.0,13416405.0,2060705922.87,3382748460.0
sh605001,威奥股份,2021-10-12,8.62,8.65,8.36,8.4,8.61,1010760.0,8544631.0,2010444802.8,3300242400.0
sh605001,威奥股份,2021-10-13,8.4,8.49,8.35,8.48,8.4,623442.0,5257403.0,2029591896.16,3331673280.0
sh605001,威奥股份,2021-10-14,8.48,8.51,8.42,8.48,8.48,500550.0,4237165.0,2029591896.16,3331673280.0
sh605001,威奥股份,2021-10-15,8.52,8.52,8.41,8.43,8.48,569270.0,4808273.0,2017624962.81,3312028980.0
sh605001,威奥股份,2021-10-18,8.38,8.42,8.2,8.32,8.43,486390.0,4060218.0,1991297709.44,3268811520.0
sh605001,威奥股份,2021-10-19,8.32,8.38,8.21,8.34,8.32,435700.0,3625757.0,1996084482.78,3276669240.0
sh605001,威奥股份,2021-10-20,8.34,8.5,8.34,8.45,8.34,969970.0,8174645.0,2022411736.15,3319886700.0
sh605001,威奥股份,2021-10-21,8.47,8.55,8.38,8.54,8.45,817770.0,6943035.0,2043952216.18,3355246439.9999995
sh605001,威奥股份,2021-10-22,8.53,8.56,8.46,8.49,8.54,610900.0,5193048.0,2031985282.83,3335602140.0
sh605001,威奥股份,2021-10-25,8.51,8.52,8.43,8.48,8.49,442180.0,3747934.0,2029591896.16,3331673280.0
sh605001,威奥股份,2021-10-26,8.48,8.5,8.3,8.3,8.48,668235.0,5613851.0,1986510936.1,3260953800.0
sh605001,威奥股份,2021-10-27,8.28,8.28,8.03,8.06,8.3,937705.0,7586615.0,1929069656.02,3166661160.0
sh605001,威奥股份,2021-10-28,8.0,8.09,7.9,7.94,8.06,766380.0,6107213.0,1900349015.98,3119514840.0
sh605001,威奥股份,2021-10-29,7.9,8.15,7.9,8.05,7.94,475150.0,3813479.0,1926676269.35,3162732300.0
sh605001,威奥股份,2021-11-01,8.0,8.04,7.93,7.98,8.05,723510.0,5762038.0,1909922562.66,3135230280.0
sh605001,威奥股份,2021-11-02,7.98,8.05,7.83,7.85,7.98,858960.0,6795308.0,1878808535.95,3084155100.0
sh605001,威奥股份,2021-11-03,7.93,7.93,7.84,7.87,7.85,374000.0,2948389.0,1883595309.29,3092012820.0
sh605001,威奥股份,2021-11-04,7.97,8.01,7.9,7.98,7.87,437480.0,3478296.0,1909922562.66,3135230280.0
sh605001,威奥股份,2021-11-05,7.95,8.02,7.93,7.97,7.98,481100.0,3839407.0,1907529175.99,3131301420.0
sh605001,威奥股份,2021-11-08,7.88,8.04,7.87,8.02,7.97,563240.0,4495485.0,1919496109.34,3150945720.0
sh605001,威奥股份,2021-11-09,8.02,8.3,7.96,8.12,8.02,1033194.0,8371272.0,1943429976.04,3190234319.9999995
sh605001,威奥股份,2021-11-10,8.12,8.14,8.0,8.12,8.12,873630.0,7071732.0,1943429976.04,3190234319.9999995
sh605001,威奥股份,2021-11-11,8.08,8.16,8.08,8.13,8.12,823160.0,6691392.0,1945823362.71,3194163180.0000005
sh605001,威奥股份,2021-11-12,8.14,8.16,8.09,8.11,8.13,687770.0,5581024.0,1941036589.37,3186305459.9999995
sh605001,威奥股份,2021-11-15,8.14,8.27,8.12,8.22,8.11,907132.0,7422232.0,1967363842.74,3229522920.0
sh605001,威奥股份,2021-11-16,8.27,8.29,8.16,8.16,8.22,817370.0,6718918.0,1953003522.72,3205949760.0000005
sh605001,威奥股份,2021-11-17,8.15,8.21,8.13,8.17,8.16,653842.0,5340646.0,1955396909.39,3209878620.0
sh605001,威奥股份,2021-11-18,8.12,8.19,8.04,8.05,8.17,770060.0,6244066.0,1926676269.35,3162732300.0
sh605001,威奥股份,2021-11-19,8.06,8.16,8.06,8.15,8.05,810810.0,6581914.0,1950610136.05,3202020900.0000005
sh605001,威奥股份,2021-11-22,8.2,8.23,8.14,8.15,8.15,730500.0,5967161.0,1950610136.05,3202020900.0000005
sh605001,威奥股份,2021-11-23,8.12,8.18,8.12,8.16,8.15,605920.0,4940235.0,1953003522.7199998,3205949760.0000005
sh605001,威奥股份,2021-11-24,8.16,8.19,8.14,8.15,8.16,737189.0,6018079.0,1950610136.05,3202020900.0000005
sh605001,威奥股份,2021-11-25,8.15,8.24,8.08,8.09,8.15,1248280.0,10182967.0,1936249816.03,3178447739.9999995
sh605001,威奥股份,2021-11-26,8.08,8.15,7.97,8.0,8.09,1314950.0,10567019.0,1914709336.0,3143088000.0
sh605001,威奥股份,2021-11-29,7.98,8.02,7.91,8.0,8.0,610110.0,4866451.0,1914709336.0,3143088000.0
sh605001,威奥股份,2021-11-30,8.02,8.15,8.0,8.1,8.0,1078280.0,8720737.0,1938643202.7,3182376599.9999995
sh605001,威奥股份,2021-12-01,8.11,8.14,8.06,8.1,8.1,1142940.0,9260457.0,1938643202.7,3182376599.9999995
sh605001,威奥股份,2021-12-02,8.11,8.26,8.11,8.16,8.1,1713460.0,14024267.0,1953003522.7199998,3205949760.0000005
sh605001,威奥股份,2021-12-03,8.17,8.21,8.12,8.17,8.16,1413010.0,11537342.0,1955396909.3899999,3209878620.0
sh605001,威奥股份,2021-12-06,8.19,8.23,8.12,8.12,8.17,1576880.0,12887258.0,1943429976.04,3190234319.9999995
sh605001,威奥股份,2021-12-07,8.11,8.26,8.1,8.18,8.12,1820819.0,14884155.0,1957790296.06,3213807480.0
sh605001,威奥股份,2021-12-08,8.19,8.23,8.15,8.18,8.18,1544960.0,12624165.0,1957790296.06,3213807480.0
sh605001,威奥股份,2021-12-09,8.18,8.2,8.16,8.16,8.18,1145370.0,9364624.0,1953003522.7199998,3205949760.0000005
sh605001,威奥股份,2021-12-10,8.16,8.17,8.12,8.16,8.16,961940.0,7833316.0,1953003522.7199998,3205949760.0000005
sh605001,威奥股份,2021-12-13,8.18,8.18,8.13,8.13,8.16,960480.0,7824144.0,1945823362.71,3194163180.0000005
sh605001,威奥股份,2021-12-14,8.12,8.2,8.09,8.17,8.13,1292470.0,10547880.0,1955396909.3899999,3209878620.0
sh605001,威奥股份,2021-12-15,8.19,8.34,8.17,8.26,8.17,2864365.0,23656184.0,1976937389.42,3245238360.0
sh605001,威奥股份,2021-12-16,8.27,8.33,8.23,8.33,8.26,1986750.0,16458179.0,1993691096.11,3272740380.0
sh605001,威奥股份,2021-12-17,8.32,8.4,8.26,8.27,8.33,1248005.0,10363196.0,1979330776.09,3249167220.0
sh605001,威奥股份,2021-12-20,8.23,8.35,8.21,8.31,8.27,1576417.0,13055681.0,1988904322.7700002,3264882660.0
sh605001,威奥股份,2021-12-21,8.29,8.61,8.25,8.55,8.31,4439294.0,37624243.0,2046345602.8500001,3359175300.0000005
sh605001,威奥股份,2021-12-22,8.53,8.55,8.35,8.38,8.55,3631090.0,30576433.0,2005658029.46,3292384680.0
sh605001,威奥股份,2021-12-23,8.35,8.35,8.22,8.23,8.38,2523942.0,20838019.0,1969757229.41,3233451780.0
sh605001,威奥股份,2021-12-24,8.21,8.3,8.17,8.18,8.23,1685788.0,13858363.0,1957790296.06,3213807480.0
sh605001,威奥股份,2021-12-27,8.17,8.24,8.13,8.22,8.18,1173150.0,9614779.0,1967363842.74,3229522920.0
sh605001,威奥股份,2021-12-28,8.26,8.26,8.18,8.2,8.22,942900.0,7738911.0,1962577069.4,3221665200.0
sh605001,威奥股份,2021-12-29,8.19,8.26,8.17,8.21,8.2,1392790.0,11430387.0,1964970456.0700002,3225594060.0
sh605001,威奥股份,2021-12-30,8.22,8.28,8.19,8.25,8.21,1233019.0,10177952.0,1974544002.75,3241309500.0
sh605001,威奥股份,2021-12-31,8.25,8.37,8.24,8.37,8.25,1604320.0,13331359.0,2003264642.79,3288455820.0
sh605001,威奥股份,2022-01-04,8.38,8.46,8.37,8.4,8.37,2482660.0,20897420.0,2010444802.8,3300242400.0
sh605001,威奥股份,2022-01-05,8.41,8.47,8.32,8.36,8.4,1863783.0,15584532.0,2000871256.1200001,3284526960.0
sh605001,威奥股份,2022-01-06,8.38,8.45,8.36,8.45,8.36,2116967.0,17829219.0,2022411736.15,3319886700.0
sh605001,威奥股份,2022-01-07,8.47,8.5,8.43,8.43,8.45,2272531.0,19219369.0,2017624962.81,3312028980.0
sh605001,威奥股份,2022-01-10,8.4,8.4,8.24,8.35,8.43,2075310.0,17266623.0,1998477869.45,3280598100.0
sh605001,威奥股份,2022-01-11,8.38,8.41,8.3,8.31,8.35,1481590.0,12354078.0,1988904322.7700002,3264882660.0
sh605001,威奥股份,2022-01-12,8.33,8.48,8.28,8.43,8.31,2337950.0,19644167.0,2017624962.81,3312028980.0
sh605001,威奥股份,2022-01-13,8.47,8.48,8.39,8.4,8.43,1598310.0,13468638.0,2010444802.8,3300242400.0
sh605001,威奥股份,2022-01-14,8.38,8.44,8.28,8.28,8.4,1790218.0,14950728.0,1981724162.76,3253096080.0
