数据由邢不行整理
股票代码,股票名称,交易日期,开盘价,最高价,最低价,收盘价,前收盘价,成交量,成交额,流通市值,总市值
sh603992,N松霖,2019-08-26,19.5,19.5,19.5,19.5,13.54,102040.0,1989780.0,799500000.0,7819692231.0
sh603992,松霖科技,2019-08-27,21.45,21.45,21.45,21.45,19.5,30398.0,652037.0,879450000.0,8601661454.1
sh603992,松霖科技,2019-08-28,23.6,23.6,23.6,23.6,21.45,80189.0,1892460.0,967600000.0,9463832648.8
sh603992,松霖科技,2019-08-29,25.96,25.96,25.96,25.96,23.6,122601.0,3182722.0,1064360000.0,10410215913.7
sh603992,松霖科技,2019-08-30,28.56,28.56,28.56,28.56,25.96,1109089.0,31675582.0,1170960000.0,11452841544.5
sh603992,松霖科技,2019-09-02,26.49,28.49,26.12,26.8,28.56,23141603.0,619388483.0,1098800000.0,10747064194.4
sh603992,松霖科技,2019-09-03,25.9,27.16,25.6,26.94,26.8,16675047.0,438949752.0,1104540000.0,10803205574.5
sh603992,松霖科技,2019-09-04,26.45,27.97,26.21,27.49,26.94,18932168.0,511414886.0,1127090000.0,11023760996.4
sh603992,松霖科技,2019-09-05,27.3,27.43,26.38,26.52,27.49,16615095.0,446713487.0,1087320000.0,10634781434.2
sh603992,松霖科技,2019-09-06,26.07,26.2,25.2,25.31,26.52,12988168.0,333369453.0,1037710000.0,10149559506.0
sh603992,松霖科技,2019-09-09,25.39,26.15,25.08,26.14,25.31,10047869.0,258865703.0,1071740000.0,10482397688.1
sh603992,松霖科技,2019-09-10,26.0,27.38,25.89,26.65,26.14,12397540.0,331089322.0,1092650000.0,10686912715.7
sh603992,松霖科技,2019-09-11,26.6,26.8,25.7,25.84,26.65,9112374.0,237252883.0,1059440000.0,10362094730.7
sh603992,松霖科技,2019-09-12,25.91,26.46,25.81,26.0,25.84,7036508.0,184121220.0,1066000000.0,10426256308.0
sh603992,松霖科技,2019-09-16,26.3,27.19,26.1,27.02,26.0,12025750.0,321841230.0,1107820000.0,10835286363.2
sh603992,松霖科技,2019-09-17,26.81,28.88,26.63,27.79,27.02,19275267.0,537006319.0,1139390000.0,11144063953.8
sh603992,松霖科技,2019-09-18,27.44,28.69,26.88,27.98,27.79,16534179.0,460424108.0,1147180000.0,11220255826.8
sh603992,松霖科技,2019-09-19,27.45,28.08,27.0,27.86,27.98,11426238.0,314438144.0,1142260000.0,11172134643.9
sh603992,松霖科技,2019-09-20,27.5,28.92,27.42,28.01,27.86,13752779.0,389400189.0,1148410000.0,11232286122.6
sh603992,松霖科技,2019-09-23,27.63,27.7,25.26,25.73,28.01,13613723.0,354657509.0,1054930000.0,10317983646.3
sh603992,松霖科技,2019-09-24,25.44,25.97,25.28,25.83,25.73,7280590.0,186314662.0,1059030000.0,10358084632.1
sh603992,松霖科技,2019-09-25,25.68,25.68,24.04,24.27,25.83,7613031.0,189938252.0,995070000.0,9732509253.66
sh603992,松霖科技,2019-09-26,24.35,24.72,23.28,23.59,24.27,6283443.0,150634833.0,967190000.0,9459822550.22
sh603992,松霖科技,2019-09-27,23.5,23.8,23.4,23.65,23.59,3539857.0,83607889.0,969650000.0,9483883141.7
sh603992,松霖科技,2019-09-30,23.63,24.24,23.48,23.74,23.65,3744721.0,89635350.0,973340000.0,9519974028.92
sh603992,松霖科技,2019-10-08,23.83,24.19,22.9,22.99,23.74,4134227.0,96882149.0,942590000.0,9219216635.42
sh603992,松霖科技,2019-10-09,22.5,23.8,22.3,23.64,22.99,4115430.0,94445229.0,969240000.0,9479873043.12
sh603992,松霖科技,2019-10-10,23.32,23.8,23.19,23.43,23.64,3404928.0,79948487.0,960630000.0,9395660972.94
sh603992,松霖科技,2019-10-11,23.35,23.65,23.3,23.43,23.43,2574905.0,60376376.0,960630000.0,9395660972.94
sh603992,松霖科技,2019-10-14,23.61,24.04,23.48,23.81,23.43,3953876.0,93872830.0,976210000.0,9548044718.98
sh603992,松霖科技,2019-10-15,23.67,23.69,22.81,22.83,23.81,3900583.0,90176560.0,936030000.0,9155055058.14
sh603992,松霖科技,2019-10-16,22.85,23.07,22.6,22.7,22.83,2314852.0,52868907.0,930700000.0,9102923776.6
sh603992,松霖科技,2019-10-17,22.62,23.1,22.62,22.72,22.7,2586117.0,59078373.0,931520000.0,9110943973.76
sh603992,松霖科技,2019-10-18,22.6,23.04,22.6,22.84,22.72,2762814.0,63095319.0,936440000.0,9159065156.72
sh603992,松霖科技,2019-10-21,22.66,22.92,21.0,21.28,22.84,4553836.0,97763584.0,872480000.0,8533489778.24
sh603992,松霖科技,2019-10-22,21.17,21.4,20.88,21.28,21.28,3018238.0,63823090.0,872480000.0,8533489778.24
sh603992,松霖科技,2019-10-23,21.24,21.43,21.1,21.36,21.28,2338951.0,49788873.0,875760000.0,8565570566.88
sh603992,松霖科技,2019-10-24,21.22,21.33,20.8,20.94,21.36,2417719.0,50895682.0,858540000.0,8397146426.52
sh603992,松霖科技,2019-10-25,20.93,21.13,20.62,21.04,20.94,2153247.0,45076678.0,862640000.0,8437247412.32
sh603992,松霖科技,2019-10-28,20.9,21.2,20.82,21.19,21.04,2522289.0,53091569.0,868790000.0,8497398891.02
sh603992,松霖科技,2019-10-29,21.18,21.26,20.24,20.27,21.19,3866500.0,79962451.0,831070000.0,8128469821.66
sh603992,松霖科技,2019-10-30,20.33,20.45,19.66,19.94,20.27,3068517.0,61199338.0,817540000.0,7996136568.52
sh603992,松霖科技,2019-10-31,19.91,19.94,19.4,19.4,19.94,2713692.0,53309818.0,795400000.0,7779591245.2
sh603992,松霖科技,2019-11-01,19.39,19.86,19.36,19.8,19.4,2682461.0,53003965.0,811800000.0,7939995188.4
sh603992,松霖科技,2019-11-04,19.73,20.6,19.63,20.22,19.8,3552220.0,71187078.0,829020000.0,8108419328.76
sh603992,松霖科技,2019-11-05,20.16,20.27,19.95,20.06,20.22,2382809.0,47885193.0,822460000.0,8044257751.48
sh603992,松霖科技,2019-11-06,20.02,20.09,19.68,20.09,20.06,2242470.0,44547206.0,823690000.0,8056288047.22
sh603992,松霖科技,2019-11-07,20.08,20.74,20.0,20.25,20.09,3048663.0,62105825.0,830250000.0,8120449624.5
sh603992,松霖科技,2019-11-08,20.26,20.52,20.03,20.34,20.25,3010375.0,61098418.0,833940000.0,8156540511.72
sh603992,松霖科技,2019-11-11,20.13,20.13,19.32,19.46,20.34,2304538.0,45394371.0,797860000.0,7803651836.68
sh603992,松霖科技,2019-11-12,20.0,21.41,19.5,21.41,19.46,7782123.0,164410048.0,877810000.0,8585621059.78
sh603992,松霖科技,2019-11-13,21.73,22.49,21.45,21.87,21.41,13000839.0,285575038.0,896670000.0,8770085594.46
sh603992,松霖科技,2019-11-14,21.31,22.38,21.02,22.06,21.87,8378642.0,179646421.0,904460000.0,8846277467.48
sh603992,松霖科技,2019-11-15,21.51,21.75,20.72,20.8,22.06,5627301.0,119992495.0,852800000.0,8341005046.4
sh603992,松霖科技,2019-11-18,20.68,22.88,20.66,21.99,20.8,8241002.0,181572395.0,901590000.0,8818206777.42
sh603992,松霖科技,2019-11-19,21.81,22.44,21.53,21.99,21.99,6858496.0,150447627.0,901590000.0,8818206777.42
sh603992,松霖科技,2019-11-20,21.61,21.75,21.26,21.57,21.99,5449007.0,117194392.0,884370000.0,8649782637.06
sh603992,松霖科技,2019-11-21,21.69,21.69,21.03,21.41,21.57,3813339.0,81190028.0,877810000.0,8585621059.78
sh603992,松霖科技,2019-11-22,21.33,21.58,20.3,20.52,21.41,4224014.0,88400454.0,841320000.0,8228722286.16
sh603992,松霖科技,2019-11-25,20.62,20.74,19.6,19.9,20.52,3150283.0,62662652.0,815900000.0,7980096174.2
sh603992,松霖科技,2019-11-26,19.9,20.19,19.85,19.93,19.9,2059852.0,41155817.0,817130000.0,7992126469.94
sh603992,松霖科技,2019-11-27,19.67,19.92,19.54,19.88,19.93,1841435.0,36367869.0,815080000.0,7972075977.04
sh603992,松霖科技,2019-11-28,19.88,20.09,19.6,19.62,19.88,2081705.0,41251178.0,804420000.0,7867813413.96
sh603992,松霖科技,2019-11-29,19.62,20.24,19.41,20.03,19.62,3444838.0,68610215.0,821230000.0,8032227455.74
sh603992,松霖科技,2019-12-02,20.03,20.15,19.8,20.04,20.03,2348470.0,46955238.0,821640000.0,8036237554.32
sh603992,松霖科技,2019-12-03,19.81,20.15,19.7,20.15,20.04,2009254.0,40278432.0,826150000.0,8080348638.7
sh603992,松霖科技,2019-12-04,19.91,20.2,19.88,19.94,20.15,1858270.0,37142679.0,817540000.0,7996136568.52
sh603992,松霖科技,2019-12-05,19.92,20.47,19.92,20.29,19.94,3259792.0,65792443.0,831890000.0,8136490018.82
sh603992,松霖科技,2019-12-06,20.2,20.36,20.01,20.2,20.29,2272112.0,45806543.0,828200000.0,8100399131.6
sh603992,松霖科技,2019-12-09,20.29,20.29,19.85,19.9,20.2,2976502.0,59532573.0,815900000.0,7980096174.2
sh603992,松霖科技,2019-12-10,19.88,20.02,19.72,19.98,19.9,2429991.0,48299198.0,819180000.0,8012176962.84
sh603992,松霖科技,2019-12-11,19.95,19.95,19.74,19.75,19.98,2155500.0,42688780.0,809750000.0,7919944695.5
sh603992,松霖科技,2019-12-12,19.75,19.86,19.37,19.42,19.75,2726776.0,53295457.0,796220000.0,7787611442.36
sh603992,松霖科技,2019-12-13,19.49,19.77,19.46,19.68,19.42,2063981.0,40495434.0,806880000.0,7891874005.44
sh603992,松霖科技,2019-12-16,19.69,19.93,19.62,19.93,19.68,2452730.0,48631207.0,817130000.0,7992126469.94
sh603992,松霖科技,2019-12-17,19.95,20.49,19.9,20.32,19.93,4422350.0,89340365.0,833120000.0,8148520314.56
sh603992,松霖科技,2019-12-18,20.42,20.42,20.23,20.27,20.32,3715109.0,75495185.0,831070000.0,8128469821.66
sh603992,松霖科技,2019-12-19,20.38,20.4,20.08,20.28,20.27,2656605.0,53649268.0,831480000.0,8132479920.24
sh603992,松霖科技,2019-12-20,20.27,20.46,20.16,20.16,20.28,2565868.0,52077157.0,826560000.0,8084358737.28
sh603992,松霖科技,2019-12-23,20.1,20.1,19.52,19.63,20.16,2479801.0,48992349.0,804830000.0,7871823512.54
sh603992,松霖科技,2019-12-24,19.65,19.85,19.65,19.75,19.63,1331087.0,26299421.0,809750000.0,7919944695.5
sh603992,松霖科技,2019-12-25,19.77,19.83,19.6,19.82,19.75,1601510.0,31608817.0,812620000.0,7948015385.56
sh603992,松霖科技,2019-12-26,19.84,20.35,19.73,20.19,19.82,3115651.0,62619731.0,827790000.0,8096389033.02
sh603992,松霖科技,2019-12-27,20.18,20.38,19.99,20.17,20.19,3144649.0,63306711.0,826970000.0,8088368835.86
sh603992,松霖科技,2019-12-30,20.01,20.46,19.61,20.24,20.17,3498174.0,70587570.0,829840000.0,8116439525.92
sh603992,松霖科技,2019-12-31,20.24,20.49,20.04,20.12,20.24,2387779.0,48269177.0,824920000.0,8068318342.96
sh603992,松霖科技,2020-01-02,20.17,20.45,20.08,20.27,20.12,3044987.0,61763748.0,831070000.0,8128469821.66
sh603992,松霖科技,2020-01-03,20.29,20.67,20.01,20.56,20.27,4116026.0,83808623.0,842960000.0,8244762680.48
sh603992,松霖科技,2020-01-06,20.33,20.59,20.22,20.3,20.56,3068133.0,62497318.0,832300000.0,8140500117.4
sh603992,松霖科技,2020-01-07,20.33,20.49,20.22,20.41,20.3,2678710.0,54525961.0,836810000.0,8184611201.78
sh603992,松霖科技,2020-01-08,20.35,20.48,20.03,20.05,20.41,3097640.0,62739314.0,822050000.0,8040247652.9
sh603992,松霖科技,2020-01-09,20.12,20.3,20.06,20.19,20.05,1923788.0,38812893.0,827790000.0,8096389033.02
sh603992,松霖科技,2020-01-10,20.26,20.58,20.18,20.49,20.19,4027610.0,82407947.0,840090000.0,8216691990.42
sh603992,松霖科技,2020-01-13,20.58,20.59,20.35,20.52,20.49,2672772.0,54765605.0,841320000.0,8228722286.16
sh603992,松霖科技,2020-01-14,20.54,20.66,20.39,20.49,20.52,2355920.0,48273355.0,840090000.0,8216691990.42
sh603992,松霖科技,2020-01-15,20.55,21.05,20.46,20.67,20.49,4138335.0,85881153.0,847470000.0,8288873764.86
sh603992,松霖科技,2020-01-16,20.67,20.75,20.23,20.3,20.67,2776823.0,56809144.0,832300000.0,8140500117.4
sh603992,松霖科技,2020-01-17,20.35,20.4,19.96,20.0,20.3,2364262.0,47706832.0,820000000.0,8020197160.0
sh603992,松霖科技,2020-01-20,20.0,20.06,19.77,20.06,20.0,1484670.0,29593629.0,822460000.0,8044257751.48
sh603992,松霖科技,2020-01-21,20.0,20.09,19.59,19.63,20.06,2023511.0,39976333.0,804830000.0,7871823512.54
sh603992,松霖科技,2020-01-22,19.53,19.58,19.31,19.49,19.63,1821881.0,35422374.0,799090000.0,7815682132.42
sh603992,松霖科技,2020-01-23,19.4,19.42,18.0,18.29,19.49,3020601.0,56852995.0,749890000.0,7334470302.82
sh603992,松霖科技,2020-02-03,16.46,16.46,16.46,16.46,18.29,286500.0,4715790.0,674860000.0,6600622262.68
sh603992,松霖科技,2020-02-04,14.81,15.87,14.81,15.3,16.46,4017912.0,61230955.0,627300000.0,6135450827.4
sh603992,松霖科技,2020-02-05,15.14,15.79,15.14,15.43,15.3,2566482.0,39874230.0,632630000.0,6187582108.94
sh603992,松霖科技,2020-02-06,15.45,15.67,15.3,15.67,15.43,2719470.0,42244918.0,642470000.0,6283824474.86
sh603992,松霖科技,2020-02-07,15.6,15.95,15.46,15.69,15.67,2534370.0,39734550.0,643290000.0,6291844672.02
sh603992,松霖科技,2020-02-10,15.62,16.32,15.48,16.23,15.69,3366961.0,53692533.0,665430000.0,6508389995.34
sh603992,松霖科技,2020-02-11,16.2,17.7,16.03,16.95,16.23,3997120.0,66424519.0,694950000.0,6797117093.1
sh603992,松霖科技,2020-02-12,16.7,17.28,16.57,16.92,16.95,3089176.0,52347757.0,693720000.0,6785086797.36
sh603992,松霖科技,2020-02-13,16.92,17.15,16.38,16.55,16.92,2160828.0,36083310.0,678550000.0,6636713149.9
sh603992,松霖科技,2020-02-14,16.48,17.41,16.35,16.79,16.55,2630210.0,44125161.0,688390000.0,6732955515.82
sh603992,松霖科技,2020-02-17,16.88,17.24,16.69,17.08,16.79,2624624.0,44647725.0,700280000.0,6849248374.64
sh603992,松霖科技,2020-02-18,17.29,17.3,16.98,17.22,17.08,2252500.0,38682720.0,706020000.0,6905389754.76
sh603992,松霖科技,2020-02-19,17.3,17.45,17.1,17.1,17.22,2495027.0,43132452.0,701100000.0,6857268571.8
sh603992,松霖科技,2020-02-20,17.0,17.35,17.0,17.32,17.1,2255002.0,38870948.0,710120000.0,6945490740.56
sh603992,松霖科技,2020-02-21,17.35,17.43,17.25,17.33,17.32,2115339.0,36672365.0,710530000.0,6949500839.14
sh603992,松霖科技,2020-02-24,17.11,17.69,16.9,17.46,17.33,3517644.0,60643472.0,715860000.0,7001632120.68
sh603992,松霖科技,2020-02-25,16.98,17.26,16.62,17.01,17.46,2867200.0,48625870.0,697410000.0,6821177684.58
sh603992,松霖科技,2020-02-26,16.69,17.19,16.66,16.77,17.01,2580060.0,43752875.0,687570000.0,6724935318.66
sh603992,松霖科技,2020-02-27,16.98,17.1,16.66,16.82,16.77,1671808.0,28196772.0,689620000.0,6744985811.56
sh603992,松霖科技,2020-02-28,16.47,16.5,15.51,15.54,16.82,2731868.0,43753072.0,637140000.0,6231693193.32
sh603992,松霖科技,2020-03-02,15.6,16.45,15.6,16.4,15.54,1906631.0,30753549.0,672400000.0,6576561671.2
sh603992,松霖科技,2020-03-03,16.55,16.8,16.3,16.42,16.4,1935147.0,32020881.0,673220000.0,6584581868.36
sh603992,松霖科技,2020-03-04,16.4,16.78,16.16,16.75,16.42,2033860.0,33675752.0,686750000.0,6716915121.5
sh603992,松霖科技,2020-03-05,16.8,18.43,16.8,18.43,16.75,8147680.0,144165710.0,755630000.0,7390611682.94
sh603992,松霖科技,2020-03-06,17.99,19.57,17.7,18.47,18.43,10578048.0,196602532.0,757270000.0,7406652077.26
sh603992,松霖科技,2020-03-09,17.8,19.95,17.71,19.65,18.47,11117199.0,209653261.0,805650000.0,7879843709.7
sh603992,松霖科技,2020-03-10,19.18,20.23,18.65,19.95,19.65,13875642.0,273565680.0,817950000.0,8000146667.1
sh603992,松霖科技,2020-03-11,19.6,19.8,18.72,18.92,19.95,7591207.0,147264382.0,775720000.0,7587106513.36
sh603992,松霖科技,2020-03-12,18.39,18.46,17.91,18.13,18.92,4633982.0,84233489.0,743330000.0,7270308725.54
sh603992,松霖科技,2020-03-13,17.0,18.97,16.58,18.68,18.13,5756516.0,103379308.0,765880000.0,7490864147.44
sh603992,松霖科技,2020-03-16,18.51,19.15,18.08,18.25,18.68,4537678.0,84628710.0,748250000.0,7318429908.5
sh603992,松霖科技,2020-03-17,18.15,18.75,17.15,17.72,18.25,3305845.0,59044365.0,726520000.0,7105894683.76
sh603992,松霖科技,2020-03-18,17.85,18.19,17.05,17.07,17.72,2843607.0,50450037.0,699870000.0,6845238276.06
sh603992,松霖科技,2020-03-19,17.0,17.78,16.9,17.39,17.07,2347611.0,40760527.0,712990000.0,6973561430.62
sh603992,松霖科技,2020-03-20,17.49,18.38,17.4,18.24,17.39,4140600.0,74688788.0,747840000.0,7314419809.92
sh603992,松霖科技,2020-03-23,18.05,18.7,17.72,18.0,18.24,4482665.0,81887582.0,738000000.0,7218177444.0
sh603992,松霖科技,2020-03-24,18.35,18.58,17.77,18.26,18.0,4227270.0,76842533.0,748660000.0,7322440007.08
sh603992,松霖科技,2020-03-25,18.48,20.09,18.07,20.09,18.26,8652439.0,164465885.0,823690000.0,8056288047.22
sh603992,松霖科技,2020-03-26,20.0,22.1,19.5,21.45,20.09,16765686.0,350456793.0,879450000.0,8601661454.1
sh603992,松霖科技,2020-03-27,20.83,21.1,19.85,19.98,21.45,9858838.0,202088583.0,819180000.0,8012176962.84
sh603992,松霖科技,2020-03-30,19.21,19.55,18.51,18.77,19.98,6202108.0,117241116.0,769570000.0,7526955034.66
sh603992,松霖科技,2020-03-31,18.8,19.28,17.56,17.75,18.77,6348467.0,116614591.0,727750000.0,7117924979.5
sh603992,松霖科技,2020-04-01,17.69,18.11,17.18,18.11,17.75,3729537.0,66414115.0,742510000.0,7262288528.38
sh603992,松霖科技,2020-04-02,18.03,18.55,17.6,18.54,18.11,3526399.0,64249736.0,760140000.0,7434722767.32
sh603992,松霖科技,2020-04-03,18.6,19.18,18.27,18.62,18.54,3477433.0,65131959.0,763420000.0,7466803555.96
sh603992,松霖科技,2020-04-07,18.7,19.02,18.49,18.8,18.62,4588990.0,85905830.0,770800000.0,7538985330.4
sh603992,松霖科技,2020-04-08,18.62,18.73,18.2,18.32,18.8,3018935.0,55748069.0,751120000.0,7346500598.56
sh603992,松霖科技,2020-04-09,18.3,18.45,17.88,17.91,18.32,3376893.0,60804940.0,734310000.0,7182086556.78
sh603992,松霖科技,2020-04-10,17.99,18.07,17.03,17.26,17.91,3253694.0,56729384.0,707660000.0,6921430149.08
sh603992,松霖科技,2020-04-13,17.18,17.42,16.68,16.73,17.26,2543181.0,43031157.0,685930000.0,6708894924.34
sh603992,松霖科技,2020-04-14,16.78,17.04,16.7,16.92,16.73,1977500.0,33410280.0,693720000.0,6785086797.36
sh603992,松霖科技,2020-04-15,16.88,17.08,16.7,16.74,16.92,2329862.0,39268901.0,686340000.0,6712905022.92
sh603992,松霖科技,2020-04-16,16.75,16.75,16.19,16.28,16.74,2536270.0,41507034.0,667480000.0,6528440488.24
sh603992,松霖科技,2020-04-17,16.33,16.44,16.07,16.13,16.28,2437770.0,39562132.0,661330000.0,6468289009.54
sh603992,松霖科技,2020-04-20,16.18,16.37,16.13,16.33,16.13,1754580.0,28552317.0,669530000.0,6548490981.14
sh603992,松霖科技,2020-04-21,16.33,16.89,16.02,16.78,16.33,3174320.0,52030005.0,687980000.0,6728945417.24
sh603992,松霖科技,2020-04-22,16.4,16.85,16.4,16.68,16.78,1928300.0,32038202.0,683880000.0,6688844431.44
sh603992,松霖科技,2020-04-23,16.65,16.65,16.12,16.17,16.68,1676360.0,27539497.0,662970000.0,6484329403.86
sh603992,松霖科技,2020-04-24,16.3,16.36,15.63,15.9,16.17,1870300.0,29810651.0,651900000.0,6376056742.2
sh603992,松霖科技,2020-04-27,16.0,16.0,15.52,15.52,15.9,1404925.0,22058764.0,636320000.0,6223672996.16
sh603992,松霖科技,2020-04-28,15.54,15.77,14.01,14.88,15.52,1995378.0,29566245.0,610080000.0,5967026687.04
sh603992,松霖科技,2020-04-29,14.88,14.97,14.7,14.8,14.88,1527551.0,22615995.0,606800000.0,5934945898.4
sh603992,松霖科技,2020-04-30,14.6,15.05,14.53,14.95,14.8,1944461.0,29001716.0,612950000.0,5995097377.1
sh603992,松霖科技,2020-05-06,14.8,16.11,14.71,15.76,14.95,3226836.0,50073538.0,646160000.0,6319915362.08
sh603992,松霖科技,2020-05-07,15.76,15.86,15.28,15.46,15.76,2287236.0,35503425.0,633860000.0,6199612404.68
sh603992,松霖科技,2020-05-08,15.53,16.13,15.53,15.84,15.46,3089258.0,49179638.0,649440000.0,6351996150.72
sh603992,松霖科技,2020-05-11,15.84,16.09,15.76,15.85,15.84,1850558.0,29415468.0,649850000.0,6356006249.3
sh603992,松霖科技,2020-05-12,15.85,16.33,15.77,16.2,15.85,3342258.0,53867032.0,664200000.0,6496359699.6
sh603992,松霖科技,2020-05-13,16.1,16.12,15.81,15.94,16.2,2077258.0,33063782.0,653540000.0,6392097136.52
sh603992,松霖科技,2020-05-14,15.89,15.89,15.63,15.67,15.94,1655593.0,26061369.0,642470000.0,6283824474.86
sh603992,松霖科技,2020-05-15,15.75,16.37,15.75,16.32,15.67,3950258.0,64054235.0,669120000.0,6544480882.56
sh603992,松霖科技,2020-05-18,16.25,16.25,15.63,15.66,16.32,2809058.0,44636747.0,642060000.0,6279814376.28
sh603992,松霖科技,2020-05-19,15.73,16.04,15.6,15.94,15.66,1846200.0,29255526.0,653540000.0,6392097136.52
sh603992,松霖科技,2020-05-20,15.93,16.97,15.6,16.66,15.94,5738259.0,93913832.0,683060000.0,6680824234.28
sh603992,松霖科技,2020-05-21,16.59,17.29,16.4,16.63,16.66,5223772.0,87574707.0,681830000.0,6668793938.54
sh603992,松霖科技,2020-05-22,16.84,17.28,16.4,16.89,16.63,5242920.0,88330854.0,692490000.0,6773056501.62
sh603992,松霖科技,2020-05-25,16.75,16.8,16.0,16.29,16.89,3252198.0,53194132.0,667890000.0,6532450586.82
sh603992,松霖科技,2020-05-26,16.21,17.25,16.2,17.07,16.29,5319768.0,89470426.0,699870000.0,6845238276.06
sh603992,松霖科技,2020-05-27,17.0,18.0,16.88,17.61,17.07,7845166.0,137059187.0,722010000.0,7061783599.38
sh603992,松霖科技,2020-05-28,17.51,17.57,16.6,17.14,17.61,5573679.0,95096045.0,702740000.0,6873308966.12
sh603992,XD松霖科,2020-05-29,16.8,16.88,16.46,16.5,16.96,3065800.0,50907241.0,676500000.0,6616662657.0
sh603992,松霖科技,2020-06-01,16.61,17.06,16.4,16.92,16.5,3104869.0,52122927.0,693720000.0,6785086797.36
sh603992,松霖科技,2020-06-02,16.88,17.05,16.54,16.62,16.92,3304146.0,55145818.0,681420000.0,6664783839.96
sh603992,松霖科技,2020-06-03,16.5,16.73,16.41,16.48,16.62,2338100.0,38630946.0,675680000.0,6608642459.84
sh603992,松霖科技,2020-06-04,16.57,16.57,16.2,16.25,16.48,2041746.0,33299108.0,666250000.0,6516410192.5
sh603992,松霖科技,2020-06-05,16.27,16.34,16.03,16.29,16.25,1680407.0,27151686.0,667890000.0,6532450586.82
sh603992,松霖科技,2020-06-08,16.34,16.95,16.34,16.86,16.29,4483507.0,74852192.0,691260000.0,6761026205.88
sh603992,松霖科技,2020-06-09,16.8,16.9,16.56,16.84,16.86,2669987.0,44666671.0,690440000.0,6753006008.72
sh603992,松霖科技,2020-06-10,16.72,17.34,16.66,17.32,16.84,4630218.0,78907175.0,710120000.0,6945490740.56
sh603992,松霖科技,2020-06-11,17.35,17.6,17.0,17.06,17.32,4327870.0,74583350.0,699460000.0,6841228177.48
sh603992,松霖科技,2020-06-12,16.5,16.87,16.5,16.71,17.06,1889900.0,31585833.0,685110000.0,6700874727.18
sh603992,松霖科技,2020-06-15,16.68,16.68,16.31,16.38,16.71,1803400.0,29746253.0,671580000.0,6568541474.040001
sh603992,松霖科技,2020-06-16,16.5,16.74,16.46,16.63,16.38,1228170.0,20394030.0,681830000.0,6668793938.54
sh603992,松霖科技,2020-06-17,16.7,16.78,16.54,16.59,16.63,1228724.0,20446397.0,680190000.0,6652753544.22
sh603992,松霖科技,2020-06-18,16.55,16.55,16.24,16.4,16.59,1714800.0,28040343.0,672400000.0,6576561671.2
sh603992,松霖科技,2020-06-19,16.31,16.46,16.23,16.37,16.4,941000.0,15431519.0,671170000.0,6564531375.459999
sh603992,松霖科技,2020-06-22,16.3,16.68,16.3,16.57,16.37,1401400.0,23212162.0,679370000.0,6644733347.06
sh603992,松霖科技,2020-06-23,16.46,16.89,16.44,16.78,16.57,2008800.0,33705307.0,687980000.0,6728945417.24
sh603992,松霖科技,2020-06-24,16.8,16.8,16.48,16.48,16.78,1569249.0,26027156.0,675680000.0,6608642459.84
sh603992,松霖科技,2020-06-29,16.33,16.4,15.85,15.86,16.48,1786200.0,28626594.0,650260000.0,6360016347.88
sh603992,松霖科技,2020-06-30,15.86,16.09,15.86,15.96,15.86,836799.0,13384858.0,654360000.0,6400117333.68
sh603992,松霖科技,2020-07-01,15.91,16.12,15.6,15.7,15.96,2143600.0,33842596.0,643700000.0,6295854770.599999
sh603992,松霖科技,2020-07-02,15.69,15.9,15.55,15.88,15.7,1524803.0,24002381.0,651080000.0,6368036545.04
sh603992,松霖科技,2020-07-03,15.94,16.14,15.92,16.03,15.88,1843400.0,29557430.0,657230000.0,6428188023.74
sh603992,松霖科技,2020-07-06,16.22,16.75,16.16,16.72,16.03,3840542.0,63560362.0,685520000.0,6704884825.76
sh603992,松霖科技,2020-07-07,16.82,17.28,16.45,16.86,16.72,5019252.0,84784437.0,691260000.0,6761026205.88
sh603992,松霖科技,2020-07-08,16.82,17.19,16.76,17.13,16.86,3361053.0,57237739.0,702330000.0,6869298867.54
sh603992,松霖科技,2020-07-09,17.23,17.49,17.02,17.37,17.13,4379731.0,75667419.0,712170000.0,6965541233.46
sh603992,松霖科技,2020-07-10,17.37,17.59,17.02,17.11,17.37,3565100.0,61529471.0,701510000.0,6861278670.38
sh603992,松霖科技,2020-07-13,17.18,17.55,17.02,17.43,17.11,3719172.0,64456120.0,714630000.0,6989601824.94
sh603992,松霖科技,2020-07-14,17.51,17.76,16.91,17.42,17.43,3913718.0,68012100.0,714220000.0,6985591726.36
sh603992,松霖科技,2020-07-15,17.57,17.7,16.93,17.31,17.42,3690067.0,64041051.0,709710000.0,6941480641.9800005
sh603992,松霖科技,2020-07-16,17.31,17.38,16.48,16.49,17.31,2843700.0,48186256.0,676090000.0,6612652558.42
sh603992,松霖科技,2020-07-17,16.5,16.69,16.35,16.57,16.49,1580126.0,26132597.0,679370000.0,6644733347.06
sh603992,松霖科技,2020-07-20,16.66,17.38,16.62,17.27,16.57,3100570.0,53034669.0,708070000.0,6925440247.66
sh603992,松霖科技,2020-07-21,17.44,18.36,17.33,18.07,17.27,7424595.0,133356273.0,740870000.0,7246248134.06
sh603992,松霖科技,2020-07-22,17.98,19.27,17.75,18.85,18.07,8849133.0,164628686.0,772850000.0,7559035823.3
sh603992,松霖科技,2020-07-23,18.52,18.79,17.85,18.32,18.85,5832430.0,106733727.0,751120000.0,7346500598.56
sh603992,松霖科技,2020-07-24,18.49,18.84,17.54,18.08,18.32,4940640.0,90460787.0,741280000.0,7250258232.64
sh603992,松霖科技,2020-07-27,18.33,18.45,17.51,18.1,18.08,4467142.0,80659502.0,742100000.0,7258278429.799999
sh603992,松霖科技,2020-07-28,18.3,18.3,17.37,17.52,18.1,4091369.0,72650848.0,718320000.0,7025692712.16
sh603992,松霖科技,2020-07-29,17.52,17.94,17.35,17.88,17.52,2784837.0,49277300.0,733080000.0,7170056261.04
sh603992,松霖科技,2020-07-30,17.81,18.08,17.57,17.66,17.88,2840300.0,50483629.0,724060000.0,7081834092.28
sh603992,松霖科技,2020-07-31,17.82,18.5,17.77,18.26,17.66,4304468.0,78422855.0,748660000.0,7322440007.08
sh603992,松霖科技,2020-08-03,18.4,18.65,18.1,18.52,18.26,4459392.0,81993301.0,759320000.0,7426702570.16
sh603992,松霖科技,2020-08-04,18.57,18.77,18.22,18.43,18.52,3534848.0,65316504.0,755630000.0,7390611682.94
sh603992,松霖科技,2020-08-05,18.2,18.58,18.2,18.39,18.43,2457000.0,45192177.0,753990000.0,7374571288.62
sh603992,松霖科技,2020-08-06,18.39,18.56,17.99,18.33,18.39,2082000.0,38002392.0,751530000.0,7350510697.139999
sh603992,松霖科技,2020-08-07,18.35,19.01,18.21,18.63,18.33,3674479.0,68467531.0,763830000.0,7470813654.54
sh603992,松霖科技,2020-08-10,18.62,19.1,18.18,19.1,18.63,4638423.0,87086817.0,783100000.0,7659288287.8
sh603992,松霖科技,2020-08-11,19.01,19.69,18.21,18.29,19.1,6630408.0,125170263.0,749890000.0,7334470302.82
sh603992,松霖科技,2020-08-12,18.03,19.16,18.03,18.8,18.29,6162044.0,114354500.0,770800000.0,7538985330.4
sh603992,松霖科技,2020-08-13,18.5,20.09,18.5,19.8,18.8,9160896.0,177689201.0,811800000.0,7939995188.400001
sh603992,松霖科技,2020-08-14,19.8,20.98,19.59,20.7,19.8,7838630.0,159479081.0,848700000.0,8300904060.599999
sh603992,松霖科技,2020-08-17,20.61,20.9,20.3,20.58,20.7,5714831.0,117442546.0,843780000.0,8252782877.64
sh603992,松霖科技,2020-08-18,20.57,22.22,20.56,22.12,20.58,7376337.0,160710109.0,906920000.0,8870338058.960001
sh603992,松霖科技,2020-08-19,21.88,23.16,21.88,23.03,22.12,8847351.0,199755832.0,944230000.0,9235257029.74
sh603992,松霖科技,2020-08-20,22.61,23.7,22.03,23.7,23.03,11744181.0,270263788.0,971700000.0,9503933634.6
sh603992,松霖科技,2020-08-21,25.0,26.07,21.33,21.71,23.7,27643375.0,665870731.0,890110000.0,8705924017.18
sh603992,松霖科技,2020-08-24,19.54,19.54,19.54,19.54,21.71,982400.0,19196096.0,801140000.0,7835732625.32
sh603992,松霖科技,2020-08-25,17.59,17.59,17.59,17.59,19.54,2090000.0,36763100.0,721190000.0,7053763402.22
sh603992,松霖科技,2020-08-26,16.56,17.59,16.56,16.86,17.59,10707944.0,181368724.0,755328000.0,6761026205.88
sh603992,松霖科技,2020-08-27,16.29,16.66,16.15,16.54,16.86,7095475.0,116121019.0,740992000.0,6632703051.32
sh603992,松霖科技,2020-08-28,16.44,16.48,16.1,16.35,16.54,4991255.0,81206333.0,732480000.0,6556511178.3
sh603992,松霖科技,2020-08-31,16.39,17.1,16.35,16.98,16.35,6048182.0,101136390.0,760704000.0,6809147388.84
sh603992,松霖科技,2020-09-01,16.81,16.9,16.49,16.67,16.98,3604078.0,59991885.0,746816000.0,6684834332.860001
sh603992,松霖科技,2020-09-02,16.67,16.68,16.37,16.5,16.67,3214437.0,52927594.0,739200000.0,6616662657.0
sh603992,松霖科技,2020-09-03,16.49,16.49,16.19,16.22,16.5,3258340.0,53137869.0,726656000.0,6504379896.759999
sh603992,松霖科技,2020-09-04,16.17,16.37,15.92,16.33,16.22,2371691.0,38404970.0,731584000.0,6548490981.14
sh603992,松霖科技,2020-09-07,16.3,16.44,16.12,16.15,16.33,2384680.0,38806856.0,723520000.0,6476309206.7
sh603992,松霖科技,2020-09-08,16.15,16.3,16.0,16.21,16.15,2005793.0,32320233.0,726208000.0,6500369798.18
sh603992,松霖科技,2020-09-09,16.08,16.15,15.79,15.81,16.21,2745510.0,43893484.0,708288000.0,6339965854.9800005
sh603992,松霖科技,2020-09-10,15.9,16.02,15.14,15.22,15.81,2420470.0,37592370.0,681856000.0,6103370038.759999
sh603992,松霖科技,2020-09-11,15.03,15.64,15.01,15.61,15.22,1500740.0,23157680.0,699328000.0,6259763883.38
sh603992,松霖科技,2020-09-14,15.66,15.88,15.45,15.63,15.61,1304370.0,20411148.0,700224000.0,6267784080.54
sh603992,松霖科技,2020-09-15,15.6,15.82,15.47,15.82,15.63,1497700.0,23409159.0,708736000.0,6343975953.56
sh603992,松霖科技,2020-09-16,15.88,15.89,15.63,15.71,15.82,1216270.0,19128271.0,703808000.0,6299864869.18
sh603992,松霖科技,2020-09-17,15.71,15.8,15.55,15.64,15.71,1211700.0,18977492.0,700672000.0,6271794179.12
sh603992,松霖科技,2020-09-18,15.7,16.15,15.58,16.03,15.64,2035200.0,32332369.0,718144000.0,6428188023.74
sh603992,松霖科技,2020-09-21,16.04,16.55,15.81,16.4,16.03,2837300.0,46105989.0,734720000.0,6576561671.2
sh603992,松霖科技,2020-09-22,16.22,16.38,15.98,16.06,16.4,1722170.0,27843144.0,719488000.0,6440218319.4800005
sh603992,松霖科技,2020-09-23,16.06,16.52,15.96,16.31,16.06,1767270.0,28726462.0,730688000.0,6540470783.98
sh603992,松霖科技,2020-09-24,16.18,16.35,15.91,16.04,16.31,1821200.0,29321066.0,718592000.0,6432198122.320001
sh603992,松霖科技,2020-09-25,16.12,16.12,15.51,15.64,16.04,1234710.0,19478943.0,700672000.0,6271794179.12
sh603992,松霖科技,2020-09-28,15.59,15.61,15.22,15.3,15.64,1028150.0,15837318.0,685440000.0,6135450827.4
sh603992,松霖科技,2020-09-29,15.31,15.5,15.2,15.32,15.3,687600.0,10563528.0,686336000.0,6143471024.56
sh603992,松霖科技,2020-09-30,15.36,15.48,15.22,15.3,15.32,646000.0,9893511.0,685440000.0,6135450827.4
sh603992,松霖科技,2020-10-09,15.49,15.73,15.42,15.63,15.3,1119335.0,17467030.0,700224000.0,6267784080.54
sh603992,松霖科技,2020-10-12,15.69,16.2,15.69,16.2,15.63,1825729.0,29281708.0,725760000.0,6496359699.6
sh603992,松霖科技,2020-10-13,16.28,16.29,15.98,16.04,16.2,1234700.0,19818839.0,718592000.0,6432198122.320001
sh603992,松霖科技,2020-10-14,16.17,16.17,15.91,15.97,16.04,905800.0,14502761.0,715456000.0,6404127432.26
sh603992,松霖科技,2020-10-15,15.97,16.08,15.81,15.83,15.97,708903.0,11260188.0,709184000.0,6347986052.139999
sh603992,松霖科技,2020-10-16,15.9,15.94,15.7,15.82,15.83,645770.0,10197881.0,708736000.0,6343975953.56
sh603992,松霖科技,2020-10-19,15.94,16.05,15.81,15.93,15.82,884470.0,14086969.0,713664000.0,6388087037.94
sh603992,松霖科技,2020-10-20,16.08,16.85,16.06,16.75,15.93,4637644.0,76543479.0,750400000.0,6716915121.5
sh603992,松霖科技,2020-10-21,16.77,16.99,16.55,16.86,16.75,3682080.0,61904903.0,755328000.0,6761026205.88
sh603992,松霖科技,2020-10-22,16.77,16.8,16.43,16.45,16.86,2505234.0,41566313.0,736960000.0,6596612164.1
sh603992,松霖科技,2020-10-23,16.41,17.36,16.35,17.16,16.45,5024635.0,85502377.0,768768000.0,6881329163.280001
sh603992,松霖科技,2020-10-26,17.37,18.58,17.05,18.4,17.16,7553436.0,135271230.0,824320000.0,7378581387.200001
sh603992,松霖科技,2020-10-27,18.35,18.35,17.51,17.96,18.4,4915097.0,87866347.0,804608000.0,7202137049.679999
sh603992,松霖科技,2020-10-28,17.81,18.27,17.62,17.97,17.96,3808519.0,68550900.0,805056000.0,7206147148.26
sh603992,松霖科技,2020-10-29,17.66,18.5,17.53,18.3,17.97,3915010.0,71383148.0,819840000.0,7338480401.400001
sh603992,松霖科技,2020-10-30,18.38,18.92,17.68,17.88,18.3,4458928.0,82082300.0,801024000.0,7170056261.04
sh603992,松霖科技,2020-11-02,17.8,18.34,17.35,17.5,17.88,3493134.0,61772288.0,784000000.0,7017672515.0
sh603992,松霖科技,2020-11-03,17.82,18.28,17.58,18.02,17.5,2948625.0,53045428.0,807296000.0,7226197641.160001
sh603992,松霖科技,2020-11-04,18.01,18.25,17.76,17.84,18.02,2071796.0,37158200.0,799232000.0,7154015866.72
sh603992,松霖科技,2020-11-05,17.89,18.14,17.77,17.85,17.84,1907770.0,34163431.0,799680000.0,7158025965.3
sh603992,松霖科技,2020-11-06,17.95,17.97,17.52,17.63,17.85,1667600.0,29507909.0,789824000.0,7069803796.540001
sh603992,松霖科技,2020-11-09,17.71,18.15,17.6,17.82,17.63,2699643.0,48225630.0,798336000.0,7145995669.56
sh603992,松霖科技,2020-11-10,17.81,17.82,17.33,17.43,17.82,1716129.0,30064062.0,780864000.0,6989601824.94
sh603992,松霖科技,2020-11-11,17.44,17.44,17.02,17.03,17.43,1675310.0,28808617.0,762944000.0,6829197881.74
sh603992,松霖科技,2020-11-12,17.04,17.28,17.0,17.12,17.03,931740.0,15973439.0,766976000.0,6865288768.96
sh603992,松霖科技,2020-11-13,17.17,17.18,16.67,16.86,17.12,1386140.0,23367351.0,755328000.0,6761026205.88
sh603992,松霖科技,2020-11-16,16.97,17.08,16.82,16.93,16.86,998834.0,16914114.0,758464000.0,6789096895.94
sh603992,松霖科技,2020-11-17,16.93,16.94,16.54,16.66,16.93,995900.0,16547166.0,746368000.0,6680824234.28
sh603992,松霖科技,2020-11-18,16.65,16.84,16.63,16.8,16.66,764800.0,12806393.0,752640000.0,6736965614.4
sh603992,松霖科技,2020-11-19,16.86,17.09,16.61,17.03,16.8,1137100.0,19209088.0,762944000.0,6829197881.74
sh603992,松霖科技,2020-11-20,17.03,17.45,16.91,17.36,17.03,1320600.0,22762033.0,777728000.0,6961531134.88
sh603992,松霖科技,2020-11-23,17.34,17.38,16.86,17.2,17.36,1697600.0,28996425.0,770560000.0,6897369557.6
sh603992,松霖科技,2020-11-24,17.2,17.2,16.8,16.84,17.2,1239229.0,20939803.0,754432000.0,6753006008.72
sh603992,松霖科技,2020-11-25,16.85,16.94,16.67,16.7,16.84,738100.0,12370473.0,748160000.0,6696864628.599999
sh603992,松霖科技,2020-11-26,16.51,16.7,16.32,16.42,16.7,1308600.0,21531757.0,735616000.0,6584581868.36
sh603992,松霖科技,2020-11-27,16.41,16.56,16.29,16.55,16.42,747600.0,12284802.0,741440000.0,6636713149.9
sh603992,松霖科技,2020-11-30,16.69,16.82,16.55,16.65,16.55,790635.0,13196465.0,745920000.0,6676814135.7
sh603992,松霖科技,2020-12-01,16.56,16.79,16.56,16.72,16.65,517500.0,8637406.0,749056000.0,6704884825.76
sh603992,松霖科技,2020-12-02,16.75,16.88,16.69,16.82,16.72,674405.0,11316560.0,753536000.0,6744985811.56
sh603992,松霖科技,2020-12-03,16.84,16.93,16.78,16.86,16.82,621408.0,10469791.0,755328000.0,6761026205.88
sh603992,松霖科技,2020-12-04,16.86,16.94,16.76,16.9,16.86,566808.0,9562077.0,757120000.0,6777066600.2
sh603992,松霖科技,2020-12-07,17.13,17.13,16.8,16.89,16.9,609200.0,10302733.0,756672000.0,6773056501.62
sh603992,松霖科技,2020-12-08,16.96,16.98,16.76,16.92,16.89,702500.0,11858461.0,758016000.0,6785086797.360001
sh603992,松霖科技,2020-12-09,16.92,16.96,16.36,16.39,16.92,1397400.0,23182797.0,734272000.0,6572551572.62
sh603992,松霖科技,2020-12-10,16.4,16.49,16.15,16.35,16.39,706900.0,11559181.0,732480000.0,6556511178.3
sh603992,松霖科技,2020-12-11,16.3,16.52,16.06,16.4,16.35,734000.0,11919558.0,734720000.0,6576561671.2
sh603992,松霖科技,2020-12-14,16.4,16.57,16.18,16.32,16.4,492800.0,8033236.0,731136000.0,6544480882.559999
sh603992,松霖科技,2020-12-15,16.44,16.44,16.15,16.17,16.32,453700.0,7356398.0,724416000.0,6484329403.86
sh603992,松霖科技,2020-12-16,16.18,16.27,15.99,15.99,16.17,633008.0,10199659.0,716352000.0,6412147629.419999
sh603992,松霖科技,2020-12-17,16.22,16.22,15.78,16.02,15.99,538100.0,8588948.0,717696000.0,6424177925.16
sh603992,松霖科技,2020-12-18,16.02,16.12,15.89,15.9,16.02,510935.0,8177947.0,712320000.0,6376056742.200001
sh603992,松霖科技,2020-12-21,15.89,15.92,15.6,15.65,15.9,1110800.0,17427848.0,701120000.0,6275804277.7
sh603992,松霖科技,2020-12-22,15.72,16.99,15.6,16.8,15.65,3550293.0,58589907.0,752640000.0,6736965614.4
sh603992,松霖科技,2020-12-23,16.79,17.76,16.18,17.55,16.8,4887318.0,83118816.0,786240000.0,7037723007.9
sh603992,松霖科技,2020-12-24,17.55,18.14,17.36,17.66,17.55,4453070.0,79368341.0,791168000.0,7081834092.28
sh603992,松霖科技,2020-12-25,17.38,19.4,17.38,18.62,17.66,6019283.0,111918685.0,834176000.0,7466803555.96
sh603992,松霖科技,2020-12-28,18.51,18.92,18.3,18.87,18.62,2402616.0,44830818.0,845376000.0,7567056020.46
sh603992,松霖科技,2020-12-29,18.8,19.19,18.51,18.65,18.87,2681732.0,50438225.0,835520000.0,7478833851.7
sh603992,松霖科技,2020-12-30,18.65,18.79,17.9,18.29,18.65,2590059.0,47241916.0,819392000.0,7334470302.82
sh603992,松霖科技,2020-12-31,18.4,18.47,18.0,18.34,18.29,1753400.0,31878321.0,821632000.0,7354520795.719999
sh603992,松霖科技,2021-01-04,18.34,18.39,17.81,17.87,18.34,1720900.0,31002673.0,800576000.0,7166046162.46
sh603992,松霖科技,2021-01-05,17.87,18.05,17.46,17.76,17.87,1615200.0,28580410.0,795648000.0,7121935078.08
sh603992,松霖科技,2021-01-06,17.75,17.86,17.18,17.38,17.76,1424600.0,24806429.0,778624000.0,6969551332.04
sh603992,松霖科技,2021-01-07,17.25,17.54,17.05,17.1,17.38,1306600.0,22574705.0,766080000.0,6857268571.8
sh603992,松霖科技,2021-01-08,16.96,17.04,16.31,16.6,17.1,1452528.0,24181189.0,743680000.0,6656763642.8
sh603992,松霖科技,2021-01-11,16.6,16.79,16.01,16.05,16.6,1121603.0,18203098.0,719040000.0,6436208220.900001
sh603992,松霖科技,2021-01-12,16.22,16.44,16.01,16.25,16.05,884600.0,14413206.0,728000000.0,6516410192.5
sh603992,松霖科技,2021-01-13,16.25,16.4,15.7,15.73,16.25,1259620.0,20066874.0,704704000.0,6307885066.34
sh603992,松霖科技,2021-01-14,15.76,16.99,15.75,16.52,15.73,1597700.0,26263241.0,740096000.0,6624682854.160001
sh603992,松霖科技,2021-01-15,16.5,16.86,16.37,16.5,16.52,1018220.0,16882010.0,739200000.0,6616662657.0
sh603992,松霖科技,2021-01-18,16.41,16.71,16.28,16.65,16.5,815200.0,13439165.0,745920000.0,6676814135.7
sh603992,松霖科技,2021-01-19,16.6,16.66,16.15,16.18,16.65,752001.0,12313082.0,724864000.0,6488339502.44
sh603992,松霖科技,2021-01-20,16.18,16.35,15.96,16.21,16.18,625201.0,10119494.0,726208000.0,6500369798.18
sh603992,松霖科技,2021-01-21,16.21,16.34,16.01,16.18,16.21,597755.0,9663673.0,724864000.0,6488339502.44
sh603992,松霖科技,2021-01-22,16.2,16.54,16.02,16.54,16.18,960932.0,15660441.0,740992000.0,6632703051.32
sh603992,松霖科技,2021-01-25,16.54,16.57,16.11,16.27,16.54,764300.0,12456553.0,728896000.0,6524430389.66
sh603992,松霖科技,2021-01-26,16.15,16.2,15.81,15.92,16.27,774400.0,12349212.0,713216000.0,6384076939.36
sh603992,松霖科技,2021-01-27,15.92,16.4,15.86,16.27,15.92,621155.0,10054927.0,728896000.0,6524430389.66
sh603992,松霖科技,2021-01-28,16.2,16.2,15.89,15.93,16.27,510100.0,8158660.0,713664000.0,6388087037.94
sh603992,松霖科技,2021-01-29,15.9,16.18,15.9,16.01,15.93,413700.0,6630557.0,717248000.0,6420167826.58
sh603992,松霖科技,2021-02-01,15.92,16.63,15.86,16.42,16.01,629700.0,10279712.0,735616000.0,6584581868.36
sh603992,松霖科技,2021-02-02,16.43,16.86,16.37,16.85,16.42,1475900.0,24667127.0,754880000.0,6757016107.299999
sh603992,松霖科技,2021-02-03,16.85,17.0,16.42,16.91,16.85,1028100.0,17213439.0,757568000.0,6781076698.780001
sh603992,松霖科技,2021-02-04,16.72,16.89,16.01,16.15,16.91,785000.0,12866402.0,723520000.0,6476309206.7
sh603992,松霖科技,2021-02-05,16.14,16.84,16.1,16.52,16.15,992200.0,16340964.0,740096000.0,6624682854.160001
sh603992,松霖科技,2021-02-08,16.26,16.45,15.92,16.16,16.52,689400.0,11141834.0,723968000.0,6480319305.28
sh603992,松霖科技,2021-02-09,16.16,16.46,16.0,16.17,16.16,536800.0,8668614.0,724416000.0,6484329403.86
sh603992,松霖科技,2021-02-10,16.0,16.32,15.9,15.96,16.17,857210.0,13766444.0,715008000.0,6400117333.68
sh603992,松霖科技,2021-02-18,16.5,16.5,16.0,16.25,15.96,690600.0,11214970.0,728000000.0,6516410192.5
sh603992,松霖科技,2021-02-19,16.22,16.67,16.21,16.64,16.25,955010.0,15695877.0,745472000.0,6672804037.12
sh603992,松霖科技,2021-02-22,16.59,17.49,16.51,16.95,16.64,1831300.0,31326411.0,759360000.0,6797117093.099999
sh603992,松霖科技,2021-02-23,16.96,17.94,16.8,17.94,16.95,2331242.0,40809485.0,803712000.0,7194116852.52
sh603992,松霖科技,2021-02-24,17.8,18.17,17.16,17.38,17.94,1809124.0,31922917.0,778624000.0,6969551332.04
sh603992,松霖科技,2021-02-25,17.44,17.62,16.98,17.42,17.38,1126447.0,19367575.0,780416000.0,6985591726.36
sh603992,松霖科技,2021-02-26,17.18,17.54,17.09,17.27,17.42,713000.0,12306322.0,773696000.0,6925440247.66
sh603992,松霖科技,2021-03-01,17.15,17.61,17.1,17.46,17.27,829370.0,14432098.0,782208000.0,7001632120.68
sh603992,松霖科技,2021-03-02,17.5,17.51,17.06,17.11,17.46,782600.0,13488816.0,766528000.0,6861278670.38
sh603992,松霖科技,2021-03-03,17.11,17.32,17.06,17.17,17.11,552200.0,9480507.0,769216000.0,6885339261.86
sh603992,松霖科技,2021-03-04,17.18,17.5,17.03,17.27,17.17,858600.0,14844739.0,773696000.0,6925440247.66
sh603992,松霖科技,2021-03-05,17.28,17.87,17.28,17.65,17.27,1251247.0,22083918.0,790720000.0,7077823993.7
sh603992,松霖科技,2021-03-08,17.8,17.89,17.06,17.26,17.65,1056900.0,18455242.0,773248000.0,6921430149.08
sh603992,松霖科技,2021-03-09,17.26,17.63,16.61,17.11,17.26,1033680.0,17697109.0,766528000.0,6861278670.38
sh603992,松霖科技,2021-03-10,17.09,17.25,16.82,16.82,17.11,559500.0,9530770.0,753536000.0,6744985811.56
sh603992,松霖科技,2021-03-11,16.85,17.56,16.72,17.51,16.82,1508932.0,26162276.0,784448000.0,7021682613.58
sh603992,松霖科技,2021-03-12,17.35,17.69,17.35,17.42,17.51,569300.0,9944379.0,780416000.0,6985591726.36
sh603992,松霖科技,2021-03-15,17.2,17.49,17.06,17.14,17.42,497100.0,8547928.0,767872000.0,6873308966.12
sh603992,松霖科技,2021-03-16,17.01,17.35,16.92,17.35,17.14,608100.0,10423021.0,777280000.0,6957521036.3
sh603992,松霖科技,2021-03-17,17.35,17.35,16.92,16.97,17.35,1057100.0,18014725.0,760256000.0,6805137290.26
sh603992,松霖科技,2021-03-18,16.99,17.04,16.28,16.38,16.97,1358700.0,22470884.0,733824000.0,6568541474.040001
sh603992,松霖科技,2021-03-19,16.3,16.95,16.13,16.6,16.38,831300.0,13805831.0,743680000.0,6656763642.8
sh603992,松霖科技,2021-03-22,16.65,16.98,16.54,16.9,16.6,621400.0,10476100.0,757120000.0,6777066600.2
sh603992,松霖科技,2021-03-23,16.92,17.1,16.62,16.64,16.9,467200.0,7855162.0,745472000.0,6672804037.12
sh603992,松霖科技,2021-03-24,16.61,16.85,16.51,16.64,16.64,369270.0,6151576.0,745472000.0,6672804037.12
sh603992,松霖科技,2021-03-25,16.9,16.9,16.37,16.4,16.64,455100.0,7528296.0,734720000.0,6576561671.2
sh603992,松霖科技,2021-03-26,16.52,16.57,16.33,16.52,16.4,267700.0,4411045.0,740096000.0,6624682854.160001
sh603992,松霖科技,2021-03-29,16.6,16.61,16.45,16.49,16.52,283800.0,4686437.0,738752000.0,6612652558.42
sh603992,松霖科技,2021-03-30,16.5,16.65,16.2,16.52,16.49,483703.0,7929825.0,740096000.0,6624682854.160001
sh603992,松霖科技,2021-03-31,16.52,16.83,16.44,16.78,16.52,587570.0,9805598.0,751744000.0,6728945417.24
sh603992,松霖科技,2021-04-01,16.98,16.99,16.62,16.69,16.78,287013.0,4798664.0,747712000.0,6692854530.02
sh603992,松霖科技,2021-04-02,16.68,16.7,16.44,16.63,16.69,411670.0,6810707.0,745024000.0,6668793938.54
sh603992,松霖科技,2021-04-06,16.66,17.25,16.57,17.2,16.63,1023200.0,17379554.0,770560000.0,6897369557.6
sh603992,松霖科技,2021-04-07,17.2,17.39,17.1,17.17,17.2,598100.0,10305006.0,769216000.0,6885339261.86
sh603992,松霖科技,2021-04-08,17.11,17.3,17.0,17.1,17.17,550100.0,9408369.0,766080000.0,6857268571.8
sh603992,松霖科技,2021-04-09,17.11,17.35,17.0,17.33,17.1,608100.0,10452962.0,776384000.0,6949500839.139999
sh603992,松霖科技,2021-04-12,17.35,17.67,17.21,17.3,17.33,937800.0,16316930.0,775040000.0,6937470543.400001
sh603992,松霖科技,2021-04-13,17.3,18.66,16.89,17.26,17.3,2401675.0,42354657.0,773248000.0,6921430149.08
sh603992,松霖科技,2021-04-14,17.35,17.87,17.01,17.78,17.26,1800500.0,31812280.0,796544000.0,7129955275.240001
sh603992,松霖科技,2021-04-15,17.75,18.04,17.61,17.92,17.78,1257100.0,22424102.0,802816000.0,7186096655.360001
sh603992,松霖科技,2021-04-16,17.74,17.99,17.74,17.91,17.92,799400.0,14303589.0,802368000.0,7182086556.78
sh603992,松霖科技,2021-04-19,17.9,18.15,17.78,17.84,17.91,1149900.0,20664132.0,799232000.0,7154015866.72
sh603992,松霖科技,2021-04-20,17.99,18.44,17.85,18.22,17.84,1687240.0,30683478.0,816256000.0,7306399612.76
sh603992,松霖科技,2021-04-21,18.0,18.43,17.57,17.73,18.22,1105528.0,19847510.0,794304000.0,7109904782.34
sh603992,松霖科技,2021-04-22,17.87,18.29,17.77,18.09,17.73,1260961.0,22768402.0,810432000.0,7254268331.22
sh603992,松霖科技,2021-04-23,18.1,18.38,17.69,17.69,18.09,674110.0,12069375.0,792512000.0,7093864388.02
sh603992,松霖科技,2021-04-26,17.71,18.7,17.32,18.69,17.69,2239522.0,41036815.0,837312000.0,7494874246.02
sh603992,松霖科技,2021-04-27,18.68,18.68,18.21,18.31,18.69,1219761.0,22475428.0,820288000.0,7342490499.98
sh603992,松霖科技,2021-04-28,18.11,19.21,18.05,19.08,18.31,2273161.0,43166646.0,854784000.0,7651268090.64
sh603992,松霖科技,2021-04-29,19.08,19.19,18.7,18.82,19.08,1242710.0,23440401.0,843136000.0,7547005527.559999
sh603992,松霖科技,2021-04-30,18.7,19.3,18.7,18.81,18.82,874000.0,16592887.0,842688000.0,7542995428.98
sh603992,松霖科技,2021-05-06,18.91,19.37,18.75,19.07,18.81,1341800.0,25555523.0,854336000.0,7647257992.06
sh603992,松霖科技,2021-05-07,19.2,19.29,18.33,18.58,19.07,1801362.0,33827051.0,832384000.0,7450763161.639999
sh603992,松霖科技,2021-05-10,18.56,18.56,18.12,18.22,18.58,1098900.0,20069255.0,816256000.0,7306399612.76
sh603992,松霖科技,2021-05-11,18.17,18.18,17.47,17.66,18.22,1041214.0,18424383.0,791168000.0,7081834092.28
sh603992,松霖科技,2021-05-12,17.61,17.66,17.33,17.5,17.66,652828.0,11390259.0,784000000.0,7017672515.0
sh603992,松霖科技,2021-05-13,17.44,17.77,17.36,17.64,17.5,650200.0,11447259.0,790272000.0,7073813895.12
sh603992,松霖科技,2021-05-14,17.61,18.14,17.51,17.78,17.64,682100.0,12170721.0,796544000.0,7129955275.240001
sh603992,松霖科技,2021-05-17,17.8,17.9,17.05,17.33,17.78,1439200.0,24934548.0,776384000.0,6949500839.139999
sh603992,松霖科技,2021-05-18,17.32,17.55,17.1,17.23,17.33,644246.0,11145719.0,771904000.0,6909399853.34
sh603992,松霖科技,2021-05-19,17.24,17.68,17.06,17.62,17.23,899963.0,15689195.0,789376000.0,7065793697.959999
sh603992,松霖科技,2021-05-20,17.55,17.74,17.29,17.33,17.62,561800.0,9783496.0,776384000.0,6949500839.139999
sh603992,松霖科技,2021-05-21,17.17,17.63,17.17,17.46,17.33,699300.0,12148329.0,782208000.0,7001632120.68
sh603992,松霖科技,2021-05-24,17.46,17.63,17.18,17.28,17.46,629172.0,10895565.0,774144000.0,6929450346.24
sh603992,XD松霖科,2021-05-25,17.2,17.28,17.02,17.26,17.08,457146.0,7846677.0,773248000.0,6921430149.08
sh603992,松霖科技,2021-05-26,17.27,17.54,17.12,17.42,17.26,546906.0,9467950.0,780416000.0,6985591726.36
sh603992,松霖科技,2021-05-27,17.46,17.66,17.32,17.56,17.42,765128.0,13388220.0,786688000.0,7041733106.48
sh603992,松霖科技,2021-05-28,17.55,17.57,17.2,17.28,17.56,520500.0,9014723.0,774144000.0,6929450346.24
sh603992,松霖科技,2021-05-31,17.23,17.33,17.06,17.14,17.28,662300.0,11360133.0,767872000.0,6873308966.12
sh603992,松霖科技,2021-06-01,17.3,17.35,17.11,17.28,17.14,452700.0,7804456.0,774144000.0,6929450346.24
sh603992,松霖科技,2021-06-02,17.29,17.31,17.02,17.04,17.28,976503.0,16711883.0,763392000.0,6833207980.32
sh603992,松霖科技,2021-06-03,17.05,17.3,17.05,17.06,17.04,1066300.0,18329232.0,764288000.0,6841228177.4800005
sh603992,松霖科技,2021-06-04,17.01,18.77,16.93,18.77,17.06,3277314.0,60170326.0,840896000.0,7526955034.66
sh603992,松霖科技,2021-06-07,18.99,19.96,18.39,18.5,18.77,4265689.0,80828917.0,828800000.0,7418682373.0
sh603992,松霖科技,2021-06-08,18.78,18.78,18.25,18.58,18.5,2281814.0,42154488.0,832384000.0,7450763161.639999
sh603992,松霖科技,2021-06-09,18.46,18.8,18.26,18.53,18.58,1724966.0,32005752.0,830144000.0,7430712668.74
sh603992,松霖科技,2021-06-10,18.53,18.7,18.08,18.19,18.53,1688177.0,30899524.0,814912000.0,7294369317.019999
sh603992,松霖科技,2021-06-11,18.19,18.37,17.7,17.78,18.19,1432500.0,25775113.0,796544000.0,7129955275.240001
sh603992,松霖科技,2021-06-15,17.8,18.23,17.62,18.1,17.78,1282400.0,23056181.0,810880000.0,7258278429.799999
sh603992,松霖科技,2021-06-16,17.88,18.15,17.32,17.65,18.1,1205162.0,21334766.0,790720000.0,7077823993.7
sh603992,松霖科技,2021-06-17,17.7,17.76,17.24,17.34,17.65,974100.0,16989666.0,776832000.0,6953510937.72
sh603992,松霖科技,2021-06-18,17.31,17.58,17.17,17.43,17.34,856300.0,14891895.0,780864000.0,6989601824.94
sh603992,松霖科技,2021-06-21,17.29,17.97,17.26,17.85,17.43,1139800.0,20256855.0,799680000.0,7158025965.3
sh603992,松霖科技,2021-06-22,18.15,18.15,17.66,17.83,17.85,911000.0,16233444.0,798784000.0,7150005768.14
sh603992,松霖科技,2021-06-23,17.95,18.05,17.73,17.96,17.83,758870.0,13569967.0,804608000.0,7202137049.679999
sh603992,松霖科技,2021-06-24,17.9,18.09,17.75,17.94,17.96,1109900.0,19900151.0,803712000.0,7194116852.52
sh603992,松霖科技,2021-06-25,17.94,18.28,17.35,17.55,17.94,1984600.0,35438226.0,786240000.0,7037723007.9
sh603992,松霖科技,2021-06-28,17.35,18.53,17.35,18.51,17.55,2583900.0,47090101.0,829248000.0,7422692471.58
sh603992,松霖科技,2021-06-29,18.42,18.5,18.09,18.19,18.51,1200116.0,21836841.0,814912000.0,7294369317.019999
sh603992,松霖科技,2021-06-30,18.2,18.5,18.02,18.36,18.19,1396437.0,25537784.0,822528000.0,7362540992.88
sh603992,松霖科技,2021-07-01,18.29,18.94,18.29,18.4,18.36,1942101.0,36153425.0,824320000.0,7378581387.200001
sh603992,松霖科技,2021-07-02,18.4,19.29,18.4,18.97,18.4,3125276.0,59309839.0,849856000.0,7607157006.259999
sh603992,松霖科技,2021-07-05,18.97,19.02,18.5,18.74,18.97,1906800.0,35575168.0,839552000.0,7514924738.92
sh603992,松霖科技,2021-07-06,18.63,19.19,18.63,19.19,18.74,2030711.0,38479532.0,859712000.0,7695379175.019999
sh603992,松霖科技,2021-07-07,19.2,19.43,18.68,18.7,19.19,1786000.0,33864045.0,837760000.0,7498884344.6
sh603992,松霖科技,2021-07-08,18.77,18.88,18.22,18.36,18.7,1619700.0,29800888.0,822528000.0,7362540992.88
sh603992,松霖科技,2021-07-09,18.28,19.98,18.28,19.9,18.36,3761033.0,73328251.0,891520000.0,7980096174.2
sh603992,松霖科技,2021-07-12,19.75,19.83,19.35,19.56,19.9,2187170.0,42752127.0,876288000.0,7843752822.48
sh603992,松霖科技,2021-07-13,19.47,21.52,19.4,21.52,19.56,3597290.0,75073418.0,964096000.0,8629732144.16
sh603992,松霖科技,2021-07-14,21.52,22.47,20.88,20.96,21.52,4680200.0,100417518.0,939008000.0,8405166623.68
sh603992,松霖科技,2021-07-15,21.0,21.23,20.55,20.7,20.96,1754805.0,36428143.0,927360000.0,8300904060.599999
sh603992,松霖科技,2021-07-16,20.92,20.92,20.0,20.15,20.7,2213595.0,44986068.0,902720000.0,8080348638.7
sh603992,松霖科技,2021-07-19,20.07,20.16,19.6,19.77,20.15,1765070.0,34984891.0,885696000.0,7927964892.66
sh603992,松霖科技,2021-07-20,19.68,20.17,19.53,19.83,19.77,1307070.0,25908002.0,888384000.0,7952025484.139999
sh603992,松霖科技,2021-07-21,19.49,20.1,19.49,19.84,19.83,1410056.0,28020057.0,888832000.0,7956035582.72
sh603992,松霖科技,2021-07-22,19.72,20.82,19.72,20.53,19.84,2241200.0,45792057.0,919744000.0,8232732384.74
sh603992,松霖科技,2021-07-23,20.42,21.78,19.98,21.13,20.53,2964556.0,62529529.0,946624000.0,8473338299.54
sh603992,松霖科技,2021-07-26,20.99,21.95,19.71,21.69,21.13,3196376.0,66995773.0,971712000.0,8697903820.02
sh603992,松霖科技,2021-07-27,21.69,22.1,20.4,20.4,21.69,2187500.0,46542414.0,913920000.0,8180601103.2
sh603992,松霖科技,2021-07-28,20.4,22.44,19.48,22.14,20.4,3321756.0,70271693.0,991872000.0,8878358256.119999
sh603992,松霖科技,2021-07-29,21.88,22.8,21.48,22.4,22.14,3177061.0,70926948.0,1003520000.0,8982620819.2
sh603992,松霖科技,2021-07-30,21.78,22.26,21.3,22.03,22.4,1875900.0,40891712.0,986944000.0,8834247171.74
sh603992,松霖科技,2021-08-02,22.33,22.35,21.2,21.5,22.03,1245738.0,26893403.0,963200000.0,8621711947.0
sh603992,松霖科技,2021-08-03,21.44,22.11,20.72,20.97,21.5,1734461.0,36668680.0,939456000.0,8409176722.26
sh603992,松霖科技,2021-08-04,21.0,22.2,20.9,21.8,20.97,1618733.0,34849548.0,976640000.0,8742014904.4
sh603992,松霖科技,2021-08-05,21.73,23.5,21.63,22.95,21.8,2780956.0,63535734.0,1028160000.0,9203176241.1
sh603992,松霖科技,2021-08-06,23.0,23.3,21.91,22.1,22.95,1957400.0,43649178.0,990080000.0,8862317861.800001
sh603992,松霖科技,2021-08-09,22.12,22.87,21.6,22.22,22.1,1661400.0,36915801.0,995456000.0,8910439044.76
sh603992,松霖科技,2021-08-10,22.3,23.68,22.0,23.22,22.22,2265610.0,52203250.0,1040256000.0,9311448902.76
sh603992,松霖科技,2021-08-11,23.11,23.55,22.6,23.3,23.22,1179900.0,27201853.0,1043840000.0,9343529691.4
sh603992,松霖科技,2021-08-12,23.0,23.23,22.38,22.5,23.3,1143800.0,25959392.0,1008000000.0,9022721805.0
sh603992,松霖科技,2021-08-13,23.0,23.0,22.21,22.86,22.5,757268.0,17127127.0,1024128000.0,9167085353.88
sh603992,松霖科技,2021-08-16,22.5,22.85,22.03,22.37,22.86,858800.0,19159490.0,1002176000.0,8970590523.46
sh603992,松霖科技,2021-08-17,22.15,22.5,21.91,21.91,22.37,826500.0,18310308.0,981568000.0,8786125988.78
sh603992,松霖科技,2021-08-18,21.88,22.15,21.11,21.45,21.91,1117556.0,24093226.0,960960000.0,8601661454.1
sh603992,松霖科技,2021-08-19,21.52,23.25,21.5,22.98,21.45,2514735.0,56654548.0,1029504000.0,9215206536.84
sh603992,松霖科技,2021-08-20,22.65,23.15,22.3,22.59,22.98,832668.0,18889151.0,1012032000.0,9058812692.22
sh603992,松霖科技,2021-08-23,22.59,23.0,22.21,22.53,22.59,849439.0,19132316.0,1009344000.0,9034752100.74
sh603992,松霖科技,2021-08-24,22.17,22.49,21.1,21.9,22.53,1842500.0,40295924.0,981120000.0,8782115890.199999
sh603992,松霖科技,2021-08-25,21.86,21.88,20.91,21.55,21.9,1052600.0,22467564.0,965440000.0,8641762439.9
sh603992,松霖科技,2021-08-26,21.66,21.66,20.61,21.03,21.55,1423318.0,29954040.0,942144000.0,8433237313.74
sh603992,松霖科技,2021-08-27,21.0,21.11,20.21,20.36,21.03,1353862.0,27802318.0,912128000.0,8164560708.879999
sh603992,松霖科技,2021-08-30,20.51,21.55,20.15,21.28,20.36,1527300.0,32294611.0,953344000.0,8533489778.24
sh603992,松霖科技,2021-08-31,21.5,21.5,20.33,20.8,21.28,918900.0,19050031.0,931840000.0,8341005046.400001
sh603992,松霖科技,2021-09-01,20.8,21.3,20.41,20.65,20.8,605044.0,12574894.0,925120000.0,8280853567.7
sh603992,松霖科技,2021-09-02,21.1,21.1,20.35,20.85,20.65,392454.0,8154742.0,934080000.0,8361055539.3
sh603992,松霖科技,2021-09-03,20.53,21.3,20.53,21.02,20.85,386200.0,8123399.0,941696000.0,8429227215.16
sh603992,松霖科技,2021-09-06,21.03,21.03,19.8,20.04,21.02,1600670.0,32234275.0,897792000.0,8036237554.320001
sh603992,松霖科技,2021-09-07,20.05,21.48,19.65,20.76,20.04,2356202.0,48766776.0,930048000.0,8324964652.08
sh603992,松霖科技,2021-09-08,20.99,21.0,19.81,20.18,20.76,1463617.0,29430794.0,904064000.0,8092378934.440001
sh603992,松霖科技,2021-09-09,20.0,20.24,19.85,19.89,20.18,588359.0,11732088.0,891072000.0,7976086075.620001
sh603992,松霖科技,2021-09-10,19.95,20.34,19.9,20.14,19.89,582300.0,11688751.0,902272000.0,8076338540.12
sh603992,松霖科技,2021-09-13,19.73,19.9,18.81,19.29,20.14,1946888.0,37379624.0,864192000.0,7735480160.82
sh603992,松霖科技,2021-09-14,19.03,19.69,18.89,19.15,19.29,1251923.0,24109698.0,857920000.0,7679338780.7
sh603992,松霖科技,2021-09-15,19.21,19.21,18.21,18.41,19.15,1471100.0,27285620.0,824768000.0,7382591485.780001
sh603992,松霖科技,2021-09-16,18.4,18.7,17.65,17.69,18.41,1655700.0,29845911.0,792512000.0,7093864388.02
sh603992,松霖科技,2021-09-17,17.85,19.46,17.53,19.46,17.69,3186984.0,59939345.0,871808000.0,7803651836.68
sh603992,松霖科技,2021-09-22,19.19,19.46,18.08,18.7,19.46,1922561.0,35555204.0,837760000.0,7498884344.6
sh603992,松霖科技,2021-09-23,18.8,18.9,18.41,18.42,18.7,836094.0,15543123.0,825216000.0,7386601584.36
sh603992,松霖科技,2021-09-24,18.42,18.56,18.24,18.47,18.42,581200.0,10712015.0,827456000.0,7406652077.26
sh603992,松霖科技,2021-09-27,18.57,18.86,18.25,18.72,18.47,665363.0,12342500.0,838656000.0,7506904541.759999
sh603992,松霖科技,2021-09-28,18.71,18.71,18.33,18.43,18.72,468200.0,8645505.0,825664000.0,7390611682.94
sh603992,松霖科技,2021-09-29,18.24,18.44,17.87,18.01,18.43,606174.0,10938367.0,806848000.0,7222187542.579999
sh603992,松霖科技,2021-09-30,17.99,18.65,17.91,18.53,18.01,584874.0,10794398.0,830144000.0,7430712668.74
sh603992,松霖科技,2021-10-08,18.6,18.8,18.33,18.78,18.53,703827.0,13116659.0,841344000.0,7530965133.240001
sh603992,松霖科技,2021-10-11,18.78,19.78,18.65,19.59,18.78,1460302.0,28116373.0,877632000.0,7855783118.219999
sh603992,松霖科技,2021-10-12,19.59,21.29,19.59,20.72,19.59,3409380.0,69368678.0,928256000.0,8308924257.76
sh603992,松霖科技,2021-10-13,20.54,20.65,19.42,19.92,20.72,2642555.0,52974475.0,892416000.0,7988116371.36
sh603992,松霖科技,2021-10-14,19.98,19.98,18.6,18.75,19.92,2116228.0,40521441.0,840000000.0,7518934837.5
sh603992,松霖科技,2021-10-15,18.38,19.45,18.38,19.1,18.75,1520000.0,28995418.0,855680000.0,7659288287.8
sh603992,松霖科技,2021-10-18,18.7,19.06,18.5,18.59,19.1,875800.0,16365232.0,832832000.0,7454773260.22
sh603992,松霖科技,2021-10-19,18.52,18.95,18.22,18.82,18.59,647508.0,12061580.0,843136000.0,7547005527.559999
sh603992,松霖科技,2021-10-20,18.82,18.93,18.41,18.5,18.82,515600.0,9557155.0,828800000.0,7418682373.0
sh603992,松霖科技,2021-10-21,18.45,19.56,18.45,18.79,18.5,1071806.0,20329838.0,841792000.0,7534975231.820001
sh603992,松霖科技,2021-10-22,18.88,18.88,18.47,18.78,18.79,500408.0,9344369.0,841344000.0,7530965133.240001
sh603992,松霖科技,2021-10-25,18.82,18.82,18.22,18.45,18.78,458300.0,8456133.0,826560000.0,7398631880.1
sh603992,松霖科技,2021-10-26,18.45,18.53,18.23,18.42,18.45,322170.0,5922949.0,825216000.0,7386601584.36
sh603992,松霖科技,2021-10-27,18.79,18.79,18.02,18.15,18.42,464200.0,8457229.0,813120000.0,7278328922.7
sh603992,松霖科技,2021-10-28,18.65,19.97,18.31,19.25,18.15,3090770.0,60587550.0,862400000.0,7719439766.5
sh603992,松霖科技,2021-10-29,19.23,19.23,18.1,18.39,19.25,2428933.0,44767691.0,823872000.0,7374571288.62
sh603992,松霖科技,2021-11-01,18.2,19.08,18.13,18.85,18.39,1406235.0,26182176.0,844480000.0,7559035823.3
sh603992,松霖科技,2021-11-02,18.66,19.38,18.54,18.76,18.85,1049100.0,19842144.0,840448000.0,7522944936.08
sh603992,松霖科技,2021-11-03,18.88,19.11,18.42,19.09,18.76,713600.0,13418629.0,855232000.0,7655278189.22
sh603992,松霖科技,2021-11-04,19.22,19.22,18.84,19.03,19.09,674335.0,12801230.0,852544000.0,7631217597.740001
sh603992,松霖科技,2021-11-05,19.0,19.35,18.74,18.82,19.03,716700.0,13571250.0,843136000.0,7547005527.559999
sh603992,松霖科技,2021-11-08,18.98,18.98,18.55,18.68,18.82,614600.0,11482654.0,836864000.0,7490864147.44
sh603992,松霖科技,2021-11-09,18.72,19.05,18.46,18.95,18.68,605547.0,11416689.0,848960000.0,7599136809.1
sh603992,松霖科技,2021-11-10,18.94,19.42,18.8,19.22,18.95,869012.0,16634005.0,861056000.0,7707409470.76
sh603992,松霖科技,2021-11-11,19.16,20.39,19.16,20.21,19.22,2326917.0,46365416.0,905408000.0,8104409230.179999
sh603992,松霖科技,2021-11-12,20.1,20.85,19.81,20.34,20.21,1278470.0,26010370.0,911232000.0,8156540511.72
sh603992,松霖科技,2021-11-15,20.54,20.54,20.11,20.28,20.34,825510.0,16770935.0,908544000.0,8132479920.240001
sh603992,松霖科技,2021-11-16,20.29,20.9,19.9,20.07,20.28,1288100.0,26146050.0,899136000.0,8048267850.059999
sh603992,松霖科技,2021-11-17,20.0,20.6,19.7,20.45,20.07,1352200.0,27540057.0,916160000.0,8200651596.099999
sh603992,松霖科技,2021-11-18,20.45,21.16,20.26,20.75,20.45,2021796.0,42184286.0,929600000.0,8320954553.499999
sh603992,松霖科技,2021-11-19,20.67,21.7,20.5,21.4,20.75,2009932.0,42654778.0,958720000.0,8581610961.2
sh603992,松霖科技,2021-11-22,21.48,21.65,20.88,21.13,21.4,1255200.0,26537409.0,946624000.0,8473338299.54
sh603992,松霖科技,2021-11-23,21.07,21.98,20.88,21.0,21.13,1194600.0,25406944.0,940800000.0,8421207018.0
sh603992,松霖科技,2021-11-24,21.13,21.43,20.73,21.31,21.0,880800.0,18642072.0,954688000.0,8545520073.98
sh603992,松霖科技,2021-11-25,21.31,21.44,20.81,20.84,21.31,706600.0,14822635.0,933632000.0,8357045440.719999
sh603992,松霖科技,2021-11-26,20.99,21.05,20.49,20.76,20.84,929200.0,19191379.0,930048000.0,8324964652.08
sh603992,松霖科技,2021-11-29,20.49,20.79,20.07,20.25,20.76,897100.0,18197405.0,907200000.0,8120449624.5
sh603992,松霖科技,2021-11-30,20.28,21.15,20.25,20.58,20.25,1137800.0,23656812.0,921984000.0,8252782877.64
sh603992,松霖科技,2021-12-01,20.58,20.79,20.19,20.47,20.58,874212.0,17840899.0,917056000.0,8208671793.26
sh603992,松霖科技,2021-12-02,20.47,20.47,19.8,19.9,20.47,897700.0,17981011.0,891520000.0,7980096174.2
sh603992,松霖科技,2021-12-03,19.9,20.25,19.76,19.77,19.9,677600.0,13541490.0,885696000.0,7927964892.66
sh603992,松霖科技,2021-12-06,19.9,19.91,18.8,18.89,19.77,2450000.0,47084882.0,846272000.0,7575076217.62
sh603992,松霖科技,2021-12-07,19.1,19.38,18.9,19.23,18.89,1039000.0,19920045.0,861504000.0,7711419569.34
sh603992,松霖科技,2021-12-08,19.24,19.33,19.0,19.29,19.23,566600.0,10880728.0,864192000.0,7735480160.82
sh603992,松霖科技,2021-12-09,19.32,20.12,19.29,19.47,19.29,1565000.0,30756026.0,872256000.0,7807661935.26
sh603992,松霖科技,2021-12-10,19.32,19.51,19.0,19.17,19.47,1010600.0,19421448.0,858816000.0,7687358977.860001
sh603992,松霖科技,2021-12-13,19.15,19.34,18.98,19.34,19.17,1089600.0,20872825.0,866432000.0,7755530653.72
sh603992,松霖科技,2021-12-14,19.38,19.51,19.1,19.46,19.34,850000.0,16456435.0,871808000.0,7803651836.68
sh603992,松霖科技,2021-12-15,19.39,19.92,19.02,19.1,19.46,1407170.0,27207378.0,855680000.0,7659288287.8
sh603992,松霖科技,2021-12-16,19.09,19.47,19.02,19.29,19.1,746300.0,14363129.0,864192000.0,7735480160.82
sh603992,松霖科技,2021-12-17,19.2,19.32,18.82,18.99,19.29,1209300.0,22983371.0,850752000.0,7615177203.42
sh603992,松霖科技,2021-12-20,19.06,19.15,18.7,18.75,18.99,967400.0,18228623.0,840000000.0,7518934837.5
sh603992,松霖科技,2021-12-21,18.81,19.06,18.72,18.99,18.75,750919.0,14167830.0,850752000.0,7615177203.42
sh603992,松霖科技,2021-12-22,18.99,19.26,18.98,19.24,18.99,801800.0,15356709.0,861952000.0,7715429667.92
sh603992,松霖科技,2021-12-23,19.27,19.27,18.93,19.06,19.24,572900.0,10898412.0,853888000.0,7643247893.48
sh603992,松霖科技,2021-12-24,19.18,19.18,18.7,18.84,19.06,653032.0,12286285.0,844032000.0,7555025724.72
sh603992,松霖科技,2021-12-27,18.81,19.05,18.6,19.0,18.84,705600.0,13294256.0,851200000.0,7619187302.0
sh603992,松霖科技,2021-12-28,19.3,19.5,19.06,19.33,19.0,1200400.0,23182769.0,865984000.0,7751520555.14
sh603992,松霖科技,2021-12-29,19.42,20.37,19.27,19.78,19.33,2777888.0,55249229.0,886144000.0,7931974991.24
sh603992,松霖科技,2021-12-30,19.78,19.92,19.53,19.76,19.78,1154919.0,22769430.0,885248000.0,7923954794.08
sh603992,松霖科技,2021-12-31,19.83,19.83,19.51,19.61,19.76,1133600.0,22263584.0,878528000.0,7863803315.38
sh603992,松霖科技,2022-01-04,19.62,19.9,19.57,19.78,19.61,896200.0,17675772.0,886144000.0,7931974991.24
sh603992,松霖科技,2022-01-05,19.8,19.8,19.35,19.65,19.78,850000.0,16584746.0,880320000.0,7879843709.700001
sh603992,松霖科技,2022-01-06,19.42,19.78,19.42,19.66,19.65,592100.0,11612082.0,880768000.0,7883853808.280001
sh603992,松霖科技,2022-01-07,19.7,19.94,19.45,19.68,19.66,823046.0,16235508.0,881664000.0,7891874005.44
sh603992,松霖科技,2022-01-10,19.5,19.91,19.42,19.91,19.68,793451.0,15697748.0,891968000.0,7984106272.78
sh603992,松霖科技,2022-01-11,19.91,20.45,19.83,20.18,19.91,2099200.0,42407148.0,904064000.0,8092378934.440001
sh603992,松霖科技,2022-01-12,20.35,20.56,19.98,20.2,20.18,1017300.0,20497770.0,904960000.0,8100399131.6
sh603992,松霖科技,2022-01-13,20.18,20.34,19.73,19.8,20.2,686000.0,13665556.0,887040000.0,7939995188.400001
sh603992,松霖科技,2022-01-14,19.82,19.93,19.56,19.6,19.8,575800.0,11329732.0,878080000.0,7859793216.8
