数据由邢不行整理
股票代码,股票名称,交易日期,开盘价,最高价,最低价,收盘价,前收盘价,成交量,成交额,流通市值,总市值
sh603217,N元利,2019-06-20,65.95,79.14,65.95,79.14,54.96,328209.0,25973194.0,1801226400.0,7204905600.0
sh603217,元利科技,2019-06-21,87.0,87.0,75.18,77.37,79.14,9960896.0,794674949.0,1760941200.0,7043764800.0
sh603217,元利科技,2019-06-24,75.0,75.01,71.41,71.93,77.37,7709023.0,561259563.0,1637126800.0,6548507200.0
sh603217,元利科技,2019-06-25,70.88,70.88,67.56,67.95,71.93,6253449.0,429756618.0,1546542000.0,6186168000.0
sh603217,元利科技,2019-06-26,67.01,69.2,67.01,68.38,67.95,3335866.0,228364947.0,1556328800.0,6225315200.0
sh603217,元利科技,2019-06-27,68.0,68.5,67.02,67.18,68.38,3237238.0,218478714.0,1529016800.0,6116067200.0
sh603217,元利科技,2019-06-28,66.84,68.09,66.84,67.24,67.18,2415408.0,162661190.0,1530382400.0,6121529600.0
sh603217,元利科技,2019-07-01,68.1,68.36,67.31,68.28,67.24,3390356.0,230322810.0,1554052800.0,6216211200.0
sh603217,元利科技,2019-07-02,67.9,68.14,66.66,66.92,68.28,3491166.0,234691866.0,1523099200.0,6092396800.0
sh603217,元利科技,2019-07-03,66.66,66.66,65.05,65.18,66.92,3017389.0,197377730.0,1483496800.0,5933987200.0
sh603217,元利科技,2019-07-04,65.2,66.5,64.87,65.99,65.18,2503622.0,164375273.0,1501932400.0,6007729600.0
sh603217,元利科技,2019-07-05,65.98,66.58,65.41,66.3,65.99,1961638.0,129836157.0,1508988000.0,6035952000.0
sh603217,元利科技,2019-07-08,65.83,65.85,62.1,62.55,66.3,3078835.0,196198244.0,1423638000.0,5694552000.0
sh603217,元利科技,2019-07-09,62.75,62.97,61.9,62.65,62.55,1512310.0,94375360.0,1425914000.0,5703656000.0
sh603217,元利科技,2019-07-10,62.8,62.95,61.89,62.05,62.65,1352769.0,84378681.0,1412258000.0,5649032000.0
sh603217,元利科技,2019-07-11,62.3,62.64,61.02,61.19,62.05,1617275.0,100030790.0,1392684400.0,5570737600.0
sh603217,元利科技,2019-07-12,61.0,61.93,60.97,61.53,61.19,1387263.0,85424916.0,1400422800.0,5601691200.0
sh603217,元利科技,2019-07-15,60.97,61.28,59.55,61.27,61.53,1854360.0,112087294.0,1394505200.0,5578020800.0
sh603217,元利科技,2019-07-16,61.25,62.85,61.0,61.87,61.27,1856985.0,115313317.0,1408161200.0,5632644800.0
sh603217,元利科技,2019-07-17,62.0,62.0,61.01,61.01,61.87,1363107.0,83570253.0,1388587600.0,5554350400.0
sh603217,元利科技,2019-07-18,60.27,60.64,59.89,59.9,61.01,1277078.0,76877480.0,1363324000.0,5453296000.0
sh603217,元利科技,2019-07-19,60.08,60.67,59.85,59.96,59.9,1169186.0,70416037.0,1364689600.0,5458758400.0
sh603217,元利科技,2019-07-22,59.55,59.95,55.75,55.77,59.96,2462246.0,139985642.0,1269325200.0,5077300800.0
sh603217,元利科技,2019-07-23,55.45,56.62,55.45,56.16,55.77,1170184.0,65579587.0,1278201600.0,5112806400.0
sh603217,元利科技,2019-07-24,56.5,57.26,56.02,56.68,56.16,1537905.0,87158371.0,1290036800.0,5160147200.0
sh603217,元利科技,2019-07-25,56.71,56.85,55.96,56.11,56.68,1363521.0,76648748.0,1277063600.0,5108254400.0
sh603217,元利科技,2019-07-26,56.18,56.5,55.91,56.25,56.11,1032153.0,58028407.0,1280250000.0,5121000000.0
sh603217,元利科技,2019-07-29,56.27,56.47,55.73,55.85,56.25,1025244.0,57504086.0,1271146000.0,5084584000.0
sh603217,元利科技,2019-07-30,55.95,56.65,55.95,56.38,55.85,1305154.0,73578966.0,1283208800.0,5132835200.0
sh603217,元利科技,2019-07-31,56.16,56.35,55.81,55.88,56.38,890929.0,49870269.0,1271828800.0,5087315200.0
sh603217,元利科技,2019-08-01,55.77,56.16,55.46,55.92,55.88,1008296.0,56226615.0,1272739200.0,5090956800.0
sh603217,元利科技,2019-08-02,55.39,55.48,54.77,55.43,55.92,1497802.0,82537068.0,1261586800.0,5046347200.0
sh603217,元利科技,2019-08-05,55.43,56.59,55.42,55.99,55.43,1534170.0,86162461.0,1274332400.0,5097329600.0
sh603217,元利科技,2019-08-06,55.2,55.2,53.06,54.17,55.99,1847004.0,99977212.0,1232909200.0,4931636800.0
sh603217,元利科技,2019-08-07,54.2,54.67,53.57,53.65,54.17,1149375.0,62144814.0,1221074000.0,4884296000.0
sh603217,元利科技,2019-08-08,53.94,54.14,53.6,53.77,53.65,872688.0,46943963.0,1223805200.0,4895220800.0
sh603217,元利科技,2019-08-09,54.0,54.38,52.34,52.57,53.77,1306562.0,69821189.0,1196493200.0,4785972800.0
sh603217,元利科技,2019-08-12,52.66,52.89,51.93,52.76,52.57,998124.0,52217262.0,1200817600.0,4803270400.0
sh603217,元利科技,2019-08-13,52.28,52.35,51.8,51.89,52.76,820683.0,42677986.0,1181016400.0,4724065600.0
sh603217,元利科技,2019-08-14,52.47,52.99,52.13,52.46,51.89,1165380.0,61179936.0,1193989600.0,4775958400.0
sh603217,元利科技,2019-08-15,50.91,51.49,50.63,51.43,52.46,1377831.0,70319444.0,1170546800.0,4682187200.0
sh603217,元利科技,2019-08-16,51.2,52.37,51.18,51.71,51.43,1226657.0,63748728.0,1176919600.0,4707678400.0
sh603217,元利科技,2019-08-19,52.05,52.93,51.72,52.84,51.71,1438712.0,75305072.0,1202638400.0,4810553600.0
sh603217,元利科技,2019-08-20,52.28,52.46,51.84,51.94,52.84,1633008.0,84978328.0,1182154400.0,4728617600.0
sh603217,元利科技,2019-08-21,51.79,52.37,51.72,51.95,51.94,913984.0,47533283.0,1182382000.0,4729528000.0
sh603217,元利科技,2019-08-22,52.16,52.16,51.31,51.52,51.95,945905.0,48841876.0,1172595200.0,4690380800.0
sh603217,元利科技,2019-08-23,51.2,51.89,51.14,51.7,51.52,1141042.0,58747617.0,1176692000.0,4706768000.0
sh603217,元利科技,2019-08-26,50.72,52.85,50.71,52.4,51.7,1904432.0,99150202.0,1192624000.0,4770496000.0
sh603217,元利科技,2019-08-27,52.4,52.99,52.19,52.83,52.4,1661267.0,87451954.0,1202410800.0,4809643200.0
sh603217,元利科技,2019-08-28,52.86,52.88,52.25,52.3,52.83,1138034.0,59723831.0,1190348000.0,4761392000.0
sh603217,元利科技,2019-08-29,52.59,53.97,52.21,53.8,52.3,2294517.0,122779303.0,1224488000.0,4897952000.0
sh603217,元利科技,2019-08-30,53.8,54.52,52.52,52.56,53.8,1929255.0,103210517.0,1196265600.0,4785062400.0
sh603217,元利科技,2019-09-02,52.08,53.86,52.08,53.5,52.56,1366808.0,72433418.0,1217660000.0,4870640000.0
sh603217,元利科技,2019-09-03,53.2,54.02,52.88,53.6,53.5,1659257.0,88732599.0,1219936000.0,4879744000.0
sh603217,元利科技,2019-09-04,53.48,54.96,53.2,54.59,53.6,2183427.0,118740284.0,1242468400.0,4969873600.0
sh603217,元利科技,2019-09-05,54.66,55.33,54.26,54.49,54.59,2218103.0,121329441.0,1240192400.0,4960769600.0
sh603217,元利科技,2019-09-06,54.39,54.78,53.92,54.21,54.49,1281868.0,69526350.0,1233819600.0,4935278400.0
sh603217,元利科技,2019-09-09,54.49,54.66,54.22,54.63,54.21,1271304.0,69212063.0,1243378800.0,4973515200.0
sh603217,元利科技,2019-09-10,54.82,54.82,53.84,54.13,54.63,1382410.0,74792423.0,1231998800.0,4927995200.0
sh603217,元利科技,2019-09-11,54.27,54.34,53.63,53.66,54.13,1005936.0,54275451.0,1221301600.0,4885206400.0
sh603217,元利科技,2019-09-12,53.76,54.2,53.32,54.04,53.66,981414.0,52786957.0,1229950400.0,4919801600.0
sh603217,元利科技,2019-09-16,54.28,54.98,54.03,54.85,54.04,1749781.0,95612720.0,1248386000.0,4993544000.0
sh603217,元利科技,2019-09-17,54.78,56.53,54.0,55.94,54.85,2781917.0,153275601.0,1273194400.0,5092777600.0
sh603217,元利科技,2019-09-18,55.55,59.88,55.34,58.33,55.94,5357917.0,308129446.0,1327590800.0,5310363200.0
sh603217,元利科技,2019-09-19,57.6,58.02,56.8,57.96,58.33,2720172.0,156256152.0,1319169600.0,5276678400.0
sh603217,元利科技,2019-09-20,57.77,57.77,56.68,56.74,57.96,1927164.0,110163012.0,1291402400.0,5165609600.0
sh603217,元利科技,2019-09-23,56.5,56.66,55.0,55.27,56.74,1545040.0,85665262.0,1257945200.0,5031780800.0
sh603217,元利科技,2019-09-24,55.36,55.73,55.1,55.2,55.27,1102835.0,61050769.0,1256352000.0,5025408000.0
sh603217,元利科技,2019-09-25,55.01,55.88,54.75,55.45,55.2,1312989.0,72655439.0,1262042000.0,5048168000.0
sh603217,元利科技,2019-09-26,55.33,55.65,52.75,52.75,55.45,1720224.0,92594255.0,1200590000.0,4802360000.0
sh603217,元利科技,2019-09-27,52.53,53.42,52.43,52.7,52.75,674433.0,35733209.0,1199452000.0,4797808000.0
sh603217,元利科技,2019-09-30,52.3,52.85,52.09,52.1,52.7,508024.0,26575965.0,1185796000.0,4743184000.0
sh603217,元利科技,2019-10-08,52.16,52.6,52.02,52.15,52.1,452197.0,23653152.0,1186934000.0,4747736000.0
sh603217,元利科技,2019-10-09,51.9,52.6,51.5,52.57,52.15,502966.0,26206366.0,1196493200.0,4785972800.0
sh603217,元利科技,2019-10-10,52.7,53.18,52.33,53.05,52.57,586673.0,31004299.0,1207418000.0,4829672000.0
sh603217,元利科技,2019-10-11,53.06,53.44,52.65,52.9,53.05,608961.0,32297211.0,1204004000.0,4816016000.0
sh603217,元利科技,2019-10-14,53.07,53.8,53.07,53.62,52.9,688575.0,36873436.0,1220391200.0,4881564800.0
sh603217,元利科技,2019-10-15,53.44,53.44,52.44,52.55,53.62,672235.0,35476836.0,1196038000.0,4784152000.0
sh603217,元利科技,2019-10-16,52.65,52.97,52.2,52.2,52.55,535444.0,28140668.0,1188072000.0,4752288000.0
sh603217,元利科技,2019-10-17,52.55,52.57,52.09,52.34,52.2,434078.0,22669994.0,1191258400.0,4765033600.0
sh603217,元利科技,2019-10-18,52.34,53.97,52.21,53.66,52.34,1249634.0,66207453.0,1221301600.0,4885206400.0
sh603217,元利科技,2019-10-21,53.7,53.85,52.91,53.23,53.66,1234449.0,65978326.0,1211514800.0,4846059200.0
sh603217,元利科技,2019-10-22,53.33,53.86,53.1,53.64,53.23,910262.0,48768613.0,1220846400.0,4883385600.0
sh603217,元利科技,2019-10-23,53.6,53.7,52.16,52.38,53.64,935151.0,49252179.0,1192168800.0,4768675200.0
sh603217,元利科技,2019-10-24,52.35,52.35,51.71,51.73,52.38,542014.0,28112950.0,1177374800.0,4709499200.0
sh603217,元利科技,2019-10-25,51.74,52.14,51.5,51.91,51.73,428800.0,22211277.0,1181471600.0,4725886400.0
sh603217,元利科技,2019-10-28,51.29,51.57,50.81,51.55,51.91,846703.0,43346927.0,1173278000.0,4693112000.0
sh603217,元利科技,2019-10-29,51.56,51.6,50.8,50.8,51.55,713161.0,36396144.0,1156208000.0,4624832000.0
sh603217,元利科技,2019-10-30,50.77,50.77,48.7,48.84,50.8,1345017.0,66634054.0,1111598400.0,4446393600.0
sh603217,元利科技,2019-10-31,48.87,48.87,47.75,47.77,48.84,910692.0,43889340.0,1087245200.0,4348980800.0
sh603217,元利科技,2019-11-01,47.37,48.15,47.37,47.92,47.77,536492.0,25687782.0,1090659200.0,4362636800.0
sh603217,元利科技,2019-11-04,47.94,48.35,47.83,47.86,47.92,483771.0,23271823.0,1089293600.0,4357174400.0
sh603217,元利科技,2019-11-05,48.02,48.06,47.42,47.86,47.86,439119.0,20993959.0,1089293600.0,4357174400.0
sh603217,元利科技,2019-11-06,47.96,48.36,47.73,48.07,47.86,525301.0,25237954.0,1094073200.0,4376292800.0
sh603217,元利科技,2019-11-07,48.02,48.26,47.92,48.06,48.07,477034.0,22924556.0,1093845600.0,4375382400.0
sh603217,元利科技,2019-11-08,48.23,49.2,48.03,48.81,48.06,992369.0,48315982.0,1110915600.0,4443662400.0
sh603217,元利科技,2019-11-11,48.28,48.6,45.52,46.13,48.81,974842.0,46077223.0,1049918800.0,4199675200.0
sh603217,元利科技,2019-11-12,46.12,46.37,45.57,46.02,46.13,547586.0,25166865.0,1047415200.0,4189660800.0
sh603217,元利科技,2019-11-13,46.02,46.03,45.67,45.87,46.02,466464.0,21370074.0,1044001200.0,4176004800.0
sh603217,元利科技,2019-11-14,45.79,46.49,45.75,46.31,45.87,593811.0,27355546.0,1054015600.0,4216062400.0
sh603217,元利科技,2019-11-15,46.23,46.37,45.3,45.62,46.31,578271.0,26463534.0,1038311200.0,4153244800.0
sh603217,元利科技,2019-11-18,45.61,47.6,45.35,47.09,45.62,1138256.0,52858634.0,1071768400.0,4287073600.0
sh603217,元利科技,2019-11-19,46.96,47.13,46.32,47.02,47.09,898500.0,41998640.0,1070175200.0,4280700800.0
sh603217,元利科技,2019-11-20,46.8,46.95,46.14,46.15,47.02,629265.0,29277752.0,1050374000.0,4201496000.0
sh603217,元利科技,2019-11-21,46.07,46.09,45.59,45.8,46.15,586400.0,26836885.0,1042408000.0,4169632000.0
sh603217,元利科技,2019-11-22,45.93,46.38,45.68,45.87,45.8,561691.0,25803105.0,1044001200.0,4176004800.0
sh603217,元利科技,2019-11-25,45.87,46.3,45.37,46.12,45.87,678304.0,31144473.0,1049691200.0,4198764800.0
sh603217,元利科技,2019-11-26,45.9,48.15,45.75,47.18,46.12,1218874.0,57291162.0,1073816800.0,4295267200.0
sh603217,元利科技,2019-11-27,46.7,47.6,46.4,46.72,47.18,976458.0,45744122.0,1063347200.0,4253388800.0
sh603217,元利科技,2019-11-28,46.75,47.28,46.52,47.12,46.72,757856.0,35592647.0,1072451200.0,4289804800.0
sh603217,元利科技,2019-11-29,47.13,47.17,46.0,46.13,47.12,707939.0,32826763.0,1049918800.0,4199675200.0
sh603217,元利科技,2019-12-02,46.13,46.26,45.67,45.79,46.13,426718.0,19598017.0,1042180400.0,4168721600.0
sh603217,元利科技,2019-12-03,45.79,46.06,45.49,46.05,45.79,391187.0,17893577.0,1048098000.0,4192392000.0
sh603217,元利科技,2019-12-04,45.81,46.23,45.73,46.13,46.05,412621.0,18997513.0,1049918800.0,4199675200.0
sh603217,元利科技,2019-12-05,46.28,47.21,46.04,47.02,46.13,1065786.0,49902055.0,1070175200.0,4280700800.0
sh603217,元利科技,2019-12-06,46.9,47.8,46.9,47.03,47.02,1079460.0,51010681.0,1070402800.0,4281611200.0
sh603217,元利科技,2019-12-09,46.95,47.1,46.49,46.78,47.03,673959.0,31474364.0,1064712800.0,4258851200.0
sh603217,元利科技,2019-12-10,46.7,47.12,46.46,47.11,46.78,667873.0,31314895.0,1072223600.0,4288894400.0
sh603217,元利科技,2019-12-11,47.18,47.5,46.9,47.01,47.11,568986.0,26821780.0,1069947600.0,4279790400.0
sh603217,元利科技,2019-12-12,46.96,46.96,46.52,46.52,47.01,487634.0,22776268.0,1058795200.0,4235180800.0
sh603217,元利科技,2019-12-13,46.53,47.07,46.53,47.03,46.52,613174.0,28730682.0,1070402800.0,4281611200.0
sh603217,元利科技,2019-12-16,47.16,48.5,47.08,48.0,47.03,1143289.0,54613610.0,1092480000.0,4369920000.0
sh603217,元利科技,2019-12-17,48.05,48.3,47.67,48.12,48.0,1097288.0,52710830.0,1095211200.0,4380844800.0
sh603217,元利科技,2019-12-18,48.1,48.96,48.0,48.48,48.12,1192687.0,57891324.0,1103404800.0,4413619200.0
sh603217,元利科技,2019-12-19,48.65,48.86,48.26,48.62,48.48,900990.0,43704844.0,1106591200.0,4426364800.0
sh603217,元利科技,2019-12-20,48.63,48.65,47.85,47.86,48.62,811887.0,39089972.0,1089293600.0,4357174400.0
sh603217,元利科技,2019-12-23,47.9,47.9,47.06,47.07,47.86,777700.0,36889352.0,1071313200.0,4285252800.0
sh603217,元利科技,2019-12-24,47.1,47.61,47.1,47.51,47.07,507573.0,24054439.0,1081327600.0,4325310400.0
sh603217,元利科技,2019-12-25,47.51,47.99,47.31,47.76,47.51,552274.0,26314799.0,1087017600.0,4348070400.0
sh603217,元利科技,2019-12-26,47.8,48.17,47.5,48.12,47.76,750238.0,35984689.0,1095211200.0,4380844800.0
sh603217,元利科技,2019-12-27,48.22,48.77,47.99,48.45,48.12,1218271.0,58924724.0,1102722000.0,4410888000.0
sh603217,元利科技,2019-12-30,48.35,48.56,47.79,48.56,48.45,1023778.0,49327121.0,1105225600.0,4420902400.0
sh603217,元利科技,2019-12-31,48.5,49.46,48.33,49.29,48.56,1352392.0,66493627.0,1121840400.0,4487361600.0
sh603217,元利科技,2020-01-02,49.39,49.78,49.03,49.31,49.29,1261276.0,62167315.0,1122295600.0,4489182400.0
sh603217,元利科技,2020-01-03,49.2,49.53,48.94,49.32,49.31,1031071.0,50767762.0,1122523200.0,4490092800.0
sh603217,元利科技,2020-01-06,48.91,49.69,48.61,49.32,49.32,1174684.0,57803141.0,1122523200.0,4490092800.0
sh603217,元利科技,2020-01-07,49.53,50.39,49.4,50.1,49.32,1643891.0,82183426.0,1140276000.0,4561104000.0
sh603217,元利科技,2020-01-08,49.73,50.08,48.86,48.99,50.1,1339904.0,66167313.0,1115012400.0,4460049600.0
sh603217,元利科技,2020-01-09,49.46,49.93,49.25,49.49,48.99,986658.0,48913017.0,1126392400.0,4505569600.0
sh603217,元利科技,2020-01-10,49.55,50.1,49.55,49.77,49.49,1095300.0,54623847.0,1132765200.0,4531060800.0
sh603217,元利科技,2020-01-13,49.6,49.79,48.91,49.65,49.77,929495.0,45899814.0,1130034000.0,4520136000.0
sh603217,元利科技,2020-01-14,49.7,50.04,49.6,49.67,49.65,909439.0,45293782.0,1130489200.0,4521956800.0
sh603217,元利科技,2020-01-15,49.5,49.87,48.91,48.93,49.67,798936.0,39241572.0,1113646800.0,4454587200.0
sh603217,元利科技,2020-01-16,48.96,49.14,48.42,48.79,48.93,605249.0,29545537.0,1110460400.0,4441841600.0
sh603217,元利科技,2020-01-17,48.94,49.25,48.68,49.09,48.79,560503.0,27418531.0,1117288400.0,4469153600.0
sh603217,元利科技,2020-01-20,49.0,49.0,48.0,48.69,49.09,829883.0,40105267.0,1108184400.0,4432737600.0
sh603217,元利科技,2020-01-21,48.53,48.53,47.71,47.76,48.69,911600.0,43687170.0,1087017600.0,4348070400.0
sh603217,元利科技,2020-01-22,47.68,47.74,47.03,47.4,47.76,522374.0,24735991.0,1078824000.0,4315296000.0
sh603217,元利科技,2020-01-23,47.3,47.59,45.92,46.24,47.4,706600.0,32996785.0,1052422400.0,4209689600.0
sh603217,元利科技,2020-02-03,41.62,41.62,41.62,41.62,46.24,360700.0,15012334.0,947271200.0,3789084800.0
sh603217,元利科技,2020-02-04,37.9,40.44,37.9,40.05,41.62,1006059.0,40128344.0,911538000.0,3646152000.0
sh603217,元利科技,2020-02-05,40.03,41.35,40.0,40.71,40.05,750918.0,30609164.0,926559600.0,3706238400.0
sh603217,元利科技,2020-02-06,40.92,41.47,40.6,41.24,40.71,781800.0,32192102.0,938622400.0,3754489600.0
sh603217,元利科技,2020-02-07,41.39,45.3,41.01,44.0,41.24,1601111.0,69559223.0,1001440000.0,4005760000.0
sh603217,元利科技,2020-02-10,44.0,44.98,43.17,44.1,44.0,966237.0,42550633.0,1003716000.0,4014864000.0
sh603217,元利科技,2020-02-11,44.0,44.52,43.63,43.78,44.1,705961.0,31055385.0,996432800.0,3985731200.0
sh603217,元利科技,2020-02-12,43.88,44.19,43.5,44.02,43.78,530748.0,23308615.0,1001895200.0,4007580800.0
sh603217,元利科技,2020-02-13,44.1,44.28,43.25,43.29,44.02,699758.0,30468379.0,985280400.0,3941121600.0
sh603217,元利科技,2020-02-14,43.28,43.65,43.12,43.26,43.29,556373.0,24114702.0,984597600.0,3938390400.0
sh603217,元利科技,2020-02-17,43.06,44.22,42.96,44.16,43.26,873948.0,38427260.0,1005081600.0,4020326400.0
sh603217,元利科技,2020-02-18,44.22,44.8,44.08,44.8,44.16,968444.0,43076279.0,1019648000.0,4078592000.0
sh603217,元利科技,2020-02-19,45.0,45.45,44.6,44.67,44.8,956761.0,43045338.0,1016689200.0,4066756800.0
sh603217,元利科技,2020-02-20,44.73,45.46,44.61,45.32,44.67,960654.0,43347367.0,1031483200.0,4125932800.0
sh603217,元利科技,2020-02-21,45.33,45.55,45.0,45.22,45.32,956558.0,43312010.0,1029207200.0,4116828800.0
sh603217,元利科技,2020-02-24,45.11,45.11,44.1,44.86,45.22,1128562.0,50334405.0,1021013600.0,4084054400.0
sh603217,元利科技,2020-02-25,43.97,44.21,43.16,43.93,44.86,1165940.0,50969932.0,999846800.0,3999387200.0
sh603217,元利科技,2020-02-26,43.4,44.19,43.32,43.7,43.93,686008.0,30054809.0,994612000.0,3978448000.0
sh603217,元利科技,2020-02-27,43.84,44.09,43.48,43.67,43.7,504561.0,22070028.0,993929200.0,3975716800.0
sh603217,元利科技,2020-02-28,42.75,42.98,41.2,41.27,43.67,1096926.0,46202643.0,939305200.0,3757220800.0
sh603217,元利科技,2020-03-02,41.63,42.64,41.6,42.55,41.27,572479.0,24232140.0,968438000.0,3873752000.0
sh603217,元利科技,2020-03-03,42.9,43.38,42.61,42.81,42.55,639137.0,27527044.0,974355600.0,3897422400.0
sh603217,元利科技,2020-03-04,42.67,43.17,42.5,43.15,42.81,629900.0,26977896.0,982094000.0,3928376000.0
sh603217,元利科技,2020-03-05,43.39,44.2,43.39,44.15,43.15,1131102.0,49642421.0,1004854000.0,4019416000.0
sh603217,元利科技,2020-03-06,43.8,45.31,43.61,44.8,44.15,1129268.0,50477792.0,1019648000.0,4078592000.0
sh603217,元利科技,2020-03-09,44.56,44.6,43.5,43.5,44.8,819488.0,35983486.0,990060000.0,3960240000.0
sh603217,元利科技,2020-03-10,42.2,43.9,42.13,43.82,43.5,760673.0,32886219.0,997343200.0,3989372800.0
sh603217,元利科技,2020-03-11,43.86,44.9,43.86,44.44,43.82,1113438.0,49368151.0,1011454400.0,4045817600.0
sh603217,元利科技,2020-03-12,43.8,43.95,42.9,43.1,44.44,653356.0,28431626.0,980956000.0,3923824000.0
sh603217,元利科技,2020-03-13,40.9,42.53,40.9,42.05,43.1,614810.0,25691103.0,957058000.0,3828232000.0
sh603217,元利科技,2020-03-16,42.49,42.9,41.02,41.1,42.05,594597.0,24965722.0,935436000.0,3741744000.0
sh603217,元利科技,2020-03-17,41.05,41.58,40.09,40.45,41.1,561884.0,22785437.0,920642000.0,3682568000.0
sh603217,元利科技,2020-03-18,40.55,41.24,40.09,40.1,40.45,430288.0,17506092.0,912676000.0,3650704000.0
sh603217,元利科技,2020-03-19,40.1,40.6,39.2,40.13,40.1,475204.0,18967378.0,913358800.0,3653435200.0
sh603217,元利科技,2020-03-20,40.23,40.99,40.21,40.8,40.13,348517.0,14143599.0,928608000.0,3714432000.0
sh603217,元利科技,2020-03-23,40.31,40.31,39.37,39.48,40.8,550700.0,21892055.0,898564800.0,3594259200.0
sh603217,元利科技,2020-03-24,39.91,40.13,39.4,39.91,39.48,357381.0,14239024.0,908351600.0,3633406400.0
sh603217,元利科技,2020-03-25,40.5,40.83,40.18,40.57,39.91,478781.0,19400964.0,923373200.0,3693492800.0
sh603217,元利科技,2020-03-26,40.3,40.56,40.18,40.32,40.57,388503.0,15655962.0,917683200.0,3670732800.0
sh603217,元利科技,2020-03-27,40.62,40.86,40.18,40.18,40.32,379607.0,15385620.0,914496800.0,3657987200.0
sh603217,元利科技,2020-03-30,39.95,39.95,39.0,39.25,40.18,491700.0,19311511.0,893330000.0,3573320000.0
sh603217,元利科技,2020-03-31,39.33,39.92,39.33,39.87,39.25,380508.0,15101428.0,907441200.0,3629764800.0
sh603217,元利科技,2020-04-01,39.31,40.46,39.31,40.06,39.87,376500.0,15089532.0,911765600.0,3647062400.0
sh603217,元利科技,2020-04-02,39.64,40.5,39.61,40.46,40.06,346000.0,13886512.0,920869600.0,3683478400.0
sh603217,元利科技,2020-04-03,40.5,40.79,40.37,40.55,40.46,438997.0,17816578.0,922918000.0,3691672000.0
sh603217,元利科技,2020-04-07,41.02,41.46,40.73,41.35,40.55,622100.0,25652412.0,941126000.0,3764504000.0
sh603217,元利科技,2020-04-08,41.23,42.8,41.23,41.95,41.35,902981.0,38020634.0,954782000.0,3819128000.0
sh603217,元利科技,2020-04-09,42.0,42.59,41.84,42.26,41.95,645290.0,27241500.0,961837600.0,3847350400.0
sh603217,元利科技,2020-04-10,42.31,42.31,41.0,41.53,42.26,587749.0,24498804.0,945222800.0,3780891200.0
sh603217,元利科技,2020-04-13,41.49,43.6,40.93,43.0,41.53,933953.0,39575214.0,978680000.0,3914720000.0
sh603217,元利科技,2020-04-14,42.12,42.47,41.65,41.81,43.0,1166500.0,48909001.0,951595600.0,3806382400.0
sh603217,元利科技,2020-04-15,41.9,41.95,41.25,41.25,41.81,626874.0,26092771.0,938850000.0,3755400000.0
sh603217,元利科技,2020-04-16,41.25,41.25,40.12,40.28,41.25,725671.0,29436285.0,916772800.0,3667091200.0
sh603217,元利科技,2020-04-17,40.28,40.75,40.12,40.14,40.28,501500.0,20218381.0,913586400.0,3654345600.0
sh603217,元利科技,2020-04-20,40.14,40.63,39.8,40.58,40.14,375867.0,15169976.0,923600800.0,3694403200.0
sh603217,元利科技,2020-04-21,40.56,42.38,40.1,41.9,40.58,1219566.0,50623061.0,953644000.0,3814576000.0
sh603217,元利科技,2020-04-22,41.0,41.43,40.6,41.18,41.9,847033.0,34681350.0,937256800.0,3749027200.0
sh603217,元利科技,2020-04-23,41.18,43.0,40.68,41.91,41.18,1481523.0,62446615.0,953871600.0,3815486400.0
sh603217,元利科技,2020-04-24,41.4,41.6,40.39,40.49,41.91,1020898.0,41678372.0,921552400.0,3686209600.0
sh603217,元利科技,2020-04-27,40.35,40.58,39.7,39.72,40.49,623984.0,25006800.0,904027200.0,3616108800.0
sh603217,元利科技,2020-04-28,39.65,40.06,37.01,38.02,39.72,778754.0,29807744.0,865335200.0,3461340800.0
sh603217,元利科技,2020-04-29,38.02,38.5,37.5,38.1,38.02,404814.0,15430968.0,867156000.0,3468624000.0
sh603217,元利科技,2020-04-30,38.1,38.96,38.06,38.87,38.1,505798.0,19538929.0,884681200.0,3538724800.0
sh603217,元利科技,2020-05-06,38.75,39.59,38.62,39.44,38.87,346851.0,13594911.0,897654400.0,3590617600.0
sh603217,元利科技,2020-05-07,39.66,39.75,39.23,39.43,39.44,399687.0,15768357.0,897426800.0,3589707200.0
sh603217,元利科技,2020-05-08,39.54,39.96,39.45,39.72,39.43,383500.0,15229030.0,904027200.0,3616108800.0
sh603217,元利科技,2020-05-11,39.72,40.15,39.63,39.95,39.72,385413.0,15356892.0,909262000.0,3637048000.0
sh603217,元利科技,2020-05-12,39.9,39.9,39.13,39.86,39.95,330940.0,13107923.0,907213600.0,3628854400.0
sh603217,元利科技,2020-05-13,39.78,40.96,39.65,40.67,39.86,823498.0,33286637.0,925649200.0,3702596800.0
sh603217,元利科技,2020-05-14,40.5,41.41,40.18,40.65,40.67,804768.0,32762634.0,925194000.0,3700776000.0
sh603217,元利科技,2020-05-15,40.59,41.17,40.2,40.23,40.65,692127.0,28218164.0,915634800.0,3662539200.0
sh603217,元利科技,2020-05-18,40.48,40.5,39.5,39.54,40.23,497500.0,19834328.0,899930400.0,3599721600.0
sh603217,元利科技,2020-05-19,39.57,40.22,39.57,40.21,39.54,433110.0,17302875.0,915179600.0,3660718400.0
sh603217,元利科技,2020-05-20,40.4,41.67,40.22,40.98,40.21,1214217.0,49844345.0,932704800.0,3730819200.0
sh603217,元利科技,2020-05-21,41.2,41.2,40.39,40.41,40.98,535610.0,21786723.0,919731600.0,3678926400.0
sh603217,元利科技,2020-05-22,40.28,40.68,39.61,39.87,40.41,491410.0,19618759.0,907441200.0,3629764800.0
sh603217,元利科技,2020-05-25,39.92,41.0,39.92,40.96,39.87,614798.0,24989816.0,932249600.0,3728998400.0
sh603217,元利科技,2020-05-26,41.1,41.43,40.75,41.39,40.96,736968.0,30287441.0,942036400.0,3768145600.0
sh603217,元利科技,2020-05-27,41.4,41.8,41.09,41.26,41.39,1009258.0,41844940.0,939077600.0,3756310400.0
sh603217,DR元利科,2020-05-28,29.07,29.07,28.33,28.5,29.04,703200.0,20134830.0,908124000.0,3632496000.0
sh603217,元利科技,2020-05-29,28.4,28.4,27.78,27.8,28.5,1117745.0,31198121.0,885819200.0,3543276800.0
sh603217,元利科技,2020-06-01,27.95,28.49,27.78,28.39,27.8,1067531.0,30190473.0,904618960.0,3618475840.0
sh603217,元利科技,2020-06-02,28.39,29.45,28.21,29.36,28.39,1709424.0,49658650.0,935527040.0,3742108160.0
sh603217,元利科技,2020-06-03,29.33,29.46,28.79,28.79,29.36,1253924.0,36468243.0,917364560.0,3669458240.0
sh603217,元利科技,2020-06-04,28.99,29.0,28.68,29.0,28.79,783172.0,22628013.0,924056000.0,3696224000.0
sh603217,元利科技,2020-06-05,28.85,29.0,28.4,28.61,29.0,803085.0,22995685.0,911629040.0,3646516160.0
sh603217,元利科技,2020-06-08,28.62,28.96,28.31,28.45,28.61,672384.0,19156491.0,906530800.0,3626123200.0
sh603217,元利科技,2020-06-09,28.45,28.52,28.0,28.3,28.45,608580.0,17166583.0,901751200.0,3607004800.0
sh603217,元利科技,2020-06-10,28.3,28.44,28.02,28.44,28.3,628522.0,17703214.0,906212160.0,3624848640.0
sh603217,元利科技,2020-06-11,28.4,28.94,28.01,28.1,28.44,827727.0,23605320.0,895378400.0,3581513600.0
sh603217,元利科技,2020-06-12,27.61,28.0,27.31,27.97,28.1,715864.0,19818915.0,891236080.0,3564944320.0
sh603217,元利科技,2020-06-15,27.75,28.15,27.62,27.94,27.97,491458.0,13722716.0,890280160.0,3561120640.0
sh603217,元利科技,2020-06-16,28.04,28.5,28.0,28.47,27.94,714094.0,20180137.0,907168080.0,3628672320.0
sh603217,元利科技,2020-06-17,28.5,28.57,28.17,28.37,28.47,647719.0,18353753.0,903981680.0,3615926720.0
sh603217,元利科技,2020-06-18,28.37,28.52,28.15,28.32,28.37,584936.0,16583497.0,902388480.0,3609553920.0
sh603217,元利科技,2020-06-19,28.2,28.38,28.14,28.14,28.32,710660.0,20050205.0,896652960.0,3586611840.0
sh603217,元利科技,2020-06-22,27.9,28.46,27.88,28.16,28.14,655740.0,18449671.0,1164777152.0,3589160960.0
sh603217,元利科技,2020-06-23,28.16,28.19,27.86,27.86,28.16,641342.0,17915944.0,1152368304.5,3550924160.000001
sh603217,元利科技,2020-06-24,27.87,27.99,27.64,27.7,27.86,633803.0,17589433.0,1145750252.5,3530531200.0
sh603217,元利科技,2020-06-29,27.6,27.77,27.36,27.36,27.7,565213.0,15537363.0,1131686892.0,3487196160.0
sh603217,元利科技,2020-06-30,27.36,27.74,27.36,27.65,27.36,476175.0,13134181.0,1143682111.25,3524158400.000001
sh603217,元利科技,2020-07-01,27.66,27.89,27.43,27.51,27.65,631068.0,17410488.0,1137891315.75,3506314560.0
sh603217,元利科技,2020-07-02,27.52,28.15,27.46,28.03,27.51,1092597.0,30436468.0,1159399984.75,3572591680.0
sh603217,元利科技,2020-07-03,28.04,28.46,28.01,28.39,28.03,1203320.0,34071417.0,1174290601.75,3618475840.0
sh603217,元利科技,2020-07-06,28.43,29.26,28.43,29.19,28.39,2438582.0,70712750.0,1207380861.75,3720440640.0
sh603217,元利科技,2020-07-07,29.19,29.9,28.92,29.36,29.19,2720154.0,79838350.0,1214412542.0,3742108160.0
sh603217,元利科技,2020-07-08,29.3,30.06,29.13,29.92,29.36,2132394.0,63148042.0,1237575724.0,3813483520.0
sh603217,元利科技,2020-07-09,29.88,30.55,29.87,30.43,29.92,2393531.0,72518773.0,1258670764.75,3878486080.0
sh603217,元利科技,2020-07-10,30.4,30.86,29.99,30.04,30.43,1779322.0,53968645.0,1242539263.0,3828778240.0
sh603217,元利科技,2020-07-13,30.04,30.88,30.0,30.78,30.04,1801699.0,55162314.0,1273147753.5,3923095680.000001
sh603217,元利科技,2020-07-14,30.83,30.93,29.91,30.35,30.78,2080931.0,63257083.0,1255361738.75,3868289600.0
sh603217,元利科技,2020-07-15,30.3,30.69,29.63,29.76,30.35,1573173.0,47140535.0,1230957672.0,3793090560.0
sh603217,元利科技,2020-07-16,29.7,29.95,28.73,28.84,29.76,1491357.0,43764560.0,1192903873.0,3675831040.0
sh603217,元利科技,2020-07-17,28.83,29.17,28.66,29.15,28.84,913825.0,26433609.0,1205726348.75,3715342400.0
sh603217,元利科技,2020-07-20,29.3,30.2,29.3,30.16,29.15,1375636.0,41129715.0,1247502802.0,3844072960.0
sh603217,元利科技,2020-07-21,30.16,30.27,29.93,30.05,30.16,904160.0,27178582.0,1242952891.25,3830052800.000001
sh603217,元利科技,2020-07-22,30.19,30.66,30.02,30.03,30.05,1258227.0,38117396.0,1242125634.75,3827503680.0
sh603217,元利科技,2020-07-23,29.79,29.96,29.2,29.78,30.03,1156742.0,34191599.0,1231784928.5,3795639680.0
sh603217,元利科技,2020-07-24,29.7,30.11,28.77,28.79,29.78,1222080.0,36011366.0,1190835731.75,3669458240.0
sh603217,元利科技,2020-07-27,28.73,28.96,28.33,28.65,28.79,670207.0,19150145.0,1185044936.25,3651614400.0
sh603217,元利科技,2020-07-28,28.77,29.09,28.63,28.82,28.65,592624.0,17105869.0,1192076616.5,3673281920.0
sh603217,元利科技,2020-07-29,28.78,29.4,28.53,29.34,28.82,884783.0,25711891.0,1213585285.5,3739559040.0
sh603217,元利科技,2020-07-30,29.35,31.85,29.19,31.3,29.34,3961926.0,122106885.0,1294656422.5,3989372800.000001
sh603217,元利科技,2020-07-31,31.3,31.68,30.7,31.11,31.3,2568612.0,79944927.0,1286797485.75,3965156160.0
sh603217,元利科技,2020-08-03,31.15,31.58,30.97,31.34,31.11,2195072.0,68462684.0,1296310935.5,3994471040.0
sh603217,元利科技,2020-08-04,31.34,31.34,30.71,30.86,31.34,1565440.0,48449258.0,1276456779.5,3933292160.0
sh603217,元利科技,2020-08-05,30.68,31.49,30.68,31.15,30.86,1268675.0,39480750.0,1288451998.75,3970254400.0
sh603217,元利科技,2020-08-06,31.16,31.4,30.54,30.83,31.15,1081739.0,33353642.0,1275215894.75,3929468480.0
sh603217,元利科技,2020-08-07,30.92,30.92,30.06,30.42,30.83,1064102.0,32427102.0,1258257136.5,3877211520.0
sh603217,元利科技,2020-08-10,30.42,30.93,30.28,30.68,30.42,772980.0,23718566.0,1269011471.0,3910350080.0
sh603217,元利科技,2020-08-11,30.69,33.46,30.47,32.36,30.68,5082693.0,162917013.0,1338501017.0,4124476160.0
sh603217,元利科技,2020-08-12,31.87,32.23,31.19,31.61,32.36,2083435.0,65810990.0,1307478898.25,4028884160.000001
sh603217,元利科技,2020-08-13,31.61,32.99,31.45,31.97,31.61,2554097.0,82740868.0,1322369515.25,4074768320.0
sh603217,元利科技,2020-08-14,31.72,31.99,31.2,31.48,31.97,1553911.0,48786082.0,1302101731.0,4012314880.0
sh603217,元利科技,2020-08-17,31.49,32.28,31.36,32.06,31.48,1670638.0,53245883.0,1326092169.5,4086239360.0
sh603217,元利科技,2020-08-18,32.06,32.75,31.75,32.21,32.06,1568976.0,50672815.0,1332296593.2499998,4105357760.0
sh603217,元利科技,2020-08-19,32.36,33.05,31.5,31.54,32.21,2305852.0,74545101.0,1304583500.5,4019962240.0
sh603217,元利科技,2020-08-20,31.55,31.98,31.01,31.83,31.54,1111473.0,35104560.0,1316578719.7499998,4056924480.0
sh603217,元利科技,2020-08-21,31.96,32.2,31.21,31.28,31.83,1294880.0,40879623.0,1293829166.0,3986823680.0
sh603217,元利科技,2020-08-24,31.28,31.55,30.7,31.05,31.28,902706.0,27972538.0,1284315716.25,3957508800.0
sh603217,元利科技,2020-08-25,31.02,31.28,30.75,30.78,31.05,912420.0,28234487.0,1273147753.5,3923095680.000001
sh603217,元利科技,2020-08-26,30.5,30.97,29.88,30.13,30.78,1079282.0,32741151.0,1246261917.25,3840249280.0
sh603217,元利科技,2020-08-27,30.13,30.57,29.98,30.53,30.13,583530.0,17689711.0,1262807047.25,3891231680.0
sh603217,元利科技,2020-08-28,30.69,30.87,30.36,30.72,30.53,509954.0,15618888.0,1270665984.0,3915448320.0
sh603217,元利科技,2020-08-31,30.78,31.07,30.58,30.64,30.72,661300.0,20369350.0,1267356958.0,3905251840.0
sh603217,元利科技,2020-09-01,30.51,30.66,30.23,30.53,30.64,637200.0,19353828.0,1262807047.25,3891231680.0
sh603217,元利科技,2020-09-02,30.59,31.18,30.59,31.15,30.53,973700.0,30111881.0,1288451998.75,3970254400.0
sh603217,元利科技,2020-09-03,31.3,31.3,30.53,30.58,31.15,706900.0,21771031.0,1264875188.5,3897604480.0
sh603217,元利科技,2020-09-04,30.11,30.98,30.0,30.57,30.58,611802.0,18689449.0,1264461560.25,3896329920.000001
sh603217,元利科技,2020-09-07,30.94,30.94,30.0,30.13,30.57,720361.0,21955445.0,1246261917.25,3840249280.0
sh603217,元利科技,2020-09-08,30.19,30.63,30.1,30.49,30.13,544320.0,16512089.0,1261152534.25,3886133440.0
sh603217,元利科技,2020-09-09,30.45,30.45,29.45,29.46,30.49,1264796.0,37799133.0,1218548824.5,3754853760.0
sh603217,元利科技,2020-09-10,29.57,29.96,28.32,28.35,29.46,1014373.0,29348775.0,1172636088.75,3613377600.0
sh603217,元利科技,2020-09-11,28.4,28.73,28.2,28.61,28.35,327978.0,9339314.0,1183390423.25,3646516160.0
sh603217,元利科技,2020-09-14,28.5,29.28,28.5,29.04,28.61,529778.0,15323346.0,1201176438.0,3701322240.0
sh603217,元利科技,2020-09-15,28.9,29.33,28.67,28.81,29.04,361140.0,10413473.0,1191662988.25,3672007360.0
sh603217,元利科技,2020-09-16,28.66,28.97,28.66,28.66,28.81,289207.0,8319362.0,1185458564.5,3652888960.0
sh603217,元利科技,2020-09-17,28.88,29.22,28.65,29.0,28.66,401336.0,11610358.0,1199521925.0,3696224000.0
sh603217,元利科技,2020-09-18,28.93,29.32,28.83,29.23,29.0,426719.0,12432309.0,1209035374.75,3725538880.0
sh603217,元利科技,2020-09-21,29.13,29.28,28.93,28.93,29.23,379799.0,11016630.0,1196626527.25,3687302080.0
sh603217,元利科技,2020-09-22,28.93,28.93,28.5,28.6,28.93,385880.0,11058032.0,1182976795.0,3645241600.0
sh603217,元利科技,2020-09-23,28.74,31.46,28.5,30.99,28.6,3340227.0,102489965.0,1281833946.75,3949861440.0
sh603217,元利科技,2020-09-24,30.26,30.6,29.6,29.73,30.99,1228945.0,36933467.0,1229716787.25,3789266880.0
sh603217,元利科技,2020-09-25,29.77,29.77,29.11,29.24,29.73,707194.0,20778375.0,1209449003.0,3726813440.0
sh603217,元利科技,2020-09-28,29.25,29.3,28.78,28.8,29.24,466970.0,13498569.0,1191249360.0,3670732800.000001
sh603217,元利科技,2020-09-29,28.85,29.16,28.7,28.98,28.8,323196.0,9382412.0,1198694668.5,3693674880.0
sh603217,元利科技,2020-09-30,28.98,29.25,28.52,28.77,28.98,849296.0,24501896.0,1190008475.25,3666909120.0
sh603217,元利科技,2020-10-09,28.93,29.37,28.9,29.24,28.77,587279.0,17136404.0,1209449003.0,3726813440.0
sh603217,元利科技,2020-10-12,29.33,29.75,29.31,29.69,29.24,813757.0,24063704.0,1228062274.25,3784168640.0
sh603217,元利科技,2020-10-13,29.69,29.83,29.38,29.56,29.69,628420.0,18573481.0,1222685107.0,3767599360.0
sh603217,元利科技,2020-10-14,29.65,29.9,29.33,29.81,29.56,759173.0,22522862.0,1233025813.25,3799463360.0
sh603217,元利科技,2020-10-15,29.8,30.01,29.5,29.74,29.81,503512.0,14988817.0,1230130415.5,3790541440.0
sh603217,元利科技,2020-10-16,29.74,29.93,29.36,29.58,29.74,347574.0,10310186.0,1223512363.5,3770148480.0
sh603217,元利科技,2020-10-19,29.66,29.89,29.56,29.57,29.58,368314.0,10930387.0,1223098735.25,3768873920.0
sh603217,元利科技,2020-10-20,29.57,29.75,29.38,29.7,29.57,375950.0,11125044.0,1228475902.5,3785443200.0
sh603217,元利科技,2020-10-21,29.72,30.16,29.52,29.95,29.7,916663.0,27461687.0,1238816608.75,3817307200.0
sh603217,元利科技,2020-10-22,29.92,29.92,29.5,29.69,29.95,505537.0,15005894.0,1228062274.25,3784168640.0
sh603217,元利科技,2020-10-23,29.61,30.78,29.61,29.95,29.69,905954.0,27219017.0,1238816608.75,3817307200.0
sh603217,元利科技,2020-10-26,29.96,30.25,29.56,30.17,29.95,568242.0,17066364.0,1247916430.25,3845347520.0
sh603217,元利科技,2020-10-27,30.08,30.94,29.89,30.68,30.17,1194950.0,36547661.0,1269011471.0,3910350080.0
sh603217,元利科技,2020-10-28,30.54,30.58,30.05,30.48,30.68,814607.0,24714409.0,1260738906.0,3884858880.0
sh603217,元利科技,2020-10-29,30.17,30.75,30.0,30.26,30.48,807466.0,24500600.0,1251639084.5,3856818560.000001
sh603217,元利科技,2020-10-30,30.26,30.26,28.61,28.8,30.26,1160113.0,34205813.0,1191249360.0,3670732800.000001
sh603217,元利科技,2020-11-02,28.76,28.8,28.49,28.56,28.8,575680.0,16475636.0,1181322282.0,3640143360.0
sh603217,元利科技,2020-11-03,28.61,29.2,28.5,29.02,28.56,549790.0,15880243.0,1200349181.5,3698773120.0
sh603217,元利科技,2020-11-04,28.99,29.1,28.67,28.8,29.02,364055.0,10497398.0,1191249360.0,3670732800.000001
sh603217,元利科技,2020-11-05,28.99,29.16,28.81,29.0,28.8,410740.0,11908036.0,1199521925.0,3696224000.0
sh603217,元利科技,2020-11-06,29.1,29.1,28.6,28.75,29.0,469562.0,13518160.0,1189181218.75,3664360000.0
sh603217,元利科技,2020-11-09,28.89,29.4,28.88,29.17,28.75,558876.0,16302538.0,1206553605.25,3717891520.0
sh603217,元利科技,2020-11-10,29.21,29.63,29.02,29.14,29.17,511600.0,15000182.0,1205312720.5,3714067840.0
sh603217,元利科技,2020-11-11,29.2,29.29,28.97,29.1,29.14,445380.0,12978328.0,1203658207.5,3708969600.0
sh603217,元利科技,2020-11-12,29.06,29.44,28.82,29.39,29.1,555300.0,16148840.0,1215653426.75,3745931840.0
sh603217,元利科技,2020-11-13,29.27,29.45,29.17,29.33,29.39,358080.0,10489125.0,1213171657.25,3738284480.0
sh603217,元利科技,2020-11-16,29.33,29.77,29.22,29.6,29.33,608760.0,17980051.0,1224339620.0,3772697600.0
sh603217,元利科技,2020-11-17,29.58,29.74,29.3,29.44,29.6,446400.0,13164922.0,1217721568.0,3752304640.0
sh603217,元利科技,2020-11-18,29.44,29.78,29.36,29.72,29.44,515187.0,15266329.0,1229303159.0,3787992320.0
sh603217,元利科技,2020-11-19,29.76,29.92,29.46,29.46,29.72,511580.0,15162564.0,1218548824.5,3754853760.0
sh603217,元利科技,2020-11-20,29.6,29.76,29.15,29.49,29.46,508980.0,14938891.0,1219789709.25,3758677440.0
sh603217,元利科技,2020-11-23,29.59,30.39,29.4,30.03,29.49,1362121.0,40864635.0,1242125634.75,3827503680.0
sh603217,元利科技,2020-11-24,30.1,30.59,29.92,29.94,30.03,906235.0,27399141.0,1238402980.5,3816032640.000001
sh603217,元利科技,2020-11-25,29.94,30.26,29.55,29.57,29.94,589300.0,17591027.0,1223098735.25,3768873920.0
sh603217,元利科技,2020-11-26,29.5,29.85,29.48,29.75,29.57,443880.0,13159446.0,1230544043.75,3791816000.0
sh603217,元利科技,2020-11-27,29.65,29.85,28.6,29.03,29.75,835395.0,24354405.0,1200762809.75,3700047680.0
sh603217,元利科技,2020-11-30,29.03,29.28,28.82,28.88,29.03,472459.0,13705221.0,1194558386.0,3680929280.0
sh603217,元利科技,2020-12-01,28.88,29.13,28.8,29.1,28.88,445581.0,12931789.0,1203658207.5,3708969600.0
sh603217,元利科技,2020-12-02,29.04,29.36,29.03,29.17,29.1,303140.0,8833423.0,1206553605.25,3717891520.0
sh603217,元利科技,2020-12-03,29.25,29.26,29.03,29.07,29.17,303359.0,8847826.0,1202417322.75,3705145920.0
sh603217,元利科技,2020-12-04,29.08,29.23,29.08,29.13,29.07,271335.0,7908903.0,1204899092.25,3712793280.0
sh603217,元利科技,2020-12-07,29.27,29.27,28.94,29.0,29.13,323820.0,9425858.0,1199521925.0,3696224000.0
sh603217,元利科技,2020-12-08,28.9,29.01,28.76,28.78,29.0,375080.0,10822854.0,1190422103.5,3668183680.0
sh603217,元利科技,2020-12-09,28.79,28.88,28.25,28.25,28.78,436365.0,12459522.0,1168499806.25,3600632000.0
sh603217,元利科技,2020-12-10,28.25,28.31,28.08,28.13,28.25,299400.0,8438249.0,1163536267.25,3585337280.0
sh603217,元利科技,2020-12-11,28.24,28.5,27.38,27.58,28.13,666399.0,18487940.0,1140786713.5,3515236480.0
sh603217,元利科技,2020-12-14,27.57,27.71,27.27,27.7,27.58,294219.0,8101211.0,1145750252.5,3530531200.0
sh603217,元利科技,2020-12-15,27.7,27.7,27.31,27.4,27.7,346594.0,9506193.0,1133341405.0,3492294400.0
sh603217,元利科技,2020-12-16,27.4,27.4,26.85,26.89,27.4,512233.0,13819664.0,1112246364.25,3427291840.0
sh603217,元利科技,2020-12-17,26.89,27.2,26.29,27.2,26.89,473694.0,12682262.0,1125068840.0,3466803200.0
sh603217,元利科技,2020-12-18,27.2,27.3,26.78,26.82,27.2,329220.0,8890367.0,1109350966.5,3418369920.0000005
sh603217,元利科技,2020-12-21,27.3,27.38,26.71,26.87,26.82,269171.0,7248576.0,1227942340.6,3424742720.0
sh603217,元利科技,2020-12-22,26.73,27.28,26.72,26.85,26.87,352945.0,9533024.0,1227028353.0,3422193600.0
sh603217,元利科技,2020-12-23,26.98,27.31,26.79,27.09,26.85,272163.0,7347353.0,1237996204.2,3452783040.0
sh603217,元利科技,2020-12-24,27.01,27.24,26.55,26.57,27.09,291120.0,7792351.0,1214232526.6,3386505920.0
sh603217,元利科技,2020-12-25,26.48,26.86,26.4,26.61,26.57,232054.0,6191358.0,1216060501.8,3391604160.0000005
sh603217,元利科技,2020-12-28,26.8,26.8,26.01,26.08,26.61,365400.0,9602440.0,1191839830.4,3324052480.0
sh603217,元利科技,2020-12-29,26.22,26.35,25.88,26.05,26.08,327946.0,8557084.0,1190468849.0,3320228800.0
sh603217,元利科技,2020-12-30,25.84,26.16,25.84,26.04,26.05,228200.0,5945511.0,1190011855.2,3318954240.0
sh603217,元利科技,2020-12-31,26.15,26.36,26.05,26.31,26.04,249857.0,6558637.0,1202350687.8,3353367359.9999995
sh603217,元利科技,2021-01-04,26.38,26.86,26.25,26.68,26.31,315320.0,8409924.0,1219259458.4,3400526080.0
sh603217,元利科技,2021-01-05,26.59,26.75,26.33,26.44,26.68,312619.0,8273392.0,1208291607.2,3369936640.0
sh603217,元利科技,2021-01-06,26.4,26.64,26.0,26.11,26.44,314302.0,8224496.0,1193210811.8,3327876160.0
sh603217,元利科技,2021-01-07,26.03,26.21,25.07,25.12,26.11,713184.0,18196538.0,1147968425.6,3201694720.0
sh603217,元利科技,2021-01-08,25.13,25.43,24.78,25.27,25.12,333600.0,8401977.0,1154823332.6,3220813120.0
sh603217,元利科技,2021-01-11,25.3,25.32,24.32,24.4,25.27,582652.0,14392650.0,1115064872.0,3109926400.0
sh603217,元利科技,2021-01-12,24.69,24.73,24.35,24.49,24.4,281580.0,6893724.0,1119177816.2,3121397440.0
sh603217,元利科技,2021-01-13,24.65,24.65,23.88,23.92,24.49,458281.0,11043952.0,1093129169.6,3048747520.0
sh603217,元利科技,2021-01-14,23.96,24.37,23.75,24.16,23.92,302982.0,7316073.0,1104097020.8,3079336960.0
sh603217,元利科技,2021-01-15,24.2,24.73,24.15,24.64,24.16,285020.0,6997495.0,1126032723.2,3140515839.9999995
sh603217,元利科技,2021-01-18,24.65,25.05,24.51,24.85,24.64,305196.0,7598751.0,1135629593.0,3167281599.9999995
sh603217,元利科技,2021-01-19,24.86,25.18,24.81,24.9,24.85,329354.0,8220638.0,1137914562.0,3173654400.0
sh603217,元利科技,2021-01-20,24.9,25.28,24.7,25.11,24.9,345280.0,8622178.0,1147511431.8,3200420160.0
sh603217,元利科技,2021-01-21,25.27,25.27,24.93,24.98,25.11,270740.0,6784357.0,1141570512.4,3183850880.0
sh603217,元利科技,2021-01-22,24.9,24.92,24.57,24.59,24.98,242380.0,5979359.0,1123747754.2,3134143040.0
sh603217,元利科技,2021-01-25,24.83,24.83,23.9,23.95,24.59,324402.0,7835116.0,1094500151.0,3052571200.0
sh603217,元利科技,2021-01-26,23.95,24.36,23.83,24.31,23.95,320734.0,7745313.0,1110951927.8,3098455360.0
sh603217,元利科技,2021-01-27,24.3,24.45,24.01,24.11,24.31,228053.0,5499444.0,1101812051.8,3072964160.0000005
sh603217,元利科技,2021-01-28,24.1,24.4,23.93,24.03,24.11,260940.0,6300275.0,1098156101.4,3062767680.0
sh603217,元利科技,2021-01-29,24.1,24.36,23.4,23.45,24.03,427704.0,10143331.0,1071650461.0,2988843200.0
sh603217,元利科技,2021-02-01,23.4,24.25,23.36,24.12,23.45,323432.0,7720546.0,1102269045.6,3074238719.9999995
sh603217,元利科技,2021-02-02,24.12,24.12,23.5,23.73,24.12,295220.0,7012849.0,1084446287.4,3024530880.0
sh603217,元利科技,2021-02-03,23.9,23.9,23.29,23.3,23.73,340522.0,7995757.0,1064795554.0,2969724800.0
sh603217,元利科技,2021-02-04,23.29,23.29,22.27,22.46,23.3,530600.0,12017975.0,1026408074.8,2862661760.0
sh603217,元利科技,2021-02-05,22.5,22.77,22.12,22.14,22.46,350820.0,7841816.0,1011784273.2,2821875839.9999995
sh603217,元利科技,2021-02-08,22.2,22.33,21.75,21.82,22.14,431719.0,9453287.0,997160471.6,2781089920.0000005
sh603217,元利科技,2021-02-09,21.83,22.35,21.82,22.11,21.82,359580.0,7959861.0,1010413291.8,2818052160.0
sh603217,元利科技,2021-02-10,22.3,22.58,22.02,22.42,22.11,376720.0,8414324.0,1024580099.6,2857563520.0
sh603217,元利科技,2021-02-18,22.47,23.18,22.47,23.02,22.42,411033.0,9447244.0,1051999727.6,2934037120.0
sh603217,元利科技,2021-02-19,22.99,24.49,22.9,24.25,23.02,837340.0,19893706.0,1108209965.0,3090808000.0
sh603217,元利科技,2021-02-22,24.26,25.21,23.95,24.57,24.25,1051886.0,25931206.0,1122833766.6,3131593920.0
sh603217,元利科技,2021-02-23,24.57,24.78,24.28,24.54,24.57,446454.0,10951479.0,1121462785.2,3127770239.9999995
sh603217,元利科技,2021-02-24,24.75,25.78,24.75,25.1,24.54,1036158.0,26284618.0,1147054438.0,3199145600.0
sh603217,元利科技,2021-02-25,25.0,25.25,24.42,24.57,25.1,496302.0,12257142.0,1122833766.6,3131593920.0
sh603217,元利科技,2021-02-26,24.05,24.75,24.05,24.61,24.57,388440.0,9527526.0,1124661741.8,3136692160.0
sh603217,元利科技,2021-03-01,24.7,24.98,24.67,24.93,24.61,277480.0,6894098.0,1139285543.4,3177478080.0
sh603217,元利科技,2021-03-02,25.08,25.09,24.39,24.6,24.93,331280.0,8150453.0,1124204748.0,3135417600.0
sh603217,元利科技,2021-03-03,24.48,25.21,24.48,25.0,24.6,361300.0,8994987.0,1142484500.0,3186400000.0
sh603217,元利科技,2021-03-04,24.73,25.3,24.7,24.87,25.0,426560.0,10677989.0,1136543580.6,3169830720.0
sh603217,元利科技,2021-03-05,24.82,25.24,24.82,25.18,24.87,441860.0,11056423.0,1150710388.4,3209342080.0
sh603217,元利科技,2021-03-08,25.45,25.55,24.84,24.84,25.18,445529.0,11227844.0,1135172599.2,3166007040.0000005
sh603217,元利科技,2021-03-09,24.84,25.45,24.25,24.83,24.84,536794.0,13330378.0,1134715605.4,3164732480.0
sh603217,元利科技,2021-03-10,25.35,25.38,24.56,24.64,24.83,424672.0,10576338.0,1126032723.2,3140515839.9999995
sh603217,元利科技,2021-03-11,24.66,24.9,24.5,24.64,24.64,245640.0,6052015.0,1126032723.2,3140515839.9999995
sh603217,元利科技,2021-03-12,24.72,24.98,24.54,24.67,24.64,192040.0,4747646.0,1127403704.6,3144339520.0
sh603217,元利科技,2021-03-15,24.68,24.89,24.5,24.68,24.67,185220.0,4576000.0,1127860698.4,3145614080.0
sh603217,元利科技,2021-03-16,24.72,25.26,24.68,25.18,24.68,338962.0,8465150.0,1150710388.4,3209342080.0
sh603217,元利科技,2021-03-17,25.18,25.64,24.97,25.54,25.18,500280.0,12667882.0,1167162165.2,3255226240.0
sh603217,元利科技,2021-03-18,25.5,25.51,25.22,25.39,25.54,322580.0,8168597.0,1160307258.2,3236107840.0
sh603217,元利科技,2021-03-19,25.14,25.5,25.13,25.33,25.39,469220.0,11875822.0,1157565295.4,3228460480.0
sh603217,元利科技,2021-03-22,25.34,25.75,25.26,25.61,25.33,275922.0,7041387.0,1170361121.8,3264148160.0
sh603217,元利科技,2021-03-23,25.57,25.62,25.14,25.22,25.61,322360.0,8142018.0,1152538363.6,3214440320.0
sh603217,元利科技,2021-03-24,25.18,25.29,25.02,25.15,25.22,304946.0,7676630.0,1149339407.0,3205518400.0000005
sh603217,元利科技,2021-03-25,25.3,25.3,24.83,24.86,25.15,280622.0,7029251.0,1136086586.8,3168556160.0
sh603217,元利科技,2021-03-26,24.87,25.25,24.8,25.1,24.86,194578.0,4869402.0,1147054438.0,3199145600.0
sh603217,元利科技,2021-03-29,25.44,25.75,25.0,25.71,25.1,497442.0,12690952.0,1174931059.8,3276893760.0
sh603217,元利科技,2021-03-30,25.85,26.58,25.33,25.33,25.71,867397.0,22542836.0,1157565295.4,3228460480.0
sh603217,元利科技,2021-03-31,24.8,25.32,24.8,25.02,25.33,424818.0,10608283.0,1143398487.6,3188949120.0
sh603217,元利科技,2021-04-01,24.91,25.17,24.8,24.8,25.02,285060.0,7105873.0,1133344624.0,3160908800.0
sh603217,元利科技,2021-04-02,24.8,25.01,24.75,24.87,24.8,140820.0,3497954.0,1136543580.6,3169830720.0
sh603217,元利科技,2021-04-06,24.82,25.21,24.81,25.11,24.87,196080.0,4912824.0,1147511431.8,3200420160.0
sh603217,元利科技,2021-04-07,25.2,25.6,25.12,25.4,25.11,358819.0,9117772.0,1160764252.0,3237382400.0
sh603217,元利科技,2021-04-08,25.39,25.5,25.14,25.14,25.4,367320.0,9304994.0,1148882413.2,3204243840.0
sh603217,元利科技,2021-04-09,25.16,25.27,25.0,25.17,25.14,279320.0,7007192.0,1150253394.6,3208067520.0
sh603217,元利科技,2021-04-12,25.05,25.24,24.81,24.98,25.17,329540.0,8255283.0,1141570512.4,3183850880.0
sh603217,元利科技,2021-04-13,24.98,25.09,24.61,24.75,24.98,274340.0,6801447.0,1131059655.0,3154536000.0
sh603217,元利科技,2021-04-14,24.75,25.02,24.69,24.94,24.75,197293.0,4903717.0,1139742537.2,3178752640.0000005
sh603217,元利科技,2021-04-15,25.15,25.15,24.83,25.09,24.94,224113.0,5606180.0,1146597444.2,3197871040.0
sh603217,元利科技,2021-04-16,25.1,25.58,25.01,25.32,25.09,653602.0,16544165.0,1157108301.6,3227185920.0
sh603217,元利科技,2021-04-19,25.2,26.68,25.2,26.31,25.32,1249420.0,32744162.0,1202350687.8,3353367359.9999995
sh603217,元利科技,2021-04-20,26.3,26.31,25.83,25.93,26.31,588840.0,15330709.0,1184984923.4,3304934080.0
sh603217,元利科技,2021-04-21,25.75,26.28,25.73,26.0,25.93,471994.0,12306181.0,1188183880.0,3313856000.0
sh603217,元利科技,2021-04-22,26.0,26.21,25.83,26.04,26.0,310187.0,8067769.0,1190011855.2,3318954240.0
sh603217,元利科技,2021-04-23,26.06,26.2,25.64,25.76,26.04,315380.0,8143456.0,1177216028.8,3283266560.0
sh603217,元利科技,2021-04-26,25.69,26.08,25.0,25.88,25.76,773360.0,19716253.0,1182699954.4,3298561280.0000005
sh603217,元利科技,2021-04-27,25.52,26.41,25.32,26.13,25.88,808427.0,21022335.0,1194124799.4,3330425280.0
sh603217,元利科技,2021-04-28,27.04,28.28,26.92,27.82,26.13,2670651.0,74304621.0,1271356751.6,3545825920.0
sh603217,元利科技,2021-04-29,27.88,28.75,27.46,28.2,27.82,2431810.0,68715472.0,1288722516.0,3594259200.0
sh603217,元利科技,2021-04-30,28.35,28.56,27.89,28.19,28.2,1367514.0,38521016.0,1288265522.2,3592984640.0
sh603217,元利科技,2021-05-06,28.18,28.21,27.67,27.73,28.19,962182.0,26826269.0,1267243807.4,3534354880.0
sh603217,元利科技,2021-05-07,27.75,28.75,27.7,28.25,27.73,1221340.0,34680500.0,1291007485.0,3600632000.0
sh603217,元利科技,2021-05-10,28.5,29.2,27.72,27.93,28.25,1395119.0,39616888.0,1276383683.4,3559846080.0
sh603217,元利科技,2021-05-11,28.01,28.46,27.5,28.46,27.93,853736.0,23897068.0,1300604354.8,3627397760.0
sh603217,元利科技,2021-05-12,28.25,28.3,27.9,28.03,28.46,693924.0,19442934.0,1280953621.4,3572591680.0
sh603217,元利科技,2021-05-13,27.76,28.6,27.76,27.91,28.03,684098.0,19262246.0,1275469695.8,3557296960.0
sh603217,元利科技,2021-05-14,27.84,28.58,27.83,28.2,27.91,793320.0,22436607.0,1288722516.0,3594259200.0
sh603217,元利科技,2021-05-17,27.98,29.12,27.92,28.8,28.2,1300764.0,37372449.0,1316142144.0,3670732800.000001
sh603217,元利科技,2021-05-18,28.91,29.19,28.36,29.06,28.8,1227039.0,35371528.0,1328023982.8,3703871360.0
sh603217,元利科技,2021-05-19,28.8,29.06,28.52,28.65,29.06,650100.0,18664626.0,1309287237.0,3651614400.0
sh603217,元利科技,2021-05-20,28.63,28.63,28.03,28.07,28.65,729002.0,20538977.0,1282781596.6,3577689920.0000005
sh603217,元利科技,2021-05-21,28.11,28.17,27.7,27.79,28.07,499922.0,13915689.0,1269985770.2,3542002240.0
sh603217,元利科技,2021-05-24,27.81,28.41,27.75,28.23,27.79,587262.0,16570828.0,1290093497.4,3598082880.0
sh603217,元利科技,2021-05-25,28.23,28.95,28.06,28.8,28.23,765281.0,21891666.0,1316142144.0,3670732800.000001
sh603217,元利科技,2021-05-26,28.79,28.98,28.41,28.65,28.8,643764.0,18426499.0,1309287237.0,3651614400.0
sh603217,元利科技,2021-05-27,28.69,28.99,28.45,28.99,28.65,732135.0,21097891.0,1324825026.2,3694949440.0
sh603217,元利科技,2021-05-28,29.03,29.67,28.34,28.42,28.99,1042184.0,30233696.0,1298776379.6,3622299520.0
sh603217,元利科技,2021-05-31,28.42,29.97,28.42,29.95,28.42,2492837.0,73774070.0,1368696430.9999998,3817307200.0
sh603217,元利科技,2021-06-01,29.96,30.44,29.51,29.7,29.95,1709463.0,51188955.0,1357271586.0,3785443200.0
sh603217,元利科技,2021-06-02,29.61,30.12,29.44,29.77,29.7,1097710.0,32572713.0,1360470542.6,3794365120.0
sh603217,元利科技,2021-06-03,29.61,30.47,29.55,29.86,29.77,1341966.0,40419758.0,1364583486.8,3805836160.0
sh603217,元利科技,2021-06-04,29.77,30.76,29.65,30.44,29.86,1662251.0,50532801.0,1391089127.2,3879760640.0
sh603217,元利科技,2021-06-07,30.44,30.44,29.8,29.91,30.44,991247.0,29797108.0,1366868455.8,3812208960.0
sh603217,元利科技,2021-06-08,29.99,29.99,29.15,29.33,29.91,1091576.0,32188034.0,1340362815.4,3738284480.0
sh603217,元利科技,2021-06-09,29.3,29.84,29.21,29.38,29.33,697276.0,20596270.0,1342647784.4,3744657280.0
sh603217,元利科技,2021-06-10,29.39,29.85,29.16,29.64,29.38,698757.0,20642204.0,1354529623.1999998,3777795840.0
sh603217,元利科技,2021-06-11,29.68,29.78,29.21,29.42,29.64,736802.0,21704951.0,1344475759.6,3749755520.000001
sh603217,XD元利科,2021-06-15,29.39,29.39,27.42,27.71,29.04,1434196.0,40277634.0,1266329819.8,3531805760.0
sh603217,元利科技,2021-06-16,27.8,28.04,27.47,27.61,27.71,663102.0,18375374.0,1261759881.8,3519060160.0
sh603217,元利科技,2021-06-17,27.55,28.15,27.55,27.95,27.61,456402.0,12731519.0,1277297671.0,3562395200.0
sh603217,元利科技,2021-06-18,27.95,28.1,27.66,27.85,27.95,526540.0,14642871.0,1272727733.0,3549649600.0
sh603217,元利科技,2021-06-21,27.98,28.49,27.62,28.38,27.85,698233.0,19655226.0,1296948404.4,3617201280.000001
sh603217,元利科技,2021-06-22,28.5,28.67,28.06,28.17,28.38,577248.0,16362605.0,1287351534.6,3590435520.0000005
sh603217,元利科技,2021-06-23,28.31,28.84,28.18,28.82,28.17,756580.0,21639616.0,1317056131.6,3673281920.0
sh603217,元利科技,2021-06-24,28.82,28.92,28.37,28.58,28.82,575343.0,16420857.0,1306088280.4,3642692480.0
sh603217,元利科技,2021-06-25,28.43,28.66,28.31,28.59,28.58,397740.0,11340209.0,1306545274.2,3643967040.000001
sh603217,元利科技,2021-06-28,28.61,28.64,28.34,28.41,28.59,460260.0,13119767.0,1298319385.8,3621024960.0
sh603217,元利科技,2021-06-29,28.5,28.68,28.0,28.08,28.41,542340.0,15348124.0,1283238590.4,3578964479.9999995
sh603217,元利科技,2021-06-30,27.9,28.41,27.79,27.86,28.08,669860.0,18758913.0,1273184726.8,3550924160.0000005
sh603217,元利科技,2021-07-01,28.0,29.33,27.73,28.78,27.86,1375541.0,39318878.0,1315228156.4,3668183680.0
sh603217,元利科技,2021-07-02,28.64,28.78,27.61,28.0,28.78,1088719.0,30505873.0,1279582640.0,3568768000.0
sh603217,元利科技,2021-07-05,27.7,28.04,27.57,27.86,28.0,635000.0,17629725.0,1273184726.8,3550924160.0000005
sh603217,元利科技,2021-07-06,27.91,28.78,27.75,28.7,27.86,1354120.0,38329788.0,1311572206.0,3657987200.0
sh603217,元利科技,2021-07-07,28.65,28.8,28.34,28.49,28.7,1015562.0,28936832.0,1301975336.2,3631221440.0
sh603217,元利科技,2021-07-08,28.6,28.6,28.08,28.19,28.49,721592.0,20386885.0,1288265522.2,3592984640.0
sh603217,元利科技,2021-07-09,28.17,31.01,28.11,31.01,28.19,3657164.0,109252541.0,1417137773.8000002,3952410560.0
sh603217,元利科技,2021-07-12,33.29,34.11,31.93,32.34,31.01,7007833.0,231202270.0,1477917949.1999998,4121927040.000001
sh603217,元利科技,2021-07-13,32.23,32.59,31.4,31.4,32.34,3296595.0,104917303.0,1434960532.0,4002118400.000001
sh603217,元利科技,2021-07-14,31.88,32.08,31.29,31.5,31.4,1928017.0,61179545.0,1439530470.0,4014864000.0
sh603217,元利科技,2021-07-15,31.38,34.49,31.04,33.79,31.5,4265968.0,139478428.0,1544182050.2,4306738240.0
sh603217,元利科技,2021-07-16,35.0,37.17,35.0,37.17,33.79,6568602.0,242973414.0,1698645954.6,4737539520.0
sh603217,元利科技,2021-07-19,39.0,40.89,38.32,39.91,37.17,12554159.0,502098509.0,1823862255.8,5086768960.0
sh603217,元利科技,2021-07-20,39.88,43.9,38.58,43.9,39.91,11948497.0,494474259.0,2006202782.0,5595318400.0
sh603217,元利科技,2021-07-21,42.01,45.0,41.6,43.36,43.9,8226271.0,355016166.0,1981525116.8,5526492160.0
sh603217,元利科技,2021-07-22,43.56,43.74,41.3,42.1,43.36,6131813.0,257651704.0,1923943898.0,5365897600.0
sh603217,元利科技,2021-07-23,42.18,42.88,39.56,39.85,42.1,6277559.0,254935567.0,1821120293.0,5079121600.0
sh603217,元利科技,2021-07-26,40.33,40.62,38.85,39.99,39.85,4155292.0,164925827.0,1827518206.2,5096965440.0
sh603217,元利科技,2021-07-27,39.95,40.88,38.78,39.35,39.99,3974222.0,158046915.0,1798270603.0,5015393600.0
sh603217,元利科技,2021-07-28,37.62,38.5,35.9,36.83,39.35,4222460.0,156406763.0,1683108165.4,4694204480.0
sh603217,元利科技,2021-07-29,37.83,38.58,36.91,37.46,36.83,4391605.0,165030492.0,1711898774.8,4774501760.0
sh603217,元利科技,2021-07-30,37.44,39.2,36.5,38.65,37.46,3558902.0,134992387.0,1766281037.0,4926174400.0
sh603217,元利科技,2021-08-02,38.3,39.49,38.0,39.48,38.65,2777913.0,108128647.0,1804211522.4,5031962880.0
sh603217,元利科技,2021-08-03,40.0,40.0,37.62,38.45,39.48,2341919.0,89753061.0,1757141161.0000002,4900683200.0
sh603217,元利科技,2021-08-04,38.45,41.18,37.31,40.72,38.45,3174820.0,125501071.0,1860878753.6,5190008320.0
sh603217,元利科技,2021-08-05,40.75,40.75,38.29,38.52,40.72,2412913.0,94333469.0,1760340117.6,4909605120.0
sh603217,元利科技,2021-08-06,37.98,39.77,36.38,37.75,38.52,3252620.0,123543563.0,1725151595.0,4811464000.0
sh603217,元利科技,2021-08-09,37.74,40.2,37.5,39.72,37.75,2913200.0,113595817.0,1815179373.6,5062552320.0
sh603217,元利科技,2021-08-10,39.0,40.49,38.45,38.69,39.72,2536846.0,99785377.0,1768109012.2,4931272640.0
sh603217,元利科技,2021-08-11,38.01,38.95,37.86,38.16,38.69,2110007.0,80633365.0,1743888340.8,4863720960.0
sh603217,元利科技,2021-08-12,37.9,39.4,37.8,38.36,38.16,1747118.0,67303227.0,1753028216.8,4889212160.0
sh603217,元利科技,2021-08-13,39.2,42.2,38.4,42.2,38.36,1495640.0,61797679.0,1928513836.0,5378643199.999999
sh603217,元利科技,2021-08-16,42.41,45.69,40.7,40.88,42.2,6632793.0,285983510.0,1868190654.4,5210401280.0
sh603217,元利科技,2021-08-17,41.31,41.33,37.55,37.6,40.88,4710243.0,181892706.0,1718296688.0000002,4792345600.0
sh603217,元利科技,2021-08-18,37.2,39.15,37.2,38.22,37.6,3058260.0,117114877.0,1746630303.6,4871368320.0
sh603217,元利科技,2021-08-19,38.79,41.37,38.28,39.61,38.22,4185240.0,165492114.0,1810152441.8,5048532160.0
sh603217,元利科技,2021-08-20,39.73,41.19,38.88,39.4,39.61,3234962.0,129360826.0,1800555572.0,5021766400.0
sh603217,元利科技,2021-08-23,40.46,43.34,40.42,43.34,39.4,4339923.0,183467483.0,1980611129.2,5523943040.0
sh603217,元利科技,2021-08-24,44.75,47.39,43.05,46.95,43.34,5980652.0,275583833.0,2145585891.0,5984059200.0
sh603217,元利科技,2021-08-25,47.12,48.34,46.0,47.45,46.95,3878513.0,183741981.0,2168435581.0,6047787200.0
sh603217,元利科技,2021-08-26,47.45,51.65,47.45,49.3,47.45,4556215.0,223626895.0,2252979434.0,6283580800.0
sh603217,元利科技,2021-08-27,52.1,53.98,45.73,49.15,49.3,9521045.0,475450673.0,2246124527.0,6264462400.0
sh603217,元利科技,2021-08-30,50.28,51.03,45.0,46.24,49.15,8096129.0,387502701.0,2113139331.2,5893565440.0
sh603217,元利科技,2021-08-31,45.67,47.5,45.5,46.44,46.24,4521840.0,210633850.0,2122279207.2,5919056640.0
sh603217,元利科技,2021-09-01,46.88,47.5,44.6,45.0,46.44,3640662.0,167186705.0,2056472100.0,5735520000.0
sh603217,元利科技,2021-09-02,45.02,46.6,44.55,45.39,45.0,2705138.0,123563135.0,2074294858.2,5785227840.0
sh603217,元利科技,2021-09-03,45.0,45.56,43.2,43.55,45.39,3654326.0,161329201.0,1990207999.0,5550708800.0
sh603217,元利科技,2021-09-06,43.7,44.0,42.52,43.45,43.55,2092495.0,90238849.0,1985638061.0,5537963199.999999
sh603217,元利科技,2021-09-07,43.67,44.58,42.71,43.88,43.45,3073561.0,133872868.0,2005288794.4,5592769280.0
sh603217,元利科技,2021-09-08,43.35,45.0,43.35,44.78,43.88,2447141.0,108176169.0,2046418236.4,5707479680.0
sh603217,元利科技,2021-09-09,44.15,46.23,44.15,46.23,44.78,2862138.0,129305984.0,2112682337.4,5892290880.0
sh603217,元利科技,2021-09-10,46.23,46.24,41.7,42.39,46.23,4553982.0,197320899.0,1937196718.2,5402859840.000001
sh603217,元利科技,2021-09-13,42.49,43.07,40.99,42.86,42.39,3111524.0,131966239.0,1958675426.8,5462764160.0
sh603217,元利科技,2021-09-14,42.86,42.87,40.67,41.62,42.86,3171964.0,132266311.0,1902008195.6,5304718720.0
sh603217,元利科技,2021-09-15,41.62,42.49,41.02,42.08,41.62,2058100.0,86589040.0,1923029910.4,5363348480.0
sh603217,元利科技,2021-09-16,42.39,42.39,40.3,40.66,42.08,2289523.0,94199312.0,1858136790.8,5182360960.0
sh603217,元利科技,2021-09-17,41.13,41.56,40.24,40.74,40.66,2151960.0,88286542.0,1861792741.2,5192557440.0
sh603217,元利科技,2021-09-22,40.85,41.25,39.39,41.1,40.74,2045596.0,82896960.0,1878244518.0,5238441600.0
sh603217,元利科技,2021-09-23,41.1,43.18,39.43,42.54,41.1,4435324.0,183840766.0,1944051625.2,5421978240.0
sh603217,元利科技,2021-09-24,42.16,42.85,41.48,42.6,42.54,3010433.0,126961010.0,1946793588.0,5429625600.000001
sh603217,元利科技,2021-09-27,43.65,46.86,39.98,43.5,42.6,7840403.0,347487121.0,1987923030.0,5544336000.0
sh603217,元利科技,2021-09-28,41.05,42.45,39.38,40.34,43.5,5360377.0,217337049.0,1843512989.2,5141575040.0
sh603217,元利科技,2021-09-29,39.8,44.3,39.67,43.2,40.34,5780972.0,243831303.0,1974213216.0,5506099200.0
sh603217,元利科技,2021-09-30,44.14,44.14,41.56,43.3,43.2,2981036.0,128428039.0,1978783154.0,5518844800.0
sh603217,元利科技,2021-10-08,44.16,45.2,41.72,41.86,43.3,2857619.0,123156091.0,1912976046.8,5335308160.0
sh603217,元利科技,2021-10-11,42.02,43.48,40.5,42.62,41.86,2361198.0,100084030.0,1947707575.6,5432174719.999999
sh603217,元利科技,2021-10-12,42.48,42.57,38.92,39.5,42.62,2948215.0,118934409.0,1805125510.0,5034512000.0
sh603217,元利科技,2021-10-13,39.72,39.97,37.53,38.07,39.5,2305062.0,88146679.0,1739775396.6,4852249920.0
sh603217,元利科技,2021-10-14,38.14,39.78,37.43,39.6,38.07,1761720.0,68116415.0,1809695448.0,5047257600.0
sh603217,元利科技,2021-10-15,39.36,39.79,38.43,38.88,39.6,1707940.0,66506037.0,1776791894.4,4955489280.0
sh603217,元利科技,2021-10-18,38.84,41.5,37.76,41.13,38.88,2505280.0,99635107.0,1879615499.4,5242265280.0
sh603217,元利科技,2021-10-19,40.93,45.24,40.51,45.24,41.13,3496942.0,153405647.0,2067439951.2,5766109440.0
sh603217,元利科技,2021-10-20,45.24,47.73,44.54,47.36,45.24,4781871.0,222812601.0,2164322636.8,6036316160.0
sh603217,元利科技,2021-10-21,47.5,48.3,46.0,47.49,47.36,3537220.0,167471136.0,2170263556.2,6052885440.0
sh603217,元利科技,2021-10-22,47.65,47.83,46.23,46.91,47.49,1848650.0,87051214.0,2143757915.8,5978960960.0
sh603217,元利科技,2021-10-25,47.42,47.44,45.2,45.85,46.91,2147373.0,98542314.0,2095316573.0,5843857600.0
sh603217,元利科技,2021-10-26,46.6,46.6,44.64,45.37,45.85,1693690.0,76760441.0,2073380870.6,5782678720.0
sh603217,元利科技,2021-10-27,45.14,45.95,44.46,44.68,45.37,1885270.0,84904891.0,2041848298.4,5694734080.0
sh603217,元利科技,2021-10-28,45.51,46.35,43.05,43.5,44.68,2621001.0,115988027.0,1987923030.0,5544336000.0
sh603217,元利科技,2021-10-29,43.57,45.18,42.86,43.08,43.5,1952925.0,85255573.0,1968729290.4,5490804480.0
sh603217,元利科技,2021-11-01,42.91,44.39,42.75,43.09,43.08,2027440.0,87882183.0,1969186284.2,5492079040.0
sh603217,元利科技,2021-11-02,43.16,43.45,40.5,41.0,43.09,2568940.0,106869391.0,1873674580.0,5225696000.0
sh603217,元利科技,2021-11-03,40.65,41.49,40.2,40.88,41.0,1534862.0,62742588.0,1868190654.4,5210401280.0
sh603217,元利科技,2021-11-04,40.95,41.0,39.9,40.28,40.88,1319269.0,53029821.0,1840771026.4,5133927680.0
sh603217,元利科技,2021-11-05,39.9,40.27,38.65,39.07,40.28,1580640.0,62093217.0,1785474776.6,4979705920.0
sh603217,元利科技,2021-11-08,39.02,39.65,38.18,39.17,39.07,1472610.0,57285526.0,1790044714.6,4992451520.0
sh603217,元利科技,2021-11-09,39.17,39.6,38.88,39.49,39.17,1121732.0,43927953.0,1804668516.2,5033237440.0
sh603217,元利科技,2021-11-10,41.0,42.47,39.46,40.85,39.49,3112032.0,126808776.0,1866819673.0,5206577600.0
sh603217,元利科技,2021-11-11,40.44,42.65,40.2,42.35,40.85,2645262.0,110549990.0,1935368743.0,5397761600.0
sh603217,元利科技,2021-11-12,41.53,42.95,41.53,41.85,42.35,1451058.0,60927845.0,1912519053.0,5334033600.0
sh603217,元利科技,2021-11-15,41.5,42.82,41.5,42.01,41.85,1468924.0,61881548.0,1919830953.8,5354426560.0
sh603217,元利科技,2021-11-16,42.19,42.38,40.6,40.77,42.01,1681330.0,69901564.0,1863163722.6,5196381120.0
sh603217,元利科技,2021-11-17,40.65,42.15,40.55,42.06,40.77,1631160.0,67542417.0,1922115922.8,5360799360.0
sh603217,元利科技,2021-11-18,42.37,42.37,40.0,41.0,42.06,1351900.0,55685868.0,1873674580.0,5225696000.0
sh603217,元利科技,2021-11-19,41.0,41.5,40.67,41.1,41.0,1320520.0,54229815.0,1878244518.0,5238441600.0
sh603217,元利科技,2021-11-22,41.1,41.73,40.56,40.62,41.1,1155073.0,47164036.0,1856308815.6000001,5177262720.0
sh603217,元利科技,2021-11-23,40.72,41.12,40.0,40.45,40.62,1164060.0,47224986.0,1848539921.0,5155595200.0
sh603217,元利科技,2021-11-24,40.24,40.73,39.81,40.3,40.45,1169100.0,47042159.0,1841685014.0,5136476800.0
sh603217,元利科技,2021-11-25,40.2,41.77,39.92,41.18,40.3,1427820.0,58405793.0,1881900468.3999999,5248638080.0
sh603217,元利科技,2021-11-26,41.11,41.11,39.8,40.56,41.18,1973736.0,79540239.0,1853566852.8,5169615360.0
sh603217,元利科技,2021-11-29,40.21,43.48,39.52,43.36,40.56,3870642.0,163664746.0,1981525116.8,5526492160.0
sh603217,元利科技,2021-11-30,43.37,43.8,41.4,42.0,43.36,3192560.0,135091983.0,1919373960.0,5353152000.0
sh603217,元利科技,2021-12-01,41.99,43.39,41.33,43.24,42.0,2750720.0,117499925.0,1976041191.1999998,5511197439.999999
sh603217,元利科技,2021-12-02,43.48,44.42,42.36,44.01,43.24,2919495.0,126942409.0,2011229713.8,5609338560.0
sh603217,元利科技,2021-12-03,44.11,47.85,44.1,44.85,44.01,4219623.0,192639214.0,2049617193.0,5716401600.0
sh603217,元利科技,2021-12-06,44.85,47.83,44.8,45.3,44.85,3611124.0,168140494.0,2070181914.0,5773756800.000001
sh603217,元利科技,2021-12-07,45.02,46.7,42.71,42.94,45.3,3037800.0,135168476.0,1962331377.2,5472960640.0
sh603217,元利科技,2021-12-08,43.19,45.59,43.19,44.2,42.94,2444432.0,108745109.0,2019912596.0,5633555200.0
sh603217,元利科技,2021-12-09,44.18,44.77,42.6,43.79,44.2,2361821.0,102836795.0,2001175850.2,5581298240.0
sh603217,元利科技,2021-12-10,43.41,43.95,43.15,43.41,43.79,1115285.0,48374931.0,1983810085.8,5532864960.0
sh603217,元利科技,2021-12-13,43.4,43.6,42.28,42.53,43.41,1864009.0,79879803.0,1943594631.4,5420703680.0
sh603217,元利科技,2021-12-14,42.5,42.7,41.06,41.18,42.53,1962460.0,81586115.0,1881900468.3999999,5358712219.999999
sh603217,元利科技,2021-12-15,41.2,41.81,40.7,41.01,41.18,1408760.0,58000487.0,1874131573.8,5336590290.0
sh603217,元利科技,2021-12-16,41.06,41.76,40.84,41.55,41.01,1286027.0,53320094.0,1898809239.0,5406859950.0
sh603217,元利科技,2021-12-17,41.73,45.71,41.6,45.71,41.55,4748571.0,213907955.0,2088918659.8,5948196590.0
sh603217,元利科技,2021-12-20,45.48,48.96,45.0,46.62,45.71,8291163.0,389600515.0,2130505095.6000001,6066613980.0
sh603217,元利科技,2021-12-21,46.9,48.0,45.51,47.92,46.62,4980260.0,232242759.0,2189914289.6,6235781679.999999
sh603217,元利科技,2021-12-22,47.11,47.81,46.05,47.16,47.92,2718863.0,128300368.0,2155182760.8,6136883639.999999
sh603217,元利科技,2021-12-23,47.49,48.64,46.52,48.12,47.16,3667221.0,175102204.0,2199054165.6,6261807480.0
sh603217,元利科技,2021-12-24,48.1,49.35,47.12,47.2,48.12,2780097.0,133267955.0,2157010736.0,6142088800.0
sh603217,元利科技,2021-12-27,46.65,47.95,46.0,46.29,47.2,2559140.0,119758649.0,2115424300.2,6023671409.999999
sh603217,元利科技,2021-12-28,46.56,46.56,45.1,46.0,46.29,2221740.0,101877186.0,2102171479.9999998,5985934000.0
sh603217,元利科技,2021-12-29,46.28,49.4,45.82,48.55,46.0,3301738.0,158752324.0,2218704899.0,6317762950.0
sh603217,元利科技,2021-12-30,48.14,49.48,47.35,48.19,48.55,2770080.0,133874745.0,2202253122.2,6270916510.0
sh603217,元利科技,2021-12-31,50.38,51.44,49.33,50.68,48.19,3485246.0,176026357.0,2316044578.4,6594937720.0
sh603217,元利科技,2022-01-04,50.76,51.44,48.38,48.43,50.68,2917586.0,144410486.0,2213220973.4,6302147470.0
sh603217,元利科技,2022-01-05,48.88,49.8,46.98,46.98,48.43,2296700.0,110586998.0,2146956872.4,6113460420.0
sh603217,元利科技,2022-01-06,47.88,48.03,46.47,47.35,46.98,1883400.0,88951538.0,2163865643.0,6161608149.999999
sh603217,元利科技,2022-01-07,47.66,48.32,46.5,47.01,47.35,1878880.0,89023658.0,2148327853.7999997,6117364290.0
sh603217,元利科技,2022-01-10,46.66,47.3,45.7,46.9,47.01,1208601.0,56322627.0,2143300922.0000002,6103050100.0
sh603217,元利科技,2022-01-11,46.9,48.66,45.2,45.37,46.9,2787161.0,130903946.0,2073380870.6,5903952730.0
sh603217,元利科技,2022-01-12,45.32,47.25,45.01,47.15,45.37,3213027.0,148802681.0,2154725767.0,6135582350.0
sh603217,元利科技,2022-01-13,47.15,47.35,45.76,45.88,47.15,2406867.0,111320330.0,2096687554.4,5970318520.0
sh603217,元利科技,2022-01-14,45.67,46.17,45.33,45.54,45.88,1327180.0,60618190.0,2081149765.2,5926074660.0
