数据由邢不行整理
股票代码,股票名称,交易日期,开盘价,最高价,最低价,收盘价,前收盘价,成交量,成交额,流通市值,总市值
sh603915,N国茂,2019-06-14,12.42,14.9,12.42,14.9,10.35,163257.0,2427569.0,1257262000.0,6903578260.0
sh603915,国茂股份,2019-06-17,16.39,16.39,16.39,16.39,14.9,110500.0,1811095.0,1382988200.0,7593936086.0
sh603915,国茂股份,2019-06-18,18.03,18.03,18.03,18.03,16.39,346738.0,6251686.0,1521371400.0,8353793022.0
sh603915,国茂股份,2019-06-19,19.83,19.83,19.83,19.83,18.03,349258.0,6925786.0,1673255400.0,9187782342.0
sh603915,国茂股份,2019-06-20,21.81,21.81,21.81,21.81,19.83,2049964.0,44709715.0,1840327800.0,10105170594.0
sh603915,国茂股份,2019-06-21,23.0,23.99,22.2,23.99,21.81,52363658.0,1217695620.0,2024276200.0,11115224326.0
sh603915,国茂股份,2019-06-24,24.6,24.6,22.8,23.1,23.99,42470604.0,994491291.0,1949178000.0,10702862940.0
sh603915,国茂股份,2019-06-25,22.65,24.88,22.63,23.75,23.1,41178269.0,979541958.0,2004025000.0,11004025750.0
sh603915,国茂股份,2019-06-26,22.91,24.5,22.56,24.0,23.75,31856911.0,748637791.0,2025120000.0,11119857600.0
sh603915,国茂股份,2019-06-27,23.63,24.23,23.03,23.91,24.0,27493985.0,650757396.0,2017525800.0,11078158134.0
sh603915,国茂股份,2019-06-28,23.66,24.79,23.11,23.27,23.91,31341000.0,751713347.0,1963522600.0,10781628598.0
sh603915,国茂股份,2019-07-01,23.7,24.88,23.43,24.88,23.27,35677777.0,863981768.0,2099374400.0,11527585712.0
sh603915,国茂股份,2019-07-02,25.29,25.81,23.0,23.0,24.88,36056129.0,866230082.0,1940740000.0,10656530200.0
sh603915,国茂股份,2019-07-03,21.89,21.89,20.7,20.79,23.0,30305786.0,639434447.0,1754260200.0,9632576646.0
sh603915,国茂股份,2019-07-04,20.68,21.02,20.31,20.85,20.79,14391264.0,297312982.0,1759323000.0,9660376290.0
sh603915,国茂股份,2019-07-05,20.78,20.83,20.4,20.48,20.85,10554157.0,217198027.0,1728102400.0,9488945152.0
sh603915,国茂股份,2019-07-08,20.28,20.28,18.72,19.01,20.48,17090246.0,330870871.0,1604063800.0,8807853874.0
sh603915,国茂股份,2019-07-09,19.05,19.14,18.6,18.92,19.01,9271796.0,174441302.0,1596469600.0,8766154408.0
sh603915,国茂股份,2019-07-10,19.02,19.1,18.35,18.53,18.92,8526020.0,160171202.0,1563561400.0,8585456722.0
sh603915,国茂股份,2019-07-11,18.68,18.7,17.63,18.11,18.53,12943495.0,235371450.0,1528121800.0,8390859214.0
sh603915,国茂股份,2019-07-12,18.09,18.8,17.68,18.51,18.11,12925251.0,237016444.0,1561873800.0,8576190174.0
sh603915,国茂股份,2019-07-15,18.21,18.54,17.8,18.36,18.51,8527850.0,155258115.0,1549216800.0,8506691064.0
sh603915,国茂股份,2019-07-16,18.48,19.03,18.48,18.91,18.36,12810879.0,241066528.0,1595625800.0,8761521134.0
sh603915,国茂股份,2019-07-17,18.76,18.76,18.26,18.27,18.91,10409156.0,191868224.0,1541622600.0,8464991598.0
sh603915,国茂股份,2019-07-18,18.1,18.11,17.3,17.35,18.27,10068740.0,177331539.0,1463993000.0,8038730390.0
sh603915,国茂股份,2019-07-19,17.42,17.7,17.35,17.41,17.35,6512140.0,114127032.0,1469055800.0,8066530034.0
sh603915,国茂股份,2019-07-22,17.38,17.5,15.99,16.21,17.41,10375425.0,170362370.0,1367799800.0,7510537154.0
sh603915,国茂股份,2019-07-23,16.3,16.45,16.0,16.35,16.21,5540413.0,90112116.0,1379613000.0,7575402990.0
sh603915,国茂股份,2019-07-24,16.38,16.68,16.34,16.43,16.35,6982814.0,115372819.0,1386363400.0,7612469182.0
sh603915,国茂股份,2019-07-25,16.49,16.78,16.4,16.55,16.43,6673888.0,110817093.0,1396489000.0,7668068470.0
sh603915,国茂股份,2019-07-26,16.38,16.74,16.32,16.56,16.55,4692330.0,77704316.0,1397332800.0,7672701744.0
sh603915,国茂股份,2019-07-29,16.55,17.33,16.4,17.05,16.56,9575648.0,162790270.0,1438679000.0,7899732170.0
sh603915,国茂股份,2019-07-30,16.96,17.2,16.81,16.88,17.05,7712672.0,131217130.0,1424334400.0,7820966512.0
sh603915,国茂股份,2019-07-31,16.85,16.85,16.36,16.5,16.88,7385901.0,122011169.0,1392270000.0,7644902100.0
sh603915,国茂股份,2019-08-01,16.32,16.81,16.26,16.75,16.5,6296046.0,104345584.0,1413365000.0,7760733950.0
sh603915,国茂股份,2019-08-02,16.3,16.75,16.12,16.57,16.75,6990853.0,114754071.0,1398176600.0,7677335018.0
sh603915,国茂股份,2019-08-05,16.57,17.1,16.51,16.88,16.57,8548593.0,143643473.0,1424334400.0,7820966512.0
sh603915,国茂股份,2019-08-06,16.56,17.86,16.31,17.63,16.88,16201742.0,278485060.0,1487619400.0,8168462062.0
sh603915,国茂股份,2019-08-07,17.64,17.75,16.95,16.95,17.63,10653338.0,184770869.0,1430241000.0,7853399430.0
sh603915,国茂股份,2019-08-08,16.73,17.01,16.39,16.47,16.95,7520330.0,124951946.0,1389738600.0,7631002278.0
sh603915,国茂股份,2019-08-09,16.6,16.7,15.9,15.9,16.47,7028584.0,114279462.0,1341642000.0,7366905660.0
sh603915,国茂股份,2019-08-12,16.01,16.11,15.67,16.1,15.9,4516679.0,71974217.0,1358518000.0,7459571140.0
sh603915,国茂股份,2019-08-13,15.97,15.98,15.7,15.73,16.1,4646774.0,73341167.0,1327297400.0,7288140002.0
sh603915,国茂股份,2019-08-14,16.0,16.06,15.66,15.66,15.73,4005237.0,63423435.0,1321390800.0,7255707084.0
sh603915,国茂股份,2019-08-15,15.1,15.45,15.05,15.37,15.66,5022303.0,76473387.0,1296920600.0,7121342138.0
sh603915,国茂股份,2019-08-16,15.25,15.58,15.2,15.34,15.37,4210871.0,65020643.0,1294389200.0,7107442316.0
sh603915,国茂股份,2019-08-19,15.39,15.74,15.38,15.7,15.34,5610554.0,87474324.0,1324766000.0,7274240180.0
sh603915,国茂股份,2019-08-20,15.73,16.07,15.65,15.92,15.7,6985632.0,111091022.0,1343329600.0,7376172208.0
sh603915,国茂股份,2019-08-21,15.92,16.12,15.7,15.84,15.92,5128582.0,81736035.0,1336579200.0,7339106016.0
sh603915,国茂股份,2019-08-22,15.89,15.95,15.51,15.83,15.84,4951178.0,77864404.0,1335735400.0,7334472742.0
sh603915,国茂股份,2019-08-23,15.8,15.95,15.6,15.64,15.83,3821739.0,60296423.0,1319703200.0,7246440536.0
sh603915,国茂股份,2019-08-26,15.29,15.46,15.18,15.46,15.64,3701443.0,56649281.0,1304514800.0,7163041604.0
sh603915,国茂股份,2019-08-27,15.6,16.1,15.55,16.06,15.46,6842547.0,108362683.0,1355142800.0,7441038044.0
sh603915,国茂股份,2019-08-28,16.03,16.3,15.94,16.08,16.06,8176325.0,131730733.0,1356830400.0,7450304592.0
sh603915,国茂股份,2019-08-29,16.12,16.25,15.76,15.79,16.08,5569387.0,88744895.0,1332360200.0,7315939646.0
sh603915,国茂股份,2019-08-30,15.87,15.98,15.63,15.8,15.79,5142889.0,81118161.0,1333204000.0,7320572920.0
sh603915,国茂股份,2019-09-02,15.78,16.8,15.76,16.56,15.8,12546920.0,206118446.0,1397332800.0,7672701744.0
sh603915,国茂股份,2019-09-03,16.46,16.69,16.31,16.52,16.56,8527997.0,140436094.0,1393957600.0,7654168648.0
sh603915,国茂股份,2019-09-04,16.4,16.49,16.1,16.37,16.52,6497102.0,105871073.0,1381300600.0,7584669538.0
sh603915,国茂股份,2019-09-05,16.48,16.63,16.36,16.44,16.37,8049843.0,132596830.0,1387207200.0,7617102456.0
sh603915,国茂股份,2019-09-06,16.4,16.88,16.33,16.83,16.44,10240767.0,169908680.0,1420115400.0,7797800142.0
sh603915,国茂股份,2019-09-09,16.9,17.0,16.75,16.89,16.83,9762675.0,164806060.0,1425178200.0,7825599786.0
sh603915,国茂股份,2019-09-10,16.77,17.1,16.73,16.74,16.89,7933188.0,133686650.0,1412521200.0,7756100676.0
sh603915,国茂股份,2019-09-11,16.71,16.74,16.32,16.34,16.74,7539301.0,124514073.0,1378769200.0,7570769716.0
sh603915,国茂股份,2019-09-12,16.41,16.7,16.38,16.58,16.34,5301168.0,87819971.0,1399020400.0,7681968292.0
sh603915,国茂股份,2019-09-16,16.58,16.66,16.43,16.5,16.58,4378363.0,72430820.0,1392270000.0,7644902100.0
sh603915,国茂股份,2019-09-17,16.55,16.55,16.06,16.33,16.5,5260569.0,85512958.0,1377925400.0,7566136442.0
sh603915,国茂股份,2019-09-18,16.32,16.9,16.25,16.88,16.33,10406052.0,173573303.0,1424334400.0,7820966512.0
sh603915,国茂股份,2019-09-19,16.8,17.35,16.68,17.23,16.88,11938756.0,203188599.0,1453867400.0,7983131102.0
sh603915,国茂股份,2019-09-20,17.17,17.4,16.89,17.06,17.23,8741637.0,149571935.0,1439522800.0,7904365444.0
sh603915,国茂股份,2019-09-23,17.0,17.01,16.55,16.72,17.06,5348677.0,89387597.0,1410833600.0,7746834128.0
sh603915,国茂股份,2019-09-24,16.78,16.79,16.55,16.57,16.72,4997105.0,83151854.0,1398176600.0,7677335018.0
sh603915,国茂股份,2019-09-25,16.44,17.45,16.32,17.21,16.57,11857875.0,201093945.0,1452179800.0,7973864554.0
sh603915,国茂股份,2019-09-26,17.25,17.67,16.92,16.96,17.21,17866695.0,310064489.0,1431084800.0,7858032704.0
sh603915,国茂股份,2019-09-27,16.97,17.65,16.38,17.59,16.96,16769718.0,289712724.0,1484244200.0,8149928966.0
sh603915,国茂股份,2019-09-30,17.46,18.24,17.28,17.67,17.59,14752860.0,262453478.0,1490994600.0,8186995158.0
sh603915,国茂股份,2019-10-08,17.6,18.18,17.32,18.16,17.67,12919533.0,230283394.0,1532340800.0,8414025584.0
sh603915,国茂股份,2019-10-09,17.98,18.39,17.71,17.91,18.16,11753163.0,211555078.0,1511245800.0,8298193734.0
sh603915,国茂股份,2019-10-10,17.81,17.95,17.34,17.94,17.91,11337155.0,199501384.0,1513777200.0,8312093556.0
sh603915,国茂股份,2019-10-11,17.78,18.45,17.59,18.08,17.94,14545279.0,263566470.0,1525590400.0,8376959392.0
sh603915,国茂股份,2019-10-14,18.15,18.35,17.8,18.18,18.08,12025414.0,217682336.0,1534028400.0,8423292132.0
sh603915,国茂股份,2019-10-15,18.12,18.13,17.36,17.65,18.18,9318544.0,165383642.0,1489307000.0,8177728610.0
sh603915,国茂股份,2019-10-16,17.66,17.76,17.2,17.21,17.65,6338293.0,110389422.0,1452179800.0,7973864554.0
sh603915,国茂股份,2019-10-17,17.21,17.38,17.05,17.3,17.21,4472871.0,76928814.0,1459774000.0,8015564020.0
sh603915,国茂股份,2019-10-18,17.31,17.34,16.0,16.36,17.3,9036179.0,150901859.0,1380456800.0,7580036264.0
sh603915,国茂股份,2019-10-21,16.28,16.28,15.69,15.9,16.36,6246771.0,99199482.0,1341642000.0,7366905660.0
sh603915,国茂股份,2019-10-22,15.9,15.98,15.73,15.89,15.9,3337108.0,52814907.0,1340798200.0,7362272386.0
sh603915,国茂股份,2019-10-23,15.89,16.06,15.72,15.99,15.89,3567080.0,56759503.0,1349236200.0,7408605126.0
sh603915,国茂股份,2019-10-24,16.01,16.18,15.91,16.03,15.99,2754469.0,44172795.0,1352611400.0,7427138222.0
sh603915,国茂股份,2019-10-25,16.0,16.03,15.62,15.86,16.03,3430300.0,54218661.0,1338266800.0,7348372564.0
sh603915,国茂股份,2019-10-28,15.61,15.94,15.56,15.93,15.86,2931857.0,46354359.0,1344173400.0,7380805482.0
sh603915,国茂股份,2019-10-29,15.94,16.1,15.72,15.81,15.93,3360400.0,53525635.0,1334047800.0,7325206194.0
sh603915,国茂股份,2019-10-30,15.8,15.8,15.43,15.5,15.81,2987551.0,46490156.0,1307890000.0,7181574700.0
sh603915,国茂股份,2019-10-31,15.44,15.59,15.08,15.1,15.5,2778433.0,42526567.0,1274138000.0,6996243740.0
sh603915,国茂股份,2019-11-01,15.05,15.29,14.82,15.2,15.1,2105337.0,31719111.0,1282576000.0,7042576480.0
sh603915,国茂股份,2019-11-04,15.19,15.29,15.09,15.12,15.2,1654323.0,25132438.0,1275825600.0,7005510288.0
sh603915,国茂股份,2019-11-05,15.1,15.4,15.06,15.23,15.12,2019087.0,30836386.0,1285107400.0,7056476302.0
sh603915,国茂股份,2019-11-06,15.23,15.28,14.92,14.96,15.23,2473102.0,37238744.0,1262324800.0,6931377904.0
sh603915,国茂股份,2019-11-07,15.1,15.1,14.74,14.84,14.96,2612146.0,38827762.0,1252199200.0,6875778616.0
sh603915,国茂股份,2019-11-08,14.93,15.04,14.76,14.92,14.84,2083014.0,31013401.0,1258949600.0,6912844808.0
sh603915,国茂股份,2019-11-11,14.88,14.88,14.31,14.32,14.92,2544160.0,36881701.0,1208321600.0,6634848368.0
sh603915,国茂股份,2019-11-12,14.31,14.58,14.3,14.55,14.32,1816911.0,26235917.0,1227729000.0,6741413670.0
sh603915,国茂股份,2019-11-13,14.49,14.59,14.37,14.48,14.55,1198300.0,17339581.0,1221822400.0,6708980752.0
sh603915,国茂股份,2019-11-14,14.45,14.54,14.33,14.5,14.48,1469046.0,21247616.0,1223510000.0,6718247300.0
sh603915,国茂股份,2019-11-15,14.55,14.55,14.32,14.32,14.5,1593560.0,22952785.0,1208321600.0,6634848368.0
sh603915,国茂股份,2019-11-18,14.37,14.62,14.35,14.57,14.32,1812578.0,26350712.0,1229416600.0,6750680218.0
sh603915,国茂股份,2019-11-19,14.53,14.94,14.51,14.89,14.57,2602348.0,38588712.0,1256418200.0,6898944986.0
sh603915,国茂股份,2019-11-20,14.89,14.9,14.65,14.72,14.89,2076470.0,30597859.0,1242073600.0,6820179328.0
sh603915,国茂股份,2019-11-21,14.67,14.76,14.55,14.66,14.72,1374246.0,20109434.0,1237010800.0,6792379684.0
sh603915,国茂股份,2019-11-22,14.68,14.72,14.36,14.41,14.66,1960882.0,28448869.0,1215915800.0,6676547834.0
sh603915,国茂股份,2019-11-25,14.43,14.53,14.21,14.31,14.41,1641322.0,23448326.0,1207477800.0,6630215094.0
sh603915,国茂股份,2019-11-26,14.3,15.68,14.21,14.88,14.31,4892845.0,72632849.0,1255574400.0,6894311712.0
sh603915,国茂股份,2019-11-27,14.8,14.96,14.57,14.6,14.88,3192823.0,47026419.0,1231948000.0,6764580040.0
sh603915,国茂股份,2019-11-28,14.48,14.5,14.31,14.31,14.6,2027324.0,29177832.0,1207477800.0,6630215094.0
sh603915,国茂股份,2019-11-29,14.36,14.7,14.27,14.55,14.31,1785908.0,25902842.0,1227729000.0,6741413670.0
sh603915,国茂股份,2019-12-02,14.54,14.62,14.43,14.47,14.55,1303072.0,18926343.0,1220978600.0,6704347478.0
sh603915,国茂股份,2019-12-03,14.42,14.54,14.3,14.51,14.47,1467976.0,21148743.0,1224353800.0,6722880574.0
sh603915,国茂股份,2019-12-04,14.48,14.61,14.41,14.57,14.51,1357680.0,19720597.0,1229416600.0,6750680218.0
sh603915,国茂股份,2019-12-05,14.54,14.73,14.54,14.69,14.57,1846770.0,27073327.0,1239542200.0,6806279506.0
sh603915,国茂股份,2019-12-06,14.69,14.74,14.57,14.64,14.69,1617151.0,23690307.0,1235323200.0,6783113136.0
sh603915,国茂股份,2019-12-09,14.67,14.76,14.63,14.67,14.64,1407051.0,20679693.0,1237854600.0,6797012958.0
sh603915,国茂股份,2019-12-10,14.69,14.99,14.66,14.88,14.67,2573574.0,38258255.0,1255574400.0,6894311712.0
sh603915,国茂股份,2019-12-11,14.85,14.87,14.66,14.7,14.88,1907223.0,28118949.0,1240386000.0,6810912780.0
sh603915,国茂股份,2019-12-12,14.72,14.74,14.42,14.46,14.7,2227200.0,32413745.0,1220134800.0,6699714204.0
sh603915,国茂股份,2019-12-13,14.57,14.63,14.5,14.61,14.46,1477614.0,21525422.0,1232791800.0,6769213314.0
sh603915,国茂股份,2019-12-16,14.7,14.86,14.61,14.86,14.61,2128970.0,31439164.0,1253886800.0,6885045164.0
sh603915,国茂股份,2019-12-17,14.91,15.02,14.78,14.95,14.86,3149660.0,46962839.0,1261481000.0,6926744630.0
sh603915,国茂股份,2019-12-18,14.94,15.14,14.89,15.09,14.95,3149521.0,47369161.0,1273294200.0,6991610466.0
sh603915,国茂股份,2019-12-19,15.09,15.26,15.03,15.13,15.09,3600942.0,54513448.0,1276669400.0,7010143562.0
sh603915,国茂股份,2019-12-20,15.08,15.33,14.91,14.92,15.13,4141593.0,62805324.0,1258949600.0,6912844808.0
sh603915,国茂股份,2019-12-23,14.92,15.3,14.83,15.07,14.92,5593787.0,84747953.0,1271606600.0,6982343918.0
sh603915,国茂股份,2019-12-24,15.01,15.27,14.89,15.21,15.07,3875169.0,58458571.0,1283419800.0,7047209754.0
sh603915,国茂股份,2019-12-25,15.2,15.29,15.03,15.07,15.21,2671587.0,40464519.0,1271606600.0,6982343918.0
sh603915,国茂股份,2019-12-26,15.05,15.26,15.02,15.13,15.07,2731987.0,41394185.0,1276669400.0,7010143562.0
sh603915,国茂股份,2019-12-27,15.08,15.26,15.02,15.03,15.13,2956085.0,44767537.0,1268231400.0,6963810822.0
sh603915,国茂股份,2019-12-30,14.88,14.88,14.49,14.73,15.03,3423022.0,50232371.0,1242917400.0,6824812602.0
sh603915,国茂股份,2019-12-31,14.71,14.81,14.71,14.78,14.73,1718038.0,25342621.0,1247136400.0,6847978972.0
sh603915,国茂股份,2020-01-02,14.9,15.14,14.82,15.01,14.78,2737567.0,41043209.0,1266543800.0,6954544274.0
sh603915,国茂股份,2020-01-03,15.0,15.15,14.92,15.08,15.01,2541862.0,38202201.0,1272450400.0,6986977192.0
sh603915,国茂股份,2020-01-06,15.03,15.22,14.92,15.14,15.08,2919144.0,44122684.0,1277513200.0,7014776836.0
sh603915,国茂股份,2020-01-07,15.19,15.2,15.1,15.2,15.14,2847178.0,43167741.0,1282576000.0,7042576480.0
sh603915,国茂股份,2020-01-08,15.17,15.27,14.93,14.93,15.2,3272300.0,49430820.0,1259793400.0,6917478082.0
sh603915,国茂股份,2020-01-09,15.01,15.23,15.01,15.22,14.93,2444420.0,37009925.0,1284263600.0,7051843028.0
sh603915,国茂股份,2020-01-10,15.25,15.29,15.08,15.15,15.22,2087100.0,31618303.0,1278357000.0,7019410110.0
sh603915,国茂股份,2020-01-13,15.22,15.78,15.08,15.5,15.15,5264550.0,81285815.0,1307890000.0,7181574700.0
sh603915,国茂股份,2020-01-14,15.41,15.57,15.3,15.31,15.5,3244113.0,49998235.0,1291857800.0,7093542494.0
sh603915,国茂股份,2020-01-15,15.29,15.31,15.13,15.17,15.31,1804670.0,27433807.0,1280044600.0,7028676658.0
sh603915,国茂股份,2020-01-16,15.18,15.27,15.03,15.04,15.17,1816000.0,27454151.0,1269075200.0,6968444096.0
sh603915,国茂股份,2020-01-17,14.99,15.11,14.97,14.98,15.04,1568582.0,23572015.0,1264012400.0,6940644452.0
sh603915,国茂股份,2020-01-20,15.01,15.04,14.92,15.02,14.98,1604800.0,24042803.0,1267387600.0,6959177548.0
sh603915,国茂股份,2020-01-21,14.98,14.99,14.65,14.66,15.02,2775800.0,40985052.0,1237010800.0,6792379684.0
sh603915,国茂股份,2020-01-22,14.58,14.9,14.55,14.7,14.66,1460335.0,21525492.0,1240386000.0,6810912780.0
sh603915,国茂股份,2020-01-23,14.7,14.73,14.3,14.42,14.7,2168286.0,31387613.0,1216759600.0,6681181108.0
sh603915,国茂股份,2020-02-03,12.98,12.98,12.98,12.98,14.42,479900.0,6229102.0,1095252400.0,6013989652.0
sh603915,国茂股份,2020-02-04,12.1,12.55,11.71,12.18,12.98,4405423.0,53765243.0,1027748400.0,5643327732.0
sh603915,国茂股份,2020-02-05,12.1,12.56,12.1,12.35,12.18,2755033.0,34063888.0,1042093000.0,5722093390.0
sh603915,国茂股份,2020-02-06,12.43,12.78,12.26,12.6,12.35,3237492.0,40370274.0,1063188000.0,5837925240.0
sh603915,国茂股份,2020-02-07,12.53,12.63,12.38,12.54,12.6,2499100.0,31221128.0,1058125200.0,5810125596.0
sh603915,国茂股份,2020-02-10,12.55,12.85,12.43,12.82,12.54,2994210.0,38058117.0,1081751600.0,5939857268.0
sh603915,国茂股份,2020-02-11,12.9,13.02,12.69,12.81,12.82,2352072.0,30220065.0,1080907800.0,5935223994.0
sh603915,国茂股份,2020-02-12,12.72,13.05,12.72,12.97,12.81,2435417.0,31408294.0,1094408600.0,6009356378.0
sh603915,国茂股份,2020-02-13,12.92,13.03,12.62,12.68,12.97,2866903.0,36669402.0,1069938400.0,5874991432.0
sh603915,国茂股份,2020-02-14,12.68,12.76,12.5,12.55,12.68,2407969.0,30393191.0,1058969000.0,5814758870.0
sh603915,国茂股份,2020-02-17,12.56,13.1,12.56,13.04,12.55,3721925.0,48141169.0,1100315200.0,6041789296.0
sh603915,国茂股份,2020-02-18,13.03,13.34,12.97,13.33,13.04,3593657.0,47432876.0,1124785400.0,6176154242.0
sh603915,国茂股份,2020-02-19,13.33,13.38,13.2,13.21,13.33,2724259.0,36154313.0,1114659800.0,6120554954.0
sh603915,国茂股份,2020-02-20,13.32,13.37,13.06,13.33,13.21,3048435.0,40386153.0,1124785400.0,6176154242.0
sh603915,国茂股份,2020-02-21,13.25,13.68,13.25,13.46,13.33,3777459.0,50986456.0,1135754800.0,6236386804.0
sh603915,国茂股份,2020-02-24,13.47,13.48,13.22,13.38,13.46,3025757.0,40356744.0,1129004400.0,6199320612.0
sh603915,国茂股份,2020-02-25,13.04,13.25,12.79,13.24,13.38,4113597.0,53711916.0,1117191200.0,6134454776.0
sh603915,国茂股份,2020-02-26,13.03,13.4,13.03,13.11,13.24,3115296.0,41191019.0,1106221800.0,6074222214.0
sh603915,国茂股份,2020-02-27,13.17,13.3,13.08,13.11,13.11,2142400.0,28232139.0,1106221800.0,6074222214.0
sh603915,国茂股份,2020-02-28,12.85,12.93,12.3,12.31,13.11,4782100.0,60179946.0,1038717800.0,5703560294.0
sh603915,国茂股份,2020-03-02,12.39,12.82,12.39,12.78,12.31,2536221.0,31995267.0,1078376400.0,5921324172.0
sh603915,国茂股份,2020-03-03,12.88,13.05,12.76,12.91,12.78,3128673.0,40480375.0,1089345800.0,5981556734.0
sh603915,国茂股份,2020-03-04,12.87,13.33,12.62,13.27,12.91,4941359.0,64805124.0,1119722600.0,6148354598.0
sh603915,国茂股份,2020-03-05,13.45,14.6,13.32,14.6,13.27,9780353.0,137922697.0,1231948000.0,6764580040.0
sh603915,国茂股份,2020-03-06,14.95,16.0,14.71,15.28,14.6,24652370.0,378506250.0,1289326400.0,7079642672.0
sh603915,国茂股份,2020-03-09,14.95,15.99,14.17,15.65,15.28,23362202.0,352053373.0,1320547000.0,7251073810.0
sh603915,国茂股份,2020-03-10,15.0,15.33,14.25,14.96,15.65,14967386.0,223206523.0,1262324800.0,6931377904.0
sh603915,国茂股份,2020-03-11,14.61,15.32,14.6,15.25,14.96,13172209.0,197743954.0,1286795000.0,7065742850.0
sh603915,国茂股份,2020-03-12,14.9,15.2,14.29,14.36,15.25,9171703.0,134905971.0,1211696800.0,6653381464.0
sh603915,国茂股份,2020-03-13,13.3,13.82,13.2,13.6,14.36,7938863.0,107264939.0,1147568000.0,6301252640.0
sh603915,国茂股份,2020-03-16,13.82,13.87,12.82,12.88,13.6,6473915.0,86729744.0,1086814400.0,5967656912.0
sh603915,国茂股份,2020-03-17,12.81,13.16,12.4,12.91,12.88,4997572.0,63720013.0,1089345800.0,5981556734.0
sh603915,国茂股份,2020-03-18,13.1,13.14,12.6,12.6,12.91,4139073.0,53346516.0,1063188000.0,5837925240.0
sh603915,国茂股份,2020-03-19,12.57,12.71,12.29,12.63,12.6,3446420.0,43142629.0,1065719400.0,5851825062.0
sh603915,国茂股份,2020-03-20,12.73,12.98,12.66,12.82,12.63,3063200.0,39213084.0,1081751600.0,5939857268.0
sh603915,国茂股份,2020-03-23,12.4,12.78,12.4,12.51,12.82,2596200.0,32664711.0,1055593800.0,5796225774.0
sh603915,国茂股份,2020-03-24,12.71,13.14,12.47,13.08,12.51,3479806.0,44456846.0,1103690400.0,6060322392.0
sh603915,国茂股份,2020-03-25,13.24,13.34,13.1,13.16,13.08,3651326.0,48171182.0,1110440800.0,6097388584.0
sh603915,国茂股份,2020-03-26,13.15,13.16,12.7,12.78,13.16,3142509.0,40458309.0,1078376400.0,5921324172.0
sh603915,国茂股份,2020-03-27,12.92,12.99,12.75,12.75,12.78,2223050.0,28594137.0,1075845000.0,5907424350.0
sh603915,国茂股份,2020-03-30,12.52,12.65,12.18,12.36,12.75,2828263.0,34890940.0,1042936800.0,5726726664.0
sh603915,国茂股份,2020-03-31,12.44,12.49,12.25,12.28,12.36,2015185.0,24925185.0,1036186400.0,5689660472.0
sh603915,国茂股份,2020-04-01,12.29,12.4,12.16,12.19,12.28,1554510.0,19081971.0,1028592200.0,5647961006.0
sh603915,国茂股份,2020-04-02,12.19,12.37,12.16,12.36,12.19,1474087.0,18101772.0,1042936800.0,5726726664.0
sh603915,国茂股份,2020-04-03,12.36,12.67,12.32,12.4,12.36,2297943.0,28673886.0,1046312000.0,5745259760.0
sh603915,国茂股份,2020-04-07,12.58,12.69,12.5,12.66,12.4,2241002.0,28285703.0,1068250800.0,5865724884.0
sh603915,国茂股份,2020-04-08,12.63,12.83,12.58,12.72,12.66,2189433.0,27739836.0,1073313600.0,5893524528.0
sh603915,国茂股份,2020-04-09,12.8,13.99,12.7,13.42,12.72,11966660.0,163676743.0,1132379600.0,6217853708.0
sh603915,国茂股份,2020-04-10,12.91,13.19,12.7,12.85,13.42,7668785.0,99446301.0,1084283000.0,5953757090.0
sh603915,国茂股份,2020-04-13,12.75,13.21,12.75,13.12,12.85,3671780.0,47703746.0,1107065600.0,6078855488.0
sh603915,国茂股份,2020-04-14,13.09,13.21,13.01,13.13,13.12,3201000.0,41938416.0,1107909400.0,6083488762.0
sh603915,国茂股份,2020-04-15,13.12,13.17,12.85,12.86,13.13,3278358.0,42574925.0,1085126800.0,5958390364.0
sh603915,国茂股份,2020-04-16,12.83,12.94,12.7,12.87,12.86,1816300.0,23343662.0,1085970600.0,5963023638.0
sh603915,国茂股份,2020-04-17,12.8,12.99,12.78,12.82,12.87,2133222.0,27510913.0,1081751600.0,5939857268.0
sh603915,国茂股份,2020-04-20,12.81,13.88,12.81,13.44,12.82,7821421.0,105499754.0,1134067200.0,6227120256.0
sh603915,国茂股份,2020-04-21,13.53,13.66,13.32,13.53,13.44,4474690.0,60315956.0,1141661400.0,6268819722.0
sh603915,国茂股份,2020-04-22,13.55,13.65,13.26,13.36,13.53,4577923.0,61375648.0,1127316800.0,6190054064.0
sh603915,国茂股份,2020-04-23,13.48,13.49,13.03,13.05,13.36,3013022.0,39799222.0,1101159000.0,6046422570.0
sh603915,国茂股份,2020-04-24,13.04,13.85,12.9,13.68,13.05,7230005.0,96851991.0,1154318400.0,6338318832.0
sh603915,国茂股份,2020-04-27,13.7,14.25,13.56,13.81,13.68,6549775.0,90906121.0,1165287800.0,6398551394.0
sh603915,国茂股份,2020-04-28,13.6,13.65,12.9,13.22,13.81,5638084.0,74543449.0,1115503600.0,6125188228.0
sh603915,国茂股份,2020-04-29,13.15,13.36,13.0,13.08,13.22,3054670.0,40085710.0,1103690400.0,6060322392.0
sh603915,国茂股份,2020-04-30,13.06,13.5,13.06,13.29,13.08,2968409.0,39355335.0,1121410200.0,6157621146.0
sh603915,国茂股份,2020-05-06,13.21,13.45,13.09,13.4,13.29,3011683.0,40110438.0,1130692000.0,6208587160.0
sh603915,国茂股份,2020-05-07,13.47,13.51,13.2,13.21,13.4,3343900.0,44532895.0,1114659800.0,6120554954.0
sh603915,国茂股份,2020-05-08,13.25,13.56,13.25,13.51,13.21,3931633.0,52792450.0,1139973800.0,6259553174.0
sh603915,国茂股份,2020-05-11,13.52,13.69,13.36,13.47,13.51,3037108.0,40934236.0,1136598600.0,6241020078.0
sh603915,国茂股份,2020-05-12,13.48,14.05,13.47,13.76,13.47,6521259.0,89678332.0,1161068800.0,6375385024.0
sh603915,国茂股份,2020-05-13,13.65,13.88,13.55,13.83,13.76,4091641.0,56243576.0,1166975400.0,6407817942.0
sh603915,国茂股份,2020-05-14,13.63,14.42,13.61,14.0,13.83,8519392.0,120480939.0,1181320000.0,6486583600.0
sh603915,国茂股份,2020-05-15,13.95,14.35,13.77,13.78,14.0,5192301.0,72616040.0,1162756400.0,6384651572.0
sh603915,国茂股份,2020-05-18,13.85,13.85,13.49,13.55,13.78,3527157.0,47907399.0,1143349000.0,6278086270.0
sh603915,国茂股份,2020-05-19,13.52,13.68,13.51,13.63,13.55,2587000.0,35174856.0,1150099400.0,6315152462.0
sh603915,国茂股份,2020-05-20,13.63,13.63,13.27,13.3,13.63,3438600.0,45968770.0,1122254000.0,6162254420.0
sh603915,国茂股份,2020-05-21,13.37,13.39,12.86,12.9,13.3,3590912.0,46954837.0,1088502000.0,5976923460.0
sh603915,国茂股份,2020-05-22,12.9,13.02,12.62,12.79,12.9,1862019.0,23827973.0,1079220200.0,5925957446.0
sh603915,国茂股份,2020-05-25,12.8,12.94,12.75,12.9,12.79,1079800.0,13886718.0,1088502000.0,5976923460.0
sh603915,国茂股份,2020-05-26,12.9,13.07,12.86,13.04,12.9,1219965.0,15844058.0,1100315200.0,6041789296.0
sh603915,国茂股份,2020-05-27,13.09,13.09,12.74,12.8,13.04,1499800.0,19303346.0,1080064000.0,5930590720.0
sh603915,国茂股份,2020-05-28,12.89,13.03,12.78,12.94,12.8,1370582.0,17687724.0,1091877200.0,5995456556.0
sh603915,国茂股份,2020-05-29,12.86,13.0,12.86,12.95,12.94,956500.0,12361548.0,1092721000.0,6000089830.0
sh603915,国茂股份,2020-06-01,13.0,13.27,13.0,13.2,12.95,1984212.0,26162687.0,1113816000.0,6115921680.0
sh603915,国茂股份,2020-06-02,13.26,13.35,13.16,13.31,13.2,1612119.0,21413512.0,1123097800.0,6166887694.0
sh603915,国茂股份,2020-06-03,13.36,13.44,13.24,13.34,13.31,1965108.0,26241313.0,1125629200.0,6180787516.0
sh603915,XD国茂股,2020-06-04,13.21,13.22,12.89,12.89,13.14,1582877.0,20534003.0,1087658200.0,5972290186.0
sh603915,国茂股份,2020-06-05,12.95,13.06,12.82,13.03,12.89,1264400.0,16374825.0,1099471400.0,6037156022.0
sh603915,国茂股份,2020-06-08,13.03,13.49,13.03,13.28,13.03,2790512.0,37107993.0,1120566400.0,6152987872.0
sh603915,国茂股份,2020-06-09,13.2,13.43,12.98,13.04,13.28,2335860.0,30801520.0,1100315200.0,6041789296.0
sh603915,国茂股份,2020-06-10,13.04,13.05,12.68,12.72,13.04,2320048.0,29732155.0,1073313600.0,5893524528.0
sh603915,国茂股份,2020-06-11,12.68,12.93,12.67,12.81,12.72,1462848.0,18732334.0,1080907800.0,5935223994.0
sh603915,国茂股份,2020-06-12,12.61,12.86,12.48,12.83,12.81,1640734.0,20834604.0,1082595400.0,5944490542.0
sh603915,国茂股份,2020-06-15,12.83,13.19,12.78,13.12,12.83,2916109.0,38114402.0,1639047488.0,6078855488.0
sh603915,国茂股份,2020-06-16,13.19,13.38,13.09,13.2,13.12,3238851.0,42940461.0,1649041680.0,6115921679.999999
sh603915,国茂股份,2020-06-17,13.19,13.27,13.04,13.08,13.2,1797864.0,23629982.0,1634050392.0,6060322392.0
sh603915,国茂股份,2020-06-18,13.16,13.38,13.08,13.36,13.08,3017710.0,40104844.0,1669030064.0000002,6190054064.0
sh603915,国茂股份,2020-06-19,13.3,13.59,13.23,13.36,13.36,3975110.0,53470688.0,1669030064.0000002,6190054064.0
sh603915,国茂股份,2020-06-22,13.39,13.72,13.39,13.71,13.36,4972626.0,67640824.0,1712754653.9999998,6352218654.0
sh603915,国茂股份,2020-06-23,13.71,13.85,13.57,13.68,13.71,3287370.0,45077789.0,1709006832.0,6338318832.0
sh603915,国茂股份,2020-06-24,13.76,13.84,13.61,13.83,13.68,3707606.0,51008218.0,1727745942.0,6407817942.0
sh603915,国茂股份,2020-06-29,13.73,14.49,13.73,14.36,13.83,8311158.0,118522145.0,1793957464.0,6653381464.0
sh603915,国茂股份,2020-06-30,14.58,15.39,14.58,15.37,14.36,11574407.0,175047137.0,1920134138.0,7121342138.0
sh603915,国茂股份,2020-07-01,15.4,16.3,15.38,15.95,15.37,13951215.0,222371725.0,1992592030.0,7390072030.0
sh603915,国茂股份,2020-07-02,16.28,16.29,15.24,15.61,15.95,11238651.0,175650286.0,1950116714.0,7232540714.0
sh603915,国茂股份,2020-07-03,15.56,15.76,15.25,15.58,15.61,5691296.0,88282826.0,1946368892.0,7218640892.0
sh603915,国茂股份,2020-07-06,15.5,15.99,15.42,15.85,15.58,8551804.0,135228167.0,1980099290.0,7343739290.0
sh603915,国茂股份,2020-07-07,15.83,16.5,15.83,15.93,15.85,7444287.0,120097747.0,1990093482.0,7380805482.0
sh603915,国茂股份,2020-07-08,15.94,17.52,15.94,17.52,15.93,12950895.0,220894335.0,2188728048.0,8117496048.0
sh603915,国茂股份,2020-07-09,17.88,18.38,17.68,17.95,17.52,10877996.0,194779594.0,2242446830.0,8316726830.0
sh603915,国茂股份,2020-07-10,18.18,18.74,17.46,18.44,17.95,9325882.0,168166563.0,2303661256.0,8543757256.0
sh603915,国茂股份,2020-07-13,18.98,18.98,18.0,18.25,18.44,10434165.0,189728629.0,2279925050.0,8455725050.0
sh603915,国茂股份,2020-07-14,18.1,18.82,17.92,18.75,18.25,8305588.0,152167213.0,2342388750.0,8687388750.0
sh603915,国茂股份,2020-07-15,18.71,19.22,18.59,18.84,18.75,7165882.0,135413947.0,2353632216.0,8729088216.0
sh603915,国茂股份,2020-07-16,18.95,19.09,16.96,17.02,18.84,11246918.0,201756531.0,2126264348.0,7885832348.0
sh603915,国茂股份,2020-07-17,17.02,18.12,16.52,17.67,17.02,9560550.0,168262183.0,2207467158.0,8186995158.000001
sh603915,国茂股份,2020-07-20,18.04,19.44,18.04,19.44,17.67,10768550.0,207122033.0,2428588656.0,9007084656.0
sh603915,国茂股份,2020-07-21,20.05,21.38,20.05,21.38,19.44,15586019.0,326302491.0,2670947812.0000005,9905939812.0
sh603915,国茂股份,2020-07-22,21.9,22.3,20.85,21.48,21.38,17661292.0,380599286.0,2683440552.0,9952272552.0
sh603915,国茂股份,2020-07-23,21.32,21.47,19.77,20.62,21.48,16239769.0,332073427.0,2576002988.0,9553810988.0
sh603915,国茂股份,2020-07-24,20.65,20.88,19.48,19.51,20.62,9203779.0,184780916.0,2437333574.0,9039517574.0
sh603915,国茂股份,2020-07-27,19.83,20.85,19.8,20.34,19.51,10577201.0,215988146.0,2541023316.0,9424079316.0
sh603915,国茂股份,2020-07-28,20.8,20.99,19.94,20.38,20.34,5382811.0,109046071.0,2546020412.0,9442612412.0
sh603915,国茂股份,2020-07-29,20.04,21.34,19.9,21.15,20.38,7958266.0,165065404.0,2642214510.0,9799374510.0
sh603915,国茂股份,2020-07-30,21.15,21.43,20.6,21.22,21.15,5810582.0,121929346.0,2650959428.0,9831807428.0
sh603915,国茂股份,2020-07-31,21.05,21.91,20.8,21.51,21.22,5254996.0,112956159.0,2687188374.0,9966172374.0
sh603915,国茂股份,2020-08-03,22.05,23.38,22.05,22.87,21.51,8286925.0,189299415.0,2857089638.0000005,10596297638.0
sh603915,国茂股份,2020-08-04,23.2,24.17,22.28,22.7,22.87,8611643.0,198518513.0,2835851979.9999995,10517531980.0
sh603915,国茂股份,2020-08-05,23.0,23.88,22.48,23.1,22.7,8056936.0,185080856.0,2885822940.0,10702862940.0
sh603915,国茂股份,2020-08-06,22.91,23.7,22.7,23.61,23.1,6680051.0,154967351.0,2949535913.9999995,10939159914.0
sh603915,国茂股份,2020-08-07,23.5,23.8,22.6,23.3,23.61,4766647.0,110121251.0,2910808420.0,10795528420.0
sh603915,国茂股份,2020-08-10,22.9,23.67,22.71,23.38,23.3,4348673.0,100925352.0,2920802612.0,10832594612.0
sh603915,国茂股份,2020-08-11,23.61,23.88,22.6,22.68,23.38,5016573.0,116247492.0,2833353432.0,10508265432.0
sh603915,国茂股份,2020-08-12,22.6,22.9,21.4,22.03,22.68,7555615.0,165733946.0,2752150622.0,10207102622.0
sh603915,国茂股份,2020-08-13,22.96,22.96,20.25,20.87,22.03,9262276.0,194807130.0,2607234838.0,9669642838.0
sh603915,国茂股份,2020-08-14,20.94,21.16,20.02,20.91,20.87,7245197.0,148972895.0,2612231934.0,9688175934.0
sh603915,国茂股份,2020-08-17,20.63,21.39,20.62,21.21,20.91,4193376.0,88718316.0,2649710153.9999995,9827174154.0
sh603915,国茂股份,2020-08-18,21.38,22.8,21.26,22.31,21.21,7503225.0,166727998.0,2787130294.0,10336834294.0
sh603915,国茂股份,2020-08-19,22.25,23.52,21.83,23.29,22.31,5524252.0,127548099.0,2909559146.0,10790895146.000002
sh603915,国茂股份,2020-08-20,23.2,23.46,22.2,22.27,23.29,4354018.0,98558811.0,2782133198.0,10318301198.0
sh603915,国茂股份,2020-08-21,22.65,22.99,21.89,22.22,22.27,2943240.0,65758018.0,2775886828.0,10295134828.0
sh603915,国茂股份,2020-08-24,22.61,24.44,22.61,23.57,22.22,9506921.0,226997351.0,2944538817.9999995,10920626817.999998
sh603915,国茂股份,2020-08-25,23.8,23.93,23.07,23.13,23.57,5617959.0,131711630.0,2889570762.0,10716762762.0
sh603915,国茂股份,2020-08-26,24.0,24.12,23.16,23.3,23.13,5073769.0,119194991.0,2910808420.0,10795528420.0
sh603915,国茂股份,2020-08-27,23.41,24.23,23.41,24.16,23.3,5681461.0,135367769.0,3018245984.0,11193989984.0
sh603915,国茂股份,2020-08-28,24.35,24.8,22.69,23.23,24.16,12890873.0,302862665.0,2902063502.0,10763095502.0
sh603915,国茂股份,2020-08-31,23.75,25.52,23.68,24.79,23.23,11910123.0,296054639.0,3096950246.0,11485886246.0
sh603915,国茂股份,2020-09-01,24.92,25.48,24.7,25.21,24.79,6267326.0,157430178.0,3149419754.0,11680483754.0
sh603915,国茂股份,2020-09-02,25.39,27.05,25.31,26.79,25.21,8277946.0,218578002.0,3346805046.0,12412541046.0
sh603915,国茂股份,2020-09-03,27.0,27.32,26.5,26.75,26.79,5156300.0,138757139.0,3341807950.0,12394007950.0
sh603915,国茂股份,2020-09-04,26.5,26.99,25.89,26.5,26.75,4894569.0,129105487.0,3310576100.0,12278176100.000002
sh603915,国茂股份,2020-09-07,27.2,27.82,25.71,26.0,26.5,5623342.0,150023023.0,3248112400.0,12046512400.0
sh603915,国茂股份,2020-09-08,26.2,26.32,24.41,24.72,26.0,6688196.0,168371400.0,3088205328.0,11453453328.0
sh603915,国茂股份,2020-09-09,24.67,24.9,23.5,24.05,24.72,6156709.0,148899106.0,3004503970.0,11143023970.000002
sh603915,国茂股份,2020-09-10,24.54,24.91,23.8,23.93,24.05,4939615.0,120430505.0,2989512682.0,11087424682.0
sh603915,国茂股份,2020-09-11,23.93,24.45,23.47,24.26,23.93,3281943.0,78781175.0,3030738724.0,11240322723.999998
sh603915,国茂股份,2020-09-14,24.46,25.78,24.23,25.05,24.26,4426657.0,111352106.0,3129431370.0,11606351370.000002
sh603915,国茂股份,2020-09-15,25.17,25.17,23.81,24.59,25.05,3342516.0,81095032.0,3071964766.0,11393220766.0
sh603915,国茂股份,2020-09-16,24.6,25.37,24.01,24.71,24.59,4773643.0,118359253.0,3086956054.0,11448820054.0
sh603915,国茂股份,2020-09-17,25.05,25.05,23.71,24.44,24.71,3569993.0,86639306.0,3053225655.9999995,11323721656.0
sh603915,国茂股份,2020-09-18,24.4,24.69,23.81,23.94,24.44,2915124.0,70141252.0,2990761956.0,11312784756.0
sh603915,国茂股份,2020-09-21,24.08,24.2,22.42,22.47,23.94,5889720.0,135540874.0,2807118678.0,10618140078.0
sh603915,国茂股份,2020-09-22,22.59,23.93,22.01,22.29,22.47,6763677.0,154827995.0,2784631746.0000005,10533081546.0
sh603915,国茂股份,2020-09-23,22.61,22.92,22.11,22.84,22.29,2866957.0,64693455.0,2853341816.0,10792982616.0
sh603915,国茂股份,2020-09-24,22.75,22.78,21.9,21.9,22.84,3238400.0,71717400.0,2735910060.0,10348788060.0
sh603915,国茂股份,2020-09-25,22.21,22.49,21.66,22.12,21.9,2656480.0,58502266.0,2763394087.9999995,10452748488.0
sh603915,国茂股份,2020-09-28,22.63,22.65,21.69,21.9,22.12,3422061.0,75321649.0,2735910060.0,10348788060.0
sh603915,国茂股份,2020-09-29,22.08,22.64,21.56,22.2,21.9,3358487.0,74694757.0,2773388280.0,10490552279.999998
sh603915,国茂股份,2020-09-30,22.55,22.58,21.91,22.13,22.2,2868247.0,63702968.0,2764643362.0,10457473962.0
sh603915,国茂股份,2020-10-09,22.47,24.06,22.41,23.92,22.13,4219713.0,98356959.0,2988263408.0,11303333808.0
sh603915,国茂股份,2020-10-12,24.0,24.32,23.07,23.5,23.92,6153801.0,144673588.0,2935793900.0,11104863899.999998
sh603915,国茂股份,2020-10-13,23.2,24.62,22.93,24.36,23.5,3839593.0,91525491.0,3043231464.0000005,11511254664.0
sh603915,国茂股份,2020-10-14,24.1,25.29,24.05,24.65,24.36,3618801.0,89844938.0,3079460410.0000005,11648293410.0
sh603915,国茂股份,2020-10-15,24.94,24.94,24.4,24.51,24.65,1548480.0,38041596.0,3061970574.0,11582136774.0
sh603915,国茂股份,2020-10-16,24.94,25.2,24.35,24.45,24.51,2267800.0,55806135.0,3054474930.0,11553783930.0
sh603915,国茂股份,2020-10-19,24.7,24.89,24.11,24.31,24.45,1971398.0,48118014.0,3036985094.0,11487627294.0
sh603915,国茂股份,2020-10-20,24.11,24.56,23.97,24.21,24.31,2633624.0,63866178.0,3024492354.0,11440372554.0
sh603915,国茂股份,2020-10-21,24.21,24.69,23.42,23.6,24.21,2519100.0,60082992.0,2948286640.0,11152118640.0
sh603915,国茂股份,2020-10-22,23.45,23.85,23.13,23.47,23.6,2063638.0,48457511.0,2932046078.0,11090687478.0
sh603915,国茂股份,2020-10-23,23.69,23.69,22.28,22.35,23.47,2046370.0,46487088.0,2792127390.0,10561434390.0
sh603915,国茂股份,2020-10-26,22.37,22.88,21.51,22.67,22.35,2069542.0,46422898.0,2832104158.0,10712649558.000002
sh603915,国茂股份,2020-10-27,22.75,23.52,22.21,23.37,22.67,3227497.0,74524285.0,2919553338.0,11043432738.0
sh603915,国茂股份,2020-10-28,23.86,23.9,23.17,23.67,23.37,2607800.0,61316573.0,2957031558.0,11185196958.000002
sh603915,国茂股份,2020-10-29,23.25,24.06,23.25,23.48,23.67,1876929.0,44344189.0,2933295352.0,11095412952.0
sh603915,国茂股份,2020-10-30,22.99,23.85,22.8,22.88,23.48,2927594.0,68189323.0,2858338912.0,10811884512.0
sh603915,国茂股份,2020-11-02,23.19,23.71,22.53,22.84,22.88,2925674.0,67228559.0,2853341816.0,10792982616.0
sh603915,国茂股份,2020-11-03,22.85,22.91,22.01,22.88,22.84,3122950.0,70430895.0,2858338912.0,10811884512.0
sh603915,国茂股份,2020-11-04,22.76,23.64,22.45,23.2,22.88,4263584.0,97890104.0,2898315680.0000005,10963099680.000002
sh603915,国茂股份,2020-11-05,23.2,25.05,23.2,25.03,23.2,5770884.0,141259738.0,3126932822.0,11827861421.999998
sh603915,国茂股份,2020-11-06,25.13,25.5,24.31,24.47,25.03,3754843.0,93382811.0,3056973478.0,11563234878.0
sh603915,国茂股份,2020-11-09,25.25,25.3,23.82,24.08,24.47,4749411.0,115212805.0,3008251792.0,11378941392.0
sh603915,国茂股份,2020-11-10,24.4,24.7,23.89,24.01,24.08,2531491.0,61396367.0,2999506874.0,11345863074.0
sh603915,国茂股份,2020-11-11,24.0,24.14,23.0,23.1,24.01,2594797.0,60716381.0,2885822940.0,10915844940.0
sh603915,国茂股份,2020-11-12,23.0,24.12,23.0,23.88,23.1,3501019.0,82988919.0,2983266312.0,11284431912.0
sh603915,国茂股份,2020-11-13,23.83,23.99,23.25,23.55,23.88,1939987.0,45507137.0,2942040270.0,11128491270.0
sh603915,国茂股份,2020-11-16,23.2,23.61,23.17,23.47,23.55,1938243.0,45312935.0,2932046078.0,11090687478.0
sh603915,国茂股份,2020-11-17,23.35,23.35,22.5,22.99,23.47,4521245.0,103363853.0,2872080925.9999995,10863864726.0
sh603915,国茂股份,2020-11-18,23.25,23.6,22.91,23.1,22.99,2714025.0,62875019.0,2885822940.0,10915844940.0
sh603915,国茂股份,2020-11-19,23.35,23.5,22.52,23.36,23.1,2492150.0,57837056.0,2918304064.0,11038707264.0
sh603915,国茂股份,2020-11-20,23.6,25.35,23.33,25.16,23.36,6721416.0,165870006.0,3143173384.0,11889292584.0
sh603915,国茂股份,2020-11-23,25.3,25.53,23.7,23.88,25.16,6565450.0,161588750.0,2983266312.0,11284431912.0
sh603915,国茂股份,2020-11-24,23.93,24.32,23.22,24.05,23.88,4307387.0,102526290.0,3004503970.0,11364764970.0
sh603915,国茂股份,2020-11-25,24.35,24.35,23.5,23.55,24.05,3672800.0,87219472.0,2942040270.0,11128491270.0
sh603915,国茂股份,2020-11-26,23.53,24.7,23.42,24.6,23.55,6314165.0,153748912.0,3073214040.0,11624666040.0
sh603915,国茂股份,2020-11-27,24.69,26.36,24.31,25.96,24.6,6614507.0,169661771.0,3243115304.0,12267330504.0
sh603915,国茂股份,2020-11-30,26.05,26.31,25.3,26.0,25.96,5369904.0,139471238.0,3248112400.0,12286232400.0
sh603915,国茂股份,2020-12-01,25.85,27.2,25.63,26.76,26.0,5595164.0,149101748.0,3343057224.0000005,12645368424.0
sh603915,国茂股份,2020-12-02,26.84,29.44,26.84,29.44,26.76,8720602.0,246743531.0,3677862656.0,13911795456.0
sh603915,国茂股份,2020-12-03,29.4,29.4,27.9,28.22,29.44,6635648.0,188099079.0,3525451228.0,13335287628.0
sh603915,国茂股份,2020-12-04,28.23,28.76,28.02,28.35,28.22,2793038.0,79183265.0,3541691790.0,13396718790.0
sh603915,国茂股份,2020-12-07,28.5,30.12,28.3,29.4,28.35,6026742.0,177019174.0,3672865560.0,13892893560.0
sh603915,国茂股份,2020-12-08,29.8,30.66,29.25,29.7,29.4,6363293.0,190832729.0,3710343780.000001,14034657780.0
sh603915,国茂股份,2020-12-09,30.18,30.18,29.01,29.06,29.7,4496352.0,132501853.0,3630390244.0,13732227444.0
sh603915,国茂股份,2020-12-10,29.29,29.29,28.01,28.84,29.06,2891455.0,83534967.0,3602906216.0,13628267016.0
sh603915,国茂股份,2020-12-11,29.1,29.2,27.73,27.86,28.84,4233804.0,119647286.0,3480477364.0,13165170563.999998
sh603915,国茂股份,2020-12-14,27.99,28.27,27.31,27.74,27.86,4308200.0,119637711.0,3465486076.0,13108464876.000002
sh603915,国茂股份,2020-12-15,27.9,28.96,27.69,27.73,27.74,3692252.0,103893890.0,3464236802.0,13103739402.0
sh603915,国茂股份,2020-12-16,27.99,28.3,27.22,27.42,27.73,4879232.0,134523026.0,3425509307.9999995,12957249708.0
sh603915,国茂股份,2020-12-17,27.39,29.36,27.1,28.99,27.42,4631635.0,132454980.0,3621645326.0,13699149126.0
sh603915,国茂股份,2020-12-18,28.82,29.35,27.9,27.92,28.99,4590446.0,130313104.0,3487973008.0000005,13193523407.999998
sh603915,国茂股份,2020-12-21,28.09,28.34,27.29,27.72,27.92,4635844.0,128261276.0,3462987528.0,13099013928.0
sh603915,国茂股份,2020-12-22,27.65,28.46,27.2,27.23,27.72,5370049.0,148701194.0,3401773102.0,12867465702.0
sh603915,国茂股份,2020-12-23,27.5,28.06,26.81,27.74,27.23,5934859.0,162044413.0,3465486076.0,13108464876.000002
sh603915,国茂股份,2020-12-24,27.6,28.12,27.29,27.74,27.74,3739040.0,103781013.0,3465486076.0,13108464876.000002
sh603915,国茂股份,2020-12-25,27.74,28.66,27.36,28.64,27.74,4715752.0,133635090.0,3577920736.0,13533757536.0
sh603915,国茂股份,2020-12-28,28.78,28.95,27.27,27.42,28.64,12535800.0,345458148.0,3425509307.9999995,12957249708.0
sh603915,国茂股份,2020-12-29,27.7,27.7,26.19,26.68,27.42,5186701.0,139547520.0,3333063032.0000005,12607564632.000002
sh603915,国茂股份,2020-12-30,26.82,27.2,26.29,26.68,26.68,4595189.0,123088522.0,3333063032.0000005,12607564632.000002
sh603915,国茂股份,2020-12-31,26.77,27.0,26.2,26.58,26.68,4016863.0,106540901.0,3320570292.0,12560309892.0
sh603915,国茂股份,2021-01-04,26.56,27.2,26.3,26.38,26.58,4332751.0,115664919.0,3295584812.0,12465800412.0
sh603915,国茂股份,2021-01-05,26.49,27.12,26.29,26.75,26.38,3688292.0,98239321.0,3341807950.0,12640642950.0
sh603915,国茂股份,2021-01-06,26.49,28.7,26.4,28.64,26.75,8179674.0,227849401.0,3577920736.0,13533757536.0
sh603915,国茂股份,2021-01-07,28.6,29.64,27.72,29.55,28.64,9130773.0,262423601.0,3691604670.0,13963775670.0
sh603915,国茂股份,2021-01-08,29.36,29.87,28.04,28.87,29.55,6193148.0,176258165.0,3606654038.0,13642443438.0
sh603915,国茂股份,2021-01-11,28.36,29.27,28.18,28.72,28.87,5664896.0,162992630.0,3587914928.0,13571561328.0
sh603915,国茂股份,2021-01-12,28.72,31.59,28.57,31.59,28.72,10465217.0,325529277.0,3946456566.0,14927772366.0
sh603915,国茂股份,2021-01-13,31.73,34.66,31.73,33.68,31.59,13306424.0,442672822.0,4207554832.0,15915396432.0
sh603915,国茂股份,2021-01-14,34.11,36.3,32.67,34.61,33.68,8640008.0,296737957.0,4323737314.0,16354865514.0
sh603915,国茂股份,2021-01-15,35.33,35.5,33.28,34.93,34.61,5361197.0,185239311.0,4363714082.0,16506080682.000002
sh603915,国茂股份,2021-01-18,34.8,36.33,32.0,35.14,34.93,7830160.0,273672939.0,4389948836.0,16605315636.0
sh603915,国茂股份,2021-01-19,36.08,36.7,35.68,35.8,35.14,5437510.0,196573491.0,4472400920.0,16917196920.0
sh603915,国茂股份,2021-01-20,36.32,36.86,35.1,36.31,35.8,5619033.0,201544789.0,4536113894.0,17158196094.0
sh603915,国茂股份,2021-01-21,36.05,39.94,36.05,39.83,36.31,7970885.0,310819253.0,4975858342.0,18821562942.0
sh603915,国茂股份,2021-01-22,39.28,43.51,39.08,42.43,39.83,8077623.0,333900868.0,5300669582.0,20050186182.0
sh603915,国茂股份,2021-01-25,42.32,46.17,42.02,43.35,42.43,6813816.0,300620748.0,5415602790.0,20484929790.0
sh603915,国茂股份,2021-01-26,44.0,45.78,39.91,44.31,43.35,5991837.0,263450178.0,5535533094.0,20938575294.0
sh603915,国茂股份,2021-01-27,44.99,45.96,42.67,43.96,44.31,5874494.0,260358604.0,5491808504.0,20773183704.0
sh603915,国茂股份,2021-01-28,43.57,45.0,41.68,42.0,43.96,5813999.0,252380212.0,5246950800.0,19846990800.0
sh603915,国茂股份,2021-01-29,42.85,45.5,42.02,43.94,42.0,7487907.0,328778040.0,5489309956.0,20763732756.0
sh603915,国茂股份,2021-02-01,43.92,45.5,43.33,44.9,43.94,3878129.0,173221806.0,5609240260.0,21217378260.0
sh603915,国茂股份,2021-02-02,45.0,45.3,43.47,43.75,44.9,3666983.0,162338505.0,5465573750.0,20673948750.0
sh603915,国茂股份,2021-02-03,43.76,46.3,43.51,45.98,43.75,5144332.0,231679134.0,5744161851.999999,21727729452.0
sh603915,国茂股份,2021-02-04,45.1,47.0,42.88,43.99,45.98,6383532.0,284276200.0,5495556326.0,20787360126.0
sh603915,国茂股份,2021-02-05,43.99,44.39,40.12,40.38,43.99,6612898.0,277532363.0,5044568412.0,19081464012.0
sh603915,国茂股份,2021-02-08,40.78,43.88,40.5,43.21,40.38,5270513.0,224645276.0,5398112953.999999,20418773154.0
sh603915,国茂股份,2021-02-09,43.42,44.89,42.72,44.16,43.21,2833666.0,124507761.0,5516793983.999999,20867693184.0
sh603915,国茂股份,2021-02-10,44.63,45.15,43.17,43.81,44.16,3031306.0,133608436.0,5473069394.0,20702301594.0
sh603915,国茂股份,2021-02-18,43.85,44.29,42.42,42.77,43.81,3087875.0,132930217.0,5343144898.0,20210852298.0
sh603915,国茂股份,2021-02-19,42.92,43.06,39.4,40.67,42.77,5040784.0,204549812.0,5080797358.0,19218502758.0
sh603915,国茂股份,2021-02-22,40.45,41.24,36.85,37.92,40.67,7091413.0,272655604.0,4737247008.0,17918997408.0
sh603915,国茂股份,2021-02-23,38.38,38.38,35.7,36.06,37.92,4398506.0,161388812.0,4504882044.0,17040059243.999998
sh603915,国茂股份,2021-02-24,35.86,37.89,35.0,35.35,36.06,3889651.0,140253787.0,4416183590.0,16704550589.999998
sh603915,国茂股份,2021-02-25,35.63,36.45,34.34,34.8,35.35,3565439.0,125247935.0,4347473520.0,16444649520.0
sh603915,国茂股份,2021-02-26,34.29,36.0,33.89,35.65,34.8,5146127.0,181737873.0,4453661810.0,16846314810.0
sh603915,国茂股份,2021-03-01,35.5,38.15,35.08,37.97,35.65,6128693.0,229486859.0,4743493378.0,17942624778.0
sh603915,国茂股份,2021-03-02,38.0,40.52,37.68,38.33,37.97,5757818.0,224378644.0,4788467242.0,18112741842.0
sh603915,国茂股份,2021-03-03,38.43,38.8,37.33,38.53,38.33,2747435.0,105121846.0,4813452722.0,18207251322.0
sh603915,国茂股份,2021-03-04,38.46,38.8,37.0,37.29,38.53,2949488.0,111273083.0,4658542746.0,17621292546.0
sh603915,国茂股份,2021-03-05,35.93,37.6,35.56,36.7,37.29,3055074.0,111621123.0,4584835580.0,17342489580.0
sh603915,国茂股份,2021-03-08,37.54,38.2,34.39,34.46,36.7,4242899.0,152560849.0,4304998204.0,16283983404.000002
sh603915,国茂股份,2021-03-09,34.59,35.58,32.92,33.68,34.46,5319612.0,182246353.0,4207554832.0,15915396432.0
sh603915,国茂股份,2021-03-10,34.07,34.69,33.12,33.51,33.68,2977550.0,100408014.0,4186317174.0,15835063374.0
sh603915,国茂股份,2021-03-11,33.51,34.97,33.0,34.52,33.51,2608939.0,89205271.0,4312493848.0,16312336248.000002
sh603915,国茂股份,2021-03-12,35.49,35.49,32.99,33.35,34.52,3314819.0,111342076.0,4166328790.0,15759455790.0
sh603915,国茂股份,2021-03-15,33.62,34.78,33.22,33.58,33.35,3044048.0,102811794.0,4195062092.0,15868141691.999998
sh603915,国茂股份,2021-03-16,33.0,34.0,33.0,33.22,33.58,2045730.0,68220119.0,4150088228.0,15698024628.000002
sh603915,国茂股份,2021-03-17,33.3,34.78,33.15,34.65,33.22,3196934.0,109824409.0,4328734410.0,16373767410.0
sh603915,国茂股份,2021-03-18,34.48,38.07,34.48,37.76,34.65,5644635.0,209654085.0,4717258624.0,17843389824.0
sh603915,国茂股份,2021-03-19,37.05,38.85,36.92,37.15,37.76,4637528.0,174316980.0,4641052910.0,17555135910.0
sh603915,国茂股份,2021-03-22,37.45,39.99,36.7,37.14,37.15,6702062.0,254924630.0,4639803636.0,17550410436.0
sh603915,国茂股份,2021-03-23,37.31,37.72,35.89,36.53,37.14,3274775.0,120244206.0,4563597922.0,17262156522.0
sh603915,国茂股份,2021-03-24,36.61,37.37,36.04,36.4,36.53,2549567.0,93343406.0,4547357360.0,17200725360.0
sh603915,国茂股份,2021-03-25,36.42,36.7,35.68,35.95,36.4,2083482.0,75246101.0,4491140030.0,16988079030.0
sh603915,国茂股份,2021-03-26,35.9,36.89,35.61,35.95,35.95,1857162.0,67166049.0,4491140030.0,16988079030.0
sh603915,国茂股份,2021-03-29,36.2,37.47,35.95,36.8,35.95,2853015.0,105150814.0,4597328320.0,17389744320.0
sh603915,国茂股份,2021-03-30,36.97,37.68,36.81,37.37,36.8,1821590.0,67875145.0,4668536938.0,17659096338.0
sh603915,国茂股份,2021-03-31,37.55,37.67,37.0,37.51,37.37,1649663.0,61574769.0,4686026774.0,17725252974.0
sh603915,国茂股份,2021-04-01,37.51,38.6,37.0,38.43,37.51,2921034.0,110998383.0,4800959982.0,18159996582.0
sh603915,国茂股份,2021-04-02,38.69,40.28,38.45,40.2,38.43,3081494.0,122822973.0,5022081480.0,18996405480.0
sh603915,国茂股份,2021-04-06,40.52,41.35,39.88,40.6,40.2,2758322.0,111552080.0,5072052440.0,19185424440.0
sh603915,国茂股份,2021-04-07,40.19,40.57,38.55,39.56,40.6,3090552.0,121811557.0,4942127944.0,18693975144.0
sh603915,国茂股份,2021-04-08,39.33,40.01,39.01,39.54,39.56,1724184.0,68180767.0,4939629396.0,18684524196.0
sh603915,国茂股份,2021-04-09,39.24,39.67,38.65,38.8,39.54,1172745.0,45667368.0,4847183120.0,18334839120.0
sh603915,国茂股份,2021-04-12,38.8,38.98,36.63,37.19,38.8,2033637.0,75917404.0,4646050006.0,17574037806.0
sh603915,国茂股份,2021-04-13,37.47,38.5,36.67,37.64,37.19,1436257.0,54087585.0,4702267336.0,17786684136.0
sh603915,国茂股份,2021-04-14,37.5,38.59,37.5,38.45,37.64,1118563.0,42708934.0,4803458530.0,18169447530.0
sh603915,国茂股份,2021-04-15,38.76,39.2,37.97,38.99,38.45,1287088.0,49725063.0,4870919326.0,18424623126.0
sh603915,国茂股份,2021-04-16,38.81,39.17,37.77,38.49,38.99,1420717.0,54561538.0,4808455626.0,18188349426.0
sh603915,国茂股份,2021-04-19,37.95,38.8,37.95,38.63,38.49,1653826.0,63498217.0,4825945462.0,18254506062.0
sh603915,国茂股份,2021-04-20,38.63,40.3,38.36,40.09,38.63,2335374.0,92573297.0,5008339466.0,18944425266.0
sh603915,国茂股份,2021-04-21,40.08,40.71,39.55,40.38,40.09,1675754.0,67525356.0,5044568412.0,19081464012.0
sh603915,国茂股份,2021-04-22,40.8,40.96,38.8,38.82,40.38,2097021.0,83088167.0,4849681668.0,18344290068.0
sh603915,国茂股份,2021-04-23,38.84,40.1,38.82,39.96,38.82,1362668.0,53960856.0,4992098904.0,18882994104.0
sh603915,国茂股份,2021-04-26,39.64,41.38,39.41,39.73,39.96,2629545.0,105831496.0,4963365602.0,18774308202.0
sh603915,国茂股份,2021-04-27,39.74,41.1,39.11,40.65,39.73,2004965.0,80503908.0,5078298810.0,19209051810.0
sh603915,国茂股份,2021-04-28,40.5,40.64,37.68,39.0,40.65,4111110.0,159915882.0,4872168600.0,18429348600.0
sh603915,国茂股份,2021-04-29,38.62,39.93,38.6,38.77,39.0,2293459.0,89797494.0,4843435298.0,18320662698.0
sh603915,国茂股份,2021-04-30,38.96,39.89,38.96,39.18,38.77,2306594.0,90972837.0,4894655532.0,18514407132.0
sh603915,国茂股份,2021-05-06,39.59,39.59,37.8,38.37,39.18,2248481.0,86464305.0,4793464338.0,18131643738.0
sh603915,国茂股份,2021-05-07,38.63,38.68,36.03,36.57,38.37,2676308.0,98671587.0,4568595018.0,17281058418.0
sh603915,国茂股份,2021-05-10,36.57,37.28,35.2,35.55,36.57,2770854.0,99677522.0,4441169070.0,16799060070.0
sh603915,国茂股份,2021-05-11,35.43,36.11,35.25,35.57,35.55,1811262.0,64442494.0,4443667618.0,16808511018.0
sh603915,国茂股份,2021-05-12,35.57,36.04,34.3,35.96,35.57,2405444.0,84838883.0,4492389304.0,16992804504.0
sh603915,国茂股份,2021-05-13,35.62,36.16,34.88,35.75,35.96,1548542.0,54929140.0,4466154550.0,16893569550.0
sh603915,国茂股份,2021-05-14,35.75,37.7,35.43,37.4,35.75,2074530.0,76436920.0,4672284760.0,17673272760.0
sh603915,国茂股份,2021-05-17,37.6,37.93,36.6,37.79,37.4,1781884.0,66778526.0,4721006446.0,17857566246.0
sh603915,国茂股份,2021-05-18,38.09,38.65,37.22,38.25,37.79,1265433.0,48322104.0,4778473050.0,18074938050.0
sh603915,国茂股份,2021-05-19,38.2,38.46,37.51,37.8,38.25,1527829.0,57828652.0,4722255720.0,17862291720.0
sh603915,国茂股份,2021-05-20,37.86,38.66,37.31,37.71,37.8,1335231.0,50563501.0,4711012254.0,17819762454.0
sh603915,国茂股份,2021-05-21,37.5,38.6,37.5,37.89,37.71,1182375.0,45089100.0,4733499186.0,17904820986.0
sh603915,国茂股份,2021-05-24,37.36,38.15,37.06,37.34,37.89,1167084.0,43724524.0,4664789116.0,17644919916.0
sh603915,国茂股份,2021-05-25,37.3,38.46,37.3,37.66,37.34,1507486.0,56962529.0,4704765884.0,17796135084.0
sh603915,国茂股份,2021-05-26,37.71,39.0,37.56,38.79,37.66,2389444.0,91722545.0,4845933846.0,18330113646.0
sh603915,国茂股份,2021-05-27,38.97,39.12,38.27,38.77,38.79,1558367.0,60275284.0,4843435298.0,18320662698.0
sh603915,国茂股份,2021-05-28,38.77,39.0,38.01,38.71,38.77,1678808.0,64841316.0,4835939654.0,18292309854.0
sh603915,国茂股份,2021-05-31,38.1,38.38,37.35,37.9,38.71,2023842.0,76897455.0,4734748460.0,17909546460.0
sh603915,国茂股份,2021-06-01,38.2,38.2,36.78,37.3,37.9,2734667.0,102000512.0,4659792020.0,17626018020.0
sh603915,国茂股份,2021-06-02,37.59,37.59,36.22,36.53,37.3,1656444.0,60628932.0,4563597922.0,17262156522.0
sh603915,国茂股份,2021-06-03,36.53,37.18,36.05,36.3,36.53,1822847.0,66404978.0,4534864620.0,17153470620.0
sh603915,国茂股份,2021-06-04,36.05,36.58,35.8,36.32,36.3,869060.0,31561291.0,4537363168.0,17162921568.0
sh603915,国茂股份,2021-06-07,36.3,37.41,35.81,36.77,36.32,1686012.0,62050295.0,4593580498.0,17375567898.0
sh603915,XD国茂股,2021-06-08,36.53,37.23,36.05,36.37,36.52,1273391.0,46529980.0,4543609538.0,17186548938.0
sh603915,国茂股份,2021-06-09,36.65,36.65,35.58,35.6,36.37,1095304.0,39244499.0,4447415440.0,16822687440.0
sh603915,国茂股份,2021-06-10,35.6,38.1,35.6,37.81,35.6,3213546.0,119712028.0,4723504994.0,17867017194.0
sh603915,国茂股份,2021-06-11,37.82,37.98,36.37,36.38,37.81,2371100.0,87575006.0,4544858812.0,17191274412.0
sh603915,国茂股份,2021-06-15,35.96,36.51,35.01,35.03,36.38,1389547.0,49378042.0,4376206822.0,16553335422.0
sh603915,国茂股份,2021-06-16,35.0,35.24,34.0,34.35,35.03,1556448.0,53410202.0,4291256190.0,16232003189.999998
sh603915,国茂股份,2021-06-17,34.35,35.31,34.0,34.36,34.35,1173558.0,40522295.0,4292505464.0,16236728664.0
sh603915,国茂股份,2021-06-18,34.24,35.1,34.0,34.54,34.36,1664134.0,57170405.0,4314992396.0,16321787196.0
sh603915,国茂股份,2021-06-21,34.31,35.62,34.06,35.42,34.54,2624354.0,92254818.0,4424928508.0,16737628908.0
sh603915,国茂股份,2021-06-22,35.51,38.55,35.43,38.15,35.42,4047856.0,151674570.0,4765980310.0,18027683310.0
sh603915,国茂股份,2021-06-23,38.24,38.49,37.3,37.55,38.15,2105487.0,79603524.0,4691023870.0,17744154870.0
sh603915,国茂股份,2021-06-24,37.54,37.55,36.44,36.7,37.55,1867101.0,68911131.0,4584835580.0,17342489580.0
sh603915,国茂股份,2021-06-25,36.38,37.5,36.38,37.08,36.7,1189601.0,44214434.0,4632307992.0,17522057592.0
sh603915,国茂股份,2021-06-28,37.08,37.43,36.83,37.1,37.08,1600400.0,59335020.0,4634806540.0,17531508540.0
sh603915,国茂股份,2021-06-29,37.15,37.49,36.6,37.2,37.1,1050305.0,38878606.0,4647299280.0,17578763280.0
sh603915,国茂股份,2021-06-30,37.45,39.85,37.45,39.5,37.2,4414000.0,172880042.0,4934632300.0,18665622300.0
sh603915,国茂股份,2021-07-01,40.4,42.26,38.6,39.04,39.5,6984335.0,280805363.0,4877165696.0,18445517696.0
sh603915,国茂股份,2021-07-02,37.25,38.88,37.25,38.15,39.04,3054487.0,116538851.0,4765980310.0,18025012810.0
sh603915,国茂股份,2021-07-05,38.2,38.71,36.6,37.65,38.15,4097630.0,153606269.0,4703516610.0,17788774110.0
sh603915,国茂股份,2021-07-06,37.7,38.2,37.06,37.9,37.65,2329923.0,87777511.0,4734748460.0,17906893460.0
sh603915,国茂股份,2021-07-07,38.27,38.91,37.38,38.6,37.9,3729983.0,142691355.0,4822197640.0,18237627640.0
sh603915,国茂股份,2021-07-08,38.53,39.39,37.71,37.85,38.6,2262463.0,86559485.0,4728502090.0,17883269590.0
sh603915,国茂股份,2021-07-09,38.23,38.37,37.1,37.92,37.85,2092757.0,79330666.0,4737247008.0,17916343008.0
sh603915,国茂股份,2021-07-12,38.17,40.68,38.11,38.82,37.92,4879517.0,192029795.0,4849681668.0,18341572668.0
sh603915,国茂股份,2021-07-13,39.33,39.54,37.22,37.35,38.82,4821859.0,182767349.0,4666038390.0,17647030890.0
sh603915,国茂股份,2021-07-14,37.72,37.95,36.95,37.28,37.35,2263966.0,84468715.0,4657293472.0,17613957472.0
sh603915,国茂股份,2021-07-15,36.95,38.67,36.36,38.14,37.28,3112037.0,117368992.0,4764731036.0,18020288036.0
sh603915,国茂股份,2021-07-16,38.52,38.97,38.0,38.2,38.14,3535464.0,135915028.0,4772226680.0,18048636680.0
sh603915,国茂股份,2021-07-19,38.68,42.02,38.2,42.02,38.2,10632930.0,438852332.0,5249449348.0,19853500348.0
sh603915,国茂股份,2021-07-20,42.98,45.38,41.1,45.27,42.02,9778203.0,420938259.0,5655463398.0,21389051898.0
sh603915,国茂股份,2021-07-21,44.1,45.11,43.88,44.42,45.27,5867279.0,260758780.0,5549275108.0,20987446108.0
sh603915,国茂股份,2021-07-22,44.04,44.6,42.86,44.4,44.42,4287861.0,187889099.0,5546776560.0,20977996560.0
sh603915,国茂股份,2021-07-23,43.78,44.9,42.63,42.88,44.4,3803349.0,164928177.0,5356886912.0,20259830912.0
sh603915,国茂股份,2021-07-26,42.86,44.28,41.7,43.45,42.88,3614214.0,155943504.0,5428095530.0,20529143030.0
sh603915,国茂股份,2021-07-27,44.12,46.91,41.52,41.72,43.45,6394163.0,283256281.0,5211971128.0,19711757128.0
sh603915,国茂股份,2021-07-28,41.32,44.2,40.83,41.79,41.72,8009462.0,338163216.0,5220716046.0,19744830546.0
sh603915,国茂股份,2021-07-29,42.5,44.9,42.3,43.7,41.79,5019717.0,220146738.0,5459327380.0,20647262380.0
sh603915,国茂股份,2021-07-30,43.59,43.89,41.51,42.11,43.7,4059860.0,171907096.0,5260692814.0,19896023314.0
sh603915,国茂股份,2021-08-02,41.23,44.2,40.61,43.81,42.11,4364815.0,186474130.0,5473069394.0,20699234894.0
sh603915,国茂股份,2021-08-03,44.0,46.24,43.05,44.98,43.81,5213625.0,235108494.0,5619234452.0,21252033452.0
sh603915,国茂股份,2021-08-04,44.8,47.99,44.17,47.9,44.98,4488624.0,211343712.0,5984022460.0,22631667460.0
sh603915,国茂股份,2021-08-05,47.8,48.6,46.27,47.18,47.9,5147623.0,243543825.0,5894074732.0,22291483732.0
sh603915,国茂股份,2021-08-06,47.18,48.5,46.53,47.8,47.18,2136474.0,101817540.0,5971529719.999999,22584419720.0
sh603915,国茂股份,2021-08-09,47.81,49.82,46.66,48.94,47.8,3887599.0,188834564.0,6113946956.0,23123043956.0
sh603915,国茂股份,2021-08-10,48.84,49.38,48.18,49.34,48.94,2380095.0,116306527.0,6163917916.0,23312034916.0
sh603915,国茂股份,2021-08-11,49.38,50.0,47.8,48.96,49.34,2516288.0,123022892.0,6116445503.999999,23132493504.0
sh603915,国茂股份,2021-08-12,48.94,49.25,45.05,45.39,48.96,7263764.0,337589788.0,5670454686.0,21445749186.0
sh603915,国茂股份,2021-08-13,45.91,47.22,45.4,46.5,45.39,4419777.0,205401025.0,5809124100.0,21970199100.0
sh603915,国茂股份,2021-08-16,45.7,46.8,44.6,45.03,46.5,3115091.0,141734130.0,5625480821.999999,21275657322.0
sh603915,国茂股份,2021-08-17,45.02,45.57,43.21,43.8,45.03,3947668.0,174678449.0,5471820120.0,20694510120.0
sh603915,国茂股份,2021-08-18,44.44,44.78,42.7,43.18,43.8,3011918.0,130286155.0,5394365132.0,20401574132.0
sh603915,国茂股份,2021-08-19,42.68,43.8,41.85,42.9,43.18,3608453.0,153924995.0,5359385460.0,20269280460.0
sh603915,国茂股份,2021-08-20,43.48,44.49,42.04,43.0,42.9,2826723.0,121750842.0,5371878199.999999,20316528200.0
sh603915,国茂股份,2021-08-23,43.0,46.18,42.16,45.96,43.0,3480400.0,157817288.0,5741663304.0,21715061304.0
sh603915,国茂股份,2021-08-24,46.18,47.25,44.77,45.4,45.96,2564975.0,116480816.0,5671703959.999999,21450473960.0
sh603915,国茂股份,2021-08-25,45.13,46.0,44.27,45.46,45.4,2163648.0,97514731.0,5679199604.0,21478822604.0
sh603915,国茂股份,2021-08-26,45.18,45.8,43.33,43.82,45.46,2197236.0,96288586.0,5474318668.0,20703959668.0
sh603915,国茂股份,2021-08-27,43.46,44.9,43.36,44.4,43.82,2262100.0,100073030.0,5546776560.0,20977996560.0
sh603915,国茂股份,2021-08-30,44.99,44.99,42.88,43.26,44.4,3870466.0,168238576.0,5404359324.000001,20439372324.0
sh603915,国茂股份,2021-08-31,43.25,43.78,42.0,43.14,43.26,3633343.0,155350238.0,5389368036.0,20415245736.0
sh603915,国茂股份,2021-09-01,44.28,45.08,41.78,42.07,43.14,3232705.0,137391473.0,5255695718.0,19908887068.0
sh603915,国茂股份,2021-09-02,41.8,42.7,40.99,41.51,42.07,2695008.0,111867080.0,5185736374.0,19643876924.0
sh603915,国茂股份,2021-09-03,41.81,42.01,40.0,40.49,41.51,2641706.0,107823356.0,5058310426.0,19161179876.0
sh603915,国茂股份,2021-09-06,40.76,42.36,40.01,41.74,40.49,4502240.0,186494746.0,5214469676.0,19752720376.0
sh603915,国茂股份,2021-09-07,42.15,43.9,41.81,41.96,41.74,3844530.0,163776132.0,5241953704.0,19856831504.0
sh603915,国茂股份,2021-09-08,42.5,44.66,41.41,44.22,41.96,4150364.0,179800570.0,5524289628.0,20926336728.0
sh603915,国茂股份,2021-09-09,44.45,48.64,44.0,48.64,44.22,9063125.0,430100630.0,6076468736.000001,23018023936.0
sh603915,国茂股份,2021-09-10,48.39,48.39,43.79,44.68,48.64,9708250.0,442862954.0,5581756232.0,21144023632.0
sh603915,国茂股份,2021-09-13,44.4,46.2,43.3,45.22,44.68,3422082.0,154648545.0,5649217028.0,21399569128.0
sh603915,国茂股份,2021-09-14,45.0,47.2,44.99,45.8,45.22,2391866.0,110220709.0,5721674920.0,21674043920.0
sh603915,国茂股份,2021-09-15,45.53,46.73,44.38,45.98,45.8,1822578.0,83819594.0,5744161851.999999,21759225752.0
sh603915,国茂股份,2021-09-16,46.0,46.16,44.06,44.5,45.98,2268316.0,101740884.0,5640704300.000001,21058841800.0
sh603915,国茂股份,2021-09-17,44.72,46.0,44.01,45.5,44.5,1603511.0,72241713.0,5767461700.0,21532074200.0
sh603915,国茂股份,2021-09-22,45.23,45.5,43.84,44.3,45.5,1746310.0,77683219.0,5615352820.0,20964195320.0
sh603915,国茂股份,2021-09-23,44.3,45.69,44.3,45.39,44.3,1503486.0,67813498.0,5753518386.0,21480018636.0
sh603915,国茂股份,2021-09-24,44.73,45.48,44.08,44.51,45.39,1432437.0,63816783.0,5641971874.000001,21063574124.0
sh603915,国茂股份,2021-09-27,44.26,44.61,40.99,41.68,44.51,3645055.0,153636746.0,5283248432.0,19724326432.0
sh603915,国茂股份,2021-09-28,41.69,42.6,41.06,41.85,41.68,1257515.0,52583748.0,5304797190.0,19804775940.0
sh603915,国茂股份,2021-09-29,41.5,41.98,40.89,41.04,41.85,1214969.0,50044849.0,5202123696.0,19421457696.0
sh603915,国茂股份,2021-09-30,41.5,43.36,41.5,42.41,41.04,1294270.0,54920454.0,5375781334.000001,20069786084.0
sh603915,国茂股份,2021-10-08,43.66,44.75,43.26,43.78,42.41,1988523.0,87352740.0,5549438972.0,20718114472.0
sh603915,国茂股份,2021-10-11,43.78,44.28,42.06,42.08,43.78,1214288.0,51985714.0,5333951392.0,19913619392.0
sh603915,国茂股份,2021-10-12,42.08,42.39,40.71,41.37,42.08,1390627.0,57322794.0,5243953638.000001,19577624388.0
sh603915,国茂股份,2021-10-13,41.82,42.0,40.5,40.93,41.37,1745360.0,71197579.0,5188180382.0,19369402132.0
sh603915,国茂股份,2021-10-14,40.75,42.33,40.74,42.04,40.93,1085054.0,45101498.0,5328881096.0,19894690096.0
sh603915,国茂股份,2021-10-15,41.79,42.5,40.66,41.01,42.04,1460217.0,60052573.0,5198320974.0,19407260724.0
sh603915,国茂股份,2021-10-18,41.4,42.62,41.01,41.81,41.01,983016.0,41310663.0,5299726894.0,19785846644.0
sh603915,国茂股份,2021-10-19,41.82,42.47,41.82,42.13,41.81,776710.0,32682278.0,5340289262.0,19937281012.0
sh603915,国茂股份,2021-10-20,41.89,42.39,41.19,41.3,42.13,965326.0,40054178.0,5235080620.0,19544498120.0
sh603915,国茂股份,2021-10-21,41.13,42.14,39.8,40.31,41.3,1864462.0,75664592.0,5109590794.0,19075998044.0
sh603915,国茂股份,2021-10-22,40.31,40.68,39.82,40.04,40.31,831168.0,33386662.0,5075366296.0,18948225296.0
sh603915,国茂股份,2021-10-25,39.78,40.23,37.88,39.04,40.04,3192940.0,123014429.0,4948608896.0,18474992896.0
sh603915,国茂股份,2021-10-26,39.0,39.43,37.9,38.38,39.04,2578400.0,99730467.0,4864949012.0,18162659512.0
sh603915,国茂股份,2021-10-27,38.76,38.97,37.9,38.37,38.38,1557552.0,59653724.0,4863681438.0,18157927188.0
sh603915,国茂股份,2021-10-28,38.5,38.5,36.88,37.15,38.37,1946638.0,72765913.0,4709037410.0,17580583660.0
sh603915,国茂股份,2021-10-29,36.94,38.15,36.94,37.88,37.15,1609331.0,60509035.0,4801570312.0,17926043312.0
sh603915,国茂股份,2021-11-01,38.01,41.67,38.01,41.67,37.88,6199416.0,255242560.0,5281980858.0,19719594108.0
sh603915,国茂股份,2021-11-02,41.31,44.16,40.28,40.61,41.67,6361538.0,267777429.0,5147618014.0,19217967764.0
sh603915,国茂股份,2021-11-03,41.34,43.47,40.31,42.78,40.61,4375769.0,184288788.0,5422681572.0,20244882072.0
sh603915,国茂股份,2021-11-04,43.73,44.18,41.9,43.94,42.78,3581617.0,155572047.0,5569720156.0,20793831656.0
sh603915,国茂股份,2021-11-05,44.16,44.75,43.0,43.7,43.94,2373900.0,104224375.0,5539298380.0,20680255880.0
sh603915,国茂股份,2021-11-08,43.66,44.6,42.51,43.12,43.7,1686086.0,72505811.0,5465779088.0,20405781088.0
sh603915,国茂股份,2021-11-09,42.99,43.5,42.36,42.81,43.12,1566941.0,67106033.0,5426484294.0,20259079044.0
sh603915,国茂股份,2021-11-10,42.8,43.1,42.41,42.61,42.81,962591.0,41125479.0,5401132814.0,20164432564.0
sh603915,国茂股份,2021-11-11,42.79,42.83,42.13,42.39,42.61,1051194.0,44632683.0,5373246186.0,20060321436.0
sh603915,国茂股份,2021-11-12,42.39,43.06,41.6,42.44,42.39,1746007.0,73768752.0,5379584056.000001,20083983056.0
sh603915,国茂股份,2021-11-15,42.4,42.98,42.0,42.09,42.44,1361505.0,57616220.0,5335218966.0,19918351716.0
sh603915,国茂股份,2021-11-16,42.17,43.31,41.5,42.17,42.09,2101891.0,89067004.0,5345359558.0,19956210308.0
sh603915,国茂股份,2021-11-17,42.6,42.6,41.7,42.22,42.17,1258346.0,52888049.0,5351697428.0,19979871928.0
sh603915,国茂股份,2021-11-18,42.56,42.56,41.2,41.64,42.22,1511700.0,63022072.0,5278178136.0,19705397136.0
sh603915,国茂股份,2021-11-19,42.36,42.36,41.21,41.94,41.64,963137.0,40130948.0,5316205355.999999,19847366856.0
sh603915,国茂股份,2021-11-22,42.03,42.32,40.84,41.1,41.94,2054252.0,84802719.0,5209729140.0,19449851640.0
sh603915,国茂股份,2021-11-23,41.07,42.28,40.68,41.17,41.1,2078056.0,85825031.0,5218602158.0,19482977908.0
sh603915,国茂股份,2021-11-24,41.16,41.67,39.9,40.32,41.17,2034149.0,82175478.0,5110858368.0,19080730368.0
sh603915,国茂股份,2021-11-25,40.32,41.0,40.19,40.82,40.32,1150847.0,46743751.0,5174237068.0,19317346568.0
sh603915,国茂股份,2021-11-26,40.17,40.95,40.0,40.13,40.82,1033586.0,41646466.0,5086774462.0,18990816212.0
sh603915,国茂股份,2021-11-29,39.86,40.18,39.52,39.67,40.13,1233716.0,49061111.0,5028466058.0,18773129308.0
sh603915,国茂股份,2021-11-30,39.99,40.34,38.55,38.96,39.67,2286299.0,89821522.0,4938468304.0,18437134304.0
sh603915,国茂股份,2021-12-01,39.3,40.15,38.13,38.66,38.96,2883316.0,111526697.0,4900441084.0,18295164584.0
sh603915,国茂股份,2021-12-02,38.45,38.6,37.5,37.71,38.66,2749373.0,104096409.0,4780021554.0,17845593804.0
sh603915,国茂股份,2021-12-03,37.55,38.71,37.2,38.65,37.71,3302395.0,125471053.0,4899173510.0,18290432260.0
sh603915,国茂股份,2021-12-06,38.7,40.6,38.7,39.35,38.65,3669391.0,146167662.0,4987903690.0,18621694940.0
sh603915,国茂股份,2021-12-07,39.32,39.97,38.37,38.37,39.35,2191304.0,85025881.0,4863681438.0,18157927188.0
sh603915,国茂股份,2021-12-08,38.37,39.08,37.91,38.69,38.37,1613921.0,62121680.0,4904243806.0,18309361556.0
sh603915,国茂股份,2021-12-09,39.16,41.38,39.1,39.3,38.69,3775502.0,150421376.0,4981565820.0,18598033320.0
sh603915,国茂股份,2021-12-10,39.24,39.85,38.91,39.32,39.3,1406359.0,55386275.0,4984100968.0,18607497968.0
sh603915,国茂股份,2021-12-13,39.2,40.7,39.01,40.41,39.32,2984174.0,119326180.0,5122266534.0,19123321284.0
sh603915,国茂股份,2021-12-14,40.33,41.06,39.99,40.3,40.41,2614320.0,106050885.0,5108323220.0,19071265720.0
sh603915,国茂股份,2021-12-15,40.29,40.97,39.95,40.1,40.3,1749938.0,70980070.0,5082971740.0,18976619240.0
sh603915,国茂股份,2021-12-16,40.2,40.5,39.28,39.37,40.1,2677247.0,106015680.0,4990438838.0,18631159588.0
sh603915,国茂股份,2021-12-17,39.39,39.55,38.41,38.58,39.37,1670148.0,64718331.0,4890300492.0,18257305992.0
sh603915,国茂股份,2021-12-20,38.62,38.86,37.56,37.6,38.58,2319600.0,87852383.0,4766078240.0,17793538240.0
sh603915,国茂股份,2021-12-21,37.91,37.98,37.41,37.8,37.6,984646.0,37134784.0,4791429720.0,17888184720.0
sh603915,国茂股份,2021-12-22,38.0,38.54,37.7,37.99,37.8,1232410.0,46865516.0,4815513626.0,17978098876.0
sh603915,国茂股份,2021-12-23,38.11,38.23,37.34,37.8,37.99,1322000.0,49880997.0,4791429720.0,17888184720.0
sh603915,国茂股份,2021-12-24,38.0,38.09,37.18,37.45,37.8,1346600.0,50556029.0,4747064630.0,17722553380.0
sh603915,国茂股份,2021-12-27,37.58,37.65,37.17,37.26,37.45,1248200.0,46534819.0,4722980724.0,17632639224.0
sh603915,国茂股份,2021-12-28,37.34,37.58,37.02,37.34,37.26,1267085.0,47198780.0,4733121316.0,17670497816.0
sh603915,国茂股份,2021-12-29,37.3,38.19,37.3,37.9,37.34,2144700.0,81198300.0,4804105460.0,17935507960.0
sh603915,国茂股份,2021-12-30,37.9,39.2,37.76,38.21,37.9,1735595.0,66907474.0,4843400254.0,18082210004.0
sh603915,国茂股份,2021-12-31,38.49,39.2,37.79,38.9,38.21,1316894.0,50988744.0,4930862860.0,18408740360.0
sh603915,国茂股份,2022-01-04,38.9,39.11,37.9,37.93,38.9,1628200.0,62183856.0,4807908182.0,17949704932.0
sh603915,国茂股份,2022-01-05,38.0,38.09,35.88,35.94,37.93,2976105.0,109279873.0,4555660956.0,17007972456.0
sh603915,国茂股份,2022-01-06,36.03,38.3,36.03,37.34,35.94,2537386.0,94796215.0,4733121316.0,17670497816.0
sh603915,国茂股份,2022-01-07,37.34,38.25,37.1,37.37,37.34,2333752.0,88072215.0,4736924038.0,17684694788.0
sh603915,国茂股份,2022-01-10,37.36,37.89,36.59,37.33,37.37,1208409.0,45076641.0,4731853742.0,17665765492.0
sh603915,国茂股份,2022-01-11,37.69,37.87,36.44,36.55,37.33,1539980.0,56953497.0,4632982970.0,17296644220.0
sh603915,国茂股份,2022-01-12,37.33,37.33,36.05,36.6,36.55,1314699.0,47985517.0,4639320840.0,17320305840.0
sh603915,国茂股份,2022-01-13,36.71,36.72,34.7,35.1,36.6,3350180.0,118494581.0,4449184740.0,16610457240.0
sh603915,国茂股份,2022-01-14,35.0,35.5,34.51,34.74,35.1,1677476.0,58354182.0,4403552076.0,16440093576.0
