数据由邢不行整理
股票代码,股票名称,交易日期,开盘价,最高价,最低价,收盘价,前收盘价,成交量,成交额,流通市值,总市值
sh605399,N晨光,2020-08-04,15.79,18.95,15.79,18.95,13.16,132500.0,2500131.0,871700000.0,3486800000.0
sh605399,晨光新材,2020-08-05,20.85,20.85,20.85,20.85,18.95,33629.0,701165.0,959100000.0,3836400000.0
sh605399,晨光新材,2020-08-06,22.94,22.94,22.94,22.94,20.85,72002.0,1651726.0,1055240000.0,4220960000.0
sh605399,晨光新材,2020-08-07,25.23,25.23,25.23,25.23,22.94,272498.0,6875125.0,1160580000.0,4642320000.0
sh605399,晨光新材,2020-08-10,26.5,27.7,24.37,26.32,25.23,26160986.0,674405582.0,1210720000.0,4842880000.0
sh605399,晨光新材,2020-08-11,25.06,27.9,24.1,26.33,26.32,22030551.0,565757596.0,1211180000.0,4844720000.0
sh605399,晨光新材,2020-08-12,26.0,28.96,25.85,28.96,26.33,22300603.0,627980850.0,1332160000.0,5328640000.0
sh605399,晨光新材,2020-08-13,28.2,29.79,26.69,26.78,28.96,24562796.0,688459063.0,1231880000.0,4927520000.0
sh605399,晨光新材,2020-08-14,25.01,25.27,24.1,24.1,26.78,17963785.0,438395027.0,1108600000.0,4434400000.0
sh605399,晨光新材,2020-08-17,23.7,23.95,22.89,23.68,24.1,10679015.0,250692656.0,1089280000.0,4357120000.0
sh605399,晨光新材,2020-08-18,23.45,23.94,23.38,23.87,23.68,8587074.0,203098279.0,1098020000.0,4392080000.0
sh605399,晨光新材,2020-08-19,23.62,23.62,22.63,22.73,23.87,8607495.0,198638583.0,1045580000.0,4182320000.0
sh605399,晨光新材,2020-08-20,22.41,22.46,21.84,22.0,22.73,6598150.0,145649126.0,1012000000.0,4048000000.0
sh605399,晨光新材,2020-08-21,22.01,22.28,21.86,22.14,22.0,4646265.0,102658032.0,1018440000.0,4073760000.0
sh605399,晨光新材,2020-08-24,22.17,22.21,20.82,21.19,22.14,5259142.0,112090747.0,974740000.0,3898960000.0
sh605399,晨光新材,2020-08-25,21.2,21.72,21.0,21.52,21.19,5229731.0,111518729.0,989920000.0,3959680000.0
sh605399,晨光新材,2020-08-26,21.31,21.43,20.53,20.66,21.52,4761121.0,99870478.0,950360000.0,3801440000.0
sh605399,晨光新材,2020-08-27,20.53,20.81,20.2,20.58,20.66,3536998.0,72395162.0,946680000.0,3786720000.0
sh605399,晨光新材,2020-08-28,20.68,21.29,20.6,20.96,20.58,4067622.0,85607811.0,964160000.0,3856640000.0
sh605399,晨光新材,2020-08-31,20.95,21.6,20.88,21.04,20.96,3871828.0,82345090.0,967840000.0,3871360000.0
sh605399,晨光新材,2020-09-01,20.98,20.98,20.52,20.8,21.04,2776081.0,57532793.0,956800000.0,3827200000.0
sh605399,晨光新材,2020-09-02,20.88,20.96,20.55,20.72,20.8,2427969.0,50209736.0,953120000.0,3812480000.0
sh605399,晨光新材,2020-09-03,20.59,20.71,20.29,20.33,20.72,2536731.0,51954464.0,935180000.0,3740720000.0
sh605399,晨光新材,2020-09-04,20.01,20.92,19.81,20.75,20.33,3239640.0,66223664.0,954500000.0,3818000000.0
sh605399,晨光新材,2020-09-07,20.76,20.86,20.33,20.39,20.75,2408020.0,49727555.0,937940000.0,3751760000.0
sh605399,晨光新材,2020-09-08,20.4,20.49,20.06,20.33,20.39,2105949.0,42583225.0,935180000.0,3740720000.0
sh605399,晨光新材,2020-09-09,20.08,20.96,19.88,20.45,20.33,3824452.0,77707055.0,940700000.0,3762800000.0
sh605399,晨光新材,2020-09-10,20.48,20.58,19.51,19.6,20.45,2593190.0,52062368.0,901600000.0,3606400000.0
sh605399,晨光新材,2020-09-11,19.62,19.62,19.0,19.38,19.6,2112159.0,40675927.0,891480000.0,3565920000.0
sh605399,晨光新材,2020-09-14,19.39,19.71,19.25,19.51,19.38,1673159.0,32684500.0,897460000.0,3589840000.0
sh605399,晨光新材,2020-09-15,19.51,19.97,19.31,19.9,19.51,2056492.0,40609893.0,915400000.0,3661600000.0
sh605399,晨光新材,2020-09-16,19.9,20.19,19.73,20.14,19.9,1725412.0,34514511.0,926440000.0,3705760000.0
sh605399,晨光新材,2020-09-17,20.16,20.45,20.05,20.26,20.14,2834571.0,57535937.0,931960000.0,3727840000.0
sh605399,晨光新材,2020-09-18,20.15,20.26,19.85,19.97,20.26,2245129.0,44904298.0,918620000.0,3674480000.0
sh605399,晨光新材,2020-09-21,20.07,20.07,19.69,19.7,19.97,1586065.0,31464767.0,906200000.0,3624800000.0
sh605399,晨光新材,2020-09-22,19.48,19.66,19.14,19.25,19.7,1767271.0,34279066.0,885500000.0,3542000000.0
sh605399,晨光新材,2020-09-23,19.28,20.2,19.25,19.89,19.25,2753008.0,54796912.0,914940000.0,3659760000.0
sh605399,晨光新材,2020-09-24,19.81,20.86,19.7,20.23,19.89,6533238.0,133297224.0,930580000.0,3722320000.0
sh605399,晨光新材,2020-09-25,20.09,20.48,19.6,19.73,20.23,3320381.0,66380316.0,907580000.0,3630320000.0
sh605399,晨光新材,2020-09-28,19.74,19.89,18.86,18.87,19.73,3154315.0,60516195.0,868020000.0,3472080000.0
sh605399,晨光新材,2020-09-29,18.88,19.09,18.69,18.75,18.87,1666587.0,31480665.0,862500000.0,3450000000.0
sh605399,晨光新材,2020-09-30,18.9,18.93,18.58,18.62,18.75,1226638.0,22965235.0,856520000.0,3426080000.0
sh605399,晨光新材,2020-10-09,18.82,19.3,18.82,19.19,18.62,1887084.0,35939559.0,882740000.0,3530960000.0
sh605399,晨光新材,2020-10-12,19.22,19.72,19.22,19.6,19.19,2112364.0,41226336.0,901600000.0,3606400000.0
sh605399,晨光新材,2020-10-13,19.51,19.8,19.48,19.51,19.6,2030622.0,39769423.0,897460000.0,3589840000.0
sh605399,晨光新材,2020-10-14,19.43,19.66,19.29,19.6,19.51,1910991.0,37245503.0,901600000.0,3606400000.0
sh605399,晨光新材,2020-10-15,19.6,19.65,18.9,19.02,19.6,1813671.0,35032376.0,874920000.0,3499680000.0
sh605399,晨光新材,2020-10-16,19.03,19.25,18.96,19.14,19.02,1207138.0,23027146.0,880440000.0,3521760000.0
sh605399,晨光新材,2020-10-19,19.14,19.27,18.81,18.87,19.14,1445950.0,27454728.0,868020000.0,3472080000.0
sh605399,晨光新材,2020-10-20,18.8,19.06,18.67,19.03,18.87,1122939.0,21179713.0,875380000.0,3501520000.0
sh605399,晨光新材,2020-10-21,19.08,19.34,18.91,19.33,19.03,1676562.0,32080830.0,889180000.0,3556720000.0
sh605399,晨光新材,2020-10-22,19.13,19.24,18.95,19.04,19.33,1564653.0,29887727.0,875840000.0,3503360000.0
sh605399,晨光新材,2020-10-23,19.04,19.11,18.63,18.68,19.04,1681343.0,31716801.0,859280000.0,3437120000.0
sh605399,晨光新材,2020-10-26,18.59,18.65,18.32,18.49,18.68,1116032.0,20634730.0,850540000.0,3402160000.0
sh605399,晨光新材,2020-10-27,18.45,18.57,18.35,18.51,18.49,800636.0,14776875.0,851460000.0,3405840000.0
sh605399,晨光新材,2020-10-28,18.56,18.89,18.55,18.65,18.51,1226650.0,22924562.0,857900000.0,3431600000.0
sh605399,晨光新材,2020-10-29,18.38,18.49,18.21,18.22,18.65,1458238.0,26715074.0,838120000.0,3352480000.0
sh605399,晨光新材,2020-10-30,18.22,18.3,17.29,17.34,18.22,2448767.0,43532682.0,797640000.0,3190560000.0
sh605399,晨光新材,2020-11-02,17.4,17.45,17.02,17.2,17.34,1326922.0,22778249.0,791200000.0,3164800000.0
sh605399,晨光新材,2020-11-03,17.19,17.63,17.19,17.55,17.2,1020423.0,17820732.0,807300000.0,3229200000.0
sh605399,晨光新材,2020-11-04,17.47,17.7,17.43,17.53,17.55,914149.0,16059203.0,806380000.0,3225520000.0
sh605399,晨光新材,2020-11-05,17.65,18.49,17.61,18.23,17.53,2522545.0,45652397.0,838580000.0,3354320000.0
sh605399,晨光新材,2020-11-06,18.31,20.05,18.3,20.05,18.23,6994782.0,136288838.0,922300000.0,3689200000.0
sh605399,晨光新材,2020-11-09,20.85,21.25,20.13,20.66,20.05,11367651.0,234752052.0,950360000.0,3801440000.0
sh605399,晨光新材,2020-11-10,20.57,20.63,19.55,19.8,20.66,6734654.0,134800233.0,910800000.0,3643200000.0
sh605399,晨光新材,2020-11-11,19.7,20.8,19.62,20.4,19.8,7779571.0,159042957.0,938400000.0,3753600000.0
sh605399,晨光新材,2020-11-12,20.46,22.03,19.7,21.69,20.4,10676009.0,223167008.0,997740000.0,3990960000.0
sh605399,晨光新材,2020-11-13,21.05,21.2,20.69,20.87,21.69,6880293.0,144087506.0,960020000.0,3840080000.0
sh605399,晨光新材,2020-11-16,20.37,21.36,20.13,20.85,20.87,5285931.0,109543035.0,959100000.0,3836400000.0
sh605399,晨光新材,2020-11-17,20.69,21.56,20.55,21.37,20.85,7690898.0,162920279.0,983020000.0,3932080000.0
sh605399,晨光新材,2020-11-18,21.44,23.47,20.91,22.28,21.37,15082794.0,335197082.0,1024880000.0,4099520000.0
sh605399,晨光新材,2020-11-19,22.05,22.8,20.91,21.15,22.28,9803387.0,211170498.0,972900000.0,3891600000.0
sh605399,晨光新材,2020-11-20,20.79,21.99,20.22,21.59,21.15,9190546.0,193683912.0,993140000.0,3972560000.0
sh605399,晨光新材,2020-11-23,21.55,23.63,21.0,23.18,21.59,14896794.0,333952829.0,1066280000.0,4265120000.0
sh605399,晨光新材,2020-11-24,22.41,25.0,22.2,23.1,23.18,19387493.0,460317660.0,1062600000.0,4250400000.0
sh605399,晨光新材,2020-11-25,23.38,23.64,21.97,22.0,23.1,15142262.0,342682292.0,1012000000.0,4048000000.0
sh605399,晨光新材,2020-11-26,22.05,24.2,21.5,24.2,22.0,15785013.0,368523115.0,1113200000.0,4452800000.0
sh605399,晨光新材,2020-11-27,25.4,25.58,23.6,23.7,24.2,19381615.0,477131261.0,1090200000.0,4360800000.0
sh605399,晨光新材,2020-11-30,23.34,24.69,22.6,23.93,23.7,11565383.0,275120635.0,1100780000.0,4403120000.0
sh605399,晨光新材,2020-12-01,23.65,24.18,22.58,22.97,23.93,14326812.0,332251265.0,1056620000.0,4226480000.0
sh605399,晨光新材,2020-12-02,22.9,22.93,21.69,21.78,22.97,11372679.0,251226581.0,1001880000.0,4007520000.0
sh605399,晨光新材,2020-12-03,21.52,21.52,20.66,20.72,21.78,8267975.0,172825834.0,953120000.0,3812480000.0
sh605399,晨光新材,2020-12-04,20.61,21.11,20.56,20.77,20.72,5456738.0,113680365.0,955420000.0,3821680000.0
sh605399,晨光新材,2020-12-07,20.67,21.12,20.52,20.86,20.77,3988514.0,83136269.0,959560000.0,3838240000.0
sh605399,晨光新材,2020-12-08,21.22,21.57,21.0,21.17,20.86,5302530.0,112682981.0,973820000.0,3895280000.0
sh605399,晨光新材,2020-12-09,20.85,21.29,20.16,20.19,21.17,4924700.0,102147196.0,928740000.0,3714960000.0
sh605399,晨光新材,2020-12-10,20.05,20.05,19.42,19.56,20.19,4686266.0,92209395.0,899760000.0,3599040000.0
sh605399,晨光新材,2020-12-11,19.5,19.77,18.9,19.16,19.56,3371106.0,64947268.0,881360000.0,3525440000.0
sh605399,晨光新材,2020-12-14,19.16,19.34,18.85,19.33,19.16,2288300.0,43893480.0,889180000.0,3556720000.0
sh605399,晨光新材,2020-12-15,19.26,19.32,19.02,19.16,19.33,1896363.0,36278847.0,881360000.0,3525440000.0
sh605399,晨光新材,2020-12-16,19.18,19.3,18.55,18.61,19.16,2845100.0,53649383.0,856060000.0,3424240000.0
sh605399,晨光新材,2020-12-17,18.58,19.34,18.21,19.22,18.61,3745906.0,70822196.0,884120000.0,3536480000.0
sh605399,晨光新材,2020-12-18,19.19,19.58,19.02,19.44,19.22,3315910.0,64181975.0,894240000.0,3576960000.0
sh605399,晨光新材,2020-12-21,19.47,19.49,19.09,19.19,19.44,2960020.0,56963312.0,882740000.0,3530960000.0
sh605399,晨光新材,2020-12-22,19.19,19.19,18.35,18.37,19.19,3398506.0,63621270.0,845020000.0,3380080000.0
sh605399,晨光新材,2020-12-23,18.41,18.8,18.01,18.26,18.37,2341808.0,42908749.0,839960000.0,3359840000.0
sh605399,晨光新材,2020-12-24,18.03,18.37,17.65,17.73,18.26,2510992.0,44940393.0,815580000.0,3262320000.0
sh605399,晨光新材,2020-12-25,17.73,18.2,17.5,17.95,17.73,1816911.0,32619173.0,825700000.0,3302800000.0
sh605399,晨光新材,2020-12-28,17.95,17.99,17.28,17.35,17.95,2193322.0,38426963.0,798100000.0,3192400000.0
sh605399,晨光新材,2020-12-29,17.25,17.61,17.25,17.39,17.35,1502869.0,26187594.0,799940000.0,3199760000.0
sh605399,晨光新材,2020-12-30,17.41,17.55,17.23,17.36,17.39,1520597.0,26414217.0,798560000.0,3194240000.0
sh605399,晨光新材,2020-12-31,17.31,17.9,17.3,17.73,17.36,2221132.0,39195723.0,815580000.0,3262320000.0
sh605399,晨光新材,2021-01-04,17.73,18.07,17.45,17.96,17.73,2844024.0,50926842.0,826160000.0,3304640000.0
sh605399,晨光新材,2021-01-05,17.88,18.28,17.72,18.18,17.96,2617028.0,47118729.0,836280000.0,3345120000.0
sh605399,晨光新材,2021-01-06,18.18,18.43,17.56,17.8,18.18,2503661.0,44748911.0,818800000.0,3275200000.0
sh605399,晨光新材,2021-01-07,17.5,17.77,17.0,17.06,17.8,2763264.0,47602992.0,784760000.0,3139040000.0
sh605399,晨光新材,2021-01-08,17.06,17.2,16.02,16.74,17.06,1929920.0,32207958.0,770040000.0,3080160000.0
sh605399,晨光新材,2021-01-11,16.74,17.09,16.08,16.17,16.74,2132222.0,34983534.0,743820000.0,2975280000.0
sh605399,晨光新材,2021-01-12,16.08,16.38,16.05,16.24,16.17,1253200.0,20315429.0,747040000.0,2988160000.0
sh605399,晨光新材,2021-01-13,16.18,16.4,15.38,15.42,16.24,2773125.0,43616278.0,709320000.0,2837280000.0
sh605399,晨光新材,2021-01-14,15.4,15.71,14.79,15.59,15.42,2424014.0,37066229.0,717140000.0,2868560000.0
sh605399,晨光新材,2021-01-15,15.59,16.68,15.5,16.46,15.59,2706767.0,43996171.0,757160000.0,3028640000.0
sh605399,晨光新材,2021-01-18,16.58,16.86,16.34,16.5,16.46,1831800.0,30309355.0,759000000.0,3036000000.0
sh605399,晨光新材,2021-01-19,16.5,17.3,16.43,17.03,16.5,3411548.0,58074160.0,783380000.0,3133520000.0
sh605399,晨光新材,2021-01-20,16.9,17.13,16.58,16.94,17.03,1768700.0,29744210.0,779240000.0,3116960000.0
sh605399,晨光新材,2021-01-21,17.01,17.01,16.58,16.59,16.94,1742741.0,29098516.0,763140000.0,3052560000.0
sh605399,晨光新材,2021-01-22,16.68,16.72,16.12,16.16,16.59,1602610.0,26080666.0,743360000.0,2973440000.0
sh605399,晨光新材,2021-01-25,16.25,16.64,15.63,16.42,16.16,2431164.0,39130785.0,755320000.0,3021280000.0
sh605399,晨光新材,2021-01-26,16.35,17.64,16.01,17.21,16.42,4706767.0,80979960.0,791660000.0,3166640000.0
sh605399,晨光新材,2021-01-27,16.91,17.16,16.65,17.12,17.21,2810265.0,47461105.0,787520000.0,3150080000.0
sh605399,晨光新材,2021-01-28,16.98,17.49,16.8,17.02,17.12,2313706.0,39682995.0,782920000.0,3131680000.0
sh605399,晨光新材,2021-01-29,17.18,17.22,16.02,16.24,17.02,2453647.0,40300356.0,747040000.0,2988160000.0
sh605399,晨光新材,2021-02-01,15.95,16.43,15.8,16.36,16.24,1441800.0,23280977.0,752560000.0,3010240000.0
sh605399,晨光新材,2021-02-02,16.26,16.48,15.94,16.0,16.36,1588206.0,25524230.0,736000000.0,2944000000.0
sh605399,晨光新材,2021-02-03,15.94,16.35,15.53,16.1,16.0,2420600.0,38534825.0,740600000.0,2962400000.0
sh605399,晨光新材,2021-02-04,15.73,16.07,15.35,15.59,16.1,1792301.0,28025928.0,717140000.0,2868560000.0
sh605399,晨光新材,2021-02-05,15.65,15.8,15.12,15.13,15.59,1305437.0,20136398.0,695980000.0,2783920000.0
sh605399,晨光新材,2021-02-08,15.21,15.5,14.95,15.35,15.13,998100.0,15204850.0,706100000.0,2824400000.0
sh605399,晨光新材,2021-02-09,15.34,15.65,15.21,15.6,15.35,1111853.0,17240226.0,717600000.0,2870400000.0
sh605399,晨光新材,2021-02-10,15.42,15.65,15.42,15.58,15.6,949726.0,14755422.0,716680000.0,2866720000.0
sh605399,晨光新材,2021-02-18,15.72,16.07,15.72,15.99,15.58,1520437.0,24208472.0,735540000.0,2942160000.0
sh605399,晨光新材,2021-02-19,16.01,16.5,15.9,16.38,15.99,1888602.0,30766261.0,753480000.0,3013920000.0
sh605399,晨光新材,2021-02-22,16.4,17.09,16.33,16.81,16.38,3360566.0,56482060.0,773260000.0,3093040000.0
sh605399,晨光新材,2021-02-23,16.68,16.82,16.41,16.53,16.81,1597564.0,26544153.0,760380000.0,3041520000.0
sh605399,晨光新材,2021-02-24,16.46,16.88,16.34,16.63,16.53,1702553.0,28260826.0,764980000.0,3059920000.0
sh605399,晨光新材,2021-02-25,16.84,16.85,16.11,16.17,16.63,1481433.0,24237561.0,743820000.0,2975280000.0
sh605399,晨光新材,2021-02-26,16.06,17.18,16.0,16.65,16.17,2941484.0,49160008.0,765900000.0,3063600000.0
sh605399,晨光新材,2021-03-01,16.45,17.6,16.45,17.32,16.65,4001803.0,69066113.0,796720000.0,3186880000.0
sh605399,晨光新材,2021-03-02,17.37,17.42,16.78,16.95,17.32,2568393.0,43571860.0,779700000.0,3118800000.0
sh605399,晨光新材,2021-03-03,17.06,17.16,16.85,17.11,16.95,2060543.0,35146029.0,787060000.0,3148240000.0
sh605399,晨光新材,2021-03-04,17.03,17.03,16.6,16.66,17.11,1925250.0,32380675.0,766360000.0,3065440000.0
sh605399,晨光新材,2021-03-05,16.58,16.85,16.53,16.7,16.66,1338403.0,22338722.0,768200000.0,3072800000.0
sh605399,晨光新材,2021-03-08,16.73,16.97,16.47,16.51,16.7,1350700.0,22632932.0,759460000.0,3037840000.0
sh605399,晨光新材,2021-03-09,16.57,18.16,15.52,18.16,16.51,10414003.0,183743330.0,835360000.0,3341440000.0
sh605399,晨光新材,2021-03-10,19.98,19.98,18.18,18.56,18.16,15358492.0,295262603.0,853760000.0,3415040000.0
sh605399,晨光新材,2021-03-11,17.32,18.37,17.31,18.1,18.56,9114783.0,162626248.0,832600000.0,3330400000.0
sh605399,晨光新材,2021-03-12,17.97,18.08,17.26,17.39,18.1,6248360.0,109181076.0,799940000.0,3199760000.0
sh605399,晨光新材,2021-03-15,17.39,17.49,16.88,16.98,17.39,3663981.0,62606521.0,781080000.0,3124320000.0
sh605399,晨光新材,2021-03-16,16.8,17.03,16.55,16.96,16.98,3293017.0,55248673.0,780160000.0,3120640000.0
sh605399,晨光新材,2021-03-17,16.79,17.32,16.6,17.23,16.96,3586517.0,61029117.0,792580000.0,3170320000.0
sh605399,晨光新材,2021-03-18,17.02,18.08,17.02,17.77,17.23,5481300.0,97023394.0,817420000.0,3269680000.0
sh605399,晨光新材,2021-03-19,17.39,17.95,17.3,17.75,17.77,3946657.0,69604386.0,816500000.0,3266000000.0
sh605399,晨光新材,2021-03-22,17.62,18.17,17.51,17.86,17.75,4447823.0,79639464.0,821560000.0,3286240000.0
sh605399,晨光新材,2021-03-23,17.7,17.86,17.03,17.05,17.86,3595836.0,62329235.0,784300000.0,3137200000.0
sh605399,晨光新材,2021-03-24,17.0,17.7,16.91,17.36,17.05,3551197.0,61451526.0,798560000.0,3194240000.0
sh605399,晨光新材,2021-03-25,17.46,17.55,17.05,17.08,17.36,1874716.0,32343391.0,785680000.0,3142720000.0
sh605399,晨光新材,2021-03-26,17.06,17.25,17.03,17.09,17.08,1771000.0,30324473.0,786140000.0,3144560000.0
sh605399,晨光新材,2021-03-29,17.09,17.31,16.8,17.2,17.09,2625708.0,44779916.0,791200000.0,3164800000.0
sh605399,晨光新材,2021-03-30,17.22,17.22,16.86,16.93,17.2,1749966.0,29722619.0,778780000.0,3115120000.0
sh605399,晨光新材,2021-03-31,17.03,17.22,16.88,17.1,16.93,2180553.0,37263611.0,786600000.0,3146400000.0
sh605399,晨光新材,2021-04-01,17.11,17.19,16.74,16.91,17.1,2119700.0,35755568.0,777860000.0,3111440000.0
sh605399,晨光新材,2021-04-02,16.91,17.89,16.78,17.41,16.91,3806821.0,65883734.0,800860000.0,3203440000.0
sh605399,晨光新材,2021-04-06,17.39,17.69,17.28,17.64,17.41,3155410.0,55237986.0,811440000.0,3245760000.0
sh605399,晨光新材,2021-04-07,17.6,18.01,17.47,17.98,17.64,4110814.0,73157645.0,827080000.0,3308320000.0
sh605399,晨光新材,2021-04-08,17.99,18.31,17.73,17.82,17.98,4685776.0,84304742.0,819720000.0,3278880000.0
sh605399,晨光新材,2021-04-09,17.72,18.28,17.53,18.14,17.82,3972774.0,71394101.0,834440000.0,3337760000.0
sh605399,晨光新材,2021-04-12,18.35,18.45,17.91,18.26,18.14,4383804.0,79679329.0,839960000.0,3359840000.0
sh605399,晨光新材,2021-04-13,18.12,18.18,17.6,17.7,18.26,2670785.0,47593141.0,814200000.0,3256800000.0
sh605399,晨光新材,2021-04-14,17.7,19.47,17.62,18.49,17.7,5826564.0,107370555.0,850540000.0,3402160000.0
sh605399,晨光新材,2021-04-15,18.45,18.61,18.01,18.24,18.49,3299838.0,60299613.0,839040000.0,3356160000.0
sh605399,晨光新材,2021-04-16,18.26,18.33,17.97,18.28,18.24,3023021.0,54895619.0,840880000.0,3363520000.0
sh605399,晨光新材,2021-04-19,18.3,18.53,18.11,18.33,18.28,3353521.0,61454936.0,843180000.0,3372720000.0
sh605399,晨光新材,2021-04-20,18.98,20.1,18.64,19.36,18.33,11149532.0,216035614.0,890560000.0,3562240000.0
sh605399,晨光新材,2021-04-21,19.11,19.39,18.75,18.91,19.36,5407020.0,102943085.0,869860000.0,3479440000.0
sh605399,晨光新材,2021-04-22,18.95,19.39,18.81,19.23,18.91,3954830.0,75819859.0,884580000.0,3538320000.0
sh605399,晨光新材,2021-04-23,19.08,19.1,18.56,18.69,19.23,3263625.0,61202841.0,859740000.0,3438960000.0
sh605399,晨光新材,2021-04-26,18.6,18.84,18.32,18.51,18.69,2539000.0,47027810.0,851460000.0,3405840000.0
sh605399,晨光新材,2021-04-27,18.38,18.66,18.09,18.3,18.51,2546100.0,46670277.0,841800000.0,3367200000.0
sh605399,晨光新材,2021-04-28,18.35,18.58,18.15,18.46,18.3,2190734.0,40200449.0,849160000.0,3396640000.0
sh605399,晨光新材,2021-04-29,18.3,18.6,18.11,18.18,18.46,2420233.0,44329256.0,836280000.0,3345120000.0
sh605399,晨光新材,2021-04-30,18.23,18.32,17.35,17.49,18.18,3367523.0,59631032.0,804540000.0,3218160000.0
sh605399,晨光新材,2021-05-06,17.58,17.97,17.5,17.81,17.49,1864105.0,33085818.0,819260000.0,3277040000.0
sh605399,晨光新材,2021-05-07,17.8,18.3,17.5,18.05,17.81,2457700.0,44095973.0,830300000.0,3321200000.0
sh605399,晨光新材,2021-05-10,18.5,18.5,18.1,18.19,18.05,2135621.0,38959807.0,836740000.0,3346960000.0
sh605399,晨光新材,2021-05-11,18.09,18.15,17.5,17.85,18.19,1820000.0,32518954.0,821100000.0,3284400000.0
sh605399,晨光新材,2021-05-12,17.72,18.07,17.58,18.05,17.85,1499400.0,26860438.0,830300000.0,3321200000.0
sh605399,晨光新材,2021-05-13,17.9,18.02,17.54,17.63,18.05,1725300.0,30609168.0,810980000.0,3243920000.0
sh605399,晨光新材,2021-05-14,17.64,17.84,17.56,17.81,17.63,1357400.0,24069500.0,819260000.0,3277040000.0
sh605399,晨光新材,2021-05-17,17.8,18.07,17.61,17.96,17.81,1623000.0,29043443.0,826160000.0,3304640000.0
sh605399,晨光新材,2021-05-18,18.15,18.15,17.73,17.9,17.96,1075340.0,19191072.0,823400000.0,3293600000.0
sh605399,晨光新材,2021-05-19,17.85,17.88,17.7,17.8,17.9,856634.0,15226850.0,818800000.0,3275200000.0
sh605399,XD晨光新,2021-05-20,17.6,17.6,16.78,16.95,17.59,2081889.0,35478675.0,779700000.0,3118800000.0
sh605399,晨光新材,2021-05-21,16.93,17.15,16.89,16.98,16.95,1118263.0,19002409.0,781080000.0,3124320000.0
sh605399,晨光新材,2021-05-24,17.09,17.1,16.8,16.93,16.98,902400.0,15288724.0,778780000.0,3115120000.0
sh605399,晨光新材,2021-05-25,16.86,17.19,16.85,17.06,16.93,1233030.0,20996007.0,784760000.0,3139040000.0
sh605399,晨光新材,2021-05-26,17.11,17.36,17.06,17.29,17.06,1184100.0,20390432.0,795340000.0,3181360000.0
sh605399,晨光新材,2021-05-27,17.33,17.57,17.23,17.54,17.29,1448600.0,25307369.0,806840000.0,3227360000.0
sh605399,晨光新材,2021-05-28,17.39,18.1,17.39,18.03,17.54,3033000.0,54232059.0,829380000.0,3317520000.0
sh605399,晨光新材,2021-05-31,18.19,18.38,17.89,18.14,18.03,3182279.0,57722057.0,834440000.0,3337760000.0
sh605399,晨光新材,2021-06-01,18.14,18.47,18.0,18.33,18.14,2438759.0,44589132.0,843180000.0,3372720000.0
sh605399,晨光新材,2021-06-02,18.34,18.5,18.09,18.31,18.33,2480158.0,45386584.0,842260000.0,3369040000.0
sh605399,晨光新材,2021-06-03,18.18,18.46,18.12,18.25,18.31,2150537.0,39337558.0,839500000.0,3358000000.0
sh605399,晨光新材,2021-06-04,18.25,18.39,17.99,18.01,18.25,1978513.0,35910239.0,828460000.0,3313840000.0
sh605399,晨光新材,2021-06-07,18.17,18.39,18.03,18.15,18.01,1740937.0,31766303.0,834900000.0,3339600000.0
sh605399,晨光新材,2021-06-08,18.08,18.26,18.08,18.17,18.15,1380543.0,25069956.0,835820000.0,3343280000.0
sh605399,晨光新材,2021-06-09,18.13,18.88,18.09,18.7,18.17,4787402.0,89231029.0,860200000.0,3440800000.0
sh605399,晨光新材,2021-06-10,18.68,18.68,18.25,18.28,18.7,3109405.0,57114344.0,840880000.0,3363520000.0
sh605399,晨光新材,2021-06-11,18.25,18.34,17.82,17.84,18.28,2329700.0,42017330.0,820640000.0,3282560000.0
sh605399,晨光新材,2021-06-15,17.85,17.85,17.31,17.37,17.84,1629250.0,28462314.0,799020000.0,3196080000.0
sh605399,晨光新材,2021-06-16,17.37,17.45,17.08,17.25,17.37,1260512.0,21795452.0,793500000.0,3174000000.0
sh605399,晨光新材,2021-06-17,17.35,18.15,17.3,17.99,17.25,2696829.0,48000609.0,827540000.0,3310160000.0
sh605399,晨光新材,2021-06-18,17.95,19.56,17.9,18.68,17.99,6608365.0,124450320.0,859280000.0,3437120000.0
sh605399,晨光新材,2021-06-21,18.65,19.2,18.55,18.89,18.68,4664708.0,88223190.0,868940000.0,3475760000.0
sh605399,晨光新材,2021-06-22,18.98,19.48,18.9,19.22,18.89,5373414.0,103444478.0,884120000.0,3536480000.0
sh605399,晨光新材,2021-06-23,19.25,19.29,18.88,19.2,19.22,3285718.0,62716551.0,883200000.0,3532800000.0
sh605399,晨光新材,2021-06-24,18.95,19.66,18.6,19.4,19.2,4019600.0,77556069.0,892400000.0,3569600000.0
sh605399,晨光新材,2021-06-25,19.32,19.63,19.03,19.55,19.4,3861448.0,74953371.0,899300000.0,3597200000.0
sh605399,晨光新材,2021-06-28,19.56,19.65,19.17,19.43,19.55,2506421.0,48425020.0,893780000.0,3575120000.0
sh605399,晨光新材,2021-06-29,19.44,21.37,19.44,21.37,19.43,5962358.0,125420770.0,983020000.0,3932080000.0
sh605399,晨光新材,2021-06-30,22.17,23.51,22.03,23.51,21.37,8418299.0,193487903.0,1081460000.0,4325840000.0
sh605399,晨光新材,2021-07-01,22.99,23.47,21.28,21.51,23.51,15243985.0,338718277.0,989460000.0,3957840000.0
sh605399,晨光新材,2021-07-02,21.5,22.1,20.96,21.01,21.51,10667162.0,229358809.0,966460000.0,3865840000.0
sh605399,晨光新材,2021-07-05,21.08,22.97,21.07,22.14,21.01,13594657.0,299721638.0,1018440000.0,4073760000.0
sh605399,晨光新材,2021-07-06,21.78,22.0,20.85,21.46,22.14,9317058.0,199038639.0,987160000.0,3948640000.0
sh605399,晨光新材,2021-07-07,21.03,22.02,20.83,21.84,21.46,8340119.0,179497630.0,1004640000.0,4018560000.0
sh605399,晨光新材,2021-07-08,21.6,22.32,21.28,22.06,21.84,7192473.0,156645321.0,1014760000.0,4059040000.0
sh605399,晨光新材,2021-07-09,21.61,22.04,21.06,21.37,22.06,6014247.0,129295168.0,983020000.0,3932080000.0
sh605399,晨光新材,2021-07-12,21.69,21.95,21.3,21.47,21.37,5540972.0,119308904.0,987620000.0,3950480000.0
sh605399,晨光新材,2021-07-13,21.25,23.62,21.2,23.62,21.47,6645028.0,151963329.0,1086520000.0,4346080000.0
sh605399,晨光新材,2021-07-14,23.88,24.66,23.1,23.92,23.62,13909186.0,332161313.0,1100320000.0,4401280000.0
sh605399,晨光新材,2021-07-15,24.08,25.97,23.41,24.85,23.92,10713858.0,261963457.0,1143100000.0,4572400000.0
sh605399,晨光新材,2021-07-16,24.4,24.55,23.7,24.03,24.85,7159363.0,173057884.0,1105380000.0,4421520000.0
sh605399,晨光新材,2021-07-19,23.7,24.4,23.06,24.22,24.03,5399997.0,128367719.0,1114120000.0,4456480000.0
sh605399,晨光新材,2021-07-20,23.71,24.19,23.21,24.0,24.22,4390983.0,103699379.0,1104000000.0,4416000000.0
sh605399,晨光新材,2021-07-21,23.66,24.81,23.66,24.18,24.0,5811831.0,140449990.0,1112280000.0,4449120000.0
sh605399,晨光新材,2021-07-22,24.1,25.8,23.8,25.31,24.18,7940173.0,199290823.0,1164260000.0,4657040000.0
sh605399,晨光新材,2021-07-23,24.89,25.19,23.65,24.3,25.31,7370599.0,180800435.0,1117800000.0,4471200000.0
sh605399,晨光新材,2021-07-26,24.9,25.38,24.07,25.07,24.3,6000775.0,148776190.0,1153220000.0,4612880000.0
sh605399,晨光新材,2021-07-27,24.78,26.73,23.3,23.7,25.07,9546317.0,243503536.0,1090200000.0,4360800000.0
sh605399,晨光新材,2021-07-28,22.8,23.55,21.33,21.93,23.7,7288019.0,162100719.0,1008780000.0,4035120000.0
sh605399,晨光新材,2021-07-29,22.49,24.12,22.49,24.12,21.93,6314028.0,149137526.0,1109520000.0,4438080000.0
sh605399,晨光新材,2021-07-30,24.76,24.8,23.3,23.99,24.12,5694794.0,135749050.0,1103540000.0,4414160000.0
sh605399,晨光新材,2021-08-02,24.17,24.56,23.07,23.67,23.99,4513066.0,106665475.0,1088820000.0,4355280000.0
sh605399,晨光新材,2021-08-03,23.84,26.03,23.19,24.5,23.67,8901060.0,223169490.0,1127000000.0,4508000000.0
sh605399,晨光新材,2021-08-04,24.98,25.6,24.23,25.13,24.5,5120900.0,128247305.0,1635406119.2,4623920000.0
sh605399,晨光新材,2021-08-05,25.06,26.63,24.83,25.64,25.13,5821434.0,150380171.0,1668595817.6,4717760000.0
sh605399,晨光新材,2021-08-06,25.24,26.46,24.8,25.6,25.64,4477855.0,115271086.0,1665992704.0,4710400000.0
sh605399,晨光新材,2021-08-09,25.57,27.2,25.55,26.96,25.6,6990095.0,185849060.0,1754498566.4,4960640000.0
sh605399,晨光新材,2021-08-10,26.96,27.42,26.38,27.18,26.96,5860135.0,157226281.0,1768815691.2,5001120000.0
sh605399,晨光新材,2021-08-11,26.81,27.2,26.5,26.61,27.18,3955775.0,105610660.0,1731721322.4,4896240000.0
sh605399,晨光新材,2021-08-12,26.0,27.9,25.58,27.38,26.61,5941080.0,159754888.0,1781831259.1999998,5037920000.0
sh605399,晨光新材,2021-08-13,27.24,27.98,26.82,27.39,27.38,5156394.0,141163447.0,1782482037.6,5039760000.0
sh605399,晨光新材,2021-08-16,27.78,29.6,27.78,28.09,27.39,6462028.0,183748371.0,1828036525.6,5168560000.0
sh605399,晨光新材,2021-08-17,29.3,30.9,29.3,30.9,28.09,11838950.0,361188545.0,2010905256.0,5685600000.0
sh605399,晨光新材,2021-08-18,30.31,33.99,30.31,33.99,30.9,15109533.0,485355775.0,2211995781.6,6254160000.0
sh605399,晨光新材,2021-08-19,34.5,37.39,33.61,37.39,33.99,17528887.0,620131523.0,2433260437.6,6879760000.0
sh605399,晨光新材,2021-08-20,35.7,39.98,34.0,37.68,37.39,16886677.0,626021435.0,2452133011.2,6933120000.0
sh605399,晨光新材,2021-08-23,38.18,40.55,36.94,37.32,37.68,15438940.0,594931010.0,2428704988.8,6866880000.0
sh605399,晨光新材,2021-08-24,36.5,38.0,35.64,36.55,37.32,12574693.0,461960670.0,2378595052.0,6725200000.0
sh605399,晨光新材,2021-08-25,36.11,40.21,35.06,40.21,36.55,15523829.0,593844843.0,2616779946.4,7398640000.0
sh605399,晨光新材,2021-08-26,41.0,43.74,39.97,40.41,40.21,17210972.0,715455020.0,2629795514.4,7435440000.0
sh605399,晨光新材,2021-08-27,39.58,40.66,37.63,39.74,40.41,11587520.0,452900040.0,2586193361.6,7312160000.0
sh605399,晨光新材,2021-08-30,40.0,40.8,37.8,38.57,39.74,11331610.0,443501906.0,2510052288.8,7096880000.0
sh605399,晨光新材,2021-08-31,38.3,39.96,37.15,39.4,38.57,9788576.0,381481814.0,2564066896.0,7249600000.0
sh605399,晨光新材,2021-09-01,39.23,39.3,35.53,38.08,39.4,12064524.0,450734633.0,2478164147.2,7006720000.0
sh605399,晨光新材,2021-09-02,37.6,39.18,36.38,38.83,38.08,8302100.0,317577443.0,2526972527.2,7144720000.0
sh605399,晨光新材,2021-09-03,38.01,41.49,37.98,38.51,38.83,9347233.0,371088291.0,2506147618.4,7085840000.0
sh605399,晨光新材,2021-09-06,37.22,41.3,35.8,41.1,38.51,11285388.0,434695902.0,2674699224.0,7562400000.0
sh605399,晨光新材,2021-09-07,40.33,41.14,39.18,40.52,41.1,7752806.0,312326618.0,2636954076.8,7455680000.0
sh605399,晨光新材,2021-09-08,41.28,44.45,40.12,43.97,40.52,9390668.0,398780811.0,2861472624.8,8090480000.0
sh605399,晨光新材,2021-09-09,43.01,44.83,40.38,40.77,43.97,7901047.0,333936053.0,2653223536.8,7501680000.0
sh605399,晨光新材,2021-09-10,40.25,41.74,38.62,40.06,40.77,7092262.0,284360202.0,2607018270.4,7371040000.0
sh605399,晨光新材,2021-09-13,40.49,41.19,38.8,40.96,40.06,5945706.0,239615763.0,2665588326.4,7536640000.0
sh605399,晨光新材,2021-09-14,40.79,43.53,39.54,41.62,40.96,6833500.0,284773858.0,2708539700.8,7658080000.0
sh605399,晨光新材,2021-09-15,40.56,43.66,40.31,43.0,41.62,6670086.0,282375300.0,2798347120.0,7912000000.0
sh605399,晨光新材,2021-09-16,43.5,43.75,38.7,39.16,43.0,7062683.0,288080085.0,2548448214.4,7205440000.0
sh605399,晨光新材,2021-09-17,38.49,43.02,37.61,43.02,39.16,9252068.0,382914867.0,2799648676.8,7915680000.0
sh605399,晨光新材,2021-09-22,42.43,42.8,39.41,40.98,43.02,7591916.0,309094500.0,2666889883.2,7540320000.0
sh605399,晨光新材,2021-09-23,41.9,41.9,37.5,38.38,40.98,6887933.0,267702919.0,2497687499.2,7061920000.0
sh605399,晨光新材,2021-09-24,37.7,39.16,36.61,37.8,38.38,4875416.0,185223629.0,2459942352.0,6955200000.0
sh605399,晨光新材,2021-09-27,37.9,38.8,35.6,37.45,37.8,4465000.0,166289027.0,2437165108.0,6890800000.0
sh605399,晨光新材,2021-09-28,37.47,38.16,36.36,36.4,37.45,3150221.0,117088021.0,2368833376.0,6697600000.0
sh605399,晨光新材,2021-09-29,36.0,36.99,34.8,35.76,36.4,3539197.0,126924183.0,2327183558.4,6579840000.0
sh605399,晨光新材,2021-09-30,36.27,36.97,35.85,36.3,35.76,2232418.0,81256773.0,2362325592.0,6679200000.0
sh605399,晨光新材,2021-10-08,36.93,37.3,34.14,35.31,36.3,4604400.0,161457940.0,2297898530.4,6497040000.0
sh605399,晨光新材,2021-10-11,34.89,35.04,33.51,33.98,35.31,2798906.0,95809739.0,2211345003.2,6252320000.0
sh605399,晨光新材,2021-10-12,33.28,34.8,32.0,32.7,33.98,3715415.0,123090098.0,2128045368.0,6016800000.0
sh605399,晨光新材,2021-10-13,32.55,33.33,31.39,31.84,32.7,3867115.0,123048045.0,2072078425.6,5858560000.0
sh605399,晨光新材,2021-10-14,31.73,33.33,31.07,32.92,31.84,3549206.0,115326169.0,2142362492.8,6057280000.0
sh605399,晨光新材,2021-10-15,32.92,33.87,32.15,33.11,32.92,2820400.0,93136096.0,2154727282.4,6092240000.0
sh605399,晨光新材,2021-10-18,33.68,35.46,33.0,34.8,33.11,3344715.0,115793802.0,2264708832.0,6403200000.0
sh605399,晨光新材,2021-10-19,35.25,38.28,34.3,38.28,34.8,6344672.0,233119361.0,2491179715.2,7043520000.0
sh605399,晨光新材,2021-10-20,37.96,41.53,37.15,40.0,38.28,8533022.0,337950437.0,2603113600.0,7360000000.0
sh605399,晨光新材,2021-10-21,40.01,41.88,39.79,41.31,40.0,5740106.0,235987733.0,2688365570.4,7601040000.0
sh605399,晨光新材,2021-10-22,41.11,44.56,40.3,43.69,41.31,8036323.0,344699715.0,2843250829.6000004,8038960000.0
sh605399,晨光新材,2021-10-25,46.0,46.88,42.33,46.2,43.69,8225809.0,368248872.0,3006596207.9999995,8500800000.0
sh605399,晨光新材,2021-10-26,49.32,50.82,45.55,46.42,46.2,15243511.0,743649528.0,3020913332.8,8541280000.0
sh605399,晨光新材,2021-10-27,46.09,50.75,46.0,47.75,46.42,12762889.0,620298432.0,3107466860.0,8786000000.0
sh605399,晨光新材,2021-10-28,47.75,49.31,47.01,48.11,47.75,6350200.0,306163909.0,3130894882.4,8852240000.0
sh605399,晨光新材,2021-10-29,48.07,48.9,45.0,47.22,48.11,6385020.0,299660651.0,3072975604.8,8688480000.0
sh605399,晨光新材,2021-11-01,49.7,51.48,48.51,48.88,47.22,7314751.0,365623065.0,3181004819.2,8993920000.0
sh605399,晨光新材,2021-11-02,49.14,52.58,49.14,50.84,48.88,7141570.0,365126422.0,3308557385.6000004,9354560000.0
sh605399,晨光新材,2021-11-03,49.97,50.72,48.0,49.1,50.84,5522520.0,271109503.0,3195321944.0,9034400000.0
sh605399,晨光新材,2021-11-04,49.8,50.8,48.1,48.91,49.1,5297300.0,261073748.0,3182957154.4,8999440000.0
sh605399,晨光新材,2021-11-05,48.99,49.43,44.02,44.02,48.91,8369201.0,384639507.0,2864726516.8,8099680000.0
sh605399,晨光新材,2021-11-08,44.0,44.02,40.3,41.64,44.02,7881682.0,328138126.0,2709841257.6000004,7661760000.0
sh605399,晨光新材,2021-11-09,41.11,42.51,41.01,41.45,41.64,4475521.0,186161156.0,2697476468.0,7626800000.0
sh605399,晨光新材,2021-11-10,41.5,41.58,39.7,41.1,41.45,5302130.0,214744117.0,2674699224.0,7562400000.0
sh605399,晨光新材,2021-11-11,40.6,41.74,39.3,39.88,41.1,6301300.0,252842441.0,2595304259.2000003,7337920000.0
sh605399,晨光新材,2021-11-12,39.72,40.28,39.22,39.54,39.88,4572163.0,181294360.0,2573177793.6,7275360000.0
sh605399,晨光新材,2021-11-15,39.93,39.99,37.34,38.1,39.54,5446600.0,207396240.0,2479465704.0,7010400000.0
sh605399,晨光新材,2021-11-16,38.38,38.38,36.58,36.78,38.1,3946875.0,147143039.0,2393562955.2000003,6767520000.0
sh605399,晨光新材,2021-11-17,36.78,37.56,36.57,37.54,36.78,3615844.0,134519700.0,2443022113.6,6907360000.0
sh605399,晨光新材,2021-11-18,38.48,41.29,38.4,41.29,37.54,5581250.0,223990445.0,2687064013.6000004,7597360000.0
sh605399,晨光新材,2021-11-19,42.5,43.3,40.35,40.48,41.29,13287619.0,552080703.0,2634350963.2000003,7448320000.0
sh605399,晨光新材,2021-11-22,40.64,44.53,40.22,44.53,40.48,11359692.0,492402557.0,2897916215.2,8193520000.0
sh605399,晨光新材,2021-11-23,44.53,48.98,44.41,48.98,44.53,12556613.0,588917544.0,3187512603.2,9012320000.0
sh605399,晨光新材,2021-11-24,49.98,53.88,49.15,52.29,48.98,12984597.0,683330812.0,3402920253.6000004,9621360000.0
sh605399,晨光新材,2021-11-25,52.76,55.9,49.68,53.71,52.29,11305200.0,600032051.0,3495330786.4,9882640000.0
sh605399,晨光新材,2021-11-26,53.43,54.63,52.6,53.55,53.71,8052000.0,432027364.0,3484918332.0,9853200000.0
sh605399,晨光新材,2021-11-29,53.38,53.38,49.0,51.1,53.55,8223545.0,420623199.0,3325477624.0,9402400000.0
sh605399,晨光新材,2021-11-30,51.98,52.0,48.9,49.27,51.1,6376672.0,316574751.0,3206385176.7999997,9065680000.0
sh605399,晨光新材,2021-12-01,49.27,49.74,46.4,47.21,49.27,6092311.0,288568525.0,3072324826.4,8686640000.0
sh605399,晨光新材,2021-12-02,46.99,47.25,44.95,45.56,47.21,5101111.0,233322455.0,2964946390.3999996,8383040000.0
sh605399,晨光新材,2021-12-03,44.95,46.0,43.8,43.81,45.56,4706443.0,208799520.0,2851060170.4,8061040000.0
sh605399,晨光新材,2021-12-06,44.33,48.19,43.82,48.19,43.81,6356517.0,296503748.0,3136101109.6000004,8866960000.0
sh605399,晨光新材,2021-12-07,50.0,52.52,44.6,46.55,48.19,17804682.0,860785490.0,3029373452.0,8565200000.0
sh605399,晨光新材,2021-12-08,45.71,46.1,44.0,44.76,46.55,8843994.0,398188563.0,2912884118.4,8235840000.0
sh605399,晨光新材,2021-12-09,44.76,44.87,42.38,43.27,44.76,9155829.0,395564518.0,2815918136.8,7961680000.0
sh605399,晨光新材,2021-12-10,43.69,46.78,43.56,44.28,43.27,10287300.0,459926310.0,2881646755.2,8147520000.0
sh605399,晨光新材,2021-12-13,42.84,45.49,42.68,44.48,44.28,9154319.0,407241313.0,2894662323.2000003,8184320000.0
sh605399,晨光新材,2021-12-14,44.89,44.97,43.13,43.25,44.48,6884592.0,300407156.0,2814616580.0,7958000000.0
sh605399,晨光新材,2021-12-15,43.45,45.41,42.71,44.6,43.25,7698300.0,339881664.0,2902471664.0,8206400000.0
sh605399,晨光新材,2021-12-16,45.0,48.8,44.4,48.59,44.6,13432429.0,626248265.0,3162132245.6,8979917900.0
sh605399,晨光新材,2021-12-17,47.94,47.94,45.6,46.5,48.59,9994914.0,463886454.0,3026119560.0,8593665000.0
sh605399,晨光新材,2021-12-20,45.79,46.02,42.09,42.1,46.5,9746675.0,423356389.0,2739777064.0000005,7780501000.0
sh605399,晨光新材,2021-12-21,41.0,43.38,40.8,42.8,42.1,5221866.0,221952154.0,2785331552.0,7909868000.0
sh605399,晨光新材,2021-12-22,42.8,43.2,41.62,41.9,42.8,4175237.0,177107515.0,2726761496.0,7743539000.0
sh605399,晨光新材,2021-12-23,42.07,42.4,41.1,41.25,41.9,3739200.0,155065165.0,2684460900.0000005,7623412500.0
sh605399,晨光新材,2021-12-24,41.4,41.5,38.88,39.09,41.25,5417614.0,214770880.0,2543892765.6,7224222900.0
sh605399,晨光新材,2021-12-27,39.1,40.28,38.25,39.77,39.09,4094647.0,161032173.0,2588145696.7999997,7349893700.0
sh605399,晨光新材,2021-12-28,39.5,41.5,39.25,41.48,39.77,4015870.0,163191399.0,2699428803.2,7665918800.0
sh605399,晨光新材,2021-12-29,41.36,42.28,40.88,41.68,41.48,3543521.0,147659129.0,2712444371.2000003,7702880800.0
sh605399,晨光新材,2021-12-30,41.7,41.79,40.58,40.65,41.68,3350672.0,137472499.0,2645414196.0,7512526500.0
sh605399,晨光新材,2021-12-31,40.44,40.98,39.52,39.71,40.65,3559643.0,142611042.0,2584241026.4,7338805100.0
sh605399,晨光新材,2022-01-04,39.7,40.9,39.0,40.36,39.71,4334316.0,173177523.0,2626541622.3999996,7458931600.0
sh605399,晨光新材,2022-01-05,40.3,41.37,39.52,40.91,40.36,4441900.0,180397488.0,2662334434.4,7560577100.0
sh605399,晨光新材,2022-01-06,40.78,43.3,39.2,42.81,40.91,5936069.0,246948304.0,2785982330.4,7911716100.0
sh605399,晨光新材,2022-01-07,42.9,43.4,41.47,42.11,42.81,4613475.0,195468608.0,2740427842.4,7782349100.0
sh605399,晨光新材,2022-01-10,42.15,42.67,41.18,42.53,42.11,2847192.0,119964626.0,2767760535.2000003,7859969300.000001
sh605399,晨光新材,2022-01-11,42.71,43.79,42.0,43.04,42.53,3694190.0,158303944.0,2800950233.6,7954222400.0
sh605399,晨光新材,2022-01-12,43.61,44.76,42.44,44.71,43.04,4886199.0,213974232.0,2909630226.3999996,8262855100.0
sh605399,晨光新材,2022-01-13,44.78,45.8,44.18,45.06,44.71,4539692.0,204517716.0,2932407470.4,8327538600.0
sh605399,晨光新材,2022-01-14,48.0,49.57,46.57,49.57,45.06,12913546.0,632626753.0,3225908528.8,9161031700.0
