数据由邢不行整理
股票代码,股票名称,交易日期,开盘价,最高价,最低价,收盘价,前收盘价,成交量,成交额,流通市值,总市值
sh600956,N新天,2020-06-29,3.82,4.58,3.82,4.58,3.18,512580.0,2339722.0,617155000.0,17632589613.68
sh600956,新天绿能,2020-06-30,5.04,5.04,5.04,5.04,4.58,146772.0,739731.0,679140000.0,19403548395.84
sh600956,新天绿能,2020-07-01,5.54,5.54,5.54,5.54,5.04,175193.0,970569.0,746515000.0,21328503593.84
sh600956,新天绿能,2020-07-02,6.09,6.09,6.09,6.09,5.54,209227.0,1274192.0,820627500.0,23445954311.640003
sh600956,新天绿能,2020-07-03,6.7,6.7,6.7,6.7,6.09,359153.0,2406325.0,902825000.0,25794399653.2
sh600956,新天绿能,2020-07-06,7.37,7.37,7.37,7.37,6.7,783192.0,5772125.0,993107500.0,28373839618.52
sh600956,新天绿能,2020-07-07,8.11,8.11,8.11,8.11,7.37,628102.0,5093907.0,1092822500.0,31222773311.56
sh600956,新天绿能,2020-07-08,8.92,8.92,8.92,8.92,8.11,430334.0,3838579.0,1201970000.0,34341200732.320004
sh600956,新天绿能,2020-07-09,9.81,9.81,9.81,9.81,8.92,377355.0,3701853.0,1321897500.0,37767620984.76
sh600956,新天绿能,2020-07-10,10.79,10.79,10.79,10.79,9.81,709611.0,7656703.0,1453952500.0,41540533172.84
sh600956,新天绿能,2020-07-13,11.87,11.87,11.87,11.87,10.79,700497.0,8314899.0,1599482500.0,45698436400.52
sh600956,新天绿能,2020-07-14,13.06,13.06,13.06,13.06,11.87,765713.0,10000212.0,1759835000.0,50279829771.76
sh600956,新天绿能,2020-07-15,14.37,14.37,12.58,14.37,13.06,99817675.0,1355547947.0,1936357500.0,55323212390.52
sh600956,新天绿能,2020-07-16,13.62,13.62,12.93,12.93,14.37,42018851.0,551757286.0,1742317500.0,49779341420.28
sh600956,新天绿能,2020-07-17,11.71,12.21,11.64,11.64,12.93,49106002.0,577288615.0,1568490000.0,44812957009.44
sh600956,新天绿能,2020-07-20,11.45,11.86,11.32,11.82,11.64,33279677.0,388369250.0,1592745000.0,45505940880.72
sh600956,新天绿能,2020-07-21,11.66,11.69,11.03,11.28,11.82,33332289.0,377341901.0,1519980000.0,43426989266.88
sh600956,新天绿能,2020-07-22,11.12,12.28,10.91,11.91,11.28,45617458.0,524687973.0,1604872500.0,45852432816.36
sh600956,新天绿能,2020-07-23,11.57,11.78,11.35,11.54,11.91,28117737.0,324250358.0,1555015000.0,44427965969.84
sh600956,新天绿能,2020-07-24,11.46,11.95,11.11,11.14,11.54,26308141.0,303690963.0,1501115000.0,42888001811.44
sh600956,新天绿能,2020-07-27,11.1,11.38,10.33,10.52,11.14,23744638.0,255312129.0,1417570000.0,40501057365.92
sh600956,新天绿能,2020-07-28,10.53,11.09,10.42,10.9,10.52,19909976.0,213927669.0,1468775000.0,41964023316.4
sh600956,新天绿能,2020-07-29,10.8,11.07,10.6,11.02,10.9,19270088.0,209984096.0,1484945000.0,42426012563.920006
sh600956,新天绿能,2020-07-30,11.05,12.12,10.85,12.02,11.02,44447032.0,516333137.0,1619695000.0,46275922959.92
sh600956,新天绿能,2020-07-31,11.66,11.99,11.58,11.73,12.02,33080559.0,388868153.0,1580617500.0,45159448945.08
sh600956,新天绿能,2020-08-03,11.83,11.97,11.51,11.8,11.73,26527412.0,311390725.0,1590050000.0,45428942672.8
sh600956,新天绿能,2020-08-04,11.73,12.38,11.66,12.07,11.8,32644762.0,392239267.0,1626432500.0,46468418479.72
sh600956,新天绿能,2020-08-05,11.75,11.78,10.86,11.31,12.07,28002236.0,315691490.0,1524022500.0,43542486578.76
sh600956,新天绿能,2020-08-06,11.17,11.43,10.9,11.0,11.31,19024347.0,210466864.0,1482250000.0,42349014356.00001
sh600956,新天绿能,2020-08-07,10.9,10.92,10.5,10.61,11.0,16782606.0,178532956.0,1429697500.0,40847549301.56
sh600956,新天绿能,2020-08-10,10.51,11.14,10.51,10.97,10.61,14211300.0,153839633.0,1478207500.0,42233517044.12
sh600956,新天绿能,2020-08-11,11.0,11.13,10.58,10.61,10.97,14138677.0,153897380.0,1429697500.0,40847549301.56
sh600956,新天绿能,2020-08-12,10.56,10.66,10.13,10.35,10.61,12721321.0,131396241.0,1394662500.0,39846572598.6
sh600956,新天绿能,2020-08-13,10.37,10.55,10.32,10.38,10.35,7146473.0,74568598.0,1398705000.0,39962069910.48
sh600956,新天绿能,2020-08-14,10.38,10.4,10.16,10.38,10.38,7265221.0,74653801.0,1398705000.0,39962069910.48
sh600956,新天绿能,2020-08-17,10.38,10.74,10.28,10.68,10.38,10249008.0,107714941.0,1439130000.0,41117043029.28
sh600956,新天绿能,2020-08-18,10.6,10.74,10.5,10.65,10.68,9706664.0,103378229.0,1435087500.0,41001545717.4
sh600956,新天绿能,2020-08-19,10.59,11.25,10.35,10.81,10.65,19384207.0,208989936.0,1456647500.0,41617531380.76
sh600956,新天绿能,2020-08-20,10.6,10.62,10.38,10.41,10.81,11516662.0,120740441.0,1402747500.0,40077567222.36
sh600956,新天绿能,2020-08-21,10.45,10.6,10.32,10.35,10.41,6580692.0,68700047.0,1394662500.0,39846572598.6
sh600956,新天绿能,2020-08-24,10.36,10.43,10.12,10.27,10.35,6949599.0,71215175.0,1383882500.0,39538579766.92
sh600956,新天绿能,2020-08-25,10.28,10.41,10.22,10.29,10.27,5631894.0,57979775.0,1386577500.0,39615577974.84
sh600956,新天绿能,2020-08-26,10.23,10.23,9.77,9.82,10.29,9937611.0,99294951.0,1323245000.0,37806120088.72
sh600956,新天绿能,2020-08-27,9.85,9.99,9.71,9.77,9.82,6463594.0,63536289.0,1316507500.0,37613624568.92
sh600956,新天绿能,2020-08-28,9.76,9.79,9.4,9.61,9.77,9991323.0,95509197.0,1294947500.0,36997638905.560005
sh600956,新天绿能,2020-08-31,9.61,9.71,9.53,9.53,9.61,5078892.0,48879770.0,1284167500.0,36689646073.88
sh600956,新天绿能,2020-09-01,9.53,9.58,9.4,9.45,9.53,4890775.0,46249719.0,1273387500.0,36381653242.2
sh600956,新天绿能,2020-09-02,9.43,9.48,9.2,9.23,9.45,7961742.0,74068091.0,1243742500.0,35534672955.08
sh600956,新天绿能,2020-09-03,9.21,9.42,9.14,9.3,9.23,6255881.0,58120794.0,1253175000.0,35804166682.799995
sh600956,新天绿能,2020-09-04,9.13,9.28,9.06,9.27,9.3,5690799.0,52207627.0,1249132500.0,35688669370.92
sh600956,新天绿能,2020-09-07,9.2,9.36,8.97,8.99,9.27,7602067.0,69453222.0,1211402500.0,34610694460.04
sh600956,新天绿能,2020-09-08,8.99,9.0,8.67,8.8,8.99,7959464.0,70089662.0,1185800000.0,33879211484.8
sh600956,新天绿能,2020-09-09,8.69,8.74,8.46,8.55,8.8,7659749.0,65946189.0,1152112500.0,32916733885.8
sh600956,新天绿能,2020-09-10,8.66,8.72,8.16,8.2,8.55,6610995.0,55733032.0,1104950000.0,31569265247.2
sh600956,新天绿能,2020-09-11,8.1,8.6,8.02,8.49,8.2,8352126.0,70166536.0,1144027500.0,32685739262.04
sh600956,新天绿能,2020-09-14,8.63,9.16,8.63,8.73,8.49,11016433.0,97757870.0,1176367500.0,33609717757.08
sh600956,新天绿能,2020-09-15,8.7,8.83,8.64,8.66,8.73,4544149.0,39541464.0,1166935000.0,33340224029.36
sh600956,新天绿能,2020-09-16,8.62,9.06,8.55,8.91,8.66,8648106.0,76708391.0,1200622500.0,34302701628.36
sh600956,新天绿能,2020-09-17,8.95,9.16,8.85,8.94,8.91,8787071.0,79193363.0,1204665000.0,34418198940.24
sh600956,新天绿能,2020-09-18,8.89,9.07,8.76,9.02,8.94,6313087.0,56468656.0,1215445000.0,34726191771.920006
sh600956,新天绿能,2020-09-21,9.18,9.2,8.84,8.86,9.02,5906289.0,52770983.0,1193885000.0,34110206108.56
sh600956,新天绿能,2020-09-22,8.8,9.0,8.72,8.96,8.86,4990079.0,44206002.0,1207360000.0,34495197148.16
sh600956,新天绿能,2020-09-23,9.06,9.48,9.02,9.34,8.96,13549016.0,126107172.0,1258565000.0,35958163098.64
sh600956,新天绿能,2020-09-24,9.28,9.69,9.06,9.07,9.34,11397722.0,106231710.0,1222182500.0,34918687291.72
sh600956,新天绿能,2020-09-25,9.0,9.22,8.79,8.94,9.07,6233307.0,55915021.0,1204665000.0,34418198940.24
sh600956,新天绿能,2020-09-28,8.94,8.99,8.45,8.49,8.94,5995408.0,51783384.0,1144027500.0,32685739262.04
sh600956,新天绿能,2020-09-29,8.53,9.34,8.53,9.34,8.49,11000480.0,98825173.0,1258565000.0,35958163098.64
sh600956,新天绿能,2020-09-30,9.54,9.68,9.1,9.36,9.34,15999533.0,150521073.0,1261260000.0,36035161306.560005
sh600956,新天绿能,2020-10-09,9.75,9.88,9.44,9.64,9.36,13884722.0,134468551.0,1298990000.0,37113136217.44
sh600956,新天绿能,2020-10-12,9.69,9.92,9.58,9.72,9.64,12454718.0,121622600.0,1309770000.0,37421129049.12
sh600956,新天绿能,2020-10-13,9.68,10.08,9.62,10.03,9.72,16297412.0,161052409.0,1351542500.0,38614601271.88
sh600956,新天绿能,2020-10-14,9.94,9.98,9.7,9.81,10.03,15622860.0,153483202.0,1321897500.0,37767620984.76
sh600956,新天绿能,2020-10-15,9.78,9.78,9.45,9.53,9.81,11333555.0,109022218.0,1284167500.0,36689646073.88
sh600956,新天绿能,2020-10-16,9.65,9.98,9.57,9.7,9.53,12206714.0,118701533.0,1307075000.0,37344130841.2
sh600956,新天绿能,2020-10-19,9.55,9.74,9.46,9.51,9.7,8289987.0,79434151.0,1281472500.0,36612647865.96
sh600956,新天绿能,2020-10-20,9.51,9.55,9.25,9.39,9.51,6173285.0,57682353.0,1265302500.0,36150658618.44
sh600956,新天绿能,2020-10-21,9.45,9.5,9.02,9.15,9.39,7982958.0,73201914.0,1232962500.0,35226680123.4
sh600956,新天绿能,2020-10-22,9.19,9.19,8.91,8.98,9.15,5130443.0,46086898.0,1210055000.0,34572195356.08
sh600956,新天绿能,2020-10-23,8.96,9.04,8.68,8.7,8.98,5654100.0,49930567.0,1172325000.0,33494220445.2
sh600956,新天绿能,2020-10-26,8.75,8.78,8.58,8.78,8.7,2967800.0,25815662.0,1183105000.0,33802213276.88
sh600956,新天绿能,2020-10-27,8.71,8.84,8.66,8.83,8.78,2809647.0,24682674.0,1189842500.0,33994708796.68
sh600956,新天绿能,2020-10-28,8.85,9.15,8.85,9.12,8.83,5964108.0,53972757.0,1228920000.0,35111182811.520004
sh600956,新天绿能,2020-10-29,8.98,9.08,8.9,8.99,9.12,3961430.0,35665078.0,1211402500.0,34610694460.04
sh600956,新天绿能,2020-10-30,8.9,8.95,8.56,8.59,8.99,6029916.0,52567925.0,1157502500.0,33070730301.64
sh600956,XD新天绿,2020-11-02,8.43,8.57,8.31,8.36,8.47,3025875.0,25419705.0,1126510000.0,32185250910.56
sh600956,新天绿能,2020-11-03,8.37,8.54,8.36,8.5,8.36,2998474.0,25419385.0,1145375000.0,32724238366.0
sh600956,新天绿能,2020-11-04,8.55,8.72,8.5,8.59,8.5,3437013.0,29518841.0,1157502500.0,33070730301.64
sh600956,新天绿能,2020-11-05,8.66,8.71,8.52,8.58,8.59,3704279.0,31788310.0,1156155000.0,33032231197.68
sh600956,新天绿能,2020-11-06,8.59,8.61,8.42,8.43,8.58,3479084.0,29443475.0,1135942500.0,32454744638.28
sh600956,新天绿能,2020-11-09,8.5,8.69,8.44,8.64,8.43,4940346.0,42570027.0,1164240000.0,33263225821.44
sh600956,新天绿能,2020-11-10,8.7,8.94,8.61,8.81,8.64,7260863.0,63948997.0,1187147500.0,33917710588.76
sh600956,新天绿能,2020-11-11,8.74,9.06,8.64,8.9,8.81,9297230.0,82451668.0,1199275000.0,34264202524.4
sh600956,新天绿能,2020-11-12,8.86,8.88,8.6,8.66,8.9,5488630.0,47850047.0,1166935000.0,33340224029.36
sh600956,新天绿能,2020-11-13,8.69,8.69,8.41,8.49,8.66,4344549.0,36870748.0,1144027500.0,32685739262.04
sh600956,新天绿能,2020-11-16,8.55,8.82,8.46,8.8,8.49,5928453.0,51447005.0,1185800000.0,33879211484.8
sh600956,新天绿能,2020-11-17,8.82,8.97,8.69,8.86,8.8,5769780.0,50940392.0,1193885000.0,34110206108.56
sh600956,新天绿能,2020-11-18,8.75,8.88,8.72,8.79,8.86,4570400.0,40164275.0,1184452500.0,33840712380.84
sh600956,新天绿能,2020-11-19,8.97,9.46,8.82,9.11,8.79,11222971.0,102183283.0,1227572500.0,35072683707.56
sh600956,新天绿能,2020-11-20,9.01,9.18,8.87,9.13,9.11,8472870.0,76461109.0,1230267500.0,35149681915.48
sh600956,新天绿能,2020-11-23,9.09,9.38,9.04,9.31,9.13,10440118.0,96668302.0,1254522500.0,35842665786.759995
sh600956,新天绿能,2020-11-24,9.31,9.44,9.17,9.21,9.31,10166509.0,94274119.0,1241047500.0,35457674747.16
sh600956,新天绿能,2020-11-25,9.21,9.34,8.98,8.98,9.21,8239904.0,75183972.0,1210055000.0,34572195356.08
sh600956,新天绿能,2020-11-26,8.95,9.7,8.9,9.42,8.98,20239124.0,190224297.0,1269345000.0,36266155930.32
sh600956,新天绿能,2020-11-27,9.33,9.35,9.02,9.15,9.42,11452895.0,104599550.0,1232962500.0,35226680123.4
sh600956,新天绿能,2020-11-30,9.06,9.13,8.85,8.93,9.15,9120551.0,81456731.0,1203317500.0,34379699836.28
sh600956,新天绿能,2020-12-01,8.97,8.97,8.86,8.96,8.93,5005932.0,44654071.0,1207360000.0,34495197148.16
sh600956,新天绿能,2020-12-02,8.98,9.09,8.92,9.09,8.96,5544287.0,49968979.0,1224877500.0,34995685499.64
sh600956,新天绿能,2020-12-03,9.1,9.34,8.98,9.13,9.09,8188368.0,75168426.0,1230267500.0,35149681915.48
sh600956,新天绿能,2020-12-04,9.03,9.26,9.02,9.08,9.13,5623078.0,51247823.0,1223530000.0,34957186395.68
sh600956,新天绿能,2020-12-07,8.99,9.26,8.86,9.09,9.08,8169347.0,73575125.0,1224877500.0,34995685499.64
sh600956,新天绿能,2020-12-08,9.02,9.02,8.8,8.8,9.09,5475934.0,48712084.0,1185800000.0,33879211484.8
sh600956,新天绿能,2020-12-09,8.82,8.98,8.54,8.65,8.8,5431157.0,47626748.0,1165587500.0,33301724925.4
sh600956,新天绿能,2020-12-10,8.63,8.72,8.5,8.63,8.65,3639100.0,31241980.0,1162892500.0,33224726717.480003
sh600956,新天绿能,2020-12-11,8.63,8.67,8.33,8.45,8.63,4516115.0,38164488.0,1138637500.0,32531742846.2
sh600956,新天绿能,2020-12-14,8.51,9.3,8.45,9.3,8.45,9192554.0,84933361.0,1253175000.0,35804166682.799995
sh600956,新天绿能,2020-12-15,9.9,9.9,9.13,9.16,9.3,29920414.0,285597993.0,1234310000.0,35265179227.36
sh600956,新天绿能,2020-12-16,9.03,9.72,9.03,9.45,9.16,22992090.0,216684630.0,1273387500.0,36381653242.2
sh600956,新天绿能,2020-12-17,9.2,9.35,8.8,9.26,9.45,19416943.0,176327589.0,1247785000.0,35650170266.96
sh600956,新天绿能,2020-12-18,9.38,9.59,9.27,9.48,9.26,20013848.0,188905468.0,1277430000.0,36497150554.08
sh600956,新天绿能,2020-12-21,9.6,9.6,9.23,9.31,9.48,15685551.0,147016887.0,1254522500.0,35842665786.759995
sh600956,新天绿能,2020-12-22,9.13,9.13,8.6,8.66,9.31,20777700.0,183472203.0,1166935000.0,33340224029.36
sh600956,新天绿能,2020-12-23,8.66,9.05,8.53,8.84,8.66,14381234.0,127109507.0,1191190000.0,34033207900.64
sh600956,新天绿能,2020-12-24,8.73,9.72,8.48,9.72,8.84,36756750.0,339596300.0,1309770000.0,37421129049.12
sh600956,新天绿能,2020-12-25,9.66,10.69,9.58,10.69,9.72,33982632.0,350377200.0,1440477500.0,41155542133.24
sh600956,新天绿能,2020-12-28,11.69,11.76,10.82,11.76,10.69,80588190.0,921760219.0,1584660000.0,45274946256.96
sh600956,新天绿能,2020-12-29,10.98,11.27,10.58,10.58,11.76,28371128.0,307284049.0,1425655000.0,40732051989.68
sh600956,新天绿能,2020-12-30,9.92,10.54,9.55,10.17,10.58,46315307.0,464944469.0,1370407500.0,39153588727.32
sh600956,新天绿能,2020-12-31,9.95,10.56,9.8,10.06,10.17,38473729.0,390222013.0,1355585000.0,38730098583.76
sh600956,新天绿能,2021-01-04,9.9,11.07,9.76,11.07,10.06,43640507.0,455409665.0,1491682500.0,42618508083.72
sh600956,新天绿能,2021-01-05,11.32,11.5,10.6,10.7,11.07,48933565.0,536709448.0,1441825000.0,41194041237.2
sh600956,新天绿能,2021-01-06,10.67,10.8,10.07,10.45,10.7,30873194.0,320290416.0,1408137500.0,40231563638.200005
sh600956,新天绿能,2021-01-07,10.46,10.79,10.02,10.11,10.45,35958872.0,375229028.0,1362322500.0,38922594103.56
sh600956,新天绿能,2021-01-08,9.79,9.8,9.1,9.26,10.11,30994856.0,290562651.0,1247785000.0,35650170266.96
sh600956,新天绿能,2021-01-11,9.22,9.22,8.58,8.6,9.26,24791518.0,217482660.0,1158850000.0,33109229405.6
sh600956,新天绿能,2021-01-12,8.5,8.79,8.35,8.72,8.6,17867651.0,153770069.0,1175020000.0,33571218653.12
sh600956,新天绿能,2021-01-13,8.5,8.79,8.36,8.46,8.72,18122418.0,154134053.0,1139985000.0,32570241950.16
sh600956,新天绿能,2021-01-14,8.31,8.31,7.7,7.8,8.46,20860395.0,165567511.0,1051050000.0,30029301088.800003
sh600956,新天绿能,2021-01-15,7.81,7.99,7.77,7.92,7.8,9267729.0,73148318.0,1067220000.0,30491290336.32
sh600956,新天绿能,2021-01-18,7.99,8.0,7.85,7.96,7.92,9070032.0,71966918.0,1072610000.0,30645286752.16
sh600956,新天绿能,2021-01-19,7.95,8.17,7.81,8.0,7.96,11797766.0,93912429.0,1078000000.0,30799283168.0
sh600956,新天绿能,2021-01-20,8.03,8.25,7.88,8.23,8.0,13936712.0,112945550.0,1108992500.0,31684762559.08
sh600956,新天绿能,2021-01-21,8.21,8.23,8.1,8.14,8.23,10966775.0,89489663.0,1096865000.0,31338270623.44
sh600956,新天绿能,2021-01-22,8.15,8.28,7.95,7.95,8.14,9568546.0,77022346.0,1071262500.0,30606787648.2
sh600956,新天绿能,2021-01-25,8.0,8.2,7.7,7.93,7.95,11684369.0,92419472.0,1068567500.0,30529789440.28
sh600956,新天绿能,2021-01-26,7.77,7.94,7.69,7.74,7.93,7700529.0,59885722.0,1042965000.0,29798306465.04
sh600956,新天绿能,2021-01-27,7.72,8.14,7.72,7.98,7.74,8788450.0,69246351.0,1075305000.0,30722284960.08
sh600956,新天绿能,2021-01-28,7.86,8.13,7.8,7.94,7.98,9493434.0,75714784.0,1069915000.0,30568288544.24
sh600956,新天绿能,2021-01-29,7.9,8.08,7.7,7.82,7.94,8947045.0,70362929.0,1053745000.0,30106299296.72
sh600956,新天绿能,2021-02-01,7.71,7.76,7.2,7.34,7.82,10668000.0,78870304.0,989065000.0,28258342306.64
sh600956,新天绿能,2021-02-02,7.43,7.43,7.24,7.28,7.34,5027086.0,36737492.0,980980000.0,28027347682.88
sh600956,新天绿能,2021-02-03,7.29,7.33,7.11,7.14,7.28,6414229.0,45994806.0,962115000.0,27488360227.44
sh600956,新天绿能,2021-02-04,7.2,7.2,6.65,6.8,7.14,8330049.0,57318466.0,916300000.0,26179390692.8
sh600956,新天绿能,2021-02-05,6.86,6.95,6.71,6.75,6.8,4928900.0,33636016.0,909562500.0,25986895173.0
sh600956,新天绿能,2021-02-08,6.75,6.88,6.6,6.7,6.75,4231700.0,28647091.0,902825000.0,25794399653.2
sh600956,新天绿能,2021-02-09,6.73,6.86,6.68,6.8,6.7,3954866.0,26879472.0,916300000.0,26179390692.8
sh600956,新天绿能,2021-02-10,6.8,7.48,6.8,7.48,6.8,4617200.0,33978009.0,1007930000.0,28797329762.08
sh600956,新天绿能,2021-02-18,7.99,7.99,7.45,7.6,7.48,14597281.0,111739139.0,1024100000.0,29259319009.6
sh600956,新天绿能,2021-02-19,7.51,7.7,7.44,7.67,7.6,8598333.0,65090228.0,1033532500.0,29528812737.32
sh600956,新天绿能,2021-02-22,7.67,7.85,7.63,7.65,7.67,9509066.0,73530012.0,1030837500.0,29451814529.4
sh600956,新天绿能,2021-02-23,7.71,8.15,7.71,7.88,7.65,13405166.0,106463139.0,1061830000.0,30337293920.48
sh600956,新天绿能,2021-02-24,7.73,7.84,7.56,7.64,7.88,8256175.0,63557280.0,1029490000.0,29413315425.44
sh600956,新天绿能,2021-02-25,7.67,7.72,7.41,7.43,7.64,6100736.0,45709326.0,1001192500.0,28604834242.28
sh600956,新天绿能,2021-02-26,7.35,7.62,7.23,7.47,7.43,4843300.0,35976184.0,1006582500.0,28758830658.12
sh600956,新天绿能,2021-03-01,7.49,7.55,7.4,7.49,7.47,4337465.0,32363016.0,1009277500.0,28835828866.04
sh600956,新天绿能,2021-03-02,7.6,7.85,7.55,7.79,7.49,10552823.0,81743432.0,1049702500.0,29990801984.84
sh600956,新天绿能,2021-03-03,7.63,7.95,7.63,7.89,7.79,10138143.0,78716459.0,1063177500.0,30375793024.44
sh600956,新天绿能,2021-03-04,7.84,8.0,7.75,7.92,7.89,10356621.0,82118112.0,1067220000.0,30491290336.32
sh600956,新天绿能,2021-03-05,7.76,8.1,7.76,7.93,7.92,9437257.0,75114086.0,1068567500.0,30529789440.28
sh600956,新天绿能,2021-03-08,7.89,8.48,7.63,8.38,7.93,21886142.0,179232895.0,1129205000.0,32262249118.48
sh600956,新天绿能,2021-03-09,8.22,8.26,7.56,7.83,8.38,14603369.0,116330261.0,1055092500.0,30144798400.68
sh600956,新天绿能,2021-03-10,7.8,8.1,7.71,7.86,7.83,9224644.0,73276039.0,1059135000.0,30260295712.56
sh600956,新天绿能,2021-03-11,7.82,8.1,7.78,8.08,7.86,11632467.0,93015637.0,1088780000.0,31107275999.68
sh600956,新天绿能,2021-03-12,8.08,8.65,8.05,8.51,8.08,24244101.0,203205698.0,1146722500.0,32762737469.96
sh600956,新天绿能,2021-03-15,8.42,8.74,8.25,8.47,8.51,16541173.0,140276336.0,1141332500.0,32608741054.12
sh600956,新天绿能,2021-03-16,8.38,9.32,8.32,9.32,8.47,34008301.0,308058118.0,1255870000.0,35881164890.72
sh600956,新天绿能,2021-03-17,9.37,9.39,8.83,9.02,9.32,29382891.0,264563473.0,1215445000.0,34726191771.920006
sh600956,新天绿能,2021-03-18,8.89,8.97,8.7,8.92,9.02,19490021.0,172401514.0,1201970000.0,34341200732.320004
sh600956,新天绿能,2021-03-19,8.78,9.81,8.72,9.81,8.92,23568334.0,227603637.0,1321897500.0,37767620984.76
sh600956,新天绿能,2021-03-22,10.79,10.79,10.79,10.79,9.81,3069833.0,33123498.0,1453952500.0,41540533172.84
sh600956,新天绿能,2021-03-23,11.87,11.87,11.87,11.87,10.79,4815578.0,57160911.0,1599482500.0,45698436400.52
sh600956,新天绿能,2021-03-24,12.5,13.06,12.28,13.06,11.87,69700472.0,894278656.0,1759835000.0,50279829771.76
sh600956,新天绿能,2021-03-25,13.5,13.78,11.75,12.5,13.06,67771708.0,847235330.0,1684375000.0,48123879950.0
sh600956,新天绿能,2021-03-26,13.7,13.75,13.67,13.75,12.5,26103767.0,358771123.0,1852812500.0,52936267945.0
sh600956,新天绿能,2021-03-29,15.13,15.13,13.0,15.13,13.75,95610865.0,1365243703.0,2038767500.0,58249144291.48
sh600956,新天绿能,2021-03-30,15.9,16.64,14.77,16.64,15.13,91060839.0,1475799892.0,2242240000.0,64062508989.44
sh600956,新天绿能,2021-03-31,14.98,17.57,14.98,15.34,16.64,98602591.0,1568774289.0,2067065000.0,59057625474.64
sh600956,新天绿能,2021-04-01,14.1,14.75,13.81,13.81,15.34,70437000.0,991340903.0,1860897500.0,53167262568.76
sh600956,新天绿能,2021-04-02,13.39,13.76,12.72,12.85,13.81,54829537.0,719691828.0,1731537500.0,49471348588.6
sh600956,新天绿能,2021-04-06,13.28,14.14,13.2,14.14,12.85,41628690.0,577893725.0,1905365000.0,54437732999.44
sh600956,新天绿能,2021-04-07,15.55,15.55,15.55,15.55,14.14,5499688.0,85520148.0,2095362500.0,59866106657.8
sh600956,新天绿能,2021-04-08,17.11,17.11,16.02,17.11,15.55,72149827.0,1229838390.0,2305572500.0,65871966875.560005
sh600956,新天绿能,2021-04-09,16.0,17.97,15.48,15.85,17.11,95723892.0,1592918691.0,2135787500.0,61021079776.600006
sh600956,新天绿能,2021-04-12,14.84,17.18,14.28,16.19,15.85,80481128.0,1271496223.0,2181602500.0,62330049311.24
sh600956,新天绿能,2021-04-13,15.42,15.52,14.57,14.57,16.19,44766767.0,663569010.0,1963307500.0,56093194469.72
sh600956,新天绿能,2021-04-14,13.75,15.5,13.18,14.68,14.57,54272703.0,757384428.0,1978130000.0,56516684613.28
sh600956,新天绿能,2021-04-15,14.16,15.45,14.02,14.69,14.68,47882800.0,712242720.0,1979477500.0,56555183717.240005
sh600956,新天绿能,2021-04-16,14.39,14.95,13.57,13.95,14.69,40250711.0,564125736.0,1879762500.0,53706250024.2
sh600956,新天绿能,2021-04-19,13.96,14.28,13.51,13.65,13.95,36504808.0,501836659.0,1839337500.0,52551276905.4
sh600956,新天绿能,2021-04-20,13.44,14.3,13.24,13.95,13.65,45383119.0,627610592.0,1879762500.0,53706250024.2
sh600956,新天绿能,2021-04-21,13.4,13.49,12.86,13.14,13.95,35159100.0,461404813.0,1770615000.0,50587822603.44
sh600956,新天绿能,2021-04-22,13.0,13.24,12.51,12.59,13.14,28394701.0,361714072.0,1696502500.0,48470371885.64
sh600956,新天绿能,2021-04-23,12.8,12.92,12.11,12.4,12.59,27095234.0,337266934.0,1670900000.0,47738888910.4
sh600956,新天绿能,2021-04-26,12.41,12.41,11.96,11.99,12.4,22115166.0,268448202.0,1615652500.0,46160425648.04
sh600956,新天绿能,2021-04-27,11.99,11.99,11.33,11.68,11.99,24019064.0,278550043.0,1573880000.0,44966953425.28
sh600956,新天绿能,2021-04-28,11.62,12.09,11.5,11.77,11.68,17173952.0,202442023.0,1586007500.0,45313445360.92
sh600956,新天绿能,2021-04-29,11.67,12.89,11.51,12.25,11.77,40023137.0,490224314.0,1650687500.0,47161402351.0
sh600956,新天绿能,2021-04-30,12.38,12.45,11.5,11.68,12.25,27907392.0,328279358.0,1573880000.0,44966953425.28
sh600956,新天绿能,2021-05-06,11.85,12.85,11.82,12.85,11.68,32339980.0,404442389.0,1731537500.0,49471348588.6
sh600956,新天绿能,2021-05-07,13.24,13.43,12.65,12.91,12.85,50753088.0,663999648.0,1739622500.0,49702343212.36
sh600956,新天绿能,2021-05-10,12.2,13.25,12.04,13.15,12.91,37810750.0,482830571.0,1771962500.0,50626321707.4
sh600956,新天绿能,2021-05-11,12.89,14.0,12.75,13.29,13.15,43964992.0,589068094.0,1790827500.0,51165309162.84
sh600956,新天绿能,2021-05-12,12.92,13.14,12.51,12.69,13.29,29414798.0,373457152.0,1709977500.0,48855362925.24
sh600956,新天绿能,2021-05-13,12.54,12.87,12.15,12.17,12.69,25573269.0,318556288.0,1639907500.0,46853409519.32
sh600956,新天绿能,2021-05-14,12.46,12.66,12.22,12.28,12.17,20253193.0,251181639.0,1654730000.0,47276899662.880005
sh600956,新天绿能,2021-05-17,12.17,12.45,11.92,12.31,12.28,16896576.0,207040196.0,1658772500.0,47392396974.76
sh600956,新天绿能,2021-05-18,12.28,13.02,11.92,12.99,12.31,34627420.0,436411955.0,1750402500.0,50010336044.03999
sh600956,新天绿能,2021-05-19,13.0,13.47,12.89,13.42,12.99,39810421.0,526182553.0,1808345000.0,51665797514.32
sh600956,新天绿能,2021-05-20,13.34,13.76,12.81,12.95,13.42,37137916.0,490729283.0,1745012500.0,49856339628.2
sh600956,新天绿能,2021-05-21,12.85,14.25,12.6,14.25,12.95,49548308.0,676880916.0,1920187500.0,54861223143.0
sh600956,新天绿能,2021-05-24,14.84,15.6,14.21,14.34,14.25,68897224.0,1028704727.0,1932315000.0,55207715078.64
sh600956,新天绿能,2021-05-25,14.21,14.75,13.84,13.99,14.34,40021086.0,563261751.0,1885152500.0,53860246440.04
sh600956,新天绿能,2021-05-26,13.86,14.78,13.56,14.72,13.99,50183397.0,715077183.0,1983520000.0,56670681029.12
sh600956,新天绿能,2021-05-27,14.4,14.89,14.1,14.37,14.72,33872750.0,490542500.0,1936357500.0,55323212390.52
sh600956,新天绿能,2021-05-28,14.18,14.67,13.85,14.04,14.37,28673494.0,407278777.0,1891890000.0,54052741959.84
sh600956,新天绿能,2021-05-31,13.99,15.27,13.76,14.81,14.04,44749212.0,656626125.0,1995647500.0,57017172964.76
sh600956,新天绿能,2021-06-01,14.61,14.74,14.1,14.31,14.81,32345845.0,463178611.0,1928272500.0,55092217766.76
sh600956,新天绿能,2021-06-02,14.11,14.47,14.0,14.28,14.31,26787840.0,381392271.0,1924230000.0,54976720454.88
sh600956,新天绿能,2021-06-03,14.15,14.23,13.66,13.71,14.28,23037404.0,318930915.0,1847422500.0,52782271529.16
sh600956,新天绿能,2021-06-04,13.59,13.63,13.09,13.25,13.71,19613450.0,261630961.0,1785437500.0,51011312747.0
sh600956,新天绿能,2021-06-07,13.44,13.58,13.24,13.36,13.25,12838288.0,171664310.0,1800260000.0,51434802890.560005
sh600956,新天绿能,2021-06-08,13.35,13.57,13.26,13.48,13.36,13173676.0,177055185.0,1816430000.0,51896792138.08
sh600956,XD新天绿,2021-06-09,13.33,13.33,12.61,12.67,13.34,15835148.0,203022305.0,1707282500.0,48778364717.32
sh600956,新天绿能,2021-06-10,12.79,12.99,12.43,12.81,12.67,14376800.0,182627136.0,1726147500.0,49317352172.76
sh600956,新天绿能,2021-06-11,12.9,13.5,12.87,13.24,12.81,19185461.0,254484159.0,1784090000.0,50972813643.03999
sh600956,新天绿能,2021-06-15,13.2,13.36,12.68,12.72,13.24,15032127.0,194220639.0,1714020000.0,48970860237.12
sh600956,新天绿能,2021-06-16,12.85,12.86,11.8,11.93,12.72,15123866.0,182402956.0,1607567500.0,45929431024.28001
sh600956,新天绿能,2021-06-17,11.93,12.2,11.72,12.03,11.93,8510793.0,102284241.0,1621042500.0,46314422063.880005
sh600956,新天绿能,2021-06-18,12.07,12.15,11.8,12.13,12.03,9000549.0,107891613.0,1634517500.0,46699413103.48
sh600956,新天绿能,2021-06-21,12.4,12.68,12.16,12.54,12.13,11500403.0,143284763.0,1689765000.0,48277876365.84
sh600956,新天绿能,2021-06-22,12.53,12.9,12.27,12.6,12.54,15037071.0,188128909.0,1697850000.0,48508870989.6
sh600956,新天绿能,2021-06-23,12.76,12.78,12.4,12.55,12.6,11650581.0,146255193.0,1691112500.0,48316375469.8
sh600956,新天绿能,2021-06-24,12.5,12.51,12.12,12.21,12.55,10430515.0,127805843.0,1645297500.0,47007405935.16
sh600956,新天绿能,2021-06-25,12.25,12.37,12.06,12.28,12.21,9025028.0,110174432.0,1654730000.0,47276899662.880005
sh600956,新天绿能,2021-06-28,12.2,12.59,12.12,12.32,12.28,8616139.0,106781601.0,1660120000.0,47430896078.72
sh600956,新天绿能,2021-06-29,12.14,12.18,11.95,11.96,12.32,9021833.0,108401686.0,1611610000.0,46044928336.16
sh600956,新天绿能,2021-06-30,11.95,12.03,11.65,11.71,11.96,7982167.0,94036989.0,1577922500.0,45082450737.16
sh600956,新天绿能,2021-07-01,11.75,11.78,11.24,11.25,11.71,9658400.0,110646789.0,1515937500.0,43311491955.0
sh600956,新天绿能,2021-07-02,11.38,11.4,11.15,11.36,11.25,6482738.0,73359361.0,1530760000.0,43734982098.56
sh600956,新天绿能,2021-07-05,11.36,11.52,11.3,11.42,11.36,5243945.0,59675270.0,1538845000.0,43965976722.32
sh600956,新天绿能,2021-07-06,11.35,11.74,11.3,11.66,11.42,9321974.0,107872940.0,1571185000.0,44889955217.36
sh600956,新天绿能,2021-07-07,11.5,11.64,11.4,11.56,11.66,8008982.0,92212887.0,1557710000.0,44504964177.76
sh600956,新天绿能,2021-07-08,11.59,11.86,11.52,11.7,11.56,10441345.0,122282054.0,1576575000.0,45043951633.200005
sh600956,新天绿能,2021-07-09,11.59,11.73,11.26,11.58,11.7,9723463.0,111439579.0,1560405000.0,44581962385.67999
sh600956,新天绿能,2021-07-12,11.88,12.34,11.73,12.33,11.58,19836156.0,241334679.0,1661467500.0,47469395182.68
sh600956,新天绿能,2021-07-13,12.39,13.47,12.0,13.1,12.33,31022553.0,393776863.0,1765225000.0,50433826187.6
sh600956,新天绿能,2021-07-14,13.1,13.47,12.67,12.88,13.1,26047259.0,340277266.0,1735580000.0,49586845900.48
sh600956,新天绿能,2021-07-15,12.61,12.61,12.2,12.37,12.88,15260716.0,188079798.0,1666857500.0,47623391598.52
sh600956,新天绿能,2021-07-16,12.36,12.55,12.2,12.28,12.37,10201352.0,125860642.0,1654730000.0,47276899662.880005
sh600956,新天绿能,2021-07-19,12.2,12.7,11.91,12.54,12.28,13108796.0,162411066.0,1689765000.0,48277876365.84
sh600956,新天绿能,2021-07-20,12.35,12.43,12.13,12.24,12.54,8235317.0,100871019.0,1649340000.0,47122903247.04
sh600956,新天绿能,2021-07-21,12.22,12.34,12.1,12.14,12.24,9127101.0,111220023.0,1635865000.0,46737912207.44
sh600956,新天绿能,2021-07-22,12.22,12.35,12.03,12.12,12.14,9276593.0,113021618.0,1633170000.0,46660913999.52
sh600956,新天绿能,2021-07-23,12.01,12.05,11.6,11.63,12.12,12022701.0,141153091.0,1567142500.0,44774457905.48
sh600956,新天绿能,2021-07-26,11.55,11.77,11.39,11.66,11.63,8689829.0,100572551.0,1571185000.0,44889955217.36
sh600956,新天绿能,2021-07-27,11.72,12.1,11.66,11.75,11.66,12114141.0,144114152.0,1583312500.0,45236447153.0
sh600956,新天绿能,2021-07-28,11.65,11.69,10.8,11.22,11.75,9476665.0,105846008.0,1511895000.0,43195994643.12
sh600956,新天绿能,2021-07-29,11.12,11.72,11.12,11.54,11.22,8546104.0,98056444.0,1555015000.0,44427965969.84
sh600956,新天绿能,2021-07-30,11.62,12.34,11.55,12.28,11.54,16248422.0,196807316.0,1654730000.0,47276899662.880005
sh600956,新天绿能,2021-08-02,12.31,12.44,12.01,12.37,12.28,13819023.0,169106998.0,1666857500.0,47623391598.52
sh600956,新天绿能,2021-08-03,12.28,12.66,12.17,12.26,12.37,10695977.0,132027533.0,1652035000.0,47199901454.96
sh600956,新天绿能,2021-08-04,12.15,12.4,12.08,12.22,12.26,7964232.0,97234687.0,1646645000.0,47045905039.12
sh600956,新天绿能,2021-08-05,12.31,12.44,12.05,12.15,12.22,8992081.0,109800435.0,1637212500.0,46776411311.4
sh600956,新天绿能,2021-08-06,12.01,12.46,11.96,12.35,12.15,10148126.0,124772757.0,1664162500.0,47546393390.6
sh600956,新天绿能,2021-08-09,12.45,13.59,12.4,13.59,12.35,31071685.0,407685800.0,1831252500.0,52320282281.64001
sh600956,新天绿能,2021-08-10,13.88,13.88,13.15,13.3,13.59,30515529.0,407643406.0,1792175000.0,51203808266.8
sh600956,新天绿能,2021-08-11,13.43,14.11,13.21,13.99,13.3,34548184.0,474488191.0,1885152500.0,53860246440.04
sh600956,新天绿能,2021-08-12,13.75,13.86,13.4,13.77,13.99,24848601.0,338203131.0,1855507500.0,53013266152.92
sh600956,新天绿能,2021-08-13,13.6,13.75,13.17,13.48,13.77,18339464.0,246497496.0,1816430000.0,51896792138.08
sh600956,新天绿能,2021-08-16,13.48,14.78,13.3,14.34,13.48,37368421.0,526028688.0,1932315000.0,55207715078.64
sh600956,新天绿能,2021-08-17,14.45,14.46,13.19,13.51,14.34,30167928.0,414206010.0,1820472500.0,52012289449.96
sh600956,新天绿能,2021-08-18,13.05,13.45,12.91,13.14,13.51,15839698.0,208480653.0,1770615000.0,50587822603.44
sh600956,新天绿能,2021-08-19,13.03,13.34,12.72,13.09,13.14,13327343.0,173080665.0,1763877500.0,50395327083.64
sh600956,新天绿能,2021-08-20,13.03,13.03,12.53,12.8,13.09,13439072.0,171113594.0,1724800000.0,49278853068.8
sh600956,新天绿能,2021-08-23,13.14,13.86,13.12,13.72,12.8,23200361.0,314502131.0,1848770000.0,52820770633.12
sh600956,新天绿能,2021-08-24,14.07,14.21,13.67,13.94,13.72,23248990.0,323700029.0,1878415000.0,53667750920.240005
sh600956,新天绿能,2021-08-25,13.82,14.2,13.52,14.08,13.94,22494038.0,314271933.0,1897280000.0,54206738375.68
sh600956,新天绿能,2021-08-26,14.14,14.14,13.61,13.72,14.08,21661912.0,298905145.0,1848770000.0,52820770633.12
sh600956,新天绿能,2021-08-27,13.72,14.2,13.54,13.82,13.72,17298458.0,238828818.0,1862245000.0,53205761672.71999
sh600956,新天绿能,2021-08-30,13.82,14.66,13.54,14.65,13.82,33229816.0,476872852.0,1974087500.0,56401187301.4
sh600956,新天绿能,2021-08-31,14.62,14.63,13.57,13.61,14.65,29815103.0,415191230.0,1833947500.0,52397280489.560005
sh600956,新天绿能,2021-09-01,13.7,13.98,12.98,13.18,13.61,18137398.0,242885385.0,1776005000.0,50741819019.28
sh600956,新天绿能,2021-09-02,13.04,14.5,13.01,14.31,13.18,37927987.0,534763669.0,1928272500.0,55092217766.76
sh600956,新天绿能,2021-09-03,14.33,15.32,14.16,14.95,14.31,46712498.0,694482503.0,2014512500.0,57556160420.2
sh600956,新天绿能,2021-09-06,15.2,16.0,14.63,15.67,14.95,43981299.0,676163482.0,2111532500.0,60328095905.32
sh600956,新天绿能,2021-09-07,15.5,15.99,15.03,15.65,15.67,32035664.0,498758873.0,2108837500.0,60251097697.4
sh600956,新天绿能,2021-09-08,16.5,17.22,16.02,16.29,15.65,53969560.0,902405128.0,2195077500.0,62715040350.84
sh600956,新天绿能,2021-09-09,15.8,16.98,15.7,16.4,16.29,40801110.0,669190197.0,2209900000.0,63138530494.4
sh600956,新天绿能,2021-09-10,16.2,16.3,15.2,15.53,16.4,32024307.0,500386326.0,2092667500.0,59789108449.88
sh600956,新天绿能,2021-09-13,15.37,15.68,15.18,15.36,15.53,18983975.0,291853626.0,2069760000.0,59134623682.56
sh600956,新天绿能,2021-09-14,15.59,15.88,14.82,14.86,15.36,22362137.0,341314747.0,2002385000.0,57209668484.56
sh600956,新天绿能,2021-09-15,14.69,16.3,14.62,16.29,14.86,32530812.0,507168627.0,2195077500.0,62715040350.84
sh600956,新天绿能,2021-09-16,16.0,17.43,15.84,16.74,16.29,38820106.0,651277394.0,2255715000.0,64447500029.04
sh600956,新天绿能,2021-09-17,16.3,18.0,16.2,17.7,16.74,41151801.0,710716728.0,2385075000.0,68143414009.2
sh600956,新天绿能,2021-09-22,17.72,19.47,17.72,19.47,17.7,48371554.0,912983794.0,2623582500.0,74957755410.12001
sh600956,新天绿能,2021-09-23,19.47,20.94,18.42,19.15,19.47,49063683.0,955356324.0,2580462500.0,73725784083.4
sh600956,新天绿能,2021-09-24,18.9,21.07,18.41,20.75,19.15,53337661.0,1062276983.0,2796062500.0,79885640717.0
sh600956,新天绿能,2021-09-27,21.0,21.28,18.68,19.11,20.75,46022270.0,890895389.0,2575072500.0,73571787667.56
sh600956,新天绿能,2021-09-28,18.4,21.02,18.03,21.02,19.11,43320478.0,862890409.0,2832445000.0,80925116523.92
sh600956,新天绿能,2021-09-29,20.0,21.0,18.92,18.92,21.02,36093537.0,716263789.0,2549470000.0,72840304692.32
sh600956,新天绿能,2021-09-30,19.2,20.81,18.22,20.81,18.92,48349420.0,972289914.0,2804147500.0,80116635340.76
sh600956,新天绿能,2021-10-08,21.4,22.39,19.6,21.05,20.81,55826284.0,1173493774.0,2836487500.0,81040613835.8
sh600956,新天绿能,2021-10-11,20.2,20.78,18.95,18.96,21.05,39228804.0,757005175.0,2554860000.0,72994301108.16
sh600956,新天绿能,2021-10-12,18.08,19.36,17.3,18.26,18.96,30291554.0,550297064.0,2460535000.0,70299363830.96
sh600956,新天绿能,2021-10-13,17.93,17.98,16.43,16.43,18.26,27268784.0,455695817.0,2213942500.0,63254027806.28001
sh600956,新天绿能,2021-10-14,15.9,16.9,15.52,16.4,16.43,23198299.0,376488463.0,2209900000.0,63138530494.4
sh600956,新天绿能,2021-10-15,16.65,17.12,15.76,16.72,16.4,24738724.0,406710508.0,2253020000.0,64370501821.12
sh600956,新天绿能,2021-10-18,16.6,17.68,16.43,17.4,16.72,25968764.0,450551158.0,2344650000.0,66988440890.4
sh600956,新天绿能,2021-10-19,17.41,17.86,16.96,17.47,17.4,23258677.0,407154214.0,2354082500.0,67257934618.12
sh600956,新天绿能,2021-10-20,17.37,18.3,16.96,18.01,17.47,26625937.0,475908506.0,2426847500.0,69336886231.96
sh600956,新天绿能,2021-10-21,18.17,18.17,17.47,17.62,18.01,17873408.0,316526551.0,2374295000.0,67835421177.52
sh600956,新天绿能,2021-10-22,17.57,17.61,16.8,16.88,17.62,16355300.0,279991537.0,2274580000.0,64986487484.48
sh600956,新天绿能,2021-10-25,17.18,18.36,17.02,18.2,16.88,26774474.0,480603003.0,2452450000.0,70068369207.2
sh600956,新天绿能,2021-10-26,18.24,19.32,17.98,19.03,18.2,31283714.0,590725062.0,2564292500.0,73263794835.88
sh600956,新天绿能,2021-10-27,18.8,19.88,18.61,19.18,19.03,30668894.0,593832496.0,2584505000.0,49033394748.216
sh600956,新天绿能,2021-10-28,19.4,19.4,18.12,18.59,19.18,21547801.0,401959517.0,2505002500.0,71569834261.64
sh600956,新天绿能,2021-10-29,18.03,18.29,16.8,17.72,18.59,29033558.0,504273406.0,2387770000.0,68220412217.12
sh600956,新天绿能,2021-11-01,17.26,18.59,17.0,18.27,17.72,24752402.0,443420530.0,2461882500.0,70337862934.92
sh600956,新天绿能,2021-11-02,18.3,18.36,16.99,17.12,18.27,20015967.0,350259126.0,2306920000.0,65910465979.52
sh600956,新天绿能,2021-11-03,17.11,17.34,16.58,17.1,17.12,14690898.0,249243282.0,2304225000.0,65833467771.6
sh600956,新天绿能,2021-11-04,17.04,17.83,16.95,17.45,17.1,17281614.0,302328935.0,2351387500.0,67180936410.2
sh600956,新天绿能,2021-11-05,17.27,17.37,16.36,16.42,17.45,18819926.0,314852886.0,2212595000.0,63215528702.32
sh600956,新天绿能,2021-11-08,16.19,16.64,16.1,16.45,16.42,9221679.0,151476657.0,2216637500.0,63331026014.200005
sh600956,新天绿能,2021-11-09,16.92,17.27,16.42,16.63,16.45,12629613.0,212861264.0,2240892500.0,64024009885.48
sh600956,新天绿能,2021-11-10,16.4,16.49,15.8,16.24,16.63,14101677.0,226842916.0,2188340000.0,62522544831.04
sh600956,新天绿能,2021-11-11,16.24,16.39,15.9,15.96,16.24,9638126.0,154781765.0,2150610000.0,61444569920.16
sh600956,新天绿能,2021-11-12,15.98,16.2,15.92,16.0,15.96,8365754.0,134209901.0,2156000000.0,61598566336.0
sh600956,新天绿能,2021-11-15,16.0,16.09,15.55,15.62,16.0,9787081.0,153361436.0,2104795000.0,60135600385.52
sh600956,新天绿能,2021-11-16,15.62,15.88,15.32,15.66,15.62,9213700.0,143686968.0,2110185000.0,60289596801.36
sh600956,新天绿能,2021-11-17,15.67,16.47,15.67,16.42,15.66,17472429.0,282353324.0,2212595000.0,63215528702.32
sh600956,新天绿能,2021-11-18,16.51,17.11,16.5,16.72,16.42,20741199.0,349384916.0,2253020000.0,64370501821.12
sh600956,新天绿能,2021-11-19,16.3,16.87,16.1,16.84,16.72,14129277.0,234521710.0,2269190000.0,64832491068.64
sh600956,新天绿能,2021-11-22,16.96,17.08,16.56,16.72,16.84,11029220.0,184362208.0,2253020000.0,64370501821.12
sh600956,新天绿能,2021-11-23,16.56,17.31,16.35,17.2,16.72,17062666.0,287158609.0,2317700000.0,66218458811.2
sh600956,新天绿能,2021-11-24,17.35,18.5,17.0,18.18,17.2,28160022.0,499378860.0,2449755000.0,69991370999.28
sh600956,新天绿能,2021-11-25,17.99,18.16,17.41,17.44,18.18,18942484.0,334246384.0,2350040000.0,67142437306.24
sh600956,新天绿能,2021-11-26,17.28,17.55,16.91,17.17,17.44,10830207.0,186555491.0,2313657500.0,66102961499.32
sh600956,新天绿能,2021-11-29,16.7,17.43,16.48,16.91,17.17,11169070.0,188627418.0,2278622500.0,65101984796.35999
sh600956,新天绿能,2021-11-30,16.97,17.34,16.62,16.73,16.91,10556257.0,178859361.0,2254367500.0,64409000925.08
sh600956,新天绿能,2021-12-01,16.75,17.15,16.6,17.04,16.73,10018864.0,169411769.0,2296140000.0,65602473147.84
sh600956,新天绿能,2021-12-02,17.05,17.12,16.66,16.7,17.04,8643306.0,145560854.0,2250325000.0,64293503613.200005
sh600956,新天绿能,2021-12-03,16.7,17.45,16.32,17.39,16.7,18372750.0,311818137.0,2343302500.0,66949941786.439995
sh600956,新天绿能,2021-12-06,17.62,17.88,17.11,17.13,17.39,15176039.0,265237027.0,2308267500.0,65948965083.48
sh600956,新天绿能,2021-12-07,17.2,18.56,16.61,18.19,17.13,28681889.0,506566926.0,2451102500.0,70029870103.24
sh600956,新天绿能,2021-12-08,18.2,18.5,17.88,18.14,18.19,21766022.0,396083679.0,2444365000.0,69837374583.44
sh600956,新天绿能,2021-12-09,18.15,18.8,18.01,18.34,18.14,21575168.0,396688698.0,2471315000.0,70607356662.64
sh600956,新天绿能,2021-12-10,18.06,18.17,17.51,17.6,18.34,16977633.0,301158734.0,2371600000.0,67758422969.6
sh600956,新天绿能,2021-12-13,17.56,18.13,17.51,17.71,17.6,13152659.0,234382951.0,2386422500.0,68181913113.16
sh600956,新天绿能,2021-12-14,17.62,17.89,17.38,17.44,17.71,10264796.0,179818422.0,2350040000.0,67142437306.24
sh600956,新天绿能,2021-12-15,17.44,17.96,17.26,17.75,17.44,13211837.0,233173305.0,2391812500.0,68335909529.0
sh600956,新天绿能,2021-12-16,17.78,18.71,17.66,18.46,17.75,25007885.0,456913483.0,2487485000.0,71069345910.16
sh600956,新天绿能,2021-12-17,18.46,18.8,18.18,18.55,18.46,21630716.0,400372597.0,2499612500.0,71415837845.8
sh600956,新天绿能,2021-12-20,18.27,18.28,17.17,17.36,18.55,18326728.0,322740884.0,2339260000.0,66834444474.560005
sh600956,新天绿能,2021-12-21,17.19,17.37,16.62,16.94,17.36,12351841.0,208441286.0,2282665000.0,65217482108.24
sh600956,新天绿能,2021-12-22,16.95,17.48,16.81,16.95,16.94,9695326.0,166401743.0,2284012500.0,65255981212.200005
sh600956,新天绿能,2021-12-23,16.92,18.01,16.51,17.85,16.95,20340037.0,356338380.0,2405287500.0,68720900568.6
sh600956,新天绿能,2021-12-24,17.97,18.22,17.45,17.48,17.85,14908635.0,265789484.0,2355430000.0,67296433722.08
sh600956,新天绿能,2021-12-27,17.48,18.4,17.2,18.18,17.48,19517693.0,353524206.0,2449755000.0,69991370999.28
sh600956,新天绿能,2021-12-28,18.23,18.35,17.03,17.4,18.18,19641758.0,341690008.0,2344650000.0,66988440890.4
sh600956,新天绿能,2021-12-29,17.26,17.58,17.0,17.4,17.4,10131478.0,174919859.0,2344650000.0,66988440890.4
sh600956,新天绿能,2021-12-30,17.25,17.4,17.12,17.15,17.4,7329229.0,126243509.0,2310962500.0,66025963291.4
sh600956,新天绿能,2021-12-31,17.28,17.57,17.15,17.21,17.15,7921575.0,137430998.0,2319047500.0,66256957915.16
sh600956,新天绿能,2022-01-04,17.61,17.97,17.3,17.42,17.21,10186700.0,179056736.0,2347345000.0,67065439098.32
sh600956,新天绿能,2022-01-05,17.3,17.31,16.11,16.57,17.42,13664206.0,226837027.0,2232807500.0,63793015261.72
sh600956,新天绿能,2022-01-06,16.55,17.12,16.15,16.89,16.57,8787800.0,146722279.0,2275927500.0,65024986588.439995
sh600956,新天绿能,2022-01-07,16.81,16.86,16.31,16.31,16.89,8617000.0,141992669.0,2197772500.0,62792038558.759995
sh600956,新天绿能,2022-01-10,16.4,16.4,15.3,15.76,16.31,9797371.0,154126801.0,2123660000.0,65988586830.479996
sh600956,新天绿能,2022-01-11,15.74,15.85,15.54,15.63,15.76,6706284.0,105323785.0,2106142500.0,65444264730.99
sh600956,新天绿能,2022-01-12,15.64,15.8,15.6,15.8,15.63,4025103.0,63253085.0,2129050000.0,66156070553.4
sh600956,新天绿能,2022-01-13,15.81,15.81,15.45,15.47,15.8,5465815.0,85122663.0,2084582500.0,64774329839.310005
sh600956,新天绿能,2022-01-14,15.48,15.59,15.18,15.3,15.47,5189559.0,79762566.0,2061675000.0,64062524016.899994
