数据由邢不行整理
股票代码,股票名称,交易日期,开盘价,最高价,最低价,收盘价,前收盘价,成交量,成交额,流通市值,总市值
sh601816,N京沪,2020-01-16,5.86,6.99,5.86,6.77,4.88,1414718454.0,9170651670.0,17630503507.6,332450900816.0
sh601816,京沪高铁,2020-01-17,6.85,6.86,6.5,6.65,6.77,738117308.0,4922740966.0,17317998275.5,326558122663.0
sh601816,京沪高铁,2020-01-20,6.73,7.32,6.72,7.32,6.65,665544828.0,4738736655.0,19062819154.4,359459467353.0
sh601816,京沪高铁,2020-01-21,7.5,7.96,7.11,7.68,7.32,910793651.0,6930005012.0,20000334850.6,377137801812.0
sh601816,京沪高铁,2020-01-22,7.3,7.55,7.24,7.32,7.68,501749429.0,3701760519.0,19062819154.4,359459467353.0
sh601816,京沪高铁,2020-01-23,7.17,7.17,6.73,7.05,7.32,483174530.0,3343897833.0,18359682382.3,346200716508.0
sh601816,京沪高铁,2020-02-03,6.35,6.35,6.35,6.35,7.05,137197800.0,871206030.0,16536735195.5,311826177280.0
sh601816,京沪高铁,2020-02-04,6.0,6.95,6.0,6.81,6.35,466617029.0,3051684358.0,17734671918.3,334415160201.0
sh601816,京沪高铁,2020-02-05,6.67,7.38,6.63,7.3,6.81,483519350.0,3420448639.0,19010734949.1,358477337660.0
sh601816,京沪高铁,2020-02-06,7.28,7.43,7.11,7.36,7.3,375677535.0,2733272087.0,19166987565.1,361423726737.0
sh601816,京沪高铁,2020-02-07,7.28,7.96,7.22,7.73,7.36,492226105.0,3758813225.0,20130545363.9,379593126043.0
sh601816,京沪高铁,2020-02-10,7.58,8.22,7.53,7.78,7.73,472068840.0,3713667615.0,20260755877.3,382048450274.0
sh601816,京沪高铁,2020-02-11,7.79,7.88,7.54,7.57,7.78,324546431.0,2482518106.0,19713871721.2,371736088505.0
sh601816,京沪高铁,2020-02-12,7.51,7.73,7.4,7.63,7.57,290865128.0,2199620337.0,19870124337.2,374682477582.0
sh601816,京沪高铁,2020-02-13,7.64,7.72,7.4,7.46,7.63,246961688.0,1856357098.0,19427408591.8,366334375198.0
sh601816,京沪高铁,2020-02-14,7.4,7.45,7.21,7.3,7.46,256396113.0,1878864938.0,19010734949.1,358477337660.0
sh601816,京沪高铁,2020-02-17,7.23,7.36,7.22,7.3,7.3,292830876.0,2134888685.0,19010734949.1,358477337660.0
sh601816,京沪高铁,2020-02-18,7.31,7.8,7.22,7.71,7.3,537211857.0,4048192393.0,20078461158.6,378610996351.0
sh601816,京沪高铁,2020-02-19,7.62,7.67,7.4,7.45,7.71,364079161.0,2731448418.0,19401366489.2,365843310352.0
sh601816,京沪高铁,2020-02-20,7.45,7.6,7.4,7.6,7.45,294145623.0,2208165158.0,19791998029.2,373209283044.0
sh601816,京沪高铁,2020-02-21,7.6,7.75,7.51,7.53,7.6,303005617.0,2301576467.0,19609703310.5,369771829121.0
sh601816,京沪高铁,2020-02-24,7.42,7.42,7.28,7.3,7.53,365754808.0,2677318365.0,19010734949.1,358477337660.0
sh601816,京沪高铁,2020-02-25,7.11,7.2,7.01,7.19,7.3,271953726.0,1936534414.0,18724271819.7,353075624353.0
sh601816,京沪高铁,2020-02-26,7.09,7.35,7.05,7.14,7.19,246882924.0,1776498755.0,18594061306.4,350620300123.0
sh601816,京沪高铁,2020-02-27,7.09,7.18,7.06,7.09,7.14,162205265.0,1152492256.0,18463850793.0,348164975892.0
sh601816,京沪高铁,2020-02-28,6.95,7.0,6.8,6.87,7.09,232032271.0,1598818838.0,17890924534.3,337361549278.0
sh601816,京沪高铁,2020-03-02,6.86,7.1,6.86,7.07,6.87,168503758.0,1183893736.0,18411766587.7,347182846200.0
sh601816,京沪高铁,2020-03-03,7.13,7.17,7.0,7.02,7.07,187288966.0,1323821179.0,18281556074.3,344727521969.0
sh601816,京沪高铁,2020-03-04,6.97,6.97,6.88,6.96,7.02,132375609.0,916848293.0,18125303458.3,341781132893.0
sh601816,京沪高铁,2020-03-05,7.04,7.22,6.94,7.17,6.96,272828861.0,1934405196.0,18672187614.4,352093494661.0
sh601816,京沪高铁,2020-03-06,7.07,7.08,7.0,7.03,7.17,155505923.0,1093483648.0,18307598177.0,345218586815.0
sh601816,京沪高铁,2020-03-09,6.9,6.95,6.86,6.88,7.03,139386054.0,960972467.0,17916966637.0,337852614124.0
sh601816,京沪高铁,2020-03-10,6.8,6.96,6.7,6.93,6.88,151128709.0,1033336050.0,18047177150.3,340307938354.0
sh601816,京沪高铁,2020-03-11,6.92,7.14,6.87,6.94,6.93,166856669.0,1166411217.0,18073219253.0,340799003200.0
sh601816,京沪高铁,2020-03-12,6.81,6.87,6.76,6.79,6.94,117269843.0,798641874.0,17682587712.9,333433030509.0
sh601816,京沪高铁,2020-03-13,6.53,6.79,6.45,6.69,6.79,133264825.0,881925107.0,17422166686.2,328522382048.0
sh601816,京沪高铁,2020-03-16,6.75,6.77,6.44,6.5,6.69,124221690.0,817858666.0,16927366735.5,319192149972.0
sh601816,京沪高铁,2020-03-17,6.5,6.6,6.25,6.39,6.5,109606293.0,697997416.0,16640903606.1,313790436664.0
sh601816,京沪高铁,2020-03-18,6.42,6.5,6.3,6.3,6.39,86107331.0,551396150.0,16406524682.1,309370853049.0
sh601816,京沪高铁,2020-03-19,6.25,6.3,6.11,6.23,6.3,113591135.0,702544058.0,16224229963.4,305933399127.0
sh601816,京沪高铁,2020-03-20,6.27,6.33,6.2,6.33,6.23,83334966.0,521649935.0,16484650990.1,310844047588.0
sh601816,京沪高铁,2020-03-23,6.17,6.21,6.08,6.08,6.33,82958043.0,510346045.0,15833598423.4,298567426435.0
sh601816,京沪高铁,2020-03-24,6.18,6.27,6.08,6.24,6.08,98338980.0,607101131.0,16250272066.1,306424463973.0
sh601816,京沪高铁,2020-03-25,6.37,6.5,6.29,6.45,6.24,147622331.0,943287038.0,16797156222.1,316736825741.0
sh601816,京沪高铁,2020-03-26,6.37,6.55,6.31,6.4,6.45,105365893.0,677212105.0,16666945708.8,314281501510.0
sh601816,京沪高铁,2020-03-27,6.46,6.48,6.34,6.35,6.4,77467990.0,495758526.0,16536735195.5,311826177280.0
sh601816,京沪高铁,2020-03-30,6.25,6.26,6.2,6.22,6.35,58136331.0,361796782.0,16198187860.7,305442334280.0
sh601816,京沪高铁,2020-03-31,6.27,6.28,6.19,6.2,6.22,42548558.0,264920903.0,16146103655.4,304460204588.0
sh601816,京沪高铁,2020-04-01,6.19,6.28,6.15,6.19,6.2,50290147.0,312417003.0,16120061552.7,303969139742.0
sh601816,京沪高铁,2020-04-02,6.16,6.24,6.12,6.24,6.19,66251347.0,409443513.0,16250272066.1,306424463973.0
sh601816,京沪高铁,2020-04-03,6.22,6.23,6.17,6.18,6.24,40877096.0,253073786.0,16094019450.1,303478074896.0
sh601816,京沪高铁,2020-04-07,6.26,6.34,6.23,6.31,6.18,91263351.0,572397938.0,16432566784.8,309861917895.0
sh601816,京沪高铁,2020-04-08,6.27,6.43,6.24,6.39,6.31,93935272.0,595902355.0,16640903606.1,313790436664.0
sh601816,京沪高铁,2020-04-09,6.41,6.43,6.35,6.36,6.39,58120191.0,371005950.0,16562777298.1,312317242126.0
sh601816,京沪高铁,2020-04-10,6.36,6.36,6.23,6.25,6.36,59262475.0,372377794.0,16276314168.8,306915528819.0
sh601816,京沪高铁,2020-04-13,6.22,6.24,6.19,6.21,6.25,36311082.0,225376045.0,16172145758.1,304951269434.0
sh601816,京沪高铁,2020-04-14,6.23,6.27,6.22,6.27,6.21,35844310.0,223835552.0,16328398374.1,307897658511.0
sh601816,京沪高铁,2020-04-15,6.27,6.29,6.22,6.23,6.27,36319439.0,227101493.0,16224229963.4,305933399127.0
sh601816,京沪高铁,2020-04-16,6.25,6.35,6.23,6.25,6.23,63622511.0,400353323.0,16276314168.8,306915528819.0
sh601816,京沪高铁,2020-04-17,6.28,6.35,6.21,6.28,6.25,86420577.0,542753622.0,16354440476.8,308388723357.0
sh601816,京沪高铁,2020-04-20,6.28,6.28,6.23,6.26,6.28,45388811.0,283723675.0,16302356271.4,307406593665.0
sh601816,京沪高铁,2020-04-21,6.23,6.24,6.15,6.18,6.26,58648571.0,362638793.0,16094019450.1,303478074896.0
sh601816,京沪高铁,2020-04-22,6.16,6.18,6.13,6.17,6.18,33335447.0,205085800.0,16067977347.4,302987010050.0
sh601816,京沪高铁,2020-04-23,6.18,6.18,6.14,6.15,6.17,36915259.0,227081781.0,16015893142.0,302004880358.0
sh601816,京沪高铁,2020-04-24,6.16,6.16,6.08,6.11,6.15,47984718.0,293377549.0,15911724731.4,300040620973.0
sh601816,京沪高铁,2020-04-27,6.11,6.14,6.08,6.1,6.11,29758823.0,181838561.0,15885682628.7,299549556127.0
sh601816,京沪高铁,2020-04-28,6.09,6.1,5.93,6.03,6.1,52363306.0,315407373.0,15703387910.0,296112102204.0
sh601816,京沪高铁,2020-04-29,6.05,6.45,6.04,6.35,6.03,178279359.0,1128219690.0,16536735195.5,311826177280.0
sh601816,京沪高铁,2020-04-30,6.53,6.64,6.41,6.5,6.35,199120999.0,1298158867.0,16927366735.5,319192149972.0
sh601816,京沪高铁,2020-05-06,6.35,6.41,6.28,6.4,6.5,108873691.0,691826090.0,16666945708.8,314281501510.0
sh601816,京沪高铁,2020-05-07,6.37,6.37,6.3,6.36,6.4,55393288.0,351032683.0,16562777298.1,312317242126.0
sh601816,京沪高铁,2020-05-08,6.36,6.46,6.34,6.41,6.36,70384176.0,449851432.0,16692987811.5,314772566357.0
sh601816,京沪高铁,2020-05-11,6.45,6.45,6.33,6.36,6.41,61586452.0,393034808.0,16562777298.1,312317242126.0
sh601816,京沪高铁,2020-05-12,6.35,6.35,6.28,6.31,6.36,47570834.0,299981895.0,16432566784.8,309861917895.0
sh601816,京沪高铁,2020-05-13,6.27,6.43,6.27,6.38,6.31,55854524.0,355092032.0,16614861503.5,313299371818.0
sh601816,京沪高铁,2020-05-14,6.33,6.36,6.27,6.27,6.38,52360778.0,329695934.0,16328398374.1,307897658511.0
sh601816,京沪高铁,2020-05-15,6.29,6.31,6.24,6.25,6.27,35017162.0,219311660.0,16276314168.8,306915528819.0
sh601816,京沪高铁,2020-05-18,6.25,6.25,6.2,6.23,6.25,35314014.0,219613331.0,16224229963.4,305933399127.0
sh601816,京沪高铁,2020-05-19,6.28,6.32,6.24,6.28,6.23,34379040.0,215592998.0,16354440476.8,308388723357.0
sh601816,京沪高铁,2020-05-20,6.26,6.27,6.2,6.22,6.28,33129957.0,206172362.0,16198187860.7,305442334280.0
sh601816,京沪高铁,2020-05-21,6.23,6.25,6.14,6.16,6.22,38561976.0,238416203.0,16041935244.7,302495945204.0
sh601816,京沪高铁,2020-05-22,6.15,6.16,6.08,6.12,6.16,42319396.0,258658123.0,15937766834.0,300531685819.0
sh601816,京沪高铁,2020-05-25,6.12,6.26,6.05,6.23,6.12,48926284.0,302128647.0,16224229963.4,305933399127.0
sh601816,京沪高铁,2020-05-26,6.22,6.27,6.2,6.23,6.23,29082712.0,181195759.0,16224229963.4,305933399127.0
sh601816,京沪高铁,2020-05-27,6.24,6.25,6.17,6.2,6.23,27320267.0,169358377.0,16146103655.4,304460204588.0
sh601816,京沪高铁,2020-05-28,6.19,6.38,6.17,6.28,6.2,76280115.0,480416590.0,16354440476.8,308388723357.0
sh601816,京沪高铁,2020-05-29,6.25,6.25,6.13,6.21,6.28,43286225.0,268077636.0,16172145758.1,304951269434.0
sh601816,京沪高铁,2020-06-01,6.25,6.34,6.23,6.31,6.21,66968010.0,421520588.0,16432566784.8,309861917895.0
sh601816,京沪高铁,2020-06-02,6.35,6.38,6.29,6.32,6.31,55103425.0,348472165.0,16458608887.4,310352982742.0
sh601816,京沪高铁,2020-06-03,6.32,6.44,6.31,6.34,6.32,63290302.0,403281566.0,16510693092.8,311335112434.0
sh601816,京沪高铁,2020-06-04,6.38,6.41,6.31,6.37,6.34,48451675.0,307971833.0,16588819400.8,312808306972.0
sh601816,京沪高铁,2020-06-05,6.38,6.44,6.33,6.42,6.37,69704117.0,445858352.0,16719029914.1,315263631203.0
sh601816,京沪高铁,2020-06-08,6.44,6.74,6.43,6.66,6.42,194416808.0,1285599629.0,17344040378.2,327049187509.0
sh601816,京沪高铁,2020-06-09,6.66,6.66,6.51,6.57,6.66,98108207.0,644910206.0,17109661454.2,322629603894.0
sh601816,京沪高铁,2020-06-10,6.56,6.72,6.52,6.63,6.57,98083181.0,650611874.0,17265914070.2,325575992971.0
sh601816,京沪高铁,2020-06-11,6.6,6.66,6.46,6.49,6.63,89236031.0,584818291.0,16901324632.8,318701085125.0
sh601816,京沪高铁,2020-06-12,6.37,6.55,6.34,6.35,6.49,106346209.0,685924406.0,16536735195.5,311826177280.0
sh601816,京沪高铁,2020-06-15,6.35,6.42,6.24,6.24,6.35,118193632.0,746810816.0,16250272066.08,306424463972.64
sh601816,京沪高铁,2020-06-16,6.27,6.3,6.23,6.29,6.24,58098476.0,364468549.0,16380482579.43,308879788203.19
sh601816,京沪高铁,2020-06-17,6.26,6.26,6.18,6.23,6.29,55899589.0,347230400.0,16224229963.41,305933399126.53
sh601816,京沪高铁,2020-06-18,6.23,6.28,6.2,6.26,6.23,39005742.0,243973059.0,16302356271.42,307406593664.86005
sh601816,京沪高铁,2020-06-19,6.28,6.37,6.28,6.36,6.26,87061081.0,551414047.0,16562777298.12,312317242125.96
sh601816,京沪高铁,2020-06-22,6.33,6.34,6.29,6.32,6.36,40598054.0,256520368.0,16458608887.44,310352982741.52
sh601816,京沪高铁,2020-06-23,6.3,6.33,6.26,6.26,6.32,35328809.0,221684545.0,16302356271.42,307406593664.86005
sh601816,京沪高铁,2020-06-24,6.28,6.29,6.25,6.28,6.26,29180989.0,183016783.0,16354440476.76,308388723357.08
sh601816,京沪高铁,2020-06-29,6.26,6.27,6.18,6.2,6.28,48324841.0,300308018.0,16146103655.4,304460204588.2
sh601816,京沪高铁,2020-06-30,6.21,6.26,6.21,6.23,6.2,27075862.0,168953617.0,16224229963.41,305933399126.53
sh601816,京沪高铁,2020-07-01,6.23,6.34,6.21,6.3,6.23,48714250.0,305354342.0,16406524682.1,309370853049.3
sh601816,京沪高铁,2020-07-02,6.29,6.47,6.28,6.45,6.3,117569108.0,750422171.0,16797156222.15,316736825740.95
sh601816,京沪高铁,2020-07-03,6.46,6.57,6.41,6.54,6.45,146512491.0,951806851.0,17031535146.18,321156409355.94
sh601816,京沪高铁,2020-07-06,6.63,6.93,6.57,6.88,6.54,308889905.0,2077038658.0,17916966636.96,337852614123.68
sh601816,京沪高铁,2020-07-07,6.88,7.04,6.72,6.72,6.88,246544835.0,1681358215.0,17500292994.24,329995576585.92
sh601816,京沪高铁,2020-07-08,6.71,6.8,6.63,6.77,6.72,160732984.0,1080980724.0,17630503507.59,332450900816.47003
sh601816,京沪高铁,2020-07-09,6.81,7.0,6.73,6.9,6.77,209485597.0,1435717175.0,17969050842.3,338834743815.9
sh601816,京沪高铁,2020-07-10,6.8,6.81,6.64,6.66,6.9,159748762.0,1072985315.0,17344040378.22,327049187509.26
sh601816,京沪高铁,2020-07-13,6.66,6.79,6.66,6.73,6.66,141111352.0,949829008.0,17526335096.91,330486641432.03
sh601816,京沪高铁,2020-07-14,6.71,6.96,6.68,6.9,6.73,216021852.0,1476390189.0,17969050842.3,338834743815.9
sh601816,京沪高铁,2020-07-15,6.89,6.89,6.66,6.68,6.9,146251343.0,987146309.0,17396124583.56,328031317201.48
sh601816,京沪高铁,2020-07-16,6.5,6.51,6.24,6.26,6.68,540028284.0,3409687297.0,20106240570.16,307406593664.86005
sh601816,京沪高铁,2020-07-17,6.27,6.27,6.15,6.2,6.26,192125051.0,1191842021.0,19913528999.2,304460204588.2
sh601816,京沪高铁,2020-07-20,6.23,6.34,6.19,6.32,6.2,153367373.0,960889561.0,20298952141.12,310352982741.52
sh601816,京沪高铁,2020-07-21,6.31,6.32,6.24,6.3,6.32,97659216.0,613055855.0,20234714950.8,309370853049.3
sh601816,京沪高铁,2020-07-22,6.28,6.36,6.25,6.28,6.3,119314037.0,752348641.0,20170477760.48,308388723357.08
sh601816,京沪高铁,2020-07-23,6.24,6.28,6.18,6.23,6.28,108026629.0,672195270.0,20009884784.68,305933399126.53
sh601816,京沪高铁,2020-07-24,6.21,6.23,6.12,6.15,6.23,120932545.0,746298763.0,19752936023.4,302004880357.65
sh601816,京沪高铁,2020-07-27,6.16,6.27,6.12,6.22,6.15,80104085.0,495339668.0,19977766189.52,305442334280.42
sh601816,京沪高铁,2020-07-28,6.24,6.25,6.18,6.2,6.22,46253108.0,287114477.0,19913528999.2,304460204588.2
sh601816,京沪高铁,2020-07-29,6.2,6.25,6.18,6.24,6.2,72745994.0,452393493.0,20042003379.84,306424463972.64
sh601816,京沪高铁,2020-07-30,6.24,6.24,6.19,6.2,6.24,61420042.0,381484085.0,19913528999.2,304460204588.2
sh601816,京沪高铁,2020-07-31,6.18,6.22,6.17,6.2,6.2,63515406.0,393385770.0,19913528999.2,304460204588.2
sh601816,京沪高铁,2020-08-03,6.21,6.28,6.2,6.27,6.2,109456509.0,682831430.0,20138359165.32,307897658510.97
sh601816,京沪高铁,2020-08-04,6.28,6.31,6.22,6.28,6.27,100093605.0,627039027.0,20170477760.48,308388723357.08
sh601816,京沪高铁,2020-08-05,6.26,6.27,6.2,6.24,6.28,67879343.0,423314825.0,20042003379.84,306424463972.64
sh601816,京沪高铁,2020-08-06,6.24,6.24,6.18,6.22,6.24,74205131.0,460639308.0,19977766189.52,305442334280.42
sh601816,京沪高铁,2020-08-07,6.2,6.24,6.17,6.2,6.22,69019330.0,427610506.0,19913528999.2,304460204588.2
sh601816,京沪高铁,2020-08-10,6.18,6.28,6.17,6.25,6.2,92357939.0,576048192.0,20074121975.0,306915528818.75
sh601816,京沪高铁,2020-08-11,6.24,6.28,6.2,6.21,6.25,82851308.0,517428735.0,19945647594.36,304951269434.31
sh601816,京沪高铁,2020-08-12,6.19,6.38,6.18,6.3,6.21,166394500.0,1047126366.0,20234714950.8,309370853049.3
sh601816,京沪高铁,2020-08-13,6.36,6.4,6.27,6.29,6.3,119133695.0,752592504.0,20202596355.64,308879788203.19
sh601816,京沪高铁,2020-08-14,6.31,6.32,6.26,6.31,6.29,66882005.0,420941223.0,20266833545.96,309861917895.41
sh601816,京沪高铁,2020-08-17,6.32,6.42,6.29,6.4,6.31,143363203.0,912253323.0,20555900902.4,314281501510.4
sh601816,京沪高铁,2020-08-18,6.38,6.39,6.33,6.36,6.4,76799254.0,487860362.0,20427426521.76,312317242125.96
sh601816,XD京沪高,2020-08-19,6.31,6.35,6.27,6.29,6.31,70911411.0,447344940.0,20202596355.64,308879788203.19
sh601816,京沪高铁,2020-08-20,6.28,6.32,6.24,6.25,6.29,55027738.0,344931789.0,20074121975.0,306915528818.75
sh601816,京沪高铁,2020-08-21,6.26,6.28,6.23,6.26,6.25,58713067.0,367168197.0,20106240570.16,307406593664.86005
sh601816,京沪高铁,2020-08-24,6.28,6.28,6.23,6.24,6.26,50628135.0,316373309.0,20042003379.84,306424463972.64
sh601816,京沪高铁,2020-08-25,6.24,6.26,6.2,6.22,6.24,56462492.0,351473699.0,19977766189.52,305442334280.42
sh601816,京沪高铁,2020-08-26,6.21,6.24,6.17,6.18,6.22,60165520.0,372907059.0,19849291808.88,303478074895.98
sh601816,京沪高铁,2020-08-27,6.18,6.22,6.17,6.21,6.18,42154659.0,260872835.0,19945647594.36,304951269434.31
sh601816,京沪高铁,2020-08-28,6.18,6.22,6.17,6.22,6.21,66698323.0,412919459.0,19977766189.52,305442334280.42
sh601816,京沪高铁,2020-08-31,6.22,6.27,6.21,6.23,6.22,98474646.0,613708146.0,20009884784.68,305933399126.53
sh601816,京沪高铁,2020-09-01,6.22,6.24,6.19,6.2,6.23,42074680.0,261203243.0,19913528999.2,304460204588.2
sh601816,京沪高铁,2020-09-02,6.21,6.22,6.18,6.2,6.2,50472420.0,313067187.0,19913528999.2,304460204588.2
sh601816,京沪高铁,2020-09-03,6.19,6.2,6.17,6.18,6.2,43568583.0,269438875.0,19849291808.88,303478074895.98
sh601816,京沪高铁,2020-09-04,6.15,6.19,6.15,6.19,6.18,52658861.0,324527080.0,19881410404.04,303969139742.09
sh601816,京沪高铁,2020-09-07,6.18,6.25,6.17,6.21,6.19,67657385.0,420071542.0,19945647594.36,304951269434.31
sh601816,京沪高铁,2020-09-08,6.21,6.22,6.18,6.21,6.21,48631849.0,301267127.0,19945647594.36,304951269434.31
sh601816,京沪高铁,2020-09-09,6.18,6.2,6.14,6.15,6.21,71092137.0,438314736.0,19752936023.4,302004880357.65
sh601816,京沪高铁,2020-09-10,6.17,6.18,6.12,6.14,6.15,52076362.0,320323651.0,19720817428.24,301513815511.54
sh601816,京沪高铁,2020-09-11,6.13,6.14,6.1,6.14,6.14,41882036.0,256225649.0,19720817428.24,301513815511.54
sh601816,京沪高铁,2020-09-14,6.14,6.18,6.13,6.16,6.14,36219098.0,223054202.0,19785054618.56,302495945203.76
sh601816,京沪高铁,2020-09-15,6.16,6.18,6.13,6.16,6.16,31435357.0,193396701.0,19785054618.56,302495945203.76
sh601816,京沪高铁,2020-09-16,6.16,6.22,6.14,6.19,6.16,54180056.0,335012503.0,19881410404.04,303969139742.09
sh601816,京沪高铁,2020-09-17,6.19,6.19,6.13,6.15,6.19,37691531.0,232060872.0,19752936023.4,302004880357.65
sh601816,京沪高铁,2020-09-18,6.15,6.2,6.14,6.19,6.15,53857808.0,332896422.0,19881410404.04,303969139742.09
sh601816,京沪高铁,2020-09-21,6.2,6.22,6.17,6.18,6.19,30875622.0,191032261.0,19849291808.88,303478074895.98
sh601816,京沪高铁,2020-09-22,6.16,6.2,6.12,6.13,6.18,44658540.0,274799660.0,19688698833.08,301022750665.43
sh601816,京沪高铁,2020-09-23,6.14,6.15,6.12,6.12,6.13,28358276.0,173809370.0,19656580237.92,300531685819.32
sh601816,京沪高铁,2020-09-24,6.11,6.13,6.07,6.07,6.12,47619239.0,290188594.0,19495987262.12,298076361588.77
sh601816,京沪高铁,2020-09-25,6.08,6.09,5.95,5.96,6.07,80534666.0,483175491.0,19142682715.36,292674648281.56
sh601816,京沪高铁,2020-09-28,5.97,5.98,5.81,5.84,5.96,81171734.0,476726042.0,18757259573.44,286781870128.24
sh601816,京沪高铁,2020-09-29,5.86,5.87,5.81,5.83,5.84,45196006.0,263745207.0,18725140978.280003,286290805282.13
sh601816,京沪高铁,2020-09-30,5.84,5.88,5.83,5.85,5.83,35785483.0,209462909.0,18789378168.6,287272934974.35
sh601816,京沪高铁,2020-10-09,5.9,5.94,5.84,5.86,5.85,60264900.0,354277840.0,18821496763.76,287763999820.46
sh601816,京沪高铁,2020-10-12,5.87,5.94,5.84,5.91,5.86,73184199.0,431104135.0,18982089739.56,290219324051.01
sh601816,京沪高铁,2020-10-13,5.9,5.9,5.85,5.87,5.91,37554626.0,220300203.0,18853615358.92,288255064666.57
sh601816,京沪高铁,2020-10-14,5.86,5.87,5.82,5.83,5.87,37450719.0,218582899.0,18725140978.280003,286290805282.13
sh601816,京沪高铁,2020-10-15,5.82,5.83,5.78,5.78,5.83,50805625.0,294400218.0,18564548002.48,283835481051.58
sh601816,京沪高铁,2020-10-16,5.77,5.78,5.73,5.73,5.78,50667653.0,291053772.0,18403955026.68,281380156821.03
sh601816,京沪高铁,2020-10-19,5.73,5.77,5.72,5.74,5.73,32930960.0,189104539.0,18436073621.84,281871221667.14
sh601816,京沪高铁,2020-10-20,5.74,5.74,5.63,5.66,5.74,58437171.0,331383681.0,18179124860.56,277942702898.26
sh601816,京沪高铁,2020-10-21,5.66,5.67,5.54,5.56,5.66,78126335.0,435688109.0,17857938908.96,273032054437.16
sh601816,京沪高铁,2020-10-22,5.54,5.55,5.5,5.53,5.56,41721261.0,230197030.0,17761583123.48,271558859898.83
sh601816,京沪高铁,2020-10-23,5.52,5.57,5.52,5.55,5.53,37431725.0,207523834.0,17825820313.8,272540989591.05
sh601816,京沪高铁,2020-10-26,5.65,5.79,5.61,5.77,5.55,132295676.0,757980108.0,18532429407.32,283344416205.47003
sh601816,京沪高铁,2020-10-27,5.72,5.75,5.68,5.72,5.77,49926524.0,285240128.0,18371836431.52,280889091974.92
sh601816,京沪高铁,2020-10-28,5.72,5.72,5.6,5.65,5.72,40587551.0,228821995.0,18147006265.4,277451638052.15
sh601816,京沪高铁,2020-10-29,5.59,5.61,5.56,5.59,5.65,33749857.0,188573837.0,17954294694.44,274505248975.49
sh601816,京沪高铁,2020-10-30,5.59,5.64,5.55,5.58,5.59,34700371.0,194105250.0,17922176099.28,274014184129.38
sh601816,京沪高铁,2020-11-02,5.57,5.59,5.51,5.54,5.58,36873322.0,204057409.0,17793701718.64,272049924744.94
sh601816,京沪高铁,2020-11-03,5.54,5.65,5.52,5.62,5.54,36106563.0,202549248.0,18050650479.92,275978443513.82
sh601816,京沪高铁,2020-11-04,5.6,5.63,5.58,5.62,5.62,29115051.0,163280366.0,18050650479.92,275978443513.82
sh601816,京沪高铁,2020-11-05,5.64,5.66,5.61,5.66,5.62,35369556.0,199453500.0,18179124860.56,277942702898.26
sh601816,京沪高铁,2020-11-06,5.66,5.73,5.63,5.7,5.66,45285029.0,257641637.0,18307599241.2,279906962282.7
sh601816,京沪高铁,2020-11-09,5.74,5.74,5.7,5.72,5.7,46979802.0,268810316.0,18371836431.52,280889091974.92
sh601816,京沪高铁,2020-11-10,5.89,5.93,5.77,5.78,5.72,97314969.0,567781277.0,18564548002.48,283835481051.58
sh601816,京沪高铁,2020-11-11,5.73,5.78,5.66,5.74,5.78,50628610.0,289678917.0,18436073621.84,281871221667.14
sh601816,京沪高铁,2020-11-12,5.74,5.82,5.7,5.79,5.74,36471726.0,210205361.0,18596666597.64,284326545897.69
sh601816,京沪高铁,2020-11-13,5.76,5.78,5.7,5.73,5.79,34266935.0,196478730.0,18403955026.68,281380156821.03
sh601816,京沪高铁,2020-11-16,5.74,5.83,5.71,5.81,5.73,40869186.0,236694666.0,18660903787.96,285308675589.91
sh601816,京沪高铁,2020-11-17,5.8,5.91,5.79,5.87,5.81,61903696.0,363498747.0,18853615358.92,288255064666.57
sh601816,京沪高铁,2020-11-18,5.85,5.89,5.81,5.87,5.87,44339824.0,259617003.0,18853615358.92,288255064666.57
sh601816,京沪高铁,2020-11-19,5.87,5.88,5.8,5.81,5.87,39051082.0,227292981.0,18660903787.96,285308675589.91
sh601816,京沪高铁,2020-11-20,5.79,5.81,5.77,5.78,5.81,28379612.0,164171317.0,18564548002.48,283835481051.58
sh601816,京沪高铁,2020-11-23,5.75,5.79,5.71,5.79,5.78,48089004.0,276304603.0,18596666597.64,284326545897.69
sh601816,京沪高铁,2020-11-24,5.77,5.78,5.73,5.74,5.79,26712310.0,153526687.0,18436073621.84,281871221667.14
sh601816,京沪高铁,2020-11-25,5.77,5.83,5.72,5.73,5.74,39102369.0,225511523.0,18403955026.68,281380156821.03
sh601816,京沪高铁,2020-11-26,5.73,5.73,5.66,5.69,5.73,28009394.0,159400751.0,18275480646.04,279415897436.59
sh601816,京沪高铁,2020-11-27,5.7,5.73,5.67,5.73,5.69,25679802.0,146285516.0,18403955026.68,281380156821.03
sh601816,京沪高铁,2020-11-30,5.75,5.83,5.75,5.8,5.73,72055625.0,417482488.0,18628785192.8,284817610743.8
sh601816,京沪高铁,2020-12-01,5.77,5.86,5.76,5.86,5.8,56748889.0,330754082.0,18821496763.76,287763999820.46
sh601816,京沪高铁,2020-12-02,5.87,5.9,5.83,5.85,5.86,43164411.0,253023756.0,18789378168.6,287272934974.35
sh601816,京沪高铁,2020-12-03,5.85,6.05,5.82,5.97,5.85,97692760.0,582656276.0,19174801310.52,293165713127.67
sh601816,京沪高铁,2020-12-04,5.95,5.98,5.86,5.91,5.97,49815544.0,294090816.0,18982089739.56,290219324051.01
sh601816,京沪高铁,2020-12-07,5.89,5.89,5.81,5.83,5.91,41630598.0,242765377.0,18725140978.280003,286290805282.13
sh601816,京沪高铁,2020-12-08,5.84,5.85,5.77,5.77,5.83,30685717.0,177998911.0,18532429407.32,283344416205.47003
sh601816,京沪高铁,2020-12-09,5.76,5.78,5.72,5.72,5.77,32077078.0,184429784.0,18371836431.52,280889091974.92
sh601816,京沪高铁,2020-12-10,5.71,5.73,5.68,5.7,5.72,21539936.0,122850308.0,18307599241.2,279906962282.7
sh601816,京沪高铁,2020-12-11,5.7,5.72,5.65,5.67,5.7,28869756.0,163846265.0,18211243455.72,278433767744.37
sh601816,京沪高铁,2020-12-14,5.7,5.7,5.65,5.67,5.67,30255607.0,171691494.0,18211243455.72,278433767744.37
sh601816,京沪高铁,2020-12-15,5.66,5.67,5.61,5.65,5.67,27759164.0,156289383.0,18147006265.4,277451638052.15
sh601816,京沪高铁,2020-12-16,5.67,5.74,5.65,5.73,5.65,29707453.0,169477944.0,18403955026.68,281380156821.03
sh601816,京沪高铁,2020-12-17,5.71,5.75,5.66,5.75,5.73,25045075.0,142876566.0,18468192217.0,282362286513.25
sh601816,京沪高铁,2020-12-18,5.74,5.8,5.72,5.79,5.75,29132990.0,168209121.0,18596666597.64,284326545897.69
sh601816,京沪高铁,2020-12-21,5.78,5.79,5.72,5.78,5.79,28449968.0,163980429.0,18564548002.48,283835481051.58
sh601816,京沪高铁,2020-12-22,5.76,5.8,5.73,5.73,5.78,36177198.0,208518506.0,18403955026.68,281380156821.03
sh601816,京沪高铁,2020-12-23,5.76,5.76,5.67,5.69,5.73,28532477.0,162363870.0,18275480646.04,279415897436.59
sh601816,京沪高铁,2020-12-24,5.69,5.69,5.62,5.62,5.69,26479197.0,149410181.0,18050650479.92,275978443513.82
sh601816,京沪高铁,2020-12-25,5.61,5.66,5.61,5.66,5.62,15854255.0,89480280.0,18179124860.56,277942702898.26
sh601816,京沪高铁,2020-12-28,5.66,5.66,5.54,5.55,5.66,54336032.0,302548106.0,17825820313.8,272540989591.05
sh601816,京沪高铁,2020-12-29,5.55,5.59,5.53,5.56,5.55,20469702.0,113848104.0,17857938908.96,273032054437.16
sh601816,京沪高铁,2020-12-30,5.58,5.58,5.53,5.57,5.56,22296963.0,123819770.0,17890057504.120003,273523119283.27
sh601816,京沪高铁,2020-12-31,5.57,5.69,5.55,5.66,5.57,42785295.0,240848646.0,18179124860.56,277942702898.26
sh601816,京沪高铁,2021-01-04,5.67,5.67,5.59,5.63,5.66,40251252.0,226608451.0,18082769075.08,276469508359.93
sh601816,京沪高铁,2021-01-05,5.61,5.61,5.54,5.6,5.63,57800971.0,322265698.0,17986413289.600002,274996313821.6
sh601816,京沪高铁,2021-01-06,5.57,5.78,5.55,5.68,5.6,74410404.0,422211462.0,18243362050.88,278924832590.48
sh601816,京沪高铁,2021-01-07,5.66,5.66,5.55,5.59,5.68,56020542.0,312604823.0,17954294694.44,274505248975.49
sh601816,京沪高铁,2021-01-08,5.56,5.59,5.54,5.57,5.59,35044893.0,194970075.0,17890057504.120003,273523119283.27
sh601816,京沪高铁,2021-01-11,5.55,5.56,5.5,5.5,5.57,52092743.0,287435221.0,17665227338.0,270085665360.5
sh601816,京沪高铁,2021-01-12,5.48,5.51,5.42,5.45,5.5,63207609.0,345429477.0,17504634362.2,267630341129.95
sh601816,京沪高铁,2021-01-13,5.43,5.55,5.32,5.52,5.45,78370376.0,424748411.0,17729464528.32,271067795052.72
sh601816,京沪高铁,2021-01-14,5.48,5.7,5.43,5.58,5.52,87493059.0,490550172.0,17922176099.28,274014184129.38
sh601816,京沪高铁,2021-01-15,5.53,5.68,5.45,5.59,5.58,82425455.0,458828650.0,17954294694.44,274505248975.49
sh601816,京沪高铁,2021-01-18,5.57,5.59,5.5,5.51,5.59,41355244.0,228928041.0,17697345933.16,270576730206.61
sh601816,京沪高铁,2021-01-19,5.51,5.56,5.46,5.52,5.51,46072591.0,254175991.0,17729464528.32,271067795052.72
sh601816,京沪高铁,2021-01-20,5.51,5.59,5.48,5.51,5.52,46893285.0,259243487.0,17697345933.16,270576730206.61
sh601816,京沪高铁,2021-01-21,5.48,5.58,5.48,5.55,5.51,53822748.0,297878660.0,151674258032.55,272540989591.05
sh601816,京沪高铁,2021-01-22,5.55,5.79,5.51,5.67,5.55,123686365.0,698902486.0,154953701449.47,278433767744.37
sh601816,京沪高铁,2021-01-25,5.65,5.65,5.51,5.51,5.67,72656440.0,403746868.0,150581110226.91,270576730206.61
sh601816,京沪高铁,2021-01-26,5.49,5.55,5.44,5.49,5.51,39622882.0,217792863.0,150034536324.09,269594600514.39
sh601816,京沪高铁,2021-01-27,5.49,5.53,5.45,5.45,5.49,46104102.0,252235688.0,148941388518.45,267630341129.95
sh601816,京沪高铁,2021-01-28,5.48,5.49,5.37,5.4,5.45,46034782.0,249459850.0,147574953761.4,265175016899.4
sh601816,京沪高铁,2021-01-29,5.39,5.47,5.34,5.39,5.4,43477872.0,234289362.0,147301666809.99,264683952053.29
sh601816,京沪高铁,2021-02-01,5.36,5.36,5.3,5.31,5.39,41480634.0,221050411.0,145115371198.71,260755433284.41
sh601816,京沪高铁,2021-02-02,5.31,5.32,5.26,5.28,5.31,32028028.0,168973357.0,144295510344.48,259282238746.08
sh601816,京沪高铁,2021-02-03,5.28,5.28,5.16,5.16,5.28,50022477.0,259554972.0,141016066927.56,253389460592.76
sh601816,京沪高铁,2021-02-04,5.16,5.21,5.12,5.18,5.16,32162048.0,165775041.0,141562640830.38,254371590284.98
sh601816,京沪高铁,2021-02-05,5.16,5.21,5.14,5.17,5.18,30175294.0,156221552.0,141289353878.97,253880525438.87
sh601816,京沪高铁,2021-02-08,5.19,5.24,5.16,5.23,5.17,41848696.0,217636965.0,142929075587.43,256826914515.53
sh601816,京沪高铁,2021-02-09,5.24,5.31,5.2,5.28,5.23,41635044.0,218574109.0,144295510344.48,259282238746.08
sh601816,京沪高铁,2021-02-10,5.34,5.64,5.31,5.46,5.28,85295973.0,467581691.0,149214675469.86002,268121405976.06
sh601816,京沪高铁,2021-02-18,5.6,5.62,5.43,5.44,5.46,86412256.0,476036312.0,148668101567.03998,267139276283.84003
sh601816,京沪高铁,2021-02-19,5.45,5.92,5.44,5.87,5.44,267527613.0,1535945832.0,160419440477.67,288255064666.57
sh601816,京沪高铁,2021-02-22,5.83,5.88,5.69,5.8,5.87,152313603.0,881814216.0,158506431817.8,284817610743.8
sh601816,京沪高铁,2021-02-23,5.81,5.94,5.77,5.79,5.8,103365526.0,605079874.0,158233144866.39,284326545897.69
sh601816,京沪高铁,2021-02-24,5.74,5.85,5.67,5.73,5.79,80773590.0,465114086.0,156593423157.93,281380156821.03
sh601816,京沪高铁,2021-02-25,5.76,5.88,5.72,5.8,5.73,84751522.0,492508646.0,158506431817.8,284817610743.8
sh601816,京沪高铁,2021-02-26,5.7,5.77,5.66,5.68,5.8,65712426.0,374893812.0,155226988400.88,278924832590.48
sh601816,京沪高铁,2021-03-01,5.71,5.76,5.61,5.71,5.68,74585197.0,423921521.0,156046849255.11002,280398027128.81
sh601816,京沪高铁,2021-03-02,5.72,5.81,5.68,5.7,5.71,59873925.0,343100601.0,155773562303.7,279906962282.7
sh601816,京沪高铁,2021-03-03,5.7,5.77,5.67,5.74,5.7,74810026.0,427826082.0,156866710109.34,281871221667.14
sh601816,京沪高铁,2021-03-04,5.7,5.76,5.69,5.71,5.74,54002601.0,309303013.0,156046849255.11002,280398027128.81
sh601816,京沪高铁,2021-03-05,5.68,5.74,5.62,5.73,5.71,59576916.0,338726519.0,156593423157.93,281380156821.03
sh601816,京沪高铁,2021-03-08,5.72,5.76,5.61,5.63,5.73,57810672.0,328279593.0,153860553643.83002,276469508359.93
sh601816,京沪高铁,2021-03-09,5.63,5.77,5.61,5.65,5.63,87405155.0,496822464.0,154407127546.65,277451638052.15
sh601816,京沪高铁,2021-03-10,5.65,5.7,5.63,5.66,5.65,43010565.0,243606627.0,154680414498.06,277942702898.26
sh601816,京沪高铁,2021-03-11,5.67,5.75,5.65,5.72,5.66,52543567.0,300371397.0,156320136206.52,280889091974.92
sh601816,京沪高铁,2021-03-12,5.71,5.78,5.69,5.77,5.72,69258653.0,397641681.0,157686570963.56998,283344416205.47003
sh601816,京沪高铁,2021-03-15,5.84,5.96,5.8,5.91,5.77,159132399.0,937416878.0,161512588283.31,290219324051.01
sh601816,京沪高铁,2021-03-16,5.9,5.92,5.83,5.88,5.91,74762053.0,438770476.0,160692727429.08,288746129512.68
sh601816,京沪高铁,2021-03-17,5.86,5.86,5.74,5.76,5.88,76332641.0,441880605.0,157413284012.16,282853351359.36
sh601816,京沪高铁,2021-03-18,5.77,5.79,5.67,5.68,5.76,72062853.0,411156915.0,155226988400.88,278924832590.48
sh601816,京沪高铁,2021-03-19,5.65,5.69,5.61,5.62,5.68,56353661.0,317940584.0,153587266692.42,275978443513.82
sh601816,京沪高铁,2021-03-22,5.64,5.7,5.63,5.67,5.62,41877191.0,237314384.0,154953701449.47,278433767744.37
sh601816,京沪高铁,2021-03-23,5.67,5.71,5.58,5.59,5.67,47169475.0,265213949.0,152767405838.19,274505248975.49
sh601816,京沪高铁,2021-03-24,5.58,5.59,5.45,5.47,5.59,59165994.0,325579489.0,149487962421.27,268612470822.17
sh601816,京沪高铁,2021-03-25,5.48,5.56,5.48,5.52,5.47,37973260.0,209954422.0,150854397178.32,271067795052.72
sh601816,京沪高铁,2021-03-26,5.51,5.77,5.51,5.73,5.52,119774173.0,683007482.0,156593423157.93,281380156821.03
sh601816,京沪高铁,2021-03-29,5.73,5.78,5.7,5.75,5.73,57363427.0,329665785.0,157139997060.75,282362286513.25
sh601816,京沪高铁,2021-03-30,5.76,5.87,5.73,5.78,5.75,69742746.0,404156597.0,157959857914.98,283835481051.58
sh601816,京沪高铁,2021-03-31,5.78,5.86,5.75,5.85,5.78,68379200.0,397595070.0,159872866574.85,287272934974.35
sh601816,京沪高铁,2021-04-01,5.84,5.86,5.78,5.82,5.85,48386367.0,281622499.0,159053005720.62,285799740436.02
sh601816,京沪高铁,2021-04-02,5.81,5.9,5.79,5.88,5.82,81940599.0,479989384.0,160692727429.08,288746129512.68
sh601816,京沪高铁,2021-04-06,5.88,5.96,5.86,5.9,5.88,82239637.0,487787197.0,161239301331.9,289728259204.9
sh601816,京沪高铁,2021-04-07,5.92,6.1,5.9,6.07,5.9,151230118.0,914849581.0,165885179505.87,298076361588.77
sh601816,京沪高铁,2021-04-08,6.02,6.09,6.0,6.01,6.07,74076833.0,448230802.0,164245457797.41,295129972512.11
sh601816,京沪高铁,2021-04-09,6.0,6.02,5.9,6.0,6.01,56856139.0,339596312.0,163972170846.0,294638907666.0
sh601816,京沪高铁,2021-04-12,6.0,6.14,5.97,6.07,6.0,90919201.0,553188842.0,165885179505.87,298076361588.77
sh601816,京沪高铁,2021-04-13,6.08,6.08,5.84,5.86,6.07,81048285.0,479741735.0,160146153526.26,287763999820.46
sh601816,京沪高铁,2021-04-14,5.85,5.89,5.82,5.87,5.86,32565241.0,190745929.0,160419440477.67,288255064666.57
sh601816,京沪高铁,2021-04-15,5.84,5.86,5.74,5.77,5.87,43427825.0,251413388.0,157686570963.56998,283344416205.47003
sh601816,京沪高铁,2021-04-16,5.76,5.86,5.74,5.81,5.77,37820918.0,219529672.0,158779718769.21,285308675589.91
sh601816,京沪高铁,2021-04-19,5.86,6.06,5.83,5.98,5.81,83390197.0,498902703.0,163425596943.18,293656777973.78
sh601816,京沪高铁,2021-04-20,5.98,6.04,5.88,5.93,5.98,56336436.0,333267113.0,162059162186.13,291201453743.23
sh601816,京沪高铁,2021-04-21,5.88,5.93,5.84,5.88,5.93,38031709.0,223758348.0,160692727429.08,288746129512.68
sh601816,京沪高铁,2021-04-22,5.89,5.92,5.83,5.87,5.88,52450795.0,307472801.0,160419440477.67,288255064666.57
sh601816,京沪高铁,2021-04-23,5.87,5.92,5.82,5.9,5.87,37598701.0,220912617.0,161239301331.9,289728259204.9
sh601816,京沪高铁,2021-04-26,5.9,5.95,5.78,5.79,5.9,60832352.0,356696880.0,158233144866.39,284326545897.69
sh601816,京沪高铁,2021-04-27,5.77,5.8,5.7,5.71,5.79,35574738.0,204137070.0,156046849255.11002,280398027128.81
sh601816,京沪高铁,2021-04-28,5.7,5.77,5.64,5.75,5.71,55651231.0,317064645.0,157139997060.75,282362286513.25
sh601816,京沪高铁,2021-04-29,5.75,5.97,5.72,5.88,5.75,70466151.0,412705593.0,160692727429.08,288746129512.68
sh601816,京沪高铁,2021-04-30,5.83,5.96,5.77,5.88,5.88,65701441.0,384897765.0,160692727429.08,288746129512.68
sh601816,京沪高铁,2021-05-06,5.86,5.94,5.69,5.7,5.88,66031632.0,382289736.0,155773562303.7,279906962282.7
sh601816,京沪高铁,2021-05-07,5.7,5.74,5.62,5.64,5.7,55371995.0,313973624.0,154133840595.24,276960573206.04
sh601816,京沪高铁,2021-05-10,5.65,5.65,5.57,5.61,5.64,46496737.0,260703921.0,153313979741.01,275487378667.71
sh601816,京沪高铁,2021-05-11,5.59,5.65,5.58,5.64,5.61,29892282.0,168063353.0,154133840595.24,276960573206.04
sh601816,京沪高铁,2021-05-12,5.65,5.69,5.59,5.64,5.64,50367469.0,283127475.0,154133840595.24,276960573206.04
sh601816,京沪高铁,2021-05-13,5.6,5.64,5.6,5.61,5.64,32479982.0,182491326.0,153313979741.01,275487378667.71
sh601816,京沪高铁,2021-05-14,5.62,5.64,5.56,5.63,5.61,46878796.0,262539958.0,153860553643.83002,276469508359.93
sh601816,京沪高铁,2021-05-17,5.64,5.64,5.57,5.6,5.63,44162726.0,247668817.0,153040692789.6,274996313821.6
sh601816,京沪高铁,2021-05-18,5.58,5.59,5.52,5.53,5.6,55553259.0,307815008.0,151127684129.73,271558859898.83
sh601816,京沪高铁,2021-05-19,5.54,5.56,5.49,5.5,5.53,42489581.0,234752335.0,150307823275.5,270085665360.5
sh601816,京沪高铁,2021-05-20,5.51,5.6,5.5,5.59,5.5,39680923.0,220492675.0,152767405838.19,274505248975.49
sh601816,京沪高铁,2021-05-21,5.61,5.61,5.54,5.57,5.59,34429539.0,192015353.0,152220831935.37,273523119283.27
sh601816,京沪高铁,2021-05-24,5.57,5.58,5.54,5.57,5.57,33627619.0,186685866.0,152220831935.37,273523119283.27
sh601816,京沪高铁,2021-05-25,5.58,5.61,5.55,5.6,5.57,67230358.0,374913631.0,153040692789.6,274996313821.6
sh601816,京沪高铁,2021-05-26,5.6,5.61,5.57,5.61,5.6,53812500.0,300819356.0,153313979741.01,275487378667.71
sh601816,京沪高铁,2021-05-27,5.63,5.89,5.6,5.89,5.61,248272307.0,1439373637.0,160966014380.49,289237194358.79
sh601816,京沪高铁,2021-05-28,5.84,5.84,5.73,5.79,5.89,86331300.0,498677004.0,158233144866.39,284326545897.69
sh601816,京沪高铁,2021-05-31,5.77,5.78,5.68,5.78,5.79,64504359.0,369348685.0,157959857914.98,283835481051.58
sh601816,京沪高铁,2021-06-01,5.77,5.77,5.66,5.75,5.78,70999197.0,405522692.0,157139997060.75,282362286513.25
sh601816,京沪高铁,2021-06-02,5.74,5.74,5.65,5.66,5.75,50151547.0,284919248.0,154680414498.06,277942702898.26
sh601816,京沪高铁,2021-06-03,5.65,5.72,5.65,5.7,5.66,51317487.0,291666211.0,155773562303.7,279906962282.7
sh601816,京沪高铁,2021-06-04,5.7,5.72,5.64,5.69,5.7,46025657.0,261158471.0,155500275352.29,279415897436.59
sh601816,京沪高铁,2021-06-07,5.68,5.68,5.61,5.64,5.69,40822879.0,230141072.0,154133840595.24,276960573206.04
sh601816,京沪高铁,2021-06-08,5.65,5.73,5.6,5.7,5.64,68299938.0,388024078.0,155773562303.7,279906962282.7
sh601816,京沪高铁,2021-06-09,5.69,5.77,5.66,5.76,5.7,83572455.0,477938643.0,157413284012.16,282853351359.36
sh601816,京沪高铁,2021-06-10,5.75,5.8,5.72,5.79,5.76,77234309.0,445581461.0,158233144866.39,284326545897.69
sh601816,京沪高铁,2021-06-11,5.81,5.88,5.76,5.79,5.79,190154401.0,1106409946.0,158233144866.39,284326545897.69
sh601816,京沪高铁,2021-06-15,5.81,5.82,5.63,5.68,5.79,95367261.0,543525934.0,155226988400.88,278924832590.48
sh601816,京沪高铁,2021-06-16,5.65,5.71,5.62,5.64,5.68,43411512.0,245523202.0,154133840595.24,276960573206.04
sh601816,京沪高铁,2021-06-17,5.65,5.65,5.6,5.6,5.64,37625862.0,211531051.0,153040692789.6,274996313821.6
sh601816,京沪高铁,2021-06-18,5.59,5.6,5.53,5.56,5.6,45124534.0,250912281.0,151947544983.96,273032054437.16
sh601816,京沪高铁,2021-06-21,5.54,5.56,5.44,5.48,5.56,87169955.0,478776950.0,149761249372.68,269103535668.28
sh601816,京沪高铁,2021-06-22,5.48,5.51,5.36,5.39,5.48,85312810.0,462749324.0,147301666809.99,264683952053.29
sh601816,京沪高铁,2021-06-23,5.39,5.42,5.34,5.36,5.39,77519432.0,416416885.0,146481805955.76,263210757514.96
sh601816,京沪高铁,2021-06-24,5.35,5.39,5.34,5.37,5.36,67794147.0,363651156.0,146755092907.17,263701822361.07
sh601816,京沪高铁,2021-06-25,5.38,5.44,5.36,5.43,5.37,61929747.0,334718771.0,148394814615.63,266648211437.73
sh601816,京沪高铁,2021-06-28,5.43,5.44,5.31,5.33,5.43,90522082.0,484768475.0,145661945101.53,261737562976.63
sh601816,京沪高铁,2021-06-29,5.33,5.34,5.25,5.29,5.33,70033087.0,369512547.0,144568797295.89,259773303592.19
sh601816,京沪高铁,2021-06-30,5.29,5.32,5.27,5.29,5.29,35225609.0,186210770.0,144568797295.89,259773303592.19
sh601816,京沪高铁,2021-07-01,5.3,5.31,5.26,5.26,5.29,42952508.0,226961532.0,143748936441.66,258300109053.86
sh601816,京沪高铁,2021-07-02,5.26,5.29,5.23,5.25,5.26,43215937.0,227024955.0,143475649490.25,257809044207.75
sh601816,京沪高铁,2021-07-05,5.26,5.28,5.13,5.17,5.25,71528578.0,371959397.0,141289353878.97,253880525438.87
sh601816,京沪高铁,2021-07-06,5.18,5.21,5.14,5.2,5.17,61220763.0,316750101.0,142109214733.2,255353719977.2
sh601816,京沪高铁,2021-07-07,5.19,5.22,5.16,5.2,5.2,39541567.0,205060088.0,142109214733.2,255353719977.2
sh601816,京沪高铁,2021-07-08,5.21,5.27,5.17,5.27,5.2,52998915.0,277826966.0,144022223393.07,258791173899.97003
sh601816,京沪高铁,2021-07-09,5.26,5.32,5.24,5.25,5.27,42648447.0,224899890.0,143475649490.25,257809044207.75
sh601816,京沪高铁,2021-07-12,5.26,5.31,5.25,5.27,5.25,42989806.0,227007057.0,144022223393.07,258791173899.97003
sh601816,京沪高铁,2021-07-13,5.26,5.28,5.22,5.26,5.27,30899609.0,162179368.0,143748936441.66,258300109053.86
sh601816,京沪高铁,2021-07-14,5.26,5.27,5.18,5.2,5.26,38330667.0,200021727.0,142109214733.2,255353719977.2
sh601816,京沪高铁,2021-07-15,5.2,5.23,5.18,5.23,5.2,28559093.0,148839862.0,142929075587.43,256826914515.53
sh601816,京沪高铁,2021-07-16,5.21,5.24,5.19,5.21,5.23,27061818.0,141021471.0,142382501684.61002,255844784823.31
sh601816,京沪高铁,2021-07-19,5.21,5.23,5.16,5.22,5.21,40215769.0,208623193.0,142655788636.02,256335849669.42
sh601816,京沪高铁,2021-07-20,5.19,5.22,5.18,5.21,5.22,22194463.0,115380865.0,142382501684.61002,255844784823.31
sh601816,京沪高铁,2021-07-21,5.2,5.23,5.14,5.16,5.21,54642688.0,282668515.0,141016066927.56,253389460592.76
sh601816,京沪高铁,2021-07-22,5.17,5.19,5.15,5.17,5.16,24898384.0,128808377.0,141289353878.97,253880525438.87
sh601816,京沪高铁,2021-07-23,5.17,5.18,5.14,5.16,5.17,27054577.0,139420948.0,141016066927.56,253389460592.76
sh601816,京沪高铁,2021-07-26,5.16,5.17,5.07,5.08,5.16,62571961.0,319825390.0,138829771316.28,249460941823.88
sh601816,京沪高铁,2021-07-27,5.08,5.11,4.93,4.95,5.08,70232184.0,352049872.0,135277040947.95,243077098824.45
sh601816,京沪高铁,2021-07-28,4.94,5.0,4.89,4.9,4.95,65958754.0,325470964.0,133910606190.9,240621774593.9
sh601816,京沪高铁,2021-07-29,4.9,4.92,4.86,4.9,4.9,43658548.0,213323593.0,133910606190.9,240621774593.9
sh601816,XD京沪高,2021-07-30,4.87,4.87,4.79,4.81,4.87,47898438.0,230314597.0,131451023628.21,236202190978.91
sh601816,京沪高铁,2021-08-02,4.77,4.77,4.65,4.73,4.81,90674935.0,426352114.0,129264728016.93,232273672210.03
sh601816,京沪高铁,2021-08-03,4.72,4.72,4.64,4.66,4.73,70920601.0,331665368.0,127351719357.06,228836218287.26
sh601816,京沪高铁,2021-08-04,4.66,4.67,4.52,4.55,4.66,96502457.0,441178538.0,124345562891.55,223434504980.05
sh601816,京沪高铁,2021-08-05,4.54,4.64,4.52,4.57,4.55,63135862.0,289186070.0,124892136794.37,224416634672.27
sh601816,京沪高铁,2021-08-06,4.58,4.58,4.5,4.51,4.57,42528749.0,192343365.0,123252415085.91,221470245595.61
sh601816,京沪高铁,2021-08-09,4.5,4.58,4.46,4.56,4.51,48420254.0,219863669.0,124618849842.96,223925569826.16
sh601816,京沪高铁,2021-08-10,4.56,4.59,4.53,4.58,4.56,30865120.0,140704566.0,125165423745.78,224907699518.38
sh601816,京沪高铁,2021-08-11,4.58,4.64,4.56,4.6,4.58,40805341.0,187957426.0,125711997648.6,225889829210.6
sh601816,京沪高铁,2021-08-12,4.6,4.61,4.53,4.54,4.6,36257837.0,165144443.0,124072275940.14,222943440133.94
sh601816,京沪高铁,2021-08-13,4.53,4.56,4.51,4.52,4.54,25742432.0,116617061.0,123525702037.32,221961310441.72
sh601816,京沪高铁,2021-08-16,4.54,4.6,4.53,4.56,4.52,32588290.0,148800242.0,124618849842.96,223925569826.16
sh601816,京沪高铁,2021-08-17,4.56,4.62,4.54,4.58,4.56,53411630.0,244644917.0,125165423745.78,224907699518.38
sh601816,京沪高铁,2021-08-18,4.56,4.57,4.52,4.56,4.58,42863374.0,194662885.0,124618849842.96,223925569826.16
sh601816,京沪高铁,2021-08-19,4.55,4.55,4.47,4.47,4.56,63797351.0,287040475.0,122159267280.27,219505986211.17
sh601816,京沪高铁,2021-08-20,4.48,4.49,4.38,4.4,4.47,59156458.0,261169437.0,120246258620.4,216068532288.4
sh601816,京沪高铁,2021-08-23,4.4,4.5,4.4,4.48,4.4,49301548.0,219538347.0,122432554231.68,219997051057.28
sh601816,京沪高铁,2021-08-24,4.48,4.5,4.45,4.47,4.48,38255112.0,170899123.0,122159267280.27,219505986211.17
sh601816,京沪高铁,2021-08-25,4.47,4.62,4.45,4.6,4.47,86519194.0,394846821.0,125711997648.6,225889829210.6
sh601816,京沪高铁,2021-08-26,4.58,4.65,4.57,4.57,4.6,43774800.0,201340670.0,124892136794.37,224416634672.27
sh601816,京沪高铁,2021-08-27,4.57,4.63,4.55,4.61,4.57,40857336.0,187374766.0,125985284600.01,226380894056.71
sh601816,京沪高铁,2021-08-30,4.61,4.61,4.51,4.54,4.61,46491686.0,211333290.0,124072275940.14,222943440133.94
sh601816,京沪高铁,2021-08-31,4.62,4.77,4.61,4.75,4.54,144557772.0,680843084.0,129811301919.75,233255801902.25
sh601816,京沪高铁,2021-09-01,4.75,4.92,4.74,4.89,4.75,134385947.0,652057720.0,133637319239.49,240130709747.79
sh601816,京沪高铁,2021-09-02,4.88,4.94,4.79,4.89,4.89,85056852.0,413777988.0,133637319239.49,240130709747.79
sh601816,京沪高铁,2021-09-03,4.89,4.9,4.82,4.87,4.89,75827430.0,368230631.0,133090745336.67,239148580055.57
sh601816,京沪高铁,2021-09-06,4.85,4.88,4.84,4.85,4.87,62176738.0,302168463.0,132544171433.85,238166450363.35
sh601816,京沪高铁,2021-09-07,4.86,4.91,4.82,4.88,4.85,63020793.0,306263835.0,133364032288.08,239639644901.68
sh601816,京沪高铁,2021-09-08,4.89,4.91,4.84,4.87,4.88,58567742.0,285381420.0,133090745336.67,239148580055.57
sh601816,京沪高铁,2021-09-09,4.86,5.04,4.85,5.03,4.87,99792728.0,493997923.0,137463336559.23,247005617593.33
sh601816,京沪高铁,2021-09-10,5.0,5.1,5.0,5.01,5.03,94480850.0,476826410.0,136916762656.41,246023487901.11
sh601816,京沪高铁,2021-09-13,4.96,5.01,4.93,4.94,5.01,55948322.0,277472279.0,135003753996.54,242586033978.34
sh601816,京沪高铁,2021-09-14,4.93,4.96,4.77,4.78,4.94,74622194.0,362569140.0,130631162773.98,234728996440.58
sh601816,京沪高铁,2021-09-15,4.77,4.85,4.76,4.82,4.78,37463633.0,180432313.0,131724310579.62,236693255825.02
sh601816,京沪高铁,2021-09-16,4.81,4.85,4.77,4.8,4.82,46506486.0,223201916.0,131177736676.8,235711126132.8
sh601816,京沪高铁,2021-09-17,4.8,4.83,4.76,4.82,4.8,31588424.0,151094324.0,131724310579.62,236693255825.02
sh601816,京沪高铁,2021-09-22,4.78,4.81,4.72,4.73,4.82,40076594.0,190248389.0,129264728016.93,232273672210.03
sh601816,京沪高铁,2021-09-23,4.76,4.84,4.75,4.79,4.73,41133534.0,196961957.0,130904449725.39,235220061286.69
sh601816,京沪高铁,2021-09-24,4.81,4.84,4.76,4.81,4.79,37002350.0,177950542.0,131451023628.21,236202190978.91
sh601816,京沪高铁,2021-09-27,4.78,4.81,4.71,4.72,4.81,43674105.0,207364393.0,128991441065.52,231782607363.92
sh601816,京沪高铁,2021-09-28,4.73,4.79,4.72,4.79,4.72,26473644.0,126311280.0,130904449725.39,235220061286.69
sh601816,京沪高铁,2021-09-29,4.77,4.79,4.69,4.77,4.79,40346828.0,191273089.0,130357875822.57,234237931594.47
sh601816,京沪高铁,2021-09-30,4.77,4.78,4.72,4.76,4.77,33265109.0,158070108.0,130084588871.16,233746866748.36
sh601816,京沪高铁,2021-10-08,4.8,4.97,4.8,4.95,4.76,92783624.0,455723345.0,135277040947.95,243077098824.45
sh601816,京沪高铁,2021-10-11,4.93,5.06,4.91,5.01,4.95,72408253.0,362781602.0,136916762656.41,246023487901.11
sh601816,京沪高铁,2021-10-12,5.01,5.01,4.9,4.95,5.01,51705473.0,255525327.0,135277040947.95,243077098824.45
sh601816,京沪高铁,2021-10-13,4.94,4.97,4.88,4.94,4.95,31683073.0,155788311.0,135003753996.54,242586033978.34
sh601816,京沪高铁,2021-10-14,4.94,4.99,4.92,4.93,4.94,23057352.0,114051779.0,134730467045.13,242094969132.23
sh601816,京沪高铁,2021-10-15,4.77,4.83,4.72,4.73,4.93,79520831.0,378672616.0,129264728016.93,232273672210.03
sh601816,京沪高铁,2021-10-18,4.72,4.73,4.58,4.62,4.73,64146741.0,296792125.0,126258571551.42,226871958902.82
sh601816,京沪高铁,2021-10-19,4.61,4.67,4.61,4.65,4.62,35897581.0,166620017.0,127078432405.65,228345153441.15
sh601816,京沪高铁,2021-10-20,4.65,4.7,4.63,4.67,4.65,27951636.0,130623161.0,127625006308.47,229327283133.37
sh601816,京沪高铁,2021-10-21,4.67,4.71,4.65,4.69,4.67,24763699.0,115952215.0,128171580211.29,230309412825.59
sh601816,京沪高铁,2021-10-22,4.7,4.72,4.62,4.64,4.69,28555314.0,132923442.0,126805145454.24,227854088595.04
sh601816,京沪高铁,2021-10-25,4.62,4.65,4.58,4.61,4.64,24400817.0,112546589.0,125985284600.01,226380894056.71
sh601816,京沪高铁,2021-10-26,4.63,4.64,4.58,4.6,4.61,22125542.0,101863581.0,125711997648.6,225889829210.6
sh601816,京沪高铁,2021-10-27,4.59,4.59,4.52,4.56,4.6,27595143.0,125500899.0,124618849842.96,223925569826.16
sh601816,京沪高铁,2021-10-28,4.55,4.63,4.53,4.62,4.56,28669043.0,131383690.0,126258571551.42,226871958902.82
sh601816,京沪高铁,2021-10-29,4.61,4.63,4.55,4.6,4.62,34838093.0,160284691.0,125711997648.6,225889829210.6
sh601816,京沪高铁,2021-11-01,4.6,4.61,4.53,4.56,4.6,43871117.0,199951578.0,124618849842.96,223925569826.16
sh601816,京沪高铁,2021-11-02,4.56,4.56,4.4,4.43,4.56,102689278.0,457234979.0,121066119474.63,217541726826.73
sh601816,京沪高铁,2021-11-03,4.43,4.45,4.41,4.43,4.43,28110762.0,124718594.0,121066119474.63,217541726826.73
sh601816,京沪高铁,2021-11-04,4.45,4.48,4.43,4.46,4.43,28177612.0,125380028.0,121885980328.86,219014921365.06
sh601816,京沪高铁,2021-11-05,4.45,4.46,4.42,4.44,4.46,23249489.0,103112723.0,121339406426.04,218032791672.84
sh601816,京沪高铁,2021-11-08,4.48,4.54,4.47,4.48,4.44,38064070.0,171439838.0,122432554231.68,219997051057.28
sh601816,京沪高铁,2021-11-09,4.48,4.54,4.45,4.52,4.48,29599608.0,133109261.0,123525702037.32,221961310441.72
sh601816,京沪高铁,2021-11-10,4.51,4.52,4.45,4.48,4.52,26465238.0,118282555.0,122432554231.68,219997051057.28
sh601816,京沪高铁,2021-11-11,4.48,4.54,4.47,4.51,4.48,27559797.0,124212244.0,123252415085.91,221470245595.61
sh601816,京沪高铁,2021-11-12,4.51,4.57,4.47,4.56,4.51,42611339.0,193010066.0,124618849842.96,223925569826.16
sh601816,京沪高铁,2021-11-15,4.54,4.59,4.52,4.58,4.56,28973609.0,132111396.0,125165423745.78,224907699518.38
sh601816,京沪高铁,2021-11-16,4.57,4.66,4.57,4.65,4.58,60965205.0,282168935.0,127078432405.65,228345153441.15
sh601816,京沪高铁,2021-11-17,4.63,4.66,4.61,4.63,4.65,26192245.0,121453868.0,126531858502.83,227363023748.93
sh601816,京沪高铁,2021-11-18,4.62,4.63,4.58,4.6,4.63,21493914.0,98941104.0,125711997648.6,225889829210.6
sh601816,京沪高铁,2021-11-19,4.58,4.62,4.57,4.61,4.6,21075746.0,96816966.0,125985284600.01,226380894056.71
sh601816,京沪高铁,2021-11-22,4.63,4.63,4.58,4.58,4.61,18525114.0,85120019.0,125165423745.78,224907699518.38
sh601816,京沪高铁,2021-11-23,4.59,4.65,4.59,4.64,4.58,24701406.0,114310593.0,126805145454.23999,227854088595.04
sh601816,京沪高铁,2021-11-24,4.64,4.64,4.6,4.63,4.64,15567543.0,71979764.0,126531858502.83,227363023748.93
sh601816,京沪高铁,2021-11-25,4.62,4.64,4.61,4.62,4.63,18050069.0,83443866.0,126258571551.42,226871958902.82
sh601816,京沪高铁,2021-11-26,4.59,4.6,4.55,4.56,4.62,24511601.0,111903624.0,124618849842.95999,223925569826.16
sh601816,京沪高铁,2021-11-29,4.5,4.55,4.48,4.5,4.56,35553558.0,160239390.0,122979128134.5,220979180749.49997
sh601816,京沪高铁,2021-11-30,4.49,4.57,4.49,4.52,4.5,41601599.0,188433175.0,123525702037.32,221961310441.72
sh601816,京沪高铁,2021-12-01,4.53,4.56,4.51,4.55,4.52,21714732.0,98605118.0,124345562891.55,223434504980.05
sh601816,京沪高铁,2021-12-02,4.56,4.58,4.51,4.53,4.55,22423668.0,101764437.0,123798988988.73,222452375287.83002
sh601816,京沪高铁,2021-12-03,4.55,4.58,4.52,4.56,4.53,27322870.0,124418423.0,124618849842.95999,223925569826.16
sh601816,京沪高铁,2021-12-06,4.56,4.62,4.54,4.58,4.56,40494146.0,185826183.0,125165423745.78,224907699518.38
sh601816,京沪高铁,2021-12-07,4.59,4.67,4.59,4.65,4.58,50676854.0,235349388.0,127078432405.65,228345153441.15
sh601816,京沪高铁,2021-12-08,4.66,4.67,4.61,4.65,4.65,33282576.0,154488271.0,127078432405.65,228345153441.15
sh601816,京沪高铁,2021-12-09,4.65,4.73,4.63,4.7,4.65,52159659.0,244648041.0,128444867162.7,230800477671.7
sh601816,京沪高铁,2021-12-10,4.7,4.75,4.69,4.75,4.7,57222718.0,270219012.0,129811301919.75,233255801902.25
sh601816,京沪高铁,2021-12-13,4.74,4.76,4.65,4.66,4.75,49179861.0,230796914.0,127351719357.06001,228836218287.26
sh601816,京沪高铁,2021-12-14,4.64,4.65,4.62,4.64,4.66,24204957.0,112097764.0,126805145454.23999,227854088595.04
sh601816,京沪高铁,2021-12-15,4.63,4.64,4.61,4.61,4.64,25922410.0,119734337.0,125985284600.01,226380894056.71
sh601816,京沪高铁,2021-12-16,4.61,4.66,4.61,4.66,4.61,23716244.0,110082646.0,127351719357.06001,228836218287.26
sh601816,京沪高铁,2021-12-17,4.65,4.68,4.64,4.67,4.66,32175589.0,150075462.0,127625006308.47,229327283133.37
sh601816,京沪高铁,2021-12-20,4.65,4.71,4.64,4.67,4.67,35930202.0,168321997.0,127625006308.47,229327283133.37
sh601816,京沪高铁,2021-12-21,4.67,4.73,4.66,4.7,4.67,30323992.0,142714023.0,128444867162.7,230800477671.7
sh601816,京沪高铁,2021-12-22,4.71,4.75,4.67,4.7,4.7,32206900.0,151549470.0,128444867162.7,230800477671.7
sh601816,京沪高铁,2021-12-23,4.71,4.74,4.68,4.73,4.7,31141654.0,146855946.0,129264728016.93,232273672210.03
sh601816,京沪高铁,2021-12-24,4.73,4.74,4.68,4.69,4.73,21943409.0,102980424.0,128171580211.29,230309412825.59
sh601816,京沪高铁,2021-12-27,4.69,4.74,4.68,4.73,4.69,24338963.0,114876837.0,129264728016.93,232273672210.03
sh601816,京沪高铁,2021-12-28,4.73,4.75,4.71,4.74,4.73,25976197.0,122997615.0,129538014968.34001,232764737056.14
sh601816,京沪高铁,2021-12-29,4.73,4.86,4.7,4.84,4.74,87353802.0,420989395.0,132270884482.44,237675385517.24002
sh601816,京沪高铁,2021-12-30,4.85,4.85,4.8,4.84,4.84,41492591.0,200394473.0,132270884482.44,237675385517.24002
sh601816,京沪高铁,2021-12-31,4.84,4.85,4.79,4.83,4.84,35030145.0,169231624.0,131997597531.03,237184320671.13
sh601816,京沪高铁,2022-01-04,4.81,4.92,4.8,4.9,4.83,58454697.0,284880605.0,133910606190.90001,240621774593.9
sh601816,京沪高铁,2022-01-05,4.9,5.01,4.86,4.9,4.9,88343555.0,436220382.0,133910606190.90001,240621774593.9
sh601816,京沪高铁,2022-01-06,4.9,4.92,4.84,4.86,4.9,47872380.0,232937439.0,132817458385.26,238657515209.46
sh601816,京沪高铁,2022-01-07,4.86,4.96,4.86,4.93,4.86,61337857.0,302160310.0,134730467045.13,242094969132.22998
sh601816,京沪高铁,2022-01-10,4.9,4.97,4.83,4.96,4.93,51979964.0,255036246.0,135550327899.36,243568163670.56
sh601816,京沪高铁,2022-01-11,4.93,4.99,4.9,4.94,4.96,41895342.0,207582437.0,135003753996.54,242586033978.34
sh601816,京沪高铁,2022-01-12,4.93,4.94,4.86,4.9,4.94,58490098.0,286253386.0,133910606190.90001,240621774593.9
sh601816,京沪高铁,2022-01-13,4.89,5.01,4.87,4.96,4.9,71450876.0,355888397.0,135550327899.36,243568163670.56
sh601816,京沪高铁,2022-01-14,4.95,4.97,4.84,4.86,4.96,51782258.0,253810305.0,132817458385.26,238657515209.46
