数据由邢不行整理
股票代码,股票名称,交易日期,开盘价,最高价,最低价,收盘价,前收盘价,成交量,成交额,流通市值,总市值
sh601838,N成银,2018-01-31,8.39,10.07,8.39,10.07,6.99,199080.0,1999528.0,3637537099.38,36375370933.4
sh601838,成都银行,2018-02-01,11.08,11.08,11.08,11.08,10.07,137803.0,1526857.0,4002374484.72,40023744780.7
sh601838,成都银行,2018-02-02,12.19,12.19,12.19,12.19,11.08,429196.0,5231899.0,4403334383.46,44033343761.5
sh601838,成都银行,2018-02-05,13.41,13.41,13.41,13.41,12.19,1715598.0,23006169.0,4844029046.94,48440290388.9
sh601838,成都银行,2018-02-06,14.75,14.75,14.75,14.75,13.41,5059394.0,74626062.0,5328070726.5,53280707176.5
sh601838,成都银行,2018-02-07,16.23,16.23,16.22,16.23,14.75,50002289.0,811537077.0,5862683924.82,58626839150.8
sh601838,成都银行,2018-02-08,16.33,16.6,14.61,14.7,16.23,182702481.0,2774883193.0,5310009469.8,53100094609.8
sh601838,成都银行,2018-02-09,13.87,14.13,13.24,13.44,14.7,121384419.0,1659674061.0,4854865800.96,48548657929.0
sh601838,成都银行,2018-02-12,13.75,14.54,13.21,14.01,13.44,104620358.0,1443553487.0,5060764127.34,50607641189.3
sh601838,成都银行,2018-02-13,13.88,14.17,12.84,12.88,14.01,104302879.0,1412151641.0,4652579725.92,46525797181.9
sh601838,成都银行,2018-02-14,12.51,12.85,12.21,12.23,12.88,68537278.0,851441946.0,4417783388.82,44177833814.8
sh601838,成都银行,2018-02-22,12.45,12.88,12.28,12.54,12.23,65818765.0,828666668.0,4529763180.36,45297631728.4
sh601838,成都银行,2018-02-23,12.32,12.6,12.32,12.48,12.54,50546152.0,628429729.0,4508089672.32,45080896648.3
sh601838,成都银行,2018-02-26,12.7,13.5,12.53,13.25,12.48,96056564.0,1243422818.0,4786233025.5,47862330175.5
sh601838,成都银行,2018-02-27,13.05,13.17,12.8,12.93,13.25,63431235.0,821296616.0,4670640982.62,46706409748.6
sh601838,成都银行,2018-02-28,12.75,12.77,12.36,12.6,12.93,59299743.0,745361437.0,4551436688.4,45514366808.4
sh601838,成都银行,2018-03-01,12.42,12.75,12.38,12.7,12.6,49015644.0,616502299.0,4587559201.8,45875591941.8
sh601838,成都银行,2018-03-02,12.5,13.33,12.43,12.93,12.7,85878202.0,1113773715.0,4670640982.62,46706409748.6
sh601838,成都银行,2018-03-05,12.87,12.98,12.61,12.78,12.93,50596457.0,644758631.0,4616457212.52,46164572048.5
sh601838,成都银行,2018-03-06,12.9,13.31,12.85,13.27,12.78,86475044.0,1132047764.0,4793457528.18,47934575202.2
sh601838,成都银行,2018-03-07,13.8,14.0,12.88,12.9,13.27,96406462.0,1293465607.0,4659804228.6,46598042208.6
sh601838,成都银行,2018-03-08,12.63,12.83,12.55,12.78,12.9,56704142.0,720038225.0,4616457212.52,46164572048.5
sh601838,成都银行,2018-03-09,12.71,12.99,12.67,12.93,12.78,48964232.0,627859431.0,4670640982.62,46706409748.6
sh601838,成都银行,2018-03-12,12.98,13.18,12.8,13.05,12.93,64281738.0,836254036.0,4713987998.7,47139879908.7
sh601838,成都银行,2018-03-13,13.0,13.43,12.85,12.88,13.05,63552334.0,832656601.0,4652579725.92,46525797181.9
sh601838,成都银行,2018-03-14,12.6,12.75,12.55,12.65,12.88,43527696.0,549774686.0,4569497945.1,45694979375.1
sh601838,成都银行,2018-03-15,12.51,12.56,11.9,12.07,12.65,56805500.0,693567329.0,4359987367.38,43599873601.4
sh601838,成都银行,2018-03-16,12.03,12.14,11.84,11.86,12.07,31022232.0,371740682.0,4284130089.24,42841300821.2
sh601838,成都银行,2018-03-19,11.81,11.97,11.64,11.94,11.86,26761989.0,316409957.0,4313028099.96,43130280928.0
sh601838,成都银行,2018-03-20,11.76,11.95,11.72,11.88,11.94,21998727.0,260179863.0,4291354591.92,42913545847.9
sh601838,成都银行,2018-03-21,11.9,12.26,11.85,11.93,11.88,44150969.0,532573563.0,4309415848.62,43094158414.6
sh601838,成都银行,2018-03-22,11.92,11.97,11.58,11.65,11.93,33809873.0,396494027.0,4208272811.1,42082728041.1
sh601838,成都银行,2018-03-23,11.2,11.28,10.5,10.63,11.65,46122816.0,503210592.0,3839823174.42,38398231680.4
sh601838,成都银行,2018-03-26,10.36,10.85,10.17,10.77,10.63,26779262.0,282233165.0,3890394693.18,38903946867.2
sh601838,成都银行,2018-03-27,10.88,11.09,10.81,10.89,10.77,27841946.0,303590734.0,3933741709.26,39337417027.3
sh601838,成都银行,2018-03-28,10.74,11.63,10.67,10.99,10.89,41569182.0,463048437.0,3969864222.66,39698642160.7
sh601838,成都银行,2018-03-29,10.93,11.2,10.77,11.15,10.99,35248507.0,388284238.0,4027660244.1,40276602374.1
sh601838,成都银行,2018-03-30,11.1,11.16,11.02,11.05,11.15,24338286.0,269198341.0,3991537730.7,39915377240.7
sh601838,成都银行,2018-04-02,11.05,11.17,10.85,10.86,11.05,23074072.0,253863306.0,3922904955.24,39229049487.2
sh601838,成都银行,2018-04-03,10.66,10.74,10.57,10.62,10.86,20860568.0,222131644.0,3836210923.08,38362109167.1
sh601838,成都银行,2018-04-04,10.69,10.91,10.61,10.64,10.62,23634296.0,254536443.0,3843435425.76,38434354193.8
sh601838,成都银行,2018-04-09,10.64,10.78,10.45,10.76,10.64,21481771.0,229050933.0,3886782441.84,38867824353.8
sh601838,成都银行,2018-04-10,10.83,11.25,10.77,11.24,10.76,45213190.0,498355644.0,4060170506.16,40601704994.2
sh601838,成都银行,2018-04-11,11.35,11.35,11.05,11.11,11.24,39955970.0,446399307.0,4013211238.74,40132112320.7
sh601838,成都银行,2018-04-12,11.0,11.7,10.97,11.52,11.11,52644686.0,596532059.0,4161313543.68,41613135367.7
sh601838,成都银行,2018-04-13,11.56,11.66,11.21,11.23,11.52,42794134.0,487487040.0,4056558254.82,40565582480.8
sh601838,成都银行,2018-04-16,11.1,11.16,10.75,10.8,11.23,30366655.0,331541440.0,3901231447.2,39012314407.2
sh601838,成都银行,2018-04-17,10.82,10.97,10.6,10.62,10.8,22835816.0,246584584.0,3836210923.08,38362109167.1
sh601838,成都银行,2018-04-18,10.94,11.08,10.76,10.99,10.62,41780667.0,458147639.0,3969864222.66,39698642160.7
sh601838,成都银行,2018-04-19,10.83,10.94,10.77,10.85,10.99,27798313.0,301428683.0,3919292703.9,39192926973.9
sh601838,成都银行,2018-04-20,10.8,10.81,10.29,10.34,10.85,34686386.0,365158733.0,3735067885.56,37350678793.6
sh601838,成都银行,2018-04-23,10.32,10.47,10.29,10.42,10.34,16267757.0,168859038.0,3763965896.28,37639658900.3
sh601838,成都银行,2018-04-24,10.42,10.85,10.38,10.69,10.42,27010671.0,287795345.0,3861496682.46,38614966760.5
sh601838,成都银行,2018-04-25,10.61,10.64,10.5,10.63,10.69,17939001.0,189474772.0,3839823174.42,38398231680.4
sh601838,成都银行,2018-04-26,10.66,10.66,10.33,10.37,10.63,18946336.0,198282960.0,3745904639.58,37459046333.6
sh601838,成都银行,2018-04-27,10.49,10.61,10.36,10.53,10.37,16535651.0,173289975.0,3803700661.02,38037006547.0
sh601838,成都银行,2018-05-02,10.69,10.75,10.48,10.55,10.53,17375405.0,184104596.0,3810925163.7,38109251573.7
sh601838,成都银行,2018-05-03,10.43,10.66,10.4,10.63,10.55,18047094.0,190183524.0,3839823174.42,38398231680.4
sh601838,成都银行,2018-05-04,10.58,10.62,10.43,10.44,10.63,15976581.0,167786209.0,3771190398.96,37711903927.0
sh601838,成都银行,2018-05-07,10.46,10.64,10.42,10.63,10.44,19167879.0,202314381.0,3839823174.42,38398231680.4
sh601838,成都银行,2018-05-08,10.6,10.75,10.56,10.69,10.63,26893509.0,286909799.0,3861496682.46,38614966760.5
sh601838,成都银行,2018-05-09,10.65,10.67,10.56,10.63,10.69,16339063.0,173447911.0,3839823174.42,38398231680.4
sh601838,成都银行,2018-05-10,10.66,10.69,10.53,10.64,10.63,14033848.0,148795796.0,3843435425.76,38434354193.8
sh601838,成都银行,2018-05-11,10.62,10.72,10.56,10.61,10.64,17847829.0,189966090.0,3832598671.74,38325986653.7
sh601838,成都银行,2018-05-14,10.58,10.99,10.55,10.85,10.61,37339321.0,402780800.0,3919292703.9,39192926973.9
sh601838,成都银行,2018-05-15,10.71,10.88,10.71,10.85,10.85,25476026.0,274523898.0,3919292703.9,39192926973.9
sh601838,成都银行,2018-05-16,10.79,10.82,10.66,10.67,10.85,16089666.0,172815211.0,3854272179.78,38542721733.8
sh601838,成都银行,2018-05-17,10.69,10.76,10.56,10.59,10.67,12718247.0,135443979.0,3825374169.06,38253741627.1
sh601838,成都银行,2018-05-18,10.57,10.66,10.47,10.64,10.59,15490949.0,163793467.0,3843435425.76,38434354193.8
sh601838,成都银行,2018-05-21,10.73,10.85,10.64,10.81,10.64,27040644.0,291153029.0,3904843698.54,39048436920.5
sh601838,成都银行,2018-05-22,10.78,11.09,10.65,11.04,10.81,45391022.0,495739902.0,3987925479.36,39879254727.4
sh601838,成都银行,2018-05-23,10.95,11.08,10.87,10.96,11.04,27497011.0,301867783.0,3959027468.64,39590274620.6
sh601838,成都银行,2018-05-24,10.94,11.02,10.82,10.83,10.96,21234540.0,231967668.0,3912068201.22,39120681947.2
sh601838,成都银行,2018-05-25,10.79,10.95,10.72,10.88,10.83,20717223.0,223807923.0,3930129457.92,39301294513.9
sh601838,成都银行,2018-05-28,10.82,10.91,10.66,10.69,10.88,17779884.0,191668204.0,3861496682.46,38614966760.5
sh601838,成都银行,2018-05-29,10.61,10.78,10.51,10.71,10.69,20497519.0,218001433.0,3868721185.14,38687211787.1
sh601838,成都银行,2018-05-30,10.56,11.05,10.5,10.81,10.71,43250926.0,467035822.0,3904843698.54,39048436920.5
sh601838,成都银行,2018-05-31,10.7,11.14,10.65,11.13,10.81,50475632.0,552836840.0,4020435741.42,40204357347.4
sh601838,成都银行,2018-06-01,11.0,11.39,10.9,11.17,11.13,45830829.0,509051970.0,4034884746.78,40348847400.8
sh601838,成都银行,2018-06-04,11.22,11.38,10.98,11.07,11.17,36073869.0,403174837.0,3998762233.38,39987622267.4
sh601838,成都银行,2018-06-05,10.98,11.12,10.86,11.07,11.07,29499776.0,323733939.0,3998762233.38,39987622267.4
sh601838,成都银行,2018-06-06,11.01,11.1,10.89,11.06,11.07,24130243.0,265737311.0,3995149982.04,39951499754.0
sh601838,成都银行,2018-06-07,11.06,11.27,10.97,11.12,11.06,35388896.0,393827113.0,4016823490.08,40168234834.1
sh601838,XD成都银,2018-06-08,10.7,10.77,10.28,10.31,10.84,38665032.0,404804309.0,3724231131.54,37242311253.5
sh601838,成都银行,2018-06-11,10.18,10.28,10.05,10.18,10.31,17953242.0,182218440.0,3677271864.12,36772718580.1
sh601838,成都银行,2018-06-12,10.16,10.22,9.95,10.1,10.18,16982994.0,171515701.0,3648373853.4,36483738473.4
sh601838,成都银行,2018-06-13,10.1,10.11,9.88,9.89,10.1,20815731.0,207300501.0,3572516575.26,35725165693.3
sh601838,成都银行,2018-06-14,9.86,10.0,9.81,9.91,9.89,12236252.0,121345072.0,3579741077.94,35797410719.9
sh601838,成都银行,2018-06-15,9.89,10.04,9.83,9.84,9.91,19579806.0,194772875.0,3554455318.56,35544553126.6
sh601838,成都银行,2018-06-19,9.61,9.69,8.86,8.89,9.84,29665172.0,275788590.0,3211291441.26,32112914359.3
sh601838,成都银行,2018-06-20,8.81,8.97,8.66,8.9,8.89,18616691.0,164826800.0,3214903692.6,32149036872.6
sh601838,成都银行,2018-06-21,8.87,9.06,8.6,8.64,8.9,18160409.0,160948777.0,3120985157.76,31209851525.8
sh601838,成都银行,2018-06-22,8.52,8.83,8.52,8.82,8.64,15079677.0,131150076.0,3186005681.88,31860056765.9
sh601838,成都银行,2018-06-25,8.95,8.95,8.64,8.66,8.82,16477770.0,144580614.0,3128209660.44,31282096552.4
sh601838,成都银行,2018-06-26,8.51,8.74,8.44,8.71,8.66,12558685.0,107938396.0,3146270917.14,31462709119.1
sh601838,成都银行,2018-06-27,8.67,9.01,8.62,8.71,8.71,16213887.0,142437887.0,3146270917.14,31462709119.1
sh601838,成都银行,2018-06-28,8.64,8.86,8.59,8.62,8.71,13000427.0,113160321.0,3113760655.08,31137606499.1
sh601838,成都银行,2018-06-29,8.61,8.83,8.57,8.75,8.62,17717392.0,154428160.0,3160719922.5,31607199172.5
sh601838,成都银行,2018-07-02,8.74,8.77,8.34,8.42,8.75,17008370.0,145884929.0,3041515628.28,30415156232.3
sh601838,成都银行,2018-07-03,8.45,8.53,8.32,8.5,8.42,12524408.0,105895771.0,3070413639.0,30704136339.0
sh601838,成都银行,2018-07-04,8.46,8.53,8.37,8.38,8.5,10639178.0,89782178.0,3027066622.92,30270666178.9
sh601838,成都银行,2018-07-05,8.37,8.49,8.18,8.2,8.38,12745489.0,106666843.0,2962046098.8,29620460938.8
sh601838,成都银行,2018-07-06,8.23,8.36,8.08,8.22,8.2,15960856.0,131399330.0,2969270601.48,29692705965.5
sh601838,成都银行,2018-07-09,8.25,8.44,8.19,8.43,8.22,17541690.0,146682576.0,3045127879.62,30451278745.6
sh601838,成都银行,2018-07-10,8.41,8.42,8.3,8.38,8.43,14393900.0,120240997.0,3027066622.92,30270666178.9
sh601838,成都银行,2018-07-11,8.25,8.26,8.01,8.06,8.38,19010613.0,154249177.0,2911474580.04,29114745752.0
sh601838,成都银行,2018-07-12,8.06,8.38,8.05,8.37,8.06,24471940.0,202505654.0,3023454371.58,30234543665.6
sh601838,成都银行,2018-07-13,8.38,8.39,8.23,8.27,8.37,14750760.0,122273752.0,2987331858.18,29873318532.2
sh601838,成都银行,2018-07-16,8.27,8.28,8.15,8.18,8.27,9801366.0,80240993.0,2954821596.12,29548215912.1
sh601838,成都银行,2018-07-17,8.19,8.27,8.16,8.25,8.18,9660333.0,79349601.0,2980107355.5,29801073505.5
sh601838,成都银行,2018-07-18,8.24,8.3,8.14,8.15,8.25,10555388.0,86878962.0,2943984842.1,29439848372.1
sh601838,成都银行,2018-07-19,8.16,8.18,8.03,8.05,8.15,10141508.0,81963923.0,2907862328.7,29078623238.7
sh601838,成都银行,2018-07-20,8.01,8.86,7.93,8.86,8.05,32185662.0,275315213.0,3200454687.24,32004546819.2
sh601838,成都银行,2018-07-23,9.25,9.75,9.14,9.75,8.86,119798691.0,1135650890.0,3521945056.5,35219450506.5
sh601838,成都银行,2018-07-24,9.75,10.5,9.62,9.85,9.75,120694182.0,1201090091.0,3558067569.9,35580675639.9
sh601838,成都银行,2018-07-25,9.86,10.15,9.75,10.05,9.85,93112576.0,925064959.0,3630312596.7,36303125906.7
sh601838,成都银行,2018-07-26,9.95,10.03,9.72,9.89,10.05,64991171.0,640885600.0,3572516575.26,35725165693.3
sh601838,成都银行,2018-07-27,9.76,9.81,9.38,9.49,9.89,63829226.0,608238693.0,3428026521.66,34280265159.7
sh601838,成都银行,2018-07-30,9.49,9.61,9.32,9.44,9.49,43793467.0,414519342.0,3409965264.96,34099652593.0
sh601838,成都银行,2018-07-31,9.38,9.84,9.23,9.47,9.44,59959782.0,568682271.0,3420802018.98,34208020133.0
sh601838,成都银行,2018-08-01,9.3,9.35,8.98,9.05,9.47,54660722.0,501469222.0,3269087462.7,32690874572.7
sh601838,成都银行,2018-08-02,9.0,9.23,8.97,9.17,9.05,52912487.0,482543890.0,3312434478.78,33124344732.8
sh601838,成都银行,2018-08-03,9.05,9.19,8.94,8.99,9.17,33587892.0,304058511.0,3247413954.66,32474139492.7
sh601838,成都银行,2018-08-06,8.99,9.4,8.95,9.09,8.99,44178928.0,406164649.0,3283536468.06,32835364626.1
sh601838,成都银行,2018-08-07,9.02,9.34,8.84,9.29,9.09,52752600.0,480767798.0,3355781494.86,33557814892.9
sh601838,成都银行,2018-08-08,9.14,9.19,8.94,9.02,9.29,31999060.0,290140649.0,3258250708.68,32582507032.7
sh601838,成都银行,2018-08-09,8.91,9.25,8.88,9.13,9.02,33596242.0,306487234.0,3297985473.42,32979854679.4
sh601838,成都银行,2018-08-10,9.08,9.15,9.02,9.09,9.13,19065040.0,173107495.0,3283536468.06,32835364626.1
sh601838,成都银行,2018-08-13,8.96,8.98,8.67,8.83,9.09,31271427.0,275251843.0,3189617933.22,31896179279.2
sh601838,成都银行,2018-08-14,8.75,8.87,8.7,8.82,8.83,15958990.0,140220737.0,3186005681.88,31860056765.9
sh601838,成都银行,2018-08-15,8.79,8.82,8.5,8.52,8.82,21736722.0,187322086.0,3077638141.68,30776381365.7
sh601838,成都银行,2018-08-16,8.38,8.78,8.32,8.53,8.52,25652433.0,218694626.0,3081250393.02,30812503879.0
sh601838,成都银行,2018-08-17,8.58,8.63,8.3,8.33,8.53,18274822.0,154911408.0,3009005366.22,30090053612.2
sh601838,成都银行,2018-08-20,8.36,8.57,8.32,8.55,8.33,20451423.0,173173173.0,3088474895.7,30884748905.7
sh601838,成都银行,2018-08-21,8.58,8.7,8.48,8.66,8.55,24299723.0,209847411.0,3128209660.44,31282096552.4
sh601838,成都银行,2018-08-22,8.64,8.65,8.51,8.55,8.66,13809544.0,118346068.0,3088474895.7,30884748905.7
sh601838,成都银行,2018-08-23,8.54,8.77,8.53,8.69,8.55,19914745.0,172033226.0,3139046414.46,31390464092.5
sh601838,成都银行,2018-08-24,8.68,9.56,8.65,9.3,8.69,84610285.0,779482719.0,3359393746.2,33593937406.2
sh601838,成都银行,2018-08-27,9.13,9.28,9.03,9.24,9.3,52392535.0,479262105.0,3337720238.16,33377202326.2
sh601838,成都银行,2018-08-28,9.16,9.19,9.05,9.09,9.24,28579351.0,260331800.0,3283536468.06,32835364626.1
sh601838,成都银行,2018-08-29,9.13,9.18,9.04,9.11,9.09,23028184.0,209926432.0,3290760970.74,32907609652.7
sh601838,成都银行,2018-08-30,9.12,9.16,8.9,8.98,9.11,23543112.0,212012849.0,3243801703.32,32438016979.3
sh601838,成都银行,2018-08-31,8.92,9.15,8.88,8.92,8.98,23372040.0,210912255.0,3222128195.28,32221281899.3
sh601838,成都银行,2018-09-03,8.85,8.89,8.62,8.78,8.92,19200631.0,168100170.0,3171556676.52,31715566712.5
sh601838,成都银行,2018-09-04,8.75,9.09,8.68,8.96,8.78,25542524.0,226838581.0,3236577200.64,32365771952.6
sh601838,成都银行,2018-09-05,8.88,8.92,8.68,8.69,8.96,19917691.0,175249805.0,3139046414.46,31390464092.5
sh601838,成都银行,2018-09-06,8.64,8.79,8.63,8.71,8.69,12832281.0,111816354.0,3146270917.14,31462709119.1
sh601838,成都银行,2018-09-07,8.69,8.9,8.69,8.78,8.71,17137807.0,150647540.0,3171556676.52,31715566712.5
sh601838,成都银行,2018-09-10,8.76,8.85,8.67,8.72,8.78,13680316.0,119581768.0,3149883168.48,31498831632.5
sh601838,成都银行,2018-09-11,8.69,8.99,8.69,8.89,8.72,23697254.0,209847460.0,3211291441.26,32112914359.3
sh601838,成都银行,2018-09-12,8.86,9.1,8.83,8.99,8.89,23305291.0,209286706.0,3247413954.66,32474139492.7
sh601838,成都银行,2018-09-13,9.15,9.17,8.9,9.06,8.99,21291389.0,191755636.0,3272699714.04,32726997086.0
sh601838,成都银行,2018-09-14,9.01,9.03,8.88,8.89,9.06,14832406.0,132536067.0,3211291441.26,32112914359.3
sh601838,成都银行,2018-09-17,8.81,8.87,8.67,8.75,8.89,12775297.0,111828447.0,3160719922.5,31607199172.5
sh601838,成都银行,2018-09-18,8.7,8.99,8.69,8.95,8.75,19400493.0,172451345.0,3232964949.3,32329649439.3
sh601838,成都银行,2018-09-19,8.94,9.12,8.88,9.01,8.95,25803694.0,232542829.0,3254638457.34,32546384519.3
sh601838,成都银行,2018-09-20,9.09,9.15,8.94,8.97,9.01,20068441.0,181328488.0,3240189451.98,32401894466.0
sh601838,成都银行,2018-09-21,8.97,9.78,8.94,9.48,8.97,56238355.0,523818706.0,3424414270.32,34244142646.3
sh601838,成都银行,2018-09-25,9.29,9.3,9.16,9.19,9.48,29514970.0,272030548.0,3319658981.46,33196589759.5
sh601838,成都银行,2018-09-26,9.21,9.38,9.17,9.19,9.19,30452674.0,282246823.0,3319658981.46,33196589759.5
sh601838,成都银行,2018-09-27,9.11,9.16,8.97,9.03,9.19,23640261.0,213932722.0,3261862960.02,32618629546.0
sh601838,成都银行,2018-09-28,9.05,9.31,9.04,9.23,9.03,29338833.0,269790875.0,3334107986.82,33341079812.8
sh601838,成都银行,2018-10-08,9.04,9.19,8.95,8.97,9.23,22481489.0,203460062.0,3240189451.98,32401894466.0
sh601838,成都银行,2018-10-09,8.99,9.09,8.91,9.03,8.97,14194906.0,127737525.0,3261862960.02,32618629546.0
sh601838,成都银行,2018-10-10,9.03,9.12,8.99,9.05,9.03,11638176.0,105384971.0,3269087462.7,32690874572.7
sh601838,成都银行,2018-10-11,8.66,8.76,8.15,8.32,9.05,31729000.0,267758610.0,3005393114.88,30053931098.9
sh601838,成都银行,2018-10-12,8.21,8.48,8.19,8.47,8.32,19723129.0,165468010.0,3059576884.98,30595768799.0
sh601838,成都银行,2018-10-15,8.45,8.45,8.2,8.22,8.47,14103625.0,117137543.0,2969270601.48,29692705965.5
sh601838,成都银行,2018-10-16,8.21,8.37,8.05,8.08,8.22,14457615.0,118539495.0,2918699082.72,29186990778.7
sh601838,成都银行,2018-10-17,8.21,8.25,8.0,8.14,8.08,12118125.0,98456862.0,2940372590.76,29403725858.8
sh601838,成都银行,2018-10-18,8.11,8.11,8.0,8.03,8.14,9499362.0,76413861.0,2900637826.02,29006378212.0
sh601838,成都银行,2018-10-19,7.95,8.22,7.92,8.19,8.03,16784413.0,136034813.0,2958433847.46,29584338425.5
sh601838,成都银行,2018-10-22,8.22,8.81,8.2,8.62,8.19,35209105.0,301172805.0,3113760655.08,31137606499.1
sh601838,成都银行,2018-10-23,8.6,8.6,8.32,8.35,8.62,20612837.0,174004725.0,3016229868.9,30162298638.9
sh601838,成都银行,2018-10-24,8.29,9.16,8.28,8.65,8.35,44111176.0,386045215.0,3124597409.1,31245974039.1
sh601838,成都银行,2018-10-25,8.33,8.91,8.24,8.82,8.65,33692155.0,289000397.0,3186005681.88,31860056765.9
sh601838,成都银行,2018-10-26,8.78,8.86,8.58,8.66,8.82,22615457.0,196839872.0,3128209660.44,31282096552.4
sh601838,成都银行,2018-10-29,8.64,8.72,8.4,8.45,8.66,14687490.0,125032850.0,3052352382.3,30523523772.3
sh601838,成都银行,2018-10-30,8.4,8.78,8.4,8.65,8.45,25589091.0,220933305.0,3124597409.1,31245974039.1
sh601838,成都银行,2018-10-31,8.67,8.95,8.57,8.75,8.65,31687206.0,278019893.0,3160719922.5,31607199172.5
sh601838,成都银行,2018-11-01,8.67,8.92,8.67,8.71,8.75,24759988.0,217386632.0,3146270917.14,31462709119.1
sh601838,成都银行,2018-11-02,8.84,9.1,8.73,8.97,8.71,33269026.0,296271592.0,3240189451.98,32401894466.0
sh601838,成都银行,2018-11-05,8.9,8.98,8.81,8.92,8.97,21412730.0,190485330.0,3222128195.28,32221281899.3
sh601838,成都银行,2018-11-06,8.87,8.91,8.68,8.77,8.92,15988457.0,140077368.0,3167944425.18,31679444199.2
sh601838,成都银行,2018-11-07,8.8,8.83,8.62,8.64,8.77,15265657.0,133150626.0,3120985157.76,31209851525.8
sh601838,成都银行,2018-11-08,8.73,8.77,8.62,8.66,8.64,12642204.0,109966247.0,3128209660.44,31282096552.4
sh601838,成都银行,2018-11-09,8.6,8.6,8.45,8.46,8.66,14824456.0,125985225.0,3055964633.64,30559646285.6
sh601838,成都银行,2018-11-12,8.43,8.56,8.41,8.55,8.46,13782885.0,117032628.0,3088474895.7,30884748905.7
sh601838,成都银行,2018-11-13,8.44,8.7,8.41,8.67,8.55,19871776.0,170389381.0,3131821911.78,31318219065.8
sh601838,成都银行,2018-11-14,8.61,8.75,8.55,8.6,8.67,15740919.0,135860368.0,3106536152.4,31065361472.4
sh601838,成都银行,2018-11-15,8.56,8.75,8.54,8.75,8.6,19165249.0,166554201.0,3160719922.5,31607199172.5
sh601838,成都银行,2018-11-16,8.77,8.97,8.66,8.82,8.75,28030774.0,246973344.0,3186005681.88,31860056765.9
sh601838,成都银行,2018-11-19,8.82,9.15,8.78,9.1,8.82,43834462.0,395044609.0,3287148719.4,32871487139.4
sh601838,成都银行,2018-11-20,8.97,9.02,8.78,8.79,9.1,24550054.0,218372471.0,3175168927.86,31751689225.9
sh601838,成都银行,2018-11-21,8.7,8.84,8.63,8.78,8.79,13960202.0,122319276.0,3171556676.52,31715566712.5
sh601838,成都银行,2018-11-22,8.78,8.83,8.7,8.72,8.78,11520858.0,100732801.0,3149883168.48,31498831632.5
sh601838,成都银行,2018-11-23,8.73,8.78,8.47,8.51,8.72,17184033.0,148312789.0,3074025890.34,30740258852.3
sh601838,成都银行,2018-11-26,8.49,8.66,8.49,8.56,8.51,9736048.0,83604035.0,3092087147.04,30920871419.0
sh601838,成都银行,2018-11-27,8.59,8.65,8.45,8.52,8.56,11779356.0,100748057.0,3077638141.68,30776381365.7
sh601838,成都银行,2018-11-28,8.52,8.62,8.47,8.6,8.52,10328851.0,88442193.0,3106536152.4,31065361472.4
sh601838,成都银行,2018-11-29,8.63,8.66,8.4,8.4,8.6,13219881.0,112678223.0,3034291125.6,30342911205.6
sh601838,成都银行,2018-11-30,8.4,8.46,8.29,8.36,8.4,11939017.0,99926727.0,3019842120.24,30198421152.2
sh601838,成都银行,2018-12-03,8.49,8.6,8.47,8.53,8.36,16890099.0,144106106.0,3081250393.02,30812503879.0
sh601838,成都银行,2018-12-04,8.51,8.54,8.43,8.53,8.53,12535594.0,106439834.0,3081250393.02,30812503879.0
sh601838,成都银行,2018-12-05,8.4,8.47,8.36,8.43,8.53,10587115.0,89082191.0,3045127879.62,30451278745.6
sh601838,成都银行,2018-12-06,8.39,8.52,8.35,8.45,8.43,11266315.0,95010792.0,3052352382.3,30523523772.3
sh601838,成都银行,2018-12-07,8.44,8.48,8.41,8.42,8.45,5172112.0,43637750.0,3041515628.28,30415156232.3
sh601838,成都银行,2018-12-10,8.33,8.38,8.29,8.3,8.42,6337629.0,52762778.0,2998168612.2,29981686072.2
sh601838,成都银行,2018-12-11,8.3,8.48,8.3,8.36,8.3,5504617.0,46052860.0,3019842120.24,30198421152.2
sh601838,成都银行,2018-12-12,8.38,8.42,8.34,8.34,8.36,5446800.0,45626027.0,3012617617.56,30126176125.6
sh601838,成都银行,2018-12-13,8.35,8.5,8.32,8.44,8.34,10231906.0,86303030.0,3048740130.96,30487401259.0
sh601838,成都银行,2018-12-14,8.41,8.43,8.27,8.28,8.44,9069341.0,75605771.0,2990944109.52,29909441045.5
sh601838,成都银行,2018-12-17,8.28,8.34,8.22,8.32,8.28,5889772.0,48794581.0,3005393114.88,30053931098.9
sh601838,成都银行,2018-12-18,8.26,8.33,8.23,8.28,8.32,5243692.0,43423495.0,2990944109.52,29909441045.5
sh601838,成都银行,2018-12-19,8.3,8.31,8.22,8.24,8.28,4285569.0,35404534.0,2976495104.16,29764950992.2
sh601838,成都银行,2018-12-20,8.23,8.26,8.11,8.18,8.24,7959603.0,64920358.0,2954821596.12,29548215912.1
sh601838,成都银行,2018-12-21,8.16,8.17,8.11,8.16,8.18,4795905.0,39025791.0,2947597093.44,29475970885.4
sh601838,成都银行,2018-12-24,8.16,8.21,8.11,8.19,8.16,4973447.0,40590864.0,2958433847.46,29584338425.5
sh601838,成都银行,2018-12-25,8.12,8.16,7.98,8.12,8.19,8288900.0,66882742.0,2933148088.08,29331480832.1
sh601838,成都银行,2018-12-26,8.07,8.12,8.05,8.07,8.12,4382749.0,35412772.0,2915086831.38,29150868265.4
sh601838,成都银行,2018-12-27,8.2,8.21,8.0,8.01,8.07,6433875.0,52240289.0,2893413323.34,28934133185.3
sh601838,成都银行,2018-12-28,8.01,8.12,8.01,8.05,8.01,5124921.0,41328788.0,2907862328.7,29078623238.7
sh601838,成都银行,2019-01-02,8.05,8.08,7.91,7.93,8.05,7582514.0,60458076.0,2864515312.62,28645153078.6
sh601838,成都银行,2019-01-03,7.94,8.09,7.93,7.97,7.93,6476599.0,51888328.0,2878964317.98,28789643132.0
sh601838,成都银行,2019-01-04,7.92,8.34,7.86,8.23,7.97,18168862.0,148237662.0,2972882852.82,29728828478.8
sh601838,成都银行,2019-01-07,8.24,8.27,8.12,8.22,8.23,14576517.0,119170331.0,2969270601.48,29692705965.5
sh601838,成都银行,2019-01-08,8.17,8.18,8.09,8.11,8.22,9123176.0,74067310.0,2929535836.74,29295358318.7
sh601838,成都银行,2019-01-09,8.12,8.25,8.11,8.16,8.11,13894175.0,113750635.0,2947597093.44,29475970885.4
sh601838,成都银行,2019-01-10,8.13,8.15,8.02,8.02,8.16,10616238.0,85594095.0,2897025574.68,28970255698.7
sh601838,成都银行,2019-01-11,8.02,8.08,8.01,8.04,8.02,6503993.0,52289771.0,2904250077.36,29042500725.4
sh601838,成都银行,2019-01-14,8.02,8.03,7.95,7.97,8.04,6420447.0,51227592.0,2878964317.98,28789643132.0
sh601838,成都银行,2019-01-15,7.95,8.08,7.95,8.04,7.97,7835140.0,62882696.0,2904250077.36,29042500725.4
sh601838,成都银行,2019-01-16,8.0,8.04,7.98,8.0,8.04,5637599.0,45107968.0,2889801072.0,28898010672.0
sh601838,成都银行,2019-01-17,8.0,8.05,7.96,7.99,8.0,6939734.0,55585973.0,2886188820.66,28861888158.7
sh601838,成都银行,2019-01-18,7.99,8.1,7.97,8.08,7.99,10727910.0,86425834.0,2918699082.72,29186990778.7
sh601838,成都银行,2019-01-21,8.07,8.1,8.03,8.05,8.08,6694926.0,53976936.0,2907862328.7,29078623238.7
sh601838,成都银行,2019-01-22,8.05,8.05,7.95,7.98,8.05,5422686.0,43366612.0,2882576569.32,28825765645.3
sh601838,成都银行,2019-01-23,8.01,8.03,7.96,7.96,7.98,5291966.0,42324939.0,2875352066.64,28753520618.6
sh601838,成都银行,2019-01-24,7.95,8.06,7.94,8.04,7.96,8467345.0,67775682.0,2904250077.36,29042500725.4
sh601838,成都银行,2019-01-25,8.0,8.11,8.0,8.01,8.04,11965413.0,96409605.0,2893413323.34,28934133185.3
sh601838,成都银行,2019-01-28,8.01,8.07,7.88,7.91,8.01,12170609.0,97065573.0,2857290809.94,28572908051.9
sh601838,成都银行,2019-01-29,7.89,7.91,7.66,7.85,7.91,10986769.0,85927914.0,2835617301.9,28356172971.9
sh601838,成都银行,2019-01-30,7.81,7.97,7.79,7.88,7.85,7054639.0,55737078.0,2846454055.92,28464540511.9
sh601838,成都银行,2019-01-31,7.43,7.8,7.43,7.69,7.88,26657618.0,205510284.0,14353176354.9,27778212758.5
sh601838,成都银行,2019-02-01,7.68,7.8,7.68,7.79,7.69,14811486.0,114606595.0,14539823641.7,28139437891.9
sh601838,成都银行,2019-02-11,7.77,7.88,7.73,7.86,7.79,18891963.0,147052601.0,14670476742.5,28392295485.2
sh601838,成都银行,2019-02-12,7.88,7.93,7.84,7.92,7.86,17272342.0,136137199.0,14782465114.6,28609030565.3
sh601838,成都银行,2019-02-13,7.93,8.05,7.85,8.03,7.92,26528223.0,211230364.0,14987777130.0,29006378212.0
sh601838,成都银行,2019-02-14,8.0,8.05,7.95,7.98,8.03,19930247.0,159233545.0,14894453486.6,28825765645.3
sh601838,成都银行,2019-02-15,7.97,7.99,7.92,7.93,7.98,15080564.0,120022384.0,14801129843.2,28645153078.6
sh601838,成都银行,2019-02-18,7.95,8.14,7.95,8.09,7.93,30973952.0,248889886.0,15099765502.1,29223113292.1
sh601838,成都银行,2019-02-19,8.08,8.25,8.05,8.11,8.09,31216063.0,253606092.0,15137094959.5,29295358318.7
sh601838,成都银行,2019-02-20,8.1,8.11,8.03,8.05,8.11,16664037.0,134259444.0,15025106587.4,29078623238.7
sh601838,成都银行,2019-02-21,8.05,8.1,7.96,7.98,8.05,21802337.0,175361858.0,14894453486.6,28825765645.3
sh601838,成都银行,2019-02-22,7.97,8.26,7.9,8.2,7.98,44516937.0,360163861.0,15305077517.6,29620460938.8
sh601838,成都银行,2019-02-25,8.37,9.02,8.22,9.02,8.2,97661331.0,840454280.0,16835585269.4,32582507032.7
sh601838,成都银行,2019-02-26,9.04,9.04,8.68,8.68,9.02,70467327.0,621223700.0,16200984494.2,31354341579.1
sh601838,成都银行,2019-02-27,8.63,9.44,8.61,9.04,8.68,97782839.0,882784241.0,16872914726.7,32654752059.4
sh601838,成都银行,2019-02-28,8.97,9.07,8.79,8.87,9.04,43944194.0,391595521.0,16555614339.2,32040669332.6
sh601838,成都银行,2019-03-01,8.9,9.07,8.71,9.03,8.87,51518613.0,457074041.0,16854249998.0,32618629546.0
sh601838,成都银行,2019-03-04,9.09,9.75,9.07,9.3,9.03,101201873.0,943363895.0,17358197672.4,33593937406.2
sh601838,成都银行,2019-03-05,9.19,9.35,9.13,9.3,9.3,43564241.0,401367781.0,17358197672.4,33593937406.2
sh601838,成都银行,2019-03-06,9.23,9.48,9.19,9.4,9.3,60054873.0,561000263.0,17544844959.2,33955162539.6
sh601838,成都银行,2019-03-07,9.35,9.89,9.25,9.56,9.4,97045694.0,931028754.0,17843480618.1,34533122753.0
sh601838,成都银行,2019-03-08,9.28,9.29,8.78,8.79,9.56,82331971.0,747001980.0,16406296509.7,31751689225.9
sh601838,成都银行,2019-03-11,8.86,9.04,8.81,9.04,8.79,35466420.0,316244728.0,16872914726.7,32654752059.4
sh601838,成都银行,2019-03-12,9.05,9.2,8.87,9.01,9.04,46702143.0,423715275.0,16816920540.7,32546384519.3
sh601838,成都银行,2019-03-13,8.98,9.08,8.83,8.94,9.01,35419524.0,316650593.0,16686267439.9,32293526926.0
sh601838,成都银行,2019-03-14,8.89,9.06,8.8,8.86,8.94,25462141.0,226583284.0,16536949610.5,32004546819.2
sh601838,成都银行,2019-03-15,8.93,8.99,8.86,8.92,8.86,24735862.0,220819612.0,16648937982.6,32221281899.3
sh601838,成都银行,2019-03-18,8.94,9.13,8.85,9.12,8.92,36493373.0,329595214.0,17022232556.2,32943732166.1
sh601838,成都银行,2019-03-19,9.13,9.15,9.01,9.05,9.12,27668854.0,251223469.0,16891579455.4,32690874572.7
sh601838,成都银行,2019-03-20,9.04,9.27,9.01,9.25,9.05,54864485.0,501882472.0,17264874029.0,33413324839.5
sh601838,成都银行,2019-03-21,9.22,9.29,9.12,9.17,9.25,36268573.0,333685871.0,17115556199.6,33124344732.8
sh601838,成都银行,2019-03-22,9.17,9.18,8.99,9.04,9.17,27749932.0,251250328.0,16872914726.7,32654752059.4
sh601838,成都银行,2019-03-25,8.86,8.92,8.8,8.81,9.04,25599856.0,226903275.0,16443625967.1,31823934252.5
sh601838,成都银行,2019-03-26,8.85,8.86,8.65,8.69,8.81,20141172.0,176160597.0,16219649222.9,31390464092.5
sh601838,成都银行,2019-03-27,8.73,8.8,8.68,8.74,8.69,13284358.0,116018627.0,16312972866.3,31571076659.2
sh601838,成都银行,2019-03-28,8.7,8.74,8.63,8.66,8.74,13674263.0,118597349.0,16163655036.9,31282096552.4
sh601838,成都银行,2019-03-29,8.71,8.98,8.67,8.95,8.66,35125473.0,311796561.0,16704932168.6,32329649439.3
sh601838,成都银行,2019-04-01,8.97,9.18,8.97,9.13,8.95,39622087.0,360834121.0,17040897284.8,32979854679.4
sh601838,成都银行,2019-04-02,9.14,9.26,9.06,9.09,9.13,30446343.0,278117953.0,16966238370.1,32835364626.1
sh601838,成都银行,2019-04-03,9.0,9.14,8.95,9.13,9.09,28271540.0,256007963.0,17040897284.8,32979854679.4
sh601838,成都银行,2019-04-04,9.16,9.36,9.13,9.28,9.13,58368756.0,540935042.0,17320868215.0,33521692379.5
sh601838,成都银行,2019-04-08,9.32,9.54,9.2,9.3,9.28,47579781.0,446340192.0,17358197672.4,33593937406.2
sh601838,成都银行,2019-04-09,9.24,9.31,9.11,9.2,9.3,23307362.0,214644265.0,17171550385.6,33232712272.8
sh601838,成都银行,2019-04-10,9.19,9.22,9.1,9.17,9.2,18251888.0,166945280.0,17115556199.6,33124344732.8
sh601838,成都银行,2019-04-11,9.19,9.29,9.11,9.17,9.17,23609380.0,217192305.0,17115556199.6,33124344732.8
sh601838,成都银行,2019-04-12,9.13,9.2,9.1,9.17,9.17,17689216.0,162021729.0,17115556199.6,33124344732.8
sh601838,成都银行,2019-04-15,9.38,9.44,9.19,9.27,9.17,44884694.0,419074853.0,17302203486.4,33485569866.2
sh601838,成都银行,2019-04-16,9.23,9.66,9.17,9.62,9.27,70487588.0,669606438.0,17955468990.2,34749857833.1
sh601838,成都银行,2019-04-17,9.56,9.85,9.53,9.59,9.62,52576294.0,508642278.0,17899474804.1,34641490293.1
sh601838,成都银行,2019-04-18,9.58,9.7,9.5,9.54,9.59,27175329.0,260712863.0,17806151160.7,34460877726.4
sh601838,成都银行,2019-04-19,9.55,9.67,9.44,9.59,9.54,25016558.0,239041711.0,17899474804.1,34641490293.1
sh601838,成都银行,2019-04-22,9.61,9.67,9.2,9.24,9.59,36557250.0,344328656.0,17246209300.3,33377202326.2
sh601838,成都银行,2019-04-23,9.22,9.34,9.16,9.23,9.24,21152080.0,195722928.0,17227544571.6,33341079812.8
sh601838,成都银行,2019-04-24,9.28,9.33,9.13,9.28,9.23,16393000.0,151606390.0,17320868215.0,33521692379.5
sh601838,成都银行,2019-04-25,9.32,9.44,9.15,9.15,9.28,31183360.0,290209282.0,17078226742.2,33052099706.1
sh601838,成都银行,2019-04-26,9.15,9.22,9.08,9.13,9.15,20692146.0,189536136.0,17040897284.8,32979854679.4
sh601838,成都银行,2019-04-29,9.18,9.39,9.15,9.28,9.13,33827566.0,313576108.0,17320868215.0,33521692379.5
sh601838,成都银行,2019-04-30,9.3,9.51,9.18,9.45,9.28,29904934.0,280000550.0,17639695722.6,34135775106.3
sh601838,成都银行,2019-05-06,9.2,9.35,8.84,9.01,9.45,44611467.0,406055092.0,16818376556.7,32546384519.3
sh601838,成都银行,2019-05-07,9.09,9.12,8.85,8.99,9.01,22007802.0,197508913.0,16781043867.3,32474139492.7
sh601838,成都银行,2019-05-08,8.8,8.96,8.75,8.82,8.99,15731268.0,139150007.0,16463716007.8,31860056765.9
sh601838,成都银行,2019-05-09,8.76,8.82,8.64,8.67,8.82,13838112.0,120569917.0,16183720837.6,31318219065.8
sh601838,成都银行,2019-05-10,8.75,8.89,8.62,8.87,8.67,21521743.0,189066206.0,16557047731.2,32040669332.6
sh601838,成都银行,2019-05-13,8.73,8.82,8.69,8.75,8.87,11578962.0,101286853.0,16333051595.0,31607199172.5
sh601838,成都银行,2019-05-14,8.68,8.78,8.67,8.7,8.75,16148131.0,140787144.0,16239719871.6,31426586605.8
sh601838,成都银行,2019-05-15,8.74,8.84,8.71,8.79,8.7,16450797.0,144303515.0,16407716973.7,31751689225.9
sh601838,成都银行,2019-05-16,8.79,8.84,8.76,8.83,8.79,10339476.0,91086674.0,16482382352.4,31896179279.2
sh601838,成都银行,2019-05-17,8.84,8.84,8.56,8.6,8.83,14180525.0,123454742.0,16053056424.8,31065361472.4
sh601838,成都银行,2019-05-20,8.51,8.58,8.3,8.43,8.6,13511017.0,113940553.0,15735728565.2,30451278745.6
sh601838,成都银行,2019-05-21,8.45,8.6,8.41,8.56,8.43,10238016.0,87415685.0,15978391046.1,30920871419.0
sh601838,成都银行,2019-05-22,8.53,8.61,8.47,8.49,8.56,6602753.0,56343854.0,15847726633.3,30668013825.7
sh601838,成都银行,2019-05-23,8.51,8.51,8.39,8.42,8.49,7727688.0,65198909.0,15717062220.6,30415156232.3
sh601838,成都银行,2019-05-24,8.4,8.61,8.39,8.48,8.42,9572740.0,81524637.0,15829060288.6,30631891312.3
sh601838,成都银行,2019-05-27,8.44,8.57,8.37,8.55,8.48,14910224.0,126139577.0,15959724701.4,30884748905.7
sh601838,成都银行,2019-05-28,8.53,8.65,8.45,8.65,8.55,19136721.0,163643714.0,16146388148.2,31245974039.1
sh601838,成都银行,2019-05-29,8.56,8.64,8.53,8.6,8.65,9827187.0,84271076.0,16053056424.8,31065361472.4
sh601838,成都银行,2019-05-30,8.54,8.55,8.43,8.48,8.6,8663079.0,73397474.0,15829060288.6,30631891312.3
sh601838,成都银行,2019-05-31,8.5,8.54,8.46,8.48,8.48,8152827.0,69283807.0,15829060288.6,30631891312.3
sh601838,成都银行,2019-06-03,8.48,8.53,8.3,8.44,8.48,13763138.0,115726520.0,15754394909.9,30487401259.0
sh601838,成都银行,2019-06-04,8.4,8.43,8.35,8.4,8.44,7399939.0,62009302.0,15679729531.2,30342911205.6
sh601838,成都银行,2019-06-05,8.46,8.55,8.42,8.44,8.4,8102619.0,68600884.0,15754394909.9,30487401259.0
sh601838,成都银行,2019-06-06,8.47,8.49,8.41,8.46,8.44,8396948.0,71027072.0,15791727599.3,30559646285.6
sh601838,成都银行,2019-06-10,8.5,8.66,8.47,8.58,8.46,13855999.0,118906437.0,16015723735.4,30993116445.7
sh601838,成都银行,2019-06-11,8.58,8.76,8.56,8.71,8.58,23142463.0,200762625.0,16258386216.3,31462709119.1
sh601838,成都银行,2019-06-12,8.68,8.71,8.65,8.69,8.71,12648975.0,109747143.0,16221053526.9,31390464092.5
sh601838,成都银行,2019-06-13,8.67,8.78,8.66,8.72,8.69,11286385.0,98490968.0,16277052561.0,31498831632.5
sh601838,成都银行,2019-06-14,8.73,8.9,8.71,8.82,8.72,40229166.0,354729018.0,16463716007.8,31860056765.9
sh601838,成都银行,2019-06-17,8.8,9.06,8.76,8.91,8.82,20007032.0,179182841.0,16631713109.9,32185159385.9
sh601838,成都银行,2019-06-18,8.89,8.99,8.82,8.97,8.91,12778160.0,114031262.0,16743711178.0,32401894466.0
sh601838,成都银行,2019-06-19,9.15,9.15,8.92,8.98,8.97,16428407.0,148534312.0,16762377522.6,32438016979.3
sh601838,成都银行,2019-06-20,8.95,9.19,8.92,9.1,8.98,28767420.0,261311125.0,16986373658.8,32871487139.4
sh601838,成都银行,2019-06-21,9.16,9.16,9.04,9.08,9.1,15755657.0,143184487.0,16949040969.4,32799242112.7
sh601838,成都银行,2019-06-24,9.1,9.12,8.97,9.0,9.08,12109412.0,109199288.0,16799710212.0,32510262006.0
sh601838,成都银行,2019-06-25,9.02,9.05,8.81,8.94,9.0,12683027.0,113261206.0,16687712143.9,32293526926.0
sh601838,成都银行,2019-06-26,8.92,9.0,8.88,8.91,8.94,6794877.0,60575808.0,16631713109.9,32185159385.9
sh601838,成都银行,2019-06-27,8.91,9.03,8.9,8.93,8.91,9356085.0,83817958.0,16669045799.2,32257404412.6
sh601838,成都银行,2019-06-28,8.91,8.96,8.8,8.83,8.93,8949886.0,79186358.0,16482382352.4,31896179279.2
sh601838,成都银行,2019-07-01,8.93,8.96,8.88,8.93,8.83,18415530.0,164493213.0,16669045799.2,32257404412.6
sh601838,成都银行,2019-07-02,8.93,8.96,8.89,8.93,8.93,14395861.0,128600689.0,16669045799.2,32257404412.6
sh601838,成都银行,2019-07-03,8.94,8.96,8.89,8.94,8.93,9729505.0,86887452.0,16687712143.9,32293526926.0
sh601838,成都银行,2019-07-04,8.94,9.06,8.94,9.01,8.94,11627618.0,104581415.0,16818376556.7,32546384519.3
sh601838,成都银行,2019-07-05,9.02,9.02,8.86,8.92,9.01,12759711.0,113799024.0,16650379454.6,32221281899.3
sh601838,成都银行,2019-07-08,8.89,8.91,8.71,8.73,8.92,10709100.0,94139920.0,16295718905.6,31534954145.8
sh601838,成都银行,2019-07-09,8.72,8.78,8.71,8.74,8.73,7003848.0,61178688.0,16314385250.3,31571076659.2
sh601838,成都银行,2019-07-10,8.76,8.77,8.47,8.54,8.74,22435879.0,192755109.0,15941058356.7,30848626392.4
sh601838,成都银行,2019-07-11,8.55,8.6,8.31,8.41,8.54,32215595.0,271980615.0,15698395875.9,30379033718.9
sh601838,成都银行,2019-07-12,8.45,8.58,8.39,8.57,8.41,20196097.0,171629772.0,15997057390.8,30956993932.4
sh601838,成都银行,2019-07-15,8.55,8.73,8.51,8.7,8.57,16335999.0,141290639.0,16239719871.6,31426586605.8
sh601838,成都银行,2019-07-16,8.69,8.83,8.67,8.81,8.7,15424876.0,135518181.0,16445049663.1,31823934252.5
sh601838,成都银行,2019-07-17,8.82,8.86,8.76,8.83,8.81,13744976.0,121114700.0,16482382352.4,31896179279.2
sh601838,成都银行,2019-07-18,8.79,8.83,8.73,8.78,8.83,13590261.0,119284124.0,16389050629.0,31715566712.5
sh601838,XD成都银,2019-07-19,8.39,8.43,8.3,8.34,8.43,18359595.0,153558241.0,15567731463.1,30126176125.6
sh601838,成都银行,2019-07-22,8.37,8.39,8.27,8.34,8.34,10497500.0,87613807.0,15567731463.1,30126176125.6
sh601838,成都银行,2019-07-23,8.33,8.47,8.32,8.47,8.34,11151000.0,93644466.0,15810393944.0,30595768799.0
sh601838,成都银行,2019-07-24,8.45,8.53,8.4,8.43,8.47,15567703.0,131948758.0,15735728565.2,30451278745.6
sh601838,成都银行,2019-07-25,8.45,8.52,8.42,8.52,8.43,12839592.0,108874999.0,15903725667.4,30776381365.7
sh601838,成都银行,2019-07-26,8.49,8.56,8.45,8.52,8.52,9828631.0,83523232.0,15903725667.4,30776381365.7
sh601838,成都银行,2019-07-29,8.53,8.57,8.48,8.52,8.52,8788488.0,74871079.0,15903725667.4,30776381365.7
sh601838,成都银行,2019-07-30,8.54,8.63,8.5,8.62,8.52,14063833.0,120852301.0,16090389114.2,31137606499.1
sh601838,成都银行,2019-07-31,8.58,8.59,8.47,8.5,8.62,12902904.0,109888315.0,15866392978.0,30704136339.0
sh601838,成都银行,2019-08-01,8.45,8.49,8.36,8.41,8.5,12681502.0,106685864.0,15698395875.9,30379033718.9
sh601838,成都银行,2019-08-02,8.27,8.34,8.21,8.26,8.41,14261321.0,117834660.0,15418400705.7,29837196018.8
sh601838,成都银行,2019-08-05,8.22,8.28,8.1,8.1,8.26,13696614.0,112078016.0,15119739190.8,29259235805.4
sh601838,成都银行,2019-08-06,8.01,8.01,7.88,7.93,8.1,16876943.0,134121830.0,14802411331.2,28645153078.6
sh601838,成都银行,2019-08-07,7.96,7.99,7.86,7.87,7.93,13159732.0,104185421.0,14690413263.2,28428417998.6
sh601838,成都银行,2019-08-08,7.91,8.02,7.88,7.94,7.87,23448714.0,186227274.0,14821077675.9,28681275592.0
sh601838,成都银行,2019-08-09,7.96,7.98,7.83,7.86,7.94,15989143.0,126284989.0,14671746918.5,28392295485.2
sh601838,成都银行,2019-08-12,7.86,8.0,7.85,7.99,7.86,10454974.0,82905851.0,14914409399.3,28861888158.7
sh601838,成都银行,2019-08-13,7.93,8.02,7.91,8.01,7.99,9815224.0,78031868.0,14951742088.7,28934133185.3
sh601838,成都银行,2019-08-14,8.06,8.08,7.97,7.99,8.01,10423698.0,83497208.0,14914409399.3,28861888158.7
sh601838,成都银行,2019-08-15,7.88,8.02,7.8,8.0,7.99,10000299.0,79324185.0,14933075744.0,28898010672.0
sh601838,成都银行,2019-08-16,7.99,8.05,7.96,8.0,8.0,10581334.0,84809618.0,14933075744.0,28898010672.0
sh601838,成都银行,2019-08-19,7.99,8.13,7.9,8.11,8.0,17376427.0,139456018.0,15138405535.5,29295358318.7
sh601838,成都银行,2019-08-20,8.07,8.12,8.05,8.11,8.11,12669157.0,102547032.0,15138405535.5,29295358318.7
sh601838,成都银行,2019-08-21,8.1,8.12,8.07,8.11,8.11,9040067.0,73134952.0,15138405535.5,29295358318.7
sh601838,成都银行,2019-08-22,8.1,8.13,8.07,8.12,8.11,8955919.0,72529878.0,15157071880.2,29331480832.1
sh601838,成都银行,2019-08-23,8.13,8.2,8.1,8.18,8.12,10684624.0,87079604.0,15269069948.2,29548215912.1
sh601838,成都银行,2019-08-26,8.05,8.13,8.04,8.12,8.18,8917345.0,72230142.0,15157071880.2,29331480832.1
sh601838,成都银行,2019-08-27,8.17,8.29,8.15,8.18,8.12,15394529.0,126684926.0,15269069948.2,29548215912.1
sh601838,成都银行,2019-08-28,8.21,8.25,8.14,8.22,8.18,9309543.0,76323451.0,15343735327.0,29692705965.5
sh601838,成都银行,2019-08-29,8.23,8.26,8.13,8.18,8.22,10521286.0,86059686.0,15269069948.2,29548215912.1
sh601838,成都银行,2019-08-30,8.2,8.24,8.15,8.19,8.18,11179574.0,91555239.0,15287736292.9,29584338425.5
sh601838,成都银行,2019-09-02,8.21,8.28,8.16,8.23,8.19,13594180.0,111857652.0,15362401671.6,29728828478.8
sh601838,成都银行,2019-09-03,8.22,8.29,8.2,8.25,8.23,9516177.0,78428358.0,15399734361.0,29801073505.5
sh601838,成都银行,2019-09-04,8.25,8.38,8.22,8.32,8.25,18267286.0,151620615.0,15530398773.8,30053931098.9
sh601838,成都银行,2019-09-05,8.34,8.49,8.33,8.36,8.32,24819897.0,208803843.0,15605064152.5,30198421152.2
sh601838,成都银行,2019-09-06,8.39,8.4,8.33,8.37,8.36,12217979.0,102076439.0,15623730497.2,30234543665.6
sh601838,成都银行,2019-09-09,8.47,8.47,8.39,8.4,8.37,15680250.0,132026757.0,15679729531.2,30342911205.6
sh601838,成都银行,2019-09-10,8.42,8.43,8.32,8.36,8.4,9817741.0,82025814.0,15605064152.5,30198421152.2
sh601838,成都银行,2019-09-11,8.37,8.42,8.35,8.39,8.36,10873555.0,91169524.0,15661063186.5,30306788692.3
sh601838,成都银行,2019-09-12,8.41,8.42,8.36,8.39,8.39,10492294.0,87983703.0,15661063186.5,30306788692.3
sh601838,成都银行,2019-09-16,8.41,8.42,8.36,8.39,8.39,9452149.0,79266039.0,15661063186.5,30306788692.3
sh601838,成都银行,2019-09-17,8.36,8.38,8.18,8.22,8.39,11298696.0,93316014.0,15343735327.0,29692705965.5
sh601838,成都银行,2019-09-18,8.22,8.27,8.17,8.18,8.22,6440618.0,52894131.0,15269069948.2,29548215912.1
sh601838,成都银行,2019-09-19,8.2,8.21,8.15,8.2,8.18,5964600.0,48769148.0,15306402637.6,29620460938.8
sh601838,成都银行,2019-09-20,8.21,8.22,8.16,8.21,8.2,7428726.0,60867625.0,15325068982.3,29656583452.1
sh601838,成都银行,2019-09-23,8.17,8.18,8.05,8.08,8.21,9765271.0,79004049.0,15082406501.4,29186990778.7
sh601838,成都银行,2019-09-24,8.07,8.13,8.06,8.09,8.08,7017500.0,56787052.0,15101072846.1,29223113292.1
sh601838,成都银行,2019-09-25,8.07,8.13,8.02,8.07,8.09,7033285.0,56778678.0,15063740156.8,29150868265.4
sh601838,成都银行,2019-09-26,8.1,8.22,8.07,8.12,8.07,14840557.0,120875738.0,15157071880.2,29331480832.1
sh601838,成都银行,2019-09-27,8.12,8.25,8.12,8.24,8.12,18362415.0,150701447.0,15381068016.3,29764950992.2
sh601838,成都银行,2019-09-30,8.23,8.27,8.12,8.14,8.24,7757722.0,63697856.0,15194404569.5,29403725858.8
sh601838,成都银行,2019-10-08,8.12,8.25,8.09,8.19,8.14,8958807.0,73232884.0,15287736292.9,29584338425.5
sh601838,成都银行,2019-10-09,8.17,8.43,8.14,8.35,8.19,20995153.0,174958521.0,15586397807.8,30162298638.9
sh601838,成都银行,2019-10-10,8.32,8.38,8.29,8.35,8.35,9955565.0,82964372.0,15586397807.8,30162298638.9
sh601838,成都银行,2019-10-11,8.37,8.44,8.31,8.43,8.35,21730586.0,182717683.0,15735728565.2,30451278745.6
sh601838,成都银行,2019-10-14,8.5,8.77,8.47,8.57,8.43,43349019.0,374075171.0,15997057390.8,30956993932.4
sh601838,成都银行,2019-10-15,8.57,8.65,8.55,8.6,8.57,24414218.0,209881121.0,16053056424.8,31065361472.4
sh601838,成都银行,2019-10-16,8.65,8.75,8.47,8.55,8.6,25087083.0,215978530.0,15959724701.4,30884748905.7
sh601838,成都银行,2019-10-17,8.57,8.6,8.51,8.56,8.55,11263818.0,96243776.0,15978391046.1,30920871419.0
sh601838,成都银行,2019-10-18,8.55,8.6,8.36,8.42,8.56,17152253.0,145175129.0,15717062220.6,30415156232.3
sh601838,成都银行,2019-10-21,8.42,8.5,8.34,8.43,8.42,15918227.0,133993622.0,15735728565.2,30451278745.6
sh601838,成都银行,2019-10-22,8.44,8.52,8.36,8.48,8.43,13818399.0,116465824.0,15829060288.6,30631891312.3
sh601838,成都银行,2019-10-23,8.46,8.54,8.43,8.49,8.48,14223732.0,120836415.0,15847726633.3,30668013825.7
sh601838,成都银行,2019-10-24,8.49,8.63,8.48,8.55,8.49,17120144.0,146697095.0,15959724701.4,30884748905.7
sh601838,成都银行,2019-10-25,8.57,8.6,8.51,8.57,8.55,13094550.0,112116493.0,15997057390.8,30956993932.4
sh601838,成都银行,2019-10-28,8.57,8.58,8.43,8.53,8.57,14626612.0,124427781.0,15922392012.0,30812503879.0
sh601838,成都银行,2019-10-29,8.53,8.57,8.43,8.47,8.53,11132972.0,94487692.0,15810393944.0,30595768799.0
sh601838,成都银行,2019-10-30,8.4,8.49,8.39,8.44,8.47,11769371.0,99441431.0,15754394909.9,30487401259.0
sh601838,成都银行,2019-10-31,8.54,8.58,8.39,8.43,8.44,14053651.0,118811938.0,15735728565.2,30451278745.6
sh601838,成都银行,2019-11-01,8.42,8.7,8.36,8.66,8.43,29232102.0,251109235.0,16165054492.9,31282096552.4
sh601838,成都银行,2019-11-04,8.66,8.8,8.65,8.7,8.66,20698140.0,180199456.0,16239719871.6,31426586605.8
sh601838,成都银行,2019-11-05,8.69,8.97,8.64,8.87,8.7,43736038.0,387602755.0,16557047731.2,32040669332.6
sh601838,成都银行,2019-11-06,8.85,8.93,8.79,8.83,8.87,21652696.0,191747743.0,16482382352.4,31896179279.2
sh601838,成都银行,2019-11-07,8.86,8.98,8.85,8.9,8.83,20214147.0,180137220.0,16613046765.2,32149036872.6
sh601838,成都银行,2019-11-08,8.96,8.98,8.78,8.82,8.9,19179246.0,169917510.0,16463716007.8,31860056765.9
sh601838,成都银行,2019-11-11,8.76,8.77,8.59,8.61,8.82,20607639.0,178614882.0,16071722769.5,31101483985.7
sh601838,成都银行,2019-11-12,8.58,8.74,8.57,8.68,8.61,15365900.0,133025961.0,16202387182.2,31354341579.1
sh601838,成都银行,2019-11-13,8.67,8.72,8.58,8.63,8.68,14298968.0,123550497.0,16109055458.8,31173729012.4
sh601838,成都银行,2019-11-14,8.63,8.68,8.56,8.61,8.63,12982930.0,111811968.0,16071722769.5,31101483985.7
sh601838,成都银行,2019-11-15,8.62,8.65,8.51,8.53,8.61,15567869.0,133355360.0,15922392012.0,30812503879.0
sh601838,成都银行,2019-11-18,8.53,8.67,8.48,8.63,8.53,12975499.0,111511115.0,16109055458.8,31173729012.4
sh601838,成都银行,2019-11-19,8.62,8.72,8.59,8.68,8.63,10681798.0,92473326.0,16202387182.2,31354341579.1
sh601838,成都银行,2019-11-20,8.67,8.67,8.51,8.53,8.68,11854440.0,101555464.0,15922392012.0,30812503879.0
sh601838,成都银行,2019-11-21,8.5,8.54,8.45,8.49,8.53,9154141.0,77644715.0,15847726633.3,30668013825.7
sh601838,成都银行,2019-11-22,8.49,8.55,8.4,8.43,8.49,10495634.0,88740161.0,15735728565.2,30451278745.6
sh601838,成都银行,2019-11-25,8.43,8.59,8.43,8.56,8.43,12439398.0,106052456.0,15978391046.1,30920871419.0
sh601838,成都银行,2019-11-26,8.58,8.64,8.51,8.63,8.56,20833877.0,178992694.0,16109055458.8,31173729012.4
sh601838,成都银行,2019-11-27,8.58,8.71,8.55,8.61,8.63,12209641.0,105376915.0,16071722769.5,31101483985.7
sh601838,成都银行,2019-11-28,8.63,8.65,8.52,8.54,8.61,6897930.0,59049729.0,15941058356.7,30848626392.4
sh601838,成都银行,2019-11-29,8.55,8.62,8.5,8.54,8.54,7355162.0,62875110.0,15941058356.7,30848626392.4
sh601838,成都银行,2019-12-02,8.54,8.62,8.53,8.61,8.54,11061978.0,95054868.0,16071722769.5,31101483985.7
sh601838,成都银行,2019-12-03,8.59,8.6,8.53,8.58,8.61,6983398.0,59816736.0,16015723735.4,30993116445.7
sh601838,成都银行,2019-12-04,8.55,8.57,8.49,8.49,8.58,6379691.0,54374135.0,15847726633.3,30668013825.7
sh601838,成都银行,2019-12-05,8.51,8.55,8.47,8.53,8.49,11091327.0,94429523.0,16152702012.0,30812503879.0
sh601838,成都银行,2019-12-06,8.53,8.55,8.5,8.52,8.53,11918423.0,101570636.0,16133765667.4,30776381365.7
sh601838,成都银行,2019-12-09,8.54,8.57,8.5,8.54,8.52,13872326.0,118313536.0,16171638356.7,30848626392.4
sh601838,成都银行,2019-12-10,8.51,8.54,8.47,8.48,8.54,12054252.0,102496106.0,16058020288.6,30631891312.3
sh601838,成都银行,2019-12-11,8.49,8.56,8.48,8.54,8.48,13351107.0,113744501.0,16171638356.7,30848626392.4
sh601838,成都银行,2019-12-12,8.54,8.55,8.49,8.51,8.54,10521402.0,89701005.0,16114829322.7,30740258852.3
sh601838,成都银行,2019-12-13,8.55,8.68,8.53,8.68,8.51,25397400.0,218663608.0,16436747182.2,31354341579.1
sh601838,成都银行,2019-12-16,8.65,8.72,8.6,8.68,8.68,18502678.0,160243973.0,16436747182.2,31354341579.1
sh601838,成都银行,2019-12-17,8.66,8.96,8.66,8.88,8.68,32705785.0,289160918.0,16815474075.8,32076791845.9
sh601838,成都银行,2019-12-18,8.83,8.93,8.82,8.85,8.88,17845947.0,158295151.0,16758665041.8,31968424305.9
sh601838,成都银行,2019-12-19,8.86,8.97,8.84,8.89,8.85,17309165.0,154097481.0,16834410420.5,32112914359.3
sh601838,成都银行,2019-12-20,8.88,9.01,8.85,8.92,8.89,20395354.0,182068420.0,16891219454.6,32221281899.3
sh601838,成都银行,2019-12-23,8.92,8.98,8.74,8.74,8.92,20491776.0,181410704.0,16550365250.3,31571076659.2
sh601838,成都银行,2019-12-24,8.85,8.87,8.77,8.81,8.74,12322894.0,108640734.0,16682919663.1,31823934252.5
sh601838,成都银行,2019-12-25,8.79,8.82,8.72,8.77,8.81,12279214.0,107685009.0,16607174284.4,31679444199.2
sh601838,成都银行,2019-12-26,8.76,8.9,8.76,8.9,8.77,13508849.0,119459583.0,16853346765.2,32149036872.6
sh601838,成都银行,2019-12-27,8.89,9.08,8.88,8.98,8.9,28699286.0,257981586.0,17004837522.6,32438016979.3
sh601838,成都银行,2019-12-30,8.93,8.98,8.83,8.96,8.98,18826710.0,167731892.0,16966964833.3,32365771952.6
sh601838,成都银行,2019-12-31,8.95,9.07,8.89,9.07,8.96,21375633.0,192038574.0,17180108911.8,32763119599.4
sh601838,成都银行,2020-01-02,9.24,9.27,9.03,9.05,9.07,37252932.0,340015472.0,17142225540.4,32690874572.7
sh601838,成都银行,2020-01-03,9.05,9.05,8.93,8.95,9.05,24044321.0,215972063.0,16952808683.6,32329649439.3
sh601838,成都银行,2020-01-06,8.9,8.98,8.85,8.91,8.95,19877561.0,177263539.0,16877041940.9,32185159385.9
sh601838,成都银行,2020-01-07,9.02,9.17,9.02,9.07,8.91,31436072.0,285551298.0,17180108911.8,32763119599.4
sh601838,成都银行,2020-01-08,9.01,9.04,8.86,8.88,9.07,25214495.0,225667136.0,16820216883.8,32076791845.9
sh601838,成都银行,2020-01-09,8.94,8.99,8.9,8.95,8.88,19322922.0,172734371.0,16952808683.6,32329649439.3
sh601838,成都银行,2020-01-10,8.97,9.07,8.94,8.97,8.95,17358215.0,155945917.0,16990692055.0,32401894466.0
sh601838,成都银行,2020-01-13,8.95,9.13,8.95,9.13,8.97,24368535.0,220555689.0,17293759025.8,32979854679.4
sh601838,成都银行,2020-01-14,9.13,9.17,9.04,9.06,9.13,17387977.0,158121838.0,17161167226.1,32726997086.0
sh601838,成都银行,2020-01-15,9.06,9.08,8.99,9.0,9.06,11439684.0,103173332.0,17047517112.0,32510262006.0
sh601838,成都银行,2020-01-16,9.02,9.05,8.95,8.97,9.0,11139607.0,100159897.0,16990692055.0,32401894466.0
sh601838,成都银行,2020-01-17,8.97,9.04,8.89,8.91,8.97,12771148.0,114345619.0,16877041940.9,32185159385.9
sh601838,成都银行,2020-01-20,8.92,9.04,8.9,9.02,8.91,15032381.0,135241133.0,17085400483.4,32582507032.7
sh601838,成都银行,2020-01-21,9.02,9.05,8.88,8.9,9.02,16186134.0,144810010.0,16858100255.2,32149036872.6
sh601838,成都银行,2020-01-22,8.88,8.96,8.82,8.93,8.9,13848977.0,123205125.0,16914925312.2,32257404412.6
sh601838,成都银行,2020-01-23,8.9,8.9,8.63,8.68,8.93,24442814.0,214195179.0,16441383170.2,31354341579.1
sh601838,成都银行,2020-02-03,7.89,8.17,7.81,7.93,8.68,36611136.0,290862658.0,15021027950.2,28645153078.6
sh601838,成都银行,2020-02-04,7.97,8.24,7.96,8.2,7.93,28167041.0,228776758.0,15532462697.6,29620460938.8
sh601838,成都银行,2020-02-05,8.23,8.35,8.13,8.15,8.2,22476805.0,184557580.0,15437752559.2,29439848372.1
sh601838,成都银行,2020-02-06,8.19,8.29,8.11,8.23,8.15,23600786.0,193181378.0,15589288780.6,29728828478.8
sh601838,成都银行,2020-02-07,8.2,8.44,8.12,8.26,8.23,17118923.0,140015282.0,15646114863.7,29837196018.8
sh601838,成都银行,2020-02-10,8.2,8.26,8.17,8.24,8.26,14180496.0,116597821.0,15608230808.3,29764950992.2
sh601838,成都银行,2020-02-11,8.26,8.36,8.24,8.28,8.24,15757416.0,130793103.0,15683998919.0,29909441045.5
sh601838,成都银行,2020-02-12,8.26,8.33,8.23,8.32,8.28,12761335.0,105702528.0,15759767029.8,30053931098.9
sh601838,成都银行,2020-02-13,8.3,8.31,8.2,8.23,8.32,13728086.0,113286475.0,15589288780.6,29728828478.8
sh601838,成都银行,2020-02-14,8.2,8.32,8.2,8.29,8.23,11394352.0,94077880.0,15702940946.7,29945563558.9
sh601838,成都银行,2020-02-17,8.29,8.48,8.26,8.48,8.29,27619168.0,230523689.0,16062839472.6,30631891312.3
sh601838,成都银行,2020-02-18,8.41,8.44,8.34,8.37,8.48,21310761.0,178549385.0,15854477168.2,30234543665.6
sh601838,成都银行,2020-02-19,8.35,8.42,8.3,8.31,8.37,20180637.0,168658634.0,15740825002.1,30017808585.5
sh601838,成都银行,2020-02-20,8.32,8.51,8.29,8.49,8.31,31581774.0,265012669.0,16081781500.3,30668013825.7
sh601838,成都银行,2020-02-21,8.47,8.57,8.43,8.48,8.49,25128191.0,213019841.0,16062839472.6,30631891312.3
sh601838,成都银行,2020-02-24,8.45,8.48,8.35,8.4,8.48,25553196.0,214532495.0,15911303251.2,30342911205.6
sh601838,成都银行,2020-02-25,8.28,8.32,8.19,8.26,8.4,24563874.0,202735858.0,15646114863.7,29837196018.8
sh601838,成都银行,2020-02-26,8.2,8.42,8.16,8.3,8.26,26795643.0,222690286.0,15721882974.4,29981686072.2
sh601838,成都银行,2020-02-27,8.32,8.35,8.22,8.28,8.3,20453174.0,169298835.0,15683998919.0,29909441045.5
sh601838,成都银行,2020-02-28,8.15,8.23,8.03,8.17,8.28,25475555.0,206979415.0,15475636614.6,29512093398.8
sh601838,成都银行,2020-03-02,8.13,8.31,8.11,8.28,8.17,30328381.0,249697870.0,15683998919.0,29909441045.5
sh601838,成都银行,2020-03-03,8.32,8.33,8.22,8.25,8.28,29215603.0,241923815.0,15627172836.0,29801073505.5
sh601838,成都银行,2020-03-04,8.2,8.28,8.18,8.28,8.25,15306755.0,125898878.0,15683998919.0,29909441045.5
sh601838,成都银行,2020-03-05,8.33,8.54,8.28,8.49,8.28,48061118.0,405864920.0,16081781500.3,30668013825.7
sh601838,成都银行,2020-03-06,8.42,8.42,8.33,8.34,8.49,25475787.0,213219272.0,15797651085.1,30126176125.6
sh601838,成都银行,2020-03-09,8.23,8.23,8.08,8.1,8.34,28809492.0,234606506.0,15343042420.8,29259235805.4
sh601838,成都银行,2020-03-10,8.03,8.2,8.03,8.19,8.1,23444570.0,190660512.0,15513520669.9,29584338425.5
sh601838,成都银行,2020-03-11,8.18,8.21,8.1,8.11,8.19,20570745.0,167762662.0,15361984448.5,29295358318.7
sh601838,成都银行,2020-03-12,8.08,8.15,8.03,8.06,8.11,20534019.0,165955649.0,15267274310.1,29114745752.0
sh601838,成都银行,2020-03-13,7.82,8.02,7.65,8.01,8.06,29347252.0,231017643.0,15172564171.7,28934133185.3
sh601838,成都银行,2020-03-16,8.01,8.01,7.73,7.75,8.01,27190924.0,214220554.0,14680071452.0,27994947838.5
sh601838,成都银行,2020-03-17,7.76,7.83,7.65,7.75,7.75,18737475.0,144932916.0,14680071452.0,27994947838.5
sh601838,成都银行,2020-03-18,7.77,7.81,7.57,7.57,7.75,20363265.0,156966839.0,14339114953.8,27344742598.4
sh601838,成都银行,2020-03-19,7.55,7.6,7.36,7.45,7.57,21055055.0,157335192.0,14111810621.6,26911272438.3
sh601838,成都银行,2020-03-20,7.51,7.62,7.48,7.59,7.45,14272739.0,107654684.0,14376999009.1,27416987625.1
sh601838,成都银行,2020-03-23,7.42,7.48,7.38,7.38,7.59,13181759.0,97784867.0,13979216427.8,26658414844.9
sh601838,成都银行,2020-03-24,7.5,7.52,7.41,7.51,7.38,15760222.0,117753510.0,14225462787.7,27128007518.3
sh601838,成都银行,2020-03-25,7.65,7.67,7.56,7.61,7.51,15982711.0,121634997.0,14414883064.5,27489232651.7
sh601838,成都银行,2020-03-26,7.6,7.76,7.56,7.66,7.61,20185483.0,154906456.0,14509593202.9,27669845218.4
sh601838,成都银行,2020-03-27,7.72,7.77,7.65,7.66,7.66,12486534.0,96193776.0,14509593202.9,27669845218.4
sh601838,成都银行,2020-03-30,7.59,7.63,7.52,7.58,7.66,11533242.0,87283833.0,14358056981.4,27380865111.7
sh601838,成都银行,2020-03-31,7.65,7.66,7.5,7.53,7.58,12607902.0,95501943.0,14263346843.0,27200252545.0
sh601838,成都银行,2020-04-01,7.55,7.65,7.53,7.53,7.53,9564725.0,72505347.0,14263346843.0,27200252545.0
sh601838,成都银行,2020-04-02,7.48,7.58,7.46,7.58,7.53,9446752.0,71169837.0,14358056981.4,27380865111.7
sh601838,成都银行,2020-04-03,7.56,7.59,7.49,7.51,7.58,8230793.0,62044008.0,14225462787.7,27128007518.3
sh601838,成都银行,2020-04-07,7.6,7.66,7.59,7.62,7.51,16446760.0,125275569.0,14433825092.2,27525355165.1
sh601838,成都银行,2020-04-08,7.58,7.6,7.56,7.6,7.62,9634312.0,73064441.0,14395941036.8,27453110138.4
sh601838,成都银行,2020-04-09,7.62,7.63,7.58,7.6,7.6,8608533.0,65468623.0,14395941036.8,27453110138.4
sh601838,成都银行,2020-04-10,7.61,7.65,7.57,7.59,7.6,10444552.0,79455937.0,14376999009.1,27416987625.1
sh601838,成都银行,2020-04-13,7.55,7.55,7.5,7.53,7.59,6742716.0,50706964.0,14263346843.0,27200252545.0
sh601838,成都银行,2020-04-14,7.54,7.58,7.52,7.56,7.53,9270230.0,69963854.0,14320172926.1,27308620085.0
sh601838,成都银行,2020-04-15,7.56,7.57,7.5,7.5,7.56,9268244.0,69792092.0,14206520760.0,27091885005.0
sh601838,成都银行,2020-04-16,7.48,7.52,7.44,7.48,7.5,11329418.0,84679445.0,14168636704.6,27019639978.3
sh601838,成都银行,2020-04-17,7.53,7.58,7.48,7.52,7.48,14432157.0,108799603.0,14244404815.4,27164130031.7
sh601838,成都银行,2020-04-20,7.55,7.56,7.48,7.52,7.52,9397396.0,70593562.0,14244404815.4,27164130031.7
sh601838,成都银行,2020-04-21,7.53,7.55,7.45,7.48,7.52,12068599.0,90443352.0,14168636704.6,27019639978.3
sh601838,成都银行,2020-04-22,7.46,7.48,7.41,7.46,7.48,9514566.0,70802876.0,14130752649.3,26947394951.6
sh601838,成都银行,2020-04-23,7.47,7.47,7.43,7.44,7.46,8917226.0,66430028.0,14092868593.9,26875149925.0
sh601838,成都银行,2020-04-24,7.44,7.45,7.37,7.4,7.44,8000464.0,59206028.0,14017100483.2,26730659871.6
sh601838,成都银行,2020-04-27,7.4,7.62,7.4,7.52,7.4,20126070.0,151638437.0,14244404815.4,27164130031.7
sh601838,成都银行,2020-04-28,7.53,7.6,7.43,7.6,7.52,16296494.0,122624250.0,14395941036.8,27453110138.4
sh601838,成都银行,2020-04-29,7.62,7.81,7.59,7.76,7.6,27000482.0,208513380.0,14699013479.7,28031070351.8
sh601838,成都银行,2020-04-30,7.79,7.88,7.74,7.75,7.76,24076712.0,187807623.0,14680071452.0,27994947838.5
sh601838,成都银行,2020-05-06,7.67,7.79,7.65,7.76,7.75,15076739.0,116223838.0,14699013479.7,28031070351.8
sh601838,成都银行,2020-05-07,7.77,7.84,7.73,7.79,7.76,12490172.0,97248841.0,14755839562.7,28139437891.9
sh601838,成都银行,2020-05-08,7.83,7.87,7.79,7.83,7.79,11215839.0,87867579.0,14831607673.4,28283927945.2
sh601838,成都银行,2020-05-11,7.82,7.89,7.8,7.82,7.83,11985360.0,94043273.0,14812665645.8,28247805431.9
sh601838,成都银行,2020-05-12,7.83,7.87,7.74,7.78,7.82,8924502.0,69586265.0,14736897535.0,28103315378.5
sh601838,成都银行,2020-05-13,7.77,7.88,7.74,7.86,7.78,11040154.0,86319447.0,14888433756.5,28392295485.2
sh601838,成都银行,2020-05-14,7.83,7.84,7.75,7.76,7.86,7705477.0,60043750.0,14699013479.7,28031070351.8
sh601838,成都银行,2020-05-15,7.8,7.81,7.74,7.74,7.76,8041750.0,62517006.0,14661129424.3,27958825325.2
sh601838,成都银行,2020-05-18,7.74,7.82,7.71,7.79,7.74,9806471.0,76266006.0,14755839562.7,28139437891.9
sh601838,成都银行,2020-05-19,7.83,7.87,7.79,7.81,7.79,10317617.0,80767338.0,14793723618.1,28211682918.5
sh601838,成都银行,2020-05-20,7.8,7.83,7.72,7.8,7.81,11874825.0,92264367.0,14774781590.4,28175560405.2
sh601838,成都银行,2020-05-21,7.8,7.84,7.78,7.81,7.8,9068515.0,70839470.0,14793723618.1,28211682918.5
sh601838,成都银行,2020-05-22,7.79,7.81,7.72,7.73,7.81,11972741.0,92928475.0,14642187396.6,27922702811.8
sh601838,成都银行,2020-05-25,7.73,7.79,7.71,7.77,7.73,11031732.0,85581030.0,14717955507.4,28067192865.2
sh601838,成都银行,2020-05-26,7.8,7.85,7.78,7.84,7.77,9355325.0,73168937.0,14850549701.1,28320050458.6
sh601838,成都银行,2020-05-27,7.86,7.97,7.82,7.92,7.84,14851613.0,117675334.0,15002085922.6,28609030565.3
sh601838,成都银行,2020-05-28,7.97,8.03,7.92,7.96,7.92,13795162.0,109974198.0,15077854033.3,28753520618.6
sh601838,成都银行,2020-05-29,7.96,7.97,7.9,7.97,7.96,11135680.0,88416390.0,15096796061.0,28789643132.0
sh601838,成都银行,2020-06-01,7.98,8.03,7.97,8.0,7.97,12529881.0,100224505.0,15153622144.0,28898010672.0
sh601838,成都银行,2020-06-02,8.0,8.06,7.98,8.01,8.0,7938392.0,63653588.0,15172564171.7,28934133185.3
sh601838,成都银行,2020-06-03,8.04,8.12,7.97,7.97,8.01,13083708.0,105258281.0,15096796061.0,28789643132.0
sh601838,成都银行,2020-06-04,7.98,8.01,7.92,7.92,7.97,8288218.0,65833028.0,15002085922.6,28609030565.3
sh601838,成都银行,2020-06-05,7.95,7.98,7.88,7.94,7.92,8355678.0,66266607.0,15039969977.9,28681275592.0
sh601838,成都银行,2020-06-08,7.98,7.99,7.92,7.94,7.94,8133579.0,64623079.0,15039969977.9,28681275592.0
sh601838,成都银行,2020-06-09,7.95,7.97,7.89,7.92,7.94,10094927.0,79954077.0,15002085922.6,28609030565.3
sh601838,成都银行,2020-06-10,7.95,7.97,7.88,7.88,7.92,13059322.0,103394451.0,14926317811.8,28464540511.9
sh601838,成都银行,2020-06-11,7.89,7.91,7.79,7.81,7.88,13211763.0,103679500.0,14793723618.1,28211682918.5
sh601838,成都银行,2020-06-12,7.74,7.89,7.72,7.89,7.81,21216577.0,165452819.0,14945259839.5,28500663025.3
sh601838,成都银行,2020-06-15,7.85,7.93,7.81,7.88,7.89,16195583.0,127803911.0,14926317811.84,28464540511.92
sh601838,成都银行,2020-06-16,7.92,7.93,7.87,7.9,7.88,7245088.0,57221640.0,14964201867.2,28536785538.6
sh601838,成都银行,2020-06-17,7.9,7.94,7.86,7.92,7.9,8637942.0,68265137.0,15002085922.56,28609030565.280006
sh601838,成都银行,2020-06-18,7.88,7.92,7.84,7.89,7.92,7901720.0,62272604.0,14945259839.52,28500663025.26
sh601838,成都银行,2020-06-19,7.91,7.91,7.85,7.9,7.89,11806709.0,93132751.0,14964201867.2,28536785538.6
sh601838,成都银行,2020-06-22,7.87,7.97,7.86,7.89,7.9,15239246.0,120611907.0,14945259839.52,28500663025.26
sh601838,成都银行,2020-06-23,7.89,7.9,7.83,7.85,7.89,9347246.0,73457143.0,14869491728.8,28356172971.9
sh601838,成都银行,2020-06-24,7.87,8.04,7.86,7.95,7.85,13214694.0,105180633.0,15058912005.6,28717398105.3
sh601838,成都银行,2020-06-29,8.0,8.03,7.9,7.9,7.95,9506754.0,75615560.0,14964201867.2,28536785538.6
sh601838,成都银行,2020-06-30,7.93,7.99,7.92,7.96,7.9,9489876.0,75506359.0,15077854033.28,28753520618.64
sh601838,成都银行,2020-07-01,7.99,8.08,7.93,8.08,7.96,16222180.0,130104773.0,15305158365.44,29186990778.72
sh601838,成都银行,2020-07-02,8.07,8.35,8.05,8.33,8.08,34132946.0,280870067.0,15778709057.44,30090053612.22
sh601838,成都银行,2020-07-03,8.46,8.64,8.34,8.52,8.33,42994509.0,365924380.0,16138607583.36,30776381365.68
sh601838,成都银行,2020-07-06,8.69,9.37,8.67,9.37,8.52,85828178.0,778463245.0,17748679936.16,33846794999.58
sh601838,成都银行,2020-07-07,9.55,9.85,9.1,9.1,9.37,76011335.0,709621473.0,17237245188.8,32871487139.4
sh601838,成都银行,2020-07-08,9.06,9.67,9.03,9.51,9.1,59036601.0,550060956.0,18013868323.68,34352510186.34
sh601838,成都银行,2020-07-09,9.53,9.84,9.42,9.69,9.51,57546614.0,552661815.0,18354824821.92,35002715426.46
sh601838,成都银行,2020-07-10,9.57,9.58,9.35,9.53,9.69,65759020.0,622981810.0,18051752379.04,34424755213.020004
sh601838,XD成都银,2020-07-13,8.9,9.06,8.72,8.92,9.11,40220408.0,357392105.0,16896288690.56,32221281899.28
sh601838,成都银行,2020-07-14,8.92,8.96,8.57,8.61,8.92,39061928.0,340970597.0,16309085832.48,31101483985.74
sh601838,成都银行,2020-07-15,8.69,8.72,8.34,8.41,8.61,35407598.0,301227228.0,15930245278.88,30379033718.94
sh601838,成都银行,2020-07-16,8.45,8.63,8.33,8.36,8.41,33701145.0,286669967.0,15835535140.48,30198421152.24
sh601838,成都银行,2020-07-17,8.43,8.49,8.26,8.39,8.36,22092808.0,185156287.0,15892361223.52,30306788692.26
sh601838,成都银行,2020-07-20,8.47,8.84,8.43,8.75,8.39,36200019.0,313714086.0,16574274220.0,31607199172.5
sh601838,成都银行,2020-07-21,8.78,8.79,8.53,8.64,8.75,22694214.0,195598916.0,16365911915.52,31209851525.76
sh601838,成都银行,2020-07-22,8.6,8.75,8.51,8.57,8.64,21296461.0,183571498.0,16233317721.76,30956993932.38
sh601838,成都银行,2020-07-23,8.48,8.56,8.32,8.47,8.57,18495798.0,156006641.0,16043897444.96,30595768798.98
sh601838,成都银行,2020-07-24,8.42,8.54,8.16,8.21,8.47,22152216.0,184352473.0,15551404725.28,29656583452.14
sh601838,成都银行,2020-07-27,8.26,8.28,8.1,8.15,8.21,12928814.0,105643790.0,15437752559.2,29439848372.1
sh601838,成都银行,2020-07-28,8.22,8.3,8.17,8.27,8.15,13969616.0,115121790.0,15665056891.36,29873318532.18
sh601838,成都银行,2020-07-29,8.25,8.43,8.2,8.41,8.27,17982893.0,150245403.0,15930245278.88,30379033718.94
sh601838,成都银行,2020-07-30,8.41,8.41,8.26,8.26,8.41,17487924.0,145543869.0,15646114863.68,29837196018.84
sh601838,成都银行,2020-07-31,8.27,8.38,8.24,8.31,8.26,16485609.0,137187515.0,15740825002.08,30017808585.54
sh601838,成都银行,2020-08-03,8.4,8.47,8.32,8.4,8.31,22200813.0,186336098.0,15911303251.2,30342911205.6
sh601838,成都银行,2020-08-04,8.46,9.24,8.39,9.24,8.4,136098189.0,1237838025.0,17502433576.32,33377202326.16
sh601838,成都银行,2020-08-05,9.0,9.03,8.81,8.87,9.24,99932908.0,889307640.0,16801578552.16,32040669332.58
sh601838,成都银行,2020-08-06,8.95,9.41,8.88,9.25,8.87,92224285.0,844501470.0,17521375604.0,33413324839.5
sh601838,成都银行,2020-08-07,9.1,9.49,8.96,9.16,9.25,66941257.0,613715388.0,17350897354.88,33088222219.44
sh601838,成都银行,2020-08-10,9.08,9.37,8.87,9.12,9.16,52730517.0,482207781.0,17275129244.16,32943732166.08
sh601838,成都银行,2020-08-11,9.31,10.03,9.3,9.71,9.12,158692740.0,1573106388.0,18392708877.28,35074960453.14
sh601838,成都银行,2020-08-12,9.46,10.2,9.42,9.72,9.71,124896637.0,1229306365.0,18411650904.96,35111082966.48
sh601838,成都银行,2020-08-13,9.83,9.96,9.38,9.7,9.72,72720349.0,706666493.0,18373766849.6,35038837939.8
sh601838,成都银行,2020-08-14,9.6,10.5,9.56,10.07,9.7,91007728.0,907005613.0,19074621873.76,36375370933.380005
sh601838,成都银行,2020-08-17,10.19,11.08,10.07,11.08,10.07,90720549.0,970806368.0,20987766669.44,40023744780.72
sh601838,成都银行,2020-08-18,11.3,11.67,10.75,11.34,11.08,192945821.0,2165252720.0,21480259389.12,40962930127.56
sh601838,成都银行,2020-08-19,11.1,11.5,10.81,11.06,11.34,127345022.0,1416012891.0,20949882614.08,39951499754.04
sh601838,成都银行,2020-08-20,10.63,10.8,10.18,10.29,11.06,121122071.0,1267192779.0,19491346482.72,37170066226.86
sh601838,成都银行,2020-08-21,10.32,10.43,10.09,10.1,10.29,81751220.0,838737713.0,19131447956.8,36483738473.4
sh601838,成都银行,2020-08-24,10.18,10.24,9.79,9.94,10.1,60252750.0,601307095.0,18828375513.92,35905778259.96
sh601838,成都银行,2020-08-25,10.0,10.12,9.87,10.02,9.94,50338022.0,502770362.0,18979911735.36,36194758366.68
sh601838,成都银行,2020-08-26,9.93,10.02,9.7,9.84,10.02,42242501.0,416108793.0,18638955237.120003,35544553126.56
sh601838,成都银行,2020-08-27,9.79,9.86,9.59,9.82,9.84,38772254.0,377293415.0,18601071181.76,35472308099.88
sh601838,成都银行,2020-08-28,9.9,10.36,9.85,10.25,9.82,80759933.0,822250588.0,19415578372.0,37025576173.5
sh601838,成都银行,2020-08-31,10.2,10.81,10.16,10.16,10.25,70401261.0,739402695.0,19251521242.88,36700473553.44
sh601838,成都银行,2020-09-01,10.2,10.35,10.1,10.23,10.16,37283603.0,380622938.0,19384159676.64,36953331146.82
sh601838,成都银行,2020-09-02,10.26,10.33,9.9,10.01,10.23,47596970.0,479125902.0,18967296027.68,36158635853.34
sh601838,成都银行,2020-09-03,9.99,10.2,9.9,9.99,10.01,30900515.0,309349416.0,18929399332.32,36086390826.66
sh601838,成都银行,2020-09-04,9.8,9.89,9.66,9.87,9.99,33074826.0,323554924.0,18702019160.16,35652920666.58
sh601838,成都银行,2020-09-07,9.87,9.94,9.64,9.69,9.87,27136111.0,265749591.0,18360948901.92,35002715426.46
sh601838,成都银行,2020-09-08,9.7,10.07,9.68,10.04,9.69,40727046.0,404892574.0,19024141070.72,36267003393.36
sh601838,成都银行,2020-09-09,9.92,10.32,9.9,10.01,10.04,41944797.0,424311480.0,18967296027.68,36158635853.34
sh601838,成都银行,2020-09-10,10.11,10.44,9.98,10.33,10.01,56775405.0,581207833.0,19573643153.44,37314556280.22
sh601838,成都银行,2020-09-11,10.34,10.34,9.92,10.13,10.33,37807433.0,381239565.0,19194676199.84,36592106013.42
sh601838,成都银行,2020-09-14,10.05,10.56,10.01,10.51,10.13,52716369.0,542469628.0,19914713411.68,37964761520.34
sh601838,成都银行,2020-09-15,10.45,10.66,10.34,10.6,10.51,40239367.0,424179544.0,20085248540.8,38289864140.4
sh601838,成都银行,2020-09-16,10.53,10.68,10.4,10.47,10.6,25458096.0,267674971.0,19838920020.96,37820271466.98
sh601838,成都银行,2020-09-17,10.45,10.52,10.12,10.33,10.47,27194248.0,281202941.0,19573643153.44,37314556280.22
sh601838,成都银行,2020-09-18,10.32,10.97,10.22,10.83,10.33,53664750.0,572613030.0,20521060537.44,39120681947.22
sh601838,成都银行,2020-09-21,10.83,10.92,10.64,10.73,10.83,28222589.0,302902313.0,20331577060.64,38759456813.82
sh601838,成都银行,2020-09-22,10.65,10.95,10.5,10.53,10.73,27420914.0,292115452.0,19952610107.04,38037006547.02
sh601838,成都银行,2020-09-23,10.58,10.59,10.35,10.39,10.53,21294120.0,221749611.0,19687333239.52,37531291360.26
sh601838,成都银行,2020-09-24,10.32,10.39,10.13,10.15,10.39,21946569.0,224708401.0,19232572895.2,36664351040.1
sh601838,成都银行,2020-09-25,10.19,10.23,9.91,10.03,10.15,21271124.0,213901986.0,19005192723.04,36230880880.02
sh601838,成都银行,2020-09-28,10.07,10.09,9.93,10.01,10.03,15288217.0,153038056.0,18967296027.68,36158635853.34
sh601838,成都银行,2020-09-29,10.08,10.1,9.78,9.83,10.01,28910175.0,286937346.0,18626225769.44,35508430613.22
sh601838,成都银行,2020-09-30,9.77,9.97,9.77,9.88,9.83,20233830.0,199935069.0,18720967507.84,35689043179.92
sh601838,成都银行,2020-10-09,10.02,10.05,9.84,9.91,9.88,22793241.0,225877620.0,18777812550.88,35797410719.94
sh601838,成都银行,2020-10-12,9.9,10.25,9.86,10.21,9.91,31256259.0,315370175.0,19346262981.28,36881086120.14
sh601838,成都银行,2020-10-13,10.18,10.18,9.95,10.11,10.21,24001461.0,241089712.0,19156779504.48,36519860986.74
sh601838,成都银行,2020-10-14,10.2,10.35,10.1,10.18,10.11,27665123.0,282503653.0,19289417938.24,36772718580.12
sh601838,成都银行,2020-10-15,10.19,10.7,10.16,10.43,10.18,37908133.0,396740422.0,19763126630.24,37675781413.62
sh601838,成都银行,2020-10-16,10.36,11.3,10.31,10.98,10.43,62319499.0,680356292.0,20805285752.64,39662519647.32
sh601838,成都银行,2020-10-19,11.15,11.47,10.9,11.04,10.98,64964322.0,725919345.0,20918975838.72,39879254727.36
sh601838,成都银行,2020-10-20,10.96,11.01,10.63,10.69,11.04,41759708.0,449260141.0,20255783669.92,38614966760.46
sh601838,成都银行,2020-10-21,10.73,11.66,10.6,11.36,10.69,84024791.0,933585930.0,21525322964.48,41035175154.24
sh601838,成都银行,2020-10-22,11.37,11.55,11.05,11.15,11.36,53047874.0,594862338.0,21127407663.2,40276602374.1
sh601838,成都银行,2020-10-23,11.09,11.77,11.08,11.44,11.15,65433358.0,751188583.0,21676909745.92,41324155260.96
sh601838,成都银行,2020-10-26,11.33,11.46,10.88,11.11,11.44,48829247.0,540298128.0,21051614272.480003,40132112320.74
sh601838,成都银行,2020-10-27,11.0,11.16,10.87,10.97,11.11,28717196.0,315613926.0,20786337404.96,39626397133.98
sh601838,成都银行,2020-10-28,10.92,11.0,10.56,10.67,10.97,43373994.0,463792307.0,20217886974.56,38542721733.78
sh601838,成都银行,2020-10-29,10.4,10.72,10.11,10.6,10.67,41285298.0,431008318.0,20085248540.8,38289864140.4
sh601838,成都银行,2020-10-30,10.55,10.83,10.3,10.35,10.6,40244314.0,425734261.0,19611539848.8,37386801306.9
sh601838,成都银行,2020-11-02,10.34,10.55,10.04,10.18,10.35,45454987.0,465125294.0,19289417938.24,36772718580.12
sh601838,成都银行,2020-11-03,10.3,10.72,10.28,10.41,10.18,39915958.0,417509926.0,19725229934.88,37603536386.94
sh601838,成都银行,2020-11-04,10.66,10.82,10.42,10.61,10.41,47762798.0,506671776.0,20104196888.48,38325986653.74
sh601838,成都银行,2020-11-05,10.71,10.73,10.26,10.49,10.61,48270745.0,502352782.0,19876816716.32,37892516493.66
sh601838,成都银行,2020-11-06,10.42,10.52,10.32,10.37,10.49,26698111.0,277954290.0,19649436544.16,37459046333.58
sh601838,成都银行,2020-11-09,10.42,10.54,10.26,10.4,10.37,45031739.0,467679570.0,19706281587.2,37567413873.6
sh601838,成都银行,2020-11-10,10.47,10.63,10.21,10.22,10.4,42776180.0,445768492.0,19365211328.96,36917208633.48
sh601838,成都银行,2020-11-11,10.15,10.3,9.96,10.18,10.22,38247780.0,386856754.0,19289417938.24,36772718580.12
sh601838,成都银行,2020-11-12,10.16,10.17,10.04,10.06,10.18,17516868.0,176678549.0,19062037766.08,36339248420.04
sh601838,成都银行,2020-11-13,10.03,10.06,9.69,9.78,10.06,43683411.0,427375705.0,18531484031.04,35327818046.52
sh601838,成都银行,2020-11-16,9.75,9.86,9.72,9.82,9.78,18242507.0,178908704.0,18607277421.76,35472308099.88
sh601838,成都银行,2020-11-17,9.87,10.09,9.85,10.06,9.82,32285366.0,322215426.0,19062037766.08,36339248420.04
sh601838,成都银行,2020-11-18,10.02,10.25,9.93,10.13,10.06,34656641.0,351499040.0,19194676199.84,36592106013.42
sh601838,成都银行,2020-11-19,10.06,10.36,10.01,10.36,10.13,39683934.0,404541274.0,19630488196.48,37422923820.24
sh601838,成都银行,2020-11-20,10.32,10.54,10.19,10.32,10.36,31710497.0,327277770.0,19554694805.76,37278433766.88
sh601838,成都银行,2020-11-23,10.28,10.7,10.24,10.58,10.32,51120297.0,538841963.0,20047351845.44,38217619113.72
sh601838,成都银行,2020-11-24,10.61,10.68,10.46,10.59,10.58,40873328.0,432866724.0,20066300193.12,38253741627.06
sh601838,成都银行,2020-11-25,10.75,10.87,10.51,10.52,10.59,35255386.0,376918262.0,19933661759.36,38000884033.68
sh601838,成都银行,2020-11-26,10.5,10.81,10.46,10.74,10.52,36924006.0,394051234.0,20350525408.32,38795579327.16
sh601838,成都银行,2020-11-27,10.74,11.36,10.72,11.28,10.74,86287778.0,962125126.0,21373736183.04,40746195047.52
sh601838,成都银行,2020-11-30,11.51,11.98,11.37,11.38,11.28,109332390.0,1272956383.0,21565999224.840004,41107420180.92
sh601838,成都银行,2020-12-01,11.49,11.95,11.22,11.83,11.38,76297303.0,885298105.0,22418784782.94,42732933281.22
sh601838,成都银行,2020-12-02,11.72,11.95,11.52,11.59,11.83,47216327.0,553096734.0,21963965818.62,41865992961.06
sh601838,成都银行,2020-12-03,11.79,12.5,11.63,11.88,11.59,88562650.0,1065455089.0,22513538733.84,42913545847.920006
sh601838,成都银行,2020-12-04,11.69,11.78,11.31,11.53,11.88,54210203.0,624493571.0,21850261077.54,41649257881.02
sh601838,成都银行,2020-12-07,11.61,11.7,11.47,11.5,11.53,40010951.0,463081354.0,21793408707.0,41540890341.0
sh601838,成都银行,2020-12-08,11.68,11.74,11.3,11.35,11.5,39138053.0,450293516.0,21509146854.3,40999052640.9
sh601838,成都银行,2020-12-09,11.39,11.55,11.22,11.23,11.35,33887754.0,385015133.0,21281737372.14,40565582480.82
sh601838,成都银行,2020-12-10,11.15,11.27,11.02,11.08,11.23,22933608.0,255245485.0,20997475519.44,40023744780.72
sh601838,成都银行,2020-12-11,11.18,11.22,10.92,10.97,11.08,30177998.0,333347752.0,20789016827.46,39626397133.98
sh601838,成都银行,2020-12-14,11.04,11.14,10.88,10.96,10.97,24184632.0,265707748.0,20770066037.280003,39590274620.64
sh601838,成都银行,2020-12-15,10.9,10.95,10.48,10.58,10.96,51163521.0,544104706.0,20049936010.44,38217619113.72
sh601838,成都银行,2020-12-16,10.69,10.74,10.48,10.51,10.58,28524863.0,301973077.0,19917280479.18,37964761520.34
sh601838,成都银行,2020-12-17,10.54,10.72,10.4,10.68,10.51,31480661.0,333472621.0,20239443912.24,38578844247.12
sh601838,成都银行,2020-12-18,10.6,10.77,10.5,10.5,10.68,21664624.0,229206718.0,19898329689.0,37928639007.0
sh601838,成都银行,2020-12-21,10.5,10.61,10.39,10.6,10.5,28342051.0,298216336.0,20087837590.8,38289864140.4
sh601838,成都银行,2020-12-22,10.64,10.7,10.26,10.3,10.6,34781053.0,365258047.0,19519313885.4,37206188740.2
sh601838,成都银行,2020-12-23,10.3,10.48,10.19,10.39,10.3,31701879.0,326895546.0,19689870997.02,37531291360.26
sh601838,成都银行,2020-12-24,10.41,10.63,10.39,10.51,10.39,27332385.0,287554451.0,19917280479.18,37964761520.34
sh601838,成都银行,2020-12-25,10.46,10.57,10.37,10.44,10.51,18334899.0,191687988.0,19784624947.92,37711903926.96
sh601838,成都银行,2020-12-28,10.45,10.67,10.27,10.61,10.44,34525452.0,363554130.0,20106788380.98,38325986653.74
sh601838,成都银行,2020-12-29,10.71,10.89,10.47,10.5,10.61,27153839.0,289214855.0,19898329689.0,37928639007.0
sh601838,成都银行,2020-12-30,10.43,10.63,10.33,10.63,10.5,26186641.0,274946931.0,20144689961.34,38398231680.42
sh601838,成都银行,2020-12-31,10.57,10.86,10.53,10.67,10.63,35038485.0,374545351.0,20220493122.06,38542721733.78
sh601838,成都银行,2021-01-04,10.4,10.4,9.61,9.81,10.67,116885714.0,1151660395.0,18590725166.58,35436185586.54
sh601838,成都银行,2021-01-05,9.8,9.8,9.35,9.42,9.81,78005569.0,737734020.0,17851644349.56,34027407566.280003
sh601838,成都银行,2021-01-06,9.39,9.63,9.35,9.62,9.42,49904213.0,475053337.0,18230660153.16,34749857833.08
sh601838,成都银行,2021-01-07,9.63,9.71,9.22,9.45,9.62,62527310.0,590073096.0,17908496720.100002,34135775106.3
sh601838,成都银行,2021-01-08,9.4,9.55,9.3,9.41,9.45,32780191.0,309209630.0,17832693559.379997,33991285052.94
sh601838,成都银行,2021-01-11,9.45,9.64,9.36,9.43,9.41,39864379.0,379460417.0,17870595139.74,34063530079.620003
sh601838,成都银行,2021-01-12,9.44,9.44,9.19,9.39,9.43,36928000.0,342861130.0,17794791979.02,33919040026.26
sh601838,成都银行,2021-01-13,9.4,9.43,9.14,9.16,9.39,40232778.0,370321920.0,17358923804.88,33088222219.44
sh601838,成都银行,2021-01-14,9.13,9.26,8.97,9.08,9.16,32660333.0,297601181.0,17207317483.44,32799242112.72
sh601838,成都银行,2021-01-15,9.24,9.87,9.24,9.72,9.08,97159290.0,932841512.0,18420168054.96,35111082966.48
sh601838,成都银行,2021-01-18,9.68,10.17,9.63,9.94,9.72,69759244.0,689957736.0,18837085438.92,35905778259.96
sh601838,成都银行,2021-01-19,10.12,10.85,9.94,10.61,9.94,102426333.0,1070675840.0,20106788380.98,38325986653.74
sh601838,成都银行,2021-01-20,10.5,10.7,10.19,10.34,10.61,58768936.0,612599088.0,19595117046.12,37350678793.56
sh601838,成都银行,2021-01-21,10.27,10.67,10.26,10.5,10.34,44874703.0,471801290.0,19898329689.0,37928639007.0
sh601838,成都银行,2021-01-22,10.49,10.49,10.0,10.12,10.5,37129905.0,378280748.0,19178199662.16,36555983500.08
sh601838,成都银行,2021-01-25,10.1,10.1,9.64,9.86,10.12,44349905.0,433005369.0,18685479117.48,35616798153.24
sh601838,成都银行,2021-01-26,9.8,10.35,9.65,10.25,9.86,47567994.0,479868772.0,19424559934.5,37025576173.5
sh601838,成都银行,2021-01-27,10.12,10.68,10.08,10.39,10.25,44110255.0,460731579.0,19689870997.02,37531291360.26
sh601838,成都银行,2021-01-28,10.26,10.35,9.98,10.06,10.39,33077726.0,335522633.0,19064494921.08,36339248420.04
sh601838,成都银行,2021-01-29,10.14,10.7,10.12,10.42,10.06,59738122.0,624547180.0,19746723367.56,37639658900.28
sh601838,成都银行,2021-02-01,9.92,10.42,9.7,10.24,10.42,63355970.0,644365902.0,36861032079.36,36989453660.16
sh601838,成都银行,2021-02-02,10.31,10.54,10.02,10.2,10.24,44698169.0,458548183.0,36717043672.8,36844963606.8
sh601838,成都银行,2021-02-03,10.18,10.82,10.07,10.58,10.2,63929866.0,673794922.0,38084933535.12,38217619113.72
sh601838,成都银行,2021-02-04,10.55,11.25,10.48,10.79,10.58,71993722.0,786379396.0,38840872669.56,38976191893.86
sh601838,成都银行,2021-02-05,10.8,11.28,10.75,11.02,10.79,87955615.0,967118891.0,39668806007.28,39807009700.68
sh601838,成都银行,2021-02-08,11.0,11.04,10.32,10.66,11.02,78373749.0,831459689.0,38372910348.240005,38506599220.44
sh601838,成都银行,2021-02-09,10.61,10.67,10.43,10.66,10.66,38383314.0,404864253.0,38372910348.240005,38506599220.44
sh601838,成都银行,2021-02-10,10.63,10.95,10.32,10.38,10.66,53592475.0,564645757.0,37364991502.32,37495168846.920006
sh601838,成都银行,2021-02-18,10.42,11.15,10.42,11.03,10.38,75978269.0,822528231.0,39704803108.92,39843132214.02
sh601838,成都银行,2021-02-19,10.95,11.5,10.9,11.3,11.03,62873994.0,708508493.0,40676724853.2,40818440074.200005
sh601838,成都银行,2021-02-22,11.21,11.4,10.99,11.19,11.3,54896542.0,614728679.0,40280756735.16,40421092427.46
sh601838,成都银行,2021-02-23,11.11,12.31,11.11,12.0,11.19,122270397.0,1464146498.0,43196521968.0,43347016008.0
sh601838,成都银行,2021-02-24,11.91,12.11,11.06,11.19,12.0,124104643.0,1422168644.0,40280756735.16,40421092427.46
sh601838,成都银行,2021-02-25,11.29,11.56,10.99,11.2,11.19,76066386.0,853975955.0,40316753836.8,40457214940.8
sh601838,成都银行,2021-02-26,10.96,11.17,10.71,11.0,11.2,62076282.0,676658176.0,39596811804.0,39734764674.0
sh601838,成都银行,2021-03-01,10.98,11.11,10.87,11.03,11.0,33756012.0,370986833.0,39704803108.92,39843132214.02
sh601838,成都银行,2021-03-02,11.06,11.1,10.74,10.81,11.03,36779161.0,401533224.0,38912866872.84,39048436920.54
sh601838,成都银行,2021-03-03,10.79,11.38,10.77,11.34,10.81,57565864.0,644699416.0,40820713259.76,40962930127.56
sh601838,成都银行,2021-03-04,11.22,11.51,11.12,11.26,11.34,45532131.0,515662430.0,40532736446.64,40673950020.84
sh601838,成都银行,2021-03-05,11.53,11.88,11.31,11.74,11.26,77968487.0,906391495.0,42260597325.36,42407830661.16
sh601838,成都银行,2021-03-08,11.68,11.76,11.32,11.34,11.74,53417896.0,618199740.0,40820713259.76,40962930127.56
sh601838,成都银行,2021-03-09,11.42,11.53,10.96,11.15,11.34,47690212.0,535221072.0,40136768328.6,40276602374.1
sh601838,成都银行,2021-03-10,11.1,11.24,10.6,10.78,11.15,50105108.0,543105022.0,38804875567.92,38940069380.52
sh601838,成都银行,2021-03-11,10.89,11.48,10.86,11.42,10.78,56473200.0,635617420.0,41108690072.88,41251910234.28
sh601838,成都银行,2021-03-12,11.38,11.66,11.33,11.61,11.42,44965176.0,518238221.0,41792635004.04,41938237987.74
sh601838,成都银行,2021-03-15,11.6,11.98,11.46,11.74,11.61,46263613.0,542849923.0,42260597325.36,42407830661.16
sh601838,成都银行,2021-03-16,11.83,12.35,11.75,12.26,11.74,74133450.0,896152930.0,44132446610.64,44286201354.84
sh601838,成都银行,2021-03-17,12.27,12.27,11.96,12.16,12.26,36530786.0,442087444.0,43772475594.24,43924976221.44
sh601838,成都银行,2021-03-18,12.06,12.25,11.97,12.09,12.16,28751132.0,347629750.0,43520495882.76,43672118628.06
sh601838,成都银行,2021-03-19,12.07,12.19,11.58,11.65,12.09,44236006.0,521968650.0,41936623410.6,42082728041.1
sh601838,成都银行,2021-03-22,11.57,11.86,11.52,11.61,11.65,35719233.0,416892021.0,41792635004.04,41938237987.74
sh601838,成都银行,2021-03-23,11.49,12.03,11.46,11.67,11.61,48670076.0,574156150.0,42008617613.88,42154973067.78
sh601838,成都银行,2021-03-24,11.59,11.66,11.32,11.38,11.67,34780269.0,397909364.0,40964701666.32,41107420180.92
sh601838,成都银行,2021-03-25,11.34,11.53,11.25,11.31,11.38,23553353.0,268334215.0,40712721954.84,40854562587.54
sh601838,成都银行,2021-03-26,11.39,11.56,11.31,11.4,11.31,29129788.0,332204596.0,41036695869.6,41179665207.6
sh601838,成都银行,2021-03-29,11.39,11.53,11.26,11.51,11.4,32034262.0,365247910.0,41432663987.64,41577012854.34
sh601838,成都银行,2021-03-30,11.44,11.45,11.11,11.36,11.51,32916187.0,371021590.0,40892707463.04,41035175154.24
sh601838,成都银行,2021-03-31,11.33,11.35,11.1,11.26,11.36,24501253.0,274580937.0,40532736446.64,40673950020.84
sh601838,成都银行,2021-04-01,11.22,11.3,11.09,11.17,11.26,18535247.0,207119527.0,40208762531.88,40348847400.78
sh601838,成都银行,2021-04-02,11.19,11.22,10.92,10.95,11.17,23550250.0,259308518.0,39416826295.8,39554152107.3
sh601838,成都银行,2021-04-06,10.97,11.21,10.95,11.09,10.95,16741033.0,185845366.0,39920785718.76,40059867294.06
sh601838,成都银行,2021-04-07,11.08,11.21,11.04,11.13,11.09,19414920.0,215745991.0,40064774125.32,40204357347.42
sh601838,成都银行,2021-04-08,11.08,11.13,10.93,10.95,11.13,24451351.0,268973603.0,39416826295.8,39554152107.3
sh601838,成都银行,2021-04-09,10.97,11.07,10.93,11.03,10.95,12370906.0,136119292.0,39704803108.92,39843132214.02
sh601838,成都银行,2021-04-12,11.03,11.05,10.83,10.89,11.03,17918884.0,195555175.0,39200843685.96,39337417027.26
sh601838,成都银行,2021-04-13,10.89,10.98,10.62,10.68,10.89,20926570.0,224778089.0,38444904551.52,38578844247.12
sh601838,成都银行,2021-04-14,10.68,10.73,10.53,10.6,10.68,22787369.0,241813391.0,38156927738.4,38289864140.4
sh601838,成都银行,2021-04-15,10.6,10.62,10.35,10.54,10.6,18409291.0,192936769.0,37940945128.56,38073129060.36
sh601838,成都银行,2021-04-16,10.51,10.6,10.48,10.53,10.54,14022891.0,147782028.0,37904948026.92,38037006547.02
sh601838,成都银行,2021-04-19,10.55,10.97,10.32,10.91,10.53,31273709.0,334989132.0,39272837889.240005,39409662053.94
sh601838,成都银行,2021-04-20,10.81,11.03,10.8,10.97,10.91,20636347.0,225909324.0,39488820499.08,39626397133.98
sh601838,成都银行,2021-04-21,10.96,11.2,10.95,11.11,10.97,22175083.0,246037615.0,39992779922.04,40132112320.74
sh601838,成都银行,2021-04-22,11.11,11.15,10.84,10.91,11.11,15814246.0,173450467.0,39272837889.240005,39409662053.94
sh601838,成都银行,2021-04-23,10.87,11.04,10.85,10.94,10.91,12494064.0,136542478.0,39380829194.16,39518029593.96
sh601838,成都银行,2021-04-26,11.01,11.35,11.01,11.13,10.94,30855281.0,345467911.0,40064774125.32,40204357347.42
sh601838,成都银行,2021-04-27,11.13,11.34,11.12,11.31,11.13,22610832.0,254762530.0,40712721954.84,40854562587.54
sh601838,成都银行,2021-04-28,11.3,11.44,11.14,11.4,11.31,21796329.0,246529376.0,41036695869.6,41179665207.6
sh601838,成都银行,2021-04-29,11.79,12.07,11.61,11.93,11.4,61961799.0,735217032.0,42944542256.52,43094158414.62
sh601838,成都银行,2021-04-30,11.93,12.15,11.84,11.93,11.93,56358763.0,675898743.0,42944542256.52,43094158414.62
sh601838,成都银行,2021-05-06,11.95,12.71,11.95,12.58,11.93,66175246.0,824155790.0,45284353863.12,45442121781.72
sh601838,成都银行,2021-05-07,12.51,12.85,12.45,12.77,12.58,45956902.0,584305431.0,45968298794.28,46128449535.18001
sh601838,成都银行,2021-05-10,12.75,12.8,12.36,12.79,12.77,31515611.0,397811164.0,46040292997.56,46200694561.86
sh601838,成都银行,2021-05-11,12.64,13.03,12.61,12.91,12.79,30735453.0,394627931.0,46472258217.240005,46634164721.94
sh601838,成都银行,2021-05-12,12.89,13.08,12.8,12.84,12.91,24881020.0,321357513.0,46220278505.76,46381307128.560005
sh601838,成都银行,2021-05-13,12.75,12.89,12.58,12.66,12.84,27692724.0,351732276.0,45572330676.24,45731101888.44
sh601838,成都银行,2021-05-14,12.7,13.12,12.64,12.9,12.66,28596775.0,368392522.0,46436261115.6,46598042208.6
sh601838,成都银行,2021-05-17,12.96,13.03,12.58,12.94,12.9,20806607.0,267502623.0,46580249522.16,46742532261.96001
sh601838,成都银行,2021-05-18,12.83,12.94,12.74,12.83,12.94,12097650.0,155342578.0,46184281404.12,46345184615.22
sh601838,成都银行,2021-05-19,12.75,13.07,12.7,12.9,12.83,15582631.0,200642058.0,46436261115.6,46598042208.6
sh601838,成都银行,2021-05-20,12.8,13.34,12.76,13.23,12.9,30808322.0,403280782.0,47624165469.72,47790085148.82
sh601838,成都银行,2021-05-21,13.23,13.33,12.53,12.68,13.23,31849662.0,408368402.0,45644324879.52,45803346915.12
sh601838,成都银行,2021-05-24,12.84,13.26,12.7,12.86,12.68,30242716.0,390176988.0,46292272709.04,46453552155.24
sh601838,成都银行,2021-05-25,12.96,13.3,12.29,13.26,12.86,29959551.0,391063507.0,47732156774.64,47898452688.84
sh601838,成都银行,2021-05-26,13.25,13.95,13.13,13.58,13.26,34916962.0,473879082.0,48884064027.12,49054373115.72
sh601838,成都银行,2021-05-27,13.47,13.55,13.17,13.29,13.58,23823933.0,316691261.0,47840148079.56,48006820228.85999
sh601838,成都银行,2021-05-28,13.4,13.4,13.15,13.24,13.29,15021434.0,198908858.0,47660162571.36,47826207662.16
sh601838,成都银行,2021-05-31,13.24,13.5,13.2,13.49,13.24,20920647.0,279627121.0,48560090112.36,48729270495.66
sh601838,成都银行,2021-06-01,13.39,13.77,13.23,13.6,13.49,25927594.0,350309858.0,48956058230.4,49126618142.4
sh601838,成都银行,2021-06-02,13.6,13.94,13.32,13.78,13.6,24131797.0,329712762.0,49604006059.92,49776823382.52
sh601838,成都银行,2021-06-03,13.79,13.85,13.49,13.58,13.78,24144336.0,329421191.0,48884064027.12,49054373115.72
sh601838,成都银行,2021-06-04,13.54,14.2,13.53,14.05,13.58,26366848.0,367771247.0,50575927804.2,50752131242.7
sh601838,成都银行,2021-06-07,14.0,14.1,13.8,13.85,14.05,27475925.0,382617754.0,49855985771.4,50029680975.9
sh601838,成都银行,2021-06-08,13.87,14.03,13.66,13.84,13.85,19418262.0,268461378.0,49819988669.76,49993558462.56
sh601838,成都银行,2021-06-09,13.88,13.88,13.61,13.63,13.84,12774027.0,174951587.0,49064049535.32,49234985682.420006
sh601838,成都银行,2021-06-10,13.63,13.85,13.51,13.53,13.63,20042964.0,273891861.0,48704078518.92,48873760549.02
sh601838,成都银行,2021-06-11,13.5,13.67,13.4,13.48,13.53,17203939.0,232344800.0,48524093010.71999,48693147982.32
sh601838,成都银行,2021-06-15,13.48,13.48,13.18,13.24,13.48,21303266.0,283156513.0,47660162571.36,47826207662.16
sh601838,成都银行,2021-06-16,13.22,13.44,13.2,13.23,13.24,15103784.0,201102562.0,47624165469.72,47790085148.82
sh601838,成都银行,2021-06-17,13.25,13.4,13.13,13.15,13.23,12435988.0,164871303.0,47336188656.6,47501105042.1
sh601838,成都银行,2021-06-18,13.22,13.22,12.96,13.04,13.15,15700206.0,205267078.0,46940220538.560005,47103757395.36
sh601838,成都银行,2021-06-21,12.96,13.12,12.41,12.56,13.04,34842431.0,441073527.0,45212359659.84,45369876755.04
sh601838,成都银行,2021-06-22,12.73,13.27,12.69,13.21,12.56,31204728.0,408246115.0,47552171266.44,47717840122.14001
sh601838,成都银行,2021-06-23,13.38,13.4,13.04,13.12,13.21,15855157.0,208395319.0,47228197351.68,47392737502.08
sh601838,成都银行,2021-06-24,13.21,13.51,12.92,13.47,13.12,24725506.0,328041802.0,48488095909.08,48657025468.98
sh601838,成都银行,2021-06-25,13.48,13.56,13.23,13.48,13.47,24059221.0,322577263.0,48524093010.71999,48693147982.32
sh601838,XD成都银,2021-06-28,12.95,12.96,12.49,12.65,13.02,20333119.0,257770604.0,45536333574.6,45694979375.1
sh601838,成都银行,2021-06-29,12.66,12.82,12.57,12.67,12.65,18352969.0,233347921.0,45608327777.880005,45767224401.78001
sh601838,成都银行,2021-06-30,12.67,12.86,12.63,12.64,12.67,13184149.0,167546182.0,45500336472.96,45658856861.76
sh601838,成都银行,2021-07-01,12.68,12.92,12.59,12.77,12.64,18262624.0,233095866.0,45968298794.28,46128449535.18001
sh601838,成都银行,2021-07-02,12.7,12.74,12.38,12.65,12.77,18470572.0,231915139.0,45536333574.6,45694979375.1
sh601838,成都银行,2021-07-05,12.63,12.86,12.27,12.84,12.65,18865613.0,238573154.0,46220278505.76,46381307128.560005
sh601838,成都银行,2021-07-06,12.94,13.35,12.79,13.24,12.84,26088625.0,343589803.0,47660162571.36,47826207662.16
sh601838,成都银行,2021-07-07,13.37,13.97,13.3,13.7,13.24,31986984.0,437617833.0,49316029246.8,49487843275.8
sh601838,成都银行,2021-07-08,13.75,13.86,13.03,13.47,13.7,39218258.0,527503571.0,48488095909.08,48657025468.98
sh601838,成都银行,2021-07-09,13.45,13.6,12.83,12.87,13.47,25276959.0,330150678.0,46328269810.68,46489674668.58
sh601838,成都银行,2021-07-12,13.05,13.06,12.05,12.16,12.87,61693783.0,758848349.0,43772475594.24,43924976221.44
sh601838,成都银行,2021-07-13,12.15,12.31,11.91,12.25,12.16,25917556.0,315347807.0,44096449508.99999,44250078841.5
sh601838,成都银行,2021-07-14,12.18,12.19,11.5,11.59,12.25,45045464.0,527580970.0,41720640800.76,41865992961.06
sh601838,成都银行,2021-07-15,11.61,12.02,11.46,11.87,11.59,32827263.0,388176382.0,42728559646.68,42877423334.58
sh601838,成都银行,2021-07-16,11.87,12.03,11.66,11.85,11.87,18981402.0,225275213.0,42656565443.4,42805178307.9
sh601838,成都银行,2021-07-19,11.9,11.9,11.6,11.75,11.85,30058569.0,352305444.0,42296594426.99999,42443953174.5
sh601838,成都银行,2021-07-20,11.64,11.8,11.6,11.7,11.75,16449824.0,192201189.0,42116608918.8,42263340607.8
sh601838,成都银行,2021-07-21,11.75,11.82,11.4,11.52,11.7,24211603.0,279282660.0,41468661089.28,41613135367.68
sh601838,成都银行,2021-07-22,11.52,11.8,11.43,11.71,11.52,22272856.0,259908966.0,42152606020.44,42299463121.14
sh601838,成都银行,2021-07-23,11.7,11.8,11.46,11.77,11.71,24719056.0,287597929.0,42368588630.28,42516198201.18
sh601838,成都银行,2021-07-26,11.62,11.66,11.28,11.34,11.77,24071087.0,274805330.0,40820713259.76,40962930127.56
sh601838,成都银行,2021-07-27,11.36,11.46,10.88,10.89,11.34,29712558.0,328840580.0,39200843685.96,39337417027.26
sh601838,成都银行,2021-07-28,10.9,11.1,10.87,10.93,10.89,24949614.0,273682662.0,39344832092.52,39481907080.62
sh601838,成都银行,2021-07-29,11.04,11.34,10.97,11.09,10.93,23511299.0,261302978.0,39920785718.76,40059867294.06
sh601838,成都银行,2021-07-30,11.01,11.16,10.75,10.81,11.09,23519632.0,256539015.0,38912866872.84,39048436920.54
sh601838,成都银行,2021-08-02,10.71,11.1,10.48,10.99,10.81,27071798.0,293666688.0,39560814702.36,39698642160.66
sh601838,成都银行,2021-08-03,10.89,11.05,10.77,10.88,10.99,19532774.0,212597267.0,39164846584.32,39301294513.92
sh601838,成都银行,2021-08-04,10.9,10.91,10.49,10.58,10.88,48128205.0,509974336.0,38084933535.12,38217619113.72
sh601838,成都银行,2021-08-05,10.59,10.73,10.48,10.48,10.58,29471972.0,312911484.0,37724962518.72,37856393980.32
sh601838,成都银行,2021-08-06,10.48,10.65,10.26,10.6,10.48,21344545.0,224769838.0,38156927738.4,38289864140.4
sh601838,成都银行,2021-08-09,10.58,11.01,10.53,10.87,10.6,27373880.0,298036416.0,39128849482.68,39265172000.58
sh601838,成都银行,2021-08-10,10.97,11.2,10.77,11.18,10.87,35578471.0,391469829.0,40244759633.52,40384969914.12
sh601838,成都银行,2021-08-11,11.18,11.52,11.1,11.36,11.18,44231927.0,502856573.0,40892707463.04,41035175154.24
sh601838,成都银行,2021-08-12,11.34,11.34,11.06,11.18,11.36,21684341.0,242957007.0,40244759633.52,40384969914.12
sh601838,成都银行,2021-08-13,11.15,11.26,11.05,11.17,11.18,17992544.0,200400429.0,40208762531.88,40348847400.78
sh601838,成都银行,2021-08-16,11.29,11.3,11.06,11.18,11.17,18342831.0,205169472.0,40244759633.52,40384969914.12
sh601838,成都银行,2021-08-17,11.1,11.26,10.95,11.18,11.18,27965731.0,311242316.0,40244759633.52,40384969914.12
sh601838,成都银行,2021-08-18,11.12,11.56,11.1,11.55,11.18,35111303.0,398671951.0,41576652394.2,41721502907.7
sh601838,成都银行,2021-08-19,11.44,11.45,10.96,11.0,11.55,34050341.0,377957998.0,39596811804.0,39734764674.0
sh601838,成都银行,2021-08-20,10.99,11.09,10.73,10.95,11.0,20951965.0,228416003.0,39416826295.8,39554152107.3
sh601838,成都银行,2021-08-23,10.95,11.07,10.78,10.88,10.95,20880778.0,226920145.0,39164846584.32,39301294513.92
sh601838,成都银行,2021-08-24,10.87,11.18,10.85,11.11,10.88,26031746.0,287723239.0,39992779922.04,40132112320.74
sh601838,成都银行,2021-08-25,11.12,11.21,10.86,11.03,11.11,21547736.0,236964618.0,39704803108.92,39843132214.02
sh601838,成都银行,2021-08-26,11.22,11.46,11.11,11.34,11.03,43016506.0,485959924.0,40820713259.76,40962930127.56
sh601838,成都银行,2021-08-27,11.47,12.13,11.35,12.0,11.34,48803940.0,578850819.0,43196521968.0,43347016008.0
sh601838,成都银行,2021-08-30,12.0,12.0,11.71,11.78,12.0,27823330.0,329572612.0,42404585731.920006,42552320714.52
sh601838,成都银行,2021-08-31,11.71,12.2,11.63,12.11,11.78,28679066.0,342448488.0,43592490086.04,43744363654.74
sh601838,成都银行,2021-09-01,12.17,12.65,12.02,12.51,12.11,46129070.0,573227774.0,45032374151.64001,45189264188.34
sh601838,成都银行,2021-09-02,12.48,12.51,12.24,12.34,12.51,43870413.0,542217124.0,44420423423.76,44575181461.56
sh601838,成都银行,2021-09-03,12.39,12.42,12.08,12.15,12.34,31488036.0,386167314.0,43736478492.6,43888853708.1
sh601838,成都银行,2021-09-06,12.04,12.23,11.93,12.08,12.15,23688251.0,286069390.0,43484498781.12,43635996114.72
sh601838,成都银行,2021-09-07,12.1,12.47,11.94,12.4,12.08,42324883.0,520495238.0,44636406033.6,44791916541.600006
sh601838,成都银行,2021-09-08,12.32,12.52,12.25,12.3,12.4,25948655.0,321426993.0,44276435017.2,44430691408.200005
sh601838,成都银行,2021-09-09,12.3,12.42,12.15,12.32,12.3,31124885.0,383549907.0,44348429220.48,44502936434.880005
sh601838,成都银行,2021-09-10,12.32,13.18,12.31,12.9,12.32,53465077.0,683202245.0,46436261115.6,46598042208.6
sh601838,成都银行,2021-09-13,12.8,12.98,12.67,12.92,12.9,24692395.0,316203846.0,46508255318.88,46670287235.28
sh601838,成都银行,2021-09-14,12.9,13.0,12.63,12.82,12.92,30423373.0,389425716.0,46148284302.48,46309062101.880005
sh601838,成都银行,2021-09-15,12.81,12.81,12.33,12.4,12.82,20607700.0,258483326.0,44636406033.6,44791916541.600006
sh601838,成都银行,2021-09-16,12.39,12.48,12.17,12.23,12.4,19829383.0,244434513.0,44024455305.72,44177833814.82001
sh601838,成都银行,2021-09-17,12.3,12.82,12.17,12.73,12.23,28840045.0,362352311.0,45824310387.72,45983959481.82
sh601838,成都银行,2021-09-22,12.28,12.35,11.92,12.06,12.73,33010450.0,398681278.0,43412504577.84,43563751088.03999
sh601838,成都银行,2021-09-23,12.19,12.27,12.1,12.14,12.06,21371952.0,260428104.0,43700481390.96,43852731194.76
sh601838,成都银行,2021-09-24,12.18,12.28,12.03,12.15,12.14,13903571.0,169357137.0,43736478492.6,43888853708.1
sh601838,成都银行,2021-09-27,12.1,12.33,11.84,12.23,12.15,25119505.0,303972942.0,44024455305.72,44177833814.82001
sh601838,成都银行,2021-09-28,12.25,12.67,12.13,12.34,12.23,26544040.0,331025790.0,44420423423.76,44575181461.56
sh601838,成都银行,2021-09-29,12.19,12.5,12.1,12.41,12.34,16284250.0,200508960.0,44672403135.240005,44828039054.94
sh601838,成都银行,2021-09-30,12.36,12.39,11.75,11.86,12.41,38055964.0,454729407.0,42692562545.04,42841300821.240005
sh601838,成都银行,2021-10-08,11.86,12.36,11.82,12.36,11.86,26173723.0,318575438.0,44492417627.04,44647426488.24
sh601838,成都银行,2021-10-11,12.36,12.86,12.36,12.69,12.36,27453696.0,348732665.0,45680321981.16,45839469428.46
sh601838,成都银行,2021-10-12,12.62,12.84,12.54,12.69,12.69,22113592.0,280597480.0,45680321981.16,45839469428.46
sh601838,成都银行,2021-10-13,12.77,12.99,12.58,12.89,12.69,22516905.0,288337817.0,46400264013.96,46561919695.26
sh601838,成都银行,2021-10-14,12.9,12.98,12.47,12.62,12.89,18619897.0,235469720.0,45428342269.68,45586611835.08
sh601838,成都银行,2021-10-15,12.62,12.85,12.52,12.75,12.62,22821686.0,289874324.0,45896304591.0,46056204508.5
sh601838,成都银行,2021-10-18,12.77,12.83,12.52,12.67,12.75,17624227.0,222700105.0,45608327777.880005,45767224401.78001
sh601838,成都银行,2021-10-19,12.65,13.09,12.61,12.99,12.67,22664826.0,293570718.0,46760235030.36,46923144828.66
sh601838,成都银行,2021-10-20,12.96,13.05,12.24,12.31,12.99,43859106.0,547552000.0,44312432118.84,44466813921.54
sh601838,成都银行,2021-10-21,12.46,12.8,12.35,12.74,12.31,34790100.0,440205301.0,45860307489.36,46020081995.16
sh601838,成都银行,2021-10-22,12.81,13.05,12.48,12.56,12.74,23293448.0,295905267.0,45212359659.84,45369876755.04
sh601838,成都银行,2021-10-25,12.51,12.75,12.36,12.69,12.56,15647304.0,196537688.0,45680321981.16,45839469428.46
sh601838,成都银行,2021-10-26,12.66,13.15,12.6,12.99,12.69,31677393.0,410349078.0,46760235030.36,46923144828.66
sh601838,成都银行,2021-10-27,12.9,13.13,12.67,12.98,12.99,28453690.000000004,367749875.0,46724237928.72,46887022315.32
sh601838,成都银行,2021-10-28,12.99,13.14,12.7,12.93,12.98,23506003.0,302251211.0,46544252420.52,46706409748.62
sh601838,成都银行,2021-10-29,12.65,13.0,12.35,12.76,12.93,42876612.0,544851651.0,45932301692.64,46092327021.84
sh601838,成都银行,2021-11-01,12.86,12.93,12.6,12.66,12.76,27698872.0,352765798.0,45572330676.24,45731101888.44
sh601838,成都银行,2021-11-02,12.67,12.67,12.21,12.33,12.66,30740168.0,381134954.0,44384426322.12,44539058948.21999
sh601838,成都银行,2021-11-03,12.35,12.45,12.24,12.37,12.33,25442808.0,314627058.0,44528414728.68,44683549001.58
sh601838,成都银行,2021-11-04,12.4,12.42,12.08,12.18,12.37,25228976.0,306614280.0,43844469797.52,43997221248.12
sh601838,成都银行,2021-11-05,12.12,12.27,12.08,12.1,12.18,19676729.0,239514050.0,43556492984.4,43708241141.4
sh601838,成都银行,2021-11-08,12.08,12.12,11.68,11.78,12.1,36906578.0,437414943.0,42404585731.920006,42552320714.52
sh601838,成都银行,2021-11-09,11.83,11.87,11.64,11.76,11.78,26119464.0,306806456.0,42332591528.64,42480075687.84
sh601838,成都银行,2021-11-10,11.73,11.8,11.58,11.73,11.76,13287819.0,155362735.0,42224600223.72,42371708147.82
sh601838,成都银行,2021-11-11,11.75,12.01,11.74,11.98,11.73,39346437.0,468892573.0,43124527764.72,43274770981.32
sh601838,成都银行,2021-11-12,11.92,12.03,11.86,11.97,11.98,18661312.0,222833071.0,43088530663.08,43238648467.98
sh601838,成都银行,2021-11-15,11.97,12.02,11.76,11.97,11.97,15088047.0,180070467.0,43088530663.08,43238648467.98
sh601838,成都银行,2021-11-16,11.95,12.08,11.8,11.87,11.97,10998549.0,131030943.0,42728559646.68,42877423334.58
sh601838,成都银行,2021-11-17,11.88,11.9,11.68,11.71,11.87,10432087.0,122405375.0,42152606020.44,42299463121.14
sh601838,成都银行,2021-11-18,11.69,11.75,11.4,11.43,11.71,18675227.0,215546171.0,41144687174.52,41288032747.62
sh601838,成都银行,2021-11-19,11.45,11.7,11.42,11.66,11.43,11984485.0,138585797.0,41972620512.24,42118850554.44
sh601838,成都银行,2021-11-22,11.68,11.79,11.51,11.63,11.66,12772228.0,149100064.0,41864629207.32,42010483014.42
sh601838,成都银行,2021-11-23,11.63,11.79,11.57,11.68,11.63,10393133.0,121760372.0,42044614715.520004,42191095581.12
sh601838,成都银行,2021-11-24,11.7,11.72,11.54,11.57,11.68,18550413.0,214996880.0,41648646597.48,41793747934.380005
sh601838,成都银行,2021-11-25,11.55,11.57,11.48,11.49,11.57,7933430.0,91386579.0,41360669784.36,41504767827.659996
sh601838,成都银行,2021-11-26,11.48,11.51,11.34,11.36,11.49,11411245.0,130239413.0,40892707463.04,41035175154.24
sh601838,成都银行,2021-11-29,11.3,11.44,11.18,11.22,11.36,14781863.0,166740384.0,40388748040.08,40529459967.479996
sh601838,成都银行,2021-11-30,11.27,11.42,11.14,11.21,11.22,13690354.0,154167846.0,40352750938.439995,40493337454.14
sh601838,成都银行,2021-12-01,11.18,11.32,11.07,11.13,11.21,24264754.0,270681897.0,40064774125.32,40204357347.42
sh601838,成都银行,2021-12-02,11.09,11.18,11.06,11.16,11.13,20944920.0,232863703.0,40172765430.24,40312724887.44
sh601838,成都银行,2021-12-03,11.25,11.44,11.06,11.39,11.16,24686946.0,278104008.0,41000698767.96,41143542694.26
sh601838,成都银行,2021-12-06,11.49,11.84,11.48,11.53,11.39,28998428.0,338255723.0,41504658190.92,41649257881.02
sh601838,成都银行,2021-12-07,11.67,11.8,11.64,11.74,11.53,27896296.0,327233767.0,42260597325.36,42407830661.159996
sh601838,成都银行,2021-12-08,11.79,11.79,11.52,11.61,11.74,20955383.0,242975315.0,41792635004.04,41938237987.74
sh601838,成都银行,2021-12-09,11.64,11.79,11.53,11.65,11.61,22786616.0,265876639.0,41936623410.6,42082728041.1
sh601838,成都银行,2021-12-10,11.66,11.83,11.57,11.65,11.65,21693211.0,253231519.0,41936623410.6,42082728041.1
sh601838,成都银行,2021-12-13,11.7,11.9,11.63,11.66,11.65,22395005.0,262713627.0,41972620512.24,42118850554.44
sh601838,成都银行,2021-12-14,11.66,11.73,11.51,11.54,11.66,16464768.0,190580814.0,41540655292.560005,41685380394.36
sh601838,成都银行,2021-12-15,11.54,11.64,11.52,11.52,11.54,11259867.0,130049827.0,41468661089.28,41613135367.68
sh601838,成都银行,2021-12-16,11.54,11.75,11.48,11.73,11.52,26602963.0,309625085.0,42224600223.72,42371708147.82
sh601838,成都银行,2021-12-17,11.76,11.76,11.57,11.58,11.73,14102910.0,163971945.0,41684643699.12,41829870447.72
sh601838,成都银行,2021-12-20,11.6,11.7,11.51,11.63,11.58,18106400.0,210528815.0,41864629207.32,42010483014.42
sh601838,成都银行,2021-12-21,11.68,11.83,11.61,11.78,11.63,16969922.0,199367417.0,42404585731.920006,42552320714.520004
sh601838,成都银行,2021-12-22,11.77,11.91,11.75,11.85,11.78,16248099.0,192540573.0,42656565443.399994,42805178307.9
sh601838,成都银行,2021-12-23,11.87,11.95,11.76,11.91,11.85,16688473.0,197884071.0,42872548053.240005,43021913387.94
sh601838,成都银行,2021-12-24,11.92,12.04,11.86,11.96,11.91,15246865.0,182158813.0,43052533561.439995,43202525954.63999
sh601838,成都银行,2021-12-27,11.99,12.12,11.83,11.97,11.96,16700000.0,199789717.0,43088530663.08,43238648467.979996
sh601838,成都银行,2021-12-28,12.01,12.04,11.88,11.99,11.97,15831012.0,189378543.0,43160524866.36,43310893494.659996
sh601838,成都银行,2021-12-29,11.96,11.97,11.84,11.9,11.99,18397194.0,218796785.0,42836550951.6,42985790874.6
sh601838,成都银行,2021-12-30,11.89,12.0,11.85,11.93,11.9,15511871.0,185361914.0,42944542256.52,43094158414.62
sh601838,成都银行,2021-12-31,11.9,12.02,11.83,12.0,11.93,16937678.0,201894859.0,43196521968.0,43347016008.0
sh601838,成都银行,2022-01-04,12.01,12.15,11.9,12.14,12.0,17025680.0,204673676.0,43700481390.96,43852731194.76
sh601838,成都银行,2022-01-05,12.26,12.75,12.17,12.52,12.14,43909114.0,550552059.0,45068371253.28,45225386701.68
sh601838,成都银行,2022-01-06,12.57,12.66,12.34,12.38,12.52,23574171.0,293636689.0,44564411830.32001,44719671514.92
sh601838,成都银行,2022-01-07,12.38,12.91,12.38,12.81,12.38,39135069.0,499748868.0,46112287200.840004,46272939588.54
sh601838,成都银行,2022-01-10,12.83,13.23,12.76,13.16,12.81,53571932.0,700990965.0,47372185758.24,47537227555.44
sh601838,成都银行,2022-01-11,13.29,13.85,13.1,13.83,13.16,56039274.0,761650099.0,49783991568.12,49957435949.21999
sh601838,成都银行,2022-01-12,13.7,14.2,13.61,13.98,13.83,39355208.0,546889381.0,50323948092.71999,50499273649.32
sh601838,成都银行,2022-01-13,13.89,14.1,13.73,13.83,13.98,30156418.0,417918930.0,49783991568.12,49957435949.21999
sh601838,成都银行,2022-01-14,13.85,13.91,13.54,13.7,13.83,27997321.0,383726313.0,49316029246.8,49487843275.8
