数据由邢不行整理
股票代码,股票名称,交易日期,开盘价,最高价,最低价,收盘价,前收盘价,成交量,成交额,流通市值,总市值
sh603486,N科沃斯,2018-05-28,24.02,28.83,24.02,28.83,20.02,18827.0,542301.0,1156083000.0,11534883000.0
sh603486,科沃斯,2018-05-29,31.71,31.71,31.71,31.71,28.83,9301.0,294935.0,1271571000.0,12687171000.0
sh603486,科沃斯,2018-05-30,34.88,34.88,34.88,34.88,31.71,15178.0,529409.0,1398688000.0,13955488000.0
sh603486,科沃斯,2018-05-31,38.37,38.37,38.37,38.37,34.88,25800.0,989946.0,1538637000.0,15351837000.0
sh603486,科沃斯,2018-06-01,42.21,42.21,42.21,42.21,38.37,84681.0,3574385.0,1692621000.0,16888221000.0
sh603486,科沃斯,2018-06-04,46.43,46.43,46.43,46.43,42.21,68868.0,3197541.0,1861843000.0,18576643000.0
sh603486,科沃斯,2018-06-05,51.07,51.07,51.07,51.07,46.43,79501.0,4060116.0,2047907000.0,20433107000.0
sh603486,科沃斯,2018-06-06,56.18,56.18,56.18,56.18,51.07,56256.0,3160462.0,2252818000.0,22477618000.0
sh603486,科沃斯,2018-06-07,61.8,61.8,61.8,61.8,56.18,162125.0,10019325.0,2478180000.0,24726180000.0
sh603486,科沃斯,2018-06-08,67.98,67.98,67.98,67.98,61.8,454142.0,30872573.0,2725998000.0,27198798000.0
sh603486,科沃斯,2018-06-11,74.78,74.78,74.78,74.78,67.98,721252.0,53935225.0,2998678000.0,29919478000.0
sh603486,科沃斯,2018-06-12,82.26,82.26,78.6,80.56,74.78,30126331.0,2424367934.0,3230456000.0,32232056000.0
sh603486,科沃斯,2018-06-13,78.6,79.9,73.99,74.73,80.56,19965917.0,1542222613.0,2996673000.0,29899473000.0
sh603486,科沃斯,2018-06-14,72.66,77.77,72.12,73.1,74.73,17030910.0,1277420576.0,2931310000.0,29247310000.0
sh603486,科沃斯,2018-06-15,74.5,75.27,69.66,74.96,73.1,15320125.0,1115422398.0,3005896000.0,29991496000.0
sh603486,科沃斯,2018-06-19,73.27,75.98,67.52,68.23,74.96,16211958.0,1181526776.0,2736023000.0,27298823000.0
sh603486,科沃斯,2018-06-20,66.75,70.67,64.81,69.22,68.23,15560888.0,1053520189.0,2775722000.0,27694922000.0
sh603486,科沃斯,2018-06-21,67.88,68.44,62.3,62.3,69.22,11996715.0,781220356.0,2498230000.0,24926230000.0
sh603486,科沃斯,2018-06-22,57.89,59.8,56.2,57.03,62.3,12942995.0,748441749.0,2286903000.0,22817703000.0
sh603486,科沃斯,2018-06-25,57.89,59.65,57.08,57.52,57.03,9941056.0,578888039.0,2306552000.0,23013752000.0
sh603486,科沃斯,2018-06-26,55.98,61.29,53.0,60.03,57.52,12245102.0,717459874.0,2407203000.0,24018003000.0
sh603486,科沃斯,2018-06-27,59.4,62.5,58.3,61.69,60.03,11791929.0,713789193.0,2473769000.0,24682169000.0
sh603486,科沃斯,2018-06-28,61.05,62.31,58.3,58.43,61.69,9612419.0,582952870.0,2343043000.0,23377843000.0
sh603486,科沃斯,2018-06-29,57.9,64.27,57.9,64.27,58.43,5634751.0,348560076.0,2577227000.0,25714427000.0
sh603486,科沃斯,2018-07-02,70.7,70.7,68.57,70.7,64.27,21342708.0,1503077534.0,2835070000.0,28287070000.0
sh603486,科沃斯,2018-07-03,70.64,71.33,65.79,68.39,70.7,18357717.0,1260749316.0,2742439000.0,27362839000.0
sh603486,科沃斯,2018-07-04,67.21,68.79,61.55,61.56,68.39,15906762.0,1033185319.0,2468556000.0,24630156000.0
sh603486,科沃斯,2018-07-05,59.8,63.85,59.5,61.76,61.56,12367848.0,769047947.0,2476576000.0,24710176000.0
sh603486,科沃斯,2018-07-06,62.67,67.5,62.21,63.64,61.76,14405682.0,932434485.0,2551964000.0,25462364000.0
sh603486,科沃斯,2018-07-09,64.99,70.0,63.64,70.0,63.64,5607901.0,377990316.0,2807000000.0,28007000000.0
sh603486,科沃斯,2018-07-10,74.0,74.88,67.67,68.49,70.0,17369572.0,1224549319.0,2746449000.0,27402849000.0
sh603486,科沃斯,2018-07-11,66.0,73.98,63.77,71.97,68.49,17949805.0,1234018264.0,2885997000.0,28795197000.0
sh603486,科沃斯,2018-07-12,70.91,75.32,70.0,75.07,71.97,15661076.0,1134060342.0,3010307000.0,30035507000.0
sh603486,科沃斯,2018-07-13,73.7,74.7,69.0,69.85,75.07,14288119.0,1028205753.0,2800985000.0,27946985000.0
sh603486,科沃斯,2018-07-16,68.29,71.88,67.4,71.43,69.85,9908592.0,693550218.0,2864343000.0,28579143000.0
sh603486,科沃斯,2018-07-17,70.8,71.27,66.63,69.56,71.43,9834152.0,679816699.0,2789356000.0,27830956000.0
sh603486,科沃斯,2018-07-18,69.5,73.5,68.0,68.21,69.56,11078480.0,785750951.0,2735221000.0,27290821000.0
sh603486,科沃斯,2018-07-19,66.0,66.58,62.1,62.72,68.21,11940926.0,767257485.0,2515072000.0,25094272000.0
sh603486,科沃斯,2018-07-20,62.5,64.22,61.3,63.57,62.72,7072239.0,446363321.0,2549157000.0,25434357000.0
sh603486,科沃斯,2018-07-23,63.49,63.86,61.19,62.41,63.57,6172564.0,385715376.0,2502641000.0,24970241000.0
sh603486,科沃斯,2018-07-24,62.58,66.0,62.3,65.67,62.41,9883252.0,640104645.0,2633367000.0,26274567000.0
sh603486,科沃斯,2018-07-25,65.69,65.85,62.49,62.53,65.67,8513932.0,546827519.0,2507453000.0,25018253000.0
sh603486,科沃斯,2018-07-26,62.65,63.65,58.11,59.91,62.53,7909981.0,479076274.0,2402391000.0,23969991000.0
sh603486,科沃斯,2018-07-27,59.5,60.63,58.6,59.18,59.91,4478707.0,266976692.0,2373118000.0,23677918000.0
sh603486,科沃斯,2018-07-30,59.17,59.93,56.38,57.53,59.18,4514870.0,262039467.0,2306953000.0,23017753000.0
sh603486,科沃斯,2018-07-31,57.5,58.25,56.7,58.2,57.53,3999965.0,230498072.0,2333820000.0,23285820000.0
sh603486,科沃斯,2018-08-01,58.53,58.75,57.01,57.06,58.2,4219726.0,244197082.0,2288106000.0,22829706000.0
sh603486,科沃斯,2018-08-02,56.6,58.95,54.9,58.9,57.06,7740446.0,443398045.0,2361890000.0,23565890000.0
sh603486,科沃斯,2018-08-03,58.23,59.29,55.02,55.25,58.9,6780889.0,390344838.0,2215525000.0,22105525000.0
sh603486,科沃斯,2018-08-06,53.72,54.2,50.74,51.44,55.25,5546705.0,291104484.0,2062744000.0,20581144000.0
sh603486,科沃斯,2018-08-07,52.0,53.45,51.36,53.21,51.44,4609129.0,242334097.0,2133721000.0,21289321000.0
sh603486,科沃斯,2018-08-08,52.7,53.18,47.89,47.91,53.21,7376990.0,370138297.0,1921191000.0,19168791000.0
sh603486,科沃斯,2018-08-09,47.58,50.32,47.58,49.8,47.91,5873350.0,290348106.0,1996980000.0,19924980000.0
sh603486,科沃斯,2018-08-10,49.7,50.68,48.68,50.18,49.8,5410758.0,270080620.0,2012218000.0,20077018000.0
sh603486,科沃斯,2018-08-13,49.0,52.66,48.66,52.1,50.18,6218454.0,317091955.0,2089210000.0,20845210000.0
sh603486,科沃斯,2018-08-14,52.0,52.92,51.0,52.2,52.1,5567762.0,289581443.0,2093220000.0,20885220000.0
sh603486,科沃斯,2018-08-15,52.0,52.2,49.16,49.24,52.2,5298023.0,266500107.0,1974524000.0,19700924000.0
sh603486,科沃斯,2018-08-16,48.21,50.4,47.56,48.67,49.24,4035872.0,198659683.0,1951667000.0,19472867000.0
sh603486,科沃斯,2018-08-17,49.99,50.4,47.13,47.39,48.67,4139547.0,202192676.0,1900339000.0,18960739000.0
sh603486,科沃斯,2018-08-20,47.33,48.49,45.31,48.42,47.39,5165876.0,244217895.0,1941642000.0,19372842000.0
sh603486,科沃斯,2018-08-21,48.44,48.99,46.9,48.54,48.42,5099346.0,245037672.0,1946454000.0,19420854000.0
sh603486,科沃斯,2018-08-22,48.75,49.5,47.21,47.21,48.54,4322217.0,208809431.0,1893121000.0,18888721000.0
sh603486,科沃斯,2018-08-23,47.02,49.68,47.02,49.38,47.21,6512287.0,316788045.0,1980138000.0,19756938000.0
sh603486,科沃斯,2018-08-24,48.97,49.21,47.88,48.25,49.38,4562258.0,221149256.0,1934825000.0,19304825000.0
sh603486,科沃斯,2018-08-27,48.97,50.3,48.53,49.68,48.25,5204066.0,257459607.0,1992168000.0,19876968000.0
sh603486,科沃斯,2018-08-28,49.5,49.78,48.86,49.6,49.68,4734162.0,233303230.0,1988960000.0,19844960000.0
sh603486,科沃斯,2018-08-29,49.33,51.98,49.0,51.47,49.6,7238872.0,366174176.0,2063947000.0,20593147000.0
sh603486,科沃斯,2018-08-30,51.02,51.9,49.08,49.22,51.47,5603746.0,283164751.0,1973722000.0,19692922000.0
sh603486,科沃斯,2018-08-31,48.1,48.77,46.66,46.71,49.22,4653772.0,222212624.0,1873071000.0,18688671000.0
sh603486,科沃斯,2018-09-03,46.61,47.29,45.29,47.07,46.71,3389692.0,156986943.0,1887507000.0,18832707000.0
sh603486,科沃斯,2018-09-04,46.76,47.8,46.55,47.35,47.07,2870116.0,135294348.0,1898735000.0,18944735000.0
sh603486,科沃斯,2018-09-05,47.06,48.09,46.15,46.25,47.35,3325244.0,157079042.0,1854625000.0,18504625000.0
sh603486,科沃斯,2018-09-06,45.74,47.29,45.57,46.71,46.25,3120045.0,145230572.0,1873071000.0,18688671000.0
sh603486,科沃斯,2018-09-07,46.82,47.74,45.5,46.07,46.71,3644431.0,170062145.0,1847407000.0,18432607000.0
sh603486,科沃斯,2018-09-10,45.46,45.98,44.0,44.0,46.07,3129122.0,140750328.0,1764400000.0,17604400000.0
sh603486,科沃斯,2018-09-11,43.78,45.18,43.62,44.49,44.0,2222358.0,98545213.0,1784049000.0,17800449000.0
sh603486,科沃斯,2018-09-12,44.4,45.97,44.08,45.28,44.49,2965260.0,133588875.0,1815728000.0,18116528000.0
sh603486,科沃斯,2018-09-13,46.0,46.34,44.39,45.23,45.28,2629550.0,118760079.0,1813723000.0,18096523000.0
sh603486,科沃斯,2018-09-14,45.2,45.6,43.26,43.7,45.23,3139492.0,139667580.0,1752370000.0,17484370000.0
sh603486,科沃斯,2018-09-17,42.95,43.61,41.56,41.75,43.7,2238269.0,94987810.0,1674175000.0,16704175000.0
sh603486,科沃斯,2018-09-18,41.8,43.1,41.72,42.78,41.75,2330924.0,98922532.0,1715478000.0,17116278000.0
sh603486,科沃斯,2018-09-19,42.49,43.9,42.02,43.32,42.78,3256611.0,140413989.0,1737132000.0,17332332000.0
sh603486,科沃斯,2018-09-20,43.18,43.75,42.61,42.77,43.32,2028645.0,87456310.0,1715077000.0,17112277000.0
sh603486,科沃斯,2018-09-21,43.01,44.19,43.01,43.71,42.77,2796447.0,121875720.0,1752771000.0,17488371000.0
sh603486,科沃斯,2018-09-25,43.42,43.7,43.01,43.5,43.71,1579804.0,68473859.0,1744350000.0,17404350000.0
sh603486,科沃斯,2018-09-26,43.53,44.61,43.18,44.24,43.5,2831375.0,124543849.0,1774024000.0,17700424000.0
sh603486,科沃斯,2018-09-27,44.16,44.76,42.3,42.35,44.24,2763859.0,120499603.0,1698235000.0,16944235000.0
sh603486,科沃斯,2018-09-28,42.45,43.65,42.45,43.55,42.35,1991854.0,86069228.0,1746355000.0,17424355000.0
sh603486,科沃斯,2018-10-08,42.71,43.23,40.93,41.26,43.55,2079700.0,87837454.0,1654526000.0,16508126000.0
sh603486,科沃斯,2018-10-09,41.49,42.3,41.05,41.64,41.26,1747271.0,72592584.0,1669764000.0,16660164000.0
sh603486,科沃斯,2018-10-10,41.85,42.68,41.55,42.18,41.64,1678624.0,70612975.0,1691418000.0,16876218000.0
sh603486,科沃斯,2018-10-11,40.0,40.0,37.96,37.96,42.18,4433362.0,170856673.0,1522196000.0,15187796000.0
sh603486,科沃斯,2018-10-12,36.8,37.39,34.6,36.38,37.96,2948234.0,106848823.0,1458838000.0,14555638000.0
sh603486,科沃斯,2018-10-15,36.75,37.2,35.86,35.86,36.38,1641230.0,59834872.0,1437986000.0,14347586000.0
sh603486,科沃斯,2018-10-16,35.86,36.27,32.33,34.28,35.86,3345510.0,114715525.0,1374628000.0,13715428000.0
sh603486,科沃斯,2018-10-17,34.83,35.29,33.01,34.65,34.28,2725505.0,93456397.0,1389465000.0,13863465000.0
sh603486,科沃斯,2018-10-18,34.48,34.51,33.03,33.41,34.65,2132426.0,71751218.0,1339741000.0,13367341000.0
sh603486,科沃斯,2018-10-19,32.6,34.58,32.59,34.55,33.41,2264620.0,76899824.0,1385455000.0,13823455000.0
sh603486,科沃斯,2018-10-22,34.75,36.94,34.75,36.48,34.55,3301900.0,118982692.0,1462848000.0,14595648000.0
sh603486,科沃斯,2018-10-23,36.21,37.8,35.81,36.03,36.48,3294900.0,120688142.0,1444803000.0,14415603000.0
sh603486,科沃斯,2018-10-24,36.34,36.7,35.5,36.48,36.03,1826923.0,66124517.0,1462848000.0,14595648000.0
sh603486,科沃斯,2018-10-25,34.8,35.85,34.45,35.46,36.48,1991662.0,70081564.0,1421946000.0,14187546000.0
sh603486,科沃斯,2018-10-26,35.92,36.29,35.0,35.48,35.46,1646919.0,58794546.0,1422748000.0,14195548000.0
sh603486,科沃斯,2018-10-29,35.3,39.03,35.3,39.03,35.48,6376399.0,243248477.0,1565103000.0,15615903000.0
sh603486,科沃斯,2018-10-30,38.53,40.48,38.53,39.99,39.03,6572005.0,260833566.0,1603599000.0,15999999000.0
sh603486,科沃斯,2018-10-31,39.2,43.21,39.2,41.23,39.99,6617789.0,275423818.0,1653323000.0,16496123000.0
sh603486,科沃斯,2018-11-01,44.0,44.79,40.82,41.3,41.23,5388227.0,231514560.0,1656130000.0,16524130000.0
sh603486,科沃斯,2018-11-02,42.35,43.31,41.5,43.0,41.3,4825153.0,205723681.0,1724300000.0,17204300000.0
sh603486,科沃斯,2018-11-05,43.08,44.5,40.7,41.84,43.0,4526825.0,192050904.0,1677784000.0,16740184000.0
sh603486,科沃斯,2018-11-06,41.1,43.59,39.85,43.52,41.84,4205466.0,175045194.0,1745152000.0,17412352000.0
sh603486,科沃斯,2018-11-07,43.0,43.42,41.68,41.74,43.52,2576174.0,109690992.0,1673774000.0,16700174000.0
sh603486,科沃斯,2018-11-08,42.27,43.14,41.74,42.2,41.74,2412784.0,102410005.0,1692220000.0,16884220000.0
sh603486,科沃斯,2018-11-09,41.78,43.25,41.52,42.23,42.2,2260645.0,96433319.0,1693423000.0,16896223000.0
sh603486,科沃斯,2018-11-12,42.48,43.35,41.6,43.05,42.23,3495120.0,149123276.0,1726305000.0,17224305000.0
sh603486,科沃斯,2018-11-13,42.05,46.85,42.05,46.4,43.05,5094232.0,227693237.0,1860640000.0,18564640000.0
sh603486,科沃斯,2018-11-14,46.5,47.22,45.38,45.62,46.4,2511876.0,116123450.0,1829362000.0,18252562000.0
sh603486,科沃斯,2018-11-15,45.62,49.58,45.62,49.18,45.62,4265961.0,203845239.0,1972118000.0,19676918000.0
sh603486,科沃斯,2018-11-16,49.95,51.5,49.2,49.22,49.18,3832238.0,191879136.0,1973722000.0,19692922000.0
sh603486,科沃斯,2018-11-19,49.3,50.68,47.86,48.5,49.22,2664665.0,130760697.0,1944850000.0,19404850000.0
sh603486,科沃斯,2018-11-20,48.14,51.2,48.1,49.12,48.5,3198161.0,159298497.0,1969712000.0,19652912000.0
sh603486,科沃斯,2018-11-21,48.8,50.48,48.68,49.59,49.12,2475412.0,123041977.0,1988559000.0,19840959000.0
sh603486,科沃斯,2018-11-22,49.5,49.96,48.8,48.97,49.59,1064358.0,52541157.0,1963697000.0,19592897000.0
sh603486,科沃斯,2018-11-23,49.4,49.96,46.36,46.4,48.97,2132424.0,101156429.0,1860640000.0,18564640000.0
sh603486,科沃斯,2018-11-26,46.6,48.16,44.72,47.14,46.4,2609317.0,121263350.0,1890314000.0,18860714000.0
sh603486,科沃斯,2018-11-27,47.8,49.97,47.5,49.0,47.14,2380486.0,116563831.0,1964900000.0,19604900000.0
sh603486,科沃斯,2018-11-28,49.0,50.77,48.47,50.6,49.0,2145382.0,107381767.0,2029060000.0,20245060000.0
sh603486,科沃斯,2018-11-29,50.65,50.95,47.9,48.5,50.6,1692133.0,83438154.0,1944850000.0,19404850000.0
sh603486,科沃斯,2018-11-30,47.5,49.69,47.19,49.63,48.5,1132478.0,55172344.0,1990163000.0,19856963000.0
sh603486,科沃斯,2018-12-03,51.0,54.28,51.0,53.25,49.63,2548122.0,134294600.0,2135325000.0,21305325000.0
sh603486,科沃斯,2018-12-04,52.88,53.57,52.1,53.39,53.25,1520261.0,80421712.0,2140939000.0,21361339000.0
sh603486,科沃斯,2018-12-05,51.85,54.75,51.85,53.45,53.39,2274899.0,122151203.0,2143345000.0,21385345000.0
sh603486,科沃斯,2018-12-06,53.01,53.88,52.41,52.48,53.45,1218532.0,64528118.0,2104448000.0,20997248000.0
sh603486,科沃斯,2018-12-07,52.2,53.5,51.67,51.75,52.48,910241.0,47695035.0,2075175000.0,20705175000.0
sh603486,科沃斯,2018-12-10,52.2,52.2,50.6,51.01,51.75,1317300.0,67308405.0,2045501000.0,20409101000.0
sh603486,科沃斯,2018-12-11,51.55,52.48,51.01,51.21,51.01,1052280.0,54286955.0,2053521000.0,20489121000.0
sh603486,科沃斯,2018-12-12,51.6,52.23,50.68,51.37,51.21,1055151.0,54203562.0,2059937000.0,20553137000.0
sh603486,科沃斯,2018-12-13,51.71,53.39,51.01,52.91,51.37,1636578.0,85846748.0,2121691000.0,21169291000.0
sh603486,科沃斯,2018-12-14,52.8,53.15,48.0,48.0,52.91,2109974.0,107600011.0,1924800000.0,19204800000.0
sh603486,科沃斯,2018-12-17,47.75,50.09,47.6,49.87,48.0,2091169.0,103179842.0,1999787000.0,19952987000.0
sh603486,科沃斯,2018-12-18,50.1,50.17,48.4,48.81,49.87,1474827.0,72802829.0,1957281000.0,19528881000.0
sh603486,科沃斯,2018-12-19,49.29,50.1,47.91,47.91,48.81,1276102.0,62909947.0,1921191000.0,19168791000.0
sh603486,科沃斯,2018-12-20,48.62,49.42,46.82,47.05,47.91,2043573.0,97559318.0,1886705000.0,18824705000.0
sh603486,科沃斯,2018-12-21,47.72,50.3,47.5,50.0,47.05,2625476.0,128387379.0,2005000000.0,20005000000.0
sh603486,科沃斯,2018-12-24,49.39,49.88,48.2,49.08,50.0,1977621.0,96409445.0,1968108000.0,19636908000.0
sh603486,科沃斯,2018-12-25,48.12,49.49,47.53,48.8,49.08,1624704.0,78729794.0,1956880000.0,19524880000.0
sh603486,科沃斯,2018-12-26,48.88,49.09,47.17,47.17,48.8,1249388.0,59838338.0,1891517000.0,18872717000.0
sh603486,科沃斯,2018-12-27,48.06,48.32,45.12,45.35,47.17,1638193.0,76379894.0,1818535000.0,18144535000.0
sh603486,科沃斯,2018-12-28,45.65,46.58,45.17,46.03,45.35,1471071.0,67746368.0,1845803000.0,18416603000.0
sh603486,科沃斯,2019-01-02,46.01,47.26,45.73,46.71,46.03,949437.0,44092833.0,1873071000.0,18688671000.0
sh603486,科沃斯,2019-01-03,46.84,46.95,43.43,44.44,46.71,1154981.0,52776100.0,1782044000.0,17780444000.0
sh603486,科沃斯,2019-01-04,44.53,47.98,44.53,47.79,44.44,1802045.0,84057275.0,1916379000.0,19120779000.0
sh603486,科沃斯,2019-01-07,47.92,48.2,47.28,47.91,47.79,1445248.0,68945429.0,1921191000.0,19168791000.0
sh603486,科沃斯,2019-01-08,47.97,47.98,47.32,47.6,47.91,944942.0,44980979.0,1908760000.0,19044760000.0
sh603486,科沃斯,2019-01-09,48.48,51.13,48.48,49.83,47.6,2669076.0,133144487.0,1998183000.0,19936983000.0
sh603486,科沃斯,2019-01-10,49.25,49.92,48.88,49.04,49.83,1093156.0,53924261.0,1966504000.0,19620904000.0
sh603486,科沃斯,2019-01-11,49.21,49.5,47.94,49.04,49.04,1303139.0,63311401.0,1966504000.0,19620904000.0
sh603486,科沃斯,2019-01-14,49.1,49.68,48.0,48.1,49.04,798137.0,38623850.0,1928810000.0,19244810000.0
sh603486,科沃斯,2019-01-15,47.89,49.8,47.89,49.66,48.1,1145211.0,56186703.0,1991366000.0,19868966000.0
sh603486,科沃斯,2019-01-16,49.68,50.04,48.81,49.34,49.66,973010.0,48201839.0,1978534000.0,19740934000.0
sh603486,科沃斯,2019-01-17,49.35,50.1,48.4,48.72,49.34,714756.0,35202183.0,1953672000.0,19492872000.0
sh603486,科沃斯,2019-01-18,48.4,49.5,48.4,49.11,48.72,661764.0,32356244.0,1969311000.0,19648911000.0
sh603486,科沃斯,2019-01-21,49.59,50.8,49.22,49.76,49.11,948171.0,47483595.0,1995376000.0,19908976000.0
sh603486,科沃斯,2019-01-22,49.6,49.97,48.68,49.09,49.76,676202.0,33159264.0,1968509000.0,19640909000.0
sh603486,科沃斯,2019-01-23,48.95,49.3,48.67,49.0,49.09,647040.0,31668339.0,1964900000.0,19604900000.0
sh603486,科沃斯,2019-01-24,49.06,49.74,48.45,49.6,49.0,779197.0,38308479.0,1988960000.0,19844960000.0
sh603486,科沃斯,2019-01-25,49.5,50.3,49.03,49.36,49.6,863800.0,42927131.0,1979336000.0,19748936000.0
sh603486,科沃斯,2019-01-28,49.6,51.3,49.6,50.2,49.36,1219232.0,61494550.0,2013020000.0,20085020000.0
sh603486,科沃斯,2019-01-29,50.5,50.5,47.41,49.09,50.2,1221983.0,59633542.0,1968509000.0,19640909000.0
sh603486,科沃斯,2019-01-30,48.7,49.8,48.24,48.25,49.09,735219.0,35982156.0,1934825000.0,19304825000.0
sh603486,科沃斯,2019-01-31,48.77,48.8,46.6,46.76,48.25,1213249.0,57839254.0,1875076000.0,18708676000.0
sh603486,科沃斯,2019-02-01,47.0,50.87,47.0,50.49,46.76,1498134.0,74033209.0,2024649000.0,20201049000.0
sh603486,科沃斯,2019-02-11,51.08,51.7,50.0,51.57,50.49,1394915.0,71138243.0,2067957000.0,20633157000.0
sh603486,科沃斯,2019-02-12,53.0,53.88,51.6,52.3,51.57,1373469.0,72270929.0,2097230000.0,20925230000.0
sh603486,科沃斯,2019-02-13,52.44,53.3,51.1,52.65,52.3,1636798.0,85723399.0,2111265000.0,21065265000.0
sh603486,科沃斯,2019-02-14,51.98,57.83,51.98,56.79,52.65,2698442.0,149727765.0,2277279000.0,22721679000.0
sh603486,科沃斯,2019-02-15,56.5,56.5,54.65,54.86,56.79,2031478.0,112091521.0,2199886000.0,21949486000.0
sh603486,科沃斯,2019-02-18,55.1,57.39,54.7,57.3,54.86,1938154.0,109049722.0,2297730000.0,22925730000.0
sh603486,科沃斯,2019-02-19,57.27,57.27,54.01,54.98,57.3,2167901.0,120538586.0,2204698000.0,21997498000.0
sh603486,科沃斯,2019-02-20,55.0,55.5,54.3,54.49,54.98,1213721.0,66502095.0,2185049000.0,21801449000.0
sh603486,科沃斯,2019-02-21,54.6,55.96,52.68,53.6,54.49,1683867.0,91711682.0,2149360000.0,21445360000.0
sh603486,科沃斯,2019-02-22,53.63,55.73,52.82,55.35,53.6,1469751.0,80314525.0,2219535000.0,22145535000.0
sh603486,科沃斯,2019-02-25,55.49,59.67,55.19,58.03,55.35,2542407.0,146552875.0,2327003000.0,23217803000.0
sh603486,科沃斯,2019-02-26,58.7,59.05,56.51,57.12,58.03,1935941.0,112111681.0,2290512000.0,22853712000.0
sh603486,科沃斯,2019-02-27,57.01,58.49,56.0,56.39,57.12,1415835.0,80856876.0,2261239000.0,22561639000.0
sh603486,科沃斯,2019-02-28,56.3,57.49,56.0,56.2,56.39,1004645.0,56980024.0,2253620000.0,22485620000.0
sh603486,科沃斯,2019-03-01,56.62,57.39,56.3,56.69,56.2,900882.0,51250720.0,2273269000.0,22681669000.0
sh603486,科沃斯,2019-03-04,56.71,59.2,56.7,57.77,56.69,1882864.0,109186421.0,2316577000.0,23113777000.0
sh603486,科沃斯,2019-03-05,57.2,58.8,56.81,58.74,57.77,1456789.0,83884413.0,2355474000.0,23501874000.0
sh603486,科沃斯,2019-03-06,58.9,59.97,57.78,59.0,58.74,1731692.0,101691305.0,2365900000.0,23605900000.0
sh603486,科沃斯,2019-03-07,58.89,58.89,55.58,57.44,59.0,2381334.0,136261681.0,2303344000.0,22981744000.0
sh603486,科沃斯,2019-03-08,56.0,57.66,54.74,55.0,57.44,1436969.0,80488298.0,2205500000.0,22005500000.0
sh603486,科沃斯,2019-03-11,55.0,57.77,54.83,57.71,55.0,1826637.0,102708179.0,2314171000.0,23089771000.0
sh603486,科沃斯,2019-03-12,58.3,60.85,58.3,59.66,57.71,2442617.0,145762504.0,2392366000.0,23869966000.0
sh603486,科沃斯,2019-03-13,59.66,60.0,57.56,58.05,59.66,1337380.0,78564140.0,2327805000.0,23225805000.0
sh603486,科沃斯,2019-03-14,58.34,58.6,55.91,57.25,58.05,1228771.0,69782440.0,2295725000.0,22905725000.0
sh603486,科沃斯,2019-03-15,57.25,60.5,57.0,58.91,57.25,1703724.0,100789615.0,2362291000.0,23569891000.0
sh603486,科沃斯,2019-03-18,58.9,63.55,58.0,62.78,58.91,2110460.0,129028017.0,2517478000.0,25118278000.0
sh603486,科沃斯,2019-03-19,62.5,63.39,61.3,62.0,62.78,1253353.0,78015192.0,2486200000.0,24806200000.0
sh603486,科沃斯,2019-03-20,63.33,63.33,60.51,61.28,62.0,817168.0,50217276.0,2457328000.0,24518128000.0
sh603486,科沃斯,2019-03-21,61.51,62.8,61.01,61.27,61.28,1212274.0,75075796.0,2456927000.0,24514127000.0
sh603486,科沃斯,2019-03-22,61.24,62.68,59.5,60.91,61.27,1489652.0,90630567.0,2442491000.0,24370091000.0
sh603486,科沃斯,2019-03-25,60.23,60.94,59.3,60.19,60.91,812314.0,48932498.0,2413619000.0,24082019000.0
sh603486,科沃斯,2019-03-26,60.05,60.85,58.45,58.45,60.19,995750.0,59345363.0,2343845000.0,23385845000.0
sh603486,科沃斯,2019-03-27,59.01,59.49,58.0,59.48,58.45,809889.0,47810754.0,2385148000.0,23797948000.0
sh603486,科沃斯,2019-03-28,59.0,60.4,58.2,58.92,59.48,675000.0,40181808.0,2362692000.0,23573892000.0
sh603486,科沃斯,2019-03-29,59.03,61.31,58.67,60.92,58.92,845473.0,51051134.0,2442892000.0,24374092000.0
sh603486,科沃斯,2019-04-01,61.3,62.33,60.35,61.65,60.92,1083291.0,66668447.0,2472165000.0,24666165000.0
sh603486,科沃斯,2019-04-02,61.35,62.5,60.48,60.58,61.65,1087370.0,66491719.0,2429258000.0,24238058000.0
sh603486,科沃斯,2019-04-03,60.3,60.49,58.9,59.89,60.58,964514.0,57457205.0,2401589000.0,23961989000.0
sh603486,科沃斯,2019-04-04,59.45,60.49,58.92,59.7,59.89,822522.0,48954460.0,2393970000.0,23885970000.0
sh603486,科沃斯,2019-04-08,59.65,59.97,55.53,57.02,59.7,2431679.0,139177471.0,2286502000.0,22813702000.0
sh603486,科沃斯,2019-04-09,56.89,57.38,56.26,56.73,57.02,715852.0,40686072.0,2274873000.0,22697673000.0
sh603486,科沃斯,2019-04-10,56.73,56.73,54.69,55.5,56.73,1186435.0,65684969.0,2225550000.0,22205550000.0
sh603486,科沃斯,2019-04-11,55.6,55.92,53.77,54.17,55.5,852490.0,46651056.0,2172217000.0,21673417000.0
sh603486,科沃斯,2019-04-12,54.4,54.58,53.14,53.33,54.17,1017532.0,54659797.0,2138533000.0,21337333000.0
sh603486,科沃斯,2019-04-15,54.19,54.47,51.9,51.9,53.33,1212690.0,64506760.0,2081190000.0,20765190000.0
sh603486,科沃斯,2019-04-16,52.1,54.33,51.51,54.29,51.9,1169436.0,61906288.0,2177029000.0,21721429000.0
sh603486,科沃斯,2019-04-17,54.31,54.64,53.39,54.07,54.29,805370.0,43495850.0,2168207000.0,21633407000.0
sh603486,科沃斯,2019-04-18,54.13,54.94,54.01,54.71,54.07,848464.0,46291740.0,2193871000.0,21889471000.0
sh603486,科沃斯,2019-04-19,54.51,55.39,53.55,55.02,54.71,894683.0,48818047.0,2206302000.0,22013502000.0
sh603486,科沃斯,2019-04-22,55.04,55.54,52.02,52.45,55.02,876944.0,46836739.0,2103245000.0,20985245000.0
sh603486,科沃斯,2019-04-23,52.92,53.9,51.59,52.4,52.45,893976.0,47341462.0,2101240000.0,20965240000.0
sh603486,科沃斯,2019-04-24,53.35,53.35,51.26,52.18,52.4,818797.0,42530155.0,2092418000.0,20877218000.0
sh603486,科沃斯,2019-04-25,52.17,52.17,50.5,50.6,52.18,840655.0,43123041.0,2029060000.0,20245060000.0
sh603486,科沃斯,2019-04-26,49.06,52.1,48.9,49.79,50.6,1340754.0,67528439.0,1996579000.0,19920979000.0
sh603486,科沃斯,2019-04-29,47.05,48.6,45.4,45.94,49.79,1642129.0,77302199.0,1842194000.0,18380594000.0
sh603486,科沃斯,2019-04-30,46.72,46.96,46.05,46.9,45.94,743485.0,34563989.0,1880690000.0,18764690000.0
sh603486,科沃斯,2019-05-06,45.01,45.75,42.72,43.58,46.9,1415615.0,62620745.0,1747558000.0,17436358000.0
sh603486,科沃斯,2019-05-07,43.41,45.38,43.41,45.1,43.58,957962.0,42626939.0,1808510000.0,18044510000.0
sh603486,科沃斯,2019-05-08,44.8,45.85,43.8,44.92,45.1,706666.0,31942935.0,1801292000.0,17972492000.0
sh603486,科沃斯,2019-05-09,44.54,45.16,43.81,43.89,44.92,610435.0,27063515.0,1759989000.0,17560389000.0
sh603486,科沃斯,2019-05-10,44.55,45.98,42.81,45.8,43.89,1117149.0,49857464.0,1836580000.0,18324580000.0
sh603486,科沃斯,2019-05-13,45.38,45.38,43.91,44.24,45.8,760993.0,33788842.0,1774024000.0,17700424000.0
sh603486,科沃斯,2019-05-14,43.8,44.65,43.5,43.59,44.24,581893.0,25576642.0,1747959000.0,17440359000.0
sh603486,科沃斯,2019-05-15,44.0,44.46,43.7,44.32,43.59,629677.0,27767024.0,1777232000.0,17732432000.0
sh603486,科沃斯,2019-05-16,44.25,45.19,44.0,45.0,44.32,637398.0,28459233.0,1804500000.0,18004500000.0
sh603486,科沃斯,2019-05-17,45.08,45.28,42.71,43.03,45.0,1118540.0,48635390.0,1725503000.0,17216303000.0
sh603486,科沃斯,2019-05-20,42.95,42.95,40.11,42.21,43.03,764459.0,31734469.0,1692621000.0,16888221000.0
sh603486,科沃斯,2019-05-21,42.0,43.49,42.0,43.28,42.21,548854.0,23617404.0,1735528000.0,17316328000.0
sh603486,科沃斯,2019-05-22,43.41,43.41,42.6,42.9,43.28,383240.0,16468356.0,1720290000.0,17164290000.0
sh603486,科沃斯,2019-05-23,42.77,42.77,40.78,40.78,42.9,1048406.0,43718724.0,1635278000.0,16316078000.0
sh603486,科沃斯,2019-05-24,40.7,42.71,40.7,41.64,40.78,932089.0,39248928.0,1669764000.0,16660164000.0
sh603486,科沃斯,2019-05-27,42.84,43.87,41.7,43.58,41.64,706391.0,30364459.0,1747558000.0,17436358000.0
sh603486,科沃斯,2019-05-28,42.86,44.4,42.74,43.04,43.58,719413.0,31273000.0,5522915180.8,17220304000.0
sh603486,科沃斯,2019-05-29,42.99,43.71,42.67,43.55,43.04,725822.0,31310383.0,5588358646.0,17424355000.0
sh603486,科沃斯,2019-05-30,42.87,43.16,41.81,42.25,43.55,731243.0,30926605.0,5421541970.0,16904225000.0
sh603486,科沃斯,2019-05-31,42.42,43.69,42.21,42.85,42.25,595597.0,25621400.0,5498534282.0,17144285000.0
sh603486,科沃斯,2019-06-03,42.1,43.0,41.26,42.57,42.85,888019.0,37574622.0,5462604536.4,17032257000.0
sh603486,科沃斯,2019-06-04,42.88,42.88,41.61,42.14,42.57,482077.0,20328758.0,5407426712.8,16860214000.0
sh603486,科沃斯,2019-06-05,42.7,42.7,41.2,41.28,42.14,538647.0,22489035.0,5297071065.6,16516128000.0
sh603486,科沃斯,2019-06-06,41.5,41.5,38.84,39.01,41.28,1293833.0,51602853.0,5005783485.2,15607901000.0
sh603486,科沃斯,2019-06-10,39.85,40.15,39.02,39.07,39.01,1038781.0,40892743.0,5013482716.4,15631907000.0
sh603486,科沃斯,2019-06-11,38.99,41.48,38.82,41.35,39.07,1065996.0,42798946.0,5306053502.0,16544135000.0
sh603486,DR科沃斯,2019-06-12,30.0,30.05,29.31,29.57,29.25,1052270.0,31207251.0,5312212886.96,16563339800.0
sh603486,科沃斯,2019-06-13,29.18,29.66,28.31,28.9,29.57,1290105.0,37007236.0,5191848239.2,16188046000.0
sh603486,科沃斯,2019-06-14,28.63,29.82,28.4,28.48,28.9,1435910.0,41669107.0,5116395773.44,15952787200.0
sh603486,科沃斯,2019-06-17,28.4,28.87,27.81,28.01,28.48,914498.0,25764434.0,5031960871.28,15689521400.0
sh603486,科沃斯,2019-06-18,28.21,28.5,27.9,28.43,28.01,827113.0,23312112.0,5107413337.04,15924780200.0
sh603486,科沃斯,2019-06-19,28.97,29.76,28.41,28.5,28.43,1533656.0,44271146.0,5119988748.0,15963990000.0
sh603486,科沃斯,2019-06-20,28.33,28.86,28.03,28.72,28.5,1605151.0,45795411.0,5159511468.16,16087220800.0
sh603486,科沃斯,2019-06-21,28.85,30.1,28.8,30.08,28.72,4467657.0,131217403.0,5403833738.24,16849011200.0
sh603486,科沃斯,2019-06-24,29.55,31.08,29.3,30.08,30.08,3677375.0,110246473.0,5403833738.24,16849011200.0
sh603486,科沃斯,2019-06-25,30.08,30.12,29.5,29.91,30.08,1739284.0,51765200.0,5373293454.48,16753787400.0
sh603486,科沃斯,2019-06-26,29.91,30.87,29.63,30.26,29.91,2614280.0,79562868.0,5436170509.28,16949836400.0
sh603486,科沃斯,2019-06-27,30.4,30.77,29.84,30.24,30.26,1442815.0,43744408.0,5432577534.72,16938633600.0
sh603486,科沃斯,2019-06-28,30.07,30.5,30.0,30.25,30.24,1207995.0,36473714.0,5434374022.0,16944235000.0
sh603486,科沃斯,2019-07-01,31.2,31.55,30.65,30.92,30.25,2464203.0,76645084.0,5554738669.76,17319528800.0
sh603486,科沃斯,2019-07-02,30.92,31.6,30.92,31.15,30.92,2283700.0,71508877.0,5596057877.2,17448361000.0
sh603486,科沃斯,2019-07-03,31.22,31.45,30.51,30.98,31.15,1432844.0,44444323.0,5565517593.44,17353137200.0
sh603486,科沃斯,2019-07-04,30.97,31.59,30.97,31.29,30.98,1259684.0,39479181.0,5621208699.12,17526780600.0
sh603486,科沃斯,2019-07-05,31.25,31.43,30.8,31.34,31.29,894180.0,27905544.0,5630191135.52,17554787600.0
sh603486,科沃斯,2019-07-08,31.31,31.37,30.31,30.31,31.34,1398879.0,42898743.0,5445152945.68,16977843400.0
sh603486,科沃斯,2019-07-09,30.37,30.9,30.37,30.54,30.31,1265140.0,38793981.0,5486472153.12,17106675600.0
sh603486,科沃斯,2019-07-10,30.84,30.84,29.95,30.0,30.54,1062000.0,32140823.0,5389461840.0,16804200000.0
sh603486,科沃斯,2019-07-11,30.45,30.69,30.08,30.51,30.0,996598.0,30361374.0,5481082691.28,17089871400.0
sh603486,科沃斯,2019-07-12,30.19,30.85,30.12,30.84,30.51,1072254.0,32783297.0,5540366771.52,17274717600.0
sh603486,科沃斯,2019-07-15,30.69,30.69,29.83,30.22,30.84,1682868.0,50766831.0,5428984560.16,16927430800.0
sh603486,科沃斯,2019-07-16,30.18,30.18,29.2,29.31,30.22,1591232.0,47074201.0,5265504217.68,16417703400.0
sh603486,科沃斯,2019-07-17,29.34,29.64,28.91,28.99,29.31,1199182.0,35061697.0,5208016624.72,16238458600.0
sh603486,科沃斯,2019-07-18,28.83,28.88,27.91,27.91,28.99,1549998.0,43812786.0,5013995998.48,15633507400.0
sh603486,科沃斯,2019-07-19,28.08,28.68,27.74,27.83,27.91,1229259.0,34531800.0,4999624100.24,15588696200.0
sh603486,科沃斯,2019-07-22,28.0,28.37,26.2,26.47,27.83,1927029.0,52009879.0,4755301830.16,14826905800.0
sh603486,科沃斯,2019-07-23,26.6,26.88,26.36,26.72,26.47,947031.0,25261990.0,4800214012.16,14966940800.0
sh603486,科沃斯,2019-07-24,26.84,27.72,26.8,27.35,26.72,1950242.0,53438776.0,4913392710.8,15319829000.0
sh603486,科沃斯,2019-07-25,27.88,27.88,26.5,26.68,27.35,1999423.0,53831005.0,4793028063.04,14944535200.0
sh603486,科沃斯,2019-07-26,26.62,27.15,26.21,26.45,26.68,2309946.0,61317245.0,4751708855.6,14815703000.0
sh603486,科沃斯,2019-07-29,26.54,27.09,25.91,27.02,26.45,2917213.0,77355729.0,4854108630.56,15134982800.0
sh603486,科沃斯,2019-07-30,26.82,27.49,26.51,26.56,27.02,2819142.0,76121474.0,4771470215.68,14877318400.0
sh603486,科沃斯,2019-07-31,26.52,26.96,26.41,26.45,26.56,1360310.0,36264603.0,4751708855.6,14815703000.0
sh603486,科沃斯,2019-08-01,26.45,26.5,26.01,26.11,26.45,1188402.0,31111563.0,4690628288.08,14625255400.0
sh603486,科沃斯,2019-08-02,25.75,25.75,25.18,25.63,26.11,1806259.0,45897373.0,4604396898.64,14356388200.0
sh603486,科沃斯,2019-08-05,25.47,25.63,24.52,24.68,25.63,2228539.0,55697502.0,4433730607.04,13824255200.0
sh603486,科沃斯,2019-08-06,24.2,24.28,23.08,23.89,24.68,3232972.0,76853487.0,4291808111.92,13381744600.0
sh603486,科沃斯,2019-08-07,23.97,25.45,23.89,24.78,23.89,2761498.0,68553625.0,4451695479.84,13880269200.0
sh603486,科沃斯,2019-08-08,24.98,25.26,24.61,24.93,24.78,1345635.0,33586987.0,4478642789.04,13964290200.0
sh603486,科沃斯,2019-08-09,25.01,25.38,24.51,24.6,24.93,1257295.0,31278990.0,4419358708.8,13779444000.0
sh603486,科沃斯,2019-08-12,24.77,25.3,24.77,25.3,24.6,1045690.0,26203582.0,4545112818.4,14171542000.0
sh603486,科沃斯,2019-08-13,24.91,25.2,24.35,24.72,25.3,1526601.0,37798529.0,4440916556.16,13846660800.0
sh603486,科沃斯,2019-08-14,24.97,25.3,24.73,24.9,24.72,1658332.0,41588019.0,4473253327.2,13947486000.0
sh603486,科沃斯,2019-08-15,24.16,25.2,24.1,25.18,24.9,1563058.0,38841135.0,4523554971.04,14104325200.0
sh603486,科沃斯,2019-08-16,25.05,25.65,25.05,25.5,25.18,1650754.0,41992259.0,4581042564.0,14283570000.0
sh603486,科沃斯,2019-08-19,25.52,26.86,25.52,26.79,25.5,2876674.0,75493498.0,4812789423.12,15006150600.0
sh603486,科沃斯,2019-08-20,26.43,28.1,26.43,27.59,26.79,4878594.0,134392126.0,4956508405.52,15454262600.0
sh603486,科沃斯,2019-08-21,27.49,28.79,27.22,28.27,27.59,3402737.0,95887655.0,5078669540.56,15835157800.0
sh603486,科沃斯,2019-08-22,28.23,28.68,27.66,27.9,28.27,2046652.0,57108242.0,5012199511.2,15627906000.0
sh603486,科沃斯,2019-08-23,27.89,28.1,27.4,27.73,27.9,1535594.0,42765546.0,4981659227.44,15532682200.0
sh603486,科沃斯,2019-08-26,27.2,27.7,27.12,27.39,27.73,1379825.0,37721752.0,4920578659.92,15342234600.0
sh603486,科沃斯,2019-08-27,27.55,29.9,27.55,28.84,27.39,3451943.0,99396462.0,5181069315.52,16154437600.0
sh603486,科沃斯,2019-08-28,28.99,29.2,28.18,28.5,28.84,1769460.0,50590011.0,5119988748.0,15963990000.0
sh603486,科沃斯,2019-08-29,28.49,28.5,27.51,27.69,28.5,1903741.0,52917951.0,4974473278.32,15510276600.0
sh603486,科沃斯,2019-08-30,27.35,27.48,25.0,25.25,27.69,7196730.0,187804588.0,4536130382.0,14143535000.0
sh603486,科沃斯,2019-09-02,25.21,26.7,25.01,26.33,25.25,4237299.0,111174119.0,4730151008.24,14748486200.0
sh603486,科沃斯,2019-09-03,26.85,26.88,24.6,25.0,26.33,7973877.0,201007002.0,4491218200.0,14003500000.0
sh603486,科沃斯,2019-09-04,24.82,25.27,24.56,25.05,25.0,4397642.0,109409928.0,4500200636.4,14031507000.0
sh603486,科沃斯,2019-09-05,25.26,25.37,24.78,24.9,25.05,5893489.0,148054752.0,4473253327.2,13947486000.0
sh603486,科沃斯,2019-09-06,25.0,25.18,24.62,24.76,24.9,3756218.0,93456163.0,4448102505.28,13869066400.0
sh603486,科沃斯,2019-09-09,24.98,25.33,24.64,25.3,24.76,5140383.0,128532846.0,4545112818.4,14171542000.0
sh603486,科沃斯,2019-09-10,25.3,25.85,25.15,25.78,25.3,5710770.0,145878647.0,4631344207.84,14440409200.0
sh603486,科沃斯,2019-09-11,25.94,25.99,25.41,25.47,25.78,3667835.0,93898798.0,4575653102.16,14266765800.0
sh603486,科沃斯,2019-09-12,25.6,25.72,25.43,25.53,25.47,2770991.0,70803144.0,4586432025.84,14300374200.0
sh603486,科沃斯,2019-09-16,25.56,25.85,25.55,25.68,25.53,2834848.0,72821873.0,4613379335.04,14384395200.0
sh603486,科沃斯,2019-09-17,25.63,25.65,24.44,24.57,25.68,4651478.0,115723942.0,4413969246.96,13762639800.0
sh603486,科沃斯,2019-09-18,24.74,24.74,24.24,24.53,24.57,2804448.0,68718085.0,4406783297.84,13740234200.0
sh603486,科沃斯,2019-09-19,24.53,24.69,24.25,24.69,24.53,1705570.0,41687021.0,4435527094.32,13829856600.0
sh603486,科沃斯,2019-09-20,24.69,24.77,24.46,24.49,24.69,2387312.0,58788043.0,4399597348.72,13717828600.0
sh603486,科沃斯,2019-09-23,24.49,24.55,23.8,23.91,24.49,2787184.0,66800412.0,4295401086.48,13392947400.0
sh603486,科沃斯,2019-09-24,23.91,24.18,23.6,23.73,23.91,2346065.0,55982662.0,4263064315.44,13292122200.0
sh603486,科沃斯,2019-09-25,23.62,23.7,23.01,23.1,23.73,3409669.0,79182514.0,4149885616.8,12939234000.0
sh603486,科沃斯,2019-09-26,23.1,23.23,21.8,22.02,23.1,5151820.0,114957189.0,3955864990.56,12334282800.0
sh603486,科沃斯,2019-09-27,22.1,22.19,21.91,21.95,22.02,3197312.0,70427170.0,3943289579.6,12295073000.0
sh603486,科沃斯,2019-09-30,22.03,22.58,22.0,22.0,21.95,2286804.0,50902192.0,3952272016.0,12323080000.0
sh603486,科沃斯,2019-10-08,22.1,22.62,22.0,22.19,22.0,2451204.0,54741603.0,3986405274.32,12429506600.0
sh603486,科沃斯,2019-10-09,22.0,22.17,21.61,22.17,22.19,1806120.0,39596886.0,3982812299.76,12418303800.0
sh603486,科沃斯,2019-10-10,22.21,22.4,22.08,22.36,22.17,1822006.0,40593500.0,4016945558.08,12524730400.0
sh603486,科沃斯,2019-10-11,22.36,22.42,21.93,22.11,22.36,2605466.0,57637564.0,3972033376.08,12384695400.0
sh603486,科沃斯,2019-10-14,22.35,22.54,22.26,22.5,22.11,2854406.0,64035505.0,4042096380.0,12603150000.0
sh603486,科沃斯,2019-10-15,22.48,22.48,21.99,22.07,22.5,2287461.0,50626371.0,3964847426.96,12362289800.0
sh603486,科沃斯,2019-10-16,22.08,22.19,21.61,21.72,22.07,2043929.0,44788820.0,3901970372.16,12166240800.0
sh603486,科沃斯,2019-10-17,21.62,21.82,21.41,21.49,21.72,1859199.0,40219469.0,3860651164.72,12037408600.0
sh603486,科沃斯,2019-10-18,21.63,23.64,21.55,23.64,21.49,7525210.0,172542855.0,4246895929.92,13241709600.0
sh603486,科沃斯,2019-10-21,24.6,25.5,23.75,23.93,23.64,13057714.0,318443375.0,4298994061.04,13404150200.0
sh603486,科沃斯,2019-10-22,23.55,24.63,23.23,24.2,23.93,7653170.0,183965433.0,4347499217.6,13555388000.0
sh603486,科沃斯,2019-10-23,24.2,24.26,23.28,23.42,24.2,5580048.0,132276766.0,4207373209.76,13118478800.0
sh603486,科沃斯,2019-10-24,23.26,23.49,22.81,23.01,23.42,4416088.0,101904395.0,4133717231.28,12888821400.0
sh603486,科沃斯,2019-10-25,23.0,23.06,22.56,22.93,23.01,3707402.0,84489652.0,4119345333.04,12943471368.0
sh603486,科沃斯,2019-10-28,22.86,23.43,22.62,23.33,22.93,4361317.0,100618056.0,4191204824.24,13169262408.0
sh603486,科沃斯,2019-10-29,23.2,23.2,22.06,22.4,23.33,4790016.0,108543277.0,4024131507.2,12644298240.0
sh603486,科沃斯,2019-10-30,21.16,21.48,20.21,20.51,22.4,7507839.0,156181597.0,3684595411.28,11577435576.0
sh603486,科沃斯,2019-10-31,20.85,20.85,19.84,19.96,20.51,5099272.0,102915963.0,3585788610.88,11266972896.0
sh603486,科沃斯,2019-11-01,19.96,20.25,19.36,20.12,19.96,3427697.0,67948409.0,3614532407.36,11357289312.0
sh603486,科沃斯,2019-11-04,20.2,20.38,19.84,19.85,20.12,3120112.0,62453386.0,3566027250.8,11204880360.0
sh603486,科沃斯,2019-11-05,19.94,20.25,19.4,20.1,19.85,4501632.0,89413810.0,3610939432.8,11345999760.0
sh603486,科沃斯,2019-11-06,20.1,20.11,19.7,19.85,20.1,2409498.0,47919945.0,3566027250.8,11204880360.0
sh603486,科沃斯,2019-11-07,19.79,20.1,19.61,20.0,19.85,1732289.0,34501025.0,3592974560.0,11289552000.0
sh603486,科沃斯,2019-11-08,20.24,20.24,19.76,19.9,20.0,2229156.0,44560177.0,3575009687.2,11233104240.0
sh603486,科沃斯,2019-11-11,20.11,20.11,19.42,19.51,19.9,2401095.0,47066563.0,3504946683.28,11012957976.0
sh603486,科沃斯,2019-11-12,19.57,19.59,18.91,19.24,19.51,2592679.0,49693904.0,3456441526.72,10860549024.0
sh603486,科沃斯,2019-11-13,19.24,19.24,18.81,18.88,19.24,2179538.0,41289338.0,3391767984.64,10657337088.0
sh603486,科沃斯,2019-11-14,18.94,19.35,18.89,19.22,18.88,2379597.0,45511416.0,3452848552.16,10849259472.0
sh603486,科沃斯,2019-11-15,19.38,19.38,18.59,18.6,19.22,2441920.0,46016830.0,3341466340.8,10499283360.0
sh603486,科沃斯,2019-11-18,18.74,19.35,18.52,19.02,18.6,2512583.0,47580725.0,3416918806.56,10736363952.0
sh603486,科沃斯,2019-11-19,18.97,19.5,18.95,19.36,19.02,3243443.0,62579149.0,3477999374.08,10928286336.0
sh603486,科沃斯,2019-11-20,19.4,19.49,19.15,19.21,19.36,2297096.0,44271408.0,3451052064.88,10843614696.0
sh603486,科沃斯,2019-11-21,19.1,19.33,18.82,19.31,19.21,1924570.0,36835222.0,3469016937.68,10900062456.0
sh603486,科沃斯,2019-11-22,19.35,20.65,19.26,19.73,19.31,5481071.0,109218788.0,3544469403.44,11137143048.0
sh603486,科沃斯,2019-11-25,19.5,19.7,19.06,19.2,19.73,2365735.0,45487431.0,3449255577.6,10837969920.0
sh603486,科沃斯,2019-11-26,19.21,19.33,18.99,19.05,19.2,1150665.0,21980734.0,3422308268.4,10753298280.0
sh603486,科沃斯,2019-11-27,19.07,19.45,18.85,19.3,19.05,2018774.0,38741563.0,3467220450.4,10894417680.0
sh603486,科沃斯,2019-11-28,19.1,19.32,18.92,19.02,19.3,1479671.0,28234341.0,3416918806.56,10736363952.0
sh603486,科沃斯,2019-11-29,19.0,19.14,18.89,19.05,19.02,1197158.0,22781413.0,3422308268.4,10753298280.0
sh603486,科沃斯,2019-12-02,19.05,19.28,18.91,18.93,19.05,1066778.0,20306195.0,3400750421.04,10685560968.0
sh603486,科沃斯,2019-12-03,18.94,19.08,18.81,19.07,18.93,1131720.0,21434777.0,3425901242.96,10764587832.0
sh603486,科沃斯,2019-12-04,18.9,19.05,18.88,18.97,19.07,1063523.0,20159304.0,3407936370.16,10708140072.0
sh603486,科沃斯,2019-12-05,19.23,19.34,19.06,19.23,18.97,2040019.0,39202620.0,3454645039.44,10854904248.0
sh603486,科沃斯,2019-12-06,19.38,20.88,19.38,20.23,19.23,7844283.0,159158632.0,3634293767.44,11419381848.0
sh603486,科沃斯,2019-12-09,19.88,20.18,19.68,19.98,20.23,3305045.0,65780196.0,3589381585.44,11278262448.0
sh603486,科沃斯,2019-12-10,19.9,19.98,19.64,19.94,19.98,2300283.0,45587497.0,3582195636.32,11255683344.0
sh603486,科沃斯,2019-12-11,19.97,20.52,19.93,20.42,19.94,4660544.0,94802772.0,3668427025.76,11526632592.0
sh603486,科沃斯,2019-12-12,20.28,20.65,20.01,20.05,20.42,3420062.0,69503251.0,3601956996.4,11317775880.0
sh603486,科沃斯,2019-12-13,20.22,20.78,20.2,20.48,20.05,5725446.0,117470015.0,3679205949.44,11560501248.0
sh603486,科沃斯,2019-12-16,20.65,20.76,20.31,20.66,20.48,4949458.0,101817961.0,3711542720.48,11662107216.0
sh603486,科沃斯,2019-12-17,20.55,20.84,20.52,20.55,20.66,4978153.0,102767381.0,3691781360.4,11600014680.0
sh603486,科沃斯,2019-12-18,20.68,21.99,20.68,21.5,20.55,11652607.0,247832838.0,3862447652.0,12136268400.0
sh603486,科沃斯,2019-12-19,21.31,21.76,21.0,21.45,21.5,8403992.0,179334568.0,3853465215.6,12108044520.0
sh603486,科沃斯,2019-12-20,21.4,21.4,20.89,21.11,21.45,4609437.0,97588135.0,3792384648.08,11916122136.0
sh603486,科沃斯,2019-12-23,20.91,21.13,20.11,20.2,21.11,3897304.0,80382082.0,3628904305.6,11402447520.0
sh603486,科沃斯,2019-12-24,20.31,20.44,20.08,20.35,20.2,2688560.0,54521680.0,3655851614.8,11487119160.0
sh603486,科沃斯,2019-12-25,20.31,20.7,20.23,20.39,20.35,2660523.0,54495530.0,3663037563.92,11509698264.0
sh603486,科沃斯,2019-12-26,20.63,20.63,20.34,20.53,20.39,1819262.0,37242946.0,3688188385.84,11588725128.0
sh603486,科沃斯,2019-12-27,20.57,20.69,20.23,20.25,20.53,3044780.0,62316132.0,3637886742.0,11430671400.0
sh603486,科沃斯,2019-12-30,20.24,20.4,19.82,20.31,20.25,2275960.0,45823078.0,3648665665.68,11464540056.0
sh603486,科沃斯,2019-12-31,20.31,20.44,20.1,20.29,20.31,1990820.0,40324814.0,3645072691.12,11453250504.0
sh603486,科沃斯,2020-01-02,20.45,21.2,20.43,21.03,20.29,4166447.0,87152437.0,3778012749.84,11870963928.0
sh603486,科沃斯,2020-01-03,21.1,21.45,20.93,21.15,21.03,3612417.0,76564709.0,3799570597.2,11938701240.0
sh603486,科沃斯,2020-01-06,21.15,21.88,20.93,21.86,21.15,5718934.0,122772434.0,3927121194.08,12339480336.0
sh603486,科沃斯,2020-01-07,21.74,22.08,21.66,21.91,21.86,3652182.0,79814548.0,3936103630.48,12367704216.0
sh603486,科沃斯,2020-01-08,21.61,22.34,21.5,21.6,21.91,5570571.0,121749760.0,3880412524.8,12192716160.0
sh603486,科沃斯,2020-01-09,21.74,22.17,21.74,21.82,21.6,3570468.0,78245113.0,3919935244.96,12316901232.0
sh603486,科沃斯,2020-01-10,21.7,22.05,21.7,21.83,21.82,2699564.0,59093304.0,3921731732.24,12322546008.0
sh603486,科沃斯,2020-01-13,21.76,22.12,21.52,21.98,21.83,2488841.0,54403486.0,3948679041.44,12407217648.0
sh603486,科沃斯,2020-01-14,21.97,22.87,21.97,22.57,21.98,5502979.0,124141104.0,4054671790.96,12740259432.0
sh603486,科沃斯,2020-01-15,22.6,22.74,22.05,22.48,22.57,2990761.0,66873691.0,4038503405.44,12689456448.0
sh603486,科沃斯,2020-01-16,22.34,22.89,22.31,22.42,22.48,2422254.0,54653927.0,4027724481.76,12655587792.0
sh603486,科沃斯,2020-01-17,22.5,22.63,22.06,22.29,22.42,2200574.0,49098222.0,4004370147.12,12582205704.0
sh603486,科沃斯,2020-01-20,22.08,22.39,21.51,22.25,22.29,2746247.0,60538475.0,3997184198.0,12559626600.0
sh603486,科沃斯,2020-01-21,22.23,22.68,21.73,22.4,22.25,3315610.0,73761991.0,4024131507.2,12644298240.0
sh603486,科沃斯,2020-01-22,22.49,22.5,21.7,22.47,22.4,3738312.0,82815786.0,4036706918.16,12683811672.0
sh603486,科沃斯,2020-01-23,22.2,22.3,21.07,22.1,22.47,4444103.0,96409946.0,3970236888.8,12474954960.0
sh603486,科沃斯,2020-02-03,19.89,20.21,19.89,19.89,22.1,1361220.0,27082169.0,3573213199.92,11227459464.0
sh603486,科沃斯,2020-02-04,18.9,20.17,18.9,19.9,19.89,5603740.0,110345030.0,3575009687.2,11233104240.0
sh603486,科沃斯,2020-02-05,19.98,21.7,19.76,21.55,19.9,5173006.0,107909798.0,3871430088.4,12164492280.0
sh603486,科沃斯,2020-02-06,22.26,23.71,21.77,23.71,21.55,13149275.0,302826177.0,4259471340.88,13383763896.0
sh603486,科沃斯,2020-02-07,25.0,25.0,23.4,24.2,23.71,9585017.0,231108958.0,4347499217.6,13660357920.0
sh603486,科沃斯,2020-02-10,25.0,25.76,23.85,25.4,24.2,10010533.0,250700012.0,4563077691.2,14337731040.0
sh603486,科沃斯,2020-02-11,25.03,25.29,24.0,24.45,25.4,7592064.0,187427012.0,4392411399.6,13801477320.0
sh603486,科沃斯,2020-02-12,24.69,25.46,24.24,25.08,24.45,5438199.0,135177830.0,4505590098.24,14157098208.0
sh603486,科沃斯,2020-02-13,25.26,26.85,25.01,25.76,25.08,7890900.0,205879265.0,4627751233.28,14540942976.0
sh603486,科沃斯,2020-02-14,25.5,26.27,24.7,25.25,25.76,5367111.0,136527305.0,4536130382.0,14253059400.0
sh603486,科沃斯,2020-02-17,25.66,25.67,24.75,25.31,25.25,5055015.0,126976844.0,4546909305.68,14286928056.0
sh603486,科沃斯,2020-02-18,25.31,26.07,25.18,25.55,25.31,5493672.0,140610238.0,4590025000.4,14422402680.0
sh603486,科沃斯,2020-02-19,25.88,27.75,25.26,27.16,25.55,8913432.0,238104131.0,4879259452.48,15331211616.0
sh603486,科沃斯,2020-02-20,27.45,28.0,26.08,28.0,27.16,8798673.0,237746732.0,5030164384.0,15805372800.0
sh603486,科沃斯,2020-02-21,27.76,27.77,26.65,26.99,28.0,8623444.0,233947130.0,4848719168.72,15235250424.0
sh603486,科沃斯,2020-02-24,26.2,26.45,25.0,25.59,26.99,8797738.0,226226473.0,4597210949.52,14444981784.0
sh603486,科沃斯,2020-02-25,25.29,26.6,24.59,26.54,25.59,7641707.0,195999851.0,4767877241.12,14981235504.0
sh603486,科沃斯,2020-02-26,25.89,26.29,25.09,25.13,26.54,4417568.0,112785283.0,4514572534.64,14185322088.0
sh603486,科沃斯,2020-02-27,25.13,25.61,24.75,25.24,25.13,2692432.0,67829441.0,4534333894.72,14247414624.0
sh603486,科沃斯,2020-02-28,24.7,24.94,23.02,23.05,25.24,4546373.0,108846851.0,4140903180.4,13011208680.0
sh603486,科沃斯,2020-03-02,23.45,23.87,23.45,23.64,23.05,3394048.0,80330869.0,4246895929.92,13344250464.0
sh603486,科沃斯,2020-03-03,23.86,24.49,23.35,23.7,23.64,3349279.0,80310851.0,4257674853.6,13378119120.0
sh603486,科沃斯,2020-03-04,23.7,23.88,23.01,23.47,23.7,3186045.0,74649572.0,4216355646.16,13248289272.0
sh603486,科沃斯,2020-03-05,23.7,24.8,23.47,24.45,23.47,5485278.0,132082911.0,4392411399.6,13801477320.0
sh603486,科沃斯,2020-03-06,23.99,25.23,23.8,24.73,24.45,5327909.0,131171972.0,4442713043.44,13959531048.0
sh603486,科沃斯,2020-03-09,24.1,24.46,23.15,23.15,24.73,3584240.0,85141232.0,4158868053.2,13067656440.0
sh603486,科沃斯,2020-03-10,22.9,24.18,22.82,23.95,23.15,3501914.0,82429555.0,4302587035.6,13519238520.0
sh603486,科沃斯,2020-03-11,24.0,24.29,23.57,23.62,23.95,3294690.0,78855673.0,4243302955.36,13332960912.0
sh603486,科沃斯,2020-03-12,23.21,23.73,23.21,23.6,23.62,2544815.0,59633708.0,4239709980.8,13321671360.0
sh603486,科沃斯,2020-03-13,22.8,23.18,21.63,22.58,23.6,4571558.0,102363225.0,4056468278.24,12745904208.0
sh603486,科沃斯,2020-03-16,22.8,22.81,21.01,21.15,22.58,3318805.0,72973248.0,3799570597.2,11938701240.0
sh603486,科沃斯,2020-03-17,21.36,21.79,20.19,21.0,21.15,2839037.0,59660940.0,3772623288.0,11854029600.0
sh603486,科沃斯,2020-03-18,21.2,21.45,20.36,20.4,21.0,4170940.0,87285534.0,3664834051.2,11515343040.0
sh603486,科沃斯,2020-03-19,20.34,20.52,19.62,20.11,20.4,4399184.0,88074636.0,3612735920.08,11351644536.0
sh603486,科沃斯,2020-03-20,20.28,20.37,19.85,20.11,20.11,3031492.0,60975621.0,3612735920.08,11351644536.0
sh603486,科沃斯,2020-03-23,19.65,19.98,18.45,18.66,20.11,4162482.0,79531843.0,3352245264.48,10533152016.0
sh603486,科沃斯,2020-03-24,18.79,20.41,18.78,19.32,18.66,5353441.0,103402886.0,3470813424.96,10905707232.0
sh603486,科沃斯,2020-03-25,19.69,19.88,19.35,19.7,19.32,3750941.0,73606780.0,3539079941.6,11120208720.0
sh603486,科沃斯,2020-03-26,19.51,19.9,19.17,19.66,19.7,2458061.0,48110735.0,3531893992.48,11097629616.0
sh603486,科沃斯,2020-03-27,19.96,20.99,19.92,20.05,19.66,5646959.0,115522217.0,3601956996.4,11317775880.0
sh603486,科沃斯,2020-03-30,19.75,19.94,19.05,19.18,20.05,3786594.0,73308846.0,3445662603.04,10826680368.0
sh603486,科沃斯,2020-03-31,19.54,19.66,19.05,19.27,19.18,2471341.0,47726085.0,3461830988.56,10877483352.0
sh603486,科沃斯,2020-04-01,19.41,19.68,19.1,19.19,19.27,2004910.0,38867610.0,3447459090.32,10832325144.0
sh603486,科沃斯,2020-04-02,19.09,19.65,19.0,19.56,19.19,2565246.0,49761498.0,3513929119.68,11041181856.0
sh603486,科沃斯,2020-04-03,19.6,19.6,19.06,19.16,19.56,2198290.0,42405303.0,3442069628.48,10815390816.0
sh603486,科沃斯,2020-04-07,19.47,20.2,19.46,20.12,19.16,4089654.0,80963295.0,3614532407.36,11357289312.0
sh603486,科沃斯,2020-04-08,19.92,20.12,19.75,19.9,20.12,3059560.0,60999266.0,3575009687.2,11233104240.0
sh603486,科沃斯,2020-04-09,20.16,20.18,19.86,19.91,19.9,1656796.0,33123408.0,3576806174.48,11238749016.0
sh603486,科沃斯,2020-04-10,19.85,20.2,19.41,19.44,19.91,2179680.0,43041947.0,3492371272.32,10973444544.0
sh603486,科沃斯,2020-04-13,19.21,19.44,18.97,19.06,19.44,1837082.0,35086020.0,3424104755.68,10758943056.0
sh603486,科沃斯,2020-04-14,19.2,19.26,18.82,18.99,19.06,4165666.0,79028889.0,3411529344.72,10719429624.0
sh603486,科沃斯,2020-04-15,19.02,19.06,18.62,18.78,18.99,3473091.0,65251800.0,3373803111.84,10600889328.0
sh603486,科沃斯,2020-04-16,18.6,19.15,18.56,19.11,18.78,2899120.0,54868247.0,3433087192.08,10787166936.0
sh603486,科沃斯,2020-04-17,19.19,20.2,19.17,19.62,19.11,5542265.0,109081861.0,3524708043.36,11075050512.0
sh603486,科沃斯,2020-04-20,19.86,19.95,19.48,19.83,19.62,2637820.0,52061588.0,3562434276.24,11193590808.0
sh603486,科沃斯,2020-04-21,19.9,19.9,19.42,19.61,19.83,1993380.0,39039641.0,3522911556.08,11069405736.0
sh603486,科沃斯,2020-04-22,19.58,19.86,19.42,19.81,19.61,1663099.0,32823669.0,3558841301.68,11182301256.0
sh603486,科沃斯,2020-04-23,19.82,19.86,19.54,19.56,19.81,1393040.0,27430887.0,3513929119.68,11041181856.0
sh603486,科沃斯,2020-04-24,19.56,19.74,19.27,19.35,19.56,1250614.0,24395835.0,3476202886.8,10922641560.0
sh603486,科沃斯,2020-04-27,19.45,19.58,19.06,19.12,19.35,1477840.0,28513975.0,3434883679.36,10792811712.0
sh603486,科沃斯,2020-04-28,19.04,19.18,17.9,18.54,19.12,3610210.0,66528261.0,3330687417.12,10465414704.0
sh603486,科沃斯,2020-04-29,18.54,18.86,18.4,18.55,18.54,1208195.0,22510157.0,3332483904.4,10471059480.0
sh603486,科沃斯,2020-04-30,18.65,19.49,18.65,19.47,18.55,2787437.0,53755710.0,3497760734.16,10990378872.0
sh603486,科沃斯,2020-05-06,19.32,20.64,19.11,20.34,19.47,4880807.0,97476158.0,3654055127.52,11481474384.0
sh603486,科沃斯,2020-05-07,20.04,20.24,19.6,19.63,20.34,4450120.0,88442564.0,3526504530.64,11080695288.0
sh603486,科沃斯,2020-05-08,19.75,20.37,19.66,20.3,19.63,4124869.0,82801883.0,3646869178.4,11458895280.0
sh603486,科沃斯,2020-05-11,20.3,21.8,20.3,21.27,20.3,8033400.0,170526151.0,3821128444.56,12006438552.0
sh603486,科沃斯,2020-05-12,21.1,21.18,20.58,20.93,21.27,3988255.0,83242170.0,3760047877.04,11814516168.0
sh603486,科沃斯,2020-05-13,20.84,21.45,20.61,21.25,20.93,3649072.0,77098920.0,3817535470.0,11995149000.0
sh603486,科沃斯,2020-05-14,21.15,23.01,21.02,22.18,21.25,6670691.0,147869468.0,3984608787.04,12520113168.0
sh603486,科沃斯,2020-05-15,22.35,23.67,22.18,23.44,22.18,7339744.0,168999352.0,4210966184.32,13231354944.0
sh603486,科沃斯,2020-05-18,23.49,23.88,22.4,22.6,23.44,6395407.0,146475275.0,4060061252.8,12757193760.0
sh603486,科沃斯,2020-05-19,22.94,24.86,22.81,24.86,22.6,8840555.0,212905286.0,4466067378.08,14032913136.0
sh603486,科沃斯,2020-05-20,25.85,26.69,24.92,26.09,24.86,12989164.0,336256161.0,4687035313.52,14727220584.0
sh603486,科沃斯,2020-05-21,26.05,26.59,25.35,25.95,26.09,6266438.0,163766873.0,4661884491.6,14648193720.0
sh603486,科沃斯,2020-05-22,25.87,26.1,24.79,25.32,25.95,5927164.0,150647737.0,4548705792.96,14292572832.0
sh603486,科沃斯,2020-05-25,25.21,26.14,25.04,25.35,25.32,5276700.0,134616559.0,4554095254.8,14309507160.0
sh603486,科沃斯,2020-05-26,25.62,27.2,25.5,26.37,25.35,7770782.0,206075355.0,4737336957.36,14885274312.0
sh603486,科沃斯,2020-05-27,26.49,26.89,25.82,26.42,26.37,4211294.0,110941787.0,4746319393.76,14913498192.0
sh603486,科沃斯,2020-05-28,26.13,26.29,25.46,26.16,26.42,4573557.0,118607571.0,4699610724.48,14766734016.0
sh603486,科沃斯,2020-05-29,26.02,28.24,25.71,27.67,26.16,7606618.0,209221460.0,4970880303.76,15619095192.0
sh603486,科沃斯,2020-06-01,27.89,29.97,27.89,29.28,27.67,9153246.0,266130381.0,5260114755.84,16527904128.0
sh603486,科沃斯,2020-06-02,29.39,30.19,28.82,29.2,29.28,6998878.0,206646388.0,5245742857.6,16482745920.0
sh603486,科沃斯,2020-06-03,29.34,29.49,28.8,29.2,29.2,4016140.0,117212306.0,5245742857.6,16482745920.0
sh603486,科沃斯,2020-06-04,29.39,29.76,28.95,29.36,29.2,5212436.0,152620739.0,5274486654.08,16573062336.0
sh603486,科沃斯,2020-06-05,28.91,29.31,28.0,28.68,29.36,7490247.0,213570822.0,5152325519.04,16189217568.0
sh603486,科沃斯,2020-06-08,28.99,29.75,28.36,28.76,28.68,7043505.0,203959345.0,5166697417.28,16234375776.0
sh603486,科沃斯,2020-06-09,29.14,29.14,28.22,28.73,28.76,5250191.0,150522798.0,5161307955.44,16217441448.0
sh603486,科沃斯,2020-06-10,29.22,29.22,28.15,28.75,28.73,2841042.0,81024161.0,5164900930.0,16228731000.0
sh603486,科沃斯,2020-06-11,28.68,29.2,27.82,28.18,28.75,6410214.0,180766958.0,5062501155.04,15906978768.0
sh603486,科沃斯,2020-06-12,27.1,28.48,26.83,28.08,28.18,5248706.0,145803528.0,5044536282.24,15850531008.0
sh603486,科沃斯,2020-06-15,28.51,28.66,27.55,27.77,28.08,3692670.0,103860505.0,4988845176.559999,15675542952.0
sh603486,科沃斯,2020-06-16,28.2,28.48,27.72,27.85,27.77,3377923.0,94589016.0,5003217074.8,15720701160.0
sh603486,科沃斯,2020-06-17,28.1,29.08,27.33,28.46,27.85,5548163.0,156569475.0,5112802798.88,16065032496.0
sh603486,科沃斯,2020-06-18,28.52,28.93,27.47,28.25,28.46,4541806.0,127182179.0,5075076566.0,15946492200.0
sh603486,科沃斯,2020-06-19,27.94,31.08,27.83,31.08,28.25,6383029.0,192395339.0,5583482466.24,17543963808.0
sh603486,科沃斯,2020-06-22,31.08,31.4,30.15,30.25,31.08,7307441.0,224067178.0,5434374022.0,17075447400.0
sh603486,科沃斯,2020-06-23,30.56,30.68,29.65,30.25,30.25,4644142.0,140025855.0,5434374022.0,17075447400.0
sh603486,科沃斯,2020-06-24,30.3,31.5,29.86,31.49,30.25,5803062.0,178540308.0,5657138444.72,17775399624.0
sh603486,科沃斯,2020-06-29,31.0,31.1,29.9,30.4,31.49,4270380.0,129925938.0,5461321331.2,17160119040.000004
sh603486,科沃斯,2020-06-30,30.61,31.08,30.12,30.21,30.4,2558204.0,77962842.0,5427188072.88,17052868296.0
sh603486,科沃斯,2020-07-01,30.39,32.38,30.05,31.46,30.21,4755217.0,148546361.0,5651748982.88,17758465296.0
sh603486,科沃斯,2020-07-02,31.51,32.23,31.2,31.94,31.46,3692610.0,116862355.0,5737980372.320001,18029414544.0
sh603486,科沃斯,2020-07-03,32.21,32.37,31.51,31.79,31.94,3843232.0,122616556.0,5711033063.12,17944742904.0
sh603486,科沃斯,2020-07-06,32.1,32.1,31.1,31.7,31.79,5738497.0,180934379.0,5694864677.6,17893939920.0
sh603486,科沃斯,2020-07-07,31.77,33.44,31.55,33.0,31.7,5872818.0,191371859.0,5928408024.0,18627760800.0
sh603486,科沃斯,2020-07-08,32.5,33.2,30.74,32.0,33.0,7996794.0,253232685.0,5748759296.0,18063283200.0
sh603486,科沃斯,2020-07-09,31.6,32.95,31.0,32.54,32.0,5395412.0,172881790.0,5845769609.120001,18327282114.5
sh603486,科沃斯,2020-07-10,32.27,32.96,32.01,32.18,32.54,3857160.0,125150660.0,5781096067.04,18124521771.5
sh603486,科沃斯,2020-07-13,32.8,33.35,32.06,33.01,32.18,4687424.0,153204704.0,5930204511.280001,18591997006.75
sh603486,科沃斯,2020-07-14,33.29,33.29,31.26,31.94,33.01,4589975.0,146839268.0,5737980372.320001,17989348209.5
sh603486,科沃斯,2020-07-15,31.94,32.29,31.09,31.25,31.94,3066061.0,96748046.0,5614022750.0,17600724218.75
sh603486,科沃斯,2020-07-16,31.55,32.13,29.12,29.2,31.25,4641215.0,141704654.0,5245742857.6,16446116710.0
sh603486,科沃斯,2020-07-17,29.23,30.5,28.52,29.2,29.2,4846866.0,142689554.0,5245742857.6,16446116710.0
sh603486,科沃斯,2020-07-20,29.5,29.7,28.29,29.0,29.2,5779733.0,166232105.0,5209813112.0,16333472075.0
sh603486,科沃斯,2020-07-21,29.0,30.8,28.89,29.69,29.0,5254162.0,155571959.0,5333770734.32,16722096065.750002
sh603486,科沃斯,2020-07-22,29.65,30.28,29.3,29.53,29.69,3848754.0,114421916.0,5305026937.84,16631980357.75
sh603486,科沃斯,2020-07-23,29.48,29.88,28.53,29.22,29.53,3227977.0,94101591.0,5249335832.16,16457381173.5
sh603486,科沃斯,2020-07-24,29.39,30.2,28.05,28.1,29.22,6589460.0,191214099.0,5048129256.8,15826571217.5
sh603486,科沃斯,2020-07-27,28.11,29.49,27.5,29.18,28.1,6427777.0,185550543.0,5242149883.04,16434852246.5
sh603486,科沃斯,2020-07-28,29.33,29.86,28.8,29.5,29.18,3054480.0,89344052.0,5299637476.0,16615083662.5
sh603486,科沃斯,2020-07-29,29.3,30.74,29.05,30.72,29.5,4901705.0,148654781.0,5518808924.16,17302215936.0
sh603486,科沃斯,2020-07-30,31.35,31.66,29.91,30.75,30.72,5555765.0,170569941.0,5524198386.0,17319112631.25
sh603486,科沃斯,2020-07-31,30.7,32.2,30.51,31.6,30.75,4417015.0,139035632.0,5676899804.8,17797852330.0
sh603486,科沃斯,2020-08-03,32.2,32.77,31.51,32.53,31.6,3211647.0,103358760.0,5843973121.84,18321649882.75
sh603486,科沃斯,2020-08-04,32.78,34.19,32.34,32.89,32.53,4155938.0,138175756.0,5908646663.92,18524410225.75
sh603486,科沃斯,2020-08-05,32.87,36.18,32.52,36.18,32.89,4929901.0,172115061.0,6499690979.04,20377414471.5
sh603486,科沃斯,2020-08-06,37.7,37.7,34.97,35.7,36.18,5981515.0,214460972.0,6413459589.599999,20107067347.5
sh603486,科沃斯,2020-08-07,36.0,38.97,35.8,38.9,35.7,7803245.0,294923913.0,6988335519.2,21909381507.5
sh603486,科沃斯,2020-08-10,37.8,40.64,36.51,39.44,38.9,7328127.0,281228455.0,7085345832.32,22213522022.0
sh603486,科沃斯,2020-08-11,39.0,40.18,37.84,38.24,39.44,4393344.0,169874900.0,6869767358.72,21537654212.000004
sh603486,科沃斯,2020-08-12,38.0,38.99,36.3,37.2,38.24,5614821.0,209847872.0,6682932681.599999,20951902110.0
sh603486,科沃斯,2020-08-13,37.5,40.3,37.0,38.81,37.2,4962600.0,191751919.0,6972167133.68,21858691421.75
sh603486,科沃斯,2020-08-14,38.56,39.28,37.72,38.92,38.81,2744375.0,105633922.0,6991928493.76,21920645971.0
sh603486,科沃斯,2020-08-17,39.28,40.4,38.44,39.61,38.92,2840884.0,111890957.0,7115886116.08,22309269961.75
sh603486,科沃斯,2020-08-18,40.2,40.39,38.22,39.58,39.61,2515712.0,98654493.0,7110496654.24,22292373266.5
sh603486,科沃斯,2020-08-19,40.19,40.58,38.58,38.58,39.58,3301849.0,130149955.0,6930847926.24,21729150091.5
sh603486,科沃斯,2020-08-20,37.77,40.23,37.25,37.73,38.58,7094508.0,274773832.0,6778146507.44,21250410392.75
sh603486,科沃斯,2020-08-21,38.7,39.99,38.0,38.4,37.73,8150043.0,318190405.0,6898511155.2,21627769920.0
sh603486,科沃斯,2020-08-24,38.85,39.79,37.9,39.35,38.4,6704660.0,261029895.0,7069177446.8,22162831936.25
sh603486,科沃斯,2020-08-25,39.34,39.49,37.26,38.13,39.35,6130376.0,233554303.0,6850005998.64,21475699662.75
sh603486,科沃斯,2020-08-26,38.81,39.18,37.53,38.15,38.13,3969137.0,152617231.0,6853598973.2,21486964126.25
sh603486,科沃斯,2020-08-27,38.98,40.64,37.8,40.38,38.15,5147550.0,204106946.0,7254215636.64,22742951806.5
sh603486,科沃斯,2020-08-28,40.3,40.74,37.33,40.35,40.38,7219912.0,279692403.0,7248826174.8,22726055111.250004
sh603486,科沃斯,2020-08-31,39.2,40.19,38.4,38.57,40.35,5878812.0,229691608.0,6929051438.96,21723517859.75
sh603486,科沃斯,2020-09-01,38.38,40.6,38.34,40.4,38.57,5664673.0,225409791.0,7257808611.2,22754216270.0
sh603486,科沃斯,2020-09-02,40.4,42.19,38.8,41.6,40.4,6279285.0,254028045.0,7473387084.8,23430084080.0
sh603486,科沃斯,2020-09-03,41.76,43.88,41.05,42.82,41.6,5820223.0,248607337.0,7692558532.96,24117216353.5
sh603486,科沃斯,2020-09-04,42.0,43.95,41.7,42.88,42.82,3201915.0,137316727.0,7703337456.64,24151009744.0
sh603486,科沃斯,2020-09-07,43.4,44.18,42.17,42.49,42.88,3330020.0,143278289.0,7633274452.72,23931352705.75
sh603486,科沃斯,2020-09-08,42.14,43.0,41.0,42.73,42.49,3187730.0,134331988.0,7676390147.440001,24066526267.75
sh603486,科沃斯,2020-09-09,42.27,42.58,39.3,39.97,42.73,4562387.0,186773897.0,7180559658.16,22512030304.75
sh603486,科沃斯,2020-09-10,40.21,40.8,39.0,39.64,39.97,3371819.0,134773667.0,7121275577.92,22326166657.0
sh603486,科沃斯,2020-09-11,39.35,42.28,39.13,41.92,39.64,3636196.0,149648678.0,7530874677.76,23610315496.0
sh603486,科沃斯,2020-09-14,42.62,44.08,41.6,43.1,41.92,3053044.0,131521866.0,7742860176.8,24274918842.5
sh603486,科沃斯,2020-09-15,43.21,44.0,42.11,43.14,43.1,2676582.0,115493642.0,7750046125.92,24297447769.5
sh603486,科沃斯,2020-09-16,42.96,43.54,42.0,43.36,43.14,2361110.0,101487667.0,7789568846.080001,24421356868.0
sh603486,科沃斯,2020-09-17,43.8,47.7,43.8,47.7,43.36,5587143.0,257973915.0,8569244325.599999,26865745447.5
sh603486,科沃斯,2020-09-18,48.93,51.28,48.51,50.1,47.7,6478377.0,321731425.0,9000401272.8,28217481067.5
sh603486,科沃斯,2020-09-21,51.1,51.28,49.5,50.16,50.1,3763791.0,188760388.0,9011180196.48,28251274458.0
sh603486,科沃斯,2020-09-22,50.16,50.75,49.23,49.74,50.16,3146605.0,157357672.0,8935727730.72,28014720724.5
sh603486,科沃斯,2020-09-23,50.63,50.88,49.03,49.4,49.74,3453388.0,171373160.0,8874647163.2,27823224845.0
sh603486,科沃斯,2020-09-24,49.87,49.88,48.5,48.9,49.4,1835426.0,89794353.0,8784822799.2,27541613257.5
sh603486,科沃斯,2020-09-25,49.33,49.33,46.1,46.4,48.9,4073808.0,191857687.0,8335700979.2,26133555320.0
sh603486,科沃斯,2020-09-28,47.0,47.47,45.4,45.93,46.4,4707152.0,216786992.0,8251266077.04,25868840427.75
sh603486,科沃斯,2020-09-29,46.04,47.35,45.1,46.71,45.93,2368837.0,110346765.0,8391392084.88,26308154504.25
sh603486,科沃斯,2020-09-30,46.74,47.75,45.81,46.29,46.71,2365592.0,110437665.0,8315939619.12,26071600770.75
sh603486,科沃斯,2020-10-09,47.25,48.88,46.88,48.44,46.29,2885387.0,138262229.0,8702184384.32,27282530597.0
sh603486,科沃斯,2020-10-12,48.44,48.73,46.76,47.39,48.44,3767095.0,178805012.0,8513553219.92,26691146263.25
sh603486,科沃斯,2020-10-13,47.3,48.4,45.79,48.0,47.39,3066909.0,145033662.0,8623138944.0,27034712400.000004
sh603486,科沃斯,2020-10-14,47.5,50.24,47.0,49.4,48.0,4574693.0,224607924.0,8874647163.2,27823224845.0
sh603486,科沃斯,2020-10-15,49.5,54.34,49.5,54.34,49.4,3283667.0,173919155.0,9762111879.52,30605547329.5
sh603486,科沃斯,2020-10-16,52.92,55.78,51.8,54.49,54.34,5317573.0,286785571.0,9789059188.72,30690030805.75
sh603486,科沃斯,2020-10-19,55.31,55.36,52.75,53.88,54.49,3386673.0,182026191.0,9679473464.64,30346464669.0
sh603486,科沃斯,2020-10-20,54.0,56.3,53.56,56.2,53.88,2264412.0,124729258.0,10096258513.6,31653142435.0
sh603486,科沃斯,2020-10-21,56.35,56.55,54.56,55.26,56.2,2936657.0,162575151.0,9927388709.28,31123712650.5
sh603486,科沃斯,2020-10-22,55.4,55.4,53.0,54.08,55.26,1753663.0,94738652.0,9715403210.24,30459109304.0
sh603486,科沃斯,2020-10-23,54.17,56.0,49.77,50.1,54.08,3898971.0,203107777.0,9000401272.8,28217481067.5
sh603486,科沃斯,2020-10-26,51.9,55.11,50.31,55.11,50.1,3365757.0,178178362.0,9900441400.08,31039229174.25
sh603486,科沃斯,2020-10-27,56.42,58.4,54.27,56.89,55.11,7737838.0,434464309.0,10220216135.92,32041766425.75
sh603486,科沃斯,2020-10-28,56.8,60.74,56.32,59.8,56.89,7580627.0,451623378.0,10742993934.4,33680745865.000004
sh603486,科沃斯,2020-10-29,58.11,61.5,58.0,59.74,59.8,3972850.0,237316036.0,10732215010.72,33646952474.5
sh603486,科沃斯,2020-10-30,62.42,64.33,60.1,62.6,59.74,4955425.0,308674566.0,11246010372.8,35257770755.0
sh603486,科沃斯,2020-11-02,61.79,68.86,61.79,68.86,62.6,4274864.0,287298425.0,12370611410.079998,38783547830.5
sh603486,科沃斯,2020-11-03,71.0,73.0,67.84,69.2,68.86,7815418.0,547140218.0,12431691977.599998,38975043710.0
sh603486,科沃斯,2020-11-04,69.64,70.0,66.19,68.19,69.2,5467538.0,372557432.0,12250246762.320002,38406188303.25
sh603486,科沃斯,2020-11-05,68.78,71.84,67.51,70.8,68.19,5762440.0,403367476.0,12719129942.4,39876200790.0
sh603486,科沃斯,2020-11-06,71.16,71.3,67.83,70.01,70.8,5450668.0,379027754.0,12577207447.28,39431254481.75
sh603486,科沃斯,2020-11-09,70.71,73.1,68.26,68.98,70.01,5771921.0,402757422.0,12392169257.44,38851134611.5
sh603486,科沃斯,2020-11-10,68.9,69.5,63.76,65.89,68.98,6716550.0,440498853.0,11837054687.92,37199298215.75
sh603486,科沃斯,2020-11-11,65.8,67.8,64.48,65.75,65.89,4267212.0,282473304.0,11811903866.0,37120258881.25
sh603486,科沃斯,2020-11-12,65.75,71.0,65.6,67.62,65.75,4976163.0,338960547.0,12147846987.36,38175998563.5
sh603486,科沃斯,2020-11-13,69.33,69.65,66.66,68.15,67.62,3326843.0,225499361.0,12243060813.2,38475218901.25
sh603486,科沃斯,2020-11-16,68.35,68.76,64.7,67.62,68.15,4454130.0,298845925.0,12147846987.36,38175998563.5
sh603486,科沃斯,2020-11-17,68.04,68.47,64.84,67.87,67.62,4496006.0,300941722.0,12192759169.36,38317140232.25
sh603486,科沃斯,2020-11-18,67.01,69.91,66.59,68.55,67.87,4622979.0,317615364.0,12314920304.4,38701045571.25
sh603486,科沃斯,2020-11-19,68.0,73.42,66.59,73.2,68.55,6580502.0,469196772.0,13150286889.599998,41326280610.0
sh603486,科沃斯,2020-11-20,72.0,73.21,69.5,72.64,73.2,6488916.0,463978968.0,13049683601.92,41010123272.0
sh603486,科沃斯,2020-11-23,71.68,72.88,69.73,69.8,72.64,4241491.0,302143499.0,12539481214.4,39406753915.0
sh603486,科沃斯,2020-11-24,69.5,71.59,67.16,70.01,69.8,4119852.0,286109902.0,12577207447.28,39525312916.75
sh603486,科沃斯,2020-11-25,69.99,71.25,68.7,69.2,70.01,3575528.0,250068251.0,12431691977.599998,39068013910.0
sh603486,科沃斯,2020-11-26,68.65,70.2,65.6,66.74,69.2,3927827.0,262796180.0,11989756106.72,37679179889.5
sh603486,科沃斯,2020-11-27,65.32,66.8,64.88,65.74,66.74,3224616.0,211825357.0,11810107378.72,37114613214.5
sh603486,科沃斯,2020-11-30,66.0,66.35,61.69,62.7,65.74,6879995.0,434075839.0,11263975245.6,35398330522.5
sh603486,科沃斯,2020-12-01,62.84,65.76,62.35,65.01,62.7,4081967.0,263712413.0,11678963807.28,36702479541.75
sh603486,科沃斯,2020-12-02,65.01,68.57,64.56,68.2,65.01,5245043.0,351536138.0,12252043249.6,38503447235.0
sh603486,科沃斯,2020-12-03,67.86,68.19,64.6,67.0,68.2,4407518.0,294101052.0,12036464776.000002,37825967225.0
sh603486,科沃斯,2020-12-04,66.49,67.8,65.61,67.46,67.0,2549557.0,170935842.0,12119103190.88,38085667895.5
sh603486,科沃斯,2020-12-07,67.35,69.1,65.66,67.2,67.46,3931805.0,264182438.0,12072394521.6,37938880560.0
sh603486,科沃斯,2020-12-08,66.21,68.99,66.21,67.51,67.2,3191788.0,215517139.0,12128085627.28,38113896229.25
sh603486,科沃斯,2020-12-09,68.31,69.95,67.39,67.84,67.51,3913630.0,269509152.0,12187369707.52,38300203232.0
sh603486,科沃斯,2020-12-10,69.24,69.3,67.2,69.0,67.84,3296512.0,224850695.0,12395762231.999998,38955100575.0
sh603486,科沃斯,2020-12-11,67.97,72.5,67.75,68.11,69.0,4361705.0,303508399.0,12235874864.080002,38452636234.25
sh603486,科沃斯,2020-12-14,67.94,69.56,67.76,69.31,68.11,2395189.0,164969851.0,12451453337.679998,39130116244.25
sh603486,科沃斯,2020-12-15,69.01,71.17,68.18,70.0,69.31,3343028.0,232482802.0,12575410959.999998,39519667250.0
sh603486,科沃斯,2020-12-16,69.98,70.56,68.59,70.1,70.0,2778894.0,193129925.0,12593375832.8,39576123917.5
sh603486,科沃斯,2020-12-17,70.19,75.0,69.2,72.92,70.1,5832645.0,426278223.0,13099985245.76,41168201941.0
sh603486,科沃斯,2020-12-18,72.0,73.2,66.73,70.3,72.92,6606686.0,457283260.0,12629305578.4,39689037252.5
sh603486,科沃斯,2020-12-21,69.0,74.48,68.48,73.97,70.3,4806088.0,348733042.0,13288616410.16,41760996949.75
sh603486,科沃斯,2020-12-22,73.35,75.16,72.6,73.76,73.97,2794575.0,206547743.0,13250890177.28,41642437948.0
sh603486,科沃斯,2020-12-23,74.88,78.91,74.08,78.91,73.76,4637927.0,355451863.0,14176081126.48,44549956324.25
sh603486,科沃斯,2020-12-24,78.71,80.78,76.1,79.71,78.91,3146283.0,246328955.0,14319800108.88,45001609664.25
sh603486,科沃斯,2020-12-25,79.79,86.0,79.3,84.0,79.71,4126723.0,345069820.0,15090493152.0,47423600700.0
sh603486,科沃斯,2020-12-28,87.0,90.58,85.68,87.78,84.0,3657550.0,322118866.0,15769565343.840002,49557662731.5
sh603486,科沃斯,2020-12-29,89.34,90.1,86.11,88.01,87.78,2727807.0,239673460.0,15810884551.28,49687513066.75
sh603486,科沃斯,2020-12-30,88.27,89.77,87.16,89.0,88.01,2399135.0,212664711.0,15988736791.999998,50246434075.0
sh603486,科沃斯,2020-12-31,88.99,90.84,87.81,88.49,89.0,2378775.0,212504336.0,15897115940.72,49940705307.25001
sh603486,科沃斯,2021-01-04,88.58,92.18,88.0,88.8,88.49,3522864.0,317207553.0,15952807046.4,50115658620.0
sh603486,科沃斯,2021-01-05,89.71,90.5,87.5,88.7,88.8,4039243.0,359391211.0,15934842173.599998,50059222067.5
sh603486,科沃斯,2021-01-06,89.23,89.23,82.0,87.54,88.7,6457186.0,551828907.0,15726449649.12,49404558058.5
sh603486,科沃斯,2021-01-07,87.13,96.29,87.13,96.29,87.54,4716685.0,437535343.0,17298376019.12,54342756402.25
sh603486,科沃斯,2021-01-08,97.96,102.29,95.9,99.2,96.29,6147281.0,609880229.0,17821153817.6,55985060080.0
sh603486,科沃斯,2021-01-11,99.88,105.0,98.4,104.99,99.2,4643269.0,473425693.0,18861319952.72,59252736469.75001
sh603486,科沃斯,2021-01-12,102.41,103.4,97.01,102.47,104.99,4396777.0,443266786.0,18408605158.16,57830535346.75
sh603486,科沃斯,2021-01-13,108.83,112.72,106.7,109.0,102.47,9210512.0,1016918288.0,19581711352.0,61515842225.0
sh603486,科沃斯,2021-01-14,108.6,113.0,107.3,107.3,109.0,5055192.0,555706049.0,19276308514.4,60556420832.5
sh603486,科沃斯,2021-01-15,108.47,118.03,106.93,118.03,107.3,5484796.0,622897066.0,21203939365.84,66612062915.75
sh603486,科沃斯,2021-01-18,116.0,116.0,106.23,106.23,118.03,5846410.0,631684189.0,19084084375.44,59952549720.75001
sh603486,科沃斯,2021-01-19,101.35,111.0,101.0,109.41,106.23,6857695.0,727771307.0,19655367330.48,61747232090.25
sh603486,科沃斯,2021-01-20,107.04,116.37,106.12,114.0,109.41,5324676.0,600228767.0,20479954992.0,64337669850.0
sh603486,科沃斯,2021-01-21,118.18,118.18,110.0,113.5,114.0,3742695.0,426422817.0,20390130628.0,64055487087.5
sh603486,科沃斯,2021-01-22,111.51,119.46,111.04,118.0,113.5,4064799.0,472738194.0,21198549904.0,66595131950.0
sh603486,科沃斯,2021-01-25,120.31,120.31,114.01,117.6,118.0,4205068.0,492503167.0,21126690412.8,66369385740.0
sh603486,科沃斯,2021-01-26,116.01,120.89,113.53,118.0,117.6,3650575.0,431375807.0,21198549904.0,66595131950.0
sh603486,科沃斯,2021-01-27,117.39,120.68,113.66,114.81,118.0,3732486.0,433044635.0,20625470461.68,64794805925.25
sh603486,科沃斯,2021-01-28,110.47,115.54,110.47,111.33,114.81,2722836.0,307312625.0,20000292888.24,62830813898.25001
sh603486,科沃斯,2021-01-29,114.24,115.0,108.91,110.45,111.33,3786608.0,422384832.0,19842202007.6,62334172236.25
sh603486,科沃斯,2021-02-01,111.0,116.18,110.0,115.49,110.45,3878019.0,442405052.0,20747631596.72,65178574482.25
sh603486,科沃斯,2021-02-02,114.87,124.88,113.7,123.0,115.49,3669510.0,441645649.0,22096793544.0,69416959575.0
sh603486,科沃斯,2021-02-03,125.0,126.26,117.89,124.45,123.0,4802469.0,588650283.0,22357284199.6,70235289586.25
sh603486,科沃斯,2021-02-04,122.09,126.8,119.51,123.51,124.45,3412300.0,422058896.0,22188414395.280003,69704785992.75
sh603486,科沃斯,2021-02-05,125.5,126.0,118.79,119.0,123.51,3167202.0,383900914.0,21378198632.0,67159497474.99999
sh603486,科沃斯,2021-02-08,118.15,119.98,114.77,118.75,119.0,2978975.0,350826531.0,21333286450.0,67018406093.75
sh603486,科沃斯,2021-02-09,116.53,123.38,116.1,122.88,118.75,3318449.0,401930635.0,22075235696.64,69349235712.0
sh603486,科沃斯,2021-02-10,125.92,125.92,118.37,122.85,122.88,3593753.0,434893778.0,22069846234.8,69332304746.25
sh603486,科沃斯,2021-02-18,124.6,127.25,120.99,122.51,122.85,3856456.0,476487767.0,22008765667.28,69140420467.75
sh603486,科沃斯,2021-02-19,121.9,122.45,110.42,116.1,122.51,6068506.0,695169018.0,20857217320.8,65522837452.5
sh603486,科沃斯,2021-02-22,116.0,116.0,108.67,108.67,116.1,5799776.0,648275577.0,19522427271.76,61329601601.75
sh603486,科沃斯,2021-02-23,108.5,116.48,108.01,111.0,108.67,5110368.0,577410098.0,19941008808.0,62644573275.0
sh603486,科沃斯,2021-02-24,111.22,114.8,107.0,107.49,111.0,3970918.0,435766194.0,19310441772.72,60663650282.25
sh603486,科沃斯,2021-02-25,108.46,116.11,108.0,112.24,107.49,4635092.0,520877492.0,20163773230.72,63344386526.0
sh603486,科沃斯,2021-02-26,107.75,109.89,103.0,106.15,112.24,6473078.0,687221578.0,19069712477.2,59907400478.75
sh603486,科沃斯,2021-03-01,107.6,110.15,103.5,110.03,106.15,3611024.0,389776130.0,19766749541.84,62097138715.75
sh603486,科沃斯,2021-03-02,111.8,111.8,107.2,109.61,110.03,3385812.0,370120412.0,19691297076.08,61860105195.25
sh603486,科沃斯,2021-03-03,109.39,115.0,107.51,107.9,109.61,3989474.0,442208413.0,19384097751.2,60895040147.5
sh603486,科沃斯,2021-03-04,108.5,109.15,99.31,101.86,107.9,5847644.0,598579265.0,18299019434.08,57486272376.49999
sh603486,科沃斯,2021-03-05,96.82,104.2,96.82,103.3,101.86,4998216.0,509058738.0,18557713602.4,58298958732.5
sh603486,科沃斯,2021-03-08,104.0,106.53,96.83,98.36,103.3,3733476.0,375656686.0,17670248886.08,55510993039.0
sh603486,科沃斯,2021-03-09,96.24,100.0,92.61,99.11,98.36,4504863.0,437624764.0,17804985432.08,55934267182.75
sh603486,科沃斯,2021-03-10,99.84,102.16,97.86,99.04,99.11,3568026.0,355499383.0,17792410021.12,55894761596.0
sh603486,科沃斯,2021-03-11,97.68,104.78,96.51,103.0,99.04,4705724.0,480058550.0,18503818984.0,58129649075.0
sh603486,科沃斯,2021-03-12,102.99,104.85,100.79,102.83,103.0,2974060.0,304875310.0,18473278700.24,58033706935.75001
sh603486,科沃斯,2021-03-15,101.59,105.67,100.51,103.28,102.83,4745209.0,487476950.0,18554120627.84,58287671422.0
sh603486,科沃斯,2021-03-16,103.28,108.07,100.26,106.58,103.28,3714821.0,390767119.0,19146961430.24,60150077654.5
sh603486,科沃斯,2021-03-17,105.02,108.88,102.25,106.88,106.58,2300514.0,243327596.0,19200856048.64,60319387312.0
sh603486,科沃斯,2021-03-18,108.79,108.79,104.28,106.86,106.88,1827517.0,194808233.0,19197263074.08,60308100001.5
sh603486,科沃斯,2021-03-19,103.92,107.5,103.92,106.87,106.86,2472644.0,263616078.0,19199059561.36,60313743656.74999
sh603486,科沃斯,2021-03-22,107.49,113.2,106.91,112.08,106.87,3272393.0,364317511.0,20135029434.24,63254088042.0
sh603486,科沃斯,2021-03-23,111.54,112.78,108.0,109.75,112.08,1967508.0,216744017.0,19716447898.0,61939116368.75
sh603486,科沃斯,2021-03-24,110.41,117.5,109.85,116.1,109.75,4079327.0,471428469.0,20857217320.8,66472361302.50001
sh603486,科沃斯,2021-03-25,115.5,117.8,112.09,115.9,116.1,2760948.0,317220934.0,20821287575.2,66357852497.50001
sh603486,科沃斯,2021-03-26,116.89,127.49,115.01,127.49,115.9,3903115.0,486018972.0,22903416332.72,72993637747.25
sh603486,科沃斯,2021-03-29,127.74,136.23,127.49,134.49,127.49,5228668.0,694806151.0,24160957428.72,77001445922.25
sh603486,科沃斯,2021-03-30,133.79,139.56,131.5,135.56,134.49,3708471.0,500462949.0,24353181567.68,77614068029.0
sh603486,科沃斯,2021-03-31,137.83,137.99,131.23,136.5,135.56,3915190.0,526922711.0,24522051372.000004,78152259412.5
sh603486,科沃斯,2021-04-01,133.0,133.5,122.85,123.1,136.5,6443704.0,805507686.0,22114758416.8,70480169477.5
sh603486,科沃斯,2021-04-02,123.77,130.0,121.9,126.52,123.1,4710547.0,597983545.0,22729157066.56,72438270043.0
sh603486,科沃斯,2021-04-06,128.36,132.29,127.0,128.02,126.52,2785888.0,360668996.0,22998630158.56,73297086080.5
sh603486,科沃斯,2021-04-07,130.81,131.0,122.19,125.8,128.02,3549032.0,445811013.0,22599809982.4,72026038345.0
sh603486,科沃斯,2021-04-08,124.4,129.2,124.2,127.5,125.8,2010073.0,255961497.0,22905212820.0,72999363187.5
sh603486,科沃斯,2021-04-09,126.44,130.69,124.34,125.15,127.5,2187370.0,276716986.0,22483038309.2,71653884728.75
sh603486,科沃斯,2021-04-12,125.67,130.26,121.98,123.8,125.15,2505943.0,313570452.0,22240512526.4,70880950295.0
sh603486,科沃斯,2021-04-13,122.19,128.28,122.19,125.61,123.8,2322933.0,292871221.0,22565676724.08,71917254980.25
sh603486,科沃斯,2021-04-14,125.88,127.98,122.6,123.46,125.61,2025366.0,252591932.0,22179431958.88,70686285326.5
sh603486,科沃斯,2021-04-15,124.0,125.45,118.6,120.65,123.46,2696926.0,326535159.0,21674619033.2,69077436616.25
sh603486,科沃斯,2021-04-16,121.54,122.99,115.96,120.83,120.65,3222952.0,384847550.0,21706955804.24,69180494540.75
sh603486,科沃斯,2021-04-19,120.32,125.5,119.49,125.0,120.83,2778571.0,342591060.0,22456091000.0,71568003125.0
sh603486,科沃斯,2021-04-20,124.82,131.95,123.29,130.74,125.0,2950342.0,378919279.0,23487274698.72,74854405828.5
sh603486,科沃斯,2021-04-21,128.99,132.0,126.39,131.5,130.74,2234445.0,289879432.0,23623807732.0,75289539287.5
sh603486,科沃斯,2021-04-22,131.0,132.87,127.56,132.3,131.5,1854017.0,242486089.0,23767526714.4,75747574507.5
sh603486,科沃斯,2021-04-23,133.91,133.91,129.8,132.04,132.3,1673099.0,220312596.0,23720818045.120003,75598713061.0
sh603486,科沃斯,2021-04-26,140.0,145.24,139.64,145.24,132.04,2357815.0,340999257.0,26092181254.72,83156294191.0
sh603486,科沃斯,2021-04-27,150.0,159.76,148.0,159.76,145.24,8065872.0,1259049903.0,28700680785.28,91469633434.0
sh603486,科沃斯,2021-04-28,162.4,166.34,156.54,161.11,159.76,6208112.0,1003845265.0,28943206568.08,92242567867.75
sh603486,科沃斯,2021-04-29,165.32,170.5,163.77,168.51,161.11,4863396.0,813995823.0,30272607155.280003,96479393652.75
sh603486,科沃斯,2021-04-30,163.8,172.1,162.45,164.01,168.51,4272288.0,711249343.0,29464187879.280003,93902945540.25
sh603486,科沃斯,2021-05-06,169.59,172.5,161.37,166.6,164.01,4080661.0,681242060.0,29929478084.800003,95385834565.0
sh603486,科沃斯,2021-05-07,166.58,173.5,163.98,163.99,166.6,2972556.0,498123706.0,29460594904.72,93891494659.75
sh603486,科沃斯,2021-05-10,166.12,168.0,158.68,160.6,163.99,3000932.0,486478887.0,28851585716.8,91950570415.0
sh603486,科沃斯,2021-05-11,160.26,160.26,151.12,155.69,160.6,3407875.0,528923647.0,27969510462.32,89139379252.25002
sh603486,科沃斯,2021-05-12,157.24,160.26,152.0,159.08,155.69,2390747.0,376837122.0,28578519650.24,91080303497.0
sh603486,科沃斯,2021-05-13,159.89,160.77,154.0,158.69,159.08,1995944.0,314813738.0,28508456646.32,90857011327.25
sh603486,科沃斯,2021-05-14,158.64,163.21,156.0,162.3,158.69,2244383.0,360282357.0,29156988554.4,92923895257.5
sh603486,科沃斯,2021-05-17,162.5,168.49,156.81,163.0,162.3,2857674.0,467725734.0,29282742664.0,93324676075.0
sh603486,科沃斯,2021-05-18,163.42,165.61,158.11,164.96,163.0,1641675.0,267482027.0,29634854170.88,94446862364.0
sh603486,科沃斯,2021-05-19,164.27,164.27,157.86,161.7,164.96,1940370.0,311695865.0,29049199317.6,92580368842.5
sh603486,科沃斯,2021-05-20,163.0,167.6,161.0,163.3,161.7,2848862.0,467749506.0,29336637282.4,93496439282.5
sh603486,科沃斯,2021-05-21,165.44,165.74,156.0,160.0,163.3,2390485.0,382994903.0,28743796480.0,91607044000.0
sh603486,科沃斯,2021-05-24,154.53,159.97,148.87,153.59,160.0,4430656.0,679579972.0,27592248133.52,87937036799.75
sh603486,科沃斯,2021-05-25,155.0,159.97,153.6,159.13,153.59,2512156.0,397489109.0,28587502086.64,91108930698.24998
sh603486,科沃斯,2021-05-26,155.55,161.8,155.4,160.83,159.13,2385566.0,379310708.0,28892904924.24,92082255540.75002
sh603486,科沃斯,2021-05-27,161.26,176.91,158.66,176.91,160.83,3714517.0,639325676.0,31781656470.48,101288763462.75
sh603486,科沃斯,2021-05-28,177.62,183.0,171.79,176.91,176.91,4526942.0,802185265.0,99094367400.0,101288763462.75
sh603486,科沃斯,2021-05-31,181.0,187.49,177.2,182.37,176.91,2831056.0,517289108.0,102152731800.0,104414853839.25
sh603486,科沃斯,2021-06-01,180.31,181.98,173.01,175.0,182.37,2810895.0,496118366.0,98024500000.0,100195204375.0
sh603486,科沃斯,2021-06-02,177.96,178.8,168.69,171.41,175.0,2277778.0,391948525.0,96013597400.0,98139771325.25
sh603486,科沃斯,2021-06-03,170.66,184.46,170.66,178.5,171.41,3967068.0,712528982.0,99984990000.0,102199108462.5
sh603486,科沃斯,2021-06-04,181.8,184.48,176.85,181.0,178.5,2796547.0,508247002.0,101385340000.0,103630468524.99998
sh603486,科沃斯,2021-06-07,183.97,188.55,180.03,182.0,181.0,3164494.0,582880703.0,101945480000.0,104203012550.00002
sh603486,科沃斯,2021-06-08,182.97,187.5,177.31,178.99,182.0,2608657.0,474306433.0,100259458600.0,102479655034.74998
sh603486,科沃斯,2021-06-09,180.4,182.47,175.11,179.19,178.99,2305173.0,412244363.0,100371486600.0,102594163839.74998
sh603486,科沃斯,2021-06-10,181.0,191.5,179.98,189.85,179.19,3596252.0,674149431.0,106342579000.0,108697483146.25
sh603486,科沃斯,2021-06-11,189.16,197.38,187.1,193.19,189.85,5500736.0,1064442748.0,108213446600.0,110609780189.75002
sh603486,科沃斯,2021-06-15,193.83,198.5,189.02,194.27,193.19,3192933.0,620776348.0,108818397800.0,111228127736.75
sh603486,科沃斯,2021-06-16,196.84,196.91,182.7,188.7,194.27,2752270.0,519058828.0,105698418000.0,108039057517.5
sh603486,科沃斯,2021-06-17,188.7,195.63,187.51,192.5,188.7,2460000.0,472521363.0,107826950000.0,110214724812.5
sh603486,XD科沃斯,2021-06-18,191.7,194.99,189.5,193.01,192.0,2328040.0,448563848.0,108112621400.0,110506722265.25
sh603486,科沃斯,2021-06-21,196.0,204.28,192.0,203.52,193.01,4406576.0,882585484.0,113999692800.0,116524159968.0
sh603486,科沃斯,2021-06-22,203.0,221.48,200.1,219.64,203.52,3843302.0,816769885.0,123029149600.00002,125753569651.0
sh603486,科沃斯,2021-06-23,219.64,222.99,215.11,219.71,219.64,3380326.0,741425632.0,123068359400.0,125793647732.74998
sh603486,科沃斯,2021-06-24,221.0,222.87,212.7,215.3,219.71,2725789.0,589918225.0,120598142000.0,123268728582.5
sh603486,科沃斯,2021-06-25,214.23,227.0,213.0,225.0,215.3,2697819.0,595494268.0,126031500000.0,128822405625.0
sh603486,科沃斯,2021-06-28,228.08,228.8,221.0,223.37,225.0,2334057.0,523712980.0,125118471800.0,127889158864.25
sh603486,科沃斯,2021-06-29,224.14,224.55,216.0,224.55,223.37,2167993.0,478114491.0,125779437000.0,128564760813.74998
sh603486,科沃斯,2021-06-30,221.33,233.19,217.81,228.08,224.55,2387060.0,538949278.0,127756731199.99998,130585841221.99998
sh603486,科沃斯,2021-07-01,228.0,233.22,224.11,233.22,228.08,1968490.0,450532226.0,130635850800.0,133528717510.49998
sh603486,科沃斯,2021-07-02,233.22,234.21,217.51,223.95,233.22,3407510.0,766781015.0,125443353000.0,128221234398.74998
sh603486,科沃斯,2021-07-05,223.95,230.5,219.0,225.85,223.95,2919457.0,663468505.0,126507619000.0,129309068046.25002
sh603486,科沃斯,2021-07-06,226.99,239.88,225.12,230.99,225.85,2678873.0,620216387.0,129386738600.0,132251944334.75002
sh603486,科沃斯,2021-07-07,228.0,234.99,226.02,230.0,230.99,2761106.0,637247502.0,128832200000.0,131685125750.0
sh603486,科沃斯,2021-07-08,233.0,236.8,228.0,230.5,230.0,2470209.0,572986488.0,129112270000.0,131971397762.49998
sh603486,科沃斯,2021-07-09,229.6,229.72,214.77,224.23,230.5,5741123.0,1262539429.0,125600192200.0,128381546725.75
sh603486,科沃斯,2021-07-12,220.01,224.05,207.01,220.46,224.23,4887469.0,1064180249.0,123488464400.0,126223055751.5
sh603486,科沃斯,2021-07-13,220.44,231.62,217.01,230.5,220.46,3246526.0,740640940.0,129112270000.0,131971397762.49998
sh603486,科沃斯,2021-07-14,221.37,232.8,218.2,229.74,230.5,2363925.0,538820721.0,128686563600.0,131536264303.5
sh603486,科沃斯,2021-07-15,229.27,252.71,228.01,250.19,229.74,3537621.0,869184828.0,140141426600.0,143244789614.75
sh603486,科沃斯,2021-07-16,245.05,246.78,225.17,225.17,250.19,3627030.0,846700470.0,126126723800.00002,128859792226.0
sh603486,科沃斯,2021-07-19,210.0,218.97,206.88,216.0,225.17,5942996.0,1266917707.0,120990240000.0,123612004800.0
sh603486,科沃斯,2021-07-20,213.35,218.58,208.66,218.38,216.0,3111878.0,667425201.0,122323373200.0,124974025964.0
sh603486,科沃斯,2021-07-21,218.9,235.66,217.02,234.8,218.38,2714388.0,617609948.0,131520872000.0,134370827440.00002
sh603486,科沃斯,2021-07-22,233.96,237.97,211.32,211.34,234.8,4351256.0,950131371.0,118379987600.0,120945190252.0
sh603486,科沃斯,2021-07-23,205.01,209.55,190.21,190.21,211.34,5472270.0,1057694016.0,106544229400.0,108852960338.0
sh603486,科沃斯,2021-07-26,180.5,188.2,174.12,177.1,190.21,7491233.0,1348244696.0,99200794000.0,101350398380.0
sh603486,科沃斯,2021-07-27,181.5,185.61,173.48,174.02,177.1,5007615.0,890356549.0,97475562800.0,99587782756.0
sh603486,科沃斯,2021-07-28,172.0,177.98,168.55,172.03,174.02,4829461.0,831771640.0,96360884200.0,98448949934.0
sh603486,科沃斯,2021-07-29,178.0,189.23,177.01,189.23,172.03,3810009.0,706748823.0,105995292200.0,108292128094.0
sh603486,科沃斯,2021-07-30,190.15,192.23,170.31,171.0,189.23,5105580.0,896743562.0,95783940000.0,97859503800.00002
sh603486,科沃斯,2021-08-02,175.01,178.59,158.56,168.81,171.0,7758644.0,1287137633.0,94557233400.0,96606215418.0
sh603486,科沃斯,2021-08-03,162.44,173.95,162.44,172.5,168.81,5506225.0,939109611.0,96624150000.0,98717920500.0
sh603486,科沃斯,2021-08-04,175.5,181.48,173.02,177.31,172.5,3668839.0,649113307.0,99318423400.0,101470576718.0
sh603486,科沃斯,2021-08-05,176.27,185.0,173.0,182.0,177.31,4044616.0,730659652.0,101945480000.0,104154559600.00002
sh603486,科沃斯,2021-08-06,182.36,183.0,171.06,174.48,182.0,3961777.0,696867121.0,97733227200.0,99851030544.0
sh603486,科沃斯,2021-08-09,173.71,191.93,172.9,189.97,174.48,4339967.0,808110200.0,106409795800.0,108715613666.0
sh603486,科沃斯,2021-08-10,185.76,192.44,179.01,189.07,189.97,4501270.0,832712253.0,105905669800.0,108200563646.00002
sh603486,科沃斯,2021-08-11,185.99,199.18,183.01,195.89,189.07,3415485.0,661026103.0,109725824600.00002,112103498242.0
sh603486,科沃斯,2021-08-12,195.0,196.46,188.2,188.7,195.89,2552403.0,488468913.0,105698418000.0,107988820859.99998
sh603486,科沃斯,2021-08-13,188.75,192.48,179.65,186.16,188.7,3007576.0,553548232.0,104275662400.0,106535235248.0
sh603486,科沃斯,2021-08-16,182.46,195.0,182.46,189.89,186.16,2509157.0,477664329.0,106364984600.00002,108669831442.00002
sh603486,科沃斯,2021-08-17,189.26,189.69,179.0,181.0,189.89,2581747.0,472953081.0,101385340000.0,103582281800.0
sh603486,科沃斯,2021-08-18,181.0,185.0,179.01,183.0,181.0,1663279.0,303057370.0,102505620000.0,104726837400.0
sh603486,科沃斯,2021-08-19,183.34,189.73,175.32,177.88,183.0,2606907.0,468356900.0,99637703200.0,101796775064.0
sh603486,科沃斯,2021-08-20,177.88,180.99,168.8,172.97,177.88,3013247.0,522957745.0,96887415800.0,98986891066.0
sh603486,科沃斯,2021-08-23,175.11,176.39,169.9,172.4,172.97,3418998.0,589055115.0,96568136000.0,98660692720.0
sh603486,科沃斯,2021-08-24,175.4,181.4,171.88,178.15,172.4,2241930.0,397889631.0,99788941000.0,101951290070.0
sh603486,科沃斯,2021-08-25,178.15,180.56,170.37,179.05,178.15,2891152.0,507227995.0,100293067000.0,102466340090.0
sh603486,科沃斯,2021-08-26,178.05,179.6,167.46,169.0,179.05,4037199.0,690970290.0,94663660000.0,96714948200.0
sh603486,科沃斯,2021-08-27,170.96,179.98,170.13,175.92,169.0,3443254.0,605436032.0,98539828800.00002,100675110576.00002
sh603486,科沃斯,2021-08-30,170.0,170.0,158.33,158.33,175.92,2881130.0,462459559.0,88686966199.99998,90608744074.00002
sh603486,科沃斯,2021-08-31,148.7,151.59,142.55,146.69,158.33,13591068.0,1986585462.0,82166936600.0,83947430482.0
sh603486,科沃斯,2021-09-01,149.32,155.0,141.0,152.16,146.69,7878858.0,1174786800.0,85230902400.0,87077790048.0
sh603486,科沃斯,2021-09-02,150.01,158.59,149.05,151.92,152.16,4562099.0,702873902.0,85096468800.00002,86940443376.0
sh603486,科沃斯,2021-09-03,151.5,153.09,142.0,150.95,151.92,4240952.0,629867278.0,84553133000.0,86385333910.0
sh603486,科沃斯,2021-09-06,153.0,158.66,149.61,158.4,150.95,3811780.0,597911913.0,88726176000.0,90648803520.0
sh603486,科沃斯,2021-09-07,159.0,166.55,154.55,164.66,158.4,3923573.0,639943591.0,92232652400.0,94231262548.0
sh603486,科沃斯,2021-09-08,165.0,165.35,153.17,153.87,164.66,4689030.0,730503351.0,86188741800.0,88056385086.0
sh603486,科沃斯,2021-09-09,153.89,156.21,151.5,154.49,153.87,3570334.0,548502270.0,86536028600.0,88411197322.0
sh603486,科沃斯,2021-09-10,153.62,156.0,148.53,150.78,154.49,3590179.0,539723400.0,84457909200.0,86288046684.00002
sh603486,科沃斯,2021-09-13,153.79,153.88,147.51,147.71,150.78,2713263.0,405249754.0,82738279400.0,84531153838.0
sh603486,科沃斯,2021-09-14,150.47,153.61,147.8,149.7,147.71,3324268.0,503733767.0,83852958000.0,85669986660.0
sh603486,科沃斯,2021-09-15,145.64,151.0,142.51,144.55,149.7,4105539.0,596989268.0,80968237000.0,82722755990.0
sh603486,科沃斯,2021-09-16,147.48,159.01,146.11,157.69,144.55,7428580.0,1169638811.0,88328476600.0,90242486282.0
sh603486,科沃斯,2021-09-17,152.0,155.0,145.2,153.0,157.69,6273128.0,938881139.0,85701420000.0,87558503400.0
sh603486,科沃斯,2021-09-22,152.6,152.6,142.9,146.43,153.0,3177372.0,464296575.0,82021300200.0,83798638254.0
sh603486,科沃斯,2021-09-23,147.31,152.66,143.88,150.3,146.43,3890675.0,582004300.0,84189042000.0,86013353340.0
sh603486,科沃斯,2021-09-24,147.78,162.69,147.78,159.72,150.3,4805575.0,762224712.0,89465560800.0,91404210216.0
sh603486,科沃斯,2021-09-27,156.0,167.21,156.0,160.95,159.72,6441574.0,1048094131.0,90154533000.0,92108111910.0
sh603486,科沃斯,2021-09-28,158.55,164.99,154.5,155.53,160.95,3615920.0,574117256.0,87118574200.0,89006366234.00002
sh603486,科沃斯,2021-09-29,155.81,159.0,149.3,155.75,155.53,3702824.0,573066164.0,87241805000.0,89132267350.0
sh603486,科沃斯,2021-09-30,156.38,156.47,149.52,151.9,155.75,3497179.0,532539626.0,85085266000.0,86928997820.0
sh603486,科沃斯,2021-10-08,154.99,155.5,149.09,151.88,151.9,2795827.0,425575462.0,85074063200.0,86917552263.99998
sh603486,科沃斯,2021-10-11,149.97,153.37,146.0,147.8,151.88,3004378.0,448403167.0,82788692000.0,84582658840.0
sh603486,科沃斯,2021-10-12,148.0,151.0,143.5,145.5,147.8,2876007.0,422344332.0,81500370000.0,83266419900.0
sh603486,科沃斯,2021-10-13,145.49,151.36,142.01,149.94,145.5,2381454.0,350187981.0,83987391600.0,85807333332.0
sh603486,科沃斯,2021-10-14,149.94,150.0,141.24,144.94,149.94,3588411.0,518600279.0,81186691600.0,82945944332.0
sh603486,科沃斯,2021-10-15,146.0,153.08,142.97,152.92,144.94,3997077.0,598019074.0,85656608800.00002,87512721176.0
sh603486,科沃斯,2021-10-18,151.8,152.0,138.0,147.54,152.92,7881754.0,1134003878.0,82643055600.0,84433866612.0
sh603486,科沃斯,2021-10-19,145.99,160.5,145.34,156.5,147.54,5540745.0,856411412.0,87661910000.0,89561475700.0
sh603486,科沃斯,2021-10-20,157.0,163.87,156.7,160.0,156.5,4518452.0,728311334.0,89622400000.0,91564448000.0
sh603486,科沃斯,2021-10-21,162.0,171.67,158.12,162.97,160.0,5744663.0,946978243.0,91286015800.0,93264113066.0
sh603486,科沃斯,2021-10-22,163.0,166.75,158.8,161.79,162.97,2958318.0,478969598.0,90625050600.0,92588825262.0
sh603486,科沃斯,2021-10-25,161.0,171.34,159.95,167.95,161.79,4358664.0,725891786.0,94075513000.0,96114056510.0
sh603486,科沃斯,2021-10-26,164.9,166.8,161.69,164.54,167.95,3273583.0,536853024.0,92165435600.0,94162589212.0
sh603486,科沃斯,2021-10-27,172.75,172.75,155.55,166.16,164.54,4402593.0,717244344.0,93072862400.0,95089679248.0
sh603486,科沃斯,2021-10-28,166.03,169.82,161.24,166.19,166.16,2570046.0,426494675.0,93089666600.0,95064647786.25
sh603486,科沃斯,2021-10-29,166.13,171.5,162.66,171.5,166.19,3476629.0,585110978.0,96064010000.0,98102094562.5
sh603486,科沃斯,2021-11-01,182.1,188.65,178.21,182.46,171.5,6534543.0,1208839377.0,102203144400.0,104371476232.5
sh603486,科沃斯,2021-11-02,185.0,198.0,182.82,191.29,182.46,4908607.0,943720956.0,107149180600.0,109422447048.75
sh603486,科沃斯,2021-11-03,192.38,196.88,189.99,191.13,191.29,3118333.0,600950193.0,107059558200.0,109330923228.75
sh603486,科沃斯,2021-11-04,190.0,193.0,183.5,191.3,191.13,2599740.0,493777658.0,107323054262.5,109428167287.5
sh603486,科沃斯,2021-11-05,189.25,191.07,183.6,188.65,191.3,2168698.0,407912932.0,105836352256.25002,107912304018.75
sh603486,科沃斯,2021-11-08,184.11,193.0,182.2,183.81,188.65,2621550.0,487634310.0,103121017271.25,105143708463.75
sh603486,科沃斯,2021-11-09,181.8,188.0,181.0,183.84,183.81,2538109.0,465399501.0,103137847860.0,105160869180.0
sh603486,科沃斯,2021-11-10,183.5,183.83,177.45,179.98,183.84,2479551.0,446552958.0,100972312107.5,102952857022.5
sh603486,科沃斯,2021-11-11,180.0,183.0,173.59,178.55,179.98,2528883.0,450453925.0,100170054043.75,102134862881.25002
sh603486,科沃斯,2021-11-12,185.0,185.0,167.0,169.31,178.55,4392038.0,756502865.0,94986232708.75,96849362276.25
sh603486,科沃斯,2021-11-15,169.31,172.7,164.17,167.0,169.31,4354185.0,727315709.0,93690277375.0,95527987125.0
sh603486,科沃斯,2021-11-16,167.0,177.0,164.16,174.36,167.0,3639737.0,632715018.0,97819381815.00002,99738082844.99998
sh603486,科沃斯,2021-11-17,174.82,177.99,170.1,174.5,174.36,3063256.0,534585463.0,97897924562.5,99818166187.5
sh603486,科沃斯,2021-11-18,175.5,176.74,171.16,173.0,174.5,2402385.0,417496867.0,97056395125.0,98960130375.0
sh603486,科沃斯,2021-11-19,174.95,176.52,171.22,172.8,173.0,2005944.0,348041392.0,96944191199.99998,98845725600.0
sh603486,科沃斯,2021-11-22,172.51,176.5,170.2,171.3,172.8,2566481.0,443232305.0,96167079127.5,97987689787.5
sh603486,科沃斯,2021-11-23,171.48,171.6,167.24,168.41,171.3,2267980.0,382079866.0,94544645626.75,96334540788.75
sh603486,科沃斯,2021-11-24,168.41,170.41,165.43,168.34,168.41,1732570.0,290258779.0,94505347929.5,96294499117.5
sh603486,科沃斯,2021-11-25,168.34,168.34,163.92,165.36,168.34,1894481.0,314170264.0,92832388818.0,94589867970.0
sh603486,科沃斯,2021-11-26,166.98,170.2,164.12,166.25,165.36,2046169.0,340874372.0,93332030968.75,95098969218.75
sh603486,科沃斯,2021-11-29,164.78,168.52,161.61,165.2,166.25,2498318.0,411706716.0,92742565510.00002,94498344149.99998
sh603486,科沃斯,2021-11-30,165.0,167.0,162.56,163.93,165.2,2057152.0,338124233.0,92029593002.75,93771873828.74998
sh603486,科沃斯,2021-12-01,163.9,164.61,160.6,162.78,163.93,2854375.0,462342690.0,91383987976.5,93114046372.5
sh603486,科沃斯,2021-12-02,163.9,169.89,163.12,165.65,162.78,3485281.0,579507096.0,92995193563.75,94755754893.75002
sh603486,科沃斯,2021-12-03,165.65,167.07,161.09,162.5,165.65,2242193.0,364684832.0,91226797187.5,92953879687.5
sh603486,科沃斯,2021-12-06,161.89,163.5,155.0,159.5,162.5,2639139.0,423569617.0,89542610162.5,91237808062.5
sh603486,科沃斯,2021-12-07,160.0,163.95,158.25,161.09,159.5,2333833.0,376846764.0,90435229285.75,92147326023.75
sh603486,科沃斯,2021-12-08,161.09,172.17,160.02,169.99,161.09,4028104.0,673526373.0,95431650793.25,97238338511.25
sh603486,科沃斯,2021-12-09,170.9,176.85,166.5,175.26,169.99,5352519.0,925484038.0,98390206000.5,100252904332.5
sh603486,科沃斯,2021-12-10,173.7,180.26,173.5,176.35,175.26,4631159.0,816100713.0,99002127286.25,100876410356.25
sh603486,科沃斯,2021-12-13,175.0,177.01,161.8,162.77,176.35,5576560.0,931061770.0,91378374019.75,93108326133.75
sh603486,科沃斯,2021-12-14,162.16,163.5,151.48,152.52,162.77,6460972.0,1003112412.0,85624068351.0,87245081415.0
sh603486,科沃斯,2021-12-15,150.75,158.9,150.02,158.78,152.52,6035546.0,927070878.0,89138405276.5,90825950872.5
sh603486,科沃斯,2021-12-16,157.0,158.3,151.5,155.24,158.78,3516253.0,542590449.0,87151064587.0,88800986355.00002
sh603486,科沃斯,2021-12-17,153.21,155.41,150.8,151.32,155.24,2221354.0,338028597.0,84950393541.0,86558652765.0
sh603486,科沃斯,2021-12-20,150.5,152.32,146.91,148.0,151.32,3434374.0,511042808.0,83086559900.0,84659533500.0
sh603486,科沃斯,2021-12-21,147.44,150.76,145.78,150.01,148.0,1909564.0,284343283.0,84214965206.75,85809301488.75
sh603486,科沃斯,2021-12-22,150.0,151.65,148.71,148.84,150.01,2607116.0,390580624.0,83558132267.0,85140033555.0
sh603486,科沃斯,2021-12-23,147.1,148.85,146.51,148.7,148.84,2804278.0,414412605.0,83479536872.5,85059950212.5
sh603486,科沃斯,2021-12-24,147.74,147.74,140.91,141.58,148.7,3338492.0,476937614.0,79482399666.5,80987140222.5
sh603486,科沃斯,2021-12-27,142.91,145.84,139.33,145.23,141.58,2594291.0,371300534.0,81531493880.25,83075027366.25
sh603486,科沃斯,2021-12-28,146.25,152.48,145.0,152.25,145.23,4071584.0,606470942.0,85472491518.75,87090634968.75
sh603486,科沃斯,2021-12-29,152.4,156.25,150.31,155.38,152.25,3820037.0,589458834.0,87229659981.5,88881069697.5
sh603486,科沃斯,2021-12-30,155.38,155.4,151.68,153.91,155.38,2321754.0,356415917.0,86404408339.25,88040194601.25
sh603486,科沃斯,2021-12-31,154.99,156.5,150.08,150.95,153.91,2207406.0,335221663.0,84742677141.25,86347003931.25
sh603486,科沃斯,2022-01-04,152.53,152.53,147.0,147.77,150.95,2695845.0,400709344.0,82957438894.75,84527968008.75
sh603486,科沃斯,2022-01-05,147.55,152.88,144.12,151.98,147.77,4205151.0,630339762.0,85320914686.5,86936188522.5
sh603486,科沃斯,2022-01-06,148.73,153.0,147.77,148.21,151.98,2264842.0,339598398.0,83204452991.75,84779658513.75
sh603486,科沃斯,2022-01-07,148.21,152.44,147.07,148.0,148.21,2527451.0,378380896.0,83086559900.0,84659533500.0
sh603486,科沃斯,2022-01-10,149.3,155.5,144.0,152.5,148.0,3857635.0,585754901.0,85612840437.5,87233640937.5
sh603486,科沃斯,2022-01-11,152.0,154.99,146.39,146.47,152.5,2319121.0,346392729.0,82227624517.25,83784336971.25
sh603486,科沃斯,2022-01-12,146.52,148.67,145.12,147.96,146.47,2105321.0,309925154.0,83064104073.0,84779493129.0
sh603486,科沃斯,2022-01-13,147.0,147.86,141.33,143.11,147.96,2034078.0,291580761.0,80341335049.25,82000495145.25
sh603486,科沃斯,2022-01-14,142.0,143.88,138.26,140.5,143.11,2124454.0,297777901.0,78876092337.5,80504993137.5
