数据由邢不行整理
股票代码,股票名称,交易日期,开盘价,最高价,最低价,收盘价,前收盘价,成交量,成交额,流通市值,总市值
sh605188,N国光,2020-07-28,5.58,6.7,5.58,6.7,4.65,229143.0,1531114.0,332186000.0,3320386000.0
sh605188,国光连锁,2020-07-29,7.37,7.37,7.37,7.37,6.7,47087.0,347031.0,365404600.0,3652424600.0
sh605188,国光连锁,2020-07-30,8.11,8.11,8.11,8.11,7.37,48746.0,395330.0,402093800.0,4019153800.0
sh605188,国光连锁,2020-07-31,8.92,8.92,8.92,8.92,8.11,176778.0,1576860.0,442253600.0,4420573600.0
sh605188,国光连锁,2020-08-03,9.81,9.81,9.81,9.81,8.92,296071.0,2904457.0,486379800.00000006,4861639800.0
sh605188,国光连锁,2020-08-04,10.79,10.79,10.79,10.79,9.81,195582.0,2110330.0,534968200.0,5347308199.999999
sh605188,国光连锁,2020-08-05,11.87,11.87,11.87,11.87,10.79,124658.0,1479690.0,588514600.0,5882534600.0
sh605188,国光连锁,2020-08-06,13.06,13.06,13.06,13.06,11.87,224746.0,2935183.0,647514800.0,6472274800.0
sh605188,国光连锁,2020-08-07,14.37,14.37,14.37,14.37,13.06,2771565.0,39827389.0,712464600.0000001,7121484600.0
sh605188,国光连锁,2020-08-10,15.81,15.81,15.81,15.81,14.37,2874257.0,45442003.0,783859800.0,7835119800.0
sh605188,国光连锁,2020-08-11,17.39,17.39,16.9,17.39,15.81,11605075.0,201678645.0,862196200.0,8618136200.0
sh605188,国光连锁,2020-08-12,17.73,17.73,15.88,16.56,17.39,31942820.0,533280998.0,821044800.0,8206804800.0
sh605188,国光连锁,2020-08-13,16.03,16.36,14.9,14.9,16.56,23415198.0,361680837.0,738742000.0,7384142000.0
sh605188,国光连锁,2020-08-14,14.51,14.77,14.23,14.37,14.9,16066318.0,232170939.0,712464600.0000001,7121484600.0
sh605188,国光连锁,2020-08-17,14.2,14.68,14.2,14.46,14.37,11753097.0,170303723.0,716926799.9999999,7166086800.000001
sh605188,国光连锁,2020-08-18,14.34,14.55,13.9,14.17,14.46,15794680.0,223294305.0,702548600.0,7022368600.0
sh605188,国光连锁,2020-08-19,14.12,14.35,13.9,14.21,14.17,10076713.0,142593720.0,704531799.9999999,7042191800.000001
sh605188,国光连锁,2020-08-20,14.1,14.1,13.63,13.72,14.21,8608084.0,119037200.0,680237600.0,6799357600.0
sh605188,国光连锁,2020-08-21,13.78,13.96,13.69,13.71,13.72,6545211.0,90312070.0,679741799.9999999,6794401800.000001
sh605188,国光连锁,2020-08-24,13.65,13.83,13.42,13.6,13.71,5597711.0,75993309.0,674288000.0,6739888000.0
sh605188,国光连锁,2020-08-25,13.7,14.21,13.56,14.03,13.6,10840264.0,151035671.0,695607400.0,6952987400.0
sh605188,国光连锁,2020-08-26,14.15,14.16,13.55,13.7,14.03,7698617.0,106553873.0,679246000.0,6789446000.0
sh605188,国光连锁,2020-08-27,13.79,14.02,13.7,13.86,13.7,5659181.0,78341954.0,687178800.0,6868738800.0
sh605188,国光连锁,2020-08-28,13.79,13.79,13.36,13.52,13.86,7095221.0,96033428.0,670321600.0,6700241600.0
sh605188,国光连锁,2020-08-31,13.52,13.61,13.37,13.4,13.52,4730066.0,63761669.0,664372000.0,6640772000.0
sh605188,国光连锁,2020-09-01,13.36,13.47,13.26,13.38,13.4,3803627.0,50750641.0,663380399.9999999,6630860400.0
sh605188,国光连锁,2020-09-02,13.38,13.43,13.0,13.03,13.38,5677211.0,74724768.0,646027400.0,6457407400.0
sh605188,国光连锁,2020-09-03,12.98,13.17,12.74,12.78,13.03,4393292.0,56872048.0,633632400.0,6333512400.0
sh605188,国光连锁,2020-09-04,12.65,12.81,12.6,12.78,12.78,2679119.0,34025012.0,633632400.0,6333512400.0
sh605188,国光连锁,2020-09-07,12.67,12.85,12.6,12.62,12.78,2985200.0,37985120.0,625699600.0,6254219600.0
sh605188,国光连锁,2020-09-08,12.62,12.66,12.3,12.38,12.62,3715379.0,46222754.0,613800400.0,6135280400.0
sh605188,国光连锁,2020-09-09,12.29,12.3,11.91,11.92,12.38,3746748.0,45284725.0,590993600.0,5907313600.0
sh605188,国光连锁,2020-09-10,12.05,12.13,11.73,11.78,11.92,3118824.0,37372867.0,584052400.0,5837932400.0
sh605188,国光连锁,2020-09-11,11.7,12.09,11.53,11.96,11.78,2628427.0,30992098.0,592976800.0,5927136800.000001
sh605188,国光连锁,2020-09-14,12.0,12.36,11.95,12.31,11.96,3224489.0,39392936.0,610329800.0,6100589800.0
sh605188,国光连锁,2020-09-15,12.33,12.42,12.2,12.37,12.31,2046909.0,25212323.0,613304600.0,6130324600.0
sh605188,国光连锁,2020-09-16,12.42,12.63,12.28,12.44,12.37,3530039.0,44053669.0,616775200.0,6165015200.0
sh605188,国光连锁,2020-09-17,12.36,12.58,12.19,12.53,12.44,3112352.0,38508968.0,621237400.0,6209617400.0
sh605188,国光连锁,2020-09-18,12.4,12.79,12.39,12.52,12.53,2958078.0,37252161.0,620741600.0,6204661600.0
sh605188,国光连锁,2020-09-21,12.54,12.54,12.3,12.3,12.52,1925140.0,23861513.0,609834000.0,6095634000.0
sh605188,国光连锁,2020-09-22,12.28,12.66,12.15,12.35,12.3,2534193.0,31425200.0,612313000.0,6120413000.0
sh605188,国光连锁,2020-09-23,12.42,12.91,12.42,12.65,12.35,5643303.0,71945490.0,627187000.0,6269087000.0
sh605188,国光连锁,2020-09-24,12.54,12.58,12.17,12.21,12.65,3943409.0,48745362.0,605371800.0,6051031800.000001
sh605188,国光连锁,2020-09-25,12.36,12.65,11.93,11.98,12.21,3470100.0,42476749.0,593968400.0,5937048400.0
sh605188,国光连锁,2020-09-28,11.95,12.08,11.46,11.46,11.98,3350374.0,39188194.0,568186800.0,5679346800.000001
sh605188,国光连锁,2020-09-29,11.45,11.63,11.4,11.63,11.46,1673183.0,19269095.0,576615400.0,5763595400.0
sh605188,国光连锁,2020-09-30,11.57,11.75,11.5,11.59,11.63,1698010.0,19766083.0,574632200.0,5743772200.0
sh605188,国光连锁,2020-10-09,11.68,11.88,11.61,11.83,11.59,1701004.0,20017191.0,586531400.0,5862711400.0
sh605188,国光连锁,2020-10-12,11.84,12.31,11.81,12.28,11.83,2902864.0,35161882.0,608842400.0,6085722400.0
sh605188,国光连锁,2020-10-13,12.21,12.27,12.12,12.26,12.28,1729043.0,21075927.0,607850800.0,6075810800.0
sh605188,国光连锁,2020-10-14,12.14,12.4,12.13,12.23,12.26,1397409.0,17089922.0,606363400.0,6060943400.0
sh605188,国光连锁,2020-10-15,12.27,12.39,11.85,11.9,12.23,1871538.0,22580543.0,590002000.0,5897402000.0
sh605188,国光连锁,2020-10-16,11.99,12.0,11.82,11.87,11.9,896330.0,10661466.0,588514600.0,5882534600.0
sh605188,国光连锁,2020-10-19,11.97,11.98,11.69,11.71,11.87,1397984.0,16498243.0,580581800.0,5803241800.000001
sh605188,国光连锁,2020-10-20,11.79,11.89,11.68,11.87,11.71,1122391.0,13239315.0,588514600.0,5882534600.0
sh605188,国光连锁,2020-10-21,11.86,12.01,11.76,11.96,11.87,1428718.0,17021526.0,592976800.0,5927136800.000001
sh605188,国光连锁,2020-10-22,11.95,11.99,11.7,11.88,11.96,1719712.0,20375529.0,589010400.0,5887490400.0
sh605188,国光连锁,2020-10-23,12.0,12.46,11.85,11.95,11.88,5550432.0,67352378.0,592481000.0,5922181000.0
sh605188,国光连锁,2020-10-26,11.95,11.95,11.51,11.69,11.95,4157500.0,48494721.0,579590200.0,5793330200.0
sh605188,国光连锁,2020-10-27,11.57,11.79,11.56,11.65,11.69,1741488.0,20286312.0,577607000.0,5773507000.0
sh605188,国光连锁,2020-10-28,11.61,11.74,11.51,11.52,11.65,2068868.0,23977715.0,571161600.0,5709081600.0
sh605188,国光连锁,2020-10-29,11.45,11.5,11.3,11.33,11.52,2267009.0,25797535.0,561741400.0,5614921400.0
sh605188,国光连锁,2020-10-30,11.32,11.37,10.77,10.8,11.33,2726047.0,30309849.0,535464000.0,5352264000.0
sh605188,国光连锁,2020-11-02,10.87,10.89,10.69,10.79,10.8,1569054.0,16905028.0,534968200.0,5347308199.999999
sh605188,国光连锁,2020-11-03,10.74,11.87,10.74,11.48,10.79,9754733.0,113053535.0,569178400.0,5689258400.0
sh605188,国光连锁,2020-11-04,11.39,11.56,11.1,11.1,11.48,7527682.0,84566099.0,550338000.0,5500938000.0
sh605188,国光连锁,2020-11-05,11.23,11.46,11.14,11.28,11.1,3324893.0,37599953.0,559262400.0,5590142400.0
sh605188,国光连锁,2020-11-06,11.27,11.55,11.2,11.39,11.28,3202088.0,36433499.0,564716200.0,5644656200.0
sh605188,国光连锁,2020-11-09,11.55,11.6,11.4,11.46,11.39,2903891.0,33379899.0,568186800.0,5679346800.000001
sh605188,国光连锁,2020-11-10,11.47,11.72,11.4,11.6,11.46,3544028.0,40860466.0,575128000.0,5748728000.0
sh605188,国光连锁,2020-11-11,11.6,11.97,11.33,11.89,11.6,6998481.0,82392971.0,589506200.0,5892446200.0
sh605188,国光连锁,2020-11-12,11.87,11.97,11.65,11.77,11.89,2984558.0,35099259.0,583556600.0,5832976600.0
sh605188,国光连锁,2020-11-13,11.85,11.94,11.6,11.83,11.77,2583849.0,30466652.0,586531400.0,5862711400.0
sh605188,国光连锁,2020-11-16,11.82,12.04,11.78,12.02,11.83,3764927.0,44940329.0,595951600.0,5956871600.0
sh605188,国光连锁,2020-11-17,11.94,12.12,11.7,11.83,12.02,3390200.0,40322729.0,586531400.0,5862711400.0
sh605188,国光连锁,2020-11-18,11.89,11.97,11.76,11.93,11.83,2388100.0,28346536.0,591489400.0,5912269399.999999
sh605188,国光连锁,2020-11-19,11.92,12.06,11.84,11.99,11.93,2184649.0,26146070.0,594464200.0,5942004200.0
sh605188,国光连锁,2020-11-20,11.95,11.99,11.76,11.83,11.99,2028537.0,24065538.0,586531400.0,5862711400.0
sh605188,国光连锁,2020-11-23,11.83,11.83,11.66,11.71,11.83,2072189.0,24287367.0,580581800.0,5803241800.000001
sh605188,国光连锁,2020-11-24,11.71,11.73,11.61,11.64,11.71,1010803.0,11773558.0,577111200.0,5768551200.0
sh605188,国光连锁,2020-11-25,11.69,11.74,11.36,11.44,11.64,1820712.0,21053931.0,567195200.0,5669435200.0
sh605188,国光连锁,2020-11-26,11.5,11.55,11.22,11.29,11.44,2144217.0,24314100.0,559758200.0,5595098199.999999
sh605188,国光连锁,2020-11-27,11.38,11.41,11.17,11.3,11.29,1991895.0,22448161.0,560254000.0,5600054000.0
sh605188,国光连锁,2020-11-30,11.35,11.54,11.23,11.37,11.3,2316192.0,26406315.0,563724600.0,5634744600.0
sh605188,国光连锁,2020-12-01,11.35,12.08,11.35,12.05,11.37,7266492.0,85891853.0,597439000.0,5971739000.0
sh605188,国光连锁,2020-12-02,11.93,12.26,11.85,11.99,12.05,5920911.0,71423765.0,594464200.0,5942004200.0
sh605188,国光连锁,2020-12-03,12.07,12.32,11.92,12.25,11.99,5684103.0,69256232.0,607355000.0,6070855000.0
sh605188,国光连锁,2020-12-04,12.16,12.2,11.88,11.91,12.25,3346190.0,40201758.0,590497800.0,5902357800.0
sh605188,国光连锁,2020-12-07,11.8,12.39,11.8,12.39,11.91,6418130.0,78536540.0,614296200.0,6140236200.0
sh605188,国光连锁,2020-12-08,12.18,12.24,11.98,12.08,12.39,4594400.0,55602413.0,598926400.0,5986606400.0
sh605188,国光连锁,2020-12-09,11.99,12.29,11.93,12.13,12.08,3478621.0,42155861.0,601405400.0,6011385400.0
sh605188,国光连锁,2020-12-10,12.01,12.1,11.43,11.52,12.13,5343800.0,62643797.0,571161600.0,5709081600.0
sh605188,国光连锁,2020-12-11,11.53,11.72,11.02,11.09,11.52,3817803.0,43102125.0,549842200.0,5495982200.0
sh605188,国光连锁,2020-12-14,11.02,11.22,10.91,11.17,11.09,1787889.0,19785448.0,553808600.0,5535628600.0
sh605188,国光连锁,2020-12-15,11.11,11.31,11.02,11.19,11.17,1470000.0,16421370.0,554800200.0,5545540200.0
sh605188,国光连锁,2020-12-16,11.15,11.17,10.82,10.84,11.19,1948467.0,21380076.0,537447200.0,5372087200.0
sh605188,国光连锁,2020-12-17,10.78,10.92,9.88,10.85,10.84,2360491.0,25279821.0,537943000.0,5377043000.0
sh605188,国光连锁,2020-12-18,10.84,10.84,10.38,10.41,10.85,2292302.0,24195395.0,516127800.0,5158987800.0
sh605188,国光连锁,2020-12-21,10.4,10.45,10.3,10.3,10.41,1631900.0,16910937.0,510674000.0,5104474000.0
sh605188,国光连锁,2020-12-22,10.37,10.38,10.04,10.07,10.3,1565200.0,15973364.0,499270600.0,4990490600.0
sh605188,国光连锁,2020-12-23,10.11,10.19,10.0,10.03,10.07,1186967.0,11962819.0,497287400.0,4970667400.0
sh605188,国光连锁,2020-12-24,10.08,10.08,9.71,9.8,10.03,2215350.0,21845698.0,485884000.0,4856684000.0
sh605188,国光连锁,2020-12-25,9.82,10.46,9.72,10.21,9.8,2834537.0,28801273.0,506211800.0,5059871800.0
sh605188,国光连锁,2020-12-28,10.1,10.2,9.78,9.81,10.21,2054940.0,20415399.0,486379800.00000006,4861639800.0
sh605188,国光连锁,2020-12-29,9.8,10.05,9.73,9.81,9.81,1314200.0,12961105.0,486379800.00000006,4861639800.0
sh605188,国光连锁,2020-12-30,9.86,10.07,9.78,9.97,9.81,1411276.0,13986356.0,494312600.0,4940932600.0
sh605188,国光连锁,2020-12-31,9.96,10.08,9.93,9.97,9.97,1037403.0,10374715.0,494312600.0,4940932600.0
sh605188,国光连锁,2021-01-04,9.97,10.11,9.9,9.96,9.97,1775503.0,17715023.0,493816800.0,4935976800.0
sh605188,国光连锁,2021-01-05,9.95,9.98,9.81,9.82,9.96,1411003.0,13924580.0,486875600.0,4866595600.0
sh605188,国光连锁,2021-01-06,9.85,9.88,9.54,9.55,9.82,1990806.0,19211530.0,473489000.0,4732789000.0
sh605188,国光连锁,2021-01-07,9.55,9.55,8.98,9.05,9.55,3201100.0,29348116.0,448699000.0,4484999000.0
sh605188,国光连锁,2021-01-08,9.0,9.22,8.76,8.88,9.05,2307506.0,20680097.0,440270400.0,4400750400.0
sh605188,国光连锁,2021-01-11,8.88,8.91,8.44,8.58,8.88,2634174.0,22721339.0,425396400.0,4252076400.0
sh605188,国光连锁,2021-01-12,8.58,8.8,8.5,8.58,8.58,1550589.0,13385159.0,425396400.0,4252076400.0
sh605188,国光连锁,2021-01-13,8.56,8.56,8.28,8.31,8.58,2023738.0,16951676.0,412009800.00000006,4118269800.0
sh605188,国光连锁,2021-01-14,8.34,8.53,8.27,8.32,8.31,2338003.0,19605232.0,412505600.0,4123225600.0
sh605188,国光连锁,2021-01-15,8.29,8.79,8.29,8.77,8.32,3928806.0,33877667.0,434816600.00000006,4346236600.0
sh605188,国光连锁,2021-01-18,8.67,9.0,8.66,8.82,8.77,2268904.0,20081396.0,437295600.0,4371015600.0
sh605188,国光连锁,2021-01-19,8.9,8.94,8.8,8.89,8.82,1043196.0,9257584.0,440766200.0,4405706200.0
sh605188,国光连锁,2021-01-20,8.89,9.4,8.83,9.19,8.89,5264829.0,48314907.0,455640200.0,4554380200.0
sh605188,国光连锁,2021-01-21,9.06,9.27,8.98,9.01,9.19,3065400.0,27941301.0,446715800.0,4465175800.0
sh605188,国光连锁,2021-01-22,9.0,9.91,8.98,9.91,9.01,9208978.0,89063966.0,491337800.0,4911197800.0
sh605188,国光连锁,2021-01-25,10.1,10.63,9.36,9.7,9.91,12944160.0,129416213.0,480926000.0,4807126000.0
sh605188,国光连锁,2021-01-26,9.58,10.06,9.1,9.7,9.7,8655082.0,82276389.0,480926000.0,4807126000.0
sh605188,国光连锁,2021-01-27,9.7,9.71,9.12,9.36,9.7,6375662.0,59749147.0,464068800.0,4638628800.0
sh605188,国光连锁,2021-01-28,9.3,9.46,8.98,8.99,9.36,5321948.0,48708681.0,445724200.0,4455264200.0
sh605188,国光连锁,2021-01-29,9.11,9.11,8.75,8.8,8.99,4106115.0,36510783.0,436304000.0,4361104000.0
sh605188,国光连锁,2021-02-01,8.8,9.14,8.78,9.05,8.8,3043378.0,27309895.0,448699000.0,4484999000.0
sh605188,国光连锁,2021-02-02,9.06,9.11,8.88,8.96,9.05,2087203.0,18757016.0,444236800.0,4440396800.0
sh605188,国光连锁,2021-02-03,8.82,9.01,8.73,8.95,8.96,2968900.0,26316205.0,443741000.0,4435441000.0
sh605188,国光连锁,2021-02-04,8.95,8.95,8.7,8.72,8.95,2219503.0,19524157.0,432337600.0,4321457600.0
sh605188,国光连锁,2021-02-05,8.8,9.12,8.7,8.89,8.72,3698395.0,33185441.0,440766200.0,4405706200.0
sh605188,国光连锁,2021-02-08,8.99,9.16,8.73,8.81,8.89,3130103.0,27845764.0,436799800.00000006,4366059800.0
sh605188,国光连锁,2021-02-09,8.71,8.8,8.63,8.72,8.81,2379187.0,20702711.0,432337600.0,4321457600.0
sh605188,国光连锁,2021-02-10,8.71,8.82,8.62,8.62,8.72,2010481.0,17457661.0,427379600.0,4271899600.0
sh605188,国光连锁,2021-02-18,8.64,8.98,8.64,8.87,8.62,2286592.0,20202185.0,439774600.0,4395794600.0
sh605188,国光连锁,2021-02-19,8.86,9.14,8.78,9.14,8.87,3188889.0,28770841.0,453161200.0,4529601200.0
sh605188,国光连锁,2021-02-22,9.14,9.36,9.1,9.13,9.14,3437500.0,31674106.0,452665400.0,4524645400.0
sh605188,国光连锁,2021-02-23,9.01,9.12,8.93,9.06,9.13,2137756.0,19272759.0,449194800.00000006,4489954800.0
sh605188,国光连锁,2021-02-24,9.06,9.21,9.01,9.07,9.06,1720800.0,15669034.0,449690600.0,4494910600.0
sh605188,国光连锁,2021-02-25,9.07,9.2,8.81,8.83,9.07,2346400.0,20988637.0,437791400.0,4375971400.0
sh605188,国光连锁,2021-02-26,8.75,8.91,8.65,8.85,8.83,1251500.0,11041594.0,438783000.0,4385883000.0
sh605188,国光连锁,2021-03-01,8.87,9.17,8.87,9.14,8.85,2492900.0,22605511.0,453161200.0,4529601200.0
sh605188,国光连锁,2021-03-02,9.17,9.29,9.01,9.05,9.14,2191103.0,20046378.0,448699000.0,4484999000.0
sh605188,国光连锁,2021-03-03,9.03,9.15,9.03,9.11,9.05,1425700.0,12970935.0,451673800.0,4514733800.0
sh605188,国光连锁,2021-03-04,9.11,9.22,8.98,9.03,9.11,1712500.0,15578396.0,447707400.0,4475087400.0
sh605188,国光连锁,2021-03-05,8.96,9.13,8.95,9.1,9.03,1764189.0,15979787.0,451178000.0,4509778000.0
sh605188,国光连锁,2021-03-08,9.15,9.24,9.05,9.1,9.1,1719400.0,15703138.0,451178000.0,4509778000.0
sh605188,国光连锁,2021-03-09,9.11,9.13,8.75,8.83,9.1,1834700.0,16333015.0,437791400.0,4375971400.0
sh605188,国光连锁,2021-03-10,8.84,8.9,8.66,8.76,8.83,2091200.0,18331356.0,434320800.0,4341280800.0
sh605188,国光连锁,2021-03-11,8.76,9.02,8.73,8.85,8.76,2015200.0,17877797.0,438783000.0,4385883000.0
sh605188,国光连锁,2021-03-12,8.83,8.87,8.73,8.75,8.85,1437400.0,12631895.0,433825000.0,4336325000.0
sh605188,国光连锁,2021-03-15,8.72,8.82,8.69,8.7,8.75,1042292.0,9106886.0,431346000.0,4311546000.0
sh605188,国光连锁,2021-03-16,8.76,8.93,8.72,8.87,8.7,2439508.0,21596745.0,439774600.0,4395794600.0
sh605188,国光连锁,2021-03-17,8.89,9.0,8.82,8.94,8.87,1954525.0,17457739.0,443245200.0,4430485200.0
sh605188,国光连锁,2021-03-18,9.0,9.1,8.95,9.01,8.94,2132400.0,19200464.0,446715800.0,4465175800.0
sh605188,国光连锁,2021-03-19,8.93,9.43,8.93,9.21,9.01,5280600.0,48714547.0,456631800.0,4564291800.0
sh605188,国光连锁,2021-03-22,9.24,9.57,9.24,9.43,9.21,4052200.0,38125051.0,467539400.0,4673319400.0
sh605188,国光连锁,2021-03-23,9.38,9.44,9.08,9.12,9.43,3251100.0,30002193.0,452169600.0,4519689600.0
sh605188,国光连锁,2021-03-24,9.11,9.24,9.06,9.17,9.12,2315678.0,21196881.0,454648600.0,4544468600.0
sh605188,国光连锁,2021-03-25,9.2,9.42,9.17,9.24,9.17,3070900.0,28512308.0,458119200.0,4579159200.0
sh605188,国光连锁,2021-03-26,9.12,9.73,9.11,9.56,9.24,5682715.0,53800797.0,473984800.00000006,4737744800.0
sh605188,国光连锁,2021-03-29,9.47,9.88,9.28,9.85,9.56,6706300.0,64276309.0,488363000.0,4881463000.0
sh605188,国光连锁,2021-03-30,9.72,9.8,9.39,9.58,9.85,6600800.0,63012250.0,474976400.0,4747656400.0
sh605188,国光连锁,2021-03-31,9.85,10.54,9.83,10.54,9.58,4214600.0,43608784.0,522573200.0,5223413200.0
sh605188,国光连锁,2021-04-01,10.7,11.26,9.88,9.92,10.54,13753534.0,143377618.0,491833600.0,4916153600.0
sh605188,国光连锁,2021-04-02,9.67,10.07,9.54,9.74,9.92,8157228.0,79579538.0,482909200.0,4826949200.0
sh605188,国光连锁,2021-04-06,9.68,10.18,9.68,9.96,9.74,5824265.0,58058421.0,493816800.0,4935976800.0
sh605188,国光连锁,2021-04-07,10.05,10.96,9.88,10.96,9.96,8360201.0,87425933.0,543396800.0,5431556800.000001
sh605188,国光连锁,2021-04-08,11.29,11.62,10.44,10.54,10.96,14339477.0,156946627.0,522573200.0,5223413200.0
sh605188,国光连锁,2021-04-09,10.65,11.59,10.51,11.59,10.54,11169217.0,125620576.0,574632200.0,5743772200.0
sh605188,国光连锁,2021-04-12,12.75,12.75,12.75,12.75,11.59,4808846.0,61312787.0,632145000.0,6318645000.0
sh605188,国光连锁,2021-04-13,13.13,14.03,12.61,14.03,12.75,32805319.0,445890237.0,695607400.0,6952987400.0
sh605188,国光连锁,2021-04-14,13.8,15.43,12.65,13.55,14.03,41670878.0,597178906.0,671809000.0,6715109000.0
sh605188,国光连锁,2021-04-15,12.2,12.4,12.2,12.2,13.55,12375178.0,151034875.0,604876000.0,6046076000.0
sh605188,国光连锁,2021-04-16,11.26,11.55,10.98,10.98,12.2,28549668.0,317457927.0,544388400.0,5441468400.0
sh605188,国光连锁,2021-04-19,10.78,11.0,10.68,10.85,10.98,16565256.0,179210753.0,537943000.0,5377043000.0
sh605188,国光连锁,2021-04-20,10.76,10.96,10.54,10.63,10.85,14242661.0,153262138.0,527035400.0,5268015400.0
sh605188,国光连锁,2021-04-21,10.54,10.83,10.46,10.57,10.63,10336836.0,110029550.0,524060600.0,5238280600.0
sh605188,国光连锁,2021-04-22,10.56,10.61,10.29,10.37,10.57,9353821.0,97210007.0,514144600.0,5139164600.0
sh605188,国光连锁,2021-04-23,10.32,10.37,9.85,9.96,10.37,8897615.0,89378329.0,493816800.0,4935976800.0
sh605188,国光连锁,2021-04-26,9.94,10.02,9.79,9.84,9.96,4820700.0,47796319.0,487867200.0,4876507200.0
sh605188,国光连锁,2021-04-27,9.81,9.93,9.78,9.87,9.84,4240849.0,41734704.0,489354600.0,4891374600.0
sh605188,国光连锁,2021-04-28,9.81,9.84,9.55,9.63,9.87,4698300.0,45328103.0,477455400.0,4772435400.0
sh605188,国光连锁,2021-04-29,9.63,9.7,9.48,9.5,9.63,3990700.0,38312526.0,471010000.0,4708010000.0
sh605188,国光连锁,2021-04-30,9.5,9.51,9.18,9.35,9.5,4907988.0,45741275.0,463573000.0,4633673000.0
sh605188,国光连锁,2021-05-06,9.37,9.48,9.32,9.35,9.35,2848403.0,26763414.0,463573000.0,4633673000.0
sh605188,国光连锁,2021-05-07,9.4,9.44,9.22,9.27,9.35,2804713.0,26146506.0,459606600.00000006,4594026600.0
sh605188,国光连锁,2021-05-10,9.33,9.33,9.17,9.3,9.27,2950278.0,27275639.0,461094000.0,4608894000.0
sh605188,国光连锁,2021-05-11,9.29,9.43,9.23,9.41,9.3,3292600.0,30830258.0,466547800.0,4663407800.0
sh605188,国光连锁,2021-05-12,9.65,9.96,9.52,9.59,9.41,8539591.0,83036268.0,475472200.0,4752612200.0
sh605188,国光连锁,2021-05-13,9.46,9.48,9.28,9.31,9.59,4817303.0,45162453.0,461589800.00000006,4613849800.0
sh605188,国光连锁,2021-05-14,9.31,9.39,9.28,9.31,9.31,3005803.0,28058731.0,461589800.00000006,4613849800.0
sh605188,国光连锁,2021-05-17,9.31,9.34,8.96,8.98,9.31,4399700.0,39802013.0,445228400.0,4450308400.0
sh605188,国光连锁,2021-05-18,8.98,9.19,8.93,9.17,8.98,2648200.0,24038678.0,454648600.0,4544468600.0
sh605188,国光连锁,2021-05-19,9.17,9.2,9.02,9.07,9.17,2450500.0,22287600.0,449690600.0,4494910600.0
sh605188,国光连锁,2021-05-20,9.03,9.29,8.98,9.21,9.07,3708200.0,33854568.0,456631800.0,4564291800.0
sh605188,国光连锁,2021-05-21,9.26,9.43,9.16,9.18,9.21,4361487.0,40489376.0,455144400.0,4549424400.0
sh605188,国光连锁,2021-05-24,9.18,9.19,9.09,9.14,9.18,2250145.0,20548694.0,453161200.0,4529601200.0
sh605188,国光连锁,2021-05-25,9.16,9.3,9.01,9.29,9.14,3010000.0,27660193.0,460598200.0,4603938200.0
sh605188,国光连锁,2021-05-26,9.25,9.6,9.25,9.45,9.29,5523711.0,52181580.0,468531000.0,4683231000.0
sh605188,国光连锁,2021-05-27,9.45,9.89,9.45,9.7,9.45,8174406.0,79183682.0,480926000.0,4807126000.0
sh605188,国光连锁,2021-05-28,9.74,9.97,9.54,9.6,9.7,6138769.0,59708374.0,475968000.0,4757568000.0
sh605188,国光连锁,2021-05-31,9.57,9.71,9.42,9.62,9.6,3845080.0,36831806.0,476959600.0,4767479600.0
sh605188,国光连锁,2021-06-01,9.68,9.8,9.5,9.8,9.62,5192020.0,50134105.0,485884000.0,4856684000.0
sh605188,国光连锁,2021-06-02,9.86,10.14,9.65,9.79,9.8,6942999.0,68594611.0,485388200.0,4851728200.0
sh605188,国光连锁,2021-06-03,9.68,10.09,9.63,10.05,9.79,9359189.0,92956352.0,498279000.0,4980579000.0
sh605188,国光连锁,2021-06-04,10.02,10.02,9.69,9.78,10.05,5949800.0,58403157.0,484892400.0,4846772400.0
sh605188,国光连锁,2021-06-07,9.77,9.83,9.54,9.59,9.78,3874400.0,37283497.0,475472200.0,4752612200.0
sh605188,国光连锁,2021-06-08,9.64,9.64,9.47,9.49,9.59,2468924.0,23477300.0,470514200.0,4703054200.0
sh605188,国光连锁,2021-06-09,9.49,9.57,9.36,9.4,9.49,2614700.0,24762642.0,466052000.0,4658452000.0
sh605188,国光连锁,2021-06-10,9.39,9.39,9.24,9.24,9.4,3058803.0,28428848.0,458119200.0,4579159200.0
sh605188,国光连锁,2021-06-11,9.27,9.38,9.19,9.2,9.24,2869403.0,26668701.0,456136000.0,4559336000.0
sh605188,国光连锁,2021-06-15,9.22,9.27,9.05,9.08,9.2,2271000.0,20722320.0,450186400.0,4499866400.0
sh605188,国光连锁,2021-06-16,9.1,9.14,9.05,9.11,9.08,1385878.0,12604022.0,451673800.0,4514733800.0
sh605188,国光连锁,2021-06-17,9.16,9.2,9.11,9.16,9.11,1324489.0,12122623.0,454152800.0,4539512800.0
sh605188,国光连锁,2021-06-18,9.2,9.2,9.11,9.15,9.16,1355886.0,12393168.0,453657000.0,4534557000.0
sh605188,国光连锁,2021-06-21,9.11,9.18,9.06,9.16,9.15,1251499.0,11417619.0,454152800.0,4539512800.0
sh605188,国光连锁,2021-06-22,9.18,9.28,9.14,9.27,9.16,1966278.0,18120673.0,459606600.00000006,4594026600.0
sh605188,国光连锁,2021-06-23,9.28,9.39,9.19,9.3,9.27,2384410.0,22164618.0,461094000.0,4608894000.0
sh605188,国光连锁,2021-06-24,9.22,9.35,9.16,9.17,9.3,2108810.0,19470481.0,454648600.0,4544468600.0
sh605188,国光连锁,2021-06-25,9.38,9.75,9.36,9.36,9.17,6001389.0,56980092.0,464068800.0,4638628800.0
sh605188,XD国光连,2021-06-28,9.1,9.29,9.01,9.11,9.29,3799884.0,34448301.0,451673800.0,4514733800.0
sh605188,国光连锁,2021-06-29,9.07,9.1,8.91,8.92,9.11,2470900.0,22197852.0,442253600.0,4420573600.0
sh605188,国光连锁,2021-06-30,8.9,8.95,8.86,8.89,8.92,1479689.0,13155588.0,440766200.0,4405706200.0
sh605188,国光连锁,2021-07-01,8.9,8.95,8.87,8.88,8.89,1263980.0,11243915.0,440270400.0,4400750400.0
sh605188,国光连锁,2021-07-02,8.88,8.9,8.67,8.69,8.88,2073700.0,18104394.0,430850200.0,4306590200.0
sh605188,国光连锁,2021-07-05,8.66,8.79,8.62,8.79,8.69,1080800.0,9419454.0,435808200.0,4356148200.0
sh605188,国光连锁,2021-07-06,8.75,8.93,8.74,8.86,8.79,1157381.0,10215218.0,439278800.0,4390838800.0
sh605188,国光连锁,2021-07-07,8.84,8.88,8.77,8.87,8.86,1181500.0,10429769.0,439774600.0,4395794600.0
sh605188,国光连锁,2021-07-08,8.9,8.9,8.7,8.71,8.87,1247000.0,10920101.0,431841800.0,4316501800.0
sh605188,国光连锁,2021-07-09,8.71,8.78,8.68,8.76,8.71,1017779.0,8884374.0,434320800.0,4341280800.0
sh605188,国光连锁,2021-07-12,8.76,8.79,8.72,8.73,8.76,1142100.0,10000427.0,432833400.0,4326413400.0
sh605188,国光连锁,2021-07-13,8.75,8.76,8.68,8.71,8.73,999600.0,8696613.0,431841800.0,4316501800.0
sh605188,国光连锁,2021-07-14,8.68,8.72,8.64,8.69,8.71,986500.0,8544859.0,430850200.0,4306590200.0
sh605188,国光连锁,2021-07-15,8.69,8.69,8.4,8.42,8.69,2160200.0,18344764.0,417463600.0,4172783600.0
sh605188,国光连锁,2021-07-16,8.43,8.46,8.35,8.35,8.42,1026620.0,8620507.0,413993000.0,4138093000.0
sh605188,国光连锁,2021-07-19,8.34,8.4,8.18,8.19,8.35,1168000.0,9619068.0,406060200.0,4058800200.0
sh605188,国光连锁,2021-07-20,8.15,8.35,8.12,8.27,8.19,994415.0,8199054.0,410026600.00000006,4098446600.0
sh605188,国光连锁,2021-07-21,8.27,8.38,8.26,8.32,8.27,1000315.0,8330768.0,412505600.0,4123225600.0
sh605188,国光连锁,2021-07-22,8.32,8.35,8.25,8.26,8.32,674500.0,5586851.0,409530800.0,4093490800.0
sh605188,国光连锁,2021-07-23,8.36,8.36,8.15,8.15,8.26,1380900.0,11307131.0,404077000.0,4038977000.0
sh605188,国光连锁,2021-07-26,8.16,8.16,7.96,7.99,8.15,1215800.0,9767112.0,396144200.0,3959684200.0
sh605188,国光连锁,2021-07-27,8.04,8.12,7.94,7.99,7.99,1075300.0,8614696.0,396144200.0,3959684200.0
sh605188,国光连锁,2021-07-28,8.0,8.04,7.59,7.61,7.99,2356500.0,18197568.0,459491784.78,3771363800.0
sh605188,国光连锁,2021-07-29,7.68,7.77,7.6,7.71,7.61,1192800.0,9172370.0,465529784.58,3820921800.0
sh605188,国光连锁,2021-07-30,7.7,7.76,7.65,7.71,7.71,881400.0,6794910.0,465529784.58,3820921800.0
sh605188,国光连锁,2021-08-02,7.71,7.89,7.62,7.88,7.71,1546801.0,12013584.0,475794384.24,3905170400.0
sh605188,国光连锁,2021-08-03,7.86,7.94,7.82,7.84,7.88,1090300.0,8597756.0,473379184.32,3885347200.0
sh605188,国光连锁,2021-08-04,7.86,7.88,7.77,7.8,7.84,1064400.0,8311729.0,470963984.4,3865524000.0
sh605188,国光连锁,2021-08-05,7.84,7.89,7.76,7.8,7.8,890200.0,6959887.0,470963984.4,3865524000.0
sh605188,国光连锁,2021-08-06,7.84,8.05,7.75,7.88,7.8,2093400.0,16525766.0,475794384.24,3905170400.0
sh605188,国光连锁,2021-08-09,7.91,7.99,7.82,7.98,7.88,2080900.0,16461622.0,481832384.04,3954728400.000001
sh605188,国光连锁,2021-08-10,7.99,8.1,7.93,8.05,7.98,1800003.0,14442774.0,486058983.9,3989419000.0
sh605188,国光连锁,2021-08-11,8.13,8.19,8.04,8.14,8.05,1651300.0,13387136.0,491493183.72,4034021200.0
sh605188,国光连锁,2021-08-12,8.12,8.18,8.04,8.08,8.14,1578296.0,12773096.0,487870383.84,4004286400.0
sh605188,国光连锁,2021-08-13,8.04,8.09,8.0,8.03,8.08,1177200.0,9457931.0,484851383.94,3979507400.0
sh605188,国光连锁,2021-08-16,8.05,8.13,8.03,8.07,8.03,1291600.0,10428414.0,487266583.86,3999330600.0
sh605188,国光连锁,2021-08-17,8.07,8.13,7.83,7.86,8.07,1793300.0,14356211.0,474586784.28,3895258800.0
sh605188,国光连锁,2021-08-18,7.84,8.05,7.83,8.03,7.86,1709600.0,13589575.0,484851383.94,3979507400.0
sh605188,国光连锁,2021-08-19,8.0,8.05,7.87,7.89,8.03,1289600.0,10235497.0,476398184.22,3910126200.0
sh605188,国光连锁,2021-08-20,7.9,7.9,7.69,7.75,7.89,1573000.0,12213014.0,467944984.5,3840745000.0
sh605188,国光连锁,2021-08-23,7.76,7.96,7.75,7.93,7.75,1426403.0,11266010.0,478813384.14,3929949400.0
sh605188,国光连锁,2021-08-24,7.93,8.01,7.9,7.97,7.93,1241600.0,9861690.0,481228584.06,3949772600.0
sh605188,国光连锁,2021-08-25,8.0,8.04,7.93,8.01,7.97,1233400.0,9868274.0,483643783.98,3969595800.0
sh605188,国光连锁,2021-08-26,8.01,8.03,7.91,7.93,8.01,1185600.0,9438261.0,478813384.14,3929949400.0
sh605188,国光连锁,2021-08-27,7.88,8.02,7.76,7.78,7.93,1677498.0,13157608.0,469756384.44,3855612400.0
sh605188,国光连锁,2021-08-30,7.8,7.84,7.73,7.75,7.78,1390400.0,10793194.0,467944984.5,3840745000.0
sh605188,国光连锁,2021-08-31,7.75,7.82,7.68,7.81,7.75,1111300.0,8611909.0,471567784.38,3870479800.0
sh605188,国光连锁,2021-09-01,7.86,7.91,7.75,7.89,7.81,1708500.0,13389084.0,476398184.22,3910126200.0
sh605188,国光连锁,2021-09-02,7.89,8.01,7.86,7.99,7.89,1573000.0,12496456.0,482436184.02,3959684200.0
sh605188,国光连锁,2021-09-03,7.99,8.09,7.98,8.06,7.99,1347946.0,10838846.0,486662783.88,3994374800.0
sh605188,国光连锁,2021-09-06,8.06,8.11,8.01,8.09,8.06,991000.0,7994376.0,488474183.82000005,4009242200.0
sh605188,国光连锁,2021-09-07,8.07,8.15,8.05,8.06,8.09,1263700.0,10220524.0,486662783.88,3994374800.0
sh605188,国光连锁,2021-09-08,8.09,8.15,8.05,8.09,8.06,1374326.0,11130410.0,488474183.82000005,4009242200.0
sh605188,国光连锁,2021-09-09,8.07,8.13,8.04,8.09,8.09,943937.0,7628213.0,488474183.82000005,4009242200.0
sh605188,国光连锁,2021-09-10,8.1,8.16,8.0,8.06,8.09,1432377.0,11575330.0,486662783.88,3994374800.0
sh605188,国光连锁,2021-09-13,8.08,8.14,8.01,8.11,8.06,1205092.0,9739525.0,489681783.78,4019153800.0
sh605188,国光连锁,2021-09-14,8.12,8.13,7.99,8.01,8.11,1214600.0,9779114.0,483643783.98,3969595800.0
sh605188,国光连锁,2021-09-15,8.0,8.07,7.96,8.06,8.01,1033900.0,8269417.0,486662783.88,3994374800.0
sh605188,国光连锁,2021-09-16,8.05,8.14,7.96,7.96,8.06,1287100.0,10342461.0,480624784.08,3944816800.0
sh605188,国光连锁,2021-09-17,7.97,7.99,7.75,7.85,7.96,1756724.0,13808122.0,473982984.3,3890303000.0
sh605188,国光连锁,2021-09-22,7.83,7.86,7.75,7.84,7.85,1053000.0,8211261.0,473379184.32,3885347200.0
sh605188,国光连锁,2021-09-23,7.87,7.92,7.79,7.88,7.84,855800.0,6736017.0,475794384.24,3905170400.0
sh605188,国光连锁,2021-09-24,7.9,7.9,7.74,7.76,7.88,1203400.0,9367920.0,468548784.48,3845700800.0
sh605188,国光连锁,2021-09-27,7.75,7.8,7.53,7.6,7.76,1378600.0,10537895.0,458887984.8,3766408000.0
sh605188,国光连锁,2021-09-28,7.58,7.64,7.56,7.64,7.6,764024.0,5804968.0,461303184.72,3786231200.0
sh605188,国光连锁,2021-09-29,7.6,7.6,7.41,7.41,7.64,1001100.0,7496759.0,447415785.18,3672247800.000001
sh605188,国光连锁,2021-09-30,7.41,7.56,7.41,7.53,7.41,722500.0,5416512.0,454661384.94,3731717400.0
sh605188,国光连锁,2021-10-08,7.59,7.7,7.54,7.7,7.53,1074877.0,8223000.0,464925984.6,3815966000.0
sh605188,国光连锁,2021-10-11,7.7,7.9,7.64,7.66,7.7,1437837.0,11153086.0,462510784.68,3796142800.000001
sh605188,国光连锁,2021-10-12,7.66,7.7,7.56,7.63,7.66,1002003.0,7647561.0,460699384.74,3781275400.0
sh605188,国光连锁,2021-10-13,7.62,7.79,7.59,7.76,7.63,1233177.0,9515743.0,468548784.48,3845700800.0
sh605188,国光连锁,2021-10-14,7.87,7.87,7.71,7.79,7.76,1025900.0,7976459.0,470360184.42,3860568200.0
sh605188,国光连锁,2021-10-15,7.78,7.78,7.71,7.71,7.79,825900.0,6400248.0,465529784.58,3820921800.0
sh605188,国光连锁,2021-10-18,7.71,7.77,7.7,7.72,7.71,392500.0,3029710.0,466133584.56,3825877600.0
sh605188,国光连锁,2021-10-19,7.71,7.74,7.64,7.65,7.72,625800.0,4807855.0,461906984.7000001,3791187000.0
sh605188,国光连锁,2021-10-20,7.67,7.7,7.56,7.61,7.65,819200.0,6234398.0,459491784.78,3771363800.0
sh605188,国光连锁,2021-10-21,7.62,7.65,7.5,7.5,7.61,674537.0,5089743.0,452849985.0,3716850000.0
sh605188,国光连锁,2021-10-22,7.51,7.53,7.42,7.47,7.5,707100.0,5292074.0,451038585.06,3701982600.0
sh605188,国光连锁,2021-10-25,7.47,7.5,7.42,7.49,7.47,415900.0,3102290.0,452246185.02,3711894200.0
sh605188,国光连锁,2021-10-26,7.48,7.51,7.4,7.4,7.49,742700.0,5535424.0,446811985.2,3667292000.0
sh605188,国光连锁,2021-10-27,7.43,7.43,7.17,7.22,7.4,1771100.0,12817387.0,435943585.56,3578087600.0
sh605188,国光连锁,2021-10-28,7.21,7.24,7.11,7.24,7.22,820700.0,5896330.0,437151185.52,3587999200.0
sh605188,国光连锁,2021-10-29,7.23,7.33,7.17,7.28,7.24,1313103.0,9530329.0,439566385.44,3607822400.0
sh605188,国光连锁,2021-11-01,7.29,7.32,7.21,7.25,7.28,635700.0,4621145.0,437754985.5,3592955000.0
sh605188,国光连锁,2021-11-02,7.22,7.3,7.13,7.14,7.25,1025100.0,7379651.0,431113185.72,3538441200.0
sh605188,国光连锁,2021-11-03,7.14,7.2,7.13,7.19,7.14,493503.0,3539098.0,434132185.62,3563220200.0
sh605188,国光连锁,2021-11-04,7.19,7.35,7.18,7.29,7.19,869100.0,6303436.0,440170185.42,3612778200.0
sh605188,国光连锁,2021-11-05,7.29,7.32,7.23,7.28,7.29,542100.0,3945532.0,439566385.44,3607822400.0
sh605188,国光连锁,2021-11-08,7.29,7.33,7.25,7.3,7.28,458600.0,3341077.0,440773985.4,3617734000.0
sh605188,国光连锁,2021-11-09,7.3,7.35,7.27,7.31,7.3,609961.0,4456153.0,441377785.38,3622689800.0
sh605188,国光连锁,2021-11-10,7.28,7.38,7.25,7.35,7.31,938600.0,6854345.0,443792985.3,3642513000.0
sh605188,国光连锁,2021-11-11,7.35,7.75,7.33,7.7,7.35,3911042.0,29656814.0,464925984.6,3815966000.0
sh605188,国光连锁,2021-11-12,7.69,8.05,7.65,8.04,7.7,6068733.0,48044584.0,485455183.92,3984463200.0
sh605188,国光连锁,2021-11-15,8.09,8.24,7.98,8.21,8.04,6130400.0,49765527.0,495719783.58,4068711800.0
sh605188,国光连锁,2021-11-16,8.23,8.26,7.72,7.8,8.21,9003878.0,72086074.0,470963984.4,3865524000.0
sh605188,国光连锁,2021-11-17,7.76,7.92,7.76,7.84,7.8,4554980.0,35774459.0,473379184.32,3885347200.0
sh605188,国光连锁,2021-11-18,7.85,7.86,7.68,7.68,7.84,2524700.0,19595777.0,463718384.64,3806054400.0
sh605188,国光连锁,2021-11-19,7.69,7.75,7.59,7.73,7.68,1922400.0,14745861.0,466737384.54,3830833400.000001
sh605188,国光连锁,2021-11-22,7.7,7.76,7.6,7.65,7.73,1911403.0,14623941.0,461906984.70000005,3791187000.0
sh605188,国光连锁,2021-11-23,7.64,7.67,7.59,7.62,7.65,1790700.0,13649382.0,460095584.76,3776319600.0
sh605188,国光连锁,2021-11-24,7.6,7.76,7.59,7.73,7.62,2065703.0,15887775.0,466737384.53999996,3830833400.0000005
sh605188,国光连锁,2021-11-25,7.73,7.8,7.69,7.75,7.73,2262000.0,17560602.0,467944984.5,3840745000.0
sh605188,国光连锁,2021-11-26,7.76,7.76,7.64,7.7,7.75,1291000.0,9916055.0,464925984.6,3815966000.0
sh605188,国光连锁,2021-11-29,7.63,7.68,7.57,7.6,7.7,1517939.0,11565945.0,458887984.79999995,3766408000.0
sh605188,国光连锁,2021-11-30,7.6,7.73,7.6,7.68,7.6,1284600.0,9840772.0,463718384.64,3806054400.0
sh605188,国光连锁,2021-12-01,7.66,7.82,7.63,7.82,7.68,2233078.0,17302134.0,472171584.35999995,3875435600.0
sh605188,国光连锁,2021-12-02,7.82,7.83,7.66,7.69,7.82,1317300.0,10184287.0,464322184.61999995,3811010200.0
sh605188,国光连锁,2021-12-03,7.69,7.73,7.64,7.68,7.69,942700.0,7238176.0,463718384.64,3806054400.0
sh605188,国光连锁,2021-12-06,7.68,7.72,7.58,7.58,7.68,1545000.0,11786520.0,457680384.84,3756496400.0
sh605188,国光连锁,2021-12-07,7.62,7.67,7.5,7.55,7.58,1285000.0,9712003.0,455868984.9,3741629000.0
sh605188,国光连锁,2021-12-08,7.6,7.61,7.51,7.58,7.55,933100.0,7057962.0,457680384.84,3756496400.0
sh605188,国光连锁,2021-12-09,7.6,7.69,7.57,7.65,7.58,1399800.0,10697932.0,461906984.70000005,3791187000.0
sh605188,国光连锁,2021-12-10,7.65,7.69,7.61,7.65,7.65,1015399.0,7764050.0,461906984.70000005,3791187000.0
sh605188,国光连锁,2021-12-13,7.67,7.71,7.62,7.65,7.65,1224200.0,9365205.0,461906984.70000005,3791187000.0
sh605188,国光连锁,2021-12-14,7.64,7.77,7.61,7.76,7.65,1702298.0,13140273.0,468548784.48,3845700800.0
sh605188,国光连锁,2021-12-15,7.77,7.82,7.67,7.81,7.76,2239948.0,17403274.0,471567784.38,3870479800.0
sh605188,国光连锁,2021-12-16,7.8,7.87,7.77,7.83,7.81,1649700.0,12904644.0,472775384.34000003,3880391400.0
sh605188,国光连锁,2021-12-17,7.85,7.88,7.77,7.83,7.83,1875299.0,14687464.0,472775384.34000003,3880391400.0
sh605188,国光连锁,2021-12-20,7.84,7.88,7.74,7.75,7.83,1411500.0,11031241.0,467944984.5,3840745000.0
sh605188,国光连锁,2021-12-21,7.81,8.0,7.76,7.99,7.75,3157300.0,24992974.0,482436184.02,3959684200.0
sh605188,国光连锁,2021-12-22,8.01,8.09,7.93,8.01,7.99,2685939.0,21506752.0,483643783.98,3969595800.0
sh605188,国光连锁,2021-12-23,7.96,8.0,7.82,7.83,8.01,1851500.0,14604706.0,472775384.34000003,3880391400.0
sh605188,国光连锁,2021-12-24,7.85,8.33,7.74,8.08,7.83,9798601.0,79736930.0,487870383.84,4004286400.0
sh605188,国光连锁,2021-12-27,7.93,8.41,7.67,8.36,8.08,10713725.0,86251501.0,504776783.28000003,4143048800.0
sh605188,国光连锁,2021-12-28,8.25,8.28,8.07,8.1,8.36,5436103.0,44293175.0,489077983.8,4014198000.0
sh605188,国光连锁,2021-12-29,8.11,8.19,7.98,8.06,8.1,2710400.0,21925837.0,486662783.88,3994374800.0
sh605188,国光连锁,2021-12-30,8.06,8.13,7.99,8.04,8.06,2210400.0,17822420.0,485455183.91999996,3984463200.0
sh605188,国光连锁,2021-12-31,8.04,8.12,7.99,7.99,8.04,2023300.0,16279655.0,482436184.02,3959684200.0
sh605188,国光连锁,2022-01-04,7.98,8.27,7.98,8.23,7.99,4371499.0,35795526.0,496927383.54,4078623400.0000005
sh605188,国光连锁,2022-01-05,8.25,8.28,8.07,8.13,8.23,2425800.0,19737729.0,490889383.73999995,4029065400.0
sh605188,国光连锁,2022-01-06,8.12,8.22,8.09,8.16,8.13,1746000.0,14258037.0,492700783.68,4043932800.0000005
sh605188,国光连锁,2022-01-07,8.14,8.22,7.99,7.99,8.16,2084900.0,16855483.0,482436184.02,3959684200.0
sh605188,国光连锁,2022-01-10,8.02,8.22,7.92,8.14,7.99,2772396.0,22470866.0,491493183.72,4034021200.0
sh605188,国光连锁,2022-01-11,8.13,8.25,8.13,8.17,8.14,1960600.0,16049605.0,493304583.65999997,4048888600.0
sh605188,国光连锁,2022-01-12,8.19,8.27,8.15,8.25,8.17,1831100.0,15076431.0,498134983.5,4088535000.0
sh605188,国光连锁,2022-01-13,8.25,9.08,8.21,9.08,8.25,14603803.0,128298295.0,548250381.8399999,4499866400.0
sh605188,国光连锁,2022-01-14,9.08,9.99,8.96,9.3,9.08,31030611.0,296423975.0,561533981.4,4608894000.0
