数据由邢不行整理
股票代码,股票名称,交易日期,开盘价,最高价,最低价,收盘价,前收盘价,成交量,成交额,流通市值,总市值
sh600941,N移动,2022-01-05,63.0,63.58,57.75,57.88,57.58,255365409.0,15259495685.0,27225883800.0,1234070066078.4
sh600941,中国移动,2022-01-06,57.88,59.33,57.58,58.0,57.88,116157682.0,6731421684.0,27282330000.0,1236628608026.0
sh600941,中国移动,2022-01-07,57.8,58.06,57.59,57.62,58.0,63881165.0,3687982659.0,27103583700.0,1228526558525.1
sh600941,中国移动,2022-01-10,57.7,59.49,57.68,58.8,57.62,75326858.0,4402100218.0,27658638000.0,1253685554343.5999
sh600941,中国移动,2022-01-11,58.6,59.12,57.93,58.09,58.8,34700578.0,2030028651.0,27324664650.0,1238547514486.7
sh600941,中国移动,2022-01-12,58.29,58.29,57.8,58.11,58.09,25617132.0,1484862940.0,27334072350.0,1238973938144.7
sh600941,中国移动,2022-01-13,58.01,58.01,57.78,57.81,58.11,24645018.0,1426048442.0,27192956850.0,1232577583275.5999
sh600941,中国移动,2022-01-14,57.71,57.8,57.61,57.65,57.81,24019049.0,1385033375.0,27117695250.0,1229166194012.0999
