数据由邢不行整理
股票代码,股票名称,交易日期,开盘价,最高价,最低价,收盘价,前收盘价,成交量,成交额,流通市值,总市值
sh603895,N天永,2018-01-22,22.0,26.4,22.0,26.4,18.33,8345.0,219868.0,509520000.0,2038080000.0
sh603895,天永智能,2018-01-23,29.04,29.04,29.04,29.04,26.4,6000.0,174240.0,560472000.0,2241888000.0
sh603895,天永智能,2018-01-24,31.94,31.94,31.94,31.94,29.04,2605.0,83204.0,616442000.0,2465768000.0
sh603895,天永智能,2018-01-25,35.13,35.13,35.13,35.13,31.94,5500.0,193215.0,678009000.0,2712036000.0
sh603895,天永智能,2018-01-26,38.64,38.64,38.64,38.64,35.13,37900.0,1464456.0,745752000.0,2983008000.0
sh603895,天永智能,2018-01-29,42.5,42.5,42.5,42.5,38.64,84400.0,3587000.0,820250000.0,3281000000.0
sh603895,天永智能,2018-01-30,46.75,46.75,46.75,46.75,42.5,273500.0,12786125.0,902275000.0,3609100000.0
sh603895,天永智能,2018-01-31,48.98,51.2,47.31,49.82,46.75,11686296.0,574762906.0,961526000.0,3846104000.0
sh603895,天永智能,2018-02-01,48.0,54.8,47.2,54.8,49.82,11860668.0,613397783.0,1057640000.0,4230560000.0
sh603895,天永智能,2018-02-02,52.0,54.5,49.32,49.32,54.8,10462805.0,540088126.0,951876000.0,3807504000.0
sh603895,天永智能,2018-02-05,44.59,46.3,44.39,44.39,49.32,5196157.0,231792733.0,856727000.0,3426908000.0
sh603895,天永智能,2018-02-06,39.96,42.45,39.95,39.95,44.39,7393933.0,300732218.0,771035000.0,3084140000.0
sh603895,天永智能,2018-02-07,41.5,43.95,40.14,43.95,39.95,9340652.0,397236453.0,848235000.0,3392940000.0
sh603895,天永智能,2018-02-08,42.5,48.35,41.51,48.35,43.95,10342881.0,456344396.0,933155000.0,3732620000.0
sh603895,天永智能,2018-02-09,46.48,53.19,46.01,53.19,48.35,11851199.0,601073281.0,1026567000.0,4106268000.0
sh603895,天永智能,2018-02-12,58.5,58.51,56.91,58.51,53.19,3402534.0,198937346.0,1129243000.0,4516972000.0
sh603895,天永智能,2018-02-13,62.0,62.72,55.05,57.31,58.51,11634040.0,674710882.0,1106083000.0,4424332000.0
sh603895,天永智能,2018-02-14,56.0,58.8,51.58,51.58,57.31,8042267.0,443868566.0,995494000.0,3981976000.0
sh603895,天永智能,2018-02-22,51.78,52.56,49.03,52.01,51.58,9009908.0,458445348.0,1003793000.0,4015172000.0
sh603895,天永智能,2018-02-23,51.4,54.0,50.41,53.47,52.01,9750943.0,508453092.0,1031971000.0,4127884000.0
sh603895,天永智能,2018-02-26,55.6,56.6,52.56,53.96,53.47,10009526.0,546143074.0,1041428000.0,4165712000.0
sh603895,天永智能,2018-02-27,53.01,58.5,52.56,55.46,53.96,10110351.0,563026362.0,1070378000.0,4281512000.0
sh603895,天永智能,2018-02-28,52.0,52.0,49.91,49.91,55.46,6202901.0,311548499.0,963263000.0,3853052000.0
sh603895,天永智能,2018-03-01,47.7,50.95,47.3,49.84,49.91,6151385.0,303162346.0,961912000.0,3847648000.0
sh603895,天永智能,2018-03-02,48.88,52.4,48.4,48.55,49.84,6297077.0,318462379.0,937015000.0,3748060000.0
sh603895,天永智能,2018-03-05,49.6,53.41,49.6,53.41,48.55,7517519.0,386638898.0,1030813000.0,4123252000.0
sh603895,天永智能,2018-03-06,53.16,56.39,52.26,53.87,53.41,9137550.0,495775991.0,1039691000.0,4158764000.0
sh603895,天永智能,2018-03-07,53.8,54.87,52.4,54.51,53.87,6676581.0,358351862.0,1052043000.0,4208172000.0
sh603895,天永智能,2018-03-08,53.61,57.0,53.4,54.32,54.51,8276050.0,457914937.0,1048376000.0,4193504000.0
sh603895,天永智能,2018-03-09,53.4,59.75,53.23,59.75,54.32,8957047.0,516062724.0,1153175000.0,4612700000.0
sh603895,天永智能,2018-03-12,64.1,65.73,57.5,58.51,59.75,12269588.0,764050756.0,1129243000.0,4516972000.0
sh603895,天永智能,2018-03-13,57.65,60.24,57.19,57.68,58.51,8605894.0,503886943.0,1113224000.0,4452896000.0
sh603895,天永智能,2018-03-14,55.68,57.65,54.76,55.81,57.68,5390177.0,303304471.0,1077133000.0,4308532000.0
sh603895,天永智能,2018-03-15,53.02,53.65,50.23,51.08,55.81,7466800.0,382001710.0,985844000.0,3943376000.0
sh603895,天永智能,2018-03-16,51.31,51.77,50.5,50.92,51.08,3900883.0,199277413.0,982756000.0,3931024000.0
sh603895,天永智能,2018-03-19,50.2,52.4,50.15,51.73,50.92,3764200.0,194327046.0,998389000.0,3993556000.0
sh603895,天永智能,2018-03-20,50.0,53.19,49.53,52.93,51.73,4621600.0,237090924.0,1021549000.0,4086196000.0
sh603895,天永智能,2018-03-21,53.25,55.0,51.03,51.36,52.93,5319003.0,283796949.0,991248000.0,3964992000.0
sh603895,天永智能,2018-03-22,50.5,52.55,50.1,51.67,51.36,3429346.0,176507875.0,997231000.0,3988924000.0
sh603895,天永智能,2018-03-23,48.09,49.8,46.5,46.5,51.67,3886483.0,185693702.0,897450000.0,3589800000.0
sh603895,天永智能,2018-03-26,44.0,47.96,41.89,47.6,46.5,4065846.0,183117506.0,918680000.0,3674720000.0
sh603895,天永智能,2018-03-27,47.7,49.99,47.18,48.68,47.6,4478761.0,219171742.0,939524000.0,3758096000.0
sh603895,天永智能,2018-03-28,47.49,52.5,46.85,49.01,48.68,4414358.0,219535545.0,945893000.0,3783572000.0
sh603895,天永智能,2018-03-29,48.34,53.8,48.34,52.16,49.01,6564092.0,337983545.0,1006688000.0,4026752000.0
sh603895,天永智能,2018-03-30,51.58,53.61,50.75,53.55,52.16,6310525.0,328416377.0,1033515000.0,4134060000.0
sh603895,天永智能,2018-04-02,53.99,56.78,52.67,54.18,53.55,6526850.0,355496298.0,1045674000.0,4182696000.0
sh603895,天永智能,2018-04-03,52.15,53.38,51.33,53.01,54.18,4073842.0,213674092.0,1023093000.0,4092372000.0
sh603895,天永智能,2018-04-04,53.73,56.23,52.19,52.23,53.01,5223375.0,283114331.0,1008039000.0,4032156000.0
sh603895,天永智能,2018-04-09,52.0,57.45,52.0,57.45,52.23,7849967.0,440225015.0,1108785000.0,4435140000.0
sh603895,天永智能,2018-04-10,56.7,59.97,54.5,58.86,57.45,10803046.0,620563289.0,1135998000.0,4543992000.0
sh603895,天永智能,2018-04-11,57.17,57.91,56.1,56.64,58.86,5657225.0,322573102.0,1093152000.0,4372608000.0
sh603895,天永智能,2018-04-12,55.3,57.96,55.28,55.75,56.64,4927487.0,279523437.0,1075975000.0,4303900000.0
sh603895,天永智能,2018-04-13,56.18,59.88,56.0,57.38,55.75,6844175.0,398486309.0,1107434000.0,4429736000.0
sh603895,天永智能,2018-04-16,55.55,55.8,51.64,51.88,57.38,6418575.0,338546594.0,1001284000.0,4005136000.0
sh603895,天永智能,2018-04-17,52.08,52.63,49.05,49.62,51.88,4003475.0,203308973.0,957666000.0,3830664000.0
sh603895,天永智能,2018-04-18,50.25,50.88,46.9,50.63,49.62,3214825.0,158655891.0,977159000.0,3908636000.0
sh603895,天永智能,2018-04-19,50.0,51.72,49.78,50.59,50.63,2792654.0,142226920.0,976387000.0,3905548000.0
sh603895,天永智能,2018-04-20,49.5,50.42,46.05,46.75,50.59,2876050.0,138932547.0,902275000.0,3609100000.0
sh603895,天永智能,2018-04-23,47.49,48.43,46.53,48.09,46.75,1880733.0,89747106.0,928137000.0,3712548000.0
sh603895,天永智能,2018-04-24,48.3,51.44,48.0,51.17,48.09,3380183.0,169408286.0,987581000.0,3950324000.0
sh603895,天永智能,2018-04-25,49.6,50.48,49.05,50.19,51.17,3359643.0,167285026.0,968667000.0,3874668000.0
sh603895,天永智能,2018-04-26,49.89,50.48,47.0,47.06,50.19,3239245.0,157878114.0,908258000.0,3633032000.0
sh603895,天永智能,2018-04-27,47.79,48.17,46.33,47.27,47.06,1900683.0,89966541.0,912311000.0,3649244000.0
sh603895,天永智能,2018-05-02,47.25,47.72,43.66,44.86,47.27,2532083.0,114412939.0,865798000.0,3463192000.0
sh603895,天永智能,2018-05-03,44.5,46.91,43.8,46.54,44.86,2033258.0,92804911.0,898222000.0,3592888000.0
sh603895,天永智能,2018-05-04,46.2,47.5,45.06,45.34,46.54,1865683.0,86289305.0,875062000.0,3500248000.0
sh603895,天永智能,2018-05-07,45.93,49.87,45.93,49.87,45.34,3675533.0,178748861.0,962491000.0,3849964000.0
sh603895,天永智能,2018-05-08,51.0,51.5,48.6,49.77,49.87,4875800.0,243210053.0,960561000.0,3842244000.0
sh603895,天永智能,2018-05-09,48.85,51.72,48.68,50.42,49.77,4476633.0,224217229.0,973106000.0,3892424000.0
sh603895,天永智能,2018-05-10,49.79,50.53,49.1,50.38,50.42,3084500.0,154024734.0,972334000.0,3889336000.0
sh603895,天永智能,2018-05-11,50.6,50.8,47.88,48.22,50.38,2663925.0,130717501.0,930646000.0,3722584000.0
sh603895,天永智能,2018-05-14,47.5,49.49,47.5,48.83,48.22,1968583.0,95984817.0,942419000.0,3769676000.0
sh603895,天永智能,2018-05-15,49.06,50.67,48.2,50.46,48.83,3211391.0,159767659.0,973878000.0,3895512000.0
sh603895,天永智能,2018-05-16,50.0,50.23,48.95,49.29,50.46,2432325.0,120317697.0,951297000.0,3805188000.0
sh603895,天永智能,2018-05-17,49.65,51.49,49.05,50.55,49.29,3650683.0,183835963.0,975615000.0,3902460000.0
sh603895,天永智能,2018-05-18,50.15,50.6,48.2,49.49,50.55,3025200.0,149375865.0,955157000.0,3820628000.0
sh603895,天永智能,2018-05-21,49.59,54.44,49.58,54.44,49.49,3526800.0,185883372.0,1050692000.0,4202768000.0
sh603895,天永智能,2018-05-22,57.3,57.3,53.48,54.33,54.44,8653812.0,475980242.0,1048569000.0,4194276000.0
sh603895,天永智能,2018-05-23,53.45,59.7,53.45,55.77,54.33,8639306.0,485397645.0,1076361000.0,4305444000.0
sh603895,天永智能,2018-05-24,54.64,61.35,54.13,61.35,55.77,10279623.0,611358984.0,1184055000.0,4736220000.0
sh603895,天永智能,2018-05-25,61.2,65.49,57.5,60.87,61.35,11762323.0,723397425.0,1174791000.0,4699164000.0
sh603895,天永智能,2018-05-28,58.31,58.68,54.78,54.78,60.87,7143098.0,398347538.0,1057254000.0,4229016000.0
sh603895,天永智能,2018-05-29,53.02,54.45,51.0,51.18,54.78,4886298.0,258270059.0,987774000.0,3951096000.0
sh603895,天永智能,2018-05-30,49.73,49.73,46.06,46.61,51.18,4898300.0,234255461.0,899573000.0,3598292000.0
sh603895,天永智能,2018-05-31,47.69,48.6,47.11,48.26,46.61,3398698.0,163216141.0,931418000.0,3725672000.0
sh603895,天永智能,2018-06-01,47.55,49.1,46.51,47.78,48.26,2789201.0,133533205.0,922154000.0,3688616000.0
sh603895,天永智能,2018-06-04,48.05,49.18,47.78,48.79,47.78,2434813.0,117974485.0,941647000.0,3766588000.0
sh603895,天永智能,2018-06-05,48.7,50.9,48.31,50.48,48.79,3400412.0,169506195.0,974264000.0,3897056000.0
sh603895,天永智能,2018-06-06,50.47,52.88,49.55,52.24,50.48,4213593.0,216640828.0,1008232000.0,4032928000.0
sh603895,天永智能,2018-06-07,52.51,52.88,50.89,52.13,52.24,2981282.0,154231857.0,1006109000.0,4024436000.0
sh603895,天永智能,2018-06-08,52.03,53.44,51.58,52.63,52.13,3286984.0,172538326.0,1015759000.0,4063036000.0
sh603895,天永智能,2018-06-11,52.04,52.38,50.3,50.93,52.63,2138724.0,109844816.0,982949000.0,3931796000.0
sh603895,天永智能,2018-06-12,51.6,51.94,48.65,51.84,50.93,2355681.0,119841563.0,1000512000.0,4002048000.0
sh603895,天永智能,2018-06-13,51.97,53.43,50.0,51.34,51.84,3805982.0,199624215.0,990862000.0,3963448000.0
sh603895,DR天永智,2018-06-14,35.68,39.0,34.33,37.63,36.49,3113940.0,116272214.0,1016762600.0,4067050400.0
sh603895,天永智能,2018-06-15,36.75,37.46,33.9,34.89,37.63,4890378.0,172583921.0,942727800.0,3770911200.0
sh603895,天永智能,2018-06-19,33.13,33.44,31.4,31.4,34.89,2840180.0,91598675.0,848428000.0,3393712000.0
sh603895,天永智能,2018-06-20,30.08,32.49,30.08,32.09,31.4,3377235.0,106353827.0,867071800.0,3468287200.0
sh603895,天永智能,2018-06-21,31.77,32.32,28.92,29.17,32.09,4215540.0,127750160.0,788173400.0,3152693600.0
sh603895,天永智能,2018-06-22,28.42,30.18,28.1,29.5,29.17,2322920.0,68398749.0,797090000.0,3188360000.0
sh603895,天永智能,2018-06-25,29.9,30.95,29.42,29.61,29.5,2378220.0,71420561.0,800062200.0,3200248800.0
sh603895,天永智能,2018-06-26,28.98,30.53,28.58,30.36,29.61,2695653.0,80516740.0,820327200.0,3281308800.0
sh603895,天永智能,2018-06-27,30.65,31.9,30.4,30.84,30.36,3573560.0,111345862.0,833296800.0,3333187200.0
sh603895,天永智能,2018-06-28,30.74,31.97,30.68,31.38,30.84,3631320.0,113727799.0,847887600.0,3391550400.0
sh603895,天永智能,2018-06-29,31.28,32.79,30.75,32.77,31.38,4470598.0,143103640.0,885445400.0,3541781600.0
sh603895,天永智能,2018-07-02,32.56,32.75,30.68,31.35,32.77,3643180.0,116132344.0,847077000.0,3388308000.0
sh603895,天永智能,2018-07-03,31.6,32.2,30.46,32.05,31.35,3381100.0,106698492.0,865991000.0,3463964000.0
sh603895,天永智能,2018-07-04,31.64,31.85,29.58,30.0,32.05,3246740.0,100170108.0,810600000.0,3242400000.0
sh603895,天永智能,2018-07-05,31.63,33.0,31.63,33.0,30.0,2391656.0,78453294.0,891660000.0,3566640000.0
sh603895,天永智能,2018-07-06,36.3,36.3,33.5,36.3,33.0,12121376.0,433206027.0,980826000.0,3923304000.0
sh603895,天永智能,2018-07-09,37.0,39.93,36.5,39.93,36.3,9698215.0,379382113.0,1078908600.0,4315634400.0
sh603895,天永智能,2018-07-10,43.48,43.92,43.08,43.92,39.93,3721454.0,162367683.0,1186718400.0,4746873600.0
sh603895,天永智能,2018-07-11,48.0,48.0,40.52,40.81,43.92,17835729.0,780963180.0,1102686200.0,4410744800.0
sh603895,天永智能,2018-07-12,38.5,40.81,38.01,39.1,40.81,12587533.0,490505071.0,1056482000.0,4225928000.0
sh603895,天永智能,2018-07-13,38.18,38.8,36.88,36.98,39.1,8774654.0,329560681.0,999199600.0,3996798400.0
sh603895,天永智能,2018-07-16,37.04,37.95,36.19,36.79,36.98,6215594.0,229514330.0,994065800.0,3976263200.0
sh603895,天永智能,2018-07-17,36.48,36.8,35.7,36.68,36.79,5221680.0,189476451.0,991093600.0,3964374400.0
sh603895,天永智能,2018-07-18,36.68,36.81,35.62,35.7,36.68,4049360.0,146042823.0,964614000.0,3858456000.0
sh603895,天永智能,2018-07-19,36.04,37.16,35.77,37.06,35.7,6457216.0,235282145.0,1001361200.0,4005444800.0
sh603895,天永智能,2018-07-20,37.37,37.89,36.56,36.76,37.06,6827776.0,253556716.0,993255200.0,3973020800.0
sh603895,天永智能,2018-07-23,37.0,37.1,35.58,36.19,36.76,3678874.0,132488285.0,977853800.0,3911415200.0
sh603895,天永智能,2018-07-24,36.22,37.1,36.03,36.8,36.19,4393856.0,161138183.0,994336000.0,3977344000.0
sh603895,天永智能,2018-07-25,36.81,37.55,36.0,36.44,36.8,5181720.0,190940004.0,984608800.0,3938435200.0
sh603895,天永智能,2018-07-26,36.48,36.6,32.8,32.8,36.44,6514571.0,219758954.0,886256000.0,3545024000.0
sh603895,天永智能,2018-07-27,32.1,32.72,31.68,32.01,32.8,3312491.0,106510973.0,864910200.0,3459640800.0
sh603895,天永智能,2018-07-30,32.19,32.79,31.52,31.82,32.01,2577256.0,82894803.0,859776400.0,3439105600.0
sh603895,天永智能,2018-07-31,31.75,32.28,31.4,32.16,31.82,1703400.0,54307994.0,868963200.0,3475852800.0
sh603895,天永智能,2018-08-01,32.17,33.58,32.17,33.11,32.16,4075479.0,134304537.0,894632200.0,3578528800.0
sh603895,天永智能,2018-08-02,32.73,33.1,30.46,31.76,33.11,2968780.0,93719489.0,858155200.0,3432620800.0
sh603895,天永智能,2018-08-03,31.6,31.89,30.66,30.88,31.76,1977780.0,61847047.0,834377600.0,3337510400.0
sh603895,天永智能,2018-08-06,30.32,31.3,28.81,28.91,30.88,2339080.0,70081931.0,781148200.0,3124592800.0
sh603895,天永智能,2018-08-07,29.2,30.2,28.9,30.18,28.91,2593214.0,76979793.0,815463600.0,3261854400.0
sh603895,天永智能,2018-08-08,30.0,30.45,28.11,28.6,30.18,2924800.0,85679318.0,772772000.0,3091088000.0
sh603895,天永智能,2018-08-09,28.4,29.88,28.4,29.5,28.6,2721851.0,80352831.0,797090000.0,3188360000.0
sh603895,天永智能,2018-08-10,29.89,31.93,29.89,30.65,29.5,3371443.0,103404924.0,828163000.0,3312652000.0
sh603895,天永智能,2018-08-13,30.1,33.09,29.51,32.26,30.65,3904260.0,120708073.0,871665200.0,3486660800.0
sh603895,天永智能,2018-08-14,31.67,32.19,31.13,31.63,32.26,3499290.0,110840401.0,854642600.0,3418570400.0
sh603895,天永智能,2018-08-15,31.4,31.63,30.43,30.71,31.63,2154934.0,66692385.0,829784200.0,3319136800.0
sh603895,天永智能,2018-08-16,30.01,31.28,29.66,30.43,30.71,2024954.0,61856193.0,822218600.0,3288874400.0
sh603895,天永智能,2018-08-17,31.15,31.25,30.3,30.5,30.43,2268393.0,69788143.0,824110000.0,3296440000.0
sh603895,天永智能,2018-08-20,30.05,31.3,29.71,31.3,30.5,2058354.0,63015332.0,845726000.0,3382904000.0
sh603895,天永智能,2018-08-21,31.41,31.72,30.65,31.5,31.3,2399394.0,75039479.0,851130000.0,3404520000.0
sh603895,天永智能,2018-08-22,31.37,32.88,31.08,31.84,31.5,4007364.0,127975343.0,860316800.0,3441267200.0
sh603895,天永智能,2018-08-23,31.8,32.38,31.35,32.13,31.84,3077680.0,98366647.0,868152600.0,3472610400.0
sh603895,天永智能,2018-08-24,32.2,32.3,31.18,31.2,32.13,2985870.0,94669299.0,843024000.0,3372096000.0
sh603895,天永智能,2018-08-27,31.31,31.47,30.11,31.11,31.2,3365285.0,103514792.0,840592200.0,3362368800.0
sh603895,天永智能,2018-08-28,31.53,33.28,31.36,32.18,31.11,4659400.0,150314234.0,869503600.0,3478014400.0
sh603895,天永智能,2018-08-29,31.6,31.88,31.02,31.72,32.18,2642720.0,83016278.0,857074400.0,3428297600.0
sh603895,天永智能,2018-08-30,31.76,31.76,30.1,30.11,31.72,2304560.0,71379803.0,813572200.0,3254288800.0
sh603895,天永智能,2018-08-31,30.27,30.5,29.31,29.71,30.11,2136900.0,64119315.0,802764200.0,3211056800.0
sh603895,天永智能,2018-09-03,29.3,30.09,27.9,30.03,29.71,2817594.0,81621283.0,811410600.0,3245642400.0
sh603895,天永智能,2018-09-04,29.78,30.3,29.3,29.95,30.03,1767054.0,52841537.0,809249000.0,3236996000.0
sh603895,天永智能,2018-09-05,29.8,30.2,29.36,29.38,29.95,1909930.0,56911727.0,793847600.0,3175390400.0
sh603895,天永智能,2018-09-06,29.41,30.4,29.18,30.21,29.38,2457020.0,73296877.0,816274200.0,3265096800.0
sh603895,天永智能,2018-09-07,30.09,30.5,29.58,30.17,30.21,2750670.0,83065249.0,815193400.0,3260773600.0
sh603895,天永智能,2018-09-10,29.85,30.4,28.84,29.0,30.17,2030559.0,59440556.0,783580000.0,3134320000.0
sh603895,天永智能,2018-09-11,29.2,29.28,28.3,28.7,29.0,1504470.0,43141395.0,775474000.0,3101896000.0
sh603895,天永智能,2018-09-12,28.69,28.9,28.0,28.55,28.7,1709330.0,48680510.0,771421000.0,3085684000.0
sh603895,天永智能,2018-09-13,29.04,29.16,28.35,29.01,28.55,2120130.0,61042683.0,783850200.0,3135400800.0
sh603895,天永智能,2018-09-14,29.1,29.1,26.11,26.13,29.01,3072954.0,84586967.0,706032600.0,2824130400.0
sh603895,天永智能,2018-09-17,26.06,26.08,25.01,25.57,26.13,1666940.0,42619290.0,690901400.0,2763605600.0
sh603895,天永智能,2018-09-18,25.75,26.29,25.52,26.21,25.57,1607294.0,41691784.0,708194200.0,2832776800.0
sh603895,天永智能,2018-09-19,26.09,27.4,25.73,26.54,26.21,2210100.0,58946061.0,717110800.0,2868443200.0
sh603895,天永智能,2018-09-20,26.7,26.7,25.72,25.94,26.54,1915810.0,50210563.0,700898800.0,2803595200.0
sh603895,天永智能,2018-09-21,26.12,26.66,26.01,26.37,25.94,1920346.0,50615305.0,712517400.0,2850069600.0
sh603895,天永智能,2018-09-25,26.36,26.88,26.14,26.52,26.37,1323640.0,35010815.0,716570400.0,2866281600.0
sh603895,天永智能,2018-09-26,26.55,26.98,26.14,26.55,26.52,1858015.0,49240939.0,717381000.0,2869524000.0
sh603895,天永智能,2018-09-27,26.59,27.11,25.96,25.96,26.55,2393825.0,63764902.0,701439200.0,2805756800.0
sh603895,天永智能,2018-09-28,26.0,26.85,25.71,26.73,25.96,2077430.0,55076051.0,722244600.0,2888978400.0
sh603895,天永智能,2018-10-08,26.3,26.3,24.8,24.81,26.73,2198020.0,56413585.0,670366200.0,2681464800.0
sh603895,天永智能,2018-10-09,24.98,27.29,24.98,27.29,24.81,4591937.0,123188289.0,737375800.0,2949503200.0
sh603895,天永智能,2018-10-10,28.33,28.9,27.49,27.5,27.29,7166277.0,202105650.0,743050000.0,2972200000.0
sh603895,天永智能,2018-10-11,25.52,26.49,24.75,24.78,27.5,4481198.0,113595739.0,669555600.0,2678222400.0
sh603895,天永智能,2018-10-12,25.08,27.26,24.78,27.26,24.78,2733763.0,73120137.0,736565200.0,2946260800.0
sh603895,天永智能,2018-10-15,29.0,29.51,27.38,27.38,27.26,7199023.0,203736387.0,739807600.0,2959230400.0
sh603895,天永智能,2018-10-16,26.2,27.23,26.03,26.88,27.38,3894030.0,103510296.0,726297600.0,2905190400.0
sh603895,天永智能,2018-10-17,27.0,28.26,26.3,27.96,26.88,4712354.0,129588855.0,755479200.0,3021916800.0
sh603895,天永智能,2018-10-18,27.23,27.88,26.78,27.34,27.96,3489168.0,95197896.0,738726800.0,2954907200.0
sh603895,天永智能,2018-10-19,25.6,27.79,25.3,27.75,27.34,3363842.0,90217122.0,749805000.0,2999220000.0
sh603895,天永智能,2018-10-22,27.75,29.47,27.45,29.17,27.75,6187660.0,176797392.0,788173400.0,3152693600.0
sh603895,天永智能,2018-10-23,28.9,28.9,28.11,28.36,29.17,3836831.0,109169429.0,766287200.0,3065148800.0
sh603895,天永智能,2018-10-24,28.2,28.6,27.53,27.82,28.36,2510462.0,70199535.0,751696400.0,3006785600.0
sh603895,天永智能,2018-10-25,26.5,27.3,26.01,27.15,27.82,2920528.0,77698669.0,733593000.0,2934372000.0
sh603895,天永智能,2018-10-26,27.25,27.92,26.31,27.46,27.15,3030721.0,82395003.0,741969200.0,2967876800.0
sh603895,天永智能,2018-10-29,27.15,27.31,26.5,26.6,27.46,1620999.0,43540882.0,718732000.0,2874928000.0
sh603895,天永智能,2018-10-30,26.6,27.09,25.8,26.67,26.6,1978425.0,52443902.0,720623400.0,2882493600.0
sh603895,天永智能,2018-10-31,27.07,27.29,26.6,27.05,26.67,2139486.0,57678057.0,730891000.0,2923564000.0
sh603895,天永智能,2018-11-01,29.76,29.76,29.76,29.76,27.05,2737978.0,81482225.0,804115200.0,3216460800.0
sh603895,天永智能,2018-11-02,30.2,31.88,29.17,30.39,29.76,9177103.0,275659951.0,821137800.0,3284551200.0
sh603895,天永智能,2018-11-05,29.8,30.27,29.38,29.68,30.39,5001536.0,149027071.0,801953600.0,3207814400.0
sh603895,天永智能,2018-11-06,28.81,29.2,28.4,28.92,29.68,3562006.0,102650162.0,781418400.0,3125673600.0
sh603895,天永智能,2018-11-07,28.86,29.55,28.7,28.71,28.92,2906005.0,84520998.0,775744200.0,3102976800.0
sh603895,天永智能,2018-11-08,28.95,29.19,28.51,28.56,28.71,2378109.0,68465596.0,771691200.0,3086764800.0
sh603895,天永智能,2018-11-09,28.45,28.99,28.15,28.2,28.56,2016120.0,57731258.0,761964000.0,3047856000.0
sh603895,天永智能,2018-11-12,28.07,28.92,27.79,28.86,28.2,2549484.0,72354825.0,779797200.0,3119188800.0
sh603895,天永智能,2018-11-13,28.29,29.28,28.03,29.11,28.86,3282508.0,94422254.0,786552200.0,3146208800.0
sh603895,天永智能,2018-11-14,29.2,29.52,28.61,28.74,29.11,2735116.0,79203336.0,776554800.0,3106219200.0
sh603895,天永智能,2018-11-15,28.85,29.77,28.81,29.69,28.74,4494888.0,132003081.0,802223800.0,3208895200.0
sh603895,天永智能,2018-11-16,29.6,29.99,29.2,29.96,29.69,4572926.0,135213552.0,809519200.0,3238076800.0
sh603895,天永智能,2018-11-19,29.88,29.96,29.46,29.69,29.96,2545078.0,75554880.0,802223800.0,3208895200.0
sh603895,天永智能,2018-11-20,29.88,31.22,28.9,28.9,29.69,5086588.0,153443316.0,780878000.0,3123512000.0
sh603895,天永智能,2018-11-21,27.99,28.21,27.03,28.19,28.9,2977026.0,82845901.0,761693800.0,3046775200.0
sh603895,天永智能,2018-11-22,28.22,28.49,27.66,27.86,28.19,1868897.0,52395177.0,752777200.0,3011108800.0
sh603895,天永智能,2018-11-23,28.0,28.08,25.88,26.21,27.86,2439940.0,65340447.0,708194200.0,2832776800.0
sh603895,天永智能,2018-11-26,26.11,26.88,25.92,26.67,26.21,1827060.0,48274651.0,720623400.0,2882493600.0
sh603895,天永智能,2018-11-27,26.7,27.8,26.7,26.94,26.67,1961451.0,53387337.0,727918800.0,2911675200.0
sh603895,天永智能,2018-11-28,26.94,27.9,26.24,27.29,26.94,1800140.0,48607296.0,737375800.0,2949503200.0
sh603895,天永智能,2018-11-29,27.39,27.77,26.39,26.4,27.29,1666520.0,45198540.0,713328000.0,2853312000.0
sh603895,天永智能,2018-11-30,26.44,27.18,26.33,26.95,26.4,1471320.0,39408486.0,728189000.0,2912756000.0
sh603895,天永智能,2018-12-03,27.51,28.27,27.41,28.1,26.95,3181300.0,88695752.0,759262000.0,3037048000.0
sh603895,天永智能,2018-12-04,28.1,28.1,27.55,27.85,28.1,1621821.0,45060134.0,752507000.0,3010028000.0
sh603895,天永智能,2018-12-05,27.02,27.67,26.94,27.15,27.85,1468056.0,39994733.0,733593000.0,2934372000.0
sh603895,天永智能,2018-12-06,27.3,27.68,26.62,26.76,27.15,1666591.0,45190319.0,723055200.0,2892220800.0
sh603895,天永智能,2018-12-07,26.61,27.0,26.48,26.67,26.76,1220320.0,32618204.0,720623400.0,2882493600.0
sh603895,天永智能,2018-12-10,26.41,26.66,25.65,25.69,26.67,1545658.0,40237106.0,694143800.0,2776575200.0
sh603895,天永智能,2018-12-11,25.94,26.19,25.83,26.05,25.69,725209.0,18867501.0,703871000.0,2815484000.0
sh603895,天永智能,2018-12-12,26.15,26.55,26.05,26.2,26.05,1227560.0,32285227.0,707924000.0,2831696000.0
sh603895,天永智能,2018-12-13,26.35,26.48,25.95,26.35,26.2,1232258.0,32410507.0,711977000.0,2847908000.0
sh603895,天永智能,2018-12-14,26.2,26.36,25.36,25.48,26.35,1194519.0,30891651.0,688469600.0,2753878400.0
sh603895,天永智能,2018-12-17,25.5,26.05,25.45,26.04,25.48,876480.0,22635908.0,703600800.0,2814403200.0
sh603895,天永智能,2018-12-18,25.8,26.7,25.7,26.48,26.04,1854852.0,48838512.0,715489600.0,2861958400.0
sh603895,天永智能,2018-12-19,26.33,26.64,25.8,25.85,26.48,1243252.0,32531376.0,698467000.0,2793868000.0
sh603895,天永智能,2018-12-20,25.59,26.4,25.5,26.27,25.85,1193700.0,31133806.0,709815400.0,2839261600.0
sh603895,天永智能,2018-12-21,26.0,26.6,25.9,26.6,26.27,1716620.0,45165972.0,718732000.0,2874928000.0
sh603895,天永智能,2018-12-24,29.26,29.26,29.26,29.26,26.6,1507927.0,44121944.0,790605200.0,3162420800.0
sh603895,天永智能,2018-12-25,29.5,29.5,27.5,28.65,29.26,6370510.0,181475095.0,774123000.0,3096492000.0
sh603895,天永智能,2018-12-26,28.25,28.45,27.55,27.58,28.65,3954720.0,110974205.0,745211600.0,2980846400.0
sh603895,天永智能,2018-12-27,28.01,28.14,26.4,26.4,27.58,2984060.0,81362222.0,713328000.0,2853312000.0
sh603895,天永智能,2018-12-28,26.43,26.69,25.83,26.0,26.4,2126575.0,55792261.0,702520000.0,2810080000.0
sh603895,天永智能,2019-01-02,26.28,26.4,25.89,26.15,26.0,1312660.0,34274377.0,706573000.0,2826292000.0
sh603895,天永智能,2019-01-03,25.93,26.36,25.62,25.63,26.15,1588892.0,41141750.0,692522600.0,2770090400.0
sh603895,天永智能,2019-01-04,24.98,26.16,24.81,25.96,25.63,1956572.0,49915646.0,701439200.0,2805756800.0
sh603895,天永智能,2019-01-07,26.01,26.6,25.82,26.36,25.96,2040653.0,53561246.0,712247200.0,2848988800.0
sh603895,天永智能,2019-01-08,26.36,26.5,25.87,25.89,26.36,1538666.0,40109624.0,699547800.0,2798191200.0
sh603895,天永智能,2019-01-09,26.0,26.39,25.9,25.9,25.89,1586647.0,41536689.0,699818000.0,2799272000.0
sh603895,天永智能,2019-01-10,25.9,25.96,25.41,25.54,25.9,1475952.0,37901505.0,690090800.0,2760363200.0
sh603895,天永智能,2019-01-11,25.56,26.28,25.55,26.27,25.54,1858239.0,48250403.0,709815400.0,2839261600.0
sh603895,天永智能,2019-01-14,26.19,26.2,25.38,25.53,26.27,1567680.0,40414840.0,689820600.0,2759282400.0
sh603895,天永智能,2019-01-15,25.37,26.78,25.21,26.37,25.53,2905478.0,76437410.0,712517400.0,2850069600.0
sh603895,天永智能,2019-01-16,26.05,26.2,25.68,25.85,26.37,2309880.0,59751241.0,698467000.0,2793868000.0
sh603895,天永智能,2019-01-17,25.7,25.76,25.42,25.75,25.85,1469318.0,37584718.0,695765000.0,2783060000.0
sh603895,天永智能,2019-01-18,25.7,26.8,25.6,25.99,25.75,1997478.0,52157988.0,702249800.0,2808999200.0
sh603895,天永智能,2019-01-21,25.75,26.7,25.5,26.35,25.99,2545398.0,66403390.0,711977000.0,2847908000.0
sh603895,天永智能,2019-01-22,26.26,26.26,25.89,26.02,26.35,1361080.0,35444363.0,852600982.8,2812241600.0
sh603895,天永智能,2019-01-23,26.0,26.6,25.75,26.4,26.02,2262520.0,59328567.0,865052496.0,2853312000.0
sh603895,天永智能,2019-01-24,26.47,26.98,26.21,26.3,26.4,2790938.0,74063358.0,861775782.0,2842504000.0
sh603895,天永智能,2019-01-25,26.27,26.62,25.52,26.41,26.3,2813820.0,73658111.0,865380167.4,2854392800.0
sh603895,天永智能,2019-01-28,26.51,26.81,25.85,25.94,26.41,1932720.0,50871792.0,849979611.6,2803595200.0
sh603895,天永智能,2019-01-29,25.8,26.06,24.68,24.9,25.94,1630739.0,41142251.0,815901786.0,2691192000.0
sh603895,天永智能,2019-01-30,25.0,25.17,22.42,22.45,24.9,2761260.0,65362790.0,735622293.0,2426396000.0
sh603895,天永智能,2019-01-31,22.4,22.58,20.28,20.68,22.45,2673101.0,56799562.0,677624455.2,2235094400.0
sh603895,天永智能,2019-02-01,20.72,21.55,20.72,21.4,20.68,1234041.0,26245697.0,701216796.0,2312912000.0
sh603895,天永智能,2019-02-11,21.44,22.35,21.44,22.17,21.4,1401340.0,30919943.0,726447493.8,2396133600.0
sh603895,天永智能,2019-02-12,22.08,22.98,22.07,22.35,22.17,1628640.0,36652307.0,732345579.0,2415588000.0
sh603895,天永智能,2019-02-13,22.37,23.1,22.37,23.09,22.35,1952972.0,44566065.0,756593262.6,2495567200.0
sh603895,天永智能,2019-02-14,23.07,23.1,22.71,22.85,23.09,1782520.0,40720822.0,748729149.0,2469628000.0
sh603895,天永智能,2019-02-15,22.9,23.7,22.76,23.01,22.85,1927160.0,44782436.0,753971891.4,2486920800.0
sh603895,天永智能,2019-02-18,23.23,23.88,23.11,23.88,23.01,2260940.0,53317955.0,782479303.2,2580950400.0
sh603895,天永智能,2019-02-19,23.88,24.58,23.41,24.06,23.88,2744980.0,65785576.0,788377388.4,2600404800.0
sh603895,天永智能,2019-02-20,24.04,24.05,23.53,23.86,24.06,1781500.0,42272770.0,781823960.4,2578788800.0
sh603895,天永智能,2019-02-21,23.79,24.13,23.39,23.57,23.86,2420009.0,57770521.0,772321489.8,2547445600.0
sh603895,天永智能,2019-02-22,23.68,24.06,23.49,24.06,23.57,2279480.0,54250356.0,788377388.4,2600404800.0
sh603895,天永智能,2019-02-25,24.48,25.47,24.07,25.17,24.06,3924120.0,96866835.0,824748913.8,2720373600.0
sh603895,天永智能,2019-02-26,25.01,25.65,24.62,25.19,25.17,3983859.0,100006405.0,825404256.6,2722535200.0
sh603895,天永智能,2019-02-27,25.3,25.4,24.48,24.83,25.19,2763719.0,68970328.0,813608086.2,2683626400.0
sh603895,天永智能,2019-02-28,24.85,25.06,24.67,25.01,24.83,1727380.0,42997161.0,819506171.4,2703080800.0
sh603895,天永智能,2019-03-01,25.09,25.2,24.6,24.97,25.01,1585840.0,39359540.0,818195485.8,2698757600.0
sh603895,天永智能,2019-03-04,25.2,25.71,25.09,25.17,24.97,3330520.0,84553023.0,824748913.8,2720373600.0
sh603895,天永智能,2019-03-05,25.13,26.26,25.04,26.25,25.17,4067096.0,104721134.0,860137425.0,2837100000.0
sh603895,天永智能,2019-03-06,26.36,27.89,25.76,27.29,26.25,5648995.0,150864587.0,894215250.6,2949503200.0
sh603895,天永智能,2019-03-07,27.05,29.55,26.55,28.07,27.29,6154281.0,170296411.0,919773619.8,3033805600.0
sh603895,天永智能,2019-03-08,27.3,27.97,25.82,25.84,28.07,3951300.0,107171535.0,846702897.6,2792787200.0
sh603895,天永智能,2019-03-11,25.82,27.09,25.82,27.05,25.84,2761226.0,73746736.0,886351137.0,2923564000.0
sh603895,天永智能,2019-03-12,27.56,29.76,27.12,29.76,27.05,7323025.0,211858542.0,975150086.4,3216460800.0
sh603895,天永智能,2019-03-13,31.4,31.99,28.53,28.9,29.76,11274998.0,346034840.0,946970346.0,3123512000.0
sh603895,天永智能,2019-03-14,27.57,28.12,26.38,26.97,28.9,5592828.0,152253891.0,883729765.8,2914917600.0
sh603895,天永智能,2019-03-15,27.0,27.3,26.5,26.76,26.97,3087239.0,83229805.0,876848666.4,2892220800.0
sh603895,天永智能,2019-03-18,26.94,27.24,26.6,27.22,26.76,2467330.0,66539631.0,891921550.8,2941937600.0
sh603895,天永智能,2019-03-19,27.22,27.57,26.81,27.29,27.22,2513770.0,68334335.0,894215250.6,2949503200.0
sh603895,天永智能,2019-03-20,27.46,27.46,26.36,27.0,27.29,2406550.0,64691828.0,884712780.0,2918160000.0
sh603895,天永智能,2019-03-21,26.93,27.2,26.79,27.01,27.0,2628320.0,70979449.0,885040451.4,2919240800.0
sh603895,天永智能,2019-03-22,27.0,27.13,26.31,26.8,27.01,2239407.0,59763455.0,878159352.0,2896544000.0
sh603895,天永智能,2019-03-25,26.35,26.8,26.13,26.3,26.8,2020640.0,53535793.0,861775782.0,2842504000.0
sh603895,天永智能,2019-03-26,26.57,26.66,25.21,25.48,26.3,2005728.0,52077758.0,834906727.2,2753878400.0
sh603895,天永智能,2019-03-27,25.5,25.8,25.22,25.63,25.48,1286018.0,32819519.0,839821798.2,2770090400.0
sh603895,天永智能,2019-03-28,25.64,26.1,25.36,25.88,25.63,2130310.0,55175345.0,848013583.2,2797110400.0
sh603895,天永智能,2019-03-29,25.81,26.61,25.71,26.46,25.88,1948630.0,51025338.0,867018524.4,2859796800.0
sh603895,天永智能,2019-04-01,26.66,27.28,26.59,27.17,26.46,2559901.0,69266331.0,890283193.8,2936533600.0
sh603895,天永智能,2019-04-02,27.12,27.42,26.88,26.97,27.17,2540481.0,68887798.0,883729765.8,2914917600.0
sh603895,天永智能,2019-04-03,26.95,28.6,26.7,27.87,26.97,4375104.0,121263526.0,913220191.8,3012189600.0
sh603895,天永智能,2019-04-04,27.8,28.12,27.4,27.56,27.87,2567020.0,71033170.0,903062378.4,2978684800.0
sh603895,天永智能,2019-04-08,27.63,30.32,26.6,28.77,27.56,4579970.0,129417548.0,942710617.8,3109461600.0
sh603895,天永智能,2019-04-09,28.7,30.0,28.29,28.82,28.77,3529800.0,102497619.0,944348974.8,3114865600.0
sh603895,天永智能,2019-04-10,28.0,29.32,27.76,28.83,28.82,2886580.0,82275947.0,944676646.2,3115946400.0
sh603895,天永智能,2019-04-11,28.96,30.75,28.3,29.93,28.83,7153770.0,211796354.0,980720500.2,3234834400.0
sh603895,天永智能,2019-04-12,29.34,29.7,28.1,28.4,29.93,4198163.0,121095952.0,930586776.0,3069472000.0
sh603895,天永智能,2019-04-15,28.75,29.45,28.25,28.6,28.4,4080687.0,117889201.0,937140204.0,3091088000.0
sh603895,天永智能,2019-04-16,28.15,29.69,27.59,29.53,28.6,4602625.0,133146161.0,967613644.2,3191602400.0
sh603895,天永智能,2019-04-17,29.05,29.74,28.32,28.58,29.53,5490754.0,159830447.0,936484861.2,3088926400.0
sh603895,天永智能,2019-04-18,28.03,28.38,27.14,27.17,28.58,4193969.0,116030549.0,890283193.8,2936533600.0
sh603895,天永智能,2019-04-19,27.0,27.37,26.7,27.04,27.17,2296189.0,61969058.0,886023465.6,2922483200.0
sh603895,天永智能,2019-04-22,26.9,26.9,26.16,26.16,27.04,1986727.0,52380322.0,857188382.4,2827372800.0
sh603895,天永智能,2019-04-23,26.18,26.36,25.8,26.09,26.16,1276850.0,33410653.0,854894682.6,2819807200.0
sh603895,天永智能,2019-04-24,26.17,26.64,26.02,26.53,26.09,1248460.0,32878062.0,869312224.2,2867362400.0
sh603895,天永智能,2019-04-25,26.24,26.56,25.0,25.06,26.53,1651620.0,42795972.0,821144528.4,2708484800.0
sh603895,天永智能,2019-04-26,24.97,25.25,24.41,24.5,25.06,1414680.0,35032430.0,802794930.0,2647960000.0
sh603895,天永智能,2019-04-29,24.7,24.7,23.18,23.23,24.5,1657980.0,39328280.0,761180662.2,2510698400.0
sh603895,天永智能,2019-04-30,23.25,23.64,23.06,23.36,23.23,942860.0,22060932.0,765440390.4,2524748800.0
sh603895,天永智能,2019-05-06,22.82,22.82,21.02,21.15,23.36,1717629.0,37198755.0,693025011.0,2285892000.0
sh603895,天永智能,2019-05-07,21.35,21.89,20.92,21.66,21.15,1236760.0,26499652.0,709736252.4,2341012800.0
sh603895,天永智能,2019-05-08,21.0,23.2,20.76,22.43,21.66,1892000.0,41816201.0,734966950.2,2424234400.0
sh603895,天永智能,2019-05-09,22.19,23.05,22.06,22.16,22.43,1353540.0,30427693.0,726119822.4,2395052800.0
sh603895,天永智能,2019-05-10,22.16,22.98,21.91,22.81,22.16,2025740.0,46021447.0,747418463.4,2465304800.0
sh603895,天永智能,2019-05-13,22.55,24.0,22.21,23.26,22.81,1879760.0,43890492.0,762163676.4,2513940800.0
sh603895,天永智能,2019-05-14,22.7,23.15,22.7,22.82,23.26,844180.0,19379146.0,747746134.8,2466385600.0
sh603895,天永智能,2019-05-15,23.01,23.66,22.88,23.44,22.82,1576240.0,36752923.0,768061761.6,2533395200.0
sh603895,天永智能,2019-05-16,23.55,24.27,23.25,23.89,23.44,2047620.0,48773238.0,782806974.6,2582031200.0
sh603895,天永智能,2019-05-17,24.03,24.7,23.25,23.47,23.89,2794820.0,67839738.0,769044775.8,2536637600.0
sh603895,天永智能,2019-05-20,22.92,24.2,22.91,23.61,23.47,1334920.0,31525690.0,773632175.4,2551768800.0
sh603895,天永智能,2019-05-21,23.57,23.83,23.28,23.65,23.61,1249211.0,29517302.0,774942861.0,2556092000.0
sh603895,天永智能,2019-05-22,23.7,24.0,22.67,23.63,23.65,1874251.0,43963267.0,774287518.2,2553930400.0
sh603895,天永智能,2019-05-23,23.51,24.0,22.82,22.92,23.63,1658050.0,38784846.0,751022848.8,2477193600.0
sh603895,天永智能,2019-05-24,22.63,23.82,22.63,23.6,22.92,2507941.0,59036723.0,773304504.0,2550688000.0
sh603895,天永智能,2019-05-27,23.5,24.08,23.14,23.79,23.6,2573389.0,60659167.0,779530260.6,2571223200.0
sh603895,天永智能,2019-05-28,23.77,23.99,23.5,23.59,23.79,1402860.0,33225882.0,772976832.6,2549607200.0
sh603895,天永智能,2019-05-29,23.49,23.68,23.31,23.32,23.59,1086070.0,25546400.0,764129704.8,2520425600.0
sh603895,天永智能,2019-05-30,23.18,23.54,22.73,23.03,23.32,1478370.0,34000939.0,754627234.2,2489082400.0
sh603895,天永智能,2019-05-31,22.95,23.93,22.91,23.69,23.03,1800537.0,42425512.0,776253546.6,2560415200.0
sh603895,天永智能,2019-06-03,23.9,23.9,22.97,23.39,23.69,1667957.0,39137017.0,766423404.6,2527991200.0
sh603895,天永智能,2019-06-04,23.14,24.38,22.92,23.78,23.39,2339720.0,55348132.0,779202589.2,2570142400.0
sh603895,天永智能,2019-06-05,23.76,25.1,23.59,24.26,23.78,3242739.0,78051476.0,794930816.4,2622020800.0
sh603895,天永智能,2019-06-06,24.0,24.16,22.88,23.4,24.26,2106900.0,49447671.0,766751076.0,2529072000.0
sh603895,天永智能,2019-06-10,23.11,23.67,22.91,23.54,23.4,1242460.0,28862569.0,771338475.6,2544203200.0
sh603895,天永智能,2019-06-11,23.45,24.15,23.4,24.12,23.54,1947940.0,46610426.0,790343416.8,2606889600.0
sh603895,天永智能,2019-06-12,23.99,25.1,23.81,23.95,24.12,2539920.0,61665281.0,784773003.0,2588516000.0
sh603895,天永智能,2019-06-13,23.8,24.29,23.55,24.18,23.95,1636100.0,39309064.0,792309445.2,2613374400.0
sh603895,天永智能,2019-06-14,24.2,24.26,23.3,23.41,24.18,1161586.0,27660929.0,767078747.4,2530152800.0
sh603895,天永智能,2019-06-17,23.48,24.1,23.31,23.8,23.41,1094341.0,25952939.0,779857932.0,2572304000.0
sh603895,天永智能,2019-06-18,23.65,24.36,23.51,24.3,23.8,2198329.0,52811307.0,796241502.0,2626344000.0
sh603895,天永智能,2019-06-19,24.5,24.92,23.9,24.09,24.3,2645576.0,64650304.0,789360402.6,2603647200.0
sh603895,天永智能,2019-06-20,23.99,24.53,23.61,24.25,24.09,1757816.0,42217423.0,794603145.0,2620940000.0
sh603895,天永智能,2019-06-21,24.5,24.74,24.18,24.66,24.25,2643879.0,64858573.0,808037672.4,2665252800.0
sh603895,天永智能,2019-06-24,24.42,25.08,24.23,24.69,24.66,2573720.0,63571939.0,809020686.6,2668495200.0
sh603895,XD天永智,2019-06-25,24.9,24.9,24.45,24.49,24.63,2000700.0,49299295.0,802467258.6,2646879200.0
sh603895,天永智能,2019-06-26,24.18,24.82,23.88,24.65,24.49,1678158.0,40953402.0,807710001.0,2664172000.0
sh603895,天永智能,2019-06-27,24.6,25.09,24.4,25.03,24.65,2957298.0,73388783.0,820161514.2,2705242400.0
sh603895,天永智能,2019-06-28,25.13,25.35,24.45,24.58,25.03,1760740.0,43687190.0,805416301.2,2656606400.0
sh603895,天永智能,2019-07-01,24.9,25.77,24.6,25.77,24.58,3469720.0,87766040.0,844409197.8,2785221600.0
sh603895,天永智能,2019-07-02,25.73,26.4,25.43,26.2,25.77,3766018.0,97272728.0,858499068.0,2831696000.0
sh603895,天永智能,2019-07-03,25.91,26.06,25.45,25.63,26.2,2116180.0,54378873.0,839821798.2,2770090400.0
sh603895,天永智能,2019-07-04,25.7,26.0,25.21,25.85,25.63,1999060.0,51233045.0,847030569.0,2793868000.0
sh603895,天永智能,2019-07-05,25.76,26.2,25.58,25.71,25.85,2371421.0,61600925.0,842443169.4,2778736800.0
sh603895,天永智能,2019-07-08,25.57,25.57,24.02,24.2,25.71,2105299.0,52209902.0,792964788.0,2615536000.0
sh603895,天永智能,2019-07-09,24.05,25.24,24.05,25.08,24.2,2557740.0,63532984.0,821799871.2,2710646400.0
sh603895,天永智能,2019-07-10,25.59,25.59,24.02,24.04,25.08,2339205.0,57835309.0,787722045.6,2598243200.0
sh603895,天永智能,2019-07-11,24.12,24.28,22.88,23.03,24.04,2592540.0,60996989.0,754627234.2,2489082400.0
sh603895,天永智能,2019-07-12,23.18,23.18,22.0,22.52,23.03,2502931.0,56424404.0,737915992.8,2433961600.0
sh603895,天永智能,2019-07-15,22.43,22.8,22.16,22.75,22.52,1442600.0,32539030.0,745452435.0,2458820000.0
sh603895,天永智能,2019-07-16,22.68,23.2,22.56,22.96,22.75,1387998.0,31813342.0,752333534.4,2481516800.0
sh603895,天永智能,2019-07-17,23.03,23.28,22.8,23.01,22.96,1343320.0,30949473.0,753971891.4,2486920800.0
sh603895,天永智能,2019-07-18,22.97,22.97,22.21,22.39,23.01,1085660.0,24456013.0,733656264.6,2419911200.0
sh603895,天永智能,2019-07-19,22.51,23.18,22.5,23.1,22.39,1605580.0,36702835.0,756920934.0,2496648000.0
sh603895,天永智能,2019-07-22,22.99,22.99,21.5,21.83,23.1,1768800.0,39094163.0,715306666.2,2359386400.0
sh603895,天永智能,2019-07-23,21.89,22.22,21.68,22.04,21.83,951840.0,20880837.0,722187765.6,2382083200.0
sh603895,天永智能,2019-07-24,22.07,22.43,21.95,22.14,22.04,905380.0,20127469.0,725464479.6,2392891200.0
sh603895,天永智能,2019-07-25,22.18,22.48,22.03,22.2,22.14,1233820.0,27479811.0,727430508.0,2399376000.0
sh603895,天永智能,2019-07-26,22.1,22.95,21.95,22.78,22.2,2020240.0,45623679.0,746435449.2,2462062400.0
sh603895,天永智能,2019-07-29,22.62,23.45,22.6,22.77,22.78,1448880.0,33175694.0,746107777.8,2460981600.0
sh603895,天永智能,2019-07-30,22.64,23.28,22.5,23.05,22.77,2024239.0,46571738.0,755282577.0,2491244000.0
sh603895,天永智能,2019-07-31,22.97,22.97,22.53,22.56,23.05,1459540.0,33073406.0,739226678.4,2438284800.0
sh603895,天永智能,2019-08-01,22.17,23.11,22.17,22.73,22.56,1318420.0,30088911.0,744797092.2,2456658400.0
sh603895,天永智能,2019-08-02,22.45,22.84,22.26,22.73,22.73,1345400.0,30435525.0,744797092.2,2456658400.0
sh603895,天永智能,2019-08-05,22.74,22.95,22.35,22.42,22.73,1113265.0,25189167.0,734639278.8,2423153600.0
sh603895,天永智能,2019-08-06,21.94,21.95,21.09,21.42,22.42,1454682.0,31270654.0,701872138.8,2315073600.0
sh603895,天永智能,2019-08-07,21.51,21.84,21.13,21.18,21.42,843613.0,18128229.0,694008025.2,2289134400.0
sh603895,天永智能,2019-08-08,21.36,21.43,21.03,21.08,21.18,946102.0,20039654.0,690731311.2,2278326400.0
sh603895,天永智能,2019-08-09,21.22,21.31,20.47,20.58,21.08,1125720.0,23478211.0,674347741.2,2224286400.0
sh603895,天永智能,2019-08-12,20.55,20.9,20.35,20.9,20.58,792252.0,16364836.0,684833226.0,2258872000.0
sh603895,天永智能,2019-08-13,20.73,21.55,20.62,21.13,20.9,1121793.0,23644766.0,692369668.2,2283730400.0
sh603895,天永智能,2019-08-14,21.17,21.49,21.1,21.23,21.13,1305360.0,27802483.0,695646382.2,2294538400.0
sh603895,天永智能,2019-08-15,20.66,21.6,20.23,21.3,21.23,1466606.0,30901426.0,697940082.0,2302104000.0
sh603895,天永智能,2019-08-16,21.28,21.47,21.03,21.04,21.3,1302180.0,27676821.0,689420625.6,2274003200.0
sh603895,天永智能,2019-08-19,21.15,21.63,21.15,21.62,21.04,1246452.0,26723867.0,708425566.8,2336689600.0
sh603895,天永智能,2019-08-20,21.6,21.87,21.55,21.63,21.62,1092160.0,23710452.0,708753238.2,2337770400.0
sh603895,天永智能,2019-08-21,21.7,21.81,21.42,21.56,21.63,932180.0,20127417.0,706459538.4,2330204800.0
sh603895,天永智能,2019-08-22,21.57,21.78,21.4,21.56,21.56,641020.0,13812131.0,706459538.4,2330204800.0
sh603895,天永智能,2019-08-23,21.63,21.63,21.11,21.18,21.56,946700.0,20202392.0,694008025.2,2289134400.0
sh603895,天永智能,2019-08-26,20.66,21.58,20.58,21.38,21.18,1306320.0,27793657.0,700561453.2,2310750400.0
sh603895,天永智能,2019-08-27,21.5,21.75,21.42,21.61,21.38,1354207.0,29215235.0,708097895.4,2335608800.0
sh603895,天永智能,2019-08-28,21.59,21.59,21.11,21.23,21.61,1060440.0,22592770.0,695646382.2,2294538400.0
sh603895,天永智能,2019-08-29,21.23,21.48,21.14,21.3,21.23,804845.0,17168853.0,697940082.0,2302104000.0
sh603895,天永智能,2019-08-30,21.3,21.55,20.65,20.7,21.3,1265740.0,26750203.0,678279798.0,2237256000.0
sh603895,天永智能,2019-09-02,20.77,21.2,20.61,21.18,20.7,1076842.0,22669604.0,694008025.2,2289134400.0
sh603895,天永智能,2019-09-03,21.2,21.55,21.18,21.5,21.18,1069939.0,22921713.0,704493510.0,2323720000.0
sh603895,天永智能,2019-09-04,21.49,21.85,21.37,21.72,21.5,1387867.0,30003395.0,711702280.8,2347497600.0
sh603895,天永智能,2019-09-05,21.74,22.1,21.7,21.7,21.72,1639555.0,35860158.0,711046938.0,2345336000.0
sh603895,天永智能,2019-09-06,21.7,22.09,21.65,21.91,21.7,1414843.0,30995715.0,717928037.4,2368032800.0
sh603895,天永智能,2019-09-09,22.4,22.7,22.02,22.7,21.91,2131240.0,47704313.0,743814078.0,2453416000.0
sh603895,天永智能,2019-09-10,22.57,23.42,22.34,22.52,22.7,2363598.0,53766731.0,737915992.8,2433961600.0
sh603895,天永智能,2019-09-11,22.8,22.94,22.35,22.36,22.52,1442520.0,32484662.0,732673250.4,2416668800.0
sh603895,天永智能,2019-09-12,22.34,22.49,22.05,22.48,22.36,1265000.0,28259613.0,736605307.2,2429638400.0
sh603895,天永智能,2019-09-16,22.59,22.7,22.33,22.52,22.48,959200.0,21633026.0,737915992.8,2433961600.0
sh603895,天永智能,2019-09-17,22.59,23.52,21.8,23.2,22.52,3738360.0,85057298.0,760197648.0,2507456000.0
sh603895,天永智能,2019-09-18,23.23,24.55,22.73,23.59,23.2,4500425.0,105515548.0,772976832.6,2549607200.0
sh603895,天永智能,2019-09-19,23.54,23.64,23.11,23.45,23.59,2173210.0,50788416.0,768389433.0,2534476000.0
sh603895,天永智能,2019-09-20,23.5,24.26,22.77,23.5,23.45,3394504.0,79786296.0,770027790.0,2539880000.0
sh603895,天永智能,2019-09-23,23.46,23.47,23.01,23.26,23.5,1216300.0,28206488.0,762163676.4,2513940800.0
sh603895,天永智能,2019-09-24,23.29,23.69,23.08,23.39,23.26,1526780.0,35629795.0,766423404.6,2527991200.0
sh603895,天永智能,2019-09-25,23.11,23.94,22.89,23.59,23.39,2502318.0,58764352.0,772976832.6,2549607200.0
sh603895,天永智能,2019-09-26,23.61,25.95,23.61,24.33,23.59,5486358.0,135108786.0,797224516.2,2629586400.0
sh603895,天永智能,2019-09-27,24.17,25.95,23.8,25.2,24.33,5154044.0,127704023.0,825731928.0,2723616000.0
sh603895,天永智能,2019-09-30,24.83,24.98,23.62,23.79,25.2,2743840.0,66716841.0,779530260.6,2571223200.0
sh603895,天永智能,2019-10-08,23.51,24.04,23.03,23.23,23.79,1842540.0,43436602.0,761180662.2,2510698400.0
sh603895,天永智能,2019-10-09,23.25,23.3,22.5,22.81,23.23,1459377.0,33246190.0,747418463.4,2465304800.0
sh603895,天永智能,2019-10-10,22.83,23.35,22.6,23.32,22.81,1626540.0,37312409.0,764129704.8,2520425600.0
sh603895,天永智能,2019-10-11,23.32,25.0,23.32,24.05,23.32,3770800.0,91500563.0,788049717.0,2599324000.0
sh603895,天永智能,2019-10-14,24.0,24.49,23.8,24.14,24.05,1933893.0,46588600.0,790998759.6,2609051200.0
sh603895,天永智能,2019-10-15,23.91,24.29,23.13,23.3,24.14,1449920.0,34262563.0,763474362.0,2518264000.0
sh603895,天永智能,2019-10-16,23.29,23.53,22.81,22.88,23.3,1173417.0,27203787.0,749712163.2,2472870400.0
sh603895,天永智能,2019-10-17,22.78,23.26,22.44,23.15,22.88,1865000.0,42723772.0,758559291.0,2502052000.0
sh603895,天永智能,2019-10-18,23.15,24.03,22.66,23.22,23.15,2311101.0,53796907.0,760852990.8,2509617600.0
sh603895,天永智能,2019-10-21,23.0,23.4,22.42,23.11,23.22,1301720.0,29895143.0,757248605.4,2497728800.0
sh603895,天永智能,2019-10-22,23.32,23.32,22.83,23.09,23.11,827400.0,19060928.0,756593262.6,2495567200.0
sh603895,天永智能,2019-10-23,23.09,23.18,22.64,22.64,23.09,733887.0,16750874.0,741848049.6,2446931200.0
sh603895,天永智能,2019-10-24,22.61,22.86,22.21,22.22,22.64,698711.0,15720779.0,728085850.8,2401537600.0
sh603895,天永智能,2019-10-25,22.22,22.48,21.56,22.33,22.22,1888432.0,41539425.0,731690236.2,2413426400.0
sh603895,天永智能,2019-10-28,22.75,24.56,22.44,24.01,22.33,4348837.0,103686073.0,786739031.4,2595000800.0
sh603895,天永智能,2019-10-29,24.02,24.47,23.5,23.5,24.01,2640728.0,63045486.0,770027790.0,2539880000.0
sh603895,天永智能,2019-10-30,23.5,24.0,23.0,23.3,23.5,2508336.0,58593808.0,763474362.0,2518264000.0
sh603895,天永智能,2019-10-31,23.32,23.85,23.21,23.5,23.3,2021740.0,47678818.0,770027790.0,2539880000.0
sh603895,天永智能,2019-11-01,23.0,24.2,22.59,24.01,23.5,2673566.0,63032206.0,786739031.4,2595000800.0
sh603895,天永智能,2019-11-04,24.02,24.7,23.41,24.04,24.01,3538599.0,84723528.0,787722045.6,2598243200.0
sh603895,天永智能,2019-11-05,24.0,24.18,23.61,23.69,24.04,1394140.0,33214024.0,776253546.6,2560415200.0
sh603895,天永智能,2019-11-06,23.8,23.81,23.23,23.35,23.69,841446.0,19776390.0,765112719.0,2523668000.0
sh603895,天永智能,2019-11-07,23.42,23.5,23.05,23.36,23.35,647300.0,15087791.0,765440390.4,2524748800.0
sh603895,天永智能,2019-11-08,23.36,24.15,23.36,23.79,23.36,1773086.0,42146783.0,779530260.6,2571223200.0
sh603895,天永智能,2019-11-11,23.79,23.98,22.38,22.63,23.79,1920020.0,44519327.0,741520378.2,2445850400.0
sh603895,天永智能,2019-11-12,22.6,22.74,22.16,22.19,22.63,1001445.0,22350186.0,727102836.6,2398295200.0
sh603895,天永智能,2019-11-13,22.2,22.46,21.9,22.25,22.19,671780.0,14933789.0,729068865.0,2404780000.0
sh603895,天永智能,2019-11-14,22.21,23.5,22.15,22.7,22.25,1388389.0,31498478.0,743814078.0,2453416000.0
sh603895,天永智能,2019-11-15,22.68,22.85,22.45,22.52,22.7,664729.0,15024923.0,737915992.8,2433961600.0
sh603895,天永智能,2019-11-18,22.82,22.89,22.29,22.71,22.52,409852.0,9304780.0,744141749.4,2454496800.0
sh603895,天永智能,2019-11-19,22.6,23.06,22.57,22.98,22.71,756657.0,17347149.0,752988877.2,2483678400.0
sh603895,天永智能,2019-11-20,23.09,23.56,22.73,23.01,22.98,1707489.0,39405925.0,753971891.4,2486920800.0
sh603895,天永智能,2019-11-21,22.95,22.95,22.4,22.64,23.01,631060.0,14289782.0,741848049.6,2446931200.0
sh603895,天永智能,2019-11-22,22.73,22.81,21.95,22.3,22.64,1161057.0,25913996.0,730707222.0,2410184000.0
sh603895,天永智能,2019-11-25,22.3,22.44,22.04,22.4,22.3,975805.0,21755021.0,733983936.0,2420992000.0
sh603895,天永智能,2019-11-26,22.25,22.46,22.25,22.33,22.4,324500.0,7249866.0,731690236.2,2413426400.0
sh603895,天永智能,2019-11-27,22.27,22.9,22.11,22.47,22.33,563501.0,12592021.0,736277635.8,2428557600.0
sh603895,天永智能,2019-11-28,22.47,23.0,22.1,22.76,22.47,1781229.0,40074007.0,745780106.4,2459900800.0
sh603895,天永智能,2019-11-29,22.67,23.15,22.52,22.95,22.76,1302780.0,29870527.0,752005863.0,2480436000.0
sh603895,天永智能,2019-12-02,22.99,23.38,22.71,22.71,22.95,1014960.0,23367510.0,744141749.4,2454496800.0
sh603895,天永智能,2019-12-03,22.42,23.31,22.08,23.21,22.71,1449089.0,33045421.0,760525319.4,2508536800.0
sh603895,天永智能,2019-12-04,23.15,23.62,22.92,23.52,23.21,2070240.0,48464914.0,770683132.8,2542041600.0
sh603895,天永智能,2019-12-05,23.45,24.0,23.4,23.59,23.52,2314500.0,54779480.0,772976832.6,2549607200.0
sh603895,天永智能,2019-12-06,23.55,24.3,22.98,23.48,23.59,2865460.0,67651980.0,769372447.2,2537718400.0
sh603895,天永智能,2019-12-09,23.1,23.59,23.1,23.58,23.48,1999073.0,46656710.0,772649161.2,2548526400.0
sh603895,天永智能,2019-12-10,23.38,23.92,23.2,23.61,23.58,1558117.0,36686871.0,773632175.4,2551768800.0
sh603895,天永智能,2019-12-11,23.41,23.78,23.28,23.46,23.61,1179303.0,27780222.0,768717104.4,2535556800.0
sh603895,天永智能,2019-12-12,23.39,23.85,23.39,23.84,23.46,1297671.0,30731322.0,781168617.6,2576627200.0
sh603895,天永智能,2019-12-13,23.98,24.34,23.71,24.32,23.84,2462523.0,59249672.0,796896844.8,2628505600.0
sh603895,天永智能,2019-12-16,24.51,25.63,24.5,25.51,24.32,4532446.0,114351306.0,835889741.4,2757120800.0
sh603895,天永智能,2019-12-17,25.81,25.81,24.78,24.88,25.51,4425283.0,111123570.0,815246443.2,2689030400.0
sh603895,天永智能,2019-12-18,25.0,25.2,24.55,24.95,24.88,3274542.0,81522567.0,817540143.0,2696596000.0
sh603895,天永智能,2019-12-19,25.05,25.17,24.63,25.05,24.95,2123840.0,52887549.0,820816857.0,2707404000.0
sh603895,天永智能,2019-12-20,25.0,25.5,24.51,24.55,25.05,2352520.0,58375916.0,804433287.0,2653364000.0
sh603895,天永智能,2019-12-23,24.59,24.59,23.58,23.58,24.55,1217500.0,29244969.0,772649161.2,2548526400.0
sh603895,天永智能,2019-12-24,23.58,23.96,23.58,23.72,23.58,875031.0,20773289.0,777236560.8,2563657600.0
sh603895,天永智能,2019-12-25,23.72,24.24,23.6,23.78,23.72,1132916.0,27033258.0,779202589.2,2570142400.0
sh603895,天永智能,2019-12-26,23.78,23.89,23.52,23.66,23.78,1073509.0,25420673.0,775270532.4,2557172800.0
sh603895,天永智能,2019-12-27,23.66,23.87,23.0,23.25,23.66,1307837.0,30751078.0,761836005.0,2512860000.0
sh603895,天永智能,2019-12-30,23.15,23.25,22.69,23.12,23.25,1133049.0,25987966.0,757576276.8,2498809600.0
sh603895,天永智能,2019-12-31,23.1,23.36,22.96,23.12,23.12,833389.0,19311593.0,757576276.8,2498809600.0
sh603895,天永智能,2020-01-02,23.3,23.54,23.01,23.45,23.12,1109711.0,25962524.0,768389433.0,2534476000.0
sh603895,天永智能,2020-01-03,23.54,23.69,23.35,23.56,23.45,1135317.0,26721191.0,771993818.4,2546364800.0
sh603895,天永智能,2020-01-06,23.36,23.74,23.2,23.52,23.56,911749.0,21472000.0,770683132.8,2542041600.0
sh603895,天永智能,2020-01-07,23.52,23.97,23.52,23.97,23.52,1207257.0,28752367.0,785428345.8,2590677600.0
sh603895,天永智能,2020-01-08,23.97,23.97,23.65,23.77,23.97,981320.0,23366137.0,778874917.8,2569061600.0
sh603895,天永智能,2020-01-09,23.8,24.2,23.8,24.15,23.77,1251711.0,30054667.0,791326431.0,2610132000.0
sh603895,天永智能,2020-01-10,24.07,24.37,23.7,23.9,24.15,1176720.0,28117828.0,783134646.0,2583112000.0
sh603895,天永智能,2020-01-13,23.85,24.52,23.63,24.52,23.9,1949024.0,46802625.0,803450272.8,2650121600.0
sh603895,天永智能,2020-01-14,24.52,24.55,24.13,24.14,24.52,1112880.0,27047341.0,790998759.6,2609051200.0
sh603895,天永智能,2020-01-15,24.3,24.57,24.17,24.46,24.14,1544933.0,37686886.0,801484244.4,2643636800.0
sh603895,天永智能,2020-01-16,24.51,24.62,23.92,24.06,24.46,1269631.0,30721015.0,788377388.4,2600404800.0
sh603895,天永智能,2020-01-17,24.06,24.12,23.73,23.75,24.06,1140780.0,27325311.0,778219575.0,2566900000.0
sh603895,天永智能,2020-01-20,23.89,24.07,23.74,23.85,23.75,1168300.0,27951635.0,781496289.0,2577708000.0
sh603895,天永智能,2020-01-21,23.8,24.04,23.45,23.5,23.85,1070406.0,25361201.0,770027790.0,2539880000.0
sh603895,天永智能,2020-01-22,22.81,23.5,22.8,23.17,23.5,1247198.0,28640934.0,759214633.8,2504213600.0
sh603895,天永智能,2020-01-23,22.7,22.7,20.86,21.7,23.17,2797432.0,60456951.0,711046938.0,2345336000.0
sh603895,天永智能,2020-02-03,19.53,19.53,19.53,19.53,21.7,277200.0,5413716.0,639942244.2,2110802400.0
sh603895,天永智能,2020-02-04,19.06,19.3,18.49,18.67,19.53,1611480.0,30306978.0,611762503.8,2017853600.0
sh603895,天永智能,2020-02-05,18.67,19.17,18.65,18.86,18.67,1251111.0,23693999.0,617988260.4,2038388800.0
sh603895,天永智能,2020-02-06,18.97,19.02,18.63,18.87,18.86,1313220.0,24799949.0,618315931.8,2039469600.0
sh603895,天永智能,2020-02-07,18.85,19.12,18.61,19.12,18.87,1272600.0,24080143.0,626507716.8,2066489600.0
sh603895,天永智能,2020-02-10,18.85,19.5,18.85,19.41,19.12,990406.0,19050201.0,636010187.4,2097832800.0
sh603895,天永智能,2020-02-11,19.45,19.69,19.3,19.39,19.41,882700.0,17177966.0,635354844.6,2095671200.0
sh603895,天永智能,2020-02-12,19.22,19.54,19.22,19.51,19.39,758580.0,14749245.0,639286901.4,2108640800.0
sh603895,天永智能,2020-02-13,19.49,19.68,18.89,19.27,19.51,1187620.0,22961379.0,631422787.8,2082701600.0
sh603895,天永智能,2020-02-14,19.29,19.41,19.09,19.27,19.27,779160.0,14979532.0,631422787.8,2082701600.0
sh603895,天永智能,2020-02-17,19.4,19.93,19.25,19.86,19.27,1144069.0,22506128.0,650755400.4,2146468800.0
sh603895,天永智能,2020-02-18,19.86,20.5,19.68,20.37,19.86,1287294.0,25960362.0,667466641.8,2201589600.0
sh603895,天永智能,2020-02-19,20.22,20.9,20.22,20.36,20.37,1546080.0,31699291.0,667138970.4,2200508800.0
sh603895,天永智能,2020-02-20,20.38,20.52,20.01,20.46,20.36,1253780.0,25506113.0,670415684.4,2211316800.0
sh603895,天永智能,2020-02-21,20.64,20.74,20.4,20.53,20.46,1280989.0,26326048.0,672709384.2,2218882400.0
sh603895,天永智能,2020-02-24,20.6,20.62,20.22,20.62,20.53,1743620.0,35714310.0,675658426.8,2228609600.0
sh603895,天永智能,2020-02-25,20.36,20.62,19.76,20.3,20.62,1696577.0,34195955.0,665172942.0,2194024000.0
sh603895,天永智能,2020-02-26,19.96,20.59,19.96,20.32,20.3,1489797.0,30276164.0,665828284.8,2196185600.0
sh603895,天永智能,2020-02-27,20.15,20.54,20.1,20.35,20.32,1018520.0,20715509.0,666811299.0,2199428000.0
sh603895,天永智能,2020-02-28,19.76,20.0,18.78,18.93,20.35,1946037.0,37600683.0,620281960.2,2045954400.0
sh603895,天永智能,2020-03-02,19.45,19.76,19.1,19.69,18.93,1038961.0,20264731.0,645184986.6,2128095200.0
sh603895,天永智能,2020-03-03,19.88,20.25,19.51,19.87,19.69,1070470.0,21339829.0,651083071.8,2147549600.0
sh603895,天永智能,2020-03-04,19.87,20.13,19.61,20.0,19.87,661740.0,13204925.0,655342800.0,2161600000.0
sh603895,天永智能,2020-03-05,20.13,20.48,20.0,20.39,20.0,1228180.0,24939912.0,668121984.6,2203751200.0
sh603895,天永智能,2020-03-06,20.1,21.2,20.08,20.73,20.39,1766720.0,36654483.0,679262812.2,2240498400.0
sh603895,天永智能,2020-03-09,20.1,20.5,19.76,19.86,20.73,1567251.0,31545908.0,650755400.4,2146468800.0
sh603895,天永智能,2020-03-10,19.62,20.4,19.6,20.39,19.86,1491000.0,29920235.0,668121984.6,2203751200.0
sh603895,天永智能,2020-03-11,20.7,20.7,19.96,19.97,20.39,1177900.0,23904514.0,654359785.8,2158357600.0
sh603895,天永智能,2020-03-12,19.6,19.94,19.3,19.46,19.97,912217.0,17876486.0,637648544.4,2103236800.0
sh603895,天永智能,2020-03-13,18.8,19.97,18.18,19.9,19.46,1902760.0,36618785.0,652066086.0,2150792000.0
sh603895,天永智能,2020-03-16,19.63,19.9,18.84,19.3,19.9,1286680.0,24943261.0,632405802.0,2085944000.0
sh603895,天永智能,2020-03-17,18.9,19.4,18.42,19.35,19.3,1133580.0,21384267.0,634044159.0,2091348000.0
sh603895,天永智能,2020-03-18,19.6,20.88,19.5,19.9,19.35,2879307.0,57820178.0,652066086.0,2150792000.0
sh603895,天永智能,2020-03-19,19.99,20.3,19.22,19.98,19.9,1761880.0,34921124.0,654687457.2,2159438400.0
sh603895,天永智能,2020-03-20,20.06,20.19,19.7,19.9,19.98,1196090.0,23769205.0,652066086.0,2150792000.0
sh603895,天永智能,2020-03-23,19.3,19.92,19.06,19.09,19.9,1070342.0,20721542.0,625524702.6,2063247200.0
sh603895,天永智能,2020-03-24,19.47,19.73,18.9,19.6,19.09,1262240.0,24398586.0,642235944.0,2118368000.0
sh603895,天永智能,2020-03-25,19.67,20.19,19.67,19.91,19.6,1347797.0,26892885.0,652393757.4,2151872800.0
sh603895,天永智能,2020-03-26,19.78,21.1,19.38,20.42,19.91,3229452.0,65712218.0,669104998.8,2206993600.0
sh603895,天永智能,2020-03-27,20.8,20.95,19.91,19.92,20.42,2556702.0,52460056.0,652721428.8,2152953600.0
sh603895,天永智能,2020-03-30,19.41,19.7,19.07,19.19,19.92,1092940.0,21013932.0,628801416.6,2074055200.0
sh603895,天永智能,2020-03-31,19.22,19.55,19.1,19.1,19.19,659000.0,12645393.0,625852374.0,2064328000.0
sh603895,天永智能,2020-04-01,19.08,19.27,19.0,19.07,19.1,502300.0,9614385.0,624869359.8,2061085600.0
sh603895,天永智能,2020-04-02,19.07,19.23,18.79,19.23,19.07,536273.0,10213788.0,630112102.2,2078378400.0
sh603895,天永智能,2020-04-03,19.34,19.34,18.93,18.99,19.23,507071.0,9681255.0,622247988.6,2052439200.0
sh603895,天永智能,2020-04-07,19.1,19.9,19.1,19.72,18.99,1279851.0,24882620.0,646168000.8,2131337600.0
sh603895,天永智能,2020-04-08,19.66,20.6,19.56,19.81,19.72,1426917.0,28543509.0,649117043.4,2141064800.0
sh603895,天永智能,2020-04-09,19.9,20.07,19.65,19.81,19.81,699685.0,13855943.0,649117043.4,2141064800.0
sh603895,天永智能,2020-04-10,19.82,19.98,19.1,19.1,19.81,697060.0,13491615.0,625852374.0,2064328000.0
sh603895,天永智能,2020-04-13,19.2,19.46,19.0,19.15,19.1,387847.0,7434274.0,627490731.0,2069732000.0
sh603895,天永智能,2020-04-14,19.19,19.42,19.05,19.34,19.15,857700.0,16524134.0,633716487.6,2090267200.0
sh603895,天永智能,2020-04-15,19.34,19.39,19.06,19.18,19.34,565540.0,10842549.0,628473745.2,2072974400.0
sh603895,天永智能,2020-04-16,19.05,19.24,18.88,19.16,19.18,468900.0,8971040.0,627818402.4,2070812800.0
sh603895,天永智能,2020-04-17,19.23,19.38,18.9,18.92,19.16,562940.0,10769191.0,619954288.8,2044873600.0
sh603895,天永智能,2020-04-20,19.03,19.15,18.79,19.0,18.92,780160.0,14792925.0,622575660.0,2053520000.0
sh603895,天永智能,2020-04-21,19.05,19.14,18.79,18.99,19.0,793780.0,15038136.0,622247988.6,2052439200.0
sh603895,天永智能,2020-04-22,18.82,20.35,18.76,20.3,18.99,3239998.0,63743179.0,665172942.0,2194024000.0
sh603895,天永智能,2020-04-23,20.05,21.71,19.85,21.6,20.3,7123168.0,148651662.0,707770224.0,2334528000.0
sh603895,天永智能,2020-04-24,21.7,23.76,21.04,23.76,21.6,8503881.0,192127895.0,778547246.4,2567980800.0
sh603895,天永智能,2020-04-27,22.6,23.5,21.38,21.38,23.76,8503585.0,186785320.0,700561453.2,2310750400.0
sh603895,天永智能,2020-04-28,20.4,21.8,20.3,20.85,21.38,5218155.0,108713187.0,683194869.0,2253468000.0
sh603895,天永智能,2020-04-29,20.45,21.6,20.33,20.7,20.85,6653652.0,139989001.0,678279798.0,2237256000.0
sh603895,天永智能,2020-04-30,20.22,20.55,19.62,19.76,20.7,5438700.0,108357299.0,647478686.4,2135660800.0
sh603895,天永智能,2020-05-06,19.26,19.99,19.12,19.64,19.76,3331160.0,65057848.0,643546629.6,2122691200.0
sh603895,天永智能,2020-05-07,19.67,19.96,19.32,19.59,19.64,3047502.0,59762654.0,641908272.6,2117287200.0
sh603895,天永智能,2020-05-08,19.58,19.95,19.58,19.89,19.59,2654330.0,52511009.0,651738414.6,2149711200.0
sh603895,天永智能,2020-05-11,19.8,20.1,19.56,19.66,19.89,1992317.0,39437629.0,644201972.4,2124852800.0
sh603895,天永智能,2020-05-12,19.69,19.75,19.35,19.58,19.66,1700780.0,33147623.0,641580601.2,2116206400.0
sh603895,天永智能,2020-05-13,19.3,19.57,19.23,19.57,19.58,1587380.0,30790225.0,641252929.8,2115125600.0
sh603895,天永智能,2020-05-14,19.46,19.75,19.34,19.51,19.57,1561482.0,30410381.0,639286901.4,2108640800.0
sh603895,天永智能,2020-05-15,19.6,19.71,19.28,19.3,19.51,1742260.0,34004175.0,632405802.0,2085944000.0
sh603895,天永智能,2020-05-18,19.32,19.44,18.74,18.77,19.3,1994260.0,37755254.0,615039217.8,2028661600.0
sh603895,天永智能,2020-05-19,18.85,19.06,18.85,18.9,18.77,1087990.0,20582282.0,619298946.0,2042712000.0
sh603895,天永智能,2020-05-20,18.9,19.02,18.8,18.95,18.9,903370.0,17099211.0,620937303.0,2048116000.0
sh603895,天永智能,2020-05-21,18.97,19.25,18.9,19.1,18.95,1006387.0,19221539.0,625852374.0,2064328000.0
sh603895,天永智能,2020-05-22,19.05,19.44,18.9,19.27,19.1,1648220.0,31599510.0,631422787.8,2082701600.0
sh603895,天永智能,2020-05-25,19.29,19.74,19.1,19.6,19.27,2458587.0,47923066.0,642235944.0,2118368000.0
sh603895,天永智能,2020-05-26,19.5,19.82,19.43,19.72,19.6,1903827.0,37313850.0,646168000.8,2131337600.0
sh603895,天永智能,2020-05-27,19.75,20.46,19.52,20.06,19.72,3077280.0,61377960.0,657308828.4,2168084800.0
sh603895,天永智能,2020-05-28,20.05,20.2,19.2,19.88,20.06,2405214.0,47530761.0,651410743.2,2148630400.0
sh603895,天永智能,2020-05-29,19.87,20.34,19.7,20.07,19.88,2022447.0,40586198.0,657636499.8,2169165600.0
sh603895,天永智能,2020-06-01,20.0,20.39,19.9,20.26,20.07,1934395.0,39014391.0,663862256.4,2189700800.0
sh603895,天永智能,2020-06-02,20.39,20.73,19.98,20.26,20.26,2005892.0,40612167.0,663862256.4,2189700800.0
sh603895,天永智能,2020-06-03,20.53,21.28,20.09,20.09,20.26,2716040.0,55902790.0,658291842.6,2171327200.0
sh603895,天永智能,2020-06-04,20.01,20.59,19.79,20.36,20.09,2304620.0,46329682.0,667138970.4,2200508800.0
sh603895,天永智能,2020-06-05,20.36,21.0,20.11,20.72,20.36,3299773.0,68020858.0,678935140.8,2239417600.0
sh603895,天永智能,2020-06-08,20.51,20.69,20.28,20.49,20.72,1966000.0,40210781.0,671398698.6,2214559200.0
sh603895,天永智能,2020-06-09,20.37,20.79,20.14,20.68,20.49,1621800.0,33284408.0,677624455.2,2235094400.0
sh603895,天永智能,2020-06-10,21.27,22.75,20.9,21.09,20.68,4585795.0,99848227.0,691058982.6,2279407200.0
sh603895,天永智能,2020-06-11,20.89,21.52,20.39,20.95,21.09,2820477.0,58549439.0,686471583.0,2264276000.0
sh603895,天永智能,2020-06-12,20.22,21.0,20.13,20.55,20.95,1229340.0,25312458.0,673364727.0,2221044000.0
sh603895,天永智能,2020-06-15,20.51,20.66,20.3,20.3,20.55,824335.0,16870367.0,665172942.0,2194024000.0
sh603895,天永智能,2020-06-16,20.52,20.66,20.31,20.6,20.3,815689.0,16770725.0,675003084.0,2226448000.0
sh603895,天永智能,2020-06-17,20.66,21.06,20.26,20.79,20.6,1511280.0,31237964.0,681228840.6,2246983200.0
sh603895,天永智能,2020-06-18,20.71,20.86,20.37,20.48,20.79,1386440.0,28438428.0,671071027.1999999,2213478400.0
sh603895,天永智能,2020-06-19,20.39,20.77,20.32,20.49,20.48,1092115.0,22386529.0,671398698.6,2214559200.0
sh603895,天永智能,2020-06-22,20.4,20.6,20.39,20.42,20.49,1056780.0,21646545.0,669104998.8000001,2206993600.0
sh603895,天永智能,2020-06-23,20.43,20.55,19.87,19.88,20.42,1864080.0,37382639.0,651410743.2,2148630400.0
sh603895,天永智能,2020-06-24,19.82,20.02,19.7,20.02,19.88,1089581.0,21641951.0,655998142.8000001,2163761600.0
sh603895,天永智能,2020-06-29,19.81,20.2,19.67,20.09,20.02,751360.0,15044326.0,658291842.5999999,2171327200.0
sh603895,天永智能,2020-06-30,20.19,20.25,20.01,20.16,20.09,551160.0,11094048.0,660585542.4,2178892800.0
sh603895,天永智能,2020-07-01,20.15,20.64,20.15,20.6,20.16,1579407.0,32292617.0,675003084.0,2226448000.0
sh603895,天永智能,2020-07-02,20.5,20.8,20.5,20.74,20.6,1101722.0,22787501.0,679590483.6,2241579200.0
sh603895,天永智能,2020-07-03,20.72,21.02,20.62,20.66,20.74,1021480.0,21221738.0,676969112.4,2232932800.0
sh603895,天永智能,2020-07-06,20.8,21.25,20.67,21.14,20.66,2226453.0,46736916.0,692697339.6,2284811200.0
sh603895,天永智能,2020-07-07,21.15,21.53,21.09,21.33,21.14,1903485.0,40579187.0,698923096.2,2305346400.0
sh603895,天永智能,2020-07-08,21.21,21.47,21.1,21.44,21.33,1402400.0,29912534.0,702527481.6,2317235200.0
sh603895,天永智能,2020-07-09,21.54,21.9,21.33,21.73,21.44,1636389.0,35316935.0,712029952.1999999,2348578400.0
sh603895,天永智能,2020-07-10,21.7,21.7,21.2,21.3,21.73,1509685.0,32371650.0,697940082.0,2302104000.0
sh603895,天永智能,2020-07-13,21.28,21.85,21.28,21.75,21.3,1282300.0,27779659.0,712685295.0,2350740000.0
sh603895,天永智能,2020-07-14,22.0,22.15,21.36,22.03,21.75,1694737.0,36924542.0,721860094.2,2381002400.0
sh603895,天永智能,2020-07-15,22.01,22.15,21.3,21.37,22.03,1052600.0,22786612.0,700233781.8,2309669600.0
sh603895,天永智能,2020-07-16,21.41,21.58,20.56,21.02,21.37,1164496.0,24592277.0,688765282.8,2271841600.0
sh603895,天永智能,2020-07-17,20.82,23.12,20.56,22.75,21.02,8514936.0,189173833.0,745452435.0,2458820000.0
sh603895,天永智能,2020-07-20,22.6,23.17,22.17,23.15,22.75,4910651.0,111223801.0,758559290.9999999,2502052000.0
sh603895,天永智能,2020-07-21,23.08,23.7,22.51,23.52,23.15,3929083.0,90535656.0,770683132.8000001,2542041600.0
sh603895,天永智能,2020-07-22,23.4,23.46,22.76,23.1,23.52,2868640.0,66152948.0,756920934.0,2496648000.0
sh603895,天永智能,2020-07-23,22.8,23.62,22.23,23.4,23.1,3305877.0,76080653.0,766751076.0,2529072000.0
sh603895,天永智能,2020-07-24,23.89,25.65,22.5,22.5,23.4,8783405.0,212042135.0,737260650.0,2431800000.0
sh603895,天永智能,2020-07-27,21.0,21.96,20.25,20.6,22.5,4186085.0,86561092.0,675003084.0,2226448000.0
sh603895,天永智能,2020-07-28,20.52,20.84,20.35,20.52,20.6,1773405.0,36433787.0,672381712.8,2217801600.0
sh603895,天永智能,2020-07-29,20.46,21.1,20.33,20.91,20.52,2268065.0,46852870.0,685160897.4,2259952800.0
sh603895,天永智能,2020-07-30,20.72,21.0,20.63,20.8,20.91,1608220.0,33392735.0,681556511.9999999,2248064000.0
sh603895,天永智能,2020-07-31,20.66,20.87,20.46,20.7,20.8,1495725.0,30928023.0,678279798.0,2237256000.0
sh603895,天永智能,2020-08-03,20.8,21.26,20.77,21.2,20.7,1658940.0,34892234.0,694663368.0,2291296000.0
sh603895,天永智能,2020-08-04,21.14,21.35,20.78,21.01,21.2,1686762.0,35360821.0,688437611.4,2270760800.0
sh603895,天永智能,2020-08-05,21.09,21.3,20.79,21.18,21.01,1668260.0,35108377.0,694008025.1999999,2289134400.0
sh603895,天永智能,2020-08-06,21.19,21.19,20.78,20.92,21.18,1245725.0,26108073.0,685488568.8000001,2261033600.0
sh603895,天永智能,2020-08-07,20.94,20.95,20.38,20.68,20.92,1095802.0,22626217.0,677624455.1999999,2235094400.0
sh603895,天永智能,2020-08-10,20.51,21.01,20.51,20.85,20.68,744582.0,15531908.0,683194869.0,2253468000.0
sh603895,天永智能,2020-08-11,20.99,21.18,20.61,20.7,20.85,1440362.0,30179879.0,678279798.0,2237256000.0
sh603895,天永智能,2020-08-12,20.6,20.72,20.11,20.45,20.7,1400242.0,28518726.0,670088013.0000001,2210236000.0
sh603895,天永智能,2020-08-13,20.46,20.83,20.4,20.58,20.45,1346000.0,27786979.0,674347741.2,2224286400.0
sh603895,天永智能,2020-08-14,20.55,20.86,20.4,20.82,20.58,1352540.0,27903647.0,682211854.8,2250225600.0
sh603895,天永智能,2020-08-17,20.9,21.05,20.74,20.93,20.82,1361742.0,28501857.0,685816240.2,2262114400.0
sh603895,天永智能,2020-08-18,21.05,21.05,20.83,20.9,20.93,848700.0,17752444.0,684833226.0,2258872000.0
sh603895,天永智能,2020-08-19,20.9,20.92,20.51,20.61,20.9,804980.0,16674282.0,675330755.4000001,2227528800.0
sh603895,天永智能,2020-08-20,20.5,20.88,20.5,20.74,20.61,859500.0,17796708.0,679590483.6,2241579200.0
sh603895,天永智能,2020-08-21,20.78,21.11,20.67,21.05,20.74,1223780.0,25642214.0,689748297.0,2275084000.0
sh603895,天永智能,2020-08-24,21.05,21.16,20.3,20.83,21.05,934965.0,19446801.0,682539526.1999999,2251306400.0
sh603895,天永智能,2020-08-25,20.91,21.49,20.6,21.39,20.83,2568343.0,54136329.0,700889124.6,2311831200.0
sh603895,天永智能,2020-08-26,21.23,21.99,20.68,21.28,21.39,2640400.0,56253916.0,697284739.2,2299942400.0
sh603895,天永智能,2020-08-27,21.28,21.5,20.84,21.28,21.28,1609120.0,34031885.0,697284739.2,2299942400.0
sh603895,天永智能,2020-08-28,21.28,21.43,20.85,21.27,21.28,1415762.0,29943166.0,696957067.8,2298861600.0
sh603895,天永智能,2020-08-31,21.26,21.52,21.16,21.4,21.27,1437685.0,30706972.0,701216796.0,2312912000.0
sh603895,天永智能,2020-09-01,21.52,21.67,21.16,21.58,21.4,1278860.0,27408863.0,707114881.1999999,2332366400.0
sh603895,天永智能,2020-09-02,21.57,22.5,21.43,21.85,21.58,2854882.0,62767502.0,715962009.0,2361548000.0
sh603895,天永智能,2020-09-03,21.85,22.47,21.7,22.34,21.85,2703340.0,59994511.0,732017907.6,2414507200.0
sh603895,天永智能,2020-09-04,22.01,22.34,21.85,22.23,22.34,2106520.0,46514570.0,728413522.2,2402618400.0
sh603895,天永智能,2020-09-07,22.13,22.29,21.21,21.37,22.23,2043220.0,44460118.0,700233781.8,2309669600.0
sh603895,天永智能,2020-09-08,21.4,21.95,20.8,21.71,21.37,1865820.0,40090503.0,711374609.4000001,2346416800.0
sh603895,天永智能,2020-09-09,21.6,21.95,21.32,21.4,21.71,1475160.0,32033644.0,701216796.0,2312912000.0
sh603895,天永智能,2020-09-10,21.44,21.58,20.42,20.53,21.4,2133580.0,44593012.0,672709384.2,2218882400.0
sh603895,天永智能,2020-09-11,20.5,20.79,20.36,20.63,20.53,1069920.0,22015798.0,675986098.1999999,2229690400.0
sh603895,天永智能,2020-09-14,20.62,21.08,20.62,21.04,20.63,977540.0,20487129.0,689420625.6,2274003200.0
sh603895,天永智能,2020-09-15,21.2,21.21,20.6,20.71,21.04,869100.0,18075129.0,678607469.4,2238336800.0
sh603895,天永智能,2020-09-16,20.66,20.68,20.42,20.67,20.71,703560.0,14467269.0,677296783.8,2234013600.0
sh603895,天永智能,2020-09-17,20.54,21.17,20.54,20.99,20.67,1023922.0,21411415.0,687782268.5999999,2268599200.0
sh603895,天永智能,2020-09-18,20.9,21.21,20.83,21.15,20.99,876140.0,18460638.0,693025011.0,2285892000.0
sh603895,天永智能,2020-09-21,21.15,21.48,21.14,21.3,21.15,713422.0,15158929.0,697940082.0,2302104000.0
sh603895,天永智能,2020-09-22,21.01,21.55,20.96,21.55,21.3,1261360.0,26994169.0,706131867.0,2329124000.0
sh603895,天永智能,2020-09-23,21.52,21.66,21.2,21.45,21.55,916340.0,19602660.0,702855153.0,2318316000.0
sh603895,天永智能,2020-09-24,21.33,21.56,20.9,20.9,21.45,876020.0,18581820.0,684833226.0,2258872000.0
sh603895,天永智能,2020-09-25,20.9,21.15,20.48,20.78,20.9,780800.0,16157827.0,680901169.2,2245902400.0
sh603895,天永智能,2020-09-28,20.8,20.8,19.5,19.5,20.78,1378300.0,27752174.0,638959230.0,2107560000.0
sh603895,天永智能,2020-09-29,19.7,19.75,19.18,19.38,19.5,954420.0,18596797.0,635027173.2,2094590400.0
sh603895,天永智能,2020-09-30,19.45,20.81,19.01,19.82,19.38,1384240.0,27420945.0,649444714.8,2142145600.0
sh603895,天永智能,2020-10-09,19.83,20.46,19.6,19.87,19.82,3683260.0,73173625.0,651083071.8000001,2147549600.0
sh603895,天永智能,2020-10-12,19.86,20.14,19.73,20.04,19.87,2474177.0,49509667.0,656653485.6,2165923200.0
sh603895,天永智能,2020-10-13,20.03,20.04,19.67,19.79,20.04,1954020.0,38667254.0,648461700.6,2138903200.0
sh603895,天永智能,2020-10-14,19.81,19.91,19.49,19.59,19.79,1167560.0,22939939.0,641908272.6,2117287200.0
sh603895,天永智能,2020-10-15,19.58,19.75,19.48,19.68,19.59,970620.0,19016743.0,644857315.2,2127014400.0
sh603895,天永智能,2020-10-16,19.68,19.85,19.42,19.61,19.68,1070759.0,21028853.0,642563615.4,2119448800.0
sh603895,天永智能,2020-10-19,19.65,19.93,19.53,19.58,19.61,1064280.0,21019797.0,641580601.2,2116206400.0
sh603895,天永智能,2020-10-20,19.59,19.72,19.39,19.71,19.58,634920.0,12423517.0,645840329.4,2130256800.0
sh603895,天永智能,2020-10-21,19.78,19.78,19.4,19.42,19.71,828200.0,16159012.0,636337858.8000001,2098913600.0
sh603895,天永智能,2020-10-22,19.4,19.53,19.1,19.28,19.42,1578780.0,30555749.0,631750459.1999999,2083782400.0
sh603895,天永智能,2020-10-23,19.28,19.38,19.0,19.2,19.28,795639.0,15298283.0,629129088.0,2075136000.0
sh603895,天永智能,2020-10-26,19.15,19.27,18.83,19.19,19.2,610100.0,11664911.0,628801416.6,2074055200.0
sh603895,天永智能,2020-10-27,19.4,19.4,18.83,19.13,19.19,950659.0,18063854.0,626835388.2,2067570400.0
sh603895,天永智能,2020-10-28,18.8,19.07,18.7,19.0,19.13,707920.0,13376543.0,622575660.0,2053520000.0
sh603895,天永智能,2020-10-29,18.85,18.89,18.65,18.81,19.0,702440.0,13192938.0,616349903.4,2032984800.0
sh603895,天永智能,2020-10-30,18.81,18.9,18.11,18.13,18.81,1071040.0,19765311.0,594068248.2,1959490400.0
sh603895,天永智能,2020-11-02,18.1,18.5,18.0,18.46,18.13,1171985.0,21460492.0,604881404.4,1995156800.0
sh603895,天永智能,2020-11-03,18.6,19.03,18.49,18.84,18.46,1104940.0,20776941.0,617332917.6,2036227200.0
sh603895,天永智能,2020-11-04,18.97,19.25,18.74,18.83,18.84,912000.0,17282529.0,617005246.1999999,2035146400.0
sh603895,天永智能,2020-11-05,18.9,19.1,18.7,18.96,18.83,945480.0,17871198.0,621264974.4,2049196800.0
sh603895,天永智能,2020-11-06,19.1,19.1,18.72,18.9,18.96,897300.0,16923088.0,619298946.0,2042712000.0
sh603895,天永智能,2020-11-09,19.13,19.67,18.9,19.5,18.9,1568980.0,30462834.0,638959230.0,2107560000.0
sh603895,天永智能,2020-11-10,19.77,21.45,19.5,20.5,19.5,7111468.0,147685103.0,671726370.0,2215640000.0
sh603895,天永智能,2020-11-11,19.79,21.36,19.68,19.95,20.5,3422123.0,68269536.0,653704443.0,2156196000.0
sh603895,天永智能,2020-11-12,19.96,20.76,19.95,20.23,19.95,2636128.0,53630007.0,662879242.2,2186458400.0
sh603895,天永智能,2020-11-13,20.07,20.2,19.38,19.57,20.23,1817926.0,35853762.0,641252929.8,2115125600.0
sh603895,天永智能,2020-11-16,19.64,19.7,19.32,19.34,19.57,1125380.0,21852652.0,633716487.5999999,2090267200.0
sh603895,天永智能,2020-11-17,19.4,19.7,19.3,19.59,19.34,1386080.0,27064135.0,641908272.6,2117287200.0
sh603895,天永智能,2020-11-18,19.59,19.78,19.42,19.68,19.59,931240.0,18209648.0,644857315.2,2127014400.0
sh603895,天永智能,2020-11-19,19.56,19.61,19.45,19.51,19.68,606140.0,11836112.0,639286901.4,2108640800.0
sh603895,天永智能,2020-11-20,19.54,19.72,19.4,19.63,19.51,825000.0,16163459.0,643218958.1999999,2121610400.0
sh603895,天永智能,2020-11-23,19.62,19.62,18.76,18.79,19.63,2763840.0,52212883.0,615694560.6,2030823200.0
sh603895,天永智能,2020-11-24,18.2,18.82,18.2,18.54,18.79,1341560.0,24881321.0,607502775.6,2003803200.0
sh603895,天永智能,2020-11-25,18.43,18.78,18.42,18.65,18.54,750200.0,13992341.0,611107161.0,2015692000.0
sh603895,天永智能,2020-11-26,18.62,19.18,18.62,18.93,18.65,1506580.0,28500635.0,620281960.2,2045954400.0
sh603895,天永智能,2020-11-27,18.92,19.02,18.61,18.67,18.93,1061720.0,19916552.0,611762503.8,2017853600.0
sh603895,天永智能,2020-11-30,18.8,18.88,18.55,18.65,18.67,841200.0,15723960.0,611107161.0,2015692000.0
sh603895,天永智能,2020-12-01,18.66,18.84,18.63,18.75,18.65,756200.0,14154803.0,614383875.0,2026500000.0
sh603895,天永智能,2020-12-02,18.8,19.44,18.55,19.34,18.75,1871380.0,35594857.0,633716487.5999999,2090267200.0
sh603895,天永智能,2020-12-03,19.11,19.27,18.93,18.96,19.34,802020.0,15322330.0,621264974.4,2049196800.0
sh603895,天永智能,2020-12-04,18.96,19.31,18.81,19.31,18.96,1088883.0,20787422.0,632733473.4,2087024800.0
sh603895,天永智能,2020-12-07,19.3,19.32,18.97,18.97,19.31,492300.0,9424195.0,621592645.8000001,2050277600.0
sh603895,天永智能,2020-12-08,19.09,20.1,19.01,19.68,18.97,1987341.0,38745144.0,644857315.2,2127014400.0
sh603895,天永智能,2020-12-09,19.55,19.59,19.15,19.25,19.68,1064520.0,20585206.0,630767445.0,2080540000.0
sh603895,天永智能,2020-12-10,19.15,19.92,19.04,19.51,19.25,1443440.0,28161151.0,639286901.4,2108640800.0
sh603895,天永智能,2020-12-11,19.51,19.51,18.82,18.9,19.51,972800.0,18527900.0,619298946.0,2042712000.0
sh603895,天永智能,2020-12-14,18.88,19.16,18.7,18.83,18.9,641180.0,12101783.0,617005246.1999999,2035146400.0
sh603895,天永智能,2020-12-15,18.8,18.96,18.64,18.88,18.83,522420.0,9853710.0,618643603.2,2040550400.0
sh603895,天永智能,2020-12-16,18.85,18.86,18.3,18.36,18.88,959401.0,17734286.0,601604690.4000001,1984348800.0
sh603895,天永智能,2020-12-17,18.38,18.49,17.85,18.21,18.36,874662.0,15867513.0,596689619.4,1968136800.0
sh603895,天永智能,2020-12-18,18.2,18.59,18.17,18.47,18.21,754180.0,13848281.0,605209075.8,1996237600.0
sh603895,天永智能,2020-12-21,18.46,18.48,18.29,18.39,18.47,630500.0,11578549.0,602587704.6,1987591200.0
sh603895,天永智能,2020-12-22,18.2,18.37,17.96,18.0,18.39,766462.0,13850209.0,589808520.0,1945440000.0
sh603895,天永智能,2020-12-23,18.02,18.66,17.88,18.35,18.0,1133000.0,20576294.0,601277019.0,1983268000.0
sh603895,天永智能,2020-12-24,18.39,18.43,17.92,18.0,18.35,601700.0,10881535.0,589808520.0,1945440000.0
sh603895,天永智能,2020-12-25,17.76,18.21,17.41,18.21,18.0,561700.0,10080884.0,596689619.4,1968136800.0
sh603895,天永智能,2020-12-28,18.2,18.2,17.37,17.55,18.21,1035600.0,18414127.0,575063307.0,1896804000.0
sh603895,天永智能,2020-12-29,17.0,17.49,16.78,17.24,17.55,747140.0,12788335.0,564905493.6,1863299200.0
sh603895,天永智能,2020-12-30,17.26,17.8,17.07,17.08,17.24,879780.0,15367867.0,559662751.1999999,1846006400.0
sh603895,天永智能,2020-12-31,17.0,17.17,16.6,16.98,17.08,688880.0,11663550.0,556386037.2,1835198400.0
sh603895,天永智能,2021-01-04,16.98,17.16,16.82,17.0,16.98,557140.0,9463135.0,557041380.0,1837360000.0
sh603895,天永智能,2021-01-05,17.04,17.21,16.8,17.15,17.0,848560.0,14392842.0,561956451.0,1853572000.0
sh603895,天永智能,2021-01-06,17.12,18.05,17.1,17.29,17.15,1236537.0,21481778.0,566543850.6,1868703200.0
sh603895,天永智能,2021-01-07,17.11,17.24,16.1,16.15,17.29,1076600.0,17783014.0,529189311.0,1745492000.0
sh603895,天永智能,2021-01-08,16.1,16.26,15.71,15.99,16.15,686060.0,10946446.0,523946568.6,1728199200.0000002
sh603895,天永智能,2021-01-11,16.08,16.08,14.75,14.88,15.99,1405800.0,21524059.0,487575043.2,1608230400.0
sh603895,天永智能,2021-01-12,14.88,15.05,14.6,14.76,14.88,476400.0,7067051.0,483642986.4,1595260799.9999998
sh603895,天永智能,2021-01-13,14.81,14.82,13.9,14.35,14.76,1463740.0,20750008.0,470208459.0,1550948000.0
sh603895,天永智能,2021-01-14,14.3,15.5,14.01,14.68,14.35,1440960.0,21096732.0,481021615.2,1586614400.0
sh603895,天永智能,2021-01-15,14.54,15.04,14.4,14.91,14.68,1011720.0,14972500.0,488558057.4,1611472800.0
sh603895,天永智能,2021-01-18,14.95,15.25,14.9,14.94,14.91,634420.0,9529918.0,489541071.6,1614715200.0
sh603895,天永智能,2021-01-19,14.95,15.36,14.77,15.2,14.94,778660.0,11795542.0,498060528.0,1642816000.0
sh603895,天永智能,2021-01-20,15.2,15.32,15.0,15.16,15.2,500101.0,7592557.0,496749842.4,1638492800.0
sh603895,天永智能,2021-01-21,15.1,16.36,15.05,15.9,15.16,2018360.0,32115562.0,520997526.0,1718472000.0
sh603895,天永智能,2021-01-22,15.86,16.88,15.4,16.23,15.9,1511100.0,24175927.0,1754138400.0,1754138400.0
sh603895,天永智能,2021-01-25,16.01,16.2,15.26,15.35,16.23,866620.0,13498786.0,1659028000.0,1659028000.0
sh603895,天永智能,2021-01-26,15.6,15.6,14.88,14.88,15.35,505680.0,7639217.0,1608230400.0,1608230400.0
sh603895,天永智能,2021-01-27,15.33,15.33,14.8,14.97,14.88,441600.0,6621296.0,1617957600.0,1617957600.0
sh603895,天永智能,2021-01-28,15.0,15.05,14.7,15.0,14.97,419000.0,6224717.0,1621200000.0,1621200000.0
sh603895,天永智能,2021-01-29,14.94,15.16,14.5,14.55,15.0,351000.0,5156264.0,1572564000.0,1572564000.0
sh603895,天永智能,2021-02-01,14.87,14.87,14.43,14.57,14.55,352900.0,5139227.0,1574725600.0,1574725600.0
sh603895,天永智能,2021-02-02,14.5,14.85,14.38,14.7,14.57,619980.0,9039775.0,1588776000.0,1588776000.0
sh603895,天永智能,2021-02-03,14.6,14.62,14.36,14.59,14.7,481880.0,6977355.0,1576887200.0,1576887200.0
sh603895,天永智能,2021-02-04,14.47,14.63,13.99,14.11,14.59,743580.0,10622091.0,1525008800.0,1525008800.0
sh603895,天永智能,2021-02-05,14.11,14.27,13.91,13.93,14.11,382400.0,5393663.0,1505554400.0,1505554400.0
sh603895,天永智能,2021-02-08,13.92,14.04,13.66,13.98,13.93,579100.0,8008000.0,1510958400.0,1510958400.0
sh603895,天永智能,2021-02-09,13.98,15.33,13.9,14.43,13.98,876300.0,12705650.0,1559594400.0,1559594400.0
sh603895,天永智能,2021-02-10,14.43,14.6,14.3,14.46,14.43,314840.0,4542867.0,1562836800.0,1562836800.0
sh603895,天永智能,2021-02-18,14.46,14.97,14.46,14.93,14.46,725720.0,10722817.0,1613634400.0,1613634400.0
sh603895,天永智能,2021-02-19,14.93,15.55,14.8,15.44,14.93,505020.0,7650637.0,1668755200.0,1668755200.0
sh603895,天永智能,2021-02-22,15.39,16.26,15.37,15.55,15.44,1093960.0,17191748.0,1680644000.0,1680644000.0
sh603895,天永智能,2021-02-23,15.55,16.0,15.16,15.79,15.55,955560.0,14856586.0,1706583200.0,1706583200.0
sh603895,天永智能,2021-02-24,15.72,15.8,15.53,15.7,15.79,521520.0,8164386.0,1696856000.0,1696856000.0
sh603895,天永智能,2021-02-25,15.6,15.82,15.38,15.5,15.7,499040.0,7790837.0,1675240000.0,1675240000.0
sh603895,天永智能,2021-02-26,15.5,16.42,15.28,16.06,15.5,1122740.0,17935681.0,1735764800.0,1735764800.0
sh603895,天永智能,2021-03-01,15.95,16.8,15.68,16.33,16.06,1706600.0,27509188.0,1764946400.0000002,1764946400.0000002
sh603895,天永智能,2021-03-02,16.36,16.51,15.9,16.15,16.33,760540.0,12282684.0,1745492000.0,1745492000.0
sh603895,天永智能,2021-03-03,16.03,16.82,15.94,16.2,16.15,964780.0,15808119.0,1750896000.0,1750896000.0
sh603895,天永智能,2021-03-04,16.3,16.3,15.94,16.1,16.2,509040.0,8203781.0,1740088000.0,1740088000.0
sh603895,天永智能,2021-03-05,16.04,16.33,16.0,16.21,16.1,339200.0,5490127.0,1751976800.0,1751976800.0
sh603895,天永智能,2021-03-08,16.15,16.47,16.15,16.28,16.21,490160.0,7957404.0,1759542400.0,1759542400.0
sh603895,天永智能,2021-03-09,16.2,16.2,15.55,15.7,16.28,655100.0,10305905.0,1696856000.0,1696856000.0
sh603895,天永智能,2021-03-10,15.8,16.15,15.29,15.83,15.7,947120.0,14854453.0,1710906400.0000002,1710906400.0000002
sh603895,天永智能,2021-03-11,15.71,16.3,15.47,16.05,15.83,685100.0,10922384.0,1734684000.0,1734684000.0
sh603895,天永智能,2021-03-12,16.1,16.1,15.71,15.78,16.05,438460.0,6947167.0,1705502400.0,1705502400.0
sh603895,天永智能,2021-03-15,15.89,15.96,15.66,15.89,15.78,440200.0,6969789.0,1717391200.0,1717391200.0
sh603895,天永智能,2021-03-16,15.89,16.24,15.78,16.15,15.89,552060.0,8902906.0,1745492000.0,1745492000.0
sh603895,天永智能,2021-03-17,16.1,16.25,15.95,16.23,16.15,525620.0,8467990.0,1754138400.0,1754138400.0
sh603895,天永智能,2021-03-18,16.22,17.0,16.0,16.58,16.23,1698180.0,27938193.0,1791966400.0000002,1791966400.0000002
sh603895,天永智能,2021-03-19,16.57,16.88,16.25,16.79,16.58,1337840.0,22088994.0,1814663200.0,1814663200.0
sh603895,天永智能,2021-03-22,16.77,16.77,16.26,16.49,16.79,881940.0,14520407.0,1782239200.0000002,1782239200.0000002
sh603895,天永智能,2021-03-23,16.49,16.49,16.21,16.29,16.49,381980.0,6223569.0,1760623200.0,1760623200.0
sh603895,天永智能,2021-03-24,16.13,16.39,16.01,16.11,16.29,429700.0,6947642.0,1741168800.0,1741168800.0
sh603895,天永智能,2021-03-25,16.11,16.58,15.9,16.53,16.11,956000.0,15547344.0,1786562400.0,1786562400.0
sh603895,天永智能,2021-03-26,16.88,17.38,16.43,16.59,16.53,1345100.0,22655084.0,1793047200.0,1793047200.0
sh603895,天永智能,2021-03-29,16.46,16.48,16.18,16.27,16.59,481218.0,7857178.0,1758461600.0,1758461600.0
sh603895,天永智能,2021-03-30,16.26,16.26,15.94,15.94,16.27,547720.0,8790459.0,1722795200.0,1722795200.0
sh603895,天永智能,2021-03-31,15.94,16.09,15.49,15.96,15.94,787100.0,12373862.0,1724956800.0,1724956800.0
sh603895,天永智能,2021-04-01,15.9,16.1,15.65,15.99,15.96,603400.0,9602787.0,1728199200.0000002,1728199200.0000002
sh603895,天永智能,2021-04-02,15.97,16.39,15.92,16.24,15.99,558440.0,9036736.0,1755219200.0000002,1755219200.0000002
sh603895,天永智能,2021-04-06,16.24,16.39,16.22,16.22,16.24,262440.0,4264093.0,1753057600.0,1753057600.0
sh603895,天永智能,2021-04-07,16.1,16.53,16.05,16.42,16.22,584520.0,9539236.0,1774673599.9999998,1774673599.9999998
sh603895,天永智能,2021-04-08,16.35,16.6,16.25,16.29,16.42,588820.0,9652991.0,1760623200.0,1760623200.0
sh603895,天永智能,2021-04-09,16.29,16.47,16.17,16.23,16.29,577080.0,9436605.0,1754138400.0,1754138400.0
sh603895,天永智能,2021-04-12,16.23,16.26,15.76,15.8,16.23,444620.0,7082265.0,1707664000.0,1707664000.0
sh603895,天永智能,2021-04-13,15.97,15.97,15.68,15.81,15.8,191020.0,3013187.0,1708744800.0,1708744800.0
sh603895,天永智能,2021-04-14,15.5,15.99,15.5,15.85,15.81,147760.0,2339981.0,1713068000.0,1713068000.0
sh603895,天永智能,2021-04-15,15.85,16.16,15.72,16.05,15.85,504220.0,8082617.0,1734684000.0,1734684000.0
sh603895,天永智能,2021-04-16,16.09,16.38,16.04,16.23,16.05,343640.0,5590335.0,1754138400.0,1754138400.0
sh603895,天永智能,2021-04-19,16.18,16.47,16.18,16.36,16.23,357980.0,5861973.0,1768188800.0,1768188800.0
sh603895,天永智能,2021-04-20,16.3,16.53,16.26,16.36,16.36,346980.0,5699185.0,1768188800.0,1768188800.0
sh603895,天永智能,2021-04-21,16.27,16.41,16.1,16.15,16.36,297418.0,4836543.0,1745492000.0,1745492000.0
sh603895,天永智能,2021-04-22,16.1,16.35,16.1,16.15,16.15,249300.0,4034189.0,1745492000.0,1745492000.0
sh603895,天永智能,2021-04-23,16.16,16.27,15.68,15.8,16.15,522680.0,8293259.0,1707664000.0,1707664000.0
sh603895,天永智能,2021-04-26,15.8,16.01,15.71,15.86,15.8,224400.0,3567235.0,1714148800.0,1714148800.0
sh603895,天永智能,2021-04-27,16.0,16.08,15.5,15.55,15.86,442078.0,6917949.0,1680644000.0,1680644000.0
sh603895,天永智能,2021-04-28,15.55,15.65,15.15,15.19,15.55,459140.0,6999827.0,1641735200.0,1641735200.0
sh603895,天永智能,2021-04-29,15.13,15.73,15.1,15.72,15.19,655378.0,10102928.0,1699017600.0,1699017600.0
sh603895,天永智能,2021-04-30,15.7,15.85,15.36,15.75,15.72,404087.0,6300997.0,1702260000.0,1702260000.0
sh603895,天永智能,2021-05-06,15.69,16.85,15.54,16.67,15.75,1545420.0,25322214.0,1801693600.0,1801693600.0
sh603895,天永智能,2021-05-07,16.66,16.76,16.39,16.48,16.67,634618.0,10497681.0,1781158400.0,1781158400.0
sh603895,天永智能,2021-05-10,16.6,16.98,16.35,16.76,16.48,897760.0,14954770.0,1811420800.0,1811420800.0
sh603895,天永智能,2021-05-11,16.7,16.91,16.5,16.76,16.76,762978.0,12740355.0,1811420800.0,1811420800.0
sh603895,天永智能,2021-05-12,16.58,16.96,16.58,16.79,16.76,777738.0,13074522.0,1814663200.0,1814663200.0
sh603895,天永智能,2021-05-13,16.68,17.13,16.5,16.8,16.79,1003800.0,16848591.0,1815744000.0,1815744000.0
sh603895,天永智能,2021-05-14,16.78,17.02,16.65,16.97,16.8,801400.0,13546916.0,1834117600.0,1834117600.0
sh603895,天永智能,2021-05-17,17.05,17.4,16.6,17.4,16.97,1456558.0,24910162.0,1880592000.0,1880592000.0
sh603895,天永智能,2021-05-18,17.4,17.98,17.21,17.98,17.4,1639860.0,28923797.0,1943278400.0,1943278400.0
sh603895,天永智能,2021-05-19,17.96,17.98,17.59,17.8,17.98,978900.0,17403349.0,1923824000.0,1923824000.0
sh603895,天永智能,2021-05-20,17.88,17.97,17.62,17.84,17.8,776000.0,13811932.0,1928147200.0,1928147200.0
sh603895,天永智能,2021-05-21,17.48,18.33,17.48,17.9,17.84,1044640.0,18749273.0,1934632000.0,1934632000.0
sh603895,天永智能,2021-05-24,17.87,17.87,17.62,17.65,17.9,397720.0,7048442.0,1907612000.0,1907612000.0
sh603895,天永智能,2021-05-25,17.75,17.82,17.3,17.61,17.65,1043760.0,18320921.0,1903288800.0,1903288800.0
sh603895,天永智能,2021-05-26,17.61,17.7,17.45,17.48,17.61,461080.0,8096065.0,1889238400.0,1889238400.0
sh603895,天永智能,2021-05-27,17.56,18.03,17.4,18.03,17.48,1139205.0,20240406.0,1948682400.0,1948682400.0
sh603895,天永智能,2021-05-28,18.02,18.98,17.88,18.41,18.03,1788873.0,32848833.0,1989752800.0,1989752800.0
sh603895,天永智能,2021-05-31,18.5,18.89,18.06,18.33,18.41,1304767.0,24032134.0,1981106400.0,1981106400.0
sh603895,天永智能,2021-06-01,18.12,18.35,18.03,18.17,18.33,583175.0,10562277.0,1963813600.0,1963813600.0
sh603895,天永智能,2021-06-02,18.33,18.63,18.07,18.19,18.17,1117520.0,20493872.0,1965975200.0,1965975200.0
sh603895,天永智能,2021-06-03,18.23,18.62,18.05,18.26,18.19,601300.0,10998240.0,1973540800.0,1973540800.0
sh603895,天永智能,2021-06-04,18.09,18.54,18.03,18.39,18.26,515180.0,9419084.0,1987591200.0,1987591200.0
sh603895,天永智能,2021-06-07,18.42,19.1,18.2,18.58,18.39,1515840.0,28096775.0,2008126400.0,2008126400.0
sh603895,天永智能,2021-06-08,18.55,18.88,18.32,18.59,18.58,985880.0,18314852.0,2009207200.0,2009207200.0
sh603895,天永智能,2021-06-09,18.58,18.6,18.36,18.52,18.59,475880.0,8793325.0,2001641600.0,2001641600.0
sh603895,天永智能,2021-06-10,18.31,18.73,18.26,18.47,18.52,996060.0,18384641.0,1996237600.0,1996237600.0
sh603895,天永智能,2021-06-11,18.59,18.59,17.52,18.03,18.47,760680.0,13818739.0,1948682400.0,1948682400.0
sh603895,天永智能,2021-06-15,17.76,18.0,17.32,17.9,18.03,1032440.0,18274721.0,1934632000.0,1934632000.0
sh603895,天永智能,2021-06-16,17.91,18.08,17.56,17.71,17.9,677823.0,12083388.0,1914096800.0,1914096800.0
sh603895,天永智能,2021-06-17,17.61,18.08,17.52,17.85,17.71,668780.0,11878489.0,1929228000.0,1929228000.0
sh603895,天永智能,2021-06-18,17.83,18.39,17.68,18.33,17.85,1056980.0,19120738.0,1981106400.0,1981106400.0
sh603895,天永智能,2021-06-21,18.5,18.96,18.35,18.88,18.33,1246272.0,23339131.0,2040550400.0,2040550400.0
sh603895,天永智能,2021-06-22,19.24,19.96,19.0,19.23,18.88,2216360.0,42902994.0,2078378400.0,2078378400.0
sh603895,天永智能,2021-06-23,19.09,19.55,18.88,19.12,19.23,1574600.0,30077576.0,2066489600.0,2066489600.0
sh603895,天永智能,2021-06-24,18.89,19.4,18.8,19.16,19.12,924580.0,17644341.0,2070812800.0,2070812800.0
sh603895,天永智能,2021-06-25,19.18,19.26,18.4,18.53,19.16,1133120.0,21137851.0,2002722400.0,2002722400.0
sh603895,天永智能,2021-06-28,18.78,18.88,18.23,18.47,18.53,1045560.0,19426938.0,1996237600.0,1996237600.0
sh603895,天永智能,2021-06-29,18.6,18.76,18.11,18.25,18.47,422920.0,7798902.0,1972460000.0,1972460000.0
sh603895,天永智能,2021-06-30,18.25,18.5,17.98,18.0,18.25,687260.0,12483359.0,1945440000.0,1945440000.0
sh603895,天永智能,2021-07-01,18.16,18.16,17.75,17.88,18.0,277900.0,4984704.0,1932470400.0,1932470400.0
sh603895,天永智能,2021-07-02,17.93,19.1,17.55,18.6,17.88,1157880.0,21271743.0,2010288000.0,2010288000.0
sh603895,天永智能,2021-07-05,19.2,19.48,18.27,18.59,18.6,1295900.0,24425001.0,2009207200.0,2009207200.0
sh603895,天永智能,2021-07-06,18.69,18.7,18.01,18.18,18.59,608840.0,11111879.0,1964894400.0,1964894400.0
sh603895,XD天永智,2021-07-07,18.0,18.16,17.82,17.91,18.16,360785.0,6463248.0,1935712800.0,1935712800.0
sh603895,天永智能,2021-07-08,17.91,18.17,17.72,17.74,17.91,289560.0,5152742.0,1917339200.0,1917339200.0
sh603895,天永智能,2021-07-09,17.58,18.06,17.51,17.88,17.74,410500.0,7305970.0,1932470400.0,1932470400.0
sh603895,天永智能,2021-07-12,17.91,18.08,17.6,17.9,17.88,371420.0,6647611.0,1934632000.0,1934632000.0
sh603895,天永智能,2021-07-13,18.04,18.04,17.65,17.82,17.9,295900.0,5253001.0,1925985600.0,1925985600.0
sh603895,天永智能,2021-07-14,17.7,17.93,17.61,17.61,17.82,382100.0,6765397.0,1903288800.0,1903288800.0
sh603895,天永智能,2021-07-15,17.85,17.85,16.86,16.86,17.61,881501.0,15082257.0,1822228800.0,1822228800.0
sh603895,天永智能,2021-07-16,16.99,16.99,16.21,16.26,16.86,1084800.0,17791150.0,1757380799.9999998,1757380799.9999998
sh603895,天永智能,2021-07-19,16.24,16.26,15.66,16.0,16.26,1111340.0,17657227.0,1729280000.0,1729280000.0
sh603895,天永智能,2021-07-20,16.0,16.4,15.97,16.32,16.0,795500.0,12896074.0,1763865600.0,1763865600.0
sh603895,天永智能,2021-07-21,16.28,16.28,15.68,16.0,16.32,1552700.0,24821761.0,1729280000.0,1729280000.0
sh603895,天永智能,2021-07-22,16.0,16.0,15.44,15.55,16.0,1791887.0,27983541.0,1680644000.0,1680644000.0
sh603895,天永智能,2021-07-23,15.51,16.0,15.33,15.87,15.55,1656102.0,25913727.0,1715229600.0,1715229600.0
sh603895,天永智能,2021-07-26,15.81,15.81,15.09,15.21,15.87,1037540.0,15924444.0,1643896800.0,1643896800.0
sh603895,天永智能,2021-07-27,15.11,15.36,15.05,15.07,15.21,411540.0,6250403.0,1628765600.0,1628765600.0
sh603895,天永智能,2021-07-28,15.05,15.05,14.53,14.78,15.07,649493.0,9587922.0,1597422400.0,1597422400.0
sh603895,天永智能,2021-07-29,14.83,15.18,14.8,15.12,14.78,499340.0,7514629.0,1634169600.0,1634169600.0
sh603895,天永智能,2021-07-30,15.0,15.47,15.0,15.4,15.12,611720.0,9385972.0,1664432000.0,1664432000.0
sh603895,天永智能,2021-08-02,15.7,15.8,15.2,15.72,15.4,545547.0,8522526.0,1699017600.0,1699017600.0
sh603895,天永智能,2021-08-03,15.79,16.16,15.73,15.75,15.72,1087060.0,17312644.0,1702260000.0,1702260000.0
sh603895,天永智能,2021-08-04,15.83,16.18,15.74,15.99,15.75,744773.0,11885296.0,1728199200.0000002,1728199200.0000002
sh603895,天永智能,2021-08-05,16.14,16.14,15.55,15.72,15.99,693293.0,10933858.0,1699017600.0,1699017600.0
sh603895,天永智能,2021-08-06,15.72,15.8,15.52,15.76,15.72,630333.0,9876894.0,1703340799.9999998,1703340799.9999998
sh603895,天永智能,2021-08-09,16.0,16.38,15.98,16.36,15.76,1131900.0,18403903.0,1768188800.0,1768188800.0
sh603895,天永智能,2021-08-10,16.37,16.53,16.25,16.4,16.36,897240.0,14718196.0,1772512000.0,1772512000.0
sh603895,天永智能,2021-08-11,16.42,17.98,16.4,17.09,16.4,2336583.0,39915994.0,1847087200.0,1847087200.0
sh603895,天永智能,2021-08-12,17.09,17.55,16.83,17.22,17.09,1740444.0,29879914.0,1861137600.0,1861137600.0
sh603895,天永智能,2021-08-13,17.74,18.94,17.19,18.94,17.22,2614376.0,48114574.0,2047035200.0,2047035200.0
sh603895,天永智能,2021-08-16,20.0,20.83,18.95,20.83,18.94,2306264.0,47489398.0,2251306400.0,2251306400.0
sh603895,天永智能,2021-08-17,20.66,20.71,18.75,18.75,20.83,6315576.0,121414216.0,2026500000.0,2026500000.0
sh603895,天永智能,2021-08-18,17.55,18.17,17.55,17.77,18.75,4293790.0,76516460.0,1920581600.0,1920581600.0
sh603895,天永智能,2021-08-19,16.64,17.59,16.64,17.3,17.77,2384010.0,41264772.0,1869784000.0,1869784000.0
sh603895,天永智能,2021-08-20,17.15,17.38,16.71,16.91,17.3,1666155.0,28281792.0,1827632800.0,1827632800.0
sh603895,天永智能,2021-08-23,17.08,18.11,17.04,17.97,16.91,2673484.0,47383513.0,1942197600.0,1942197600.0
sh603895,天永智能,2021-08-24,18.3,18.48,17.79,17.96,17.97,1992256.0,36022003.0,1941116800.0,1941116800.0
sh603895,天永智能,2021-08-25,18.0,18.14,17.66,17.98,17.96,1314064.0,23599619.0,1943278400.0,1943278400.0
sh603895,天永智能,2021-08-26,18.33,18.33,17.81,17.81,17.98,1292000.0,23286852.0,1924904800.0,1924904800.0
sh603895,天永智能,2021-08-27,18.16,18.16,17.45,17.78,17.81,1247360.0,22060829.0,1921662400.0,1921662400.0
sh603895,天永智能,2021-08-30,17.75,18.25,17.7,17.76,17.78,1371984.0,24579492.0,1919500800.0,1919500800.0
sh603895,天永智能,2021-08-31,17.69,18.45,17.3,17.99,17.76,2002040.0,35641534.0,1944359200.0,1944359200.0
sh603895,天永智能,2021-09-01,17.95,17.99,16.96,17.0,17.99,1700470.0,29439390.0,1837360000.0,1837360000.0
sh603895,天永智能,2021-09-02,17.0,17.4,16.83,17.32,17.0,956315.0,16421786.0,1871945600.0,1871945600.0
sh603895,天永智能,2021-09-03,17.32,17.65,17.21,17.3,17.32,725800.0,12634306.0,1869784000.0,1869784000.0
sh603895,天永智能,2021-09-06,17.3,17.53,17.02,17.53,17.3,1238900.0,21388180.0,1894642400.0,1894642400.0
sh603895,天永智能,2021-09-07,17.85,17.88,17.36,17.77,17.53,1005818.0,17774607.0,1920581600.0,1920581600.0
sh603895,天永智能,2021-09-08,17.72,18.1,17.51,18.04,17.77,1122302.0,20154998.0,1949763200.0,1949763200.0
sh603895,天永智能,2021-09-09,18.1,18.35,17.8,18.07,18.04,868080.0,15686255.0,1953005600.0,1953005600.0
sh603895,天永智能,2021-09-10,18.07,18.25,17.82,18.23,18.07,1018620.0,18395383.0,1970298400.0,1970298400.0
sh603895,天永智能,2021-09-13,18.23,18.45,17.74,17.83,18.23,1139500.0,20467783.0,1927066400.0,1927066400.0
sh603895,天永智能,2021-09-14,17.83,18.24,17.7,17.8,17.83,663260.0,11908545.0,1923824000.0,1923824000.0
sh603895,天永智能,2021-09-15,17.7,18.01,17.45,17.87,17.8,714680.0,12652381.0,1931389600.0,1931389600.0
sh603895,天永智能,2021-09-16,17.87,19.12,17.87,18.18,17.87,1820600.0,33641483.0,1964894400.0,1964894400.0
sh603895,天永智能,2021-09-17,18.32,18.32,17.16,17.46,18.18,1072900.0,18917750.0,1887076800.0,1887076800.0
sh603895,天永智能,2021-09-22,17.11,17.43,16.85,17.05,17.46,652260.0,11155535.0,1842764000.0,1842764000.0
sh603895,天永智能,2021-09-23,17.25,17.59,17.07,17.21,17.05,571700.0,9880941.0,1860056800.0,1860056800.0
sh603895,天永智能,2021-09-24,17.1,17.21,16.68,16.88,17.21,725423.0,12224006.0,1824390400.0,1824390400.0
sh603895,天永智能,2021-09-27,17.15,17.23,15.9,16.05,16.88,825200.0,13576917.0,1734684000.0,1734684000.0
sh603895,天永智能,2021-09-28,16.05,16.43,15.88,16.15,16.05,441760.0,7099102.0,1745492000.0,1745492000.0
sh603895,天永智能,2021-09-29,15.96,16.87,15.82,16.44,16.15,1223840.0,19862792.0,1776835200.0,1776835200.0
sh603895,天永智能,2021-09-30,16.44,16.66,16.04,16.21,16.44,601194.0,9742338.0,1751976800.0,1751976800.0
sh603895,天永智能,2021-10-08,16.4,16.54,16.2,16.45,16.21,419556.0,6855639.0,1777916000.0,1777916000.0
sh603895,天永智能,2021-10-11,16.5,16.5,16.16,16.35,16.45,304440.0,4956263.0,1767108000.0,1767108000.0
sh603895,天永智能,2021-10-12,16.35,16.38,15.95,16.19,16.35,320500.0,5180325.0,1749815200.0,1749815200.0
sh603895,天永智能,2021-10-13,16.13,16.35,16.05,16.26,16.19,204000.0,3308551.0,1757380799.9999998,1757380799.9999998
sh603895,天永智能,2021-10-14,16.2,16.75,16.12,16.51,16.26,315000.0,5180406.0,1784400799.9999998,1784400799.9999998
sh603895,天永智能,2021-10-15,16.6,16.6,16.31,16.32,16.51,462940.0,7588834.0,1763865600.0,1763865600.0
sh603895,天永智能,2021-10-18,16.47,16.47,16.04,16.38,16.32,199740.0,3242845.0,1770350400.0,1770350400.0
sh603895,天永智能,2021-10-19,16.38,16.56,16.21,16.39,16.38,323200.0,5320213.0,1771431200.0,1771431200.0
sh603895,天永智能,2021-10-20,16.32,16.41,16.16,16.2,16.39,350700.0,5709085.0,1750896000.0,1750896000.0
sh603895,天永智能,2021-10-21,16.34,16.34,15.83,15.94,16.2,287700.0,4609338.0,1722795200.0,1722795200.0
sh603895,天永智能,2021-10-22,15.94,15.94,15.64,15.66,15.94,318500.0,5018088.0,1692532800.0,1692532800.0
sh603895,天永智能,2021-10-25,15.66,15.91,15.45,15.87,15.66,193000.0,3036149.0,1715229600.0,1715229600.0
sh603895,天永智能,2021-10-26,15.87,16.02,15.86,15.89,15.87,163900.0,2611674.0,1717391200.0,1717391200.0
sh603895,天永智能,2021-10-27,15.95,15.96,15.37,15.44,15.89,325300.0,5060137.0,1668755200.0,1668755200.0
sh603895,天永智能,2021-10-28,15.44,15.45,15.2,15.21,15.44,209180.0,3191279.0,1643896800.0,1643896800.0
sh603895,天永智能,2021-10-29,15.44,15.8,15.0,15.73,15.21,364000.0,5609625.0,1700098400.0,1700098400.0
sh603895,天永智能,2021-11-01,15.74,16.08,15.34,15.96,15.73,640242.0,10149896.0,1724956800.0,1724956800.0
sh603895,天永智能,2021-11-02,16.19,16.55,15.46,16.12,15.96,1039100.0,16668449.0,1742249600.0,1742249600.0
sh603895,天永智能,2021-11-03,15.87,16.3,15.87,16.05,16.12,530600.0,8502991.0,1734684000.0,1734684000.0
sh603895,天永智能,2021-11-04,16.14,16.26,15.95,16.18,16.05,304600.0,4910198.0,1748734400.0,1748734400.0
sh603895,天永智能,2021-11-05,16.2,16.5,16.1,16.35,16.18,498500.0,8157184.0,1767108000.0,1767108000.0
sh603895,天永智能,2021-11-08,16.36,16.68,16.33,16.6,16.35,485700.0,8029747.0,1794128000.0,1794128000.0
sh603895,天永智能,2021-11-09,16.52,16.78,16.51,16.76,16.6,476602.0,7963793.0,1811420800.0,1811420800.0
sh603895,天永智能,2021-11-10,16.75,17.06,16.56,17.0,16.76,538544.0,9050829.0,1837360000.0,1837360000.0
sh603895,天永智能,2021-11-11,17.08,17.78,16.95,17.62,17.0,990740.0,17363606.0,1904369600.0,1904369600.0
sh603895,天永智能,2021-11-12,17.71,18.77,17.6,18.59,17.62,1935983.0,35508978.0,2009207200.0,2009207200.0
sh603895,天永智能,2021-11-15,18.66,19.36,18.61,18.77,18.59,2132440.0,40100441.0,2028661600.0,2028661600.0
sh603895,天永智能,2021-11-16,18.9,18.99,18.41,18.75,18.77,1259879.0,23590828.0,2026500000.0,2026500000.0
sh603895,天永智能,2021-11-17,18.77,19.25,18.73,18.81,18.75,767780.0,14552437.0,2032984800.0,2032984800.0
sh603895,天永智能,2021-11-18,19.08,20.3,18.81,18.86,18.81,2549500.0,49749638.0,2038388800.0,2038388800.0
sh603895,天永智能,2021-11-19,18.82,20.75,18.82,20.75,18.86,4306049.0,87086830.0,2242660000.0,2242660000.0
sh603895,天永智能,2021-11-22,20.55,22.83,20.5,22.83,20.75,6587142.0,144305626.0,2467466400.0,2467466400.0
sh603895,天永智能,2021-11-23,24.0,25.11,24.0,25.11,22.83,2101600.0,52132743.0,2713888800.0,2713888800.0
sh603895,天永智能,2021-11-24,27.62,27.62,25.13,27.62,25.11,2650281.0,72924597.0,2985169600.0,2985169600.0
sh603895,天永智能,2021-11-25,28.0,28.5,24.86,24.86,27.62,12426121.0,320483142.0,2686868800.0,2686868800.0
sh603895,天永智能,2021-11-26,22.99,23.9,22.5,22.84,24.86,9419077.0,217759382.0,2468547200.0,2468547200.0
sh603895,天永智能,2021-11-29,22.0,23.11,21.77,22.4,22.84,6098091.0,137791451.0,2420992000.0,2420992000.0
sh603895,天永智能,2021-11-30,22.87,23.35,22.4,22.7,22.4,5619334.0,128522727.0,2453416000.0,2453416000.0
sh603895,天永智能,2021-12-01,22.56,23.73,22.22,23.45,22.7,6339089.0,147280394.0,2534476000.0,2534476000.0
sh603895,天永智能,2021-12-02,23.46,23.59,22.3,22.56,23.45,4376879.0,99577697.0,2438284800.0,2438284800.0
sh603895,天永智能,2021-12-03,22.4,22.75,21.93,21.93,22.56,3208639.0,71083488.0,2370194400.0,2370194400.0
sh603895,天永智能,2021-12-06,22.1,22.1,21.28,21.3,21.93,2499800.0,53916924.0,2302104000.0,2302104000.0
sh603895,天永智能,2021-12-07,21.32,21.57,20.47,20.73,21.3,2139220.0,44525659.0,2240498400.0,2240498400.0
sh603895,天永智能,2021-12-08,20.73,21.29,20.73,21.24,20.73,1470980.0,31058770.0,2295619200.0,2295619200.0
sh603895,天永智能,2021-12-09,21.24,21.65,20.82,21.31,21.24,1643600.0,35121254.0,2303184800.0,2303184800.0
sh603895,天永智能,2021-12-10,21.46,21.71,21.0,21.19,21.31,1525357.0,32531971.0,2290215200.0,2290215200.0
sh603895,天永智能,2021-12-13,21.21,21.4,20.87,21.21,21.19,1420820.0,29972308.0,2292376800.0,2292376800.0
sh603895,天永智能,2021-12-14,21.21,21.68,20.73,21.57,21.21,1909791.0,40757288.0,2331285600.0,2331285600.0
sh603895,天永智能,2021-12-15,21.65,22.75,21.59,22.52,21.57,4495471.0,99635215.0,2433961600.0,2433961600.0
sh603895,天永智能,2021-12-16,22.29,23.2,21.83,21.96,22.52,3498832.0,77737886.0,2373436800.0,2373436800.0
sh603895,天永智能,2021-12-17,21.85,21.85,21.0,21.09,21.96,2339400.0,49986601.0,2279407200.0,2279407200.0
sh603895,天永智能,2021-12-20,21.08,21.59,20.31,20.44,21.09,2567380.0,53641277.0,2209155200.0,2209155200.0
sh603895,天永智能,2021-12-21,20.88,21.78,20.37,21.78,20.44,2519300.0,53512181.0,2353982400.0,2353982400.0
sh603895,天永智能,2021-12-22,22.0,22.0,20.9,21.18,21.78,1930300.0,40716848.0,2289134400.0,2289134400.0
sh603895,天永智能,2021-12-23,21.07,21.5,20.7,21.39,21.18,1635082.0,34540609.0,2311831200.0,2311831200.0
sh603895,天永智能,2021-12-24,21.32,22.37,20.76,22.37,21.39,4615240.0,100978678.0,2417749600.0,2417749600.0
sh603895,天永智能,2021-12-27,22.18,22.6,21.76,22.5,22.37,3025620.0,67071285.0,2431800000.0,2431800000.0
sh603895,天永智能,2021-12-28,22.41,22.5,21.97,22.46,22.5,2321200.0,51554552.0,2427476800.0,2427476800.0
sh603895,天永智能,2021-12-29,22.46,22.48,21.99,22.3,22.46,1732100.0,38361647.0,2410184000.0,2410184000.0
sh603895,天永智能,2021-12-30,22.04,22.29,21.54,21.58,22.3,1615161.0,35293764.0,2332366400.0,2332366400.0
sh603895,天永智能,2021-12-31,21.5,22.03,21.31,22.01,21.58,1870041.0,40737257.0,2378840800.0,2378840800.0
sh603895,天永智能,2022-01-04,22.1,22.29,21.57,22.12,22.01,1321541.0,29019353.0,2390729600.0,2390729600.0
sh603895,天永智能,2022-01-05,22.3,22.3,21.44,21.51,22.12,936240.0,20327293.0,2324800800.0,2324800800.0
sh603895,天永智能,2022-01-06,21.35,22.85,20.8,22.77,21.51,3311528.0,73006628.0,2460981600.0,2460981600.0
sh603895,天永智能,2022-01-07,22.65,24.15,22.5,23.02,22.77,3529751.0,82152348.0,2488001600.0,2488001600.0
sh603895,天永智能,2022-01-10,23.2,25.32,23.2,25.32,23.02,3005840.0,74305244.0,2736585600.0,2736585600.0
sh603895,天永智能,2022-01-11,25.87,27.55,25.5,26.48,25.32,6536542.0,172887209.0,2861958400.0000005,2861958400.0000005
sh603895,天永智能,2022-01-12,26.48,26.78,25.4,26.49,26.48,3776728.0,98568507.0,2863039200.0,2863039200.0
sh603895,天永智能,2022-01-13,26.31,26.64,25.55,26.55,26.49,2683740.0,70078455.0,2869524000.0,2869524000.0
sh603895,天永智能,2022-01-14,26.56,28.0,26.31,26.7,26.55,4015220.0,108880856.0,2885736000.0,2885736000.0
