数据由邢不行整理
股票代码,股票名称,交易日期,开盘价,最高价,最低价,收盘价,前收盘价,成交量,成交额,流通市值,总市值
sh603755,N日辰,2019-08-28,22.61,22.61,22.61,22.61,15.7,28113.0,635635.0,557562600.0,2229655327.41
sh603755,日辰股份,2019-08-29,24.87,24.87,24.87,24.87,22.61,21950.0,545897.0,613294200.0,2452522246.47
sh603755,日辰股份,2019-08-30,27.36,27.36,27.36,27.36,24.87,56940.0,1557878.0,674697600.0,2698070312.16
sh603755,日辰股份,2019-09-02,30.1,30.1,30.1,30.1,27.36,123972.0,3731557.0,742266000.0,2968271798.1
sh603755,日辰股份,2019-09-03,33.11,33.11,33.11,33.11,30.1,420110.0,13909842.0,816492600.0,3265098977.91
sh603755,日辰股份,2019-09-04,36.42,36.42,36.42,36.42,33.11,984292.0,35847915.0,898117200.0,3591510262.02
sh603755,日辰股份,2019-09-05,40.06,40.06,40.06,40.06,36.42,1844674.0,73897640.0,987879600.0,3950464060.86
sh603755,日辰股份,2019-09-06,40.38,43.98,38.69,42.26,40.06,17150337.0,706133169.0,1042131600.0,4167414159.06
sh603755,日辰股份,2019-09-09,43.3,44.71,42.32,44.25,42.26,12729322.0,555227047.0,1091205000.0,4363655384.25
sh603755,日辰股份,2019-09-10,43.2,48.68,42.63,46.36,44.25,13319042.0,598893490.0,1143237600.0,4571730251.16
sh603755,日辰股份,2019-09-11,47.03,47.52,45.54,46.38,46.36,9711931.0,452093463.0,1143730800.0,4573702524.78
sh603755,日辰股份,2019-09-12,46.05,46.98,45.23,45.6,46.38,6143014.0,283526211.0,1124496000.0,4496783853.6
sh603755,日辰股份,2019-09-16,45.8,46.99,45.62,46.32,45.6,6052534.0,279887888.0,1142251200.0,4567785703.92
sh603755,日辰股份,2019-09-17,46.09,47.35,44.9,46.85,46.32,7488021.0,346731819.0,1155321000.0,4620050954.85
sh603755,日辰股份,2019-09-18,47.3,49.85,46.47,48.25,46.85,9482024.0,456360753.0,1189845000.0,4758110108.25
sh603755,日辰股份,2019-09-19,47.2,49.45,46.57,48.89,48.25,7468507.0,355418327.0,1205627400.0,4821222864.09
sh603755,日辰股份,2019-09-20,48.41,49.45,46.78,46.99,48.89,6978564.0,337153831.0,1158773400.0,4633856870.19
sh603755,日辰股份,2019-09-23,46.11,46.58,44.6,46.35,46.99,6636989.0,302235921.0,1142991000.0,4570744114.35
sh603755,日辰股份,2019-09-24,46.0,47.45,45.6,47.28,46.35,7276447.0,338696178.0,1165924800.0,4662454837.68
sh603755,日辰股份,2019-09-25,47.25,50.18,46.55,47.8,47.28,8105661.0,391182970.0,1178748000.0,4713733951.8
sh603755,日辰股份,2019-09-26,47.5,48.88,43.5,44.32,47.8,6854804.0,315218037.0,1092931200.0,4370558341.92
sh603755,日辰股份,2019-09-27,43.55,45.32,43.4,44.4,44.32,3750982.0,167125421.0,1094904000.0,4378447436.4
sh603755,日辰股份,2019-09-30,44.3,45.48,44.22,44.8,44.4,3392841.0,152362832.0,1104768000.0,4417892908.8
sh603755,日辰股份,2019-10-08,45.0,45.17,40.32,40.32,44.8,4795002.0,202480699.0,994291200.0,3976103617.92
sh603755,日辰股份,2019-10-09,39.41,41.7,39.38,41.4,40.32,3619515.0,147204469.0,1020924000.0,4082606393.4
sh603755,日辰股份,2019-10-10,41.46,44.29,41.21,43.75,41.4,3595303.0,154148392.0,1078875000.0,4314348543.75
sh603755,日辰股份,2019-10-11,43.26,46.17,43.26,45.28,43.75,3735186.0,168220920.0,1116604800.0,4465227475.68
sh603755,日辰股份,2019-10-14,45.6,47.09,44.8,46.51,45.28,3142099.0,144049546.0,1146936600.0,4586522303.31
sh603755,日辰股份,2019-10-15,45.7,47.65,45.14,47.6,46.51,3314918.0,154689620.0,1173816000.0,4694011215.6
sh603755,日辰股份,2019-10-16,47.55,49.23,47.12,48.6,47.6,3532341.0,170372127.0,1198476000.0,4792624896.6
sh603755,日辰股份,2019-10-17,48.03,50.77,46.91,47.5,48.6,5670281.0,276356358.0,1171350000.0,4684149847.5
sh603755,日辰股份,2019-10-18,47.99,50.38,47.52,48.95,47.5,5745033.0,281352052.0,1207107000.0,4827139684.95
sh603755,日辰股份,2019-10-21,48.21,49.5,45.63,47.71,48.95,4333292.0,205790376.0,1176528600.0,4704858720.51
sh603755,日辰股份,2019-10-22,47.37,49.2,47.01,49.17,47.71,3470330.0,168125381.0,1212532200.0,4848834694.77
sh603755,日辰股份,2019-10-23,49.05,52.94,49.03,52.72,49.17,5582375.0,284174428.0,1300075200.0,5198913262.32
sh603755,日辰股份,2019-10-24,51.66,52.8,51.05,52.76,52.72,3367561.0,174693640.0,1301061600.0,5202857809.56
sh603755,日辰股份,2019-10-25,52.45,54.5,52.03,54.4,52.76,3377628.0,179835836.0,1341504000.0,5364584246.4
sh603755,日辰股份,2019-10-28,52.92,54.55,50.15,53.5,54.4,3476280.0,183666232.0,1319310000.0,5275831933.5
sh603755,日辰股份,2019-10-29,51.28,52.04,48.5,48.81,53.5,4025946.0,203132786.0,1203654600.0,4813333769.61
sh603755,日辰股份,2019-10-30,49.65,51.4,48.9,51.3,48.81,3057174.0,154769287.0,1265058000.0,5058881835.3
sh603755,日辰股份,2019-10-31,52.0,54.98,50.4,53.95,51.3,4117275.0,218630813.0,1330407000.0,5320208089.95
sh603755,日辰股份,2019-11-01,53.33,56.85,52.7,55.88,53.95,2766024.0,152132212.0,1378000800.0,5510532494.28
sh603755,日辰股份,2019-11-04,56.0,56.6,54.66,56.33,55.88,2053377.0,114452034.0,1389097800.0,5554908650.73
sh603755,日辰股份,2019-11-05,55.8,57.17,54.67,55.4,56.33,2026016.0,113506344.0,1366164000.0,5463197927.4
sh603755,日辰股份,2019-11-06,55.2,55.9,52.7,54.35,55.4,2317288.0,125265023.0,1340271000.0,5359653562.35
sh603755,日辰股份,2019-11-07,54.02,55.39,53.62,54.68,54.35,1589545.0,86887113.0,1348408800.0,5392196077.08
sh603755,日辰股份,2019-11-08,54.32,55.37,53.13,53.46,54.68,1938458.0,105265240.0,1318323600.0,5271887386.26
sh603755,日辰股份,2019-11-11,53.12,53.47,51.98,53.28,53.46,1425094.0,74782399.0,1313884800.0,5254136923.68
sh603755,日辰股份,2019-11-12,53.16,54.3,52.28,54.3,53.28,1453064.0,77357866.0,1339038000.0,5354722878.3
sh603755,日辰股份,2019-11-13,53.97,55.18,52.7,53.31,54.3,2019885.0,109305887.0,1314624600.0,5257095334.11
sh603755,日辰股份,2019-11-14,52.51,52.8,50.88,51.4,53.31,2581300.0,133488394.0,1267524000.0,5068743203.4
sh603755,日辰股份,2019-11-15,51.48,52.11,50.39,50.39,51.4,1374551.0,70369117.0,1242617400.0,4969143385.59
sh603755,日辰股份,2019-11-18,49.84,51.3,49.22,50.6,50.39,1688913.0,84650946.0,1247796000.0,4989852258.6
sh603755,日辰股份,2019-11-19,50.6,52.22,50.3,51.99,50.6,1305239.0,67242645.0,1282073400.0,5126925275.19
sh603755,日辰股份,2019-11-20,51.9,52.98,51.56,51.66,51.99,1177067.0,61531381.0,1273935600.0,5094382760.46
sh603755,日辰股份,2019-11-21,51.19,52.2,50.04,50.6,51.66,1167955.0,59587558.0,1247796000.0,4989852258.6
sh603755,日辰股份,2019-11-22,50.15,50.96,48.51,49.1,50.6,1348294.0,66678327.0,1210806000.0,4841931737.1
sh603755,日辰股份,2019-11-25,49.2,50.2,47.0,50.12,49.1,1059440.0,51640757.0,1235959200.0,4942517691.72
sh603755,日辰股份,2019-11-26,49.88,50.38,49.2,49.79,50.12,808157.0,40255494.0,1227821400.0,4909975176.99
sh603755,日辰股份,2019-11-27,49.65,49.65,47.28,47.96,49.79,1384795.0,66727146.0,1182693600.0,4729512140.76
sh603755,日辰股份,2019-11-28,47.96,48.08,47.02,47.25,47.96,604535.0,28720449.0,1165185000.0,4659496427.25
sh603755,日辰股份,2019-11-29,47.34,47.95,47.25,47.5,47.25,631779.0,30057905.0,1171350000.0,4684149847.5
sh603755,日辰股份,2019-12-02,47.46,47.93,45.38,45.6,47.5,1123040.0,51935585.0,1124496000.0,4496783853.6
sh603755,日辰股份,2019-12-03,45.79,46.98,44.85,46.76,45.6,1456234.0,66907926.0,1153101600.0,4611175723.56
sh603755,日辰股份,2019-12-04,46.3,48.18,46.3,46.84,46.76,936429.0,44396634.0,1155074400.0,4619064818.04
sh603755,日辰股份,2019-12-05,47.3,48.54,46.78,48.19,46.84,1008120.0,48076809.0,1188365400.0,4752193287.39
sh603755,日辰股份,2019-12-06,48.0,48.44,47.18,47.53,48.19,634309.0,30205940.0,1172089800.0,4687108257.93
sh603755,日辰股份,2019-12-09,47.78,47.78,46.25,46.38,47.53,681974.0,31825728.0,1143730800.0,4573702524.78
sh603755,日辰股份,2019-12-10,46.25,46.65,45.91,46.32,46.38,476694.0,22085787.0,1142251200.0,4567785703.92
sh603755,日辰股份,2019-12-11,46.34,46.75,45.81,46.54,46.32,510720.0,23676165.0,1147676400.0,4589480713.74
sh603755,日辰股份,2019-12-12,46.49,46.49,45.3,45.54,46.54,817800.0,37301489.0,1123016400.0,4490867032.74
sh603755,日辰股份,2019-12-13,45.78,46.5,45.66,46.38,45.54,716448.0,33046270.0,1143730800.0,4573702524.78
sh603755,日辰股份,2019-12-16,46.47,47.99,46.12,47.91,46.38,853220.0,40352295.0,1181460600.0,4724581456.71
sh603755,日辰股份,2019-12-17,47.75,48.88,47.4,48.1,47.91,961609.0,46293398.0,1186146000.0,4743318056.1
sh603755,日辰股份,2019-12-18,48.16,48.41,47.68,47.99,48.1,637514.0,30591192.0,1183433400.0,4732470551.19
sh603755,日辰股份,2019-12-19,48.0,48.0,46.96,47.8,47.99,596998.0,28279108.0,1178748000.0,4713733951.8
sh603755,日辰股份,2019-12-20,47.8,48.48,47.08,47.3,47.8,649537.0,31041618.0,1166418000.0,4664427111.3
sh603755,日辰股份,2019-12-23,46.59,48.25,46.03,47.75,47.3,856579.0,40298943.0,1177515000.0,4708803267.75
sh603755,日辰股份,2019-12-24,47.29,48.2,47.22,47.54,47.75,861701.0,41177034.0,1172336400.0,4688094394.74
sh603755,日辰股份,2019-12-25,47.2,47.7,46.18,46.31,47.54,823844.0,38332666.0,1142004600.0,4566799567.11
sh603755,日辰股份,2019-12-26,46.22,47.2,46.2,47.16,46.31,572380.0,26798862.0,1162965600.0,4650621195.96
sh603755,日辰股份,2019-12-27,47.16,51.51,47.16,50.02,47.16,1698336.0,83675599.0,1233493200.0,4932656323.62
sh603755,日辰股份,2019-12-30,50.5,51.3,49.03,49.16,50.02,1194238.0,59631686.0,1212285600.0,4847848557.96
sh603755,日辰股份,2019-12-31,49.09,49.3,47.73,48.61,49.16,1281166.0,61892290.0,1198722600.0,4793611033.41
sh603755,日辰股份,2020-01-02,48.75,49.65,48.23,49.27,48.61,926048.0,45459313.0,1214998200.0,4858696062.87
sh603755,日辰股份,2020-01-03,49.26,49.56,48.32,49.2,49.27,668185.0,32636744.0,1213272000.0,4851793105.2
sh603755,日辰股份,2020-01-06,49.2,49.2,47.15,48.09,49.2,1641234.0,78499380.0,1185899400.0,4742331919.29
sh603755,日辰股份,2020-01-07,47.99,48.07,47.32,47.69,48.09,910437.0,43225303.0,1176035400.0,4702886446.89
sh603755,日辰股份,2020-01-08,47.33,47.34,46.33,46.33,47.69,942981.0,44008023.0,1142497800.0,4568771840.73
sh603755,日辰股份,2020-01-09,46.4,47.5,46.39,47.4,46.33,1016400.0,47833127.0,1168884000.0,4674288479.4
sh603755,日辰股份,2020-01-10,47.57,47.79,46.85,47.15,47.4,667721.0,31575762.0,1162719000.0,4649635059.15
sh603755,日辰股份,2020-01-13,46.9,49.16,46.66,49.12,47.15,1511868.0,73521391.0,1211299200.0,4843904010.72
sh603755,日辰股份,2020-01-14,49.43,49.5,48.64,49.0,49.12,981363.0,48111819.0,1208340000.0,4832070369.0
sh603755,日辰股份,2020-01-15,49.32,49.32,48.33,48.52,49.0,653700.0,31812158.0,1196503200.0,4784735802.12
sh603755,日辰股份,2020-01-16,48.47,48.98,47.0,47.73,48.52,1123700.0,53747403.0,1177021800.0,4706830994.13
sh603755,日辰股份,2020-01-17,47.67,47.99,47.21,47.45,47.73,574500.0,27290343.0,1170117000.0,4679219163.45
sh603755,日辰股份,2020-01-20,48.0,49.39,47.7,48.01,47.45,1373053.0,66462854.0,1183926600.0,4734442824.81
sh603755,日辰股份,2020-01-21,48.12,48.36,46.78,47.26,48.01,1241620.0,58997969.0,1165431600.0,4660482564.06
sh603755,日辰股份,2020-01-22,46.52,46.89,45.6,46.11,47.26,1218959.0,56526079.0,1137072600.0,4547076830.91
sh603755,日辰股份,2020-01-23,43.86,45.0,41.68,41.98,46.11,2110829.0,90649446.0,1035226800.0,4139802328.38
sh603755,日辰股份,2020-02-03,37.78,37.78,37.78,37.78,41.98,185000.0,6989300.0,931654800.0,3725624868.18
sh603755,日辰股份,2020-02-04,34.43,37.88,34.43,36.97,37.78,1227555.0,44459863.0,911680200.0,3645747786.57
sh603755,日辰股份,2020-02-05,36.99,39.29,36.05,38.0,36.97,955374.0,36428575.0,937080000.0,3747319878.0
sh603755,日辰股份,2020-02-06,38.0,39.4,37.5,39.05,38.0,738230.0,28670295.0,962973000.0,3850864243.05
sh603755,日辰股份,2020-02-07,39.08,40.92,39.08,40.92,39.05,938725.0,37615825.0,1009087200.0,4035271826.52
sh603755,日辰股份,2020-02-10,40.75,43.6,39.6,43.22,40.92,1026259.0,43850711.0,1065805200.0,4262083292.82
sh603755,日辰股份,2020-02-11,43.78,43.78,42.13,43.06,43.22,544560.0,23325966.0,1061859600.0,4246305103.86
sh603755,日辰股份,2020-02-12,42.53,43.15,42.52,42.79,43.06,376442.0,16132539.0,1055201400.0,4219679409.99
sh603755,日辰股份,2020-02-13,42.8,44.22,42.8,43.3,42.79,769396.0,33519570.0,1067778000.0,4269972387.3
sh603755,日辰股份,2020-02-14,42.32,43.95,42.32,43.68,43.3,489720.0,21311890.0,1077148800.0,4307445586.08
sh603755,日辰股份,2020-02-17,43.98,43.98,42.01,43.09,43.68,999265.0,42683805.0,1062599400.0,4249263514.29
sh603755,日辰股份,2020-02-18,43.0,43.17,42.04,42.4,43.09,795300.0,33771604.0,1045584000.0,4181220074.4
sh603755,日辰股份,2020-02-19,42.37,42.69,41.82,41.95,42.4,924800.0,39065590.0,1034487000.0,4136843917.95
sh603755,日辰股份,2020-02-20,41.95,42.66,41.8,42.31,41.95,866400.0,36674137.0,1043364600.0,4172344843.11
sh603755,日辰股份,2020-02-21,42.46,43.8,42.35,42.63,42.31,1227900.0,52932731.0,1051255800.0,4203901221.03
sh603755,日辰股份,2020-02-24,42.4,43.29,41.61,42.66,42.63,1125152.0,47715928.0,1051995600.0,4206859631.46
sh603755,日辰股份,2020-02-25,41.72,42.65,41.7,42.46,42.66,807930.0,34124357.0,1047063600.0,4187136895.26
sh603755,日辰股份,2020-02-26,42.39,43.75,41.85,42.4,42.46,1177380.0,50715225.0,1045584000.0,4181220074.4
sh603755,日辰股份,2020-02-27,42.36,46.64,42.05,46.1,42.4,2185551.0,98753171.0,1136826000.0,4546090694.1
sh603755,日辰股份,2020-02-28,44.0,45.48,42.7,42.88,46.1,1495100.0,66415579.0,1057420800.0,4228554641.28
sh603755,日辰股份,2020-03-02,42.7,44.53,42.68,44.25,42.88,753659.0,33121999.0,1091205000.0,4363655384.25
sh603755,日辰股份,2020-03-03,44.25,47.33,44.25,47.05,44.25,1329041.0,60960855.0,1160253000.0,4639773691.05
sh603755,日辰股份,2020-03-04,46.62,47.61,46.01,47.12,47.05,768125.0,36086338.0,1161979200.0,4646676648.72
sh603755,日辰股份,2020-03-05,47.21,49.46,47.21,48.91,47.12,1288762.0,62561013.0,1206120600.0,4823195137.71
sh603755,日辰股份,2020-03-06,48.0,48.45,47.51,48.38,48.91,640000.0,30673010.0,1193050800.0,4770929886.78
sh603755,日辰股份,2020-03-09,48.0,48.0,45.6,46.0,48.38,800200.0,37436291.0,1134360000.0,4536229326.0
sh603755,日辰股份,2020-03-10,46.0,48.35,45.0,48.35,46.0,798284.0,37445082.0,1192311000.0,4767971476.35
sh603755,日辰股份,2020-03-11,48.96,49.4,46.2,46.79,48.35,620600.0,29575423.0,1153841400.0,4614134133.99
sh603755,日辰股份,2020-03-12,46.64,46.64,45.1,46.16,46.79,525699.0,24203764.0,1138305600.0,4552007514.96
sh603755,日辰股份,2020-03-13,44.0,46.47,43.0,46.2,46.16,623777.0,28356055.0,1139292000.0,4555952062.2
sh603755,日辰股份,2020-03-16,46.48,47.01,43.24,43.79,46.2,562500.0,25517749.0,1079861400.0,4318293090.99
sh603755,日辰股份,2020-03-17,43.3,44.39,41.19,43.33,43.79,710953.0,30654259.0,1068517800.0,4272930797.73
sh603755,日辰股份,2020-03-18,44.39,44.5,42.06,42.21,43.33,360836.0,15698742.0,1040898600.0,4162483475.01
sh603755,日辰股份,2020-03-19,42.26,42.79,41.52,42.38,42.21,355200.0,14962816.0,1045090800.0,4179247800.78
sh603755,日辰股份,2020-03-20,42.97,46.0,42.67,44.69,42.38,531200.0,23620606.0,1102055400.0,4407045403.89
sh603755,日辰股份,2020-03-23,44.9,44.9,42.0,43.19,44.69,425100.0,18506059.0,1065065400.0,4259124882.39
sh603755,日辰股份,2020-03-24,43.3,44.87,43.3,44.87,43.19,386457.0,17040159.0,1106494200.0,4424795866.47
sh603755,日辰股份,2020-03-25,45.53,46.65,44.88,45.75,44.87,544628.0,25012912.0,1128195000.0,4511575905.75
sh603755,日辰股份,2020-03-26,45.8,48.81,45.2,47.9,45.75,945028.0,44698990.0,1181214000.0,4723595319.9
sh603755,日辰股份,2020-03-27,47.52,50.45,47.52,49.5,47.9,1526519.0,75501188.0,1220670000.0,4881377209.5
sh603755,日辰股份,2020-03-30,49.0,50.09,47.02,48.19,49.5,813137.0,39405228.0,1188365400.0,4752193287.39
sh603755,日辰股份,2020-03-31,48.95,49.85,48.05,49.7,48.19,1085000.0,53416685.0,1225602000.0,4901099945.7
sh603755,日辰股份,2020-04-01,49.72,49.86,47.0,47.42,49.7,900700.0,43113647.0,1169377200.0,4676260753.02
sh603755,日辰股份,2020-04-02,47.58,47.83,46.36,47.18,47.42,424000.0,19959915.0,1163458800.0,4652593469.58
sh603755,日辰股份,2020-04-03,47.19,48.89,46.6,46.7,47.18,544500.0,25952879.0,1151622000.0,4605258902.7
sh603755,日辰股份,2020-04-07,46.97,48.6,46.97,47.93,46.7,752334.0,35966963.0,1181953800.0,4726553730.33
sh603755,日辰股份,2020-04-08,47.93,47.94,46.19,46.61,47.93,682300.0,31905052.0,1149402600.0,4596383671.41
sh603755,日辰股份,2020-04-09,46.95,50.0,46.29,49.15,46.61,1035687.0,49870752.0,1212039000.0,4846862421.15
sh603755,日辰股份,2020-04-10,49.19,53.5,48.7,51.54,49.15,1916349.0,97601048.0,1270976400.0,5082549118.74
sh603755,日辰股份,2020-04-13,51.9,52.67,50.0,51.76,51.54,1212461.0,62346999.0,1276401600.0,5104244128.56
sh603755,日辰股份,2020-04-14,51.5,53.0,50.63,51.12,51.76,1225277.0,62889842.0,1260619200.0,5041131372.72
sh603755,日辰股份,2020-04-15,51.96,51.99,49.19,49.65,51.12,937200.0,47058715.0,1224369000.0,4896169261.65
sh603755,日辰股份,2020-04-16,49.02,50.83,48.77,50.46,49.65,855700.0,42682081.0,1244343600.0,4976046343.26
sh603755,日辰股份,2020-04-17,50.56,51.34,49.47,49.88,50.46,514920.0,25698927.0,1230040800.0,4918850408.28
sh603755,日辰股份,2020-04-20,49.88,50.57,48.58,50.37,49.88,598334.0,29791813.0,1242124200.0,4967171111.97
sh603755,日辰股份,2020-04-21,49.98,50.37,48.82,49.25,50.37,583273.0,28790185.0,1214505000.0,4856723789.25
sh603755,日辰股份,2020-04-22,49.17,52.3,48.83,51.85,49.25,1010754.0,51698760.0,1278621000.0,5113119359.85
sh603755,日辰股份,2020-04-23,52.75,52.87,51.01,51.93,51.85,677000.0,35158126.0,1280593800.0,5121008454.33
sh603755,日辰股份,2020-04-24,51.35,51.99,49.0,50.39,51.93,622925.0,31485545.0,1242617400.0,4969143385.59
sh603755,日辰股份,2020-04-27,49.97,50.38,49.08,49.1,50.39,491600.0,24351596.0,1210806000.0,4841931737.1
sh603755,日辰股份,2020-04-28,50.4,54.01,49.82,54.01,49.1,1498799.0,78913758.0,1331886600.0,5326124910.81
sh603755,日辰股份,2020-04-29,54.31,56.5,53.6,54.4,54.01,1665593.0,91250458.0,1341504000.0,5364584246.4
sh603755,日辰股份,2020-04-30,55.44,55.8,52.56,53.09,54.4,1503848.0,81077899.0,1309199400.0,5235400324.29
sh603755,日辰股份,2020-05-06,53.09,58.4,53.01,58.4,53.09,1555203.0,86895510.0,1440144000.0,5759038970.4
sh603755,日辰股份,2020-05-07,58.0,61.46,57.5,58.11,58.4,1614331.0,95648727.0,1432992600.0,5730441002.91
sh603755,日辰股份,2020-05-08,58.97,61.55,58.24,60.9,58.11,1876720.0,112776176.0,1501794000.0,6005573172.9
sh603755,日辰股份,2020-05-11,60.44,61.33,58.51,59.29,60.9,1165555.0,69417191.0,1462091400.0,5846805146.49
sh603755,日辰股份,2020-05-12,59.3,62.63,58.8,62.11,59.29,1110377.0,67684385.0,1531632600.0,6124895726.91
sh603755,日辰股份,2020-05-13,61.98,68.32,60.5,68.32,62.11,1693662.0,111353439.0,1684771200.0,6737286685.92
sh603755,日辰股份,2020-05-14,68.38,72.05,68.38,70.7,68.32,2336154.0,164065929.0,1743462000.0,6971987246.7
sh603755,日辰股份,2020-05-15,70.76,73.51,66.88,71.3,70.7,1976026.0,137092141.0,1758258000.0,7031155455.3
sh603755,日辰股份,2020-05-18,70.98,76.0,69.24,75.45,71.3,954650.0,69468324.0,1860597000.0,7440402231.45
sh603755,日辰股份,2020-05-19,75.47,77.6,72.8,74.28,75.45,1147600.0,85449854.0,1831744800.0,7325024224.68
sh603755,日辰股份,2020-05-20,73.88,74.27,70.03,71.25,74.28,1806954.0,130889712.0,1757025000.0,7026224771.25
sh603755,日辰股份,2020-05-21,71.25,72.1,70.2,70.23,71.25,716800.0,51014259.0,1731871800.0,6925638816.63
sh603755,日辰股份,2020-05-22,71.9,73.0,68.63,71.22,70.23,974092.0,69045795.0,1756285200.0,7023266360.82
sh603755,日辰股份,2020-05-25,71.28,74.25,70.8,71.57,71.22,1082800.0,78520399.0,1764916200.0,7057781149.17
sh603755,日辰股份,2020-05-26,71.99,76.8,71.57,75.21,71.57,1349414.0,101453341.0,1854678600.0,7416734948.01
sh603755,日辰股份,2020-05-27,75.01,78.95,73.54,76.0,75.21,1005326.0,76503154.0,1874160000.0,7494639756.0
sh603755,日辰股份,2020-05-28,75.51,76.53,73.1,76.14,76.0,753220.0,56310189.0,1877612400.0,7508445671.34
sh603755,日辰股份,2020-05-29,76.68,82.97,74.21,82.0,76.14,927636.0,74032274.0,2022120000.0,8086321842.0
sh603755,日辰股份,2020-06-01,82.27,88.0,78.3,79.91,82.0,1585636.0,129707245.0,1970580600.0,7880219248.71
sh603755,日辰股份,2020-06-02,81.17,81.17,72.1,73.55,79.91,1680561.0,126993461.0,1813743000.0,7253036237.55
sh603755,日辰股份,2020-06-03,73.0,78.11,71.33,75.51,73.55,1397702.0,105320121.0,1862076600.0,7446319052.31
sh603755,日辰股份,2020-06-04,75.28,78.99,75.1,77.08,75.51,800200.0,62020319.0,1900792800.0,7601142531.48
sh603755,日辰股份,2020-06-05,77.53,77.6,74.8,77.24,77.08,472600.0,35940628.0,1904738400.0,7616920720.44
sh603755,日辰股份,2020-06-08,76.28,77.97,75.08,76.0,77.24,801400.0,61206078.0,1874160000.0,7494639756.0
sh603755,日辰股份,2020-06-09,76.0,79.77,75.73,78.99,76.0,885393.0,68437943.0,1947893400.0,7789494662.19
sh603755,日辰股份,2020-06-10,79.7,79.99,77.98,79.49,78.99,697729.0,55270154.0,1960223400.0,7838801502.69
sh603755,XD日辰股,2020-06-11,79.0,81.96,76.05,76.41,78.94,735841.0,57446779.0,1884270600.0,7535071365.21
sh603755,日辰股份,2020-06-12,74.15,77.4,74.07,76.99,76.41,485600.0,36927102.0,1898573400.0,7592267300.19
sh603755,日辰股份,2020-06-15,77.18,80.98,76.51,78.71,76.99,811685.0,63739641.0,1940988600.0,7761882831.51
sh603755,日辰股份,2020-06-16,78.43,83.9,78.43,83.0,78.71,1070313.0,87921401.0,2046780000.0,8184935523.0
sh603755,日辰股份,2020-06-17,83.41,83.96,76.7,78.08,83.0,1595741.0,125985351.0,1925452800.0,7699756212.48
sh603755,日辰股份,2020-06-18,77.75,79.2,76.95,78.58,78.08,763073.0,59228865.0,1937782800.0,7749063052.98
sh603755,日辰股份,2020-06-19,79.0,86.36,77.5,85.67,78.58,1617141.0,135986350.0,2112622200.0,8448234051.269999
sh603755,日辰股份,2020-06-22,84.86,87.95,83.48,83.9,85.67,863753.0,73552864.0,2068974000.0,8273687835.9
sh603755,日辰股份,2020-06-23,85.17,86.88,83.8,85.46,83.9,572200.0,48638586.0,2107443600.0,8427525178.26
sh603755,日辰股份,2020-06-24,85.74,86.97,83.0,83.45,85.46,534451.0,44741301.0,2057877000.0,8229311679.45
sh603755,日辰股份,2020-06-29,84.0,85.58,83.0,83.6,83.45,578800.0,48440935.0,2061576000.0,8244103731.599998
sh603755,日辰股份,2020-06-30,84.0,89.0,83.06,88.36,83.6,868100.0,75528767.0,2178957600.0,8713504853.16
sh603755,日辰股份,2020-07-01,89.0,92.3,83.5,85.9,88.36,1002012.0,86875185.0,2118294000.0,8470915197.900002
sh603755,日辰股份,2020-07-02,86.0,87.9,83.57,84.25,85.9,689574.0,58864545.0,2077605000.0,8308202624.25
sh603755,日辰股份,2020-07-03,85.3,85.3,82.0,83.0,84.25,565800.0,47146983.0,2046780000.0,8184935523.0
sh603755,日辰股份,2020-07-06,83.0,83.97,80.32,83.16,83.0,930200.0,76778212.0,2050725600.0,8200713711.96
sh603755,日辰股份,2020-07-07,82.99,84.9,81.78,83.76,83.16,858373.0,71382874.0,2065521600.0,8259881920.56
sh603755,日辰股份,2020-07-08,83.76,85.05,82.91,83.39,83.76,728788.0,60886785.0,2056397400.0,8223394858.59
sh603755,日辰股份,2020-07-09,83.55,85.78,83.02,83.48,83.39,1151046.0,96540050.0,2058616800.0,8232270089.88
sh603755,日辰股份,2020-07-10,83.18,86.98,83.0,85.1,83.48,1261965.0,107005526.0,2098566000.0,8392024253.099999
sh603755,日辰股份,2020-07-13,85.1,89.5,84.0,87.29,85.1,1547837.0,133692650.0,2152571400.0,8607988214.49
sh603755,日辰股份,2020-07-14,86.2,87.5,80.32,81.8,87.29,1426628.0,118658778.0,2017188000.0,8066599105.8
sh603755,日辰股份,2020-07-15,81.6,83.62,78.5,79.38,81.8,1103700.0,88760527.0,1957510800.0,7827953997.78
sh603755,日辰股份,2020-07-16,79.16,79.45,71.58,72.6,79.38,1169403.0,88395884.0,1790316000.0,7159353240.6
sh603755,日辰股份,2020-07-17,72.0,73.9,68.21,70.89,72.6,1197120.0,84706599.0,1748147400.0,6990723846.089999
sh603755,日辰股份,2020-07-20,71.25,75.42,69.2,75.34,70.89,1110200.0,80137609.0,1857884400.0,7429554726.54
sh603755,日辰股份,2020-07-21,74.75,76.85,74.3,76.32,75.34,566400.0,42960456.0,1882051200.0,7526196133.92
sh603755,日辰股份,2020-07-22,74.8,78.28,74.53,77.0,76.32,1062900.0,81608975.0,1898820000.0,7593253437.0
sh603755,日辰股份,2020-07-23,75.8,78.05,74.53,76.75,77.0,831400.0,63346845.0,1892655000.0,7568600016.749999
sh603755,日辰股份,2020-07-24,77.0,77.48,71.56,71.9,76.75,759400.0,55859629.0,1773054000.0,7090323663.9
sh603755,日辰股份,2020-07-27,71.99,73.48,69.35,70.15,71.9,666700.0,46956092.0,1729899000.0,6917749722.15
sh603755,日辰股份,2020-07-28,70.7,73.95,69.49,73.4,70.15,1246510.0,89805809.0,1810044000.0,7238244185.4
sh603755,日辰股份,2020-07-29,73.55,76.54,72.56,76.17,73.4,891092.0,66776615.0,1878352200.0,7511404081.77
sh603755,日辰股份,2020-07-30,76.91,77.01,73.95,73.98,76.17,445800.0,33345292.0,1824346800.0,7295440120.38
sh603755,日辰股份,2020-07-31,74.77,75.2,73.14,73.82,73.98,350280.0,25932906.0,1820401200.0,7279661931.42
sh603755,日辰股份,2020-08-03,75.0,79.0,74.05,79.0,73.82,920043.0,70585404.0,1948140000.0,7790480799.0
sh603755,日辰股份,2020-08-04,79.0,80.86,75.15,75.35,79.0,938145.0,72853508.0,1858131000.0,7430540863.35
sh603755,日辰股份,2020-08-05,75.0,76.47,74.0,75.87,75.35,540700.0,40773038.0,1870954200.0,7481819977.469999
sh603755,日辰股份,2020-08-06,76.45,76.45,72.1,74.18,75.87,861900.0,63367668.0,1829278800.0,7315162856.58
sh603755,日辰股份,2020-08-07,72.35,73.83,70.06,71.31,74.18,717603.0,51257049.0,1758504600.0,7032141592.11
sh603755,日辰股份,2020-08-10,71.09,76.24,70.55,74.4,71.31,909400.0,67733662.0,1834704000.0,7336857866.4
sh603755,日辰股份,2020-08-11,75.48,76.58,74.16,75.4,74.4,709200.0,53546601.0,1859364000.0,7435471547.400001
sh603755,日辰股份,2020-08-12,74.0,81.24,74.0,78.46,75.4,1560673.0,121761469.0,1934823600.0,7737229411.26
sh603755,日辰股份,2020-08-13,79.0,83.86,77.66,81.59,78.46,1193695.0,97236075.0,2012009400.0,8045890232.79
sh603755,日辰股份,2020-08-14,81.59,82.57,78.0,81.21,81.59,724991.0,58060901.0,2002638600.0,8008417034.01
sh603755,日辰股份,2020-08-17,81.21,81.67,78.01,79.91,81.21,453136.0,36066389.0,1970580600.0,7880219248.71
sh603755,日辰股份,2020-08-18,79.91,83.99,78.92,83.2,79.91,826498.0,68097974.0,2051712000.0,8204658259.2
sh603755,日辰股份,2020-08-19,84.99,84.99,78.16,79.5,83.2,949800.0,76964272.0,1960470000.0,7839787639.500001
sh603755,日辰股份,2020-08-20,78.2,80.2,77.14,79.95,79.5,455711.0,36003334.0,1971567000.0,7884163795.95
sh603755,日辰股份,2020-08-21,79.87,85.5,79.82,83.5,79.95,1135999.0,95372088.0,2059110000.0,8234242363.5
sh603755,日辰股份,2020-08-24,83.99,87.0,82.8,85.46,83.5,886699.0,75668451.0,2107443600.0,8427525178.26
sh603755,日辰股份,2020-08-25,85.46,89.0,84.13,85.73,85.46,631700.0,54612473.0,2114101800.0,8454150872.13
sh603755,日辰股份,2020-08-26,85.65,86.23,82.0,83.42,85.73,517100.0,43228507.0,2057137200.0,8226353269.02
sh603755,日辰股份,2020-08-27,83.16,88.41,80.5,84.3,83.42,713437.0,59863259.0,2078838000.0,8313133308.3
sh603755,日辰股份,2020-08-28,80.6,84.85,77.08,81.78,84.3,1465837.0,118942086.0,2796877962.7200003,8064626832.18
sh603755,日辰股份,2020-08-31,81.97,89.96,80.01,89.96,81.78,1550136.0,133735325.0,3076634159.04,8871286742.76
sh603755,日辰股份,2020-09-01,88.61,90.84,84.1,87.83,89.96,1287500.0,111238976.0,3003788107.92,8661239602.23
sh603755,日辰股份,2020-09-02,88.4,88.5,83.99,86.5,87.83,985000.0,84773349.0,2958302076.0,8530083406.5
sh603755,日辰股份,2020-09-03,87.13,89.27,84.53,87.29,86.5,1047900.0,90681242.0,2985320094.96,8607988214.49
sh603755,日辰股份,2020-09-04,84.46,85.55,81.85,83.71,87.29,1039400.0,86819739.0,2862884009.04,8254951236.509999
sh603755,日辰股份,2020-09-07,83.01,83.98,79.5,79.5,83.71,1029200.0,83610452.0,2718901908.0,7839787639.500001
sh603755,日辰股份,2020-09-08,79.5,81.69,73.53,78.0,79.5,1315224.0,102197718.0,2667601872.0,7691867118.000001
sh603755,日辰股份,2020-09-09,78.5,79.4,75.07,76.75,78.0,796800.0,61582832.0,2624851842.0,7568600016.749999
sh603755,日辰股份,2020-09-10,76.75,76.77,73.13,73.13,76.75,506060.0,38024452.0,2501047755.12,7211618491.530001
sh603755,日辰股份,2020-09-11,73.0,78.05,70.9,75.48,73.13,856900.0,64393896.0,2581417811.52,7443360641.88
sh603755,日辰股份,2020-09-14,75.0,80.0,74.02,77.41,75.48,916200.0,70767339.0,2647423857.84,7633685046.21
sh603755,日辰股份,2020-09-15,78.3,78.93,76.55,77.75,77.41,372886.0,29009459.0,2659051866.0,7667213697.75
sh603755,日辰股份,2020-09-16,77.88,78.66,74.55,76.01,77.75,428000.0,32661872.0,2599543824.24,7495625892.809999
sh603755,日辰股份,2020-09-17,77.15,77.18,73.81,74.24,76.01,497500.0,37317116.0,2539009781.76,7321079677.440001
sh603755,日辰股份,2020-09-18,74.74,75.26,72.7,73.61,74.24,662237.0,48916740.0,2517463766.64,7258953058.410001
sh603755,日辰股份,2020-09-21,73.61,74.0,71.1,72.5,73.61,498700.0,36058323.0,2479501740.0,7149491872.5
sh603755,日辰股份,2020-09-22,71.79,72.5,71.17,71.97,72.5,261000.0,18726881.0,2461375727.28,7097226621.570001
sh603755,日辰股份,2020-09-23,72.28,72.63,71.0,71.01,71.97,222294.0,15933380.0,2428543704.24,7002557487.81
sh603755,日辰股份,2020-09-24,71.41,71.41,68.66,69.02,71.01,460600.0,32105488.0,2360485656.48,6806316262.62
sh603755,日辰股份,2020-09-25,69.53,69.89,68.15,69.04,69.02,213600.0,14732412.0,2361169656.96,6808288536.24
sh603755,日辰股份,2020-09-28,68.9,69.48,66.56,67.98,69.04,596435.0,40742825.0,2324917631.52,6703758034.38
sh603755,日辰股份,2020-09-29,67.98,69.49,67.12,67.74,67.98,569600.0,38730780.0,2316709625.76,6680090750.94
sh603755,日辰股份,2020-09-30,68.13,73.8,67.75,71.0,67.74,814669.0,58111423.0,2428201704.0,7001571351.0
sh603755,日辰股份,2020-10-09,71.62,72.09,70.12,71.57,71.0,337600.0,24113117.0,2447695717.68,7057781149.170001
sh603755,日辰股份,2020-10-12,71.89,72.49,71.0,72.19,71.57,509697.0,36629414.0,2468899732.56,7118921631.389999
sh603755,日辰股份,2020-10-13,72.06,76.55,71.78,74.29,72.19,615471.0,45902108.0,2540719782.96,7326010361.490001
sh603755,日辰股份,2020-10-14,74.23,76.66,73.09,76.5,74.29,355610.0,26818944.0,2616301836.0,7543946596.5
sh603755,日辰股份,2020-10-15,77.47,79.87,74.52,75.98,76.5,520239.0,40215093.0,2598517823.52,7492667482.38
sh603755,日辰股份,2020-10-16,75.9,77.01,75.2,76.28,75.98,197400.0,15042714.0,2608777830.72,7522251586.68
sh603755,日辰股份,2020-10-19,77.06,77.06,73.47,73.57,76.28,191800.0,14292714.0,2516095765.68,7255008511.17
sh603755,日辰股份,2020-10-20,73.58,76.7,73.0,76.35,73.57,289800.0,21855897.0,2611171832.4,7529154544.349999
sh603755,日辰股份,2020-10-21,77.3,77.5,74.56,75.95,76.35,223180.0,16944792.0,2597491822.8,7489709071.95
sh603755,日辰股份,2020-10-22,76.58,76.58,73.7,74.13,75.95,271597.0,20199931.0,2535247779.12,7310232172.53
sh603755,日辰股份,2020-10-23,74.8,75.2,72.11,73.15,74.13,264558.0,19387992.0,2501731755.6,7213590765.15
sh603755,日辰股份,2020-10-26,75.15,75.15,71.51,72.6,73.15,189778.0,13790947.0,2482921742.4,7159353240.6
sh603755,日辰股份,2020-10-27,72.01,74.15,71.23,73.38,72.6,235700.0,17218845.0,2509597761.12,7236271911.78
sh603755,日辰股份,2020-10-28,73.0,73.67,71.03,71.5,73.38,409547.0,29509421.0,2445301716.0,7050878191.5
sh603755,日辰股份,2020-10-29,69.86,73.33,69.12,72.4,71.5,352854.0,25333245.0,2476081737.6,7139630504.400001
sh603755,日辰股份,2020-10-30,73.06,73.06,67.0,67.64,72.4,515506.0,35597731.0,2313289623.36,6670229382.84
sh603755,日辰股份,2020-11-02,67.64,68.28,66.04,66.8,67.64,287100.0,19205256.0,2284561603.2,6587393890.8
sh603755,日辰股份,2020-11-03,68.0,70.55,66.5,70.18,66.8,355690.0,24686226.0,2400157684.32,6920708132.58
sh603755,日辰股份,2020-11-04,69.5,70.79,68.9,69.35,70.18,213473.0,14873732.0,2371771664.4,6838858777.349999
sh603755,日辰股份,2020-11-05,69.6,70.5,69.04,70.05,69.35,254600.0,17785178.0,2395711681.2,6907888354.05
sh603755,日辰股份,2020-11-06,70.5,70.86,68.99,69.75,70.05,235200.0,16404010.0,2385451674.0,6878304249.75
sh603755,日辰股份,2020-11-09,70.27,71.0,67.82,68.01,69.75,621237.0,42751412.0,2325943632.24,6706716444.81
sh603755,日辰股份,2020-11-10,67.99,71.93,66.71,70.56,68.01,509100.0,35451610.0,2413153693.44,6958181331.360001
sh603755,日辰股份,2020-11-11,70.56,71.83,68.0,68.4,70.56,264662.0,18405326.0,2339281641.6,6745175780.400001
sh603755,日辰股份,2020-11-12,68.36,70.38,67.79,70.38,68.4,250400.0,17178138.0,2406997689.12,6940430868.78
sh603755,日辰股份,2020-11-13,70.69,71.51,66.0,67.34,70.38,652084.0,44109890.0,2303029616.16,6640645278.54
sh603755,日辰股份,2020-11-16,66.89,67.5,65.55,66.06,67.34,381968.0,25344417.0,2259253585.44,6514419766.86
sh603755,日辰股份,2020-11-17,66.4,67.45,63.87,67.23,66.06,488817.0,32185922.0,2299267613.52,6629797773.63
sh603755,日辰股份,2020-11-18,66.0,67.2,66.0,66.72,67.23,173399.0,11543804.0,2281825601.28,6579504796.32
sh603755,日辰股份,2020-11-19,66.35,67.34,64.7,64.72,66.72,461263.0,30289263.0,2213425553.28,6382277434.320001
sh603755,日辰股份,2020-11-20,65.0,66.79,64.03,66.1,64.72,474568.0,31101323.0,2260621586.4,6518364314.099999
sh603755,日辰股份,2020-11-23,66.7,66.7,64.84,64.98,66.1,307600.0,20127160.0,2222317559.52,6407916991.38
sh603755,日辰股份,2020-11-24,65.18,65.18,62.3,62.98,64.98,604151.0,38155853.0,2153917511.52,6210689629.38
sh603755,日辰股份,2020-11-25,62.97,63.28,60.7,60.91,62.98,534979.0,32727601.0,2083123461.84,6006559309.71
sh603755,日辰股份,2020-11-26,60.93,61.6,60.12,60.56,60.91,392829.0,23882602.0,2071153453.44,5972044521.360001
sh603755,日辰股份,2020-11-27,60.1,61.51,59.0,60.42,60.56,461251.0,27867939.0,2066365450.08,5958238606.02
sh603755,日辰股份,2020-11-30,59.72,60.7,58.71,58.75,60.42,480074.0,28561171.0,2009251410.0,5793553758.75
sh603755,日辰股份,2020-12-01,59.6,62.19,59.02,62.01,58.75,508458.0,30949305.0,2120743488.24,6115034358.81
sh603755,日辰股份,2020-12-02,62.02,62.86,61.63,62.17,62.01,274111.0,17063430.0,2126215492.08,6130812547.77
sh603755,日辰股份,2020-12-03,62.36,64.5,61.46,64.39,62.17,287867.0,18175282.0,2202139545.36,6349734919.59
sh603755,日辰股份,2020-12-04,63.39,70.83,62.9,70.83,64.39,988818.0,67960859.0,2422387699.92,6984807025.23
sh603755,日辰股份,2020-12-07,73.72,77.91,69.6,71.52,70.83,1317677.0,95638176.0,2445985716.48,7052850465.12
sh603755,日辰股份,2020-12-08,71.51,72.0,69.02,70.8,71.52,646894.0,45571482.0,2421361699.2,6981848614.799999
sh603755,日辰股份,2020-12-09,69.09,71.12,68.93,70.2,70.8,381848.0,26801018.0,2400841684.8,6922680406.2
sh603755,日辰股份,2020-12-10,69.73,74.48,69.4,72.05,70.2,912163.0,66664717.0,2464111729.2000003,7105115716.049999
sh603755,日辰股份,2020-12-11,71.8,72.5,70.01,71.27,72.05,590489.0,42330395.0,2437435710.48,7028197044.87
sh603755,日辰股份,2020-12-14,71.11,75.99,70.52,74.8,71.27,896512.0,66124043.0,2558161795.2000003,7376303338.8
sh603755,日辰股份,2020-12-15,72.66,79.52,72.66,77.5,74.8,1034138.0,79849315.0,2650501860.0,7642560277.5
sh603755,日辰股份,2020-12-16,77.1,82.99,76.01,82.43,77.5,968805.0,77845401.0,2819107978.32,8128725724.83
sh603755,日辰股份,2020-12-17,82.43,83.0,79.89,81.2,82.43,734605.0,59494553.0,2777041948.8,8007430897.200001
sh603755,日辰股份,2020-12-18,81.16,81.2,76.51,78.01,81.2,1150080.0,89750263.0,2667943872.24,7692853254.81
sh603755,日辰股份,2020-12-21,78.09,81.8,77.65,81.46,78.01,635267.0,50633882.0,2785933955.04,8033070454.26
sh603755,日辰股份,2020-12-22,83.86,83.86,74.0,76.12,81.46,1278397.0,98052980.0,2603305826.88,7506473397.719999
sh603755,日辰股份,2020-12-23,76.06,79.53,75.13,78.0,76.12,636071.0,49494782.0,2667601872.0,7691867118.000001
sh603755,日辰股份,2020-12-24,77.21,79.3,76.1,77.21,78.0,589257.0,45839406.0,2640583853.04,7613962310.01
sh603755,日辰股份,2020-12-25,76.21,77.8,73.23,77.26,77.21,858850.0,64591473.0,2642293854.24,7618892994.059999
sh603755,日辰股份,2020-12-28,77.24,77.97,74.18,76.17,77.26,658389.0,49594429.0,2605015828.08,7511404081.77
sh603755,日辰股份,2020-12-29,76.2,79.0,75.8,78.05,76.17,406673.0,31537212.0,2669311873.2000003,7696797802.049999
sh603755,日辰股份,2020-12-30,78.01,78.24,75.99,76.66,78.05,524194.0,40232629.0,2621773839.84,7559724785.46
sh603755,日辰股份,2020-12-31,75.5,79.29,75.5,78.13,76.66,456448.0,35550445.0,2672047875.12,7704686896.53
sh603755,日辰股份,2021-01-04,78.3,79.46,77.01,78.32,78.13,463869.0,36317207.0,2678545879.68,7723423495.92
sh603755,日辰股份,2021-01-05,78.16,85.5,77.7,82.25,78.32,1012214.0,82438966.0,2812951974.0,8110975262.25
sh603755,日辰股份,2021-01-06,81.8,81.94,77.86,79.78,82.25,883147.0,69832552.0,2728477914.7200003,7867399470.179999
sh603755,日辰股份,2021-01-07,79.16,79.16,73.8,73.8,79.78,868042.0,65910839.0,2523961771.2000003,7277689657.799999
sh603755,日辰股份,2021-01-08,74.02,75.95,71.0,72.37,73.8,483667.0,35369030.0,2475055736.88,7136672093.97
sh603755,日辰股份,2021-01-11,71.6,72.9,70.22,70.45,72.37,709279.0,50694168.0,2409391690.8,6947333826.45
sh603755,日辰股份,2021-01-12,69.49,72.6,69.27,70.66,70.45,441581.0,31360111.0,2416573695.84,6968042699.46
sh603755,日辰股份,2021-01-13,70.66,70.68,68.0,68.09,70.66,766819.0,52690907.0,2328679634.1600003,6714605539.290001
sh603755,日辰股份,2021-01-14,68.09,68.99,65.43,65.74,68.09,801200.0,53391655.0,2248309577.76,6482863388.940001
sh603755,日辰股份,2021-01-15,65.57,68.68,65.0,68.4,65.74,644409.0,43102001.0,2339281641.6,6745175780.400001
sh603755,日辰股份,2021-01-18,68.5,72.57,68.3,71.06,68.4,641880.0,45599385.0,2430253705.44,7007488171.86
sh603755,日辰股份,2021-01-19,71.59,73.52,69.8,72.77,71.06,475000.0,34139464.0,2488735746.48,7176117566.37
sh603755,日辰股份,2021-01-20,72.6,75.3,70.26,74.83,72.77,519308.0,37907654.0,2559187795.92,7379261749.23
sh603755,日辰股份,2021-01-21,74.33,80.88,73.85,79.38,74.83,1081399.0,84045131.0,2714797905.12,7827953997.78
sh603755,日辰股份,2021-01-22,78.3,82.0,78.01,80.13,79.38,905744.0,72869434.0,2740447923.12,7901914258.530001
sh603755,日辰股份,2021-01-25,79.47,83.0,79.0,82.47,80.13,596100.0,48568967.0,2820475979.28,8132670272.07
sh603755,日辰股份,2021-01-26,77.8,83.23,77.8,82.49,82.47,482300.0,39225814.0,2821159979.76,8134642545.69
sh603755,日辰股份,2021-01-27,80.81,82.5,79.07,81.73,82.49,414028.0,33460699.0,2795167961.5200005,8059696148.129999
sh603755,日辰股份,2021-01-28,79.54,85.95,79.54,83.0,81.73,888318.0,74231011.0,2838601991.9999995,8184935523.0
sh603755,日辰股份,2021-01-29,81.5,82.49,78.38,79.4,83.0,654699.0,52419765.0,2715481905.6000004,7829926271.4
sh603755,日辰股份,2021-02-01,80.52,81.52,76.11,78.05,79.4,584852.0,45706353.0,2669311873.2000003,7696797802.049999
sh603755,日辰股份,2021-02-02,78.33,79.59,75.65,78.99,78.05,663154.0,51680878.0,2701459895.76,7789494662.190001
sh603755,日辰股份,2021-02-03,80.0,80.0,73.95,74.12,78.99,906764.0,68599109.0,2534905778.88,7309246035.72
sh603755,日辰股份,2021-02-04,74.11,74.2,69.08,70.17,74.12,757475.0,53718189.0,2399815684.08,6919721995.77
sh603755,日辰股份,2021-02-05,70.38,72.09,66.01,67.87,70.17,702400.0,48298019.0,2321155628.88,6692910529.47
sh603755,日辰股份,2021-02-08,66.86,68.0,63.86,64.44,67.87,902015.0,58699771.0,2203849546.56,6354665603.64
sh603755,日辰股份,2021-02-09,64.23,69.0,64.23,68.88,64.44,571370.0,38544745.0,2355697653.12,6792510347.280001
sh603755,日辰股份,2021-02-10,68.88,69.51,66.4,67.46,68.88,485300.0,32893587.0,2307133619.04,6652478920.259999
sh603755,日辰股份,2021-02-18,68.0,68.73,65.25,65.28,67.46,573249.0,37977620.0,2232577566.72,6437501095.679999
sh603755,日辰股份,2021-02-19,65.2,67.68,64.41,67.3,65.28,596400.0,39668008.0,2301661615.2,6636700731.3
sh603755,日辰股份,2021-02-22,67.3,67.99,65.35,66.0,67.3,698244.0,46140935.0,2257201584.0,6508502946.0
sh603755,日辰股份,2021-02-23,65.49,68.23,64.94,65.09,66.0,651032.0,43227321.0,2226079562.16,6418764496.29
sh603755,日辰股份,2021-02-24,64.76,65.78,62.49,64.41,65.09,1321056.0,85103819.0,2202823545.84,6351707193.21
sh603755,日辰股份,2021-02-25,64.42,65.21,60.85,63.24,64.41,978880.0,61181841.0,2162809517.76,6236329186.44
sh603755,日辰股份,2021-02-26,61.52,63.0,60.24,60.45,63.24,584959.0,35727556.0,2067391450.8,5961197016.45
sh603755,日辰股份,2021-03-01,62.18,62.18,58.25,59.24,60.45,1100793.0,65313147.0,2026009421.76,5841874462.44
sh603755,日辰股份,2021-03-02,59.23,65.16,58.89,65.16,59.24,2204990.0,138481523.0,2228473563.84,6425667453.96
sh603755,日辰股份,2021-03-03,65.16,65.8,62.19,64.0,65.16,1416166.0,89982187.0,2188801536.0,6311275584.0
sh603755,日辰股份,2021-03-04,63.61,63.94,59.1,59.89,64.0,1351298.0,81558272.0,2048239437.36,5905973355.09
sh603755,日辰股份,2021-03-05,59.89,61.87,59.01,61.22,59.89,914172.0,55210183.0,2093725469.28,6037129550.82
sh603755,日辰股份,2021-03-08,61.0,61.0,56.0,56.21,61.22,1060894.0,62009225.0,1922383349.04,5543075009.01
sh603755,日辰股份,2021-03-09,56.22,58.0,53.9,54.12,56.21,845382.0,47111799.0,1850905298.88,5336972415.719999
sh603755,日辰股份,2021-03-10,56.0,57.1,53.5,54.21,54.12,776998.0,42854862.0,1853983301.04,5345847647.009999
sh603755,日辰股份,2021-03-11,53.96,59.0,53.88,58.5,54.21,1094226.0,62784360.0,2000701404.0,5768900338.5
sh603755,日辰股份,2021-03-12,59.66,60.2,56.22,57.56,58.5,495897.0,28546104.0,1968553381.44,5676203478.360001
sh603755,日辰股份,2021-03-15,58.38,59.0,55.52,55.85,57.56,373675.0,20961656.0,1910071340.4,5507574083.849999
sh603755,日辰股份,2021-03-16,55.74,56.47,54.55,55.66,55.85,320700.0,17824132.0,1903573335.84,5488837484.46
sh603755,日辰股份,2021-03-17,55.65,58.58,54.66,56.68,55.66,362873.0,20636829.0,1938457360.32,5589423439.08
sh603755,日辰股份,2021-03-18,56.5,59.0,56.5,58.06,56.68,379200.0,21973558.0,1985653393.44,5725510318.86
sh603755,日辰股份,2021-03-19,57.56,57.6,55.82,56.0,58.06,222900.0,12598874.0,1915201344.0,5522366136.0
sh603755,日辰股份,2021-03-22,56.67,56.9,54.13,55.98,56.0,434109.0,24084957.0,1914517343.52,5520393862.38
sh603755,日辰股份,2021-03-23,59.08,61.58,59.08,61.58,55.98,573019.0,35114391.0,2106037477.92,6072630475.9800005
sh603755,日辰股份,2021-03-24,62.21,63.13,58.58,60.18,61.58,970814.0,58437775.0,2058157444.32,5934571322.58
sh603755,日辰股份,2021-03-25,58.01,64.5,58.01,64.05,60.18,1165573.0,72171769.0,2190511537.2,6316206268.05
sh603755,日辰股份,2021-03-26,64.06,69.5,63.1,68.34,64.05,1446332.0,97543837.0,2337229640.1600003,6739258959.54
sh603755,日辰股份,2021-03-29,67.0,71.48,66.06,70.85,68.34,836120.0,58256170.0,2423071700.4,6986779298.85
sh603755,日辰股份,2021-03-30,70.2,73.16,69.61,72.7,70.85,822995.0,59577185.0,2486341744.8,7169214608.7
sh603755,日辰股份,2021-03-31,73.45,73.45,68.32,68.84,72.7,629850.0,44336990.0,2354329652.1600003,6788565800.04
sh603755,日辰股份,2021-04-01,69.16,70.88,67.64,68.84,68.84,612575.0,42422646.0,2354329652.1600003,6788565800.04
sh603755,日辰股份,2021-04-02,68.21,70.19,65.33,66.59,68.84,848531.0,56832944.0,2277379598.16,6566685017.79
sh603755,日辰股份,2021-04-06,67.13,68.98,66.6,67.48,66.59,575168.0,39065193.0,2307817619.52,6654451193.88
sh603755,日辰股份,2021-04-07,67.7,68.5,66.03,66.87,67.48,309298.0,20740160.0,2286955604.88,6594296848.47
sh603755,日辰股份,2021-04-08,66.79,67.55,65.5,65.84,66.87,280600.0,18573920.0,2251729580.16,6492724757.04
sh603755,日辰股份,2021-04-09,65.18,66.55,64.01,65.1,65.84,351752.0,22915625.0,2226421562.4,6419750633.1
sh603755,日辰股份,2021-04-12,64.7,65.65,62.3,62.72,65.1,251294.0,15955630.0,2145025505.28,6185050072.32
sh603755,日辰股份,2021-04-13,62.72,64.19,62.15,62.8,62.72,248360.0,15634019.0,2147761507.2000003,6192939166.8
sh603755,日辰股份,2021-04-14,63.0,65.99,62.52,64.6,62.8,488600.0,31783811.0,2209321550.4,6370443792.599999
sh603755,日辰股份,2021-04-15,65.6,66.95,63.5,65.26,64.6,448491.0,29308221.0,2231893566.24,6435528822.06
sh603755,日辰股份,2021-04-16,64.3,67.3,64.22,65.52,65.26,355950.0,23455140.0,2240785572.48,6461168379.12
sh603755,日辰股份,2021-04-19,65.5,67.49,64.7,66.82,65.52,433544.0,28688235.0,2285245603.68,6589366164.42
sh603755,日辰股份,2021-04-20,67.66,68.0,65.32,66.3,66.82,488849.0,32488176.0,2267461591.2,6538087050.299999
sh603755,日辰股份,2021-04-21,65.9,66.6,64.15,65.09,66.3,427500.0,27811343.0,2226079562.16,6418764496.29
sh603755,日辰股份,2021-04-22,65.86,67.8,63.51,65.99,65.09,603498.0,39905088.0,2256859583.76,6507516809.19
sh603755,日辰股份,2021-04-23,65.95,66.4,64.35,64.56,65.99,367559.0,24072689.0,2207953549.44,6366499245.36
sh603755,日辰股份,2021-04-26,64.59,65.9,62.5,63.61,64.56,617200.0,39603549.0,2175463526.64,6272816248.41
sh603755,日辰股份,2021-04-27,63.62,65.51,62.51,65.08,63.61,315126.0,20116862.0,2225737561.92,6417778359.48
sh603755,日辰股份,2021-04-28,60.8,62.0,58.57,60.05,65.08,1922883.0,113930466.0,2053711441.2,5921751544.05
sh603755,日辰股份,2021-04-29,59.76,63.8,59.74,61.7,60.05,907375.0,56707021.0,2110141480.8,6084464117.7
sh603755,日辰股份,2021-04-30,61.42,63.8,61.0,62.45,61.7,403805.0,25375745.0,2135791498.8,6158424378.45
sh603755,日辰股份,2021-05-06,63.0,68.7,62.58,67.88,62.45,1458691.0,98000888.0,2321497629.12,6693896666.28
sh603755,日辰股份,2021-05-07,67.9,68.68,66.62,67.5,67.88,745900.0,50496652.0,2308501620.0,6656423467.5
sh603755,日辰股份,2021-05-10,68.8,70.0,65.04,66.9,67.5,490491.0,33057762.0,2287981605.6,6597255258.900001
sh603755,日辰股份,2021-05-11,68.97,68.97,65.22,65.92,66.9,303150.0,20055435.0,2254465582.08,6500613851.52
sh603755,日辰股份,2021-05-12,65.61,66.29,64.03,64.16,65.92,304947.0,19702963.0,2194273539.84,6327053772.96
sh603755,日辰股份,2021-05-13,63.81,63.81,62.01,62.8,64.16,204830.0,12885779.0,2147761507.2000003,6192939166.8
sh603755,日辰股份,2021-05-14,62.93,63.73,62.11,62.75,62.8,235030.0,14797849.0,2146051506.0,6188008482.75
sh603755,日辰股份,2021-05-17,62.75,64.21,61.51,62.45,62.75,319354.0,20067959.0,2135791498.8,6158424378.45
sh603755,日辰股份,2021-05-18,62.59,63.33,61.61,62.3,62.45,222671.0,13833330.0,2130661495.2,6143632326.3
sh603755,日辰股份,2021-05-19,62.3,62.64,61.5,62.11,62.3,180767.0,11171123.0,2124163490.64,6124895726.91
sh603755,日辰股份,2021-05-20,61.8,61.8,60.65,61.63,62.11,212600.0,13012480.0,2107747479.12,6077561160.03
sh603755,日辰股份,2021-05-21,61.67,62.26,60.98,60.99,61.63,188512.0,11617803.0,2085859463.76,6014448404.190001
sh603755,日辰股份,2021-05-24,60.72,61.01,59.96,60.18,60.99,199500.0,12029390.0,2058157444.32,5934571322.58
sh603755,日辰股份,2021-05-25,60.18,63.0,59.11,61.85,60.18,484271.0,29667860.0,2115271484.4,6099256169.849999
sh603755,日辰股份,2021-05-26,61.5,62.81,61.5,62.28,61.85,358088.0,22266755.0,2129977494.72,6141660052.679999
sh603755,日辰股份,2021-05-27,61.5,63.1,61.22,62.86,62.28,336425.0,21031354.0,2149813508.64,6198855987.66
sh603755,日辰股份,2021-05-28,62.86,62.9,61.99,62.38,62.86,471351.0,29414427.0,2133397497.12,6151521420.78
sh603755,日辰股份,2021-05-31,62.18,63.46,61.59,63.3,62.38,485622.0,30613067.0,2164861519.2,6242246007.299999
sh603755,日辰股份,2021-06-01,63.3,66.27,63.12,66.25,63.3,756947.0,49250379.0,2265751590.0,6533156366.25
sh603755,日辰股份,2021-06-02,66.28,66.66,65.21,65.7,66.25,569233.0,37488453.0,2246941576.8,6478918841.7
sh603755,日辰股份,2021-06-03,65.04,66.49,64.55,65.61,65.7,344371.0,22631849.0,2243863574.64,6470043610.41
sh603755,日辰股份,2021-06-04,65.61,67.35,65.42,66.55,65.61,377895.0,25120763.0,2276011597.2,6562740470.55
sh603755,日辰股份,2021-06-07,66.55,68.79,66.05,68.57,66.55,461163.0,31314774.0,2345095645.68,6761940106.17
sh603755,日辰股份,2021-06-08,68.59,69.33,67.88,68.12,68.57,617321.0,42230270.0,2329705634.88,6717563949.72
sh603755,日辰股份,2021-06-09,68.32,68.32,66.35,66.76,68.12,335941.0,22520514.0,2283193602.24,6583449343.56
sh603755,日辰股份,2021-06-10,64.0,66.5,62.2,66.5,66.76,1913782.0,121957004.0,2274301596.0,6557809786.499999
sh603755,日辰股份,2021-06-11,65.7,66.0,62.7,65.5,66.5,864721.0,55580010.0,2240101572.0,6459196105.5
sh603755,日辰股份,2021-06-15,63.63,63.98,62.01,63.1,65.5,324000.0,20457802.0,2158021514.4,6222523271.099999
sh603755,XD日辰股,2021-06-16,62.8,62.8,60.8,61.19,62.8,416300.0,25604010.0,2092699468.56,6034171140.39
sh603755,日辰股份,2021-06-17,60.88,62.42,60.5,61.91,61.19,267300.0,16414617.0,2117323485.84,6105172990.71
sh603755,日辰股份,2021-06-18,61.0,64.78,60.0,64.78,61.91,422300.0,26264100.0,2215477554.72,6388194255.18
sh603755,日辰股份,2021-06-21,63.75,63.75,62.71,62.88,64.78,134000.0,8450785.0,2150497509.12,6200828261.280001
sh603755,日辰股份,2021-06-22,63.44,63.44,61.3,62.1,62.88,223200.0,13822362.0,2123821490.4,6123909590.1
sh603755,日辰股份,2021-06-23,61.5,62.16,61.05,61.13,62.1,164700.0,10129594.0,2090647467.12,6028254319.530001
sh603755,日辰股份,2021-06-24,61.32,61.9,60.6,61.73,61.13,107000.0,6539256.0,2111167481.52,6087422528.13
sh603755,日辰股份,2021-06-25,61.49,63.71,61.36,63.54,61.73,267900.0,16911147.0,2173069524.96,6265913290.74
sh603755,日辰股份,2021-06-28,63.54,65.6,62.54,63.98,63.54,631600.0,40885682.0,2188117535.52,6309303310.379999
sh603755,日辰股份,2021-06-29,63.98,64.34,62.02,63.95,63.98,275503.0,17472476.0,2187091534.8,6306344899.95
sh603755,日辰股份,2021-06-30,65.0,65.0,62.0,62.42,63.95,271299.0,17160640.0,2134765498.08,6155465968.02
sh603755,日辰股份,2021-07-01,62.01,63.35,61.61,62.39,62.42,159800.0,9961569.0,2133739497.36,6152507557.589999
sh603755,日辰股份,2021-07-02,62.08,62.72,60.65,61.08,62.39,250500.0,15426411.0,2088937465.92,6023323635.48
sh603755,日辰股份,2021-07-05,61.08,61.73,60.17,60.83,61.08,188000.0,11440813.0,2080387459.92,5998670215.23
sh603755,日辰股份,2021-07-06,61.3,61.5,59.7,60.39,60.83,186900.0,11252322.0,2065339449.36,5955280195.59
sh603755,日辰股份,2021-07-07,60.0,61.19,59.97,60.72,60.39,123700.0,7479807.0,2076625457.28,5987822710.32
sh603755,日辰股份,2021-07-08,60.25,61.0,59.91,60.02,60.72,230057.0,13828974.0,2052685440.48,5918793133.620001
sh603755,日辰股份,2021-07-09,59.53,60.56,58.99,60.02,60.02,115600.0,6927232.0,2052685440.48,5918793133.620001
sh603755,日辰股份,2021-07-12,60.26,60.87,59.0,59.33,60.02,218038.0,12978629.0,2029087423.92,5850749693.73
sh603755,日辰股份,2021-07-13,59.33,60.28,58.9,60.27,59.33,180920.0,10807560.0,2061235446.48,5943446553.87
sh603755,日辰股份,2021-07-14,60.27,61.39,59.59,60.31,60.27,131700.0,7944357.0,2062603447.44,5947391101.110001
sh603755,日辰股份,2021-07-15,60.65,61.93,59.51,59.92,60.31,217557.0,13177264.0,2049265438.08,5908931765.52
sh603755,日辰股份,2021-07-16,59.95,60.06,59.0,59.53,59.92,175100.0,10408655.0,2035927428.72,5870472429.929999
sh603755,日辰股份,2021-07-19,59.2,59.55,59.02,59.25,59.53,93600.0,5541695.0,2026351422.0,5842860599.249999
sh603755,日辰股份,2021-07-20,59.5,59.52,57.76,58.72,59.25,278129.0,16262613.0,2008225409.28,5790595348.320001
sh603755,日辰股份,2021-07-21,58.72,59.29,58.0,59.05,58.72,135103.0,7896658.0,2019511417.2,5823137863.049999
sh603755,日辰股份,2021-07-22,58.54,59.0,57.5,58.59,59.05,161200.0,9363986.0,2003779406.16,5777775569.79
sh603755,日辰股份,2021-07-23,58.77,59.0,56.36,56.84,58.59,213296.0,12226878.0,1943929364.16,5605201628.04
sh603755,日辰股份,2021-07-26,55.48,56.8,54.3,55.75,56.84,229637.0,12667270.0,1906651338.0,5497712715.75
sh603755,日辰股份,2021-07-27,55.92,56.36,51.15,52.0,55.75,416494.0,21883607.0,1778401248.0,5127911412.0
sh603755,日辰股份,2021-07-28,50.4,51.75,47.57,48.28,52.0,420600.0,20410424.0,1651177158.72,4761068518.68
sh603755,日辰股份,2021-07-29,48.07,49.63,46.91,47.76,48.28,254690.0,12253343.0,1633393146.24,4709789404.559999
sh603755,日辰股份,2021-07-30,49.76,49.78,46.08,49.78,47.76,448650.0,21314947.0,1702477194.72,4908989040.18
sh603755,日辰股份,2021-08-02,49.97,51.5,49.05,50.86,49.78,246850.0,12461385.0,1739413220.64,5015491815.66
sh603755,日辰股份,2021-08-03,52.0,52.0,50.02,50.57,50.86,97300.0,4956344.0,1729495213.6799998,4986893848.17
sh603755,日辰股份,2021-08-04,50.6,51.49,48.67,49.3,50.57,186400.0,9185223.0,1686061183.2,4861654473.3
sh603755,日辰股份,2021-08-05,49.37,49.63,48.69,49.3,49.3,141300.0,6953135.0,1686061183.2,4861654473.3
sh603755,日辰股份,2021-08-06,49.35,49.35,48.01,48.73,49.3,156300.0,7591809.0,1666567169.52,4805444675.13
sh603755,日辰股份,2021-08-09,48.72,51.5,48.04,51.3,48.73,210200.0,10583554.0,1754461231.2,5058881835.3
sh603755,日辰股份,2021-08-10,52.19,55.68,51.02,54.34,51.3,487205.0,26135947.0,1858429304.16,5358667425.54
sh603755,日辰股份,2021-08-11,54.34,54.51,52.36,52.64,54.34,202903.0,10812656.0,1800289263.36,5191024167.84
sh603755,日辰股份,2021-08-12,52.64,53.47,51.46,51.87,52.64,128400.0,6678462.0,1773955244.88,5115091633.47
sh603755,日辰股份,2021-08-13,51.65,52.03,50.24,50.7,51.87,140100.0,7125276.0,1733941216.8000002,4999713626.7
sh603755,日辰股份,2021-08-16,49.77,52.26,49.4,51.38,50.7,118400.0,6025372.0,1757197233.12,5066770929.78
sh603755,日辰股份,2021-08-17,52.19,52.19,48.77,48.82,51.38,210904.0,10473819.0,1669645171.6799998,4814319906.42
sh603755,日辰股份,2021-08-18,48.91,49.33,47.55,49.01,48.82,107600.0,5236004.0,1676143176.2399998,4833056505.81
sh603755,日辰股份,2021-08-19,48.96,49.84,47.83,48.12,49.01,125262.0,6092977.0,1645705154.88,4745290329.72
sh603755,日辰股份,2021-08-20,48.5,48.88,46.8,48.0,48.12,169616.0,8004501.0,1641601152.0,4733456688.0
sh603755,日辰股份,2021-08-23,47.77,47.99,43.69,43.8,48.0,892000.0,40142033.0,1497961051.2,4319279227.8
sh603755,日辰股份,2021-08-24,43.36,43.37,40.8,40.81,43.8,1618716.0,66770534.0,1395702979.4399998,4024424321.61
sh603755,日辰股份,2021-08-25,40.53,42.0,40.13,41.99,40.81,783235.0,32384744.0,1436059007.76,4140788465.19
sh603755,日辰股份,2021-08-26,41.82,43.0,40.22,40.9,41.99,653700.0,26929091.0,1398780981.6,4033299552.9
sh603755,日辰股份,2021-08-27,40.91,41.5,39.94,40.38,40.9,597700.0,24182626.0,1380996969.12,3982020438.78
sh603755,日辰股份,2021-08-30,40.38,40.58,39.01,39.06,40.38,506802.0,19911881.0,1335852937.44,3851850379.86
sh603755,日辰股份,2021-08-31,39.65,39.89,38.85,39.44,39.06,427400.0,16759218.0,1348848946.56,3889323578.64
sh603755,日辰股份,2021-09-01,39.3,40.02,38.5,39.8,39.44,553641.0,21731817.0,1361160955.2,3924824503.8
sh603755,日辰股份,2021-09-02,39.74,39.98,38.6,39.05,39.8,370402.0,14443867.0,1335510937.2,3850864243.05
sh603755,日辰股份,2021-09-03,38.62,39.75,38.6,39.31,39.05,423730.0,16633187.0,1344402943.44,3876503800.11
sh603755,日辰股份,2021-09-06,39.0,39.75,38.75,39.31,39.31,566500.0,22209060.0,1344402943.44,3876503800.11
sh603755,日辰股份,2021-09-07,39.31,40.71,38.9,39.25,39.31,798009.0,31459950.0,1342350942.0,3870586979.25
sh603755,日辰股份,2021-09-08,39.33,40.78,38.94,40.1,39.25,768013.0,30786091.0,1371420962.4,3954408608.1
sh603755,日辰股份,2021-09-09,40.2,40.54,39.72,40.08,40.1,323330.0,12941513.0,1370736961.92,3952436334.48
sh603755,日辰股份,2021-09-10,40.1,40.39,39.22,39.39,40.08,506100.0,20024299.0,1347138945.36,3884392894.59
sh603755,日辰股份,2021-09-13,39.68,39.8,38.01,38.41,39.39,545419.0,21178994.0,1313622921.84,3787751487.21
sh603755,日辰股份,2021-09-14,38.45,39.5,38.3,38.67,38.41,740708.0,28685924.0,1322514928.0800002,3813391044.27
sh603755,日辰股份,2021-09-15,38.27,38.59,37.03,37.16,38.67,498100.0,18623924.0,1270872891.84,3664484385.96
sh603755,日辰股份,2021-09-16,37.4,38.12,36.89,37.87,37.16,530400.0,19953755.0,1295154908.88,3734500099.47
sh603755,日辰股份,2021-09-17,37.69,41.49,36.92,41.15,37.87,1358504.0,53713209.0,1407330987.6,4057952973.15
sh603755,日辰股份,2021-09-22,40.52,40.52,39.15,39.54,41.15,749890.0,29748130.0,1352268948.96,3899184946.74
sh603755,日辰股份,2021-09-23,39.54,39.54,38.4,38.52,39.54,677560.0,26258606.0,1317384924.48,3798598992.12
sh603755,日辰股份,2021-09-24,38.26,41.6,38.25,39.83,38.52,1011433.0,40361288.0,1362186955.92,3927782914.23
sh603755,日辰股份,2021-09-27,39.76,41.5,39.1,41.08,39.83,1007737.0,41217113.0,1404936985.92,4051050015.48
sh603755,日辰股份,2021-09-28,40.51,40.55,39.5,40.17,41.08,476964.0,19022237.0,1373814964.0800002,3961311565.77
sh603755,日辰股份,2021-09-29,40.17,42.35,39.35,42.14,40.17,884557.0,36394457.0,1441189011.36,4155580517.34
sh603755,日辰股份,2021-09-30,42.19,43.0,41.11,42.5,42.14,784503.0,33119536.0,1453501020.0000002,4191081442.5
sh603755,日辰股份,2021-10-08,42.48,46.0,41.66,45.05,42.5,929672.0,41297083.0,1540711081.1999998,4442546329.05
sh603755,日辰股份,2021-10-11,45.15,47.0,45.15,46.85,45.05,1350313.0,62337883.0,1602271124.4,4620050954.85
sh603755,日辰股份,2021-10-12,45.81,46.17,44.54,45.06,46.85,766513.0,34783239.0,1541053081.44,4443532465.860001
sh603755,日辰股份,2021-10-13,46.0,46.0,43.41,44.53,45.06,571600.0,25395927.0,1522927068.72,4391267214.93
sh603755,日辰股份,2021-10-14,44.22,45.45,44.0,44.99,44.53,462500.0,20759514.0,1538659079.76,4436629508.190001
sh603755,日辰股份,2021-10-15,44.98,44.99,42.53,44.94,44.99,897900.0,39132021.0,1536949078.56,4431698824.14
sh603755,日辰股份,2021-10-18,44.44,44.44,40.51,41.92,44.94,1151900.0,48044760.0,1433665006.08,4133885507.52
sh603755,日辰股份,2021-10-19,41.16,42.62,41.16,42.1,41.92,439400.0,18437938.0,1439821010.4,4151635970.1
sh603755,日辰股份,2021-10-20,42.78,42.78,41.11,41.58,42.1,422500.0,17587086.0,1422036997.92,4100356855.98
sh603755,日辰股份,2021-10-21,42.0,42.0,40.73,41.18,41.58,481400.0,19796772.0,1408356988.32,4060911383.58
sh603755,日辰股份,2021-10-22,41.18,41.96,40.35,41.59,41.18,401100.0,16541572.0,1422378998.1599998,4101342992.79
sh603755,日辰股份,2021-10-25,42.0,43.19,41.3,42.6,41.59,601600.0,25477364.0,1456921022.4,4200942810.6
sh603755,日辰股份,2021-10-26,42.58,42.62,40.67,40.73,42.6,683761.0,28230273.0,1392966977.52,4016535227.13
sh603755,日辰股份,2021-10-27,40.6,40.6,38.58,38.71,40.73,810000.0,31754244.0,1323882929.04,3817335591.51
sh603755,日辰股份,2021-10-28,38.85,40.28,38.01,39.57,38.71,752822.0,29790222.0,1353294949.68,3902143357.17
sh603755,日辰股份,2021-10-29,40.65,43.53,39.57,43.53,39.57,1582893.0,68266409.0,1488727044.72,4292653533.93
sh603755,日辰股份,2021-11-01,43.87,46.6,41.73,45.0,43.53,2685661.0,118542823.0,1539001080.0,4437615645.0
sh603755,日辰股份,2021-11-02,44.22,46.98,43.88,46.16,45.0,1727574.0,79069081.0,1578673107.84,4552007514.96
sh603755,日辰股份,2021-11-03,45.48,49.1,45.48,47.96,46.16,1613341.0,76395555.0,1640233151.0400002,4729512140.759999
sh603755,日辰股份,2021-11-04,47.2,51.77,47.2,50.95,47.96,1793650.0,88910246.0,1742491222.8000002,5024367046.95
sh603755,日辰股份,2021-11-05,50.49,50.9,48.56,49.39,50.95,1292713.0,64279340.0,1689139185.36,4870529704.59
sh603755,日辰股份,2021-11-08,49.38,49.38,47.28,47.71,49.39,933054.0,44715381.0,1631683145.0400002,4704858720.51
sh603755,日辰股份,2021-11-09,47.71,48.85,46.6,47.88,47.71,1189004.0,56516694.0,1637497149.12,4721623046.28
sh603755,日辰股份,2021-11-10,47.93,49.49,47.11,48.36,47.88,732245.0,35387033.0,1653913160.64,4768957613.16
sh603755,日辰股份,2021-11-11,47.5,49.22,47.39,48.62,48.36,701400.0,33851981.0,1662805166.88,4794597170.22
sh603755,日辰股份,2021-11-12,48.39,49.58,47.21,48.0,48.62,787300.0,37960280.0,1641601152.0,4733456688.0
sh603755,日辰股份,2021-11-15,47.9,49.49,47.14,49.13,48.0,732000.0,35579827.0,1680247179.12,4844890147.53
sh603755,日辰股份,2021-11-16,48.6,50.6,48.23,48.55,49.13,621900.0,30548439.0,1660411165.2,4787694212.55
sh603755,日辰股份,2021-11-17,48.4,48.85,47.39,47.6,48.55,567604.0,27114620.0,1627921142.4,4694011215.6
sh603755,日辰股份,2021-11-18,47.97,48.3,46.62,48.1,47.6,606700.0,28823563.0,1645021154.4,4743318056.099999
sh603755,日辰股份,2021-11-19,48.52,48.52,46.68,47.22,48.1,564100.0,26730496.0,1614925133.28,4656538016.82
sh603755,日辰股份,2021-11-22,46.88,47.55,46.55,46.87,47.22,566054.0,26643888.0,1602955124.88,4622023228.469999
sh603755,日辰股份,2021-11-23,46.71,47.5,46.2,46.2,46.87,631154.0,29270633.0,1580041108.8,4555952062.2
sh603755,日辰股份,2021-11-24,45.83,47.08,45.1,46.8,46.2,609600.0,27957768.0,1600561123.1999998,4615120270.8
sh603755,日辰股份,2021-11-25,46.79,46.79,45.45,45.52,46.8,373708.0,17125966.0,1556785092.4799998,4488894759.12
sh603755,日辰股份,2021-11-26,45.32,45.88,44.18,44.69,45.52,390300.0,17556268.0,1528399072.56,4407045403.889999
sh603755,日辰股份,2021-11-29,45.38,46.79,44.5,46.2,44.69,402799.0,18434905.0,1580041108.8,4555952062.2
sh603755,日辰股份,2021-11-30,46.03,46.46,45.7,45.91,46.2,250200.0,11511784.0,1570123101.84,4527354094.71
sh603755,日辰股份,2021-12-01,45.3,46.39,45.3,45.55,45.91,256800.0,11806900.0,1557811093.1999998,4491853169.55
sh603755,日辰股份,2021-12-02,45.37,46.18,45.0,45.15,45.55,249500.0,11370852.0,1544131083.6000001,4452407697.15
sh603755,日辰股份,2021-12-03,45.32,45.68,44.25,45.25,45.15,268920.0,12119633.0,1547551086.0,4462269065.25
sh603755,日辰股份,2021-12-06,45.25,45.63,43.89,44.03,45.25,338317.0,15055539.0,1505827056.72,4341960374.43
sh603755,日辰股份,2021-12-07,44.78,48.43,44.29,48.43,44.03,758217.0,35678945.0,1656307162.3200002,4775860570.83
sh603755,日辰股份,2021-12-08,49.96,49.96,47.8,48.6,48.43,1299464.0,63511987.0,1662121166.3999999,4792624896.6
sh603755,日辰股份,2021-12-09,48.91,49.57,47.68,48.55,48.6,913400.0,44438330.0,1660411165.2,4787694212.55
sh603755,日辰股份,2021-12-10,48.0,49.3,47.88,48.88,48.55,561700.0,27334691.0,1671697173.12,4820236727.28
sh603755,日辰股份,2021-12-13,48.8,49.69,48.1,49.0,48.88,733100.0,36086117.0,1675801176.0,4832070369.0
sh603755,日辰股份,2021-12-14,49.0,51.38,48.54,50.5,49.0,1035300.0,52087390.0,1727101212.0,4979990890.5
sh603755,日辰股份,2021-12-15,50.37,50.37,47.6,47.88,50.5,1006300.0,48738354.0,1637497149.12,4721623046.28
sh603755,日辰股份,2021-12-16,47.86,48.86,46.39,46.71,47.88,1204843.0,57245259.0,1597483121.0400002,4606245039.51
sh603755,日辰股份,2021-12-17,47.87,51.38,47.87,51.38,46.71,1861102.0,94984484.0,1757197233.12,5066770929.78
sh603755,日辰股份,2021-12-20,50.54,55.9,50.41,51.5,51.38,3415645.0,181841096.0,1761301236.0,5078604571.5
sh603755,日辰股份,2021-12-21,51.54,52.98,49.75,52.71,51.5,1887431.0,96964298.0,1802683265.04,5197927125.51
sh603755,日辰股份,2021-12-22,51.96,53.47,51.13,52.72,52.71,1195531.0,62327270.0,1803025265.28,5198913262.320001
sh603755,日辰股份,2021-12-23,52.78,55.68,51.1,52.0,52.72,959400.0,50843932.0,1778401248.0,5127911412.0
sh603755,日辰股份,2021-12-24,52.14,55.68,51.5,54.8,52.0,1193330.0,64418568.0,1874161315.2,5404029718.799999
sh603755,日辰股份,2021-12-27,54.3,56.47,52.88,56.2,54.8,1003339.0,55347215.0,1922041348.8,5542088872.200001
sh603755,日辰股份,2021-12-28,56.24,57.19,55.02,55.78,56.2,681300.0,38172916.0,1907677338.72,5500671126.18
sh603755,日辰股份,2021-12-29,55.69,55.78,53.93,55.01,55.78,430800.0,23652917.0,1881343320.24,5424738591.81
sh603755,日辰股份,2021-12-30,55.11,60.3,54.0,57.5,55.01,783953.0,44454012.0,1966501380.0,5670286657.5
sh603755,日辰股份,2021-12-31,57.2,58.69,55.38,57.0,57.5,756385.0,42893061.0,1949401368.0,5620979817.0
sh603755,日辰股份,2022-01-04,56.3,59.38,54.88,58.7,57.0,654954.0,37094112.0,2007541408.8,5788623074.7
sh603755,日辰股份,2022-01-05,58.68,58.68,54.97,56.73,58.7,765300.0,43213050.0,1940167361.52,5594354123.129999
sh603755,日辰股份,2022-01-06,56.22,56.23,53.0,53.99,56.73,814500.0,44058303.0,1846459295.76,5324152637.190001
sh603755,日辰股份,2022-01-07,53.8,53.8,50.44,53.02,53.99,1206372.0,62535031.0,1813285272.48,5228497366.62
sh603755,日辰股份,2022-01-10,52.11,54.98,51.61,54.53,53.02,883200.0,47372712.0,1864927308.7199998,5377404024.93
sh603755,日辰股份,2022-01-11,54.53,54.93,53.13,53.8,54.53,435396.0,23531275.0,1839961291.2,5305416037.8
sh603755,日辰股份,2022-01-12,53.99,55.48,53.39,55.32,53.8,481757.0,26345008.0,1891945327.68,5455308832.92
sh603755,日辰股份,2022-01-13,55.88,57.4,54.04,56.23,55.32,613154.0,34294642.0,1923067349.52,5545047282.63
sh603755,日辰股份,2022-01-14,56.23,57.6,54.4,54.53,56.23,508557.0,28431320.0,1864927308.7199998,5377404024.93
