数据由邢不行整理
股票代码,股票名称,交易日期,开盘价,最高价,最低价,收盘价,前收盘价,成交量,成交额,流通市值,总市值
sh603681,N永冠,2019-03-26,12.0,14.4,12.0,14.4,10.0,29618.0,426259.0,599729774.4,2398919097.6
sh603681,永冠新材,2019-03-27,15.84,15.84,15.84,15.84,14.4,1300.0,20592.0,659702751.84,2638811007.36
sh603681,永冠新材,2019-03-28,17.42,17.42,17.42,17.42,15.84,27249.0,474678.0,725506435.42,2902025741.68
sh603681,永冠新材,2019-03-29,19.16,19.16,19.16,19.16,17.42,53890.0,1032532.0,797973783.16,3191895132.64
sh603681,永冠新材,2019-04-01,21.08,21.08,21.08,21.08,19.16,97176.0,2048470.0,877937753.08,3511751012.32
sh603681,永冠新材,2019-04-02,23.19,23.19,23.19,23.19,21.08,118648.0,2751447.0,965814824.19,3863259296.76
sh603681,永冠新材,2019-04-03,25.51,25.51,25.51,25.51,23.19,148727.0,3794026.0,1062437954.51,4249751818.04
sh603681,永冠新材,2019-04-04,28.06,28.06,28.06,28.06,25.51,194285.0,5451637.0,1168640102.06,4674560408.24
sh603681,永冠新材,2019-04-08,30.87,30.87,30.87,30.87,28.06,205485.0,6343322.0,1285670703.87,5142682815.48
sh603681,永冠新材,2019-04-09,33.96,33.96,32.02,32.89,30.87,27659894.0,912004163.0,1369799463.89,5479197855.56
sh603681,永冠新材,2019-04-10,31.78,33.3,30.57,32.21,32.89,20339763.0,646272712.0,1341478891.21,5365915564.84
sh603681,永冠新材,2019-04-11,31.9,34.62,31.2,32.55,32.21,22041457.0,722470237.0,1355639177.55,5422556710.2
sh603681,永冠新材,2019-04-12,31.6,32.98,29.56,29.8,32.55,17413898.0,538740715.0,1241107449.8,4964429799.2
sh603681,永冠新材,2019-04-15,30.23,32.78,29.61,32.0,29.8,19813938.0,628294648.0,1332732832.0,5330931328.0
sh603681,永冠新材,2019-04-16,31.76,34.33,31.76,32.6,32.0,24542028.0,811237532.0,1357721572.6,5430886290.4
sh603681,永冠新材,2019-04-17,31.2,34.88,31.18,33.46,32.6,22618713.0,740358660.0,1393538767.46,5574155069.84
sh603681,永冠新材,2019-04-18,32.88,33.3,31.55,31.58,33.46,15823459.0,512453907.0,1315240713.58,5260962854.32
sh603681,永冠新材,2019-04-19,30.83,34.74,30.83,34.74,31.58,16858817.0,566464359.0,1446848080.74,5787392322.96
sh603681,永冠新材,2019-04-22,36.45,38.21,35.2,38.21,34.74,23045823.0,865392320.0,1591366297.21,6365465188.84
sh603681,永冠新材,2019-04-23,38.3,42.03,34.39,34.93,38.21,33363059.0,1310342030.0,1454761181.93,5819044727.72
sh603681,永冠新材,2019-04-24,32.05,33.43,31.5,32.32,34.93,23092875.0,749464608.0,1346060160.32,5384240641.28
sh603681,永冠新材,2019-04-25,31.8,32.78,29.85,30.21,32.32,16860019.0,529837102.0,1258183089.21,5032732356.84
sh603681,永冠新材,2019-04-26,30.42,31.15,29.64,30.43,30.21,11730707.0,357172417.0,1267345627.43,5069382509.72
sh603681,永冠新材,2019-04-29,29.74,29.98,27.39,27.39,30.43,11013891.0,309096808.0,1140736008.39,4562944033.56
sh603681,永冠新材,2019-04-30,26.51,27.36,26.21,26.7,27.39,8733038.0,233276289.0,1111998956.7,4447995826.8
sh603681,永冠新材,2019-05-06,26.24,27.39,24.7,24.88,26.7,9492661.0,246082374.0,1036199776.88,4144799107.52
sh603681,永冠新材,2019-05-07,25.13,25.86,24.91,25.52,24.88,7723023.0,195826237.0,1062854433.52,4251417734.08
sh603681,永冠新材,2019-05-08,24.49,26.39,24.24,25.31,25.52,8150220.0,205649700.0,1054108374.31,4216433497.24
sh603681,永冠新材,2019-05-09,24.99,26.31,24.86,25.9,25.31,8806516.0,226724592.0,1078680635.9,4314722543.6
sh603681,永冠新材,2019-05-10,26.5,28.33,26.07,27.9,25.9,14195886.0,385769181.0,1161976437.9,4647905751.6
sh603681,永冠新材,2019-05-13,27.32,29.88,26.55,28.9,27.9,14525451.0,411267736.0,1203624338.9,4814497355.6
sh603681,永冠新材,2019-05-14,28.2,28.5,26.01,26.28,28.9,13942615.0,377329815.0,1094506838.28,4378027353.12
sh603681,永冠新材,2019-05-15,26.53,26.95,26.07,26.65,26.28,8253571.0,219056418.0,1109916561.65,4439666246.6
sh603681,永冠新材,2019-05-16,26.3,26.65,25.63,26.2,26.65,7305594.0,190925567.0,1091175006.2,4364700024.8
sh603681,永冠新材,2019-05-17,25.83,26.13,23.78,24.17,26.2,8931878.0,222722594.0,1006629767.17,4026519068.68
sh603681,永冠新材,2019-05-20,23.98,24.0,22.16,22.98,24.17,5351894.0,123125098.0,957068764.98,3828275059.92
sh603681,永冠新材,2019-05-21,23.01,23.61,23.01,23.43,22.98,5110932.0,119378974.0,975810320.43,3903241281.72
sh603681,永冠新材,2019-05-22,23.41,23.41,22.4,22.88,23.43,4895280.0,111971582.0,952903974.88,3811615899.52
sh603681,永冠新材,2019-05-23,22.7,23.96,22.25,23.1,22.88,7757974.0,179628924.0,962066513.1,3848266052.4
sh603681,永冠新材,2019-05-24,22.78,25.37,22.6,24.17,23.1,10573299.0,252907595.0,1006629767.17,4026519068.68
sh603681,永冠新材,2019-05-27,23.88,24.47,23.45,24.47,24.17,7232294.0,173295136.0,1019124137.47,4076496549.88
sh603681,永冠新材,2019-05-28,24.18,25.48,24.0,24.09,24.47,9067865.0,224278684.0,1003297935.09,4013191740.36
sh603681,永冠新材,2019-05-29,23.7,25.5,23.6,25.05,24.09,10852533.0,268928335.0,1043279920.05,4173119680.2
sh603681,永冠新材,2019-05-30,25.13,27.46,24.4,26.86,25.05,15709749.0,406032132.0,1118662620.86,4474650483.44
sh603681,永冠新材,2019-05-31,26.34,29.03,26.0,27.61,26.86,17514033.0,483429146.0,1149898546.61,4599594186.44
sh603681,永冠新材,2019-06-03,27.1,27.33,24.85,24.85,27.61,14149829.0,362543832.0,1034950339.85,4139801359.4
sh603681,永冠新材,2019-06-04,24.2,24.4,23.0,23.38,24.85,9125012.0,214834217.0,973727925.38,3894911701.52
sh603681,永冠新材,2019-06-05,23.69,23.86,22.73,22.85,23.38,5885728.0,136262138.0,951654537.85,3806618151.4
sh603681,永冠新材,2019-06-06,22.76,23.48,22.5,22.72,22.85,4963051.0,113924017.0,946240310.72,3784961242.88
sh603681,永冠新材,2019-06-10,22.56,23.26,22.56,23.0,22.72,3564143.0,81913686.0,957901723.0,3831606892.0
sh603681,永冠新材,2019-06-11,23.11,24.22,23.0,24.12,23.0,6118022.0,144550841.0,1004547372.12,4018189488.48
sh603681,永冠新材,2019-06-12,23.9,24.15,23.3,23.4,24.12,5670742.0,134305332.0,974560883.4,3898243533.6
sh603681,永冠新材,2019-06-13,23.96,24.48,23.65,23.71,23.4,5905287.0,141624111.0,987471732.71,3949886930.84
sh603681,永冠新材,2019-06-14,23.48,23.8,22.48,22.6,23.71,5470269.0,125954125.0,941242562.6,3764970250.4
sh603681,永冠新材,2019-06-17,22.63,22.96,22.35,22.85,22.6,2384642.0,54082644.0,951654537.85,3806618151.4
sh603681,永冠新材,2019-06-18,22.97,23.66,22.6,23.41,22.85,4299691.0,99965342.0,974977362.41,3899909449.64
sh603681,永冠新材,2019-06-19,24.01,24.36,23.4,24.04,23.41,6921124.0,165218070.0,1001215540.04,4004862160.16
sh603681,XD永冠新,2019-06-20,23.7,23.94,23.13,23.6,23.8,5301472.0,124654188.0,982890463.6,3931561854.4
sh603681,永冠新材,2019-06-21,23.75,24.22,23.55,23.84,23.6,5621698.0,134364380.0,992885959.84,3971543839.36
sh603681,永冠新材,2019-06-24,23.78,24.47,23.61,24.35,23.84,6133861.0,147791208.0,1014126389.35,4056505557.4
sh603681,永冠新材,2019-06-25,24.0,25.8,23.8,25.4,24.35,10890040.0,270261545.0,1057856685.4,4231426741.6
sh603681,永冠新材,2019-06-26,24.8,24.92,24.44,24.51,25.4,6390664.0,157598973.0,1020790053.51,4083160214.04
sh603681,永冠新材,2019-06-27,24.26,24.6,23.8,23.97,24.51,5369495.0,129540426.0,998300186.97,3993200747.88
sh603681,永冠新材,2019-06-28,23.86,24.1,22.81,23.0,23.97,4919567.0,114680094.0,957901723.0,3831606892.0
sh603681,永冠新材,2019-07-01,23.47,23.75,23.23,23.69,23.0,3957107.0,93180647.0,986638774.69,3946555098.76
sh603681,永冠新材,2019-07-02,23.75,23.97,23.5,23.8,23.69,3437752.0,81621206.0,991220043.8,3964880175.2
sh603681,永冠新材,2019-07-03,23.56,23.71,22.96,23.2,23.8,3581644.0,83281774.0,966231303.2,3864925212.8
sh603681,永冠新材,2019-07-04,23.07,23.35,22.9,23.03,23.2,2146294.0,49586658.0,959151160.03,3836604640.12
sh603681,永冠新材,2019-07-05,23.0,23.71,22.98,23.59,23.03,3171504.0,74320987.0,982473984.59,3929895938.36
sh603681,永冠新材,2019-07-08,23.55,23.55,22.2,22.41,23.59,3699480.0,83970422.0,933329461.41,3733317845.64
sh603681,永冠新材,2019-07-09,22.31,22.86,22.3,22.77,22.41,1805999.0,40767720.0,948322705.77,3793290823.08
sh603681,永冠新材,2019-07-10,22.87,22.97,22.26,22.35,22.77,1778612.0,40200456.0,930830587.35,3723322349.4
sh603681,永冠新材,2019-07-11,22.5,23.35,22.5,23.16,22.35,4815022.0,110946978.0,964565387.16,3858261548.64
sh603681,永冠新材,2019-07-12,23.0,23.26,22.65,23.11,23.16,3301643.0,75793080.0,962482992.11,3849931968.44
sh603681,永冠新材,2019-07-15,22.75,23.25,22.41,23.22,23.11,3144951.0,72208876.0,967064261.22,3868257044.88
sh603681,永冠新材,2019-07-16,23.33,23.87,23.0,23.8,23.22,5346387.0,125594154.0,991220043.8,3964880175.2
sh603681,永冠新材,2019-07-17,23.61,23.68,23.28,23.33,23.8,3558818.0,83429634.0,971645530.33,3886582121.32
sh603681,永冠新材,2019-07-18,23.0,23.0,22.4,22.4,23.33,3336586.0,75383323.0,932912982.4,3731651929.6
sh603681,永冠新材,2019-07-19,22.4,22.73,22.38,22.39,22.4,1497805.0,33719197.0,932496503.39,3729986013.56
sh603681,永冠新材,2019-07-22,22.37,22.37,20.15,20.25,22.39,3667096.0,76246997.0,843369995.25,3373479981.0
sh603681,永冠新材,2019-07-23,20.0,20.66,20.0,20.45,20.25,1768070.0,36112530.0,851699575.45,3406798301.8
sh603681,永冠新材,2019-07-24,20.45,20.91,20.45,20.58,20.45,1876571.0,38808632.0,857113802.58,3428455210.32
sh603681,永冠新材,2019-07-25,20.6,20.88,20.39,20.6,20.58,1932000.0,39904058.0,857946760.6,3431787042.4
sh603681,永冠新材,2019-07-26,20.56,20.8,20.4,20.66,20.6,1786761.0,36870782.0,860445634.66,3441782538.64
sh603681,永冠新材,2019-07-29,20.7,20.96,20.6,20.77,20.66,1716211.0,35569186.0,865026903.77,3460107615.08
sh603681,永冠新材,2019-07-30,20.9,20.96,20.63,20.72,20.77,1807599.0,37702162.0,862944508.72,3451778034.88
sh603681,永冠新材,2019-07-31,20.77,20.77,20.23,20.3,20.72,1824967.0,37107531.0,845452390.3,3381809561.2
sh603681,永冠新材,2019-08-01,20.3,20.47,20.03,20.34,20.3,1358185.0,27495395.0,847118306.34,3388473225.36
sh603681,永冠新材,2019-08-02,19.73,19.99,19.61,19.93,20.34,2508076.0,49608214.0,830042666.93,3320170667.72
sh603681,永冠新材,2019-08-05,20.93,21.92,20.93,21.92,19.93,3632468.0,79555970.0,912921989.92,3651687959.68
sh603681,永冠新材,2019-08-06,24.11,24.11,24.05,24.11,21.92,8652571.0,208612679.0,1004130893.11,4016523572.44
sh603681,永冠新材,2019-08-07,24.5,25.5,23.4,24.62,24.11,22694750.0,564263341.0,1025371322.62,4101485290.48
sh603681,永冠新材,2019-08-08,23.5,23.9,22.16,22.16,24.62,13800979.0,313176700.0,922917486.16,3691669944.64
sh603681,永冠新材,2019-08-09,21.9,22.66,20.75,21.24,22.16,10201309.0,222136787.0,884601417.24,3538405668.96
sh603681,永冠新材,2019-08-12,22.1,23.36,22.1,23.36,21.24,4713043.0,108158956.0,972894967.36,3891579869.44
sh603681,永冠新材,2019-08-13,25.0,25.7,24.24,25.7,23.36,20392415.0,512212813.0,1070351055.7,4281404222.8
sh603681,永冠新材,2019-08-14,25.18,26.89,24.8,24.8,25.7,24082733.0,616538841.0,1032867944.8,4131471779.2
sh603681,永冠新材,2019-08-15,22.7,24.31,22.7,24.25,24.8,13909510.0,326499903.0,1009961599.25,4039846397.0
sh603681,永冠新材,2019-08-16,24.0,25.5,23.71,24.52,24.25,13661264.0,336500399.0,1021206532.52,4084826130.08
sh603681,永冠新材,2019-08-19,24.58,26.18,23.91,25.68,24.52,15473691.0,387051302.0,1069518097.68,4278072390.72
sh603681,永冠新材,2019-08-20,25.19,28.0,24.85,26.41,25.68,17340272.0,451310421.0,1099921065.41,4399684261.64
sh603681,永冠新材,2019-08-21,25.88,27.35,25.83,26.53,26.41,12711545.0,338302886.0,1104918813.53,4419675254.12
sh603681,永冠新材,2019-08-22,26.01,26.18,24.83,25.29,26.53,11391568.0,289213249.0,1053275416.29,4213101665.16
sh603681,永冠新材,2019-08-23,25.4,25.5,24.35,24.38,25.29,7190202.0,178261138.0,1015375826.38,4061503305.52
sh603681,永冠新材,2019-08-26,23.89,25.27,23.67,25.13,24.38,6936673.0,172452581.0,1046611752.13,4186447008.52
sh603681,永冠新材,2019-08-27,25.16,25.23,24.71,24.97,25.13,6006744.0,149891235.0,1039948087.97,4159792351.88
sh603681,永冠新材,2019-08-28,24.72,24.88,24.25,24.75,24.97,4453127.0,109480586.0,1030785549.75,4123142199.0
sh603681,永冠新材,2019-08-29,24.97,26.6,24.97,25.9,24.75,11312804.0,293868005.0,1078680635.9,4314722543.6
sh603681,永冠新材,2019-08-30,25.5,25.66,24.6,24.85,25.9,7622722.0,190924543.0,1034950339.85,4139801359.4
sh603681,永冠新材,2019-09-02,24.35,24.94,23.81,24.88,24.85,4929376.0,120383319.0,1036199776.88,4144799107.52
sh603681,永冠新材,2019-09-03,24.71,26.58,24.71,26.14,24.88,11394085.0,295498603.0,1088676132.14,4354704528.56
sh603681,永冠新材,2019-09-04,25.71,26.38,25.5,26.23,26.14,7484129.0,193111654.0,1092424443.23,4369697772.92
sh603681,永冠新材,2019-09-05,26.4,26.47,25.82,25.85,26.23,9028073.0,235665013.0,1076598240.85,4306392963.4
sh603681,永冠新材,2019-09-06,25.92,26.43,25.45,26.43,25.85,7897202.0,205044436.0,1100754023.43,4403016093.72
sh603681,永冠新材,2019-09-09,26.8,26.9,26.11,26.72,26.43,9627342.0,256051814.0,1112831914.72,4451327658.88
sh603681,永冠新材,2019-09-10,26.66,26.66,25.88,26.25,26.72,6511379.0,170680039.0,1093257401.25,4373029605.0
sh603681,永冠新材,2019-09-11,26.38,27.56,26.07,27.23,26.25,11560378.0,312293350.0,1134072344.23,4536289376.92
sh603681,永冠新材,2019-09-12,27.06,27.22,26.4,26.96,27.23,6495247.0,173969441.0,1122827410.96,4491309643.84
sh603681,永冠新材,2019-09-16,26.7,26.89,26.38,26.63,26.96,5301897.0,140828835.0,1109083603.63,4436334414.52
sh603681,永冠新材,2019-09-17,26.33,26.56,24.51,25.11,26.63,7102002.0,181245595.0,1045778794.11,4183115176.44
sh603681,永冠新材,2019-09-18,24.93,25.39,24.85,25.01,25.11,3554547.0,89197577.0,1041614004.01,4166456016.04
sh603681,永冠新材,2019-09-19,25.01,25.38,24.65,25.34,25.01,3586017.0,90187103.0,1055357811.34,4221431245.36
sh603681,永冠新材,2019-09-20,25.76,26.3,25.33,25.35,25.34,4507868.0,116542100.0,1055774290.35,4223097161.4
sh603681,永冠新材,2019-09-23,25.4,25.52,24.52,24.74,25.35,3246295.0,80515934.0,1030369070.74,4121476282.96
sh603681,永冠新材,2019-09-24,24.85,25.17,24.73,25.0,24.74,2390992.0,59547687.0,1041197525.0,4164790100.0
sh603681,永冠新材,2019-09-25,24.9,24.9,24.2,24.31,25.0,2311495.0,56653933.0,1012460473.31,4049841893.24
sh603681,永冠新材,2019-09-26,24.45,26.74,24.45,26.74,24.31,6289860.0,165088344.0,1113664872.74,4454659490.96
sh603681,永冠新材,2019-09-27,29.41,29.41,27.49,29.41,26.74,23752403.0,683426165.0,1224864768.41,4899459073.64
sh603681,永冠新材,2019-09-30,28.49,30.91,28.49,29.0,29.41,14930417.0,440332651.0,1207789129.0,4831156516.0
sh603681,永冠新材,2019-10-08,28.4,31.9,27.02,31.69,29.0,26440107.0,788129163.0,1319821982.69,5279287930.76
sh603681,永冠新材,2019-10-09,29.61,33.45,29.61,30.28,31.69,19014045.0,597729715.0,1261098442.28,5044393769.12
sh603681,永冠新材,2019-10-10,33.31,33.31,31.21,32.7,30.28,17667507.0,574070061.0,1361886362.7,5447545450.8
sh603681,永冠新材,2019-10-11,32.11,33.6,31.86,31.88,32.7,9246520.0,302484482.0,1327735083.88,5310940335.52
sh603681,永冠新材,2019-10-14,31.47,32.14,29.62,30.58,31.88,7836193.0,242314698.0,1273592812.58,5094371250.32
sh603681,永冠新材,2019-10-15,31.01,31.99,30.63,30.78,30.58,6543730.0,204829569.0,1281922392.78,5127689571.12
sh603681,永冠新材,2019-10-16,30.99,31.99,30.73,31.88,30.78,6283368.0,197853359.0,1327735083.88,5310940335.52
sh603681,永冠新材,2019-10-17,32.1,32.53,31.55,32.44,31.88,6044349.0,194370068.0,1351057908.44,5404231633.76
sh603681,永冠新材,2019-10-18,32.65,32.88,31.51,31.74,32.44,4514768.0,145159083.0,1321904377.74,5287617510.96
sh603681,永冠新材,2019-10-21,30.73,31.0,28.62,29.5,31.74,4174361.0,124060359.0,1228613079.5,4914452318.0
sh603681,永冠新材,2019-10-22,30.2,30.2,29.38,29.79,29.5,2357957.0,70146942.0,1240690970.79,4962763883.16
sh603681,永冠新材,2019-10-23,29.99,29.99,29.0,29.21,29.79,2381459.0,70277936.0,1216535188.21,4866140752.84
sh603681,永冠新材,2019-10-24,29.1,29.46,28.62,29.2,29.21,2246311.0,65200332.0,1216118709.2,4864474836.8
sh603681,永冠新材,2019-10-25,29.19,29.73,28.79,29.65,29.2,1887959.0,55178154.0,1234860264.65,4939441058.6
sh603681,永冠新材,2019-10-28,29.65,30.2,29.5,29.59,29.65,2323129.0,69134974.0,1232361390.59,4929445562.36
sh603681,永冠新材,2019-10-29,29.32,29.57,28.5,28.58,29.59,2305525.0,66836702.0,1190297010.58,4761188042.32
sh603681,永冠新材,2019-10-30,28.59,29.37,28.59,28.82,28.58,1788790.0,51736862.0,1200292506.82,4801170027.28
sh603681,永冠新材,2019-10-31,28.6,29.03,27.11,27.77,28.82,2867229.0,79944060.0,1156562210.77,4626248843.08
sh603681,永冠新材,2019-11-01,27.65,28.05,27.23,27.8,27.77,1594525.0,44197543.0,1157811647.8,4631246591.2
sh603681,永冠新材,2019-11-04,27.4,28.5,26.74,28.44,27.8,4357977.0,120479949.0,1184466304.44,4737865217.76
sh603681,永冠新材,2019-11-05,28.1,28.34,27.62,27.79,28.44,2504876.0,69811334.0,1157395168.79,4629580675.16
sh603681,永冠新材,2019-11-06,27.79,28.5,27.21,28.17,27.79,2748893.0,76660435.0,1173221371.17,4692885484.68
sh603681,永冠新材,2019-11-07,28.6,30.96,28.34,30.48,28.17,6499653.0,194050856.0,1269428022.48,5077712089.92
sh603681,永冠新材,2019-11-08,30.89,33.0,30.4,30.46,30.48,7926478.0,251053092.0,1268595064.46,5074380257.84
sh603681,永冠新材,2019-11-11,30.93,31.55,30.22,30.87,30.46,4064218.0,125727908.0,1285670703.87,5142682815.48
sh603681,永冠新材,2019-11-12,31.4,32.68,30.8,32.21,30.87,5498059.0,175538041.0,1341478891.21,5365915564.84
sh603681,永冠新材,2019-11-13,32.14,32.14,30.5,31.66,32.21,4537083.0,141390422.0,1318572545.66,5274290182.64
sh603681,永冠新材,2019-11-14,31.8,31.85,30.76,30.79,31.66,2740249.0,85228601.0,1282338871.79,5129355487.16
sh603681,永冠新材,2019-11-15,31.17,31.27,27.71,27.71,30.79,6682615.0,190390312.0,1154063336.71,4616253346.84
sh603681,永冠新材,2019-11-18,25.98,26.5,25.05,25.33,27.71,5168717.0,132347845.0,1054941332.33,4219765329.32
sh603681,永冠新材,2019-11-19,25.46,27.86,25.45,27.86,25.33,6647614.0,180038028.0,1160310521.86,4641242087.44
sh603681,永冠新材,2019-11-20,28.5,28.8,27.14,27.72,27.86,6343660.0,177203408.0,1154479815.72,4617919262.88
sh603681,永冠新材,2019-11-21,28.0,28.2,27.31,27.33,27.72,2736830.0,75547319.0,1138237134.33,4552948537.32
sh603681,永冠新材,2019-11-22,27.5,27.73,27.04,27.04,27.33,2928854.0,79969401.0,1126159243.04,4504636972.16
sh603681,永冠新材,2019-11-25,26.83,27.04,25.38,26.5,27.04,2537286.0,66747081.0,1103669376.5,4414677506.0
sh603681,永冠新材,2019-11-26,26.78,26.97,25.63,25.9,26.5,2969287.0,77428933.0,1078680635.9,4314722543.6
sh603681,永冠新材,2019-11-27,25.91,26.15,25.4,25.76,25.9,2150788.0,55385976.0,1072849929.76,4291399719.04
sh603681,永冠新材,2019-11-28,25.76,26.92,25.46,26.06,25.76,3156821.0,82753822.0,1085344300.06,4341377200.24
sh603681,永冠新材,2019-11-29,26.11,26.19,25.51,25.7,26.06,1941528.0,49986003.0,1070351055.7,4281404222.8
sh603681,永冠新材,2019-12-02,25.93,25.95,25.3,25.52,25.7,2020231.0,51691328.0,1062854433.52,4251417734.08
sh603681,永冠新材,2019-12-03,25.18,25.45,24.33,25.05,25.52,3232411.0,80096940.0,1043279920.05,4173119680.2
sh603681,永冠新材,2019-12-04,24.75,25.5,24.71,24.94,25.05,2275908.0,57103849.0,1038698650.94,4154794603.76
sh603681,永冠新材,2019-12-05,24.94,25.43,24.94,25.33,24.94,2338251.0,59112540.0,1054941332.33,4219765329.32
sh603681,永冠新材,2019-12-06,25.06,25.5,25.06,25.26,25.33,2337286.0,59040297.0,1052025979.26,4208103917.04
sh603681,永冠新材,2019-12-09,25.27,25.76,25.27,25.44,25.26,3018917.0,76987942.0,1059522601.44,4238090405.76
sh603681,永冠新材,2019-12-10,25.44,25.97,25.19,25.71,25.44,3476370.0,88949492.0,1070767534.71,4283070138.84
sh603681,永冠新材,2019-12-11,25.8,25.81,25.13,25.18,25.71,2783786.0,70585734.0,1048694147.18,4194776588.72
sh603681,永冠新材,2019-12-12,25.2,25.3,24.65,24.65,25.18,2643317.0,65560198.0,1026620759.65,4106483038.6
sh603681,永冠新材,2019-12-13,24.9,25.47,24.86,24.97,24.65,3082417.0,77329775.0,1039948087.97,4159792351.88
sh603681,永冠新材,2019-12-16,25.0,25.45,24.92,25.41,24.97,3212596.0,81199706.0,1058273164.41,4233092657.64
sh603681,永冠新材,2019-12-17,25.46,26.2,25.25,25.8,25.41,4741258.0,122222903.0,1074515845.8,4298063383.2
sh603681,永冠新材,2019-12-18,25.88,26.47,25.71,25.96,25.8,4093367.0,106281713.0,1081179509.96,4324718039.84
sh603681,永冠新材,2019-12-19,25.8,25.98,25.61,25.83,25.96,2869948.0,73959395.0,1075765282.83,4303061131.32
sh603681,永冠新材,2019-12-20,25.79,26.33,25.75,26.03,25.83,4054311.0,105574125.0,1084094863.03,4336379452.12
sh603681,永冠新材,2019-12-23,26.24,26.24,25.21,25.3,26.03,2855321.0,73184327.0,1053691895.3,4214767581.2
sh603681,永冠新材,2019-12-24,25.24,25.44,25.1,25.34,25.3,1706741.0,43112587.0,1055357811.34,4221431245.36
sh603681,永冠新材,2019-12-25,25.47,25.47,25.05,25.16,25.34,1992665.0,50126137.0,1047861189.16,4191444756.64
sh603681,永冠新材,2019-12-26,25.38,25.47,25.14,25.4,25.16,2160248.0,54651094.0,1057856685.4,4231426741.6
sh603681,永冠新材,2019-12-27,25.71,26.95,25.69,26.14,25.4,6380426.0,168262888.0,1088676132.14,4354704528.56
sh603681,永冠新材,2019-12-30,26.09,26.09,25.0,25.57,26.14,3538360.0,89731196.0,1064936828.57,4259747314.28
sh603681,永冠新材,2019-12-31,25.5,25.58,25.2,25.45,25.57,2474111.0,62702185.0,1059939080.45,4239756321.8
sh603681,永冠新材,2020-01-02,25.77,25.97,25.44,25.91,25.45,3729442.0,95796273.0,1079097114.91,4316388459.64
sh603681,永冠新材,2020-01-03,25.91,26.26,25.68,26.05,25.91,4125475.0,107355257.0,1084927821.05,4339711284.2
sh603681,永冠新材,2020-01-06,25.9,26.37,25.76,26.2,26.05,3624061.0,94790020.0,1091175006.2,4364700024.8
sh603681,永冠新材,2020-01-07,26.28,26.56,26.17,26.49,26.2,3297981.0,86920544.0,1103252897.49,4413011589.96
sh603681,永冠新材,2020-01-08,26.26,26.35,25.56,25.57,26.49,4037261.0,104417652.0,1064936828.57,4259747314.28
sh603681,永冠新材,2020-01-09,25.87,26.08,25.71,25.99,25.57,2359266.0,61105562.0,1082428946.99,4329715787.96
sh603681,永冠新材,2020-01-10,26.16,26.22,25.77,26.05,25.99,2523034.0,65610126.0,1084927821.05,4339711284.2
sh603681,永冠新材,2020-01-13,26.28,26.96,26.28,26.39,26.05,3662651.0,97067234.0,1099088107.39,4396352429.56
sh603681,永冠新材,2020-01-14,26.51,27.1,26.5,26.75,26.39,4594204.0,123282847.0,1114081351.75,4456325407.0
sh603681,永冠新材,2020-01-15,26.6,26.98,26.1,26.8,26.75,3580405.0,95237018.0,1116163746.8,4464654987.2
sh603681,永冠新材,2020-01-16,26.84,26.97,26.3,26.34,26.8,3146500.0,83625456.0,1097005712.34,4388022849.36
sh603681,永冠新材,2020-01-17,26.17,26.48,25.9,26.25,26.34,2173013.0,56876713.0,1093257401.25,4373029605.0
sh603681,永冠新材,2020-01-20,26.28,26.33,25.8,26.0,26.25,1849917.0,48060038.0,1082845426.0,4331381704.0
sh603681,永冠新材,2020-01-21,26.05,26.06,24.85,24.88,26.0,3304430.0,83389367.0,1036199776.88,4144799107.52
sh603681,永冠新材,2020-01-22,24.71,24.82,24.12,24.65,24.88,1874900.0,45942730.0,1026620759.65,4106483038.6
sh603681,永冠新材,2020-01-23,24.65,24.65,22.88,23.19,24.65,2336944.0,55414337.0,965814824.19,3863259296.76
sh603681,永冠新材,2020-02-03,20.87,20.87,20.87,20.87,23.19,306900.0,6405003.0,869191693.87,3476766775.48
sh603681,永冠新材,2020-02-04,18.78,20.0,18.78,19.75,20.87,2710559.0,53009220.0,822546044.75,3290184179.0
sh603681,永冠新材,2020-02-05,19.68,20.44,19.54,20.23,19.75,2393341.0,48289547.0,842537037.23,3370148148.92
sh603681,永冠新材,2020-02-06,20.26,20.49,20.01,20.37,20.23,2424238.0,49211089.0,848367743.37,3393470973.48
sh603681,永冠新材,2020-02-07,20.29,20.7,20.23,20.7,20.37,2423069.0,49585631.0,862111550.7,3448446202.8
sh603681,永冠新材,2020-02-10,20.84,21.45,20.55,21.13,20.7,2201783.0,46360186.0,880020148.13,3520080592.52
sh603681,永冠新材,2020-02-11,21.0,21.73,21.0,21.3,21.13,2280590.0,48753828.0,887100291.3,3548401165.2
sh603681,永冠新材,2020-02-12,21.3,21.62,21.09,21.56,21.3,2002493.0,42828503.0,897928745.56,3591714982.24
sh603681,永冠新材,2020-02-13,21.38,21.8,21.31,21.57,21.56,2174079.0,46920887.0,898345224.57,3593380898.28
sh603681,永冠新材,2020-02-14,21.71,21.74,21.32,21.4,21.57,1814924.0,38982819.0,891265081.4,3565060325.6
sh603681,永冠新材,2020-02-17,21.48,22.29,21.4,22.08,21.4,3009351.0,65989236.0,919585654.08,3678342616.32
sh603681,永冠新材,2020-02-18,22.2,22.51,21.91,22.51,22.08,2924974.0,64963443.0,937494251.51,3749977006.04
sh603681,永冠新材,2020-02-19,22.55,22.9,22.18,22.3,22.51,3213545.0,72446171.0,928748192.3,3714992769.2
sh603681,永冠新材,2020-02-20,22.3,22.67,22.2,22.65,22.3,2559478.0,57432877.0,943324957.65,3773299830.6
sh603681,永冠新材,2020-02-21,22.77,22.8,22.51,22.6,22.65,2452157.0,55518131.0,941242562.6,3764970250.4
sh603681,永冠新材,2020-02-24,22.64,22.78,22.26,22.71,22.6,3064972.0,69208646.0,945823831.71,3783295326.84
sh603681,永冠新材,2020-02-25,22.08,22.32,21.11,22.15,22.71,3722368.0,81661222.0,922501007.15,3690004028.6
sh603681,永冠新材,2020-02-26,22.0,22.58,21.76,21.87,22.15,2916662.0,64956114.0,910839594.87,3643358379.48
sh603681,永冠新材,2020-02-27,21.86,22.29,21.77,21.98,21.87,2125072.0,46877053.0,915420863.98,3661683455.92
sh603681,永冠新材,2020-02-28,23.0,23.78,21.9,21.94,21.98,6707166.0,152784803.0,913754947.94,3655019791.76
sh603681,永冠新材,2020-03-02,20.68,22.29,20.68,22.1,21.94,4445757.0,95246381.0,920418612.1,3681674448.4
sh603681,永冠新材,2020-03-03,22.07,22.6,21.6,21.88,22.1,3622963.0,80323916.0,911256073.88,3645024295.52
sh603681,永冠新材,2020-03-04,21.48,21.7,21.15,21.59,21.88,2729616.0,58470112.0,899178182.59,3596712730.36
sh603681,永冠新材,2020-03-05,21.75,22.64,21.66,22.55,21.59,5124244.0,113840811.0,939160167.55,3756640670.2
sh603681,永冠新材,2020-03-06,22.58,23.83,22.3,23.41,22.55,6524390.0,150744905.0,974977362.41,3899909449.64
sh603681,永冠新材,2020-03-09,22.97,23.86,22.0,22.1,23.41,5278722.0,121273124.0,920418612.1,3681674448.4
sh603681,永冠新材,2020-03-10,21.07,22.23,21.06,22.06,22.1,3914802.0,84421638.0,918752696.06,3675010784.24
sh603681,永冠新材,2020-03-11,21.9,22.85,21.9,22.65,22.06,3717269.0,83808821.0,943324957.65,3773299830.6
sh603681,永冠新材,2020-03-12,22.65,22.66,21.35,21.52,22.65,3092628.0,67269930.0,896262829.52,3585051318.08
sh603681,永冠新材,2020-03-13,20.54,20.82,19.78,20.28,21.52,3162779.0,64000443.0,844619432.28,3378477729.12
sh603681,永冠新材,2020-03-16,20.59,20.64,19.21,19.31,20.28,2103855.0,42306977.0,804220968.31,3216883873.24
sh603681,永冠新材,2020-03-17,19.65,19.85,18.6,19.22,19.31,1824157.0,34837653.0,800472657.22,3201890628.88
sh603681,永冠新材,2020-03-18,19.45,19.68,18.9,18.94,19.22,1658125.0,32018738.0,788811244.94,3155244979.76
sh603681,永冠新材,2020-03-19,19.0,19.0,18.19,18.7,18.94,1724881.0,32067412.0,778815748.7,3115262994.8
sh603681,永冠新材,2020-03-20,18.89,19.58,18.76,19.3,18.7,1860474.0,35807040.0,803804489.3,3215217957.2
sh603681,永冠新材,2020-03-23,19.1,19.1,18.2,18.22,19.3,1467500.0,27217147.0,758824756.22,3035299024.88
sh603681,永冠新材,2020-03-24,18.56,18.77,17.98,18.4,18.22,1256391.0,23119502.0,766321378.4,3065285513.6
sh603681,永冠新材,2020-03-25,18.61,18.92,18.61,18.88,18.4,1709432.0,32146341.0,786312370.88,3145249483.52
sh603681,永冠新材,2020-03-26,18.86,18.86,18.2,18.3,18.88,2046242.0,37681969.0,1128326467.2,3048626353.2
sh603681,永冠新材,2020-03-27,18.6,18.65,18.31,18.39,18.3,1306388.0,24169339.0,1133875613.76,3063619597.56
sh603681,永冠新材,2020-03-30,18.3,18.33,17.62,17.94,18.39,1353855.0,24158245.0,1106129880.96,2988653375.76
sh603681,永冠新材,2020-03-31,18.07,18.26,17.91,17.97,17.94,804417.0,14503769.0,1107979596.48,2993651123.88
sh603681,永冠新材,2020-04-01,17.81,18.3,17.71,17.99,17.97,1018800.0,18392758.0,1109212740.16,2996982955.96
sh603681,永冠新材,2020-04-02,17.8,18.37,17.77,18.33,17.99,1566256.0,28381475.0,1130176182.72,3053624101.32
sh603681,永冠新材,2020-04-03,18.33,18.68,18.2,18.48,18.33,1699569.0,31394391.0,1139424760.32,3078612841.92
sh603681,永冠新材,2020-04-07,18.7,18.88,18.57,18.71,18.48,1834900.0,34285461.0,1153605912.64,3116928910.84
sh603681,永冠新材,2020-04-08,18.69,18.97,18.52,18.77,18.71,1784100.0,33368045.0,1157305343.68,3126924407.08
sh603681,永冠新材,2020-04-09,18.88,18.9,18.6,18.6,18.77,1837300.0,34320345.0,1146823622.4,3098603834.4
sh603681,永冠新材,2020-04-10,18.52,18.58,17.98,18.07,18.6,1625809.0,29645464.0,1114145314.88,3010310284.28
sh603681,永冠新材,2020-04-13,17.88,18.35,17.88,18.1,18.07,849144.0,15356791.0,1115995030.4,3015308032.4
sh603681,永冠新材,2020-04-14,18.16,18.43,18.0,18.43,18.1,1470387.0,26849200.0,1136341901.12,3070283261.72
sh603681,永冠新材,2020-04-15,18.46,18.63,18.25,18.32,18.43,1881400.0,34801473.0,1129559610.88,3051958185.28
sh603681,永冠新材,2020-04-16,18.28,18.3,18.01,18.18,18.32,1246600.0,22619664.0,1120927605.12,3028635360.72
sh603681,永冠新材,2020-04-17,18.3,18.56,18.23,18.27,18.18,1291987.0,23725245.0,1126476751.68,3043628605.08
sh603681,永冠新材,2020-04-20,18.28,18.38,18.12,18.29,18.27,1319821.0,24072256.0,1127709895.36,3046960437.16
sh603681,永冠新材,2020-04-21,18.2,18.33,17.96,18.18,18.29,1587001.0,28776245.0,1120927605.12,3028635360.72
sh603681,永冠新材,2020-04-22,18.18,18.2,17.97,18.2,18.18,1281095.0,23180567.0,1122160748.8,3031967192.8
sh603681,永冠新材,2020-04-23,18.25,18.48,18.1,18.14,18.2,2260100.0,41323983.0,1118461317.76,3021971696.56
sh603681,永冠新材,2020-04-24,18.15,18.25,17.5,17.6,18.14,2187681.0,38862082.0,1085166438.4,2932012230.4
sh603681,永冠新材,2020-04-27,17.8,17.8,17.2,17.27,17.6,1262776.0,21909532.0,1064819567.68,2877037001.08
sh603681,永冠新材,2020-04-28,17.27,17.5,16.2,16.72,17.27,1984765.0,33214068.0,1030908116.48,2785411618.88
sh603681,永冠新材,2020-04-29,16.72,17.12,16.46,16.85,16.72,682055.0,11505011.0,1038923550.4,2807068527.4
sh603681,永冠新材,2020-04-30,16.91,17.21,16.83,17.08,16.85,1316501.0,22455790.0,1053104702.72,2845384596.32
sh603681,永冠新材,2020-05-06,17.13,17.44,17.01,17.42,17.08,1951993.0,33742548.0,1074068145.28,2902025741.68
sh603681,永冠新材,2020-05-07,17.45,17.67,17.3,17.45,17.42,1494648.0,26139324.0,1075917860.8,2907023489.8
sh603681,永冠新材,2020-05-08,17.5,17.95,17.5,17.86,17.45,1508554.0,26807831.0,1101197306.24,2975326047.44
sh603681,永冠新材,2020-05-11,17.89,18.95,17.89,18.65,17.86,4161228.0,77332631.0,1149906481.6,3106933414.6
sh603681,永冠新材,2020-05-12,18.59,18.82,18.0,18.21,18.65,2726165.0,50093942.0,1122777320.64,3033633108.84
sh603681,永冠新材,2020-05-13,18.25,18.38,17.9,18.1,18.21,1637118.0,29519887.0,1115995030.4,3015308032.4
sh603681,永冠新材,2020-05-14,18.1,18.47,17.88,18.24,18.1,2205049.0,40100370.0,1124627036.16,3038630856.96
sh603681,永冠新材,2020-05-15,18.24,18.27,17.9,17.94,18.24,1360090.0,24543794.0,1106129880.96,2988653375.76
sh603681,永冠新材,2020-05-18,18.1,18.1,17.86,17.89,17.94,1109015.0,19904195.0,1103047021.76,2980323795.56
sh603681,永冠新材,2020-05-19,17.89,18.27,17.82,18.18,17.89,1764234.0,31875531.0,1120927605.12,3028635360.72
sh603681,永冠新材,2020-05-20,18.15,18.2,17.87,17.89,18.18,1151956.0,20714202.0,1103047021.76,2980323795.56
sh603681,永冠新材,2020-05-21,17.89,18.05,17.32,17.38,17.89,1420086.0,25052016.0,1071601857.92,2895362077.52
sh603681,永冠新材,2020-05-22,17.38,17.49,16.78,16.91,17.38,1439992.0,24521128.0,1042622981.44,2817064023.64
sh603681,永冠新材,2020-05-25,16.9,17.07,16.75,16.9,16.91,966558.0,16346764.0,1042006409.6,2815398107.6
sh603681,永冠新材,2020-05-26,17.13,17.76,16.96,17.76,16.9,2068576.0,36196287.0,1095031587.84,2958666887.04
sh603681,永冠新材,2020-05-27,17.5,18.64,17.5,18.39,17.76,4037457.0,74039185.0,1133875613.76,3063619597.56
sh603681,永冠新材,2020-05-28,18.47,18.88,17.91,18.12,18.39,3042770.0,55767673.0,1117228174.08,3018639864.48
sh603681,永冠新材,2020-05-29,17.99,18.38,17.93,17.99,18.12,1777000.0,32194899.0,1109212740.16,2996982955.96
sh603681,永冠新材,2020-06-01,18.0,18.55,18.0,18.48,17.99,2432660.0,44722872.0,1139424760.32,3078612841.92
sh603681,永冠新材,2020-06-02,18.55,19.28,18.38,19.03,18.48,4092514.0,77539579.0,1173336211.52,3170238224.12
sh603681,永冠新材,2020-06-03,19.03,19.14,18.5,18.51,19.03,2437084.0,45729674.0,1141274475.84,3083610590.04
sh603681,永冠新材,2020-06-04,18.62,20.36,18.62,19.58,18.51,7755257.0,151723621.0,1207247662.72,3261863606.32
sh603681,永冠新材,2020-06-05,19.3,19.3,18.85,18.97,19.58,5383831.0,102419996.0,1169636780.48,3160242727.88
sh603681,永冠新材,2020-06-08,19.1,19.14,18.61,18.69,18.97,2643021.0,49588002.0,1152372768.96,3113597078.76
sh603681,永冠新材,2020-06-09,18.65,18.86,18.56,18.81,18.69,1773201.0,33207329.0,1159771631.04,3133588071.24
sh603681,永冠新材,2020-06-10,19.0,19.0,18.57,18.65,18.81,1697200.0,31837834.0,1149906481.6,3106933414.6
sh603681,永冠新材,2020-06-11,18.67,18.67,18.25,18.28,18.65,2047135.0,37671376.0,1127093323.52,3045294521.12
sh603681,永冠新材,2020-06-12,17.86,18.13,17.8,18.07,18.28,1392146.0,25049395.0,1114145314.88,3010310284.28
sh603681,永冠新材,2020-06-15,18.15,18.39,18.03,18.16,18.07,1012585.0,18447914.0,1119694461.44,3025303528.6400003
sh603681,永冠新材,2020-06-16,18.21,18.57,18.21,18.51,18.16,1515069.0,27942902.0,1141274475.84,3083610590.04
sh603681,永冠新材,2020-06-17,18.53,18.75,18.43,18.67,18.51,1346180.0,25022855.0,1151139625.28,3110265246.68
sh603681,永冠新材,2020-06-18,18.3,18.95,18.3,18.86,18.67,1824869.0,34250664.0,1162854490.24,3141917651.44
sh603681,XD永冠新,2020-06-19,18.72,18.95,18.39,18.45,18.71,1583422.0,29293075.0,1137575044.8,3073615093.8
sh603681,永冠新材,2020-06-22,18.45,18.57,18.18,18.29,18.45,1515066.0,27722526.0,1127709895.36,3046960437.16
sh603681,永冠新材,2020-06-23,18.21,18.28,18.0,18.01,18.29,1335915.0,24205019.0,1110445883.84,3000314788.04
sh603681,永冠新材,2020-06-24,18.16,18.16,17.85,17.92,18.01,1087300.0,19506653.0,1104896737.28,2985321543.68
sh603681,永冠新材,2020-06-29,17.92,18.19,17.78,18.14,17.92,1009279.0,18175722.0,1118461317.76,3021971696.56
sh603681,永冠新材,2020-06-30,18.19,18.44,18.03,18.35,18.14,1355736.0,24808076.0,1131409326.4,3056955933.4
sh603681,永冠新材,2020-07-01,18.35,18.43,18.09,18.26,18.35,1179800.0,21507846.0,1125860179.8400002,3041962689.04
sh603681,永冠新材,2020-07-02,18.26,18.38,18.12,18.34,18.26,1640333.0,30025990.0,1130792754.56,3055290017.36
sh603681,永冠新材,2020-07-03,18.58,18.94,18.34,18.85,18.34,3089629.0,57716937.0,1162237918.4,3140251735.4
sh603681,永冠新材,2020-07-06,18.95,19.48,18.95,19.42,18.85,3673593.0,70590155.0,1197382513.28,3235208949.6800003
sh603681,永冠新材,2020-07-07,19.59,20.1,19.28,19.44,19.42,4704889.0,91815102.0,1198615656.96,3238540781.76
sh603681,永冠新材,2020-07-08,19.4,19.67,19.21,19.64,19.44,3531189.0,68954586.0,1210947093.76,3271859102.56
sh603681,永冠新材,2020-07-09,19.66,20.18,19.52,20.01,19.64,4617286.0,91854155.0,1233760251.84,3333497996.04
sh603681,永冠新材,2020-07-10,20.0,20.2,19.7,19.76,20.01,3171661.0,63180428.0,1218345955.84,3291850095.04
sh603681,永冠新材,2020-07-13,19.81,20.55,19.81,20.4,19.76,3955084.0,80352986.0,1257806553.6,3398468721.6000004
sh603681,永冠新材,2020-07-14,20.5,20.68,20.04,20.65,20.4,3985499.0,81451163.0,1273220849.6,3440116622.6
sh603681,永冠新材,2020-07-15,20.73,20.77,19.69,19.87,20.65,3860250.0,77619115.0,1225128246.08,3310175171.48
sh603681,永冠新材,2020-07-16,19.98,20.19,18.95,18.98,19.87,2847137.0,55714063.0,1170253352.32,3161908643.92
sh603681,永冠新材,2020-07-17,18.9,19.36,18.9,19.2,18.98,1701928.0,32491699.0,1183817932.8,3198558796.8
sh603681,永冠新材,2020-07-20,19.3,20.48,19.3,20.17,19.2,3067427.0,61413126.0,1243625401.28,3360152652.6800003
sh603681,永冠新材,2020-07-21,20.21,20.81,20.05,20.58,20.17,3988195.0,81513114.0,1268904846.72,3428455210.32
sh603681,永冠新材,2020-07-22,20.72,20.77,20.2,20.45,20.58,3352735.0,69010998.0,1260889412.8,3406798301.8
sh603681,永冠新材,2020-07-23,20.29,21.31,19.72,21.05,20.45,8092093.0,167498013.0,1297883723.2,3506753264.2
sh603681,永冠新材,2020-07-24,20.7,20.96,19.46,19.81,21.05,5573493.0,112733842.0,1221428815.04,3300179675.24
sh603681,永冠新材,2020-07-27,19.8,20.11,19.41,19.7,19.81,2006113.0,39449555.0,1214646524.8,3281854598.8
sh603681,永冠新材,2020-07-28,19.9,21.2,19.87,20.58,19.7,5605033.0,115940658.0,1268904846.72,3428455210.32
sh603681,永冠新材,2020-07-29,20.51,20.84,20.3,20.62,20.58,4815413.0,99053829.0,1271371134.0800002,3435118874.48
sh603681,永冠新材,2020-07-30,20.7,21.49,20.46,20.54,20.62,5134842.0,106985062.0,1266438559.36,3421791546.1600003
sh603681,永冠新材,2020-07-31,20.47,20.79,20.36,20.56,20.54,3360558.0,68922052.0,1267671703.04,3425123378.24
sh603681,永冠新材,2020-08-03,20.61,21.08,20.61,20.98,20.56,4376995.0,91629565.0,1293567720.32,3495091851.92
sh603681,永冠新材,2020-08-04,21.11,21.33,20.55,20.62,20.98,3261775.0,68112366.0,1271371134.0800002,3435118874.48
sh603681,永冠新材,2020-08-05,20.66,20.89,20.35,20.51,20.62,2421872.0,49778216.0,1264588843.8400002,3416793798.0400004
sh603681,永冠新材,2020-08-06,20.54,20.76,20.08,20.35,20.51,2650778.0,53910569.0,1254723694.4,3390139141.4
sh603681,永冠新材,2020-08-07,20.34,20.65,19.63,19.85,20.35,2771740.0,55822536.0,1223895102.4,3306843339.4
sh603681,永冠新材,2020-08-10,19.8,20.08,19.65,19.91,19.85,2090452.0,41555617.0,1227594533.44,3316838835.6400003
sh603681,永冠新材,2020-08-11,19.89,19.99,19.19,19.26,19.91,2433510.0,47693864.0,1187517363.8400002,3208554293.04
sh603681,永冠新材,2020-08-12,19.18,19.38,18.61,19.05,19.26,1975639.0,37376672.0,1174569355.2,3173570056.2000003
sh603681,永冠新材,2020-08-13,19.1,19.4,19.05,19.24,19.05,1493419.0,28744750.0,1186284220.16,3205222460.96
sh603681,永冠新材,2020-08-14,19.25,19.38,19.06,19.36,19.24,1108199.0,21305073.0,1193683082.24,3225213453.44
sh603681,永冠新材,2020-08-17,19.6,19.93,19.45,19.87,19.36,2206455.0,43502503.0,1225128246.08,3310175171.48
sh603681,永冠新材,2020-08-18,19.72,20.27,19.7,19.95,19.87,2495399.0,49960187.0,1230060820.8,3323502499.8
sh603681,永冠新材,2020-08-19,19.99,20.2,19.68,19.73,19.95,1634300.0,32533825.0,1216496240.3200002,3286852346.92
sh603681,永冠新材,2020-08-20,19.66,19.83,19.38,19.63,19.73,1283230.0,25210178.0,1210330521.92,3270193186.52
sh603681,永冠新材,2020-08-21,19.7,19.93,19.4,19.59,19.63,1336520.0,26269556.0,1207864234.56,3263529522.36
sh603681,永冠新材,2020-08-24,19.7,20.3,19.65,20.21,19.59,2987832.0,59961344.0,1246091688.64,3366816316.84
sh603681,永冠新材,2020-08-25,20.26,20.79,20.0,20.58,20.21,3367999.0,69166529.0,1268904846.72,3428455210.32
sh603681,永冠新材,2020-08-26,20.4,20.61,20.01,20.17,20.58,2326909.0,47206240.0,1243625401.28,3360152652.6800003
sh603681,永冠新材,2020-08-27,20.1,20.41,19.87,20.31,20.17,1632706.0,33072126.0,1252257407.04,3383475477.24
sh603681,永冠新材,2020-08-28,20.35,20.64,20.11,20.47,20.31,2157910.0,44001063.0,1262122556.48,3410130133.88
sh603681,永冠新材,2020-08-31,20.63,20.88,20.25,20.42,20.47,2253909.0,46274642.0,1259039697.28,3401800553.68
sh603681,永冠新材,2020-09-01,20.46,20.62,20.3,20.51,20.42,1619028.0,33124507.0,1264588843.8400002,3416793798.0400004
sh603681,永冠新材,2020-09-02,20.56,20.73,20.31,20.47,20.51,1751321.0,35910080.0,1262122556.48,3410130133.88
sh603681,永冠新材,2020-09-03,20.56,20.62,19.94,20.01,20.47,1748249.0,35416179.0,1233760251.84,3333497996.04
sh603681,永冠新材,2020-09-04,19.66,20.14,19.51,20.11,20.01,1639601.0,32545677.0,1239925970.24,3350157156.44
sh603681,永冠新材,2020-09-07,20.2,20.64,19.89,20.03,20.11,2760966.0,56256535.0,1234993395.52,3336829828.12
sh603681,永冠新材,2020-09-08,20.25,20.88,20.01,20.83,20.03,4301132.0,88484129.0,1284319142.72,3470103111.32
sh603681,永冠新材,2020-09-09,20.77,21.06,20.2,20.3,20.83,5014735.0,103423481.0,1251640835.2,3381809561.2
sh603681,永冠新材,2020-09-10,20.78,21.28,19.68,20.99,20.3,7883301.0,161510519.0,1294184292.16,3496757767.96
sh603681,永冠新材,2020-09-11,22.67,22.67,18.89,19.11,20.99,13517341.0,277526847.0,1178268786.24,3183565552.44
sh603681,永冠新材,2020-09-14,17.51,18.61,17.5,18.04,19.11,6286661.0,112916326.0,1112295599.36,3005312536.16
sh603681,永冠新材,2020-09-15,17.9,18.03,17.7,17.75,18.04,2681810.0,47742023.0,1094415016.0,2957000971.0
sh603681,永冠新材,2020-09-16,17.8,17.85,17.15,17.21,17.75,2944574.0,51198145.0,1061120136.64,2867041504.84
sh603681,永冠新材,2020-09-17,17.26,17.65,17.2,17.48,17.21,2237322.0,38983990.0,1077767576.32,2912021237.92
sh603681,永冠新材,2020-09-18,17.55,17.66,17.36,17.62,17.48,1882087.0,32934193.0,1086399582.08,2935344062.48
sh603681,永冠新材,2020-09-21,17.69,17.95,17.55,17.92,17.62,1736996.0,30868239.0,1104896737.28,2985321543.68
sh603681,永冠新材,2020-09-22,17.66,17.87,17.51,17.58,17.92,1265944.0,22388158.0,1083933294.72,2928680398.32
sh603681,永冠新材,2020-09-23,17.73,17.81,17.61,17.69,17.58,914000.0,16187295.0,1090715584.96,2947005474.76
sh603681,永冠新材,2020-09-24,17.6,17.62,17.17,17.19,17.69,1404905.0,24315395.0,1059886992.96,2863709672.76
sh603681,永冠新材,2020-09-25,17.3,17.37,17.1,17.33,17.19,747221.0,12876460.0,1068518998.72,2887032497.32
sh603681,永冠新材,2020-09-28,17.4,17.42,17.05,17.09,17.33,856826.0,14779648.0,1053721274.56,2847050512.36
sh603681,永冠新材,2020-09-29,17.08,17.34,16.86,17.14,17.09,1033165.0,17689549.0,1056804133.76,2855380092.56
sh603681,永冠新材,2020-09-30,17.12,17.19,17.02,17.08,17.14,640100.0,10955479.0,1053104702.72,2845384596.32
sh603681,永冠新材,2020-10-09,17.39,17.63,17.28,17.51,17.08,1018753.0,17823837.0,1079617291.84,2917018986.04
sh603681,永冠新材,2020-10-12,17.65,17.95,17.51,17.91,17.51,1674544.0,29811572.0,1104280165.44,2983655627.64
sh603681,永冠新材,2020-10-13,18.0,18.0,17.71,17.84,17.91,1230335.0,21924830.0,1099964162.56,2971994215.36
sh603681,永冠新材,2020-10-14,17.89,18.18,17.85,18.01,17.84,1608745.0,28940742.0,1110445883.84,3000314788.04
sh603681,永冠新材,2020-10-15,18.01,18.02,17.77,17.91,18.01,820317.0,14665550.0,1104280165.44,2983655627.64
sh603681,永冠新材,2020-10-16,17.91,18.12,17.83,18.05,17.91,1225957.0,22093244.0,1112912171.2,3006978452.2000003
sh603681,永冠新材,2020-10-19,18.05,18.3,17.93,17.94,18.05,1104141.0,19976723.0,1106129880.96,2988653375.76
sh603681,永冠新材,2020-10-20,17.94,18.15,17.87,18.09,17.94,990259.0,17861382.0,1115378458.56,3013642116.36
sh603681,永冠新材,2020-10-21,18.01,18.39,17.99,18.28,18.09,2234328.0,40741812.0,1127093323.52,3045294521.1200004
sh603681,永冠新材,2020-10-22,18.31,18.39,18.14,18.36,18.28,1343517.0,24613156.0,1132025898.24,3058621849.44
sh603681,永冠新材,2020-10-23,18.26,18.46,18.2,18.24,18.36,1794491.0,32837329.0,1124627036.16,3038630856.96
sh603681,永冠新材,2020-10-26,18.08,18.45,17.88,18.34,18.24,1432653.0,26214007.0,1130792754.56,3055290017.36
sh603681,永冠新材,2020-10-27,18.6,18.6,18.24,18.32,18.34,913300.0,16734561.0,1129559610.88,3051958185.28
sh603681,永冠新材,2020-10-28,18.35,18.46,18.22,18.35,18.32,1252908.0,22953387.0,1131409326.4,3056955933.4
sh603681,永冠新材,2020-10-29,18.21,18.67,18.12,18.52,18.35,1964684.0,36149534.0,1141891047.68,3085276506.08
sh603681,永冠新材,2020-10-30,18.77,19.25,18.27,18.82,18.52,4250296.0,79986077.0,1160388202.88,3135253987.28
sh603681,永冠新材,2020-11-02,18.7,19.25,18.65,19.11,18.82,2340835.0,44478389.0,1178268786.24,3183565552.44
sh603681,永冠新材,2020-11-03,19.2,19.25,18.81,19.01,19.11,2152067.0,40915486.0,1172103067.84,3166906392.04
sh603681,永冠新材,2020-11-04,18.93,19.2,18.92,19.09,19.01,1589602.0,30306047.0,1177035642.56,3180233720.36
sh603681,永冠新材,2020-11-05,19.1,19.36,19.07,19.22,19.09,1660971.0,31884563.0,1185051076.48,3201890628.88
sh603681,永冠新材,2020-11-06,19.22,19.31,18.85,19.2,19.22,1854197.0,35461811.0,1183817932.8,3198558796.8
sh603681,永冠新材,2020-11-09,19.35,19.46,19.15,19.29,19.2,2165663.0,41770177.0,1189367079.36,3213552041.16
sh603681,永冠新材,2020-11-10,19.29,19.37,19.05,19.14,19.29,1629568.0,31322660.0,1180118501.76,3188563300.56
sh603681,永冠新材,2020-11-11,19.06,19.26,18.97,19.03,19.14,1236115.0,23621648.0,1173336211.52,3170238224.12
sh603681,永冠新材,2020-11-12,19.08,19.26,18.85,19.16,19.03,1306700.0,24910568.0,1181351645.44,3191895132.64
sh603681,永冠新材,2020-11-13,19.0,19.29,19.0,19.25,19.16,1060536.0,20358708.0,1186900792.0,3206888376.9999995
sh603681,永冠新材,2020-11-16,19.72,20.45,19.4,20.29,19.25,4790926.0,95677325.0,1251024263.36,3380143645.16
sh603681,永冠新材,2020-11-17,20.29,20.93,20.1,20.71,20.29,5169616.0,106578815.0,1276920280.64,3450112118.84
sh603681,永冠新材,2020-11-18,20.65,21.38,20.42,20.95,20.71,4683271.0,98529805.0,1291718004.8,3490094103.8
sh603681,永冠新材,2020-11-19,21.0,21.2,20.65,20.85,20.95,3491081.0,72856689.0,1285552286.4,3473434943.4
sh603681,永冠新材,2020-11-20,20.8,21.27,20.8,20.92,20.85,3315570.0,69669662.0,1289868289.28,3485096355.6800003
sh603681,永冠新材,2020-11-23,20.92,21.17,20.74,20.79,20.92,2721084.0,56915135.0,1281852855.36,3463439447.16
sh603681,永冠新材,2020-11-24,20.9,20.96,20.55,20.72,20.79,1779701.0,36873060.0,1277536852.48,3451778034.88
sh603681,永冠新材,2020-11-25,20.84,20.84,20.17,20.18,20.72,2520180.0,51517136.0,1244241973.12,3361818568.72
sh603681,永冠新材,2020-11-26,20.15,20.55,19.93,20.23,20.18,2195026.0,44317585.0,1247324832.32,3370148148.92
sh603681,永冠新材,2020-11-27,20.35,20.71,20.04,20.59,20.23,2175403.0,44333978.0,1269521418.56,3430121126.36
sh603681,永冠新材,2020-11-30,20.44,20.66,20.32,20.41,20.59,2091200.0,42750979.0,1258423125.44,3400134637.64
sh603681,永冠新材,2020-12-01,20.39,20.47,20.05,20.39,20.41,1637300.0,33147758.0,1257189981.76,3396802805.56
sh603681,永冠新材,2020-12-02,20.39,20.55,20.23,20.52,20.39,1346519.0,27476296.0,1265205415.68,3418459714.08
sh603681,永冠新材,2020-12-03,20.6,21.15,20.3,20.89,20.52,2905494.0,60401499.0,1288018573.76,3480098607.56
sh603681,永冠新材,2020-12-04,21.16,21.44,20.99,21.08,20.89,4331610.0,91694485.0,1299733438.72,3511751012.32
sh603681,永冠新材,2020-12-07,21.15,21.23,20.51,20.6,21.08,4397647.0,91775806.0,1270137990.4,3431787042.4
sh603681,永冠新材,2020-12-08,20.22,21.09,19.86,20.18,20.6,4547480.0,92280657.0,1244241973.12,3361818568.72
sh603681,永冠新材,2020-12-09,20.02,20.68,20.02,20.03,20.18,2739077.0,55455534.0,1234993395.52,3336829828.12
sh603681,永冠新材,2020-12-10,20.19,20.3,19.86,20.23,20.03,1399747.0,28162428.0,1247324832.32,3370148148.92
sh603681,永冠新材,2020-12-11,20.21,20.39,19.9,20.16,20.23,1703045.0,34206843.0,1243008829.44,3358486736.64
sh603681,永冠新材,2020-12-14,20.17,20.19,19.8,19.94,20.16,1209860.0,24090530.0,1229444248.96,3321836583.76
sh603681,永冠新材,2020-12-15,20.08,20.08,19.68,20.0,19.94,1344171.0,26685949.0,1233143680.0,3331832080.0
sh603681,永冠新材,2020-12-16,19.9,19.97,19.75,19.91,20.0,960188.0,19072264.0,1227594533.44,3316838835.6400003
sh603681,永冠新材,2020-12-17,19.73,19.85,19.35,19.72,19.91,1299407.0,25529282.0,1215879668.48,3285186430.88
sh603681,永冠新材,2020-12-18,19.92,19.92,19.31,19.35,19.72,1524220.0,29754250.0,1193066510.4,3223547537.4
sh603681,永冠新材,2020-12-21,19.4,19.47,19.07,19.25,19.35,1297900.0,24973222.0,1186900792.0,3206888376.9999995
sh603681,永冠新材,2020-12-22,19.25,19.25,18.65,18.82,19.25,1491884.0,28287508.0,1160388202.88,3135253987.28
sh603681,永冠新材,2020-12-23,18.84,18.94,18.41,18.59,18.82,1216186.0,22645774.0,1146207050.56,3096937918.36
sh603681,永冠新材,2020-12-24,18.59,19.12,18.31,19.05,18.59,2240708.0,42169836.0,1174569355.2,3173570056.2000003
sh603681,永冠新材,2020-12-25,19.22,19.29,18.96,19.14,19.05,1348891.0,25786369.0,1180118501.76,3188563300.56
sh603681,永冠新材,2020-12-28,19.14,19.15,18.5,18.52,19.14,1516454.0,28320193.0,1141891047.68,3085276506.08
sh603681,永冠新材,2020-12-29,18.51,19.58,18.36,19.22,18.52,2075128.0,39562337.0,1185051076.48,3201890628.88
sh603681,永冠新材,2020-12-30,19.32,19.52,19.0,19.47,19.22,1766345.0,34192185.0,1200465372.48,3243538529.88
sh603681,永冠新材,2020-12-31,19.58,20.05,19.31,19.9,19.47,2206734.0,43719145.0,1226977961.6,3315172919.6
sh603681,永冠新材,2021-01-04,20.09,20.09,19.63,19.8,19.9,1974255.0,39050359.0,1220812243.2,3298513759.2000003
sh603681,永冠新材,2021-01-05,20.8,21.65,20.49,20.99,19.8,7439249.0,156742764.0,1294184292.16,3496757767.96
sh603681,永冠新材,2021-01-06,20.58,21.05,19.7,20.0,20.99,5766475.0,116702273.0,1233143680.0,3331832080.0
sh603681,永冠新材,2021-01-07,20.34,20.34,19.6,19.72,20.0,4338925.0,86188667.0,1215879668.48,3285186430.88
sh603681,永冠新材,2021-01-08,20.16,20.85,20.16,20.35,19.72,5736295.0,117317542.0,1254723694.4,3390139141.4
sh603681,永冠新材,2021-01-11,20.29,20.33,19.69,19.69,20.35,3628029.0,72291393.0,1214029952.96,3280188682.76
sh603681,永冠新材,2021-01-12,19.9,19.9,19.15,19.61,19.69,2341964.0,45835781.0,1209097378.24,3266861354.44
sh603681,永冠新材,2021-01-13,19.7,19.74,19.05,19.27,19.61,2218647.0,42635340.0,1188133935.68,3210220209.08
sh603681,永冠新材,2021-01-14,19.13,19.4,18.74,19.14,19.27,1893078.0,36127063.0,1180118501.76,3188563300.56
sh603681,永冠新材,2021-01-15,19.08,19.57,18.88,19.29,19.14,2386552.0,45898447.0,1189367079.36,3213552041.16
sh603681,永冠新材,2021-01-18,19.18,20.59,19.18,20.41,19.29,5231253.0,104995075.0,1258423125.44,3400134637.64
sh603681,永冠新材,2021-01-19,20.33,20.55,20.09,20.09,20.41,3272413.0,66439968.0,1238692826.56,3346825324.36
sh603681,永冠新材,2021-01-20,20.32,20.32,19.72,19.93,20.09,2759371.0,54913766.0,1228827677.12,3320170667.72
sh603681,永冠新材,2021-01-21,19.87,20.45,19.76,20.16,19.93,3684802.0,74429633.0,1243008829.44,3358486736.64
sh603681,永冠新材,2021-01-22,19.97,20.19,19.82,19.9,20.16,2290655.0,45787962.0,1226977961.6,3315172919.6
sh603681,永冠新材,2021-01-25,19.68,19.73,18.75,19.05,19.9,4272732.0,81178156.0,1174569355.2,3173570056.2000003
sh603681,永冠新材,2021-01-26,19.09,19.15,18.72,19.1,19.05,1719019.0,32522820.0,1177652214.4,3181899636.4
sh603681,永冠新材,2021-01-27,18.99,19.4,18.87,19.25,19.1,2663716.0,51097854.0,1186900792.0,3206888376.9999995
sh603681,永冠新材,2021-01-28,19.25,19.25,18.68,18.86,19.25,2096234.0,39614325.0,1162854490.24,3141917651.44
sh603681,永冠新材,2021-01-29,18.98,19.14,18.68,18.86,18.86,1962146.0,37036819.0,1162854490.24,3141917651.44
sh603681,永冠新材,2021-02-01,19.0,19.69,18.73,19.45,18.86,3792130.0,73229013.0,1199232228.8,3240206697.8
sh603681,永冠新材,2021-02-02,19.68,20.09,19.47,19.8,19.45,3711924.0,73717691.0,1220812243.2,3298513759.2000003
sh603681,永冠新材,2021-02-03,19.9,20.15,19.7,19.77,19.8,2517766.0,50159421.0,1218962527.68,3293516011.08
sh603681,永冠新材,2021-02-04,19.88,20.16,19.73,20.01,19.77,4056121.0,81050929.0,1233760251.84,3333497996.04
sh603681,永冠新材,2021-02-05,20.15,20.25,18.9,19.4,20.01,4952894.0,96497956.0,1196149369.6,3231877117.6
sh603681,永冠新材,2021-02-08,19.88,20.17,19.45,19.88,19.4,3520399.0,70140920.0,1225744817.92,3311841087.5199995
sh603681,永冠新材,2021-02-09,20.0,20.38,19.65,20.12,19.88,3378125.0,67946664.0,1240542542.08,3351823072.48
sh603681,永冠新材,2021-02-10,20.18,20.78,20.03,20.51,20.12,5038787.0,103330769.0,1264588843.8400002,3416793798.0400004
sh603681,永冠新材,2021-02-18,20.7,21.18,20.3,20.77,20.51,6405347.0,132924277.0,1280619711.68,3460107615.0800004
sh603681,永冠新材,2021-02-19,20.79,21.12,20.51,21.11,20.77,6462690.0,134890382.0,1301583154.24,3516748760.44
sh603681,永冠新材,2021-02-22,21.21,21.45,20.51,20.86,21.11,8658802.0,182155371.0,1286168858.24,3475100859.44
sh603681,永冠新材,2021-02-23,20.7,20.83,20.18,20.56,20.86,4241729.0,86861224.0,1267671703.04,3425123378.24
sh603681,永冠新材,2021-02-24,20.51,21.01,20.29,20.6,20.56,4320567.0,89397666.0,1270137990.4,3431787042.4
sh603681,永冠新材,2021-02-25,20.72,20.72,19.82,19.92,20.6,5264161.0,105651605.0,1228211105.28,3318504751.68
sh603681,永冠新材,2021-02-26,19.84,20.45,19.59,20.18,19.92,3737788.0,75331541.0,1244241973.12,3361818568.72
sh603681,永冠新材,2021-03-01,20.37,21.08,20.22,20.95,20.18,5248576.0,109251809.0,1291718004.8,3490094103.8
sh603681,永冠新材,2021-03-02,21.27,21.35,20.7,21.1,20.95,4190926.0,87659902.0,1300966582.4,3515082844.4
sh603681,永冠新材,2021-03-03,20.95,21.58,20.74,21.54,21.1,5524076.0,117540547.0,1328095743.36,3588383150.16
sh603681,永冠新材,2021-03-04,21.58,21.65,21.13,21.28,21.54,3383162.0,72262180.0,1312064875.52,3545069333.12
sh603681,永冠新材,2021-03-05,21.28,21.75,20.9,21.23,21.28,4185675.0,89110821.0,1308982016.32,3536739752.92
sh603681,永冠新材,2021-03-08,21.04,21.7,20.66,20.76,21.23,3492982.0,73579986.0,1280003139.84,3458441699.04
sh603681,永冠新材,2021-03-09,20.8,21.19,20.3,20.62,20.76,3472623.0,72133241.0,1271371134.0800002,3435118874.48
sh603681,永冠新材,2021-03-10,20.78,20.97,20.35,20.61,20.62,2256057.0,46497727.0,1270754562.24,3433452958.44
sh603681,永冠新材,2021-03-11,20.69,21.08,20.3,20.98,20.61,2849736.0,59282697.0,1293567720.32,3495091851.92
sh603681,永冠新材,2021-03-12,20.9,21.18,20.5,21.13,20.98,2896980.0,60600664.0,1302816297.92,3520080592.52
sh603681,永冠新材,2021-03-15,21.13,21.21,20.85,21.1,21.13,2304880.0,48406487.0,1300966582.4,3515082844.4
sh603681,永冠新材,2021-03-16,21.18,21.32,20.81,21.24,21.1,2622511.0,55274818.0,1309598588.16,3538405668.96
sh603681,永冠新材,2021-03-17,21.05,21.52,20.94,21.41,21.24,2915452.0,62084306.0,1320080309.44,3566726241.64
sh603681,永冠新材,2021-03-18,21.45,21.5,21.12,21.23,21.41,2621747.0,55779966.0,1308982016.32,3536739752.92
sh603681,永冠新材,2021-03-19,21.06,21.24,20.77,20.97,21.23,2257547.0,47369088.0,1292951148.48,3493425935.88
sh603681,永冠新材,2021-03-22,21.01,21.98,21.0,21.96,20.97,5883178.0,127725785.0,1353991760.64,3658351623.84
sh603681,永冠新材,2021-03-23,21.98,22.23,21.55,21.69,21.96,3356493.0,72943264.0,1337344320.96,3613371890.76
sh603681,永冠新材,2021-03-24,21.74,22.2,21.51,21.74,21.69,3748120.0,81886182.0,1340427180.16,3621701470.96
sh603681,永冠新材,2021-03-25,21.79,21.8,21.31,21.33,21.74,2309073.0,49740500.0,1315147734.72,3553398913.32
sh603681,永冠新材,2021-03-26,21.52,22.1,21.31,22.04,21.33,3835375.0,83841374.0,1358924335.36,3671678952.16
sh603681,永冠新材,2021-03-29,22.15,22.18,21.65,21.97,22.04,2564613.0,56263809.0,1354608332.48,3660017539.88
sh603681,永冠新材,2021-03-30,21.97,22.14,21.56,21.98,21.97,2913797.0,63574653.0,1355224904.32,3661683455.92
sh603681,永冠新材,2021-03-31,21.97,22.15,21.77,22.11,21.98,2177914.0,47915215.0,1363240338.24,3683340364.44
sh603681,永冠新材,2021-04-01,22.22,22.22,21.66,21.75,22.11,2809710.0,61493533.0,1341043752.0,3623367387.0
sh603681,永冠新材,2021-04-02,21.91,21.91,20.88,21.01,21.75,3573101.0,76372986.0,1295417435.84,3500089600.04
sh603681,永冠新材,2021-04-06,21.17,21.33,21.01,21.17,21.01,2222009.0,46977954.0,1305282585.28,3526744256.6800003
sh603681,永冠新材,2021-04-07,21.56,21.56,20.65,20.75,21.17,2450087.0,51534922.0,1279386568.0,3456775783.0
sh603681,永冠新材,2021-04-08,20.8,20.87,20.08,20.15,20.75,3159889.0,64556290.0,1242392257.6,3356820820.6
sh603681,永冠新材,2021-04-09,20.15,20.23,19.77,20.06,20.15,2394587.0,47745690.0,1236843111.04,3341827576.24
sh603681,永冠新材,2021-04-12,20.06,20.12,19.57,19.76,20.06,2218443.0,43940818.0,1218345955.84,3291850095.04
sh603681,永冠新材,2021-04-13,19.75,20.05,19.59,19.74,19.76,1701795.0,33692659.0,1217112812.16,3288518262.96
sh603681,永冠新材,2021-04-14,20.26,20.55,20.0,20.49,19.74,4507294.0,91605450.0,1263355700.16,3413461965.96
sh603681,永冠新材,2021-04-15,20.5,21.03,20.29,20.84,20.49,3795357.0,78606139.0,1284935714.56,3471769027.36
sh603681,永冠新材,2021-04-16,20.89,22.56,20.7,22.32,20.84,8154062.0,179799827.0,1376188346.88,3718324601.28
sh603681,永冠新材,2021-04-19,22.66,23.36,22.5,23.14,22.32,7225602.0,166480272.0,1426747237.76,3854929716.56
sh603681,永冠新材,2021-04-20,22.88,23.48,22.88,23.27,23.14,5053236.0,117113391.0,1434762671.6799998,3876586625.08
sh603681,永冠新材,2021-04-21,23.53,23.57,23.0,23.32,23.27,3402299.0,79293055.0,1437845530.88,3884916205.28
sh603681,永冠新材,2021-04-22,23.75,23.96,23.33,23.64,23.32,3020993.0,71589655.0,1457575829.76,3938225518.56
sh603681,永冠新材,2021-04-23,23.64,23.87,23.0,23.12,23.64,3806331.0,88580179.0,1425514094.0800002,3851597884.48
sh603681,永冠新材,2021-04-26,23.56,23.68,23.23,23.51,23.12,2969898.0,69791954.0,1449560395.8400002,3916568610.04
sh603681,永冠新材,2021-04-27,23.16,23.58,22.88,23.3,23.51,2967458.0,68864608.0,1436612387.2,3881584373.2
sh603681,永冠新材,2021-04-28,23.59,24.44,23.21,23.55,23.3,5359122.0,126901243.0,1452026683.2,3923232274.2
sh603681,永冠新材,2021-04-29,23.3,23.59,22.6,23.27,23.55,3584330.0,82987261.0,1434762671.6799998,3876586625.08
sh603681,永冠新材,2021-04-30,23.34,23.79,22.69,22.89,23.27,3433986.0,78804494.0,1411332941.76,3813281815.56
sh603681,永冠新材,2021-05-06,22.94,23.32,22.75,22.8,22.89,2565511.0,58870556.0,1405783795.1999998,3798288571.2
sh603681,永冠新材,2021-05-07,22.9,23.06,22.33,22.36,22.8,3049524.0,68815963.0,1378654634.2399998,3724988265.44
sh603681,永冠新材,2021-05-10,22.19,22.73,21.94,22.1,22.36,2795648.0,62151157.0,1362623766.4,3681674448.4
sh603681,永冠新材,2021-05-11,22.08,22.92,21.8,22.6,22.1,3612308.0,81031985.0,1393452358.4,3764970250.4
sh603681,永冠新材,2021-05-12,22.48,23.77,22.3,23.45,22.6,5337849.0,123863474.0,1445860964.8000002,3906573113.8
sh603681,永冠新材,2021-05-13,23.05,23.55,23.01,23.38,23.45,1973000.0,45999442.0,1441544961.9199998,3894911701.52
sh603681,永冠新材,2021-05-14,23.32,25.1,23.11,24.89,23.38,5073063.0,123939591.0,1534647309.76,4146465023.56
sh603681,永冠新材,2021-05-17,24.78,25.3,24.61,24.96,24.89,3875425.0,96821839.0,1538963312.64,4158126435.84
sh603681,永冠新材,2021-05-18,24.97,25.43,24.73,25.28,24.96,2873400.0,72197299.0,1558693611.52,4211435749.12
sh603681,永冠新材,2021-05-19,25.0,25.47,24.4,24.48,25.28,2596016.0,64435752.0,1509367864.32,4078162465.92
sh603681,永冠新材,2021-05-20,24.44,24.69,24.0,24.4,24.48,2413807.0,58854649.0,1504435289.6,4064835137.6
sh603681,永冠新材,2021-05-21,24.4,25.11,24.4,24.9,24.4,2558266.0,63622317.0,1535263881.6,4148130939.6
sh603681,永冠新材,2021-05-24,24.7,25.65,24.52,25.56,24.9,2891157.0,73212952.0,1575957623.04,4258081398.24
sh603681,永冠新材,2021-05-25,25.41,25.68,25.05,25.17,25.56,2131440.0,53886282.0,1551911321.28,4193110672.68
sh603681,永冠新材,2021-05-26,25.12,25.38,24.8,25.11,25.17,2533585.0,63603289.0,1548211890.24,4183115176.44
sh603681,永冠新材,2021-05-27,25.09,25.95,24.88,25.95,25.11,2828008.0,72507979.0,1600003924.8000002,4323052123.8
sh603681,永冠新材,2021-05-28,25.83,25.94,25.08,25.25,25.95,2322234.0,59167986.0,1556843896.0,4206438001.0
sh603681,永冠新材,2021-05-31,25.26,25.45,24.66,25.34,25.25,2692652.0,67474437.0,1562393042.56,4221431245.36
sh603681,永冠新材,2021-06-01,25.38,25.5,24.88,25.04,25.34,1490052.0,37326896.0,1543895887.36,4171453764.16
sh603681,永冠新材,2021-06-02,25.13,25.28,24.58,24.89,25.04,2078792.0,51927268.0,1534647309.76,4146465023.56
sh603681,永冠新材,2021-06-03,25.07,26.5,25.07,26.18,24.89,3814423.0,98934379.0,1614185077.12,4361368192.72
sh603681,永冠新材,2021-06-04,26.07,26.18,25.5,25.95,26.18,1927351.0,49995794.0,1600003924.8000002,4323052123.8
sh603681,永冠新材,2021-06-07,26.2,26.76,25.8,25.94,25.95,2830038.0,74248375.0,1599387352.96,4321386207.76
sh603681,永冠新材,2021-06-08,25.6,26.1,25.48,25.77,25.94,1978395.0,50962845.0,1588905631.6799998,4293065635.08
sh603681,永冠新材,2021-06-09,25.96,25.96,25.38,25.54,25.77,1783256.0,45550331.0,1574724479.36,4254749566.16
sh603681,永冠新材,2021-06-10,25.65,26.18,25.5,25.95,25.54,1800840.0,46488856.0,1600003924.8000002,4323052123.8
sh603681,永冠新材,2021-06-11,26.2,26.29,25.5,25.6,25.95,1499443.0,38813380.0,1578423910.4,4264745062.4
sh603681,XD永冠新,2021-06-15,25.94,25.94,24.41,25.15,25.4,2569696.0,63961801.0,1550678177.6,4189778840.6
sh603681,永冠新材,2021-06-16,25.19,25.25,23.97,24.1,25.15,3295539.0,80354288.0,1485938134.4,4014857656.4
sh603681,永冠新材,2021-06-17,24.33,24.4,23.57,24.02,24.1,2470524.0,59183495.0,1481005559.68,4001530328.08
sh603681,永冠新材,2021-06-18,24.0,25.13,23.82,24.76,24.02,2281704.0,56177173.0,1526631875.84,4124808115.04
sh603681,永冠新材,2021-06-21,25.0,25.03,24.35,24.49,24.76,1599264.0,39183377.0,1509984436.16,4079828381.96
sh603681,永冠新材,2021-06-22,24.88,25.13,24.2,24.81,24.49,1773014.0,43806446.0,1529714735.04,4133137695.24
sh603681,永冠新材,2021-06-23,25.09,26.27,24.81,26.18,24.81,3860769.0,99865581.0,1614185077.12,4361368192.72
sh603681,永冠新材,2021-06-24,26.23,26.66,25.7,25.78,26.18,2528095.0,65970252.0,1589522203.52,4294731551.12
sh603681,永冠新材,2021-06-25,26.03,26.09,25.36,25.46,25.78,2354489.0,60259570.0,1569791904.64,4241422237.84
sh603681,永冠新材,2021-06-28,25.47,25.76,25.27,25.5,25.46,1532479.0,39109907.0,1572258192.0,4248085902.0
sh603681,永冠新材,2021-06-29,25.59,25.69,24.94,25.07,25.5,1616440.0,40746138.0,1545745602.88,4176451512.28
sh603681,永冠新材,2021-06-30,25.03,25.66,25.0,25.2,25.07,1415200.0,35699211.0,1553761036.8,4198108420.8
sh603681,永冠新材,2021-07-01,25.19,25.4,24.78,24.78,25.2,1237398.0,30970187.0,1527865019.52,4128139947.12
sh603681,永冠新材,2021-07-02,24.9,25.0,24.35,24.8,24.78,1546348.0,38127070.0,1529098163.2,4131471779.2
sh603681,永冠新材,2021-07-05,24.89,25.12,24.61,24.93,24.8,1224009.0,30458362.0,1537113597.12,4153128687.72
sh603681,永冠新材,2021-07-06,24.85,25.16,24.12,24.44,24.93,2359795.0,57669582.0,1506901576.96,4071498801.76
sh603681,永冠新材,2021-07-07,24.41,25.06,24.26,24.99,24.44,1481488.0,36653945.0,1540813028.16,4163124183.96
sh603681,永冠新材,2021-07-08,25.55,25.65,24.77,25.19,24.99,2262002.0,57153524.0,1553144464.9599998,4196442504.76
sh603681,永冠新材,2021-07-09,25.3,25.35,24.6,25.22,25.19,1430279.0,35815192.0,1554994180.48,4201440252.88
sh603681,永冠新材,2021-07-12,25.31,25.83,25.04,25.6,25.22,2313088.0,58961487.0,1578423910.4,4264745062.4
sh603681,永冠新材,2021-07-13,25.74,26.62,25.62,26.54,25.6,3566164.0,93675539.0,1636381663.36,4421341170.16
sh603681,永冠新材,2021-07-14,26.37,26.42,25.85,25.85,26.54,2313452.0,60228933.0,1593838206.4,4306392963.4
sh603681,永冠新材,2021-07-15,25.86,26.45,25.6,26.26,25.85,2747968.0,71773355.0,1619117651.84,4374695521.04
sh603681,永冠新材,2021-07-16,26.5,27.35,26.16,26.95,26.26,4559595.0,122270267.0,1661661108.8,4489643727.8
sh603681,永冠新材,2021-07-19,27.09,27.09,26.31,26.69,26.95,2695534.0,71740295.0,1645630240.96,4446329910.76
sh603681,永冠新材,2021-07-20,26.48,26.48,25.42,25.94,26.69,3152212.0,81394105.0,1599387352.96,4321386207.76
sh603681,永冠新材,2021-07-21,26.17,27.21,26.1,27.04,25.94,3903240.0,104405568.0,1667210255.36,4504636972.16
sh603681,永冠新材,2021-07-22,26.97,27.46,26.75,27.34,27.04,3928437.0,106715434.0,1685707410.56,4554614453.36
sh603681,永冠新材,2021-07-23,27.35,27.55,26.61,26.96,27.34,3031474.0,81990799.0,1662277680.64,4491309643.84
sh603681,永冠新材,2021-07-26,27.03,27.11,26.06,26.82,26.96,2922441.0,77923451.0,1653645674.88,4467986819.28
sh603681,永冠新材,2021-07-27,27.06,27.5,25.88,25.97,26.82,3219744.0,85677702.0,1601237068.48,4326383955.88
sh603681,永冠新材,2021-07-28,25.8,26.27,24.86,25.5,25.97,3068578.0,78550895.0,1572258192.0,4248085902.0
sh603681,永冠新材,2021-07-29,25.85,26.48,25.56,26.15,25.5,2267501.0,59165382.0,1612335361.6,4356370444.6
sh603681,永冠新材,2021-07-30,26.1,26.67,25.94,26.33,26.15,1972222.0,51987649.0,1623433654.72,4386356933.32
sh603681,永冠新材,2021-08-02,26.6,26.85,25.78,26.61,26.33,3217484.0,84986480.0,1640697666.24,4433002582.440001
sh603681,永冠新材,2021-08-03,27.0,28.5,26.68,27.93,26.61,6399626.0,178378627.0,1722085149.12,4652903499.72
sh603681,永冠新材,2021-08-04,27.94,28.7,27.56,28.47,27.93,4165446.0,117683956.0,1755380028.48,4742862965.88
sh603681,永冠新材,2021-08-05,28.59,28.68,28.18,28.43,28.47,2641574.0,75127741.0,1752913741.12,4736199301.72
sh603681,永冠新材,2021-08-06,28.66,28.7,27.93,28.33,28.43,2214500.0,62636318.0,1746748022.72,4719540141.32
sh603681,永冠新材,2021-08-09,28.39,28.45,27.55,27.92,28.33,2062200.0,57435372.0,1721468577.28,4651237583.679999
sh603681,永冠新材,2021-08-10,27.83,28.82,27.66,28.37,27.92,3497332.0,99423185.0,1749214310.0800002,4726203805.48
sh603681,永冠新材,2021-08-11,28.69,28.69,28.1,28.18,28.37,1496273.0,42301727.0,1737499445.12,4694551400.72
sh603681,永冠新材,2021-08-12,28.18,29.0,27.98,28.95,28.18,3659860.0,104807444.0,1784975476.8,4822826935.8
sh603681,永冠新材,2021-08-13,28.86,29.35,28.4,28.74,28.95,3219281.0,92452254.0,1772027468.16,4787842698.96
sh603681,永冠新材,2021-08-16,28.45,29.87,28.35,29.85,28.74,6601859.0,193457382.0,1840466942.4,4972759379.4
sh603681,永冠新材,2021-08-17,29.55,29.8,27.71,28.19,29.85,6957335.0,198385653.0,1738116016.96,4696217316.76
sh603681,永冠新材,2021-08-18,28.18,28.45,27.17,28.26,28.19,4062163.0,113261030.0,1742460703.74,4707907412.940001
sh603681,永冠新材,2021-08-19,28.11,29.58,27.88,29.1,28.26,5690025.0,163504609.0,1794253590.9,4847845212.9
sh603681,永冠新材,2021-08-20,29.17,30.29,28.42,29.76,29.1,4200630.0,124090559.0,1834948002.24,4957796341.440001
sh603681,永冠新材,2021-08-23,29.68,29.8,29.01,29.37,29.76,2976130.0,87657005.0,1810901304.63,4892825220.03
sh603681,永冠新材,2021-08-24,29.38,31.96,29.2,31.13,29.37,4869273.0,149536254.0,1919419734.87,5186028229.469999
sh603681,永冠新材,2021-08-25,30.98,33.6,30.3,32.85,31.13,9371671.0,305221385.0,2025471837.15,5472567534.150001
sh603681,永冠新材,2021-08-26,32.8,33.48,32.4,33.32,32.85,5514826.0,181838623.0,2054451190.68,5550866065.080001
sh603681,永冠新材,2021-08-27,33.23,34.0,32.25,32.68,33.32,6385115.0,211500446.0,2014989943.32,5444246788.92
sh603681,永冠新材,2021-08-30,32.36,32.92,32.01,32.91,32.68,3724841.0,120728865.0,2029171329.09,5482563091.289999
sh603681,永冠新材,2021-08-31,32.78,35.39,31.7,34.9,32.91,6420338.0,217945675.0,2151871145.1,5814082403.1
sh603681,永冠新材,2021-09-01,34.7,35.37,32.0,33.96,34.9,5765797.0,194944366.0,2093912438.04,5657485341.24
sh603681,永冠新材,2021-09-02,33.8,34.9,32.66,34.5,33.96,3508363.0,118808359.0,2127207865.5,5747445355.5
sh603681,永冠新材,2021-09-03,35.6,37.47,34.1,34.5,34.5,6523345.0,232445554.0,2127207865.5,5747445355.5
sh603681,永冠新材,2021-09-06,34.5,35.18,33.8,34.48,34.5,3723988.0,128276678.0,2769485630.32,6387624431.92
sh603681,永冠新材,2021-09-07,34.5,36.24,34.29,35.5,34.48,5054008.0,178885862.0,2851413569.5,6576585479.5
sh603681,永冠新材,2021-09-08,35.55,36.72,34.92,35.48,35.5,3422668.0,121949794.0,2849807139.32,6572880360.92
sh603681,永冠新材,2021-09-09,35.75,38.98,35.3,38.38,35.48,5726529.0,214533900.0,3082739515.42,7110122555.02
sh603681,永冠新材,2021-09-10,37.96,41.75,37.51,39.46,38.38,5162036.0,204941232.0,3169486745.1400003,7310198958.339999
sh603681,永冠新材,2021-09-13,39.13,39.97,37.98,39.56,39.46,3979611.0,154665146.0,3409892041.56,7561097696.76
sh603681,永冠新材,2021-09-14,39.4,41.3,38.5,40.06,39.56,3222882.0,129373781.0,3452989767.06,7656662632.26
sh603681,永冠新材,2021-09-15,39.98,41.97,38.22,39.48,40.06,3582278.0,140155348.0,3402996405.48,7545807307.08
sh603681,永冠新材,2021-09-16,39.38,40.1,37.05,37.76,39.48,3570913.0,136782056.0,3254740229.76,7217063928.959999
sh603681,永冠新材,2021-09-17,38.6,38.6,35.2,36.23,37.76,4132749.0,150804690.0,3122861189.7299995,6924635226.330001
sh603681,永冠新材,2021-09-22,36.36,37.5,36.21,36.88,36.23,2221911.0,81798474.0,3178888232.88,7048869642.48
sh603681,永冠新材,2021-09-23,37.28,37.4,35.09,35.4,36.88,4485915.0,161160786.0,3051318965.4,6765997433.400001
sh603681,永冠新材,2021-09-24,35.55,36.53,33.6,34.56,35.4,5420522.0,187880860.0,2978914786.56,6605448341.759999
sh603681,永冠新材,2021-09-27,34.78,34.78,31.2,32.15,34.56,5067051.0,164172560.0,2771183749.65,6144825352.65
sh603681,永冠新材,2021-09-28,31.77,32.8,31.5,32.39,32.15,2487554.0,79934351.0,2791870657.8900003,6190696521.690001
sh603681,永冠新材,2021-09-29,31.93,32.39,30.66,31.77,32.39,4122057.0,129912279.0,2738429478.27,6072196001.67
sh603681,永冠新材,2021-09-30,31.57,33.27,31.0,32.95,31.77,2830345.0,91840274.0,2840140110.45,6297729249.45
sh603681,永冠新材,2021-10-08,33.2,33.3,31.03,31.71,32.95,2244227.0,71115026.0,2733257751.21,6060728209.41
sh603681,永冠新材,2021-10-11,32.08,33.68,31.11,33.12,31.71,2793738.0,91589802.0,2854793337.12,6330221327.52
sh603681,永冠新材,2021-10-12,33.04,34.55,31.8,32.5,33.12,2698307.0,87559758.0,2801352157.4999995,6211720807.5
sh603681,永冠新材,2021-10-13,31.54,32.64,30.71,31.48,32.5,2549198.0,79940317.0,2713432797.4799995,6016768339.08
sh603681,永冠新材,2021-10-14,31.49,31.9,31.06,31.4,31.48,1192404.0,37587012.0,2706537161.4,6001477949.400001
sh603681,永冠新材,2021-10-15,31.74,31.74,29.77,30.96,31.4,2956076.0,90680701.0,2668611162.96,5917380806.16
sh603681,永冠新材,2021-10-18,30.92,33.31,30.71,32.92,30.96,3288281.0,107248323.0,2837554246.92,6291995353.32
sh603681,永冠新材,2021-10-19,32.96,33.36,32.2,32.46,32.92,1882388.0,61292002.0,2797904339.46,6204075612.660001
sh603681,永冠新材,2021-10-20,32.11,32.24,31.16,31.53,32.46,1984015.0,62618890.0,2717742570.03,6026324832.63
sh603681,永冠新材,2021-10-21,31.51,33.68,31.42,32.87,31.53,3369063.0,110336772.0,2833244474.37,6282438859.77
sh603681,永冠新材,2021-10-22,32.86,33.1,31.7,32.23,32.87,2170183.0,69929658.0,2778079385.73,6160115742.330001
sh603681,永冠新材,2021-10-25,31.51,32.75,31.44,32.69,32.23,1387214.0,44677338.0,2817729293.19,6248035482.99
sh603681,永冠新材,2021-10-26,32.76,34.02,32.46,33.11,32.69,2262538.0,75024781.0,2853931382.61,6328310028.81
sh603681,永冠新材,2021-10-27,33.11,33.6,32.0,32.61,33.11,1615136.0,52804955.0,2810833657.11,6232745093.31
sh603681,永冠新材,2021-10-28,32.55,33.76,31.52,32.32,32.61,2169896.0,71040531.0,2785836976.32,6177317430.72
sh603681,永冠新材,2021-10-29,32.78,33.28,31.74,32.21,32.32,1971197.0,63355857.0,2776355476.71,6156293144.91
sh603681,永冠新材,2021-11-01,32.25,34.3,31.43,34.06,32.21,3885677.0,129480264.0,2935817061.06,6509883406.259999
sh603681,永冠新材,2021-11-02,34.02,34.69,33.0,33.81,34.06,2997278.0,101738412.0,2914268198.31,6462100938.509999
sh603681,永冠新材,2021-11-03,33.9,34.63,33.36,34.2,33.81,1960712.0,66644916.0,2947884424.2,6536641588.2
sh603681,永冠新材,2021-11-04,34.09,36.06,34.09,35.93,34.2,2802938.0,99374392.0,3097002554.43,6867296265.030001
sh603681,永冠新材,2021-11-05,36.2,36.4,35.03,35.48,35.93,2073012.0,73803038.0,3058214601.48,6781287823.08
sh603681,永冠新材,2021-11-08,35.15,35.8,34.7,35.14,35.48,1246218.0,43639725.0,3028908148.14,6716303666.94
sh603681,永冠新材,2021-11-09,35.0,36.23,34.39,35.76,35.14,1871262.0,66241094.0,3082349327.76,6834804186.96
sh603681,永冠新材,2021-11-10,35.76,36.1,35.17,36.04,35.76,1210158.0,43169582.0,3106484054.04,6888320550.84
sh603681,永冠新材,2021-11-11,36.09,37.5,35.7,36.32,36.04,1853346.0,67801688.0,3130618780.32,6941836914.719999
sh603681,永冠新材,2021-11-12,36.4,36.7,35.11,35.91,36.32,1617700.0,58109350.0,3095278645.41,6863473667.61
sh603681,永冠新材,2021-11-15,35.8,35.9,34.42,35.04,35.91,2249448.0,78978723.0,3020288603.04,6697190679.839999
sh603681,永冠新材,2021-11-16,35.23,35.44,34.5,34.7,35.04,1563248.0,54435745.0,2990982149.7,6632206523.7
sh603681,永冠新材,2021-11-17,34.57,35.57,34.32,35.12,34.7,1430213.0,50050465.0,3027184239.1200004,6712481069.52
sh603681,永冠新材,2021-11-18,35.22,38.63,35.17,38.63,35.12,6867792.0,258641284.0,3329730272.13,7383346916.73
sh603681,永冠新材,2021-11-19,39.0,40.25,38.34,40.08,38.63,6477790.0,254954470.0,3454713676.08,7660485229.68
sh603681,永冠新材,2021-11-22,39.96,40.25,39.01,39.5,40.08,3073948.0,121545268.0,3404720314.5,7549629904.5
sh603681,永冠新材,2021-11-23,39.5,39.66,38.08,38.26,39.5,3004704.0,116035167.0,3297837955.2599998,7312628864.46
sh603681,永冠新材,2021-11-24,38.23,38.6,37.68,38.44,38.26,2250810.0,85855281.0,3313353136.4399996,7347032241.24
sh603681,永冠新材,2021-11-25,38.21,39.12,38.18,38.87,38.44,2229191.0,86012760.0,3350417180.37,7429218085.77
sh603681,永冠新材,2021-11-26,38.49,39.38,38.03,38.88,38.87,1554154.0,60499183.0,3351279134.88,7431129384.48
sh603681,永冠新材,2021-11-29,38.19,39.28,37.78,38.95,38.88,1812203.0,70247333.0,3357312816.45,7444508475.45
sh603681,永冠新材,2021-11-30,39.33,40.5,38.28,39.33,38.95,2182136.0,85477153.0,3390067087.83,7517137826.43
sh603681,永冠新材,2021-12-01,39.43,41.18,39.0,40.64,39.33,3321764.0,134155248.0,3502983128.64,7767517957.44
sh603681,永冠新材,2021-12-02,40.58,40.6,37.8,38.1,40.64,3512288.0,135604124.0,3284046683.1,7282048085.1
sh603681,永冠新材,2021-12-03,37.76,38.5,36.8,38.1,38.1,2416355.0,90679511.0,3284046683.1,7282048085.1
sh603681,永冠新材,2021-12-06,38.2,38.28,36.42,36.9,38.1,3132519.0,115915080.0,3180612141.9,7052692239.9
sh603681,永冠新材,2021-12-07,37.6,37.6,35.17,35.74,36.9,3277262.0,117630216.0,3080625418.74,6830981589.54
sh603681,永冠新材,2021-12-08,36.76,36.85,35.2,36.2,35.74,2371975.0,86064635.0,3120275326.2000003,6918901330.2
sh603681,永冠新材,2021-12-09,36.5,36.79,35.8,36.31,36.2,1202822.0,43719910.0,3129756825.81,6939925616.01
sh603681,永冠新材,2021-12-10,36.78,37.53,36.1,37.17,36.31,1683792.0,62348816.0,3203884913.6699996,7104297305.07
sh603681,永冠新材,2021-12-13,37.54,37.54,36.2,37.34,37.17,1376190.0,50972594.0,3218538140.3399997,7136789383.14
sh603681,永冠新材,2021-12-14,37.5,37.8,36.87,37.35,37.34,1171142.0,43553776.0,3219400094.85,7138700681.849999
sh603681,永冠新材,2021-12-15,37.49,37.85,37.0,37.39,37.35,1018583.0,38231589.0,3222847912.8900003,7146345876.690001
sh603681,永冠新材,2021-12-16,37.68,38.66,37.0,38.5,37.39,1488448.0,56434626.0,3318524863.5,7358500033.5
sh603681,永冠新材,2021-12-17,38.08,38.74,37.56,37.56,38.5,1088060.0,41444354.0,3237501139.56,7178837954.76
sh603681,永冠新材,2021-12-20,37.6,37.84,36.15,36.17,37.56,1960342.0,72077428.0,3117689462.67,6913167434.07
sh603681,永冠新材,2021-12-21,36.22,36.88,35.91,36.58,36.17,815916.0,29733540.0,3153029597.58,6991530681.18
sh603681,永冠新材,2021-12-22,37.21,37.29,36.12,37.1,36.58,822536.0,30203119.0,3197851232.1,7090918214.099999
sh603681,永冠新材,2021-12-23,37.15,37.28,36.58,36.92,37.1,550800.0,20363146.0,3182336050.9199996,7056514837.32
sh603681,永冠新材,2021-12-24,37.01,37.02,35.8,36.83,36.92,936962.0,34040233.0,3174578460.33,7039313148.929999
sh603681,永冠新材,2021-12-27,36.98,37.95,36.41,37.42,36.83,885773.0,33073628.0,3225433776.4199996,7152079772.82
sh603681,永冠新材,2021-12-28,37.42,38.68,37.2,38.36,37.42,1399570.0,53383230.0,3306457500.3599997,7331741851.559999
sh603681,永冠新材,2021-12-29,38.65,39.0,38.02,38.66,38.36,1657713.0,64054388.0,3332316135.6600003,7389080812.86
sh603681,永冠新材,2021-12-30,38.88,38.94,38.33,38.55,38.66,931761.0,35939992.0,3322834636.05,7368056527.05
sh603681,永冠新材,2021-12-31,38.88,39.56,38.21,39.3,38.55,1822576.0,71164264.0,3387481224.2999997,7511403930.3
sh603681,永冠新材,2022-01-04,39.3,39.99,37.96,38.44,39.3,1421560.0,54706651.0,3313353136.4399996,7347032241.24
sh603681,永冠新材,2022-01-05,38.66,38.66,37.02,37.89,38.44,1634248.0,61618024.0,3265945638.39,7241910812.190001
sh603681,永冠新材,2022-01-06,37.89,38.28,36.87,38.2,37.89,1331436.0,50264004.0,3292666228.2,7301161072.2
sh603681,永冠新材,2022-01-07,37.74,38.39,37.2,37.56,38.2,784187.0,29497737.0,3237501139.56,7178837954.76
sh603681,永冠新材,2022-01-10,37.37,38.0,36.5,37.6,37.56,1108002.0,41257437.0,3240948957.6,7186483149.599999
sh603681,永冠新材,2022-01-11,37.89,38.2,37.35,37.6,37.6,819795.0,30980490.0,3240948957.6,7186483149.599999
sh603681,永冠新材,2022-01-12,38.1,39.24,37.66,39.04,37.6,1557921.0,60140539.0,3365070407.04,7461710163.839999
sh603681,永冠新材,2022-01-13,39.1,39.25,37.71,38.18,39.04,971500.0,37071749.0,3290942319.18,7297338474.78
sh603681,永冠新材,2022-01-14,37.58,38.26,36.9,37.08,38.18,866925.0,32414237.0,3196127323.08,7087095616.679999
