数据由邢不行整理
股票代码,股票名称,交易日期,开盘价,最高价,最低价,收盘价,前收盘价,成交量,成交额,流通市值,总市值
sh603161,N科华,2018-01-05,24.12,24.12,24.12,24.12,16.75,21910.0,528469.0,805608000.0,3217608000.0
sh603161,科华控股,2018-01-08,26.53,26.53,26.53,26.53,24.12,10340.0,274320.0,886102000.0,3539102000.0
sh603161,科华控股,2018-01-09,29.18,29.18,29.18,29.18,26.53,8400.0,245112.0,974612000.0,3892612000.0
sh603161,科华控股,2018-01-10,32.1,32.1,32.1,32.1,29.18,41397.0,1328844.0,1072140000.0,4282140000.0
sh603161,科华控股,2018-01-11,35.31,35.31,35.31,35.31,32.1,146016.0,5155825.0,1179354000.0,4710354000.0
sh603161,科华控股,2018-01-12,38.84,38.84,36.63,36.99,35.31,18537582.0,700312752.0,1235466000.0,4934466000.0
sh603161,科华控股,2018-01-15,34.4,34.74,33.29,33.34,36.99,12597725.0,423774914.0,1113556000.0,4447556000.0
sh603161,科华控股,2018-01-16,32.81,34.0,31.9,33.68,33.34,8931316.0,298160918.0,1124912000.0,4492912000.0
sh603161,科华控股,2018-01-17,33.05,33.96,32.49,32.74,33.68,7400088.0,244051912.0,1093516000.0,4367516000.0
sh603161,科华控股,2018-01-18,32.0,32.47,31.17,31.41,32.74,7090068.0,224695821.0,1049094000.0,4190094000.0
sh603161,科华控股,2018-01-19,31.3,33.65,31.17,32.49,31.41,8592045.0,278290445.0,1085166000.0,4334166000.0
sh603161,科华控股,2018-01-22,31.5,31.79,30.68,30.75,32.49,5862018.0,181886067.0,1027050000.0,4102050000.0
sh603161,科华控股,2018-01-23,30.6,31.45,30.4,31.03,30.75,4232544.0,131162926.0,1036402000.0,4139402000.0
sh603161,科华控股,2018-01-24,31.2,31.97,31.04,31.07,31.03,5016443.0,157570249.0,1037738000.0,4144738000.0
sh603161,科华控股,2018-01-25,30.79,31.79,30.57,31.59,31.07,5898060.0,184618144.0,1055106000.0,4214106000.0
sh603161,科华控股,2018-01-26,31.4,32.48,31.2,31.3,31.59,5609746.0,178341574.0,1045420000.0,4175420000.0
sh603161,科华控股,2018-01-29,30.8,32.37,30.48,31.94,31.3,6707779.0,210954620.0,1066796000.0,4260796000.0
sh603161,科华控股,2018-01-30,31.71,32.35,31.5,32.04,31.94,4967377.0,158414308.0,1070136000.0,4274136000.0
sh603161,科华控股,2018-01-31,31.66,31.92,29.15,29.2,32.04,5686857.0,172734721.0,975280000.0,3895280000.0
sh603161,科华控股,2018-02-01,28.98,29.66,27.66,28.12,29.2,4274825.0,122292966.0,939208000.0,3751208000.0
sh603161,科华控股,2018-02-02,28.16,28.67,27.31,28.15,28.12,3305491.0,93216242.0,940210000.0,3755210000.0
sh603161,科华控股,2018-02-05,27.25,27.7,26.6,26.82,28.15,3503920.0,95239214.0,895788000.0,3577788000.0
sh603161,科华控股,2018-02-06,26.27,26.27,24.17,24.46,26.82,3944861.0,100124211.0,816964000.0,3262964000.0
sh603161,科华控股,2018-02-07,25.2,25.38,23.61,25.06,24.46,3678683.0,91447277.0,837004000.0,3343004000.0
sh603161,科华控股,2018-02-08,24.8,25.78,24.52,25.58,25.06,3031837.0,76918201.0,854372000.0,3412372000.0
sh603161,科华控股,2018-02-09,24.85,25.55,24.25,24.62,25.58,2757191.0,68351421.0,822308000.0,3284308000.0
sh603161,科华控股,2018-02-12,24.99,26.0,24.85,25.36,24.62,2686129.0,68182133.0,847024000.0,3383024000.0
sh603161,科华控股,2018-02-13,25.28,25.44,24.57,24.6,25.36,2298073.0,57380088.0,821640000.0,3281640000.0
sh603161,科华控股,2018-02-14,24.6,24.92,24.1,24.28,24.6,1518787.0,36980867.0,810952000.0,3238952000.0
sh603161,科华控股,2018-02-22,24.5,24.75,24.41,24.6,24.28,1463558.0,35948498.0,821640000.0,3281640000.0
sh603161,科华控股,2018-02-23,24.61,25.32,24.43,25.15,24.6,2347174.0,58464709.0,840010000.0,3355010000.0
sh603161,科华控股,2018-02-26,25.6,26.18,25.41,25.88,25.15,3414247.0,88045114.0,864392000.0,3452392000.0
sh603161,科华控股,2018-02-27,25.68,26.15,25.52,25.96,25.88,3110519.0,80371134.0,867064000.0,3463064000.0
sh603161,科华控股,2018-02-28,25.79,25.79,24.89,24.98,25.96,3019322.0,76179696.0,834332000.0,3332332000.0
sh603161,科华控股,2018-03-01,24.78,25.27,24.63,25.21,24.98,2131752.0,53423013.0,842014000.0,3363014000.0
sh603161,科华控股,2018-03-02,24.93,25.45,24.81,24.94,25.21,2158937.0,54226800.0,832996000.0,3326996000.0
sh603161,科华控股,2018-03-05,24.67,25.46,24.67,25.43,24.94,2157258.0,54399188.0,849362000.0,3392362000.0
sh603161,科华控股,2018-03-06,25.51,25.7,25.29,25.67,25.43,2744800.0,70086294.0,857378000.0,3424378000.0
sh603161,科华控股,2018-03-07,25.76,26.23,25.68,25.9,25.67,3953365.0,102724397.0,865060000.0,3455060000.0
sh603161,科华控股,2018-03-08,25.82,26.48,25.8,26.25,25.9,3486226.0,91399370.0,876750000.0,3501750000.0
sh603161,科华控股,2018-03-09,26.4,26.4,25.82,26.34,26.25,3882076.0,101452025.0,879756000.0,3513756000.0
sh603161,科华控股,2018-03-12,26.6,27.99,26.31,27.03,26.34,4913942.0,133358668.0,902802000.0,3605802000.0
sh603161,科华控股,2018-03-13,26.99,27.36,26.15,26.16,27.03,3638528.0,97026279.0,873744000.0,3489744000.0
sh603161,科华控股,2018-03-14,26.09,27.09,25.9,26.86,26.16,4292872.0,114577335.0,897124000.0,3583124000.0
sh603161,科华控股,2018-03-15,26.39,26.39,25.05,25.41,26.86,3773897.0,96875989.0,848694000.0,3389694000.0
sh603161,科华控股,2018-03-16,25.49,25.94,25.15,25.6,25.41,2009870.0,51612520.0,855040000.0,3415040000.0
sh603161,科华控股,2018-03-19,25.51,27.58,25.47,27.27,25.6,5753117.0,154349363.0,910818000.0,3637818000.0
sh603161,科华控股,2018-03-20,26.74,27.4,26.51,27.35,27.27,4610448.0,124225333.0,913490000.0,3648490000.0
sh603161,科华控股,2018-03-21,27.38,27.48,26.21,26.26,27.35,4280933.0,115154882.0,877084000.0,3503084000.0
sh603161,科华控股,2018-03-22,26.21,27.02,26.21,26.48,26.26,3094857.0,82444309.0,884432000.0,3532432000.0
sh603161,科华控股,2018-03-23,24.6,25.89,23.83,23.83,26.48,4543670.0,111661154.0,795922000.0,3178922000.0
sh603161,科华控股,2018-03-26,23.5,23.85,21.6,23.8,23.83,3185059.0,73091072.0,794920000.0,3174920000.0
sh603161,科华控股,2018-03-27,24.04,24.8,24.04,24.24,23.8,2696874.0,65588001.0,809616000.0,3233616000.0
sh603161,科华控股,2018-03-28,23.97,24.27,23.5,23.9,24.24,2347057.0,56032096.0,798260000.0,3188260000.0
sh603161,科华控股,2018-03-29,24.02,24.66,23.97,24.49,23.9,2439135.0,59304182.0,817966000.0,3266966000.0
sh603161,科华控股,2018-03-30,24.62,25.48,24.56,24.78,24.49,2630457.0,65909789.0,827652000.0,3305652000.0
sh603161,科华控股,2018-04-02,24.69,25.22,24.58,24.83,24.78,2237583.0,55607620.0,829322000.0,3312322000.0
sh603161,科华控股,2018-04-03,24.25,24.48,23.9,24.43,24.83,1973813.0,47809943.0,815962000.0,3258962000.0
sh603161,科华控股,2018-04-04,24.65,26.87,24.64,26.87,24.43,6240819.0,161318291.0,897458000.0,3584458000.0
sh603161,科华控股,2018-04-09,28.25,29.56,27.87,29.56,26.87,11318646.0,325937925.0,987304000.0,3943304000.0
sh603161,科华控股,2018-04-10,30.88,31.2,28.21,28.5,29.56,12380711.0,365941449.0,951900000.0,3801900000.0
sh603161,科华控股,2018-04-11,27.82,29.19,27.82,28.1,28.5,8565773.0,243837967.0,938540000.0,3748540000.0
sh603161,科华控股,2018-04-12,27.6,28.4,27.02,27.34,28.1,6020402.0,166367804.0,913156000.0,3647156000.0
sh603161,科华控股,2018-04-13,27.3,27.99,27.15,27.75,27.34,4498428.0,124259285.0,926850000.0,3701850000.0
sh603161,科华控股,2018-04-16,27.4,27.68,26.36,26.63,27.75,3791855.0,102527681.0,889442000.0,3552442000.0
sh603161,科华控股,2018-04-17,26.61,27.22,26.29,27.17,26.63,3508315.0,93632788.0,907478000.0,3624478000.0
sh603161,科华控股,2018-04-18,27.0,27.08,24.46,26.19,27.17,4126304.0,107202488.0,874746000.0,3493746000.0
sh603161,科华控股,2018-04-19,25.3,26.32,25.3,25.51,26.19,2869055.0,74006942.0,852034000.0,3403034000.0
sh603161,科华控股,2018-04-20,25.21,25.48,23.9,23.98,25.51,3308652.0,81658037.0,800932000.0,3198932000.0
sh603161,科华控股,2018-04-23,24.0,24.69,23.72,24.54,23.98,1941854.0,46977938.0,819636000.0,3273636000.0
sh603161,科华控股,2018-04-24,24.4,25.29,24.3,25.17,24.54,2873018.0,71767640.0,840678000.0,3357678000.0
sh603161,科华控股,2018-04-25,24.95,25.5,24.81,24.97,25.17,1908795.0,47869531.0,833998000.0,3330998000.0
sh603161,科华控股,2018-04-26,24.97,25.27,23.92,24.11,24.97,1997950.0,49123455.0,805274000.0,3216274000.0
sh603161,科华控股,2018-04-27,24.28,24.45,23.77,24.04,24.11,1561017.0,37547929.0,802936000.0,3206936000.0
sh603161,科华控股,2018-05-02,24.15,24.19,23.0,23.37,24.04,1515145.0,35617764.0,780558000.0,3117558000.0
sh603161,科华控股,2018-05-03,23.11,24.23,23.11,24.19,23.37,1643537.0,39030977.0,807946000.0,3226946000.0
sh603161,科华控股,2018-05-04,24.06,24.11,23.54,23.72,24.19,1261970.0,30106287.0,792248000.0,3164248000.0
sh603161,科华控股,2018-05-07,23.99,24.6,23.82,24.55,23.72,1806001.0,43862560.0,819970000.0,3274970000.0
sh603161,科华控股,2018-05-08,24.81,24.86,24.37,24.64,24.55,1992223.0,48898805.0,822976000.0,3286976000.0
sh603161,科华控股,2018-05-09,24.67,25.28,24.33,25.14,24.64,2833668.0,70448205.0,839676000.0,3353676000.0
sh603161,科华控股,2018-05-10,25.0,25.28,24.89,25.15,25.14,1927382.0,48309335.0,840010000.0,3355010000.0
sh603161,科华控股,2018-05-11,25.18,25.21,24.25,24.28,25.15,1924249.0,47362518.0,810952000.0,3238952000.0
sh603161,科华控股,2018-05-14,24.38,24.56,23.75,24.04,24.28,1386768.0,33519516.0,802936000.0,3206936000.0
sh603161,科华控股,2018-05-15,24.2,24.88,24.0,24.86,24.04,2045267.0,50120870.0,830324000.0,3316324000.0
sh603161,科华控股,2018-05-16,24.78,24.85,24.34,24.42,24.86,1698240.0,41723691.0,815628000.0,3257628000.0
sh603161,科华控股,2018-05-17,24.48,25.36,24.43,25.27,24.42,3514229.0,87707966.0,844018000.0,3371018000.0
sh603161,科华控股,2018-05-18,25.18,25.36,24.7,25.21,25.27,2670665.0,66910592.0,842014000.0,3363014000.0
sh603161,科华控股,2018-05-21,25.33,26.3,25.33,26.13,25.21,4295889.0,111120957.0,872742000.0,3485742000.0
sh603161,科华控股,2018-05-22,26.0,26.44,25.75,26.3,26.13,3719982.0,97356716.0,878420000.0,3508420000.0
sh603161,科华控股,2018-05-23,26.38,27.24,25.98,26.0,26.3,5256992.0,139554280.0,868400000.0,3468400000.0
sh603161,科华控股,2018-05-24,25.65,26.02,25.46,25.98,26.0,2524889.0,65050144.0,867732000.0,3465732000.0
sh603161,科华控股,2018-05-25,25.89,28.58,25.76,28.58,25.98,5700116.0,158250851.0,954572000.0,3812572000.0
sh603161,科华控股,2018-05-28,29.56,30.5,27.81,27.86,28.58,14754571.0,434490076.0,930524000.0,3716524000.0
sh603161,科华控股,2018-05-29,26.9,26.9,25.81,26.54,27.86,7445479.0,196805006.0,886436000.0,3540436000.0
sh603161,科华控股,2018-05-30,25.16,25.4,23.89,23.89,26.54,5792426.0,142898166.0,797926000.0,3186926000.0
sh603161,科华控股,2018-05-31,24.12,24.82,24.12,24.55,23.89,3724272.0,91326556.0,819970000.0,3274970000.0
sh603161,科华控股,2018-06-01,24.13,25.4,24.13,24.94,24.55,3949227.0,98193240.0,832996000.0,3326996000.0
sh603161,科华控股,2018-06-04,24.59,25.43,24.59,25.06,24.94,2679307.0,67322476.0,837004000.0,3343004000.0
sh603161,科华控股,2018-06-05,24.97,25.89,24.89,25.73,25.06,3263021.0,82604820.0,859382000.0,3432382000.0
sh603161,科华控股,2018-06-06,25.66,26.8,25.53,26.4,25.73,5029086.0,131985372.0,881760000.0,3521760000.0
sh603161,科华控股,2018-06-07,26.6,26.69,25.66,26.15,26.4,3248190.0,84571623.0,873410000.0,3488410000.0
sh603161,科华控股,2018-06-08,25.93,26.4,25.5,26.3,26.15,3243589.0,84634078.0,878420000.0,3508420000.0
sh603161,科华控股,2018-06-11,26.1,26.29,25.7,25.92,26.3,2341837.0,60810899.0,865728000.0,3457728000.0
sh603161,科华控股,2018-06-12,25.89,26.1,24.0,25.31,25.92,2896233.0,72838518.0,845354000.0,3376354000.0
sh603161,科华控股,2018-06-13,25.06,25.26,24.35,24.54,25.31,2038891.0,50626071.0,819636000.0,3273636000.0
sh603161,科华控股,2018-06-14,24.53,25.26,23.8,24.87,24.54,2163723.0,53899748.0,830658000.0,3317658000.0
sh603161,科华控股,2018-06-15,24.95,25.11,23.52,23.93,24.87,2212181.0,53488722.0,799262000.0,3192262000.0
sh603161,科华控股,2018-06-19,23.7,23.7,21.54,21.54,23.93,2657100.0,59261347.0,719436000.0,2873436000.0
sh603161,科华控股,2018-06-20,21.63,22.54,21.46,22.32,21.54,1878036.0,41308082.0,745488000.0,2977488000.0
sh603161,XD科华控,2018-06-21,22.11,22.2,20.27,20.61,22.08,2092765.0,44303274.0,688374000.0,2749374000.0
sh603161,科华控股,2018-06-22,20.5,21.2,20.18,20.86,20.61,1424458.0,29662937.0,696724000.0,2782724000.0
sh603161,科华控股,2018-06-25,21.0,21.32,20.81,20.88,20.86,1268339.0,26744489.0,697392000.0,2785392000.0
sh603161,科华控股,2018-06-26,20.52,21.51,20.19,21.4,20.88,1449996.0,30599341.0,714760000.0,2854760000.0
sh603161,科华控股,2018-06-27,21.49,21.88,21.22,21.46,21.4,1592155.0,34243881.0,716764000.0,2862764000.0
sh603161,科华控股,2018-06-28,21.46,21.67,21.01,21.04,21.46,1209597.0,25830042.0,702736000.0,2806736000.0
sh603161,科华控股,2018-06-29,21.04,21.8,20.92,21.69,21.04,1711553.0,36821333.0,724446000.0,2893446000.0
sh603161,科华控股,2018-07-02,21.81,21.98,21.01,21.35,21.69,1779974.0,38387769.0,713090000.0,2848090000.0
sh603161,科华控股,2018-07-03,21.39,21.91,21.13,21.89,21.35,1711843.0,36870744.0,731126000.0,2920126000.0
sh603161,科华控股,2018-07-04,21.85,21.85,20.58,20.98,21.89,2007139.0,42488064.0,700732000.0,2798732000.0
sh603161,科华控股,2018-07-05,21.09,21.2,20.3,20.38,20.98,1169151.0,24376466.0,680692000.0,2718692000.0
sh603161,科华控股,2018-07-06,20.48,21.1,20.0,20.51,20.38,1442455.0,29753812.0,685034000.0,2736034000.0
sh603161,科华控股,2018-07-09,20.68,21.25,20.68,21.21,20.51,1437297.0,30211842.0,708414000.0,2829414000.0
sh603161,科华控股,2018-07-10,21.25,21.6,21.06,21.56,21.21,1646958.0,35235311.0,720104000.0,2876104000.0
sh603161,科华控股,2018-07-11,21.18,21.45,20.48,21.24,21.56,1882165.0,39510431.0,709416000.0,2833416000.0
sh603161,科华控股,2018-07-12,21.03,23.36,21.03,22.65,21.24,5745504.0,130392092.0,756510000.0,3021510000.0
sh603161,科华控股,2018-07-13,22.43,22.59,21.84,21.89,22.65,3149121.0,69789230.0,731126000.0,2920126000.0
sh603161,科华控股,2018-07-16,21.9,22.1,21.47,21.78,21.89,2082643.0,45255424.0,727452000.0,2905452000.0
sh603161,科华控股,2018-07-17,21.75,22.1,21.5,22.09,21.78,2028238.0,44297690.0,737806000.0,2946806000.0
sh603161,科华控股,2018-07-18,22.15,22.25,21.61,21.72,22.09,1567830.0,34341490.0,725448000.0,2897448000.0
sh603161,科华控股,2018-07-19,21.75,21.94,20.9,21.05,21.72,1624771.0,34581120.0,703070000.0,2808070000.0
sh603161,科华控股,2018-07-20,20.76,21.44,20.76,21.36,21.05,1191853.0,25332523.0,713424000.0,2849424000.0
sh603161,科华控股,2018-07-23,21.22,21.53,21.0,21.46,21.36,1064798.0,22704029.0,716764000.0,2862764000.0
sh603161,科华控股,2018-07-24,21.47,21.92,21.31,21.87,21.46,1713143.0,37197629.0,730458000.0,2917458000.0
sh603161,科华控股,2018-07-25,21.9,21.97,21.61,21.72,21.87,1330843.0,28975103.0,725448000.0,2897448000.0
sh603161,科华控股,2018-07-26,21.65,21.9,21.52,21.86,21.72,1762174.0,38287515.0,730124000.0,2916124000.0
sh603161,科华控股,2018-07-27,21.93,22.32,21.66,21.7,21.86,2024777.0,44541139.0,724780000.0,2894780000.0
sh603161,科华控股,2018-07-30,21.6,21.72,20.77,20.99,21.7,1629796.0,34309836.0,701066000.0,2800066000.0
sh603161,科华控股,2018-07-31,21.09,21.2,20.82,21.13,20.99,709417.0,14935554.0,705742000.0,2818742000.0
sh603161,科华控股,2018-08-01,21.19,21.35,20.53,20.55,21.13,925958.0,19323066.0,686370000.0,2741370000.0
sh603161,科华控股,2018-08-02,20.35,20.59,18.85,19.27,20.55,1651300.0,32219948.0,643618000.0,2570618000.0
sh603161,科华控股,2018-08-03,19.41,19.41,18.72,18.78,19.27,870439.0,16568142.0,627252000.0,2505252000.0
sh603161,科华控股,2018-08-06,18.8,19.0,18.14,18.23,18.78,826058.0,15272406.0,608882000.0,2431882000.0
sh603161,科华控股,2018-08-07,18.3,18.79,18.2,18.74,18.23,817757.0,15155365.0,625916000.0,2499916000.0
sh603161,科华控股,2018-08-08,18.76,18.76,18.21,18.27,18.74,885328.0,16337412.0,610218000.0,2437218000.0
sh603161,科华控股,2018-08-09,18.39,18.85,18.11,18.7,18.27,1011390.0,18880833.0,624580000.0,2494580000.0
sh603161,科华控股,2018-08-10,18.7,19.06,18.53,19.05,18.7,976964.0,18398128.0,636270000.0,2541270000.0
sh603161,科华控股,2018-08-13,18.75,19.25,18.55,19.1,19.05,904832.0,17107670.0,637940000.0,2547940000.0
sh603161,科华控股,2018-08-14,18.98,19.35,18.91,19.21,19.1,763100.0,14641726.0,641614000.0,2562614000.0
sh603161,科华控股,2018-08-15,19.19,19.3,18.63,18.75,19.21,722800.0,13644711.0,626250000.0,2501250000.0
sh603161,科华控股,2018-08-16,18.5,18.7,18.18,18.29,18.75,631900.0,11650553.0,610886000.0,2439886000.0
sh603161,科华控股,2018-08-17,18.56,18.65,18.21,18.34,18.29,780228.0,14370425.0,612556000.0,2446556000.0
sh603161,科华控股,2018-08-20,18.37,18.5,17.62,18.45,18.34,949639.0,17200977.0,616230000.0,2461230000.0
sh603161,科华控股,2018-08-21,18.27,18.65,18.06,18.6,18.45,818755.0,15091378.0,621240000.0,2481240000.0
sh603161,科华控股,2018-08-22,18.5,18.5,18.08,18.12,18.6,613700.0,11213183.0,605208000.0,2417208000.0
sh603161,科华控股,2018-08-23,18.2,18.43,18.03,18.22,18.12,551497.0,10072056.0,608548000.0,2430548000.0
sh603161,科华控股,2018-08-24,18.22,18.34,17.88,18.06,18.22,554137.0,10070154.0,603204000.0,2409204000.0
sh603161,科华控股,2018-08-27,18.07,18.53,18.07,18.51,18.06,800097.0,14686293.0,618234000.0,2469234000.0
sh603161,科华控股,2018-08-28,18.64,18.72,18.35,18.58,18.51,641058.0,11840078.0,620572000.0,2478572000.0
sh603161,科华控股,2018-08-29,18.33,18.45,18.02,18.11,18.58,774655.0,14074022.0,604874000.0,2415874000.0
sh603161,科华控股,2018-08-30,18.22,18.25,17.62,17.62,18.11,637797.0,11436183.0,588508000.0,2350508000.0
sh603161,科华控股,2018-08-31,17.63,17.76,17.28,17.33,17.62,686697.0,12000804.0,578822000.0,2311822000.0
sh603161,科华控股,2018-09-03,17.35,17.35,16.7,17.0,17.33,722100.0,12265059.0,567800000.0,2267800000.0
sh603161,科华控股,2018-09-04,17.06,17.35,16.93,17.14,17.0,682158.0,11684854.0,572476000.0,2286476000.0
sh603161,科华控股,2018-09-05,17.03,17.2,16.78,16.79,17.14,844137.0,14349737.0,560786000.0,2239786000.0
sh603161,科华控股,2018-09-06,16.84,17.06,16.65,16.9,16.79,582158.0,9833407.0,564460000.0,2254460000.0
sh603161,科华控股,2018-09-07,16.9,17.19,16.8,16.92,16.9,660000.0,11207087.0,565128000.0,2257128000.0
sh603161,科华控股,2018-09-10,16.92,17.08,16.62,16.68,16.92,629339.0,10571347.0,557112000.0,2225112000.0
sh603161,科华控股,2018-09-11,16.61,17.13,16.61,16.91,16.68,610078.0,10292698.0,564794000.0,2255794000.0
sh603161,科华控股,2018-09-12,17.19,17.19,16.76,17.09,16.91,614975.0,10501789.0,570806000.0,2279806000.0
sh603161,科华控股,2018-09-13,17.4,17.4,16.92,17.17,17.09,541439.0,9268558.0,573478000.0,2290478000.0
sh603161,科华控股,2018-09-14,17.17,17.37,17.0,17.02,17.17,694278.0,11908706.0,568468000.0,2270468000.0
sh603161,科华控股,2018-09-17,17.02,17.02,16.5,16.58,17.02,543370.0,9061975.0,553772000.0,2211772000.0
sh603161,科华控股,2018-09-18,16.53,16.88,16.38,16.82,16.58,497044.0,8310450.0,561788000.0,2243788000.0
sh603161,科华控股,2018-09-19,16.96,17.14,16.75,17.06,16.82,753246.0,12784486.0,569804000.0,2275804000.0
sh603161,科华控股,2018-09-20,17.0,17.2,16.88,17.12,17.06,742500.0,12687500.0,571808000.0,2283808000.0
sh603161,科华控股,2018-09-21,17.84,18.3,17.51,17.55,17.12,3364216.0,60146181.0,586170000.0,2341170000.0
sh603161,科华控股,2018-09-25,17.12,17.8,16.98,17.64,17.55,1576260.0,27499874.0,589176000.0,2353176000.0
sh603161,科华控股,2018-09-26,17.65,17.78,17.41,17.48,17.64,1218974.0,21404077.0,583832000.0,2331832000.0
sh603161,科华控股,2018-09-27,17.48,17.58,16.81,16.81,17.48,1187824.0,20336346.0,561454000.0,2242454000.0
sh603161,科华控股,2018-09-28,16.71,17.15,16.71,17.05,16.81,767574.0,13042059.0,569470000.0,2274470000.0
sh603161,科华控股,2018-10-08,16.79,16.8,16.19,16.34,17.05,719839.0,11929589.0,545756000.0,2179756000.0
sh603161,科华控股,2018-10-09,16.25,16.63,16.25,16.55,16.34,554294.0,9145440.0,552770000.0,2207770000.0
sh603161,科华控股,2018-10-10,16.61,17.1,16.56,17.0,16.55,959858.0,16260247.0,567800000.0,2267800000.0
sh603161,科华控股,2018-10-11,16.35,16.67,15.4,15.61,17.0,1440007.0,23127306.0,521374000.0,2082374000.0
sh603161,科华控股,2018-10-12,15.46,15.84,14.52,15.54,15.61,1131168.0,17342660.0,519036000.0,2073036000.0
sh603161,科华控股,2018-10-15,15.58,15.89,15.49,15.52,15.54,607197.0,9520557.0,518368000.0,2070368000.0
sh603161,科华控股,2018-10-16,15.62,15.74,14.82,14.95,15.52,705900.0,10789418.0,499330000.0,1994330000.0
sh603161,科华控股,2018-10-17,15.15,15.3,14.8,15.28,14.95,758200.0,11485008.0,510352000.0,2038352000.0
sh603161,科华控股,2018-10-18,15.16,15.91,14.75,15.5,15.28,1567010.0,24292664.0,517700000.0,2067700000.0
sh603161,科华控股,2018-10-19,14.96,15.85,14.52,15.6,15.5,1516672.0,23259252.0,521040000.0,2081040000.0
sh603161,科华控股,2018-10-22,15.79,16.37,15.6,16.21,15.6,1988947.0,31910693.0,541414000.0,2162414000.0
sh603161,科华控股,2018-10-23,16.33,17.0,15.95,16.27,16.21,2933314.0,48363110.0,543418000.0,2170418000.0
sh603161,科华控股,2018-10-24,16.12,16.3,15.8,15.91,16.27,1389539.0,22233874.0,531394000.0,2122394000.0
sh603161,科华控股,2018-10-25,15.39,15.65,15.01,15.6,15.91,863733.0,13278166.0,521040000.0,2081040000.0
sh603161,科华控股,2018-10-26,15.96,16.1,15.71,15.87,15.6,907471.0,14434397.0,530058000.0,2117058000.0
sh603161,科华控股,2018-10-29,15.78,15.85,15.4,15.44,15.87,695570.0,10815128.0,515696000.0,2059696000.0
sh603161,科华控股,2018-10-30,15.54,16.3,15.47,16.09,15.44,1713147.0,27431211.0,537406000.0,2146406000.0
sh603161,科华控股,2018-10-31,16.09,17.7,16.02,16.74,16.09,4051502.0,69370256.0,559116000.0,2233116000.0
sh603161,科华控股,2018-11-01,16.27,16.77,16.27,16.49,16.74,2891292.0,47756321.0,550766000.0,2199766000.0
sh603161,科华控股,2018-11-02,16.68,16.8,16.35,16.76,16.49,2378870.0,39493846.0,559784000.0,2235784000.0
sh603161,科华控股,2018-11-05,16.9,17.38,16.57,16.75,16.76,2398221.0,40525238.0,559450000.0,2234450000.0
sh603161,科华控股,2018-11-06,16.6,16.6,15.68,16.06,16.75,2314588.0,37144437.0,536404000.0,2142404000.0
sh603161,科华控股,2018-11-07,16.13,16.28,16.04,16.06,16.06,1377500.0,22255730.0,536404000.0,2142404000.0
sh603161,科华控股,2018-11-08,16.1,16.25,15.9,15.92,16.06,1213300.0,19524705.0,531728000.0,2123728000.0
sh603161,科华控股,2018-11-09,15.96,16.35,15.72,16.26,15.92,1176817.0,18916677.0,543084000.0,2169084000.0
sh603161,科华控股,2018-11-12,16.11,16.96,16.11,16.85,16.26,2430541.0,40443497.0,562790000.0,2247790000.0
sh603161,科华控股,2018-11-13,16.58,17.65,16.51,17.37,16.85,3122554.0,53402519.0,580158000.0,2317158000.0
sh603161,科华控股,2018-11-14,17.12,17.7,17.0,17.37,17.37,2899767.0,50051878.0,580158000.0,2317158000.0
sh603161,科华控股,2018-11-15,17.3,18.38,17.17,18.12,17.37,5337341.0,95481868.0,605208000.0,2417208000.0
sh603161,科华控股,2018-11-16,18.0,18.01,17.73,17.79,18.12,3242998.0,57836133.0,594186000.0,2373186000.0
sh603161,科华控股,2018-11-19,17.64,17.66,17.31,17.55,17.79,1890964.0,33044997.0,586170000.0,2341170000.0
sh603161,科华控股,2018-11-20,17.4,17.52,17.1,17.22,17.55,1529525.0,26517915.0,575148000.0,2297148000.0
sh603161,科华控股,2018-11-21,17.05,17.57,16.92,17.53,17.22,1506882.0,26130556.0,585502000.0,2338502000.0
sh603161,科华控股,2018-11-22,17.5,17.64,17.32,17.52,17.53,1541082.0,27005578.0,585168000.0,2337168000.0
sh603161,科华控股,2018-11-23,17.53,17.53,16.3,16.3,17.52,1826028.0,30670025.0,544420000.0,2174420000.0
sh603161,科华控股,2018-11-26,16.31,16.39,15.87,15.87,16.3,1070960.0,17253856.0,530058000.0,2117058000.0
sh603161,科华控股,2018-11-27,16.1,16.33,16.05,16.18,15.87,951200.0,15374403.0,540412000.0,2158412000.0
sh603161,科华控股,2018-11-28,16.24,16.97,16.24,16.89,16.18,2023250.0,33832491.0,564126000.0,2253126000.0
sh603161,科华控股,2018-11-29,16.88,16.99,16.05,16.06,16.89,1831100.0,30332555.0,536404000.0,2142404000.0
sh603161,科华控股,2018-11-30,16.08,16.41,15.53,15.97,16.06,1135958.0,18144103.0,533398000.0,2130398000.0
sh603161,科华控股,2018-12-03,16.31,16.73,16.2,16.5,15.97,1277116.0,21016905.0,551100000.0,2201100000.0
sh603161,科华控股,2018-12-04,16.57,17.06,16.49,16.88,16.5,1755339.0,29577644.0,563792000.0,2251792000.0
sh603161,科华控股,2018-12-05,16.38,16.78,16.24,16.59,16.88,1123500.0,18603360.0,554106000.0,2213106000.0
sh603161,科华控股,2018-12-06,16.61,16.77,16.4,16.4,16.59,767658.0,12742622.0,547760000.0,2187760000.0
sh603161,科华控股,2018-12-07,16.4,16.6,16.37,16.45,16.4,574000.0,9457799.0,549430000.0,2194430000.0
sh603161,科华控股,2018-12-10,16.35,16.51,15.87,15.93,16.45,745739.0,12006935.0,532062000.0,2125062000.0
sh603161,科华控股,2018-12-11,15.93,16.2,15.92,16.07,15.93,526900.0,8457336.0,536738000.0,2143738000.0
sh603161,科华控股,2018-12-12,16.17,16.98,15.98,16.52,16.07,1619100.0,26731458.0,551768000.0,2203768000.0
sh603161,科华控股,2018-12-13,16.49,16.74,16.27,16.68,16.52,1352858.0,22363146.0,557112000.0,2225112000.0
sh603161,科华控股,2018-12-14,16.43,16.65,16.0,16.04,16.68,1105178.0,17982815.0,535736000.0,2139736000.0
sh603161,科华控股,2018-12-17,16.0,16.2,15.9,16.15,16.04,633200.0,10169189.0,539410000.0,2154410000.0
sh603161,科华控股,2018-12-18,16.07,16.2,15.82,15.95,16.15,562000.0,8981149.0,532730000.0,2127730000.0
sh603161,科华控股,2018-12-19,16.0,16.03,15.45,15.48,15.95,897449.0,14050324.0,517032000.0,2065032000.0
sh603161,科华控股,2018-12-20,15.6,15.69,15.41,15.57,15.48,741700.0,11547548.0,520038000.0,2077038000.0
sh603161,科华控股,2018-12-21,15.59,15.8,15.55,15.74,15.57,788200.0,12363507.0,525716000.0,2099716000.0
sh603161,科华控股,2018-12-24,15.65,16.31,15.65,16.27,15.74,1201571.0,19403062.0,543418000.0,2170418000.0
sh603161,科华控股,2018-12-25,16.22,16.47,15.66,16.4,16.27,1637749.0,26360837.0,547760000.0,2187760000.0
sh603161,科华控股,2018-12-26,16.33,16.54,16.14,16.17,16.4,1367188.0,22361612.0,540078000.0,2157078000.0
sh603161,科华控股,2018-12-27,16.34,16.45,15.5,15.65,16.17,1142971.0,18486721.0,522710000.0,2087710000.0
sh603161,科华控股,2018-12-28,15.65,15.94,15.6,15.67,15.65,700991.0,11057345.0,523378000.0,2090378000.0
sh603161,科华控股,2019-01-02,15.72,15.72,15.12,15.32,15.67,812158.0,12531144.0,511688000.0,2043688000.0
sh603161,科华控股,2019-01-03,15.33,15.39,15.1,15.11,15.32,682339.0,10375630.0,504674000.0,2015674000.0
sh603161,科华控股,2019-01-04,15.0,15.26,14.61,15.19,15.11,1233258.0,18415833.0,507346000.0,2026346000.0
sh603161,科华控股,2019-01-07,15.22,15.39,15.07,15.32,15.19,1038600.0,15849932.0,511688000.0,2043688000.0
sh603161,科华控股,2019-01-08,15.45,15.5,15.24,15.28,15.32,825658.0,12686692.0,510352000.0,2038352000.0
sh603161,科华控股,2019-01-09,15.28,15.68,15.28,15.43,15.28,1184755.0,18411120.0,1070842000.0,2058362000.0
sh603161,科华控股,2019-01-10,15.28,15.45,15.12,15.2,15.43,724081.0,11053516.0,1054880000.0,2027680000.0
sh603161,科华控股,2019-01-11,15.25,15.45,15.07,15.43,15.2,796797.0,12151373.0,1070842000.0,2058362000.0
sh603161,科华控股,2019-01-14,15.4,15.45,15.11,15.18,15.43,566717.0,8637545.0,1053492000.0,2025012000.0
sh603161,科华控股,2019-01-15,15.13,15.38,15.07,15.36,15.18,463475.0,7066558.0,1065984000.0,2049024000.0
sh603161,科华控股,2019-01-16,15.35,15.41,15.01,15.14,15.36,1525859.0,23105125.0,1050716000.0,2019676000.0
sh603161,科华控股,2019-01-17,15.14,15.14,14.8,14.86,15.14,1125390.0,16829806.0,1031284000.0,1982324000.0
sh603161,科华控股,2019-01-18,14.94,15.16,14.74,15.03,14.86,907006.0,13559337.0,1043082000.0,2005002000.0
sh603161,科华控股,2019-01-21,15.03,15.13,14.93,15.07,15.03,802059.0,12071123.0,1045858000.0,2010338000.0
sh603161,科华控股,2019-01-22,14.84,14.84,14.51,14.59,15.07,1944807.0,28404400.0,1012546000.0,1946306000.0
sh603161,科华控股,2019-01-23,14.52,14.73,14.52,14.66,14.59,919718.0,13447266.0,1017404000.0,1955644000.0
sh603161,科华控股,2019-01-24,14.65,14.94,14.6,14.73,14.66,932490.0,13802651.0,1022262000.0,1964982000.0
sh603161,科华控股,2019-01-25,14.86,14.86,14.58,14.69,14.73,768400.0,11267446.0,1019486000.0,1959646000.0
sh603161,科华控股,2019-01-28,14.72,14.75,14.35,14.41,14.69,1067289.0,15508223.0,1000054000.0,1922294000.0
sh603161,科华控股,2019-01-29,14.4,14.46,13.52,13.82,14.41,774139.0,10811480.0,959108000.0,1843588000.0
sh603161,科华控股,2019-01-30,13.82,13.88,13.54,13.56,13.82,507058.0,6955365.0,941064000.0,1808904000.0
sh603161,科华控股,2019-01-31,13.48,13.74,12.99,13.06,13.56,745158.0,9916009.0,906364000.0,1742204000.0
sh603161,科华控股,2019-02-01,13.12,13.51,13.11,13.42,13.06,682439.0,9142082.0,931348000.0,1790228000.0
sh603161,科华控股,2019-02-11,13.53,13.76,13.53,13.72,13.42,1008269.0,13780619.0,952168000.0,1830248000.0
sh603161,科华控股,2019-02-12,13.7,13.92,13.68,13.85,13.72,785269.0,10851372.0,961190000.0,1847590000.0
sh603161,科华控股,2019-02-13,13.88,14.23,13.88,14.23,13.85,1003258.0,14151977.0,987562000.0,1898282000.0
sh603161,科华控股,2019-02-14,14.32,14.33,14.09,14.17,14.23,724439.0,10267546.0,983398000.0,1890278000.0
sh603161,科华控股,2019-02-15,14.17,14.25,14.1,14.19,14.17,582258.0,8251390.0,984786000.0,1892946000.0
sh603161,科华控股,2019-02-18,14.24,14.56,14.18,14.55,14.19,1444458.0,20773337.0,1009770000.0,1940970000.0
sh603161,科华控股,2019-02-19,14.5,14.61,14.16,14.32,14.55,1851775.0,26668596.0,993808000.0,1910288000.0
sh603161,科华控股,2019-02-20,14.32,14.48,14.24,14.39,14.32,1400560.0,20111541.0,998666000.0,1919626000.0
sh603161,科华控股,2019-02-21,14.41,14.61,14.33,14.38,14.39,1696232.0,24566291.0,997972000.0,1918292000.0
sh603161,科华控股,2019-02-22,14.35,14.65,14.32,14.61,14.38,1324075.0,19185979.0,1013934000.0,1948974000.0
sh603161,科华控股,2019-02-25,14.61,15.19,14.6,15.19,14.61,2513496.0,37603960.0,1054186000.0,2026346000.0
sh603161,科华控股,2019-02-26,15.2,15.5,14.95,15.22,15.19,2594959.0,39497709.0,1056268000.0,2030348000.0
sh603161,科华控股,2019-02-27,15.19,15.4,15.03,15.18,15.22,2128403.0,32413876.0,1053492000.0,2025012000.0
sh603161,科华控股,2019-02-28,15.19,15.45,15.19,15.43,15.18,1572400.0,24093678.0,1070842000.0,2058362000.0
sh603161,科华控股,2019-03-01,15.43,15.49,15.21,15.35,15.43,1424417.0,21786759.0,1065290000.0,2047690000.0
sh603161,科华控股,2019-03-04,15.36,15.65,15.3,15.42,15.35,1961700.0,30369012.0,1070148000.0,2057028000.0
sh603161,科华控股,2019-03-05,15.4,15.68,15.32,15.67,15.42,1835480.0,28497539.0,1087498000.0,2090378000.0
sh603161,科华控股,2019-03-06,15.83,16.14,15.57,16.06,15.67,2376100.0,37653941.0,1114564000.0,2142404000.0
sh603161,科华控股,2019-03-07,16.06,16.45,15.91,16.32,16.06,2373212.0,38435409.0,1132608000.0,2177088000.0
sh603161,科华控股,2019-03-08,16.07,16.2,15.36,15.37,16.32,2802573.0,44374796.0,1066678000.0,2050358000.0
sh603161,科华控股,2019-03-11,15.37,16.02,15.37,16.02,15.37,1959416.0,30924794.0,1111788000.0,2137068000.0
sh603161,科华控股,2019-03-12,16.28,16.49,16.02,16.22,16.02,2561132.0,41526204.0,1125668000.0,2163748000.0
sh603161,科华控股,2019-03-13,16.1,16.22,15.82,15.88,16.22,1960088.0,31496465.0,1102072000.0,2118392000.0
sh603161,科华控股,2019-03-14,15.8,16.02,15.38,15.48,15.88,1632484.0,25512151.0,1074312000.0,2065032000.0
sh603161,科华控股,2019-03-15,15.68,15.93,15.6,15.93,15.48,1370684.0,21631834.0,1105542000.0,2125062000.0
sh603161,科华控股,2019-03-18,15.81,16.1,15.76,16.06,15.93,1596026.0,25419792.0,1114564000.0,2142404000.0
sh603161,科华控股,2019-03-19,16.03,16.35,16.03,16.35,16.06,2089466.0,33765350.0,1134690000.0,2181090000.0
sh603161,科华控股,2019-03-20,16.35,16.35,15.81,16.16,16.35,1738268.0,27908964.0,1121504000.0,2155744000.0
sh603161,科华控股,2019-03-21,16.16,16.27,16.15,16.19,16.16,1632688.0,26459565.0,1123586000.0,2159746000.0
sh603161,科华控股,2019-03-22,16.3,17.5,16.08,16.98,16.19,3910862.0,65587115.0,1178412000.0,2265132000.0
sh603161,科华控股,2019-03-25,16.5,17.46,16.41,17.09,16.98,4002349.0,68273835.0,1186046000.0,2279806000.0
sh603161,科华控股,2019-03-26,17.01,17.32,16.32,16.44,17.09,2756169.0,46371932.0,1140936000.0,2193096000.0
sh603161,科华控股,2019-03-27,16.53,16.79,16.05,16.78,16.44,1837001.0,30090754.0,1164532000.0,2238452000.0
sh603161,科华控股,2019-03-28,16.79,17.97,16.46,17.6,16.78,4735264.0,82675787.0,1221440000.0,2347840000.0
sh603161,科华控股,2019-03-29,16.95,17.18,16.25,17.11,17.6,5182735.0,86910995.0,1187434000.0,2282474000.0
sh603161,科华控股,2019-04-01,17.1,17.49,16.94,17.45,17.11,3825874.0,66028796.0,1211030000.0,2327830000.0
sh603161,科华控股,2019-04-02,17.4,17.58,17.22,17.32,17.45,2867182.0,49810069.0,1202008000.0,2310488000.0
sh603161,科华控股,2019-04-03,17.32,17.37,17.01,17.28,17.32,2200390.0,37842753.0,1199232000.0,2305152000.0
sh603161,科华控股,2019-04-04,17.35,17.38,17.02,17.13,17.28,2240360.0,38389587.0,1188822000.0,2285142000.0
sh603161,科华控股,2019-04-08,17.2,17.25,16.75,16.86,17.13,2142574.0,36396315.0,1170084000.0,2249124000.0
sh603161,科华控股,2019-04-09,16.86,17.09,16.83,17.08,16.86,1184800.0,20064815.0,1185352000.0,2278472000.0
sh603161,科华控股,2019-04-10,16.96,17.06,16.75,16.97,17.08,1280497.0,21633077.0,1177718000.0,2263798000.0
sh603161,科华控股,2019-04-11,16.95,17.14,16.86,16.92,16.97,1705444.0,28992687.0,1174248000.0,2257128000.0
sh603161,科华控股,2019-04-12,17.01,17.04,16.74,16.88,16.92,1112700.0,18763913.0,1171472000.0,2251792000.0
sh603161,科华控股,2019-04-15,16.91,17.09,16.68,16.68,16.88,1210222.0,20515259.0,1157592000.0,2225112000.0
sh603161,科华控股,2019-04-16,16.67,16.89,16.35,16.8,16.68,1382636.0,23009860.0,1165920000.0,2241120000.0
sh603161,科华控股,2019-04-17,16.85,17.09,16.8,17.05,16.8,2052874.0,34879507.0,1183270000.0,2274470000.0
sh603161,科华控股,2019-04-18,17.07,17.21,16.81,16.81,17.05,1986500.0,33839260.0,1166614000.0,2242454000.0
sh603161,科华控股,2019-04-19,16.81,16.94,16.5,16.69,16.81,1710246.0,28484704.0,1158286000.0,2226446000.0
sh603161,科华控股,2019-04-22,16.7,16.75,16.26,16.26,16.69,1689254.0,27747546.0,1128444000.0,2169084000.0
sh603161,科华控股,2019-04-23,16.3,16.3,15.96,16.01,16.26,1111290.0,17897992.0,1111094000.0,2135734000.0
sh603161,科华控股,2019-04-24,16.02,16.14,15.8,16.12,16.01,1367763.0,21840050.0,1118728000.0,2150408000.0
sh603161,科华控股,2019-04-25,16.1,16.1,15.41,15.49,16.12,1419200.0,22347205.0,1075006000.0,2066366000.0
sh603161,科华控股,2019-04-26,15.62,15.62,15.17,15.19,15.49,843478.0,12934135.0,1054186000.0,2026346000.0
sh603161,科华控股,2019-04-29,15.19,15.3,14.61,14.66,15.19,1009222.0,15024221.0,1017404000.0,1955644000.0
sh603161,科华控股,2019-04-30,14.68,15.0,14.6,14.86,14.66,607177.0,9029403.0,1031284000.0,1982324000.0
sh603161,科华控股,2019-05-06,14.86,14.86,13.52,13.87,14.86,1292993.0,18296858.0,962578000.0,1850258000.0
sh603161,科华控股,2019-05-07,13.92,14.1,13.7,13.95,13.87,751962.0,10500028.0,968130000.0,1860930000.0
sh603161,科华控股,2019-05-08,14.19,14.84,13.84,14.4,13.95,1556400.0,22553974.0,999360000.0,1920960000.0
sh603161,科华控股,2019-05-09,14.12,14.51,14.12,14.4,14.4,730500.0,10503192.0,999360000.0,1920960000.0
sh603161,科华控股,2019-05-10,14.34,14.67,14.23,14.65,14.4,892000.0,12969343.0,1016710000.0,1954310000.0
sh603161,科华控股,2019-05-13,14.45,14.63,14.37,14.42,14.65,664200.0,9592689.0,1000748000.0,1923628000.0
sh603161,科华控股,2019-05-14,14.24,14.42,14.2,14.24,14.42,498000.0,7129701.0,988256000.0,1899616000.0
sh603161,科华控股,2019-05-15,14.36,14.57,14.33,14.55,14.24,715275.0,10329502.0,1009770000.0,1940970000.0
sh603161,科华控股,2019-05-16,14.52,14.77,14.49,14.75,14.55,906200.0,13305497.0,1023650000.0,1967650000.0
sh603161,科华控股,2019-05-17,14.75,14.85,14.14,14.24,14.75,803639.0,11617278.0,988256000.0,1899616000.0
sh603161,科华控股,2019-05-20,14.27,14.31,14.0,14.07,14.24,579600.0,8174542.0,976458000.0,1876938000.0
sh603161,科华控股,2019-05-21,14.1,14.37,14.0,14.37,14.07,841039.0,11988310.0,997278000.0,1916958000.0
sh603161,科华控股,2019-05-22,14.35,14.5,14.33,14.37,14.37,650556.0,9363164.0,997278000.0,1916958000.0
sh603161,XD科华控,2019-05-23,13.91,13.92,13.65,13.69,14.06,585616.0,8068343.0,950086000.0,1826246000.0
sh603161,科华控股,2019-05-24,13.68,13.81,13.61,13.63,13.69,548648.0,7512309.0,945922000.0,1818242000.0
sh603161,科华控股,2019-05-27,13.73,14.0,13.64,13.95,13.63,529900.0,7336148.0,968130000.0,1860930000.0
sh603161,科华控股,2019-05-28,13.9,14.1,13.88,13.96,13.95,647100.0,9070312.0,968824000.0,1862264000.0
sh603161,科华控股,2019-05-29,13.93,14.13,13.85,14.1,13.96,495500.0,6974205.0,978540000.0,1880940000.0
sh603161,科华控股,2019-05-30,14.1,14.12,13.68,14.09,14.1,648125.0,9029616.0,977846000.0,1879606000.0
sh603161,科华控股,2019-05-31,14.04,14.3,14.0,14.23,14.09,664100.0,9423451.0,987562000.0,1898282000.0
sh603161,科华控股,2019-06-03,14.23,14.4,13.83,13.89,14.23,616100.0,8639840.0,963966000.0,1852926000.0
sh603161,科华控股,2019-06-04,13.98,13.98,13.62,13.7,13.89,537000.0,7370835.0,950780000.0,1827580000.0
sh603161,科华控股,2019-06-05,13.78,13.94,13.7,13.74,13.7,401500.0,5550362.0,953556000.0,1832916000.0
sh603161,科华控股,2019-06-06,13.75,13.92,13.45,13.55,13.74,583300.0,7988778.0,940370000.0,1807570000.0
sh603161,科华控股,2019-06-10,13.7,13.76,13.4,13.75,13.55,391200.0,5344698.0,954250000.0,1834250000.0
sh603161,科华控股,2019-06-11,13.82,14.25,13.79,14.22,13.75,1103839.0,15595671.0,986868000.0,1896948000.0
sh603161,科华控股,2019-06-12,14.23,14.29,14.05,14.09,14.22,711200.0,10063506.0,977846000.0,1879606000.0
sh603161,科华控股,2019-06-13,14.13,14.39,14.0,14.39,14.09,891155.0,12670685.0,998666000.0,1919626000.0
sh603161,科华控股,2019-06-14,14.44,14.44,14.09,14.11,14.39,935900.0,13324093.0,979234000.0,1882274000.0
sh603161,科华控股,2019-06-17,14.13,14.39,13.9,14.39,14.11,993000.0,14172225.0,998666000.0,1919626000.0
sh603161,科华控股,2019-06-18,14.29,14.55,14.24,14.44,14.39,986400.0,14211043.0,1002136000.0,1926296000.0
sh603161,科华控股,2019-06-19,14.53,14.86,14.47,14.52,14.44,1241427.0,18173703.0,1007688000.0,1936968000.0
sh603161,科华控股,2019-06-20,14.42,14.76,14.38,14.62,14.52,861564.0,12611888.0,1014628000.0,1950308000.0
sh603161,科华控股,2019-06-21,14.62,14.93,14.6,14.85,14.62,1092863.0,16184220.0,1030590000.0,1980990000.0
sh603161,科华控股,2019-06-24,14.9,15.06,14.7,14.88,14.85,883193.0,13127579.0,1032672000.0,1984992000.0
sh603161,科华控股,2019-06-25,14.74,14.95,14.7,14.75,14.88,971251.0,14370229.0,1023650000.0,1967650000.0
sh603161,科华控股,2019-06-26,14.78,14.88,14.68,14.75,14.75,681549.0,10072189.0,1023650000.0,1967650000.0
sh603161,科华控股,2019-06-27,14.95,14.95,14.66,14.68,14.75,575158.0,8490175.0,1018792000.0,1958312000.0
sh603161,科华控股,2019-06-28,14.77,14.86,14.3,14.58,14.68,840900.0,12214275.0,1011852000.0,1944972000.0
sh603161,科华控股,2019-07-01,14.62,14.88,14.62,14.78,14.58,990030.0,14639128.0,1025732000.0,1971652000.0
sh603161,科华控股,2019-07-02,14.78,14.83,14.58,14.61,14.78,788825.0,11585757.0,1013934000.0,1948974000.0
sh603161,科华控股,2019-07-03,14.69,14.69,14.42,14.46,14.61,657644.0,9537499.0,1003524000.0,1928964000.0
sh603161,科华控股,2019-07-04,14.49,14.68,14.44,14.52,14.46,641758.0,9344428.0,1007688000.0,1936968000.0
sh603161,科华控股,2019-07-05,14.6,14.6,14.42,14.52,14.52,493371.0,7151606.0,1007688000.0,1936968000.0
sh603161,科华控股,2019-07-08,14.52,14.56,14.04,14.1,14.52,892058.0,12634541.0,978540000.0,1880940000.0
sh603161,科华控股,2019-07-09,14.2,14.2,14.0,14.1,14.1,571407.0,8032508.0,978540000.0,1880940000.0
sh603161,科华控股,2019-07-10,14.15,14.15,13.88,13.9,14.1,494500.0,6928434.0,964660000.0,1854260000.0
sh603161,科华控股,2019-07-11,14.01,14.14,13.95,14.07,13.9,563530.0,7916621.0,976458000.0,1876938000.0
sh603161,科华控股,2019-07-12,14.02,14.17,13.96,14.16,14.07,445397.0,6274243.0,982704000.0,1888944000.0
sh603161,科华控股,2019-07-15,14.16,14.2,13.98,14.13,14.16,785998.0,11066404.0,980622000.0,1884942000.0
sh603161,科华控股,2019-07-16,14.13,14.25,14.08,14.21,14.13,618564.0,8764493.0,986174000.0,1895614000.0
sh603161,科华控股,2019-07-17,14.21,14.37,14.19,14.3,14.21,736700.0,10530318.0,992420000.0,1907620000.0
sh603161,科华控股,2019-07-18,14.19,14.26,14.04,14.23,14.3,613670.0,8692796.0,987562000.0,1898282000.0
sh603161,科华控股,2019-07-19,14.26,14.35,14.09,14.15,14.23,636459.0,9064762.0,982010000.0,1887610000.0
sh603161,科华控股,2019-07-22,14.12,14.12,13.73,13.73,14.15,689841.0,9553899.0,952862000.0,1831582000.0
sh603161,科华控股,2019-07-23,13.73,13.97,13.73,13.87,13.73,321014.0,4443498.0,962578000.0,1850258000.0
sh603161,科华控股,2019-07-24,13.97,14.07,13.82,14.02,13.87,438464.0,6138265.0,972988000.0,1870268000.0
sh603161,科华控股,2019-07-25,13.94,14.15,13.94,14.15,14.02,553958.0,7808485.0,982010000.0,1887610000.0
sh603161,科华控股,2019-07-26,14.2,14.58,14.09,14.26,14.15,2848067.0,40880706.0,989644000.0,1902284000.0
sh603161,科华控股,2019-07-29,14.25,14.62,14.2,14.61,14.26,2145735.0,31040490.0,1013934000.0,1948974000.0
sh603161,科华控股,2019-07-30,14.5,15.29,14.5,15.26,14.61,3101865.0,46313757.0,1059044000.0,2035684000.0
sh603161,科华控股,2019-07-31,15.19,16.45,14.95,15.95,15.26,9328376.0,148880447.0,1106930000.0,2127730000.0
sh603161,科华控股,2019-08-01,14.78,15.09,14.5,14.6,15.95,5908976.0,87049757.0,1013240000.0,1947640000.0
sh603161,科华控股,2019-08-02,14.14,14.24,13.87,13.94,14.6,3706466.0,52044088.0,967436000.0,1859596000.0
sh603161,科华控股,2019-08-05,13.82,13.9,13.6,13.69,13.94,1926930.0,26492075.0,950086000.0,1826246000.0
sh603161,科华控股,2019-08-06,13.37,13.39,12.95,13.24,13.69,1865700.0,24676521.0,918856000.0,1766216000.0
sh603161,科华控股,2019-08-07,13.37,13.54,13.25,13.28,13.24,1116839.0,14934685.0,921632000.0,1771552000.0
sh603161,科华控股,2019-08-08,13.33,13.42,13.1,13.13,13.28,1326920.0,17541604.0,911222000.0,1751542000.0
sh603161,科华控股,2019-08-09,13.13,13.25,12.86,12.88,13.13,1093300.0,14268493.0,893872000.0,1718192000.0
sh603161,科华控股,2019-08-12,12.87,13.1,12.82,13.09,12.88,617682.0,8022618.0,908446000.0,1746206000.0
sh603161,科华控股,2019-08-13,13.02,13.11,12.9,12.96,13.09,573100.0,7433713.0,899424000.0,1728864000.0
sh603161,科华控股,2019-08-14,13.11,13.17,12.98,13.01,12.96,738811.0,9649326.0,902894000.0,1735534000.0
sh603161,科华控股,2019-08-15,12.88,12.94,12.58,12.9,13.01,831700.0,10595875.0,895260000.0,1720860000.0
sh603161,科华控股,2019-08-16,12.9,13.02,12.87,12.96,12.9,673491.0,8730698.0,899424000.0,1728864000.0
sh603161,科华控股,2019-08-19,13.01,13.25,12.96,13.25,12.96,1054588.0,13867573.0,919550000.0,1767550000.0
sh603161,科华控股,2019-08-20,13.21,13.35,13.17,13.25,13.25,1073800.0,14267831.0,919550000.0,1767550000.0
sh603161,科华控股,2019-08-21,13.26,13.32,13.17,13.26,13.25,723180.0,9559226.0,920244000.0,1768884000.0
sh603161,科华控股,2019-08-22,13.33,13.33,13.18,13.25,13.26,538400.0,7127479.0,919550000.0,1767550000.0
sh603161,科华控股,2019-08-23,13.28,13.3,13.19,13.2,13.25,574600.0,7607877.0,916080000.0,1760880000.0
sh603161,科华控股,2019-08-26,12.91,13.33,12.91,13.26,13.2,766298.0,10128210.0,920244000.0,1768884000.0
sh603161,科华控股,2019-08-27,13.29,13.52,13.29,13.45,13.26,1202739.0,16157987.0,933430000.0,1794230000.0
sh603161,科华控股,2019-08-28,13.46,13.78,13.46,13.68,13.45,1741798.0,23771701.0,949392000.0,1824912000.0
sh603161,科华控股,2019-08-29,13.73,13.79,13.53,13.56,13.68,1014931.0,13830161.0,941064000.0,1808904000.0
sh603161,科华控股,2019-08-30,13.54,13.69,13.26,13.26,13.56,991300.0,13337436.0,920244000.0,1768884000.0
sh603161,科华控股,2019-09-02,13.3,13.62,13.27,13.57,13.26,946782.0,12812084.0,941758000.0,1810238000.0
sh603161,科华控股,2019-09-03,13.58,13.66,13.44,13.52,13.57,638300.0,8633924.0,938288000.0,1803568000.0
sh603161,科华控股,2019-09-04,13.46,13.56,13.37,13.52,13.52,1101669.0,14837996.0,938288000.0,1803568000.0
sh603161,科华控股,2019-09-05,13.59,13.75,13.51,13.61,13.52,1753200.0,23904318.0,944534000.0,1815574000.0
sh603161,科华控股,2019-09-06,13.61,13.68,13.54,13.65,13.61,1291300.0,17579207.0,947310000.0,1820910000.0
sh603161,科华控股,2019-09-09,13.72,13.9,13.72,13.9,13.65,1685416.0,23286310.0,964660000.0,1854260000.0
sh603161,科华控股,2019-09-10,13.92,13.92,13.77,13.86,13.9,1213423.0,16783805.0,961884000.0,1848924000.0
sh603161,科华控股,2019-09-11,13.85,13.93,13.8,13.81,13.86,941600.0,13049654.0,958414000.0,1842254000.0
sh603161,科华控股,2019-09-12,13.89,13.98,13.79,13.95,13.81,1151131.0,15989932.0,968130000.0,1860930000.0
sh603161,科华控股,2019-09-16,14.01,14.01,13.88,13.93,13.95,920500.0,12835321.0,966742000.0,1858262000.0
sh603161,科华控股,2019-09-17,13.86,13.96,13.5,13.52,13.93,1289494.0,17623401.0,938288000.0,1803568000.0
sh603161,科华控股,2019-09-18,13.68,13.68,13.54,13.57,13.52,705362.0,9589231.0,941758000.0,1810238000.0
sh603161,科华控股,2019-09-19,13.57,13.95,13.57,13.94,13.57,1865900.0,25704864.0,967436000.0,1859596000.0
sh603161,科华控股,2019-09-20,13.9,13.98,13.8,13.82,13.94,1680400.0,23323416.0,959108000.0,1843588000.0
sh603161,科华控股,2019-09-23,13.85,13.96,13.6,13.95,13.82,1421700.0,19631332.0,968130000.0,1860930000.0
sh603161,科华控股,2019-09-24,14.0,14.21,13.82,13.86,13.95,1743200.0,24426510.0,961884000.0,1848924000.0
sh603161,科华控股,2019-09-25,13.73,13.87,13.66,13.68,13.86,929123.0,12777440.0,949392000.0,1824912000.0
sh603161,科华控股,2019-09-26,13.65,13.8,13.28,13.29,13.68,1374123.0,18467603.0,922326000.0,1772886000.0
sh603161,科华控股,2019-09-27,13.44,13.54,13.27,13.45,13.29,714810.0,9629460.0,933430000.0,1794230000.0
sh603161,科华控股,2019-09-30,13.46,13.59,13.31,13.32,13.45,787300.0,10562414.0,924408000.0,1776888000.0
sh603161,科华控股,2019-10-08,13.32,13.45,13.26,13.32,13.32,545200.0,7285702.0,924408000.0,1776888000.0
sh603161,科华控股,2019-10-09,13.32,13.45,13.26,13.45,13.32,491600.0,6571948.0,933430000.0,1794230000.0
sh603161,科华控股,2019-10-10,13.5,13.62,13.4,13.54,13.45,644374.0,8705363.0,939676000.0,1806236000.0
sh603161,科华控股,2019-10-11,13.51,13.75,13.5,13.64,13.54,883000.0,12014207.0,946616000.0,1819576000.0
sh603161,科华控股,2019-10-14,13.77,13.82,13.67,13.74,13.64,926100.0,12746201.0,953556000.0,1832916000.0
sh603161,科华控股,2019-10-15,13.8,13.83,13.67,13.69,13.74,593500.0,8138837.0,950086000.0,1826246000.0
sh603161,科华控股,2019-10-16,13.69,13.79,13.51,13.55,13.69,764639.0,10441265.0,940370000.0,1807570000.0
sh603161,科华控股,2019-10-17,13.62,13.72,13.51,13.58,13.55,619916.0,8469182.0,942452000.0,1811572000.0
sh603161,科华控股,2019-10-18,13.58,13.7,13.35,13.5,13.58,717928.0,9724145.0,936900000.0,1800900000.0
sh603161,科华控股,2019-10-21,13.46,13.46,13.24,13.38,13.5,702300.0,9371843.0,928572000.0,1784892000.0
sh603161,科华控股,2019-10-22,13.39,13.69,13.38,13.69,13.38,1079628.0,14615052.0,950086000.0,1826246000.0
sh603161,科华控股,2019-10-23,13.7,13.72,13.58,13.63,13.69,739436.0,10097956.0,945922000.0,1818242000.0
sh603161,科华控股,2019-10-24,13.69,13.76,13.58,13.74,13.63,882797.0,12097588.0,953556000.0,1832916000.0
sh603161,科华控股,2019-10-25,13.74,13.82,13.61,13.8,13.74,790210.0,10855694.0,957720000.0,1840920000.0
sh603161,科华控股,2019-10-28,13.83,13.88,13.68,13.8,13.8,1114516.0,15361666.0,957720000.0,1840920000.0
sh603161,科华控股,2019-10-29,13.75,13.84,13.52,13.54,13.8,1017390.0,13887753.0,939676000.0,1806236000.0
sh603161,科华控股,2019-10-30,13.49,13.51,13.28,13.34,13.54,724600.0,9672375.0,925796000.0,1779556000.0
sh603161,科华控股,2019-10-31,13.28,13.39,13.12,13.17,13.34,918700.0,12163230.0,913998000.0,1756878000.0
sh603161,科华控股,2019-11-01,13.17,13.37,13.11,13.3,13.17,608860.0,8071407.0,923020000.0,1774220000.0
sh603161,科华控股,2019-11-04,13.3,13.39,13.21,13.25,13.3,602160.0,8016258.0,919550000.0,1767550000.0
sh603161,科华控股,2019-11-05,13.25,13.47,13.17,13.42,13.25,813103.0,10862194.0,931348000.0,1790228000.0
sh603161,科华控股,2019-11-06,13.36,13.46,13.18,13.23,13.42,638300.0,8506260.0,918162000.0,1764882000.0
sh603161,科华控股,2019-11-07,13.27,13.42,13.22,13.37,13.23,541980.0,7224320.0,927878000.0,1783558000.0
sh603161,科华控股,2019-11-08,13.46,13.55,13.35,13.41,13.37,611760.0,8238324.0,930654000.0,1788894000.0
sh603161,科华控股,2019-11-11,13.36,13.38,13.14,13.16,13.41,602200.0,7954213.0,913304000.0,1755544000.0
sh603161,科华控股,2019-11-12,13.16,13.29,13.04,13.2,13.16,439400.0,5791944.0,916080000.0,1760880000.0
sh603161,科华控股,2019-11-13,13.2,13.2,12.94,13.06,13.2,742100.0,9676810.0,906364000.0,1742204000.0
sh603161,科华控股,2019-11-14,13.06,13.09,12.98,13.03,13.06,446500.0,5819533.0,904282000.0,1738202000.0
sh603161,科华控股,2019-11-15,13.06,13.06,12.8,12.83,13.03,502100.0,6470056.0,890402000.0,1711522000.0
sh603161,科华控股,2019-11-18,12.95,12.98,12.8,12.86,12.83,376300.0,4848501.0,892484000.0,1715524000.0
sh603161,科华控股,2019-11-19,12.93,13.1,12.89,13.1,12.86,678617.0,8852056.0,909140000.0,1747540000.0
sh603161,科华控股,2019-11-20,13.03,13.12,12.95,13.0,13.1,448400.0,5848330.0,902200000.0,1734200000.0
sh603161,科华控股,2019-11-21,13.08,13.08,12.9,13.01,13.0,345317.0,4474645.0,902894000.0,1735534000.0
sh603161,科华控股,2019-11-22,13.03,13.17,12.9,12.98,13.01,900196.0,11760188.0,900812000.0,1731532000.0
sh603161,科华控股,2019-11-25,12.81,12.85,12.55,12.59,12.98,1183290.0,14958485.0,873746000.0,1679506000.0
sh603161,科华控股,2019-11-26,12.59,12.65,12.5,12.56,12.59,382700.0,4815638.0,871664000.0,1675504000.0
sh603161,科华控股,2019-11-27,12.59,12.59,12.48,12.53,12.56,278200.0,3488362.0,869582000.0,1671502000.0
sh603161,科华控股,2019-11-28,12.6,12.6,12.47,12.5,12.53,347201.0,4348498.0,867500000.0,1667500000.0
sh603161,科华控股,2019-11-29,12.46,12.6,12.42,12.58,12.5,356000.0,4447383.0,873052000.0,1678172000.0
sh603161,科华控股,2019-12-02,12.59,12.65,12.57,12.62,12.58,320300.0,4041121.0,875828000.0,1683508000.0
sh603161,科华控股,2019-12-03,12.6,12.73,12.53,12.71,12.62,342040.0,4326241.0,882074000.0,1695514000.0
sh603161,科华控股,2019-12-04,12.73,13.2,12.7,12.96,12.71,1363740.0,17737792.0,899424000.0,1728864000.0
sh603161,科华控股,2019-12-05,12.96,13.15,12.92,13.1,12.96,936010.0,12208799.0,909140000.0,1747540000.0
sh603161,科华控股,2019-12-06,13.08,13.15,12.95,13.04,13.1,567100.0,7376538.0,904976000.0,1739536000.0
sh603161,科华控股,2019-12-09,13.06,13.06,12.94,13.01,13.04,484500.0,6305799.0,902894000.0,1735534000.0
sh603161,科华控股,2019-12-10,13.1,13.1,12.87,12.97,13.01,578700.0,7500316.0,900118000.0,1730198000.0
sh603161,科华控股,2019-12-11,12.93,12.98,12.83,12.89,12.97,592416.0,7633844.0,894566000.0,1719526000.0
sh603161,科华控股,2019-12-12,12.83,12.93,12.79,12.89,12.89,339543.0,4370305.0,894566000.0,1719526000.0
sh603161,科华控股,2019-12-13,12.97,13.05,12.89,13.0,12.89,662943.0,8595290.0,902200000.0,1734200000.0
sh603161,科华控股,2019-12-16,13.03,13.21,13.0,13.18,13.0,1035972.0,13608267.0,914692000.0,1758212000.0
sh603161,科华控股,2019-12-17,13.15,13.33,13.15,13.21,13.18,1415672.0,18726508.0,916774000.0,1762214000.0
sh603161,科华控股,2019-12-18,13.22,13.29,13.18,13.21,13.21,895758.0,11851653.0,916774000.0,1762214000.0
sh603161,科华控股,2019-12-19,13.21,13.39,13.17,13.28,13.21,1215201.0,16179815.0,921632000.0,1771552000.0
sh603161,科华控股,2019-12-20,13.29,13.46,13.2,13.2,13.28,1105361.0,14718808.0,916080000.0,1760880000.0
sh603161,科华控股,2019-12-23,13.28,13.28,12.94,12.94,13.2,940770.0,12323682.0,898036000.0,1726196000.0
sh603161,科华控股,2019-12-24,12.95,13.29,12.95,13.26,12.94,1105270.0,14529084.0,920244000.0,1768884000.0
sh603161,科华控股,2019-12-25,13.3,13.53,13.27,13.38,13.26,1417201.0,19015676.0,928572000.0,1784892000.0
sh603161,科华控股,2019-12-26,13.44,13.45,13.26,13.42,13.38,848300.0,11341856.0,931348000.0,1790228000.0
sh603161,科华控股,2019-12-27,13.47,13.48,13.31,13.36,13.42,1097753.0,14711520.0,927184000.0,1782224000.0
sh603161,科华控股,2019-12-30,13.4,13.49,13.13,13.48,13.36,1216955.0,16243156.0,935512000.0,1798232000.0
sh603161,科华控股,2019-12-31,13.43,13.78,13.39,13.6,13.48,1618386.0,21962692.0,943840000.0,1814240000.0
sh603161,科华控股,2020-01-02,13.66,13.84,13.61,13.81,13.6,1712100.0,23528296.0,958414000.0,1842254000.0
sh603161,科华控股,2020-01-03,13.81,13.84,13.62,13.74,13.81,1149300.0,15773222.0,953556000.0,1832916000.0
sh603161,科华控股,2020-01-06,13.67,13.78,13.61,13.71,13.74,1877300.0,25704752.0,951474000.0,1828914000.0
sh603161,科华控股,2020-01-07,13.74,13.86,13.69,13.82,13.71,1225100.0,16883231.0,959108000.0,1843588000.0
sh603161,科华控股,2020-01-08,13.79,14.12,13.72,13.88,13.82,2914300.0,40591859.0,963272000.0,1851592000.0
sh603161,科华控股,2020-01-09,13.99,14.08,13.88,13.95,13.88,1372087.0,19163086.0,968130000.0,1860930000.0
sh603161,科华控股,2020-01-10,13.96,14.0,13.77,13.83,13.95,1215737.0,16858180.0,959802000.0,1844922000.0
sh603161,科华控股,2020-01-13,13.85,14.01,13.8,14.0,13.83,1225500.0,17036174.0,971600000.0,1867600000.0
sh603161,科华控股,2020-01-14,14.0,14.18,13.9,14.15,14.0,1787264.0,25165439.0,982010000.0,1887610000.0
sh603161,科华控股,2020-01-15,14.17,14.18,13.81,13.87,14.15,1433300.0,19968595.0,962578000.0,1850258000.0
sh603161,科华控股,2020-01-16,13.91,13.91,13.65,13.74,13.87,1168600.0,16064767.0,953556000.0,1832916000.0
sh603161,科华控股,2020-01-17,13.84,13.84,13.69,13.72,13.74,896770.0,12314401.0,952168000.0,1830248000.0
sh603161,科华控股,2020-01-20,13.8,13.8,13.57,13.76,13.72,1007133.0,13771481.0,954944000.0,1835584000.0
sh603161,科华控股,2020-01-21,13.76,13.85,13.5,13.71,13.76,1008801.0,13761168.0,951474000.0,1828914000.0
sh603161,科华控股,2020-01-22,13.71,13.77,13.44,13.71,13.71,1506602.0,20533739.0,951474000.0,1828914000.0
sh603161,科华控股,2020-01-23,13.67,13.7,12.9,13.09,13.71,1652728.0,21930338.0,908446000.0,1746206000.0
sh603161,科华控股,2020-02-03,11.78,12.02,11.78,11.78,13.09,1208800.0,14251176.0,817532000.0,1571452000.0
sh603161,科华控股,2020-02-04,11.55,12.2,11.43,12.11,11.78,1984259.0,23760980.0,840434000.0,1615474000.0
sh603161,科华控股,2020-02-05,12.24,12.41,12.07,12.26,12.11,1655889.0,20333250.0,850844000.0,1635484000.0
sh603161,科华控股,2020-02-06,12.26,12.52,12.19,12.45,12.26,1496490.0,18575123.0,864030000.0,1660830000.0
sh603161,科华控股,2020-02-07,12.41,12.49,12.3,12.4,12.45,1239300.0,15346754.0,860560000.0,1654160000.0
sh603161,科华控股,2020-02-10,12.4,12.65,12.28,12.6,12.4,801138.0,10038438.0,874440000.0,1680840000.0
sh603161,科华控股,2020-02-11,12.64,12.75,12.56,12.59,12.6,959114.0,12136274.0,873746000.0,1679506000.0
sh603161,科华控股,2020-02-12,12.77,12.77,12.52,12.72,12.59,952600.0,12056841.0,882768000.0,1696848000.0
sh603161,科华控股,2020-02-13,12.72,12.75,12.53,12.56,12.72,795714.0,10042161.0,871664000.0,1675504000.0
sh603161,科华控股,2020-02-14,12.57,12.8,12.45,12.56,12.56,961200.0,12137559.0,871664000.0,1675504000.0
sh603161,科华控股,2020-02-17,12.58,12.82,12.58,12.82,12.56,1245497.0,15912945.0,889708000.0,1710188000.0
sh603161,科华控股,2020-02-18,12.85,13.07,12.8,13.0,12.82,1279322.0,16541941.0,902200000.0,1734200000.0
sh603161,科华控股,2020-02-19,12.98,13.17,12.95,13.0,13.0,1221400.0,15931613.0,902200000.0,1734200000.0
sh603161,科华控股,2020-02-20,13.02,13.24,12.96,13.2,13.0,1264138.0,16598002.0,916080000.0,1760880000.0
sh603161,科华控股,2020-02-21,13.5,13.5,13.27,13.36,13.2,1540619.0,20602967.0,927184000.0,1782224000.0
sh603161,科华控股,2020-02-24,13.27,13.58,13.25,13.5,13.36,1237739.0,16594467.0,936900000.0,1800900000.0
sh603161,科华控股,2020-02-25,13.22,13.35,13.01,13.32,13.5,1690220.0,22347276.0,924408000.0,1776888000.0
sh603161,科华控股,2020-02-26,13.2,13.47,13.14,13.3,13.32,1466100.0,19545942.0,923020000.0,1774220000.0
sh603161,科华控股,2020-02-27,13.3,13.44,13.25,13.28,13.3,1045758.0,13931932.0,921632000.0,1771552000.0
sh603161,科华控股,2020-02-28,13.05,13.1,12.65,12.65,13.28,1831710.0,23560053.0,877910000.0,1687510000.0
sh603161,科华控股,2020-03-02,12.8,13.36,12.8,13.36,12.65,1322956.0,17368771.0,927184000.0,1782224000.0
sh603161,科华控股,2020-03-03,13.39,13.54,13.27,13.48,13.36,1415861.0,19002786.0,935512000.0,1798232000.0
sh603161,科华控股,2020-03-04,13.46,13.6,13.28,13.6,13.48,1245658.0,16811898.0,943840000.0,1814240000.0
sh603161,科华控股,2020-03-05,13.66,13.71,13.52,13.57,13.6,1775826.0,24143288.0,941758000.0,1810238000.0
sh603161,科华控股,2020-03-06,13.55,13.85,13.4,13.79,13.57,2068169.0,28220515.0,957026000.0,1839586000.0
sh603161,科华控股,2020-03-09,13.68,13.83,13.31,13.32,13.79,2493901.0,33941298.0,924408000.0,1776888000.0
sh603161,科华控股,2020-03-10,13.02,13.56,12.95,13.42,13.32,1651619.0,21788727.0,931348000.0,1790228000.0
sh603161,科华控股,2020-03-11,13.45,13.59,13.31,13.31,13.42,1186920.0,15996768.0,923714000.0,1775554000.0
sh603161,科华控股,2020-03-12,13.17,13.25,13.0,13.09,13.31,1019600.0,13347821.0,908446000.0,1746206000.0
sh603161,科华控股,2020-03-13,12.63,13.31,12.51,12.96,13.09,1197181.0,15301831.0,899424000.0,1728864000.0
sh603161,科华控股,2020-03-16,13.07,13.16,12.66,12.74,12.96,783300.0,10140126.0,884156000.0,1699516000.0
sh603161,科华控股,2020-03-17,12.7,12.95,12.46,12.83,12.74,884295.0,11259285.0,890402000.0,1711522000.0
sh603161,科华控股,2020-03-18,12.78,13.08,12.75,12.86,12.83,801039.0,10322211.0,892484000.0,1715524000.0
sh603161,科华控股,2020-03-19,12.99,12.99,12.59,12.85,12.86,621786.0,7978672.0,891790000.0,1714190000.0
sh603161,科华控股,2020-03-20,12.93,13.0,12.77,12.95,12.85,927489.0,11950400.0,898730000.0,1727530000.0
sh603161,科华控股,2020-03-23,12.9,12.9,12.72,12.85,12.95,895558.0,11466916.0,891790000.0,1714190000.0
sh603161,科华控股,2020-03-24,12.9,13.29,12.85,13.23,12.85,1217278.0,15861610.0,918162000.0,1764882000.0
sh603161,科华控股,2020-03-25,13.37,13.45,13.26,13.32,13.23,1141800.0,15238406.0,924408000.0,1776888000.0
sh603161,科华控股,2020-03-26,13.36,13.36,13.11,13.14,13.32,964200.0,12726652.0,911916000.0,1752876000.0
sh603161,科华控股,2020-03-27,13.29,13.29,13.16,13.2,13.14,981300.0,12977190.0,916080000.0,1760880000.0
sh603161,科华控股,2020-03-30,13.14,13.14,12.68,12.96,13.2,831100.0,10670897.0,899424000.0,1728864000.0
sh603161,科华控股,2020-03-31,12.8,12.8,12.46,12.6,12.96,1966606.0,24701585.0,874440000.0,1680840000.0
sh603161,科华控股,2020-04-01,12.45,12.61,12.4,12.54,12.6,703800.0,8816541.0,870276000.0,1672836000.0
sh603161,科华控股,2020-04-02,12.49,12.64,12.45,12.61,12.54,460806.0,5782642.0,875134000.0,1682174000.0
sh603161,科华控股,2020-04-03,12.61,12.7,12.45,12.49,12.61,501600.0,6297014.0,866806000.0,1666166000.0
sh603161,科华控股,2020-04-07,12.62,12.87,12.57,12.73,12.49,1234076.0,15687808.0,883462000.0,1698182000.0
sh603161,科华控股,2020-04-08,12.7,12.81,12.65,12.73,12.73,867000.0,11025371.0,883462000.0,1698182000.0
sh603161,科华控股,2020-04-09,12.82,12.84,12.75,12.75,12.73,543700.0,6954404.0,884850000.0,1700850000.0
sh603161,科华控股,2020-04-10,12.71,12.82,12.5,12.52,12.75,755458.0,9529798.0,868888000.0,1670168000.0
sh603161,科华控股,2020-04-13,12.49,12.57,12.28,12.46,12.52,464605.0,5780142.0,864724000.0,1662164000.0
sh603161,科华控股,2020-04-14,12.56,12.95,12.45,12.85,12.46,2967158.0,37767896.0,891790000.0,1714190000.0
sh603161,科华控股,2020-04-15,12.85,13.27,12.76,12.92,12.85,2728789.0,35668190.0,896648000.0,1723528000.0
sh603161,科华控股,2020-04-16,12.88,13.07,12.72,12.92,12.92,1303558.0,16863968.0,896648000.0,1723528000.0
sh603161,科华控股,2020-04-17,12.97,12.98,12.76,12.85,12.92,1014000.0,13076235.0,891790000.0,1714190000.0
sh603161,科华控股,2020-04-20,12.85,12.92,12.79,12.87,12.85,927200.0,11911315.0,893178000.0,1716858000.0
sh603161,科华控股,2020-04-21,12.96,12.96,12.63,12.84,12.87,1112000.0,14181042.0,891096000.0,1712856000.0
sh603161,科华控股,2020-04-22,12.79,12.97,12.65,12.92,12.84,2012489.0,25863880.0,896648000.0,1723528000.0
sh603161,科华控股,2020-04-23,12.92,13.04,12.84,12.97,12.92,1189206.0,15374565.0,900118000.0,1730198000.0
sh603161,科华控股,2020-04-24,12.97,12.97,12.7,12.77,12.97,947284.0,12111844.0,886238000.0,1703518000.0
sh603161,科华控股,2020-04-27,12.75,12.92,12.66,12.89,12.77,1795203.0,22866155.0,894566000.0,1719526000.0
sh603161,科华控股,2020-04-28,12.95,13.05,12.53,13.02,12.89,1597074.0,20526609.0,903588000.0,1736868000.0
sh603161,科华控股,2020-04-29,13.01,13.14,12.81,12.95,13.02,873900.0,11317363.0,898730000.0,1727530000.0
sh603161,科华控股,2020-04-30,12.96,13.06,12.53,12.92,12.95,977716.0,12647313.0,896648000.0,1723528000.0
sh603161,科华控股,2020-05-06,12.8,12.98,12.7,12.92,12.92,827174.0,10638904.0,896648000.0,1723528000.0
sh603161,科华控股,2020-05-07,12.91,13.05,12.86,13.03,12.92,1178500.0,15295991.0,904282000.0,1738202000.0
sh603161,科华控股,2020-05-08,13.05,13.13,12.97,13.01,13.03,953800.0,12427855.0,902894000.0,1735534000.0
sh603161,科华控股,2020-05-11,13.04,13.22,12.93,12.97,13.01,1033900.0,13487909.0,900118000.0,1730198000.0
sh603161,科华控股,2020-05-12,12.95,13.06,12.76,13.03,12.97,1445400.0,18646260.0,904282000.0,1738202000.0
sh603161,科华控股,2020-05-13,12.99,13.18,12.95,13.14,13.03,1062200.0,13934089.0,911916000.0,1752876000.0
sh603161,科华控股,2020-05-14,13.1,13.47,13.03,13.34,13.14,3025626.0,40322373.0,925796000.0,1779556000.0
sh603161,科华控股,2020-05-15,13.35,13.39,13.14,13.21,13.34,1421800.0,18803169.0,916774000.0,1762214000.0
sh603161,科华控股,2020-05-18,13.14,13.73,13.1,13.58,13.21,2891779.0,38849401.0,942452000.0,1811572000.0
sh603161,科华控股,2020-05-19,13.5,13.77,13.42,13.64,13.58,2173068.0,29560765.0,946616000.0,1819576000.0
sh603161,科华控股,2020-05-20,13.56,13.77,13.34,13.37,13.64,2464115.0,33341808.0,927878000.0,1783558000.0
sh603161,科华控股,2020-05-21,13.35,13.43,13.26,13.31,13.37,1099400.0,14669560.0,923714000.0,1775554000.0
sh603161,科华控股,2020-05-22,13.21,13.3,12.95,12.95,13.31,1205800.0,15774697.0,898730000.0,1727530000.0
sh603161,科华控股,2020-05-25,12.95,13.09,12.77,12.96,12.95,851200.0,10982911.0,899424000.0,1728864000.0
sh603161,科华控股,2020-05-26,13.0,13.21,12.91,13.19,12.96,783900.0,10284092.0,915386000.0,1759546000.0
sh603161,科华控股,2020-05-27,13.13,13.35,13.13,13.24,13.19,691900.0,9169908.0,918856000.0,1766216000.0
sh603161,科华控股,2020-05-28,13.24,13.3,13.03,13.26,13.24,693900.0,9142611.0,920244000.0,1768884000.0
sh603161,科华控股,2020-05-29,13.34,13.34,13.16,13.29,13.26,621800.0,8242831.0,922326000.0,1772886000.0
sh603161,科华控股,2020-06-01,13.38,13.84,13.27,13.65,13.29,1971674.0,26870141.0,947310000.0,1820910000.0
sh603161,科华控股,2020-06-02,13.63,14.17,13.58,14.07,13.65,3634001.0,50543956.0,976458000.0,1876938000.0
sh603161,科华控股,2020-06-03,14.0,14.25,13.93,13.99,14.07,2802300.0,39357539.0,970906000.0,1866266000.0
sh603161,科华控股,2020-06-04,14.01,14.06,13.92,14.05,13.99,1570500.0,22018495.0,975070000.0,1874270000.0
sh603161,科华控股,2020-06-05,14.03,14.2,13.68,13.8,14.05,2874600.0,39671638.0,957720000.0,1840920000.0
sh603161,科华控股,2020-06-08,13.84,13.94,13.72,13.87,13.8,1533339.0,21233077.0,962578000.0,1850258000.0
sh603161,科华控股,2020-06-09,13.96,13.96,13.77,13.87,13.87,888900.0,12317039.0,962578000.0,1850258000.0
sh603161,科华控股,2020-06-10,13.76,13.85,13.6,13.75,13.87,1728300.0,23660643.0,954250000.0,1834250000.0
sh603161,科华控股,2020-06-11,13.75,13.89,13.66,13.76,13.75,998479.0,13770320.0,954944000.0,1835584000.0
sh603161,科华控股,2020-06-12,13.51,13.98,13.51,13.86,13.76,1464000.0,20232262.0,961884000.0,1848924000.0
sh603161,科华控股,2020-06-15,13.95,14.6,13.82,14.34,13.86,3609700.0,51611089.0,995196000.0,1912956000.0
sh603161,科华控股,2020-06-16,14.4,14.6,14.28,14.45,14.34,2464000.0,35584866.0,1002830000.0,1927630000.0
sh603161,科华控股,2020-06-17,14.44,14.44,14.0,14.18,14.45,1966800.0,27883042.0,984092000.0,1891612000.0
sh603161,科华控股,2020-06-18,14.16,14.3,13.95,14.05,14.18,1475658.0,20769594.0,975070000.0,1874270000.0
sh603161,科华控股,2020-06-19,14.03,14.18,13.91,13.96,14.05,1288300.0,18023689.0,968824000.0,1862264000.0
sh603161,科华控股,2020-06-22,13.98,14.08,13.86,13.96,13.96,2543875.0,35502938.0,968824000.0,1862264000.0
sh603161,科华控股,2020-06-23,13.92,14.0,13.87,13.94,13.96,1077258.0,15004155.0,967436000.0,1859596000.0
sh603161,科华控股,2020-06-24,13.97,13.98,13.73,13.9,13.94,1195889.0,16540061.0,964660000.0,1854260000.0
sh603161,科华控股,2020-06-29,13.9,14.08,13.75,14.01,13.9,2056600.0,28720389.0,972294000.0,1868934000.0
sh603161,科华控股,2020-06-30,14.09,14.1,13.95,14.1,14.01,1153547.0,16194055.0,978540000.0,1880940000.0
sh603161,科华控股,2020-07-01,14.12,14.24,13.85,13.97,14.1,2001000.0,28014829.0,969518000.0,1863598000.0
sh603161,科华控股,2020-07-02,14.1,14.1,13.78,13.86,13.97,1634778.0,22636581.0,961884000.0,1848924000.0
sh603161,科华控股,2020-07-03,13.88,13.95,13.85,13.93,13.86,1483700.0,20625905.0,966742000.0,1858262000.0
sh603161,科华控股,2020-07-06,13.98,14.3,13.94,14.28,13.93,4105009.0,58078519.0,991032000.0,1904952000.0
sh603161,科华控股,2020-07-07,14.39,14.39,14.07,14.13,14.28,5284109.0,74957902.0,980622000.0,1884942000.0
sh603161,科华控股,2020-07-08,14.09,14.17,14.01,14.16,14.13,4455405.0,62839108.0,982704000.0,1888944000.0
sh603161,科华控股,2020-07-09,14.16,14.54,14.12,14.53,14.16,7234714.0,103489444.0,1008382000.0,1938302000.0
sh603161,科华控股,2020-07-10,14.6,14.63,14.27,14.28,14.53,4738490.0,68360061.0,991032000.0,1904952000.0
sh603161,科华控股,2020-07-13,14.28,14.82,14.23,14.78,14.28,5829208.0,84955227.0,1025732000.0,1971652000.0
sh603161,科华控股,2020-07-14,14.69,14.84,14.36,14.64,14.78,4167091.0,60827673.0,1016016000.0,1952976000.0
sh603161,科华控股,2020-07-15,14.64,14.71,14.31,14.35,14.64,3197776.0,46228645.0,995890000.0,1914290000.0
sh603161,科华控股,2020-07-16,14.4,14.47,13.75,13.76,14.35,3497597.0,49618714.0,954944000.0,1835584000.0
sh603161,科华控股,2020-07-17,13.8,13.96,13.55,13.65,13.76,2398809.0,32900027.0,947310000.0,1820910000.0
sh603161,科华控股,2020-07-20,13.73,13.96,13.7,13.94,13.65,2502100.0,34702173.0,967436000.0,1859596000.0
sh603161,科华控股,2020-07-21,13.96,14.05,13.82,14.01,13.94,2032300.0,28339700.0,972294000.0,1868934000.0
sh603161,科华控股,2020-07-22,14.01,14.13,13.87,13.92,14.01,2171300.0,30370242.0,966048000.0,1856928000.0
sh603161,科华控股,2020-07-23,13.96,13.96,13.57,13.85,13.92,2406270.0,33031411.0,961190000.0,1847590000.0
sh603161,科华控股,2020-07-24,13.25,13.48,12.75,12.95,13.85,5289246.0,69777884.0,898730000.0,1727530000.0
sh603161,科华控股,2020-07-27,12.87,12.99,12.66,12.73,12.95,1747900.0,22363673.0,883462000.0,1698182000.0
sh603161,科华控股,2020-07-28,12.85,13.01,12.77,12.97,12.73,1294328.0,16686422.0,900118000.0,1730198000.0
sh603161,科华控股,2020-07-29,12.9,13.07,12.87,13.0,12.97,2338700.0,30356477.0,902200000.0,1734200000.0
sh603161,科华控股,2020-07-30,13.0,13.06,12.84,12.87,13.0,2099250.0,27207215.0,893178000.0,1716858000.0
sh603161,科华控股,2020-07-31,12.87,12.98,12.8,12.95,12.87,1701941.0,21953341.0,898730000.0,1727530000.0
sh603161,科华控股,2020-08-03,13.0,13.38,12.98,13.31,12.95,3088499.0,40596307.0,923714000.0,1775554000.0
sh603161,科华控股,2020-08-04,13.33,13.51,13.31,13.39,13.31,3821708.0,51180548.0,929266000.0,1786226000.0
sh603161,科华控股,2020-08-05,13.4,13.45,13.3,13.39,13.39,1643943.0,21968628.0,929266000.0,1786226000.0
sh603161,科华控股,2020-08-06,13.4,13.45,13.23,13.41,13.39,1535290.0,20459735.0,930654000.0,1788894000.0
sh603161,科华控股,2020-08-07,13.36,13.41,12.98,13.17,13.41,1769200.0,23305980.0,913998000.0,1756878000.0
sh603161,科华控股,2020-08-10,13.16,13.35,13.13,13.29,13.17,1345000.0,17860134.0,922326000.0,1772886000.0
sh603161,科华控股,2020-08-11,13.35,13.41,13.16,13.2,13.29,2185658.0,29105453.0,916080000.0,1760880000.0
sh603161,科华控股,2020-08-12,13.26,13.36,12.92,13.29,13.2,2159152.0,28388827.0,922326000.0,1772886000.0
sh603161,科华控股,2020-08-13,13.38,13.73,13.36,13.51,13.29,4049450.0,54826483.0,937594000.0,1802234000.0
sh603161,科华控股,2020-08-14,13.39,14.86,13.35,14.86,13.51,15193320.0,217817243.0,1031284000.0,1982324000.0
sh603161,科华控股,2020-08-17,15.2,16.35,15.18,16.35,14.86,21849498.0,350683525.0,1134690000.0,2181090000.0
sh603161,科华控股,2020-08-18,17.99,17.99,17.99,17.99,16.35,2627824.0,47274554.0,1248506000.0,2399866000.0
sh603161,科华控股,2020-08-19,17.54,19.78,17.21,18.35,17.99,28171476.0,514161636.0,1273490000.0,2447890000.0
sh603161,科华控股,2020-08-20,17.96,17.96,16.6,17.55,18.35,16527672.0,284435500.0,1217970000.0,2341170000.0
sh603161,科华控股,2020-08-21,17.3,17.3,16.18,16.3,17.55,15024805.0,251343762.0,1131220000.0,2174420000.0
sh603161,科华控股,2020-08-24,16.32,17.9,15.92,17.25,16.3,16462454.0,277971345.0,1197150000.0,2301150000.0
sh603161,科华控股,2020-08-25,17.25,18.98,16.98,18.98,17.25,11535217.0,209274111.0,1317212000.0,2531932000.0
sh603161,科华控股,2020-08-26,19.58,20.0,17.08,17.08,18.98,10041558.0,179499242.0,1185352000.0,2278472000.0
sh603161,科华控股,2020-08-27,16.24,16.39,15.37,15.42,17.08,16147126.0,251833337.0,1070148000.0,2057028000.0
sh603161,科华控股,2020-08-28,16.0,16.9,15.56,16.45,15.42,11323513.0,184968079.0,1141630000.0,2194430000.0
sh603161,科华控股,2020-08-31,16.03,16.68,15.57,15.91,16.45,7935010.0,127605074.0,1104154000.0,2122394000.0
sh603161,科华控股,2020-09-01,16.0,16.22,15.51,15.86,15.91,5793420.0,91310649.0,1100684000.0,2115724000.0
sh603161,科华控股,2020-09-02,15.7,15.98,15.25,15.48,15.86,5337547.0,82767162.0,1074312000.0,2065032000.0
sh603161,科华控股,2020-09-03,15.49,15.5,14.92,15.18,15.48,4230510.0,63881059.0,1053492000.0,2025012000.0
sh603161,科华控股,2020-09-04,14.95,15.65,14.6,15.63,15.18,5591659.0,84817114.0,1084722000.0,2085042000.0
sh603161,科华控股,2020-09-07,15.33,15.93,15.31,15.52,15.63,3745931.0,58528713.0,1077088000.0,2070368000.0
sh603161,科华控股,2020-09-08,15.55,15.92,15.29,15.68,15.52,3781151.0,59364014.0,1088192000.0,2091712000.0
sh603161,科华控股,2020-09-09,15.5,16.24,15.1,15.34,15.68,3672510.0,57673941.0,1064596000.0,2046356000.0
sh603161,科华控股,2020-09-10,15.35,15.55,14.91,14.96,15.34,2320143.0,35414255.0,1038224000.0,1995664000.0
sh603161,科华控股,2020-09-11,15.1,15.26,14.77,15.2,14.96,1551076.0,23244373.0,1054880000.0,2027680000.0
sh603161,科华控股,2020-09-14,15.3,15.66,15.14,15.53,15.2,2201326.0,34041672.0,1077782000.0,2071702000.0
sh603161,科华控股,2020-09-15,15.53,15.63,15.2,15.28,15.53,2642955.0,40498978.0,1060432000.0,2038352000.0
sh603161,科华控股,2020-09-16,15.3,15.4,14.88,15.05,15.28,2135978.0,32144701.0,1044470000.0,2007670000.0
sh603161,科华控股,2020-09-17,15.15,15.87,15.02,15.5,15.05,3848750.0,59800492.0,1075700000.0,2067700000.0
sh603161,科华控股,2020-09-18,15.49,15.68,15.28,15.3,15.5,2321522.0,35730714.0,1061820000.0,2041020000.0
sh603161,科华控股,2020-09-21,15.18,15.4,14.95,15.06,15.3,2450600.0,36974002.0,1045164000.0,2009004000.0
sh603161,科华控股,2020-09-22,15.04,15.09,14.74,14.78,15.06,2487600.0,37028189.0,1025732000.0,1971652000.0
sh603161,科华控股,2020-09-23,14.78,15.27,14.4,15.05,14.78,5193669.0,77225315.0,1044470000.0,2007670000.0
sh603161,科华控股,2020-09-24,15.0,15.0,14.65,14.75,15.05,1481389.0,21911121.0,1023650000.0,1967650000.0
sh603161,科华控股,2020-09-25,14.79,16.08,14.32,15.7,14.75,8308506.0,127389983.0,1089580000.0,2094380000.0
sh603161,科华控股,2020-09-28,15.81,15.93,15.03,15.16,15.7,4201839.0,64250460.0,1052104000.0,2022344000.0
sh603161,科华控股,2020-09-29,15.4,15.71,15.17,15.31,15.16,3046141.0,47020447.0,1062514000.0,2042354000.0
sh603161,科华控股,2020-09-30,15.48,16.11,15.1,15.86,15.31,4920500.0,77934893.0,1100684000.0,2115724000.0
sh603161,科华控股,2020-10-09,16.15,16.16,15.81,15.98,15.86,4016400.0,64257131.0,1109012000.0,2131732000.0
sh603161,科华控股,2020-10-12,16.0,16.88,15.8,16.68,15.98,4766300.0,78073816.0,1157592000.0,2225112000.0
sh603161,科华控股,2020-10-13,16.6,17.26,16.51,16.93,16.68,4405100.0,74499429.0,1174942000.0,2258462000.0
sh603161,科华控股,2020-10-14,16.85,16.92,16.26,16.53,16.93,3431100.0,56668327.0,1147182000.0,2205102000.0
sh603161,科华控股,2020-10-15,16.5,17.15,16.21,16.24,16.53,3290182.0,54549444.0,1127056000.0,2166416000.0
sh603161,科华控股,2020-10-16,16.51,16.9,16.12,16.21,16.24,2960450.0,48612407.0,1124974000.0,2162414000.0
sh603161,科华控股,2020-10-19,16.52,17.17,16.24,16.85,16.21,3743258.0,62792609.0,1169390000.0,2247790000.0
sh603161,科华控股,2020-10-20,17.02,17.49,16.71,17.22,16.85,4332058.0,74493926.0,1195068000.0,2297148000.0
sh603161,科华控股,2020-10-21,17.33,17.33,16.85,17.03,17.22,1879200.0,31998758.0,1181882000.0,2271802000.0
sh603161,科华控股,2020-10-22,17.05,17.08,16.71,16.98,17.03,2268200.0,38329396.0,1178412000.0,2265132000.0
sh603161,科华控股,2020-10-23,16.91,17.13,16.69,16.85,16.98,1772300.0,29823815.0,1169390000.0,2247790000.0
sh603161,科华控股,2020-10-26,16.94,17.04,16.44,16.49,16.85,1958300.0,32633352.0,1144406000.0,2199766000.0
sh603161,科华控股,2020-10-27,16.48,16.61,16.26,16.38,16.49,1854500.0,30400226.0,1136772000.0,2185092000.0
sh603161,科华控股,2020-10-28,16.39,16.75,15.88,16.34,16.38,1799500.0,29261306.0,1133996000.0,2179756000.0
sh603161,科华控股,2020-10-29,16.33,16.33,15.72,15.86,16.34,2110200.0,33845042.0,1100684000.0,2115724000.0
sh603161,科华控股,2020-10-30,16.04,16.04,15.23,15.25,15.86,2429700.0,37758786.0,1058350000.0,2034350000.0
sh603161,科华控股,2020-11-02,15.53,15.99,15.08,15.58,15.25,3406255.0,52879523.0,1081252000.0,2078372000.0
sh603161,科华控股,2020-11-03,15.51,15.68,15.05,15.19,15.58,3526890.0,53835312.0,1054186000.0,2026346000.0
sh603161,科华控股,2020-11-04,15.1,15.45,15.02,15.16,15.19,1633400.0,24813730.0,1052104000.0,2022344000.0
sh603161,科华控股,2020-11-05,15.27,15.57,15.11,15.41,15.16,2195700.0,33671722.0,1069454000.0,2055694000.0
sh603161,科华控股,2020-11-06,15.61,15.89,15.15,15.34,15.41,2293416.0,35491723.0,1064596000.0,2046356000.0
sh603161,科华控股,2020-11-09,15.35,16.66,15.25,16.14,15.34,5609186.0,90398688.0,1120116000.0,2153076000.0
sh603161,科华控股,2020-11-10,16.14,16.87,16.14,16.55,16.14,4560890.0,75312843.0,1148570000.0,2207770000.0
sh603161,科华控股,2020-11-11,16.55,16.63,16.2,16.22,16.55,2463742.0,40228444.0,1125668000.0,2163748000.0
sh603161,科华控股,2020-11-12,16.38,16.98,16.18,16.7,16.22,3322900.0,55412549.0,1158980000.0,2227780000.0
sh603161,科华控股,2020-11-13,16.62,16.9,16.26,16.46,16.7,2190100.0,36015272.0,1142324000.0,2195764000.0
sh603161,科华控股,2020-11-16,16.45,16.45,16.11,16.25,16.46,1787700.0,29068149.0,1127750000.0,2167750000.0
sh603161,科华控股,2020-11-17,16.3,16.66,16.15,16.62,16.25,2256258.0,37043869.0,1153428000.0,2217108000.0
sh603161,科华控股,2020-11-18,16.57,16.74,16.16,16.38,16.62,1655516.0,27151243.0,1136772000.0,2185092000.0
sh603161,科华控股,2020-11-19,16.45,16.46,16.15,16.37,16.38,1621652.0,26467428.0,1136078000.0,2183758000.0
sh603161,科华控股,2020-11-20,16.39,16.82,16.21,16.53,16.37,1647100.0,27307558.0,1147182000.0,2205102000.0
sh603161,科华控股,2020-11-23,16.61,16.86,16.1,16.4,16.53,2184400.0,36098574.0,1138160000.0,2187760000.0
sh603161,科华控股,2020-11-24,16.31,16.5,16.17,16.26,16.4,1365400.0,22233067.0,1128444000.0,2169084000.0
sh603161,科华控股,2020-11-25,16.4,16.46,16.22,16.23,16.26,1071000.0,17445608.0,1126362000.0,2165082000.0
sh603161,科华控股,2020-11-26,16.2,17.85,16.2,17.85,16.23,9656135.0,168792593.0,1238790000.0,2381190000.0
sh603161,科华控股,2020-11-27,18.55,19.5,17.82,19.25,17.85,13709860.0,258352225.0,1335950000.0,2567950000.0
sh603161,科华控股,2020-11-30,18.93,19.77,18.32,19.58,19.25,10528900.0,202223951.0,1358852000.0,2611972000.0
sh603161,科华控股,2020-12-01,19.08,19.75,18.76,19.4,19.58,7054697.0,136465142.0,1346360000.0,2587960000.0
sh603161,科华控股,2020-12-02,18.96,19.65,18.9,19.17,19.4,4056683.0,78126821.0,1330398000.0,2557278000.0
sh603161,科华控股,2020-12-03,19.5,20.2,19.34,19.7,19.17,7455752.0,147004560.0,1367180000.0,2627980000.0
sh603161,科华控股,2020-12-04,19.4,20.11,19.28,19.37,19.7,5527900.0,108183936.0,1344278000.0,2583958000.0
sh603161,科华控股,2020-12-07,19.75,20.38,19.52,19.86,19.37,4908000.0,97446814.0,1378284000.0,2649324000.0
sh603161,科华控股,2020-12-08,19.77,20.35,19.53,19.64,19.86,4492300.0,89470614.0,1363016000.0,2619976000.0
sh603161,科华控股,2020-12-09,19.57,19.62,18.77,19.1,19.64,4524200.0,86489355.0,1325540000.0,2547940000.0
sh603161,科华控股,2020-12-10,19.2,19.23,18.73,18.89,19.1,2666500.0,50567792.0,1310966000.0,2519926000.0
sh603161,科华控股,2020-12-11,19.05,19.29,18.17,18.43,18.89,3422758.0,64048045.0,1279042000.0,2458562000.0
sh603161,科华控股,2020-12-14,18.51,19.25,18.29,18.69,18.43,2046200.0,38272013.0,1297086000.0,2493246000.0
sh603161,科华控股,2020-12-15,18.69,18.83,18.29,18.54,18.69,1618700.0,30063305.0,1286676000.0,2473236000.0
sh603161,科华控股,2020-12-16,18.66,19.15,17.99,18.44,18.54,2718090.0,50383383.0,1279736000.0,2459896000.0
sh603161,科华控股,2020-12-17,18.33,20.09,18.0,20.04,18.44,5691932.0,110409840.0,1390776000.0,2673336000.0
sh603161,科华控股,2020-12-18,20.2,20.4,19.7,19.8,20.04,3700300.0,74243858.0,1374120000.0,2641320000.0
sh603161,科华控股,2020-12-21,20.09,20.09,19.0,19.1,19.8,4465900.0,85987822.0,1325540000.0,2547940000.0
sh603161,科华控股,2020-12-22,19.0,19.28,17.19,17.19,19.1,9118600.0,161308857.0,1192986000.0,2293146000.0
sh603161,科华控股,2020-12-23,16.51,16.55,15.5,15.62,17.19,7832550.0,123998921.0,1084028000.0,2083708000.0
sh603161,科华控股,2020-12-24,16.0,16.48,15.52,15.85,15.62,6167236.0,98022586.0,1099990000.0,2114390000.0
sh603161,科华控股,2020-12-25,15.5,15.82,14.61,15.48,15.85,6366591.0,97157748.0,1074312000.0,2065032000.0
sh603161,科华控股,2020-12-28,15.5,15.74,15.05,15.24,15.48,3650829.0,55952586.0,1057656000.0,2033016000.0
sh603161,科华控股,2020-12-29,15.09,16.37,15.09,15.75,15.24,4051616.0,64189991.0,1093050000.0,2101050000.0
sh603161,科华控股,2020-12-30,15.86,16.58,15.84,16.38,15.75,3263400.0,53165036.0,1136772000.0,2185092000.0
sh603161,科华控股,2020-12-31,16.38,18.02,16.38,18.02,16.38,4805500.0,83599877.0,1250588000.0,2403868000.0
sh603161,科华控股,2021-01-04,18.13,19.42,18.13,19.2,18.02,6586163.0,124505859.0,1332480000.0,2561280000.0
sh603161,科华控股,2021-01-05,19.2,19.59,18.93,19.3,19.2,4585475.0,87988169.0,1339420000.0,2574620000.0
sh603161,科华控股,2021-01-06,19.4,19.4,18.58,19.15,19.3,3805100.0,72180737.0,1329010000.0,2554610000.0
sh603161,科华控股,2021-01-07,19.39,19.65,18.81,18.95,19.15,4624458.0,88504054.0,1315130000.0,2527930000.0
sh603161,科华控股,2021-01-08,19.25,20.04,18.75,19.92,18.95,5130563.0,99922123.0,1382448000.0,2657328000.0
sh603161,科华控股,2021-01-11,19.99,20.16,19.0,19.4,19.92,3280058.0,63678786.0,1346360000.0,2587960000.0
sh603161,科华控股,2021-01-12,19.5,19.65,18.19,18.9,19.4,5883500.0,112312581.0,1311660000.0,2521260000.0
sh603161,科华控股,2021-01-13,19.3,19.3,17.01,17.01,18.9,5362855.0,92946738.0,1180494000.0,2269134000.0
sh603161,科华控股,2021-01-14,16.56,16.99,15.88,15.97,17.01,3416547.0,55229562.0,1108318000.0,2130398000.0
sh603161,科华控股,2021-01-15,16.25,17.57,16.1,16.86,15.97,6601172.0,112957070.0,1170084000.0,2249124000.0
sh603161,科华控股,2021-01-18,16.2,16.94,16.16,16.3,16.86,4442451.0,73552822.0,2174420000.0,2174420000.0
sh603161,科华控股,2021-01-19,16.54,17.34,16.26,16.9,16.3,4225139.0,70758840.0,2254460000.0,2254460000.0
sh603161,科华控股,2021-01-20,16.72,17.36,16.18,17.35,16.9,2867225.0,47729987.0,2314490000.0,2314490000.0
sh603161,科华控股,2021-01-21,17.02,17.06,16.75,16.92,17.35,2781500.0,46965260.0,2257128000.0,2257128000.0
sh603161,科华控股,2021-01-22,16.93,16.93,16.33,16.7,16.92,1888286.0,31296868.0,2227780000.0,2227780000.0
sh603161,科华控股,2021-01-25,16.59,16.59,15.88,15.89,16.7,2419350.0,38826833.0,2119726000.0,2119726000.0
sh603161,科华控股,2021-01-26,16.3,16.3,15.25,15.42,15.89,2979850.0,46106236.0,2057028000.0,2057028000.0
sh603161,科华控股,2021-01-27,15.46,15.71,15.22,15.6,15.42,1126700.0,17478445.0,2081040000.0,2081040000.0
sh603161,科华控股,2021-01-28,15.5,15.77,15.3,15.46,15.6,957400.0,14842711.0,2062364000.0,2062364000.0
sh603161,科华控股,2021-01-29,15.46,15.46,14.79,15.17,15.46,2319195.0,34724743.0,2023678000.0,2023678000.0
sh603161,科华控股,2021-02-01,15.15,15.15,14.5,14.9,15.17,1745900.0,25798688.0,1987660000.0,1987660000.0
sh603161,科华控股,2021-02-02,14.89,14.91,14.2,14.6,14.9,3069539.0,44515934.0,1947640000.0,1947640000.0
sh603161,科华控股,2021-02-03,14.55,15.15,14.28,14.72,14.6,1610600.0,23614561.0,1963648000.0,1963648000.0
sh603161,科华控股,2021-02-04,14.63,14.98,14.2,14.42,14.72,1374100.0,19872304.0,1923628000.0,1923628000.0
sh603161,科华控股,2021-02-05,14.42,14.85,14.25,14.8,14.42,1491268.0,21738612.0,1974320000.0,1974320000.0
sh603161,科华控股,2021-02-08,14.77,15.35,14.57,15.1,14.8,1723990.0,25843489.0,2014340000.0,2014340000.0
sh603161,科华控股,2021-02-09,15.3,15.41,14.93,14.97,15.1,1097550.0,16677441.0,1996998000.0,1996998000.0
sh603161,科华控股,2021-02-10,14.91,15.34,14.83,15.06,14.97,1004364.0,15089695.0,2009004000.0,2009004000.0
sh603161,科华控股,2021-02-18,15.3,15.48,15.06,15.34,15.06,1117400.0,17061857.0,2046356000.0,2046356000.0
sh603161,科华控股,2021-02-19,15.47,15.94,15.25,15.8,15.34,1028064.0,16131640.0,2107720000.0,2107720000.0
sh603161,科华控股,2021-02-22,15.5,15.99,15.33,15.47,15.8,1703319.0,26682771.0,2063698000.0,2063698000.0
sh603161,科华控股,2021-02-23,15.47,15.47,15.12,15.19,15.47,818800.0,12476556.0,2026346000.0,2026346000.0
sh603161,科华控股,2021-02-24,15.19,15.77,15.02,15.67,15.19,1214053.0,18821683.0,2090378000.0,2090378000.0
sh603161,科华控股,2021-02-25,15.69,15.89,15.31,15.42,15.67,1374000.0,21321735.0,2057028000.0,2057028000.0
sh603161,科华控股,2021-02-26,15.42,15.77,15.08,15.52,15.42,1104655.0,17141637.0,2070368000.0,2070368000.0
sh603161,科华控股,2021-03-01,15.52,16.22,15.52,15.89,15.52,1794064.0,28605671.0,2119726000.0,2119726000.0
sh603161,科华控股,2021-03-02,15.99,16.1,15.75,16.0,15.89,1790500.0,28462479.0,2134400000.0,2134400000.0
sh603161,科华控股,2021-03-03,16.0,16.18,15.83,16.04,16.0,950900.0,15231082.0,2139736000.0,2139736000.0
sh603161,科华控股,2021-03-04,16.04,16.35,15.9,15.93,16.04,1380700.0,22260381.0,2125062000.0,2125062000.0
sh603161,科华控股,2021-03-05,15.92,16.7,15.58,16.46,15.93,1866600.0,30166471.0,2195764000.0,2195764000.0
sh603161,科华控股,2021-03-08,16.32,17.13,16.13,16.42,16.46,2086300.0,34761413.0,2190428000.0,2190428000.0
sh603161,科华控股,2021-03-09,16.14,16.77,15.86,16.09,16.42,1568809.0,25545311.0,2146406000.0,2146406000.0
sh603161,科华控股,2021-03-10,16.35,16.35,15.83,16.09,16.09,1540000.0,24725985.0,2146406000.0,2146406000.0
sh603161,科华控股,2021-03-11,16.08,16.24,15.91,16.15,16.09,1085500.0,17453622.0,2154410000.0,2154410000.0
sh603161,科华控股,2021-03-12,16.1,16.31,15.88,15.93,16.15,1153900.0,18505280.0,2125062000.0,2125062000.0
sh603161,科华控股,2021-03-15,15.96,16.17,15.57,15.84,15.93,1890958.0,29960172.0,2113056000.0,2113056000.0
sh603161,科华控股,2021-03-16,15.89,15.99,15.74,15.81,15.84,799800.0,12665252.0,2109054000.0,2109054000.0
sh603161,科华控股,2021-03-17,15.95,16.8,15.43,16.45,15.81,1805700.0,29442398.0,2194430000.0,2194430000.0
sh603161,科华控股,2021-03-18,16.48,16.99,16.3,16.45,16.45,1468500.0,24369395.0,2194430000.0,2194430000.0
sh603161,科华控股,2021-03-19,16.31,17.2,16.3,17.1,16.45,2586600.0,43929020.0,2281140000.0,2281140000.0
sh603161,科华控股,2021-03-22,17.16,18.16,17.12,18.01,17.1,2464657.0,43497318.0,2402534000.0,2402534000.0
sh603161,科华控股,2021-03-23,18.05,19.0,17.46,17.6,18.01,1923458.0,34103120.0,2347840000.0,2347840000.0
sh603161,科华控股,2021-03-24,17.32,18.2,17.32,18.05,17.6,2050500.0,36724811.0,2407870000.0,2407870000.0
sh603161,科华控股,2021-03-25,18.38,18.49,17.85,17.95,18.05,1485200.0,26874747.0,2394530000.0,2394530000.0
sh603161,科华控股,2021-03-26,17.95,18.25,17.78,18.2,17.95,1546488.0,27962064.0,2427880000.0,2427880000.0
sh603161,科华控股,2021-03-29,18.2,18.8,17.5,17.74,18.2,1726958.0,30806644.0,2366516000.0,2366516000.0
sh603161,科华控股,2021-03-30,17.86,17.87,17.19,17.36,17.74,1624100.0,28259721.0,2315824000.0,2315824000.0
sh603161,科华控股,2021-03-31,17.56,17.57,17.01,17.4,17.36,752600.0,13031434.0,2321160000.0,2321160000.0
sh603161,科华控股,2021-04-01,17.31,17.74,17.15,17.69,17.4,1162300.0,20325248.0,2359846000.0,2359846000.0
sh603161,科华控股,2021-04-02,17.65,18.28,17.62,18.18,17.69,1345003.0,24256832.0,2425212000.0,2425212000.0
sh603161,科华控股,2021-04-06,18.19,19.35,18.19,19.1,18.18,2622158.0,49570171.0,2547940000.0,2547940000.0
sh603161,科华控股,2021-04-07,19.21,19.25,18.9,19.02,19.1,1051300.0,19991304.0,2537268000.0,2537268000.0
sh603161,科华控股,2021-04-08,18.98,19.35,18.97,19.2,19.02,1033100.0,19752576.0,2561280000.0,2561280000.0
sh603161,科华控股,2021-04-09,19.01,19.95,18.97,19.08,19.2,4575322.0,89134835.0,2545272000.0,2545272000.0
sh603161,科华控股,2021-04-12,19.0,19.0,17.17,17.17,19.08,3740368.0,67512001.0,2290478000.0,2290478000.0
sh603161,科华控股,2021-04-13,16.89,16.98,15.95,16.05,17.17,4925038.0,80714371.0,2141070000.0,2141070000.0
sh603161,科华控股,2021-04-14,16.23,16.77,15.99,16.15,16.05,2843590.0,46554965.0,2154410000.0,2154410000.0
sh603161,科华控股,2021-04-15,16.41,16.41,15.88,16.04,16.15,1027899.0,16524902.0,2139736000.0,2139736000.0
sh603161,科华控股,2021-04-16,15.9,17.36,15.9,17.07,16.04,3660309.0,61374867.0,2277138000.0,2277138000.0
sh603161,科华控股,2021-04-19,17.03,18.35,17.01,18.18,17.07,3401609.0,60637031.0,2425212000.0,2425212000.0
sh603161,科华控股,2021-04-20,18.0,18.58,17.98,18.46,18.18,2306793.0,42265378.0,2462564000.0,2462564000.0
sh603161,科华控股,2021-04-21,18.28,18.86,16.71,17.01,18.46,5408700.0,94011790.0,2269134000.0,2269134000.0
sh603161,科华控股,2021-04-22,17.27,17.9,16.84,17.63,17.01,3884434.0,67478059.0,2351842000.0,2351842000.0
sh603161,科华控股,2021-04-23,17.53,18.16,17.08,17.16,17.63,4529911.0,79929620.0,2289144000.0,2289144000.0
sh603161,科华控股,2021-04-26,18.6,18.88,17.67,18.88,17.16,8868267.0,165721728.0,2518592000.0,2518592000.0
sh603161,科华控股,2021-04-27,18.6,18.6,16.99,16.99,18.88,11624751.0,201623026.0,2266466000.0,2266466000.0
sh603161,科华控股,2021-04-28,16.81,16.82,16.01,16.45,16.99,8392290.0,137291144.0,2194430000.0,2194430000.0
sh603161,科华控股,2021-04-29,16.16,16.39,15.9,16.0,16.45,4823165.0,77465294.0,2134400000.0,2134400000.0
sh603161,科华控股,2021-04-30,15.98,15.98,15.3,15.49,16.0,4194318.0,65052470.0,2066366000.0,2066366000.0
sh603161,科华控股,2021-05-06,15.62,15.7,15.36,15.61,15.49,2533924.0,39369371.0,2082374000.0,2082374000.0
sh603161,科华控股,2021-05-07,15.7,15.72,15.02,15.12,15.61,3972479.0,60547369.0,2017008000.0,2017008000.0
sh603161,科华控股,2021-05-10,15.11,15.48,15.04,15.33,15.12,2013300.0,30838726.0,2045022000.0,2045022000.0
sh603161,科华控股,2021-05-11,15.47,15.5,15.14,15.24,15.33,2229500.0,34043990.0,2033016000.0,2033016000.0
sh603161,科华控股,2021-05-12,15.26,15.48,15.06,15.28,15.24,2258088.0,34379883.0,2038352000.0,2038352000.0
sh603161,科华控股,2021-05-13,15.19,15.45,15.1,15.13,15.28,2307711.0,35112628.0,2018342000.0,2018342000.0
sh603161,科华控股,2021-05-14,15.1,15.28,15.06,15.18,15.13,2169010.0,32888757.0,2025012000.0,2025012000.0
sh603161,科华控股,2021-05-17,15.02,15.04,14.31,14.58,15.18,4141711.0,60561191.0,1944972000.0,1944972000.0
sh603161,科华控股,2021-05-18,14.57,14.87,14.51,14.76,14.58,1752316.0,25732121.0,1968984000.0,1968984000.0
sh603161,科华控股,2021-05-19,14.84,15.01,14.68,14.8,14.76,1622151.0,24086156.0,1974320000.0,1974320000.0
sh603161,科华控股,2021-05-20,14.84,14.88,14.51,14.62,14.8,1677821.0,24515487.0,1950308000.0,1950308000.0
sh603161,科华控股,2021-05-21,14.61,14.87,14.49,14.65,14.62,1595621.0,23440458.0,1954310000.0,1954310000.0
sh603161,科华控股,2021-05-24,14.61,14.76,14.6,14.69,14.65,1507600.0,22122891.0,1959646000.0,1959646000.0
sh603161,XD科华控,2021-05-25,14.65,14.65,14.1,14.38,14.56,2288900.0,32774780.0,1918292000.0,1918292000.0
sh603161,科华控股,2021-05-26,14.41,14.52,14.33,14.39,14.38,1795800.0,25828552.0,1919626000.0,1919626000.0
sh603161,科华控股,2021-05-27,14.39,14.6,14.38,14.56,14.39,2244954.0,32603422.0,1942304000.0,1942304000.0
sh603161,科华控股,2021-05-28,14.59,14.77,14.53,14.6,14.56,2234367.0,32687343.0,1947640000.0,1947640000.0
sh603161,科华控股,2021-05-31,14.64,14.8,14.61,14.74,14.6,2195135.0,32265277.0,1966316000.0,1966316000.0
sh603161,科华控股,2021-06-01,14.79,14.84,14.61,14.73,14.74,3361551.0,49467054.0,1964982000.0,1964982000.0
sh603161,科华控股,2021-06-02,14.78,14.83,14.52,14.55,14.73,1872000.0,27421465.0,1940970000.0,1940970000.0
sh603161,科华控股,2021-06-03,14.55,14.69,14.42,14.42,14.55,1958400.0,28481349.0,1923628000.0,1923628000.0
sh603161,科华控股,2021-06-04,14.44,14.69,14.42,14.64,14.42,1844521.0,26941243.0,1952976000.0,1952976000.0
sh603161,科华控股,2021-06-07,14.69,14.8,14.64,14.76,14.64,1854800.0,27331186.0,1968984000.0,1968984000.0
sh603161,科华控股,2021-06-08,14.76,15.1,14.64,15.0,14.76,3498600.0,52175470.0,2001000000.0,2001000000.0
sh603161,科华控股,2021-06-09,14.99,15.02,14.86,14.91,15.0,1735100.0,25899676.0,1988994000.0,1988994000.0
sh603161,科华控股,2021-06-10,14.88,15.09,14.88,15.04,14.91,1862100.0,27956900.0,2006336000.0,2006336000.0
sh603161,科华控股,2021-06-11,15.09,15.25,15.03,15.03,15.04,2366400.0,35867073.0,2005002000.0,2005002000.0
sh603161,科华控股,2021-06-15,15.03,15.23,14.68,14.72,15.03,1810700.0,26867447.0,1963648000.0,1963648000.0
sh603161,科华控股,2021-06-16,14.78,14.86,14.44,14.49,14.72,1892978.0,27643362.0,1932966000.0,1932966000.0
sh603161,科华控股,2021-06-17,14.57,14.65,14.3,14.41,14.49,1564804.0,22568047.0,1922294000.0,1922294000.0
sh603161,科华控股,2021-06-18,14.39,14.6,14.23,14.55,14.41,1633700.0,23611855.0,1940970000.0,1940970000.0
sh603161,科华控股,2021-06-21,14.6,14.78,14.5,14.61,14.55,2165500.0,31636872.0,1948974000.0,1948974000.0
sh603161,科华控股,2021-06-22,14.54,14.67,14.48,14.51,14.61,2235858.0,32563404.0,1935634000.0,1935634000.0
sh603161,科华控股,2021-06-23,14.53,14.77,14.43,14.63,14.51,3265952.0,47800309.0,1951642000.0,1951642000.0
sh603161,科华控股,2021-06-24,14.65,14.69,14.37,14.42,14.63,2961600.0,43024267.0,1923628000.0,1923628000.0
sh603161,科华控股,2021-06-25,14.41,14.42,14.2,14.37,14.42,1951000.0,27911750.0,1916958000.0,1916958000.0
sh603161,科华控股,2021-06-28,14.36,14.62,14.28,14.47,14.37,3191666.0,46192586.0,1930298000.0,1930298000.0
sh603161,科华控股,2021-06-29,14.59,14.79,14.02,14.08,14.47,7557232.0,109092109.0,1878272000.0,1878272000.0
sh603161,科华控股,2021-06-30,14.0,14.18,13.9,14.16,14.08,2255132.0,31753977.0,1888944000.0,1888944000.0
sh603161,科华控股,2021-07-01,14.2,14.62,14.11,14.33,14.16,3340000.0,48242584.0,1911622000.0,1911622000.0
sh603161,科华控股,2021-07-02,14.3,14.3,13.96,14.02,14.33,2748800.0,38656276.0,1870268000.0,1870268000.0
sh603161,科华控股,2021-07-05,14.06,14.22,14.02,14.19,14.02,1916100.0,27066480.0,1892946000.0,1892946000.0
sh603161,科华控股,2021-07-06,14.23,14.43,14.14,14.37,14.19,2114000.0,30199379.0,1916958000.0,1916958000.0
sh603161,科华控股,2021-07-07,14.33,14.52,14.27,14.47,14.37,1975900.0,28574599.0,1930298000.0,1930298000.0
sh603161,科华控股,2021-07-08,14.59,14.77,14.43,14.49,14.47,3760800.0,54840290.0,1932966000.0,1932966000.0
sh603161,科华控股,2021-07-09,14.44,14.95,14.24,14.91,14.49,5325200.0,78117003.0,1988994000.0,1988994000.0
sh603161,科华控股,2021-07-12,15.0,15.0,14.75,14.87,14.91,3550241.0,52775901.0,1983658000.0,1983658000.0
sh603161,科华控股,2021-07-13,14.82,15.05,14.72,14.97,14.87,2880600.0,42990183.0,1996998000.0,1996998000.0
sh603161,科华控股,2021-07-14,15.0,15.05,14.71,14.82,14.97,2759400.0,40954857.0,1976988000.0,1976988000.0
sh603161,科华控股,2021-07-15,14.77,14.81,14.31,14.76,14.82,3295822.0,47985601.0,1968984000.0,1968984000.0
sh603161,科华控股,2021-07-16,14.64,14.75,14.48,14.49,14.76,2409970.0,35121063.0,1932966000.0,1932966000.0
sh603161,科华控股,2021-07-19,14.49,14.49,14.16,14.37,14.49,1944300.0,27859633.0,1916958000.0,1916958000.0
sh603161,科华控股,2021-07-20,14.27,14.44,14.23,14.44,14.37,1333000.0,19150934.0,1926296000.0,1926296000.0
sh603161,科华控股,2021-07-21,14.41,14.75,14.41,14.56,14.44,2144058.0,31325472.0,1942304000.0,1942304000.0
sh603161,科华控股,2021-07-22,14.5,14.73,14.44,14.7,14.56,2737200.0,40039412.0,1960980000.0,1960980000.0
sh603161,科华控股,2021-07-23,14.77,14.81,14.43,14.56,14.7,2395500.0,34913971.0,1942304000.0,1942304000.0
sh603161,科华控股,2021-07-26,14.52,14.54,14.04,14.26,14.56,2137203.0,30556005.0,1902284000.0,1902284000.0
sh603161,科华控股,2021-07-27,14.39,14.39,13.81,13.85,14.26,2880700.0,40678373.0,1847590000.0,1847590000.0
sh603161,科华控股,2021-07-28,13.81,13.96,13.2,13.35,13.85,2549900.0,34247619.0,1780890000.0,1780890000.0
sh603161,科华控股,2021-07-29,13.42,13.59,13.32,13.46,13.35,1927962.0,25887820.0,1795564000.0,1795564000.0
sh603161,科华控股,2021-07-30,13.36,13.63,13.36,13.61,13.46,1545500.0,20922951.0,1815574000.0,1815574000.0
sh603161,科华控股,2021-08-02,13.63,13.86,13.24,13.7,13.61,2221530.0,30255334.0,1827580000.0,1827580000.0
sh603161,科华控股,2021-08-03,13.7,13.81,13.49,13.52,13.7,2010100.0,27451388.0,1803568000.0,1803568000.0
sh603161,科华控股,2021-08-04,13.54,13.77,13.54,13.68,13.52,1750100.0,23915852.0,1824912000.0,1824912000.0
sh603161,科华控股,2021-08-05,13.72,13.83,13.53,13.57,13.68,1995900.0,27267832.0,1810238000.0,1810238000.0
sh603161,科华控股,2021-08-06,13.64,13.69,13.43,13.58,13.57,1525800.0,20671631.0,1811572000.0,1811572000.0
sh603161,科华控股,2021-08-09,13.65,14.65,13.6,14.2,13.58,5416288.0,77054428.0,1894280000.0,1894280000.0
sh603161,科华控股,2021-08-10,14.27,14.5,14.2,14.4,14.2,3215358.0,46254753.0,1920960000.0,1920960000.0
sh603161,科华控股,2021-08-11,14.57,14.68,14.34,14.63,14.4,3617100.0,52537992.0,1951642000.0,1951642000.0
sh603161,科华控股,2021-08-12,14.63,15.04,14.58,14.96,14.63,5355741.0,79576215.0,1995664000.0,1995664000.0
sh603161,科华控股,2021-08-13,14.91,15.18,14.81,15.13,14.96,4880074.0,73335614.0,2018342000.0,2018342000.0
sh603161,科华控股,2021-08-16,15.15,15.29,14.93,15.2,15.13,4611834.0,69847735.0,2027680000.0,2027680000.0
sh603161,科华控股,2021-08-17,15.12,15.85,15.03,15.28,15.2,7360990.0,114620141.0,2038352000.0,2038352000.0
sh603161,科华控股,2021-08-18,15.1,15.66,14.98,15.11,15.28,5783262.0,88176894.0,2015674000.0,2015674000.0
sh603161,科华控股,2021-08-19,15.12,15.57,15.05,15.14,15.11,3927602.0,59831631.0,2019676000.0,2019676000.0
sh603161,科华控股,2021-08-20,14.3,14.33,13.63,13.63,15.14,11174334.0,153140041.0,1818242000.0,1818242000.0
sh603161,科华控股,2021-08-23,13.39,13.74,13.25,13.6,13.63,8817609.0,119014332.0,1814240000.0,1814240000.0
sh603161,科华控股,2021-08-24,13.6,14.38,13.53,13.9,13.6,8365600.0,116563098.0,1854260000.0,1854260000.0
sh603161,科华控股,2021-08-25,13.78,15.25,13.78,14.78,13.9,12862870.0,189135414.0,1971652000.0,1971652000.0
sh603161,科华控股,2021-08-26,14.84,15.96,14.84,15.64,14.78,13038170.0,201940880.0,2086376000.0,2086376000.0
sh603161,科华控股,2021-08-27,15.64,15.99,15.31,15.4,15.64,6388935.0,99034223.0,2054360000.0,2054360000.0
sh603161,科华控股,2021-08-30,15.4,15.55,15.07,15.24,15.4,5684500.0,86577913.0,2033016000.0,2033016000.0
sh603161,科华控股,2021-08-31,15.26,15.33,14.76,14.86,15.24,5462616.0,81823635.0,1982324000.0,1982324000.0
sh603161,科华控股,2021-09-01,14.96,15.19,14.47,14.6,14.86,4336300.0,64002411.0,1947640000.0,1947640000.0
sh603161,科华控股,2021-09-02,14.57,14.95,14.38,14.8,14.6,3795362.0,55796100.0,1974320000.0,1974320000.0
sh603161,科华控股,2021-09-03,14.64,15.28,14.64,15.15,14.8,4746116.0,71299517.0,2021010000.0,2021010000.0
sh603161,科华控股,2021-09-06,15.15,15.32,14.16,15.21,15.15,6714570.0,99592209.0,2029014000.0,2029014000.0
sh603161,科华控股,2021-09-07,15.29,15.4,14.98,15.2,15.21,4561213.0,69383065.0,2027680000.0,2027680000.0
sh603161,科华控股,2021-09-08,15.35,15.51,15.03,15.3,15.2,3511271.0,53622327.0,2041020000.0,2041020000.0
sh603161,科华控股,2021-09-09,15.31,15.37,14.95,15.0,15.3,3324616.0,50120544.0,2001000000.0,2001000000.0
sh603161,科华控股,2021-09-10,14.85,15.05,14.68,14.73,15.0,3879500.0,57485592.0,1964982000.0,1964982000.0
sh603161,科华控股,2021-09-13,14.69,14.88,14.53,14.72,14.73,2575600.0,37882857.0,1963648000.0,1963648000.0
sh603161,科华控股,2021-09-14,14.72,14.83,14.05,14.13,14.72,5375460.0,77478373.0,1884942000.0,1884942000.0
sh603161,科华控股,2021-09-15,14.15,14.7,14.1,14.54,14.13,3442900.0,49611600.0,1939636000.0,1939636000.0
sh603161,科华控股,2021-09-16,14.5,15.17,14.36,14.6,14.54,5715422.0,84390189.0,1947640000.0,1947640000.0
sh603161,科华控股,2021-09-17,14.6,14.77,14.02,14.22,14.6,3541504.0,50502886.0,1896948000.0,1896948000.0
sh603161,科华控股,2021-09-22,14.08,14.32,13.95,14.12,14.22,2138400.0,30188222.0,1883608000.0,1883608000.0
sh603161,科华控股,2021-09-23,14.04,14.35,14.04,14.15,14.12,1895300.0,26890484.0,1887610000.0,1887610000.0
sh603161,科华控股,2021-09-24,14.24,14.24,13.66,13.69,14.15,3495400.0,48373183.0,1826246000.0,1826246000.0
sh603161,科华控股,2021-09-27,13.6,13.73,13.18,13.32,13.69,2888171.0,38831421.0,1776888000.0,1776888000.0
sh603161,科华控股,2021-09-28,13.29,13.77,13.2,13.59,13.32,2534575.0,34112630.0,1812906000.0,1812906000.0
sh603161,科华控股,2021-09-29,13.5,13.55,12.95,12.99,13.59,3247925.0,42911426.0,1732866000.0,1732866000.0
sh603161,科华控股,2021-09-30,12.95,13.47,12.95,13.35,12.99,1835949.0,24353677.0,1780890000.0,1780890000.0
sh603161,科华控股,2021-10-08,13.59,13.74,13.41,13.67,13.35,1938400.0,26371548.0,1823578000.0,1823578000.0
sh603161,科华控股,2021-10-11,13.66,13.93,13.57,13.72,13.67,1967504.0,26983212.0,1830248000.0,1830248000.0
sh603161,科华控股,2021-10-12,13.65,13.65,13.36,13.52,13.72,1489600.0,20139536.0,1803568000.0,1803568000.0
sh603161,科华控股,2021-10-13,13.53,13.53,13.23,13.37,13.52,1450800.0,19378478.0,1783558000.0,1783558000.0
sh603161,科华控股,2021-10-14,13.31,13.59,13.23,13.46,13.37,1372704.0,18401086.0,1795564000.0,1795564000.0
sh603161,科华控股,2021-10-15,13.5,13.51,13.3,13.33,13.46,1073900.0,14346883.0,1778222000.0,1778222000.0
sh603161,科华控股,2021-10-18,13.33,13.41,13.2,13.33,13.33,1661104.0,22089213.0,1778222000.0,1778222000.0
sh603161,科华控股,2021-10-19,13.34,13.47,13.33,13.37,13.33,1170504.0,15663838.0,1783558000.0,1783558000.0
sh603161,科华控股,2021-10-20,13.33,13.4,13.16,13.21,13.37,1211900.0,16045396.0,1762214000.0,1762214000.0
sh603161,科华控股,2021-10-21,13.27,13.3,13.09,13.12,13.21,1063240.0,14019231.0,1750208000.0,1750208000.0
sh603161,科华控股,2021-10-22,13.12,13.12,12.87,12.9,13.12,1913500.0,24807565.0,1720860000.0,1720860000.0
sh603161,科华控股,2021-10-25,12.68,12.86,12.57,12.79,12.9,1592862.0,20234149.0,1706186000.0,1706186000.0
sh603161,科华控股,2021-10-26,12.79,12.99,12.6,12.7,12.79,1662900.0,21191408.0,1694180000.0,1694180000.0
sh603161,科华控股,2021-10-27,12.74,12.74,12.21,12.35,12.7,1933088.0,23883455.0,1647490000.0,1647490000.0
sh603161,科华控股,2021-10-28,12.33,12.34,12.07,12.25,12.35,1401700.0,17056465.0,1634150000.0,1634150000.0
sh603161,科华控股,2021-10-29,12.09,12.62,12.09,12.6,12.25,1455772.0,18096813.0,1680840000.0,1680840000.0
sh603161,科华控股,2021-11-01,12.58,12.8,12.36,12.71,12.6,1742168.0,21942317.0,1695514000.0,1695514000.0
sh603161,科华控股,2021-11-02,12.71,12.82,12.35,12.43,12.71,1373340.0,17284854.0,1658162000.0,1658162000.0
sh603161,科华控股,2021-11-03,12.43,12.65,12.33,12.63,12.43,1270002.0,15902849.0,1684842000.0,1684842000.0
sh603161,科华控股,2021-11-04,12.59,12.85,12.57,12.83,12.63,1271240.0,16212405.0,1711522000.0,1711522000.0
sh603161,科华控股,2021-11-05,12.82,13.06,12.7,12.9,12.83,2250040.0,28999863.0,1720860000.0,1720860000.0
sh603161,科华控股,2021-11-08,12.91,13.22,12.89,13.07,12.9,1907042.0,24974165.0,1743538000.0,1743538000.0
sh603161,科华控股,2021-11-09,13.01,13.25,13.0,13.19,13.07,1463700.0,19254862.0,1759546000.0,1759546000.0
sh603161,科华控股,2021-11-10,13.22,13.32,13.05,13.27,13.19,1625458.0,21445594.0,1770218000.0,1770218000.0
sh603161,科华控股,2021-11-11,13.26,13.53,13.12,13.39,13.27,2577900.0,34379500.0,1786226000.0,1786226000.0
sh603161,科华控股,2021-11-12,13.39,14.06,13.39,13.92,13.39,5097762.0,70067695.0,1856928000.0,1856928000.0
sh603161,科华控股,2021-11-15,14.09,15.15,13.98,14.68,13.92,9593653.0,140468388.0,1958312000.0,1958312000.0
sh603161,科华控股,2021-11-16,14.7,14.7,14.14,14.24,14.68,4303200.0,61913418.0,1899616000.0,1899616000.0
sh603161,科华控股,2021-11-17,14.24,14.45,14.24,14.38,14.24,3042231.0,43647447.0,1918292000.0,1918292000.0
sh603161,科华控股,2021-11-18,14.4,14.5,14.16,14.18,14.38,2713702.0,38880625.0,1891612000.0,1891612000.0
sh603161,科华控股,2021-11-19,14.25,14.6,14.0,14.47,14.18,2630531.0,37947345.0,1930298000.0,1930298000.0
sh603161,科华控股,2021-11-22,14.39,14.8,14.25,14.73,14.47,4425238.0,64373857.0,1964982000.0,1964982000.0
sh603161,科华控股,2021-11-23,14.85,14.86,14.59,14.62,14.73,2064100.0,30265808.0,1950308000.0,1950308000.0
sh603161,科华控股,2021-11-24,14.52,14.86,14.35,14.61,14.62,3011300.0,43913149.0,1948974000.0,1948974000.0
sh603161,科华控股,2021-11-25,14.59,14.95,14.46,14.67,14.61,2518254.0,37079385.0,1956978000.0,1956978000.0
sh603161,科华控股,2021-11-26,14.67,14.89,14.5,14.59,14.67,1838629.0,26886204.0,1946306000.0,1946306000.0
sh603161,科华控股,2021-11-29,14.3,14.51,14.11,14.45,14.59,1526400.0,21914823.0,1927630000.0,1927630000.0
sh603161,科华控股,2021-11-30,14.76,14.76,14.5,14.66,14.45,1739954.0,25512021.0,1955644000.0,1955644000.0
sh603161,科华控股,2021-12-01,14.62,15.07,14.53,14.96,14.66,3942300.0,58720045.0,1995664000.0,1995664000.0
sh603161,科华控股,2021-12-02,14.94,14.98,14.59,14.66,14.96,2447662.0,36056256.0,1955644000.0,1955644000.0
sh603161,科华控股,2021-12-03,14.68,14.88,14.45,14.49,14.66,2136100.0,31201318.0,1932966000.0,1932966000.0
sh603161,科华控股,2021-12-06,14.52,14.6,13.82,13.87,14.49,3163340.0,44577536.0,1850258000.0,1850258000.0
sh603161,科华控股,2021-12-07,13.9,14.04,13.62,13.76,13.87,2397300.0,33084501.0,1835584000.0,1835584000.0
sh603161,科华控股,2021-12-08,13.61,14.2,13.61,14.0,13.76,2137000.0,29928269.0,1867600000.0,1867600000.0
sh603161,科华控股,2021-12-09,14.0,14.63,13.92,14.63,14.0,4363938.0,62369272.0,1951642000.0,1951642000.0
sh603161,科华控股,2021-12-10,14.99,16.09,14.83,16.09,14.63,17343574.0,272991614.0,2146406000.0,2146406000.0
sh603161,科华控股,2021-12-13,17.5,17.7,15.26,15.5,16.09,29303353.0,485647730.0,2067700000.0,2067700000.0
sh603161,科华控股,2021-12-14,14.82,15.0,14.46,14.58,15.5,16522574.0,242257398.0,1944972000.0,1944972000.0
sh603161,科华控股,2021-12-15,14.37,14.64,14.33,14.4,14.58,9126458.0,131779369.0,1920960000.0,1920960000.0
sh603161,科华控股,2021-12-16,14.37,15.84,14.3,15.84,14.4,20340411.0,309582783.0,2113056000.0,2113056000.0
sh603161,科华控股,2021-12-17,16.0,17.39,15.85,16.58,15.84,25829224.0,427636174.0,2211772000.0,2211772000.0
sh603161,科华控股,2021-12-20,16.55,17.37,15.89,15.89,16.58,19563706.0,321377242.0,2119726000.0,2119726000.0
sh603161,科华控股,2021-12-21,16.29,16.4,15.43,15.67,15.89,12737876.0,201083175.0,2090378000.0,2090378000.0
sh603161,科华控股,2021-12-22,15.85,15.85,15.25,15.52,15.67,8814300.0,136448406.0,2070368000.0,2070368000.0
sh603161,科华控股,2021-12-23,15.35,15.66,15.12,15.54,15.52,8805400.0,136269847.0,2073036000.0,2073036000.0
sh603161,科华控股,2021-12-24,15.49,15.49,14.56,14.56,15.54,9519221.0,141969361.0,1942304000.0,1942304000.0
sh603161,科华控股,2021-12-27,14.56,15.05,14.4,14.92,14.56,5773621.0,85553572.0,1990328000.0,1990328000.0
sh603161,科华控股,2021-12-28,15.05,15.28,14.57,15.13,14.92,5606311.0,83520952.0,2018342000.0,2018342000.0
sh603161,科华控股,2021-12-29,15.01,15.12,14.69,14.84,15.13,3787700.0,56249976.0,1979656000.0,1979656000.0
sh603161,科华控股,2021-12-30,14.85,14.93,14.75,14.86,14.84,3475200.0,51615440.0,1982324000.0,1982324000.0
sh603161,科华控股,2021-12-31,14.87,14.91,14.57,14.6,14.86,3955000.0,58177369.0,1947640000.0,1947640000.0
sh603161,科华控股,2022-01-04,14.6,15.07,14.54,14.99,14.6,5155000.0,76780553.0,1999666000.0,1999666000.0
sh603161,科华控股,2022-01-05,14.99,14.99,14.3,14.65,14.99,4718900.0,68729413.0,1954310000.0,1954310000.0
sh603161,科华控股,2022-01-06,14.65,15.37,14.5,15.18,14.65,6221000.0,93592152.0,2025012000.0,2025012000.0
sh603161,科华控股,2022-01-07,15.12,15.27,14.62,14.65,15.18,4510277.0,67236183.0,1954310000.0,1954310000.0
sh603161,科华控股,2022-01-10,14.66,14.81,14.45,14.79,14.65,2557400.0,37635344.0,1972986000.0,1972986000.0
sh603161,科华控股,2022-01-11,14.76,15.1,14.7,14.9,14.79,2973700.0,44357797.0,1987660000.0,1987660000.0
sh603161,科华控股,2022-01-12,14.87,15.2,14.8,15.12,14.9,3490777.0,52705009.0,2017008000.0,2017008000.0
sh603161,科华控股,2022-01-13,15.12,15.66,15.01,15.47,15.12,6626035.0,102086996.0,2063698000.0,2063698000.0
sh603161,科华控股,2022-01-14,15.38,15.47,14.95,14.95,15.47,4328440.0,65680952.0,1994330000.0,1994330000.0
