数据由邢不行整理
股票代码,股票名称,交易日期,开盘价,最高价,最低价,收盘价,前收盘价,成交量,成交额,流通市值,总市值
sh601568,N北元,2020-10-20,12.2,14.64,12.2,14.11,10.17,150366989.0,2115845591.0,5095277790.32,50952777790.32
sh601568,北元集团,2020-10-21,13.3,13.6,12.75,12.79,14.11,111615608.0,1456284813.0,4618611122.48,46186111122.48
sh601568,北元集团,2020-10-22,12.49,12.49,12.04,12.1,12.79,70916269.0,862193160.0,4369444455.2,43694444455.2
sh601568,北元集团,2020-10-23,12.1,12.28,11.81,11.92,12.1,53273236.0,640246387.0,4304444455.04,43044444455.04
sh601568,北元集团,2020-10-26,11.86,11.88,11.52,11.57,11.92,38850684.0,451770950.0,4178055565.84,41780555565.84
sh601568,北元集团,2020-10-27,11.48,11.48,11.1,11.16,11.57,47562884.0,533932331.0,4030000009.92,40300000009.92
sh601568,北元集团,2020-10-28,11.1,11.76,10.99,11.44,11.16,48908398.0,560097467.0,4131111121.28,41311111121.28
sh601568,北元集团,2020-10-29,11.16,11.33,11.09,11.12,11.44,35291634.0,393658204.0,4015555565.44,40155555565.44
sh601568,北元集团,2020-10-30,11.11,11.17,10.63,10.66,11.12,41289646.0,450053553.0,3849444453.92,38494444453.92
sh601568,北元集团,2020-11-02,10.66,10.72,10.34,10.43,10.66,29767867.0,311747061.0,3766388898.16,37663888898.16
sh601568,北元集团,2020-11-03,10.52,10.74,10.45,10.63,10.43,25433120.0,270176297.0,3838611120.56,38386111120.560005
sh601568,北元集团,2020-11-04,10.63,10.95,10.55,10.78,10.63,30072373.0,324031435.0,3892777787.36,38927777787.36
sh601568,北元集团,2020-11-05,10.83,10.87,10.66,10.75,10.78,24901464.0,267401542.0,3881944454.000001,38819444454.0
sh601568,北元集团,2020-11-06,10.75,10.75,10.53,10.6,10.75,24060478.0,255168354.0,3827777787.2,38277777787.2
sh601568,北元集团,2020-11-09,10.66,11.26,10.66,11.16,10.6,47535563.0,521621651.0,4030000009.92,40300000009.92
sh601568,北元集团,2020-11-10,11.2,11.21,10.92,10.97,11.16,28476037.0,313279399.0,3961388898.64,39613888898.64
sh601568,北元集团,2020-11-11,10.87,11.36,10.87,11.2,10.97,44384850.0,497243268.0,4044444454.4,40444444454.4
sh601568,北元集团,2020-11-12,11.14,11.16,11.01,11.07,11.2,22711113.0,251057344.0,3997500009.84,39975000009.84
sh601568,北元集团,2020-11-13,11.0,11.02,10.82,10.88,11.07,19584618.0,213200595.0,3928888898.56,39288888898.56
sh601568,北元集团,2020-11-16,10.93,11.4,10.85,11.27,10.88,37425370.0,418591992.0,4069722232.24,40697222232.2
sh601568,北元集团,2020-11-17,11.3,11.6,11.13,11.23,11.27,36726425.0,415649697.0,4055277787.76,40552777787.8
sh601568,北元集团,2020-11-18,11.18,11.38,11.09,11.3,11.23,27610697.0,310394967.0,4080555565.6,40805555565.6
sh601568,北元集团,2020-11-19,11.25,11.3,10.94,11.0,11.3,32165140.0,355814816.0,3972222232.0,39722222232.0
sh601568,北元集团,2020-11-20,10.9,10.96,10.74,10.89,11.0,25927596.0,281084671.0,3932500009.68,39325000009.68
sh601568,北元集团,2020-11-23,10.94,11.16,10.91,11.14,10.89,30965368.0,342753098.0,4022777787.68,40227777787.68
sh601568,北元集团,2020-11-24,11.15,11.28,10.96,11.05,11.14,23323844.0,258598772.0,3990277787.6,39902777787.6
sh601568,北元集团,2020-11-25,11.03,11.07,10.81,10.81,11.05,23896293.0,260125998.0,3903611120.72,39036111120.72
sh601568,北元集团,2020-11-26,10.78,10.88,10.69,10.74,10.81,14064283.0,151082691.0,3878333342.88,38783333342.880005
sh601568,北元集团,2020-11-27,10.71,10.78,10.63,10.76,10.74,12960508.0,138687734.0,3885555565.12,38855555565.12
sh601568,北元集团,2020-11-30,10.75,10.84,10.67,10.75,10.76,13503185.0,145351515.0,3881944454.000001,38819444454.0
sh601568,北元集团,2020-12-01,10.71,10.78,10.68,10.77,10.75,12406410.0,133353296.0,3889166676.24,38891666676.24
sh601568,北元集团,2020-12-02,10.79,10.94,10.72,10.88,10.77,20185218.0,218774796.0,3928888898.56,39288888898.56
sh601568,北元集团,2020-12-03,10.86,10.86,10.72,10.74,10.88,16011294.0,172255864.0,3878333342.88,38783333342.880005
sh601568,北元集团,2020-12-04,10.74,10.74,10.63,10.69,10.74,11604786.0,123881713.0,3860277787.28,38602777787.28
sh601568,北元集团,2020-12-07,10.68,10.69,10.6,10.61,10.69,10199930.0,108345791.0,3831388898.32,38313888898.32
sh601568,北元集团,2020-12-08,10.6,10.61,10.52,10.52,10.61,10043159.0,105920398.0,3798888898.24,37988888898.240005
sh601568,北元集团,2020-12-09,10.54,10.61,10.48,10.52,10.52,10894469.0,114875907.0,3798888898.24,37988888898.240005
sh601568,北元集团,2020-12-10,10.62,10.97,10.62,10.79,10.52,30732976.0,332256972.0,3896388898.48,38963888898.48
sh601568,北元集团,2020-12-11,10.71,10.78,10.48,10.51,10.79,20471812.0,216090906.0,3795277787.12,37952777787.12
sh601568,北元集团,2020-12-14,10.53,10.56,10.35,10.4,10.51,13823836.0,143780234.0,3755555564.8,37555555564.8
sh601568,北元集团,2020-12-15,10.4,10.53,10.35,10.43,10.4,8586850.0,89445366.0,3766388898.16,37663888898.16
sh601568,北元集团,2020-12-16,10.37,10.42,10.2,10.22,10.43,15271741.0,156820267.0,3690555564.64,36905555564.64
sh601568,北元集团,2020-12-17,10.14,10.24,10.02,10.2,10.22,13143218.0,133286341.0,3683333342.4,36833333342.4
sh601568,北元集团,2020-12-18,10.2,10.26,10.11,10.14,10.2,8872076.0,90160130.0,3661666675.68,36616666675.68
sh601568,北元集团,2020-12-21,10.11,10.17,10.03,10.16,10.14,9333568.0,94398026.0,3668888897.92,36688888897.92
sh601568,北元集团,2020-12-22,10.14,10.14,9.87,9.89,10.16,16594306.0,165872350.0,3571388897.68,35713888897.68
sh601568,北元集团,2020-12-23,9.89,10.0,9.82,9.85,9.89,11185874.0,110461829.0,3556944453.2,35569444453.2
sh601568,北元集团,2020-12-24,9.89,9.89,9.45,9.47,9.85,18105832.0,173854077.0,3419722230.6400003,34197222230.64
sh601568,北元集团,2020-12-25,9.42,9.46,9.25,9.35,9.47,13742591.0,128519153.0,3376388897.2,33763888897.2
sh601568,北元集团,2020-12-28,9.36,9.39,9.07,9.08,9.35,13510285.0,123940180.0,3278888896.96,32788888896.960003
sh601568,北元集团,2020-12-29,9.06,9.46,9.06,9.3,9.08,13876093.0,128338060.0,3358333341.6000004,33583333341.6
sh601568,北元集团,2020-12-30,9.23,9.25,9.11,9.14,9.3,9362276.0,85870412.0,3300555563.68,33005555563.68
sh601568,北元集团,2020-12-31,9.12,9.27,9.12,9.19,9.14,8286823.0,76243083.0,3318611119.28,33186111119.280003
sh601568,北元集团,2021-01-04,9.19,9.28,9.16,9.25,9.19,9132004.0,84349707.0,3340277786.0,33402777786.0
sh601568,北元集团,2021-01-05,9.22,9.26,9.13,9.18,9.25,9823099.0,90119980.0,3315000008.16,33150000008.16
sh601568,北元集团,2021-01-06,9.18,9.28,9.12,9.22,9.18,11192176.0,102966598.0,3329444452.64,33294444452.64
sh601568,北元集团,2021-01-07,9.22,9.22,8.88,8.89,9.22,18134842.0,163418219.0,3210277785.6800003,32102777785.68
sh601568,北元集团,2021-01-08,8.88,8.88,8.5,8.72,8.89,13075821.0,113535674.0,3148888896.6400003,31488888896.64
sh601568,北元集团,2021-01-11,8.68,8.74,8.4,8.43,8.72,13338533.0,113828479.0,3044166674.16,30441666674.16
sh601568,北元集团,2021-01-12,8.4,8.59,8.37,8.45,8.43,7307453.0,61966952.0,3051388896.4,30513888896.4
sh601568,北元集团,2021-01-13,8.46,8.46,8.26,8.28,8.45,10311700.0,85731800.0,2990000007.36,29900000007.36
sh601568,北元集团,2021-01-14,8.25,8.44,8.24,8.36,8.28,9650044.0,80764555.0,3018888896.32,30188888896.32
sh601568,北元集团,2021-01-15,8.39,8.76,8.34,8.67,8.36,15744926.0,135586920.0,3130833341.04,31308333341.04
sh601568,北元集团,2021-01-18,8.68,8.84,8.6,8.7,8.67,11457606.0,99871341.0,3141666674.4,31416666674.4
sh601568,北元集团,2021-01-19,8.7,8.84,8.66,8.71,8.7,10363163.0,90736306.0,3145277785.52,31452777785.52
sh601568,北元集团,2021-01-20,8.7,8.75,8.63,8.68,8.71,6646105.0,57693627.0,3134444452.1600003,31344444452.16
sh601568,北元集团,2021-01-21,8.66,8.78,8.61,8.72,8.68,8650042.0,75254623.0,3148888896.6400003,31488888896.64
sh601568,北元集团,2021-01-22,8.72,8.72,8.52,8.55,8.72,8066236.0,69304500.0,3087500007.6000004,30875000007.6
sh601568,北元集团,2021-01-25,8.55,8.57,8.35,8.36,8.55,8247805.0,69541321.0,3018888896.32,30188888896.32
sh601568,北元集团,2021-01-26,8.34,8.83,8.29,8.66,8.36,14407799.0,123971708.0,3127222229.92,31272222229.92
sh601568,北元集团,2021-01-27,8.61,8.81,8.56,8.66,8.66,10495163.0,90890633.0,3127222229.92,31272222229.92
sh601568,北元集团,2021-01-28,8.61,8.97,8.53,8.75,8.66,17997487.0,158766526.0,3159722230.0,31597222230.000004
sh601568,北元集团,2021-01-29,8.71,8.96,8.67,8.94,8.75,20829011.0,184481502.0,3228333341.28,32283333341.28
sh601568,北元集团,2021-02-01,8.91,9.16,8.9,9.06,8.94,17212066.0,155373379.0,3271666674.72,32716666674.72
sh601568,北元集团,2021-02-02,9.06,9.06,8.76,8.82,9.06,14643132.0,129830107.0,3185000007.84,31850000007.84
sh601568,北元集团,2021-02-03,8.85,8.85,8.49,8.5,8.82,11763800.0,101454367.0,3069444452.0,30694444452.0
sh601568,北元集团,2021-02-04,8.47,8.51,8.2,8.29,8.5,9652738.0,80455305.0,2993611118.4799995,29936111118.48
sh601568,北元集团,2021-02-05,8.29,8.42,8.24,8.29,8.29,6855704.0,57162283.0,2993611118.4799995,29936111118.48
sh601568,北元集团,2021-02-08,8.31,8.47,8.3,8.4,8.29,7194442.0,60566686.0,3033333340.8,30333333340.8
sh601568,北元集团,2021-02-09,8.35,8.51,8.35,8.45,8.4,8972464.0,75696957.0,3051388896.4,30513888896.4
sh601568,北元集团,2021-02-10,8.41,8.54,8.4,8.44,8.45,6887008.0,58203680.0,3047777785.28,30477777785.280003
sh601568,北元集团,2021-02-18,8.6,8.75,8.58,8.71,8.44,11369515.0,98615392.0,3145277785.52,31452777785.52
sh601568,北元集团,2021-02-19,8.75,9.49,8.7,9.41,8.71,32960710.0,304661986.0,3398055563.92,33980555563.92
sh601568,北元集团,2021-02-22,9.56,10.08,9.4,9.92,9.41,49468143.0,487750556.0,3582222231.04,35822222231.04
sh601568,北元集团,2021-02-23,9.99,10.23,9.63,9.69,9.92,32459580.0,319666172.0,3499166675.28,34991666675.28
sh601568,北元集团,2021-02-24,9.69,9.75,9.22,9.32,9.69,30629388.0,288926483.0,3365555563.84,33655555563.84
sh601568,北元集团,2021-02-25,9.42,9.6,9.26,9.45,9.32,21962218.0,207050016.0,3412500008.4,34125000008.4
sh601568,北元集团,2021-02-26,9.25,9.27,9.1,9.19,9.45,15654572.0,143936884.0,3318611119.28,33186111119.280003
sh601568,北元集团,2021-03-01,9.24,9.54,9.21,9.51,9.19,17372579.0,163722873.0,3434166675.1200004,34341666675.12
sh601568,北元集团,2021-03-02,9.51,9.52,9.21,9.24,9.51,13810283.0,128440419.0,3336666674.88,33366666674.88
sh601568,北元集团,2021-03-03,9.26,9.43,9.25,9.33,9.24,13676675.0,127535037.0,3369166674.96,33691666674.96
sh601568,北元集团,2021-03-04,9.25,9.27,9.12,9.15,9.33,11928927.0,109519858.0,3304166674.8,33041666674.8
sh601568,北元集团,2021-03-05,9.1,9.2,9.08,9.17,9.15,6812856.0,62418095.0,3311388897.0399995,33113888897.04
sh601568,北元集团,2021-03-08,9.24,9.4,9.2,9.2,9.17,12002571.0,111585873.0,3322222230.4,33222222230.4
sh601568,北元集团,2021-03-09,9.14,9.2,8.65,8.89,9.2,12862659.0,115160196.0,3210277785.6800003,32102777785.68
sh601568,北元集团,2021-03-10,8.9,8.99,8.57,8.6,8.89,11217196.0,97940900.0,3105555563.2,31055555563.2
sh601568,北元集团,2021-03-11,8.63,8.87,8.63,8.82,8.6,7107840.0,62374477.0,3185000007.84,31850000007.84
sh601568,北元集团,2021-03-12,8.82,8.93,8.75,8.88,8.82,6726566.0,59669996.0,3206666674.56,32066666674.56
sh601568,北元集团,2021-03-15,8.93,9.38,8.93,9.24,8.88,17959785.0,165080667.0,3336666674.88,33366666674.88
sh601568,北元集团,2021-03-16,9.31,9.34,9.11,9.26,9.24,11329581.0,104272861.0,3343888897.12,33438888897.12
sh601568,北元集团,2021-03-17,9.15,9.25,9.13,9.17,9.26,6946985.0,63786868.0,3311388897.0399995,33113888897.04
sh601568,北元集团,2021-03-18,9.2,9.38,9.14,9.31,9.17,14571346.0,135423298.0,3361944452.72,33619444452.72
sh601568,北元集团,2021-03-19,9.28,9.32,9.17,9.26,9.31,11098300.0,102672059.0,3343888897.12,33438888897.12
sh601568,北元集团,2021-03-22,9.26,9.35,9.2,9.33,9.26,10849142.0,100941023.0,3369166674.96,33691666674.96
sh601568,北元集团,2021-03-23,9.33,9.6,9.17,9.18,9.33,13995674.0,130600223.0,3315000008.16,33150000008.16
sh601568,北元集团,2021-03-24,9.08,9.18,8.9,8.92,9.18,13298847.0,119675510.0,3221111119.04,32211111119.04
sh601568,北元集团,2021-03-25,8.93,9.05,8.9,8.91,8.92,5445423.0,48808197.0,3217500007.92,32175000007.92
sh601568,北元集团,2021-03-26,8.91,8.98,8.91,8.96,8.91,5499285.0,49168972.0,3235555563.52,32355555563.52
sh601568,北元集团,2021-03-29,8.99,9.2,8.95,9.17,8.96,9231631.0,84094802.0,3311388897.0399995,33113888897.04
sh601568,北元集团,2021-03-30,9.17,9.21,9.03,9.08,9.17,7380794.0,67108111.0,3278888896.96,32788888896.960003
sh601568,北元集团,2021-03-31,9.09,9.21,8.98,9.2,9.08,9228168.0,84127492.0,3322222230.4,33222222230.4
sh601568,北元集团,2021-04-01,9.2,9.24,9.12,9.18,9.2,6423764.0,58886078.0,3315000008.16,33150000008.16
sh601568,北元集团,2021-04-02,9.21,9.35,9.19,9.26,9.18,10108907.0,93617045.0,3343888897.12,33438888897.12
sh601568,北元集团,2021-04-06,9.3,9.38,9.21,9.3,9.26,8022499.0,74481492.0,3358333341.6000004,33583333341.6
sh601568,北元集团,2021-04-07,9.33,9.57,9.25,9.55,9.3,21519825.0,203636874.0,3448611119.6,34486111119.6
sh601568,北元集团,2021-04-08,9.5,9.87,9.47,9.66,9.55,30380835.0,295278550.0,3488333341.92,34883333341.92
sh601568,北元集团,2021-04-09,9.63,9.64,9.41,9.47,9.66,15983377.0,151564507.0,3419722230.6400003,34197222230.64
sh601568,北元集团,2021-04-12,9.42,9.42,9.24,9.25,9.47,11213592.0,104410336.0,3340277786.0,33402777786.0
sh601568,北元集团,2021-04-13,9.25,9.26,9.04,9.06,9.25,10119292.0,92186091.0,3271666674.72,32716666674.72
sh601568,北元集团,2021-04-14,9.05,9.18,9.04,9.16,9.06,5677100.0,51797043.0,3307777785.92,33077777785.92
sh601568,北元集团,2021-04-15,9.16,9.17,9.06,9.11,9.16,4945339.0,44952692.0,3289722230.32,32897222230.32
sh601568,北元集团,2021-04-16,9.1,9.25,9.09,9.23,9.11,5952437.0,54654052.0,3333055563.76,33330555563.76
sh601568,北元集团,2021-04-19,9.27,9.38,9.21,9.38,9.23,8210014.0,76339437.0,3387222230.56,33872222230.56
sh601568,北元集团,2021-04-20,9.35,9.43,9.22,9.24,9.38,12088758.0,112273408.0,3336666674.88,33366666674.88
sh601568,北元集团,2021-04-21,9.19,9.25,9.12,9.13,9.24,6955050.0,63726164.0,3296944452.56,32969444452.56
sh601568,北元集团,2021-04-22,9.13,9.19,9.08,9.11,9.13,7218773.0,65862001.0,3289722230.32,32897222230.32
sh601568,北元集团,2021-04-23,9.09,9.15,9.04,9.09,9.11,5719729.0,51919019.0,3282500008.08,32825000008.08
sh601568,北元集团,2021-04-26,9.06,9.13,9.05,9.09,9.09,4465086.0,40592788.0,3282500008.08,32825000008.08
sh601568,北元集团,2021-04-27,9.1,9.12,8.83,8.87,9.09,8484551.0,75624775.0,3203055563.44,32030555563.44
sh601568,北元集团,2021-04-28,8.86,8.92,8.85,8.9,8.87,3659647.0,32540897.0,3213888896.8,32138888896.8
sh601568,北元集团,2021-04-29,8.9,8.9,8.84,8.86,8.9,4357005.0,38634045.0,3199444452.32,31994444452.320004
sh601568,北元集团,2021-04-30,8.85,8.85,8.67,8.76,8.86,5655712.0,49470712.0,3163333341.12,31633333341.120003
sh601568,北元集团,2021-05-06,8.74,8.85,8.74,8.82,8.76,3067639.0,27037035.0,3185000007.84,31850000007.84
sh601568,北元集团,2021-05-07,8.86,9.05,8.85,8.98,8.82,7565013.0,67935083.0,3242777785.76,32427777785.76
sh601568,北元集团,2021-05-10,9.0,9.0,8.89,8.93,8.98,5048245.0,45031452.0,3224722230.16,32247222230.16
sh601568,北元集团,2021-05-11,8.9,8.92,8.77,8.88,8.93,4838925.0,42807735.0,3206666674.56,32066666674.56
sh601568,北元集团,2021-05-12,8.88,8.93,8.83,8.91,8.88,4003865.0,35590858.0,3217500007.92,32175000007.92
sh601568,北元集团,2021-05-13,8.86,8.91,8.81,8.82,8.91,4022922.0,35638078.0,3185000007.84,31850000007.84
sh601568,北元集团,2021-05-14,8.82,8.91,8.82,8.89,8.82,3574400.0,31732560.0,3210277785.6800003,32102777785.68
sh601568,北元集团,2021-05-17,8.92,8.94,8.88,8.89,8.89,3570000.0,31755893.0,3210277785.6800003,32102777785.68
sh601568,北元集团,2021-05-18,8.89,8.95,8.88,8.93,8.89,3465198.0,30904320.0,3224722230.16,32247222230.16
sh601568,北元集团,2021-05-19,8.96,9.08,8.93,9.04,8.93,6238498.0,56272527.0,3264444452.4799995,32644444452.48
sh601568,北元集团,2021-05-20,9.05,9.05,8.91,8.98,9.04,5072661.0,45442024.0,3242777785.76,32427777785.76
sh601568,北元集团,2021-05-21,8.99,9.0,8.92,8.95,8.98,2897300.0,25930919.0,3231944452.4,32319444452.4
sh601568,北元集团,2021-05-24,8.95,9.05,8.93,9.02,8.95,4004669.0,36057140.0,3257222230.24,32572222230.24
sh601568,北元集团,2021-05-25,9.01,9.05,8.99,9.04,9.02,4930700.0,44486289.0,3264444452.4799995,32644444452.48
sh601568,XD北元集,2021-05-26,8.85,8.85,8.75,8.79,8.79,5139555.0,45189521.0,3174166674.48,31741666674.48
sh601568,北元集团,2021-05-27,8.8,8.82,8.75,8.76,8.79,5597100.0,49062481.0,3163333341.12,31633333341.120003
sh601568,北元集团,2021-05-28,8.78,8.79,8.68,8.7,8.76,5672115.0,49466142.0,3141666674.4,31416666674.4
sh601568,北元集团,2021-05-31,8.72,8.82,8.69,8.8,8.7,6098487.0,53571481.0,3177777785.6,31777777785.6
sh601568,北元集团,2021-06-01,8.78,8.82,8.74,8.81,8.8,4663477.0,40932784.0,3181388896.7200003,31813888896.72
sh601568,北元集团,2021-06-02,8.8,8.88,8.78,8.78,8.81,4973014.0,43853509.0,3170555563.36,31705555563.36
sh601568,北元集团,2021-06-03,8.78,8.83,8.78,8.79,8.78,3970100.0,34971378.0,3174166674.48,31741666674.48
sh601568,北元集团,2021-06-04,8.77,8.8,8.74,8.74,8.79,3926084.0,34392857.0,3156111118.88,31561111118.88
sh601568,北元集团,2021-06-07,8.75,8.78,8.71,8.72,8.74,3795791.0,33151471.0,3148888896.6400003,31488888896.64
sh601568,北元集团,2021-06-08,8.69,8.74,8.69,8.71,8.72,3242294.0,28244489.0,3145277785.52,31452777785.52
sh601568,北元集团,2021-06-09,8.68,8.84,8.68,8.81,8.71,5713669.0,50181900.0,3181388896.7200003,31813888896.72
sh601568,北元集团,2021-06-10,8.8,8.84,8.76,8.81,8.81,5964421.0,52482150.0,3181388896.7200003,31813888896.72
sh601568,北元集团,2021-06-11,8.83,8.92,8.78,8.92,8.81,11148058.0,98496298.0,3221111119.04,32211111119.04
sh601568,北元集团,2021-06-15,8.94,8.99,8.77,8.78,8.92,7485795.0,66169428.0,3170555563.36,31705555563.36
sh601568,北元集团,2021-06-16,8.78,8.8,8.7,8.72,8.78,4874994.0,42532744.0,3148888896.6400003,31488888896.64
sh601568,北元集团,2021-06-17,8.75,8.75,8.69,8.7,8.72,3793947.0,33043177.0,3141666674.4,31416666674.4
sh601568,北元集团,2021-06-18,8.71,8.71,8.61,8.64,8.7,4531394.0,39128621.0,3120000007.6800003,31200000007.68
sh601568,北元集团,2021-06-21,8.64,8.66,8.6,8.64,8.64,3786663.0,32685286.0,3120000007.6800003,31200000007.68
sh601568,北元集团,2021-06-22,8.64,8.68,8.63,8.65,8.64,3770822.0,32615109.0,3123611118.8,31236111118.800003
sh601568,北元集团,2021-06-23,8.66,8.68,8.59,8.6,8.65,5536447.0,47707088.0,3105555563.2,31055555563.2
sh601568,北元集团,2021-06-24,8.6,8.61,8.54,8.56,8.6,4872312.0,41684443.0,3091111118.72,30911111118.72
sh601568,北元集团,2021-06-25,8.59,8.68,8.54,8.66,8.56,5079808.0,43747850.0,3127222229.92,31272222229.92
sh601568,北元集团,2021-06-28,8.66,8.66,8.61,8.62,8.66,3213200.0,27708178.0,3112777785.44,31127777785.44
sh601568,北元集团,2021-06-29,8.62,8.63,8.55,8.56,8.62,3123800.0,26784895.0,3091111118.72,30911111118.72
sh601568,北元集团,2021-06-30,8.55,8.59,8.54,8.56,8.56,2901065.0,24817302.0,3091111118.72,30911111118.72
sh601568,北元集团,2021-07-01,8.58,8.65,8.55,8.56,8.56,4024027.0,34544918.0,3091111118.72,30911111118.72
sh601568,北元集团,2021-07-02,8.58,8.58,8.46,8.47,8.56,4208100.0,35734101.0,3058611118.64,30586111118.64
sh601568,北元集团,2021-07-05,8.47,8.51,8.43,8.47,8.47,2830341.0,23927667.0,3058611118.64,30586111118.64
sh601568,北元集团,2021-07-06,8.46,8.52,8.45,8.51,8.47,2896229.0,24593426.0,3073055563.12,30730555563.12
sh601568,北元集团,2021-07-07,8.51,8.52,8.46,8.51,8.51,3007447.0,25512707.0,3073055563.12,30730555563.12
sh601568,北元集团,2021-07-08,8.51,8.52,8.45,8.45,8.51,3133500.0,26543437.0,3051388896.4,30513888896.4
sh601568,北元集团,2021-07-09,8.64,8.76,8.59,8.73,8.45,13986040.0,121702920.0,3152500007.76,31525000007.76
sh601568,北元集团,2021-07-12,8.75,8.79,8.67,8.71,8.73,7277700.0,63465349.0,3145277785.52,31452777785.52
sh601568,北元集团,2021-07-13,8.72,8.75,8.63,8.69,8.71,5533847.0,48088197.0,3138055563.28,31380555563.28
sh601568,北元集团,2021-07-14,8.71,8.73,8.67,8.67,8.69,4470200.0,38867464.0,3130833341.04,31308333341.04
sh601568,北元集团,2021-07-15,8.65,8.69,8.59,8.63,8.67,4498000.0,38815766.0,3116388896.56,31163888896.56
sh601568,北元集团,2021-07-16,8.62,9.1,8.61,8.96,8.63,22077307.0,196644255.0,3235555563.52,32355555563.52
sh601568,北元集团,2021-07-19,8.96,9.07,8.8,8.86,8.96,10882927.0,96822993.0,3199444452.32,31994444452.320004
sh601568,北元集团,2021-07-20,8.76,9.03,8.74,8.88,8.86,8833841.0,78283938.0,3206666674.56,32066666674.56
sh601568,北元集团,2021-07-21,8.89,8.96,8.82,8.85,8.88,6655726.0,59004597.0,3195833341.2000003,31958333341.2
sh601568,北元集团,2021-07-22,8.87,8.93,8.81,8.87,8.85,7793623.0,69035715.0,3203055563.44,32030555563.44
sh601568,北元集团,2021-07-23,8.9,9.03,8.88,8.9,8.87,10312532.0,92298367.0,3213888896.8,32138888896.8
sh601568,北元集团,2021-07-26,8.93,8.97,8.66,8.74,8.9,9138495.0,80165169.0,3156111118.88,31561111118.88
sh601568,北元集团,2021-07-27,8.77,8.81,8.59,8.59,8.74,7497795.0,65142567.0,3101944452.0800004,31019444452.08
sh601568,北元集团,2021-07-28,8.56,8.57,8.37,8.45,8.59,6241972.0,52828335.0,3051388896.4,30513888896.4
sh601568,北元集团,2021-07-29,8.54,8.56,8.43,8.46,8.45,5180600.0,43878298.0,3055000007.52,30550000007.52
sh601568,北元集团,2021-07-30,8.46,8.53,8.38,8.48,8.46,4715149.0,39831557.0,3062222229.76,30622222229.76
sh601568,北元集团,2021-08-02,8.48,8.56,8.4,8.55,8.48,5200642.0,44140295.0,3087500007.6000004,30875000007.6
sh601568,北元集团,2021-08-03,8.54,8.61,8.5,8.6,8.55,5726847.0,48998484.0,3105555563.2,31055555563.2
sh601568,北元集团,2021-08-04,8.58,8.59,8.53,8.56,8.6,4300600.0,36795113.0,3091111118.72,30911111118.72
sh601568,北元集团,2021-08-05,8.57,8.59,8.51,8.51,8.56,3995300.0,34145728.0,3073055563.12,30730555563.12
sh601568,北元集团,2021-08-06,8.53,8.53,8.43,8.49,8.51,3790800.0,32105880.0,3065833340.88,30658333340.88
sh601568,北元集团,2021-08-09,8.49,8.68,8.48,8.64,8.49,6964347.0,59960877.0,3120000007.6800003,31200000007.68
sh601568,北元集团,2021-08-10,8.65,8.66,8.59,8.66,8.64,4144838.0,35766690.0,3127222229.92,31272222229.92
sh601568,北元集团,2021-08-11,8.65,8.66,8.61,8.65,8.66,4792275.0,41368395.0,3123611118.8,31236111118.800003
sh601568,北元集团,2021-08-12,8.63,8.8,8.62,8.73,8.65,7939660.0,69239854.0,3152500007.76,31525000007.76
sh601568,北元集团,2021-08-13,8.71,8.79,8.68,8.74,8.73,6310095.0,55031516.0,3156111118.88,31561111118.88
sh601568,北元集团,2021-08-16,8.77,8.85,8.74,8.78,8.74,6458900.0,56789622.0,3170555563.36,31705555563.36
sh601568,北元集团,2021-08-17,8.75,8.83,8.65,8.67,8.78,6482700.0,56606642.0,3130833341.04,31308333341.04
sh601568,北元集团,2021-08-18,8.7,8.74,8.58,8.74,8.67,6157175.0,53376304.0,3156111118.88,31561111118.88
sh601568,北元集团,2021-08-19,8.76,8.9,8.74,8.74,8.74,11536627.0,101729669.0,3156111118.88,31561111118.88
sh601568,北元集团,2021-08-20,8.7,8.7,8.49,8.58,8.74,10796000.0,92287994.0,3098333340.96,30983333340.96
sh601568,北元集团,2021-08-23,8.59,8.75,8.58,8.72,8.58,8544717.0,74201975.0,3148888896.6400003,31488888896.64
sh601568,北元集团,2021-08-24,8.71,8.84,8.68,8.83,8.72,11475319.0,101027040.0,3188611118.96,31886111118.96
sh601568,北元集团,2021-08-25,8.81,8.88,8.74,8.88,8.83,10617307.0,93677818.0,3206666674.56,32066666674.56
sh601568,北元集团,2021-08-26,8.87,8.88,8.78,8.8,8.88,7690295.0,67870878.0,3177777785.6,31777777785.6
sh601568,北元集团,2021-08-27,8.78,9.05,8.73,9.04,8.8,20549550.0,183714710.0,3264444452.4799995,32644444452.48
sh601568,北元集团,2021-08-30,9.12,9.29,8.93,9.06,9.04,26060354.0,237128315.0,3271666674.72,32716666674.72
sh601568,北元集团,2021-08-31,9.04,9.81,9.02,9.59,9.06,49928729.0,472117463.0,3463055564.08,34630555564.08
sh601568,北元集团,2021-09-01,9.56,9.7,9.31,9.35,9.59,33455174.0,316070460.0,3376388897.2,33763888897.2
sh601568,北元集团,2021-09-02,9.29,9.62,9.22,9.52,9.35,23876827.0,225659861.0,3437777786.24,34377777786.24
sh601568,北元集团,2021-09-03,9.38,9.48,9.16,9.27,9.52,20247244.0,188582686.0,3347500008.24,33475000008.24
sh601568,北元集团,2021-09-06,9.32,9.41,9.19,9.31,9.27,13237474.0,122817699.0,3361944452.72,33619444452.72
sh601568,北元集团,2021-09-07,9.36,9.75,9.35,9.57,9.31,26277400.0,250612423.0,3455833341.84,34558333341.84
sh601568,北元集团,2021-09-08,9.64,10.49,9.55,10.12,9.57,60889651.0,605171335.0,3654444453.44,36544444453.44
sh601568,北元集团,2021-09-09,10.1,10.74,10.02,10.5,10.12,71020871.0,739101364.0,3791666676.0,37916666676.0
sh601568,北元集团,2021-09-10,10.54,10.67,10.01,10.04,10.5,53665019.0,552079180.0,3625555564.48,36255555564.48
sh601568,北元集团,2021-09-13,10.0,10.45,9.92,10.2,10.04,32814805.0,334066636.0,3683333342.4,36833333342.4
sh601568,北元集团,2021-09-14,10.08,10.52,9.82,10.13,10.2,42686910.0,433666808.0,3658055564.56,36580555564.56
sh601568,北元集团,2021-09-15,10.25,10.52,10.0,10.38,10.13,36519390.0,373663760.0,3748333342.56,37483333342.56
sh601568,北元集团,2021-09-16,10.68,10.98,10.32,10.36,10.38,61636423.0,655733579.0,3741111120.32,37411111120.32
sh601568,北元集团,2021-09-17,10.29,10.52,9.76,10.08,10.36,42413315.0,430188485.0,3640000008.96,36400000008.96
sh601568,北元集团,2021-09-22,10.02,10.45,9.98,10.39,10.08,31650357.0,323483896.0,3751944453.68,37519444453.68
sh601568,北元集团,2021-09-23,10.6,10.65,10.14,10.23,10.39,37665390.0,389532396.0,3694166675.76,36941666675.76
sh601568,北元集团,2021-09-24,10.16,10.2,9.65,9.65,10.23,34303076.0,337719760.0,3484722230.8,34847222230.799995
sh601568,北元集团,2021-09-27,9.64,9.77,9.09,9.2,9.65,20110999.0,188049796.0,3322222230.4,33222222230.4
sh601568,北元集团,2021-09-28,9.22,9.33,9.15,9.19,9.2,10075200.0,93008388.0,3318611119.28,33186111119.280003
sh601568,北元集团,2021-09-29,9.19,9.19,8.7,8.77,9.19,20871130.0,186199380.0,3166944452.24,31669444452.24
sh601568,北元集团,2021-09-30,8.88,8.99,8.84,8.93,8.77,8747600.0,77983322.0,3224722230.16,32247222230.16
sh601568,北元集团,2021-10-08,9.0,9.05,8.9,8.95,8.93,7677351.0,68791864.0,3231944452.4,32319444452.4
sh601568,北元集团,2021-10-11,8.95,9.12,8.81,9.03,8.95,10257281.0,92043689.0,3260833341.36,32608333341.36
sh601568,北元集团,2021-10-12,9.08,9.12,8.83,8.95,9.03,12070605.0,108479241.0,3231944452.4,32319444452.4
sh601568,北元集团,2021-10-13,8.89,8.95,8.63,8.72,8.95,11698651.0,102060878.0,3148888896.6400003,31488888896.64
sh601568,北元集团,2021-10-14,8.68,8.78,8.57,8.67,8.72,7166863.0,62081586.0,3130833341.04,31308333341.04
sh601568,北元集团,2021-10-15,8.65,8.76,8.55,8.58,8.67,7989679.0,68959010.0,3098333340.96,30983333340.96
sh601568,北元集团,2021-10-18,8.55,8.64,8.53,8.59,8.58,5931254.0,50945662.0,3101944452.0800004,31019444452.08
sh601568,北元集团,2021-10-19,8.58,8.73,8.58,8.7,8.59,6259482.0,54307703.0,3141666674.4,31416666674.4
sh601568,北元集团,2021-10-20,8.64,8.71,8.56,8.6,8.7,6826254.0,58816071.0,17721112227.0,31055555563.2
sh601568,北元集团,2021-10-21,8.62,8.86,8.61,8.77,8.6,9821135.0,86153167.0,18071413282.65,31669444452.24
sh601568,北元集团,2021-10-22,8.78,8.78,8.65,8.66,8.77,5682200.0,49396457.0,17844747893.7,31272222229.92
sh601568,北元集团,2021-10-25,8.64,8.73,8.61,8.68,8.66,4219479.0,36536853.0,17885959782.6,31344444452.16
sh601568,北元集团,2021-10-26,8.65,8.65,8.4,8.42,8.68,11770532.0,99979406.0,17350205226.9,30405555563.04
sh601568,北元集团,2021-10-27,8.42,8.42,8.11,8.2,8.42,11098700.0,91354169.0,16896874449.0,29611111118.4
sh601568,北元集团,2021-10-28,8.15,8.24,8.03,8.05,8.2,7412110.0,59972735.0,16587785282.25,29069444451.6
sh601568,北元集团,2021-10-29,8.08,8.16,8.06,8.16,8.05,4108602.0,33342879.0,16814450671.2,29466666673.92
sh601568,北元集团,2021-11-01,8.18,8.18,8.1,8.15,8.16,4948800.0,40294617.0,16793844726.75,29430555562.800003
sh601568,北元集团,2021-11-02,8.13,8.13,7.92,7.96,8.15,8644410.0,69406824.0,16402331782.2,28744444451.52
sh601568,北元集团,2021-11-03,7.98,8.08,7.98,8.06,7.96,4491500.0,36103948.0,16608391226.7,29105555562.72
sh601568,北元集团,2021-11-04,8.06,8.08,8.01,8.07,8.06,3772803.0,30362154.0,16628997171.15,29141666673.84
sh601568,北元集团,2021-11-05,8.06,8.07,8.02,8.02,8.07,4107678.0,32994941.0,16525967448.9,28961111118.24
sh601568,北元集团,2021-11-08,8.03,8.06,7.95,8.04,8.02,3479800.0,27912877.0,16567179337.8,29033333340.480003
sh601568,北元集团,2021-11-09,8.07,8.16,8.02,8.16,8.04,4870929.0,39398987.0,16814450671.2,29466666673.92
sh601568,北元集团,2021-11-10,8.16,8.16,8.06,8.14,8.16,4450084.0,36066692.0,16773238782.3,29394444451.68
sh601568,北元集团,2021-11-11,8.15,8.21,8.12,8.18,8.14,4599067.0,37605166.0,16855662560.099998,29538888896.16
sh601568,北元集团,2021-11-12,8.2,8.24,8.13,8.22,8.18,4768400.0,39044562.0,16938086337.900002,29683333340.64
sh601568,北元集团,2021-11-15,8.24,8.25,8.15,8.21,8.22,4629500.0,37852066.0,16917480393.45,29647222229.52
sh601568,北元集团,2021-11-16,8.19,8.23,8.13,8.14,8.21,4301700.0,35158918.0,16773238782.3,29394444451.68
sh601568,北元集团,2021-11-17,8.14,8.18,8.09,8.16,8.14,3529465.0,28737502.0,16814450671.2,29466666673.92
sh601568,北元集团,2021-11-18,8.19,8.2,8.11,8.12,8.16,4647203.0,37888078.0,16732026893.4,29322222229.44
sh601568,北元集团,2021-11-19,8.11,8.27,8.1,8.26,8.12,7417884.0,60860408.0,17020510115.7,29827777785.120003
sh601568,北元集团,2021-11-22,8.25,8.29,8.2,8.24,8.26,4644195.0,38209511.0,16979298226.8,29755555562.88
sh601568,北元集团,2021-11-23,8.23,8.34,8.21,8.3,8.24,5738351.0,47549418.0,17102933893.5,29972222229.6
sh601568,北元集团,2021-11-24,8.3,8.3,8.2,8.26,8.3,5767729.0,47526614.0,17020510115.7,29827777785.120003
sh601568,北元集团,2021-11-25,8.26,8.26,8.21,8.22,8.26,4962929.0,40846797.0,16938086337.900002,29683333340.64
sh601568,北元集团,2021-11-26,8.23,8.27,8.17,8.19,8.22,5412200.0,44368703.0,16876268504.550001,29575000007.28
sh601568,北元集团,2021-11-29,8.08,8.14,8.06,8.1,8.19,5642017.0,45721643.0,16690815004.5,29250000007.2
sh601568,北元集团,2021-11-30,8.1,8.15,8.09,8.12,8.1,6321588.0,51281635.0,16732026893.4,29322222229.44
sh601568,北元集团,2021-12-01,8.12,8.25,8.08,8.25,8.12,9379722.0,76692797.0,16999904171.25,29791666674.0
sh601568,北元集团,2021-12-02,8.22,8.32,8.2,8.3,8.25,9389692.0,77593157.0,17102933893.5,29972222229.6
sh601568,北元集团,2021-12-03,8.26,8.32,8.24,8.3,8.3,6867197.0,56858242.0,17102933893.5,29972222229.6
sh601568,北元集团,2021-12-06,8.32,8.33,8.21,8.21,8.3,7009647.0,57852175.0,16917480393.449999,29647222229.52
sh601568,北元集团,2021-12-07,8.23,8.25,8.17,8.22,8.21,5776292.0,47331253.0,16938086337.900002,29683333340.64
sh601568,北元集团,2021-12-08,8.25,8.26,8.18,8.21,8.22,6925900.0,56853181.0,16917480393.449999,29647222229.52
sh601568,北元集团,2021-12-09,8.21,8.23,8.18,8.23,8.21,8168100.0,67069075.0,16958692282.35,29719444451.76
sh601568,北元集团,2021-12-10,8.22,8.22,8.16,8.17,8.23,8118800.0,66496197.0,16835056615.65,29502777785.04
sh601568,北元集团,2021-12-13,8.19,8.2,8.16,8.17,8.17,8292412.0,67799969.0,16835056615.65,29502777785.04
sh601568,北元集团,2021-12-14,8.15,8.16,8.11,8.12,8.17,7467567.0,60653075.0,16732026893.4,29322222229.44
sh601568,北元集团,2021-12-15,8.14,8.15,8.11,8.14,8.12,6590942.0,53630084.0,16773238782.3,29394444451.68
sh601568,北元集团,2021-12-16,8.15,8.19,8.11,8.19,8.14,7785592.0,63453130.0,16876268504.550001,29575000007.28
sh601568,北元集团,2021-12-17,8.17,8.18,8.13,8.14,8.19,7509100.0,61217262.0,16773238782.3,29394444451.68
sh601568,北元集团,2021-12-20,8.13,8.19,8.1,8.16,8.14,7894600.0,64270179.0,16814450671.2,29466666673.920002
sh601568,北元集团,2021-12-21,8.16,8.19,8.13,8.19,8.16,8063217.0,65854778.0,16876268504.550001,29575000007.28
sh601568,北元集团,2021-12-22,8.2,8.36,8.19,8.36,8.19,22079718.0,183322991.0,17226569560.2,30188888896.32
sh601568,北元集团,2021-12-23,8.39,8.4,8.24,8.27,8.36,12749911.0,105581540.0,17041116060.15,29863888896.24
sh601568,北元集团,2021-12-24,8.29,8.29,8.13,8.14,8.27,11577951.0,94611076.0,16773238782.3,29394444451.68
sh601568,北元集团,2021-12-27,8.13,8.19,8.12,8.16,8.14,5350176.0,43659337.0,16814450671.2,29466666673.920002
sh601568,北元集团,2021-12-28,8.16,8.2,8.14,8.17,8.16,6180900.0,50449926.0,16835056615.65,29502777785.04
sh601568,北元集团,2021-12-29,8.16,8.17,8.12,8.14,8.17,7773916.0,63223299.0,16773238782.3,29394444451.68
sh601568,北元集团,2021-12-30,8.14,8.15,8.11,8.14,8.14,7876206.0,64029567.0,16773238782.3,29394444451.68
sh601568,北元集团,2021-12-31,8.14,8.15,8.11,8.13,8.14,8064500.0,65543351.0,16752632837.85,29358333340.56
sh601568,北元集团,2022-01-04,8.14,8.2,8.13,8.2,8.13,11487887.0,93823401.0,16896874449.0,29611111118.399998
sh601568,北元集团,2022-01-05,8.21,8.23,8.14,8.17,8.2,9566700.0,78067134.0,16835056615.65,29502777785.04
sh601568,北元集团,2022-01-06,8.16,8.19,8.14,8.17,8.17,8321478.0,67993946.0,16835056615.65,29502777785.04
sh601568,北元集团,2022-01-07,8.19,8.28,8.17,8.22,8.17,14825000.0,121842979.0,16938086337.900002,29683333340.64
sh601568,北元集团,2022-01-10,8.25,8.28,8.21,8.27,8.22,9461640.0,77974008.0,17041116060.15,29863888896.24
sh601568,北元集团,2022-01-11,8.27,8.3,8.24,8.27,8.27,10218900.0,84460658.0,17041116060.15,29863888896.24
sh601568,北元集团,2022-01-12,8.28,8.29,8.24,8.26,8.27,9224891.0,76141926.0,17020510115.7,29827777785.120003
sh601568,北元集团,2022-01-13,8.27,8.29,8.24,8.25,8.26,8004200.0,66132671.0,16999904171.25,29791666674.0
sh601568,北元集团,2022-01-14,8.26,8.27,8.15,8.16,8.25,9891700.0,81044118.0,16814450671.2,29466666673.920002
