数据由邢不行整理
股票代码,股票名称,交易日期,开盘价,最高价,最低价,收盘价,前收盘价,成交量,成交额,流通市值,总市值
sh603739,N蔚蓝,2019-01-16,14.67,14.67,14.67,14.67,10.19,53933.0,791197.0,567244890.0,2268964890.0
sh603739,蔚蓝生物,2019-01-17,16.14,16.14,16.14,16.14,14.67,34279.0,553263.0,624085380.0,2496325380.0
sh603739,蔚蓝生物,2019-01-18,17.75,17.75,17.75,17.75,16.14,54500.0,967375.0,686339250.0,2745339250.0
sh603739,蔚蓝生物,2019-01-21,19.53,19.53,19.53,19.53,17.75,72513.0,1416179.0,755166510.0,3020646510.0
sh603739,蔚蓝生物,2019-01-22,21.48,21.48,21.48,21.48,19.53,267695.0,5750089.0,830567160.0,3322247160.0
sh603739,蔚蓝生物,2019-01-23,23.63,23.63,23.63,23.63,21.48,288379.0,6814396.0,913701210.0,3654781210.0
sh603739,蔚蓝生物,2019-01-24,25.99,25.99,25.99,25.99,23.63,147667.0,3837865.0,1004955330.0,4019795330.0
sh603739,蔚蓝生物,2019-01-25,28.59,28.59,28.59,28.59,25.99,243271.0,6955118.0,1105489530.0,4421929530.0
sh603739,蔚蓝生物,2019-01-28,31.45,31.45,31.45,31.45,28.59,2009562.0,63200725.0,1216077150.0,4864277150.0
sh603739,蔚蓝生物,2019-01-29,31.94,34.55,31.94,33.43,31.45,29888899.0,983996276.0,1292637810.0,5170517810.0
sh603739,蔚蓝生物,2019-01-30,30.37,32.5,30.09,30.09,33.43,17993043.0,557450398.0,1163490030.0,4653930030.0
sh603739,蔚蓝生物,2019-01-31,29.03,29.26,27.08,28.87,30.09,17145364.0,477726737.0,1116316290.0,4465236290.0
sh603739,蔚蓝生物,2019-02-01,29.8,31.76,29.38,31.76,28.87,16137756.0,489738339.0,1228063920.0,4912223920.0
sh603739,蔚蓝生物,2019-02-11,33.98,34.94,33.5,34.94,31.76,9852856.0,338605103.0,1351024980.0,5404064980.0
sh603739,蔚蓝生物,2019-02-12,38.43,38.43,33.18,33.44,34.94,29122841.0,1058567513.0,1293024480.0,5172064480.0
sh603739,蔚蓝生物,2019-02-13,32.83,35.3,32.42,34.74,33.44,23313464.0,790057772.0,1343291580.0,5373131580.0
sh603739,蔚蓝生物,2019-02-14,33.34,34.78,32.79,34.11,34.74,17663527.0,596471761.0,1318931370.0,5275691370.0
sh603739,蔚蓝生物,2019-02-15,33.66,36.98,33.51,35.13,34.11,20578474.0,725923093.0,1358371710.0,5433451710.0
sh603739,蔚蓝生物,2019-02-18,34.62,36.35,33.6,36.15,35.13,18562943.0,650570296.0,1397812050.0,5591212050.0
sh603739,蔚蓝生物,2019-02-19,35.67,37.6,35.1,35.95,36.15,18393077.0,667632862.0,1390078650.0,5560278650.0
sh603739,蔚蓝生物,2019-02-20,36.49,37.0,33.5,34.22,35.95,16253577.0,573273424.0,1323184740.0,5292704740.0
sh603739,蔚蓝生物,2019-02-21,33.2,33.9,32.56,33.73,34.22,14006731.0,464999597.0,1304237910.0,5216917910.0
sh603739,蔚蓝生物,2019-02-22,33.22,33.5,32.58,32.97,33.73,9465369.0,312553027.0,1274850990.0,5099370990.0
sh603739,蔚蓝生物,2019-02-25,32.97,34.67,32.75,34.55,32.97,13441854.0,455963403.0,1335944850.0,5343744850.0
sh603739,蔚蓝生物,2019-02-26,34.26,38.01,33.9,38.01,34.55,17052762.0,625218269.0,1469732670.0,5878892670.0
sh603739,蔚蓝生物,2019-02-27,39.0,40.8,35.2,35.82,38.01,22213534.0,838483146.0,1385051940.0,5540171940.0
sh603739,蔚蓝生物,2019-02-28,34.5,36.5,34.34,34.61,35.82,11772546.0,413047518.0,1338264870.0,5353024870.0
sh603739,蔚蓝生物,2019-03-01,34.3,35.89,34.29,35.59,34.61,9300924.0,327121072.0,1376158530.0,5504598530.0
sh603739,蔚蓝生物,2019-03-04,35.4,37.3,35.13,35.8,35.59,13671062.0,492188582.0,1384278600.0,5537078600.0
sh603739,蔚蓝生物,2019-03-05,34.85,35.5,34.6,35.43,35.8,10519436.0,368889340.0,1369971810.0,5479851810.0
sh603739,蔚蓝生物,2019-03-06,36.28,38.5,35.8,36.92,35.43,17630574.0,655072503.0,1427585640.0,5710305640.0
sh603739,蔚蓝生物,2019-03-07,36.25,40.61,36.02,40.61,36.92,20848002.0,815337732.0,1570266870.0,6281026870.0
sh603739,蔚蓝生物,2019-03-08,38.98,39.65,36.55,36.55,40.61,15122223.0,579057393.0,1413278850.0,5653078850.0
sh603739,蔚蓝生物,2019-03-11,35.99,36.5,34.35,36.22,36.55,11738253.0,418046167.0,1400518740.0,5602038740.0
sh603739,蔚蓝生物,2019-03-12,36.22,37.6,35.68,37.2,36.22,12731961.0,468477590.0,1438412400.0,5753612400.0
sh603739,蔚蓝生物,2019-03-13,37.01,37.06,34.3,34.61,37.2,11298400.0,403629197.0,1338264870.0,5353024870.0
sh603739,蔚蓝生物,2019-03-14,33.84,33.87,31.2,31.69,34.61,9739706.0,316105246.0,1225357230.0,4901397230.0
sh603739,蔚蓝生物,2019-03-15,31.88,32.4,31.18,32.12,31.69,5565300.0,177519625.0,1241984040.0,4967904040.0
sh603739,蔚蓝生物,2019-03-18,32.22,33.38,32.22,33.04,32.12,5641265.0,185727255.0,1277557680.0,5110197680.0
sh603739,蔚蓝生物,2019-03-19,33.0,33.44,32.43,33.15,33.04,5402557.0,177613004.0,1281811050.0,5127211050.0
sh603739,蔚蓝生物,2019-03-20,33.0,33.11,31.56,32.65,33.15,5333943.0,172585977.0,1262477550.0,5049877550.0
sh603739,蔚蓝生物,2019-03-21,32.6,32.92,32.12,32.27,32.65,5297006.0,172261834.0,1247784090.0,4991104090.0
sh603739,蔚蓝生物,2019-03-22,32.45,33.47,32.3,32.69,32.27,5083512.0,166854416.0,1264024230.0,5056064230.0
sh603739,蔚蓝生物,2019-03-25,35.9,35.96,33.76,35.96,32.69,9333337.0,332882959.0,1390465320.0,5561825320.0
sh603739,蔚蓝生物,2019-03-26,37.04,37.87,34.2,34.84,35.96,14914095.0,541109509.0,1347158280.0,5388598280.0
sh603739,蔚蓝生物,2019-03-27,33.77,34.34,32.27,33.13,34.84,9053934.0,300000321.0,1281037710.0,5124117710.0
sh603739,蔚蓝生物,2019-03-28,32.55,32.7,30.82,30.93,33.13,8029209.0,255339964.0,1195970310.0,4783850310.0
sh603739,蔚蓝生物,2019-03-29,30.48,31.48,30.41,31.43,30.93,5550593.0,172689163.0,1215303810.0,4861183810.0
sh603739,蔚蓝生物,2019-04-01,31.3,32.72,31.25,32.42,31.43,5522920.0,177831943.0,1253584140.0,5014304140.0
sh603739,蔚蓝生物,2019-04-02,32.53,32.53,31.88,32.2,32.42,5309420.0,170401390.0,1245077400.0,4980277400.0
sh603739,蔚蓝生物,2019-04-03,32.2,33.64,32.0,32.72,32.2,6827633.0,224871041.0,1265184240.0,5060704240.0
sh603739,蔚蓝生物,2019-04-04,32.98,32.99,31.92,32.72,32.72,6563500.0,212960223.0,1265184240.0,5060704240.0
sh603739,蔚蓝生物,2019-04-08,33.17,33.77,32.55,33.24,32.72,7670997.0,254495657.0,1285291080.0,5141131080.0
sh603739,蔚蓝生物,2019-04-09,32.2,32.49,31.25,31.65,33.24,5840000.0,184882654.0,1223810550.0,4895210550.0
sh603739,蔚蓝生物,2019-04-10,31.46,31.62,31.02,31.33,31.65,3084282.0,96539419.0,1211437110.0,4845717110.0
sh603739,蔚蓝生物,2019-04-11,31.26,31.8,30.33,30.5,31.33,3675495.0,113914657.0,1179343500.0,4717343500.0
sh603739,蔚蓝生物,2019-04-12,30.0,32.5,29.91,31.15,30.5,4848232.0,150685976.0,1204477050.0,4817877050.0
sh603739,蔚蓝生物,2019-04-15,31.16,31.5,30.5,30.5,31.15,3347391.0,103979751.0,1179343500.0,4717343500.0
sh603739,蔚蓝生物,2019-04-16,30.35,30.38,29.39,30.38,30.5,4093680.0,122486129.0,1174703460.0,4698783460.0
sh603739,蔚蓝生物,2019-04-17,30.53,31.16,30.13,30.62,30.38,3245912.0,99664700.0,1183983540.0,4735903540.0
sh603739,蔚蓝生物,2019-04-18,30.48,30.62,29.75,29.84,30.62,3195153.0,96230860.0,1153823280.0,4615263280.0
sh603739,蔚蓝生物,2019-04-19,29.97,30.44,29.84,30.1,29.84,1921179.0,57781018.0,1163876700.0,4655476700.0
sh603739,蔚蓝生物,2019-04-22,30.1,31.2,29.98,30.67,30.1,4222757.0,129318169.0,1185916890.0,4743636890.0
sh603739,蔚蓝生物,2019-04-23,30.66,32.5,30.48,31.81,30.67,8432285.0,267543399.0,1229997270.0,4919957270.0
sh603739,蔚蓝生物,2019-04-24,30.85,30.9,28.8,29.23,31.81,7495096.0,220458344.0,1130236410.0,4520916410.0
sh603739,蔚蓝生物,2019-04-25,28.91,30.67,28.54,29.39,29.23,5369455.0,158897108.0,1136423130.0,4545663130.0
sh603739,蔚蓝生物,2019-04-26,28.8,29.0,27.11,27.35,29.39,5545662.0,155186294.0,1057542450.0,4230142450.0
sh603739,蔚蓝生物,2019-04-29,27.42,27.54,24.62,24.63,27.35,5236313.0,133942620.0,952368210.0,3809448210.0
sh603739,蔚蓝生物,2019-04-30,24.53,24.97,24.13,24.87,24.63,2600686.0,64211514.0,961648290.0,3846568290.0
sh603739,蔚蓝生物,2019-05-06,23.9,23.9,22.38,22.38,24.87,3355744.0,77406492.0,865367460.0,3461447460.0
sh603739,蔚蓝生物,2019-05-07,22.7,23.99,22.5,23.33,22.38,3714639.0,85701795.0,902101110.0,3608381110.0
sh603739,蔚蓝生物,2019-05-08,22.38,25.66,22.38,25.36,23.33,8319578.0,207595073.0,980595120.0,3922355120.0
sh603739,蔚蓝生物,2019-05-09,24.48,24.89,23.4,23.66,25.36,5920292.0,143236169.0,914861220.0,3659421220.0
sh603739,蔚蓝生物,2019-05-10,24.24,24.52,23.03,24.21,23.66,4095937.0,98859431.0,936128070.0,3744488070.0
sh603739,蔚蓝生物,2019-05-13,24.05,25.48,23.71,24.97,24.21,5187052.0,128454220.0,965514990.0,3862034990.0
sh603739,蔚蓝生物,2019-05-14,24.55,25.1,24.2,24.32,24.97,3121421.0,76670187.0,940381440.0,3761501440.0
sh603739,蔚蓝生物,2019-05-15,24.68,24.75,24.25,24.68,24.32,2965244.0,72766430.0,954301560.0,3817181560.0
sh603739,蔚蓝生物,2019-05-16,24.45,25.59,24.45,25.26,24.68,4266967.0,107032825.0,976728420.0,3906888420.0
sh603739,蔚蓝生物,2019-05-17,25.39,25.39,23.47,23.7,25.26,3768908.0,92096983.0,916407900.0,3665607900.0
sh603739,蔚蓝生物,2019-05-20,23.72,23.9,22.4,22.91,23.7,2790058.0,64030110.0,885860970.0,3543420970.0
sh603739,蔚蓝生物,2019-05-21,22.95,23.88,22.95,23.65,22.91,2730315.0,64271324.0,914474550.0,3657874550.0
sh603739,蔚蓝生物,2019-05-22,23.7,24.1,22.96,23.2,23.65,2223964.0,52195995.0,897074400.0,3588274400.0
sh603739,蔚蓝生物,2019-05-23,23.05,23.81,22.68,22.82,23.2,2418200.0,56301177.0,882380940.0,3529500940.0
sh603739,蔚蓝生物,2019-05-24,22.58,25.1,22.58,25.1,22.82,4419236.0,106663845.0,970541700.0,3882141700.0
sh603739,蔚蓝生物,2019-05-27,27.61,27.61,25.88,26.74,25.1,13943745.0,377926914.0,1033955580.0,4135795580.0
sh603739,蔚蓝生物,2019-05-28,26.15,29.41,26.1,29.41,26.74,14111253.0,396792831.0,1137196470.0,4548756470.0
sh603739,XD蔚蓝生,2019-05-29,30.53,32.13,30.01,32.13,29.21,15527089.0,489337913.0,1242370710.0,4969450710.0
sh603739,蔚蓝生物,2019-05-30,34.0,35.34,32.15,35.34,32.13,10509668.0,361812459.0,1366491780.0,5465931780.0
sh603739,蔚蓝生物,2019-05-31,37.98,38.87,37.51,38.87,35.34,8153024.0,314169264.0,1502986290.0,6011906290.0
sh603739,蔚蓝生物,2019-06-03,42.76,42.76,34.98,34.98,38.87,22114381.0,869490011.0,1352571660.0,5410251660.0
sh603739,蔚蓝生物,2019-06-04,32.5,34.54,31.48,31.48,34.98,19531457.0,623086744.0,1217237160.0,4868917160.0
sh603739,蔚蓝生物,2019-06-05,30.67,31.98,29.33,30.12,31.48,15001881.0,457890501.0,1164650040.0,4658570040.0
sh603739,蔚蓝生物,2019-06-06,29.6,30.96,28.2,29.1,30.12,11116980.0,328697405.0,1125209700.0,4500809700.0
sh603739,蔚蓝生物,2019-06-10,29.18,30.45,28.12,29.69,29.1,11912316.0,347148476.0,1148023230.0,4592063230.0
sh603739,蔚蓝生物,2019-06-11,29.15,30.88,28.76,30.44,29.69,12730546.0,382031489.0,1177023480.0,4708063480.0
sh603739,蔚蓝生物,2019-06-12,29.96,32.5,29.95,30.8,30.44,14665937.0,459242095.0,1190943600.0,4763743600.0
sh603739,蔚蓝生物,2019-06-13,30.8,30.8,29.0,29.53,30.8,9327892.0,275871257.0,1141836510.0,4567316510.0
sh603739,蔚蓝生物,2019-06-14,29.21,29.76,26.81,27.25,29.53,10328160.0,290715866.0,1053675750.0,4214675750.0
sh603739,蔚蓝生物,2019-06-17,27.27,27.9,26.69,27.2,27.25,6056231.0,165347467.0,1051742400.0,4206942400.0
sh603739,蔚蓝生物,2019-06-18,27.13,28.19,26.99,27.49,27.2,6156369.0,169695582.0,1062955830.0,4251795830.0
sh603739,蔚蓝生物,2019-06-19,28.09,29.69,27.31,28.86,27.49,11455291.0,323967325.0,1115929620.0,4463689620.0
sh603739,蔚蓝生物,2019-06-20,28.2,28.44,27.57,28.02,28.86,7538251.0,210828526.0,1083449340.0,4333769340.0
sh603739,蔚蓝生物,2019-06-21,27.9,28.5,27.86,28.13,28.02,5958888.0,167793505.0,1087702710.0,4350782710.0
sh603739,蔚蓝生物,2019-06-24,28.3,29.5,27.24,29.1,28.13,10604229.0,301583320.0,1125209700.0,4500809700.0
sh603739,蔚蓝生物,2019-06-25,28.62,28.77,27.67,27.8,29.1,6128109.0,172366965.0,1074942600.0,4299742600.0
sh603739,蔚蓝生物,2019-06-26,27.27,28.25,27.14,27.8,27.8,3908884.0,108804834.0,1074942600.0,4299742600.0
sh603739,蔚蓝生物,2019-06-27,27.79,28.39,27.55,28.05,27.8,4683761.0,130823839.0,1084609350.0,4338409350.0
sh603739,蔚蓝生物,2019-06-28,28.01,28.01,26.51,26.84,28.05,4301909.0,116874930.0,1037822280.0,4151262280.0
sh603739,蔚蓝生物,2019-07-01,27.2,27.7,27.2,27.47,26.84,3462486.0,95009573.0,1062182490.0,4248702490.0
sh603739,蔚蓝生物,2019-07-02,27.55,28.97,27.43,28.74,27.47,9487251.0,268490601.0,1111289580.0,4445129580.0
sh603739,蔚蓝生物,2019-07-03,28.55,28.57,27.68,28.36,28.74,6297458.0,177211805.0,1096596120.0,4386356120.0
sh603739,蔚蓝生物,2019-07-04,28.7,28.97,28.09,28.92,28.36,6423937.0,183616858.0,1118249640.0,4472969640.0
sh603739,蔚蓝生物,2019-07-05,29.2,31.81,28.89,31.81,28.92,13431837.0,415226290.0,1229997270.0,4919957270.0
sh603739,蔚蓝生物,2019-07-08,32.56,34.35,30.33,30.87,31.81,17479126.0,567310247.0,1193650290.0,4774570290.0
sh603739,蔚蓝生物,2019-07-09,29.98,30.2,28.51,29.1,30.87,10424866.0,305561311.0,1125209700.0,4500809700.0
sh603739,蔚蓝生物,2019-07-10,28.81,28.9,27.42,27.7,29.1,8145833.0,229877061.0,1071075900.0,4284275900.0
sh603739,蔚蓝生物,2019-07-11,27.93,28.46,27.5,28.19,27.7,6047544.0,169310606.0,1090022730.0,4360062730.0
sh603739,蔚蓝生物,2019-07-12,27.77,28.19,27.07,27.16,28.19,5457003.0,149677779.0,1050195720.0,4200755720.0
sh603739,蔚蓝生物,2019-07-15,26.99,27.39,26.16,27.3,27.16,5002096.0,133876468.0,1055609100.0,4222409100.0
sh603739,蔚蓝生物,2019-07-16,27.35,27.81,27.17,27.72,27.3,4347343.0,119472707.0,1071849240.0,4287369240.0
sh603739,蔚蓝生物,2019-07-17,27.51,28.38,27.33,27.69,27.72,4618884.0,128728167.0,1070689230.0,4282729230.0
sh603739,蔚蓝生物,2019-07-18,27.37,27.6,26.54,26.59,27.69,3251692.0,87910168.0,1028155530.0,4112595530.0
sh603739,蔚蓝生物,2019-07-19,26.84,27.28,26.61,26.61,26.59,2880799.0,77664685.0,1028928870.0,4115688870.0
sh603739,蔚蓝生物,2019-07-22,26.94,26.94,24.71,24.77,26.61,4332520.0,109304630.0,957781590.0,3831101590.0
sh603739,蔚蓝生物,2019-07-23,24.98,25.39,24.56,25.25,24.77,2790736.0,69970448.0,976341750.0,3905341750.0
sh603739,蔚蓝生物,2019-07-24,25.25,25.8,25.25,25.4,25.25,2908786.0,74212419.0,982141800.0,3928541800.0
sh603739,蔚蓝生物,2019-07-25,25.46,26.15,25.18,25.67,25.4,3270999.0,84073528.0,992581890.0,3970301890.0
sh603739,蔚蓝生物,2019-07-26,25.61,26.15,25.31,25.92,25.67,3012385.0,77776259.0,1002248640.0,4008968640.0
sh603739,蔚蓝生物,2019-07-29,25.88,25.88,25.32,25.53,25.92,2833691.0,72388411.0,987168510.0,3948648510.0
sh603739,蔚蓝生物,2019-07-30,25.58,26.11,25.53,25.59,25.53,2125682.0,54767516.0,989488530.0,3957928530.0
sh603739,蔚蓝生物,2019-07-31,25.31,25.78,25.16,25.39,25.59,2212186.0,56230660.0,981755130.0,3926995130.0
sh603739,蔚蓝生物,2019-08-01,25.11,26.48,24.9,26.17,25.39,4841316.0,125575655.0,1011915390.0,4047635390.0
sh603739,蔚蓝生物,2019-08-02,25.42,27.91,25.3,26.85,26.17,8414930.0,226753828.0,1038208950.0,4152808950.0
sh603739,蔚蓝生物,2019-08-05,26.64,27.28,26.25,26.71,26.85,5125964.0,136616359.0,1032795570.0,4131155570.0
sh603739,蔚蓝生物,2019-08-06,25.76,26.5,24.7,26.21,26.71,5710744.0,146635176.0,1013462070.0,4053822070.0
sh603739,蔚蓝生物,2019-08-07,26.58,27.77,26.4,26.77,26.21,6160170.0,166960200.0,1035115590.0,4140435590.0
sh603739,蔚蓝生物,2019-08-08,26.5,28.45,26.4,28.06,26.77,7761223.0,213633510.0,1084996020.0,4339956020.0
sh603739,蔚蓝生物,2019-08-09,28.0,28.08,26.7,26.84,28.06,6108050.0,167449890.0,1037822280.0,4151262280.0
sh603739,蔚蓝生物,2019-08-12,26.6,29.26,26.6,28.71,26.84,9093256.0,257162360.0,1110129570.0,4440489570.0
sh603739,蔚蓝生物,2019-08-13,27.99,28.58,27.7,28.4,28.71,6590607.0,184840623.0,1098142800.0,4392542800.0
sh603739,蔚蓝生物,2019-08-14,28.93,28.98,28.0,28.01,28.4,5373386.0,151925903.0,1083062670.0,4332222670.0
sh603739,蔚蓝生物,2019-08-15,27.33,27.6,26.82,27.4,28.01,4656306.0,126317609.0,1059475800.0,4237875800.0
sh603739,蔚蓝生物,2019-08-16,27.4,29.98,27.08,28.92,27.4,8621388.0,244318760.0,1118249640.0,4472969640.0
sh603739,蔚蓝生物,2019-08-19,28.31,30.48,28.28,29.45,28.92,10272983.0,303158871.0,1138743150.0,4554943150.0
sh603739,蔚蓝生物,2019-08-20,29.1,29.94,28.81,29.91,29.45,7756440.0,227676395.0,1156529970.0,4626089970.0
sh603739,蔚蓝生物,2019-08-21,29.69,30.2,29.31,29.72,29.91,6345872.0,188523456.0,1149183240.0,4596703240.0
sh603739,蔚蓝生物,2019-08-22,30.3,31.5,30.12,30.59,29.72,10198736.0,314165176.0,1182823530.0,4731263530.0
sh603739,蔚蓝生物,2019-08-23,29.98,29.99,28.92,29.02,30.59,7854317.0,231139776.0,1122116340.0,4488436340.0
sh603739,蔚蓝生物,2019-08-26,28.1,28.85,28.0,28.43,29.02,4341788.0,123040468.0,1099302810.0,4397182810.0
sh603739,蔚蓝生物,2019-08-27,28.53,29.1,28.51,28.87,28.43,4627679.0,133019647.0,1116316290.0,4465236290.0
sh603739,蔚蓝生物,2019-08-28,28.77,31.76,28.22,31.76,28.87,7468453.0,225593657.0,1228063920.0,4912223920.0
sh603739,蔚蓝生物,2019-08-29,32.13,32.4,29.88,29.99,31.76,10776709.0,329379475.0,1159623330.0,4638463330.0
sh603739,蔚蓝生物,2019-08-30,30.2,31.31,29.7,29.98,29.99,7643457.0,232624000.0,1159236660.0,4636916660.0
sh603739,蔚蓝生物,2019-09-02,29.5,30.68,29.1,30.43,29.98,5950805.0,179830192.0,1176636810.0,4706516810.0
sh603739,蔚蓝生物,2019-09-03,30.01,31.49,30.0,30.95,30.43,6667288.0,205446082.0,1196743650.0,4786943650.0
sh603739,蔚蓝生物,2019-09-04,30.73,31.67,30.2,31.12,30.95,7582563.0,234779626.0,1203317040.0,4813237040.0
sh603739,蔚蓝生物,2019-09-05,31.2,31.49,30.66,30.8,31.12,7049100.0,218497198.0,1190943600.0,4763743600.0
sh603739,蔚蓝生物,2019-09-06,30.6,32.17,30.46,31.5,30.8,9665202.0,303497663.0,1218010500.0,4872010500.0
sh603739,蔚蓝生物,2019-09-09,31.3,32.12,31.3,31.85,31.5,7096073.0,225544785.0,1231543950.0,4926143950.0
sh603739,蔚蓝生物,2019-09-10,31.6,33.3,31.5,31.58,31.85,8443795.0,272753079.0,1221103860.0,4884383860.0
sh603739,蔚蓝生物,2019-09-11,34.74,34.74,32.7,32.72,31.58,16267137.0,553637417.0,1265184240.0,5060704240.0
sh603739,蔚蓝生物,2019-09-12,33.1,33.93,31.79,31.91,32.72,9243871.0,300447091.0,1233863970.0,4935423970.0
sh603739,蔚蓝生物,2019-09-16,31.65,32.18,31.46,31.82,31.91,5766769.0,182971687.0,1230383940.0,4921503940.0
sh603739,蔚蓝生物,2019-09-17,31.7,31.74,29.86,30.2,31.82,6813409.0,208565986.0,1167743400.0,4670943400.0
sh603739,蔚蓝生物,2019-09-18,30.39,30.94,29.9,30.71,30.2,4936502.0,150311290.0,1187463570.0,4749823570.0
sh603739,蔚蓝生物,2019-09-19,30.71,31.15,30.27,30.97,30.71,3949150.0,121811564.0,1197516990.0,4790036990.0
sh603739,蔚蓝生物,2019-09-20,30.6,31.38,30.5,30.71,30.97,3031500.0,93518243.0,1187463570.0,4749823570.0
sh603739,蔚蓝生物,2019-09-23,30.51,30.51,29.61,29.88,30.71,3240803.0,96963337.0,1155369960.0,4621449960.0
sh603739,蔚蓝生物,2019-09-24,29.92,30.24,29.44,29.52,29.88,2984000.0,88945370.0,1141449840.0,4565769840.0
sh603739,蔚蓝生物,2019-09-25,29.52,30.12,29.03,29.1,29.52,2702400.0,79884221.0,1125209700.0,4500809700.0
sh603739,蔚蓝生物,2019-09-26,29.15,29.56,27.8,27.86,29.1,3804079.0,108293540.0,1077262620.0,4309022620.0
sh603739,蔚蓝生物,2019-09-27,27.81,28.35,27.81,28.17,27.86,2020879.0,56879289.0,1089249390.0,4356969390.0
sh603739,蔚蓝生物,2019-09-30,28.19,28.44,27.78,27.79,28.17,1691000.0,47521221.0,1074555930.0,4298195930.0
sh603739,蔚蓝生物,2019-10-08,27.8,28.26,27.52,27.77,27.79,1764679.0,49295557.0,1073782590.0,4295102590.0
sh603739,蔚蓝生物,2019-10-09,27.8,28.1,27.31,28.08,27.77,1589503.0,44149021.0,1085769360.0,4343049360.0
sh603739,蔚蓝生物,2019-10-10,28.22,28.43,27.95,28.32,28.08,2048550.0,57803128.0,1095049440.0,4380169440.0
sh603739,蔚蓝生物,2019-10-11,28.45,28.45,27.91,28.06,28.32,1758085.0,49496118.0,1084996020.0,4339956020.0
sh603739,蔚蓝生物,2019-10-14,28.28,28.69,28.08,28.5,28.06,2273486.0,64596860.0,1102009500.0,4408009500.0
sh603739,蔚蓝生物,2019-10-15,28.6,29.59,28.4,29.36,28.5,4676550.0,136571194.0,1135263120.0,4541023120.0
sh603739,蔚蓝生物,2019-10-16,29.01,29.25,28.7,28.77,29.36,2505628.0,72422926.0,1112449590.0,4449769590.0
sh603739,蔚蓝生物,2019-10-17,28.77,28.98,27.77,27.79,28.77,2734100.0,76915209.0,1074555930.0,4298195930.0
sh603739,蔚蓝生物,2019-10-18,27.87,29.16,27.77,28.32,27.79,3139400.0,89295568.0,1095049440.0,4380169440.0
sh603739,蔚蓝生物,2019-10-21,28.01,30.3,28.0,29.47,28.32,6438000.0,189531286.0,1139516490.0,4558036490.0
sh603739,蔚蓝生物,2019-10-22,29.39,29.5,28.86,29.21,29.47,3524300.0,102430427.0,1129463070.0,4517823070.0
sh603739,蔚蓝生物,2019-10-23,29.37,29.86,29.03,29.25,29.21,3187900.0,93735438.0,1131009750.0,4524009750.0
sh603739,蔚蓝生物,2019-10-24,29.39,30.3,29.08,30.26,29.25,4884779.0,145214240.0,1170063420.0,4680223420.0
sh603739,蔚蓝生物,2019-10-25,29.9,30.58,29.51,30.05,30.26,5058679.0,152136551.0,1161943350.0,4647743350.0
sh603739,蔚蓝生物,2019-10-28,29.43,29.5,27.91,29.35,30.05,3801308.0,110705000.0,1134876450.0,4539476450.0
sh603739,蔚蓝生物,2019-10-29,29.2,29.73,28.91,29.05,29.35,3067929.0,90205800.0,1123276350.0,4493076350.0
sh603739,蔚蓝生物,2019-10-30,29.0,29.2,27.92,28.26,29.05,3513800.0,99807343.0,1092729420.0,4370889420.0
sh603739,蔚蓝生物,2019-10-31,28.2,28.76,26.68,26.84,28.26,3643900.0,99842161.0,1037822280.0,4151262280.0
sh603739,蔚蓝生物,2019-11-01,26.8,26.9,25.82,26.73,26.84,2559200.0,67596665.0,1033568910.0,4134248910.0
sh603739,蔚蓝生物,2019-11-04,27.06,27.78,26.68,27.23,26.73,2155400.0,58330161.0,1052902410.0,4211582410.0
sh603739,蔚蓝生物,2019-11-05,27.03,27.62,26.9,27.14,27.23,1940200.0,52836556.0,1049422380.0,4197662380.0
sh603739,蔚蓝生物,2019-11-06,27.05,27.13,26.11,26.41,27.14,2123200.0,56553332.0,1021195470.0,4084755470.0
sh603739,蔚蓝生物,2019-11-07,26.41,26.85,26.3,26.8,26.41,1320900.0,35226325.0,1036275600.0,4145075600.0
sh603739,蔚蓝生物,2019-11-08,26.8,26.96,26.3,26.4,26.8,1580300.0,42020451.0,1020808800.0,4083208800.0
sh603739,蔚蓝生物,2019-11-11,26.15,26.33,25.35,25.51,26.4,1645879.0,42441943.0,986395170.0,3945555170.0
sh603739,蔚蓝生物,2019-11-12,25.51,26.13,25.16,26.09,25.51,1570700.0,40341813.0,1008822030.0,4035262030.0
sh603739,蔚蓝生物,2019-11-13,26.17,26.29,25.8,26.18,26.09,1401400.0,36521672.0,1012302060.0,4049182060.0
sh603739,蔚蓝生物,2019-11-14,25.97,26.3,25.93,26.07,26.18,1045808.0,27318518.0,1008048690.0,4032168690.0
sh603739,蔚蓝生物,2019-11-15,26.02,26.13,25.53,25.53,26.07,1157200.0,29879450.0,987168510.0,3948648510.0
sh603739,蔚蓝生物,2019-11-18,26.59,27.3,26.28,26.36,25.53,3151679.0,84364434.0,1019262120.0,4077022120.0
sh603739,蔚蓝生物,2019-11-19,26.0,26.55,25.95,26.4,26.36,1925208.0,50546168.0,1020808800.0,4083208800.0
sh603739,蔚蓝生物,2019-11-20,26.3,26.6,26.2,26.29,26.4,1583652.0,41795434.0,1016555430.0,4066195430.0
sh603739,蔚蓝生物,2019-11-21,26.18,26.3,25.92,25.95,26.29,1200200.0,31308608.0,1003408650.0,4013608650.0
sh603739,蔚蓝生物,2019-11-22,25.97,26.25,25.36,25.52,25.95,1391000.0,35870271.0,986781840.0,3947101840.0
sh603739,蔚蓝生物,2019-11-25,25.65,25.65,24.75,24.95,25.52,1346700.0,33689940.0,964741650.0,3858941650.0
sh603739,蔚蓝生物,2019-11-26,24.76,25.02,24.75,24.75,24.95,841965.0,20921092.0,957008250.0,3828008250.0
sh603739,蔚蓝生物,2019-11-27,24.74,24.92,24.52,24.82,24.75,716100.0,17763930.0,959714940.0,3838834940.0
sh603739,蔚蓝生物,2019-11-28,24.8,24.98,24.65,24.69,24.82,623100.0,15456229.0,954688230.0,3818728230.0
sh603739,蔚蓝生物,2019-11-29,24.85,24.85,23.9,24.13,24.69,1353608.0,32801254.0,933034710.0,3732114710.0
sh603739,蔚蓝生物,2019-12-02,24.15,24.29,23.93,24.0,24.13,720686.0,17372106.0,928008000.0,3712008000.0
sh603739,蔚蓝生物,2019-12-03,24.0,24.0,23.5,23.9,24.0,1132300.0,26826428.0,924141300.0,3696541300.0
sh603739,蔚蓝生物,2019-12-04,23.79,24.1,23.36,24.07,23.9,1043300.0,24903702.0,930714690.0,3722834690.0
sh603739,蔚蓝生物,2019-12-05,24.15,24.29,23.96,24.23,24.07,945344.0,22821438.0,936901410.0,3747581410.0
sh603739,蔚蓝生物,2019-12-06,24.23,24.41,24.21,24.35,24.23,890865.0,21671662.0,941541450.0,3766141450.0
sh603739,蔚蓝生物,2019-12-09,24.34,24.53,24.31,24.31,24.35,907586.0,22140538.0,939994770.0,3759954770.0
sh603739,蔚蓝生物,2019-12-10,24.21,24.37,23.81,24.37,24.31,1159900.0,27949944.0,942314790.0,3769234790.0
sh603739,蔚蓝生物,2019-12-11,24.33,24.37,23.93,23.95,24.37,1134586.0,27298768.0,926074650.0,3704274650.0
sh603739,蔚蓝生物,2019-12-12,24.05,25.77,24.05,25.2,23.95,4120730.0,104005382.0,974408400.0,3897608400.0
sh603739,蔚蓝生物,2019-12-13,24.92,25.28,24.84,25.01,25.2,2159286.0,53951481.0,967061670.0,3868221670.0
sh603739,蔚蓝生物,2019-12-16,25.2,25.4,24.96,25.11,25.01,1471980.0,36897570.0,970928370.0,3883688370.0
sh603739,蔚蓝生物,2019-12-17,25.26,25.49,25.13,25.35,25.11,2053681.0,51977626.0,980208450.0,3920808450.0
sh603739,蔚蓝生物,2019-12-18,25.45,25.9,25.18,25.59,25.35,2618679.0,66806049.0,989488530.0,3957928530.0
sh603739,蔚蓝生物,2019-12-19,25.5,25.73,25.12,25.38,25.59,1584450.0,40169567.0,981368460.0,3925448460.0
sh603739,蔚蓝生物,2019-12-20,25.9,26.68,25.7,25.79,25.38,3433179.0,89668084.0,997221930.0,3988861930.0
sh603739,蔚蓝生物,2019-12-23,25.29,25.49,24.7,24.7,25.79,2192400.0,54816326.0,955074900.0,3820274900.0
sh603739,蔚蓝生物,2019-12-24,24.54,24.78,24.31,24.66,24.7,1352421.0,33171829.0,953528220.0,3814088220.0
sh603739,蔚蓝生物,2019-12-25,24.66,24.75,24.47,24.64,24.66,1009579.0,24854027.0,952754880.0,3810994880.0
sh603739,蔚蓝生物,2019-12-26,24.63,24.69,24.4,24.66,24.64,930600.0,22842886.0,953528220.0,3814088220.0
sh603739,蔚蓝生物,2019-12-27,24.64,24.9,24.56,24.63,24.66,1310166.0,32392594.0,952368210.0,3809448210.0
sh603739,蔚蓝生物,2019-12-30,24.58,24.58,24.05,24.51,24.63,993765.0,24161948.0,947728170.0,3790888170.0
sh603739,蔚蓝生物,2019-12-31,24.55,26.08,24.47,25.55,24.51,2677927.0,67751040.0,987941850.0,3951741850.0
sh603739,蔚蓝生物,2020-01-02,25.5,25.82,25.2,25.56,25.55,2678700.0,68396981.0,988328520.0,3953288520.0
sh603739,蔚蓝生物,2020-01-03,25.45,25.8,25.28,25.61,25.56,2028760.0,51809016.0,990261870.0,3961021870.0
sh603739,蔚蓝生物,2020-01-06,25.21,26.02,25.05,25.59,25.61,1947414.0,49658159.0,989488530.0,3957928530.0
sh603739,蔚蓝生物,2020-01-07,25.53,25.98,25.29,25.92,25.59,2787314.0,71766315.0,1002248640.0,4008968640.0
sh603739,蔚蓝生物,2020-01-08,25.61,25.96,25.44,25.44,25.92,1995888.0,51243942.0,983688480.0,3934728480.0
sh603739,蔚蓝生物,2020-01-09,25.55,26.09,25.55,25.68,25.44,1829042.0,47178130.0,992968560.0,3971848560.0
sh603739,蔚蓝生物,2020-01-10,25.79,26.36,25.55,26.21,25.68,3228778.0,83953194.0,1013462070.0,4053822070.0
sh603739,蔚蓝生物,2020-01-13,25.88,25.88,25.4,25.63,26.21,2553186.0,65320170.0,991035210.0,3964115210.0
sh603739,蔚蓝生物,2020-01-14,25.7,25.8,25.4,25.75,25.63,1964900.0,50302691.0,995675250.0,3982675250.0
sh603739,蔚蓝生物,2020-01-15,25.71,25.78,25.49,25.71,25.75,1362500.0,34876143.0,994128570.0,3976488570.0
sh603739,蔚蓝生物,2020-01-16,25.45,26.1,25.33,25.93,25.71,3798606.0,97888936.0,1928569680.0,4010515310.0
sh603739,蔚蓝生物,2020-01-17,25.7,25.84,25.3,25.39,25.93,2070286.0,52812106.0,1888406640.0,3926995130.0
sh603739,蔚蓝生物,2020-01-20,25.43,25.7,25.38,25.6,25.39,1813050.0,46360785.0,1904025600.0,3959475200.0
sh603739,蔚蓝生物,2020-01-21,25.77,26.19,25.6,25.92,25.6,3565844.0,92527388.0,1927825920.0,4008968640.0
sh603739,蔚蓝生物,2020-01-22,25.84,26.1,25.15,25.43,25.92,2514900.0,64478882.0,1891381680.0,3933181810.0
sh603739,蔚蓝生物,2020-01-23,25.33,25.6,24.3,25.57,25.43,3273324.0,82297928.0,1901794320.0,3954835190.0
sh603739,蔚蓝生物,2020-02-03,23.05,24.55,23.01,23.01,25.57,2979800.0,69696903.0,1711391760.0,3558887670.0
sh603739,蔚蓝生物,2020-02-04,22.83,23.95,22.83,23.76,23.01,2530420.0,59744424.0,1767173760.0,3674887920.0
sh603739,蔚蓝生物,2020-02-05,23.85,24.13,23.25,24.03,23.76,2907641.0,69553632.0,1787255280.0,3716648010.0
sh603739,蔚蓝生物,2020-02-06,24.3,25.1,23.9,25.1,24.03,4362400.0,106069105.0,1866837600.0,3882141700.0
sh603739,蔚蓝生物,2020-02-07,24.78,25.2,24.31,24.6,25.1,3436079.0,84898651.0,1829649600.0,3804808200.0
sh603739,蔚蓝生物,2020-02-10,24.01,26.0,23.66,25.88,24.6,5733526.0,143619933.0,1924850880.0,4002781960.0
sh603739,蔚蓝生物,2020-02-11,25.91,25.91,25.18,25.29,25.88,4126300.0,104980792.0,1880969040.0,3911528430.0
sh603739,蔚蓝生物,2020-02-12,25.3,25.55,25.07,25.3,25.29,1947600.0,49283048.0,1881712800.0,3913075100.0
sh603739,蔚蓝生物,2020-02-13,25.37,25.45,24.32,24.49,25.3,2863013.0,70770534.0,1821468240.0,3787794830.0
sh603739,蔚蓝生物,2020-02-14,24.49,24.61,24.25,24.29,24.49,1677000.0,40890565.0,1806593040.0,3756861430.0
sh603739,蔚蓝生物,2020-02-17,24.95,24.95,24.55,24.65,24.29,2967941.0,73208099.0,1833368400.0,3812541550.0
sh603739,蔚蓝生物,2020-02-18,24.75,25.0,24.3,24.93,24.65,3514085.0,86394193.0,1854193680.0,3855848310.0
sh603739,蔚蓝生物,2020-02-19,24.73,24.98,24.5,24.5,24.93,2820644.0,69656041.0,1822212000.0,3789341500.0
sh603739,蔚蓝生物,2020-02-20,24.31,24.76,24.31,24.6,24.5,2773744.0,67896654.0,1829649600.0,3804808200.0
sh603739,蔚蓝生物,2020-02-21,24.6,24.97,24.46,24.67,24.6,2503353.0,61905589.0,1834855920.0,3815634890.0
sh603739,蔚蓝生物,2020-02-24,24.38,24.67,24.34,24.49,24.67,2305953.0,56428245.0,1821468240.0,3787794830.0
sh603739,蔚蓝生物,2020-02-25,24.2,24.56,23.88,24.51,24.49,3239600.0,78564309.0,1822955760.0,3790888170.0
sh603739,蔚蓝生物,2020-02-26,24.2,24.96,24.2,24.39,24.51,3910200.0,96301130.0,1814030640.0,3772328130.0
sh603739,蔚蓝生物,2020-02-27,24.15,24.84,24.15,24.77,24.39,3257440.0,80130212.0,1842293520.0,3831101590.0
sh603739,蔚蓝生物,2020-02-28,24.4,24.7,23.31,23.74,24.77,3036300.0,73449011.0,1765686240.0,3671794580.0
sh603739,蔚蓝生物,2020-03-02,26.11,26.11,26.11,26.11,23.74,3050865.0,79658085.0,1941957360.0,4038355370.0
sh603739,蔚蓝生物,2020-03-03,27.18,27.18,26.2,26.37,26.11,16589248.0,443681789.0,1961295120.0,4078568790.0
sh603739,蔚蓝生物,2020-03-04,25.84,25.93,25.21,25.31,26.37,7240895.0,184501639.0,1882456560.0,3914621770.0
sh603739,蔚蓝生物,2020-03-05,25.49,26.0,25.24,25.57,25.31,6056064.0,155222330.0,1901794320.0,3954835190.0
sh603739,蔚蓝生物,2020-03-06,25.16,25.47,24.9,25.09,25.57,4126318.0,103785642.0,1866093840.0,3880595030.0
sh603739,蔚蓝生物,2020-03-09,24.56,24.84,23.73,23.81,25.09,4763541.0,114991276.0,1770892560.0,3682621270.0
sh603739,蔚蓝生物,2020-03-10,23.55,24.28,23.11,24.25,23.81,3248295.0,77071067.0,1803618000.0,3750674750.0
sh603739,蔚蓝生物,2020-03-11,24.26,24.3,23.8,23.8,24.25,2583010.0,62049711.0,1770148800.0,3681074600.0
sh603739,蔚蓝生物,2020-03-12,23.4,23.44,23.02,23.09,23.8,2789842.0,64643025.0,1717341840.0,3571261030.0
sh603739,蔚蓝生物,2020-03-13,21.73,22.74,21.39,22.32,23.09,2874000.0,63445654.0,1660072320.0,3452167440.0
sh603739,蔚蓝生物,2020-03-16,22.5,23.41,22.09,22.23,22.32,3151693.0,71536462.0,1653378480.0,3438247410.0
sh603739,蔚蓝生物,2020-03-17,22.21,22.6,21.31,21.99,22.23,2152900.0,46929198.0,1635528240.0,3401127330.0
sh603739,蔚蓝生物,2020-03-18,22.09,22.7,21.8,21.8,21.99,2465079.0,54761546.0,1621396800.0,3371740600.0
sh603739,蔚蓝生物,2020-03-19,21.62,22.0,21.02,21.6,21.8,2197300.0,47175168.0,1606521600.0,3340807200.0
sh603739,蔚蓝生物,2020-03-20,22.08,23.5,22.08,22.47,21.6,3994500.0,90429457.0,1671228720.0,3475367490.0
sh603739,蔚蓝生物,2020-03-23,21.62,22.15,21.6,21.62,22.47,1961000.0,42856783.0,1608009120.0,3343900540.0
sh603739,蔚蓝生物,2020-03-24,21.95,22.12,21.33,22.04,21.62,1896153.0,41414342.0,1639247040.0,3408860680.0
sh603739,蔚蓝生物,2020-03-25,22.45,22.56,22.11,22.46,22.04,2024600.0,45240114.0,1670484960.0,3473820820.0
sh603739,蔚蓝生物,2020-03-26,22.18,22.79,22.18,22.44,22.46,2214200.0,49853039.0,1668997440.0,3470727480.0
sh603739,蔚蓝生物,2020-03-27,23.35,23.35,22.23,22.23,22.44,2545800.0,58056029.0,1653378480.0,3438247410.0
sh603739,蔚蓝生物,2020-03-30,21.98,22.02,21.6,21.67,22.23,1680900.0,36623271.0,1611727920.0,3351633890.0
sh603739,蔚蓝生物,2020-03-31,21.75,22.68,21.75,22.37,21.67,2208900.0,49072149.0,1663791120.0,3459900790.0
sh603739,蔚蓝生物,2020-04-01,22.26,22.3,21.76,21.91,22.37,1871500.0,41146155.0,1629578160.0,3388753970.0
sh603739,蔚蓝生物,2020-04-02,21.9,22.07,21.57,22.06,21.91,1520800.0,33115892.0,1640734560.0,3411954020.0
sh603739,蔚蓝生物,2020-04-03,22.08,22.28,21.88,22.07,22.06,1592400.0,35206597.0,1641478320.0,3413500690.0
sh603739,蔚蓝生物,2020-04-07,22.31,23.1,22.16,22.68,22.07,3102500.0,70050097.0,1686847680.0,3507847560.0
sh603739,蔚蓝生物,2020-04-08,22.49,22.58,22.25,22.37,22.68,2048800.0,45927251.0,1663791120.0,3459900790.0
sh603739,蔚蓝生物,2020-04-09,22.44,22.57,22.29,22.45,22.37,1985700.0,44574413.0,1669741200.0,3472274150.0
sh603739,蔚蓝生物,2020-04-10,22.38,22.38,21.8,21.83,22.45,1938189.0,42723348.0,1623628080.0,3376380610.0
sh603739,蔚蓝生物,2020-04-13,21.65,21.78,21.23,21.4,21.83,1594200.0,34232842.0,1591646400.0,3309873800.0
sh603739,蔚蓝生物,2020-04-14,21.49,21.66,21.4,21.63,21.4,1318400.0,28410113.0,1608752880.0,3345447210.0
sh603739,蔚蓝生物,2020-04-15,21.59,21.95,21.53,21.7,21.63,1460509.0,31725853.0,1613959200.0,3356273900.0
sh603739,蔚蓝生物,2020-04-16,21.7,21.7,21.41,21.52,21.7,1274464.0,27432661.0,1600571520.0,3328433840.0
sh603739,蔚蓝生物,2020-04-17,21.54,22.3,21.48,21.95,21.52,2274800.0,49750136.0,1632553200.0,3394940650.0
sh603739,蔚蓝生物,2020-04-20,21.74,21.89,21.62,21.78,21.95,1451300.0,31548630.0,1619909280.0,3368647260.0
sh603739,蔚蓝生物,2020-04-21,21.73,21.77,21.37,21.46,21.78,1193824.0,25665781.0,1596108960.0,3319153820.0
sh603739,蔚蓝生物,2020-04-22,21.46,21.94,21.3,21.82,21.46,1751400.0,37983696.0,1622884320.0,3374833940.0
sh603739,蔚蓝生物,2020-04-23,21.83,22.19,21.72,21.86,21.82,2282600.0,50101294.0,1625859360.0,3381020620.0
sh603739,蔚蓝生物,2020-04-24,21.86,21.95,21.3,21.36,21.86,1822409.0,39150233.0,1588671360.0,3303687120.0
sh603739,蔚蓝生物,2020-04-27,21.27,21.7,21.27,21.5,21.36,1149640.0,24678834.0,1599084000.0,3325340500.0
sh603739,蔚蓝生物,2020-04-28,21.56,21.56,20.0,20.76,21.5,1805981.0,37428812.0,1544045760.0,3210886920.0
sh603739,蔚蓝生物,2020-04-29,21.42,22.3,21.1,21.8,20.76,3386400.0,73706765.0,1621396800.0,3371740600.0
sh603739,蔚蓝生物,2020-04-30,21.58,22.18,21.58,21.99,21.8,2705700.0,59272269.0,1635528240.0,3401127330.0
sh603739,蔚蓝生物,2020-05-06,21.81,22.33,21.73,22.3,21.99,2342253.0,51715446.0,1658584800.0,3449074100.0
sh603739,蔚蓝生物,2020-05-07,22.27,22.77,22.21,22.31,22.3,3073800.0,69008615.0,1659328560.0,3450620770.0
sh603739,蔚蓝生物,2020-05-08,22.52,22.97,22.28,22.88,22.31,3466742.0,78756009.0,1701722880.0,3538780960.0
sh603739,蔚蓝生物,2020-05-11,22.95,23.18,22.3,22.5,22.88,3309853.0,75021395.0,1673460000.0,3480007500.0
sh603739,蔚蓝生物,2020-05-12,22.6,23.36,22.02,23.26,22.5,3825142.0,87016451.0,1729985760.0,3597554420.0
sh603739,蔚蓝生物,2020-05-13,23.0,23.13,22.6,22.85,23.26,2658189.0,60775218.0,1699491600.0,3534140950.0
sh603739,蔚蓝生物,2020-05-14,22.72,23.38,22.62,22.9,22.85,2600600.0,59713127.0,1703210400.0,3541874300.0
sh603739,蔚蓝生物,2020-05-15,22.84,23.32,22.66,22.7,22.9,2203900.0,50657708.0,1688335200.0,3510940900.0
sh603739,蔚蓝生物,2020-05-18,22.82,23.15,22.64,23.04,22.7,1941900.0,44516597.0,1713623040.0,3563527680.0
sh603739,蔚蓝生物,2020-05-19,23.4,23.4,22.92,23.04,23.04,2077300.0,47892418.0,1713623040.0,3563527680.0
sh603739,蔚蓝生物,2020-05-20,22.99,23.09,22.5,22.55,23.04,2071000.0,47061044.0,1677178800.0,3487740850.0
sh603739,蔚蓝生物,2020-05-21,22.68,22.7,22.29,22.43,22.55,1355000.0,30478696.0,1668253680.0,3469180810.0
sh603739,蔚蓝生物,2020-05-22,22.33,22.83,22.21,22.35,22.43,1396100.0,31397332.0,1662303600.0,3456807450.0
sh603739,蔚蓝生物,2020-05-25,22.39,22.44,21.88,21.9,22.35,1240342.0,27464611.0,1628834400.0,3387207300.0
sh603739,蔚蓝生物,2020-05-26,22.05,22.77,21.98,22.77,21.9,2044500.0,46075203.0,1693541520.0,3521767590.0
sh603739,蔚蓝生物,2020-05-27,22.7,24.59,22.7,24.0,22.77,6886160.0,163512478.0,1785024000.0,3712008000.0
sh603739,蔚蓝生物,2020-05-28,23.9,24.58,23.72,23.91,24.0,5398200.0,130476793.0,1778330160.0,3698087970.0
sh603739,蔚蓝生物,2020-05-29,24.26,24.27,23.57,23.66,23.91,2908332.0,69323564.0,1759736160.0,3659421220.0
sh603739,蔚蓝生物,2020-06-01,23.69,24.38,23.68,24.05,23.66,3499700.0,84264954.0,1788742800.0,3719741350.0
sh603739,蔚蓝生物,2020-06-02,24.07,24.4,23.91,24.15,24.05,2830378.0,68260877.0,1796180400.0,3735208050.0
sh603739,XD蔚蓝生,2020-06-03,24.14,24.14,23.29,23.34,23.95,3098940.0,73223837.0,1735935840.0,3609927780.0
sh603739,蔚蓝生物,2020-06-04,23.4,23.84,23.2,23.76,23.34,2195440.0,51735823.0,1767173760.0,3674887920.0
sh603739,蔚蓝生物,2020-06-05,23.76,26.14,23.45,26.14,23.76,9808906.0,248749275.0,1944188640.0,4042995380.0
sh603739,蔚蓝生物,2020-06-08,28.6,28.75,28.2,28.75,26.14,5149586.0,147526653.0,2138310000.0,4446676250.0
sh603739,蔚蓝生物,2020-06-09,28.0,28.3,25.88,26.42,28.75,17704239.0,472023922.0,1965013920.0,4086302140.0
sh603739,蔚蓝生物,2020-06-10,26.45,28.99,26.42,27.39,26.42,15515999.0,430061150.0,2037158640.0,4236329130.0
sh603739,蔚蓝生物,2020-06-11,26.51,27.24,26.0,26.15,27.39,11035896.0,293093705.0,1944932400.0,4044542050.0
sh603739,蔚蓝生物,2020-06-12,25.0,25.98,24.82,25.25,26.15,8649762.0,218481965.0,1877994000.0,3905341750.0
sh603739,蔚蓝生物,2020-06-15,25.51,26.25,25.31,25.38,25.25,6699125.0,172831118.0,1887662880.0,3925448460.0
sh603739,蔚蓝生物,2020-06-16,25.48,26.38,25.32,26.09,25.38,5451938.0,141320641.0,1940469840.0,4035262030.0
sh603739,蔚蓝生物,2020-06-17,25.93,27.61,25.91,27.19,26.09,7108423.0,191988898.0,2022283440.0,4205395730.0
sh603739,蔚蓝生物,2020-06-18,27.26,27.7,26.31,26.59,27.19,5621230.0,150639653.0,1977657840.0,4112595530.0
sh603739,蔚蓝生物,2020-06-19,26.41,27.16,26.08,26.1,26.59,5516186.0,146125261.0,1941213600.0,4036808700.0
sh603739,蔚蓝生物,2020-06-22,26.38,26.94,26.11,26.25,26.1,4458379.0,117789637.0,1952370000.0,4060008750.0
sh603739,蔚蓝生物,2020-06-23,26.4,27.18,25.72,26.98,26.25,6869992.0,182788842.0,2006664480.0,4172915660.0
sh603739,蔚蓝生物,2020-06-24,26.83,26.83,26.01,26.55,26.98,4287144.0,113177276.0,1974682800.0,4106408850.0
sh603739,蔚蓝生物,2020-06-29,26.35,27.35,26.23,26.58,26.55,4560579.0,121741508.0,1976914080.0,4111048860.0
sh603739,蔚蓝生物,2020-06-30,26.66,27.68,26.51,27.31,26.58,6171592.0,167286229.0,2031208560.0,4223955770.0
sh603739,蔚蓝生物,2020-07-01,27.75,28.67,26.98,27.32,27.31,8470776.0,235887253.0,2031952320.0,4225502440.0
sh603739,蔚蓝生物,2020-07-02,27.47,28.0,27.25,27.47,27.32,5894467.0,162345491.0,2043108720.0,4248702490.0
sh603739,蔚蓝生物,2020-07-03,27.36,27.39,26.71,27.06,27.47,5080081.0,137075518.0,2012614560.0,4185289020.0
sh603739,蔚蓝生物,2020-07-06,27.2,27.97,26.99,27.78,27.06,6351596.0,174605645.0,2066165280.0,4296649260.0
sh603739,蔚蓝生物,2020-07-07,27.98,28.46,27.45,28.07,27.78,6715004.0,187803267.0,2087734320.0,4341502690.0
sh603739,蔚蓝生物,2020-07-08,27.9,28.41,27.7,28.1,28.07,4933579.0,138321811.0,2089965600.0,4346142700.0
sh603739,蔚蓝生物,2020-07-09,28.17,29.32,27.9,29.21,28.1,7421149.0,213371663.0,2172522960.0,4517823070.0
sh603739,蔚蓝生物,2020-07-10,29.0,29.19,28.37,28.85,29.21,6178483.0,177629256.0,2145747600.0,4462142950.0
sh603739,蔚蓝生物,2020-07-13,29.37,30.33,29.2,30.08,28.85,6165979.0,184488307.0,2237230080.0,4652383360.0
sh603739,蔚蓝生物,2020-07-14,30.08,30.91,29.18,30.55,30.08,6913924.0,207594709.0,2272186800.0,4725076850.0
sh603739,蔚蓝生物,2020-07-15,30.48,30.65,29.01,29.04,30.55,5251162.0,156464723.0,2159879040.0,4491529680.0
sh603739,蔚蓝生物,2020-07-16,29.21,29.6,27.35,27.35,29.04,5852765.0,166209052.0,2034183600.0,4230142450.0
sh603739,蔚蓝生物,2020-07-17,27.37,27.91,26.7,27.05,27.35,3814189.0,103893846.0,2011870800.0,4183742350.0
sh603739,蔚蓝生物,2020-07-20,27.4,27.75,26.91,27.65,27.05,3165399.0,86809274.0,2056496400.0,4276542550.0
sh603739,蔚蓝生物,2020-07-21,27.64,28.15,27.33,28.06,27.65,3348700.0,93331949.0,2086990560.0,4339956020.0
sh603739,蔚蓝生物,2020-07-22,27.8,29.8,27.76,29.26,28.06,5847579.0,168033223.0,2176241760.0,4525556420.0
sh603739,蔚蓝生物,2020-07-23,29.01,30.19,28.82,29.42,29.26,5976750.0,176428575.0,2188141920.0,4550303140.0
sh603739,蔚蓝生物,2020-07-24,28.99,29.97,27.85,28.05,29.42,6060779.0,175243577.0,2086246800.0,4338409350.0
sh603739,蔚蓝生物,2020-07-27,28.6,29.38,27.7,27.96,28.05,3770400.0,106846616.0,2079552960.0,4324489320.0
sh603739,蔚蓝生物,2020-07-28,28.2,30.46,28.12,29.5,27.96,6942165.0,205682099.0,2194092000.0,4562676500.0
sh603739,蔚蓝生物,2020-07-29,29.5,30.22,29.2,29.9,29.5,5509600.0,164116524.0,2223842400.0,4624543300.0
sh603739,蔚蓝生物,2020-07-30,30.0,30.86,29.42,29.65,29.9,6170917.0,186208396.0,2205248400.0,4585876550.0
sh603739,蔚蓝生物,2020-07-31,29.53,31.35,29.53,30.82,29.65,8750699.0,266437148.0,2292268320.0,4766836940.0
sh603739,蔚蓝生物,2020-08-03,31.3,31.4,30.58,31.0,30.82,6440706.0,199790789.0,2305656000.0,4794677000.0
sh603739,蔚蓝生物,2020-08-04,30.92,31.42,29.71,29.83,31.0,6336898.0,192136422.0,2218636080.0,4613716610.0
sh603739,蔚蓝生物,2020-08-05,29.78,30.69,29.59,30.24,29.83,4434000.0,133917388.0,2249130240.0,4677130080.0
sh603739,蔚蓝生物,2020-08-06,30.05,30.38,29.18,29.58,30.24,4436600.0,131244961.0,2200042080.0,4575049860.0
sh603739,蔚蓝生物,2020-08-07,29.58,30.0,28.46,29.0,29.58,3596500.0,104437687.0,2156904000.0,4485343000.0
sh603739,蔚蓝生物,2020-08-10,29.1,29.32,28.65,29.09,29.0,2375500.0,68796914.0,2163597840.0,4499263030.0
sh603739,蔚蓝生物,2020-08-11,28.89,29.4,28.28,28.28,29.09,2984800.0,86243604.0,2103353280.0,4373982760.0
sh603739,蔚蓝生物,2020-08-12,28.27,28.45,27.0,27.87,28.28,3429800.0,95292551.0,2072859120.0,4310569290.0
sh603739,蔚蓝生物,2020-08-13,27.83,28.41,27.62,28.41,27.87,2474600.0,69542193.0,2113022160.0,4394089470.0
sh603739,蔚蓝生物,2020-08-14,28.41,28.65,27.96,28.41,28.41,2000700.0,56562594.0,2113022160.0,4394089470.0
sh603739,蔚蓝生物,2020-08-17,28.42,28.99,28.41,28.75,28.41,1970779.0,56493616.0,2138310000.0,4446676250.0
sh603739,蔚蓝生物,2020-08-18,28.9,30.28,28.37,29.8,28.75,7638786.0,225883404.0,2216404800.0,4609076600.0
sh603739,蔚蓝生物,2020-08-19,30.0,30.46,28.95,29.11,29.8,6442590.0,191582453.0,2165085360.0,4502356370.0
sh603739,蔚蓝生物,2020-08-20,28.41,28.8,27.9,28.11,29.11,4060600.0,114736701.0,2090709360.0,4347689370.0
sh603739,蔚蓝生物,2020-08-21,27.97,28.63,27.97,28.25,28.11,2778479.0,78489515.0,2101122000.0,4369342750.0
sh603739,蔚蓝生物,2020-08-24,28.35,28.77,27.91,28.66,28.25,2183979.0,62090262.0,2131616160.0,4432756220.0
sh603739,蔚蓝生物,2020-08-25,28.67,29.09,28.5,29.06,28.66,2283179.0,65511955.0,2161366560.0,4494623020.0
sh603739,蔚蓝生物,2020-08-26,28.88,29.2,28.0,28.47,29.06,2374300.0,67657642.0,2117484720.0,4403369490.0
sh603739,蔚蓝生物,2020-08-27,27.91,28.13,27.0,27.14,28.47,3733363.0,101900001.0,2018564640.0,4197662380.0
sh603739,蔚蓝生物,2020-08-28,27.0,27.32,26.61,27.2,27.14,2389000.0,64359732.0,2023027200.0,4206942400.0
sh603739,蔚蓝生物,2020-08-31,27.25,27.78,27.22,27.22,27.2,2158000.0,59251056.0,2024514720.0,4210035740.0
sh603739,蔚蓝生物,2020-09-01,27.39,27.39,26.8,27.05,27.22,1621300.0,43777292.0,2011870800.0,4183742350.0
sh603739,蔚蓝生物,2020-09-02,27.1,27.38,26.82,27.01,27.05,1683624.0,45503704.0,2008895760.0,4177555670.0
sh603739,蔚蓝生物,2020-09-03,27.0,27.2,26.65,26.82,27.01,1775800.0,47820209.0,1994764320.0,4148168940.0
sh603739,蔚蓝生物,2020-09-04,26.18,26.58,25.97,26.54,26.82,2183462.0,57154560.0,1973939040.0,4104862180.0
sh603739,蔚蓝生物,2020-09-07,26.39,26.68,25.73,25.92,26.54,2045900.0,53606866.0,1927825920.0,4008968640.0
sh603739,蔚蓝生物,2020-09-08,25.99,26.01,25.4,25.72,25.92,1652000.0,42474350.0,1912950720.0,3978035240.0
sh603739,蔚蓝生物,2020-09-09,25.48,25.6,24.72,24.75,25.72,2084804.0,52280470.0,1840806000.0,3828008250.0
sh603739,蔚蓝生物,2020-09-10,24.93,25.02,23.94,24.16,24.75,2382246.0,58007734.0,1796924160.0,3736754720.0
sh603739,蔚蓝生物,2020-09-11,24.24,24.64,24.01,24.42,24.16,1466300.0,35879557.0,1816261920.0,3776968140.0
sh603739,蔚蓝生物,2020-09-14,24.4,24.77,24.4,24.62,24.42,1252900.0,30870509.0,1831137120.0,3807901540.0
sh603739,蔚蓝生物,2020-09-15,24.62,24.85,24.22,24.52,24.62,1217779.0,29779621.0,1823699520.0,3792434840.0
sh603739,蔚蓝生物,2020-09-16,24.44,24.74,24.05,24.28,24.52,1285097.0,31223013.0,1805849280.0,3755314760.000001
sh603739,蔚蓝生物,2020-09-17,24.16,24.68,23.83,24.33,24.28,1763400.0,42696733.0,1809568080.0,3763048110.0
sh603739,蔚蓝生物,2020-09-18,24.47,24.8,24.13,24.75,24.33,1413797.0,34621024.0,1840806000.0,3828008250.0
sh603739,蔚蓝生物,2020-09-21,24.64,24.81,24.4,24.62,24.75,881000.0,21656608.0,1831137120.0,3807901540.0
sh603739,蔚蓝生物,2020-09-22,24.35,25.33,24.16,24.61,24.62,1850500.0,45927792.0,1830393360.0,3806354870.0
sh603739,蔚蓝生物,2020-09-23,24.8,25.48,24.45,25.3,24.61,2281038.0,57213451.0,1881712800.0,3913075100.0
sh603739,蔚蓝生物,2020-09-24,25.18,25.45,24.8,24.86,25.3,1604303.0,40208709.0,1848987360.0,3845021620.0
sh603739,蔚蓝生物,2020-09-25,24.86,25.08,24.44,24.48,24.86,1018398.0,25130601.0,1820724480.0,3786248160.0
sh603739,蔚蓝生物,2020-09-28,24.54,24.68,23.66,23.72,24.48,1258297.0,30281978.0,1764198720.0,3668701240.0
sh603739,蔚蓝生物,2020-09-29,23.81,24.15,23.65,24.0,23.72,863803.0,20657600.0,1785024000.0,3712008000.0
sh603739,蔚蓝生物,2020-09-30,23.86,24.18,23.75,23.89,24.0,732200.0,17555317.0,1776842640.0,3694994630.0
sh603739,蔚蓝生物,2020-10-09,24.14,24.6,24.01,24.55,23.89,1011900.0,24735616.0,1825930800.0,3797074850.0
sh603739,蔚蓝生物,2020-10-12,24.55,25.14,24.5,25.01,24.55,1623900.0,40503976.0,1860143760.0,3868221670.0
sh603739,蔚蓝生物,2020-10-13,25.01,25.27,24.85,25.09,25.01,1232712.0,30910309.0,1866093840.0,3880595030.000001
sh603739,蔚蓝生物,2020-10-14,25.08,25.08,24.68,24.84,25.09,934094.0,23162413.0,1847499840.0,3841928280.0
sh603739,蔚蓝生物,2020-10-15,24.75,24.83,24.42,24.45,24.84,985400.0,24160520.0,1818493200.0,3781608150.0
sh603739,蔚蓝生物,2020-10-16,24.47,24.64,24.21,24.44,24.45,737000.0,17977026.0,1817749440.0,3780061480.0
sh603739,蔚蓝生物,2020-10-19,24.62,26.49,24.62,25.93,24.44,4663944.0,120585293.0,1928569680.0,4010515310.0
sh603739,蔚蓝生物,2020-10-20,25.64,26.19,25.33,26.01,25.93,2389902.0,61808296.0,1934519760.0,4022888670.000001
sh603739,蔚蓝生物,2020-10-21,26.02,26.35,25.67,26.06,26.01,1912363.0,49656315.0,1938238560.0,4030622020.0
sh603739,蔚蓝生物,2020-10-22,25.97,26.33,25.68,26.15,26.06,1846736.0,48191076.0,1944932400.0,4044542050.0
sh603739,蔚蓝生物,2020-10-23,26.15,26.38,25.74,25.88,26.15,1614352.0,42043109.0,1924850880.0,4002781960.0
sh603739,蔚蓝生物,2020-10-26,25.89,26.49,25.51,26.19,25.88,1820516.0,47611157.0,1947907440.0,4050728730.0
sh603739,蔚蓝生物,2020-10-27,26.19,27.19,26.07,26.95,26.19,2669649.0,71291346.0,2004433200.0,4168275650.0
sh603739,蔚蓝生物,2020-10-28,26.91,27.15,26.5,26.67,26.95,2214016.0,59380740.0,1983607920.0,4124968890.000001
sh603739,蔚蓝生物,2020-10-29,26.4,27.57,26.4,26.9,26.67,2757382.0,74605236.0,2000714400.0,4160542300.0
sh603739,蔚蓝生物,2020-10-30,26.86,27.28,26.54,26.58,26.9,1819300.0,49051810.0,1976914080.0,4111048860.0
sh603739,蔚蓝生物,2020-11-02,26.58,27.1,25.73,25.94,26.58,2089480.0,54697703.0,1929313440.0,4012061980.0
sh603739,蔚蓝生物,2020-11-03,26.01,26.31,25.83,26.22,25.94,1348500.0,35258047.0,1950138720.0,4055368740.0
sh603739,蔚蓝生物,2020-11-04,26.17,26.22,25.71,26.16,26.22,1411986.0,36679831.0,1945676160.0,4046088720.0
sh603739,蔚蓝生物,2020-11-05,26.33,26.69,26.05,26.43,26.16,1314787.0,34644830.0,1965757680.0,4087848810.0
sh603739,蔚蓝生物,2020-11-06,26.53,26.53,25.8,26.18,26.43,1185066.0,30928902.0,1947163680.0,4049182060.0
sh603739,蔚蓝生物,2020-11-09,26.1,26.62,26.05,26.5,26.18,1640536.0,43302283.0,1970964000.0,4098675500.0
sh603739,蔚蓝生物,2020-11-10,26.7,26.79,26.03,26.25,26.5,1002400.0,26421050.0,1952370000.0,4060008750.0
sh603739,蔚蓝生物,2020-11-11,26.1,26.39,25.78,25.83,26.25,946385.0,24569423.0,1921132080.0,3995048610.0
sh603739,蔚蓝生物,2020-11-12,25.75,25.77,25.07,25.12,25.83,1290224.0,32663441.0,1868325120.0,3885235040.0
sh603739,蔚蓝生物,2020-11-13,24.99,25.08,24.17,24.54,25.12,2008611.0,49146308.0,1825187040.0,3795528180.000001
sh603739,蔚蓝生物,2020-11-16,24.54,24.86,24.45,24.82,24.54,1054479.0,26045149.0,1846012320.0,3838834940.0
sh603739,蔚蓝生物,2020-11-17,24.82,24.9,24.3,24.65,24.82,748379.0,18366527.0,1833368400.0,3812541550.000001
sh603739,蔚蓝生物,2020-11-18,24.59,24.76,24.38,24.4,24.65,940100.0,23031153.0,1814774400.0,3773874800.0
sh603739,蔚蓝生物,2020-11-19,24.48,24.59,24.31,24.5,24.4,694397.0,16999279.0,1822212000.0,3789341500.0
sh603739,蔚蓝生物,2020-11-20,24.58,24.58,24.42,24.48,24.5,610281.0,14949380.0,1820724480.0,3786248160.0
sh603739,蔚蓝生物,2020-11-23,24.5,24.66,24.2,24.59,24.48,1206497.0,29440602.0,1828905840.0,3803261530.0
sh603739,蔚蓝生物,2020-11-24,24.59,24.96,24.33,24.5,24.59,1270000.0,31337871.0,1822212000.0,3789341500.0
sh603739,蔚蓝生物,2020-11-25,24.63,24.65,23.88,23.91,24.5,1514000.0,36579017.0,1778330160.0,3698087970.0
sh603739,蔚蓝生物,2020-11-26,23.9,24.1,23.75,23.94,23.91,763400.0,18247491.0,1780561440.0,3702727980.0
sh603739,蔚蓝生物,2020-11-27,23.98,24.22,23.95,24.17,23.94,752413.0,18118001.0,1797667919.9999998,3738301390.000001
sh603739,蔚蓝生物,2020-11-30,24.17,24.45,24.03,24.18,24.17,977500.0,23701301.0,1798411680.0,3739848060.0
sh603739,蔚蓝生物,2020-12-01,24.18,24.34,23.99,24.25,24.18,911416.0,22084706.0,1803618000.0,3750674750.0
sh603739,蔚蓝生物,2020-12-02,24.24,24.55,24.2,24.26,24.25,893161.0,21682649.0,1804361760.0,3752221420.0
sh603739,蔚蓝生物,2020-12-03,24.48,24.68,24.25,24.53,24.26,1070048.0,26180803.0,1824443280.0,3793981510.0
sh603739,蔚蓝生物,2020-12-04,24.41,24.69,24.29,24.57,24.53,789100.0,19303547.0,1827418320.0,3800168190.0
sh603739,蔚蓝生物,2020-12-07,24.58,24.65,24.0,24.0,24.57,1636500.0,39533505.0,1785024000.0,3712008000.0
sh603739,蔚蓝生物,2020-12-08,24.14,24.27,23.67,23.67,24.0,1711700.0,40741968.0,1760479920.0,3660967890.0
sh603739,蔚蓝生物,2020-12-09,23.62,23.87,23.3,23.32,23.67,1101236.0,25953883.0,1734448320.0,3606834440.0
sh603739,蔚蓝生物,2020-12-10,23.3,23.4,23.02,23.11,23.32,1068400.0,24770761.0,1718829359.9999998,3574354370.0
sh603739,蔚蓝生物,2020-12-11,23.11,23.19,22.3,22.55,23.11,1477600.0,33462512.0,1677178800.0,3487740850.0
sh603739,蔚蓝生物,2020-12-14,22.62,22.98,22.43,22.89,22.55,650979.0,14766655.0,1702466640.0,3540327630.0
sh603739,蔚蓝生物,2020-12-15,22.93,22.93,22.62,22.79,22.89,553004.0,12576918.0,1695029040.0,3524860930.0
sh603739,蔚蓝生物,2020-12-16,22.72,22.75,22.38,22.38,22.79,699079.0,15752663.0,1664534880.0000002,3461447460.0
sh603739,蔚蓝生物,2020-12-17,22.36,22.67,22.04,22.56,22.38,786600.0,17543352.0,1677922560.0,3489287520.0
sh603739,蔚蓝生物,2020-12-18,22.59,22.59,22.06,22.11,22.56,1068759.0,23769414.0,1644453360.0,3419687370.0
sh603739,蔚蓝生物,2020-12-21,22.23,22.35,21.9,22.2,22.11,969718.0,21494213.0,1651147200.0,3433607400.0
sh603739,蔚蓝生物,2020-12-22,22.18,22.3,21.88,21.96,22.2,898800.0,19841601.0,1633296960.0,3396487320.0
sh603739,蔚蓝生物,2020-12-23,21.96,21.98,21.54,21.63,21.96,1039900.0,22525555.0,1608752880.0,3345447210.0
sh603739,蔚蓝生物,2020-12-24,21.63,21.63,21.13,21.25,21.63,871236.0,18559957.0,1580490000.0,3286673750.0
sh603739,蔚蓝生物,2020-12-25,21.08,21.53,21.05,21.38,21.25,720799.0,15380409.0,1590158880.0,3306780459.9999995
sh603739,蔚蓝生物,2020-12-28,21.38,21.38,20.55,20.71,21.38,1413924.0,29396953.0,1540326960.0,3203153570.0
sh603739,蔚蓝生物,2020-12-29,21.3,22.78,21.0,22.78,20.71,1910137.0,42524270.0,1694285280.0,3523314260.0
sh603739,蔚蓝生物,2020-12-30,23.4,23.4,22.24,22.3,22.78,3072725.0,69736661.0,1658584800.0,3449074099.9999995
sh603739,蔚蓝生物,2020-12-31,22.19,22.52,21.92,22.46,22.3,1566878.0,34989032.0,1670484960.0000002,3473820820.0
sh603739,蔚蓝生物,2021-01-04,22.2,23.18,22.18,22.98,22.46,2097787.0,47838414.0,1709160480.0,3554247660.0
sh603739,蔚蓝生物,2021-01-05,22.68,23.0,22.5,22.94,22.98,1484636.0,33783283.0,1706185440.0,3548060980.0
sh603739,蔚蓝生物,2021-01-06,23.08,23.44,22.57,22.61,22.94,1671500.0,38309823.0,1681641360.0,3497020870.0
sh603739,蔚蓝生物,2021-01-07,22.67,22.93,21.71,21.93,22.61,1711289.0,37987032.0,1631065680.0,3391847310.0000005
sh603739,蔚蓝生物,2021-01-08,21.85,21.9,21.12,21.74,21.93,998406.0,21558196.0,1616934240.0,3362460580.0
sh603739,蔚蓝生物,2021-01-11,21.78,21.95,21.01,21.08,21.74,1102798.0,23402769.0,1567846080.0,3260380360.0
sh603739,蔚蓝生物,2021-01-12,21.31,21.7,21.07,21.58,21.08,904083.0,19420064.0,1605034080.0,3337713860.0
sh603739,蔚蓝生物,2021-01-13,21.58,21.64,21.13,21.27,21.58,779809.0,16590893.0,1581977520.0,3289767089.9999995
sh603739,蔚蓝生物,2021-01-14,21.5,23.4,21.5,23.4,21.27,1572709.0,36585899.0,1740398400.0,3619207800.000001
sh603739,蔚蓝生物,2021-01-15,23.53,24.88,23.41,24.46,23.4,6629391.0,160208724.0,1819236960.0,3783154820.0
sh603739,蔚蓝生物,2021-01-18,23.8,24.1,23.33,24.07,24.46,3008230.0,71489523.0,1790230320.0,3722834690.0
sh603739,蔚蓝生物,2021-01-19,23.7,24.19,23.5,23.9,24.07,2071159.0,49395065.0,1777586400.0000002,3696541300.0
sh603739,蔚蓝生物,2021-01-20,23.85,24.3,23.48,24.22,23.9,2448709.0,58538097.0,1801386720.0,3746034740.0
sh603739,蔚蓝生物,2021-01-21,24.01,24.17,23.69,23.81,24.22,2052228.0,49021466.0,1770892560.0,3682621270.0
sh603739,蔚蓝生物,2021-01-22,23.65,24.13,23.63,23.92,23.81,1361849.0,32564623.0,1779073920.0,3699634640.0
sh603739,蔚蓝生物,2021-01-25,23.81,23.9,22.92,23.0,23.92,1822749.0,42346837.0,1710648000.0,3557341000.0
sh603739,蔚蓝生物,2021-01-26,22.85,23.45,22.35,23.27,23.0,1521265.0,34762297.0,1730729520.0,3599101090.0
sh603739,蔚蓝生物,2021-01-27,23.2,23.27,22.64,22.7,23.27,1082449.0,24738883.0,1688335200.0,3510940900.0000005
sh603739,蔚蓝生物,2021-01-28,22.57,23.15,22.36,22.59,22.7,1017100.0,23136440.0,1680153840.0,3493927530.0000005
sh603739,蔚蓝生物,2021-01-29,22.59,22.95,22.47,22.63,22.59,1064400.0,24116165.0,1683128880.0,3500114209.9999995
sh603739,蔚蓝生物,2021-02-01,22.3,22.4,21.89,22.01,22.63,1264955.0,27968791.0,1637015760.0,3404220670.0
sh603739,蔚蓝生物,2021-02-02,22.01,23.75,21.88,23.17,22.01,2126157.0,48800761.0,1723291920.0,3583634390.0
sh603739,蔚蓝生物,2021-02-03,23.05,23.13,22.6,22.76,23.17,1319622.0,30100875.0,1692797760.0000002,3520220920.0
sh603739,蔚蓝生物,2021-02-04,22.77,22.82,21.97,22.23,22.76,1180100.0,26319404.0,1653378480.0,3438247410.0
sh603739,蔚蓝生物,2021-02-05,22.31,23.09,22.02,22.15,22.23,1070600.0,24160626.0,1647428400.0,3425874050.0000005
sh603739,蔚蓝生物,2021-02-08,22.15,22.55,21.2,21.47,22.15,1947304.0,42753288.0,1596852720.0,3320700490.0
sh603739,蔚蓝生物,2021-02-09,21.11,21.65,20.58,21.39,21.47,1651400.0,34879569.0,1590902640.0,3308327130.0
sh603739,蔚蓝生物,2021-02-10,21.31,22.27,21.16,21.7,21.39,1368375.0,29744066.0,1613959200.0000002,3356273900.0
sh603739,蔚蓝生物,2021-02-18,21.99,22.53,21.92,22.11,21.7,1365850.0,30381980.0,1644453360.0,3419687370.0
sh603739,蔚蓝生物,2021-02-19,22.2,22.7,21.91,22.55,22.11,1786124.0,39963609.0,1677178800.0,3487740850.0
sh603739,蔚蓝生物,2021-02-22,22.77,23.15,22.43,22.45,22.55,1855200.0,42253638.0,1669741200.0,3472274150.0
sh603739,蔚蓝生物,2021-02-23,22.53,22.63,22.15,22.46,22.45,1144400.0,25672027.0,1670484960.0000002,3473820820.0
sh603739,蔚蓝生物,2021-02-24,22.45,22.88,22.25,22.36,22.46,1387700.0,31330659.0,1663047360.0,3458354120.0
sh603739,蔚蓝生物,2021-02-25,22.36,22.52,22.16,22.37,22.36,862300.0,19255722.0,1663791120.0,3459900790.0000005
sh603739,蔚蓝生物,2021-02-26,22.22,22.52,21.9,22.39,22.37,818675.0,18259570.0,1665278640.0,3462994130.0
sh603739,蔚蓝生物,2021-03-01,22.58,23.12,22.48,22.73,22.39,1311575.0,29854905.0,1690566479.9999998,3515580910.0
sh603739,蔚蓝生物,2021-03-02,23.23,24.56,23.01,23.64,22.73,3342390.0,79111045.0,1758248640.0,3656327880.0
sh603739,蔚蓝生物,2021-03-03,23.64,23.64,23.1,23.31,23.64,1502165.0,35003686.0,1733704560.0,3605287770.0
sh603739,蔚蓝生物,2021-03-04,23.1,23.59,22.9,23.27,23.31,1841354.0,42812466.0,1730729520.0,3599101090.0
sh603739,蔚蓝生物,2021-03-05,23.06,23.56,22.96,23.41,23.27,1239609.0,28924067.0,1741142159.9999998,3620754470.0
sh603739,蔚蓝生物,2021-03-08,23.72,23.8,23.0,23.01,23.41,1221400.0,28536782.0,1711391760.0,3558887670.0
sh603739,蔚蓝生物,2021-03-09,23.1,23.1,21.8,21.96,23.01,1705800.0,38158305.0,1633296960.0,3396487320.0
sh603739,蔚蓝生物,2021-03-10,22.0,22.39,21.91,22.0,21.96,902400.0,19923705.0,1636272000.0,3402674000.0
sh603739,蔚蓝生物,2021-03-11,22.2,22.54,21.85,22.4,22.0,831900.0,18508350.0,1666022400.0,3464540800.0
sh603739,蔚蓝生物,2021-03-12,22.46,22.79,22.32,22.48,22.4,745200.0,16768656.0,1671972480.0,3476914160.0000005
sh603739,蔚蓝生物,2021-03-15,22.38,22.72,22.2,22.35,22.48,761900.0,17094094.0,1662303599.9999998,3456807450.0
sh603739,蔚蓝生物,2021-03-16,22.5,23.38,22.36,22.94,22.35,1279610.0,29385835.0,1706185440.0,3548060980.0
sh603739,蔚蓝生物,2021-03-17,23.1,23.23,22.88,23.06,22.94,932200.0,21509827.0,1715110560.0,3566621020.0
sh603739,蔚蓝生物,2021-03-18,22.98,23.35,22.88,23.01,23.06,1015700.0,23480661.0,1711391760.0,3558887670.0
sh603739,蔚蓝生物,2021-03-19,22.89,23.32,22.75,23.2,23.01,988800.0,22843151.0,1725523200.0,3588274400.0
sh603739,蔚蓝生物,2021-03-22,22.98,23.43,22.98,23.39,23.2,1130933.0,26328390.0,1739654640.0,3617661130.0
sh603739,蔚蓝生物,2021-03-23,23.48,23.48,22.9,23.11,23.39,1080030.0,24977418.0,1718829359.9999998,3574354370.0
sh603739,蔚蓝生物,2021-03-24,22.98,23.3,22.98,23.09,23.11,766800.0,17743313.0,1717341840.0,3571261030.0
sh603739,蔚蓝生物,2021-03-25,23.21,23.94,22.9,23.44,23.09,1755800.0,41023296.0,1743373440.0,3625394480.0
sh603739,蔚蓝生物,2021-03-26,23.65,23.65,23.12,23.26,23.44,1214715.0,28258321.0,1729985760.0,3597554420.0
sh603739,蔚蓝生物,2021-03-29,23.3,23.45,23.03,23.03,23.26,899600.0,20870518.0,1712879280.0000002,3561981010.0000005
sh603739,蔚蓝生物,2021-03-30,23.0,23.17,22.8,22.95,23.03,830600.0,19067801.0,1706929200.0000002,3549607650.0
sh603739,蔚蓝生物,2021-03-31,22.95,23.43,22.82,23.12,22.95,938100.0,21669777.0,1719573120.0,3575901040.0
sh603739,蔚蓝生物,2021-04-01,23.05,23.22,22.86,22.9,23.12,833500.0,19196956.0,1703210400.0,3541874300.0
sh603739,蔚蓝生物,2021-04-02,22.9,23.22,22.7,23.18,22.9,1305200.0,29944841.0,1724035680.0,3585181060.0000005
sh603739,蔚蓝生物,2021-04-06,23.1,23.33,23.0,23.22,23.18,1024400.0,23757835.0,1727010719.9999998,3591367739.9999995
sh603739,蔚蓝生物,2021-04-07,23.28,23.59,23.13,23.57,23.22,1260333.0,29537824.0,1753042320.0,3645501190.0
sh603739,蔚蓝生物,2021-04-08,23.51,23.73,23.4,23.45,23.57,814741.0,19153246.0,1744117200.0,3626941150.0
sh603739,蔚蓝生物,2021-04-09,23.65,23.76,23.26,23.58,23.45,1210685.0,28446152.0,1753786080.0,3647047860.0
sh603739,蔚蓝生物,2021-04-12,23.67,23.7,22.92,23.08,23.58,1015000.0,23639393.0,1716598080.0,3569714360.0
sh603739,蔚蓝生物,2021-04-13,23.0,24.12,22.95,23.78,23.08,1943500.0,46051756.0,1768661280.0,3677981260.0
sh603739,蔚蓝生物,2021-04-14,23.48,23.7,23.08,23.55,23.78,1306000.0,30521906.0,1751554800.0,3642407850.0
sh603739,蔚蓝生物,2021-04-15,23.4,24.12,23.37,23.96,23.55,1878400.0,44764379.0,1782048960.0,3705821320.0
sh603739,蔚蓝生物,2021-04-16,23.9,24.44,23.77,24.4,23.96,1835801.0,44473587.0,1814774400.0,3773874800.0
sh603739,蔚蓝生物,2021-04-19,24.41,25.16,24.3,24.89,24.4,2929145.0,72765579.0,1851218640.0,4481708334.0
sh603739,蔚蓝生物,2021-04-20,24.88,26.38,24.81,25.83,24.89,3980121.0,102249655.0,1921132080.0,4650965298.0
sh603739,蔚蓝生物,2021-04-21,25.68,27.5,24.89,26.9,25.83,7618795.0,199722441.0,2000714400.0,4843630140.0
sh603739,蔚蓝生物,2021-04-22,27.0,27.0,25.7,26.2,26.9,5734679.0,149762127.0,1948651200.0,4717587720.0
sh603739,蔚蓝生物,2021-04-23,26.01,26.36,25.26,25.35,26.2,3806835.0,97919383.0,1885431600.0,4564536210.0
sh603739,蔚蓝生物,2021-04-26,25.34,25.83,24.68,24.78,25.35,3119049.0,78605642.0,1843037280.0,4461901668.0
sh603739,蔚蓝生物,2021-04-27,24.78,25.22,24.32,25.0,24.78,2426605.0,60061876.0,1859400000.0,4501515000.0
sh603739,蔚蓝生物,2021-04-28,25.0,25.18,24.59,24.76,25.0,1705900.0,42363324.0,1841549760.0,4458300456.0
sh603739,蔚蓝生物,2021-04-29,24.76,24.96,24.34,24.35,24.76,1586103.0,39044697.0,1811055600.0,4384475610.0
sh603739,蔚蓝生物,2021-04-30,24.4,24.53,23.88,24.23,24.35,1511200.0,36510713.0,1802130480.0,4362868338.0
sh603739,蔚蓝生物,2021-05-06,24.24,24.58,23.64,23.72,24.23,1504000.0,36221587.0,1764198720.0,4271037432.000001
sh603739,蔚蓝生物,2021-05-07,23.72,23.99,23.38,23.99,23.72,1403930.0,33345948.0,1784280240.0,4319653794.0
sh603739,蔚蓝生物,2021-05-10,23.9,24.5,23.6,24.45,23.99,1576975.0,38037948.0,1818493200.0,4402481670.0
sh603739,蔚蓝生物,2021-05-11,24.27,24.73,24.07,24.49,24.45,1013900.0,24777293.0,1821468240.0,4409684094.0
sh603739,蔚蓝生物,2021-05-12,24.49,24.95,24.28,24.53,24.49,1271300.0,31296464.0,1824443280.0,4416886518.0
sh603739,蔚蓝生物,2021-05-13,24.2,24.24,23.75,23.76,24.53,1213458.0,29055827.0,1767173760.0,4278239856.0
sh603739,蔚蓝生物,2021-05-14,24.08,24.08,23.69,23.9,23.76,833800.0,19928119.0,1777586400.0000002,4303448340.0
sh603739,蔚蓝生物,2021-05-17,23.86,24.47,23.58,24.2,23.9,1297415.0,31213173.0,1799899200.0000002,4357466520.0
sh603739,蔚蓝生物,2021-05-18,24.29,24.34,23.9,24.2,24.2,749479.0,18129738.0,1799899200.0000002,4357466520.0
sh603739,蔚蓝生物,2021-05-19,24.25,24.58,24.23,24.45,24.2,924900.0,22600767.0,1818493200.0,4402481670.0
sh603739,蔚蓝生物,2021-05-20,24.6,24.6,24.2,24.34,24.45,736500.0,17937985.0,1810311840.0,4382675004.0
sh603739,蔚蓝生物,2021-05-21,24.52,25.56,24.18,25.56,24.34,2384670.0,59644230.0,1901050560.0,4602348936.0
sh603739,蔚蓝生物,2021-05-24,25.6,25.64,24.8,25.23,25.56,2083570.0,52338689.0,1876506480.0,4542928938.0
sh603739,DR蔚蓝生,2021-05-25,17.94,18.18,17.61,18.16,17.88,1583577.0,28416355.0,1350668160.0,3269900496.0000005
sh603739,蔚蓝生物,2021-05-26,18.16,18.16,17.61,17.72,18.16,2095543.0,37225984.0,1845119808.0,4466943364.8
sh603739,蔚蓝生物,2021-05-27,17.76,17.78,17.46,17.63,17.72,1729006.0,30450267.0,1835748432.0,4444255729.2
sh603739,蔚蓝生物,2021-05-28,17.6,17.6,17.22,17.23,17.63,1732492.0,30093709.0,1794097872.0,4343421793.2
sh603739,蔚蓝生物,2021-05-31,17.2,17.45,17.08,17.38,17.23,1681731.0,29095576.0,1809716832.0,4381234519.2
sh603739,蔚蓝生物,2021-06-01,17.44,17.63,17.3,17.62,17.38,1698540.0,29717736.0,1834707168.0,4441734880.8
sh603739,蔚蓝生物,2021-06-02,17.61,17.61,17.21,17.3,17.62,1227740.0,21336461.0,1801386720.0,4361067732.0
sh603739,蔚蓝生物,2021-06-03,17.31,17.61,17.1,17.41,17.3,1428120.0,24871668.0,1812840624.0,4388797064.4
sh603739,蔚蓝生物,2021-06-04,17.4,17.45,17.22,17.27,17.41,970492.0,16781207.0,1798262928.0,4353505186.8
sh603739,蔚蓝生物,2021-06-07,17.27,17.77,17.18,17.62,17.27,1528077.0,26744658.0,1834707168.0,4441734880.8
sh603739,蔚蓝生物,2021-06-08,17.62,17.66,17.31,17.43,17.62,1094252.0,19049487.0,1814923152.0,4393838761.2
sh603739,蔚蓝生物,2021-06-09,17.4,17.41,17.2,17.25,17.43,911640.0,15751866.0,1796180400.0,4348463490.0
sh603739,蔚蓝生物,2021-06-10,17.3,17.48,17.12,17.4,17.25,1053377.0,18275963.0,1811799360.0,4386276216.0
sh603739,蔚蓝生物,2021-06-11,17.41,17.42,16.67,16.74,17.4,2545440.0,43275893.0,1743075936.0,4219900221.6
sh603739,蔚蓝生物,2021-06-15,16.7,16.74,16.15,16.2,16.74,2055020.0,33473658.0,1686847680.0,4083774408.0
sh603739,蔚蓝生物,2021-06-16,16.18,16.31,15.95,16.04,16.2,1001829.0,16147166.0,1670187456.0,4043440833.6
sh603739,蔚蓝生物,2021-06-17,16.02,16.3,15.96,16.24,16.04,840940.0,13574291.0,1691012735.9999998,4093857801.6
sh603739,蔚蓝生物,2021-06-18,16.37,16.37,15.89,16.08,16.24,1378300.0,22071042.0,1674352512.0,4053524227.2
sh603739,蔚蓝生物,2021-06-21,15.98,16.2,15.86,16.16,16.08,1118521.0,17944565.0,1682682624.0,4073691014.4
sh603739,蔚蓝生物,2021-06-22,16.17,16.27,16.08,16.2,16.16,977301.0,15784956.0,1686847680.0,4083774408.0
sh603739,蔚蓝生物,2021-06-23,16.2,16.22,16.04,16.18,16.2,875269.0,14126541.0,1684765152.0,4078732711.2
sh603739,蔚蓝生物,2021-06-24,16.3,16.52,16.11,16.5,16.18,1448820.0,23736451.0,1718085600.0,4159399860.0
sh603739,蔚蓝生物,2021-06-25,16.75,16.79,16.35,16.54,16.5,941512.0,15552622.0,1722250656.0,4169483253.6
sh603739,蔚蓝生物,2021-06-28,16.75,17.07,16.58,17.0,16.54,1639177.0,27811899.0,1770148800.0,4285442280.0
sh603739,蔚蓝生物,2021-06-29,16.88,17.38,16.88,16.94,17.0,1561760.0,26738956.0,1763901216.0000002,4270317189.6
sh603739,蔚蓝生物,2021-06-30,17.0,17.32,16.83,17.16,16.94,1289460.0,22086227.0,1786809024.0,4325775854.4
sh603739,蔚蓝生物,2021-07-01,17.1,17.26,16.92,16.94,17.16,1094100.0,18686769.0,1763901216.0000002,4270317189.6
sh603739,蔚蓝生物,2021-07-02,16.91,17.04,16.65,16.8,16.94,910820.0,15323232.0,1749323520.0000002,4235025312.000001
sh603739,蔚蓝生物,2021-07-05,16.71,17.55,16.63,17.5,16.8,2390705.0,41462312.0,1822212000.0,4411484700.0
sh603739,蔚蓝生物,2021-07-06,17.5,17.65,17.23,17.4,17.5,1489500.0,25871737.0,1811799360.0,4386276216.0
sh603739,蔚蓝生物,2021-07-07,17.26,17.54,17.26,17.39,17.4,765880.0,13335214.0,1810758096.0,4383755367.599999
sh603739,蔚蓝生物,2021-07-08,17.37,17.46,17.06,17.1,17.39,1166240.0,20056974.0,1780561440.0,4310650764.0
sh603739,蔚蓝生物,2021-07-09,16.97,17.24,16.95,17.07,17.1,1137920.0,19427919.0,1777437648.0,4303088218.8
sh603739,蔚蓝生物,2021-07-12,17.3,17.45,17.11,17.28,17.07,1232116.0,21338173.0,1799304192.0,4356026035.2
sh603739,蔚蓝生物,2021-07-13,17.13,17.5,17.01,17.19,17.28,1704320.0,29364298.0,1789932815.9999998,4333338399.6
sh603739,蔚蓝生物,2021-07-14,17.19,17.56,17.09,17.37,17.19,1751340.0,30451683.0,1808675568.0,4378713670.8
sh603739,蔚蓝生物,2021-07-15,17.37,17.45,17.06,17.34,17.37,1436178.0,24699592.0,1805551776.0,4371151125.599999
sh603739,蔚蓝生物,2021-07-16,17.17,17.17,16.89,16.95,17.34,1185120.0,20148339.0,1764942480.0,4272838038.0
sh603739,蔚蓝生物,2021-07-19,16.9,17.02,16.58,17.0,16.95,1343538.0,22532894.0,1770148800.0,4285442280.0
sh603739,蔚蓝生物,2021-07-20,16.75,17.0,16.65,16.75,17.0,815420.0,13653829.0,1744117200.0,4222421070.0
sh603739,蔚蓝生物,2021-07-21,16.65,16.89,16.6,16.71,16.75,973440.0,16255993.0,1739952144.0,4212337676.4
sh603739,蔚蓝生物,2021-07-22,16.69,16.7,16.33,16.39,16.71,1403440.0,23052336.0,1706631696.0,4131670527.6
sh603739,蔚蓝生物,2021-07-23,16.32,16.6,16.1,16.16,16.39,1345400.0,21835594.0,1682682624.0,4073691014.4
sh603739,蔚蓝生物,2021-07-26,16.05,16.24,15.91,16.08,16.16,1024643.0,16421634.0,1674352512.0,4053524227.2
sh603739,蔚蓝生物,2021-07-27,16.0,16.19,15.7,15.76,16.08,1111040.0,17726267.0,1641032064.0,3972857078.4
sh603739,蔚蓝生物,2021-07-28,15.76,15.86,15.3,15.5,15.76,929560.0,14421139.0,1613959200.0000002,3907315020.0
sh603739,蔚蓝生物,2021-07-29,15.53,15.77,15.5,15.68,15.5,703760.0,11000476.0,1632701951.9999998,3952690291.2
sh603739,蔚蓝生物,2021-07-30,15.65,15.88,15.36,15.84,15.68,1238340.0,19333732.0,1649362176.0,3993023865.6
sh603739,蔚蓝生物,2021-08-02,15.71,16.25,15.65,16.16,15.84,1122280.0,18000967.0,1682682624.0,4073691014.4
sh603739,蔚蓝生物,2021-08-03,16.16,16.45,16.03,16.16,16.16,1060500.0,17197725.0,1682682624.0,4073691014.4
sh603739,蔚蓝生物,2021-08-04,16.11,16.16,15.91,16.02,16.16,861080.0,13781914.0,1668104928.0,4038399136.8
sh603739,蔚蓝生物,2021-08-05,16.04,16.4,16.04,16.13,16.02,1000940.0,16234964.0,1679558832.0,4066128469.2
sh603739,蔚蓝生物,2021-08-06,16.16,16.22,15.79,15.88,16.13,1002760.0,15961009.0,1653527232.0,4003107259.2
sh603739,蔚蓝生物,2021-08-09,15.92,16.14,15.78,16.12,15.88,927288.0,14822884.0,1678517568.0,4063607620.8
sh603739,蔚蓝生物,2021-08-10,16.01,16.39,16.0,16.25,16.12,1010240.0,16389631.0,1692054000.0,4096378650.0
sh603739,蔚蓝生物,2021-08-11,16.21,16.26,16.08,16.12,16.25,654540.0,10558159.0,1678517568.0,4063607620.8
sh603739,蔚蓝生物,2021-08-12,16.14,16.24,15.99,16.11,16.12,1072200.0,17258434.0,1677476304.0,4061086772.4
sh603739,蔚蓝生物,2021-08-13,16.18,16.58,16.11,16.38,16.11,1709750.0,27934839.0,1705590431.9999998,4129149679.2
sh603739,蔚蓝生物,2021-08-16,16.54,16.79,16.39,16.42,16.38,1515140.0,25122064.0,1709755488.0,4139233072.8
sh603739,蔚蓝生物,2021-08-17,16.46,17.35,16.39,16.93,16.42,3711250.0,62977063.0,1762859952.0,4267796341.2
sh603739,蔚蓝生物,2021-08-18,16.93,17.0,16.27,16.33,16.93,2714540.0,44788701.0,1700384112.0,4116545437.2
sh603739,蔚蓝生物,2021-08-19,16.25,16.66,16.15,16.27,16.33,1448865.0,23744769.0,1694136528.0,4101420346.8
sh603739,蔚蓝生物,2021-08-20,16.1,16.17,15.73,16.01,16.27,1521240.0,24149373.0,1667063664.0,4035878288.4
sh603739,蔚蓝生物,2021-08-23,16.01,16.38,15.91,16.28,16.01,1118645.0,18141644.0,1695177792.0,4103941195.2
sh603739,蔚蓝生物,2021-08-24,16.39,16.57,16.2,16.53,16.28,1233572.0,20250665.0,1721209392.0,4166962405.2
sh603739,蔚蓝生物,2021-08-25,16.54,16.79,16.4,16.55,16.53,1233650.0,20477649.0,1723291920.0,4172004102.0
sh603739,蔚蓝生物,2021-08-26,16.47,16.71,16.3,16.37,16.55,1211763.0,19938475.0,1704549168.0,4126628830.8
sh603739,蔚蓝生物,2021-08-27,16.37,16.55,16.08,16.33,16.37,1143020.0,18541606.0,1700384112.0,4116545437.2
sh603739,蔚蓝生物,2021-08-30,16.33,16.53,16.21,16.42,16.33,936571.0,15346638.0,1709755488.0,4139233072.8
sh603739,蔚蓝生物,2021-08-31,16.45,16.57,16.26,16.48,16.42,1175491.0,19335361.0,1716003072.0,4154358163.2
sh603739,蔚蓝生物,2021-09-01,16.55,16.69,16.25,16.59,16.48,1606791.0,26545980.0,1727456976.0000002,4182087495.6
sh603739,蔚蓝生物,2021-09-02,16.6,16.67,16.42,16.65,16.59,1365200.0,22603617.0,1733704560.0,4197212586.0
sh603739,蔚蓝生物,2021-09-03,16.6,16.9,16.57,16.85,16.65,1857840.0,31182197.0,1754529840.0,4247629554.0
sh603739,蔚蓝生物,2021-09-06,16.85,17.3,16.75,17.27,16.85,2670720.0,45752583.0,1798262928.0,4353505186.8
sh603739,蔚蓝生物,2021-09-07,17.26,17.26,16.9,17.05,17.27,2879001.0,49022133.0,1775355119.9999998,4298046522.0
sh603739,蔚蓝生物,2021-09-08,17.17,17.55,17.07,17.21,17.05,2464583.0,42610361.0,1792015344.0,4338380096.4
sh603739,蔚蓝生物,2021-09-09,17.18,17.28,16.91,17.0,17.21,1818902.0,30995635.0,1770148800.0,4285442280.0
sh603739,蔚蓝生物,2021-09-10,16.94,17.29,16.83,17.06,17.0,1918760.0,32653186.0,1776396384.0,4300567370.4
sh603739,蔚蓝生物,2021-09-13,17.02,17.14,16.92,17.06,17.06,1255880.0,21430143.0,1776396384.0,4300567370.4
sh603739,蔚蓝生物,2021-09-14,16.95,17.15,16.88,16.9,17.06,1534797.0,26094804.0,1759736160.0,4260233796.0
sh603739,蔚蓝生物,2021-09-15,16.91,16.97,16.65,16.78,16.9,1349071.0,22603905.0,1747240992.0,4229983615.2
sh603739,蔚蓝生物,2021-09-16,16.71,17.95,16.71,17.18,16.78,4554689.0,79186193.0,1788891552.0,4330817551.2
sh603739,蔚蓝生物,2021-09-17,17.16,18.47,16.89,18.15,17.18,7128514.0,125940898.0,1889894160.0,4575339846.0
sh603739,蔚蓝生物,2021-09-22,17.8,18.88,17.78,18.22,18.15,6343536.0,115707616.0,1897183008.0,4592985784.8
sh603739,蔚蓝生物,2021-09-23,18.22,18.33,17.75,18.1,18.22,3753797.0,67440658.0,1884687840.0,4562735604.0
sh603739,蔚蓝生物,2021-09-24,18.19,19.05,17.81,18.65,18.1,5408359.0,99709859.0,1941957360.0,4701382266.0
sh603739,蔚蓝生物,2021-09-27,19.58,20.52,19.18,20.52,18.65,8509564.0,172698727.0,2136673728.0,5172780916.8
sh603739,蔚蓝生物,2021-09-28,20.5,20.5,19.05,19.06,20.52,11328950.0,222806511.0,1984649184.0,4804737050.4
sh603739,蔚蓝生物,2021-09-29,19.06,19.65,18.35,19.64,19.06,7658740.0,145436832.0,2045042496.0,4950946257.6
sh603739,蔚蓝生物,2021-09-30,19.4,19.71,18.8,18.98,19.64,5218181.0,99843286.0,1976319072.0,4784570263.2
sh603739,蔚蓝生物,2021-10-08,18.58,19.63,18.38,19.2,18.98,4738850.0,90494893.0,1999226880.0,4840028928.0
sh603739,蔚蓝生物,2021-10-11,18.89,19.3,18.41,18.56,19.2,4235613.0,79336174.0,1932585984.0,4678694630.4
sh603739,蔚蓝生物,2021-10-12,18.38,18.83,17.9,18.14,18.56,4145891.0,75734758.0,1888852896.0,4572818997.6
sh603739,蔚蓝生物,2021-10-13,18.2,18.4,17.73,18.33,18.14,2437580.0,44059212.0,1908636912.0,4620715117.2
sh603739,蔚蓝生物,2021-10-14,18.3,18.48,17.85,17.85,18.33,2183030.0,39359745.0,1858656240.0,4499714394.0
sh603739,蔚蓝生物,2021-10-15,17.8,18.06,17.5,17.62,17.85,2107603.0,37478345.0,1834707168.0,4441734880.8
sh603739,蔚蓝生物,2021-10-18,17.53,17.89,17.07,17.89,17.62,1807552.0,31845126.0,1862821296.0,4509797787.6
sh603739,蔚蓝生物,2021-10-19,18.01,18.28,17.84,18.02,17.89,2241020.0,40485806.0,1876357728.0,4542568816.8
sh603739,蔚蓝生物,2021-10-20,17.96,18.15,17.52,17.66,18.02,2024570.0,35929175.0,1838872224.0,4451818274.400001
sh603739,蔚蓝生物,2021-10-21,17.51,17.86,17.3,17.41,17.66,2193920.0,38485191.0,1812840624.0,4388797064.4
sh603739,蔚蓝生物,2021-10-22,17.31,17.55,17.2,17.49,17.41,1290420.0,22457928.0,1821170736.0,4408963851.6
sh603739,蔚蓝生物,2021-10-25,17.47,17.62,17.28,17.62,17.49,1345132.0,23522233.0,1834707168.0,4441734880.8
sh603739,蔚蓝生物,2021-10-26,17.42,17.75,17.36,17.42,17.62,1387120.0,24325087.0,1813881888.0,4391317912.8
sh603739,蔚蓝生物,2021-10-27,17.48,17.53,16.68,16.8,17.42,2454159.0,41665690.0,1749323520.0,4235025312.0
sh603739,蔚蓝生物,2021-10-28,16.8,17.06,16.7,16.78,16.8,1465972.0,24685103.0,1747240992.0,4229983615.2
sh603739,蔚蓝生物,2021-10-29,16.9,17.03,16.5,16.94,16.78,1582123.0,26604619.0,1763901216.0000002,4270317189.6
sh603739,蔚蓝生物,2021-11-01,17.08,17.43,16.84,17.24,16.94,1752183.0,30203770.0,1795139136.0,4345942641.6
sh603739,蔚蓝生物,2021-11-02,17.14,17.48,16.73,16.88,17.24,2195596.0,37396537.0,1757653632.0,4255192099.2
sh603739,蔚蓝生物,2021-11-03,16.78,17.15,16.75,17.08,16.88,1187320.0,20208567.0,1778478912.0000002,4305609067.2
sh603739,蔚蓝生物,2021-11-04,16.98,17.43,16.98,17.4,17.08,1494060.0,25865515.0,1811799360.0,4386276216.0
sh603739,蔚蓝生物,2021-11-05,17.4,17.52,17.19,17.32,17.4,1732418.0,30024617.0,1803469248.0,4366109428.8
sh603739,蔚蓝生物,2021-11-08,17.3,17.4,17.08,17.38,17.32,1128318.0,19524669.0,1809716832.0,4381234519.2
sh603739,蔚蓝生物,2021-11-09,17.4,17.53,17.23,17.48,17.38,1338780.0,23268076.0,1820129472.0,4406443003.2
sh603739,蔚蓝生物,2021-11-10,17.39,17.5,17.0,17.5,17.48,1871159.0,32352394.0,1822212000.0,4411484700.0
sh603739,蔚蓝生物,2021-11-11,17.38,17.6,17.37,17.42,17.5,1519300.0,26536755.0,1813881888.0,4391317912.8
sh603739,蔚蓝生物,2021-11-12,17.5,17.6,17.19,17.59,17.42,1644920.0,28660336.0,1831583376.0,4434172335.6
sh603739,蔚蓝生物,2021-11-15,17.59,17.99,17.5,17.75,17.59,2259465.0,40104381.0,1848243600.0,4474505910.0
sh603739,蔚蓝生物,2021-11-16,17.69,18.14,17.68,17.84,17.75,2340440.0,41923232.0,1857614976.0,4497193545.6
sh603739,蔚蓝生物,2021-11-17,17.94,18.25,17.79,18.03,17.84,2009372.0,36088153.0,1877398992.0,4545089665.2
sh603739,蔚蓝生物,2021-11-18,17.86,17.99,17.6,17.64,18.03,1636922.0,29104348.0,1836789696.0,4446776577.599999
sh603739,蔚蓝生物,2021-11-19,17.61,18.3,17.45,18.29,17.64,3429989.0,61287335.0,1904471856.0,4610631723.6
sh603739,蔚蓝生物,2021-11-22,18.3,18.33,17.93,18.12,18.29,1859180.0,33604097.0,1886770368.0,4567777300.8
sh603739,蔚蓝生物,2021-11-23,18.11,18.11,17.83,17.97,18.12,1824340.0,32753926.0,1871151408.0,4529964574.8
sh603739,蔚蓝生物,2021-11-24,19.77,19.77,18.06,18.45,17.97,4658372.0,86836368.0,1921132080.0000002,4650965298.0
sh603739,蔚蓝生物,2021-11-25,18.55,18.6,18.09,18.35,18.45,2605322.0,47726903.0,1910719440.0,4625756814.0
sh603739,蔚蓝生物,2021-11-26,18.26,18.35,17.9,17.93,18.35,2072611.0,37345106.0,1866986352.0,4519881181.2
sh603739,蔚蓝生物,2021-11-29,17.73,18.05,17.65,17.95,17.93,1862774.0,33232833.0,1869068880.0,4524922878.0
sh603739,蔚蓝生物,2021-11-30,17.97,18.03,17.61,17.76,17.95,1879120.0,33474099.0,1849284864.0,4477026758.4
sh603739,蔚蓝生物,2021-12-01,17.76,17.81,17.62,17.8,17.76,1228552.0,21761226.0,1853449920.0,4487110152.0
sh603739,蔚蓝生物,2021-12-02,17.8,17.99,17.66,17.92,17.8,1891198.0,33786775.0,1865945088.0,4517360332.8
sh603739,蔚蓝生物,2021-12-03,17.9,18.05,17.81,17.91,17.92,1498768.0,26882470.0,1864903824.0,4514839484.4
sh603739,蔚蓝生物,2021-12-06,17.91,17.93,17.28,17.3,17.91,2097278.0,36751560.0,1801386720.0,4361067732.0
sh603739,蔚蓝生物,2021-12-07,17.36,17.44,16.99,17.04,17.3,1467220.0,25116532.0,1774313856.0,4295525673.599999
sh603739,蔚蓝生物,2021-12-08,17.07,17.2,17.05,17.19,17.04,923457.0,15818321.0,1789932815.9999998,4333338399.6
sh603739,蔚蓝生物,2021-12-09,17.12,17.4,17.1,17.34,17.19,815941.0,14121036.0,1805551776.0,4371151125.599999
sh603739,蔚蓝生物,2021-12-10,17.45,17.71,17.34,17.62,17.34,1810260.0,31784527.0,1834707168.0,4441734880.8
sh603739,蔚蓝生物,2021-12-13,17.71,17.89,17.28,17.31,17.62,1778300.0,31029162.0,1802427984.0,4363588580.400001
sh603739,蔚蓝生物,2021-12-14,17.25,17.42,17.23,17.37,17.31,976560.0,16945155.0,1808675568.0,4378713670.8
sh603739,蔚蓝生物,2021-12-15,17.37,17.56,17.29,17.36,17.37,1021640.0,17824605.0,1807634304.0000002,4376192822.4
sh603739,蔚蓝生物,2021-12-16,17.35,17.62,17.28,17.57,17.36,1208148.0,21157290.0,1829500848.0,4429130638.8
sh603739,蔚蓝生物,2021-12-17,17.57,17.67,17.31,17.35,17.57,959888.0,16748000.0,1806593040.0,4373671974.0
sh603739,蔚蓝生物,2021-12-20,17.26,17.52,17.25,17.3,17.35,836277.0,14546692.0,1801386720.0,4361067732.0
sh603739,蔚蓝生物,2021-12-21,17.28,17.75,17.28,17.66,17.3,1470460.0,25848223.0,1838872224.0,4451818274.400001
sh603739,蔚蓝生物,2021-12-22,17.66,18.14,17.56,18.0,17.66,1841508.0,32953102.0,1874275200.0,4537527120.0
sh603739,蔚蓝生物,2021-12-23,18.01,18.39,17.83,18.21,18.0,2532025.0,45952687.0,1896141744.0,4590464936.4
sh603739,蔚蓝生物,2021-12-24,18.31,18.5,18.02,18.05,18.21,2954260.0,54011733.0,1879481520.0,4550131362.0
sh603739,蔚蓝生物,2021-12-27,18.05,18.3,18.02,18.23,18.05,2150728.0,39104292.0,1898224272.0,4595506633.2
sh603739,蔚蓝生物,2021-12-28,18.17,18.29,17.94,18.08,18.23,1445660.0,26130457.0,1882605312.0,4557693907.2
sh603739,蔚蓝生物,2021-12-29,18.28,18.28,17.85,18.09,18.08,1279600.0,23101234.0,1883646576.0,4560214755.6
sh603739,蔚蓝生物,2021-12-30,18.1,18.52,17.94,18.43,18.09,2546680.0,46682202.0,1919049552.0,4645923601.2
sh603739,蔚蓝生物,2021-12-31,18.39,18.63,18.16,18.6,18.43,2539060.0,46754043.0,1936751040.0,4688778024.0
sh603739,蔚蓝生物,2022-01-04,18.58,18.77,18.31,18.7,18.6,2006040.0,37370146.0,1947163679.9999998,4713986508.0
sh603739,蔚蓝生物,2022-01-05,18.58,19.77,18.4,19.15,18.7,6473425.0,123852994.0,1994020560.0,4827424686.0
sh603739,蔚蓝生物,2022-01-06,19.5,19.79,18.64,19.21,19.15,8556137.0,165095339.0,2000268144.0,4842549776.4
sh603739,蔚蓝生物,2022-01-07,19.34,19.4,17.69,18.58,19.21,7121961.0,131581894.0,1934668512.0,4683736327.2
sh603739,蔚蓝生物,2022-01-10,18.42,18.92,18.2,18.66,18.58,4724645.0,88067134.0,1942998624.0000002,4703903114.400001
sh603739,蔚蓝生物,2022-01-11,18.66,18.77,18.07,18.16,18.66,3023480.0,55411182.0,1890935424.0,4577860694.4
sh603739,蔚蓝生物,2022-01-12,18.22,18.98,18.01,18.88,18.16,4287715.0,80044589.0,1965906432.0,4759361779.2
sh603739,蔚蓝生物,2022-01-13,18.72,18.98,18.35,18.46,18.88,2417740.0,44847961.0,1922173344.0,4653486146.4
sh603739,蔚蓝生物,2022-01-14,18.48,19.48,18.34,19.15,18.46,6990410.0,133961478.0,1994020560.0,4827424686.0
