数据由邢不行整理
股票代码,股票名称,交易日期,开盘价,最高价,最低价,收盘价,前收盘价,成交量,成交额,流通市值,总市值
sh603666,N亿嘉和,2018-06-12,49.62,49.62,49.62,49.62,34.46,22200.0,1101564.0,870528318.0,3482107267.98
sh603666,亿嘉和,2018-06-13,54.58,54.58,54.58,54.58,49.62,1300.0,70954.0,957546062.0,3830177643.82
sh603666,亿嘉和,2018-06-14,60.04,60.04,60.04,60.04,54.58,7720.0,463509.0,1053335756.0,4213335759.16
sh603666,亿嘉和,2018-06-15,66.04,66.04,66.04,66.04,60.04,43695.0,2885618.0,1158599156.0,4634388633.16
sh603666,亿嘉和,2018-06-19,72.64,72.64,72.64,72.64,66.04,145579.0,10574859.0,1274388896.0,5097546794.56
sh603666,亿嘉和,2018-06-20,79.9,79.9,79.9,79.9,72.64,106100.0,8477390.0,1401757610.0,5607020772.1
sh603666,亿嘉和,2018-06-21,87.89,87.89,87.89,87.89,79.9,50972.0,4479929.0,1541933371.0,6167722849.31
sh603666,亿嘉和,2018-06-22,96.68,96.68,96.68,96.68,87.89,2400909.0,232119882.0,1696144252.0,6784565309.72
sh603666,亿嘉和,2018-06-25,99.51,106.35,99.16,106.35,96.68,10652394.0,1089032740.0,1865793765.0,7463162191.65
sh603666,亿嘉和,2018-06-26,105.0,116.89,102.5,106.62,106.35,9916737.0,1073255549.0,1870530618.0,7482109570.98
sh603666,亿嘉和,2018-06-27,109.99,115.08,107.0,112.42,106.62,7718186.0,854848234.0,1972285238.0,7889127349.18
sh603666,亿嘉和,2018-06-28,108.31,110.87,101.5,102.04,112.42,7111603.0,755176662.0,1790179556.0,7160705877.16
sh603666,亿嘉和,2018-06-29,102.2,112.24,100.13,112.24,102.04,6302259.0,674441101.0,1969127336.0,7876495762.96
sh603666,亿嘉和,2018-07-02,116.0,120.98,112.3,114.23,112.24,7959381.0,926243108.0,2004039697.0,8016144966.17
sh603666,亿嘉和,2018-07-03,113.9,119.19,112.6,115.55,114.23,6423361.0,744465186.0,2027197645.0,8108776598.45
sh603666,亿嘉和,2018-07-04,113.0,113.96,105.28,108.17,115.55,5168728.0,563367189.0,1897723663.0,7590881563.43
sh603666,亿嘉和,2018-07-05,106.96,114.0,106.33,109.99,108.17,5342450.0,589156936.0,1929653561.0,7718600935.21
sh603666,亿嘉和,2018-07-06,110.0,120.99,109.98,115.49,109.99,8579390.0,1006151217.0,2026145011.0,8104566069.71
sh603666,亿嘉和,2018-07-09,115.09,119.84,114.01,118.11,115.49,6111677.0,715115366.0,2072110029.0,8288425824.69
sh603666,亿嘉和,2018-07-10,118.0,118.0,113.53,117.25,118.11,4789811.0,554651146.0,2057022275.0,8228074912.75
sh603666,亿嘉和,2018-07-11,113.01,115.49,110.0,115.3,117.25,4903732.0,553114129.0,2022811670.0,8091232728.7
sh603666,亿嘉和,2018-07-12,114.61,123.89,113.1,118.22,115.3,5927600.0,700283484.0,2074039858.0,8296145127.38
sh603666,亿嘉和,2018-07-13,116.0,117.6,111.16,111.55,118.22,5900796.0,669786457.0,1957022045.0,7828074682.45
sh603666,亿嘉和,2018-07-16,111.0,115.56,111.0,113.87,111.55,4057457.0,459374100.0,1997723893.0,7990881793.73
sh603666,亿嘉和,2018-07-17,112.5,120.1,110.01,119.77,113.87,6335565.0,734285415.0,2101232903.0,8404917119.83
sh603666,亿嘉和,2018-07-18,118.2,119.2,111.64,112.38,119.77,5449945.0,626116620.0,1971583482.0,7886320330.02
sh603666,亿嘉和,2018-07-19,112.99,114.29,104.8,107.68,112.38,4302010.0,467286137.0,1889127152.0,7556495578.72
sh603666,亿嘉和,2018-07-20,106.0,108.31,105.0,107.31,107.68,3039482.0,324978186.0,1882635909.0,7530530651.49
sh603666,亿嘉和,2018-07-23,106.7,109.25,104.55,106.92,107.31,2710807.0,289752573.0,1875793788.0,7503162214.68
sh603666,亿嘉和,2018-07-24,106.21,110.0,106.04,108.97,106.92,3414011.0,370956313.0,1911758783.0,7647021946.63
sh603666,亿嘉和,2018-07-25,108.15,109.99,102.9,103.74,108.97,3775970.0,401545069.0,1820004186.0,7280004191.46
sh603666,亿嘉和,2018-07-26,103.9,104.5,99.58,100.46,103.74,2748807.0,278688253.0,1762460194.0,7049828620.34
sh603666,亿嘉和,2018-07-27,99.51,100.97,98.21,99.4,100.46,1564984.0,155959624.0,1743863660.0,6975442612.6
sh603666,亿嘉和,2018-07-30,99.35,99.38,95.52,96.98,99.4,1994464.0,193339325.0,1701407422.0,6805617953.42
sh603666,亿嘉和,2018-07-31,96.5,97.29,94.6,96.06,96.98,1579500.0,151295130.0,1685267034.0,6741056512.74
sh603666,亿嘉和,2018-08-01,96.3,98.88,95.61,96.85,96.06,2003065.0,195075897.0,1699126715.0,6796495141.15
sh603666,亿嘉和,2018-08-02,96.0,96.5,93.0,95.07,96.85,1979364.0,187067693.0,1667898573.0,6671582788.53
sh603666,亿嘉和,2018-08-03,94.48,94.78,88.86,88.94,95.07,2595984.0,236629297.0,1560354466.0,6241407102.26
sh603666,亿嘉和,2018-08-06,87.98,87.99,81.65,82.11,88.94,2772454.0,234436589.0,1440529629.0,5762108580.69
sh603666,亿嘉和,2018-08-07,83.54,86.33,82.11,86.09,82.11,2555164.0,215786034.0,1510354351.0,6041406987.11
sh603666,亿嘉和,2018-08-08,85.58,85.58,78.97,80.54,86.09,2432162.0,200276686.0,1412985706.0,5651933078.66
sh603666,亿嘉和,2018-08-09,81.94,88.59,80.73,88.59,80.54,3149889.0,270479708.0,1554214101.0,6216845684.61
sh603666,亿嘉和,2018-08-10,90.5,90.58,86.78,87.99,88.59,2945389.0,260744173.0,1543687761.0,6174740397.21
sh603666,亿嘉和,2018-08-13,85.48,91.0,85.26,89.71,87.99,2789912.0,247416889.0,1573863269.0,6295442221.09
sh603666,亿嘉和,2018-08-14,89.01,90.8,87.3,89.42,89.71,2002913.0,177975504.0,1568775538.0,6275091332.18
sh603666,亿嘉和,2018-08-15,89.2,89.65,84.0,84.32,89.42,2315303.0,198725256.0,1479301648.0,5917196389.28
sh603666,亿嘉和,2018-08-16,81.9,85.4,80.81,82.65,84.32,1662499.0,138529902.0,1450003335.0,5800003339.35
sh603666,亿嘉和,2018-08-17,84.48,85.99,82.21,82.66,82.65,1880972.0,158189145.0,1450178774.0,5800705094.14
sh603666,亿嘉和,2018-08-20,81.85,87.89,80.58,87.14,82.66,2840514.0,240807929.0,1528775446.0,6115091240.06
sh603666,亿嘉和,2018-08-21,86.15,90.07,84.6,88.2,87.14,2843124.0,248047278.0,1547371980.0,6189477247.8
sh603666,亿嘉和,2018-08-22,87.51,92.16,87.51,89.52,88.2,2949163.0,265434903.0,1570529928.0,6282108880.08
sh603666,亿嘉和,2018-08-23,89.51,93.97,87.7,93.9,89.52,3207215.0,292407193.0,1647372210.0,6589477478.1
sh603666,亿嘉和,2018-08-24,96.0,98.0,91.31,91.5,93.9,4054419.0,382834082.0,1605266850.0,6421056328.5
sh603666,亿嘉和,2018-08-27,91.02,94.35,90.52,91.86,91.5,3061269.0,281955484.0,1611582654.0,6446319500.94
sh603666,亿嘉和,2018-08-28,91.8,92.7,89.56,90.9,91.86,2165739.0,196960753.0,1594740510.0,6378951041.1
sh603666,亿嘉和,2018-08-29,90.9,92.8,90.11,91.0,90.9,1630323.0,149244608.0,1596494900.0,6385968589.0
sh603666,亿嘉和,2018-08-30,90.66,91.46,88.88,88.89,91.0,1363500.0,122708162.0,1559477271.0,6237898328.31
sh603666,亿嘉和,2018-08-31,88.95,88.95,83.58,83.58,88.89,2229775.0,190819242.0,1466319162.0,5865266534.82
sh603666,亿嘉和,2018-09-03,82.67,85.49,80.83,85.31,83.58,1923202.0,159811587.0,1496670109.0,5986670113.49
sh603666,亿嘉和,2018-09-04,84.9,85.9,83.5,85.09,85.31,1414905.0,119955895.0,1492810451.0,5971231508.11
sh603666,亿嘉和,2018-09-05,85.12,86.99,83.6,83.75,85.09,1441808.0,123220730.0,1469301625.0,5877196366.25
sh603666,亿嘉和,2018-09-06,82.55,86.18,82.4,85.58,83.75,1709723.0,145502440.0,1501406962.0,6005617492.82
sh603666,亿嘉和,2018-09-07,86.9,90.6,86.36,87.6,85.58,2693080.0,238475661.0,1536845640.0,6147371960.4
sh603666,亿嘉和,2018-09-10,86.8,86.8,83.72,84.48,87.6,1537480.0,130630729.0,1482108672.0,5928424465.92
sh603666,亿嘉和,2018-09-11,85.0,87.86,84.32,87.12,84.48,1564030.0,134499316.0,1528424568.0,6113687730.48
sh603666,亿嘉和,2018-09-12,86.32,90.85,86.11,88.69,87.12,2069558.0,184454742.0,1555968491.0,6223863232.51
sh603666,亿嘉和,2018-09-13,90.01,90.88,86.88,89.1,88.69,1880097.0,166768963.0,1563161490.0,6252635178.9
sh603666,亿嘉和,2018-09-14,88.7,88.89,82.0,83.0,89.1,2174215.0,184953140.0,1456143700.0,5824564757.0
sh603666,亿嘉和,2018-09-17,81.98,82.6,80.57,81.25,83.0,1107239.0,90152690.0,1425441875.0,5701757668.75
sh603666,亿嘉和,2018-09-18,81.09,82.75,78.5,82.59,81.25,1884501.0,152789438.0,1448950701.0,5795792810.61
sh603666,亿嘉和,2018-09-19,81.72,83.97,80.61,82.01,82.59,1836762.0,151112288.0,1438775239.0,5755091032.79
sh603666,亿嘉和,2018-09-20,82.2,83.49,80.08,80.41,82.01,1357824.0,110962347.0,1410704999.0,5642810266.39
sh603666,亿嘉和,2018-09-21,80.52,83.5,80.38,83.21,80.41,1655371.0,136070253.0,1459827919.0,5839301607.59
sh603666,亿嘉和,2018-09-25,82.9,83.4,81.9,83.0,83.21,1020700.0,84424673.0,1456143700.0,5824564757.0
sh603666,亿嘉和,2018-09-26,83.18,84.85,82.52,83.65,83.0,1411312.0,118194876.0,1467547235.0,5870178818.35
sh603666,亿嘉和,2018-09-27,83.93,88.3,83.9,85.1,83.65,2307912.0,199069853.0,1492985890.0,5971933262.9
sh603666,亿嘉和,2018-09-28,85.68,86.88,84.51,86.01,85.1,1486312.0,127504245.0,1508950839.0,6035792948.79
sh603666,亿嘉和,2018-10-08,84.15,84.15,79.03,80.0,86.01,1767650.0,144736809.0,1403512000.0,5614038320.0
sh603666,亿嘉和,2018-10-09,79.9,81.58,79.33,80.55,80.0,974900.0,78464283.0,1413161145.0,5652634833.45
sh603666,亿嘉和,2018-10-10,80.6,82.3,80.2,81.52,80.55,992900.0,80763988.0,1430178728.0,5720705048.08
sh603666,亿嘉和,2018-10-11,77.08,77.28,73.37,73.37,81.52,1813212.0,135674655.0,1287195943.0,5148774894.23
sh603666,亿嘉和,2018-10-12,73.0,73.0,69.36,71.08,73.37,1702000.0,121098906.0,1247020412.0,4988073047.32
sh603666,亿嘉和,2018-10-15,72.0,72.5,69.66,70.39,71.08,1226300.0,86991362.0,1234915121.0,4939651966.81
sh603666,亿嘉和,2018-10-16,70.77,71.28,66.8,69.34,70.39,1509900.0,104262327.0,1216494026.0,4865967713.86
sh603666,亿嘉和,2018-10-17,71.14,71.35,67.48,69.95,69.34,1301900.0,90783887.0,1227195805.0,4908774756.05
sh603666,亿嘉和,2018-10-18,68.99,71.0,68.05,69.32,69.95,1427397.0,99086392.0,1216143148.0,4864564204.28
sh603666,亿嘉和,2018-10-19,67.8,72.25,67.2,72.0,69.32,1768639.0,124447019.0,1263160800.0,5052634488.0
sh603666,亿嘉和,2018-10-22,72.65,76.88,71.41,75.49,72.0,2080039.0,154766023.0,1324389011.0,5297546909.71
sh603666,亿嘉和,2018-10-23,74.48,75.36,71.96,71.96,75.49,1527100.0,112716406.0,1262459044.0,5049827468.84
sh603666,亿嘉和,2018-10-24,71.5,73.06,70.43,71.18,71.96,1127057.0,80702818.0,1248774802.0,4995090595.22
sh603666,亿嘉和,2018-10-25,68.15,70.77,67.52,70.39,71.18,1292397.0,89026404.0,1234915121.0,4939651966.81
sh603666,亿嘉和,2018-10-26,71.01,72.1,68.67,70.58,70.39,1053797.0,74196802.0,1238248462.0,4952985307.82
sh603666,亿嘉和,2018-10-29,71.77,72.56,70.5,71.15,70.58,1213843.0,86960569.0,1248248485.0,4992985330.85
sh603666,亿嘉和,2018-10-30,70.99,73.9,69.01,73.06,71.15,1678585.0,120591314.0,1281757334.0,5127020495.74
sh603666,亿嘉和,2018-10-31,70.45,72.29,68.8,71.94,73.06,2288168.0,161300203.0,1262108166.0,5048423959.26
sh603666,亿嘉和,2018-11-01,74.9,75.51,71.89,71.98,71.94,2333832.0,171493357.0,1262809922.0,5051230978.42
sh603666,DR亿嘉和,2018-11-02,52.4,54.33,51.67,54.04,51.31,2407497.0,127960880.0,1327301298.4,5309196006.8
sh603666,亿嘉和,2018-11-05,54.08,54.55,50.21,51.48,54.04,4044830.0,211947485.0,1264423960.8,5057687091.6
sh603666,亿嘉和,2018-11-06,50.2,50.2,46.5,48.05,51.48,4347659.0,208636354.0,1180178153.0,4720704443.5
sh603666,亿嘉和,2018-11-07,47.62,48.68,47.5,47.8,48.05,2019870.0,96880536.0,1174037788.0,4696143026.0
sh603666,亿嘉和,2018-11-08,47.9,48.29,46.67,46.67,47.8,2001435.0,95099169.0,1146283338.2,4585125418.9
sh603666,亿嘉和,2018-11-09,46.42,47.55,45.08,47.29,46.67,1917043.0,89009371.0,1161511443.4,4646037734.3
sh603666,亿嘉和,2018-11-12,46.98,49.83,46.22,49.05,47.29,3030283.0,147036973.0,1204739613.0,4818950113.5
sh603666,亿嘉和,2018-11-13,48.5,51.87,48.13,50.17,49.05,3339035.0,168550075.0,1232248448.2,4928985263.9
sh603666,亿嘉和,2018-11-14,49.99,51.55,49.65,49.81,50.17,2092258.0,105890711.0,1223406322.6,4893616822.7
sh603666,亿嘉和,2018-11-15,50.55,52.69,50.22,52.3,49.81,2900998.0,149781395.0,1284564358.0,5138248541.0
sh603666,亿嘉和,2018-11-16,53.0,56.99,53.0,53.61,52.3,3241485.0,176757800.0,1316739870.6,5266950368.7
sh603666,亿嘉和,2018-11-19,54.0,54.6,52.69,53.6,53.61,2036760.0,108861240.0,1316494256.0,5265967912.0
sh603666,亿嘉和,2018-11-20,52.6,54.0,51.54,51.8,53.6,1717580.0,90673199.0,1272283628.0,5089125706.0
sh603666,亿嘉和,2018-11-21,50.69,51.67,50.0,51.12,51.8,1794840.0,91259366.0,1255581835.2,5022318650.4
sh603666,亿嘉和,2018-11-22,51.6,52.0,50.6,50.82,51.12,1142640.0,58646517.0,1248213397.2,4992844949.4
sh603666,亿嘉和,2018-11-23,50.5,50.82,47.6,47.61,50.82,1939083.0,94540828.0,1169371110.6,4677476348.7
sh603666,亿嘉和,2018-11-26,47.01,48.1,46.24,46.94,47.61,1171748.0,55113476.0,1152914932.4,4611651749.8
sh603666,亿嘉和,2018-11-27,47.39,47.96,46.21,47.32,46.94,881520.0,41554221.0,1162248287.2,4648985104.4
sh603666,亿嘉和,2018-11-28,46.9,48.04,46.28,48.0,47.32,1173041.0,55431930.0,1178950080.0,4715792160.0
sh603666,亿嘉和,2018-11-29,48.3,48.84,46.5,46.5,48.0,1049265.0,50000595.0,1142107890.0,4568423655.0
sh603666,亿嘉和,2018-11-30,46.5,47.58,46.02,47.54,46.5,904480.0,42341857.0,1167651808.4,4670599151.8
sh603666,亿嘉和,2018-12-03,48.71,49.85,48.2,49.31,47.54,1628134.0,79894373.0,1211125592.6,4844493987.7
sh603666,亿嘉和,2018-12-04,49.14,49.2,48.13,49.12,49.31,1216062.0,59296347.0,1206458915.2,4825827310.4
sh603666,亿嘉和,2018-12-05,47.22,48.45,47.22,47.97,49.12,837320.0,40148091.0,1178213236.2,4712844789.9
sh603666,亿嘉和,2018-12-06,48.05,49.6,47.4,48.6,47.97,1239257.0,60091531.0,1193686956.0,4774739562.0
sh603666,亿嘉和,2018-12-07,48.42,49.49,48.42,48.73,48.6,805732.0,39523905.0,1196879945.8,4787511499.1
sh603666,亿嘉和,2018-12-10,48.06,48.06,47.09,47.24,48.73,710920.0,33721214.0,1160283370.4,4641125450.8
sh603666,亿嘉和,2018-12-11,47.5,47.95,47.21,47.84,47.24,495040.0,23565005.0,1175020246.4,4700072852.8
sh603666,亿嘉和,2018-12-12,48.0,48.5,47.5,47.65,47.84,594280.0,28531243.0,1170353569.0,4681406175.5
sh603666,亿嘉和,2018-12-13,47.77,48.33,47.28,48.0,47.65,741392.0,35612869.0,1178950080.0,4715792160.0
sh603666,亿嘉和,2018-12-14,47.7,48.11,46.12,46.2,48.0,887456.0,41763128.0,1134739452.0,4538949954.0
sh603666,亿嘉和,2018-12-17,46.05,47.11,46.0,46.75,46.2,687030.0,32042637.0,1148248255.0,4592985072.5
sh603666,亿嘉和,2018-12-18,46.7,46.7,45.9,46.3,46.75,871368.0,40318747.0,1137195598.0,4548774521.0
sh603666,亿嘉和,2018-12-19,46.58,46.67,45.46,45.62,46.3,619784.0,28539297.0,1120493805.2,4481967465.4
sh603666,亿嘉和,2018-12-20,45.61,46.35,45.34,46.13,45.62,668300.0,30768159.0,1133020149.8,4532072757.1
sh603666,亿嘉和,2018-12-21,45.8,46.1,45.16,45.88,46.13,669560.0,30607465.0,1126879784.8,4507511339.6
sh603666,亿嘉和,2018-12-24,46.02,49.46,46.02,48.39,45.88,2099187.0,100903446.0,1188529049.4,4754107971.3
sh603666,亿嘉和,2018-12-25,47.55,49.21,46.81,49.16,48.39,1915754.0,91693415.0,1207441373.6,4829757137.2
sh603666,亿嘉和,2018-12-26,49.16,50.38,48.34,48.34,49.16,2007814.0,99295129.0,1187300976.4,4749195687.8
sh603666,亿嘉和,2018-12-27,49.31,49.56,46.62,47.01,48.34,1412748.0,68216540.0,1154634234.6,4618528946.7
sh603666,亿嘉和,2018-12-28,47.25,47.58,45.64,45.8,47.01,1599040.0,74313903.0,1124914868.0,4499651686.0
sh603666,亿嘉和,2019-01-02,46.03,46.65,45.52,45.81,45.8,628948.0,28835559.0,1125160482.6,4500634142.7
sh603666,亿嘉和,2019-01-03,45.79,46.5,45.31,45.38,45.81,750294.0,34341002.0,1114599054.8,4458388504.6
sh603666,亿嘉和,2019-01-04,44.5,46.36,44.0,46.11,45.38,1209760.0,54942987.0,1132528920.6,4530107843.7
sh603666,亿嘉和,2019-01-07,46.5,47.18,46.12,46.87,46.11,1272289.0,59415152.0,1151195630.2,4604774552.9
sh603666,亿嘉和,2019-01-08,46.91,47.5,45.7,45.89,46.87,1193773.0,55442628.0,1127125399.4,4508493796.3
sh603666,亿嘉和,2019-01-09,46.0,46.66,45.43,45.55,45.89,1456900.0,67139464.0,1118774503.0,4475090268.5
sh603666,亿嘉和,2019-01-10,45.3,45.54,44.75,44.91,45.55,1141610.0,51489655.0,1103055168.6,4412213039.7
sh603666,亿嘉和,2019-01-11,45.25,47.0,44.92,47.0,44.91,2084874.0,96032937.0,1154388620.0,4617546490.0
sh603666,亿嘉和,2019-01-14,47.07,47.49,44.88,45.06,47.0,1995401.0,91174965.0,1106739387.6,4426949890.2
sh603666,亿嘉和,2019-01-15,44.89,46.28,44.65,45.88,45.06,1241283.0,56631253.0,1126879784.8,4507511339.6
sh603666,亿嘉和,2019-01-16,45.71,46.08,45.18,45.54,45.88,950680.0,43353276.0,1118528888.4,4474107811.8
sh603666,亿嘉和,2019-01-17,45.7,45.71,44.67,44.71,45.54,981000.0,44116262.0,1098142876.6,4392563905.7
sh603666,亿嘉和,2019-01-18,44.76,45.36,44.61,45.33,44.71,820903.0,37042286.0,1113370981.8,4453476221.1
sh603666,亿嘉和,2019-01-21,45.35,45.99,45.33,45.54,45.33,839150.0,38295260.0,1118528888.4,4474107811.8
sh603666,亿嘉和,2019-01-22,45.9,46.85,45.7,46.1,45.54,1753258.0,81013454.0,1132283306.0,4529125387.0
sh603666,亿嘉和,2019-01-23,45.78,46.5,45.3,46.47,46.1,1393650.0,64169146.0,1141371046.2,4565476284.9
sh603666,亿嘉和,2019-01-24,46.31,46.65,45.58,46.29,46.47,1230358.0,56793771.0,1136949983.4,4547792064.3
sh603666,亿嘉和,2019-01-25,46.0,47.48,45.67,46.6,46.29,1806850.0,84096950.0,1144564036.0,4578248222.0
sh603666,亿嘉和,2019-01-28,46.91,46.98,45.89,46.01,46.6,966510.0,44898173.0,1130072774.6,4520283276.7
sh603666,亿嘉和,2019-01-29,45.91,46.18,43.8,43.8,46.01,2052893.0,91113740.0,1075791948.0,4303160346.0
sh603666,亿嘉和,2019-01-30,43.8,44.08,43.33,43.36,43.8,1054889.0,46082296.0,1064984905.6,4259932251.2
sh603666,亿嘉和,2019-01-31,43.41,43.8,40.0,40.7,43.36,1730135.0,71958567.0,999651422.0,3998598769.0
sh603666,亿嘉和,2019-02-01,41.0,41.79,41.0,41.59,40.7,668875.0,27708067.0,1021511121.4,4086037415.3
sh603666,亿嘉和,2019-02-11,42.29,43.45,41.7,43.27,41.59,1010951.0,43313871.0,1062774374.2,4251090140.9
sh603666,亿嘉和,2019-02-12,43.28,45.27,43.07,44.59,43.27,1720130.0,76493042.0,1095195501.4,4380774425.3
sh603666,亿嘉和,2019-02-13,44.62,45.72,44.6,45.5,44.59,1525221.0,69129877.0,1117546430.0,4470177985.0
sh603666,亿嘉和,2019-02-14,45.53,46.78,45.11,46.06,45.5,1552492.0,71752380.0,1131300847.6,4525195560.2
sh603666,亿嘉和,2019-02-15,46.55,46.55,45.3,45.41,46.06,1086480.0,49776974.0,1115335898.6,4461335874.7
sh603666,亿嘉和,2019-02-18,46.35,47.6,45.88,46.99,45.41,1747659.0,81839458.0,1154143005.4,4616564033.3
sh603666,亿嘉和,2019-02-19,47.3,47.48,46.0,46.48,46.99,1356831.0,63426836.0,1141616660.8,4566458741.6
sh603666,亿嘉和,2019-02-20,46.88,46.89,45.61,46.03,46.48,1232480.0,56865801.0,1130564003.8,4522248190.1
sh603666,亿嘉和,2019-02-21,46.47,50.3,46.1,47.31,46.03,3671028.0,176921141.0,1162002672.6,4648002647.7
sh603666,亿嘉和,2019-02-22,47.3,48.2,46.6,47.86,47.31,2340725.0,110883550.0,1175511475.6,4702037766.2
sh603666,亿嘉和,2019-02-25,48.59,50.14,48.22,50.03,47.86,3045291.0,150253418.0,1228809843.8,4915230870.1
sh603666,亿嘉和,2019-02-26,50.05,55.03,49.51,54.28,50.03,5741394.0,305244279.0,1333196048.8,5332774967.6
sh603666,亿嘉和,2019-02-27,54.5,55.32,52.48,53.0,54.28,3795476.0,203853154.0,1301757380.0,5207020510.0
sh603666,亿嘉和,2019-02-28,52.85,53.65,52.25,53.2,53.0,1657491.0,87592960.0,1306669672.0,5226669644.0
sh603666,亿嘉和,2019-03-01,53.81,53.9,51.51,52.62,53.2,1556576.0,81675916.0,1292424025.2,5169687155.4
sh603666,亿嘉和,2019-03-04,53.1,56.3,53.0,54.4,52.62,3563040.0,194425537.0,1336143424.0,5344564448.0
sh603666,亿嘉和,2019-03-05,54.5,57.1,54.2,57.08,54.4,3706491.0,207106266.0,1401968136.8,5607862843.6
sh603666,亿嘉和,2019-03-06,56.58,57.9,55.3,56.48,57.08,2316903.0,130406732.0,1387231260.8,5548915441.6
sh603666,亿嘉和,2019-03-07,56.0,59.12,55.52,56.89,56.48,2338892.0,133675867.0,1397301459.4,5589196166.3
sh603666,亿嘉和,2019-03-08,55.56,56.87,54.01,54.08,56.89,1823900.0,101160459.0,1328283756.8,5313125833.6
sh603666,亿嘉和,2019-03-11,59.49,59.49,58.88,59.49,54.08,1748419.0,103990066.0,1461161255.4,5844634908.3
sh603666,亿嘉和,2019-03-12,65.44,65.44,62.02,65.44,59.49,7366076.0,474500900.0,1607301942.4,6429196644.8
sh603666,亿嘉和,2019-03-13,65.4,65.55,59.5,59.8,65.44,4660406.0,290976733.0,1468775308.0,5875091066.0
sh603666,亿嘉和,2019-03-14,58.8,62.29,58.04,60.56,59.8,3400503.0,206414469.0,1487442017.6,5949757775.2
sh603666,亿嘉和,2019-03-15,60.33,62.11,59.01,62.07,60.56,2189847.0,133954367.0,1524529822.2,6098108736.9
sh603666,亿嘉和,2019-03-18,62.27,68.28,62.27,68.28,62.07,3130218.0,204697941.0,1677056488.8,6708214347.6
sh603666,亿嘉和,2019-03-19,68.86,71.88,67.0,67.48,68.28,2535958.0,176071776.0,1657407320.8,6629617811.6
sh603666,亿嘉和,2019-03-20,68.05,70.99,67.0,68.05,67.48,1840893.0,126642758.0,1671407353.0,6685617843.5
sh603666,亿嘉和,2019-03-21,67.05,70.18,67.05,67.67,68.05,1399085.0,95315744.0,1662073998.2,6648284488.9
sh603666,亿嘉和,2019-03-22,67.58,68.5,65.01,68.5,67.67,1517197.0,100530052.0,1682460010.0,6729828395.0
sh603666,亿嘉和,2019-03-25,66.49,67.98,66.08,66.68,68.5,845841.0,56811389.0,1637758152.8,6551021275.6
sh603666,亿嘉和,2019-03-26,66.85,67.65,63.02,64.73,66.68,1290263.0,84312105.0,1589863305.8,6359442219.1
sh603666,亿嘉和,2019-03-27,65.0,65.2,62.25,64.41,64.73,1818119.0,115353475.0,1582003638.6,6328003604.7
sh603666,亿嘉和,2019-03-28,64.1,66.0,62.9,63.15,64.41,900096.0,58117344.0,1551056199.0,6204214060.5
sh603666,亿嘉和,2019-03-29,63.93,68.3,63.93,67.62,63.15,1867449.0,124939446.0,1660845925.2,6643372205.4
sh603666,亿嘉和,2019-04-01,68.83,69.68,67.13,68.5,67.62,1649350.0,112660218.0,1682460010.0,6729828395.0
sh603666,亿嘉和,2019-04-02,68.59,69.8,67.6,68.55,68.5,1273496.0,87754954.0,1683688083.0,6734740678.5
sh603666,亿嘉和,2019-04-03,68.1,70.0,68.0,69.32,68.55,1523448.0,105393700.0,1702600407.2,6810389844.4
sh603666,亿嘉和,2019-04-04,70.47,70.48,66.75,67.9,69.32,1258944.0,85990713.0,1667723134.0,6670880993.0
sh603666,亿嘉和,2019-04-08,66.8,68.56,65.84,66.33,67.9,1024611.0,68482160.0,1629161641.8,6516635291.1
sh603666,亿嘉和,2019-04-09,66.33,67.78,64.8,65.51,66.33,1238765.0,81951968.0,1609021244.6,6436073841.7
sh603666,亿嘉和,2019-04-10,65.8,67.84,65.49,66.07,65.51,1091935.0,72699411.0,1622775662.2,6491091416.9
sh603666,亿嘉和,2019-04-11,65.71,66.36,63.2,64.47,66.07,984188.0,63524631.0,1583477326.2,6333898344.9
sh603666,亿嘉和,2019-04-12,64.66,65.8,63.51,63.9,64.47,967652.0,62470899.0,1569477294.0,6277898313.0
sh603666,亿嘉和,2019-04-15,64.01,66.3,63.5,63.58,63.9,1809376.0,117855556.0,1561617626.8,6246459698.6
sh603666,亿嘉和,2019-04-16,63.63,65.94,63.63,65.66,63.58,1379641.0,89675876.0,1612705463.6,6450810692.2
sh603666,亿嘉和,2019-04-17,65.69,65.89,61.5,62.1,65.66,3997466.0,251382855.0,1525266666.0,6101056107.0
sh603666,亿嘉和,2019-04-18,61.99,62.61,61.51,61.73,62.1,1232900.0,76278003.0,1516178925.8,6064705209.1
sh603666,亿嘉和,2019-04-19,61.76,62.0,60.01,61.14,61.73,1217118.0,73915458.0,1501687664.4,6006740263.8
sh603666,亿嘉和,2019-04-22,60.62,61.66,58.66,59.04,61.14,1478269.0,88915503.0,1450108598.4,5800424356.8
sh603666,亿嘉和,2019-04-23,59.55,59.8,58.2,58.85,59.04,1122460.0,66158439.0,1445441921.0,5781757679.5
sh603666,亿嘉和,2019-04-24,58.99,60.18,57.99,59.87,58.85,1310592.0,77420510.0,1470494610.2,5881968262.9
sh603666,亿嘉和,2019-04-25,60.0,61.5,58.88,58.91,59.87,1498174.0,90447925.0,1446915608.6,5787652419.7
sh603666,亿嘉和,2019-04-26,59.1,61.3,58.26,59.9,58.91,1098249.0,65777422.0,1471231454.0,5884915633.0
sh603666,亿嘉和,2019-04-29,59.1,62.39,59.1,61.1,59.9,1854493.0,113768054.0,1500705206.0,6002810437.0
sh603666,亿嘉和,2019-04-30,60.26,61.6,58.66,59.14,61.1,1133410.0,67724652.0,1452564744.4,5810248923.8
sh603666,亿嘉和,2019-05-06,56.5,56.5,53.23,53.23,59.14,1364310.0,73857182.0,1307406515.8,5229617014.1
sh603666,亿嘉和,2019-05-07,52.56,53.96,50.4,51.54,53.23,1351036.0,70189687.0,1265897648.4,5063581831.8
sh603666,亿嘉和,2019-05-08,50.65,52.45,49.81,52.08,51.54,1096740.0,56509419.0,1279160836.8,5116634493.6
sh603666,亿嘉和,2019-05-09,51.5,53.7,51.2,51.84,52.08,919078.0,48652632.0,1273266086.4,5093055532.8
sh603666,亿嘉和,2019-05-10,53.21,54.4,51.38,53.95,51.84,1073320.0,57391562.0,1325090767.0,5300353896.5
sh603666,亿嘉和,2019-05-13,53.01,54.48,52.8,53.86,53.95,614955.0,33079332.0,1322880235.6,5291511786.2
sh603666,亿嘉和,2019-05-14,52.21,54.25,52.21,52.91,53.86,807021.0,42707368.0,1299546848.6,5198178399.7
sh603666,亿嘉和,2019-05-15,53.06,53.9,52.46,53.35,52.91,870638.0,46145584.0,1310353891.0,5241406494.5
sh603666,亿嘉和,2019-05-16,53.28,53.61,52.0,53.25,53.35,727045.0,38432874.0,1307897745.0,5231581927.5
sh603666,亿嘉和,2019-05-17,53.22,53.64,49.01,49.9,53.25,1150907.0,58736056.0,1225616854.0,4902458933.0
sh603666,亿嘉和,2019-05-20,49.6,50.59,48.5,50.34,49.9,850259.0,42317997.0,1236423896.4,4945687027.8
sh603666,亿嘉和,2019-05-21,50.0,51.75,49.7,51.75,50.34,879709.0,45192809.0,1271055555.0,5084213422.5
sh603666,亿嘉和,2019-05-22,51.5,51.98,49.65,50.53,51.75,1038099.0,52486135.0,1241090573.8,4964353705.1
sh603666,亿嘉和,2019-05-23,50.04,50.55,48.2,49.31,50.53,1088340.0,53094904.0,1211125592.6,4844493987.7
sh603666,亿嘉和,2019-05-24,48.5,49.14,46.98,47.54,49.31,1300113.0,61872317.0,1167651808.4,4670599151.8
sh603666,亿嘉和,2019-05-27,47.64,50.98,47.0,50.6,47.54,1397517.0,69029056.0,1242809876.0,4971230902.0
sh603666,亿嘉和,2019-05-28,50.81,52.19,50.24,51.77,50.6,1484869.0,76400498.0,1271546784.2,5086178335.9
sh603666,亿嘉和,2019-05-29,51.72,52.1,51.0,51.8,51.77,730854.0,37757131.0,1272283628.0,5089125706.0
sh603666,亿嘉和,2019-05-30,52.1,52.11,50.09,51.55,51.8,690162.0,35107028.0,1266143263.0,5064564288.5
sh603666,亿嘉和,2019-05-31,51.08,53.49,50.91,52.65,51.55,1196702.0,62540044.0,1293160869.0,5172634525.5
sh603666,亿嘉和,2019-06-03,53.34,55.48,52.7,53.99,52.65,2194789.0,119016081.0,1326073225.4,5304283723.3
sh603666,亿嘉和,2019-06-04,53.79,55.37,53.35,54.3,53.99,1662644.0,90837526.0,1333687278.0,5334739881.0
sh603666,亿嘉和,2019-06-05,54.97,54.97,52.32,52.54,54.3,806950.0,43096500.0,1290459108.4,5161827501.8
sh603666,亿嘉和,2019-06-06,52.01,54.91,52.01,54.06,52.54,1416580.0,76464974.0,1327792527.6,5311160920.2
sh603666,亿嘉和,2019-06-10,53.28,53.8,52.44,53.61,54.06,931558.0,49587462.0,1316739870.6,5266950368.7
sh603666,亿嘉和,2019-06-11,53.39,55.11,53.0,54.99,53.61,1111296.0,60518959.0,1350634685.4,5402529393.3
sh603666,亿嘉和,2019-06-12,54.7,56.5,54.7,55.66,54.99,1129265.0,62653753.0,1367090863.6,5468353992.2
sh603666,亿嘉和,2019-06-13,55.68,56.2,55.0,55.58,55.66,522481.0,28985871.0,1365125946.8,5460494338.6
sh603666,亿嘉和,2019-06-14,55.59,57.83,55.21,55.81,55.58,977900.0,55402987.0,1370775082.6,5483090842.7
sh603666,亿嘉和,2019-06-17,55.35,55.35,52.9,54.7,55.81,950480.0,51341851.0,1343511862.0,5374038149.0
sh603666,亿嘉和,2019-06-18,54.94,54.94,53.42,53.56,54.7,449171.0,24280494.0,1315511797.6,5262038085.2
sh603666,亿嘉和,2019-06-19,54.66,55.5,54.22,54.5,53.56,1169033.0,64072360.0,1338599570.0,5354389015.0
sh603666,亿嘉和,2019-06-20,54.55,55.3,53.55,54.82,54.5,894200.0,48725541.0,1548427629.4,5385827629.4
sh603666,亿嘉和,2019-06-21,55.0,56.78,55.0,56.58,54.82,1022620.0,57332925.0,1598140008.6,5558740008.6
sh603666,亿嘉和,2019-06-24,56.7,56.7,55.48,56.16,56.58,526702.0,29461047.0,1586276827.2,5517476827.2
sh603666,亿嘉和,2019-06-25,55.77,56.14,53.8,55.08,56.16,829540.0,45449886.0,1555771503.6,5411371503.6
sh603666,亿嘉和,2019-06-26,54.67,55.68,54.47,55.51,55.08,495616.0,27420939.0,1567917141.7,5453617141.7
sh603666,亿嘉和,2019-06-27,55.51,56.33,55.28,55.84,55.51,528409.0,29561116.0,1577238212.8,5486038212.8
sh603666,XD亿嘉和,2019-06-28,55.75,55.75,54.45,54.77,55.38,449400.0,24603832.0,1547015345.9,5380915345.9
sh603666,亿嘉和,2019-07-01,55.77,56.7,55.04,56.67,54.77,1148240.0,64661434.0,1600682118.9,5567582118.9
sh603666,亿嘉和,2019-07-02,56.6,58.7,56.2,58.3,56.67,1600820.0,92822612.0,1646722561.0,5727722561.0
sh603666,亿嘉和,2019-07-03,58.0,58.87,57.36,58.47,58.3,779060.0,45307632.0,1651524324.9,5744424324.9
sh603666,亿嘉和,2019-07-04,58.46,58.5,56.66,57.0,58.47,745716.0,42836897.0,1610003190.0,5600003190.0
sh603666,亿嘉和,2019-07-05,56.8,57.45,56.78,57.0,57.0,521480.0,29757195.0,1610003190.0,5600003190.0
sh603666,亿嘉和,2019-07-08,57.32,57.45,54.53,55.2,57.0,948060.0,52462413.0,1559160984.0,5423160984.0
sh603666,亿嘉和,2019-07-09,54.72,55.38,53.7,54.43,55.2,559157.0,30462658.0,1537411818.1,5347511818.1
sh603666,亿嘉和,2019-07-10,54.43,55.0,53.33,54.0,54.43,537640.0,29132521.0,1525266180.0,5305266180.0
sh603666,亿嘉和,2019-07-11,54.2,54.75,52.66,52.75,54.0,667260.0,35724477.0,1489959092.5,5182459092.5
sh603666,亿嘉和,2019-07-12,53.17,53.34,52.03,52.81,52.75,602200.0,31675567.0,1491653832.7,5188353832.7
sh603666,亿嘉和,2019-07-15,52.72,53.4,51.4,52.88,52.81,584033.0,30565049.0,1493631029.6,5195231029.6
sh603666,亿嘉和,2019-07-16,52.88,53.88,52.32,53.0,52.88,486133.0,25842612.0,1497020510.0,5207020510.0
sh603666,亿嘉和,2019-07-17,52.71,53.15,52.28,52.78,53.0,405340.0,21365150.0,1490806462.6,5185406462.6
sh603666,亿嘉和,2019-07-18,52.44,52.73,50.6,50.7,52.78,750295.0,38593811.0,1432055469.0,4981055469.0
sh603666,亿嘉和,2019-07-19,50.96,51.73,50.37,50.54,50.7,706419.0,36037022.0,1427536161.8,4965336161.8
sh603666,亿嘉和,2019-07-22,50.56,51.2,48.88,49.01,50.54,641760.0,31684594.0,1384320286.7,4815020286.7
sh603666,亿嘉和,2019-07-23,49.2,50.16,49.0,49.68,49.01,347560.0,17265236.0,1403244885.6,4880844885.6
sh603666,亿嘉和,2019-07-24,49.68,52.8,49.68,51.93,49.68,1030798.0,53243370.0,1466797643.1,5101897643.1
sh603666,亿嘉和,2019-07-25,51.9,52.44,51.56,52.19,51.93,470660.0,24492300.0,1474141517.3,5127441517.3
sh603666,亿嘉和,2019-07-26,51.99,52.5,51.61,52.11,52.19,385832.0,20071959.0,1471881863.7,5119581863.7
sh603666,亿嘉和,2019-07-29,52.11,52.7,51.86,52.41,52.11,367020.0,19174796.0,1480355564.7,5149055564.7
sh603666,亿嘉和,2019-07-30,52.15,53.45,52.15,53.16,52.41,528912.0,28040785.0,1501539817.2,5222739817.2
sh603666,亿嘉和,2019-07-31,53.07,53.86,52.61,52.83,53.16,516300.0,27437593.0,1492218746.1,5190318746.1
sh603666,亿嘉和,2019-08-01,52.88,53.67,52.46,53.26,52.83,452320.0,23981558.0,1504364384.2,5232564384.2
sh603666,亿嘉和,2019-08-02,52.45,53.11,52.14,53.07,53.26,565300.0,29732330.0,1498997706.9,5213897706.9
sh603666,亿嘉和,2019-08-05,52.99,53.18,51.42,51.6,53.07,648788.0,33849835.0,1457476572.0,5069476572.0
sh603666,亿嘉和,2019-08-06,50.94,52.27,49.2,51.94,51.6,848398.0,42957398.0,1467080099.8,5102880099.8
sh603666,亿嘉和,2019-08-07,51.88,55.3,51.88,53.91,51.94,1311512.0,70574041.0,1522724069.7,5296424069.7
sh603666,亿嘉和,2019-08-08,54.61,54.79,53.05,53.86,53.91,851400.0,46018470.0,1521311786.2,5291511786.2
sh603666,亿嘉和,2019-08-09,55.5,59.19,55.5,58.19,53.86,3502826.0,200977780.0,1643615537.3,5716915537.3
sh603666,亿嘉和,2019-08-12,58.4,60.1,58.4,59.91,58.19,2265299.0,134249949.0,1692198089.7,5885898089.7
sh603666,亿嘉和,2019-08-13,59.16,60.85,59.05,59.6,59.91,1692465.0,101225221.0,1683441932.0,5855441932.0
sh603666,亿嘉和,2019-08-14,60.19,60.75,59.66,60.08,59.6,1307374.0,78680834.0,1696999853.6,5902599853.6
sh603666,亿嘉和,2019-08-15,59.01,61.0,58.74,60.8,60.08,1199735.0,71994103.0,1717336736.0,5973336736.0
sh603666,亿嘉和,2019-08-16,60.88,61.48,60.0,60.51,60.8,1330669.0,80668495.0,1709145491.7,5944845491.7
sh603666,亿嘉和,2019-08-19,60.55,61.99,60.27,61.36,60.51,1424286.0,87303656.0,1733154311.2,6028354311.2
sh603666,亿嘉和,2019-08-20,61.28,61.7,60.23,60.27,61.36,937509.0,56918006.0,1702366530.9,5921266530.9
sh603666,亿嘉和,2019-08-21,60.5,63.33,59.77,61.65,60.27,1497156.0,92492914.0,1741345555.5,6056845555.5
sh603666,亿嘉和,2019-08-22,61.59,62.81,61.0,62.11,61.65,927115.0,57432589.0,1754338563.7,6102038563.7
sh603666,亿嘉和,2019-08-23,62.1,63.88,61.5,63.01,62.11,1065563.0,66889812.0,1779759666.7,6190459666.7
sh603666,亿嘉和,2019-08-26,62.31,63.25,61.08,61.59,63.01,979070.0,60607740.0,1739650815.3,6050950815.3
sh603666,亿嘉和,2019-08-27,61.85,64.5,61.56,64.2,61.59,1369609.0,86329791.0,1813372014.0,6307372014.0
sh603666,亿嘉和,2019-08-28,64.24,64.49,63.11,64.1,64.2,883400.0,56213470.0,1810547447.0,6297547447.0
sh603666,亿嘉和,2019-08-29,64.08,65.11,63.65,63.88,64.1,804733.0,51629573.0,1804333399.6,6275933399.6
sh603666,亿嘉和,2019-08-30,64.47,66.73,62.93,63.2,63.88,1425242.0,92474600.0,1785126344.0,6209126344.0
sh603666,亿嘉和,2019-09-02,63.18,65.95,62.66,65.77,63.2,903080.0,58732935.0,1857717715.9,6461617715.9
sh603666,亿嘉和,2019-09-03,65.62,66.19,64.01,64.68,65.77,1165979.0,75591817.0,1826929935.6,6354529935.6
sh603666,亿嘉和,2019-09-04,65.0,65.27,63.31,63.85,64.68,733945.0,46983738.0,1803486029.5,6272986029.5
sh603666,亿嘉和,2019-09-05,64.46,65.61,63.86,64.88,63.85,926120.0,60342086.0,1832579069.6,6374179069.6
sh603666,亿嘉和,2019-09-06,64.95,65.51,63.11,64.75,64.88,1041862.0,67041026.0,1828907132.5,6361407132.5
sh603666,亿嘉和,2019-09-09,64.58,65.35,63.77,64.84,64.75,1107848.0,71375632.0,1831449242.8,6370249242.8
sh603666,亿嘉和,2019-09-10,64.88,69.76,64.59,68.42,64.84,1670715.0,112800255.0,1932568741.4,6775473181.4
sh603666,亿嘉和,2019-09-11,67.55,69.66,67.34,67.99,68.42,1159288.0,79398109.0,1920423103.3,6732891283.3
sh603666,亿嘉和,2019-09-12,68.0,71.2,67.25,69.64,67.99,1274911.0,88900476.0,1967028458.8,6896286938.8
sh603666,亿嘉和,2019-09-16,69.55,71.4,68.5,69.68,69.64,821232.0,57305334.0,1968158285.6,6900248045.6
sh603666,亿嘉和,2019-09-17,69.7,69.7,66.7,67.4,69.68,843800.0,57336763.0,1903758158.0,6674464958.0
sh603666,亿嘉和,2019-09-18,67.98,68.8,67.06,68.42,67.4,789460.0,53671831.0,1932568741.4,6775473181.4
sh603666,亿嘉和,2019-09-19,68.61,72.4,67.51,71.06,68.42,1628527.0,115088355.0,2007137310.2,7036906230.2
sh603666,亿嘉和,2019-09-20,71.23,71.7,69.76,70.3,71.06,834560.0,58807966.0,1985670601.0,6961645201.0
sh603666,亿嘉和,2019-09-23,70.39,70.43,67.84,69.1,70.3,908655.0,62641022.0,1951775797.0,6842811997.0
sh603666,亿嘉和,2019-09-24,69.4,69.65,67.92,68.07,69.1,779820.0,53514906.0,1922682756.9,6740813496.9
sh603666,亿嘉和,2019-09-25,67.61,68.79,66.88,67.07,68.07,637193.0,43094223.0,1894437086.9,6641785826.9
sh603666,亿嘉和,2019-09-26,67.49,67.98,63.73,65.13,67.07,1193707.0,78527841.0,1839640487.1,6449672147.1
sh603666,亿嘉和,2019-09-27,65.83,67.2,65.25,65.66,65.13,569580.0,37692126.0,1854610692.2,6502156812.2
sh603666,亿嘉和,2019-09-30,65.8,66.19,63.85,64.04,65.66,599960.0,38805388.0,1808852706.8,6341731986.8
sh603666,亿嘉和,2019-10-08,64.36,65.37,63.74,63.78,64.04,474083.0,30579690.0,1801508832.6,6315984792.6
sh603666,亿嘉和,2019-10-09,63.9,65.59,62.68,64.45,63.78,743900.0,47721051.0,1820433431.5,6382333331.5
sh603666,亿嘉和,2019-10-10,64.5,66.36,63.73,65.69,64.45,849320.0,55287518.0,1855458062.3,6505127642.3
sh603666,亿嘉和,2019-10-11,65.7,66.98,65.18,65.79,65.69,702652.0,46402348.0,1858282629.3,6515030409.3
sh603666,亿嘉和,2019-10-14,66.32,67.78,65.81,67.71,65.79,710740.0,47531478.0,1912514315.7,6705163535.7
sh603666,亿嘉和,2019-10-15,67.3,69.47,67.13,68.58,67.71,762407.0,52206213.0,1937088048.6,6791317608.6
sh603666,亿嘉和,2019-10-16,68.8,69.35,67.7,68.5,68.58,380498.0,26046017.0,1934828395.0,6783395395.0
sh603666,亿嘉和,2019-10-17,68.59,69.0,67.59,67.79,68.5,396500.0,27039933.0,1914773969.3,6713085749.3
sh603666,亿嘉和,2019-10-18,68.1,68.55,67.04,67.75,67.79,425020.0,28803910.0,1913644142.5,6709124642.5
sh603666,亿嘉和,2019-10-21,67.08,67.5,65.3,66.93,67.75,458680.0,30386912.0,1890482693.1,6627921953.1
sh603666,亿嘉和,2019-10-22,67.39,68.96,66.56,68.85,66.93,618047.0,42226335.0,1944714379.5,6818055079.5
sh603666,亿嘉和,2019-10-23,68.85,70.3,68.85,69.4,68.85,555226.0,38668819.0,1960249498.0,6872520298.0
sh603666,亿嘉和,2019-10-24,69.4,70.5,69.2,70.39,69.4,632872.0,44299252.0,1988212711.3,6970557691.3
sh603666,亿嘉和,2019-10-25,70.06,70.83,69.5,70.37,70.39,463600.0,32598813.0,1987647797.9,6968577137.9
sh603666,亿嘉和,2019-10-28,70.67,71.8,69.6,69.85,70.37,730552.0,51429007.0,1972960049.5,6917082749.5
sh603666,亿嘉和,2019-10-29,70.4,70.4,62.87,62.87,69.85,1109880.0,73415924.0,1775805272.9,6225869612.9
sh603666,亿嘉和,2019-10-30,62.87,65.29,56.72,57.09,62.87,3997484.0,239171612.0,1612545300.3,5653489680.3
sh603666,亿嘉和,2019-10-31,57.18,58.4,56.06,57.0,57.09,1777484.0,102076209.0,1610003190.0,5644577190.0
sh603666,亿嘉和,2019-11-01,57.02,58.7,57.02,58.32,57.0,1525080.0,88631706.0,1647287474.4,5775293714.4
sh603666,亿嘉和,2019-11-04,58.32,58.64,57.58,58.0,58.32,1328795.0,76883635.0,1638248860.0,5743604860.0
sh603666,亿嘉和,2019-11-05,57.85,58.09,56.9,57.42,58.0,860501.0,49415677.0,1621866371.4,5686168811.4
sh603666,亿嘉和,2019-11-06,57.75,57.75,56.7,56.79,57.42,873207.0,49780147.0,1604071599.3,5623781379.3
sh603666,亿嘉和,2019-11-07,57.0,58.4,56.39,57.85,56.79,792780.0,45760861.0,1634012009.5,5728750709.5
sh603666,亿嘉和,2019-11-08,58.3,58.58,57.21,57.54,57.85,665829.0,38412930.0,1625255851.8,5698052131.8
sh603666,亿嘉和,2019-11-11,57.55,57.93,56.59,57.32,57.54,690659.0,39520045.0,1619041804.4,5676266044.4
sh603666,亿嘉和,2019-11-12,57.51,59.29,56.8,58.21,57.32,1200600.0,69915090.0,1644180450.7,5764400670.7
sh603666,亿嘉和,2019-11-13,59.5,59.5,57.06,58.6,58.21,750603.0,43536528.0,1655196262.0,5803021462.0
sh603666,亿嘉和,2019-11-14,58.15,62.67,58.15,61.9,58.6,1470870.0,89591744.0,1748406973.0,6129812773.0
sh603666,亿嘉和,2019-11-15,61.9,63.47,61.11,62.46,61.9,1149757.0,71657372.0,1764224548.2,6185268268.2
sh603666,亿嘉和,2019-11-18,62.0,62.29,60.3,61.15,62.46,1219515.0,74541899.0,1727222720.5,6055542020.5
sh603666,亿嘉和,2019-11-19,61.3,62.66,60.9,61.7,61.15,664439.0,40890940.0,1742757839.0,6110007239.0
sh603666,亿嘉和,2019-11-20,62.04,62.98,61.21,62.25,61.7,858035.0,53321511.0,1758292957.5,6164472457.5
sh603666,亿嘉和,2019-11-21,61.9,62.81,61.6,62.35,62.25,436430.0,27185857.0,1761117524.5,6174375224.5
sh603666,亿嘉和,2019-11-22,62.66,68.28,62.03,63.9,62.35,1549462.0,100791224.0,1804898313.0,6327868113.0
sh603666,亿嘉和,2019-11-25,63.9,64.28,61.7,62.55,63.9,1125043.0,69934412.0,1766766658.5,6194180758.5
sh603666,亿嘉和,2019-11-26,62.8,62.9,61.75,61.94,62.55,499760.0,31006119.0,1749536799.8,6133773879.8
sh603666,亿嘉和,2019-11-27,61.84,63.49,61.84,62.06,61.94,424297.0,26448929.0,1752926280.2,6145657200.2
sh603666,亿嘉和,2019-11-28,61.85,62.66,60.0,62.05,62.06,698753.0,43142388.0,1752643823.5,6144666923.5
sh603666,亿嘉和,2019-11-29,62.53,62.53,60.07,62.17,62.05,808080.0,49369934.0,1756033303.9,6156550243.9
sh603666,亿嘉和,2019-12-02,62.0,62.58,61.08,61.49,62.17,512275.0,31561656.0,1736826248.3,6089211428.3
sh603666,亿嘉和,2019-12-03,61.47,61.47,60.03,60.51,61.49,598034.0,36147504.0,1709145491.7,5992164311.7
sh603666,亿嘉和,2019-12-04,60.22,60.78,59.45,60.34,60.51,517854.0,31173052.0,1704343727.8,5975329607.8
sh603666,亿嘉和,2019-12-05,60.56,61.27,60.43,60.87,60.34,427740.0,26006097.0,1719313932.9,6027814272.9
sh603666,亿嘉和,2019-12-06,60.53,62.0,60.41,62.0,60.87,415017.0,25455741.0,1751231540.0,6139715540.0
sh603666,亿嘉和,2019-12-09,61.7,62.2,59.89,59.99,62.0,1006733.0,60909530.0,1694457743.3,5940669923.3
sh603666,亿嘉和,2019-12-10,59.67,60.28,59.15,59.53,59.99,613020.0,36498889.0,1681464735.1,5895117195.1
sh603666,亿嘉和,2019-12-11,59.45,60.8,59.33,59.8,59.53,568917.0,34105415.0,1689091066.0,5921854666.0
sh603666,亿嘉和,2019-12-12,60.59,60.59,59.4,59.43,59.8,351534.0,20983908.0,1678640168.1,5885214428.1
sh603666,亿嘉和,2019-12-13,59.8,60.3,59.3,60.06,59.43,497815.0,29837963.0,1696434940.2,5947601860.2
sh603666,亿嘉和,2019-12-16,60.35,62.49,60.21,62.2,60.06,922465.0,56794220.0,1756880674.0,6159521074.0
sh603666,亿嘉和,2019-12-17,63.0,63.3,61.62,62.57,62.2,1158360.0,72238237.0,1767331571.9,6196161311.9
sh603666,亿嘉和,2019-12-18,62.66,66.6,62.56,65.24,62.57,1547401.0,100543194.0,1842747510.8,6460565190.8
sh603666,亿嘉和,2019-12-19,66.5,69.88,66.5,68.89,65.24,2572581.0,176877607.0,1945844206.3,6822016186.3
sh603666,亿嘉和,2019-12-20,68.82,70.45,68.14,70.18,68.89,1854283.0,129032632.0,1982281120.6,6949761880.6
sh603666,亿嘉和,2019-12-23,69.79,69.79,65.03,65.2,70.18,1852612.0,123301413.0,1841617684.0,6456604084.0
sh603666,亿嘉和,2019-12-24,65.68,66.78,64.2,66.15,65.2,830123.0,54572262.0,1868451070.5,6550680370.5
sh603666,亿嘉和,2019-12-25,67.07,68.36,66.2,66.9,66.15,888254.0,59769740.0,1889635323.0,6624951123.0
sh603666,亿嘉和,2019-12-26,67.27,67.98,66.0,66.89,66.9,604549.0,40439287.0,1889352866.3,6623960846.3
sh603666,亿嘉和,2019-12-27,66.57,69.29,66.48,66.71,66.89,1069426.0,72174233.0,1884268645.7,6606135865.7
sh603666,亿嘉和,2019-12-30,66.5,69.44,64.6,68.31,66.71,1461552.0,99095940.0,1929461717.7,6764580137.7
sh603666,亿嘉和,2019-12-31,69.14,71.58,67.66,70.8,68.31,1364474.0,95636057.0,1999793436.0,7011159036.0
sh603666,亿嘉和,2020-01-02,70.41,74.5,69.81,74.2,70.8,2076532.0,151018192.0,2095828714.0,7347853114.0
sh603666,亿嘉和,2020-01-03,73.6,77.3,73.5,75.82,74.2,1854255.0,140387610.0,2141586699.4,7508277939.4
sh603666,亿嘉和,2020-01-06,75.08,81.6,75.02,79.91,75.82,1758563.0,139647341.0,2257111489.7,7913301109.7
sh603666,亿嘉和,2020-01-07,79.51,82.27,79.23,81.4,79.91,1384115.0,112014419.0,2299197538.0,8060852338.0
sh603666,亿嘉和,2020-01-08,80.1,82.29,78.97,81.4,81.4,1100658.0,88726054.0,2299197538.0,8060852338.0
sh603666,亿嘉和,2020-01-09,83.19,83.34,80.74,82.95,81.4,913088.0,75125861.0,2342978326.5,8214345226.5
sh603666,亿嘉和,2020-01-10,82.95,86.5,82.74,84.38,82.95,891367.0,75101335.0,2383369634.6,8355954794.6
sh603666,亿嘉和,2020-01-13,83.91,84.85,81.6,84.6,84.38,1019987.0,85219163.0,2389583682.0,8377740882.0
sh603666,亿嘉和,2020-01-14,86.21,88.88,86.21,86.72,84.6,1101115.0,96530346.0,2449464502.4,8587679542.4
sh603666,亿嘉和,2020-01-15,87.5,92.99,86.74,92.55,86.72,1406483.0,127708488.0,2614136758.5,9165010858.5
sh603666,亿嘉和,2020-01-16,94.28,97.88,89.02,91.5,92.55,2027517.0,188795914.0,2584478805.0,9061031805.0
sh603666,亿嘉和,2020-01-17,91.87,92.18,88.09,88.94,91.5,2086462.0,186639772.0,2512169889.8,8807520969.8
sh603666,亿嘉和,2020-01-20,88.1,89.84,86.35,88.62,88.94,1360620.0,120320075.0,2503131275.4,8775832115.4
sh603666,亿嘉和,2020-01-21,87.75,89.98,87.75,88.78,88.62,913999.0,81301500.0,2507650582.6,8791676542.6
sh603666,亿嘉和,2020-01-22,87.92,91.97,87.6,90.14,88.78,1066943.0,95773844.0,2546064693.8,8926354173.8
sh603666,亿嘉和,2020-01-23,89.06,90.66,83.68,85.94,90.14,1308832.0,113990514.0,2427432879.8,8510437959.8
sh603666,亿嘉和,2020-02-03,77.35,79.99,77.35,77.35,85.94,1008676.0,78196134.0,2184802574.5,7659790274.5
sh603666,亿嘉和,2020-02-04,73.6,83.97,73.6,83.68,77.35,1598480.0,130226460.0,2363597665.6,8286635425.6
sh603666,亿嘉和,2020-02-05,83.85,86.58,80.5,82.1,83.68,1598470.0,133266607.0,2318969507.0,8130171707.0
sh603666,亿嘉和,2020-02-06,82.86,87.32,81.01,86.51,82.1,1901726.0,161242228.0,2443532911.7,8566883731.7
sh603666,亿嘉和,2020-02-07,87.56,87.87,85.2,86.8,86.51,1464099.0,126709561.0,2451724156.0,8595601756.0
sh603666,亿嘉和,2020-02-10,86.0,86.18,83.5,86.18,86.8,1229576.0,104467742.0,2434211840.6,8534204600.6
sh603666,亿嘉和,2020-02-11,86.15,86.63,83.86,85.29,86.18,1027421.0,87518703.0,2409073194.3,8446069974.3
sh603666,亿嘉和,2020-02-12,86.0,87.5,84.89,86.75,85.29,1138217.0,98273814.0,2450311872.5,8590650372.5
sh603666,亿嘉和,2020-02-13,86.6,91.58,86.6,87.41,86.75,1493178.0,132509987.0,2468954014.7,8656008634.7
sh603666,亿嘉和,2020-02-14,86.85,87.47,85.33,85.64,87.41,1225790.0,105533825.0,2418959178.8,8480729658.8
sh603666,亿嘉和,2020-02-17,86.3,92.63,85.35,91.69,85.64,1803520.0,161208071.0,2589845482.3,9079847062.3
sh603666,亿嘉和,2020-02-18,92.6,99.66,91.5,98.77,91.69,1693916.0,160723047.0,2789824825.9,9780962965.9
sh603666,亿嘉和,2020-02-19,98.19,103.05,95.76,98.65,98.77,1424938.0,141965020.0,2786435345.5,9769079645.5
sh603666,亿嘉和,2020-02-20,99.75,102.7,96.03,101.55,98.65,1436134.0,144155119.0,2868347788.5,10056259888.5
sh603666,亿嘉和,2020-02-21,101.15,103.4,99.1,99.63,101.55,1062670.0,106979459.0,2814116102.1,9866126762.1
sh603666,亿嘉和,2020-02-24,99.98,102.96,99.12,101.0,99.63,890065.0,90059430.0,2852812670.0,10001794670.0
sh603666,亿嘉和,2020-02-25,99.49,111.0,97.69,110.82,101.0,1758895.0,184899105.0,3130185149.4,10974246389.4
sh603666,亿嘉和,2020-02-26,106.0,114.29,104.02,104.71,110.82,1619193.0,175636658.0,2957604105.7,10369187325.7
sh603666,亿嘉和,2020-02-27,106.0,106.98,102.04,103.16,104.71,903796.0,94201167.0,2913823317.2,10215694437.2
sh603666,亿嘉和,2020-02-28,98.0,101.9,96.0,97.02,103.16,1417230.0,139292210.0,2740394903.4,9607664543.4
sh603666,亿嘉和,2020-03-02,96.95,100.59,96.95,99.04,97.02,809500.0,80058568.0,2797451156.8,9807700436.8
sh603666,亿嘉和,2020-03-03,101.88,103.93,98.08,99.6,99.04,841714.0,84908175.0,2813268732.0,9863155932.0
sh603666,亿嘉和,2020-03-04,99.95,100.47,97.58,99.2,99.6,615460.0,60650838.0,2801970464.0,9823544864.0
sh603666,亿嘉和,2020-03-05,101.0,101.5,96.9,97.8,99.2,849579.0,83424021.0,2762426526.0,9684906126.0
sh603666,亿嘉和,2020-03-06,96.16,101.49,96.16,98.13,97.8,832885.0,82657498.0,2771747597.1,9717585257.1
sh603666,亿嘉和,2020-03-09,95.88,97.47,91.1,91.1,98.13,857793.0,80387590.0,2573180537.0,9021420737.0
sh603666,亿嘉和,2020-03-10,90.01,95.96,88.91,95.36,91.1,860716.0,79810366.0,2693507091.2,9443278611.2
sh603666,亿嘉和,2020-03-11,96.23,96.23,92.51,93.24,95.36,525211.0,49518666.0,2633626270.8,9233339950.8
sh603666,亿嘉和,2020-03-12,91.5,92.3,89.88,92.0,93.24,636921.0,58010638.0,2598601640.0,9110545640.0
sh603666,亿嘉和,2020-03-13,86.66,91.78,86.45,90.68,92.0,570880.0,51053056.0,2561317355.6,8979829115.6
sh603666,亿嘉和,2020-03-16,91.22,92.12,83.57,84.5,90.68,809740.0,71053230.0,2386759115.0,8367838115.0
sh603666,亿嘉和,2020-03-17,85.34,86.94,81.5,85.0,84.5,918520.0,77268217.0,2400881950.0,8417351950.0
sh603666,亿嘉和,2020-03-18,86.46,90.7,84.95,87.07,85.0,940560.0,82812933.0,2459350486.9,8622339226.9
sh603666,亿嘉和,2020-03-19,86.5,88.33,83.66,86.17,87.07,707660.0,60431458.0,2433929383.9,8533214323.9
sh603666,亿嘉和,2020-03-20,87.29,90.5,87.04,88.18,86.17,692900.0,61540312.0,2490703180.6,8732259940.6
sh603666,亿嘉和,2020-03-23,86.98,87.51,83.83,85.2,88.18,568180.0,48493212.0,2406531084.0,8437157484.0
sh603666,亿嘉和,2020-03-24,86.98,89.99,85.52,89.81,85.2,789720.0,69688716.0,2536743622.7,8893675042.7
sh603666,亿嘉和,2020-03-25,91.2,92.94,89.36,89.99,89.81,696464.0,63431662.0,2541827843.3,8911500023.3
sh603666,亿嘉和,2020-03-26,90.3,91.55,87.88,90.76,89.99,652480.0,58776379.0,2563577009.2,8987751329.2
sh603666,亿嘉和,2020-03-27,91.75,93.88,89.7,89.8,90.76,555034.0,50819375.0,2536461166.0,8892684766.0
sh603666,亿嘉和,2020-03-30,88.24,88.85,85.86,87.29,89.8,526760.0,45966232.0,2465564534.3,8644125314.3
sh603666,亿嘉和,2020-03-31,88.38,89.87,87.0,89.1,87.29,441200.0,39197268.0,2516689197.0,8823365397.0
sh603666,亿嘉和,2020-04-01,88.5,91.49,87.89,88.6,89.1,416200.0,37355694.0,2502566362.0,8773851562.0
sh603666,亿嘉和,2020-04-02,88.0,91.5,87.01,91.5,88.6,492722.0,44105166.0,2584478805.0,9061031805.0
sh603666,亿嘉和,2020-04-03,91.3,94.48,89.89,92.96,91.5,899909.0,83039767.0,2625717483.2,9205612203.2
sh603666,亿嘉和,2020-04-07,94.0,97.85,93.52,97.85,92.96,901440.0,86758423.0,2763838809.5,9689857509.5
sh603666,亿嘉和,2020-04-08,98.77,99.55,96.67,99.15,97.85,612560.0,60057709.0,2800558180.5,9818593480.5
sh603666,亿嘉和,2020-04-09,99.18,100.78,98.6,100.33,99.15,504080.0,50321620.0,2833888071.1,9935446131.1
sh603666,亿嘉和,2020-04-10,99.0,100.56,97.0,97.92,100.33,580100.0,57179074.0,2765816006.4,9696789446.4
sh603666,亿嘉和,2020-04-13,97.9,97.9,94.1,94.82,97.92,700365.0,66910479.0,2678254429.4,9389803669.4
sh603666,亿嘉和,2020-04-14,96.02,97.99,95.38,96.43,94.82,629680.0,60662908.0,2723729958.1,9549238218.1
sh603666,亿嘉和,2020-04-15,96.27,99.86,95.59,99.18,96.43,927418.0,91250679.0,2801405550.6,9821564310.6
sh603666,亿嘉和,2020-04-16,98.59,99.0,92.39,94.85,99.18,1231432.0,116824376.0,2679101799.5,9392774499.5
sh603666,亿嘉和,2020-04-17,96.0,101.78,95.8,100.09,94.85,1205138.0,120241453.0,2827109110.3,9911679490.3
sh603666,亿嘉和,2020-04-20,99.4,101.78,98.11,100.94,100.09,930592.0,92709300.0,2851117929.8,9995853009.8
sh603666,亿嘉和,2020-04-21,101.24,105.0,98.6,101.21,100.94,912842.0,93080345.0,2858744260.7,10022590480.7
sh603666,亿嘉和,2020-04-22,99.24,101.99,98.9,100.0,101.21,709867.0,71022532.0,2824567000.0,9902767000.0
sh603666,亿嘉和,2020-04-23,98.8,102.79,98.8,100.08,100.0,613378.0,61788034.0,2826826653.6,9910689213.6
sh603666,亿嘉和,2020-04-24,100.25,101.65,98.9,99.5,100.08,391247.0,39006896.0,2810444165.0,9853253165.0
sh603666,亿嘉和,2020-04-27,99.43,103.92,98.0,102.99,99.5,806904.0,82362956.0,2909021553.3,10198859733.3
sh603666,亿嘉和,2020-04-28,103.0,105.94,99.9,105.21,102.99,836945.0,86456134.0,2971726940.7,10418701160.7
sh603666,亿嘉和,2020-04-29,101.55,104.51,101.01,103.79,105.21,858751.0,88103449.0,2931618089.3,10278081869.3
sh603666,亿嘉和,2020-04-30,103.0,107.74,103.0,104.63,103.79,770762.0,81299282.0,2955344452.1,10361265112.1
sh603666,亿嘉和,2020-05-06,104.95,105.88,102.31,104.26,104.63,774043.0,80458653.0,2944893554.2,10324624874.2
sh603666,亿嘉和,2020-05-07,104.32,104.6,101.91,102.91,104.26,729496.0,75234409.0,2906761899.7,10190937519.7
sh603666,亿嘉和,2020-05-08,103.97,107.3,102.96,104.7,102.91,767165.0,80807011.0,2957321649.0,10368197049.0
sh603666,亿嘉和,2020-05-11,104.88,107.89,103.15,106.89,104.7,897664.0,95509669.0,3019179666.3,10585067646.3
sh603666,亿嘉和,2020-05-12,107.65,111.51,106.12,111.1,106.89,955378.0,104100036.0,3138093937.0,11001974137.0
sh603666,亿嘉和,2020-05-13,110.14,111.55,108.33,110.22,111.1,795568.0,87133288.0,3113237747.4,10914829787.4
sh603666,亿嘉和,2020-05-14,109.2,111.35,108.4,111.0,110.22,615868.0,67596313.0,3135269370.0,10992071370.0
sh603666,亿嘉和,2020-05-15,111.11,113.0,109.0,111.61,111.0,779410.0,86351939.0,3152499228.7,11052478248.7
sh603666,亿嘉和,2020-05-18,111.26,117.5,111.25,115.64,111.61,1068936.0,122744374.0,3266329278.8,11451559758.8
sh603666,亿嘉和,2020-05-19,116.8,118.0,114.1,117.78,115.64,569077.0,66171425.0,3326775012.6,11663478972.6
sh603666,亿嘉和,2020-05-20,117.0,119.38,110.0,111.34,117.78,1068317.0,121951571.0,3144872897.8,11025740777.8
sh603666,亿嘉和,2020-05-21,111.41,114.6,109.06,111.02,111.34,810400.0,90490944.0,3135834283.4,10994051923.4
sh603666,亿嘉和,2020-05-22,112.19,112.19,107.49,108.35,111.02,775046.0,84709503.0,3060418344.5,10729648044.5
sh603666,亿嘉和,2020-05-25,108.32,110.0,106.0,107.4,108.35,492700.0,53032447.0,3033584958.0,10635571758.0
sh603666,亿嘉和,2020-05-26,108.16,110.9,107.26,109.45,107.4,521890.0,56938047.0,3091488581.5,10838578481.5
sh603666,亿嘉和,2020-05-27,110.0,112.8,107.4,108.3,109.45,720606.0,79325752.0,3059006061.0,10724696661.0
sh603666,亿嘉和,2020-05-28,107.5,108.45,103.33,105.13,108.3,621077.0,65354273.0,2969467287.1,10410778947.1
sh603666,亿嘉和,2020-05-29,104.64,107.77,104.08,105.67,105.13,642520.0,67940399.0,2984719948.9,10464253888.9
sh603666,亿嘉和,2020-06-01,104.4,110.6,104.4,107.25,105.67,1162221.0,125645280.0,3029348107.5,10620717607.5
sh603666,亿嘉和,2020-06-02,106.0,106.93,102.5,102.8,107.25,978960.0,101826377.0,2903654876.0,10180044476.0
sh603666,亿嘉和,2020-06-03,102.56,106.99,102.01,106.13,102.8,828665.0,86981923.0,2997712957.1,10509806617.1
sh603666,亿嘉和,2020-06-04,106.41,106.98,103.53,104.02,106.13,399777.0,41801713.0,2938114593.4,10300858233.4
sh603666,亿嘉和,2020-06-05,104.89,106.5,103.72,105.78,104.02,409421.0,42986452.0,2987826972.6,10475146932.6
sh603666,亿嘉和,2020-06-08,106.69,107.31,99.88,100.97,105.78,1402898.0,143504245.0,2851965299.9,9998823839.9
sh603666,亿嘉和,2020-06-09,102.0,102.21,99.89,101.5,100.97,571160.0,57686221.0,2866935505.0,10051308505.0
sh603666,亿嘉和,2020-06-10,101.68,103.83,100.23,103.5,101.5,670080.0,68661414.0,2923426845.0,10249363845.0
sh603666,亿嘉和,2020-06-11,104.0,105.06,102.09,102.96,103.5,607713.0,63021558.0,2908174183.2,10195888903.2
sh603666,亿嘉和,2020-06-12,100.95,104.18,100.11,103.7,102.96,466499.0,47951273.0,2929075979.0,10269169379.0
sh603666,亿嘉和,2020-06-15,103.12,111.68,102.06,107.39,103.7,1190489.0,129229417.0,3033302501.3,10634581481.3
sh603666,亿嘉和,2020-06-16,108.97,111.48,107.51,110.98,107.39,924083.0,101591928.0,3134704456.6000004,10990090816.599998
sh603666,亿嘉和,2020-06-17,111.12,111.28,101.75,103.61,110.98,1512768.0,158408336.0,2926533868.7,10260256888.7
sh603666,亿嘉和,2020-06-18,102.71,103.12,100.1,102.29,103.61,710041.0,72091802.0,2889249584.3,10129540364.3
sh603666,亿嘉和,2020-06-19,102.96,104.26,101.68,103.6,102.29,699206.0,72218170.0,2926251412.0,10259266612.0
sh603666,亿嘉和,2020-06-22,103.65,109.76,103.43,105.7,103.6,1103986.0,117761748.0,2985567319.0,10467224719.0
sh603666,亿嘉和,2020-06-23,107.09,107.55,103.06,106.37,105.7,1002695.0,105572807.0,3004491917.9,10533573257.9
sh603666,DR亿嘉和,2020-06-24,75.66,78.96,75.2,77.3,75.79,913604.0,70152348.0,2183390291.0,7654838891.0
sh603666,亿嘉和,2020-06-29,76.6,81.87,75.05,80.64,77.3,1933366.0,153351678.0,3188823160.32,11179827832.32
sh603666,亿嘉和,2020-06-30,81.57,88.5,81.5,87.76,80.64,2150099.0,184812655.0,3470375998.88,12166935646.88
sh603666,亿嘉和,2020-07-01,88.99,91.27,87.76,89.7,87.76,1669799.0,149112995.0,3547091238.6,12435894798.6
sh603666,亿嘉和,2020-07-02,90.46,91.18,88.3,90.1,89.7,1430336.0,128256555.0,3562908813.8,12491350293.8
sh603666,亿嘉和,2020-07-03,90.1,94.0,89.07,91.9,90.1,1444968.0,132565565.0,3634087902.2,12740900022.2
sh603666,亿嘉和,2020-07-06,91.0,92.91,88.36,91.12,91.9,1798048.0,163169542.0,3603243630.56,12632761806.56
sh603666,亿嘉和,2020-07-07,91.19,96.77,89.88,94.76,91.12,1448222.0,134922963.0,3747183564.88,13137406812.88
sh603666,亿嘉和,2020-07-08,94.8,96.63,93.08,95.63,94.76,884653.0,83982380.0,3781586790.94,13258022514.94
sh603666,亿嘉和,2020-07-09,95.24,98.78,95.0,97.35,95.63,1187007.0,114903364.0,3849602364.3,13496481144.3
sh603666,亿嘉和,2020-07-10,97.46,102.77,96.28,102.25,97.35,1302914.0,130626480.0,4043367660.5,14175810960.5
sh603666,亿嘉和,2020-07-13,101.0,105.9,100.45,101.65,102.25,1315951.0,134123799.0,4019641297.7,14092627717.7
sh603666,亿嘉和,2020-07-14,101.0,104.0,100.71,103.5,101.65,1255259.0,128668669.0,4092797583.0,14349109383.0
sh603666,亿嘉和,2020-07-15,102.61,105.81,100.6,101.55,103.5,1161990.0,119426469.0,4015686903.9,14078763843.9
sh603666,亿嘉和,2020-07-16,100.9,102.8,93.6,93.86,101.55,2279800.0,223156568.0,3711594020.68,13012631948.68
sh603666,亿嘉和,2020-07-17,95.0,98.0,92.0,93.59,93.86,2512742.0,236744790.0,3700917157.42,12975199489.42
sh603666,亿嘉和,2020-07-20,94.91,95.9,91.1,94.42,93.59,1970931.0,185150128.0,3733738625.96,13090269641.96
sh603666,亿嘉和,2020-07-21,95.25,103.86,94.72,103.86,94.42,1822373.0,183571061.0,4107033400.68,14399019328.679998
sh603666,亿嘉和,2020-07-22,103.0,112.48,102.11,110.16,103.86,2770298.0,301406159.0,4356160210.08,15272443378.08
sh603666,亿嘉和,2020-07-23,108.0,112.4,107.6,109.9,110.16,2161792.0,237373388.0,4345878786.2,15236397306.2
sh603666,亿嘉和,2020-07-24,108.1,109.45,103.61,104.18,109.9,2259141.0,239161294.0,4119687460.84,14443383724.84
sh603666,亿嘉和,2020-07-27,104.18,109.38,102.15,105.0,104.18,1755170.0,185432848.0,4152113490.0,14557067490.0
sh603666,亿嘉和,2020-07-28,105.38,108.66,104.85,107.99,105.0,1189066.0,127098732.0,4270349864.62,14971597316.62
sh603666,亿嘉和,2020-07-29,107.17,110.12,105.08,106.68,107.99,1410290.0,151258395.0,4218547305.84,14789980569.839998
sh603666,亿嘉和,2020-07-30,107.38,109.97,105.81,109.29,106.68,1144332.0,124208507.0,4321756984.02,15151827676.02
sh603666,亿嘉和,2020-07-31,107.9,112.97,107.65,112.66,109.29,1436241.0,158470958.0,4455020055.08,15619040223.08
sh603666,亿嘉和,2020-08-03,112.55,113.7,109.11,111.7,112.66,1249625.0,138606821.0,4417057874.6,15485947034.6
sh603666,亿嘉和,2020-08-04,111.09,116.14,110.33,111.76,111.7,1282943.0,144994716.0,4419430510.88,15494265358.88
sh603666,亿嘉和,2020-08-05,111.11,116.95,111.11,116.31,111.76,1276705.0,145973401.0,4599355428.78,16125071616.78
sh603666,亿嘉和,2020-08-06,119.61,119.78,112.33,116.3,116.31,1295283.0,149137138.0,4598959989.400001,16123685229.4
sh603666,亿嘉和,2020-08-07,116.68,117.28,113.5,115.34,116.3,954566.0,110030828.0,4560997808.92,15990592040.92
sh603666,亿嘉和,2020-08-10,115.9,118.5,114.0,116.95,115.34,1053529.0,121970357.0,4624663549.1,16213800409.1
sh603666,亿嘉和,2020-08-11,116.03,118.5,114.5,115.08,116.95,749978.0,87312427.0,4550716385.04,15954545969.04
sh603666,亿嘉和,2020-08-12,114.4,114.4,105.0,109.83,115.08,1567653.0,171361767.0,4343110710.54,15226692594.54
sh603666,亿嘉和,2020-08-13,109.83,110.2,106.95,109.4,109.83,724080.0,78505891.0,4326106817.2,15167077937.2
sh603666,亿嘉和,2020-08-14,108.72,113.0,107.16,113.0,109.4,716874.0,79898524.0,4468464994.0,15666177394.0
sh603666,亿嘉和,2020-08-17,114.44,114.44,110.0,113.0,113.0,1001784.0,112078206.0,4468464994.0,15666177394.0
sh603666,亿嘉和,2020-08-18,112.5,122.01,111.11,122.01,113.0,1834555.0,216598433.0,4824755875.38,16915312423.38
sh603666,亿嘉和,2020-08-19,111.0,112.6,109.81,109.81,122.01,832560.0,92078672.0,4342319831.780001,15223919819.78
sh603666,亿嘉和,2020-08-20,98.83,102.58,98.83,98.83,109.81,1761836.0,174224887.0,3908127392.54,13701666476.54
sh603666,亿嘉和,2020-08-21,95.99,97.35,94.2,95.6,98.83,2603686.0,248341303.0,3780400472.8,13253863352.8
sh603666,亿嘉和,2020-08-24,95.09,98.09,92.14,96.54,95.6,1468035.0,139205044.0,3817571774.52,13384183766.52
sh603666,亿嘉和,2020-08-25,96.5,98.0,95.24,95.96,96.54,975993.0,94067539.0,3794636290.48,13303773298.48
sh603666,亿嘉和,2020-08-26,95.29,96.48,92.14,92.75,95.96,889187.0,83569659.0,3667700249.5,12858742949.5
sh603666,亿嘉和,2020-08-27,92.0,96.5,91.93,95.0,92.75,1147203.0,108899242.0,3756674110.0,13170680110.0
sh603666,亿嘉和,2020-08-28,95.4,96.68,94.5,96.45,95.0,590670.0,56755512.0,3814012820.1,13371706280.1
sh603666,亿嘉和,2020-08-31,96.93,99.77,96.6,97.26,96.45,1573692.0,154189738.0,3846043409.88,13484003657.88
sh603666,亿嘉和,2020-09-01,98.18,98.26,95.38,96.21,97.26,597719.0,57439954.0,3804522274.98,13338432982.98
sh603666,亿嘉和,2020-09-02,97.18,97.71,95.13,96.0,96.21,672952.0,64881118.0,3796218048.0,13309318848.000002
sh603666,亿嘉和,2020-09-03,95.8,98.56,93.0,93.74,96.0,1484400.0,141580956.0,3706848748.12,12995995300.12
sh603666,亿嘉和,2020-09-04,92.51,94.25,91.2,93.74,93.74,842279.0,78407629.0,3706848748.12,12995995300.12
sh603666,亿嘉和,2020-09-07,93.74,94.05,89.5,90.01,93.74,954926.0,87548766.0,3559349859.38,12478872807.38
sh603666,亿嘉和,2020-09-08,90.01,90.99,86.27,89.49,90.01,883115.0,77910040.0,3538787011.62,12406780663.62
sh603666,亿嘉和,2020-09-09,87.6,89.8,86.1,87.11,89.49,701627.0,61469026.0,3444672439.1800003,12076820467.18
sh603666,亿嘉和,2020-09-10,87.47,88.88,83.88,83.99,87.11,791876.0,67857955.0,3321295352.62,11644267604.62
sh603666,亿嘉和,2020-09-11,84.05,86.76,83.6,85.35,83.99,606294.0,51651994.0,3375075108.3,11832816288.3
sh603666,亿嘉和,2020-09-14,85.87,87.0,84.05,84.69,85.35,626029.0,53163334.0,3348976109.2200003,11741314721.22
sh603666,亿嘉和,2020-09-15,85.1,85.39,83.89,85.1,84.69,408278.0,34538316.0,3365189123.8,11798156603.8
sh603666,亿嘉和,2020-09-16,86.25,86.3,82.66,83.65,85.1,519933.0,43598655.0,3307850413.7,11597130433.7
sh603666,亿嘉和,2020-09-17,83.81,85.16,81.6,82.99,83.65,1015352.0,84420298.0,3281751414.6200004,11505628866.62
sh603666,亿嘉和,2020-09-18,84.0,85.43,83.3,84.0,82.99,901949.0,76098660.0,3321690792.0,11645653992.000002
sh603666,亿嘉和,2020-09-21,85.03,85.1,82.68,83.03,84.0,516956.0,43287547.0,3283333172.14,11511174416.14
sh603666,亿嘉和,2020-09-22,83.0,83.0,80.62,81.18,83.03,676066.0,55259472.0,3210176886.84,11254692750.84
sh603666,亿嘉和,2020-09-23,81.35,82.81,80.8,82.5,81.18,645995.0,53027180.0,3262374885.0,11437695885.0
sh603666,亿嘉和,2020-09-24,82.35,82.52,78.95,79.05,82.5,953387.0,76225593.0,3125948298.9,10959392238.9
sh603666,亿嘉和,2020-09-25,79.35,80.48,77.4,77.77,79.05,927509.0,72852416.0,3075332058.26,10781934654.26
sh603666,亿嘉和,2020-09-28,78.34,79.73,75.98,77.78,77.77,863948.0,67014815.0,3075727497.64,10783321041.64
sh603666,亿嘉和,2020-09-29,79.14,79.5,76.61,78.35,77.78,715537.0,55604579.0,3098267542.3,10862345122.3
sh603666,亿嘉和,2020-09-30,78.82,80.68,77.61,78.42,78.35,752882.0,59545686.0,3101035617.96,10872049833.96
sh603666,亿嘉和,2020-10-09,79.89,82.25,79.13,81.69,78.42,805241.0,65168128.0,3230344295.2200003,11325398507.22
sh603666,亿嘉和,2020-10-12,81.97,87.99,81.97,86.4,81.69,2402354.0,204958982.0,3416596243.2,11978386963.2
sh603666,亿嘉和,2020-10-13,85.85,91.7,84.25,90.4,86.4,1859561.0,163381907.0,3574771995.2000003,12532941915.2
sh603666,亿嘉和,2020-10-14,90.0,91.26,89.1,89.9,90.4,916838.0,82684648.0,3555000026.2,12463622546.2
sh603666,亿嘉和,2020-10-15,90.0,91.43,87.1,87.19,89.9,888445.0,79007267.0,3447835954.22,12087911566.22
sh603666,亿嘉和,2020-10-16,88.24,88.3,85.61,86.44,87.19,1036809.0,89891240.0,3418178000.7200003,11983932512.72
sh603666,亿嘉和,2020-10-19,86.96,87.71,85.75,86.1,86.44,574104.0,49733177.0,3404733061.8,11936795341.8
sh603666,亿嘉和,2020-10-20,86.9,86.9,84.62,86.63,86.1,431386.0,37016940.0,3425691348.94,12010273872.94
sh603666,亿嘉和,2020-10-21,86.63,87.26,84.85,85.15,86.63,633744.0,54174518.0,3367166320.7,11805088540.7
sh603666,亿嘉和,2020-10-22,84.5,85.62,83.12,84.55,85.15,523428.0,44129642.0,3343439957.9,11721905297.900002
sh603666,亿嘉和,2020-10-23,84.54,85.36,80.15,80.61,84.55,644151.0,52866625.0,3187636842.18,11175668670.18
sh603666,亿嘉和,2020-10-26,80.61,82.5,79.33,81.4,80.61,446861.0,36288469.0,3218876553.2000003,11285193273.2
sh603666,亿嘉和,2020-10-27,81.4,82.48,80.36,82.2,81.4,363400.0,29738120.0,3250511703.6,11396104263.599998
sh603666,亿嘉和,2020-10-28,82.2,85.28,80.21,84.95,82.2,850200.0,70632717.0,3359257533.1,11777360793.099998
sh603666,亿嘉和,2020-10-29,84.0,84.1,82.08,82.64,84.95,917564.0,75900655.0,3267911036.32,11457105308.320002
sh603666,亿嘉和,2020-10-30,83.0,83.82,81.29,83.1,82.64,617735.0,50876366.0,3286101247.8,11520879127.8
sh603666,亿嘉和,2020-11-02,83.13,84.94,74.79,81.0,83.1,3674732.0,290718407.0,3203058978.0,11229737778.0
sh603666,亿嘉和,2020-11-03,81.0,89.1,79.3,89.1,81.0,2532984.0,218824001.0,3523364875.8,12352711555.8
sh603666,亿嘉和,2020-11-04,89.56,91.23,84.24,86.06,89.1,2175020.0,187799045.0,3403151304.28,11931249792.28
sh603666,亿嘉和,2020-11-05,86.1,89.52,85.49,88.42,86.06,1327813.0,116671579.0,3496474997.96,12258437213.96
sh603666,亿嘉和,2020-11-06,88.62,88.63,86.0,87.09,88.42,691228.0,60024059.0,3443881560.42,12074047692.42
sh603666,亿嘉和,2020-11-09,87.44,91.41,87.0,90.96,87.09,2134910.0,190507451.0,3596916600.48,12610579608.48
sh603666,亿嘉和,2020-11-10,90.55,90.68,88.37,88.98,90.96,862491.0,77018320.0,3518619603.24,12336074907.24
sh603666,亿嘉和,2020-11-11,88.43,89.48,85.1,85.33,88.98,664791.0,57944053.0,3374284229.54,11830043513.54
sh603666,亿嘉和,2020-11-12,86.48,86.48,83.75,84.04,85.33,515897.0,43749303.0,3323272549.52,11651199541.52
sh603666,亿嘉和,2020-11-13,83.93,85.48,82.0,84.3,84.04,566093.0,47332763.0,3333553973.4,11687245613.4
sh603666,亿嘉和,2020-11-16,84.99,85.53,83.07,83.25,84.3,643958.0,54161812.0,3292032838.5,11541674938.5
sh603666,亿嘉和,2020-11-17,83.07,83.08,80.86,82.01,83.25,532042.0,43487911.0,3242998355.38,11369762903.38
sh603666,亿嘉和,2020-11-18,82.01,82.83,80.68,81.0,82.01,390836.0,31772743.0,3203058978.0,11229737778.0
sh603666,亿嘉和,2020-11-19,80.09,81.88,79.26,81.5,81.0,369039.0,29922003.0,3222830947.0,11299057146.999998
sh603666,亿嘉和,2020-11-20,81.6,82.18,80.23,80.91,81.5,335760.0,27163566.0,3199500023.5800004,11217260291.58
sh603666,亿嘉和,2020-11-23,80.41,81.49,79.49,80.33,80.91,431046.0,34619213.0,3176564539.5400004,11136849823.54
sh603666,亿嘉和,2020-11-24,80.98,80.98,79.01,79.28,80.33,479511.0,38154124.0,3135043404.64,10991279148.64
sh603666,亿嘉和,2020-11-25,80.06,80.06,77.75,77.88,79.28,466473.0,36440400.0,3079681891.44,10797184915.44
sh603666,亿嘉和,2020-11-26,77.94,80.88,77.35,78.85,77.88,590116.0,46778799.0,3118039511.3,10931664491.3
sh603666,亿嘉和,2020-11-27,78.89,81.53,77.77,81.47,78.85,547324.0,43747675.0,3221644628.86,11294897984.86
sh603666,亿嘉和,2020-11-30,81.31,81.8,80.01,80.17,81.47,419058.0,33789058.0,3170237509.46,11114667625.46
sh603666,亿嘉和,2020-12-01,80.78,81.81,80.2,81.3,80.17,279782.0,22718755.0,3214922159.4,11271329399.4
sh603666,亿嘉和,2020-12-02,81.99,82.0,80.55,81.71,81.3,262721.0,21355718.0,3231135173.98,11328171281.98
sh603666,亿嘉和,2020-12-03,81.8,82.4,81.1,81.16,81.71,345006.0,28216521.0,3209386008.0800004,11251919976.08
sh603666,亿嘉和,2020-12-04,81.0,86.33,80.66,86.3,81.16,929468.0,78490490.0,3412641849.4,11964523089.4
sh603666,亿嘉和,2020-12-07,86.2,86.99,85.9,86.84,86.3,591207.0,51184243.0,3433995575.92,12039388007.92
sh603666,亿嘉和,2020-12-08,86.46,89.3,84.0,87.0,86.84,814041.0,71643908.0,3440322606.0,12061570206.0
sh603666,亿嘉和,2020-12-09,87.43,88.38,85.21,86.38,87.0,636548.0,55042801.0,3415805364.44,11975614188.44
sh603666,亿嘉和,2020-12-10,85.69,86.8,84.16,84.6,86.38,545410.0,46452440.0,3345417154.8,11728837234.8
sh603666,亿嘉和,2020-12-11,84.6,88.21,83.98,86.78,84.6,747647.0,65027896.0,3431622939.6400003,12031069683.64
sh603666,亿嘉和,2020-12-14,86.44,89.18,85.32,88.28,86.78,596340.0,52413243.0,3490938846.6400003,12239027790.64
sh603666,亿嘉和,2020-12-15,87.61,88.93,86.99,88.4,88.28,359320.0,31640519.0,3495684119.2,12255664439.2
sh603666,亿嘉和,2020-12-16,88.29,90.18,87.71,89.45,88.4,613685.0,54685863.0,3537205254.1,12401235114.1
sh603666,亿嘉和,2020-12-17,89.13,90.45,86.87,89.8,89.45,574844.0,51102257.0,3551045632.4,12449758672.4
sh603666,亿嘉和,2020-12-18,88.93,90.28,88.02,88.5,89.8,524908.0,46767970.0,3499638513.0,12269528313.0
sh603666,亿嘉和,2020-12-21,88.0,89.6,85.61,86.03,88.5,1509980.0,131491041.0,3401964986.14,11927090630.14
sh603666,亿嘉和,2020-12-22,86.0,89.5,86.0,87.18,86.03,1680385.0,147949210.0,3447440514.84,12086525178.84
sh603666,亿嘉和,2020-12-23,88.49,91.5,88.01,89.46,87.18,1498936.0,134870104.0,3537600693.48,12402621501.48
sh603666,亿嘉和,2020-12-24,90.8,91.78,86.3,87.57,89.46,1450347.0,129557368.0,3462862650.66,12140594286.66
sh603666,亿嘉和,2020-12-25,87.78,93.5,86.74,93.0,87.57,2068034.0,187813358.0,3677586234.0,12893402634.0
sh603666,亿嘉和,2020-12-28,93.8,96.3,93.05,94.16,93.0,1396859.0,132030533.0,3723457202.08,13054223570.08
sh603666,亿嘉和,2020-12-29,94.16,94.28,89.6,92.0,94.16,997303.0,91435572.0,3638042296.0,12754763896.000002
sh603666,亿嘉和,2020-12-30,92.1,95.8,92.1,93.2,92.0,1130863.0,106783858.0,3685495021.6,12921130381.6
sh603666,亿嘉和,2020-12-31,94.69,96.65,93.09,95.89,93.2,901225.0,86217088.0,3791868214.82,13294068586.820002
sh603666,亿嘉和,2021-01-04,96.5,101.8,96.5,99.68,95.89,1393626.0,138784731.0,3941739739.84,13819509403.84
sh603666,亿嘉和,2021-01-05,99.8,102.55,98.0,102.0,99.68,1101772.0,110883581.0,4033481676.0,14141151276.0
sh603666,亿嘉和,2021-01-06,101.0,104.35,97.96,99.29,102.0,1701211.0,171015305.0,3926317604.02,13765440296.02
sh603666,亿嘉和,2021-01-07,99.13,104.0,97.31,102.11,99.29,1686883.0,170998467.0,4037831509.18,14156401537.18
sh603666,亿嘉和,2021-01-08,101.02,102.14,98.0,100.88,102.11,928001.0,93047538.0,3989192465.44,13985875889.44
sh603666,亿嘉和,2021-01-11,101.0,101.0,94.66,97.0,100.88,1617689.0,157318011.0,3835761986.0,13447957586.0
sh603666,亿嘉和,2021-01-12,96.01,98.83,95.33,98.7,97.0,745435.0,72513658.0,3902986680.6,13683643440.6
sh603666,亿嘉和,2021-01-13,98.91,98.93,92.55,93.76,98.7,1172923.0,111241924.0,3707639626.88,12998768074.88
sh603666,亿嘉和,2021-01-14,94.0,95.1,91.58,93.95,93.76,671922.0,62815883.0,3715152975.1,13025109435.099998
sh603666,亿嘉和,2021-01-15,93.95,94.81,90.2,91.6,93.95,722941.0,66578727.0,3622224720.8,12699308400.8
sh603666,亿嘉和,2021-01-18,92.1,98.68,92.08,97.94,91.6,1169994.0,112630184.0,3872933287.72,13578277999.72
sh603666,亿嘉和,2021-01-19,97.51,99.8,96.0,96.22,97.94,848817.0,83136281.0,3804917714.36,13339819370.36
sh603666,亿嘉和,2021-01-20,96.22,96.9,93.1,93.88,96.22,978489.0,92100406.0,3712384899.44,13015404723.44
sh603666,亿嘉和,2021-01-21,93.88,94.37,92.06,92.55,93.88,739841.0,68790971.0,3659791461.9,12831015201.900002
sh603666,亿嘉和,2021-01-22,92.05,92.56,90.0,91.1,92.55,966336.0,87939887.0,3602452751.8,12629989031.8
sh603666,亿嘉和,2021-01-25,92.0,92.0,88.32,89.22,91.1,962312.0,86411111.0,3528110148.36,12369348204.36
sh603666,亿嘉和,2021-01-26,88.5,89.4,85.89,86.35,89.22,940017.0,81977191.0,3414619046.3,11971455026.3
sh603666,亿嘉和,2021-01-27,86.0,87.5,84.01,86.09,86.35,812490.0,69518821.0,3404337622.42,11935408954.419998
sh603666,亿嘉和,2021-01-28,85.99,87.01,83.1,83.5,86.09,791589.0,67081807.0,3301918823.0,11576334623.0
sh603666,亿嘉和,2021-01-29,83.45,84.39,79.8,80.7,83.5,911294.0,74487750.0,3191195796.6,11188146156.599998
sh603666,亿嘉和,2021-02-01,80.7,83.8,80.62,82.49,80.7,664396.0,54851119.0,3261979445.62,11436309497.62
sh603666,亿嘉和,2021-02-02,82.65,84.67,81.67,83.86,82.49,749568.0,62415716.0,3316154640.68,11626244568.68
sh603666,亿嘉和,2021-02-03,83.94,83.99,80.7,80.9,83.86,800914.0,65400896.0,3199104584.2,11215873904.2
sh603666,亿嘉和,2021-02-04,80.5,81.74,79.0,81.55,80.9,698960.0,55996318.0,3224808143.9,11305989083.9
sh603666,亿嘉和,2021-02-05,80.36,81.36,78.8,78.84,81.55,652121.0,52121843.0,3117644071.92,10930278103.92
sh603666,亿嘉和,2021-02-08,79.03,81.38,77.0,80.2,78.84,469361.0,37349993.0,3171423827.6,11118826787.6
sh603666,亿嘉和,2021-02-09,80.2,81.8,79.6,81.12,80.2,481315.0,38940608.0,3207804250.56,11246374426.56
sh603666,亿嘉和,2021-02-10,81.11,82.43,80.21,81.81,81.12,699777.0,56918085.0,3235089567.78,11342035155.78
sh603666,亿嘉和,2021-02-18,83.0,83.18,79.05,79.9,81.81,897342.0,72453429.0,3159560646.2000003,11077235166.2
sh603666,亿嘉和,2021-02-19,80.36,85.1,79.3,83.99,79.9,1009037.0,82497405.0,3321295352.62,11644267604.62
sh603666,亿嘉和,2021-02-22,84.0,86.88,84.0,85.7,83.99,1058728.0,90779360.0,3388915486.6,11881339846.6
sh603666,亿嘉和,2021-02-23,85.13,85.59,82.47,84.7,85.7,673690.0,56767503.0,3349371548.6,11742701108.599998
sh603666,亿嘉和,2021-02-24,84.7,86.3,82.5,84.15,84.7,745933.0,63027204.0,3327622382.7,11666449802.7
sh603666,亿嘉和,2021-02-25,85.0,85.01,81.5,81.82,84.15,510911.0,42088965.0,3235485007.16,11343421543.16
sh603666,亿嘉和,2021-02-26,80.3,81.39,79.1,79.77,81.82,509734.0,40672385.0,3154419934.26,11059212130.26
sh603666,亿嘉和,2021-03-01,80.18,81.75,79.0,81.4,79.77,542641.0,43772943.0,3218876553.2000003,11285193273.2
sh603666,亿嘉和,2021-03-02,81.99,86.56,80.8,86.55,81.4,1114166.0,94200007.0,3422527833.9,11999182773.9
sh603666,亿嘉和,2021-03-03,85.76,91.26,85.18,90.9,86.55,1551168.0,138768274.0,3594543964.2,12602261284.2
sh603666,亿嘉和,2021-03-04,90.0,90.73,87.23,89.24,90.9,1009072.0,89713224.0,3528901027.1200004,12372120979.12
sh603666,亿嘉和,2021-03-05,88.23,92.5,87.4,92.0,89.24,1208908.0,109117501.0,3638042296.0,12754763896.000002
sh603666,亿嘉和,2021-03-08,92.59,96.12,90.08,90.08,92.0,1251920.0,117374980.0,3562117935.04,12488577519.04
sh603666,亿嘉和,2021-03-09,90.31,91.85,81.07,81.07,90.08,2593112.0,217174267.0,3205827053.6600003,11239442489.66
sh603666,亿嘉和,2021-03-10,81.07,82.31,78.96,80.0,81.07,1234952.0,98841680.0,3163515040.0,11091099040.000002
sh603666,亿嘉和,2021-03-11,80.15,80.67,79.18,80.64,80.0,597174.0,47828958.0,3188823160.32,11179827832.32
sh603666,亿嘉和,2021-03-12,80.68,85.47,79.81,83.1,80.64,963148.0,80410082.0,3286101247.8,11520879127.8
sh603666,亿嘉和,2021-03-15,82.64,87.0,82.31,83.96,83.1,1915860.0,161696804.0,3320109034.4800005,11640108442.48
sh603666,亿嘉和,2021-03-16,83.96,87.2,83.67,86.7,83.96,1152759.0,98119146.0,3428459424.6,12019978584.6
sh603666,亿嘉和,2021-03-17,87.81,88.23,85.61,88.09,86.7,942456.0,82568790.0,3483425498.42,12212686430.42
sh603666,亿嘉和,2021-03-18,88.08,89.79,87.16,87.88,88.09,713085.0,63083987.0,3475121271.44,12183572295.44
sh603666,亿嘉和,2021-03-19,87.88,91.09,86.42,89.13,87.88,1135340.0,102159250.0,3524551193.94,12356870717.94
sh603666,亿嘉和,2021-03-22,89.43,92.8,89.3,91.25,89.13,966098.0,88209072.0,3608384342.5,12650784842.5
sh603666,亿嘉和,2021-03-23,91.25,92.09,89.66,91.3,91.25,765872.0,69940490.0,3610361539.4,12657716779.400002
sh603666,亿嘉和,2021-03-24,90.71,91.79,88.08,88.36,91.3,805888.0,72266417.0,3494102361.68,12250118889.68
sh603666,亿嘉和,2021-03-25,88.03,89.5,85.8,86.0,88.36,708060.0,61656820.0,3400778668.0,11922931468.0
sh603666,亿嘉和,2021-03-26,86.05,88.88,85.83,87.6,86.0,627473.0,55064089.0,3464048968.8,12144753448.8
sh603666,亿嘉和,2021-03-29,88.05,91.52,87.12,90.0,87.6,888193.0,79680013.0,3558954420.0,12477486420.0
sh603666,亿嘉和,2021-03-30,89.86,94.86,89.86,92.64,90.0,1166621.0,108507212.0,3663350416.32,12843492688.32
sh603666,亿嘉和,2021-03-31,93.3,93.3,89.26,89.9,92.64,993859.0,89801779.0,3555000026.2,12463622546.2
sh603666,亿嘉和,2021-04-01,90.02,90.64,88.27,90.04,89.9,608480.0,54497534.0,3560536177.52,12483031969.52
sh603666,亿嘉和,2021-04-02,89.86,91.29,89.08,89.2,90.04,538978.0,48518552.0,3527319269.6,12366575429.6
sh603666,亿嘉和,2021-04-06,89.21,89.33,87.0,87.8,89.2,482440.0,42397108.0,3471957756.4,12172481196.4
sh603666,亿嘉和,2021-04-07,87.88,90.88,86.8,90.72,87.8,740070.0,65796990.0,3587426055.36,12577306311.36
sh603666,亿嘉和,2021-04-08,90.79,92.88,87.68,87.9,90.72,936778.0,83722388.0,3475912150.2,12186345070.2
sh603666,亿嘉和,2021-04-09,87.49,88.89,87.16,88.0,87.9,593190.0,52144141.0,3479866544.0,12200208944.000002
sh603666,亿嘉和,2021-04-12,87.97,88.0,83.84,84.1,88.0,730170.0,62229434.0,3325645185.8,11659517865.8
sh603666,亿嘉和,2021-04-13,84.1,85.4,82.62,83.86,84.1,489991.0,41042669.0,3316154640.68,11626244568.68
sh603666,亿嘉和,2021-04-14,83.84,88.0,83.49,87.0,83.86,695437.0,59943801.0,3440322606.0,12061570206.0
sh603666,亿嘉和,2021-04-15,86.83,91.76,86.83,90.01,87.0,1559309.0,141146827.0,3559349859.38,13300747096.599998
sh603666,亿嘉和,2021-04-16,91.33,91.33,88.81,89.49,90.01,588580.0,52861805.0,3538787011.62,13223906873.4
sh603666,亿嘉和,2021-04-19,89.59,90.16,88.01,89.64,89.49,630501.0,56219309.0,3544718602.32,13246072322.4
sh603666,亿嘉和,2021-04-20,92.01,93.66,89.13,90.43,89.64,1252387.0,114177543.0,3575958313.34,13362810353.8
sh603666,亿嘉和,2021-04-21,89.56,90.58,88.21,90.3,90.43,565506.0,50740723.0,3570817601.4,13343600297.999998
sh603666,亿嘉和,2021-04-22,90.3,90.93,89.17,89.82,90.3,409843.0,36879097.0,3551836511.1600003,13272670861.2
sh603666,亿嘉和,2021-04-23,90.02,91.88,89.57,90.0,89.82,850621.0,76940407.0,3558954420.0,13299269400.0
sh603666,亿嘉和,2021-04-26,90.56,94.94,90.0,93.34,90.0,1639209.0,153080231.0,3691031172.92,13792820064.4
sh603666,亿嘉和,2021-04-27,93.2,94.5,91.62,93.4,93.34,642471.0,59625260.0,3693403809.2,13801686244.0
sh603666,亿嘉和,2021-04-28,92.6,97.77,92.6,97.37,93.4,1089394.0,104468567.0,3850393243.06,14388331794.2
sh603666,亿嘉和,2021-04-29,95.0,96.0,92.56,93.19,97.37,1413813.0,132873014.0,3685099582.22,13770654615.4
sh603666,亿嘉和,2021-04-30,92.25,93.38,90.47,91.58,93.19,862676.0,78960290.0,3621433842.04,13532745462.8
sh603666,亿嘉和,2021-05-06,91.58,95.5,90.5,93.67,91.58,912244.0,85617396.0,3704080672.46,13841584052.2
sh603666,亿嘉和,2021-05-07,93.67,94.41,91.0,91.34,93.67,717539.0,66716056.0,3611943296.92,13497280744.400002
sh603666,亿嘉和,2021-05-10,91.42,91.95,88.01,89.77,91.34,733026.0,65647138.0,3549859314.26,13265282378.2
sh603666,亿嘉和,2021-05-11,89.97,90.32,88.04,88.12,89.77,554987.0,49137708.0,3484611816.56,13021462439.2
sh603666,亿嘉和,2021-05-12,88.15,88.96,87.53,88.57,88.12,379992.0,33533018.0,3502406588.6600003,13087958786.2
sh603666,亿嘉和,2021-05-13,87.5,88.17,86.68,87.06,88.57,483437.0,42212992.0,3442695242.28,12864826599.6
sh603666,亿嘉和,2021-05-14,87.18,87.6,84.36,86.36,87.06,729336.0,62507350.0,3415014485.68,12761387837.6
sh603666,亿嘉和,2021-05-17,87.15,88.72,86.36,87.55,86.36,565606.0,49623660.0,3462071771.9,12937233733.0
sh603666,亿嘉和,2021-05-18,87.6,88.0,85.6,86.12,87.55,475167.0,40977171.0,3405523940.56,12725923119.2
sh603666,亿嘉和,2021-05-19,86.05,86.6,85.8,86.29,86.12,234493.0,20192097.0,3412246410.02,12751043961.400002
sh603666,亿嘉和,2021-05-20,85.99,86.38,85.3,86.27,86.29,262692.0,22544055.0,3411455531.26,12748088568.2
sh603666,亿嘉和,2021-05-21,86.28,86.57,83.59,83.86,86.27,597930.0,50525701.0,3316154640.68,12391963687.6
sh603666,亿嘉和,2021-05-24,83.0,84.95,83.0,84.44,83.86,314649.0,26456990.0,3339090124.72,12477670090.4
sh603666,亿嘉和,2021-05-25,85.05,85.85,83.9,85.79,84.44,445024.0,37805188.0,3392474441.02,12677159131.400002
sh603666,亿嘉和,2021-05-26,85.79,86.5,85.0,85.55,85.79,298470.0,25586779.0,3382983895.9,12641694413.0
sh603666,亿嘉和,2021-05-27,86.1,87.28,85.17,87.01,85.55,382611.0,33051134.0,3440718045.38,12857438116.599998
sh603666,亿嘉和,2021-05-28,87.28,88.74,86.06,87.3,87.01,476120.0,41746769.0,3452185787.4,12900291318.0
sh603666,亿嘉和,2021-05-31,87.3,87.3,84.05,84.31,87.3,922873.0,78161134.0,3333949412.78,12458460034.6
sh603666,亿嘉和,2021-06-01,84.6,85.28,83.64,84.63,84.31,514679.0,43442449.0,3346603472.94,12505746325.8
sh603666,亿嘉和,2021-06-02,84.55,84.9,82.83,83.01,84.63,400453.0,33351530.0,3282542293.38,12266359476.6
sh603666,亿嘉和,2021-06-03,82.92,83.74,82.61,82.98,83.01,432691.0,36008090.0,3281355975.24,12261926386.8
sh603666,亿嘉和,2021-06-04,81.99,82.0,79.9,80.61,82.98,799120.0,64733938.0,3187636842.18,11911712292.599998
sh603666,亿嘉和,2021-06-07,80.46,81.18,80.0,80.46,80.61,442809.0,35553268.0,3181705251.48,11889546843.6
sh603666,亿嘉和,2021-06-08,80.46,82.55,80.0,81.94,80.46,467023.0,38134481.0,3240230279.7200003,12108245940.400002
sh603666,亿嘉和,2021-06-09,82.1,82.1,80.49,81.7,81.94,309192.0,25041389.0,3230739734.6,12072781222.000002
sh603666,亿嘉和,2021-06-10,81.69,82.39,80.28,80.51,81.7,342215.0,27633476.0,3183682448.38,11896935326.6
sh603666,亿嘉和,2021-06-11,80.88,82.79,80.1,81.8,80.51,591341.0,48278467.0,3234694128.4,12087558188.0
sh603666,亿嘉和,2021-06-15,81.8,84.35,81.67,83.5,81.8,655035.0,54640451.0,11484918823.0,12338766610.0
sh603666,亿嘉和,2021-06-16,83.3,83.3,80.0,80.7,83.5,593963.0,47989928.0,11099795796.6,11925011562.0
sh603666,亿嘉和,2021-06-17,80.5,81.0,80.01,80.47,80.7,328217.0,26386793.0,11068160690.86,11891024540.2
sh603666,亿嘉和,2021-06-18,80.0,81.1,79.9,81.1,80.47,324074.0,26100236.0,11154813371.8,11984119426.0
sh603666,亿嘉和,2021-06-21,80.35,89.21,80.35,89.21,81.1,1764920.0,152715030.0,12270294708.98,13182531368.6
sh603666,亿嘉和,2021-06-22,90.0,90.44,87.27,89.41,89.21,844288.0,74919163.0,12297803496.58,13212085300.6
sh603666,亿嘉和,2021-06-23,89.58,91.31,88.3,91.1,89.41,657643.0,59084501.0,12530252751.8,13461816026.000002
sh603666,亿嘉和,2021-06-24,90.1,92.32,89.2,90.7,91.1,436135.0,39525773.0,12475235176.599998,13402708162.0
sh603666,亿嘉和,2021-06-25,90.48,92.56,89.34,91.1,90.7,467171.0,42455709.0,12530252751.8,13461816026.000002
sh603666,亿嘉和,2021-06-28,90.66,92.25,89.0,92.21,91.1,591855.0,53612098.0,12682926522.98,13625840348.6
sh603666,亿嘉和,2021-06-29,91.66,92.7,90.1,90.56,92.21,444096.0,40529735.0,12455979025.28,13382020409.599998
sh603666,亿嘉和,2021-06-30,90.4,92.48,90.05,91.16,90.56,508420.0,46478530.0,12538505388.08,13470682205.6
sh603666,亿嘉和,2021-07-01,92.15,92.16,89.0,89.15,91.16,476638.0,43137826.0,12262042072.7,13164179629.0
sh603666,亿嘉和,2021-07-02,89.01,91.88,88.7,89.03,89.15,442042.0,39787173.0,12245536800.14,13146460037.8
sh603666,亿嘉和,2021-07-05,89.08,91.4,87.55,90.9,89.03,508829.0,45816024.0,12502743964.2,13422590334.0
sh603666,亿嘉和,2021-07-06,90.58,91.16,88.76,89.88,90.9,462568.0,41514177.0,12362449147.44,13271973808.8
sh603666,亿嘉和,2021-07-07,88.87,90.66,88.0,90.66,89.88,520680.0,46624202.0,12469733419.08,13387151151.6
sh603666,亿嘉和,2021-07-08,90.76,93.26,90.5,91.55,90.66,626932.0,57389165.0,12592147523.9,13518571453.0
sh603666,亿嘉和,2021-07-09,91.49,92.5,88.27,91.39,91.55,730843.0,66162017.0,12570140493.82,13494945331.4
sh603666,亿嘉和,2021-07-12,92.07,93.0,90.39,90.81,91.39,600678.0,54788674.0,12490365009.78,13409300640.6
sh603666,亿嘉和,2021-07-13,90.9,94.83,90.9,93.53,90.81,745715.0,69203974.0,12864484521.14,13810944707.8
sh603666,亿嘉和,2021-07-14,93.2,95.36,91.38,92.99,93.53,561919.0,52309904.0,12790210794.62,13731206547.4
sh603666,亿嘉和,2021-07-15,94.0,94.0,90.38,92.89,92.99,536170.0,49390283.0,12776456400.82,13716440221.4
sh603666,DR亿嘉和,2021-07-16,66.08,69.5,66.08,67.22,66.09,1100466.0,74924885.0,9245703512.36,9925924337.2
sh603666,亿嘉和,2021-07-19,65.98,66.0,62.5,64.58,67.22,1327102.0,85306339.0,12435622509.54,13350530663.12
sh603666,亿嘉和,2021-07-20,64.58,64.98,61.88,62.19,64.58,810296.0,50821696.0,11975400493.47,12856449395.16
sh603666,亿嘉和,2021-07-21,62.75,63.2,61.56,62.45,62.19,673928.0,41921919.0,12025466486.849998,12910198821.8
sh603666,亿嘉和,2021-07-22,62.3,62.71,60.93,61.35,62.45,646128.0,39926066.0,11813648822.55,12682797401.4
sh603666,亿嘉和,2021-07-23,61.55,61.75,59.08,59.68,61.35,685922.0,41119573.0,11492071095.84,12337560699.52
sh603666,亿嘉和,2021-07-26,59.68,60.7,58.7,60.17,59.68,552350.0,33023535.0,11586426237.21,12438857695.88
sh603666,亿嘉和,2021-07-27,59.66,61.66,59.66,59.7,60.17,549322.0,33355650.0,11495922326.1,12341695270.8
sh603666,亿嘉和,2021-07-28,59.7,59.7,57.5,57.67,59.7,679953.0,39445284.0,11105022454.71,11922036285.88
sh603666,亿嘉和,2021-07-29,57.97,58.78,57.8,58.12,57.67,1006735.0,58677034.0,11191675135.56,12015064139.68
sh603666,亿嘉和,2021-07-30,58.15,61.05,57.36,60.89,58.12,1153564.0,68255451.0,11725070526.57,12587702261.96
sh603666,亿嘉和,2021-08-02,60.89,62.55,60.89,61.77,60.89,1100979.0,68041956.0,11894524658.009998,12769623398.28
sh603666,亿嘉和,2021-08-03,60.0,60.0,57.1,57.15,61.77,2183972.0,126258272.0,11004890467.95,11814537432.599998
sh603666,亿嘉和,2021-08-04,57.16,58.0,57.0,57.82,57.15,890265.0,51186370.0,11133906681.66,11953045570.48
sh603666,亿嘉和,2021-08-05,57.82,58.36,57.45,57.94,57.82,698968.0,40532857.0,11157014063.22,11977852998.16
sh603666,亿嘉和,2021-08-06,58.0,59.77,57.94,59.6,57.94,796622.0,46939381.0,11476666174.8,12321022414.4
sh603666,亿嘉和,2021-08-09,59.6,60.18,59.18,59.92,59.6,725934.0,43336182.0,11538285858.96,12387175554.88
sh603666,亿嘉和,2021-08-10,59.55,63.2,59.55,60.88,59.92,1451395.0,88956319.0,11723144911.44,12585634976.32
sh603666,亿嘉和,2021-08-11,60.69,61.14,59.74,60.43,60.88,465165.0,28038148.0,11636492230.59,12492607122.52
sh603666,亿嘉和,2021-08-12,60.41,60.49,59.7,60.28,60.43,518054.0,31121863.0,11607608003.64,12461597837.92
sh603666,亿嘉和,2021-08-13,60.49,60.49,58.88,59.45,60.28,814041.0,48408685.0,11447781947.85,12290013129.8
sh603666,亿嘉和,2021-08-16,60.0,61.65,59.3,61.1,59.45,1170690.0,70820798.0,11765508444.3,12631115260.4
sh603666,亿嘉和,2021-08-17,61.17,61.18,58.0,60.54,61.1,1345919.0,79718997.0,11657673997.02,12515347264.56
sh603666,亿嘉和,2021-08-18,59.79,59.84,57.94,58.66,60.54,862468.0,50692003.0,11295658352.58,12126697564.24
sh603666,亿嘉和,2021-08-19,52.79,58.25,52.79,58.0,58.66,2475013.0,137318428.0,11168567754.0,11990256712.0
sh603666,亿嘉和,2021-08-20,57.0,57.0,55.23,56.11,58.0,972491.0,54391756.0,10804626494.43,11599539726.04
sh603666,亿嘉和,2021-08-23,56.18,59.34,55.0,58.9,56.11,881132.0,51056101.0,11341873115.7,12176312419.6
sh603666,亿嘉和,2021-08-24,59.12,59.48,57.7,58.5,58.9,757875.0,44271690.0,11264848510.5,12093620994.0
sh603666,亿嘉和,2021-08-25,58.09,59.0,57.67,58.7,58.5,404968.0,23766875.0,11303360813.1,12134966706.8
sh603666,亿嘉和,2021-08-26,58.76,59.09,56.7,58.0,58.7,714040.0,41063554.0,11168567754.0,11990256712.0
sh603666,亿嘉和,2021-08-27,57.6,57.71,56.0,56.6,58.0,799653.0,45370857.0,10898981635.8,11700836722.4
sh603666,亿嘉和,2021-08-30,56.6,56.6,55.0,55.36,56.6,705928.0,39226264.0,10660205359.68,11444493303.04
sh603666,亿嘉和,2021-08-31,55.36,55.36,53.39,54.06,55.36,620483.0,33507280.0,10409875392.78,11175746169.84
sh603666,亿嘉和,2021-09-01,53.98,53.98,51.91,52.8,54.06,823884.0,43319449.0,10167247886.4,10915268179.2
sh603666,亿嘉和,2021-09-02,53.04,53.19,52.02,52.7,52.8,596901.0,31266692.0,10147991735.1,10894595322.8
sh603666,亿嘉和,2021-09-03,52.73,54.8,51.7,53.0,52.7,758620.0,40422316.0,10205760189.0,10956613892.0
sh603666,亿嘉和,2021-09-06,53.71,53.71,51.88,52.57,53.0,753644.0,39319479.0,10122958738.41,10867720609.48
sh603666,亿嘉和,2021-09-07,52.11,57.11,52.11,56.96,52.57,2255856.0,124322009.0,10968303780.48,11775259005.44
sh603666,亿嘉和,2021-09-08,56.0,56.5,55.0,55.51,56.96,846975.0,47047986.0,10689089586.63,11475502587.64
sh603666,亿嘉和,2021-09-09,55.21,55.47,53.56,55.2,55.51,1065051.0,57921216.0,10629395517.6,11411416732.8
sh603666,亿嘉和,2021-09-10,55.13,55.76,53.81,55.22,55.2,834318.0,45520207.0,10633246747.86,11415551304.08
sh603666,亿嘉和,2021-09-13,55.88,55.98,54.01,54.2,55.22,608703.0,33137944.0,10436834004.6,11204688168.8
sh603666,亿嘉和,2021-09-14,53.71,54.43,53.35,53.5,54.2,380695.0,20461546.0,10302040945.5,11059978174.0
sh603666,亿嘉和,2021-09-15,53.28,53.99,52.35,53.95,53.5,408301.0,21597253.0,10388693626.35,11153006027.8
sh603666,亿嘉和,2021-09-16,53.97,54.6,53.0,53.01,53.95,472670.0,25413931.0,10207685804.13,10958681177.64
sh603666,亿嘉和,2021-09-17,53.0,54.26,52.3,53.02,53.01,613755.0,32473921.0,10209611419.26,10960748463.28
sh603666,亿嘉和,2021-09-22,52.71,54.59,51.5,54.0,53.02,826163.0,43933826.0,10398321702.0,11163342456.0
sh603666,亿嘉和,2021-09-23,54.08,56.5,53.94,55.04,54.0,1670419.0,92653606.0,10598585675.52,11378340162.56
sh603666,亿嘉和,2021-09-24,55.01,55.12,53.46,53.58,55.04,837965.0,45410834.0,10317445866.54,11076516459.12
sh603666,亿嘉和,2021-09-27,53.6,54.01,51.98,52.85,53.58,799227.0,42077532.0,10176875962.05,10925604607.4
sh603666,亿嘉和,2021-09-28,52.56,52.56,51.7,52.05,52.85,477017.0,24814438.0,10022826751.65,10760221756.2
sh603666,亿嘉和,2021-09-29,52.0,52.3,49.0,49.91,52.05,911396.0,45693615.0,9610745113.83,10317822629.24
sh603666,亿嘉和,2021-09-30,49.99,51.09,49.58,50.6,49.91,449606.0,22641397.0,9743612557.8,10460465338.4
sh603666,亿嘉和,2021-10-08,50.8,51.16,46.5,48.46,50.6,1582143.0,75858467.0,9331530919.98,10018066211.44
sh603666,亿嘉和,2021-10-11,48.5,48.59,47.09,47.53,48.46,783219.0,37309050.0,9152448712.89,9825808646.92
sh603666,亿嘉和,2021-10-12,47.49,48.29,46.4,47.08,47.53,1080916.0,50911341.0,9065796032.04,9732780793.12
sh603666,亿嘉和,2021-10-13,47.14,47.79,46.5,47.2,47.08,903974.0,42581338.0,9692274748.8,9757588220.8
sh603666,亿嘉和,2021-10-14,47.42,47.54,46.35,47.0,47.2,894997.0,42079016.0,9651205788.0,9716242508.0
sh603666,亿嘉和,2021-10-15,47.19,47.98,46.41,47.7,47.0,1089635.0,51769980.0,9794947150.8,9860952502.8
sh603666,亿嘉和,2021-10-18,47.81,49.0,46.4,48.22,47.7,1183301.0,56493830.0,9901726448.88,9968451356.08
sh603666,亿嘉和,2021-10-19,48.21,50.8,47.84,50.02,48.22,1295331.0,63884655.0,10271347096.08,10340562771.28
sh603666,亿嘉和,2021-10-20,50.09,51.4,49.88,50.75,50.02,759702.0,38456491.0,10421248803.0,10491474623.0
sh603666,亿嘉和,2021-10-21,50.69,53.5,50.59,53.15,50.75,1258948.0,66165403.0,10914076332.6,10987623176.599998
sh603666,亿嘉和,2021-10-22,53.43,57.66,53.18,56.3,53.15,3407506.0,189503089.0,11560912465.2,11638818153.2
sh603666,亿嘉和,2021-10-25,57.48,57.88,55.0,56.35,56.3,1540863.0,86417016.0,11571179705.4,11649154581.4
sh603666,亿嘉和,2021-10-26,56.5,58.45,55.44,57.8,56.35,1191481.0,68573043.0,11868929671.2,11948910999.2
sh603666,亿嘉和,2021-10-27,57.2,58.88,57.03,57.87,57.8,725939.0,42094459.0,11883303807.48,11963381998.68
sh603666,亿嘉和,2021-10-28,56.88,58.0,56.5,57.69,57.87,943279.0,54019471.0,11846341742.759998,11926170857.16
sh603666,亿嘉和,2021-10-29,57.68,57.79,53.79,55.8,57.69,1621114.0,89083744.0,11458240063.2,11535453871.2
sh603666,亿嘉和,2021-11-01,59.44,61.38,56.0,59.8,55.8,4917110.0,291609334.0,12279619279.2,12362368127.2
sh603666,亿嘉和,2021-11-02,59.79,61.7,59.14,60.02,59.8,1583673.0,95476017.0,12324795136.08,12407848411.28
sh603666,亿嘉和,2021-11-03,59.5,60.5,57.18,57.86,60.02,2702029.0,157321486.0,11881250359.44,11961314713.04
sh603666,亿嘉和,2021-11-04,57.58,58.98,56.98,58.11,57.86,1993082.0,115501512.0,11932586560.44,12012996854.04
sh603666,亿嘉和,2021-11-05,56.34,60.88,56.16,59.2,58.11,1955504.0,115431360.0,12156412396.8,12238330988.8
sh603666,亿嘉和,2021-11-08,58.9,59.2,57.7,59.2,59.2,1142927.0,66895097.0,12156412396.8,12238330988.8
sh603666,亿嘉和,2021-11-09,59.02,63.35,58.1,63.1,59.2,3301094.0,204398756.0,12957257132.4,13044572388.4
sh603666,亿嘉和,2021-11-10,63.8,65.35,61.99,63.73,63.1,2699995.0,171729901.0,13086624358.92,13174811383.72
sh603666,亿嘉和,2021-11-11,63.75,64.24,61.55,62.82,63.73,1857584.0,116845886.0,12899760587.28,12986688390.48
sh603666,亿嘉和,2021-11-12,63.88,69.1,63.55,69.1,62.82,6427811.0,435309467.0,14189325956.4,14284943772.400002
sh603666,亿嘉和,2021-11-15,70.99,76.01,70.1,73.0,69.1,10023390.0,735825636.0,14990170692.0,15091185171.999998
sh603666,亿嘉和,2021-11-16,73.0,73.9,70.44,73.0,73.0,3530549.0,255673033.0,14990170692.0,15091185171.999998
sh603666,亿嘉和,2021-11-17,72.46,75.35,71.02,74.21,73.0,3899110.0,286989921.0,15238637904.84,15341326734.44
sh603666,亿嘉和,2021-11-18,74.74,80.0,72.5,78.02,74.21,3615103.0,276926546.0,16021001608.08,16128962563.28
sh603666,亿嘉和,2021-11-19,77.9,79.3,76.2,77.64,78.02,1908042.0,149156897.0,15942970582.56,16050405708.96
sh603666,亿嘉和,2021-11-22,77.9,78.7,74.0,75.79,77.64,4071785.0,308601760.0,15563082695.16,15667957865.56
sh603666,亿嘉和,2021-11-23,74.9,76.8,73.73,75.52,75.79,3314753.0,248947457.0,15507639598.08,15612141153.279999
sh603666,亿嘉和,2021-11-24,75.3,76.09,74.0,75.5,75.52,1651685.0,124344118.0,15503532702.0,15608006582.0
sh603666,亿嘉和,2021-11-25,76.0,83.05,73.56,80.23,75.5,4556926.0,361013712.0,16474813624.92,16585832689.720001
sh603666,亿嘉和,2021-11-26,80.64,82.0,78.44,80.39,80.23,2433247.0,194237815.0,16507668793.560001,16618909259.96
sh603666,亿嘉和,2021-11-29,78.47,82.99,78.47,82.15,80.39,2948061.0,241794854.0,16869075648.6,16982751532.6
sh603666,亿嘉和,2021-11-30,81.81,82.49,79.55,80.22,82.15,1881667.0,152137920.0,16472760176.880001,16583765404.079998
sh603666,亿嘉和,2021-12-01,81.73,82.29,78.46,78.8,80.22,2039812.0,161775804.0,16181170555.199999,16290210843.199999
sh603666,亿嘉和,2021-12-02,78.27,80.13,77.67,78.67,78.8,1409815.0,111230118.0,16154475730.679998,16263336129.880001
sh603666,亿嘉和,2021-12-03,78.6,78.82,75.5,76.56,78.67,2765325.0,212877732.0,15721198194.240002,15827138859.84
sh603666,亿嘉和,2021-12-06,76.49,78.8,75.11,75.5,76.56,2076402.0,158052629.0,15503532702.0,15608006582.0
sh603666,亿嘉和,2021-12-07,75.05,76.5,70.3,71.01,75.5,5087431.0,366644854.0,14581534532.039999,14679795329.64
sh603666,亿嘉和,2021-12-08,71.77,75.1,71.12,73.47,71.01,3176147.0,233621799.0,15086682749.880001,15188347597.080002
sh603666,亿嘉和,2021-12-09,74.48,74.48,70.0,71.01,73.47,3354882.0,238557635.0,14581534532.039999,14679795329.64
sh603666,亿嘉和,2021-12-10,72.0,72.0,69.0,70.7,71.01,1904805.0,133633811.0,14517877642.8,14615709474.800001
sh603666,亿嘉和,2021-12-13,70.85,76.8,70.85,74.1,70.7,2918711.0,216472090.0,15246200970.0,15318586592.4
sh603666,亿嘉和,2021-12-14,73.8,78.61,73.0,77.9,74.1,3339450.0,255915390.0,16028057430.0,16104155135.6
sh603666,亿嘉和,2021-12-15,78.2,83.69,76.05,81.0,77.9,4581505.0,367050271.0,16665887700.0,16745013684.0
sh603666,亿嘉和,2021-12-16,81.24,82.28,77.99,79.83,81.0,2522554.0,200924741.0,16425158211.0,16503141264.12
sh603666,亿嘉和,2021-12-17,78.89,84.0,78.8,80.6,79.83,3248122.0,265749475.0,16583587020.0,16662322258.4
sh603666,亿嘉和,2021-12-20,76.84,82.36,76.84,78.08,80.6,3624255.0,286763034.0,16065092736.0,16141366277.119999
sh603666,亿嘉和,2021-12-21,79.92,79.99,72.99,74.77,78.08,2599211.0,195522739.0,15384054609.0,15457094730.28
sh603666,亿嘉和,2021-12-22,75.45,75.5,72.28,74.37,74.77,1486877.0,110036463.0,15301753929.0,15374403304.679998
sh603666,亿嘉和,2021-12-23,75.39,76.37,72.7,75.14,74.37,1637091.0,122769683.0,15460182738.0,15533584298.960001
sh603666,亿嘉和,2021-12-24,75.2,78.5,74.24,75.19,75.14,1847758.0,140561207.0,15470470323.0,15543920727.16
sh603666,亿嘉和,2021-12-27,75.35,76.45,71.66,71.84,75.19,2827854.0,207496035.0,14781202128.000002,14851380037.76
sh603666,亿嘉和,2021-12-28,72.5,75.28,71.68,73.08,71.84,1760477.0,128493411.0,15036334236.000002,15107723457.12
sh603666,亿嘉和,2021-12-29,73.08,73.43,71.66,72.5,73.08,1467694.0,106397049.0,14916998250.0,14987820890.0
sh603666,亿嘉和,2021-12-30,72.32,74.3,71.8,73.34,72.5,1332777.0,97469649.0,15089829678.0,15161472883.76
sh603666,亿嘉和,2021-12-31,73.86,75.89,73.35,75.12,73.34,1910613.0,143312316.0,15456067704.0,15529449727.68
sh603666,亿嘉和,2022-01-04,76.35,76.35,72.06,73.6,75.12,2359031.0,174067447.0,15143325120.000002,15215222310.4
sh603666,亿嘉和,2022-01-05,73.38,73.38,70.75,71.12,73.6,2323099.0,166507048.0,14633060904.000002,14702535471.679998
sh603666,亿嘉和,2022-01-06,71.0,71.75,70.02,71.44,71.12,1256080.0,89223455.0,14698901447.999998,14768688612.16
sh603666,亿嘉和,2022-01-07,70.89,71.86,69.3,69.89,71.44,1518835.0,106594725.0,14379986313.0,14448259337.96
sh603666,亿嘉和,2022-01-10,69.56,70.29,66.99,69.84,69.89,1739190.0,120141301.0,14369698728.0,14437922909.76
sh603666,亿嘉和,2022-01-11,68.61,70.98,68.61,69.88,69.84,1417172.0,99645158.0,14377928796.000002,14446192052.32
sh603666,亿嘉和,2022-01-12,70.0,75.85,70.0,75.2,69.88,2624330.0,193404047.0,15472527840.0,15545988012.8
sh603666,亿嘉和,2022-01-13,75.92,75.92,71.8,72.5,75.2,2097862.0,152674515.0,14916998250.0,14987820890.0
sh603666,亿嘉和,2022-01-14,72.0,76.5,71.44,73.55,72.5,2136784.0,158590181.0,15133037535.000002,15204885882.2
