数据由邢不行整理
股票代码,股票名称,交易日期,开盘价,最高价,最低价,收盘价,前收盘价,成交量,成交额,流通市值,总市值
sh600929,N湖盐,2018-03-26,4.45,5.34,4.45,5.34,3.71,86447.0,461538.0,801000000.0,4900791130.32
sh600929,湖南盐业,2018-03-27,5.87,5.87,5.87,5.87,5.34,84673.0,497031.0,880500000.0,5387199238.76
sh600929,湖南盐业,2018-03-28,6.46,6.46,6.46,6.46,5.87,121301.0,783604.0,969000000.0,5928672416.08
sh600929,湖南盐业,2018-03-29,7.11,7.11,7.11,7.11,6.46,136445.0,970124.0,1066500000.0,6525210662.28
sh600929,湖南盐业,2018-03-30,7.82,7.82,7.82,7.82,7.11,438637.0,3430141.0,1173000000.0,7176813977.36
sh600929,湖南盐业,2018-04-02,8.6,8.6,8.6,8.6,7.82,523262.0,4500053.0,1290000000.0,7892659872.8
sh600929,湖南盐业,2018-04-03,9.46,9.46,9.46,9.46,8.6,719311.0,6804682.0,1419000000.0,8681925860.08
sh600929,湖南盐业,2018-04-04,10.41,10.41,10.41,10.41,9.46,749530.0,7802607.0,1561500000.0,9553789450.68
sh600929,湖南盐业,2018-04-09,11.45,11.45,11.45,11.45,10.41,1417698.0,16232642.0,1717500000.0,10508250644.6
sh600929,湖南盐业,2018-04-10,12.6,12.6,12.6,12.6,11.45,4987727.0,62845360.0,1890000000.0,11563664464.8
sh600929,湖南盐业,2018-04-11,13.86,13.86,13.86,13.86,12.6,2673615.0,37056304.0,2079000000.0,12720030911.3
sh600929,湖南盐业,2018-04-12,15.25,15.25,15.25,15.25,13.86,1674588.0,25537467.0,2287500000.0,13995705007.0
sh600929,湖南盐业,2018-04-13,16.78,16.78,16.78,16.78,15.25,2233488.0,37477929.0,2517000000.0,15399864263.4
sh600929,湖南盐业,2018-04-16,18.46,18.46,18.01,18.46,16.78,61139655.0,1128451701.0,2769000000.0,16941686192.1
sh600929,湖南盐业,2018-04-17,19.0,19.37,17.04,18.03,18.46,107457133.0,1992637000.0,2704500000.0,16547053198.4
sh600929,湖南盐业,2018-04-18,17.5,17.88,16.23,16.55,18.03,67931568.0,1128398715.0,2482500000.0,15188781499.4
sh600929,湖南盐业,2018-04-19,15.73,16.84,15.5,16.08,16.55,55417270.0,894760292.0,2412000000.0,14757438459.8
sh600929,湖南盐业,2018-04-20,15.95,16.28,14.47,14.47,16.08,51124314.0,774072202.0,2170500000.0,13279859111.6
sh600929,湖南盐业,2018-04-23,14.05,14.84,14.03,14.62,14.47,39370300.0,569360310.0,2193000000.0,13417521783.8
sh600929,湖南盐业,2018-04-24,14.32,15.75,14.02,15.17,14.62,52603162.0,786707595.0,2275500000.0,13922284915.2
sh600929,湖南盐业,2018-04-25,14.65,15.49,14.56,14.76,15.17,39802074.0,594593392.0,2214000000.0,13546006944.5
sh600929,湖南盐业,2018-04-26,14.84,16.15,14.56,15.49,14.76,62110683.0,967324625.0,2323500000.0,14215965282.5
sh600929,湖南盐业,2018-04-27,15.01,15.34,14.0,14.33,15.49,44451711.0,647436711.0,2149500000.0,13151373950.8
sh600929,湖南盐业,2018-05-02,14.34,14.48,13.33,13.59,14.33,32372499.0,444770191.0,2038500000.0,12472238101.3
sh600929,湖南盐业,2018-05-03,13.6,14.19,13.33,13.91,13.59,32358596.0,448915114.0,2086500000.0,12765918468.7
sh600929,湖南盐业,2018-05-04,13.81,13.99,13.35,13.47,13.91,25411942.0,346445583.0,2020500000.0,12362107963.6
sh600929,湖南盐业,2018-05-07,13.51,14.11,13.46,13.83,13.47,26651311.0,366736397.0,2074500000.0,12692498376.8
sh600929,湖南盐业,2018-05-08,13.73,15.0,13.66,14.32,13.83,41031374.0,591499718.0,2148000000.0,13142196439.4
sh600929,湖南盐业,2018-05-09,14.15,14.9,14.03,14.75,14.32,40681875.0,591927268.0,2212500000.0,13536829433.0
sh600929,湖南盐业,2018-05-10,14.62,14.88,14.3,14.7,14.75,32628306.0,475972144.0,2205000000.0,13490941875.6
sh600929,湖南盐业,2018-05-11,14.53,16.17,14.53,16.17,14.7,34893724.0,546447963.0,2425500000.0,14840036063.2
sh600929,湖南盐业,2018-05-14,17.0,17.79,15.8,17.17,16.17,90047355.0,1555594906.0,2575500000.0,15757787211.2
sh600929,湖南盐业,2018-05-15,16.8,18.89,16.59,18.89,17.17,71648102.0,1259817519.0,2833500000.0,17336319185.7
sh600929,湖南盐业,2018-05-16,19.5,20.78,19.32,20.78,18.89,73201636.0,1496283682.0,3117000000.0,19070868855.4
sh600929,湖南盐业,2018-05-17,21.5,22.78,19.81,20.01,20.78,105199776.0,2260793259.0,3001500000.0,18364200471.5
sh600929,湖南盐业,2018-05-18,19.11,20.98,18.88,20.25,20.01,79366425.0,1601587865.0,3037500000.0,18584460747.0
sh600929,湖南盐业,2018-05-21,19.7,22.28,19.2,22.28,20.25,72309308.0,1500994052.0,3342000000.0,20447495577.4
sh600929,湖南盐业,2018-05-22,22.4,24.51,21.08,22.96,22.28,101020969.0,2324921987.0,3444000000.0,21071566358.1
sh600929,湖南盐业,2018-05-23,21.9,23.48,20.95,21.11,22.96,77919885.0,1725877237.0,3166500000.0,19373726734.3
sh600929,湖南盐业,2018-05-24,20.59,22.5,20.02,21.51,21.11,60942183.0,1286915028.0,3226500000.0,19740827193.5
sh600929,湖南盐业,2018-05-25,21.2,21.99,21.0,21.02,21.51,46138369.0,992414658.0,3153000000.0,19291129131.0
sh600929,湖南盐业,2018-05-28,20.08,20.5,18.92,19.04,21.02,47808843.0,936143113.0,2856000000.0,17473981857.9
sh600929,湖南盐业,2018-05-29,19.09,19.99,18.51,19.49,19.04,42498055.0,816177452.0,2923500000.0,17886969874.5
sh600929,湖南盐业,2018-05-30,18.5,19.29,17.55,18.43,19.49,36900829.0,682760298.0,2764500000.0,16914153657.6
sh600929,湖南盐业,2018-05-31,18.7,19.92,18.7,19.86,18.43,49652507.0,956089892.0,2979000000.0,18226537799.3
sh600929,湖南盐业,2018-06-01,19.6,19.65,18.2,18.9,19.86,35283806.0,670427629.0,2835000000.0,17345496697.2
sh600929,湖南盐业,2018-06-04,18.91,19.24,18.2,18.54,18.9,20973711.0,390938691.0,2781000000.0,17015106283.9
sh600929,湖南盐业,2018-06-05,18.57,19.5,18.3,19.23,18.54,30994560.0,588819059.0,2884500000.0,17648354576.0
sh600929,湖南盐业,2018-06-06,18.93,19.42,18.63,19.32,19.23,30394608.0,577499892.0,2898000000.0,17730952179.4
sh600929,湖南盐业,2018-06-07,19.32,20.2,19.03,19.9,19.32,43332008.0,856572044.0,2985000000.0,18263247845.2
sh600929,湖南盐业,2018-06-08,19.5,21.66,19.33,20.82,19.9,59543798.0,1234681677.0,3123000000.0,19107578901.4
sh600929,湖南盐业,2018-06-11,20.53,21.63,20.22,21.06,20.82,44603899.0,935130458.0,3159000000.0,19327839176.9
sh600929,湖南盐业,2018-06-12,20.8,21.49,18.95,19.57,21.06,45122609.0,901568210.0,2935500000.0,17960389966.4
sh600929,湖南盐业,2018-06-13,19.09,19.1,17.75,17.77,19.57,43036754.0,788460039.0,2665500000.0,16308437900.0
sh600929,湖南盐业,2018-06-14,17.4,18.18,16.67,17.53,17.77,23457625.0,413232860.0,2629500000.0,16088177624.4
sh600929,湖南盐业,2018-06-15,17.55,17.8,16.6,16.82,17.53,20731540.0,355993661.0,2523000000.0,15436574309.4
sh600929,湖南盐业,2018-06-19,16.5,16.53,15.14,15.14,16.82,21349370.0,335067696.0,2271000000.0,13894752380.7
sh600929,湖南盐业,2018-06-20,14.7,15.78,14.7,15.55,15.14,21250888.0,326317285.0,2332500000.0,14271030351.4
sh600929,湖南盐业,2018-06-21,15.55,15.75,14.35,14.76,15.55,21257954.0,320106594.0,2214000000.0,13546006944.5
sh600929,湖南盐业,2018-06-22,14.63,15.75,14.31,15.65,14.76,25532186.0,390943734.0,2347500000.0,14362805466.2
sh600929,湖南盐业,2018-06-25,15.83,16.19,15.45,15.98,15.65,25806095.0,408912015.0,2397000000.0,14665663345.0
sh600929,湖南盐业,2018-06-26,15.45,16.38,15.28,16.14,15.98,23303807.0,371872967.0,2421000000.0,14812503528.7
sh600929,湖南盐业,2018-06-27,16.1,16.23,15.65,15.76,16.14,19698813.0,312697473.0,2364000000.0,14463758092.5
sh600929,湖南盐业,2018-06-28,15.55,15.98,14.8,14.89,15.76,19902903.0,305695888.0,2233500000.0,13665314593.7
sh600929,湖南盐业,2018-06-29,15.07,15.88,14.72,15.59,14.89,21338523.0,327164357.0,2338500000.0,14307740397.3
sh600929,湖南盐业,2018-07-02,15.65,15.79,15.0,15.36,15.59,18885632.0,292008223.0,2304000000.0,14096657633.3
sh600929,湖南盐业,2018-07-03,15.45,15.68,15.01,15.61,15.36,16508237.0,254343590.0,2341500000.0,14326095420.3
sh600929,湖南盐业,2018-07-04,15.45,15.55,14.2,14.57,15.61,20977276.0,311210044.0,2185500000.0,13371634226.4
sh600929,湖南盐业,2018-07-05,14.55,14.71,13.6,13.62,14.57,17215641.0,242223355.0,2043000000.0,12499770635.8
sh600929,湖南盐业,2018-07-06,13.66,14.1,13.38,13.79,13.62,16893014.0,232744846.0,2068500000.0,12655788330.9
sh600929,湖南盐业,2018-07-09,13.87,14.2,13.72,14.14,13.79,13975206.0,196277673.0,2121000000.0,12977001232.7
sh600929,湖南盐业,2018-07-10,14.24,15.55,14.08,15.55,14.14,31162887.0,464051690.0,2332500000.0,14271030351.4
sh600929,湖南盐业,2018-07-11,15.02,15.16,14.52,15.02,15.55,27794106.0,414045655.0,2253000000.0,13784622243.0
sh600929,湖南盐业,2018-07-12,14.96,16.18,14.96,15.67,15.02,31258855.0,487934551.0,2350500000.0,14381160489.2
sh600929,XD湖南盐,2018-07-13,15.4,15.65,15.12,15.43,15.62,19729330.0,303681114.0,2314500000.0,14160900213.6
sh600929,湖南盐业,2018-07-16,15.4,15.49,15.0,15.18,15.43,13558455.0,205559367.0,2277000000.0,13931462426.6
sh600929,湖南盐业,2018-07-17,15.28,15.28,14.56,14.96,15.18,13779599.0,204951483.0,2244000000.0,13729557174.1
sh600929,湖南盐业,2018-07-18,15.0,15.68,14.72,15.41,14.96,24435605.0,373253983.0,2311500000.0,14142545190.7
sh600929,湖南盐业,2018-07-19,15.15,15.4,14.85,14.9,15.41,14412897.0,216930198.0,2235000000.0,13674492105.2
sh600929,湖南盐业,2018-07-20,14.8,14.94,14.4,14.89,14.9,13230649.0,195019074.0,2233500000.0,13665314593.7
sh600929,湖南盐业,2018-07-23,14.71,14.99,14.7,14.81,14.89,9349754.0,138498186.0,2221500000.0,13591894501.9
sh600929,湖南盐业,2018-07-24,14.95,15.18,14.76,15.07,14.81,15485538.0,232166694.0,2260500000.0,13830509800.4
sh600929,湖南盐业,2018-07-25,15.11,15.16,14.7,14.79,15.07,13703392.0,204440161.0,2218500000.0,13573539478.9
sh600929,湖南盐业,2018-07-26,14.79,14.79,14.02,14.16,14.79,15382811.0,220204890.0,2124000000.0,12995356255.7
sh600929,湖南盐业,2018-07-27,14.17,14.8,14.03,14.42,14.16,11062461.0,158650618.0,2163000000.0,13233971554.2
sh600929,湖南盐业,2018-07-30,13.9,14.27,13.8,14.05,14.42,7988196.0,112140881.0,2107500000.0,12894403629.4
sh600929,湖南盐业,2018-07-31,13.99,14.14,13.89,14.09,14.05,6086600.0,85484059.0,2113500000.0,12931113675.3
sh600929,湖南盐业,2018-08-01,14.17,14.17,13.51,13.54,14.09,9923149.0,136918325.0,2031000000.0,12426350543.9
sh600929,湖南盐业,2018-08-02,13.36,13.4,12.23,12.57,13.54,14572919.0,183828831.0,1885500000.0,11536131930.4
sh600929,湖南盐业,2018-08-03,12.39,13.39,12.39,12.95,12.57,13971534.0,179420019.0,1942500000.0,11884877366.6
sh600929,湖南盐业,2018-08-06,12.7,12.85,12.2,12.23,12.95,10644900.0,132621818.0,1834500000.0,11224096540.0
sh600929,湖南盐业,2018-08-07,12.29,12.45,11.58,12.42,12.23,13145861.0,160043361.0,1863000000.0,11398469258.2
sh600929,湖南盐业,2018-08-08,12.3,12.33,11.7,11.7,12.42,13264653.0,158632379.0,1755000000.0,10737688431.6
sh600929,湖南盐业,2018-08-09,11.6,12.37,11.38,12.1,11.7,15379060.0,184701866.0,1815000000.0,11104788890.8
sh600929,湖南盐业,2018-08-10,12.01,12.34,11.9,12.19,12.1,11514758.0,139453140.0,1828500000.0,11187386494.1
sh600929,湖南盐业,2018-08-13,12.16,12.35,11.81,12.29,12.19,13035085.0,157941197.0,1843500000.0,11279161608.9
sh600929,湖南盐业,2018-08-14,12.23,12.68,12.15,12.65,12.29,16402652.0,203584856.0,1897500000.0,11609552022.2
sh600929,湖南盐业,2018-08-15,12.68,12.68,12.0,12.02,12.65,14646615.0,180506766.0,1803000000.0,11031368799.0
sh600929,湖南盐业,2018-08-16,11.69,12.01,11.44,11.65,12.02,9619949.0,113104128.0,1747500000.0,10691800874.2
sh600929,湖南盐业,2018-08-17,11.77,11.89,11.11,11.15,11.65,8868405.0,102132524.0,1672500000.0,10232925300.2
sh600929,湖南盐业,2018-08-20,11.15,11.66,10.7,11.26,11.15,9713083.0,108023502.0,1689000000.0,10333877926.5
sh600929,湖南盐业,2018-08-21,11.36,11.48,11.1,11.28,11.26,8524094.0,96253985.0,1692000000.0,10352232949.4
sh600929,湖南盐业,2018-08-22,11.34,11.45,11.12,11.14,11.28,8581391.0,96966898.0,1671000000.0,10223747788.7
sh600929,湖南盐业,2018-08-23,11.16,11.32,11.1,11.18,11.14,7257364.0,81397935.0,1677000000.0,10260457834.6
sh600929,湖南盐业,2018-08-24,11.19,11.3,11.12,11.15,11.18,7102811.0,79564207.0,1672500000.0,10232925300.2
sh600929,湖南盐业,2018-08-27,11.15,11.39,11.12,11.31,11.15,8279677.0,93292286.0,1696500000.0,10379765483.9
sh600929,湖南盐业,2018-08-28,11.39,11.4,11.16,11.23,11.31,6891234.0,77591013.0,1684500000.0,10306345392.0
sh600929,湖南盐业,2018-08-29,11.12,11.26,10.9,10.94,11.23,8695562.0,95697136.0,1641000000.0,10040197559.1
sh600929,湖南盐业,2018-08-30,11.02,11.71,10.94,11.19,10.94,15926874.0,180738038.0,1678500000.0,10269635346.1
sh600929,湖南盐业,2018-08-31,11.29,11.29,10.6,10.69,11.19,11631084.0,125834890.0,1603500000.0,9810759772.12
sh600929,湖南盐业,2018-09-03,10.63,10.64,10.01,10.26,10.69,9288040.0,95082466.0,1539000000.0,9416126778.48
sh600929,湖南盐业,2018-09-04,10.27,10.58,10.22,10.37,10.26,8709348.0,90488907.0,1555500000.0,9517079404.76
sh600929,湖南盐业,2018-09-05,11.39,11.41,11.39,11.41,10.37,10449508.0,119204925.0,1711500000.0,10471540598.7
sh600929,湖南盐业,2018-09-06,11.56,12.45,11.33,11.94,11.41,41111966.0,488661263.0,1791000000.0,10957948707.1
sh600929,湖南盐业,2018-09-07,11.58,11.92,11.25,11.49,11.94,25453010.0,295105344.0,1723500000.0,10544960690.5
sh600929,湖南盐业,2018-09-10,11.33,11.4,10.7,10.8,11.49,17207707.0,188738176.0,1620000000.0,9911712398.4
sh600929,湖南盐业,2018-09-11,10.8,10.99,10.55,10.9,10.8,11854500.0,128283777.0,1635000000.0,10003487513.2
sh600929,湖南盐业,2018-09-12,11.0,11.12,10.65,10.7,10.9,9245783.0,99696741.0,1605000000.0,9819937283.6
sh600929,湖南盐业,2018-09-13,10.77,10.84,10.4,10.68,10.7,10680513.0,113374317.0,1602000000.0,9801582260.64
sh600929,湖南盐业,2018-09-14,10.68,10.77,10.34,10.37,10.68,9282348.0,97299615.0,1555500000.0,9517079404.76
sh600929,湖南盐业,2018-09-17,10.28,10.3,9.97,10.06,10.37,7548948.0,76133713.0,1509000000.0,9232576548.88
sh600929,湖南盐业,2018-09-18,10.05,10.28,9.99,10.27,10.06,7437602.0,75408499.0,1540500000.0,9425304289.96
sh600929,湖南盐业,2018-09-19,10.2,10.45,10.12,10.33,10.27,9443996.0,97224998.0,1549500000.0,9480369358.84
sh600929,湖南盐业,2018-09-20,10.35,10.39,10.23,10.29,10.33,6990768.0,71845709.0,1543500000.0,9443659312.92
sh600929,湖南盐业,2018-09-21,10.5,10.95,10.43,10.69,10.29,19353403.0,206284200.0,1603500000.0,9810759772.12
sh600929,湖南盐业,2018-09-25,10.44,10.54,10.36,10.42,10.69,9934821.0,103608071.0,1563000000.0,9562966962.16
sh600929,湖南盐业,2018-09-26,10.4,10.68,10.38,10.51,10.42,11683538.0,123272980.0,1576500000.0,9645564565.48
sh600929,湖南盐业,2018-09-27,10.5,10.5,10.1,10.1,10.51,10772500.0,110179309.0,1515000000.0,9269286594.8
sh600929,湖南盐业,2018-09-28,10.14,10.28,10.11,10.22,10.1,6616702.0,67491508.0,1533000000.0,9379416732.56
sh600929,湖南盐业,2018-10-08,9.97,10.09,9.89,9.91,10.22,6234600.0,62211551.0,1486500000.0,9094913876.68
sh600929,湖南盐业,2018-10-09,9.99,10.9,9.95,10.51,9.91,19362684.0,204223089.0,1576500000.0,9645564565.48
sh600929,湖南盐业,2018-10-10,10.74,10.74,10.25,10.44,10.51,13511449.0,141264595.0,1566000000.0,9581321985.12
sh600929,湖南盐业,2018-10-11,10.05,10.05,9.4,9.4,10.44,14410245.0,140218297.0,1410000000.0,8626860791.2
sh600929,湖南盐业,2018-10-12,9.3,9.33,8.59,9.12,9.4,11213520.0,100111226.0,1368000000.0,8369890469.76
sh600929,湖南盐业,2018-10-15,9.2,9.26,9.06,9.06,9.12,5763053.0,52736689.0,1359000000.0,8314825400.88
sh600929,湖南盐业,2018-10-16,9.05,9.22,8.9,8.95,9.06,5696201.0,51464616.0,1342500000.0,8213872774.6
sh600929,湖南盐业,2018-10-17,9.09,9.15,8.7,9.02,8.95,7052564.0,63035714.0,1353000000.0,8278115354.96
sh600929,湖南盐业,2018-10-18,8.88,8.94,8.52,8.56,9.02,6647698.0,57878394.0,1284000000.0,7855949826.88
sh600929,湖南盐业,2018-10-19,8.0,8.67,8.0,8.54,8.56,7805267.0,65329961.0,1281000000.0,7837594803.92
sh600929,湖南盐业,2018-10-22,8.62,9.07,8.6,8.94,8.54,10904561.0,96580938.0,1341000000.0,8204695263.12
sh600929,湖南盐业,2018-10-23,8.91,8.93,8.66,8.75,8.94,7900422.0,69535587.0,1312500000.0,8030322545.0
sh600929,湖南盐业,2018-10-24,8.75,8.82,8.62,8.73,8.75,6371996.0,55569808.0,1309500000.0,8011967522.04
sh600929,湖南盐业,2018-10-25,8.2,8.56,8.18,8.47,8.73,6054134.0,50537621.0,1270500000.0,7773352223.56
sh600929,湖南盐业,2018-10-26,8.62,8.69,8.43,8.55,8.47,5952641.0,50910551.0,1282500000.0,7846772315.4
sh600929,湖南盐业,2018-10-29,8.47,8.55,8.25,8.31,8.55,4449900.0,37362515.0,1246500000.0,7626512039.88
sh600929,湖南盐业,2018-10-30,8.36,8.55,8.28,8.47,8.31,6675029.0,56345068.0,1270500000.0,7773352223.56
sh600929,湖南盐业,2018-10-31,8.48,9.18,8.43,8.72,8.47,12085403.0,106381247.0,1308000000.0,8002790010.56
sh600929,湖南盐业,2018-11-01,8.82,9.06,8.72,8.77,8.72,12537364.0,111207012.0,1315500000.0,8048677567.96
sh600929,湖南盐业,2018-11-02,8.78,9.03,8.72,8.96,8.77,13606192.0,120764413.0,1344000000.0,8223050286.08
sh600929,湖南盐业,2018-11-05,9.09,9.14,8.8,8.96,8.96,12168070.0,109117765.0,1344000000.0,8223050286.08
sh600929,湖南盐业,2018-11-06,8.87,8.89,8.64,8.81,8.96,9137486.0,79824760.0,1321500000.0,8085387613.88
sh600929,湖南盐业,2018-11-07,8.84,8.98,8.75,8.78,8.81,7882316.0,69823044.0,1317000000.0,8057855079.44
sh600929,湖南盐业,2018-11-08,8.93,8.93,8.69,8.7,8.78,5616213.0,49392155.0,1305000000.0,7984434987.6
sh600929,湖南盐业,2018-11-09,8.63,8.71,8.55,8.56,8.7,4693144.0,40453830.0,1284000000.0,7855949826.88
sh600929,湖南盐业,2018-11-12,8.57,8.78,8.5,8.78,8.56,7019923.0,60895797.0,1317000000.0,8057855079.44
sh600929,湖南盐业,2018-11-13,8.77,8.95,8.66,8.91,8.78,11781127.0,103968546.0,1336500000.0,8177162728.68
sh600929,湖南盐业,2018-11-14,8.9,9.28,8.85,9.04,8.91,17578197.0,160108107.0,1356000000.0,8296470377.92
sh600929,湖南盐业,2018-11-15,8.98,9.48,8.96,9.36,9.04,19150111.0,176157088.0,1404000000.0,8590150745.28
sh600929,湖南盐业,2018-11-16,9.37,9.38,9.13,9.23,9.36,14628866.0,135043405.0,1384500000.0,8470843096.04
sh600929,湖南盐业,2018-11-19,9.18,9.33,9.1,9.3,9.23,11683966.0,107473076.0,1395000000.0,8535085676.4
sh600929,湖南盐业,2018-11-20,9.17,9.28,9.01,9.01,9.3,7951657.0,72659208.0,1351500000.0,8268937843.48
sh600929,湖南盐业,2018-11-21,8.85,9.07,8.82,9.05,9.01,6102897.0,54580437.0,1357500000.0,8305647889.4
sh600929,湖南盐业,2018-11-22,9.15,9.16,8.95,9.02,9.05,4921467.0,44478554.0,1353000000.0,8278115354.96
sh600929,湖南盐业,2018-11-23,9.02,9.05,8.4,8.45,9.02,8749472.0,75861711.0,1267500000.0,7754997200.6
sh600929,湖南盐业,2018-11-26,8.41,8.51,8.27,8.29,8.45,5019194.0,42004599.0,1243500000.0,7608157016.92
sh600929,湖南盐业,2018-11-27,8.35,8.42,8.3,8.38,8.29,4557575.0,38119213.0,1257000000.0,7690754620.24
sh600929,湖南盐业,2018-11-28,8.38,8.4,8.13,8.39,8.38,4417800.0,36654660.0,1258500000.0,7699932131.72
sh600929,湖南盐业,2018-11-29,8.42,8.45,8.18,8.19,8.39,5198500.0,43351935.0,1228500000.0,7516381902.12
sh600929,湖南盐业,2018-11-30,8.18,8.26,8.06,8.24,8.19,4494267.0,36670605.0,1236000000.0,7562269459.52
sh600929,湖南盐业,2018-12-03,8.4,8.59,8.35,8.53,8.24,7763073.0,65862538.0,1279500000.0,7828417292.44
sh600929,湖南盐业,2018-12-04,8.53,8.64,8.47,8.6,8.53,6415032.0,54891608.0,1290000000.0,7892659872.8
sh600929,湖南盐业,2018-12-05,8.4,8.49,8.32,8.44,8.6,5116653.0,43010029.0,1266000000.0,7745819689.12
sh600929,湖南盐业,2018-12-06,8.39,8.54,8.35,8.35,8.44,5220802.0,43995951.0,1252500000.0,7663222085.8
sh600929,湖南盐业,2018-12-07,8.41,8.45,8.33,8.37,8.35,3136067.0,26262802.0,1255500000.0,7681577108.76
sh600929,湖南盐业,2018-12-10,8.31,8.33,8.15,8.2,8.37,3832400.0,31535555.0,1230000000.0,7525559413.6
sh600929,湖南盐业,2018-12-11,8.22,8.27,8.19,8.24,8.2,2651004.0,21803403.0,1236000000.0,7562269459.52
sh600929,湖南盐业,2018-12-12,8.27,8.39,8.24,8.37,8.24,4517427.0,37594755.0,1255500000.0,7681577108.76
sh600929,湖南盐业,2018-12-13,8.37,8.42,8.28,8.33,8.37,5383600.0,44993129.0,1249500000.0,7644867062.84
sh600929,湖南盐业,2018-12-14,8.34,8.37,8.23,8.23,8.33,4250000.0,35262570.0,1234500000.0,7553091948.04
sh600929,湖南盐业,2018-12-17,8.23,8.37,8.12,8.37,8.23,4973498.0,41135035.0,1255500000.0,7681577108.76
sh600929,湖南盐业,2018-12-18,8.31,8.56,8.28,8.47,8.37,9067909.0,76446531.0,1270500000.0,7773352223.56
sh600929,湖南盐业,2018-12-19,8.43,8.45,8.22,8.24,8.47,5184724.0,43081171.0,1236000000.0,7562269459.52
sh600929,湖南盐业,2018-12-20,8.18,8.35,8.16,8.34,8.24,4385594.0,36200488.0,1251000000.0,7654044574.32
sh600929,湖南盐业,2018-12-21,8.33,9.17,8.26,9.17,8.34,18075064.0,160899134.0,1375500000.0,8415778027.16
sh600929,湖南盐业,2018-12-24,9.52,9.95,9.18,9.22,9.17,45281390.0,434711428.0,1383000000.0,8461665584.56
sh600929,湖南盐业,2018-12-25,8.63,9.15,8.52,9.02,9.22,27564519.0,241110722.0,1353000000.0,8278115354.96
sh600929,湖南盐业,2018-12-26,8.83,9.12,8.72,8.93,9.02,20763642.0,185576155.0,1339500000.0,8195517751.64
sh600929,湖南盐业,2018-12-27,9.01,9.1,8.52,8.53,8.93,15646698.0,137309508.0,1279500000.0,7828417292.44
sh600929,湖南盐业,2018-12-28,8.51,8.59,8.2,8.23,8.53,12715322.0,106260422.0,1234500000.0,7553091948.04
sh600929,湖南盐业,2019-01-02,8.22,8.3,8.11,8.14,8.23,7364123.0,60243994.0,1221000000.0,7470494344.72
sh600929,湖南盐业,2019-01-03,8.14,8.21,8.05,8.08,8.14,7191243.0,58324213.0,1212000000.0,7415429275.84
sh600929,湖南盐业,2019-01-04,8.0,8.19,7.82,8.18,8.08,9403730.0,75797246.0,1227000000.0,7507204390.64
sh600929,湖南盐业,2019-01-07,8.19,8.4,8.15,8.32,8.18,10155286.0,83946271.0,1248000000.0,7635689551.36
sh600929,湖南盐业,2019-01-08,8.24,8.31,8.16,8.2,8.32,7136281.0,58626851.0,1230000000.0,7525559413.6
sh600929,湖南盐业,2019-01-09,8.2,8.38,8.2,8.24,8.2,8692788.0,72027494.0,1236000000.0,7562269459.52
sh600929,湖南盐业,2019-01-10,8.24,8.29,8.17,8.18,8.24,5998061.0,49305981.0,1227000000.0,7507204390.64
sh600929,湖南盐业,2019-01-11,8.15,9.0,8.15,9.0,8.18,15648480.0,134746621.0,1350000000.0,8259760332.0
sh600929,湖南盐业,2019-01-14,9.2,9.21,8.54,8.56,9.0,24521498.0,214949823.0,1284000000.0,7855949826.88
sh600929,湖南盐业,2019-01-15,8.48,8.68,8.48,8.63,8.56,12893576.0,110860326.0,1294500000.0,7920192407.24
sh600929,湖南盐业,2019-01-16,8.57,9.0,8.56,8.7,8.63,15151838.0,132953024.0,1305000000.0,7984434987.6
sh600929,湖南盐业,2019-01-17,8.65,8.66,8.44,8.48,8.7,9951365.0,84913269.0,1272000000.0,7782529735.04
sh600929,湖南盐业,2019-01-18,8.41,8.65,8.4,8.59,8.48,8474264.0,72264480.0,1288500000.0,7883482361.32
sh600929,湖南盐业,2019-01-21,8.59,8.76,8.55,8.65,8.59,9042100.0,78429213.0,1297500000.0,7938547430.2
sh600929,湖南盐业,2019-01-22,8.63,8.9,8.57,8.88,8.65,16440010.0,144518848.0,1332000000.0,8149630194.24
sh600929,湖南盐业,2019-01-23,8.79,8.95,8.66,8.87,8.88,13210775.0,116462301.0,1330500000.0,8140452682.76
sh600929,湖南盐业,2019-01-24,8.8,9.33,8.68,9.0,8.87,21504971.0,193586175.0,1350000000.0,8259760332.0
sh600929,湖南盐业,2019-01-25,8.9,8.95,8.55,8.61,9.0,12501000.0,109645457.0,1291500000.0,7901837384.28
sh600929,湖南盐业,2019-01-28,8.63,8.72,8.41,8.45,8.61,8014682.0,68558125.0,1267500000.0,7754997200.6
sh600929,湖南盐业,2019-01-29,8.42,8.44,7.61,8.08,8.45,9163367.0,73858458.0,1212000000.0,7415429275.84
sh600929,湖南盐业,2019-01-30,8.02,8.18,7.9,7.93,8.08,5050996.0,40603943.0,1189500000.0,7277766603.64
sh600929,湖南盐业,2019-01-31,7.95,8.07,7.5,7.68,7.93,7246047.0,56371567.0,1152000000.0,7048328816.64
sh600929,湖南盐业,2019-02-01,7.75,7.89,7.73,7.87,7.68,4302600.0,33589191.0,1180500000.0,7222701534.76
sh600929,湖南盐业,2019-02-11,7.9,8.1,7.9,8.1,7.87,5159954.0,41398113.0,1215000000.0,7433784298.8
sh600929,湖南盐业,2019-02-12,8.1,8.22,8.02,8.19,8.1,6973613.0,56840863.0,1228500000.0,7516381902.12
sh600929,湖南盐业,2019-02-13,8.18,8.75,8.13,8.43,8.19,14065484.0,118630310.0,1264500000.0,7736642177.64
sh600929,湖南盐业,2019-02-14,8.32,8.46,8.3,8.37,8.43,8068600.0,67632853.0,1255500000.0,7681577108.76
sh600929,湖南盐业,2019-02-15,8.34,8.8,8.32,8.48,8.37,13720598.0,117126172.0,1272000000.0,7782529735.04
sh600929,湖南盐业,2019-02-18,8.48,8.73,8.45,8.66,8.48,13437549.0,115610713.0,1299000000.0,7947724941.68
sh600929,湖南盐业,2019-02-19,8.7,8.77,8.48,8.62,8.66,13123695.0,113211062.0,1293000000.0,7911014895.76
sh600929,湖南盐业,2019-02-20,8.59,9.08,8.55,8.85,8.62,18380599.0,161693185.0,1327500000.0,8122097659.8
sh600929,湖南盐业,2019-02-21,8.76,8.86,8.61,8.64,8.85,15264048.0,133017024.0,1296000000.0,7929369918.72
sh600929,湖南盐业,2019-02-22,8.61,8.74,8.49,8.72,8.64,12089783.0,104147484.0,1308000000.0,8002790010.56
sh600929,湖南盐业,2019-02-25,8.76,9.26,8.7,9.11,8.72,25587869.0,229284443.0,1366500000.0,8360712958.28
sh600929,湖南盐业,2019-02-26,9.12,9.65,8.92,9.14,9.11,27681450.0,255338037.0,1371000000.0,8388245492.72
sh600929,湖南盐业,2019-02-27,9.09,9.99,9.03,9.66,9.14,36749750.0,348714724.0,1449000000.0,8865476089.68
sh600929,湖南盐业,2019-02-28,9.53,9.67,9.37,9.47,9.66,16929319.0,160937960.0,1420500000.0,8691103371.56
sh600929,湖南盐业,2019-03-01,9.58,9.63,9.38,9.58,9.47,14251074.0,135347662.0,1437000000.0,8792055997.84
sh600929,湖南盐业,2019-03-04,9.75,9.78,9.5,9.55,9.58,24224117.0,233373237.0,1432500000.0,8764523463.4
sh600929,湖南盐业,2019-03-05,9.4,9.6,9.32,9.59,9.55,17310671.0,163415170.0,1438500000.0,8801233509.32
sh600929,湖南盐业,2019-03-06,9.6,9.77,9.45,9.72,9.59,25621095.0,247044383.0,1458000000.0,8920541158.56
sh600929,湖南盐业,2019-03-07,9.72,10.69,9.66,10.69,9.72,33330400.0,343680174.0,1603500000.0,9810759772.12
sh600929,湖南盐业,2019-03-08,10.69,11.5,10.25,10.96,10.69,53398277.0,590498786.0,1644000000.0,10058552582.1
sh600929,湖南盐业,2019-03-11,10.63,11.22,10.62,11.19,10.96,28656695.0,313762590.0,1678500000.0,10269635346.1
sh600929,湖南盐业,2019-03-12,11.2,11.24,10.91,11.03,11.19,25141336.0,277115209.0,1654500000.0,10122795162.4
sh600929,湖南盐业,2019-03-13,11.03,11.05,10.26,10.4,11.03,21861660.0,231563830.0,1560000000.0,9544611939.2
sh600929,湖南盐业,2019-03-14,10.42,10.61,9.78,10.0,10.4,15406974.0,156898559.0,1500000000.0,9177511480.0
sh600929,湖南盐业,2019-03-15,10.14,10.15,9.89,10.09,10.0,10598101.0,106312226.0,1513500000.0,9260109083.32
sh600929,湖南盐业,2019-03-18,10.07,10.61,9.96,10.59,10.09,17301036.0,180117283.0,1588500000.0,9718984657.32
sh600929,湖南盐业,2019-03-19,10.5,10.51,10.27,10.39,10.59,11332034.0,117692035.0,1558500000.0,9535434427.72
sh600929,湖南盐业,2019-03-20,10.37,10.37,10.02,10.16,10.39,9911650.0,100609074.0,1524000000.0,9324351663.68
sh600929,湖南盐业,2019-03-21,10.15,10.26,10.11,10.2,10.16,11266000.0,114865748.0,1530000000.0,9361061709.6
sh600929,湖南盐业,2019-03-22,10.25,10.25,9.93,10.06,10.2,10230313.0,102791531.0,1509000000.0,9232576548.88
sh600929,湖南盐业,2019-03-25,9.8,9.95,9.7,9.7,10.06,10305629.0,101057292.0,1455000000.0,8902186135.6
sh600929,湖南盐业,2019-03-26,9.8,9.83,9.09,9.38,9.7,29518378.0,274980465.0,3164298294.92,8608505768.24
sh600929,湖南盐业,2019-03-27,9.28,9.4,9.1,9.34,9.38,15949067.0,147033095.0,3150804485.56,8571795722.32
sh600929,湖南盐业,2019-03-28,9.26,9.32,9.15,9.15,9.34,8529200.0,78560174.0,3086708891.1,8397423004.2
sh600929,湖南盐业,2019-03-29,9.12,9.39,9.12,9.38,9.15,11467680.0,106521143.0,3164298294.92,8608505768.24
sh600929,湖南盐业,2019-04-01,9.45,9.68,9.39,9.63,9.38,17662796.0,168924060.0,3248634603.42,8837943555.24
sh600929,湖南盐业,2019-04-02,9.63,10.3,9.56,9.98,9.63,26219274.0,259163729.0,3366705435.32,9159156457.04
sh600929,湖南盐业,2019-04-03,9.83,9.95,9.72,9.9,9.98,13913378.0,137237308.0,3339717816.6,9085736365.2
sh600929,湖南盐业,2019-04-04,9.94,9.98,9.77,9.81,9.9,11541092.0,113847467.0,3309356745.54,9003138761.88
sh600929,湖南盐业,2019-04-08,9.9,9.96,9.51,9.68,9.81,13957217.0,136351742.0,3265501865.12,8883831112.64
sh600929,湖南盐业,2019-04-09,9.61,9.65,9.48,9.62,9.68,10435700.0,99907466.0,3245261151.08,8828766043.76
sh600929,湖南盐业,2019-04-10,9.59,9.64,9.41,9.55,9.62,10252083.0,97591387.0,3221646984.7,8764523463.4
sh600929,湖南盐业,2019-04-11,9.57,9.61,9.33,9.38,9.55,9374187.0,88838596.0,3164298294.92,8608505768.24
sh600929,湖南盐业,2019-04-12,9.38,9.51,9.36,9.46,9.38,7033646.0,66283105.0,3191285913.64,8681925860.08
sh600929,湖南盐业,2019-04-15,9.5,9.65,9.31,9.36,9.46,9356878.0,89239467.0,3157551390.24,8590150745.28
sh600929,湖南盐业,2019-04-16,9.27,9.49,9.11,9.48,9.36,11692808.0,109060936.0,3198032818.32,8700280883.04
sh600929,湖南盐业,2019-04-17,9.5,9.85,9.46,9.66,9.48,19556464.0,188483906.0,3258754960.44,8865476089.68
sh600929,湖南盐业,2019-04-18,9.6,9.69,9.5,9.5,9.66,10032759.0,96021464.0,3204779723.0,8718635906.0
sh600929,湖南盐业,2019-04-19,9.53,9.64,9.37,9.62,9.5,11304516.0,107447717.0,3245261151.08,8828766043.76
sh600929,湖南盐业,2019-04-22,9.66,9.7,9.4,9.42,9.62,10468134.0,99730143.0,3177792104.28,8645215814.16
sh600929,湖南盐业,2019-04-23,9.43,9.43,9.14,9.21,9.42,8053800.0,74655941.0,3106949605.14,8452488073.08
sh600929,湖南盐业,2019-04-24,9.23,9.31,9.16,9.28,9.21,5632983.0,52035103.0,3130563771.52,8516730653.44
sh600929,湖南盐业,2019-04-25,9.22,9.26,8.77,8.78,9.28,10786174.0,97271387.0,2961891154.52,8057855079.44
sh600929,湖南盐业,2019-04-26,8.77,8.77,8.52,8.54,8.78,7976007.0,68732252.0,2880928298.36,7837594803.92
sh600929,湖南盐业,2019-04-29,8.53,8.59,8.0,8.01,8.54,9960800.0,81818248.0,2702135324.34,7351186695.48
sh600929,湖南盐业,2019-04-30,8.07,8.3,8.05,8.23,8.01,6351174.0,51961853.0,2776351275.82,7553091948.04
sh600929,湖南盐业,2019-05-06,8.01,8.45,7.84,8.17,8.23,12603900.0,102012121.0,2756110561.78,7498026879.16
sh600929,湖南盐业,2019-05-07,8.3,8.99,8.24,8.84,8.17,24463997.0,210084919.0,2982131868.56,8112920148.32
sh600929,湖南盐业,2019-05-08,8.6,8.9,8.4,8.5,8.84,16658000.0,143329004.0,2867434489.0,7800884758.0
sh600929,湖南盐业,2019-05-09,8.2,8.33,8.11,8.21,8.5,9056123.0,74622199.0,2769604371.14,7534736925.08
sh600929,湖南盐业,2019-05-10,8.22,8.43,8.01,8.38,8.21,10364796.0,85955699.0,2826953060.92,7690754620.24
sh600929,湖南盐业,2019-05-13,8.29,8.36,8.24,8.3,8.38,5198996.0,43150665.0,2799965442.2,7617334528.4
sh600929,湖南盐业,2019-05-14,8.18,8.28,8.12,8.18,8.3,5418299.0,44520734.0,2759484014.12,7507204390.64
sh600929,湖南盐业,2019-05-15,8.26,8.4,8.21,8.34,8.18,7130500.0,59242486.0,2813459251.56,7654044574.32
sh600929,湖南盐业,2019-05-16,8.34,8.55,8.32,8.44,8.34,9473100.0,80117508.0,2847193774.96,7745819689.12
sh600929,湖南盐业,2019-05-17,8.4,8.6,8.24,8.31,8.44,12856300.0,108606099.0,2803338894.54,7626512039.88
sh600929,湖南盐业,2019-05-20,8.32,8.35,7.9,8.12,8.31,8303000.0,66888157.0,2739243300.08,7452139321.76
sh600929,湖南盐业,2019-05-21,8.12,8.26,8.05,8.24,8.12,5923562.0,48494726.0,2779724728.16,7562269459.52
sh600929,湖南盐业,2019-05-22,8.2,8.23,8.06,8.1,8.24,5580329.0,45364407.0,2732496395.4,7433784298.8
sh600929,湖南盐业,2019-05-23,8.08,8.19,7.98,8.11,8.1,6117800.0,49481203.0,2735869847.74,7442961810.28
sh600929,湖南盐业,2019-05-24,8.04,8.15,8.0,8.04,8.11,4332829.0,34942620.0,2712255681.36,7378719229.92
sh600929,湖南盐业,2019-05-27,8.06,8.21,7.98,8.2,8.04,5872796.0,47701290.0,2766230918.8,7525559413.6
sh600929,湖南盐业,2019-05-28,8.2,8.26,8.16,8.16,8.2,5469429.0,44896058.0,2752737109.44,7488849367.68
sh600929,湖南盐业,2019-05-29,8.13,8.29,8.11,8.21,8.16,5282400.0,43387628.0,2769604371.14,7534736925.08
sh600929,湖南盐业,2019-05-30,8.17,9.03,8.15,9.03,8.21,28652601.0,250891395.0,3046227463.02,8287292866.44
sh600929,湖南盐业,2019-05-31,9.0,9.13,8.68,8.85,9.03,32209595.0,287016480.0,2985505320.9,8122097659.8
sh600929,湖南盐业,2019-06-03,8.79,8.8,8.43,8.64,8.85,17764301.0,152913525.0,2914662821.76,7929369918.72
sh600929,湖南盐业,2019-06-04,8.57,8.84,8.45,8.82,8.64,15984867.0,138172509.0,2975384963.88,8094565125.36
sh600929,湖南盐业,2019-06-05,8.77,8.79,8.51,8.55,8.82,11380167.0,98264210.0,2884301750.7,7846772315.4
sh600929,湖南盐业,2019-06-06,8.48,8.58,8.01,8.07,8.55,11923867.0,98104038.0,2722376038.38,7406251764.36
sh600929,湖南盐业,2019-06-10,8.07,8.28,8.05,8.18,8.07,6085668.0,49561529.0,2759484014.12,7507204390.64
sh600929,湖南盐业,2019-06-11,8.18,8.43,8.15,8.42,8.18,9557981.0,79590729.0,2840446870.28,7727464666.16
sh600929,湖南盐业,2019-06-12,8.36,8.48,8.27,8.38,8.42,8245800.0,68997039.0,2826953060.92,7690754620.24
sh600929,湖南盐业,2019-06-13,8.34,8.42,8.26,8.38,8.38,7245800.0,60418918.0,2826953060.92,7690754620.24
sh600929,湖南盐业,2019-06-14,8.38,8.42,8.12,8.15,8.38,6045600.0,49895274.0,2749363657.1,7479671856.2
sh600929,湖南盐业,2019-06-17,8.1,8.25,8.1,8.17,8.15,3392100.0,27799645.0,2756110561.78,7498026879.16
sh600929,湖南盐业,2019-06-18,8.2,8.33,8.16,8.27,8.17,4311800.0,35605341.0,2789845085.18,7589801993.96
sh600929,湖南盐业,2019-06-19,8.41,8.48,8.27,8.29,8.27,5784230.0,48290305.0,2796591989.86,7608157016.92
sh600929,湖南盐业,2019-06-20,8.24,8.44,8.23,8.42,8.29,7542801.0,63257144.0,2840446870.28,7727464666.16
sh600929,湖南盐业,2019-06-21,8.4,8.52,8.39,8.48,8.42,8415772.0,71289798.0,2860687584.32,7782529735.04
sh600929,湖南盐业,2019-06-24,8.49,8.5,8.37,8.41,8.48,5591267.0,47099244.0,2837073417.94,7718287154.68
sh600929,湖南盐业,2019-06-25,8.42,8.46,8.2,8.29,8.41,5732200.0,47568614.0,2796591989.86,7608157016.92
sh600929,湖南盐业,2019-06-26,8.22,8.38,8.2,8.23,8.29,8479100.0,69809686.0,2776351275.82,7553091948.04
sh600929,湖南盐业,2019-06-27,8.23,8.31,8.23,8.26,8.23,5159100.0,42630836.0,2786471632.84,7580624482.48
sh600929,湖南盐业,2019-06-28,8.26,8.29,8.08,8.14,8.26,5361767.0,43787102.0,2745990204.76,7470494344.72
sh600929,湖南盐业,2019-07-01,8.23,8.4,8.21,8.4,8.14,12564867.0,104331579.0,2833699965.6,7709109643.2
sh600929,湖南盐业,2019-07-02,8.4,8.47,8.31,8.38,8.4,9873200.0,82808464.0,2826953060.92,7690754620.24
sh600929,湖南盐业,2019-07-03,8.36,8.8,8.33,8.52,8.38,20977619.0,180322489.0,2874181393.68,7819239780.96
sh600929,湖南盐业,2019-07-04,8.47,8.52,8.26,8.31,8.52,11191286.0,93582146.0,2803338894.54,7626512039.88
sh600929,湖南盐业,2019-07-05,8.29,8.31,8.2,8.26,8.31,5674867.0,46789523.0,2786471632.84,7580624482.48
sh600929,湖南盐业,2019-07-08,8.22,8.24,8.08,8.14,8.26,6773909.0,55152642.0,2745990204.76,7470494344.72
sh600929,湖南盐业,2019-07-09,8.09,8.47,8.09,8.33,8.14,7033800.0,58015397.0,2810085799.22,7644867062.84
sh600929,湖南盐业,2019-07-10,8.26,8.29,8.13,8.19,8.33,4620800.0,37893697.0,2762857466.46,7516381902.12
sh600929,湖南盐业,2019-07-11,8.19,8.26,8.15,8.21,8.19,3226100.0,26479227.0,2769604371.14,7534736925.08
sh600929,XD湖南盐,2019-07-12,8.14,8.2,8.09,8.14,8.16,3049500.0,24841751.0,2745990204.76,7470494344.72
sh600929,湖南盐业,2019-07-15,8.14,8.26,8.02,8.21,8.14,6583100.0,53761704.0,2769604371.14,7534736925.08
sh600929,湖南盐业,2019-07-16,8.15,8.29,8.14,8.25,8.21,6244400.0,51338616.0,2783098180.5,7571446971.0
sh600929,湖南盐业,2019-07-17,8.24,8.29,8.18,8.2,8.25,4879800.0,40153149.0,2766230918.8,7525559413.6
sh600929,湖南盐业,2019-07-18,8.18,8.18,8.06,8.09,8.2,4727132.0,38287169.0,2729122943.06,7424606787.32
sh600929,湖南盐业,2019-07-19,8.11,8.16,8.09,8.1,8.09,3491735.0,28361494.0,2732496395.4,7433784298.8
sh600929,湖南盐业,2019-07-22,8.1,8.13,7.73,7.77,8.1,6219200.0,48810436.0,2621172468.18,7130926419.96
sh600929,湖南盐业,2019-07-23,7.8,7.84,7.76,7.82,7.77,2658500.0,20732772.0,2638039729.88,7176813977.36
sh600929,湖南盐业,2019-07-24,7.84,7.9,7.83,7.85,7.82,3264118.0,25668434.0,2648160086.9,7204346511.8
sh600929,湖南盐业,2019-07-25,7.85,7.85,7.74,7.83,7.85,2748000.0,21469566.0,2641413182.22,7185991488.84
sh600929,湖南盐业,2019-07-26,7.82,7.83,7.77,7.8,7.83,3016265.0,23510418.0,2631292825.2,7158458954.4
sh600929,湖南盐业,2019-07-29,7.79,7.83,7.76,7.78,7.8,2432500.0,18916599.0,2624545920.52,7140103931.44
sh600929,湖南盐业,2019-07-30,7.79,7.86,7.74,7.85,7.78,3573200.0,27980313.0,2648160086.9,7204346511.8
sh600929,湖南盐业,2019-07-31,7.82,7.85,7.76,7.77,7.85,1964800.0,15284670.0,2621172468.18,7130926419.96
sh600929,湖南盐业,2019-08-01,7.77,7.77,7.62,7.66,7.77,3767696.0,28985889.0,2584064492.44,7029973793.68
sh600929,湖南盐业,2019-08-02,7.55,7.55,7.3,7.42,7.66,5927000.0,43800863.0,2503101636.28,6809713518.16
sh600929,湖南盐业,2019-08-05,7.33,7.41,7.28,7.28,7.42,3852000.0,28239856.0,2455873303.52,6681228357.44
sh600929,湖南盐业,2019-08-06,7.09,7.1,6.74,6.9,7.28,6833600.0,47298845.0,2327682114.6,6332482921.2
sh600929,湖南盐业,2019-08-07,6.93,7.02,6.88,6.89,6.9,2952465.0,20469739.0,2324308662.26,6323305409.72
sh600929,湖南盐业,2019-08-08,6.94,7.05,6.93,6.96,6.89,3098900.0,21630577.0,2347922828.64,6387547990.08
sh600929,湖南盐业,2019-08-09,6.96,7.03,6.81,6.83,6.96,3419700.0,23571633.0,2304067948.22,6268240340.84
sh600929,湖南盐业,2019-08-12,6.82,6.98,6.82,6.96,6.83,3229900.0,22322434.0,2347922828.64,6387547990.08
sh600929,湖南盐业,2019-08-13,6.88,6.97,6.88,6.95,6.96,2131006.0,14739522.0,2344549376.3,6378370478.6
sh600929,湖南盐业,2019-08-14,7.07,7.07,6.9,6.91,6.95,2819400.0,19632558.0,2331055566.94,6341660432.68
sh600929,湖南盐业,2019-08-15,6.75,7.04,6.66,6.97,6.91,5069065.0,34915250.0,2351296280.98,6396725501.56
sh600929,湖南盐业,2019-08-16,6.96,7.25,6.91,7.13,6.97,6894592.0,49228421.0,2405271518.42,6543565685.24
sh600929,湖南盐业,2019-08-19,7.25,7.25,7.09,7.21,7.13,6667100.0,47782203.0,2432259137.14,6616985777.08
sh600929,湖南盐业,2019-08-20,7.41,7.54,7.33,7.36,7.21,10638600.0,78987166.0,2482860922.24,6754648449.28
sh600929,湖南盐业,2019-08-21,7.32,7.37,7.2,7.25,7.36,5388800.0,39251590.0,2445752946.5,6653695823.0
sh600929,湖南盐业,2019-08-22,7.29,7.29,7.18,7.25,7.25,3115317.0,22543765.0,2445752946.5,6653695823.0
sh600929,湖南盐业,2019-08-23,7.21,7.25,7.17,7.19,7.25,2688727.0,19367862.0,2425512232.46,6598630754.12
sh600929,湖南盐业,2019-08-26,7.05,7.16,7.01,7.12,7.19,3701300.0,26217065.0,2401898066.08,6534388173.76
sh600929,湖南盐业,2019-08-27,7.19,7.27,7.17,7.23,7.12,4178100.0,30182504.0,2439006041.82,6635340800.04
sh600929,湖南盐业,2019-08-28,7.22,7.25,7.18,7.22,7.23,3464000.0,24982729.0,2435632589.48,6626163288.56
sh600929,湖南盐业,2019-08-29,7.26,7.28,7.17,7.18,7.22,3551000.0,25671944.0,2422138780.12,6589453242.64
sh600929,湖南盐业,2019-08-30,7.24,7.27,7.14,7.2,7.18,4548500.0,32804673.0,2428885684.8,6607808265.6
sh600929,湖南盐业,2019-09-02,7.2,7.4,7.16,7.38,7.2,5706200.0,41572847.0,2489607826.92,6773003472.24
sh600929,湖南盐业,2019-09-03,7.4,7.45,7.32,7.36,7.38,4323098.0,31914232.0,2482860922.24,6754648449.28
sh600929,湖南盐业,2019-09-04,7.36,7.36,7.23,7.33,7.36,5090532.0,37110196.0,2472740565.22,6727115914.84
sh600929,湖南盐业,2019-09-05,7.36,7.44,7.33,7.38,7.33,8253101.0,61015183.0,2489607826.92,6773003472.24
sh600929,湖南盐业,2019-09-06,7.38,7.46,7.34,7.43,7.38,7520602.0,55654009.0,2506475088.62,6818891029.64
sh600929,湖南盐业,2019-09-09,7.5,7.68,7.39,7.53,7.43,13954085.0,104677579.0,2540209612.02,6910666144.44
sh600929,湖南盐业,2019-09-10,7.48,7.51,7.42,7.46,7.53,7475600.0,55758150.0,2516595445.64,6846423564.08
sh600929,湖南盐业,2019-09-11,7.46,7.49,7.43,7.46,7.46,5611449.0,41883962.0,2516595445.64,6846423564.08
sh600929,湖南盐业,2019-09-12,7.5,7.52,7.41,7.45,7.46,3813500.0,28426116.0,2513221993.3,6837246052.6
sh600929,湖南盐业,2019-09-16,7.49,7.6,7.47,7.51,7.45,7598908.0,57327262.0,2533462707.34,6892311121.48
sh600929,湖南盐业,2019-09-17,7.47,7.47,7.18,7.23,7.51,7208783.0,52786436.0,2439006041.82,6635340800.04
sh600929,湖南盐业,2019-09-18,7.24,7.61,7.24,7.55,7.23,15831301.0,117789967.0,2546956516.7,6929021167.4
sh600929,湖南盐业,2019-09-19,7.63,8.09,7.52,7.71,7.55,21411230.0,166520877.0,2600931754.14,7075861351.08
sh600929,湖南盐业,2019-09-20,7.66,7.8,7.61,7.64,7.71,10230225.0,78556788.0,2577317587.76,7011618770.72
sh600929,湖南盐业,2019-09-23,7.5,7.6,7.39,7.43,7.64,6673829.0,49642188.0,2506475088.62,6818891029.64
sh600929,湖南盐业,2019-09-24,7.42,7.46,7.3,7.32,7.43,12139800.0,89226505.0,2469367112.88,6717938403.36
sh600929,湖南盐业,2019-09-25,7.28,7.32,7.11,7.12,7.32,7075500.0,50797146.0,2401898066.08,6534388173.76
sh600929,湖南盐业,2019-09-26,7.15,7.16,6.98,7.0,7.12,6176400.0,43545869.0,2361416638.0,6424258036.0
sh600929,湖南盐业,2019-09-27,7.01,7.07,7.0,7.03,7.0,3438800.0,24202162.0,2371536995.02,6451790570.44
sh600929,湖南盐业,2019-09-30,7.03,7.09,6.98,6.99,7.03,2514700.0,17641371.0,2358043185.66,6415080524.52
sh600929,湖南盐业,2019-10-08,7.07,7.1,6.94,6.94,6.99,5225704.0,36653451.0,2341175923.96,6369192967.12
sh600929,湖南盐业,2019-10-09,6.93,6.99,6.84,6.98,6.94,3348654.0,23232336.0,2354669733.32,6405903013.04
sh600929,湖南盐业,2019-10-10,6.99,7.15,6.98,7.1,6.98,4630972.0,32821625.0,2395151161.4,6516033150.8
sh600929,湖南盐业,2019-10-11,7.1,7.16,7.03,7.16,7.1,3589800.0,25471035.0,2415391875.44,6571098219.68
sh600929,湖南盐业,2019-10-14,7.25,7.29,7.18,7.21,7.16,5725023.0,41426285.0,2432259137.14,6616985777.08
sh600929,湖南盐业,2019-10-15,7.21,7.24,7.1,7.12,7.21,3617304.0,25865505.0,2401898066.08,6534388173.76
sh600929,湖南盐业,2019-10-16,7.12,7.18,7.02,7.05,7.12,2692200.0,19139476.0,2378283899.7,6470145593.4
sh600929,湖南盐业,2019-10-17,7.06,7.11,7.02,7.04,7.05,2522867.0,17818348.0,2374910447.36,6460968081.92
sh600929,湖南盐业,2019-10-18,7.03,7.1,6.97,7.03,7.04,3045999.0,21432451.0,2371536995.02,6451790570.44
sh600929,湖南盐业,2019-10-21,7.01,7.03,6.91,6.96,7.03,3065133.0,21277289.0,2347922828.64,6387547990.08
sh600929,湖南盐业,2019-10-22,6.99,7.02,6.96,7.02,6.96,1858799.0,12999602.0,2368163542.68,6442613058.96
sh600929,湖南盐业,2019-10-23,7.0,7.03,6.94,6.97,7.02,2179900.0,15197960.0,2351296280.98,6396725501.56
sh600929,湖南盐业,2019-10-24,6.97,6.97,6.91,6.97,6.97,1846300.0,12819072.0,2351296280.98,6396725501.56
sh600929,湖南盐业,2019-10-25,6.93,7.09,6.91,7.09,6.97,3403579.0,23844121.0,2391777709.06,6506855639.32
sh600929,湖南盐业,2019-10-28,7.08,7.15,7.06,7.12,7.09,3874300.0,27571320.0,2401898066.08,6534388173.76
sh600929,湖南盐业,2019-10-29,7.13,7.14,7.02,7.02,7.12,3108800.0,21955813.0,2368163542.68,6442613058.96
sh600929,湖南盐业,2019-10-30,7.02,7.02,6.92,6.93,7.02,2625100.0,18252591.0,2337802471.62,6360015455.64
sh600929,湖南盐业,2019-10-31,6.9,6.97,6.85,6.91,6.93,2994201.0,20635851.0,2331055566.94,6341660432.68
sh600929,湖南盐业,2019-11-01,6.93,6.97,6.89,6.96,6.91,2489869.0,17259265.0,2347922828.64,6387547990.08
sh600929,湖南盐业,2019-11-04,6.96,7.02,6.94,7.01,6.96,4071000.0,28449872.0,2364790090.34,6433435547.48
sh600929,湖南盐业,2019-11-05,6.98,7.03,6.93,7.0,7.01,3256811.0,22737608.0,2361416638.0,6424258036.0
sh600929,湖南盐业,2019-11-06,6.99,6.99,6.88,6.89,7.0,2037000.0,14121760.0,2324308662.26,6323305409.72
sh600929,湖南盐业,2019-11-07,6.89,6.92,6.82,6.87,6.89,2806600.0,19303798.0,2317561757.58,6304950386.76
sh600929,湖南盐业,2019-11-08,6.88,6.94,6.79,6.79,6.87,3462700.0,23691633.0,2290574138.86,6231530294.92
sh600929,湖南盐业,2019-11-11,6.78,6.78,6.48,6.5,6.79,5967623.0,39216266.0,2192744021.0,5965382462.0
sh600929,湖南盐业,2019-11-12,6.5,6.7,6.42,6.6,6.5,5548368.0,36415547.0,2226478544.4,6057157576.8
sh600929,湖南盐业,2019-11-13,6.56,6.57,6.46,6.5,6.6,2684272.0,17462230.0,2192744021.0,5965382462.0
sh600929,湖南盐业,2019-11-14,6.52,6.53,6.44,6.47,6.5,2287390.0,14833222.0,2182623663.98,5937849927.56
sh600929,湖南盐业,2019-11-15,6.48,6.49,6.38,6.42,6.47,2406943.0,15478352.0,2165756402.28,5891962370.16
sh600929,湖南盐业,2019-11-18,6.39,6.41,6.33,6.41,6.42,2472500.0,15769296.0,2162382949.94,5882784858.68
sh600929,湖南盐业,2019-11-19,6.41,6.54,6.37,6.5,6.41,4190800.0,27162007.0,2192744021.0,5965382462.0
sh600929,湖南盐业,2019-11-20,6.54,6.54,6.38,6.42,6.5,2240400.0,14495725.0,2165756402.28,5891962370.16
sh600929,湖南盐业,2019-11-21,6.44,6.64,6.38,6.6,6.42,6057973.0,39529453.0,2226478544.4,6057157576.8
sh600929,湖南盐业,2019-11-22,6.6,6.64,6.52,6.54,6.6,3243700.0,21304916.0,2206237830.36,6002092507.92
sh600929,湖南盐业,2019-11-25,6.54,6.61,6.5,6.57,6.54,2508551.0,16443214.0,2216358187.38,6029625042.36
sh600929,湖南盐业,2019-11-26,6.58,6.58,6.5,6.51,6.57,1622900.0,10600535.0,2196117473.34,5974559973.48
sh600929,湖南盐业,2019-11-27,6.46,6.5,6.4,6.41,6.51,2579800.0,16616643.0,2162382949.94,5882784858.68
sh600929,湖南盐业,2019-11-28,6.39,6.45,6.39,6.4,6.41,1429700.0,9172645.0,2159009497.6,5873607347.2
sh600929,湖南盐业,2019-11-29,6.42,6.42,6.36,6.38,6.4,1530000.0,9770245.0,2152262592.92,5855252324.24
sh600929,湖南盐业,2019-12-02,6.38,6.42,6.35,6.37,6.38,1782800.0,11381035.0,2148889140.58,5846074812.76
sh600929,湖南盐业,2019-12-03,6.35,6.36,6.28,6.34,6.37,2928556.0,18489825.0,2138768783.56,5818542278.32
sh600929,湖南盐业,2019-12-04,6.33,6.33,6.28,6.3,6.34,2823909.0,17796848.0,2125274974.2,5781832232.4
sh600929,湖南盐业,2019-12-05,6.3,6.39,6.3,6.39,6.3,4320709.0,27499548.0,2155636045.26,5864429835.72
sh600929,湖南盐业,2019-12-06,6.4,6.41,6.35,6.4,6.39,2531258.0,16153264.0,2159009497.6,5873607347.2
sh600929,湖南盐业,2019-12-09,6.4,6.45,6.35,6.39,6.4,2733400.0,17458876.0,2155636045.26,5864429835.72
sh600929,湖南盐业,2019-12-10,6.37,6.37,6.31,6.36,6.39,3251153.0,20621779.0,2145515688.24,5836897301.28
sh600929,湖南盐业,2019-12-11,6.35,6.4,6.34,6.37,6.36,3033400.0,19327328.0,2148889140.58,5846074812.76
sh600929,湖南盐业,2019-12-12,6.37,6.37,6.31,6.32,6.37,2802400.0,17753663.0,2132021878.88,5800187255.36
sh600929,湖南盐业,2019-12-13,6.34,6.41,6.34,6.41,6.32,4008504.0,25581235.0,2162382949.94,5882784858.68
sh600929,湖南盐业,2019-12-16,6.43,6.46,6.37,6.45,6.41,5661780.0,36356792.0,2175876759.3,5919494904.6
sh600929,湖南盐业,2019-12-17,6.44,6.55,6.43,6.53,6.45,7229780.0,47011905.0,2202864378.02,5992914996.44
sh600929,湖南盐业,2019-12-18,6.53,6.56,6.49,6.56,6.53,6730803.0,43919143.0,2212984735.04,6020447530.88
sh600929,湖南盐业,2019-12-19,6.53,6.64,6.52,6.59,6.56,5697800.0,37477944.0,2223105092.06,6047980065.32
sh600929,湖南盐业,2019-12-20,6.61,6.61,6.51,6.53,6.59,4331246.0,28398464.0,2202864378.02,5992914996.44
sh600929,湖南盐业,2019-12-23,6.53,6.53,6.42,6.42,6.53,3869100.0,25033217.0,2165756402.28,5891962370.16
sh600929,湖南盐业,2019-12-24,6.42,6.54,6.42,6.51,6.42,4345402.0,28156589.0,2196117473.34,5974559973.48
sh600929,湖南盐业,2019-12-25,6.5,6.51,6.44,6.47,6.51,2601100.0,16832642.0,2182623663.98,5937849927.56
sh600929,湖南盐业,2019-12-26,6.46,6.52,6.44,6.51,6.47,4270200.0,27699345.0,2196117473.34,5974559973.48
sh600929,湖南盐业,2019-12-27,6.52,6.55,6.46,6.47,6.51,5832071.0,38008097.0,2182623663.98,5937849927.56
sh600929,湖南盐业,2019-12-30,6.47,6.54,6.35,6.54,6.47,5248981.0,33908970.0,2206237830.36,6002092507.92
sh600929,湖南盐业,2019-12-31,6.52,6.61,6.49,6.56,6.54,6349693.0,41631378.0,2212984735.04,6020447530.88
sh600929,湖南盐业,2020-01-02,6.59,6.63,6.56,6.61,6.56,7128384.0,47060705.0,2229851996.74,6066335088.28
sh600929,湖南盐业,2020-01-03,6.62,6.74,6.58,6.69,6.61,10710430.0,71459674.0,2256839615.46,6139755180.12
sh600929,湖南盐业,2020-01-06,6.66,6.74,6.63,6.74,6.69,9169255.0,61493932.0,2273706877.16,6185642737.52
sh600929,湖南盐业,2020-01-07,6.73,6.78,6.71,6.76,6.74,6757060.0,45601998.0,2280453781.84,6203997760.48
sh600929,湖南盐业,2020-01-08,6.74,6.77,6.61,6.63,6.76,6923570.0,46343559.0,2236598901.42,6084690111.24
sh600929,湖南盐业,2020-01-09,6.68,6.77,6.67,6.75,6.63,5721664.0,38545615.0,2277080329.5,6194820249.0
sh600929,湖南盐业,2020-01-10,6.76,6.78,6.69,6.72,6.75,3611866.0,24274864.0,2266959972.48,6167287714.56
sh600929,湖南盐业,2020-01-13,6.7,6.72,6.62,6.72,6.72,3163643.0,21148084.0,2266959972.48,6167287714.56
sh600929,湖南盐业,2020-01-14,6.73,6.83,6.7,6.8,6.72,7573700.0,51319868.0,2293947591.2,6240707806.4
sh600929,湖南盐业,2020-01-15,6.82,6.82,6.68,6.75,6.8,5733311.0,38677636.0,2277080329.5,6194820249.0
sh600929,湖南盐业,2020-01-16,6.75,6.76,6.61,6.64,6.75,3879999.0,25879685.0,2239972353.76,6093867622.72
sh600929,湖南盐业,2020-01-17,6.64,6.71,6.64,6.67,6.64,2541172.0,16936913.0,2250092710.78,6121400157.16
sh600929,湖南盐业,2020-01-20,6.67,6.69,6.57,6.69,6.67,2867207.0,19090260.0,2256839615.46,6139755180.12
sh600929,湖南盐业,2020-01-21,6.72,6.89,6.69,6.71,6.69,7423800.0,50363006.0,2263586520.14,6158110203.08
sh600929,湖南盐业,2020-01-22,6.69,7.05,6.53,6.85,6.71,13581399.0,92843192.0,2310814852.9,6286595363.8
sh600929,湖南盐业,2020-01-23,6.75,6.83,6.61,6.68,6.85,8191900.0,55223998.0,2253466163.12,6130577668.64
sh600929,湖南盐业,2020-02-03,6.01,6.01,6.01,6.01,6.68,1997800.0,12006778.0,2027444856.34,5515684399.48
sh600929,湖南盐业,2020-02-04,5.41,5.81,5.41,5.74,6.01,10770900.0,61169089.0,1936361643.16,5267891589.52
sh600929,湖南盐业,2020-02-05,5.76,6.0,5.69,5.94,5.74,9021246.0,52682063.0,2003830689.96,5451441819.12
sh600929,湖南盐业,2020-02-06,5.95,6.25,5.84,6.15,5.94,12285971.0,74624870.0,2074673189.1,5644169560.2
sh600929,湖南盐业,2020-02-07,6.21,6.29,6.04,6.13,6.15,10603562.0,65197706.0,2067926284.42,5625814537.24
sh600929,湖南盐业,2020-02-10,6.13,6.26,6.04,6.22,6.13,7816267.0,48300940.0,2098287355.48,5708412140.56
sh600929,湖南盐业,2020-02-11,6.24,6.24,6.1,6.15,6.22,5668167.0,34928059.0,2074673189.1,5644169560.2
sh600929,湖南盐业,2020-02-12,6.15,6.22,6.11,6.17,6.15,4711100.0,29002195.0,2081420093.78,5662524583.16
sh600929,湖南盐业,2020-02-13,6.17,6.19,6.03,6.03,6.17,5659749.0,34503203.0,2034191761.02,5534039422.44
sh600929,湖南盐业,2020-02-14,6.02,6.06,5.99,6.01,6.03,3950241.0,23790288.0,2027444856.34,5515684399.48
sh600929,湖南盐业,2020-02-17,6.01,6.25,6.0,6.22,6.01,8948953.0,55139635.0,2098287355.48,5708412140.56
sh600929,湖南盐业,2020-02-18,6.22,6.35,6.18,6.29,6.22,7949510.0,49875977.0,2121901521.86,5772654720.92
sh600929,湖南盐业,2020-02-19,6.31,6.31,6.18,6.2,6.29,5780200.0,36045031.0,2091540450.8,5690057117.6
sh600929,湖南盐业,2020-02-20,6.22,6.35,6.22,6.32,6.2,7121310.0,44875137.0,2132021878.88,5800187255.36
sh600929,湖南盐业,2020-02-21,6.3,6.37,6.26,6.32,6.32,6883210.0,43535288.0,2132021878.88,5800187255.36
sh600929,湖南盐业,2020-02-24,6.28,6.31,6.22,6.26,6.32,6948047.0,43459811.0,2111781164.84,5745122186.48
sh600929,湖南盐业,2020-02-25,6.16,6.16,5.93,6.09,6.26,10228611.0,61955449.0,2054432475.06,5589104491.32
sh600929,湖南盐业,2020-02-26,5.94,6.28,5.94,6.18,6.09,10128299.0,62468866.0,2084793546.12,5671702094.64
sh600929,湖南盐业,2020-02-27,6.2,6.25,6.11,6.13,6.18,5695682.0,35122110.0,2067926284.42,5625814537.24
sh600929,湖南盐业,2020-02-28,5.99,6.06,5.82,5.84,6.13,7900482.0,46912190.0,1970096166.56,5359666704.32
sh600929,湖南盐业,2020-03-02,5.88,6.02,5.87,6.01,5.84,5345700.0,31977275.0,2027444856.34,5515684399.48
sh600929,湖南盐业,2020-03-03,6.05,6.11,5.97,6.0,6.01,7732789.0,46781716.0,2024071404.0,5506506888.0
sh600929,湖南盐业,2020-03-04,5.98,6.05,5.96,6.05,6.0,4983296.0,29915535.0,2040938665.7,5552394445.4
sh600929,湖南盐业,2020-03-05,6.1,6.29,6.05,6.23,6.05,13960314.0,86373480.0,2101660807.82,5717589652.04
sh600929,湖南盐业,2020-03-06,6.14,6.2,6.09,6.18,6.23,10321317.0,63516190.0,2084793546.12,5671702094.64
sh600929,湖南盐业,2020-03-09,6.09,6.14,5.95,5.97,6.18,8835826.0,53334399.0,2013951046.98,5478974353.56
sh600929,湖南盐业,2020-03-10,5.86,6.08,5.83,6.05,5.97,7369234.0,43727689.0,2040938665.7,5552394445.4
sh600929,湖南盐业,2020-03-11,6.06,6.14,6.0,6.03,6.05,7250867.0,44069666.0,2034191761.02,5534039422.44
sh600929,湖南盐业,2020-03-12,5.93,5.96,5.84,5.87,6.03,7014303.0,41246306.0,1980216523.58,5387199238.76
sh600929,湖南盐业,2020-03-13,5.6,5.79,5.53,5.76,5.87,6968800.0,39427496.0,1943108547.84,5286246612.48
sh600929,湖南盐业,2020-03-16,5.79,5.84,5.56,5.57,5.76,4872401.0,27817413.0,1879012953.38,5111873894.36
sh600929,湖南盐业,2020-03-17,5.58,5.66,5.33,5.48,5.57,5663502.0,31020321.0,1848651882.32,5029276291.04
sh600929,湖南盐业,2020-03-18,5.52,5.59,5.38,5.4,5.48,5393400.0,29686738.0,1821664263.6,4955856199.2
sh600929,湖南盐业,2020-03-19,5.39,5.48,5.33,5.46,5.4,4473734.0,24156935.0,1841904977.64,5010921268.08
sh600929,湖南盐业,2020-03-20,5.5,5.55,5.45,5.54,5.46,3694500.0,20302729.0,1868892596.36,5084341359.92
sh600929,湖南盐业,2020-03-23,5.35,5.46,5.33,5.39,5.54,3260302.0,17617723.0,1818290811.26,4946678687.72
sh600929,湖南盐业,2020-03-24,5.49,5.5,5.37,5.47,5.39,2761767.0,15044970.0,1845278429.98,5020098779.56
sh600929,湖南盐业,2020-03-25,5.53,5.8,5.51,5.63,5.47,7674138.0,43239925.0,1899253667.42,5166938963.24
sh600929,湖南盐业,2020-03-26,5.58,6.08,5.56,5.82,5.63,12430783.0,72609144.0,1963349261.88,5341311681.36
sh600929,湖南盐业,2020-03-27,5.79,5.91,5.69,5.71,5.82,7805099.0,45279625.0,1926241286.14,5240359055.08
sh600929,湖南盐业,2020-03-30,5.63,5.87,5.61,5.8,5.71,6929848.0,39936768.0,1956602357.2,5322956658.4
sh600929,湖南盐业,2020-03-31,5.88,6.14,5.76,6.07,5.8,15333831.0,91944404.0,2047685570.38,5570749468.36
sh600929,湖南盐业,2020-04-01,5.99,6.11,5.89,5.98,6.07,11811973.0,70596711.0,2017324499.32,5488151865.04
sh600929,湖南盐业,2020-04-02,5.92,5.95,5.79,5.88,5.98,7049215.0,41198886.0,1983589975.92,5396376750.24
sh600929,湖南盐业,2020-04-03,5.88,6.3,5.81,6.06,5.88,18774079.0,114166024.0,2044312118.04,5561571956.88
sh600929,湖南盐业,2020-04-07,6.06,6.67,6.02,6.67,6.06,46728897.0,303368194.0,2250092710.78,6121400157.16
sh600929,湖南盐业,2020-04-08,6.5,6.73,6.39,6.6,6.67,35383619.0,232158348.0,2226478544.4,6057157576.8
sh600929,湖南盐业,2020-04-09,6.55,6.86,6.43,6.75,6.6,30408563.0,202598356.0,2277080329.5,6194820249.0
sh600929,湖南盐业,2020-04-10,6.65,6.71,6.26,6.39,6.75,23147646.0,150054703.0,2155636045.26,5864429835.72
sh600929,湖南盐业,2020-04-13,6.29,6.48,6.23,6.34,6.39,11442185.0,72662492.0,2138768783.56,5818542278.32
sh600929,湖南盐业,2020-04-14,6.27,6.38,6.25,6.38,6.34,9092400.0,57437857.0,2152262592.92,5855252324.24
sh600929,湖南盐业,2020-04-15,6.33,6.34,6.12,6.12,6.38,15128588.0,93695303.0,2064552832.08,5616637025.76
sh600929,湖南盐业,2020-04-16,6.12,6.2,6.06,6.18,6.12,8601683.0,52741880.0,2084793546.12,5671702094.64
sh600929,湖南盐业,2020-04-17,6.15,6.2,6.04,6.06,6.18,9004200.0,55047153.0,2044312118.04,5561571956.88
sh600929,湖南盐业,2020-04-20,6.0,6.13,5.98,6.12,6.06,5583275.0,33903244.0,2064552832.08,5616637025.76
sh600929,湖南盐业,2020-04-21,6.08,6.16,6.01,6.14,6.12,7078243.0,43101510.0,2071299736.76,5634992048.72
sh600929,湖南盐业,2020-04-22,6.08,6.33,6.07,6.31,6.14,15336500.0,95707713.0,2128648426.54,5791009743.88
sh600929,湖南盐业,2020-04-23,6.31,6.42,6.23,6.33,6.31,13685168.0,86574057.0,2135395331.22,5809364766.84
sh600929,湖南盐业,2020-04-24,6.28,6.39,5.97,6.01,6.33,12236300.0,74716128.0,2027444856.34,5515684399.48
sh600929,湖南盐业,2020-04-27,5.97,6.09,5.9,5.95,6.01,6051523.0,36228303.0,2007204142.3,5460619330.6
sh600929,湖南盐业,2020-04-28,5.98,6.0,5.58,5.73,5.95,7839982.0,45313726.0,1932988190.82,5258714078.04
sh600929,湖南盐业,2020-04-29,5.68,5.8,5.65,5.75,5.73,4598983.0,26261304.0,1939735095.5,5277069101.0
sh600929,湖南盐业,2020-04-30,5.74,5.82,5.71,5.78,5.75,4769277.0,27558090.0,1949855452.52,5304601635.44
sh600929,湖南盐业,2020-05-06,5.73,5.92,5.71,5.9,5.78,5571588.0,32592591.0,1990336880.6,5414731773.2
sh600929,湖南盐业,2020-05-07,5.91,5.94,5.83,5.84,5.9,5005900.0,29401831.0,1970096166.56,5359666704.32
sh600929,湖南盐业,2020-05-08,5.85,5.91,5.81,5.87,5.84,5217179.0,30602125.0,1980216523.58,5387199238.76
sh600929,湖南盐业,2020-05-11,5.89,5.92,5.78,5.8,5.87,4373867.0,25528482.0,1956602357.2,5322956658.4
sh600929,湖南盐业,2020-05-12,5.82,5.92,5.79,5.9,5.8,5494900.0,32266948.0,1990336880.6,5414731773.2
sh600929,湖南盐业,2020-05-13,5.9,6.25,5.82,6.15,5.9,13706393.0,83574679.0,2074673189.1,5644169560.2
sh600929,湖南盐业,2020-05-14,6.09,6.24,6.08,6.12,6.15,10988089.0,67515256.0,2064552832.08,5616637025.76
sh600929,湖南盐业,2020-05-15,6.09,6.19,6.07,6.13,6.12,6305867.0,38587021.0,2067926284.42,5625814537.24
sh600929,湖南盐业,2020-05-18,6.2,6.38,6.1,6.3,6.13,13249684.0,83147207.0,2125274974.2,5781832232.4
sh600929,湖南盐业,2020-05-19,6.31,6.51,6.22,6.43,6.3,15238882.0,96938418.0,2169129854.62,5901139881.64
sh600929,湖南盐业,2020-05-20,6.4,6.53,6.27,6.3,6.43,13889988.0,88638667.0,2125274974.2,5781832232.4
sh600929,湖南盐业,2020-05-21,6.31,6.35,6.15,6.19,6.3,8997071.0,56095750.0,2088166998.46,5680879606.12
sh600929,湖南盐业,2020-05-22,6.21,6.21,6.01,6.09,6.19,7269556.0,44317568.0,2054432475.06,5589104491.32
sh600929,湖南盐业,2020-05-25,6.06,6.7,6.04,6.5,6.09,25307618.0,162717499.0,2192744021.0,5965382462.0
sh600929,湖南盐业,2020-05-26,6.5,6.59,6.35,6.52,6.5,21548125.0,139893980.0,2199490925.68,5983737484.96
sh600929,湖南盐业,2020-05-27,6.59,6.74,6.42,6.49,6.52,20412761.0,134021468.0,2189370568.66,5956204950.52
sh600929,湖南盐业,2020-05-28,6.51,6.59,6.31,6.4,6.49,11425735.0,73400200.0,2159009497.6,5873607347.2
sh600929,湖南盐业,2020-05-29,6.37,6.68,6.35,6.62,6.4,18925474.0,124651365.0,2233225449.08,6075512599.76
sh600929,湖南盐业,2020-06-01,6.61,6.7,6.52,6.66,6.62,17200218.0,114077865.0,2246719258.44,6112222645.68
sh600929,湖南盐业,2020-06-02,6.66,6.79,6.52,6.61,6.66,14819879.0,98097954.0,2229851996.74,6066335088.28
sh600929,湖南盐业,2020-06-03,6.57,6.58,6.48,6.49,6.61,10188264.0,66473470.0,2189370568.66,5956204950.52
sh600929,湖南盐业,2020-06-04,6.49,6.66,6.48,6.48,6.49,11137664.0,73033934.0,2185997116.32,5947027439.04
sh600929,湖南盐业,2020-06-05,6.44,6.48,6.36,6.41,6.48,9201700.0,59055504.0,2162382949.94,5882784858.68
sh600929,湖南盐业,2020-06-08,6.41,6.51,6.38,6.38,6.41,6304783.0,40512914.0,2152262592.92,5855252324.24
sh600929,湖南盐业,2020-06-09,6.4,6.46,6.38,6.46,6.38,5263472.0,33799049.0,2179250211.64,5928672416.08
sh600929,湖南盐业,2020-06-10,6.46,6.47,6.25,6.29,6.46,7231252.0,45728870.0,2121901521.86,5772654720.92
sh600929,湖南盐业,2020-06-11,6.27,6.33,6.22,6.27,6.29,4383395.0,27495819.0,2115154617.18,5754299697.96
sh600929,湖南盐业,2020-06-12,6.16,6.27,6.12,6.21,6.27,4361013.0,27037785.0,2094913903.14,5699234629.08
sh600929,湖南盐业,2020-06-15,6.22,6.32,6.17,6.2,6.21,3836503.0,23952316.0,2091540450.8,5690057117.599999
sh600929,湖南盐业,2020-06-16,6.2,6.32,6.2,6.31,6.2,4391810.0,27561821.0,2128648426.54,5791009743.88
sh600929,湖南盐业,2020-06-17,6.3,6.34,6.21,6.33,6.31,5360758.0,33686846.0,2135395331.22,5809364766.84
sh600929,XD湖南盐,2020-06-18,6.33,6.34,6.25,6.29,6.31,4308100.0,27065690.0,2121901521.86,5772654720.919999
sh600929,湖南盐业,2020-06-19,6.29,6.36,6.26,6.31,6.29,4803905.0,30340709.0,2128648426.54,5791009743.88
sh600929,湖南盐业,2020-06-22,6.32,6.34,6.2,6.24,6.31,4488956.0,28080314.0,2105034260.16,5726767163.52
sh600929,湖南盐业,2020-06-23,6.22,6.26,6.12,6.13,6.24,5457479.0,33685176.0,2067926284.42,5625814537.24
sh600929,湖南盐业,2020-06-24,6.14,6.16,6.06,6.12,6.13,3730087.0,22768448.0,2064552832.08,5616637025.76
sh600929,湖南盐业,2020-06-29,6.12,6.22,6.1,6.15,6.12,3687786.0,22724271.0,2074673189.1,5644169560.200001
sh600929,湖南盐业,2020-06-30,6.16,6.21,6.15,6.17,6.15,3765385.0,23250821.0,2081420093.78,5662524583.16
sh600929,湖南盐业,2020-07-01,6.18,6.22,6.15,6.18,6.17,3533536.0,21820787.0,2084793546.12,5671702094.639999
sh600929,湖南盐业,2020-07-02,6.17,6.3,6.17,6.29,6.18,6586421.0,41148208.0,2121901521.86,5772654720.919999
sh600929,湖南盐业,2020-07-03,6.3,6.35,6.25,6.35,6.29,7266278.0,45826231.0,2142142235.9,5827719789.8
sh600929,湖南盐业,2020-07-06,6.33,6.64,6.32,6.58,6.35,15328433.0,99803726.0,2219731639.7200003,6038802553.84
sh600929,湖南盐业,2020-07-07,6.64,6.73,6.5,6.52,6.58,21078113.0,138925361.0,2199490925.68,5983737484.96
sh600929,湖南盐业,2020-07-08,6.63,6.85,6.6,6.82,6.52,26049374.0,175288050.0,2300694495.88,6259062829.360001
sh600929,湖南盐业,2020-07-09,6.85,7.19,6.85,7.14,6.82,29589301.0,207956451.0,2408644970.76,6552743196.72
sh600929,湖南盐业,2020-07-10,6.99,7.02,6.82,6.89,7.14,22813298.0,157905925.0,2324308662.26,6323305409.72
sh600929,湖南盐业,2020-07-13,6.88,7.05,6.85,7.05,6.89,16375345.0,114000222.0,2378283899.7,6470145593.400001
sh600929,湖南盐业,2020-07-14,7.05,7.63,6.85,7.16,7.05,31386534.0,225857324.0,2415391875.44,6571098219.68
sh600929,湖南盐业,2020-07-15,7.13,7.49,7.04,7.07,7.16,27671077.0,200468271.0,2385030804.38,6488500616.360001
sh600929,湖南盐业,2020-07-16,6.98,6.99,6.61,6.65,7.07,18381053.0,125847206.0,2243345806.1,6103045134.2
sh600929,湖南盐业,2020-07-17,6.7,6.84,6.63,6.73,6.65,10261536.0,69096382.0,2270333424.82,6176465226.040001
sh600929,湖南盐业,2020-07-20,6.82,7.08,6.78,7.07,6.73,16340036.0,113945482.0,2385030804.38,6488500616.360001
sh600929,湖南盐业,2020-07-21,7.07,7.18,7.03,7.14,7.07,14696327.0,104538484.0,2408644970.76,6552743196.72
sh600929,湖南盐业,2020-07-22,7.13,7.14,7.0,7.02,7.14,13752850.0,97275950.0,2368163542.68,6442613058.96
sh600929,湖南盐业,2020-07-23,7.0,7.04,6.76,7.04,7.02,12944900.0,89381038.0,2374910447.36,6460968081.92
sh600929,湖南盐业,2020-07-24,6.98,7.07,6.76,6.76,7.04,11198796.0,77207421.0,2280453781.84,6203997760.48
sh600929,湖南盐业,2020-07-27,6.82,6.88,6.62,6.65,6.76,8401264.0,56458500.0,2243345806.1,6103045134.2
sh600929,湖南盐业,2020-07-28,6.63,6.97,6.63,6.96,6.65,11663214.0,79421921.0,2347922828.64,6387547990.079999
sh600929,湖南盐业,2020-07-29,6.9,6.95,6.78,6.94,6.96,8758578.0,60339557.0,2341175923.96,6369192967.120001
sh600929,湖南盐业,2020-07-30,6.94,7.02,6.89,6.94,6.94,9315204.0,64670465.0,2341175923.96,6369192967.120001
sh600929,湖南盐业,2020-07-31,6.9,7.07,6.89,7.04,6.94,11286915.0,78846670.0,2374910447.36,6460968081.92
sh600929,湖南盐业,2020-08-03,7.04,7.22,7.03,7.2,7.04,14174852.0,101060291.0,2428885684.8,6607808265.599999
sh600929,湖南盐业,2020-08-04,7.25,7.34,7.11,7.13,7.2,14122991.0,101873266.0,2405271518.42,6543565685.24
sh600929,湖南盐业,2020-08-05,7.19,7.33,7.1,7.22,7.13,13647136.0,98477967.0,2435632589.48,6626163288.559999
sh600929,湖南盐业,2020-08-06,7.22,7.26,6.97,7.05,7.22,13409597.0,94746161.0,2378283899.7,6470145593.400001
sh600929,湖南盐业,2020-08-07,7.01,7.37,7.0,7.1,7.05,16751662.0,120259237.0,2395151161.4,6516033150.799999
sh600929,湖南盐业,2020-08-10,7.09,7.23,7.0,7.16,7.1,10842763.0,77445919.0,2415391875.44,6571098219.68
sh600929,湖南盐业,2020-08-11,7.15,7.18,6.89,6.91,7.16,11996589.0,84527666.0,2331055566.94,6341660432.68
sh600929,湖南盐业,2020-08-12,6.92,6.92,6.66,6.77,6.91,9850366.0,66541318.0,2283827234.1800003,6213175271.96
sh600929,湖南盐业,2020-08-13,6.76,6.87,6.76,6.82,6.77,6346901.0,43293843.0,2300694495.88,6259062829.360001
sh600929,湖南盐业,2020-08-14,6.81,6.91,6.78,6.9,6.82,5629067.0,38540934.0,2327682114.6,6332482921.2
sh600929,湖南盐业,2020-08-17,6.88,6.99,6.86,6.98,6.9,6185624.0,42931300.0,2354669733.32,6405903013.04
sh600929,湖南盐业,2020-08-18,6.99,7.04,6.91,6.99,6.98,6655225.0,46439107.0,2358043185.66,6415080524.52
sh600929,湖南盐业,2020-08-19,6.96,7.3,6.86,7.13,6.99,19473730.0,138785927.0,2405271518.42,6543565685.24
sh600929,湖南盐业,2020-08-20,7.08,7.23,7.01,7.03,7.13,11107709.0,79064607.0,2371536995.02,6451790570.440001
sh600929,湖南盐业,2020-08-21,7.03,7.62,7.02,7.44,7.03,31028643.0,228305696.0,2509848540.96,6828068541.12
sh600929,湖南盐业,2020-08-24,7.46,7.52,7.33,7.46,7.44,21367252.0,158824175.0,2516595445.6400003,6846423564.08
sh600929,湖南盐业,2020-08-25,7.42,7.46,7.13,7.18,7.46,19165625.0,139047058.0,2422138780.12,6589453242.64
sh600929,湖南盐业,2020-08-26,7.15,7.3,7.01,7.05,7.18,13022461.0,92828957.0,2378283899.7,6470145593.400001
sh600929,湖南盐业,2020-08-27,7.0,7.11,6.96,7.02,7.05,8714786.0,61435550.0,2368163542.68,6442613058.96
sh600929,湖南盐业,2020-08-28,7.05,7.07,6.91,7.07,7.02,8716589.0,60924165.0,2385030804.38,6488500616.360001
sh600929,湖南盐业,2020-08-31,7.06,7.39,7.04,7.2,7.07,19759201.0,143548549.0,2428885684.8,6607808265.599999
sh600929,湖南盐业,2020-09-01,7.16,7.21,7.08,7.16,7.2,10260662.0,73201321.0,2415391875.44,6571098219.68
sh600929,湖南盐业,2020-09-02,7.15,7.25,7.05,7.07,7.16,12741960.0,90788667.0,2385030804.38,6488500616.360001
sh600929,湖南盐业,2020-09-03,7.05,7.06,6.87,6.91,7.07,11233300.0,77986861.0,2331055566.94,6341660432.68
sh600929,湖南盐业,2020-09-04,6.77,6.9,6.73,6.88,6.91,6505400.0,44407254.0,2320935209.92,6314127898.24
sh600929,湖南盐业,2020-09-07,6.89,6.96,6.8,6.83,6.88,6630550.0,45647862.0,2304067948.22,6268240340.84
sh600929,湖南盐业,2020-09-08,6.81,6.91,6.75,6.87,6.83,5105100.0,34988121.0,2317561757.58,6304950386.759999
sh600929,湖南盐业,2020-09-09,6.82,6.85,6.71,6.73,6.87,6260100.0,42482437.0,2270333424.82,6176465226.040001
sh600929,湖南盐业,2020-09-10,6.8,6.82,6.48,6.5,6.73,7430300.0,49378249.0,2192744021.0,5965382462.000001
sh600929,湖南盐业,2020-09-11,6.49,6.51,6.35,6.48,6.5,5649064.0,36290504.0,2185997116.32,5947027439.04
sh600929,湖南盐业,2020-09-14,6.51,6.74,6.49,6.73,6.48,7450950.0,49612420.0,2270333424.82,6176465226.040001
sh600929,湖南盐业,2020-09-15,6.7,6.73,6.61,6.72,6.73,3783800.0,25204931.0,2266959972.48,6167287714.56
sh600929,湖南盐业,2020-09-16,6.71,6.74,6.64,6.68,6.72,2270125.0,15132044.0,2253466163.12,6130577668.64
sh600929,湖南盐业,2020-09-17,6.68,6.71,6.6,6.62,6.68,2307048.0,15316603.0,2233225449.08,6075512599.759999
sh600929,湖南盐业,2020-09-18,6.66,6.85,6.62,6.85,6.62,5375800.0,36202055.0,2310814852.9,6286595363.799999
sh600929,湖南盐业,2020-09-21,6.87,7.04,6.8,6.9,6.85,6706715.0,46475190.0,2327682114.6,6332482921.2
sh600929,湖南盐业,2020-09-22,6.84,6.89,6.74,6.75,6.9,3673816.0,25050198.0,2277080329.5,6194820249.0
sh600929,湖南盐业,2020-09-23,6.81,6.83,6.74,6.78,6.75,3561107.0,24152716.0,2287200686.52,6222352783.44
sh600929,雪天盐业,2020-09-24,6.79,6.97,6.72,6.73,6.78,6804616.0,46479023.0,2270333424.82,6176465226.040001
sh600929,雪天盐业,2020-09-25,6.74,6.8,6.53,6.78,6.73,5501373.0,36656185.0,2287200686.52,6222352783.44
sh600929,雪天盐业,2020-09-28,6.75,6.87,6.71,6.73,6.78,2289700.0,15487157.0,2270333424.82,6176465226.040001
sh600929,雪天盐业,2020-09-29,6.76,6.76,6.6,6.74,6.73,5157000.0,34448788.0,2273706877.16,6185642737.52
sh600929,雪天盐业,2020-09-30,6.73,6.98,6.69,6.9,6.74,11232023.0,77309675.0,2327682114.6,6332482921.2
sh600929,雪天盐业,2020-10-09,7.0,7.02,6.9,6.99,6.9,8488500.0,59186701.0,2358043185.66,6415080524.52
sh600929,雪天盐业,2020-10-12,7.0,7.09,6.96,7.08,6.99,10181440.0,71595280.0,2388404256.7200003,6497678127.839999
sh600929,雪天盐业,2020-10-13,7.07,7.08,6.98,7.0,7.08,6600765.0,46288194.0,2361416638.0,6424258036.0
sh600929,雪天盐业,2020-10-14,7.03,7.04,6.92,6.92,7.0,5385800.0,37565296.0,2334429019.28,6350837944.16
sh600929,雪天盐业,2020-10-15,6.97,6.97,6.83,6.84,6.92,4159538.0,28639061.0,2307441400.56,6277417852.320001
sh600929,雪天盐业,2020-10-16,6.87,6.87,6.75,6.79,6.84,3145040.0,21401409.0,2290574138.86,6231530294.92
sh600929,雪天盐业,2020-10-19,6.8,6.88,6.76,6.77,6.79,3522859.0,23969110.0,2283827234.1800003,6213175271.96
sh600929,雪天盐业,2020-10-20,6.76,6.8,6.67,6.8,6.77,3417213.0,23067227.0,2293947591.2,6240707806.400001
sh600929,雪天盐业,2020-10-21,6.74,6.79,6.68,6.68,6.8,2636600.0,17707714.0,2253466163.12,6130577668.64
sh600929,雪天盐业,2020-10-22,6.67,6.79,6.63,6.75,6.68,2891000.0,19405153.0,2277080329.5,6194820249.0
sh600929,雪天盐业,2020-10-23,6.76,6.82,6.71,6.78,6.75,6078820.0,41163151.0,2287200686.52,6222352783.44
sh600929,雪天盐业,2020-10-26,6.76,6.78,6.64,6.69,6.78,2353501.0,15727379.0,2256839615.46,6139755180.12
sh600929,雪天盐业,2020-10-27,6.66,6.68,6.5,6.54,6.69,4595300.0,30206175.0,2206237830.36,6002092507.92
sh600929,雪天盐业,2020-10-28,6.54,6.58,6.46,6.53,6.54,2883647.0,18795544.0,2202864378.02,5992914996.44
sh600929,雪天盐业,2020-10-29,6.48,6.48,6.34,6.35,6.53,5551200.0,35549622.0,2142142235.9,5827719789.8
sh600929,雪天盐业,2020-10-30,6.34,6.34,5.95,5.98,6.35,9402347.0,57524371.0,2017324499.32,5488151865.04
sh600929,雪天盐业,2020-11-02,6.0,6.08,5.95,6.05,5.98,3503747.0,21110929.0,2040938665.7,5552394445.400001
sh600929,雪天盐业,2020-11-03,6.06,6.14,6.05,6.1,6.05,2583100.0,15770850.0,2057805927.4,5598282002.8
sh600929,雪天盐业,2020-11-04,6.11,6.14,6.04,6.1,6.1,2387600.0,14533309.0,2057805927.4,5598282002.8
sh600929,雪天盐业,2020-11-05,6.16,6.37,6.12,6.17,6.1,3125000.0,19282333.0,2081420093.78,5662524583.16
sh600929,雪天盐业,2020-11-06,6.17,6.35,6.11,6.25,6.17,5327321.0,33125994.0,2108407712.5,5735944675.0
sh600929,雪天盐业,2020-11-09,6.25,6.31,6.23,6.28,6.25,4039021.0,25342221.0,2118528069.52,5763477209.44
sh600929,雪天盐业,2020-11-10,6.3,6.32,6.18,6.21,6.28,3004200.0,18754161.0,2094913903.14,5699234629.08
sh600929,雪天盐业,2020-11-11,6.19,6.29,6.17,6.29,6.21,3179341.0,19772946.0,2121901521.86,5772654720.919999
sh600929,雪天盐业,2020-11-12,6.34,6.39,6.21,6.24,6.29,3170036.0,19867311.0,2105034260.16,5726767163.52
sh600929,雪天盐业,2020-11-13,6.19,6.22,6.09,6.14,6.24,3025253.0,18611359.0,2071299736.76,5634992048.72
sh600929,雪天盐业,2020-11-16,6.15,6.23,6.06,6.23,6.14,3648276.0,22608520.0,2101660807.82,5717589652.04
sh600929,雪天盐业,2020-11-17,6.21,6.25,6.16,6.19,6.23,2308292.0,14303731.0,2088166998.46,5680879606.12
sh600929,雪天盐业,2020-11-18,6.16,6.25,6.16,6.2,6.19,2406100.0,14950117.0,2091540450.8,5690057117.599999
sh600929,雪天盐业,2020-11-19,6.19,6.21,6.17,6.19,6.2,1873600.0,11603777.0,2088166998.46,5680879606.12
sh600929,雪天盐业,2020-11-20,6.18,6.23,6.14,6.21,6.19,3587555.0,22206956.0,2094913903.14,5699234629.08
sh600929,雪天盐业,2020-11-23,6.22,6.48,6.2,6.41,6.21,9011358.0,57147970.0,2162382949.94,5882784858.679999
sh600929,雪天盐业,2020-11-24,6.38,6.41,6.3,6.33,6.41,3764700.0,23893119.0,2135395331.22,5809364766.84
sh600929,雪天盐业,2020-11-25,6.34,6.36,6.22,6.23,6.33,2564700.0,16092913.0,2101660807.82,5717589652.04
sh600929,雪天盐业,2020-11-26,6.21,6.24,6.13,6.17,6.23,2321804.0,14361843.0,2081420093.78,5662524583.16
sh600929,雪天盐业,2020-11-27,6.18,6.31,6.18,6.29,6.17,2868000.0,17930804.0,2121901521.86,5772654720.919999
sh600929,雪天盐业,2020-11-30,6.28,6.36,6.22,6.23,6.29,4532300.0,28496291.0,2101660807.82,5717589652.04
sh600929,雪天盐业,2020-12-01,6.22,6.22,6.12,6.17,6.23,6978814.0,42978852.0,2081420093.78,5662524583.16
sh600929,雪天盐业,2020-12-02,6.16,6.18,6.12,6.15,6.17,3672892.0,22578360.0,2074673189.1,5644169560.200001
sh600929,雪天盐业,2020-12-03,6.14,6.19,6.12,6.16,6.15,2837000.0,17476164.0,2078046641.44,5653347071.68
sh600929,雪天盐业,2020-12-04,6.16,6.23,6.15,6.18,6.16,3321429.0,20541483.0,2084793546.12,5671702094.639999
sh600929,雪天盐业,2020-12-07,6.18,6.24,6.15,6.17,6.18,2976200.0,18418226.0,2081420093.78,5662524583.16
sh600929,雪天盐业,2020-12-08,6.14,6.22,6.13,6.16,6.17,2832491.0,17490604.0,2078046641.44,5653347071.68
sh600929,雪天盐业,2020-12-09,6.16,6.17,6.0,6.01,6.16,4537300.0,27527683.0,2027444856.34,5515684399.4800005
sh600929,雪天盐业,2020-12-10,6.0,6.28,5.96,6.09,6.01,6114465.0,37535144.0,2054432475.06,5589104491.32
sh600929,雪天盐业,2020-12-11,6.06,6.08,5.95,6.02,6.09,4260846.0,25585768.0,2030818308.68,5524861910.96
sh600929,雪天盐业,2020-12-14,6.02,6.13,5.95,6.07,6.02,2897596.0,17563273.0,2047685570.38,5570749468.36
sh600929,雪天盐业,2020-12-15,6.05,6.09,6.01,6.05,6.07,2104933.0,12722207.0,2040938665.7,5552394445.400001
sh600929,雪天盐业,2020-12-16,6.04,6.24,6.01,6.18,6.05,6856629.0,42243854.0,2084793546.12,5671702094.639999
sh600929,雪天盐业,2020-12-17,6.16,6.16,6.05,6.12,6.18,4264218.0,26068696.0,2064552832.08,5616637025.76
sh600929,雪天盐业,2020-12-18,6.1,6.12,6.05,6.07,6.12,3607705.0,21907182.0,2047685570.38,5570749468.36
sh600929,雪天盐业,2020-12-21,6.07,6.1,6.01,6.05,6.07,2763276.0,16735452.0,2040938665.7,5552394445.400001
sh600929,雪天盐业,2020-12-22,6.05,6.15,6.02,6.08,6.05,3768599.0,22943627.0,2051059022.72,5579926979.84
sh600929,雪天盐业,2020-12-23,6.05,6.12,6.01,6.04,6.08,2768800.0,16785458.0,2037565213.36,5543216933.92
sh600929,雪天盐业,2020-12-24,6.02,6.03,5.59,5.59,6.04,9879943.0,57072628.0,1885759858.06,5130228917.32
sh600929,雪天盐业,2020-12-25,5.56,5.68,5.55,5.63,5.59,3222700.0,18142267.0,1899253667.42,5166938963.24
sh600929,雪天盐业,2020-12-28,5.62,5.65,5.5,5.52,5.63,3448000.0,19173928.0,1862145691.68,5065986336.96
sh600929,雪天盐业,2020-12-29,5.52,5.58,5.49,5.51,5.52,3207500.0,17730701.0,1858772239.34,5056808825.4800005
sh600929,雪天盐业,2020-12-30,5.54,5.75,5.5,5.65,5.51,4703529.0,26345524.0,1906000572.1,5185293986.2
sh600929,雪天盐业,2020-12-31,5.63,5.7,5.56,5.56,5.65,4260300.0,23909345.0,1875639501.04,5102696382.88
sh600929,雪天盐业,2021-01-04,5.58,5.7,5.56,5.66,5.56,4018769.0,22680148.0,1909374024.44,5194471497.68
sh600929,雪天盐业,2021-01-05,5.66,5.76,5.65,5.7,5.66,5627900.0,32117148.0,1922867833.8,5231181543.599999
sh600929,雪天盐业,2021-01-06,5.69,5.72,5.5,5.54,5.7,6316800.0,35124404.0,1868892596.36,5084341359.92
sh600929,雪天盐业,2021-01-07,5.71,5.84,5.58,5.6,5.54,7692418.0,43851700.0,1889133310.4,5139406428.8
sh600929,雪天盐业,2021-01-08,5.51,5.52,5.34,5.47,5.6,5153499.0,28015932.0,1845278429.98,5020098779.559999
sh600929,雪天盐业,2021-01-11,5.52,5.54,5.31,5.32,5.47,3897400.0,21059079.0,1794676644.88,4882436107.36
sh600929,雪天盐业,2021-01-12,5.29,5.4,5.26,5.34,5.32,2508999.0,13381795.0,1801423549.56,4900791130.320001
sh600929,雪天盐业,2021-01-13,5.34,5.36,5.0,5.05,5.34,7057344.0,36041431.0,1703593431.7,4634643297.400001
sh600929,雪天盐业,2021-01-14,5.08,5.28,5.05,5.18,5.05,4343089.0,22437208.0,1747448312.12,4753950946.639999
sh600929,雪天盐业,2021-01-15,5.15,5.23,5.15,5.21,5.18,2774100.0,14423808.0,1757568669.14,4781483481.08
sh600929,雪天盐业,2021-01-18,5.21,5.25,5.17,5.24,5.21,2852400.0,14913724.0,1767689026.16,4809016015.52
sh600929,雪天盐业,2021-01-19,5.23,5.32,5.21,5.27,5.24,2857800.0,15072219.0,1777809383.18,4836548549.96
sh600929,雪天盐业,2021-01-20,5.28,5.3,5.24,5.28,5.27,2042426.0,10758633.0,1781182835.52,4845726061.440001
sh600929,雪天盐业,2021-01-21,5.3,5.3,5.21,5.29,5.28,2819108.0,14827310.0,1784556287.86,4854903572.92
sh600929,雪天盐业,2021-01-22,5.3,5.3,5.18,5.2,5.29,2315526.0,12093479.0,1754195216.8,4772305969.6
sh600929,雪天盐业,2021-01-25,5.18,5.2,5.05,5.07,5.2,3169051.0,16151534.0,1710340336.38,4652998320.36
sh600929,雪天盐业,2021-01-26,5.05,5.1,4.98,5.01,5.07,2522700.0,12700517.0,1690099622.3400002,4597933251.48
sh600929,雪天盐业,2021-01-27,5.07,5.1,5.01,5.02,5.01,2151167.0,10863651.0,1693473074.68,4607110762.96
sh600929,雪天盐业,2021-01-28,5.05,5.15,4.98,5.06,5.02,4071326.0,20736423.0,1706966884.04,4643820808.88
sh600929,雪天盐业,2021-01-29,5.07,5.26,5.06,5.18,5.06,5240093.0,26984287.0,1747448312.12,4753950946.639999
sh600929,雪天盐业,2021-02-01,5.18,5.2,5.08,5.12,5.18,3439967.0,17630721.0,1727207598.08,4698885877.759999
sh600929,雪天盐业,2021-02-02,5.12,5.14,5.09,5.1,5.12,1811226.0,9258795.0,1720460693.4,4680530854.8
sh600929,雪天盐业,2021-02-03,5.09,5.1,5.03,5.06,5.1,1665000.0,8437985.0,1706966884.04,4643820808.88
sh600929,雪天盐业,2021-02-04,5.09,5.13,4.97,4.99,5.06,2545600.0,12802928.0,1683352717.6599998,4579578228.52
sh600929,雪天盐业,2021-02-05,5.0,5.06,4.86,4.88,4.99,2970900.0,14713974.0,1646244741.9199998,4478625602.24
sh600929,雪天盐业,2021-02-08,4.88,4.96,4.8,4.83,4.88,2458926.0,11954665.0,1629377480.22,4432738044.84
sh600929,雪天盐业,2021-02-09,4.79,4.89,4.79,4.88,4.83,1994400.0,9648593.0,1646244741.9199998,4478625602.24
sh600929,雪天盐业,2021-02-10,4.88,4.93,4.86,4.92,4.88,1563000.0,7653610.0,1659738551.28,4515335648.16
sh600929,雪天盐业,2021-02-18,4.99,5.16,4.99,5.12,4.92,3554231.0,17972785.0,1727207598.08,4698885877.759999
sh600929,雪天盐业,2021-02-19,5.13,5.29,5.08,5.27,5.12,3980000.0,20724920.0,1777809383.18,4836548549.96
sh600929,雪天盐业,2021-02-22,5.29,5.47,5.29,5.34,5.27,8069154.0,43425953.0,1801423549.56,4900791130.320001
sh600929,雪天盐业,2021-02-23,5.33,5.52,5.28,5.45,5.34,9507224.0,51501435.0,1838531525.3,5001743756.6
sh600929,雪天盐业,2021-02-24,5.45,5.48,5.33,5.38,5.45,4329200.0,23377938.0,1814917358.92,4937501176.24
sh600929,雪天盐业,2021-02-25,5.46,5.54,5.34,5.4,5.38,5812288.0,31657138.0,1821664263.6,4955856199.2
sh600929,雪天盐业,2021-02-26,5.41,5.59,5.38,5.56,5.4,8817660.0,48729865.0,1875639501.04,5102696382.88
sh600929,雪天盐业,2021-03-05,6.0,6.03,5.59,5.6,5.56,17224169.0,99868030.0,1889133310.4,5139406428.8
sh600929,雪天盐业,2021-03-08,5.6,5.68,5.45,5.51,5.6,10344488.0,57301821.0,1858772239.34,5056808825.4800005
sh600929,雪天盐业,2021-03-09,5.45,5.5,5.18,5.3,5.51,5818900.0,31067547.0,1787929740.2,4864081084.4
sh600929,雪天盐业,2021-03-10,5.32,5.35,5.2,5.24,5.3,3471948.0,18276547.0,1767689026.16,4809016015.52
sh600929,雪天盐业,2021-03-11,5.22,5.31,5.15,5.27,5.24,3574514.0,18690111.0,1777809383.18,4836548549.96
sh600929,雪天盐业,2021-03-12,5.28,5.34,5.22,5.29,5.27,2816526.0,14907039.0,1784556287.86,4854903572.92
sh600929,雪天盐业,2021-03-15,5.27,5.36,5.23,5.33,5.29,2600300.0,13816179.0,1798050097.2199998,4891613618.84
sh600929,雪天盐业,2021-03-16,5.32,5.48,5.3,5.46,5.33,5057900.0,27384156.0,1841904977.64,5010921268.08
sh600929,雪天盐业,2021-03-17,5.46,5.46,5.4,5.44,5.46,2569942.0,13939617.0,1835158072.96,4992566245.12
sh600929,雪天盐业,2021-03-18,5.43,5.53,5.36,5.46,5.44,3437418.0,18670484.0,1841904977.64,5010921268.08
sh600929,雪天盐业,2021-03-19,5.45,5.54,5.4,5.46,5.46,3529819.0,19318202.0,1841904977.64,5010921268.08
sh600929,雪天盐业,2021-03-22,5.46,5.48,5.42,5.46,5.46,2703500.0,14746063.0,1841904977.64,5010921268.08
sh600929,雪天盐业,2021-03-23,5.46,5.46,5.28,5.29,5.46,3907800.0,20841179.0,1784582690.2499998,4854929975.31
sh600929,雪天盐业,2021-03-24,5.26,5.31,5.2,5.22,5.29,3366800.0,17629283.0,1760968174.5,4790687045.58
sh600929,雪天盐业,2021-03-25,5.21,5.29,5.16,5.26,5.22,2441500.0,12816387.0,1774462183.5,4827397291.14
sh600929,雪天盐业,2021-03-26,5.26,5.36,5.25,5.35,5.26,2307300.0,12268594.0,4909995343.650001,4909995343.650001
sh600929,雪天盐业,2021-03-29,5.35,5.42,5.33,5.42,5.35,1878900.0,10140052.0,4974238273.38,4974238273.38
sh600929,雪天盐业,2021-03-30,5.42,5.42,5.3,5.3,5.42,1922800.0,10259111.0,4864107536.7,4864107536.7
sh600929,雪天盐业,2021-03-31,5.3,5.42,5.28,5.41,5.3,2246570.0,12068923.0,4965060711.99,4965060711.99
sh600929,雪天盐业,2021-04-01,5.41,5.42,5.34,5.37,5.41,2091200.0,11243303.0,4928350466.429999,4928350466.429999
sh600929,雪天盐业,2021-04-02,5.37,5.4,5.32,5.38,5.37,1585051.0,8507165.0,4937528027.82,4937528027.82
sh600929,雪天盐业,2021-04-06,5.38,5.54,5.35,5.52,5.38,4417592.0,24213353.0,5066013887.28,5066013887.28
sh600929,雪天盐业,2021-04-07,5.51,5.57,5.46,5.56,5.52,3191850.0,17647027.0,5102724132.84,5102724132.84
sh600929,雪天盐业,2021-04-08,5.5,5.67,5.5,5.62,5.56,5870542.0,33005706.0,5157789501.179999,5157789501.179999
sh600929,雪天盐业,2021-04-09,5.61,5.74,5.55,5.74,5.62,5690648.0,32251343.0,5267920237.86,5267920237.86
sh600929,雪天盐业,2021-04-12,6.31,6.31,6.1,6.31,5.74,31096766.0,194117376.0,5791041237.089999,5791041237.089999
sh600929,雪天盐业,2021-04-13,6.38,6.85,6.3,6.45,6.31,44482377.0,288439403.0,5919527096.55,5919527096.55
sh600929,雪天盐业,2021-04-14,6.19,6.44,5.81,6.39,6.45,27546027.0,167736681.0,5864461728.21,5864461728.21
sh600929,雪天盐业,2021-04-15,6.22,6.35,6.06,6.26,6.39,18102061.0,112204810.0,5745153430.139999,5745153430.139999
sh600929,雪天盐业,2021-04-16,6.29,6.43,6.17,6.2,6.26,16241611.0,102242852.0,5690088061.799999,5690088061.799999
sh600929,雪天盐业,2021-04-19,6.09,6.17,6.02,6.11,6.2,14567874.0,88745196.0,5607490009.29,5607490009.29
sh600929,雪天盐业,2021-04-20,6.06,6.13,5.95,6.0,6.11,11327544.0,68396522.0,5506536834.0,5506536834.0
sh600929,雪天盐业,2021-04-21,5.94,6.06,5.88,5.93,6.0,8038627.0,47905206.0,5442293904.27,5442293904.27
sh600929,雪天盐业,2021-04-22,5.98,6.02,5.9,5.93,5.93,5354000.0,31799624.0,5442293904.27,5442293904.27
sh600929,雪天盐业,2021-04-23,5.9,6.0,5.85,5.86,5.93,5342622.0,31581822.0,5378050974.54,5378050974.54
sh600929,雪天盐业,2021-04-26,5.86,6.05,5.83,6.02,5.86,6155138.0,36810128.0,5524891956.78,5524891956.78
sh600929,雪天盐业,2021-04-27,5.97,6.02,5.89,5.94,6.02,4224900.0,25060130.0,5451471465.66,5451471465.66
sh600929,雪天盐业,2021-04-28,5.93,5.94,5.88,5.9,5.94,2960912.0,17480923.0,5414761220.1,5414761220.1
sh600929,雪天盐业,2021-04-29,5.9,6.01,5.85,5.92,5.9,4162912.0,24714801.0,5433116342.879999,5433116342.879999
sh600929,雪天盐业,2021-04-30,5.91,6.05,5.91,6.0,5.92,5072536.0,30329856.0,5506536834.0,5506536834.0
sh600929,雪天盐业,2021-05-06,6.0,6.18,5.99,6.18,6.0,6076009.0,37060880.0,5671732939.02,5671732939.02
sh600929,雪天盐业,2021-05-07,6.16,6.25,6.06,6.09,6.18,6509300.0,40087298.0,5589134886.509999,5589134886.509999
sh600929,雪天盐业,2021-05-10,6.09,6.24,6.02,6.21,6.09,7557547.0,46570085.0,5699265623.190001,5699265623.190001
sh600929,雪天盐业,2021-05-11,6.27,6.37,6.17,6.35,6.21,10764371.0,67686822.0,5827751482.65,5827751482.65
sh600929,雪天盐业,2021-05-12,6.35,6.48,6.25,6.36,6.35,8935094.0,56852637.0,5836929044.04,5836929044.04
sh600929,雪天盐业,2021-05-13,6.37,6.43,6.23,6.25,6.36,6415943.0,40470310.0,5735975868.75,5735975868.75
sh600929,雪天盐业,2021-05-14,6.25,6.34,6.21,6.28,6.25,6640200.0,41649151.0,5763508552.92,5763508552.92
sh600929,雪天盐业,2021-05-17,6.28,6.35,6.22,6.28,6.28,4227414.0,26584314.0,5763508552.92,5763508552.92
sh600929,雪天盐业,2021-05-18,6.3,6.31,6.17,6.2,6.28,5431525.0,33698989.0,5690088061.799999,5690088061.799999
sh600929,雪天盐业,2021-05-19,6.18,6.2,6.03,6.08,6.2,5967780.0,36413630.0,5579957325.12,5579957325.12
sh600929,雪天盐业,2021-05-20,6.08,6.1,6.0,6.05,6.08,4817200.0,29154158.0,5552424640.95,5552424640.95
sh600929,雪天盐业,2021-05-21,6.06,6.31,6.06,6.22,6.05,6769663.0,42189103.0,5708443184.58,5708443184.58
sh600929,雪天盐业,2021-05-24,6.5,6.58,6.22,6.24,6.22,6968725.0,44124958.0,5726798307.36,5726798307.36
sh600929,雪天盐业,2021-05-25,6.29,6.29,6.16,6.22,6.24,4502521.0,27962543.0,5708480859.120001,5708480859.120001
sh600929,雪天盐业,2021-05-26,6.21,6.33,6.18,6.3,6.22,3777300.0,23700907.0,5781901834.8,5781901834.8
sh600929,雪天盐业,2021-05-27,6.3,6.35,6.26,6.28,6.3,3760993.0,23651407.0,5763546590.879999,5763546590.879999
sh600929,雪天盐业,2021-05-28,6.26,6.36,6.26,6.36,6.28,4789883.0,30231540.0,5836967566.56,5836967566.56
sh600929,XD雪天盐,2021-05-31,6.32,6.45,6.25,6.45,6.28,7835428.0,50007014.0,5919566164.2,5919566164.2
sh600929,雪天盐业,2021-06-01,6.45,6.62,6.38,6.6,6.45,10623800.0,69332452.0,6057230493.599999,6057230493.599999
sh600929,雪天盐业,2021-06-02,6.6,6.62,6.44,6.48,6.6,7063244.0,46099747.0,5947099030.08,5947099030.08
sh600929,雪天盐业,2021-06-03,6.46,6.5,6.4,6.41,6.48,3648100.0,23500729.0,5882855676.36,5882855676.36
sh600929,雪天盐业,2021-06-04,6.39,6.49,6.36,6.37,6.41,3821800.0,24487558.0,5846145188.52,5846145188.52
sh600929,雪天盐业,2021-06-07,6.37,6.45,6.36,6.41,6.37,3000700.0,19200163.0,5882855676.36,5882855676.36
sh600929,雪天盐业,2021-06-08,6.41,6.44,6.36,6.43,6.41,3201400.0,20472918.0,5901210920.280001,5901210920.280001
sh600929,雪天盐业,2021-06-09,6.43,6.43,6.3,6.32,6.43,3015400.0,19164231.0,5800257078.72,5800257078.72
sh600929,雪天盐业,2021-06-10,6.32,6.43,6.31,6.42,6.32,3020861.0,19210385.0,5892033298.32,5892033298.32
sh600929,雪天盐业,2021-06-11,6.45,6.45,6.34,6.4,6.42,3187000.0,20360860.0,5873678054.400001,5873678054.400001
sh600929,雪天盐业,2021-06-15,6.4,6.4,6.26,6.31,6.4,3254800.0,20535268.0,5791079456.759999,5791079456.759999
sh600929,雪天盐业,2021-06-16,6.31,6.36,6.26,6.3,6.31,2980100.0,18760996.0,5781901834.8,5781901834.8
sh600929,雪天盐业,2021-06-17,6.33,6.35,6.26,6.3,6.3,2816375.0,17720029.0,5781901834.8,5781901834.8
sh600929,雪天盐业,2021-06-18,6.26,6.54,6.2,6.45,6.3,7118091.0,45590594.0,5919566164.2,5919566164.2
sh600929,雪天盐业,2021-06-21,6.41,6.51,6.37,6.4,6.45,3723963.0,23936883.0,5873678054.400001,5873678054.400001
sh600929,雪天盐业,2021-06-22,6.45,6.58,6.4,6.54,6.4,5042100.0,32816230.0,6002164761.84,6002164761.84
sh600929,雪天盐业,2021-06-23,6.53,6.59,6.49,6.54,6.54,4138746.0,27020071.0,6002164761.84,6002164761.84
sh600929,雪天盐业,2021-06-24,6.54,6.63,6.5,6.53,6.54,4534603.0,29740019.0,5992987139.879999,5992987139.879999
sh600929,雪天盐业,2021-06-25,6.57,6.63,6.4,6.6,6.53,7310736.0,47874606.0,6057230493.599999,6057230493.599999
sh600929,雪天盐业,2021-06-28,6.55,6.67,6.55,6.6,6.6,7350961.0,48531685.0,6057230493.599999,6057230493.599999
sh600929,雪天盐业,2021-06-29,6.68,6.71,6.41,6.43,6.6,8994862.0,58775034.0,5901210920.280001,5901210920.280001
sh600929,雪天盐业,2021-06-30,6.41,6.46,6.4,6.43,6.43,3232919.0,20783840.0,5901214855.440001,5992006455.44
sh600929,雪天盐业,2021-07-01,6.41,6.45,6.31,6.35,6.43,4592505.0,29291905.0,5827793830.8,5917455830.8
sh600929,雪天盐业,2021-07-02,6.32,6.4,6.28,6.38,6.35,2574800.0,16317207.0,5855326715.04,5945412315.04
sh600929,雪天盐业,2021-07-05,6.36,6.4,6.3,6.33,6.38,2183100.0,13819020.0,5809438574.64,5898818174.639999
sh600929,雪天盐业,2021-07-06,6.33,6.41,6.26,6.39,6.33,2405788.0,15273445.0,5864504343.120001,5954731143.12
sh600929,雪天盐业,2021-07-07,6.39,6.44,6.36,6.41,6.39,2671213.0,17083974.0,5882859599.28,5973368799.280001
sh600929,雪天盐业,2021-07-08,6.4,6.41,6.33,6.4,6.41,2655900.0,16904591.0,5873681971.2,5964049971.2
sh600929,雪天盐业,2021-07-09,6.4,6.62,6.38,6.48,6.4,5632769.0,36688162.0,5947102995.84,6038600595.84
sh600929,雪天盐业,2021-07-12,6.47,6.59,6.46,6.49,6.48,4269969.0,27799547.0,5956280623.92,6047919423.92
sh600929,雪天盐业,2021-07-13,6.49,6.62,6.34,6.54,6.49,5942800.0,38563383.0,6002168764.32,6094513564.32
sh600929,雪天盐业,2021-07-14,6.51,6.66,6.5,6.57,6.54,7125238.0,47001149.0,6029701648.559999,6122470048.559999
sh600929,雪天盐业,2021-07-15,6.56,6.59,6.45,6.5,6.57,5356510.0,34912078.0,5965458252.0,6057238252.0
sh600929,雪天盐业,2021-07-16,6.46,6.78,6.45,6.68,6.5,14464600.0,96470739.0,6130655557.440001,6224977157.440001
sh600929,雪天盐业,2021-07-19,6.69,7.03,6.63,7.0,6.68,20826352.0,143112655.0,6424339656.0,6523179656.0
sh600929,雪天盐业,2021-07-20,6.89,7.01,6.8,6.97,7.0,11827053.0,81623862.0,6396806771.759999,6495223171.76
sh600929,雪天盐业,2021-07-21,6.96,7.06,6.88,7.02,6.97,15752200.0,110296379.0,6442694912.160001,6541817312.160001
sh600929,雪天盐业,2021-07-22,7.05,7.09,6.93,7.06,7.02,17794154.0,124862828.0,6479405424.4800005,6579092624.4800005
sh600929,雪天盐业,2021-07-23,7.03,7.65,7.03,7.44,7.06,25224608.0,186032507.0,6828155291.52,6933208091.52
sh600929,雪天盐业,2021-07-26,7.5,7.87,7.22,7.65,7.44,33013468.0,251039587.0,7020885481.200001,7128903481.2
sh600929,雪天盐业,2021-07-27,7.64,7.9,7.19,7.4,7.65,27828759.0,209516097.0,6791444779.2,6895932779.2
sh600929,雪天盐业,2021-07-28,7.26,7.5,6.9,7.17,7.4,17848349.0,128742323.0,6580359333.36,6681599733.36
sh600929,雪天盐业,2021-07-29,7.28,7.37,7.15,7.2,7.17,11274733.0,81435203.0,6607892217.599999,6709556217.6
sh600929,雪天盐业,2021-07-30,7.2,7.28,7.02,7.09,7.2,11362661.0,80747624.0,6506938308.719999,6607049108.72
sh600929,雪天盐业,2021-08-02,7.08,7.6,6.93,7.6,7.09,19840541.0,146014852.0,6974997340.799999,7082309340.8
sh600929,雪天盐业,2021-08-03,7.5,7.73,7.4,7.58,7.6,11759683.0,88896718.0,6956642084.64,7063671684.64
sh600929,雪天盐业,2021-08-04,7.5,7.7,7.49,7.62,7.58,8046572.0,61076486.0,6993352596.96,7100946996.96
sh600929,雪天盐业,2021-08-05,7.69,7.76,7.51,7.63,7.62,9162334.0,69818850.0,7002530225.04,7110265825.040001
sh600929,雪天盐业,2021-08-06,7.49,7.72,7.41,7.69,7.63,11118741.0,84230183.0,7057595993.52,7166178793.52
sh600929,雪天盐业,2021-08-09,7.69,7.83,7.62,7.78,7.69,7688162.0,59548167.0,7140194646.24,7250048246.24
sh600929,雪天盐业,2021-08-10,7.8,7.87,7.68,7.69,7.78,8913254.0,69038165.0,7057595993.52,7166178793.52
sh600929,雪天盐业,2021-08-11,7.68,8.17,7.58,7.95,7.69,12768065.0,101849464.0,7296214323.599999,7408468323.6
sh600929,雪天盐业,2021-08-12,7.86,8.06,7.81,7.96,7.95,8745545.0,69312097.0,7305391951.679999,7417787151.679999
sh600929,雪天盐业,2021-08-13,7.93,8.03,7.68,7.7,7.96,10073787.0,78831410.0,7066773621.6,7175497621.6
sh600929,雪天盐业,2021-08-16,7.65,7.88,7.6,7.67,7.7,7726557.0,59436090.0,7039240737.36,7147541137.360001
sh600929,雪天盐业,2021-08-17,7.64,7.71,7.33,7.42,7.67,9156400.0,68590580.0,6809800035.360001,6914570435.36
sh600929,雪天盐业,2021-08-18,7.36,7.54,7.36,7.44,7.42,4988862.0,37191049.0,6828155291.52,6933208091.52
sh600929,雪天盐业,2021-08-19,7.46,7.5,7.31,7.42,7.44,5359381.0,39591803.0,6809800035.360001,6914570435.36
sh600929,雪天盐业,2021-08-20,7.41,7.42,7.21,7.33,7.42,5187778.0,37870221.0,6727201382.639999,6830700982.64
sh600929,雪天盐业,2021-08-23,7.3,7.56,7.3,7.39,7.33,8145000.0,60647578.0,6782267151.12,6886613951.120001
sh600929,雪天盐业,2021-08-24,7.38,7.53,7.38,7.5,7.39,7672673.0,57340551.0,6883221060.0,6989121060.0
sh600929,雪天盐业,2021-08-25,7.6,7.79,7.36,7.39,7.5,10961338.0,82352471.0,6782267151.12,6886613951.120001
sh600929,雪天盐业,2021-08-26,7.31,7.5,7.28,7.34,7.39,8487800.0,62745271.0,6736379010.72,6840019810.72
sh600929,雪天盐业,2021-08-27,7.31,7.49,7.27,7.4,7.34,8362853.0,61924969.0,6791444779.2,6895932779.2
sh600929,雪天盐业,2021-08-30,7.39,8.14,7.39,7.9,7.4,23799242.0,188253545.0,7250326183.2,7361874183.200001
sh600929,雪天盐业,2021-08-31,7.82,8.02,7.69,8.02,7.9,16309836.0,128947658.0,7360457720.16,7473700120.16
sh600929,雪天盐业,2021-09-01,8.0,8.38,7.76,7.86,8.02,20626593.0,164692036.0,7213615670.88,7324598870.879999
sh600929,雪天盐业,2021-09-02,8.15,8.15,7.4,7.97,7.86,18219271.0,144452080.0,7314569579.76,7427105979.76
sh600929,雪天盐业,2021-09-03,7.82,8.03,7.68,7.87,7.97,13367969.0,104320251.0,7222793298.96,7333917698.96
sh600929,雪天盐业,2021-09-06,7.81,7.98,7.65,7.89,7.87,9465864.0,73812645.0,7241148555.120001,7352555355.12
sh600929,雪天盐业,2021-09-07,7.88,8.1,7.83,7.99,7.89,13934188.0,111547362.0,7332924835.92,7445743635.92
sh600929,雪天盐业,2021-09-08,8.08,8.45,8.0,8.34,7.99,25582570.0,212159441.0,7654141818.72,7771902618.719999
sh600929,雪天盐业,2021-09-09,8.31,8.34,8.11,8.29,8.34,13068916.0,107717647.0,7608253678.320001,7725308478.32
sh600929,雪天盐业,2021-09-10,8.26,8.44,8.04,8.18,8.29,13486285.0,110464197.0,7507299769.44,7622801369.440001
sh600929,雪天盐业,2021-09-13,8.13,8.56,8.1,8.53,8.18,20023843.0,168890406.0,7828516752.24,7948960352.24
sh600929,雪天盐业,2021-09-14,8.38,8.6,8.22,8.26,8.53,17697654.0,148493715.0,7580720794.08,7697351994.08
sh600929,雪天盐业,2021-09-15,8.23,8.45,8.13,8.37,8.26,9400809.0,78392915.0,7681674702.96,7799859102.96
sh600929,雪天盐业,2021-09-16,8.4,8.6,8.18,8.24,8.37,14604530.0,122612879.0,7562365537.92,7678714337.92
sh600929,雪天盐业,2021-09-17,8.29,8.49,7.97,8.32,8.24,12043224.0,99421144.0,7635786562.56,7753264962.56
sh600929,雪天盐业,2021-09-22,8.16,8.52,8.1,8.47,8.32,11148500.0,92649992.0,7773450983.759999,7893047383.759999
sh600929,雪天盐业,2021-09-23,8.49,8.7,8.18,8.21,8.47,12864624.0,107151015.0,7534832653.68,7650757853.68
sh600929,雪天盐业,2021-09-24,8.2,8.21,7.68,7.78,8.21,14629458.0,115790013.0,7140194646.24,7250048246.24
sh600929,雪天盐业,2021-09-27,7.81,7.88,7.34,7.39,7.78,12894136.0,96653262.0,6782267151.12,6886613951.120001
sh600929,雪天盐业,2021-09-28,7.4,7.49,7.3,7.34,7.39,5136713.0,37854725.0,6736379010.72,6840019810.72
sh600929,雪天盐业,2021-09-29,7.3,7.35,6.94,6.96,7.34,9295565.0,66094097.0,6387629143.68,6485904343.68
sh600929,雪天盐业,2021-09-30,7.01,7.21,7.01,7.16,6.96,5052623.0,36043686.0,6571181705.28,6672280905.280001
sh600929,雪天盐业,2021-10-08,7.2,7.34,7.1,7.13,7.16,5758668.0,41483798.0,6543752690.879999,6644428290.88
sh600929,雪天盐业,2021-10-11,7.13,7.22,7.04,7.11,7.13,3653762.0,26017122.0,6525397143.360001,6625790343.36
sh600929,雪天盐业,2021-10-12,7.09,7.16,6.88,6.94,7.11,6478635.0,45225716.0,6369374989.44,6467367789.440001
sh600929,雪天盐业,2021-10-13,6.94,6.96,6.68,6.86,6.94,4125306.0,28117137.0,6295952799.36,6392815999.36
sh600929,雪天盐业,2021-10-14,6.8,6.91,6.74,6.88,6.86,3128911.0,21404882.0,6314308346.88,6411453946.88
sh600929,雪天盐业,2021-10-15,6.89,6.91,6.65,6.72,6.88,4316879.0,29075468.0,6167463966.719999,6262350366.719999
sh600929,雪天盐业,2021-10-18,6.73,6.99,6.73,6.97,6.72,6449909.0,44582522.0,6396908310.719999,6495324710.72
sh600929,雪天盐业,2021-10-19,7.0,7.01,6.88,6.99,6.97,4341900.0,30177139.0,6415263858.24,6513962658.24
sh600929,雪天盐业,2021-10-20,6.97,6.97,6.77,6.84,6.99,4350491.0,29713707.0,6277597251.84,6374178051.84
sh600929,雪天盐业,2021-10-21,6.78,6.91,6.78,6.79,6.84,2986841.0,20436169.0,6231708383.04,6327583183.04
sh600929,雪天盐业,2021-10-22,6.77,6.83,6.66,6.66,6.79,3340100.0,22489035.0,6112397324.16,6206436524.16
sh600929,雪天盐业,2021-10-25,6.7,6.71,6.51,6.63,6.66,3872295.0,25515899.0,6084864002.88,6178479602.879999
sh600929,雪天盐业,2021-10-26,6.6,6.69,6.57,6.59,6.63,2867701.0,19017719.0,6048152907.839999,6141203707.84
sh600929,雪天盐业,2021-10-27,6.6,6.6,6.38,6.4,6.59,4773800.0,30801922.0,5873775206.4,5964143206.4
sh600929,雪天盐业,2021-10-28,6.42,6.48,6.19,6.24,6.4,7520200.0,47323120.0,5726930826.240001,5815039626.240001
sh600929,雪天盐业,2021-10-29,6.22,6.29,6.13,6.22,6.24,4414300.0,27441697.0,5708575278.72,5796401678.72
sh600929,雪天盐业,2021-11-01,6.18,6.44,6.01,6.4,6.22,5913742.0,37136812.0,5873775206.4,5964143206.400001
sh600929,雪天盐业,2021-11-02,6.39,6.44,6.15,6.24,6.4,5224600.0,32838475.0,5726930826.240001,5815039626.240001
sh600929,雪天盐业,2021-11-03,6.19,6.86,6.19,6.72,6.24,19206998.0,128774342.0,6167463966.719999,6262350366.719999
sh600929,雪天盐业,2021-11-04,6.7,6.95,6.48,6.91,6.72,20008394.0,134550416.0,6341841668.16,6439410868.160001
sh600929,雪天盐业,2021-11-05,6.91,7.02,6.7,6.8,6.91,15145710.0,103355504.0,6240886156.8,6336902156.8
sh600929,雪天盐业,2021-11-08,6.73,6.79,6.57,6.61,6.8,8362804.0,55335347.0,6066508455.36,6159841655.360001
sh600929,雪天盐业,2021-11-09,6.55,6.68,6.51,6.61,6.61,6265556.0,41222389.0,6066508455.36,6159841655.360001
sh600929,雪天盐业,2021-11-10,6.67,6.7,6.53,6.7,6.61,6510125.0,43074392.0,6149108419.200001,6243712419.2
sh600929,雪天盐业,2021-11-11,6.67,6.86,6.61,6.81,6.7,6829286.0,46350764.0,6250063930.56,6346221130.559999
sh600929,雪天盐业,2021-11-12,6.81,6.94,6.78,6.9,6.81,7617011.0,52290126.0,6332663894.400001,6430091894.4
sh600929,雪天盐业,2021-11-15,6.9,7.04,6.88,6.92,6.9,6534176.0,45497391.0,6351019441.92,6448729841.92
sh600929,雪天盐业,2021-11-16,6.97,7.06,6.9,6.91,6.92,6766551.0,47233893.0,6341841668.16,6439410868.160001
sh600929,雪天盐业,2021-11-17,6.96,7.25,6.9,7.22,6.91,9389611.0,66727337.0,6626352654.72,6728299054.72
sh600929,雪天盐业,2021-11-18,7.3,7.79,7.3,7.59,7.22,18947752.0,143269561.0,6965930283.839999,7073101083.84
sh600929,雪天盐业,2021-11-19,7.6,8.06,7.59,7.93,7.59,18060409.0,142822381.0,7277974591.68,7389946191.679999
sh600929,雪天盐业,2021-11-22,8.0,8.02,7.61,7.94,7.93,16727432.0,131011860.0,7287152365.44,7399265165.440001
sh600929,雪天盐业,2021-11-23,7.93,8.06,7.78,7.96,7.94,14785363.0,117764129.0,7305507912.96,7417903112.96
sh600929,雪天盐业,2021-11-25,8.19,8.19,7.34,7.54,7.96,24807807.0,187639443.0,6920041415.040001,7026506215.04
sh600929,雪天盐业,2021-11-26,7.42,7.52,7.21,7.31,7.54,15662500.0,114753830.0,6708952618.56,6812169818.56
sh600929,雪天盐业,2021-11-29,7.16,7.28,7.11,7.22,7.31,9048390.0,65120428.0,6626352654.72,6728299054.72
sh600929,雪天盐业,2021-11-30,7.25,7.78,7.24,7.54,7.22,15650051.0,119031246.0,6920041415.040001,7026506215.04
sh600929,雪天盐业,2021-12-01,7.5,7.67,7.37,7.59,7.54,10428060.0,78036855.0,6965930283.839999,7073101083.84
sh600929,雪天盐业,2021-12-02,7.54,7.62,7.39,7.43,7.59,8470943.0,63443004.0,6819085903.679999,6923997503.68
sh600929,雪天盐业,2021-12-03,7.55,7.7,7.31,7.39,7.43,11140925.0,83470514.0,6782374808.64,6886721608.639999
sh600929,雪天盐业,2021-12-06,7.31,7.41,7.2,7.23,7.39,7012136.0,51148115.0,6635530428.48,6737618028.48
sh600929,雪天盐业,2021-12-07,7.26,7.28,7.01,7.05,7.23,6892884.0,48755466.0,6470330500.799999,6569876500.8
sh600929,雪天盐业,2021-12-08,7.09,7.1,6.92,7.02,7.05,7147976.0,49994529.0,6442797179.5199995,6541919579.5199995
sh600929,雪天盐业,2021-12-09,7.03,7.18,7.01,7.11,7.02,6661978.0,47307413.0,6525397143.360001,6625790343.36
sh600929,雪天盐业,2021-12-10,7.12,7.13,6.98,7.03,7.11,6306700.0,44410625.0,6451974953.280001,6551238553.280001
sh600929,雪天盐业,2021-12-13,7.05,7.08,6.86,6.88,7.03,9687342.0,67113340.0,6314308346.88,6411453946.88
sh600929,雪天盐业,2021-12-14,6.85,6.91,6.8,6.85,6.88,5627640.0,38526720.0,6286775025.6,6383497025.6
sh600929,雪天盐业,2021-12-15,6.85,6.88,6.79,6.85,6.85,4957809.0,33962068.0,6286775025.6,6383497025.6
sh600929,雪天盐业,2021-12-16,6.9,6.97,6.83,6.85,6.85,6609924.0,45483322.0,6286775025.6,6383497025.6
sh600929,雪天盐业,2021-12-17,6.84,6.96,6.8,6.83,6.85,11687400.0,80285983.0,6268419478.08,6364859078.08
sh600929,雪天盐业,2021-12-20,6.96,6.96,6.61,6.66,6.83,11938660.0,80415367.0,6112397324.16,6206436524.16
sh600929,雪天盐业,2021-12-21,6.66,6.75,6.66,6.75,6.66,6271100.0,42108925.0,6194997288.0,6290307288.0
sh600929,雪天盐业,2021-12-22,6.76,7.33,6.74,7.1,6.75,22300398.0,158106546.0,6516219369.599999,6616471369.6
sh600929,雪天盐业,2021-12-23,7.15,7.15,6.98,7.01,7.1,10488827.0,73871451.0,6433619405.76,6532600605.76
sh600929,雪天盐业,2021-12-24,6.96,7.07,6.82,6.93,7.01,10279428.0,70961237.0,6360197215.68,6458048815.679999
sh600929,雪天盐业,2021-12-27,6.96,7.21,6.85,7.2,6.93,15522237.0,110806449.0,6607997107.2,6709661107.2
sh600929,雪天盐业,2021-12-28,7.37,7.56,7.23,7.32,7.2,18681527.0,136972824.0,6718130392.32,6821488792.32
sh600929,雪天盐业,2021-12-29,7.29,7.44,7.24,7.28,7.32,16508099.0,121183780.0,6681419297.28,6784212897.28
sh600929,雪天盐业,2021-12-30,7.27,7.35,7.22,7.3,7.28,10593048.0,77004036.0,6699774844.8,6802850844.799999
sh600929,雪天盐业,2021-12-31,7.33,7.48,7.27,7.46,7.3,14416749.0,107123878.0,6846619224.959999,6951954424.96
sh600929,雪天盐业,2022-01-04,7.41,7.63,7.38,7.59,7.46,13301936.0,100295709.0,6965930283.839999,7073101083.84
sh600929,雪天盐业,2022-01-05,7.6,7.76,7.48,7.6,7.59,13502000.0,102644392.0,6975113879.2,7082425879.2
sh600929,雪天盐业,2022-01-06,7.5,7.63,7.39,7.58,7.6,10589500.0,79448621.0,6956758316.36,7063787916.360001
sh600929,雪天盐业,2022-01-07,7.56,7.63,7.33,7.35,7.58,8597951.0,64085386.0,6745669343.700001,6849451343.7
sh600929,雪天盐业,2022-01-10,7.33,7.42,7.29,7.32,7.35,6327438.0,46517072.0,6718135999.440001,6821494399.44
sh600929,雪天盐业,2022-01-11,7.36,7.39,7.22,7.31,7.32,6916200.0,50464008.0,6708958218.02,6812175418.02
sh600929,雪天盐业,2022-01-12,7.32,8.0,7.32,7.75,7.31,22201894.0,170549104.0,7112780600.5,7222210600.5
sh600929,雪天盐业,2022-01-13,7.65,7.84,7.6,7.66,7.75,20689100.0,159584802.0,7030180567.72,7138339767.719999
sh600929,雪天盐业,2022-01-14,7.68,7.76,7.5,7.52,7.66,10519151.0,80089974.0,6901691627.84,7007874027.84
