数据由邢不行整理
股票代码,股票名称,交易日期,开盘价,最高价,最低价,收盘价,前收盘价,成交量,成交额,流通市值,总市值
sh601916,N浙银,2019-11-26,4.95,5.58,4.88,4.97,4.94,947824463.0,4824847247.0,10275809416.4,105705422987.0
sh601916,浙商银行,2019-11-27,4.81,4.91,4.7,4.74,4.97,444815914.0,2129128320.0,9800268940.38,100813622728.0
sh601916,浙商银行,2019-11-28,4.75,4.81,4.68,4.75,4.74,271549469.0,1285121543.0,9820944613.25,101026309696.0
sh601916,浙商银行,2019-11-29,4.72,4.75,4.69,4.7,4.75,153065231.0,720520911.0,9717566248.9,99962874856.6
sh601916,浙商银行,2019-12-02,4.7,4.71,4.6,4.61,4.7,212229401.0,985033561.0,9531485193.07,98048692146.6
sh601916,浙商银行,2019-12-03,4.57,4.58,4.53,4.56,4.61,143506847.0,652958839.0,9428106828.72,96985257307.7
sh601916,浙商银行,2019-12-04,4.53,4.63,4.52,4.58,4.56,108089386.0,495663545.0,9469458174.46,97410631243.2
sh601916,浙商银行,2019-12-05,4.59,4.6,4.56,4.6,4.58,105160112.0,481632006.0,9510809520.2,97836005178.8
sh601916,浙商银行,2019-12-06,4.59,4.6,4.56,4.59,4.6,77274378.0,353791709.0,9490133847.33,97623318211.0
sh601916,浙商银行,2019-12-09,4.6,4.67,4.59,4.65,4.59,138928257.0,643934007.0,9614187884.55,98899440017.7
sh601916,浙商银行,2019-12-10,4.63,4.63,4.56,4.58,4.65,132946593.0,609125913.0,9469458174.46,97410631243.2
sh601916,浙商银行,2019-12-11,4.57,4.6,4.55,4.58,4.58,88192000.0,403158266.0,9469458174.46,97410631243.2
sh601916,浙商银行,2019-12-12,4.57,4.57,4.53,4.54,4.58,84978238.0,386289808.0,9386755482.98,96559883372.1
sh601916,浙商银行,2019-12-13,4.56,4.62,4.54,4.61,4.54,157897444.0,723039728.0,9531485193.07,98048692146.6
sh601916,浙商银行,2019-12-16,4.59,4.59,4.55,4.59,4.61,125307928.0,572963238.0,9490133847.33,97623318211.0
sh601916,浙商银行,2019-12-17,4.58,4.96,4.57,4.81,4.59,506606985.0,2406667146.0,9944998650.47,102302431502.0
sh601916,浙商银行,2019-12-18,4.76,4.81,4.71,4.73,4.81,240568355.0,1142440734.0,9779593267.51,100600935760.0
sh601916,浙商银行,2019-12-19,4.74,4.81,4.71,4.73,4.73,138422495.0,658065005.0,9779593267.51,100600935760.0
sh601916,浙商银行,2019-12-20,4.74,4.87,4.73,4.77,4.73,211196763.0,1011173952.0,9862295958.99,101451683631.0
sh601916,浙商银行,2019-12-23,4.79,4.87,4.77,4.78,4.77,211624828.0,1019846304.0,9882971631.86,101664370599.0
sh601916,浙商银行,2019-12-24,4.8,4.83,4.73,4.78,4.78,98706099.0,470021281.0,9882971631.86,101664370599.0
sh601916,浙商银行,2019-12-25,4.78,4.8,4.74,4.77,4.78,87253983.0,415793399.0,9862295958.99,101451683631.0
sh601916,浙商银行,2019-12-26,4.76,4.8,4.74,4.79,4.77,97277112.0,463085953.0,9903647304.73,101877057567.0
sh601916,浙商银行,2019-12-27,4.78,4.85,4.77,4.79,4.79,138863556.0,667423752.0,9903647304.73,101877057567.0
sh601916,浙商银行,2019-12-30,4.75,4.8,4.7,4.79,4.79,126916653.0,603547412.0,9903647304.73,101877057567.0
sh601916,浙商银行,2019-12-31,4.77,4.79,4.75,4.78,4.79,83370678.0,397642090.0,9882971631.86,101664370599.0
sh601916,浙商银行,2020-01-02,4.83,4.84,4.8,4.8,4.78,213979204.0,1031170265.0,9924322977.6,102089744534.0
sh601916,浙商银行,2020-01-03,4.8,4.81,4.75,4.78,4.8,111390320.0,532188659.0,9882971631.86,101664370599.0
sh601916,浙商银行,2020-01-06,4.75,4.78,4.74,4.75,4.78,109659608.0,521484858.0,9820944613.25,101026309696.0
sh601916,浙商银行,2020-01-07,4.75,4.78,4.75,4.77,4.75,84885793.0,404190491.0,9862295958.99,101451683631.0
sh601916,浙商银行,2020-01-08,4.75,4.76,4.68,4.68,4.77,141861700.0,669666159.0,9676214903.16,99537500921.0
sh601916,浙商银行,2020-01-09,4.7,4.73,4.69,4.7,4.68,61400954.0,288865518.0,9717566248.9,99962874856.6
sh601916,浙商银行,2020-01-10,4.72,4.72,4.68,4.7,4.7,47111150.0,221136702.0,9717566248.9,99962874856.6
sh601916,浙商银行,2020-01-13,4.69,4.7,4.66,4.7,4.7,47124390.0,220648592.0,9717566248.9,99962874856.6
sh601916,浙商银行,2020-01-14,4.71,4.72,4.68,4.7,4.7,50132867.0,235589840.0,9717566248.9,99962874856.6
sh601916,浙商银行,2020-01-15,4.69,4.7,4.66,4.67,4.7,48182903.0,225128372.0,9655539230.29,99324813953.3
sh601916,浙商银行,2020-01-16,4.67,4.68,4.63,4.64,4.67,49832094.0,231555546.0,9593512211.68,98686753049.9
sh601916,浙商银行,2020-01-17,4.65,4.66,4.62,4.63,4.64,41167928.0,191116350.0,9572836538.81,98474066082.1
sh601916,浙商银行,2020-01-20,4.63,4.66,4.62,4.66,4.63,42847785.0,199011859.0,9634863557.42,99112126985.5
sh601916,浙商银行,2020-01-21,4.65,4.65,4.61,4.61,4.66,47429215.0,219349295.0,9531485193.07,98048692146.6
sh601916,浙商银行,2020-01-22,4.6,4.62,4.57,4.61,4.61,49783370.0,228650017.0,9531485193.07,98048692146.6
sh601916,浙商银行,2020-01-23,4.59,4.61,4.53,4.56,4.61,81527704.0,371925117.0,9428106828.72,96985257307.7
sh601916,浙商银行,2020-02-03,4.1,4.23,4.1,4.1,4.56,159277462.0,657673810.0,8477025876.7,87201656789.8
sh601916,浙商银行,2020-02-04,4.09,4.18,4.09,4.17,4.1,98883874.0,410142760.0,8621755586.79,88690465564.3
sh601916,浙商银行,2020-02-05,4.16,4.26,4.14,4.22,4.17,83113085.0,349346059.0,8725133951.14,89753900403.2
sh601916,浙商银行,2020-02-06,4.22,4.26,4.17,4.24,4.22,83627690.0,352760738.0,8766485296.88,90179274338.7
sh601916,浙商银行,2020-02-07,4.22,4.23,4.18,4.21,4.24,70867666.0,297456850.0,8704458278.27,89541213435.4
sh601916,浙商银行,2020-02-10,4.21,4.23,4.18,4.23,4.21,51313134.0,215861616.0,8745809624.01,89966587370.9
sh601916,浙商银行,2020-02-11,4.24,4.28,4.21,4.26,4.23,79615920.0,339079956.0,8807836642.62,90604648274.3
sh601916,浙商银行,2020-02-12,4.25,4.27,4.23,4.27,4.26,48155883.0,204727058.0,8828512315.49,90817335242.1
sh601916,浙商银行,2020-02-13,4.26,4.27,4.22,4.22,4.27,49322191.0,209200888.0,8725133951.14,89753900403.2
sh601916,浙商银行,2020-02-14,4.21,4.25,4.21,4.23,4.22,34272429.0,144940503.0,8745809624.01,89966587370.9
sh601916,浙商银行,2020-02-17,4.23,4.34,4.23,4.33,4.23,103830406.0,444326175.0,8952566352.71,92093457048.7
sh601916,浙商银行,2020-02-18,4.3,4.32,4.28,4.3,4.33,64961504.0,279143717.0,8890539334.1,91455396145.4
sh601916,浙商银行,2020-02-19,4.3,4.32,4.28,4.29,4.3,55363569.0,238144422.0,8869863661.23,91242709177.6
sh601916,浙商银行,2020-02-20,4.29,4.41,4.28,4.39,4.29,124951840.0,542721269.0,9076620389.93,93369578855.4
sh601916,浙商银行,2020-02-21,4.37,4.41,4.36,4.38,4.39,81081770.0,355087996.0,9055944717.06,93156891887.6
sh601916,浙商银行,2020-02-24,4.37,4.37,4.32,4.33,4.38,78663639.0,341321532.0,8952566352.71,92093457048.7
sh601916,浙商银行,2020-02-25,4.28,4.28,4.2,4.25,4.33,103649018.0,440144997.0,8787160969.75,90391961306.5
sh601916,浙商银行,2020-02-26,4.22,4.33,4.2,4.27,4.25,82769305.0,354345158.0,8828512315.49,90817335242.1
sh601916,浙商银行,2020-02-27,4.27,4.3,4.25,4.29,4.27,56968970.0,243285916.0,8869863661.23,91242709177.6
sh601916,浙商银行,2020-02-28,4.24,4.25,4.18,4.19,4.29,89238805.0,375820702.0,8663106932.53,89115839499.8
sh601916,浙商银行,2020-03-02,4.2,4.27,4.2,4.26,4.19,60459614.0,256433735.0,8807836642.62,90604648274.3
sh601916,浙商银行,2020-03-03,4.28,4.3,4.24,4.25,4.26,67589277.0,288578561.0,8787160969.75,90391961306.5
sh601916,浙商银行,2020-03-04,4.23,4.27,4.21,4.26,4.25,42149112.0,178703061.0,8807836642.62,90604648274.3
sh601916,浙商银行,2020-03-05,4.28,4.39,4.26,4.38,4.26,187245291.0,813723844.0,9055944717.06,93156891887.6
sh601916,浙商银行,2020-03-06,4.33,4.34,4.3,4.31,4.38,87387084.0,377098634.0,8911215006.97,91668083113.2
sh601916,浙商银行,2020-03-09,4.25,4.26,4.22,4.22,4.31,70604436.0,299195548.0,8725133951.14,89753900403.2
sh601916,浙商银行,2020-03-10,4.19,4.25,4.19,4.25,4.22,59250596.0,250245760.0,8787160969.75,90391961306.5
sh601916,浙商银行,2020-03-11,4.24,4.26,4.22,4.22,4.25,42363618.0,179580859.0,8725133951.14,89753900403.2
sh601916,浙商银行,2020-03-12,4.23,4.26,4.21,4.24,4.22,59685958.0,252377846.0,8766485296.88,90179274338.7
sh601916,浙商银行,2020-03-13,4.14,4.23,4.11,4.23,4.24,79517722.0,331170362.0,8745809624.01,89966587370.9
sh601916,浙商银行,2020-03-16,4.25,4.25,4.13,4.14,4.23,77555509.0,324582093.0,8559728568.18,88052404660.9
sh601916,浙商银行,2020-03-17,4.13,4.16,4.08,4.12,4.14,45632178.0,187934077.0,8518377222.44,87627030725.4
sh601916,浙商银行,2020-03-18,4.14,4.15,4.06,4.07,4.12,42659083.0,175291741.0,8414998858.09,86563595886.5
sh601916,浙商银行,2020-03-19,4.06,4.08,3.98,4.03,4.07,54396642.0,219033463.0,8332296166.61,85712848015.3
sh601916,浙商银行,2020-03-20,4.04,4.06,4.02,4.06,4.03,30345044.0,122678050.0,8394323185.22,86350908918.7
sh601916,浙商银行,2020-03-23,4.0,4.01,3.96,3.97,4.06,35610901.0,142039966.0,8208242129.39,84436726208.7
sh601916,浙商银行,2020-03-24,4.0,4.02,3.97,4.01,3.97,26809775.0,107242108.0,8290944820.87,85287474079.8
sh601916,浙商银行,2020-03-25,4.05,4.07,4.02,4.06,4.01,41293543.0,167099208.0,8394323185.22,86350908918.7
sh601916,浙商银行,2020-03-26,4.04,4.09,4.03,4.05,4.06,33460044.0,135673948.0,8373647512.35,86138221950.9
sh601916,浙商银行,2020-03-27,4.06,4.08,4.04,4.04,4.05,27718558.0,112370981.0,8352971839.48,85925534983.1
sh601916,浙商银行,2020-03-30,4.05,4.06,4.02,4.04,4.04,34466604.0,139147644.0,8352971839.48,85925534983.1
sh601916,浙商银行,2020-03-31,4.07,4.07,4.04,4.04,4.04,20717191.0,83893134.0,8352971839.48,85925534983.1
sh601916,浙商银行,2020-04-01,4.06,4.07,4.04,4.05,4.04,24355717.0,98806098.0,8373647512.35,86138221950.9
sh601916,浙商银行,2020-04-02,4.03,4.07,4.02,4.07,4.05,26158799.0,105633273.0,8414998858.09,86563595886.5
sh601916,浙商银行,2020-04-03,4.06,4.06,4.03,4.04,4.07,19672151.0,79597196.0,8352971839.48,85925534983.1
sh601916,浙商银行,2020-04-07,4.07,4.09,4.06,4.08,4.04,37219710.0,151757834.0,8435674530.96,86776282854.2
sh601916,浙商银行,2020-04-08,4.07,4.07,4.05,4.06,4.08,22160603.0,89965629.0,8394323185.22,86350908918.7
sh601916,浙商银行,2020-04-09,4.07,4.08,4.06,4.07,4.06,19909970.0,81031216.0,8414998858.09,86563595886.5
sh601916,浙商银行,2020-04-10,4.07,4.08,4.04,4.06,4.07,23971967.0,97320014.0,8394323185.22,86350908918.7
sh601916,浙商银行,2020-04-13,4.05,4.05,4.04,4.04,4.06,16302223.0,65886464.0,8352971839.48,85925534983.1
sh601916,浙商银行,2020-04-14,4.05,4.06,4.04,4.06,4.04,14019651.0,56802949.0,8394323185.22,86350908918.7
sh601916,浙商银行,2020-04-15,4.06,4.06,4.04,4.05,4.06,15651973.0,63407617.0,8373647512.35,86138221950.9
sh601916,浙商银行,2020-04-16,4.04,4.06,4.03,4.05,4.05,20982661.0,84833279.0,8373647512.35,86138221950.9
sh601916,浙商银行,2020-04-17,4.05,4.07,4.04,4.06,4.05,22241413.0,90235890.0,8394323185.22,86350908918.7
sh601916,浙商银行,2020-04-20,4.06,4.06,4.04,4.05,4.06,14651084.0,59338205.0,8373647512.35,86138221950.9
sh601916,浙商银行,2020-04-21,4.05,4.05,4.02,4.03,4.05,21682044.0,87499934.0,8332296166.61,85712848015.3
sh601916,浙商银行,2020-04-22,4.03,4.04,4.02,4.04,4.03,14015316.0,56473321.0,8352971839.48,85925534983.1
sh601916,浙商银行,2020-04-23,4.04,4.04,4.02,4.03,4.04,14766946.0,59545517.0,8332296166.61,85712848015.3
sh601916,浙商银行,2020-04-24,4.03,4.03,4.0,4.0,4.03,22520505.0,90340787.0,8270269148.0,85074787112.0
sh601916,浙商银行,2020-04-27,4.0,4.07,4.0,4.05,4.0,35633150.0,144197681.0,8373647512.35,86138221950.9
sh601916,浙商银行,2020-04-28,4.03,4.04,3.97,4.02,4.05,28523143.0,114384330.0,8311620493.74,85500161047.6
sh601916,浙商银行,2020-04-29,4.02,4.08,4.01,4.07,4.02,44361046.0,180010468.0,8414998858.09,86563595886.5
sh601916,浙商银行,2020-04-30,4.06,4.1,4.06,4.08,4.07,45185101.0,184235091.0,8435674530.96,86776282854.2
sh601916,浙商银行,2020-05-06,4.06,4.07,4.04,4.07,4.08,26269990.0,106569810.0,8414998858.09,86563595886.5
sh601916,浙商银行,2020-05-07,4.07,4.08,4.06,4.07,4.07,20010070.0,81401323.0,8414998858.09,86563595886.5
sh601916,浙商银行,2020-05-08,4.08,4.1,4.07,4.1,4.07,33243441.0,135808412.0,8477025876.7,87201656789.8
sh601916,浙商银行,2020-05-11,4.1,4.11,4.07,4.08,4.1,28309425.0,115911019.0,8435674530.96,86776282854.2
sh601916,浙商银行,2020-05-12,4.08,4.09,4.06,4.07,4.08,15251013.0,62106902.0,8414998858.09,86563595886.5
sh601916,浙商银行,2020-05-13,4.07,4.07,4.05,4.07,4.07,13581558.0,55165335.0,8414998858.09,86563595886.5
sh601916,浙商银行,2020-05-14,4.06,4.06,4.04,4.04,4.07,17772969.0,71958255.0,8352971839.48,85925534983.1
sh601916,浙商银行,2020-05-15,4.06,4.06,4.04,4.05,4.04,13458363.0,54555760.0,8373647512.35,86138221950.9
sh601916,浙商银行,2020-05-18,4.05,4.07,4.04,4.05,4.05,16123890.0,65375252.0,8373647512.35,86138221950.9
sh601916,浙商银行,2020-05-19,4.06,4.08,4.06,4.06,4.05,14737136.0,59913891.0,8394323185.22,86350908918.7
sh601916,浙商银行,2020-05-20,4.06,4.08,4.05,4.06,4.06,19503661.0,79215901.0,8394323185.22,86350908918.7
sh601916,浙商银行,2020-05-21,4.06,4.07,4.05,4.05,4.06,17090789.0,69359947.0,8373647512.35,86138221950.9
sh601916,浙商银行,2020-05-22,4.05,4.05,4.01,4.01,4.05,23583600.0,94992864.0,8290944820.87,85287474079.8
sh601916,浙商银行,2020-05-25,4.04,4.05,4.02,4.03,4.01,17361698.0,70056970.0,8332296166.61,85712848015.3
sh601916,浙商银行,2020-05-26,3.9,3.95,3.82,3.9,4.03,280603486.0,1085601058.0,9945000000.0,82947917434.2
sh601916,浙商银行,2020-05-27,3.88,3.89,3.85,3.86,3.9,78538612.0,303798603.0,9843000000.0,82097169563.1
sh601916,浙商银行,2020-05-28,3.86,3.89,3.86,3.87,3.86,64586606.0,250052673.0,9868500000.0,82309856530.9
sh601916,浙商银行,2020-05-29,3.86,3.87,3.85,3.86,3.87,37064213.0,143070991.0,9843000000.0,82097169563.1
sh601916,浙商银行,2020-06-01,3.87,3.9,3.86,3.89,3.86,64758499.0,251390035.0,9919500000.0,82735230466.4
sh601916,浙商银行,2020-06-02,3.89,3.96,3.87,3.95,3.89,89586916.0,350268445.0,10072500000.0,84011352273.1
sh601916,浙商银行,2020-06-03,3.95,3.98,3.94,3.94,3.95,60620691.0,240052765.0,10047000000.0,83798665305.3
sh601916,浙商银行,2020-06-04,3.96,3.97,3.92,3.93,3.94,44741335.0,175985472.0,10021500000.0,83585978337.5
sh601916,浙商银行,2020-06-05,3.94,3.94,3.92,3.94,3.93,29501638.0,115969867.0,10047000000.0,83798665305.3
sh601916,浙商银行,2020-06-08,3.95,3.96,3.94,3.95,3.94,33765039.0,133436478.0,10072500000.0,84011352273.1
sh601916,浙商银行,2020-06-09,3.95,3.97,3.95,3.96,3.95,28336251.0,112113859.0,10098000000.0,84224039240.9
sh601916,浙商银行,2020-06-10,3.96,3.96,3.93,3.94,3.96,30684295.0,121018029.0,10047000000.0,83798665305.3
sh601916,浙商银行,2020-06-11,3.94,3.97,3.93,3.94,3.94,42580958.0,168300331.0,10047000000.0,83798665305.3
sh601916,浙商银行,2020-06-12,3.91,3.96,3.9,3.9,3.94,60597412.0,238029732.0,9945000000.0,82947917434.2
sh601916,浙商银行,2020-06-15,3.92,3.93,3.9,3.9,3.9,30162233.0,118092171.0,9945000000.0,82947917434.2
sh601916,浙商银行,2020-06-16,3.92,3.93,3.91,3.92,3.9,25691995.0,100619971.0,9996000000.0,83373291369.76
sh601916,浙商银行,2020-06-17,3.92,3.93,3.9,3.91,3.92,26382170.0,103168255.0,9970500000.0,83160604401.98
sh601916,浙商银行,2020-06-18,3.9,3.93,3.9,3.92,3.91,30014153.0,117543107.0,9996000000.0,83373291369.76
sh601916,浙商银行,2020-06-19,3.93,3.96,3.92,3.94,3.92,61875175.0,244292178.0,10047000000.0,83798665305.31999
sh601916,浙商银行,2020-06-22,3.94,3.96,3.93,3.94,3.94,37386390.0,147382737.0,10047000000.0,83798665305.31999
sh601916,浙商银行,2020-06-23,3.94,3.94,3.91,3.92,3.94,28049374.0,110045971.0,9996000000.0,83373291369.76
sh601916,浙商银行,2020-06-24,3.93,3.98,3.92,3.96,3.92,53128224.0,210331588.0,10098000000.0,84224039240.87999
sh601916,浙商银行,2020-06-29,3.97,3.98,3.92,3.93,3.96,33224765.0,131010190.0,10021500000.0,83585978337.54001
sh601916,浙商银行,2020-06-30,3.93,3.95,3.93,3.94,3.93,25102556.0,98846982.0,10047000000.0,83798665305.31999
sh601916,浙商银行,2020-07-01,3.94,3.99,3.92,3.98,3.94,69045799.0,273348791.0,10149000000.0,84649413176.44
sh601916,浙商银行,2020-07-02,3.97,4.11,3.95,4.09,3.98,151995854.0,613713039.0,10429500000.0,86988969822.02
sh601916,浙商银行,2020-07-03,4.11,4.22,4.1,4.21,4.09,232509409.0,969898419.0,10735500000.0,89541213435.37999
sh601916,浙商银行,2020-07-06,4.35,4.63,4.32,4.63,4.21,447463926.0,2006439788.0,11806500000.0,98474066082.14
sh601916,浙商银行,2020-07-07,4.96,5.05,4.71,4.77,4.63,622212451.0,3030023037.0,12163500000.0,101451683631.06
sh601916,浙商银行,2020-07-08,4.64,5.24,4.61,5.12,4.77,572426870.0,2815847976.0,13056000000.0,108895727503.36
sh601916,浙商银行,2020-07-09,5.1,5.17,4.9,5.04,5.12,480943406.0,2412345123.0,12852000000.0,107194231761.12
sh601916,XD浙商银,2020-07-10,4.78,4.78,4.5,4.51,4.8,314362373.0,1451400174.0,11500500000.0,95921822468.78
sh601916,浙商银行,2020-07-13,4.42,4.57,4.35,4.49,4.51,267891840.0,1189844334.0,11449500000.0,95496448533.22
sh601916,浙商银行,2020-07-14,4.45,4.48,4.33,4.4,4.49,195829690.0,860796752.0,11220000000.0,93582265823.2
sh601916,浙商银行,2020-07-15,4.39,4.43,4.26,4.27,4.4,174660778.0,754481896.0,10888500000.0,90817335242.06
sh601916,浙商银行,2020-07-16,4.27,4.43,4.26,4.3,4.27,201761415.0,874552900.0,10965000000.0,91455396145.4
sh601916,浙商银行,2020-07-17,4.3,4.34,4.18,4.23,4.3,131604342.0,559519223.0,10786500000.0,89966587370.94
sh601916,浙商银行,2020-07-20,4.28,4.38,4.22,4.37,4.23,143950712.0,621660789.0,11143500000.0,92944204919.86002
sh601916,浙商银行,2020-07-21,4.4,4.41,4.29,4.31,4.37,103848726.0,449205225.0,10990500000.0,91668083113.18
sh601916,浙商银行,2020-07-22,4.31,4.38,4.27,4.3,4.31,101911930.0,440458726.0,10965000000.0,91455396145.4
sh601916,浙商银行,2020-07-23,4.26,4.28,4.17,4.22,4.3,117533537.0,495624225.0,10761000000.0,89753900403.16
sh601916,浙商银行,2020-07-24,4.2,4.23,4.09,4.1,4.22,105985316.0,439239420.0,10455000000.0,87201656789.8
sh601916,浙商银行,2020-07-27,4.12,4.14,4.06,4.08,4.1,51183749.0,209129770.0,10404000000.0,86776282854.23999
sh601916,浙商银行,2020-07-28,4.1,4.11,4.07,4.09,4.08,39920213.0,163300373.0,10429500000.0,86988969822.02
sh601916,浙商银行,2020-07-29,4.08,4.16,4.06,4.16,4.09,62885247.0,259628488.0,10608000000.0,88477778596.48001
sh601916,浙商银行,2020-07-30,4.16,4.17,4.11,4.12,4.16,50411751.0,207978397.0,10506000000.0,87627030725.35999
sh601916,浙商银行,2020-07-31,4.11,4.15,4.09,4.12,4.12,53984903.0,222251355.0,10506000000.0,87627030725.35999
sh601916,浙商银行,2020-08-03,4.14,4.16,4.12,4.16,4.12,79506819.0,329175187.0,10608000000.0,88477778596.48001
sh601916,浙商银行,2020-08-04,4.15,4.28,4.12,4.25,4.16,172430877.0,727809624.0,10837500000.0,90391961306.5
sh601916,浙商银行,2020-08-05,4.2,4.21,4.15,4.18,4.25,89535491.0,373603009.0,10659000000.0,88903152532.04
sh601916,浙商银行,2020-08-06,4.18,4.2,4.14,4.2,4.18,64500639.0,269134305.0,10710000000.0,89328526467.6
sh601916,浙商银行,2020-08-07,4.17,4.2,4.14,4.15,4.2,59400142.0,247098965.0,10582500000.0,88265091628.7
sh601916,浙商银行,2020-08-10,4.15,4.18,4.11,4.16,4.15,55143612.0,229101032.0,10608000000.0,88477778596.48001
sh601916,浙商银行,2020-08-11,4.15,4.25,4.14,4.15,4.16,94213245.0,395855401.0,10582500000.0,88265091628.7
sh601916,浙商银行,2020-08-12,4.15,4.17,4.11,4.14,4.15,63886629.0,264415507.0,10557000000.0,88052404660.92
sh601916,浙商银行,2020-08-13,4.15,4.16,4.13,4.13,4.14,42654871.0,176531343.0,10531500000.0,87839717693.14
sh601916,浙商银行,2020-08-14,4.13,4.18,4.11,4.18,4.13,56706532.0,235175487.0,10659000000.0,88903152532.04
sh601916,浙商银行,2020-08-17,4.18,4.38,4.17,4.34,4.18,229622886.0,987556336.0,11067000000.0,92306144016.52
sh601916,浙商银行,2020-08-18,4.33,4.33,4.24,4.27,4.34,122779957.0,524906246.0,10888500000.0,90817335242.06
sh601916,浙商银行,2020-08-19,4.26,4.31,4.24,4.24,4.27,88004488.0,376503123.0,10812000000.0,90179274338.72
sh601916,浙商银行,2020-08-20,4.23,4.24,4.18,4.19,4.24,53736890.0,226081066.0,10684500000.0,89115839499.82
sh601916,浙商银行,2020-08-21,4.21,4.23,4.2,4.22,4.19,38610903.0,162634421.0,10761000000.0,89753900403.16
sh601916,浙商银行,2020-08-24,4.22,4.23,4.19,4.19,4.22,35241606.0,148013616.0,10684500000.0,89115839499.82
sh601916,浙商银行,2020-08-25,4.2,4.21,4.16,4.17,4.19,35280448.0,147497696.0,10633500000.0,88690465564.26
sh601916,浙商银行,2020-08-26,4.17,4.17,4.11,4.11,4.17,46966363.0,194454660.0,10480500000.0,87414343757.58
sh601916,浙商银行,2020-08-27,4.12,4.13,4.11,4.12,4.11,29666954.0,122147513.0,10506000000.0,87627030725.35999
sh601916,浙商银行,2020-08-28,4.11,4.17,4.1,4.16,4.12,44427686.0,184372986.0,10608000000.0,88477778596.48001
sh601916,浙商银行,2020-08-31,4.17,4.21,4.15,4.17,4.16,61445186.0,256873541.0,10633500000.0,88690465564.26
sh601916,浙商银行,2020-09-01,4.15,4.16,4.13,4.15,4.17,32778188.0,135783954.0,10582500000.0,88265091628.7
sh601916,浙商银行,2020-09-02,4.15,4.16,4.12,4.14,4.15,32857159.0,135954679.0,10557000000.0,88052404660.92
sh601916,浙商银行,2020-09-03,4.13,4.16,4.11,4.12,4.14,30287986.0,125174236.0,10506000000.0,87627030725.35999
sh601916,浙商银行,2020-09-04,4.12,4.15,4.1,4.15,4.12,33524741.0,138316315.0,10582500000.0,88265091628.7
sh601916,浙商银行,2020-09-07,4.13,4.16,4.12,4.14,4.15,37083378.0,153650915.0,10557000000.0,88052404660.92
sh601916,浙商银行,2020-09-08,4.14,4.17,4.14,4.17,4.14,37392325.0,155496300.0,10633500000.0,88690465564.26
sh601916,浙商银行,2020-09-09,4.15,4.2,4.14,4.19,4.17,67228297.0,280752147.0,10684500000.0,89115839499.82
sh601916,浙商银行,2020-09-10,4.21,4.22,4.15,4.16,4.19,50858304.0,212550390.0,10608000000.0,88477778596.48001
sh601916,浙商银行,2020-09-11,4.15,4.16,4.12,4.15,4.16,42126644.0,174204882.0,10582500000.0,88265091628.7
sh601916,浙商银行,2020-09-14,4.15,4.2,4.14,4.19,4.15,45429780.0,189559331.0,10684500000.0,89115839499.82
sh601916,浙商银行,2020-09-15,4.18,4.24,4.18,4.23,4.19,65174536.0,274706103.0,10786500000.0,89966587370.94
sh601916,浙商银行,2020-09-16,4.22,4.25,4.19,4.23,4.23,45803682.0,193648885.0,10786500000.0,89966587370.94
sh601916,浙商银行,2020-09-17,4.23,4.25,4.21,4.25,4.23,45925320.0,194565008.0,10837500000.0,90391961306.5
sh601916,浙商银行,2020-09-18,4.25,4.32,4.23,4.32,4.25,87216032.0,374511429.0,11016000000.0,91880770080.96
sh601916,浙商银行,2020-09-21,4.35,4.37,4.23,4.24,4.32,72869600.0,312181935.0,10812000000.0,90179274338.72
sh601916,浙商银行,2020-09-22,4.21,4.31,4.2,4.24,4.24,55192103.0,233960455.0,10812000000.0,90179274338.72
sh601916,浙商银行,2020-09-23,4.24,4.24,4.2,4.2,4.24,36288840.0,153030174.0,10710000000.0,89328526467.6
sh601916,浙商银行,2020-09-24,4.18,4.2,4.16,4.16,4.2,37009234.0,154337836.0,10608000000.0,88477778596.48001
sh601916,浙商银行,2020-09-25,4.16,4.21,4.15,4.19,4.16,34884237.0,145870634.0,10684500000.0,89115839499.82
sh601916,浙商银行,2020-09-28,4.19,4.22,4.17,4.2,4.19,23689500.0,99405774.0,10710000000.0,89328526467.6
sh601916,浙商银行,2020-09-29,4.22,4.23,4.2,4.22,4.2,28314722.0,119344417.0,10761000000.0,89753900403.16
sh601916,浙商银行,2020-09-30,4.21,4.24,4.2,4.22,4.22,26853920.0,113386189.0,10761000000.0,89753900403.16
sh601916,浙商银行,2020-10-09,4.23,4.25,4.19,4.24,4.22,44101088.0,186181421.0,10812000000.0,90179274338.72
sh601916,浙商银行,2020-10-12,4.23,4.29,4.22,4.28,4.24,58239966.0,248167891.0,10914000000.0,91030022209.84
sh601916,浙商银行,2020-10-13,4.26,4.27,4.23,4.24,4.28,32737509.0,138805922.0,10812000000.0,90179274338.72
sh601916,浙商银行,2020-10-14,4.24,4.25,4.2,4.2,4.24,23639248.0,99572719.0,10710000000.0,89328526467.6
sh601916,浙商银行,2020-10-15,4.21,4.26,4.2,4.22,4.2,31195319.0,131892898.0,10761000000.0,89753900403.16
sh601916,浙商银行,2020-10-16,4.2,4.27,4.2,4.25,4.22,47877798.0,203159488.0,10837500000.0,90391961306.5
sh601916,浙商银行,2020-10-19,4.26,4.33,4.25,4.25,4.25,76477041.0,327797060.0,10837500000.0,90391961306.5
sh601916,浙商银行,2020-10-20,4.25,4.26,4.2,4.22,4.25,36008446.0,151827684.0,10761000000.0,89753900403.16
sh601916,浙商银行,2020-10-21,4.23,4.25,4.2,4.25,4.22,31035741.0,131186131.0,10837500000.0,90391961306.5
sh601916,浙商银行,2020-10-22,4.24,4.27,4.22,4.22,4.25,26818101.0,113553852.0,10761000000.0,89753900403.16
sh601916,浙商银行,2020-10-23,4.22,4.25,4.21,4.22,4.22,31027969.0,131383443.0,10761000000.0,89753900403.16
sh601916,浙商银行,2020-10-26,4.22,4.23,4.13,4.14,4.22,45455824.0,189481179.0,10557000000.0,88052404660.92
sh601916,浙商银行,2020-10-27,4.12,4.14,4.1,4.1,4.14,28516988.0,117288798.0,10455000000.0,87201656789.8
sh601916,浙商银行,2020-10-28,4.1,4.12,4.06,4.08,4.1,27843605.0,113663649.0,10404000000.0,86776282854.23999
sh601916,浙商银行,2020-10-29,4.07,4.07,4.04,4.06,4.08,23325384.0,94631309.0,10353000000.0,86350908918.68001
sh601916,浙商银行,2020-10-30,4.07,4.08,3.98,3.98,4.06,50443251.0,202726418.0,10149000000.0,84649413176.44
sh601916,浙商银行,2020-11-02,3.98,4.0,3.96,3.97,3.98,26725929.0,106128547.0,10123500000.0,84436726208.66
sh601916,浙商银行,2020-11-03,3.97,4.02,3.97,4.01,3.97,20433951.0,81737678.0,10225500000.0,85287474079.78
sh601916,浙商银行,2020-11-04,4.03,4.05,3.98,4.0,4.01,19498225.0,78116524.0,10200000000.0,85074787112.0
sh601916,浙商银行,2020-11-05,4.02,4.02,3.99,4.01,4.0,22170031.0,88812438.0,10225500000.0,85287474079.78
sh601916,浙商银行,2020-11-06,4.02,4.02,3.99,4.01,4.01,20425227.0,81827675.0,10225500000.0,85287474079.78
sh601916,浙商银行,2020-11-09,4.03,4.07,4.02,4.07,4.01,38121701.0,154427543.0,10378500000.0,86563595886.46
sh601916,浙商银行,2020-11-10,4.09,4.11,4.04,4.06,4.07,26781495.0,109242579.0,10353000000.0,86350908918.68001
sh601916,浙商银行,2020-11-11,4.05,4.08,4.03,4.05,4.06,25227958.0,102348196.0,10327500000.0,86138221950.9
sh601916,浙商银行,2020-11-12,4.04,4.06,4.03,4.04,4.05,15265658.0,61652839.0,10302000000.0,85925534983.12
sh601916,浙商银行,2020-11-13,4.04,4.04,3.99,4.02,4.04,18670193.0,74838892.0,10251000000.0,85500161047.56
sh601916,浙商银行,2020-11-16,4.02,4.04,4.01,4.03,4.02,17559861.0,70678529.0,10276500000.0,85712848015.34001
sh601916,浙商银行,2020-11-17,4.04,4.04,4.02,4.04,4.03,20631369.0,83157090.0,10302000000.0,85925534983.12
sh601916,浙商银行,2020-11-18,4.03,4.09,4.02,4.07,4.04,41946466.0,170611413.0,10378500000.0,86563595886.46
sh601916,浙商银行,2020-11-19,4.06,4.09,4.04,4.08,4.07,36760307.0,149471063.0,10404000000.0,86776282854.23999
sh601916,浙商银行,2020-11-20,4.07,4.08,4.05,4.06,4.08,15144496.0,61466335.0,10353000000.0,86350908918.68001
sh601916,浙商银行,2020-11-23,4.05,4.09,4.04,4.08,4.06,38882555.0,158098238.0,10404000000.0,86776282854.23999
sh601916,浙商银行,2020-11-24,4.07,4.08,4.04,4.04,4.08,31005474.0,125785216.0,10302000000.0,85925534983.12
sh601916,浙商银行,2020-11-25,4.06,4.08,4.02,4.02,4.04,34917200.0,141468860.0,10251000000.0,85500161047.56
sh601916,浙商银行,2020-11-26,4.04,4.07,4.03,4.05,4.02,28869955.0,116976272.0,28393117045.2,86138221950.9
sh601916,浙商银行,2020-11-27,4.06,4.15,4.05,4.15,4.05,69578322.0,285398896.0,29094181663.6,88265091628.7
sh601916,浙商银行,2020-11-30,4.19,4.29,4.12,4.12,4.15,181592142.0,765898055.0,28883862278.08,87627030725.35999
sh601916,浙商银行,2020-12-01,4.13,4.29,4.12,4.28,4.12,137077694.0,580062003.0,30005565667.52,91030022209.84
sh601916,浙商银行,2020-12-02,4.26,4.28,4.18,4.21,4.28,118718120.0,501360387.0,29514820434.64,89541213435.37999
sh601916,浙商银行,2020-12-03,4.19,4.3,4.17,4.27,4.21,120455071.0,511624385.0,29935459205.68,90817335242.06
sh601916,浙商银行,2020-12-04,4.23,4.24,4.18,4.19,4.27,64429314.0,270853458.0,29374607510.96,89115839499.82
sh601916,浙商银行,2020-12-07,4.2,4.22,4.1,4.13,4.19,54392794.0,225871317.0,28953968739.92,87839717693.14
sh601916,浙商银行,2020-12-08,4.13,4.16,4.1,4.12,4.13,35943848.0,148151778.0,28883862278.08,87627030725.35999
sh601916,浙商银行,2020-12-09,4.13,4.15,4.06,4.07,4.12,78666929.0,322765970.0,28533329968.88,86563595886.46
sh601916,浙商银行,2020-12-10,4.07,4.08,4.01,4.05,4.07,48851531.0,197527300.0,28393117045.2,86138221950.9
sh601916,浙商银行,2020-12-11,4.04,4.07,4.03,4.03,4.05,43498571.0,176177060.0,28252904121.52,85712848015.34001
sh601916,浙商银行,2020-12-14,4.06,4.08,4.04,4.05,4.03,27014678.0,109616625.0,28393117045.2,86138221950.9
sh601916,浙商银行,2020-12-15,4.04,4.06,4.02,4.04,4.05,16880140.0,68108910.0,28323010583.36,85925534983.12
sh601916,浙商银行,2020-12-16,4.04,4.05,4.01,4.03,4.04,23058386.0,92956477.0,28252904121.52,85712848015.34001
sh601916,浙商银行,2020-12-17,4.02,4.07,4.0,4.07,4.03,28639502.0,115506363.0,28533329968.88,86563595886.46
sh601916,浙商银行,2020-12-18,4.05,4.07,4.03,4.04,4.07,19381717.0,78451574.0,28323010583.36,85925534983.12
sh601916,浙商银行,2020-12-21,4.03,4.05,4.02,4.04,4.04,17056300.0,68866443.0,28323010583.36,85925534983.12
sh601916,浙商银行,2020-12-22,4.03,4.05,4.0,4.01,4.04,23673540.0,95293304.0,28112691197.84,85287474079.78
sh601916,浙商银行,2020-12-23,4.02,4.02,4.0,4.02,4.01,17049600.0,68381761.0,28182797659.68,85500161047.56
sh601916,浙商银行,2020-12-24,4.02,4.04,3.99,4.0,4.02,21311400.0,85519768.0,28042584736.0,85074787112.0
sh601916,浙商银行,2020-12-25,4.0,4.02,3.98,4.0,4.0,14780620.0,59126728.0,28042584736.0,85074787112.0
sh601916,浙商银行,2020-12-28,4.0,4.03,3.98,4.01,4.0,21925651.0,87743539.0,28112691197.84,85287474079.78
sh601916,浙商银行,2020-12-29,4.01,4.03,4.0,4.03,4.01,20161598.0,80973818.0,28252904121.52,85712848015.34001
sh601916,浙商银行,2020-12-30,4.02,4.07,4.0,4.06,4.03,32018643.0,129088103.0,28463223507.04,86350908918.68001
sh601916,浙商银行,2020-12-31,4.04,4.13,4.04,4.08,4.06,43319471.0,176789612.0,28603436430.72,86776282854.23999
sh601916,浙商银行,2021-01-04,4.07,4.08,4.01,4.05,4.08,39671516.0,160099504.0,28393117045.2,86138221950.9
sh601916,浙商银行,2021-01-05,4.04,4.05,4.01,4.04,4.05,30890829.0,124355878.0,28323010583.36,85925534983.12
sh601916,浙商银行,2021-01-06,4.02,4.05,4.01,4.04,4.04,27883046.0,112455393.0,28323010583.36,85925534983.12
sh601916,浙商银行,2021-01-07,4.03,4.05,3.99,4.01,4.04,34470109.0,138248105.0,28112691197.84,85287474079.78
sh601916,浙商银行,2021-01-08,4.01,4.02,3.96,4.0,4.01,56790942.0,226209053.0,28042584736.0,85074787112.0
sh601916,浙商银行,2021-01-11,3.99,4.01,3.96,3.96,4.0,50636067.0,201611224.0,27762158888.64,84224039240.87999
sh601916,浙商银行,2021-01-12,3.96,3.96,3.88,3.95,3.96,74414833.0,290521030.0,27692052426.800003,84011352273.1
sh601916,浙商银行,2021-01-13,3.93,4.07,3.9,4.06,3.95,98958723.0,395007829.0,28463223507.04,86350908918.68001
sh601916,浙商银行,2021-01-14,4.02,4.07,4.02,4.03,4.06,30412191.0,122850829.0,28252904121.52,85712848015.34001
sh601916,浙商银行,2021-01-15,4.05,4.12,4.03,4.07,4.03,70771687.0,289505860.0,28533329968.88,86563595886.46
sh601916,浙商银行,2021-01-18,4.05,4.06,4.02,4.04,4.07,35507967.0,143472843.0,28323010583.36,85925534983.12
sh601916,浙商银行,2021-01-19,4.04,4.08,4.01,4.06,4.04,37977020.0,153770171.0,28463223507.04,86350908918.68001
sh601916,浙商银行,2021-01-20,4.06,4.08,4.02,4.04,4.06,30271477.0,122417297.0,28323010583.36,85925534983.12
sh601916,浙商银行,2021-01-21,4.05,4.06,4.02,4.05,4.04,24169466.0,97679004.0,28393117045.2,86138221950.9
sh601916,浙商银行,2021-01-22,4.04,4.04,3.98,3.99,4.05,28660360.0,114655548.0,27972478274.16,84862100144.22
sh601916,浙商银行,2021-01-25,3.99,3.99,3.95,3.98,3.99,25122972.0,99607004.0,27902371812.32,84649413176.44
sh601916,浙商银行,2021-01-26,3.97,4.0,3.95,3.98,3.98,20007099.0,79487283.0,27902371812.32,84649413176.44
sh601916,浙商银行,2021-01-27,3.97,4.01,3.96,3.97,3.98,22324266.0,88890975.0,27832265350.48,84436726208.66
sh601916,浙商银行,2021-01-28,3.95,3.96,3.93,3.94,3.97,20921660.0,82428038.0,27621945964.96,83798665305.31999
sh601916,浙商银行,2021-01-29,3.94,3.96,3.92,3.94,3.94,22897647.0,90226379.0,27621945964.96,83798665305.31999
sh601916,浙商银行,2021-02-01,3.96,3.99,3.94,3.99,3.94,24751999.0,98213758.0,27972478274.16,84862100144.22
sh601916,浙商银行,2021-02-02,3.99,3.99,3.96,3.96,3.99,17709374.0,70359183.0,27762158888.64,84224039240.87999
sh601916,浙商银行,2021-02-03,3.97,3.98,3.93,3.95,3.96,22141087.0,87655809.0,27692052426.800003,84011352273.1
sh601916,浙商银行,2021-02-04,3.95,3.99,3.94,3.96,3.95,28361291.0,112526087.0,27762158888.64,84224039240.87999
sh601916,浙商银行,2021-02-05,3.96,4.06,3.95,4.05,3.96,77687644.0,312613740.0,28393117045.2,86138221950.9
sh601916,浙商银行,2021-02-08,4.05,4.06,3.99,4.02,4.05,39400019.0,158554349.0,28182797659.68,85500161047.56
sh601916,浙商银行,2021-02-09,4.02,4.02,3.99,4.02,4.02,28583222.0,114445677.0,28182797659.68,85500161047.56
sh601916,浙商银行,2021-02-10,4.03,4.06,4.02,4.04,4.02,37605535.0,151901392.0,28323010583.36,85925534983.12
sh601916,浙商银行,2021-02-18,4.06,4.07,4.04,4.06,4.04,42450802.0,172257991.0,28463223507.04,86350908918.68001
sh601916,浙商银行,2021-02-19,4.05,4.08,4.04,4.07,4.06,38660652.0,157327188.0,28533329968.88,86563595886.46
sh601916,浙商银行,2021-02-22,4.07,4.13,4.06,4.08,4.07,57194213.0,233912830.0,28603436430.72,86776282854.23999
sh601916,浙商银行,2021-02-23,4.07,4.11,4.06,4.06,4.08,42153565.0,172131576.0,28463223507.04,86350908918.68001
sh601916,浙商银行,2021-02-24,4.06,4.1,4.06,4.1,4.06,63790939.0,260551471.0,28743649354.4,87201656789.8
sh601916,浙商银行,2021-02-25,4.11,4.12,4.08,4.11,4.1,40695889.0,167096942.0,28813755816.24,87414343757.58
sh601916,浙商银行,2021-02-26,4.08,4.11,4.05,4.11,4.11,64346179.0,262763058.0,28813755816.24,87414343757.58
sh601916,浙商银行,2021-03-01,4.1,4.13,4.08,4.09,4.11,28138375.0,115415319.0,28673542892.56,86988969822.02
sh601916,浙商银行,2021-03-02,4.09,4.13,4.07,4.07,4.09,34876291.0,142769844.0,28533329968.88,86563595886.46
sh601916,浙商银行,2021-03-03,4.07,4.16,4.07,4.15,4.07,77294787.0,319416496.0,29094181663.6,88265091628.7
sh601916,浙商银行,2021-03-04,4.13,4.21,4.13,4.18,4.15,88166546.0,369272251.0,29304501049.12,88903152532.04
sh601916,浙商银行,2021-03-05,4.18,4.21,4.14,4.18,4.18,46163743.0,192636608.0,29304501049.12,88903152532.04
sh601916,浙商银行,2021-03-08,4.18,4.32,4.18,4.21,4.18,71046443.0,301624741.0,29514820434.64,89541213435.37999
sh601916,浙商银行,2021-03-09,4.2,4.24,4.14,4.15,4.21,42514305.0,177588596.0,29094181663.6,88265091628.7
sh601916,浙商银行,2021-03-10,4.15,4.18,4.1,4.1,4.15,34568960.0,142912204.0,28743649354.4,87201656789.8
sh601916,浙商银行,2021-03-11,4.12,4.24,4.11,4.19,4.1,51062912.0,213903044.0,29374607510.96,89115839499.82
sh601916,浙商银行,2021-03-12,4.17,4.22,4.16,4.21,4.19,30790147.0,129232883.0,29514820434.64,89541213435.37999
sh601916,浙商银行,2021-03-15,4.21,4.26,4.19,4.22,4.21,32265195.0,136368803.0,29584926896.48,89753900403.16
sh601916,浙商银行,2021-03-16,4.23,4.25,4.2,4.22,4.22,27918772.0,117818053.0,29584926896.48,89753900403.16
sh601916,浙商银行,2021-03-17,4.22,4.23,4.15,4.17,4.22,33018390.0,137861029.0,29234394587.28,88690465564.26
sh601916,浙商银行,2021-03-18,4.16,4.2,4.16,4.17,4.17,23594000.0,98597038.0,29234394587.28,88690465564.26
sh601916,浙商银行,2021-03-19,4.17,4.19,4.12,4.14,4.17,34000150.0,140974625.0,29024075201.76,88052404660.92
sh601916,浙商银行,2021-03-22,4.14,4.17,4.12,4.16,4.14,33327909.0,138471515.0,29164288125.44,88477778596.48001
sh601916,浙商银行,2021-03-23,4.16,4.18,4.13,4.15,4.16,18096955.0,75042196.0,29094181663.6,88265091628.7
sh601916,浙商银行,2021-03-24,4.15,4.15,4.1,4.1,4.15,26406260.0,108674901.0,28743649354.4,87201656789.8
sh601916,浙商银行,2021-03-25,4.11,4.14,4.08,4.08,4.1,22230923.0,91117051.0,28603436430.72,86776282854.23999
sh601916,浙商银行,2021-03-26,4.09,4.11,4.07,4.09,4.08,16152071.0,66113012.0,28673542892.56,86988969822.02
sh601916,浙商银行,2021-03-29,4.08,4.11,4.06,4.1,4.09,31907582.0,130099221.0,28743649354.4,87201656789.8
sh601916,浙商银行,2021-03-30,4.09,4.11,4.07,4.11,4.1,25257020.0,103190257.0,28813755816.24,87414343757.58
sh601916,浙商银行,2021-03-31,4.06,4.08,4.05,4.07,4.11,36841823.0,149614151.0,28533329968.88,86563595886.46
sh601916,浙商银行,2021-04-01,4.07,4.07,4.01,4.04,4.07,36299656.0,146242077.0,28323010583.36,85925534983.12
sh601916,浙商银行,2021-04-02,4.03,4.04,4.02,4.03,4.04,17760236.0,71536041.0,28252904121.52,85712848015.34001
sh601916,浙商银行,2021-04-06,4.03,4.04,4.01,4.03,4.03,18802709.0,75618470.0,28252904121.52,85712848015.34001
sh601916,浙商银行,2021-04-07,4.01,4.04,4.01,4.04,4.03,18139020.0,72962798.0,28323010583.36,85925534983.12
sh601916,浙商银行,2021-04-08,4.03,4.03,4.01,4.02,4.04,20043068.0,80510732.0,28182797659.68,85500161047.56
sh601916,浙商银行,2021-04-09,4.01,4.02,4.0,4.0,4.02,14210233.0,56891920.0,28042584736.0,85074787112.0
sh601916,浙商银行,2021-04-12,4.0,4.01,3.98,4.0,4.0,23672704.0,94506731.0,28042584736.0,85074787112.0
sh601916,浙商银行,2021-04-13,3.99,4.0,3.97,3.98,4.0,15676780.0,62404564.0,27902371812.32,84649413176.44
sh601916,浙商银行,2021-04-14,3.99,3.99,3.96,3.97,3.98,15236500.0,60550448.0,27832265350.48,84436726208.66
sh601916,浙商银行,2021-04-15,3.97,3.98,3.95,3.96,3.97,15584020.0,61732460.0,27762158888.64,84224039240.87999
sh601916,浙商银行,2021-04-16,3.96,3.99,3.96,3.98,3.96,14113847.0,56117481.0,27902371812.32,84649413176.44
sh601916,浙商银行,2021-04-19,3.98,4.02,3.97,4.01,3.98,21518439.0,86042581.0,28112691197.84,85287474079.78
sh601916,浙商银行,2021-04-20,4.01,4.02,3.99,4.0,4.01,14308200.0,57274717.0,28042584736.0,85074787112.0
sh601916,浙商银行,2021-04-21,4.0,4.01,3.99,4.0,4.0,14315993.0,57304065.0,28042584736.0,85074787112.0
sh601916,浙商银行,2021-04-22,4.0,4.01,3.98,4.0,4.0,15141039.0,60394156.0,28042584736.0,85074787112.0
sh601916,浙商银行,2021-04-23,3.99,4.0,3.97,3.98,4.0,10933798.0,43481011.0,27902371812.32,84649413176.44
sh601916,浙商银行,2021-04-26,3.98,3.99,3.97,3.98,3.98,11616600.0,46231219.0,27902371812.32,84649413176.44
sh601916,浙商银行,2021-04-27,3.97,3.98,3.96,3.97,3.98,10978676.0,43540267.0,27832265350.48,84436726208.66
sh601916,浙商银行,2021-04-28,3.97,3.97,3.96,3.97,3.97,10252577.0,40634295.0,27832265350.48,84436726208.66
sh601916,浙商银行,2021-04-29,3.96,4.0,3.96,3.99,3.97,14180753.0,56540794.0,27972478274.16,84862100144.22
sh601916,浙商银行,2021-04-30,3.97,3.98,3.93,3.95,3.99,32651795.0,129124277.0,27692052426.800003,84011352273.1
sh601916,浙商银行,2021-05-06,3.94,3.98,3.94,3.96,3.95,16328946.0,64637385.0,27762158888.64,84224039240.87999
sh601916,浙商银行,2021-05-07,3.96,3.99,3.95,3.99,3.96,17998933.0,71512408.0,27972478274.16,84862100144.22
sh601916,浙商银行,2021-05-10,3.99,3.99,3.96,3.98,3.99,16802660.0,66689725.0,27902371812.32,84649413176.44
sh601916,浙商银行,2021-05-11,3.98,3.98,3.96,3.98,3.98,12339106.0,49001112.0,27902371812.32,84649413176.44
sh601916,浙商银行,2021-05-12,3.97,3.99,3.95,3.97,3.98,33521647.0,133052111.0,27832265350.48,84436726208.66
sh601916,浙商银行,2021-05-13,3.97,3.97,3.95,3.97,3.97,17669207.0,69978806.0,27832265350.48,84436726208.66
sh601916,浙商银行,2021-05-14,3.97,4.0,3.95,4.0,3.97,46375660.0,184725616.0,28042584736.0,85074787112.0
sh601916,浙商银行,2021-05-17,3.99,4.01,3.98,4.0,4.0,25832407.0,103187181.0,28042584736.0,85074787112.0
sh601916,浙商银行,2021-05-18,3.99,4.0,3.97,3.99,4.0,22702203.0,90534353.0,27972478274.16,84862100144.22
sh601916,浙商银行,2021-05-19,3.99,3.99,3.96,3.97,3.99,13973450.0,55445751.0,27832265350.48,84436726208.66
sh601916,浙商银行,2021-05-20,3.97,3.98,3.95,3.98,3.97,22423633.0,88941544.0,27902371812.32,84649413176.44
sh601916,浙商银行,2021-05-21,3.97,3.98,3.94,3.95,3.98,28926100.0,114476028.0,27692052426.800003,84011352273.1
sh601916,浙商银行,2021-05-24,3.95,3.97,3.95,3.97,3.95,12661378.0,50129382.0,27832265350.48,84436726208.66
sh601916,浙商银行,2021-05-25,3.97,4.0,3.95,4.0,3.97,36229937.0,144425605.0,28042584736.0,85074787112.0
sh601916,浙商银行,2021-05-26,3.99,4.02,3.98,4.0,4.0,33432323.0,133724566.0,28042584736.0,85074787112.0
sh601916,浙商银行,2021-05-27,4.0,4.02,3.98,4.01,4.0,48968778.0,196168172.0,28112691197.84,85287474079.78
sh601916,浙商银行,2021-05-28,4.01,4.06,4.0,4.04,4.01,43113467.0,174148607.0,28323010583.36,85925534983.12
sh601916,浙商银行,2021-05-31,4.03,4.04,4.0,4.02,4.04,24964364.0,100205745.0,28182797659.68,85500161047.56
sh601916,浙商银行,2021-06-01,4.02,4.02,3.99,4.02,4.02,21033896.0,84265039.0,28182797659.68,85500161047.56
sh601916,浙商银行,2021-06-02,4.02,4.02,4.0,4.02,4.02,20552981.0,82360597.0,28182797659.68,85500161047.56
sh601916,浙商银行,2021-06-03,4.02,4.02,4.0,4.0,4.02,16510600.0,66200633.0,28042584736.0,85074787112.0
sh601916,浙商银行,2021-06-04,4.0,4.03,4.0,4.01,4.0,19022733.0,76362459.0,28112691197.84,85287474079.78
sh601916,浙商银行,2021-06-07,4.0,4.02,3.99,4.0,4.01,16112352.0,64446022.0,28042584736.0,85074787112.0
sh601916,浙商银行,2021-06-08,4.0,4.02,3.99,4.01,4.0,22667001.0,90774728.0,28112691197.84,85287474079.78
sh601916,浙商银行,2021-06-09,4.01,4.02,3.99,4.01,4.01,22363448.0,89542003.0,28112691197.84,85287474079.78
sh601916,浙商银行,2021-06-10,4.01,4.02,3.96,3.99,4.01,69516384.0,277720632.0,27972478274.16,84862100144.22
sh601916,浙商银行,2021-06-11,4.01,4.05,4.0,4.0,3.99,91517802.0,367587953.0,28042584736.0,85074787112.0
sh601916,浙商银行,2021-06-15,4.01,4.03,3.97,4.01,4.0,67789761.0,270991216.0,28112691197.84,85287474079.78
sh601916,浙商银行,2021-06-16,4.01,4.05,4.0,4.02,4.01,34932489.0,140727893.0,28182797659.68,85500161047.56
sh601916,浙商银行,2021-06-17,4.02,4.03,4.0,4.0,4.02,17644100.0,70769589.0,28042584736.0,85074787112.0
sh601916,浙商银行,2021-06-18,4.0,4.01,3.99,4.0,4.0,20595314.0,82312213.0,28042584736.0,85074787112.0
sh601916,浙商银行,2021-06-21,4.0,4.0,3.98,3.99,4.0,15128577.0,60414501.0,27972478274.16,84862100144.22
sh601916,浙商银行,2021-06-22,3.99,4.01,3.98,4.0,3.99,17315007.0,69198339.0,28042584736.0,85074787112.0
sh601916,浙商银行,2021-06-23,4.0,4.0,3.98,3.99,4.0,17481247.0,69698948.0,27972478274.16,84862100144.22
sh601916,浙商银行,2021-06-24,3.99,4.0,3.98,3.99,3.99,14232944.0,56728752.0,27972478274.16,84862100144.22
sh601916,浙商银行,2021-06-25,3.98,4.01,3.98,4.01,3.99,19001275.0,75975713.0,28112691197.84,85287474079.78
sh601916,浙商银行,2021-06-28,4.0,4.01,3.97,3.98,4.01,25049514.0,99787678.0,27902371812.32,84649413176.44
sh601916,浙商银行,2021-06-29,3.98,3.99,3.97,3.98,3.98,14442950.0,57465786.0,27902371812.32,84649413176.44
sh601916,浙商银行,2021-06-30,3.98,3.99,3.97,3.97,3.98,12788333.0,50815000.0,27832265350.48,84436726208.66
sh601916,浙商银行,2021-07-01,3.97,3.98,3.97,3.97,3.97,13524464.0,53726296.0,27832265350.48,84436726208.66
sh601916,浙商银行,2021-07-02,3.97,3.98,3.96,3.96,3.97,16913526.0,67087874.0,27762158888.64,84224039240.87999
sh601916,浙商银行,2021-07-05,3.96,3.97,3.95,3.96,3.96,15497827.0,61339579.0,27762158888.64,84224039240.87999
sh601916,浙商银行,2021-07-06,3.96,3.98,3.95,3.97,3.96,15641188.0,62092925.0,27832265350.48,84436726208.66
sh601916,浙商银行,2021-07-07,3.98,3.99,3.95,3.99,3.97,21613839.0,85865335.0,27972478274.16,84862100144.22
sh601916,浙商银行,2021-07-08,3.99,3.99,3.94,3.95,3.99,36793325.0,145598176.0,27692052426.800003,84011352273.1
sh601916,浙商银行,2021-07-09,3.95,3.97,3.94,3.95,3.95,17874678.0,70758436.0,27692052426.800003,84011352273.1
sh601916,浙商银行,2021-07-12,3.97,3.98,3.95,3.95,3.95,15817424.0,62687257.0,27692052426.800003,84011352273.1
sh601916,浙商银行,2021-07-13,3.96,3.99,3.95,3.98,3.95,23234075.0,92331222.0,27902371812.32,84649413176.44
sh601916,浙商银行,2021-07-14,3.99,3.99,3.96,3.97,3.98,18560650.0,73760617.0,27832265350.48,84436726208.66
sh601916,浙商银行,2021-07-15,3.97,3.99,3.97,3.98,3.97,22681348.0,90357201.0,27902371812.32,84649413176.44
sh601916,浙商银行,2021-07-16,3.98,4.0,3.96,3.98,3.98,33647361.0,133741267.0,27902371812.32,84649413176.44
sh601916,浙商银行,2021-07-19,3.97,3.99,3.95,3.96,3.98,25459747.0,100960824.0,27762158888.64,84224039240.87999
sh601916,浙商银行,2021-07-20,3.96,3.97,3.86,3.88,3.96,56703118.0,221416628.0,27201307193.92,82522543498.64
sh601916,浙商银行,2021-07-21,3.88,3.9,3.85,3.87,3.88,23815177.0,92245338.0,27131200732.08,82309856530.86
sh601916,浙商银行,2021-07-22,3.88,3.9,3.87,3.87,3.87,20055405.0,77907855.0,27131200732.08,82309856530.86
sh601916,浙商银行,2021-07-23,3.87,3.88,3.86,3.87,3.87,14842736.0,57439107.0,27131200732.08,82309856530.86
sh601916,浙商银行,2021-07-26,3.88,3.89,3.85,3.85,3.87,31505414.0,121914287.0,26990987808.4,81884482595.3
sh601916,浙商银行,2021-07-27,3.85,3.87,3.83,3.84,3.85,24341038.0,93756640.0,26920881346.56,81671795627.52
sh601916,浙商银行,2021-07-28,3.84,3.85,3.82,3.84,3.84,23678395.0,90723066.0,26920881346.56,81671795627.52
sh601916,浙商银行,2021-07-29,3.84,3.85,3.83,3.85,3.84,24442829.0,93827605.0,26990987808.4,81884482595.3
sh601916,XD浙商银,2021-07-30,3.69,3.69,3.62,3.62,3.69,25180282.0,91681685.0,25378539186.08,76992682336.36
sh601916,浙商银行,2021-08-02,3.62,3.66,3.58,3.64,3.62,24940678.0,90261272.0,25518752109.76,77418056271.92
sh601916,浙商银行,2021-08-03,3.64,3.64,3.61,3.61,3.64,21030035.0,76145693.0,25308432724.24,76779995368.58
sh601916,浙商银行,2021-08-04,3.61,3.61,3.59,3.6,3.61,20934135.0,75359874.0,25238326262.4,76567308400.8
sh601916,浙商银行,2021-08-05,3.59,3.67,3.59,3.65,3.6,34569063.0,125464190.0,25588858571.6,77630743239.7
sh601916,浙商银行,2021-08-06,3.63,3.68,3.59,3.68,3.65,43994224.0,159545119.0,25799177957.120003,78268804143.04001
sh601916,浙商银行,2021-08-09,3.66,3.7,3.64,3.69,3.68,33941338.0,124663976.0,25869284418.96,78481491110.81999
sh601916,浙商银行,2021-08-10,3.66,3.68,3.64,3.66,3.69,24880427.0,90891578.0,25658965033.44,77843430207.48
sh601916,浙商银行,2021-08-11,3.65,3.68,3.64,3.66,3.66,19016618.0,69650452.0,25658965033.44,77843430207.48
sh601916,浙商银行,2021-08-12,3.65,3.66,3.59,3.64,3.66,39429924.0,142936158.0,25518752109.76,77418056271.92
sh601916,浙商银行,2021-08-13,3.62,3.62,3.59,3.6,3.64,31239523.0,112523384.0,25238326262.4,76567308400.8
sh601916,浙商银行,2021-08-16,3.6,3.62,3.58,3.61,3.6,17446379.0,62889577.0,25308432724.24,76779995368.58
sh601916,浙商银行,2021-08-17,3.6,3.62,3.58,3.59,3.61,23770660.0,85553457.0,25168219800.56,76354621433.02
sh601916,浙商银行,2021-08-18,3.59,3.64,3.58,3.63,3.59,34517307.0,124827819.0,25448645647.92,77205369304.14
sh601916,浙商银行,2021-08-19,3.62,3.63,3.59,3.61,3.63,23017448.0,83004868.0,25308432724.24,76779995368.58
sh601916,浙商银行,2021-08-20,3.6,3.61,3.58,3.59,3.61,17206374.0,61812911.0,25168219800.56,76354621433.02
sh601916,浙商银行,2021-08-23,3.59,3.6,3.58,3.59,3.59,16018311.0,57531528.0,25168219800.56,76354621433.02
sh601916,浙商银行,2021-08-24,3.59,3.61,3.55,3.56,3.59,46504057.0,166139042.0,24957900415.04,75716560529.68001
sh601916,浙商银行,2021-08-25,3.56,3.57,3.55,3.56,3.56,27659301.0,98363027.0,24957900415.04,75716560529.68001
sh601916,浙商银行,2021-08-26,3.56,3.56,3.54,3.54,3.56,23266128.0,82541956.0,24817687491.36,75291186594.12001
sh601916,浙商银行,2021-08-27,3.54,3.55,3.53,3.54,3.54,13197400.0,46731827.0,24817687491.36,75291186594.12001
sh601916,浙商银行,2021-08-30,3.54,3.54,3.51,3.51,3.54,21346823.0,75218277.0,24607368105.84,74653125690.78
sh601916,浙商银行,2021-08-31,3.51,3.55,3.5,3.55,3.51,32782306.0,115542739.0,24887793953.2,75503873561.9
sh601916,浙商银行,2021-09-01,3.54,3.58,3.53,3.57,3.55,61525183.0,218738653.0,25028006876.88,75929247497.46
sh601916,浙商银行,2021-09-02,3.55,3.56,3.54,3.55,3.57,41966565.0,148990565.0,24887793953.2,75503873561.9
sh601916,浙商银行,2021-09-03,3.56,3.61,3.55,3.57,3.55,50744300.0,181580107.0,25028006876.88,75929247497.46
sh601916,浙商银行,2021-09-06,3.57,3.59,3.56,3.58,3.57,31046123.0,111120898.0,25098113338.72,76141934465.24
sh601916,浙商银行,2021-09-07,3.58,3.6,3.57,3.59,3.58,35587690.0,127593371.0,25168219800.56,76354621433.02
sh601916,浙商银行,2021-09-08,3.6,3.62,3.59,3.61,3.59,36315963.0,131028059.0,25308432724.24,76779995368.58
sh601916,浙商银行,2021-09-09,3.61,3.61,3.59,3.6,3.61,50022699.0,179948517.0,25238326262.4,76567308400.8
sh601916,浙商银行,2021-09-10,3.6,3.65,3.59,3.62,3.6,64540829.0,233949925.0,25378539186.08,76992682336.36
sh601916,浙商银行,2021-09-13,3.61,3.62,3.59,3.61,3.62,34183708.0,123207169.0,25308432724.24,76779995368.58
sh601916,浙商银行,2021-09-14,3.61,3.62,3.57,3.57,3.61,39218430.0,141053207.0,25028006876.88,75929247497.46
sh601916,浙商银行,2021-09-15,3.57,3.58,3.55,3.56,3.57,25522621.0,90934383.0,24957900415.04,75716560529.68001
sh601916,浙商银行,2021-09-16,3.56,3.58,3.55,3.55,3.56,23775207.0,84673621.0,24887793953.2,75503873561.9
sh601916,浙商银行,2021-09-17,3.55,3.56,3.53,3.55,3.55,26725764.0,94646316.0,24887793953.2,75503873561.9
sh601916,浙商银行,2021-09-22,3.52,3.54,3.5,3.53,3.55,24088412.0,84733270.0,24747581029.52,75078499626.34
sh601916,浙商银行,2021-09-23,3.54,3.57,3.54,3.54,3.53,23142695.0,82112078.0,24817687491.36,75291186594.12001
sh601916,浙商银行,2021-09-24,3.55,3.55,3.52,3.53,3.54,19733298.0,69827598.0,24747581029.52,75078499626.34
sh601916,浙商银行,2021-09-27,3.53,3.54,3.51,3.53,3.53,23869668.0,84097148.0,24747581029.52,75078499626.34
sh601916,浙商银行,2021-09-28,3.54,3.57,3.52,3.55,3.53,32129949.0,113954037.0,24887793953.2,75503873561.9
sh601916,浙商银行,2021-09-29,3.54,3.55,3.52,3.54,3.55,27582800.0,97507754.0,24817687491.36,75291186594.12001
sh601916,浙商银行,2021-09-30,3.54,3.55,3.53,3.55,3.54,16540826.0,58537398.0,24887793953.2,75503873561.9
sh601916,浙商银行,2021-10-08,3.55,3.59,3.54,3.58,3.55,26417621.0,94390391.0,25098113338.72,76141934465.24
sh601916,浙商银行,2021-10-11,3.58,3.62,3.57,3.6,3.58,31580959.0,113764072.0,25238326262.4,76567308400.8
sh601916,浙商银行,2021-10-12,3.59,3.6,3.55,3.57,3.6,34236887.0,122343357.0,25028006876.88,75929247497.46
sh601916,浙商银行,2021-10-13,3.56,3.58,3.53,3.56,3.57,20707681.0,73607278.0,24957900415.04,75716560529.68001
sh601916,浙商银行,2021-10-14,3.55,3.57,3.54,3.55,3.56,11552977.0,41056242.0,24887793953.2,75503873561.9
sh601916,浙商银行,2021-10-15,3.56,3.57,3.54,3.55,3.55,13061460.0,46405241.0,24887793953.2,75503873561.9
sh601916,浙商银行,2021-10-18,3.54,3.55,3.53,3.54,3.55,14216997.0,50274882.0,24817687491.36,75291186594.12001
sh601916,浙商银行,2021-10-19,3.54,3.55,3.53,3.54,3.54,11479993.0,40652846.0,24817687491.36,75291186594.12001
sh601916,浙商银行,2021-10-20,3.54,3.55,3.53,3.53,3.54,9417454.0,33284086.0,24747581029.52,75078499626.34
sh601916,浙商银行,2021-10-21,3.54,3.56,3.53,3.55,3.53,19381453.0,68763096.0,24887793953.2,75503873561.9
sh601916,浙商银行,2021-10-22,3.55,3.57,3.54,3.55,3.55,17540720.0,62353815.0,24887793953.2,75503873561.9
sh601916,浙商银行,2021-10-25,3.55,3.56,3.52,3.54,3.55,16212286.0,57270948.0,24817687491.36,75291186594.12001
sh601916,浙商银行,2021-10-26,3.55,3.55,3.52,3.53,3.54,15909395.0,56206942.0,24747581029.52,75078499626.34
sh601916,浙商银行,2021-10-27,3.53,3.53,3.48,3.48,3.53,25059700.0,87738402.0,24397048720.32,69534446121.84
sh601916,浙商银行,2021-10-28,3.48,3.49,3.45,3.47,3.48,17269100.0,59917271.0,24326942258.48,73802377819.66
sh601916,浙商银行,2021-10-29,3.44,3.45,3.41,3.44,3.47,33936969.0,116403813.0,24116622872.96,73164316916.31999
sh601916,浙商银行,2021-11-01,3.43,3.45,3.42,3.45,3.44,18935456.0,65115947.0,24186729334.800003,73377003884.1
sh601916,浙商银行,2021-11-02,3.43,3.46,3.42,3.43,3.45,19600015.0,67285699.0,24046516411.120003,72951629948.54001
sh601916,浙商银行,2021-11-03,3.43,3.44,3.42,3.43,3.43,7779200.0,26696491.0,24046516411.120003,72951629948.54001
sh601916,浙商银行,2021-11-04,3.43,3.44,3.42,3.43,3.43,10827178.0,37146478.0,24046516411.120003,72951629948.54001
sh601916,浙商银行,2021-11-05,3.43,3.44,3.42,3.42,3.43,10809323.0,37007070.0,23976409949.28,72738942980.76
sh601916,浙商银行,2021-11-08,3.42,3.43,3.4,3.41,3.42,12885397.0,43971148.0,23906303487.44,72526256012.98
sh601916,浙商银行,2021-11-09,3.41,3.42,3.4,3.41,3.41,12616674.0,43050468.0,23906303487.44,72526256012.98
sh601916,浙商银行,2021-11-10,3.41,3.42,3.39,3.41,3.41,15059928.0,51211081.0,23906303487.44,72526256012.98
sh601916,浙商银行,2021-11-11,3.41,3.45,3.4,3.44,3.41,16829062.0,57791134.0,24116622872.96,73164316916.31999
sh601916,浙商银行,2021-11-12,3.44,3.44,3.42,3.43,3.44,10366588.0,35550003.0,24046516411.120003,72951629948.54001
sh601916,浙商银行,2021-11-15,3.43,3.45,3.43,3.45,3.43,8303660.0,28545653.0,24186729334.800003,73377003884.1
sh601916,浙商银行,2021-11-16,3.44,3.46,3.43,3.43,3.45,12574852.0,43270567.0,24046516411.120003,72951629948.54001
sh601916,浙商银行,2021-11-17,3.43,3.44,3.42,3.43,3.43,9934237.0,34111300.0,24046516411.120003,72951629948.54001
sh601916,浙商银行,2021-11-18,3.43,3.44,3.42,3.42,3.43,13278100.0,45554345.0,23976409949.28,72738942980.76
sh601916,浙商银行,2021-11-19,3.42,3.45,3.41,3.44,3.42,15063315.0,51685330.0,24116622872.96,73164316916.31999
sh601916,浙商银行,2021-11-22,3.44,3.45,3.43,3.44,3.44,11889510.0,40887505.0,24116622872.96,73164316916.31999
sh601916,浙商银行,2021-11-23,3.44,3.45,3.44,3.44,3.44,11169386.0,38484674.0,24116622872.96,73164316916.31999
sh601916,浙商银行,2021-11-24,3.45,3.46,3.44,3.46,3.44,14992442.0,51724239.0,24256835796.64,73589690851.88
sh601916,浙商银行,2021-11-25,3.46,3.46,3.44,3.44,3.46,9091245.0,31332384.0,24116622872.96,73164316916.31999
sh601916,浙商银行,2021-11-26,3.45,3.45,3.43,3.44,3.44,12912784.0,44367628.0,24116622872.96,73164316916.31999
sh601916,浙商银行,2021-11-29,3.43,3.44,3.42,3.43,3.44,11103449.0,38056584.0,24046516411.120003,72951629948.54001
sh601916,浙商银行,2021-11-30,3.43,3.45,3.42,3.43,3.43,28747818.0,98730150.0,24046516411.120003,72951629948.54001
sh601916,浙商银行,2021-12-01,3.44,3.45,3.43,3.45,3.43,15799873.0,54402591.0,24186729334.800003,73377003884.1
sh601916,浙商银行,2021-12-02,3.45,3.46,3.44,3.44,3.45,14615422.0,50391563.0,24116622872.96,73164316916.31999
sh601916,浙商银行,2021-12-03,3.44,3.46,3.44,3.45,3.44,17584381.0,60639577.0,24186729334.800003,73377003884.1
sh601916,浙商银行,2021-12-06,3.46,3.48,3.45,3.45,3.45,25665859.0,88888257.0,24186729334.800003,73377003884.1
sh601916,浙商银行,2021-12-07,3.47,3.47,3.45,3.46,3.45,19932381.0,68986174.0,24256835796.64,73589690851.88
sh601916,浙商银行,2021-12-08,3.47,3.47,3.43,3.45,3.46,23104874.0,79626641.0,24186729334.800003,73377003884.1
sh601916,浙商银行,2021-12-09,3.45,3.5,3.44,3.48,3.45,48136817.0,167130531.0,24397048720.320004,74015064787.44
sh601916,浙商银行,2021-12-10,3.47,3.5,3.45,3.5,3.48,56571229.0,196331016.0,24537261644.0,74440438723.0
sh601916,浙商银行,2021-12-13,3.49,3.51,3.47,3.5,3.5,29658784.0,103649052.0,24537261644.0,74440438723.0
sh601916,浙商银行,2021-12-14,3.48,3.5,3.47,3.48,3.5,20510600.0,71463503.0,24397048720.320004,74015064787.44
sh601916,浙商银行,2021-12-15,3.48,3.49,3.47,3.47,3.48,11460925.0,39896903.0,24326942258.48,73802377819.66
sh601916,浙商银行,2021-12-16,3.47,3.49,3.47,3.49,3.47,16738949.0,58303177.0,24467155182.16,74227751755.22
sh601916,浙商银行,2021-12-17,3.49,3.5,3.48,3.49,3.49,21402133.0,74693985.0,24467155182.16,74227751755.22
sh601916,浙商银行,2021-12-20,3.48,3.51,3.48,3.49,3.49,22146479.0,77408899.0,24467155182.16,74227751755.22
sh601916,浙商银行,2021-12-21,3.5,3.56,3.49,3.56,3.49,48765417.0,172205173.0,24957900415.039997,75716560529.68001
sh601916,浙商银行,2021-12-22,3.55,3.56,3.51,3.51,3.56,18760833.0,66221476.0,24607368105.84,74653125690.78
sh601916,浙商银行,2021-12-23,3.52,3.53,3.51,3.51,3.51,11822273.0,41576495.0,24607368105.84,74653125690.78
sh601916,浙商银行,2021-12-24,3.51,3.52,3.49,3.5,3.51,13683482.0,47942466.0,24537261644.0,74440438723.0
sh601916,浙商银行,2021-12-27,3.5,3.51,3.49,3.5,3.5,12309825.0,43081775.0,24537261644.0,74440438723.0
sh601916,浙商银行,2021-12-28,3.49,3.51,3.49,3.5,3.5,17067827.0,59705165.0,24537261644.0,74440438723.0
sh601916,浙商银行,2021-12-29,3.5,3.5,3.48,3.49,3.5,10967300.0,38290532.0,24467155182.16,74227751755.22
sh601916,浙商银行,2021-12-30,3.49,3.51,3.48,3.49,3.49,11585105.0,40505763.0,24467155182.16,74227751755.22
sh601916,浙商银行,2021-12-31,3.5,3.51,3.49,3.5,3.49,12772715.0,44749405.0,24537261644.0,74440438723.0
sh601916,浙商银行,2022-01-04,3.5,3.52,3.48,3.51,3.5,29811121.0,104324571.0,24607368105.84,74653125690.78
sh601916,浙商银行,2022-01-05,3.51,3.53,3.5,3.52,3.51,30068358.0,105847192.0,24677474567.68,74865812658.56
sh601916,浙商银行,2022-01-06,3.53,3.53,3.5,3.5,3.52,22615912.0,79469936.0,24537261644.0,74440438723.0
sh601916,浙商银行,2022-01-07,3.51,3.55,3.5,3.53,3.5,30982797.0,109318334.0,24747581029.52,75078499626.34
sh601916,浙商银行,2022-01-10,3.53,3.56,3.53,3.55,3.53,28626809.0,101468653.0,24887793953.2,75503873561.9
sh601916,浙商银行,2022-01-11,3.54,3.58,3.54,3.54,3.55,35980898.0,127966870.0,24817687491.36,75291186594.12001
sh601916,浙商银行,2022-01-12,3.57,3.58,3.55,3.56,3.54,36909235.0,131549088.0,24957900415.039997,75716560529.68001
sh601916,浙商银行,2022-01-13,3.57,3.59,3.55,3.56,3.56,31661757.0,113059520.0,24957900415.039997,75716560529.68001
sh601916,浙商银行,2022-01-14,3.56,3.56,3.51,3.52,3.56,34616907.0,122108869.0,24677474567.68,74865812658.56
