数据由邢不行整理
股票代码,股票名称,交易日期,开盘价,最高价,最低价,收盘价,前收盘价,成交量,成交额,流通市值,总市值
sh601399,ST国重装,2020-06-08,6.0,9.59,6.0,6.15,3.32,143877232.0,1031993025.0,3035502928.8,44699821533.6
sh601399,ST国重装,2020-06-09,5.84,5.84,5.84,5.84,6.15,3828200.0,22356688.0,2882493838.08,42446659797.76
sh601399,ST国重装,2020-06-10,5.55,5.55,5.55,5.55,5.84,741500.0,4115325.0,2739356301.6,40338863335.2
sh601399,ST国重装,2020-06-11,5.27,5.27,5.27,5.27,5.55,564200.0,2973334.0,2601154542.24,38303749509.28
sh601399,ST国重装,2020-06-12,5.01,5.01,5.01,5.01,5.27,1524500.0,7637745.0,2472824337.12,36414000956.64
sh601399,ST国重装,2020-06-15,4.76,5.0,4.76,4.76,5.01,80614550.0,386646430.0,2349429909.12,34596935040.64
sh601399,ST国重装,2020-06-16,4.6,4.64,4.52,4.52,4.76,59924635.0,272363218.0,2230971258.24,32852551761.28
sh601399,ST国重装,2020-06-17,4.54,4.67,4.5,4.56,4.52,42115010.0,193165944.0,2250714366.7200003,33143282307.84
sh601399,ST国重装,2020-06-18,4.45,4.48,4.34,4.35,4.56,44199324.0,194069207.0,2147063047.2,31616946938.4
sh601399,ST国重装,2020-06-19,4.37,4.57,4.33,4.57,4.35,32668623.0,145175882.0,2255650143.84,33215964944.48
sh601399,ST国重装,2020-06-22,4.78,4.78,4.49,4.49,4.57,51462509.0,238488245.0,2216163926.88,32634503851.36
sh601399,ST国重装,2020-06-23,4.36,4.71,4.36,4.66,4.49,50797432.0,233660802.0,2300072137.92,33870108674.24
sh601399,ST国重装,2020-06-24,4.59,4.74,4.57,4.6,4.66,28746300.0,133481519.0,2270457475.2,33434012854.4
sh601399,ST国重装,2020-06-29,4.56,4.71,4.44,4.63,4.6,24957981.0,114624516.0,2285264806.56,33652060764.32
sh601399,ST国重装,2020-06-30,4.64,4.86,4.59,4.86,4.63,36552555.0,176036587.0,2398787680.32,35323761407.04
sh601399,ST国重装,2020-07-01,4.94,5.1,4.88,5.1,4.86,18598121.0,93787662.0,2517246331.2000003,37068144686.4
sh601399,ST国重装,2020-07-02,5.31,5.36,5.25,5.36,5.1,10864234.0,57757396.0,2645576536.32,38957893239.04
sh601399,ST国重装,2020-07-03,5.58,5.63,5.09,5.18,5.36,68788943.0,362509200.0,2556732548.16,37649605779.52
sh601399,ST国重装,2020-07-06,5.18,5.38,5.07,5.19,5.18,44111441.0,229763595.0,2561668325.28,37722288416.16
sh601399,ST国重装,2020-07-07,5.2,5.22,5.05,5.1,5.19,38577784.0,197206568.0,2517246331.2000003,37068144686.4
sh601399,ST国重装,2020-07-08,5.1,5.36,5.06,5.36,5.1,27258378.0,143283306.0,2645576536.32,38957893239.04
sh601399,ST国重装,2020-07-09,5.5,5.58,5.28,5.39,5.36,47891148.0,259362969.0,2660383867.6800003,39175941148.96
sh601399,ST国重装,2020-07-10,5.38,5.45,5.29,5.34,5.39,23637775.0,126652335.0,2635704982.08,38812527965.76
sh601399,ST国重装,2020-07-13,5.35,5.6,5.35,5.5,5.34,30039867.0,165016890.0,2714677416.0,39975450152.0
sh601399,ST国重装,2020-07-14,5.5,5.78,5.42,5.78,5.5,43379916.0,244966261.0,2852879175.36,42010563977.920006
sh601399,ST国重装,2020-07-15,5.81,6.07,5.68,5.7,5.78,53908713.0,318914078.0,2813392958.4,41429102884.8
sh601399,ST国重装,2020-07-16,5.61,5.65,5.42,5.42,5.7,32838302.0,180371985.0,2675191199.0400004,39393989058.88
sh601399,ST国重装,2020-07-17,5.33,5.36,5.16,5.22,5.42,24840037.0,130414132.0,2576475656.64,37940336326.08
sh601399,ST国重装,2020-07-20,5.26,5.38,5.22,5.37,5.22,18209937.0,96796271.0,2650512313.44,39030575875.68
sh601399,ST国重装,2020-07-21,5.35,5.38,5.23,5.25,5.37,18105947.0,95600941.0,2591282988.0,38158384236.0
sh601399,ST国重装,2020-07-22,5.22,5.3,5.19,5.21,5.25,16538036.0,86709760.0,2571539879.52,37867653689.44
sh601399,ST国重装,2020-07-23,5.15,5.18,4.95,5.01,5.21,27116128.0,136488788.0,2472824337.12,36414000956.64
sh601399,ST国重装,2020-07-24,4.97,5.13,4.81,4.87,5.01,21055230.0,104839459.0,2403723457.44,35396444043.68
sh601399,ST国重装,2020-07-27,4.88,5.11,4.83,5.11,4.87,15797785.0,78694575.0,2522182108.32,37140827323.04
sh601399,ST国重装,2020-07-28,5.18,5.32,5.09,5.23,5.11,24149645.0,125516512.0,2581411433.76,38013018962.72
sh601399,ST国重装,2020-07-29,5.17,5.27,5.14,5.25,5.23,14899696.0,77841159.0,2591282988.0,38158384236.0
sh601399,ST国重装,2020-07-30,5.26,5.4,5.19,5.19,5.25,17297707.0,91524946.0,2561668325.28,37722288416.16
sh601399,ST国重装,2020-07-31,5.12,5.23,5.07,5.15,5.19,17348401.0,89220542.0,2541925216.8,37431557869.6
sh601399,ST国重装,2020-08-03,5.14,5.24,5.13,5.19,5.15,14993636.0,77683241.0,2561668325.28,37722288416.16
sh601399,ST国重装,2020-08-04,5.2,5.22,5.08,5.09,5.19,15100023.0,77428648.0,2512310554.08,36995462049.76
sh601399,ST国重装,2020-08-05,5.05,5.3,5.03,5.19,5.09,18084787.0,93433703.0,2561668325.28,37722288416.16
sh601399,ST国重装,2020-08-06,5.15,5.18,5.09,5.13,5.19,11542087.0,59130006.0,2532053662.56,37286192596.32
sh601399,ST国重装,2020-08-07,5.13,5.16,5.03,5.07,5.13,11123241.0,56478108.0,2502438999.84,36850096776.48
sh601399,ST国重装,2020-08-10,5.07,5.21,5.03,5.11,5.07,11101868.0,56936439.0,2522182108.32,37140827323.04
sh601399,ST国重装,2020-08-11,5.12,5.29,5.09,5.19,5.11,19010253.0,98453958.0,2561668325.28,37722288416.16
sh601399,ST国重装,2020-08-12,5.13,5.45,5.11,5.45,5.19,34436793.0,182952631.0,2689998530.4,39612036968.8
sh601399,ST国重装,2020-08-13,5.37,5.46,5.27,5.3,5.45,24317373.0,130706979.0,2615961873.6,38521797419.2
sh601399,ST国重装,2020-08-14,5.32,5.48,5.27,5.38,5.3,17091641.0,91640836.0,2655448090.5600004,39103258512.32
sh601399,ST国重装,2020-08-17,5.33,5.46,5.33,5.38,5.38,17194708.0,92487014.0,2655448090.5600004,39103258512.32
sh601399,ST国重装,2020-08-18,5.39,5.44,5.3,5.32,5.38,14617127.0,78280863.0,2625833427.84,38667162692.48
sh601399,ST国重装,2020-08-19,5.3,5.3,5.16,5.17,5.32,16335676.0,85292270.0,2551796771.04,37576923142.880005
sh601399,ST国重装,2020-08-20,5.12,5.21,5.11,5.14,5.17,9085660.0,46821316.0,2536989439.6800003,37358875232.96
sh601399,ST国重装,2020-08-21,5.14,5.2,5.14,5.16,5.14,7311534.0,37788395.0,2546860993.92,37504240506.24
sh601399,ST国重装,2020-08-24,5.19,5.37,5.15,5.25,5.16,13108073.0,68923070.0,2591282988.0,38158384236.0
sh601399,ST国重装,2020-08-25,5.24,5.29,5.16,5.18,5.25,11826842.0,61540485.0,2556732548.16,37649605779.52
sh601399,ST国重装,2020-08-26,4.96,5.09,4.92,4.92,5.18,24194739.0,119993334.0,2428402343.04,35759857226.880005
sh601399,ST国重装,2020-08-27,4.88,4.88,4.67,4.7,4.92,20069932.0,95065289.0,2319815246.4,34160839220.8
sh601399,ST国重装,2020-08-28,4.68,4.81,4.67,4.77,4.7,10825919.0,51288971.0,2354365686.24,34669617677.28
sh601399,ST国重装,2020-08-31,4.77,4.79,4.73,4.74,4.77,8560326.0,40724899.0,2339558354.88,34451569767.36
sh601399,ST国重装,2020-09-01,4.74,4.74,4.56,4.62,4.74,13897454.0,64428725.0,2280329029.44,33579378127.68
sh601399,ST国重装,2020-09-02,4.63,4.64,4.49,4.51,4.62,15936446.0,72299541.0,2226035481.12,32779869124.64
sh601399,ST国重装,2020-09-03,4.52,4.64,4.48,4.6,4.51,12444396.0,56877570.0,2270457475.2,33434012854.4
sh601399,ST国重装,2020-09-04,4.52,4.58,4.5,4.58,4.6,7964603.0,36180402.0,2260585920.96,33288647581.12
sh601399,ST国重装,2020-09-07,4.56,4.76,4.53,4.64,4.58,12749019.0,59168478.0,2290200583.68,33724743400.960003
sh601399,ST国重装,2020-09-08,4.63,4.65,4.56,4.61,4.64,8870429.0,40825772.0,2275393252.32,33506695491.04
sh601399,ST国重装,2020-09-09,4.56,4.59,4.46,4.48,4.61,11471841.0,51800385.0,2211228149.76,32561821214.72
sh601399,ST国重装,2020-09-10,4.5,4.53,4.36,4.4,4.48,10519231.0,46705561.0,2171741932.8,31980360121.6
sh601399,ST国重装,2020-09-11,4.36,4.47,4.34,4.44,4.4,7916083.0,34895766.0,2191485041.28,32271090668.16
sh601399,ST国重装,2020-09-14,4.45,4.47,4.4,4.41,4.44,6574188.0,29135159.0,2176677709.92,32053042758.24
sh601399,ST国重装,2020-09-15,4.41,4.47,4.41,4.42,4.41,5559857.0,24637946.0,2181613487.04,32125725394.88
sh601399,ST国重装,2020-09-16,4.42,4.53,4.41,4.49,4.42,9750853.0,43717474.0,2216163926.88,32634503851.36
sh601399,ST国重装,2020-09-17,4.49,4.52,4.46,4.48,4.49,6589043.0,29499961.0,2211228149.76,32561821214.72
sh601399,ST国重装,2020-09-18,4.49,4.5,4.45,4.49,4.48,5679592.0,25445183.0,2216163926.88,32634503851.36
sh601399,ST国重装,2020-09-21,4.5,4.5,4.43,4.44,4.49,6855347.0,30590732.0,2191485041.28,32271090668.16
sh601399,ST国重装,2020-09-22,4.41,4.41,4.34,4.35,4.44,7670620.0,33556687.0,2147063047.2,31616946938.4
sh601399,ST国重装,2020-09-23,4.37,4.37,4.34,4.36,4.35,4262535.0,18572563.0,2151998824.32,31689629575.04
sh601399,ST国重装,2020-09-24,4.34,4.34,4.14,4.14,4.36,17196664.0,72101761.0,2043411727.68,30090611568.96
sh601399,ST国重装,2020-09-25,4.12,4.17,3.98,3.99,4.14,13985108.0,56395332.0,1969375070.88,29000372019.36
sh601399,ST国重装,2020-09-28,4.01,4.01,3.8,3.82,3.99,11284093.0,43906126.0,1885466859.84,27764767196.48
sh601399,ST国重装,2020-09-29,3.8,3.93,3.79,3.85,3.82,7942154.0,30588618.0,1900274191.2,27982815106.4
sh601399,ST国重装,2020-09-30,3.85,3.86,3.81,3.82,3.85,4729428.0,18132370.0,1885466859.84,27764767196.48
sh601399,ST国重装,2020-10-09,3.84,3.93,3.84,3.91,3.82,5283494.0,20575852.0,1929888853.92,28418910926.24
sh601399,ST国重装,2020-10-12,3.92,3.98,3.89,3.95,3.91,7907625.0,31187712.0,1949631962.4,28709641472.800003
sh601399,ST国重装,2020-10-13,3.95,3.95,3.89,3.91,3.95,6618000.0,25897421.0,1929888853.92,28418910926.24
sh601399,ST国重装,2020-10-14,3.91,4.04,3.91,3.96,3.91,8249069.0,32846516.0,1954567739.52,28782324109.44
sh601399,ST国重装,2020-10-15,3.95,3.96,3.89,3.91,3.96,5688509.0,22271993.0,1929888853.92,28418910926.24
sh601399,ST国重装,2020-10-16,3.9,3.94,3.87,3.9,3.91,3884180.0,15156338.0,1924953076.8,28346228289.6
sh601399,ST国重装,2020-10-19,3.91,3.95,3.9,3.93,3.9,5046821.0,19795430.0,1939760408.16,28564276199.52
sh601399,ST国重装,2020-10-20,3.91,3.93,3.89,3.92,3.93,4189952.0,16370115.0,1934824631.04,28491593562.88
sh601399,ST国重装,2020-10-21,3.92,3.93,3.84,3.85,3.92,5181061.0,20068855.0,1900274191.2,27982815106.4
sh601399,ST国重装,2020-10-22,3.84,3.84,3.8,3.81,3.85,5318769.0,20260253.0,1880531082.72,27692084559.84
sh601399,ST国重装,2020-10-23,3.81,3.85,3.79,3.82,3.81,5067777.0,19349211.0,1885466859.84,27764767196.48
sh601399,ST国重装,2020-10-26,3.85,4.01,3.82,4.01,3.82,9108492.0,36239584.0,1979246625.12,29145737292.64
sh601399,ST国重装,2020-10-27,4.05,4.14,3.94,3.94,4.01,17691674.0,71463041.0,1944696185.28,28636958836.16
sh601399,ST国重装,2020-10-28,3.96,4.09,3.94,4.01,3.94,14118984.0,56588024.0,1979246625.12,29145737292.64
sh601399,ST国重装,2020-10-29,3.96,3.97,3.91,3.93,4.01,8468123.0,33298655.0,1939760408.16,28564276199.52
sh601399,ST国重装,2020-10-30,3.93,3.98,3.88,3.91,3.93,8735141.0,34228867.0,1929888853.92,28418910926.24
sh601399,ST国重装,2020-11-02,3.9,3.96,3.84,3.85,3.91,6910040.0,26810406.0,1900274191.2,27982815106.4
sh601399,ST国重装,2020-11-03,3.87,3.92,3.82,3.92,3.85,6120536.0,23720156.0,1934824631.04,28491593562.88
sh601399,ST国重装,2020-11-04,3.92,3.97,3.87,3.9,3.92,5550323.0,21714205.0,1924953076.8,28346228289.6
sh601399,ST国重装,2020-11-05,3.93,4.06,3.93,4.0,3.9,13447304.0,53673589.0,1974310848.0,29073054656.000004
sh601399,ST国重装,2020-11-06,3.97,4.09,3.96,4.0,4.0,14929762.0,60001242.0,1974310848.0,29073054656.000004
sh601399,ST国重装,2020-11-09,4.0,4.08,4.0,4.02,4.0,16136641.0,65018006.0,1984182402.24,29218419929.280003
sh601399,ST国重装,2020-11-10,4.02,4.03,3.97,3.98,4.02,10133980.0,40459677.0,1964439293.76,28927689382.72
sh601399,ST国重装,2020-11-11,3.97,4.02,3.94,3.99,3.98,9244400.0,36721249.0,1969375070.88,29000372019.36
sh601399,ST国重装,2020-11-12,4.01,4.17,3.98,4.09,3.99,26747629.0,109415582.0,2018732842.08,29727198385.76
sh601399,ST国重装,2020-11-13,4.07,4.27,4.06,4.18,4.09,26169950.0,108966837.0,2063154836.16,30381342115.52
sh601399,ST国重装,2020-11-16,4.18,4.28,4.14,4.16,4.18,19179256.0,80451983.0,2053283281.92,30235976842.24
sh601399,ST国重装,2020-11-17,4.14,4.15,4.04,4.07,4.16,16961017.0,69228825.0,2008861287.84,29581833112.48
sh601399,ST国重装,2020-11-18,4.06,4.15,4.03,4.1,4.07,11133502.0,45577416.0,2023668619.2,29799881022.4
sh601399,ST国重装,2020-11-19,4.12,4.12,4.06,4.06,4.1,9629182.0,39263029.0,2003925510.72,29509150475.84
sh601399,ST国重装,2020-11-20,4.08,4.08,4.02,4.07,4.06,9265100.0,37504256.0,2008861287.84,29581833112.48
sh601399,ST国重装,2020-11-23,4.07,4.11,4.04,4.09,4.07,10081793.0,41094312.0,2018732842.08,29727198385.76
sh601399,ST国重装,2020-11-24,4.08,4.11,4.06,4.06,4.09,7632240.0,31071255.0,2003925510.72,29509150475.84
sh601399,ST国重装,2020-11-25,4.07,4.08,4.02,4.03,4.06,8574940.0,34683364.0,1989118179.36,29291102565.92
sh601399,ST国重装,2020-11-26,4.02,4.11,4.0,4.07,4.03,9941440.0,40214015.0,2008861287.84,29581833112.48
sh601399,ST国重装,2020-11-27,4.06,4.09,4.03,4.07,4.07,7373852.0,29946561.0,2008861287.84,29581833112.48
sh601399,ST国重装,2020-11-30,4.07,4.15,4.07,4.1,4.07,12412920.0,51039488.0,2023668619.2,29799881022.4
sh601399,ST国重装,2020-12-01,4.09,4.13,4.08,4.1,4.1,10055222.0,41264839.0,2023668619.2,29799881022.4
sh601399,ST国重装,2020-12-02,4.1,4.13,4.07,4.11,4.1,9980202.0,40887477.0,2028604396.32,29872563659.04
sh601399,ST国重装,2020-12-03,4.11,4.11,4.05,4.06,4.11,8482080.0,34643733.0,2003925510.72,29509150475.84
sh601399,ST国重装,2020-12-04,4.05,4.09,4.04,4.05,4.06,7820100.0,31752722.0,1998989733.6,29436467839.2
sh601399,ST国重装,2020-12-07,4.05,4.05,3.97,3.97,4.05,12331302.0,49459760.0,1959503516.64,28855006746.08
sh601399,ST国重装,2020-12-08,3.97,4.0,3.95,3.97,3.97,6072800.0,24105749.0,1959503516.64,28855006746.08
sh601399,ST国重装,2020-12-09,3.99,4.02,3.94,3.95,3.97,6732629.0,26800535.0,1949631962.4,28709641472.800003
sh601399,ST国重装,2020-12-10,3.95,3.95,3.89,3.91,3.95,6749861.0,26416009.0,1929888853.92,28418910926.24
sh601399,ST国重装,2020-12-11,3.91,3.95,3.81,3.86,3.91,9829166.0,38042382.0,1905209968.32,28055497743.04
sh601399,ST国重装,2020-12-14,3.86,3.89,3.83,3.87,3.86,5093358.0,19665455.0,1910145745.44,28128180379.68
sh601399,ST国重装,2020-12-15,3.88,3.99,3.86,3.92,3.87,8219373.0,32277841.0,1934824631.04,28491593562.88
sh601399,ST国重装,2020-12-16,3.9,3.92,3.81,3.83,3.92,8331599.0,32121275.0,1890402636.96,27837449833.12
sh601399,ST国重装,2020-12-17,3.82,3.84,3.64,3.73,3.83,15112021.0,56015779.0,1841044865.76,27110623466.72
sh601399,ST国重装,2020-12-18,3.73,3.82,3.72,3.76,3.73,6451322.0,24292378.0,1855852197.12,27328671376.64
sh601399,ST国重装,2020-12-21,3.75,3.8,3.73,3.78,3.76,5443881.0,20525144.0,1865723751.36,27474036649.92
sh601399,ST国重装,2020-12-22,3.76,3.83,3.74,3.76,3.78,7096039.0,26821870.0,1855852197.12,27328671376.64
sh601399,ST国重装,2020-12-23,3.74,3.79,3.74,3.76,3.76,5112440.0,19199255.0,1855852197.12,27328671376.64
sh601399,ST国重装,2020-12-24,3.76,3.77,3.7,3.7,3.76,6878448.0,25646035.0,1826237534.4,26892575556.800003
sh601399,ST国重装,2020-12-25,3.77,3.89,3.76,3.89,3.7,5806915.0,22363126.0,1920017299.68,28273545652.96
sh601399,ST国重装,2020-12-28,3.95,3.99,3.85,3.86,3.89,14019997.0,54782745.0,1905209968.32,28055497743.04
sh601399,ST国重装,2020-12-29,3.84,3.87,3.8,3.82,3.86,8298961.0,31709874.0,1885466859.84,27764767196.48
sh601399,ST国重装,2020-12-30,3.81,3.84,3.8,3.8,3.82,5246203.0,20010422.0,1875595305.6,27619401923.2
sh601399,ST国重装,2020-12-31,3.81,3.99,3.81,3.99,3.8,20039855.0,79239721.0,1969375070.88,29000372019.36
sh601399,ST国重装,2021-01-04,3.91,4.01,3.9,3.96,3.99,17603376.0,69660922.0,1954567739.52,28782324109.44
sh601399,ST国重装,2021-01-05,3.94,4.0,3.89,3.89,3.96,13101388.0,51600855.0,1920017299.68,28273545652.96
sh601399,ST国重装,2021-01-06,3.89,3.95,3.86,3.91,3.89,9399713.0,36670890.0,1929888853.92,28418910926.24
sh601399,ST国重装,2021-01-07,3.9,3.91,3.72,3.76,3.91,14521385.0,55314645.0,1855852197.12,27328671376.64
sh601399,ST国重装,2021-01-08,3.78,3.86,3.65,3.81,3.76,8728926.0,32749143.0,1880531082.72,27692084559.84
sh601399,ST国重装,2021-01-11,3.81,3.84,3.7,3.72,3.81,7758289.0,29241434.0,1836109088.64,27037940830.08
sh601399,ST国重装,2021-01-12,3.72,3.76,3.7,3.75,3.72,4588945.0,17108990.0,1850916420.0,27255988740.0
sh601399,ST国重装,2021-01-13,3.76,3.77,3.66,3.69,3.75,7461860.0,27570521.0,1821301757.28,26819892920.16
sh601399,ST国重装,2021-01-14,3.67,3.73,3.62,3.68,3.69,6719364.0,24662992.0,1816365980.16,26747210283.52
sh601399,ST国重装,2021-01-15,3.69,3.75,3.67,3.73,3.68,5234701.0,19467687.0,1841044865.76,27110623466.72
sh601399,ST国重装,2021-01-18,3.72,3.79,3.7,3.72,3.73,8311097.0,31020970.0,1836109088.64,27037940830.08
sh601399,ST国重装,2021-01-19,3.72,3.75,3.69,3.73,3.72,5616996.0,20893608.0,1841044865.76,27110623466.72
sh601399,ST国重装,2021-01-20,3.72,3.73,3.68,3.68,3.73,6208270.0,22952806.0,1816365980.16,26747210283.52
sh601399,ST国重装,2021-01-21,3.7,3.73,3.66,3.7,3.68,6344099.0,23443479.0,1826237534.4,26892575556.800003
sh601399,ST国重装,2021-01-22,3.69,3.71,3.66,3.66,3.7,5413464.0,19904123.0,1806494425.92,26601845010.24
sh601399,ST国重装,2021-01-25,3.66,3.71,3.64,3.66,3.66,6708532.0,24637339.0,1806494425.92,26601845010.24
sh601399,ST国重装,2021-01-26,3.65,3.66,3.58,3.59,3.66,7535374.0,27248600.0,1771943986.08,26093066553.76
sh601399,ST国重装,2021-01-27,3.59,3.61,3.43,3.45,3.59,10804433.0,37817573.0,1702843106.4,25075509640.8
sh601399,ST国重装,2021-01-28,3.4,3.44,3.37,3.38,3.45,8651427.0,29364263.0,1668292666.56,24566731184.32
sh601399,ST国重装,2021-01-29,3.4,3.41,3.23,3.35,3.38,8420005.0,28213105.0,1653485335.2,24348683274.4
sh601399,ST国重装,2021-02-01,3.36,3.38,3.3,3.34,3.35,5016691.0,16743514.0,1648549558.08,24276000637.76
sh601399,ST国重装,2021-02-02,3.35,3.51,3.32,3.51,3.34,14072865.0,49010493.0,1732457769.12,25511605460.64
sh601399,ST国重装,2021-02-03,3.46,3.48,3.39,3.39,3.51,9320500.0,31965391.0,1673228443.6799998,24639413820.96
sh601399,ST国重装,2021-02-04,3.36,3.4,3.31,3.32,3.39,5941140.0,19880862.0,1638678003.84,24130635364.48
sh601399,ST国重装,2021-02-05,3.32,3.49,3.32,3.48,3.32,12331657.0,42294783.0,1717650437.76,25293557550.72
sh601399,ST国重装,2021-02-08,3.45,3.56,3.44,3.47,3.48,8699578.0,30423593.0,1712714660.64,25220874914.08
sh601399,ST国重装,2021-02-09,3.46,3.52,3.45,3.46,3.47,6036520.0,21020293.0,1707778883.52,25148192277.44
sh601399,ST国重装,2021-02-10,3.47,3.54,3.47,3.51,3.46,4643195.0,16273529.0,1732457769.12,25511605460.64
sh601399,ST国重装,2021-02-18,3.54,3.68,3.52,3.6,3.51,7711079.0,27775407.0,1776879763.1999998,26165749190.4
sh601399,ST国重装,2021-02-19,3.6,3.66,3.56,3.65,3.6,6679337.0,24195273.0,1801558648.8,26529162373.6
sh601399,ST国重装,2021-02-22,3.68,3.77,3.63,3.65,3.65,10855300.0,40132533.0,1801558648.8,26529162373.6
sh601399,ST国重装,2021-02-23,3.65,3.65,3.57,3.58,3.65,7465168.0,26865799.0,1767008208.9599998,26020383917.120003
sh601399,ST国重装,2021-02-24,3.57,3.63,3.55,3.59,3.58,5206900.0,18676769.0,1771943986.08,26093066553.76
sh601399,ST国重装,2021-02-25,3.62,3.72,3.58,3.64,3.59,9944014.0,36355406.0,1796622871.68,26456479736.96
sh601399,ST国重装,2021-02-26,3.61,3.7,3.58,3.69,3.64,6871916.0,24996926.0,1821301757.28,26819892920.16
sh601399,ST国重装,2021-03-01,3.68,3.87,3.67,3.84,3.69,14857670.0,56415429.0,1895338414.08,27910132469.76
sh601399,ST国重装,2021-03-02,3.82,3.86,3.78,3.79,3.84,7771241.0,29610176.0,1870659528.48,27546719286.56
sh601399,ST国重装,2021-03-03,3.79,3.95,3.79,3.93,3.79,11368399.0,44275359.0,1939760408.16,28564276199.52
sh601399,ST国重装,2021-03-04,3.91,3.98,3.87,3.89,3.93,7736311.0,30255669.0,1920017299.68,28273545652.96
sh601399,ST国重装,2021-03-05,3.89,3.98,3.87,3.93,3.89,9381498.0,36932484.0,1939760408.16,28564276199.52
sh601399,ST国重装,2021-03-08,3.93,3.97,3.77,3.79,3.93,13053837.0,50599414.0,1870659528.48,27546719286.56
sh601399,ST国重装,2021-03-09,3.79,3.88,3.66,3.76,3.79,11450641.0,43305960.0,1855852197.12,27328671376.64
sh601399,ST国重装,2021-03-10,3.79,3.8,3.73,3.74,3.76,5239624.0,19677077.0,1845980642.88,27183306103.36
sh601399,ST国重装,2021-03-11,3.74,3.79,3.73,3.77,3.74,4830229.0,18151263.0,1860787974.24,27401354013.28
sh601399,ST国重装,2021-03-12,3.77,3.83,3.73,3.8,3.77,5721742.0,21643175.0,1875595305.6,27619401923.2
sh601399,ST国重装,2021-03-15,3.82,3.91,3.79,3.86,3.8,6867801.0,26533567.0,1905209968.32,28055497743.04
sh601399,ST国重装,2021-03-16,3.89,3.94,3.86,3.9,3.86,5585408.0,21769848.0,1924953076.8,28346228289.6
sh601399,ST国重装,2021-03-17,3.92,3.92,3.87,3.89,3.9,5614116.0,21811534.0,1920017299.68,28273545652.96
sh601399,ST国重装,2021-03-18,3.9,3.94,3.88,3.9,3.89,5974960.0,23371302.0,1924953076.8,28346228289.6
sh601399,ST国重装,2021-03-19,3.89,4.09,3.88,3.97,3.9,15179520.0,60741309.0,1959503516.64,28855006746.08
sh601399,ST国重装,2021-03-22,3.95,4.04,3.94,3.98,3.97,10950041.0,43703080.0,1964439293.76,28927689382.72
sh601399,ST国重装,2021-03-23,3.98,3.99,3.95,3.96,3.98,6647127.0,26371394.0,1954567739.52,28782324109.44
sh601399,ST国重装,2021-03-24,3.98,4.05,3.96,4.0,3.96,8684762.0,34698402.0,1974310848.0,29073054656.000004
sh601399,ST国重装,2021-03-25,3.99,3.99,3.92,3.93,4.0,6936445.0,27402360.0,1939760408.16,28564276199.52
sh601399,ST国重装,2021-03-26,3.93,4.0,3.93,3.96,3.93,5395416.0,21409981.0,1954567739.52,28782324109.44
sh601399,ST国重装,2021-03-29,3.97,4.02,3.95,4.0,3.96,7340103.0,29274684.0,1974310848.0,29073054656.000004
sh601399,ST国重装,2021-03-30,3.99,4.02,3.96,3.97,4.0,6227502.0,24839427.0,1959503516.64,28855006746.08
sh601399,ST国重装,2021-03-31,3.95,3.98,3.93,3.97,3.97,5352021.0,21179054.0,1959503516.64,28855006746.08
sh601399,ST国重装,2021-04-01,3.98,4.03,3.97,3.98,3.97,5104069.0,20376987.0,1964439293.76,28927689382.72
sh601399,ST国重装,2021-04-02,3.97,3.99,3.96,3.97,3.98,5375820.0,21359545.0,1959503516.64,28855006746.08
sh601399,ST国重装,2021-04-06,3.98,4.04,3.98,4.0,3.97,7231246.0,28956468.0,1974310848.0,29073054656.000004
sh601399,ST国重装,2021-04-07,4.0,4.0,3.96,3.99,4.0,5315089.0,21168915.0,1969375070.88,29000372019.36
sh601399,ST国重装,2021-04-08,4.0,4.04,3.98,4.0,3.99,5592265.0,22425282.0,1974310848.0,29073054656.000004
sh601399,ST国重装,2021-04-09,4.0,4.03,3.99,4.0,4.0,7016718.0,28091291.0,1974310848.0,29073054656.000004
sh601399,ST国重装,2021-04-12,4.0,4.15,4.0,4.06,4.0,16329446.0,66670817.0,2003925510.72,29509150475.84
sh601399,ST国重装,2021-04-13,4.06,4.1,3.86,3.86,4.06,19010494.0,75298946.0,1905209968.32,28055497743.04
sh601399,ST国重装,2021-04-14,3.81,3.87,3.67,3.86,3.86,12282081.0,46507856.0,1905209968.32,28055497743.04
sh601399,ST国重装,2021-04-15,3.84,3.86,3.8,3.83,3.86,5783460.0,22099727.0,1890402636.96,27837449833.12
sh601399,ST国重装,2021-04-16,3.82,4.01,3.82,3.98,3.83,12964876.0,51138423.0,1964439293.76,28927689382.72
sh601399,ST国重装,2021-04-19,3.97,4.1,3.97,4.0,3.98,13664671.0,54933472.0,1974310848.0,29073054656.000004
sh601399,ST国重装,2021-04-20,4.02,4.1,3.98,4.0,4.0,22230780.0,89517143.0,1974310848.0,29073054656.000004
sh601399,ST国重装,2021-04-21,4.0,4.07,3.87,4.0,4.0,24043309.0,96176930.0,1974310848.0,29073054656.000004
sh601399,ST国重装,2021-04-22,3.98,4.02,3.97,4.0,4.0,12259094.0,48941263.0,1974310848.0,29073054656.000004
sh601399,ST国重装,2021-04-23,4.0,4.18,3.98,4.03,4.0,27745500.0,112381566.0,1989118179.36,29291102565.92
sh601399,ST国重装,2021-04-26,4.04,4.1,3.98,4.06,4.03,18031736.0,73036495.0,2003925510.72,29509150475.84
sh601399,ST国重装,2021-04-27,4.05,4.13,3.99,4.08,4.06,21497064.0,87646647.0,2013797064.96,29654515749.12
sh601399,ST国重装,2021-04-28,4.05,4.08,4.0,4.01,4.08,16552002.0,66553734.0,1979246625.12,29145737292.64
sh601399,ST国重装,2021-04-29,4.01,4.07,4.0,4.04,4.01,12224196.0,49358381.0,1994053956.48,29363785202.56
sh601399,ST国重装,2021-04-30,4.04,4.24,4.02,4.22,4.04,29848864.0,123622626.0,2082897944.64,30672072662.08
sh601399,ST国重装,2021-05-06,4.2,4.4,4.13,4.33,4.22,25539879.0,108969557.0,2137191492.96,31471581665.12
sh601399,ST国重装,2021-05-07,4.29,4.35,4.19,4.23,4.33,23113692.0,98309251.0,2087833721.76,30744755298.72
sh601399,国机重装,2021-05-11,4.22,4.43,4.02,4.14,4.23,63323482.0,264415547.0,2043411727.68,30090611568.96
sh601399,国机重装,2021-05-12,4.13,4.55,4.11,4.23,4.14,59157035.0,257759443.0,2087833721.76,30744755298.72
sh601399,国机重装,2021-05-13,4.1,4.11,3.96,3.96,4.23,50407325.0,203679386.0,1954567739.52,28782324109.44
sh601399,国机重装,2021-05-14,3.95,3.99,3.82,3.83,3.96,38879728.0,150846587.0,1890402636.96,27837449833.12
sh601399,国机重装,2021-05-17,3.8,3.83,3.66,3.67,3.83,30781000.0,114387762.0,1811430203.04,26674527646.88
sh601399,国机重装,2021-05-18,3.67,3.78,3.66,3.72,3.67,20841916.0,77587311.0,1836109088.64,27037940830.08
sh601399,国机重装,2021-05-19,3.71,3.74,3.63,3.63,3.72,19553594.0,71995734.0,1791687094.5600002,26383797100.320004
sh601399,国机重装,2021-05-20,3.61,3.66,3.53,3.56,3.63,21333791.0,76252577.0,1757136654.72,25875018643.84
sh601399,国机重装,2021-05-21,3.57,3.76,3.53,3.64,3.56,22120660.0,80664394.0,1796622871.68,26456479736.96
sh601399,国机重装,2021-05-24,3.64,3.66,3.59,3.62,3.64,14428740.0,52144535.0,1786751317.44,26311114463.68
sh601399,国机重装,2021-05-25,3.61,3.64,3.57,3.61,3.62,13028261.0,46978103.0,1781815540.32,26238431827.04
sh601399,国机重装,2021-05-26,3.65,3.69,3.62,3.68,3.61,15689376.0,57393180.0,1816365980.16,26747210283.52
sh601399,国机重装,2021-05-27,3.7,3.7,3.64,3.65,3.68,11224482.0,41143796.0,1801558648.8,26529162373.6
sh601399,国机重装,2021-05-28,3.64,3.65,3.58,3.58,3.65,14037273.0,50617939.0,1767008208.9599998,26020383917.120003
sh601399,国机重装,2021-05-31,3.58,3.61,3.54,3.61,3.58,12603613.0,44908254.0,1781815540.32,26238431827.04
sh601399,国机重装,2021-06-01,3.6,3.64,3.56,3.6,3.61,11238009.0,40406433.0,1776879763.1999998,26165749190.4
sh601399,国机重装,2021-06-02,3.59,3.6,3.54,3.55,3.6,12041810.0,42942993.0,1752200877.6,25802336007.2
sh601399,国机重装,2021-06-03,3.54,3.54,3.43,3.46,3.55,16879809.0,58700389.0,1707778883.52,25148192277.44
sh601399,国机重装,2021-06-04,3.45,3.46,3.37,3.38,3.46,15063304.0,51232737.0,1668292666.56,24566731184.32
sh601399,国机重装,2021-06-07,3.38,3.5,3.38,3.48,3.38,14694565.0,50499729.0,1717650437.76,25293557550.72
sh601399,国机重装,2021-06-08,3.45,3.83,3.45,3.83,3.48,26188028.0,98307841.0,9105489036.23,27837449833.12
sh601399,国机重装,2021-06-09,4.01,4.1,3.7,3.7,3.83,59010934.0,228457522.0,8796425439.7,26892575556.800003
sh601399,国机重装,2021-06-10,3.66,3.7,3.49,3.58,3.7,54540892.0,194976359.0,8511135965.98,26020383917.120003
sh601399,国机重装,2021-06-11,3.57,3.7,3.52,3.52,3.58,30748440.0,110175487.0,8368491229.120001,25584288097.28
sh601399,国机重装,2021-06-15,3.47,3.52,3.41,3.42,3.52,24372508.0,84034285.0,8130750001.019999,24857461730.88
sh601399,国机重装,2021-06-16,3.44,3.49,3.41,3.44,3.42,16538280.0,56843646.0,8178298246.639999,25002827004.16
sh601399,国机重装,2021-06-17,3.43,3.43,3.38,3.41,3.44,16250761.0,55372071.0,8106975878.21,24784779094.24
sh601399,国机重装,2021-06-18,3.42,3.46,3.37,3.42,3.41,14739872.0,50278339.0,8130750001.019999,24857461730.88
sh601399,国机重装,2021-06-21,3.41,3.44,3.39,3.43,3.42,13498605.0,46067715.0,8154524123.83,24930144367.52
sh601399,国机重装,2021-06-22,3.42,3.45,3.4,3.42,3.43,20484280.0,70061040.0,8130750001.019999,24857461730.88
sh601399,国机重装,2021-06-23,3.42,3.42,3.37,3.4,3.42,18144757.0,61494060.0,8083201755.4,24712096457.6
sh601399,国机重装,2021-06-24,3.39,3.39,3.34,3.36,3.4,15444560.0,51885040.0,7988105264.16,24421365911.04
sh601399,国机重装,2021-06-25,3.35,3.45,3.35,3.41,3.36,20088620.0,68469736.0,8106975878.21,24784779094.24
sh601399,国机重装,2021-06-28,3.44,3.44,3.37,3.38,3.41,14436521.0,49001156.0,8035653509.78,24566731184.32
sh601399,国机重装,2021-06-29,3.36,3.4,3.35,3.36,3.38,10383937.0,35042679.0,7988105264.16,24421365911.04
sh601399,国机重装,2021-06-30,3.36,3.38,3.29,3.31,3.36,18945262.0,62921622.0,7869234650.110001,24057952727.84
sh601399,国机重装,2021-07-01,3.32,3.34,3.24,3.32,3.31,18182220.0,59834198.0,7893008772.92,24130635364.48
sh601399,国机重装,2021-07-02,3.31,3.31,3.26,3.27,3.32,10050324.0,32974871.0,7774138158.87,23767222181.28
sh601399,国机重装,2021-07-05,3.26,3.29,3.25,3.28,3.27,9286422.0,30375556.0,7797912281.68,23839904817.92
sh601399,国机重装,2021-07-06,3.28,3.29,3.25,3.28,3.28,9507545.0,31041538.0,7797912281.68,23839904817.92
sh601399,国机重装,2021-07-07,3.27,3.28,3.25,3.27,3.28,8542601.0,27892328.0,7774138158.87,23767222181.28
sh601399,国机重装,2021-07-08,3.26,3.4,3.26,3.32,3.27,19446632.0,64782566.0,7893008772.92,24130635364.48
sh601399,国机重装,2021-07-09,3.3,3.37,3.25,3.34,3.32,18135425.0,59932129.0,7940557018.54,24276000637.76
sh601399,国机重装,2021-07-12,3.36,3.38,3.33,3.36,3.34,10721484.0,35930004.0,7988105264.16,24421365911.04
sh601399,国机重装,2021-07-13,3.34,3.35,3.32,3.34,3.36,8781643.0,29255552.0,7940557018.54,24276000637.76
sh601399,国机重装,2021-07-14,3.34,3.34,3.28,3.29,3.34,8750122.0,28940343.0,7821686404.490001,23912587454.56
sh601399,国机重装,2021-07-15,3.3,3.3,3.26,3.27,3.29,7545266.0,24712538.0,7774138158.87,23767222181.28
sh601399,国机重装,2021-07-16,3.27,3.3,3.26,3.28,3.27,6519161.0,21360108.0,7797912281.68,23839904817.92
sh601399,国机重装,2021-07-19,3.28,3.29,3.24,3.25,3.28,7798121.0,25367543.0,7726589913.249999,23621856908.0
sh601399,国机重装,2021-07-20,3.24,3.25,3.16,3.19,3.25,12311476.0,39324601.0,7583945176.389999,23185761088.16
sh601399,国机重装,2021-07-21,3.19,3.21,3.17,3.19,3.19,7885401.0,25128481.0,7583945176.389999,23185761088.16
sh601399,国机重装,2021-07-22,3.19,3.28,3.16,3.25,3.19,15195356.0,49041164.0,7726589913.249999,23621856908.0
sh601399,国机重装,2021-07-23,3.24,3.47,3.21,3.38,3.25,31581205.0,105896240.0,8035653509.78,24566731184.32
sh601399,国机重装,2021-07-26,3.36,3.37,3.26,3.27,3.38,18740933.0,61838341.0,7774138158.87,23767222181.28
sh601399,国机重装,2021-07-27,3.27,3.31,3.21,3.22,3.27,11935557.0,38825189.0,7655267544.820001,23403808998.08
sh601399,国机重装,2021-07-28,3.2,3.21,3.1,3.12,3.22,14846131.0,46519795.0,7417526316.72,22676982631.68
sh601399,国机重装,2021-07-29,3.13,3.17,3.12,3.16,3.12,8151220.0,25647339.0,7512622807.96,22967713178.24
sh601399,国机重装,2021-07-30,3.15,3.22,3.13,3.19,3.16,11061441.0,35236796.0,7583945176.389999,23185761088.16
sh601399,国机重装,2021-08-02,3.18,3.51,3.18,3.51,3.19,50198874.0,173062285.0,8344717106.31,25511605460.64
sh601399,国机重装,2021-08-03,3.65,3.65,3.43,3.51,3.51,87665007.0,311304958.0,8344717106.31,25511605460.64
sh601399,国机重装,2021-08-04,3.44,3.51,3.41,3.47,3.51,39166186.0,135627308.0,8249620615.07,25220874914.08
sh601399,国机重装,2021-08-05,3.47,3.6,3.45,3.49,3.47,33789176.0,118387600.0,8297168860.69,25366240187.36
sh601399,国机重装,2021-08-06,3.52,3.53,3.36,3.41,3.49,27665683.0,94592486.0,8106975878.21,24784779094.24
sh601399,国机重装,2021-08-09,3.38,3.59,3.37,3.55,3.41,38054382.0,133382552.0,8439813597.55,25802336007.2
sh601399,国机重装,2021-08-10,3.53,3.63,3.52,3.55,3.55,33531121.0,119473442.0,8439813597.55,25802336007.2
sh601399,国机重装,2021-08-11,3.54,3.79,3.49,3.68,3.55,48504732.0,175779896.0,8748877194.08,26747210283.52
sh601399,国机重装,2021-08-12,3.7,3.84,3.66,3.7,3.68,41967087.0,156801566.0,8796425439.7,26892575556.800003
sh601399,国机重装,2021-08-13,3.7,3.77,3.63,3.77,3.7,44612810.0,165615171.0,8962844299.37,27401354013.28
sh601399,国机重装,2021-08-16,4.07,4.09,3.81,3.82,3.77,70756280.0,277970893.0,9081714913.42,27764767196.48
sh601399,国机重装,2021-08-17,3.77,4.19,3.77,4.11,3.82,94213311.0,381112016.0,9771164474.91,29872563659.04
sh601399,国机重装,2021-08-18,4.01,4.03,3.84,3.92,4.11,69149112.0,271943096.0,9319456141.52,28491593562.88
sh601399,国机重装,2021-08-19,3.9,3.9,3.67,3.68,3.92,51295902.0,192270694.0,8748877194.08,26747210283.52
sh601399,国机重装,2021-08-20,3.68,3.83,3.68,3.73,3.68,35387684.0,132794826.0,8867747808.130001,27110623466.72
sh601399,国机重装,2021-08-23,3.75,3.94,3.69,3.89,3.73,41566493.0,159872895.0,9248133773.09,28273545652.96
sh601399,国机重装,2021-08-24,3.9,3.9,3.78,3.82,3.89,34130507.0,130483321.0,9081714913.42,27764767196.48
sh601399,国机重装,2021-08-25,3.79,3.81,3.71,3.74,3.82,26229193.0,97903857.0,8891521930.94,27183306103.36
sh601399,国机重装,2021-08-26,3.71,3.78,3.69,3.73,3.74,23633582.0,88491390.0,8867747808.130001,27110623466.72
sh601399,国机重装,2021-08-27,3.7,3.73,3.57,3.58,3.73,32638038.0,117863219.0,8511135965.98,26020383917.120003
sh601399,国机重装,2021-08-30,3.61,3.66,3.56,3.62,3.58,21973469.0,79338206.0,8606232457.22,26311114463.68
sh601399,国机重装,2021-08-31,3.63,3.64,3.52,3.55,3.62,19092763.0,67990548.0,8439813597.55,25802336007.2
sh601399,国机重装,2021-09-01,3.57,3.91,3.57,3.91,3.55,67627041.0,254549174.0,9295682018.71,28418910926.24
sh601399,国机重装,2021-09-02,3.9,4.1,3.82,3.99,3.91,85327925.0,337924659.0,9485875001.19,29000372019.36
sh601399,国机重装,2021-09-03,3.98,4.04,3.87,3.95,3.99,48937586.0,193130328.0,9390778509.95,28709641472.800003
sh601399,国机重装,2021-09-06,3.95,4.03,3.89,3.96,3.95,36231902.0,143725355.0,9414552632.76,28782324109.44
sh601399,国机重装,2021-09-07,3.94,4.11,3.93,4.02,3.96,51546930.0,206906968.0,9557197369.62,29218419929.280003
sh601399,国机重装,2021-09-08,4.0,4.2,3.97,4.07,4.02,49692978.0,203422230.0,9676067983.67,29581833112.48
sh601399,国机重装,2021-09-09,4.02,4.15,3.96,4.07,4.07,45536774.0,183424857.0,9676067983.67,29581833112.48
sh601399,国机重装,2021-09-10,4.04,4.12,3.94,3.95,4.07,40928687.0,164781162.0,9390778509.95,28709641472.800003
sh601399,国机重装,2021-09-13,3.93,4.08,3.89,4.06,3.95,42970074.0,172716096.0,9652293860.86,29509150475.84
sh601399,国机重装,2021-09-14,4.06,4.07,3.86,3.88,4.06,37960600.0,150318424.0,9224359650.28,28200863016.32
sh601399,国机重装,2021-09-15,3.88,3.95,3.87,3.93,3.88,20128309.0,78694739.0,9343230264.33,28564276199.52
sh601399,国机重装,2021-09-16,3.93,4.02,3.89,3.92,3.93,30450373.0,120534115.0,9319456141.52,28491593562.88
sh601399,国机重装,2021-09-17,3.92,4.06,3.84,4.05,3.92,42437440.0,168515734.0,9628519738.05,29436467839.2
sh601399,国机重装,2021-09-22,4.01,4.17,3.96,4.14,4.05,58065479.0,238098034.0,9842486843.34,30090611568.96
sh601399,国机重装,2021-09-23,4.18,4.21,4.05,4.1,4.14,40453540.0,166048854.0,9747390352.1,29799881022.4
sh601399,国机重装,2021-09-24,4.09,4.11,3.9,3.92,4.1,36989236.0,147202542.0,9319456141.52,28491593562.88
sh601399,国机重装,2021-09-27,3.92,3.95,3.69,3.75,3.92,29180968.0,110378285.0,8915296053.75,27255988740.0
sh601399,国机重装,2021-09-28,3.75,3.83,3.73,3.83,3.75,14897828.0,56433901.0,9105489036.23,27837449833.12
sh601399,国机重装,2021-09-29,3.79,3.8,3.68,3.7,3.83,16499740.0,61584999.0,8796425439.7,26892575556.800003
sh601399,国机重装,2021-09-30,3.7,3.76,3.7,3.75,3.7,11023351.0,41122944.0,8915296053.75,27255988740.0
sh601399,国机重装,2021-10-08,3.79,3.81,3.75,3.81,3.75,12595842.0,47584864.0,9057940790.61,27692084559.84
sh601399,国机重装,2021-10-11,3.81,3.84,3.75,3.77,3.81,9145931.0,34542957.0,8962844299.37,27401354013.28
sh601399,国机重装,2021-10-12,3.8,3.8,3.63,3.66,3.77,14806721.0,54665751.0,8701328948.460001,26601845010.24
sh601399,国机重装,2021-10-13,3.66,3.68,3.58,3.61,3.66,9809920.0,35414284.0,8582458334.41,26238431827.04
sh601399,国机重装,2021-10-14,3.62,3.66,3.56,3.65,3.61,8015221.0,29006332.0,8677554825.65,26529162373.6
sh601399,国机重装,2021-10-15,3.65,3.66,3.57,3.57,3.65,8162182.0,29330850.0,8487361843.17,25947701280.48
sh601399,国机重装,2021-10-18,3.56,3.61,3.54,3.57,3.57,7692580.0,27535482.0,8487361843.17,25947701280.48
sh601399,国机重装,2021-10-19,3.58,3.63,3.57,3.6,3.57,6320081.0,22750837.0,8558684211.6,26165749190.4
sh601399,国机重装,2021-10-20,3.6,3.6,3.55,3.56,3.6,7273160.0,25948298.0,8463587720.360001,25875018643.84
sh601399,国机重装,2021-10-21,3.55,3.58,3.46,3.49,3.56,10683782.0,37629794.0,8297168860.69,25366240187.36
sh601399,国机重装,2021-10-22,3.48,3.5,3.4,3.41,3.49,10855340.0,37207762.0,8106975878.21,24784779094.24
sh601399,国机重装,2021-10-25,3.41,3.62,3.37,3.55,3.41,13917160.0,48707977.0,8439813597.55,25802336007.2
sh601399,国机重装,2021-10-26,3.53,3.56,3.45,3.47,3.55,9672702.0,33814337.0,8249620615.07,25220874914.08
sh601399,国机重装,2021-10-27,3.48,3.53,3.45,3.47,3.47,7783921.000000001,27113137.0,8249620615.07,25220874914.08
sh601399,国机重装,2021-10-28,3.46,3.48,3.39,3.41,3.47,7663100.0,26163863.0,8106975878.21,24784779094.24
sh601399,国机重装,2021-10-29,3.43,3.48,3.4,3.45,3.41,6825921.0,23477745.0,8202072369.45,25075509640.8
sh601399,国机重装,2021-11-01,3.47,3.54,3.43,3.53,3.45,7379160.0,25903515.0,8392265351.93,25656970733.92
sh601399,国机重装,2021-11-02,3.53,3.63,3.47,3.61,3.53,13884182.0,49141128.0,8582458334.41,26238431827.04
sh601399,国机重装,2021-11-03,3.55,3.68,3.55,3.58,3.61,9633737.0,34743517.0,8511135965.98,26020383917.120003
sh601399,国机重装,2021-11-04,3.58,3.94,3.56,3.94,3.58,57957646.0,221663172.0,9367004387.14,28636958836.16
sh601399,国机重装,2021-11-05,3.85,3.9,3.71,3.75,3.94,54972525.0,207725297.0,8915296053.75,27255988740.0
sh601399,国机重装,2021-11-08,3.72,3.79,3.68,3.77,3.75,23418909.0,87504180.0,8962844299.37,27401354013.28
sh601399,国机重装,2021-11-09,3.77,3.78,3.7,3.7,3.77,17109263.0,63921774.0,8796425439.7,26892575556.800003
sh601399,国机重装,2021-11-10,3.7,3.83,3.66,3.8,3.7,21597646.0,80837821.0,9034166667.8,27619401923.2
sh601399,国机重装,2021-11-11,3.79,3.8,3.74,3.77,3.8,14670342.0,55206091.0,8962844299.37,27401354013.28
sh601399,国机重装,2021-11-12,3.75,3.79,3.73,3.79,3.77,14827495.0,55852635.0,9010392544.99,27546719286.56
sh601399,国机重装,2021-11-15,3.79,3.83,3.75,3.75,3.79,17952321.0,67770811.0,8915296053.75,27255988740.0
sh601399,国机重装,2021-11-16,3.77,3.77,3.66,3.68,3.75,18106705.0,67064205.0,8748877194.08,26747210283.52
sh601399,国机重装,2021-11-17,3.69,3.73,3.65,3.71,3.68,16284141.0,60103805.0,8820199562.51,26965258193.44
sh601399,国机重装,2021-11-18,3.7,3.8,3.69,3.77,3.71,25812617.0,96950060.0,8962844299.37,27401354013.28
sh601399,国机重装,2021-11-19,3.77,3.78,3.7,3.77,3.77,22570281.0,84300038.0,8962844299.37,27401354013.28
sh601399,国机重装,2021-11-22,3.78,3.87,3.73,3.75,3.77,29273540.0,111062904.0,8915296053.75,27255988740.0
sh601399,国机重装,2021-11-23,3.71,3.76,3.69,3.72,3.75,24741161.0,91986006.0,8843973685.32,27037940830.08
sh601399,国机重装,2021-11-24,3.72,3.72,3.6,3.62,3.72,29563880.0,107577840.0,8606232457.22,26311114463.68
sh601399,国机重装,2021-11-25,3.62,3.64,3.56,3.57,3.62,20966200.0,75085372.0,8487361843.17,25947701280.48
sh601399,国机重装,2021-11-26,3.58,3.58,3.52,3.54,3.57,13261304.0,46936233.0,8416039474.740001,25729653370.559998
sh601399,国机重装,2021-11-29,3.49,3.56,3.45,3.56,3.54,13582920.0,47697156.0,8463587720.360001,25875018643.84
sh601399,国机重装,2021-11-30,3.56,3.64,3.55,3.58,3.56,16609330.0,59733940.0,8511135965.9800005,26020383917.120003
sh601399,国机重装,2021-12-01,3.58,3.63,3.57,3.61,3.58,13238620.0,47794538.0,8582458334.41,26238431827.039997
sh601399,国机重装,2021-12-02,3.61,3.67,3.6,3.65,3.61,16731958.0,60932453.0,8677554825.65,26529162373.600002
sh601399,国机重装,2021-12-03,3.66,3.68,3.61,3.65,3.65,14166378.0,51578035.0,8677554825.65,26529162373.600002
sh601399,国机重装,2021-12-06,3.64,3.65,3.56,3.57,3.65,16152028.0,58276380.0,8487361843.17,25947701280.48
sh601399,国机重装,2021-12-07,3.59,3.62,3.57,3.6,3.57,13357304.0,48007359.0,8558684211.6,26165749190.4
sh601399,国机重装,2021-12-08,3.61,3.63,3.58,3.6,3.6,13931642.0,50201577.0,8558684211.6,26165749190.4
sh601399,国机重装,2021-12-09,3.58,3.61,3.57,3.58,3.6,16021882.0,57535265.0,8511135965.9800005,26020383917.120003
sh601399,国机重装,2021-12-10,3.57,3.58,3.54,3.55,3.58,18759113.0,66691886.0,8439813597.55,25802336007.2
sh601399,国机重装,2021-12-13,3.56,3.61,3.54,3.58,3.55,16661283.0,59704905.0,8511135965.9800005,26020383917.120003
sh601399,国机重装,2021-12-14,3.58,3.58,3.51,3.52,3.58,17050005.0,60292065.0,8368491229.120001,25584288097.28
sh601399,国机重装,2021-12-15,3.51,3.57,3.51,3.54,3.52,14424898.0,51171797.0,8416039474.740001,25729653370.559998
sh601399,国机重装,2021-12-16,3.52,3.65,3.52,3.64,3.54,28492682.0,102351475.0,8653780702.84,26456479736.96
sh601399,国机重装,2021-12-17,3.63,3.71,3.6,3.71,3.64,41440890.0,152252803.0,8820199562.51,26965258193.44
sh601399,国机重装,2021-12-20,3.72,4.08,3.65,4.08,3.71,122527294.0,489552516.0,9699842106.48,29654515749.12
sh601399,国机重装,2021-12-21,4.2,4.2,3.8,3.99,4.08,144669090.0,574881688.0,9485875001.19,29000372019.36
sh601399,国机重装,2021-12-22,3.92,3.94,3.81,3.83,3.99,71247387.0,275270048.0,9105489036.23,27837449833.12
sh601399,国机重装,2021-12-23,3.81,3.89,3.78,3.82,3.83,43613560.0,167345475.0,9081714913.42,27764767196.48
sh601399,国机重装,2021-12-24,3.83,3.96,3.78,3.86,3.82,60937242.0,237314715.0,9176811404.66,28055497743.04
sh601399,国机重装,2021-12-27,3.86,4.08,3.82,3.94,3.86,64631776.0,255948664.0,12621733535.859999,28636958836.16
sh601399,国机重装,2021-12-28,3.9,3.91,3.82,3.85,3.94,36510748.0,140813650.0,12333419825.65,27982815106.4
sh601399,国机重装,2021-12-29,3.83,4.04,3.82,3.98,3.85,50057831.0,196656356.0,12749872962.62,28927689382.719997
sh601399,国机重装,2021-12-30,3.97,4.02,3.93,3.99,3.98,48725809.0,193914947.0,12781907819.310001,29000372019.36
sh601399,国机重装,2021-12-31,3.99,4.02,3.94,3.95,3.99,33141843.0,131569017.0,12653768392.55,28709641472.800003
sh601399,国机重装,2022-01-04,3.97,3.98,3.9,3.92,3.95,40556532.0,159569730.0,12557663822.48,28491593562.88
sh601399,国机重装,2022-01-05,3.94,3.95,3.84,3.89,3.92,31289098.0,121471318.0,12461559252.41,28273545652.96
sh601399,国机重装,2022-01-06,3.89,3.96,3.88,3.92,3.89,23282441.0,91293307.0,12557663822.48,28491593562.88
sh601399,国机重装,2022-01-07,3.94,4.05,3.87,3.87,3.92,41195881.0,163425103.0,12397489539.03,28128180379.68
sh601399,国机重装,2022-01-10,3.87,4.15,3.86,4.09,3.87,67792908.0,273544002.0,13102256386.210001,29727198385.760002
sh601399,国机重装,2022-01-11,4.04,4.07,3.97,3.99,4.09,38970780.0,156063137.0,12781907819.310001,29000372019.36
sh601399,国机重装,2022-01-12,3.98,4.05,3.92,4.0,3.99,28415364.0,112939230.0,12813942676.0,29073054656.000004
sh601399,国机重装,2022-01-13,3.98,3.99,3.93,3.94,4.0,22136142.0,87433463.0,12621733535.859999,28636958836.16
sh601399,国机重装,2022-01-14,3.94,3.94,3.81,3.83,3.94,32310540.0,124880683.0,12269350112.27,27837449833.12
