数据由邢不行整理
股票代码,股票名称,交易日期,开盘价,最高价,最低价,收盘价,前收盘价,成交量,成交额,流通市值,总市值
sh605288,N凯迪,2020-06-01,111.11,133.33,111.11,133.33,92.59,77241.0,10289655.0,1666625000.0,6666500000.0
sh605288,凯迪股份,2020-06-02,146.66,146.66,146.66,146.66,133.33,142444.0,20890837.0,1833250000.0,7333000000.0
sh605288,凯迪股份,2020-06-03,160.87,160.87,138.23,139.53,146.66,5413133.0,793081780.0,1744125000.0,6976500000.0
sh605288,凯迪股份,2020-06-04,133.63,135.87,129.08,130.15,139.53,3466089.0,457407269.0,1626875000.0,6507500000.0
sh605288,凯迪股份,2020-06-05,129.9,129.92,122.43,122.71,130.15,3208218.0,400170455.0,1533875000.0,6135500000.0
sh605288,凯迪股份,2020-06-08,123.11,125.18,122.5,123.78,122.71,1700527.0,210585432.0,1547250000.0,6189000000.0
sh605288,凯迪股份,2020-06-09,123.78,125.0,121.48,121.5,123.78,1503028.0,184013347.0,1518750000.0,6075000000.0
sh605288,凯迪股份,2020-06-10,121.0,123.97,118.0,122.5,121.5,1759848.0,212538405.0,1531250000.0,6125000000.0
sh605288,凯迪股份,2020-06-11,121.21,122.9,119.63,120.05,122.5,1185655.0,143745340.0,1500625000.0,6002500000.0
sh605288,凯迪股份,2020-06-12,117.0,123.25,116.96,122.59,120.05,1497543.0,180669966.0,1532375000.0,6129500000.0
sh605288,凯迪股份,2020-06-15,122.18,131.88,122.18,128.29,122.59,2644479.0,338683303.0,1603625000.0,6414500000.0
sh605288,凯迪股份,2020-06-16,128.03,128.68,124.04,127.5,128.29,1800973.0,226171329.0,1593750000.0,6375000000.0
sh605288,凯迪股份,2020-06-17,126.6,126.76,124.5,125.65,127.5,1014106.0,127076717.0,1570625000.0,6282500000.0
sh605288,凯迪股份,2020-06-18,125.8,128.26,122.88,122.9,125.65,1351510.0,168524398.0,1536250000.0,6145000000.0
sh605288,凯迪股份,2020-06-19,123.0,123.94,120.96,123.49,122.9,942894.0,115297296.0,1543625000.0,6174500000.0
sh605288,凯迪股份,2020-06-22,122.68,122.9,120.91,120.97,123.49,832263.0,101400208.0,1512125000.0,6048500000.0
sh605288,凯迪股份,2020-06-23,120.07,122.88,120.07,121.29,120.97,662168.0,80485030.0,1516125000.0,6064500000.0
sh605288,凯迪股份,2020-06-24,121.11,121.55,119.71,120.0,121.29,634887.0,76317924.0,1500000000.0,6000000000.0
sh605288,凯迪股份,2020-06-29,119.0,119.99,116.82,117.09,120.0,882449.0,103897503.0,1463625000.0,5854500000.0
sh605288,凯迪股份,2020-06-30,117.88,120.6,117.41,119.64,117.09,669492.0,79636373.0,1495500000.0,5982000000.0
sh605288,凯迪股份,2020-07-01,120.2,121.73,118.8,119.78,119.64,834496.0,100307046.0,1497250000.0,5989000000.0
sh605288,凯迪股份,2020-07-02,119.58,121.59,117.9,121.1,119.78,1037336.0,125159921.0,1513750000.0,6055000000.0
sh605288,凯迪股份,2020-07-03,122.03,122.2,120.01,121.05,121.1,756805.0,91487294.0,1513125000.0,6052500000.0
sh605288,凯迪股份,2020-07-06,120.16,123.8,120.16,123.8,121.05,1423699.0,174585120.0,1547500000.0,6190000000.0
sh605288,凯迪股份,2020-07-07,123.85,126.32,123.85,123.92,123.8,1435420.0,179356093.0,1549000000.0,6196000000.0
sh605288,凯迪股份,2020-07-08,123.66,124.38,122.0,123.84,123.92,1173523.0,144487018.0,1548000000.0,6192000000.0
sh605288,凯迪股份,2020-07-09,124.12,127.88,123.31,127.88,123.84,1823787.0,229577818.0,1598500000.0,6394000000.0
sh605288,凯迪股份,2020-07-10,129.0,129.13,125.36,125.51,127.88,1473995.0,187436214.0,1568875000.0,6275500000.0
sh605288,凯迪股份,2020-07-13,125.4,127.82,124.93,127.31,125.51,1220817.0,154581454.0,1591375000.0,6365500000.0
sh605288,凯迪股份,2020-07-14,126.92,131.3,126.16,127.84,127.31,1539313.0,197888849.0,1598000000.0,6392000000.0
sh605288,凯迪股份,2020-07-15,127.8,128.68,123.28,123.6,127.84,1286901.0,161200883.0,1545000000.0,6180000000.0
sh605288,凯迪股份,2020-07-16,123.83,124.49,118.0,118.9,123.6,964147.0,116948270.0,1486250000.0,5945000000.0
sh605288,凯迪股份,2020-07-17,118.91,120.53,118.38,119.73,118.9,533732.0,63785762.0,1496625000.0,5986500000.0
sh605288,凯迪股份,2020-07-20,119.63,121.6,119.42,121.6,119.73,654375.0,78879058.0,1520000000.0,6080000000.0
sh605288,凯迪股份,2020-07-21,121.88,121.88,120.73,120.98,121.6,470676.0,56998870.0,1512250000.0,6049000000.0
sh605288,凯迪股份,2020-07-22,120.77,121.87,119.82,120.27,120.98,669952.0,80921296.0,1503375000.0,6013500000.0
sh605288,凯迪股份,2020-07-23,119.76,120.0,116.5,118.3,120.27,768827.0,90759281.0,1478750000.0,5915000000.0
sh605288,凯迪股份,2020-07-24,118.99,123.7,118.7,122.31,118.3,1456017.0,176808291.0,1528875000.0,6115500000.0
sh605288,凯迪股份,2020-07-27,124.63,134.54,123.55,134.54,122.31,2256771.0,292898530.0,1681750000.0,6727000000.0
sh605288,凯迪股份,2020-07-28,138.7,143.33,131.88,132.38,134.54,3099492.0,425452872.0,1654750000.0,6619000000.0
sh605288,凯迪股份,2020-07-29,132.63,140.88,132.38,137.33,132.38,2298804.0,313827399.0,1716625000.0,6866500000.0
sh605288,凯迪股份,2020-07-30,136.77,138.6,132.99,133.18,137.33,1729769.0,233655334.0,1664750000.0,6659000000.0
sh605288,凯迪股份,2020-07-31,131.5,134.46,127.25,129.98,133.18,1889964.0,243488966.0,1624750000.0,6499000000.0
sh605288,凯迪股份,2020-08-03,130.61,133.0,128.05,132.06,129.98,1281077.0,166800547.0,1650750000.0,6603000000.0
sh605288,凯迪股份,2020-08-04,132.1,132.99,128.82,129.19,132.06,1255261.0,163553662.0,1614875000.0,6459500000.0
sh605288,凯迪股份,2020-08-05,128.74,130.58,128.63,129.46,129.19,710774.0,92105506.0,1618250000.0,6473000000.0
sh605288,凯迪股份,2020-08-06,129.4,132.59,127.1,131.6,129.46,1139803.0,147824012.0,1645000000.0,6580000000.0
sh605288,凯迪股份,2020-08-07,130.68,131.26,126.9,128.64,131.6,981512.0,126016099.0,1608000000.0,6432000000.0
sh605288,凯迪股份,2020-08-10,128.4,130.13,127.37,129.47,128.64,637374.0,82164306.0,1618375000.0,6473500000.0
sh605288,凯迪股份,2020-08-11,129.91,129.97,126.92,126.92,129.47,621100.0,79691194.0,1586500000.0,6346000000.0
sh605288,凯迪股份,2020-08-12,126.5,129.15,126.48,128.55,126.92,648100.0,82983635.0,1606875000.0,6427500000.0
sh605288,凯迪股份,2020-08-13,128.29,133.8,127.35,131.52,128.55,965600.0,127022614.0,1644000000.0,6576000000.0
sh605288,凯迪股份,2020-08-14,130.6,131.7,128.13,130.12,131.52,542830.0,70426478.0,1626500000.0,6506000000.0
sh605288,凯迪股份,2020-08-17,130.66,132.88,128.52,131.73,130.12,807890.0,105311196.0,1646625000.0,6586500000.0
sh605288,凯迪股份,2020-08-18,129.8,135.76,129.8,133.4,131.73,1486372.0,198659017.0,1667500000.0,6670000000.0
sh605288,凯迪股份,2020-08-19,132.0,135.72,130.5,130.79,133.4,935900.0,124051985.0,1634875000.0,6539500000.0
sh605288,凯迪股份,2020-08-20,130.82,133.3,126.5,126.68,130.79,963730.0,124436175.0,1583500000.0,6334000000.0
sh605288,凯迪股份,2020-08-21,126.38,127.58,125.81,127.1,126.68,624300.0,79099781.0,1588750000.0,6355000000.0
sh605288,凯迪股份,2020-08-24,126.51,127.09,124.23,125.49,127.1,626590.0,78540480.0,1568625000.0,6274500000.0
sh605288,凯迪股份,2020-08-25,125.58,126.5,124.81,125.51,125.49,437200.0,54942405.0,1568875000.0,6275500000.0
sh605288,凯迪股份,2020-08-26,125.05,125.97,121.69,121.97,125.51,597600.0,73800590.0,1524625000.0,6098500000.0
sh605288,凯迪股份,2020-08-27,122.64,122.7,120.45,122.2,121.97,341836.0,41585825.0,1527500000.0,6110000000.0
sh605288,凯迪股份,2020-08-28,122.24,125.46,121.0,124.74,122.2,394700.0,48732791.0,1559250000.0,6237000000.0
sh605288,凯迪股份,2020-08-31,125.68,137.21,125.62,137.21,124.74,2317457.0,308086008.0,1715125000.0,6860500000.0
sh605288,凯迪股份,2020-09-01,137.21,141.44,133.05,137.74,137.21,1955250.0,270556963.0,1721750000.0,6887000000.0
sh605288,凯迪股份,2020-09-02,139.0,139.0,135.14,136.0,137.74,669800.0,91426741.0,1700000000.0,6800000000.0
sh605288,凯迪股份,2020-09-03,135.02,140.0,134.7,135.38,136.0,748774.0,102090080.0,1692250000.0,6769000000.0
sh605288,凯迪股份,2020-09-04,134.01,134.05,128.18,130.57,135.38,1053136.0,137709861.0,1632125000.0,6528500000.0
sh605288,凯迪股份,2020-09-07,131.0,131.8,126.24,126.24,130.57,769342.0,99461098.0,1578000000.0,6312000000.0
sh605288,凯迪股份,2020-09-08,126.46,128.98,125.12,127.51,126.24,568699.0,72609477.0,1593875000.0,6375500000.0
sh605288,凯迪股份,2020-09-09,126.65,126.65,123.61,123.61,127.51,512995.0,64128813.0,1545125000.0,6180500000.0
sh605288,凯迪股份,2020-09-10,124.5,126.8,122.7,123.02,123.61,532695.0,66400659.0,1537750000.0,6151000000.0
sh605288,凯迪股份,2020-09-11,123.02,125.99,122.65,125.47,123.02,495341.0,61582437.0,1568375000.0,6273500000.0
sh605288,凯迪股份,2020-09-14,126.1,127.2,123.52,124.5,125.47,482000.0,60043872.0,1556250000.0,6225000000.0
sh605288,凯迪股份,2020-09-15,124.7,126.98,123.32,126.96,124.5,447001.0,56021703.0,1587000000.0,6348000000.0
sh605288,凯迪股份,2020-09-16,126.8,128.29,125.35,126.56,126.96,413300.0,52359364.0,1582000000.0,6328000000.0
sh605288,凯迪股份,2020-09-17,126.55,126.55,124.03,126.1,126.56,315295.0,39514385.0,1576250000.0,6305000000.0
sh605288,凯迪股份,2020-09-18,126.4,127.81,125.1,126.75,126.1,304000.0,38453820.0,1584375000.0,6337500000.0
sh605288,凯迪股份,2020-09-21,127.32,127.32,124.56,125.74,126.75,298200.0,37419027.0,1571750000.0,6287000000.0
sh605288,凯迪股份,2020-09-22,124.5,125.65,123.9,123.99,125.74,252600.0,31479022.0,1549875000.0,6199500000.0
sh605288,凯迪股份,2020-09-23,124.99,125.19,123.99,124.6,123.99,191100.0,23815327.0,1557500000.0,6230000000.0
sh605288,凯迪股份,2020-09-24,124.0,124.11,122.6,122.98,124.6,273200.0,33624422.0,1537250000.0,6149000000.0
sh605288,凯迪股份,2020-09-25,123.0,123.54,121.31,121.7,122.98,209500.0,25608032.0,1521250000.0,6085000000.0
sh605288,凯迪股份,2020-09-28,121.21,122.42,117.02,117.6,121.7,447300.0,53093693.0,1470000000.0,5880000000.0
sh605288,凯迪股份,2020-09-29,118.5,119.0,117.2,117.23,117.6,323800.0,38057901.0,1465375000.0,5861500000.0
sh605288,凯迪股份,2020-09-30,117.7,118.6,116.5,117.02,117.23,239700.0,28103020.0,1462750000.0,5851000000.0
sh605288,凯迪股份,2020-10-09,118.5,120.14,118.01,119.99,117.02,235410.0,28135938.0,1499875000.0,5999500000.0
sh605288,凯迪股份,2020-10-12,120.3,121.91,119.47,121.88,119.99,312500.0,37860665.0,1523500000.0,6094000000.0
sh605288,凯迪股份,2020-10-13,121.87,121.87,120.36,121.0,121.88,216095.0,26132051.0,1512500000.0,6050000000.0
sh605288,凯迪股份,2020-10-14,120.81,124.88,120.34,123.1,121.0,385395.0,47357001.0,1538750000.0,6155000000.0
sh605288,凯迪股份,2020-10-15,122.89,122.99,120.8,120.88,123.1,278502.0,33852807.0,1511000000.0,6044000000.0
sh605288,凯迪股份,2020-10-16,120.88,121.55,117.88,118.63,120.88,381300.0,45430833.0,1482875000.0,5931500000.0
sh605288,凯迪股份,2020-10-19,118.64,120.1,118.21,120.0,118.63,251710.0,30018850.0,1500000000.0,6000000000.0
sh605288,凯迪股份,2020-10-20,119.5,123.4,118.67,122.63,120.0,422000.0,51327016.0,1532875000.0,6131500000.0
sh605288,凯迪股份,2020-10-21,122.97,124.5,122.67,123.3,122.63,508697.0,63000191.0,1541250000.0,6165000000.0
sh605288,凯迪股份,2020-10-22,124.13,124.13,120.2,121.26,123.3,248102.0,30169042.0,1515750000.0,6063000000.0
sh605288,凯迪股份,2020-10-23,121.0,122.28,118.5,118.82,121.26,231210.0,27782593.0,1485250000.0,5941000000.0
sh605288,凯迪股份,2020-10-26,118.09,120.19,117.17,120.0,118.82,224509.0,26791941.0,1500000000.0,6000000000.0
sh605288,凯迪股份,2020-10-27,119.68,120.05,118.54,119.66,120.0,109800.0,13092966.0,1495750000.0,5983000000.0
sh605288,凯迪股份,2020-10-28,120.01,120.59,118.5,119.8,119.66,238302.0,28520788.0,1497500000.0,5990000000.0
sh605288,凯迪股份,2020-10-29,118.8,121.78,117.6,120.72,119.8,271400.0,32541905.0,1509000000.0,6036000000.0
sh605288,凯迪股份,2020-10-30,118.81,123.95,118.18,120.68,120.72,750909.0,91297846.0,1508500000.0,6034000000.0
sh605288,凯迪股份,2020-11-02,120.66,122.63,119.56,121.49,120.68,287100.0,34692922.0,1518625000.0,6074500000.0
sh605288,凯迪股份,2020-11-03,122.0,124.5,121.51,123.87,121.49,429500.0,52964320.0,1548375000.0,6193500000.0
sh605288,凯迪股份,2020-11-04,123.39,124.4,120.81,121.53,123.87,453036.0,55464596.0,1519125000.0,6076500000.0
sh605288,凯迪股份,2020-11-05,122.43,124.2,121.67,123.88,121.53,338536.0,41710583.0,1548500000.0,6194000000.0
sh605288,凯迪股份,2020-11-06,124.07,124.51,122.12,124.2,123.88,394700.0,48801251.0,1552500000.0,6210000000.0
sh605288,凯迪股份,2020-11-09,124.2,129.1,124.2,128.64,124.2,836492.0,106949352.0,1608000000.0,6432000000.0
sh605288,凯迪股份,2020-11-10,129.06,129.83,127.05,128.38,128.64,438804.0,56459090.0,1604750000.0,6419000000.0
sh605288,凯迪股份,2020-11-11,130.28,134.5,127.56,127.89,128.38,692326.0,90403709.0,1598625000.0,6394500000.0
sh605288,凯迪股份,2020-11-12,127.51,129.51,125.55,127.88,127.89,335080.0,42665838.0,1598500000.0,6394000000.0
sh605288,凯迪股份,2020-11-13,127.88,128.8,126.0,128.45,127.88,315926.0,40278660.0,1605625000.0,6422500000.0
sh605288,凯迪股份,2020-11-16,129.5,129.5,127.37,128.48,128.45,214300.0,27449143.0,1606000000.0,6424000000.0
sh605288,凯迪股份,2020-11-17,127.66,128.0,124.68,124.91,128.48,315700.0,39686539.0,1561375000.0,6245500000.0
sh605288,凯迪股份,2020-11-18,124.3,125.85,124.3,125.18,124.91,176700.0,22107956.0,1564750000.0,6259000000.0
sh605288,凯迪股份,2020-11-19,124.66,126.6,124.13,126.29,125.18,204200.0,25631692.0,1578625000.0,6314500000.0
sh605288,凯迪股份,2020-11-20,125.56,127.31,124.63,127.0,126.29,244000.0,30778763.0,1587500000.0,6350000000.0
sh605288,凯迪股份,2020-11-23,128.11,128.39,126.22,127.22,127.0,203500.0,25888015.0,1590250000.0,6361000000.0
sh605288,凯迪股份,2020-11-24,127.09,127.69,126.57,126.96,127.22,146100.0,18541929.0,1587000000.0,6348000000.0
sh605288,凯迪股份,2020-11-25,127.0,129.46,124.2,124.41,126.96,358932.0,45141469.0,1555125000.0,6220500000.0
sh605288,凯迪股份,2020-11-26,123.3,125.0,120.28,120.73,124.41,413800.0,50323897.0,1509125000.0,6036500000.0
sh605288,凯迪股份,2020-11-27,120.73,121.51,119.86,120.6,120.73,182900.0,22000408.0,1507500000.0,6030000000.0
sh605288,凯迪股份,2020-11-30,122.0,122.0,119.92,121.0,120.6,206200.0,24862577.0,1512500000.0,6050000000.0
sh605288,凯迪股份,2020-12-01,121.0,122.2,120.08,121.72,121.0,151100.0,18373186.0,1521500000.0,6086000000.0
sh605288,凯迪股份,2020-12-02,121.2,121.97,120.66,121.55,121.72,189212.0,22911207.0,1519375000.0,6077500000.0
sh605288,凯迪股份,2020-12-03,121.2,122.42,120.3,121.9,121.55,173114.0,21051894.0,1523750000.0,6095000000.0
sh605288,凯迪股份,2020-12-04,121.6,129.79,120.95,129.58,121.9,797688.0,101401761.0,1619750000.0,6479000000.0
sh605288,凯迪股份,2020-12-07,130.1,131.5,128.01,129.78,129.58,397000.0,51396747.0,1622250000.0,6489000000.0
sh605288,凯迪股份,2020-12-08,130.29,132.5,129.0,129.63,129.78,754435.0,98957892.0,1620375000.0,6481500000.0
sh605288,凯迪股份,2020-12-09,129.48,129.99,126.5,127.0,129.63,382600.0,49084009.0,1587500000.0,6350000000.0
sh605288,凯迪股份,2020-12-10,127.46,134.48,127.0,129.16,127.0,741400.0,97183476.0,1614500000.0,6458000000.0
sh605288,凯迪股份,2020-12-11,129.97,133.0,127.75,131.28,129.16,504974.0,66037124.0,1641000000.0,6564000000.0
sh605288,凯迪股份,2020-12-14,130.51,134.4,129.21,133.48,131.28,692850.0,91822511.0,1668500000.0,6674000000.0
sh605288,凯迪股份,2020-12-15,135.87,141.25,132.35,134.2,133.48,1076544.0,146746188.0,1677500000.0,6710000000.0
sh605288,凯迪股份,2020-12-16,131.33,137.0,130.18,135.5,134.2,651000.0,87384816.0,1693750000.0,6775000000.0
sh605288,凯迪股份,2020-12-17,137.99,148.98,135.0,147.69,135.5,1649980.0,237296356.0,1846125000.0,7384500000.0
sh605288,凯迪股份,2020-12-18,147.96,149.89,144.27,146.05,147.69,752600.0,110162257.0,1825625000.0,7302500000.0
sh605288,凯迪股份,2020-12-21,146.0,151.23,142.61,147.26,146.05,958320.0,140668240.0,1840750000.0,7363000000.0
sh605288,凯迪股份,2020-12-22,146.91,151.88,145.27,147.03,147.26,743794.0,110778459.0,1837875000.0,7351500000.0
sh605288,凯迪股份,2020-12-23,147.61,149.86,144.28,146.5,147.03,683498.0,100133424.0,1831250000.0,7325000000.0
sh605288,凯迪股份,2020-12-24,145.2,148.49,141.25,142.68,146.5,656921.0,94682679.0,1783500000.0,7134000000.0
sh605288,凯迪股份,2020-12-25,142.5,142.5,132.05,136.7,142.68,1133975.0,153773407.0,1708750000.0,6835000000.0
sh605288,凯迪股份,2020-12-28,136.82,137.33,124.89,125.49,136.7,994551.0,128456269.0,1568625000.0,6274500000.0
sh605288,凯迪股份,2020-12-29,125.0,129.41,124.29,125.0,125.49,1241100.0,157285854.0,1562500000.0,6250000000.0
sh605288,凯迪股份,2020-12-30,123.52,126.6,121.0,126.2,125.0,1052343.0,129615452.0,1577500000.0,6310000000.0
sh605288,凯迪股份,2020-12-31,124.65,126.74,123.5,124.9,126.2,461800.0,58019860.0,1561250000.0,6245000000.0
sh605288,凯迪股份,2021-01-04,126.0,129.24,124.21,128.56,124.9,567175.0,72373433.0,1607000000.0,6428000000.0
sh605288,凯迪股份,2021-01-05,127.98,132.02,126.97,131.05,128.56,689775.0,88955004.0,1638125000.0,6552500000.0
sh605288,凯迪股份,2021-01-06,130.88,131.99,127.7,130.51,131.05,561800.0,72720639.0,1631375000.0,6525500000.0
sh605288,凯迪股份,2021-01-07,129.87,131.65,122.9,123.85,130.51,876200.0,110126069.0,1548125000.0,6192500000.0
sh605288,凯迪股份,2021-01-08,123.16,129.53,118.28,128.87,123.85,735449.0,91968715.0,1610875000.0,6443500000.0
sh605288,凯迪股份,2021-01-11,128.87,128.87,122.03,122.5,128.87,640600.0,79899533.0,1531250000.0,6125000000.0
sh605288,凯迪股份,2021-01-12,119.08,126.4,119.08,122.57,122.5,491800.0,60095377.0,1532125000.0,6128500000.0
sh605288,凯迪股份,2021-01-13,122.0,123.48,118.21,120.0,122.57,679525.0,81800225.0,1500000000.0,6060048000.0
sh605288,凯迪股份,2021-01-14,119.01,124.4,118.99,119.69,120.0,459000.0,55770237.0,1496125000.0,6044392876.0
sh605288,凯迪股份,2021-01-15,119.6,123.05,119.5,122.58,119.69,228700.0,27884633.0,1532250000.0,6190339031.999999
sh605288,凯迪股份,2021-01-18,121.58,126.8,121.58,125.82,122.58,410934.0,51531180.0,1572750000.0,6353960328.0
sh605288,凯迪股份,2021-01-19,127.0,127.0,123.0,123.35,125.82,266900.0,33298884.0,1541875000.0,6229224340.0
sh605288,凯迪股份,2021-01-20,124.0,124.92,123.01,124.49,123.35,154300.0,19182430.0,1556125000.0,6286794796.0
sh605288,凯迪股份,2021-01-21,123.75,124.87,122.57,122.65,124.49,285600.0,35224664.0,1533125000.0,6193874060.0
sh605288,凯迪股份,2021-01-22,122.52,123.47,121.01,121.74,122.65,232900.0,28407375.0,1521750000.0,6147918696.0
sh605288,凯迪股份,2021-01-25,122.09,122.88,118.4,119.0,121.74,434580.0,51888772.0,1487500000.0,6009547600.0
sh605288,凯迪股份,2021-01-26,118.53,120.87,118.5,119.0,119.0,161125.0,19274820.0,1487500000.0,6009547600.0
sh605288,凯迪股份,2021-01-27,120.0,120.47,118.35,119.13,119.0,200925.0,23959566.0,1489125000.0,6016112652.0
sh605288,凯迪股份,2021-01-28,119.51,125.3,119.18,122.63,119.13,465300.0,57436170.0,1532875000.0,6192864052.0
sh605288,凯迪股份,2021-01-29,121.2,122.6,118.0,118.98,122.63,347900.0,41451535.0,1487250000.0,6008537592.0
sh605288,凯迪股份,2021-02-01,118.2,123.98,117.3,122.6,118.98,320900.0,38658965.0,1532500000.0,6191349040.0
sh605288,凯迪股份,2021-02-02,121.61,122.28,119.5,119.79,122.6,301900.0,36304531.0,1497375000.0,6049442916.0
sh605288,凯迪股份,2021-02-03,119.7,121.3,117.22,118.72,119.79,301400.0,35798873.0,1484000000.0,5995407487.999999
sh605288,凯迪股份,2021-02-04,118.08,119.49,114.8,114.88,118.72,369600.0,43184260.0,1436000000.0,5801485952.0
sh605288,凯迪股份,2021-02-05,115.5,116.0,113.8,113.82,114.88,227800.0,26095798.0,1422750000.0,5747955527.999999
sh605288,凯迪股份,2021-02-08,113.88,113.88,111.17,113.5,113.82,217500.0,24457328.0,1418750000.0,5731795400.0
sh605288,凯迪股份,2021-02-09,112.7,113.95,111.4,112.99,113.5,272947.0,30689421.0,1412375000.0,5706040196.0
sh605288,凯迪股份,2021-02-10,112.67,112.87,106.7,110.74,112.99,554243.0,60848101.0,1384250000.0,5592414296.0
sh605288,凯迪股份,2021-02-18,110.95,112.49,110.95,111.89,110.74,178600.0,19981739.0,1398625000.0,5650489756.0
sh605288,凯迪股份,2021-02-19,111.89,113.74,110.01,113.36,111.89,190595.0,21486440.0,1417000000.0,5724725344.0
sh605288,凯迪股份,2021-02-22,113.4,116.53,113.4,113.92,113.36,267200.0,30660685.0,1424000000.0,5753005568.0
sh605288,凯迪股份,2021-02-23,113.8,114.38,111.12,112.92,113.92,210600.0,23697913.0,1411500000.0,5702505168.0
sh605288,凯迪股份,2021-02-24,112.8,112.99,111.39,111.85,112.92,123300.0,13818282.0,1398125000.0,5648469740.0
sh605288,凯迪股份,2021-02-25,112.03,112.15,110.61,110.66,111.85,119000.0,13245082.0,1383250000.0,5588374264.0
sh605288,凯迪股份,2021-02-26,110.3,111.88,110.0,111.1,110.66,101099.0,11245015.0,1388750000.0,5610594440.0
sh605288,凯迪股份,2021-03-01,112.11,113.9,112.0,113.8,111.1,189400.0,21464120.0,1422500000.0,5746945520.0
sh605288,凯迪股份,2021-03-02,114.01,114.48,110.85,111.96,113.8,113100.0,12679567.0,1399500000.0,5654024784.0
sh605288,凯迪股份,2021-03-03,111.97,112.73,111.2,112.48,111.96,110012.0,12327250.0,1406000000.0,5680284992.0
sh605288,凯迪股份,2021-03-04,112.66,112.66,110.65,110.67,112.48,109411.0,12168035.0,1383375000.0,5588879268.0
sh605288,凯迪股份,2021-03-05,110.03,111.56,109.4,110.65,110.67,155900.0,17261330.0,1383125000.0,5587869260.0
sh605288,凯迪股份,2021-03-08,111.46,112.5,110.33,110.5,110.65,135800.0,15096106.0,1381250000.0,5580294200.0
sh605288,凯迪股份,2021-03-09,111.3,112.2,106.89,110.46,110.5,174800.0,19304507.0,1380750000.0,5578274184.0
sh605288,凯迪股份,2021-03-10,109.76,111.49,107.51,107.95,110.46,258100.0,27976497.0,1349375000.0,5451518180.0
sh605288,凯迪股份,2021-03-11,107.04,108.99,106.85,107.08,107.95,205900.0,22090703.0,1338500000.0,5407582831.999999
sh605288,凯迪股份,2021-03-12,107.07,108.44,102.53,108.28,107.08,626319.0,65389222.0,1353500000.0,5468183312.0
sh605288,凯迪股份,2021-03-15,108.0,111.56,106.0,111.33,108.28,388200.0,42306913.0,1391625000.0,5622209532.0
sh605288,凯迪股份,2021-03-16,110.89,114.27,109.7,112.67,111.33,226600.0,25572815.0,1408375000.0,5689880068.0
sh605288,凯迪股份,2021-03-17,113.5,117.17,112.15,116.09,112.67,446150.0,51634610.0,1451125000.0,5862591435.999999
sh605288,凯迪股份,2021-03-18,116.8,116.9,114.16,116.59,116.09,220300.0,25407544.0,1457375000.0,5887841636.0
sh605288,凯迪股份,2021-03-19,114.87,115.76,113.56,113.98,116.59,186000.0,21299108.0,1424750000.0,5756035592.0
sh605288,凯迪股份,2021-03-22,113.75,116.38,113.22,116.0,113.98,156900.0,18007615.0,1450000000.0,5858046400.0
sh605288,凯迪股份,2021-03-23,116.0,116.26,113.6,114.0,116.0,149000.0,17084557.0,1425000000.0,5757045600.000001
sh605288,凯迪股份,2021-03-24,113.95,114.66,111.0,112.05,114.0,115400.0,12997568.0,1400625000.0,5658569820.0
sh605288,凯迪股份,2021-03-25,111.35,115.4,108.68,110.09,112.05,287937.0,32130411.0,1376125000.0,5559589036.0
sh605288,凯迪股份,2021-03-26,110.65,115.44,109.11,115.39,110.09,325037.0,36937915.0,1442375000.0,5827241156.0
sh605288,凯迪股份,2021-03-29,115.22,115.22,113.59,114.78,115.39,124900.0,14271400.0,1434750000.0,5796435912.0
sh605288,凯迪股份,2021-03-30,115.5,116.47,113.4,115.48,114.78,181700.0,20937469.0,1443500000.0,5831786192.0
sh605288,凯迪股份,2021-03-31,114.48,118.85,114.48,118.16,115.48,319200.0,37489290.0,1477000000.0,5967127264.0
sh605288,凯迪股份,2021-04-01,117.58,118.0,115.66,116.5,118.16,187800.0,21886913.0,1456250000.0,5883296600.0
sh605288,凯迪股份,2021-04-02,116.99,117.3,115.22,116.29,116.5,141300.0,16399050.0,1453625000.0,5872691516.0
sh605288,凯迪股份,2021-04-06,115.85,117.98,114.91,116.01,116.29,165100.0,19204485.0,1450125000.0,5858551404.0
sh605288,凯迪股份,2021-04-07,115.31,116.88,113.89,115.66,116.01,143100.0,16474408.0,1445750000.0,5840876263.999999
sh605288,凯迪股份,2021-04-08,115.65,117.75,115.65,116.08,115.66,158000.0,18454560.0,1451000000.0,5862086432.000001
sh605288,凯迪股份,2021-04-09,115.99,117.5,114.55,115.0,116.08,273200.0,31603865.0,1437500000.0,5807546000.0
sh605288,凯迪股份,2021-04-12,115.0,116.66,113.8,113.9,115.0,171300.0,19698779.0,1423750000.0,5751995560.0
sh605288,凯迪股份,2021-04-13,113.9,114.9,112.3,112.3,113.9,147400.0,16744337.0,1403750000.0,5671194920.0
sh605288,凯迪股份,2021-04-14,112.51,113.38,111.92,112.33,112.3,122100.0,13738505.0,1404125000.0,5672709932.0
sh605288,凯迪股份,2021-04-15,112.98,112.98,110.77,111.0,112.33,115270.0,12832209.0,1387500000.0,5605544399.999999
sh605288,凯迪股份,2021-04-16,111.01,111.87,111.0,111.77,111.0,67900.0,7569696.0,1397125000.0,5644429708.0
sh605288,凯迪股份,2021-04-19,112.56,115.55,111.13,113.99,111.77,180700.0,20490181.0,1424875000.0,5756540596.0
sh605288,凯迪股份,2021-04-20,113.36,114.97,113.01,114.76,113.99,215100.0,24534944.0,1434500000.0,5795425904.0
sh605288,凯迪股份,2021-04-21,114.8,114.8,103.28,110.7,114.76,270600.0,30374274.0,1383750000.0,5590394280.0
sh605288,凯迪股份,2021-04-22,110.65,110.65,105.9,107.0,110.7,455692.0,49116705.0,1337500000.0,5403542800.0
sh605288,凯迪股份,2021-04-23,107.39,107.98,102.72,103.99,107.0,569900.0,59341995.0,1299875000.0,5251536596.0
sh605288,凯迪股份,2021-04-26,104.02,106.75,103.05,104.75,103.99,234613.0,24630951.0,1309375000.0,5289916899.999999
sh605288,凯迪股份,2021-04-27,105.28,105.28,102.4,103.6,104.75,142100.0,14677618.0,1295000000.0,5231841440.0
sh605288,凯迪股份,2021-04-28,104.2,108.85,104.2,107.07,103.6,398500.0,42596407.0,1338375000.0,5407077828.0
sh605288,凯迪股份,2021-04-29,106.07,109.18,106.0,108.4,107.07,251800.0,27093382.0,1355000000.0,5474243360.0
sh605288,凯迪股份,2021-04-30,108.96,109.39,107.6,109.01,108.4,193200.0,20996019.0,1362625000.0,5505048604.0
sh605288,凯迪股份,2021-05-06,108.86,109.5,104.24,105.5,109.01,310700.0,32851551.0,1318750000.0,5327792200.0
sh605288,凯迪股份,2021-05-07,104.9,106.38,104.58,105.0,105.5,108400.0,11430868.0,1312500000.0,5302542000.0
sh605288,凯迪股份,2021-05-10,104.55,105.4,99.88,101.26,105.0,305700.0,31149554.0,1265750000.0,5113670504.0
sh605288,凯迪股份,2021-05-11,100.72,102.56,100.2,102.2,101.26,100300.0,10187388.0,1277500000.0,5161140880.0
sh605288,凯迪股份,2021-05-12,101.9,102.2,101.02,101.9,102.2,67000.0,6805614.0,1273750000.0,5145990760.0
sh605288,凯迪股份,2021-05-13,103.49,105.0,102.08,103.68,101.9,145349.0,15012186.0,1296000000.0,5235881472.0
sh605288,凯迪股份,2021-05-14,103.48,104.0,102.08,103.8,103.68,115800.0,11911417.0,1297500000.0,5241941520.0
sh605288,凯迪股份,2021-05-17,102.9,106.6,102.41,105.0,103.8,272600.0,28550741.0,1312500000.0,5302542000.0
sh605288,凯迪股份,2021-05-18,105.7,105.7,104.15,104.71,105.0,183400.0,19194741.0,1308875000.0,5287896884.0
sh605288,凯迪股份,2021-05-19,104.33,107.19,104.11,105.31,104.71,208200.0,22007538.0,1316375000.0,5318197124.0
sh605288,凯迪股份,2021-05-20,104.82,108.15,104.82,106.83,105.31,262000.0,27985303.0,1335375000.0,5394957732.000001
sh605288,凯迪股份,2021-05-21,108.0,108.0,106.0,106.87,106.83,148000.0,15823564.0,1335875000.0,5396977748.0
sh605288,凯迪股份,2021-05-24,106.4,110.08,106.14,108.6,106.87,368897.0,40096787.0,1357500000.0,5484343440.0
sh605288,凯迪股份,2021-05-25,108.3,110.45,107.98,109.17,108.6,314697.0,34430375.0,1364625000.0,5513128668.0
sh605288,凯迪股份,2021-05-26,108.99,112.98,108.3,112.16,109.17,288292.0,32281546.0,1402000000.0,5664124864.000001
sh605288,凯迪股份,2021-05-27,112.19,113.97,111.02,113.8,112.16,341400.0,38452497.0,1422500000.0,5746945520.0
sh605288,凯迪股份,2021-05-28,113.8,113.82,111.87,111.87,113.8,166842.0,18812174.0,1398375000.0,5649479748.0
sh605288,凯迪股份,2021-05-31,111.03,114.22,110.21,114.22,111.87,286058.0,32099496.0,1427750000.0,5768155688.0
sh605288,凯迪股份,2021-06-01,113.6,116.72,113.11,114.16,114.22,216900.0,24908616.0,1427000000.0,5765125664.0
sh605288,凯迪股份,2021-06-02,114.16,115.42,112.2,113.97,114.16,297400.0,33797085.0,1424625000.0,5755530588.0
sh605288,凯迪股份,2021-06-03,116.3,116.97,112.23,113.2,113.97,335617.0,38197810.0,1415000000.0,5716645280.000001
sh605288,凯迪股份,2021-06-04,112.05,113.49,112.05,112.28,113.2,89370.0,10054888.0,1403500000.0,5670184912.0
sh605288,凯迪股份,2021-06-07,110.0,114.27,110.0,112.6,112.28,319000.0,36142555.0,1407500000.0,5686345040.0
sh605288,凯迪股份,2021-06-08,112.1,113.71,110.03,112.36,112.6,276927.0,31257757.0,1404500000.0,5674224944.0
sh605288,凯迪股份,2021-06-09,113.0,113.83,110.41,110.64,112.36,149430.0,16703826.0,1383000000.0,5587364256.0
sh605288,凯迪股份,2021-06-10,110.9,114.69,110.72,111.71,110.64,379900.0,42920939.0,1396375000.0,5641399684.0
sh605288,凯迪股份,2021-06-11,111.59,112.0,108.5,108.55,111.71,203200.0,22354328.0,1356875000.0,5481818419.999999
sh605288,凯迪股份,2021-06-15,108.55,109.45,107.3,107.77,108.55,139100.0,15031655.0,1347125000.0,5442428108.0
sh605288,凯迪股份,2021-06-16,107.52,108.28,105.31,105.76,107.77,114000.0,12133845.0,1322000000.0,5340922304.0
sh605288,凯迪股份,2021-06-17,106.47,106.47,104.06,104.42,105.76,128045.0,13435849.0,1305250000.0,5273251768.0
sh605288,凯迪股份,2021-06-18,104.1,105.27,104.03,105.0,104.42,73900.0,7747256.0,1312500000.0,5302542000.0
sh605288,凯迪股份,2021-06-21,104.88,106.24,103.3,103.42,105.0,248700.0,25918172.0,1292750000.0,5222751368.0
sh605288,凯迪股份,2021-06-22,103.74,104.18,103.0,103.45,103.42,338166.0,34988676.0,1293125000.0,5224266380.0
sh605288,凯迪股份,2021-06-23,103.7,104.89,103.39,103.7,103.45,339000.0,35120581.0,1296250000.0,5236891480.0
sh605288,凯迪股份,2021-06-24,103.68,103.68,102.0,102.96,103.7,180083.0,18487755.0,1287000000.0,5199521184.0
sh605288,凯迪股份,2021-06-25,103.27,103.45,102.1,102.95,102.96,175800.0,18038437.0,1286875000.0,5198192580.0
sh605288,凯迪股份,2021-06-28,103.23,104.39,102.16,104.3,102.95,291683.0,30145864.0,1303750000.0,5266357320.0
sh605288,凯迪股份,2021-06-29,103.95,104.74,103.21,103.99,104.3,154370.0,16039757.0,1299875000.0,5250704676.0
sh605288,凯迪股份,2021-06-30,103.29,104.54,103.29,104.48,103.99,178900.0,18608697.0,1306000000.0,5275445952.0
sh605288,凯迪股份,2021-07-01,104.78,104.79,103.39,103.46,104.48,179700.0,18707766.0,1293250000.0,5223943704.0
sh605288,凯迪股份,2021-07-02,103.29,103.57,102.6,102.6,103.46,127900.0,13179692.0,1282500000.0,5180520240.0
sh605288,凯迪股份,2021-07-05,103.38,103.99,102.8,103.9,102.6,170400.0,17612938.0,1298750000.0,5246160360.0
sh605288,凯迪股份,2021-07-06,104.0,104.9,102.11,102.96,103.9,217900.0,22433476.0,1287000000.0,5198697504.0
sh605288,凯迪股份,2021-07-07,101.11,102.1,101.11,101.83,102.96,259200.0,26359931.0,1272875000.0,5141641092.0
sh605288,凯迪股份,2021-07-08,101.9,101.92,100.1,100.63,101.83,180500.0,18239204.0,1257875000.0,5081050212.0
sh605288,凯迪股份,2021-07-09,100.5,102.38,100.1,102.02,100.63,195811.0,19869286.0,1275250000.0,5151234648.0
sh605288,凯迪股份,2021-07-12,102.86,102.86,101.55,102.24,102.02,168200.0,17189764.0,1278000000.0,5162342976.0
sh605288,DR凯迪股,2021-07-13,71.5,72.67,71.5,72.3,72.3,150066.0,10859291.0,903750000.0,3650600520.000001
sh605288,凯迪股份,2021-07-14,71.51,72.29,69.78,70.45,72.3,387901.0,27365506.0,1232875000.0,4980065412.0
sh605288,凯迪股份,2021-07-15,70.3,71.96,68.04,71.88,70.45,653821.0,45766968.0,1257900000.0,5081151196.8
sh605288,凯迪股份,2021-07-16,71.21,77.65,71.21,77.32,71.88,1628212.0,121981315.0,1353100000.0,5465701315.200001
sh605288,凯迪股份,2021-07-19,76.99,81.47,73.37,73.5,77.32,1777281.0,138268270.0,1286250000.0,5195667960.0
sh605288,凯迪股份,2021-07-20,73.01,73.01,69.78,70.4,73.5,1185660.0,83595342.0,1232000000.0,4976530944.0
sh605288,凯迪股份,2021-07-21,70.4,70.52,68.3,68.39,70.4,839079.0,57933443.0,1196825000.0,4834445330.4
sh605288,凯迪股份,2021-07-22,68.23,68.72,66.66,67.69,68.39,568474.0,38372144.0,1184575000.0,4784962778.4
sh605288,凯迪股份,2021-07-23,67.5,67.63,64.4,64.56,67.69,693854.0,45615313.0,1129800000.0,4563705081.6
sh605288,凯迪股份,2021-07-26,64.55,64.55,60.9,61.37,64.56,767494.0,47446716.0,1073975000.0,4338206023.2
sh605288,凯迪股份,2021-07-27,61.8,61.8,60.22,60.35,61.37,418140.0,25497229.0,1056125000.0,4266102876.0
sh605288,凯迪股份,2021-07-28,59.9,60.0,55.2,56.05,60.35,1047420.0,59679645.0,980875000.0,3962138628.0
sh605288,凯迪股份,2021-07-29,56.59,58.29,56.0,57.2,56.05,898020.0,51103253.0,1001000000.0,4043431392.0
sh605288,凯迪股份,2021-07-30,57.08,57.79,55.88,57.43,57.2,578960.0,32828767.0,1005025000.0,4059689944.8
sh605288,凯迪股份,2021-08-02,57.0,58.63,57.0,58.24,57.43,662020.0,38443828.0,1019200000.0,4116948326.4
sh605288,凯迪股份,2021-08-03,57.9,60.8,57.58,57.97,58.24,938740.0,55174797.0,1014475000.0,4097862199.2
sh605288,凯迪股份,2021-08-04,58.0,58.95,56.92,58.74,57.97,513480.0,30022774.0,1027950000.0,4152293006.4
sh605288,凯迪股份,2021-08-05,58.75,58.93,56.9,57.4,58.74,541720.0,31324103.0,1004500000.0,4057569264.0
sh605288,凯迪股份,2021-08-06,57.01,57.81,55.68,57.59,57.4,683073.0,38553624.0,1007825000.0,4071000242.4
sh605288,凯迪股份,2021-08-09,57.43,58.55,56.71,58.4,57.59,574981.0,33120961.0,1022000000.0,4128258624.0
sh605288,凯迪股份,2021-08-10,58.1,59.6,58.1,58.88,58.4,736880.0,43351793.0,1030400000.0,4162189516.8
sh605288,凯迪股份,2021-08-11,59.08,60.58,58.37,60.3,58.88,655920.0,39260967.0,1055250000.0,4262568408.0
sh605288,凯迪股份,2021-08-12,60.88,60.88,58.7,59.05,60.3,573134.0,33964421.0,1033375000.0,4174206708.0
sh605288,凯迪股份,2021-08-13,58.79,59.35,58.24,59.09,59.05,301555.0,17778057.0,1034075000.0,4177034282.4
sh605288,凯迪股份,2021-08-16,58.94,59.98,58.52,59.49,59.09,346959.0,20577291.0,1041075000.0,4205310026.4
sh605288,凯迪股份,2021-08-17,59.5,59.95,57.6,57.73,59.49,372580.0,21791030.0,1010275000.0,4080896752.8
sh605288,凯迪股份,2021-08-18,57.91,58.33,57.01,57.45,57.73,474540.0,27302543.0,1005375000.0,4061103732.0
sh605288,凯迪股份,2021-08-19,57.63,58.21,57.0,57.58,57.45,314540.0,18064834.0,1007650000.0,4070293348.8
sh605288,凯迪股份,2021-08-20,57.76,57.84,55.24,56.35,57.58,485439.0,27313784.0,986125000.0,3983345436.0
sh605288,凯迪股份,2021-08-23,56.52,59.15,56.51,58.69,56.35,510753.0,29797022.0,1027075000.0,4148758538.4
sh605288,凯迪股份,2021-08-24,58.63,59.38,58.25,58.46,58.69,426440.0,25035409.0,1023050000.0,4132499985.6
sh605288,凯迪股份,2021-08-25,56.81,57.88,56.3,57.35,58.46,518840.0,29632008.0,1003625000.0,4054034796.0
sh605288,凯迪股份,2021-08-26,56.89,57.36,53.69,54.2,57.35,986580.0,54787991.0,948500000.0,3831363312.0
sh605288,凯迪股份,2021-08-27,53.6,54.27,52.38,52.42,54.2,621900.0,32915976.0,917350000.0,3705536251.2
sh605288,凯迪股份,2021-08-30,52.1,52.79,51.88,52.43,52.42,433700.0,22682781.0,917525000.0,3706243144.8
sh605288,凯迪股份,2021-08-31,52.6,52.69,51.59,52.31,52.43,375939.0,19602318.0,915425000.0,3697760421.6
sh605288,凯迪股份,2021-09-01,52.49,56.88,52.49,54.99,52.31,1266100.0,70252938.0,962325000.0,3887207906.4
sh605288,凯迪股份,2021-09-02,54.99,60.38,54.01,59.82,54.99,1951740.0,113397673.0,1046850000.0,4228637515.2
sh605288,凯迪股份,2021-09-03,59.24,62.48,58.6,59.42,59.82,1447440.0,87118724.0,1039850000.0,4200361771.2
sh605288,凯迪股份,2021-09-06,61.0,63.25,59.43,62.97,59.42,1366835.0,84899484.0,1101975000.0,4451308999.2
sh605288,凯迪股份,2021-09-07,62.03,63.1,60.59,60.94,62.97,988180.0,60797249.0,1066450000.0,4307809598.400001
sh605288,凯迪股份,2021-09-08,60.8,62.82,59.0,61.78,60.94,1105475.0,67130383.0,1081150000.0,4367188660.8
sh605288,凯迪股份,2021-09-09,61.0,62.73,59.87,60.4,61.78,621415.0,37890856.0,1057000000.0,4269637344.0
sh605288,凯迪股份,2021-09-10,60.38,60.85,58.78,60.01,60.4,547260.0,32675665.0,1050175000.0,4242068493.6
sh605288,凯迪股份,2021-09-13,59.8,60.65,58.74,59.18,60.01,321960.0,19002525.0,1035650000.0,4183396324.8
sh605288,凯迪股份,2021-09-14,59.05,59.26,56.02,56.25,59.18,632780.0,36338343.0,984375000.0,3976276500.0
sh605288,凯迪股份,2021-09-15,56.1,56.59,54.8,55.03,56.25,448925.0,24901937.0,963025000.0,3890035480.8
sh605288,凯迪股份,2021-09-16,54.9,57.43,54.9,55.5,55.03,637509.0,35901206.0,971250000.0,3923259480.0
sh605288,凯迪股份,2021-09-17,56.14,56.35,54.17,55.86,55.5,322550.0,17861466.0,977550000.0,3948707649.6
sh605288,凯迪股份,2021-09-22,55.86,56.08,54.7,55.0,55.86,213240.0,11753241.0,962500000.0,3887914800.0
sh605288,凯迪股份,2021-09-23,55.31,56.41,55.05,56.04,55.0,252538.0,14088026.0,980700000.0,3961431734.4
sh605288,凯迪股份,2021-09-24,55.85,56.27,55.01,55.23,56.04,190760.0,10606138.0,966525000.0,3904173352.8
sh605288,凯迪股份,2021-09-27,55.76,55.76,52.72,54.1,55.23,497623.0,26866768.0,946750000.0,3824294376.0
sh605288,凯迪股份,2021-09-28,53.5,54.21,53.23,53.71,54.1,205200.0,11011011.0,939925000.0,3796725525.6
sh605288,凯迪股份,2021-09-29,53.81,53.81,52.03,52.9,53.71,280623.0,14808880.0,925750000.0,3739467144.0
sh605288,凯迪股份,2021-09-30,53.49,54.8,53.02,54.72,52.9,282516.0,15325509.0,957600000.0,3868121779.2
sh605288,凯迪股份,2021-10-08,54.89,55.95,54.3,55.5,54.72,227436.0,12599313.0,971250000.0,3923259480.0
sh605288,凯迪股份,2021-10-11,55.49,55.77,54.41,55.47,55.5,182000.0,10007570.0,970725000.0,3921138799.2
sh605288,凯迪股份,2021-10-12,55.0,55.78,54.08,54.43,55.47,153600.0,8406822.0,952525000.0,3847621864.8
sh605288,凯迪股份,2021-10-13,54.5,55.59,54.21,55.55,54.43,168200.0,9265766.0,972125000.0,3926793948.0
sh605288,凯迪股份,2021-10-14,55.21,55.62,54.89,55.38,55.55,137210.0,7575507.0,969150000.0,3914776756.8
sh605288,凯迪股份,2021-10-15,55.19,55.19,54.35,54.35,55.38,109740.0,5995601.0,951125000.0,3841966716.0
sh605288,凯迪股份,2021-10-18,54.31,54.35,53.01,53.81,54.35,189063.0,10115626.0,941675000.0,3803794461.6
sh605288,凯迪股份,2021-10-19,53.92,55.49,53.07,54.77,53.81,195080.0,10686010.0,958475000.0,3871656247.2
sh605288,凯迪股份,2021-10-20,54.96,56.5,53.92,56.5,54.77,395920.0,22037608.0,988750000.0,3993948840.0
sh605288,凯迪股份,2021-10-21,56.5,56.89,54.88,55.84,56.5,633680.0,35321705.0,977200000.0,3947293862.4
sh605288,凯迪股份,2021-10-22,55.78,61.42,55.37,61.42,55.84,1384391.0,82780121.0,1074850000.0,4341740491.2
sh605288,凯迪股份,2021-10-25,61.5,62.9,59.9,62.25,61.42,1622822.0,99184612.0,1089375000.0,4400412660.0
sh605288,凯迪股份,2021-10-26,61.58,68.0,61.54,66.0,62.25,2125242.0,139068625.0,1155000000.0,4665497760.0
sh605288,凯迪股份,2021-10-27,66.6,70.0,64.0,69.74,66.0,2446903.0,165557366.0,1220450000.0,4929875966.4
sh605288,凯迪股份,2021-10-28,68.48,69.5,65.0,67.81,69.74,1549289.0,103785537.0,1186675000.0,4793445501.599999
sh605288,凯迪股份,2021-10-29,66.44,67.79,65.8,67.08,67.81,952320.0,63584133.0,1173900000.0,4741842268.8
sh605288,凯迪股份,2021-11-01,66.5,66.5,62.01,64.71,67.08,1367274.0,87572806.0,1132425000.0,4574308485.6
sh605288,凯迪股份,2021-11-02,63.99,64.68,59.93,60.29,64.71,1544020.0,95739241.0,1055075000.0,4261861514.4
sh605288,凯迪股份,2021-11-03,60.5,65.26,59.47,65.16,60.29,1420794.0,88985114.0,1140300000.0,4606118697.599999
sh605288,凯迪股份,2021-11-04,64.53,64.73,62.2,63.52,65.16,985409.0,62495041.0,1111600000.0,4490188147.2
sh605288,凯迪股份,2021-11-05,63.65,65.92,62.49,65.61,63.52,1028202.0,66426100.0,1148175000.0,4637928909.599999
sh605288,凯迪股份,2021-11-08,65.83,65.83,62.5,62.6,65.61,749877.0,47503889.0,1095500000.0,4425153936.0
sh605288,凯迪股份,2021-11-09,62.01,68.62,62.0,66.8,62.6,1230998.0,81686481.0,1169000000.0,4721581648.0
sh605288,凯迪股份,2021-11-10,66.0,73.48,65.61,73.48,66.8,2176082.0,155241399.0,1285900000.0,5193739812.8
sh605288,凯迪股份,2021-11-11,73.47,73.88,69.88,71.0,73.48,1808664.0,128036272.0,1242500000.0,5018447560.0
sh605288,凯迪股份,2021-11-12,70.97,73.9,69.8,72.31,71.0,1349414.0,96625442.0,1265425000.0,5111041451.6
sh605288,凯迪股份,2021-11-15,72.51,73.46,70.19,73.24,72.31,1031240.0,74174148.0,1281700000.0,5176776046.4
sh605288,凯迪股份,2021-11-16,73.25,74.93,71.01,71.85,73.24,775166.0,56298963.0,1257375000.0,5078527566.0
sh605288,凯迪股份,2021-11-17,71.22,74.3,70.05,72.82,71.85,1019705.0,73656995.0,1274350000.0,5147089455.2
sh605288,凯迪股份,2021-11-18,72.63,77.5,71.63,75.18,72.82,1171220.0,87881370.0,1315650000.0,5313899824.8
sh605288,凯迪股份,2021-11-19,75.01,76.0,71.8,72.01,75.18,830433.0,61162286.0,1260175000.0,5089836743.6
sh605288,凯迪股份,2021-11-22,72.37,73.68,70.2,71.1,72.01,773284.0,55268653.0,1244250000.0,5025515796.0
sh605288,凯迪股份,2021-11-23,71.31,72.86,69.22,69.95,71.1,773940.0,54804677.0,1224125000.0,4944231082.0
sh605288,凯迪股份,2021-11-24,69.85,70.95,68.81,70.23,69.95,810420.0,56570498.0,1229025000.0,4964022142.8
sh605288,凯迪股份,2021-11-25,71.02,75.5,70.59,72.49,70.23,1155740.0,84148972.0,1268575000.0,5123764276.4
sh605288,凯迪股份,2021-11-26,71.98,73.36,70.18,72.48,72.49,1054086.0,75438492.0,1268400000.0,5123057452.8
sh605288,凯迪股份,2021-11-29,71.05,72.3,69.63,70.6,72.48,656240.0,46344805.0,1235500000.0,4990174616.0
sh605288,凯迪股份,2021-11-30,72.01,73.39,70.59,70.95,70.6,744220.0,53470828.0,1241625000.0,5014913442.0
sh605288,凯迪股份,2021-12-01,70.6,70.6,66.8,66.9,70.95,980580.0,66309290.0,1170750000.0,4728649884.0
sh605288,凯迪股份,2021-12-02,66.61,66.76,64.41,66.0,66.9,564320.0,36902975.0,1155000000.0,4665035760.0
sh605288,凯迪股份,2021-12-03,65.89,69.2,65.01,68.22,66.0,923340.0,62671619.0,1193850000.0,4821950599.200001
sh605288,凯迪股份,2021-12-06,68.0,68.58,64.12,64.73,68.22,694820.0,46009623.0,1132775000.0,4575269162.8
sh605288,凯迪股份,2021-12-07,64.39,66.14,64.39,65.85,64.73,288340.0,18898134.0,1152375000.0,4654433406.0
sh605288,凯迪股份,2021-12-08,66.5,66.55,64.7,65.95,65.85,259960.0,17080722.0,1154125000.0,4661501642.0
sh605288,凯迪股份,2021-12-09,65.95,68.1,65.8,67.09,65.95,368243.0,24792666.0,1174075000.0,4742079532.4
sh605288,凯迪股份,2021-12-10,66.59,67.62,66.15,67.52,67.09,351720.0,23445642.0,1181600000.0,4772472947.2
sh605288,凯迪股份,2021-12-13,67.85,68.1,65.38,65.82,67.52,407882.0,26925690.0,1151850000.0,4652312935.2
sh605288,凯迪股份,2021-12-14,65.7,66.21,65.14,65.51,65.82,200801.0,13180599.0,1146425000.0,4630401403.6
sh605288,凯迪股份,2021-12-15,65.59,66.08,64.8,64.99,65.51,192564.0,12601117.0,1137325000.0,4593646576.4
sh605288,凯迪股份,2021-12-16,64.99,65.47,64.36,65.39,64.99,300120.0,19446070.0,1144325000.0,4621919520.4
sh605288,凯迪股份,2021-12-17,65.48,65.99,65.0,65.01,65.39,169753.0,11098642.0,1137675000.0,4595060223.6
sh605288,凯迪股份,2021-12-20,65.0,65.69,63.64,65.0,65.01,279740.0,18039791.0,1137500000.0,4594353400.0
sh605288,凯迪股份,2021-12-21,65.05,65.58,64.89,65.48,65.0,171320.0,11170245.0,1145900000.0,4628280932.8
sh605288,凯迪股份,2021-12-22,65.5,66.39,65.2,65.78,65.48,213838.0,14101298.0,1151150000.0,4649485640.8
sh605288,凯迪股份,2021-12-23,65.8,66.0,64.7,64.95,65.78,152600.0,9920794.0,1136625000.0,4590819282.0
sh605288,凯迪股份,2021-12-24,64.98,64.98,60.53,61.61,64.95,653620.0,40468119.0,1078175000.0,4354740199.6
sh605288,凯迪股份,2021-12-27,61.5,61.6,59.88,61.02,61.61,238300.0,14517395.0,1067850000.0,4313037607.2
sh605288,凯迪股份,2021-12-28,61.5,63.47,61.03,61.86,61.02,288740.0,17932800.0,1082550000.0,4372410789.6
sh605288,凯迪股份,2021-12-29,62.05,62.35,61.13,62.2,61.86,164460.0,10179240.0,1088500000.0,4396442792.0
sh605288,凯迪股份,2021-12-30,62.0,66.2,62.0,66.0,62.2,626940.0,40673131.0,1155000000.0,4665035760.0
sh605288,凯迪股份,2021-12-31,66.75,66.88,64.13,64.55,66.0,314215.0,20456386.0,1129625000.0,4562546338.0
sh605288,凯迪股份,2022-01-04,64.32,64.73,63.71,64.7,64.55,179140.0,11513638.0,1132250000.0,4573148692.0
sh605288,凯迪股份,2022-01-05,64.99,65.0,62.78,63.05,64.7,296120.0,18738929.0,1103375000.0,4456522798.0
sh605288,凯迪股份,2022-01-06,63.05,65.28,62.66,63.92,63.05,205640.0,13190353.0,1118600000.0,4518016451.2
sh605288,凯迪股份,2022-01-07,64.1,65.3,63.48,63.5,63.92,167069.0,10761412.0,1111250000.0,4488329860.0
sh605288,凯迪股份,2022-01-10,63.13,64.72,62.68,64.49,63.5,187420.0,11961823.0,1128575000.0,4558305396.4
sh605288,凯迪股份,2022-01-11,64.4,64.89,63.15,63.38,64.49,205740.0,13146880.0,1109150000.0,4479847976.8
sh605288,凯迪股份,2022-01-12,63.3,64.5,63.11,64.5,63.38,198265.0,12687973.0,1141579824.0,4559012220.0
sh605288,凯迪股份,2022-01-13,64.55,64.85,63.11,63.35,64.5,170375.0,10856027.0,1121226075.2,4477727506.0
sh605288,凯迪股份,2022-01-14,63.35,63.87,63.01,63.05,63.35,162165.0,10276216.0,1115916401.6,4456522798.0
