数据由邢不行整理
股票代码,股票名称,交易日期,开盘价,最高价,最低价,收盘价,前收盘价,成交量,成交额,流通市值,总市值
sh603390,N通达,2019-11-25,12.08,14.5,12.08,14.5,10.07,1003363.0,14527468.0,1274866100.0,5099461268.0
sh603390,通达电气,2019-11-26,15.95,15.95,15.95,15.95,14.5,334068.0,5328385.0,1402352710.0,5609407394.8
sh603390,通达电气,2019-11-27,17.55,17.55,17.55,17.55,15.95,1991470.0,34950299.0,1543027590.0,6172106569.2
sh603390,通达电气,2019-11-28,19.31,19.31,19.31,19.31,17.55,2445065.0,47214205.0,1697769958.0,6791075661.04
sh603390,通达电气,2019-11-29,19.98,21.24,19.59,21.24,19.31,43337445.0,891635108.0,1867459032.0,7469831540.16
sh603390,通达电气,2019-12-02,20.81,20.81,19.12,19.6,21.24,48737634.0,951522353.0,1723267280.0,6893064886.4
sh603390,通达电气,2019-12-03,18.7,19.87,18.5,19.53,19.6,39060383.0,746421039.0,1717112754.0,6868446797.52
sh603390,通达电气,2019-12-04,19.05,20.76,18.98,20.21,19.53,47868307.0,961765084.0,1776899578.0,7107593946.64
sh603390,通达电气,2019-12-05,20.02,20.46,19.6,19.9,20.21,38332743.0,768216524.0,1749643820.0,6998570981.6
sh603390,通达电气,2019-12-06,19.6,19.84,18.34,18.49,19.9,40107901.0,759392855.0,1625674082.0,6502692334.16
sh603390,通达电气,2019-12-09,18.1,18.66,18.1,18.51,18.49,23499989.0,432695123.0,1627432518.0,6509726073.84
sh603390,通达电气,2019-12-10,18.45,18.96,18.22,18.73,18.51,24964736.0,466289719.0,1646775314.0,6587097210.32
sh603390,通达电气,2019-12-11,18.86,20.5,18.63,19.58,18.73,40946949.0,795375530.0,1721508844.0,6886031146.72
sh603390,通达电气,2019-12-12,19.15,21.3,18.65,20.33,19.58,47183099.0,936616891.0,1787450194.0,7149796384.72
sh603390,通达电气,2019-12-13,20.01,20.77,19.5,19.7,20.33,37927947.0,761208164.0,1732059460.0,6928233584.8
sh603390,通达电气,2019-12-16,19.81,21.59,19.72,20.97,19.7,44453829.0,925208381.0,1843720146.0,7374876054.48
sh603390,通达电气,2019-12-17,20.97,21.29,20.36,21.23,20.97,36292368.0,754887764.0,1866579814.0,7466314670.32
sh603390,通达电气,2019-12-18,21.0,21.18,19.92,20.39,21.23,32688172.0,673529130.0,1792725502.0,7170897603.76
sh603390,通达电气,2019-12-19,20.23,21.78,20.05,20.37,20.39,36419928.0,760433606.0,1790967066.0,7163863864.08
sh603390,通达电气,2019-12-20,20.05,22.41,20.04,22.41,20.37,32794718.0,720598327.0,1970327538.0,7881305311.44
sh603390,通达电气,2019-12-23,23.48,24.28,21.23,21.26,22.41,58391281.0,1352926352.0,1869217468.0,7476865279.84
sh603390,通达电气,2019-12-24,19.52,20.31,19.52,20.08,21.26,35003431.0,697089888.0,1765469744.0,7061874638.72
sh603390,通达电气,2019-12-25,19.9,20.38,19.63,20.14,20.08,25776945.0,515201359.0,1770745052.0,7082975857.76
sh603390,通达电气,2019-12-26,20.21,20.27,19.52,19.77,20.14,20938891.0,416643513.0,1738213986.0,6952851673.68
sh603390,通达电气,2019-12-27,19.7,19.71,18.92,19.17,19.77,23452453.0,453071614.0,1685460906.0,6741839483.28
sh603390,通达电气,2019-12-30,18.8,18.81,18.01,18.37,19.17,16892850.0,310504610.0,1615123466.0,6460489896.08
sh603390,通达电气,2019-12-31,18.4,18.86,18.3,18.74,18.37,13279886.0,248357993.0,1647654532.0,6590614080.16
sh603390,通达电气,2020-01-02,18.88,19.3,18.63,19.05,18.74,16180765.0,306991262.0,1674910290.0,6699637045.2
sh603390,通达电气,2020-01-03,19.0,19.35,18.8,18.94,19.05,14736847.0,280941668.0,1665238892.0,6660951476.96
sh603390,通达电气,2020-01-06,18.5,19.3,18.3,19.14,18.94,15553767.0,293457298.0,1682823252.0,6731288873.76
sh603390,通达电气,2020-01-07,19.2,19.65,19.12,19.28,19.14,16254156.0,314279429.0,1695132304.0,6780525051.52
sh603390,通达电气,2020-01-08,19.05,19.49,18.66,18.7,19.28,15543018.0,296756206.0,1644137660.0,6576546600.8
sh603390,通达电气,2020-01-09,18.98,19.25,18.71,18.91,18.7,10468091.0,198104260.0,1662601238.0,6650400867.44
sh603390,通达电气,2020-01-10,19.0,19.0,18.4,18.47,18.91,11420644.0,212494711.0,1623915646.0,6495658594.48
sh603390,通达电气,2020-01-13,18.56,19.35,18.56,19.27,18.47,17957824.0,343839068.0,1694253086.0,6777008181.68
sh603390,通达电气,2020-01-14,19.27,19.33,18.86,18.94,19.27,14066655.0,267360682.0,1665238892.0,6660951476.96
sh603390,通达电气,2020-01-15,18.7,19.28,18.65,19.01,18.94,10430030.0,198122117.0,1671393418.0,6685569565.84
sh603390,通达电气,2020-01-16,18.83,19.11,18.68,18.81,19.01,9576331.0,180435777.0,1653809058.0,6615232169.04
sh603390,通达电气,2020-01-17,18.81,18.94,18.46,18.5,18.81,8440817.0,157091237.0,1626553300.0,6506209204.0
sh603390,通达电气,2020-01-20,18.39,18.39,18.11,18.31,18.5,7031304.0,128543531.0,1609848158.0,6439388677.04
sh603390,通达电气,2020-01-21,18.41,18.65,17.89,17.95,18.31,8320546.0,151805837.0,1578196310.0,6312781362.8
sh603390,通达电气,2020-01-22,17.85,17.85,17.05,17.33,17.95,8336509.0,145143390.0,1523684794.0,6094735432.72
sh603390,通达电气,2020-01-23,17.1,17.52,16.01,16.28,17.33,9314332.0,155556625.0,1431366904.0,5725464099.52
sh603390,通达电气,2020-02-03,14.65,14.65,14.65,14.65,16.28,602300.0,8823695.0,1288054370.0,5152214315.6
sh603390,通达电气,2020-02-04,13.19,14.41,13.19,14.14,14.65,12520669.0,171410049.0,1243214252.0,4972853953.76
sh603390,通达电气,2020-02-05,14.07,14.73,14.02,14.29,14.14,10350356.0,149635714.0,1256402522.0,5025607001.36
sh603390,通达电气,2020-02-06,14.12,14.96,14.09,14.73,14.29,11871716.0,171372350.0,1295088114.0,5180349274.32
sh603390,通达电气,2020-02-07,14.52,14.88,14.42,14.61,14.73,9652972.0,140855009.0,1284537498.0,5138146836.24
sh603390,通达电气,2020-02-10,14.43,15.6,14.32,15.24,14.61,12277557.0,184090021.0,1339928232.0,5359709636.16
sh603390,通达电气,2020-02-11,15.01,15.48,15.0,15.12,15.24,8267848.0,125767828.0,1329377616.0,5317507198.08
sh603390,通达电气,2020-02-12,14.99,15.31,14.99,15.3,15.12,7950144.0,120624362.0,1345203540.0,5380810855.2
sh603390,通达电气,2020-02-13,15.43,15.94,15.2,15.2,15.3,9671944.0,149705806.0,1336411360.0,5345642156.8
sh603390,通达电气,2020-02-14,15.07,15.44,14.92,15.15,15.2,7171061.0,108823028.0,1332015270.0,5328057807.6
sh603390,通达电气,2020-02-17,15.18,15.9,15.15,15.7,15.15,10641529.0,165470466.0,1380372260.0,5521485648.8
sh603390,通达电气,2020-02-18,15.64,16.08,15.6,16.03,15.7,11467887.0,181714430.0,1409386454.0,5637542353.52
sh603390,通达电气,2020-02-19,16.1,16.1,15.66,15.71,16.03,9231416.0,146312605.0,1381251478.0,5525002518.64
sh603390,通达电气,2020-02-20,15.75,16.38,15.69,16.34,15.71,12571088.0,202905734.0,1436642212.0,5746565318.56
sh603390,通达电气,2020-02-21,16.28,16.48,16.14,16.35,16.34,10679303.0,174245030.0,1437521430.0,5750082188.4
sh603390,通达电气,2020-02-24,16.2,16.48,16.09,16.42,16.35,10064427.0,163876255.0,1443675956.0,5774700277.28
sh603390,通达电气,2020-02-25,15.93,17.67,15.84,17.54,16.42,20903742.0,353108867.0,1542148372.0,6168589699.36
sh603390,通达电气,2020-02-26,17.1,17.48,16.38,16.72,17.54,13998625.0,237761923.0,1470052496.0,5880206372.48
sh603390,通达电气,2020-02-27,16.63,16.92,16.32,16.36,16.72,7417090.0,122391952.0,1438400648.0,5753599058.24
sh603390,通达电气,2020-02-28,15.7,15.73,14.72,14.72,16.36,11124773.0,168638952.0,1294208896.0,5176832404.48
sh603390,通达电气,2020-03-02,14.92,15.39,14.87,15.24,14.72,6044631.0,91440515.0,1339928232.0,5359709636.16
sh603390,通达电气,2020-03-03,15.58,15.76,15.2,15.32,15.24,6961278.0,107811469.0,1346961976.0,5387844594.88
sh603390,通达电气,2020-03-04,15.12,16.07,15.02,16.0,15.32,9321211.0,145833300.0,1406748800.0,5626991744.0
sh603390,通达电气,2020-03-05,16.19,16.3,15.87,16.15,16.0,8820113.0,141950543.0,1419937070.0,5679744791.6
sh603390,通达电气,2020-03-06,15.76,16.43,15.75,16.21,16.15,8235394.0,132539886.0,1425212378.0,5700846010.64
sh603390,通达电气,2020-03-09,15.88,15.95,15.21,15.25,16.21,7386877.0,115296834.0,1340807450.0,5363226506.0
sh603390,通达电气,2020-03-10,14.92,15.53,14.71,15.48,15.25,6510733.0,98796266.0,1361029464.0,5444114512.32
sh603390,通达电气,2020-03-11,15.6,15.69,15.09,15.15,15.48,5234148.0,80673192.0,1332015270.0,5328057807.6
sh603390,通达电气,2020-03-12,14.9,14.99,14.53,14.65,15.15,5777765.0,85242639.0,1288054370.0,5152214315.6
sh603390,通达电气,2020-03-13,13.8,14.39,13.5,14.13,14.65,6582682.0,91791371.0,1242335034.0,4969337083.92
sh603390,通达电气,2020-03-16,14.3,14.5,13.51,13.51,14.13,5636963.0,79113306.0,1187823518.0,4751291153.84
sh603390,通达电气,2020-03-17,13.55,13.98,12.78,13.41,13.51,5209938.0,69447835.0,1179031338.0,4716122455.44
sh603390,通达电气,2020-03-18,13.6,13.78,13.19,13.19,13.41,4709410.0,63863924.0,1159688542.0,4638751318.96
sh603390,通达电气,2020-03-19,13.28,14.42,13.09,13.93,13.19,7354904.0,100207741.0,1224750674.0,4898999687.12
sh603390,通达电气,2020-03-20,13.9,15.32,13.74,15.32,13.93,6556757.0,98037946.0,1346961976.0,5387844594.88
sh603390,通达电气,2020-03-23,15.36,16.0,15.0,15.33,15.32,20360762.0,317305460.0,1347841194.0,5391361464.72
sh603390,通达电气,2020-03-24,15.62,15.74,14.17,15.03,15.33,14538269.0,216943535.0,1321464654.0,5285855369.52
sh603390,通达电气,2020-03-25,15.09,16.1,15.09,15.58,15.03,14682136.0,229178874.0,1369821644.0,5479283210.72
sh603390,通达电气,2020-03-26,15.35,15.36,14.71,14.74,15.58,10321398.0,154084111.0,1295967332.0,5183866144.16
sh603390,通达电气,2020-03-27,15.01,15.02,14.5,14.51,14.74,7298449.0,107652426.0,1275745318.0,5102978137.84
sh603390,通达电气,2020-03-30,14.0,14.18,13.6,13.77,14.51,6655416.0,92219826.0,1210683186.0,4842729769.68
sh603390,通达电气,2020-03-31,13.95,14.06,13.6,13.65,13.77,4713834.0,65086751.0,1200132570.0,4800527331.6
sh603390,通达电气,2020-04-01,13.79,14.25,13.7,13.74,13.65,5529148.0,77034195.0,1208045532.0,4832179160.16
sh603390,通达电气,2020-04-02,13.28,13.96,13.28,13.94,13.74,5217512.0,71288464.0,1225629892.0,4902516556.96
sh603390,通达电气,2020-04-03,13.91,14.14,13.61,13.7,13.94,4411600.0,60997277.0,1204528660.0,4818111680.8
sh603390,通达电气,2020-04-07,14.06,14.15,13.9,14.12,13.7,5640878.0,79140018.0,1241455816.0,4965820214.08
sh603390,通达电气,2020-04-08,14.01,14.35,14.0,14.25,14.12,5183057.0,73493188.0,1252885650.0,5011539522.0
sh603390,通达电气,2020-04-09,14.35,14.45,14.14,14.19,14.25,4428168.0,63135219.0,1247610342.0,4990438302.96
sh603390,通达电气,2020-04-10,14.19,14.24,13.67,13.68,14.19,4622209.0,64122814.0,1202770224.0,4811077941.12
sh603390,通达电气,2020-04-13,13.6,13.6,13.41,13.49,13.68,2395700.0,32345634.0,1186065082.0,4744257414.16
sh603390,通达电气,2020-04-14,13.63,14.08,13.63,13.91,13.49,3960342.0,55041129.0,1222992238.0,4891965947.44
sh603390,通达电气,2020-04-15,13.91,14.04,13.81,13.82,13.91,3623400.0,50389848.0,1215079276.0,4860314118.88
sh603390,通达电气,2020-04-16,13.72,13.95,13.6,13.88,13.82,3811506.0,52506431.0,1220354584.0,4881415337.92
sh603390,通达电气,2020-04-17,13.93,14.07,13.74,13.79,13.88,4117559.0,57222913.0,1212441622.0,4849763509.36
sh603390,通达电气,2020-04-20,13.77,13.83,13.62,13.74,13.79,2927897.0,40163085.0,1208045532.0,4832179160.16
sh603390,通达电气,2020-04-21,13.67,13.68,13.34,13.42,13.74,4302292.0,57943771.0,1179910556.0,4719639325.28
sh603390,通达电气,2020-04-22,13.47,13.76,13.41,13.64,13.42,3401510.0,46256805.0,1199253352.0,4797010461.76
sh603390,通达电气,2020-04-23,13.79,13.79,13.36,13.38,13.64,3772884.0,50884092.0,1176393684.0,4705571845.92
sh603390,通达电气,2020-04-24,13.39,13.59,13.16,13.23,13.38,3439164.0,45823691.0,1163205414.0,4652818798.32
sh603390,通达电气,2020-04-27,13.16,13.29,12.81,12.87,13.23,3817317.0,49628927.0,1131553566.0,4526211484.08
sh603390,通达电气,2020-04-28,12.85,12.94,11.86,12.27,12.87,4074572.0,50077235.0,1078800486.0,4315199293.68
sh603390,通达电气,2020-04-29,12.0,12.19,11.85,12.03,12.27,4319958.0,51835636.0,1057699254.0,4230794417.52
sh603390,通达电气,2020-04-30,12.1,12.26,12.05,12.18,12.03,3619780.0,44131924.0,1070887524.0,4283547465.12
sh603390,通达电气,2020-05-06,11.98,12.48,11.98,12.42,12.18,3339144.0,41036491.0,1091988756.0,4367952341.28
sh603390,通达电气,2020-05-07,12.46,12.79,12.4,12.72,12.42,4592640.0,58054457.0,1118365296.0,4473458436.48
sh603390,通达电气,2020-05-08,12.77,13.05,12.65,12.76,12.72,4172723.0,53634136.0,1121882168.0,4487525915.84
sh603390,通达电气,2020-05-11,12.95,14.04,12.95,14.04,12.76,6485817.0,89113164.0,1234422072.0,4937685255.36
sh603390,通达电气,2020-05-12,14.46,14.85,14.05,14.1,14.04,21068723.0,303655100.0,1239697380.0,4958786474.4
sh603390,通达电气,2020-05-13,13.83,14.42,13.69,13.8,14.1,12064009.0,168407884.0,1213320840.0,4853280379.2
sh603390,通达电气,2020-05-14,13.72,14.07,13.42,13.71,13.8,9851747.0,134823337.0,1205407878.0,4821628550.64
sh603390,通达电气,2020-05-15,13.89,13.99,13.36,13.47,13.71,7141371.0,97066445.0,1184306646.0,4737223674.48
sh603390,通达电气,2020-05-18,13.3,13.47,13.01,13.02,13.47,5694263.0,74899078.0,1144741836.0,4578964531.68
sh603390,通达电气,2020-05-19,13.12,13.35,12.92,13.26,13.02,4974211.0,65424614.0,1165843068.0,4663369407.84
sh603390,通达电气,2020-05-20,13.22,13.22,12.99,13.03,13.26,4001002.0,52285116.0,1145621054.0,4582481401.52
sh603390,通达电气,2020-05-21,13.05,13.29,12.93,13.28,13.03,4251267.0,55727624.0,1167601504.0,4670403147.52
sh603390,通达电气,2020-05-22,13.18,13.99,13.11,13.57,13.28,8807164.0,118950176.0,1193098826.0,4772392372.88
sh603390,通达电气,2020-05-25,13.4,13.98,13.12,13.18,13.57,7541669.0,102502637.0,1158809324.0,4635234449.12
sh603390,通达电气,2020-05-26,13.4,14.5,13.19,14.5,13.18,6846798.0,97288937.0,1274866100.0,5099461268.0
sh603390,通达电气,2020-05-27,14.79,15.14,14.06,14.11,14.5,20824935.0,304428153.0,1240576598.0,4962303344.24
sh603390,通达电气,2020-05-28,14.08,14.71,14.0,14.34,14.11,13173723.0,188622347.0,1260798612.0,5043191350.56
sh603390,通达电气,2020-05-29,14.0,14.07,13.64,13.79,14.34,10393245.0,143452852.0,1212441622.0,4849763509.36
sh603390,通达电气,2020-06-01,13.77,14.21,13.66,14.2,13.79,9677531.0,135847444.0,1248489560.0,4993955172.8
sh603390,通达电气,2020-06-02,14.18,14.27,13.93,14.09,14.2,7161155.0,100627252.0,1238818162.0,4955269604.56
sh603390,通达电气,2020-06-03,14.1,14.25,13.95,14.03,14.09,6250891.0,88077140.0,1233542854.0,4934168385.52
sh603390,通达电气,2020-06-04,14.03,14.48,13.98,14.42,14.03,10842700.0,155107516.0,1267832356.0,5071326309.28
sh603390,通达电气,2020-06-05,14.49,14.55,14.06,14.11,14.42,6708803.0,95249063.0,1240576598.0,4962303344.24
sh603390,通达电气,2020-06-08,14.24,14.3,13.83,13.96,14.11,5105820.0,71503092.0,1227388328.0,4909550296.64
sh603390,通达电气,2020-06-09,13.98,14.25,13.83,14.06,13.96,3749794.0,52677896.0,1236180508.0,4944718995.04
sh603390,通达电气,2020-06-10,14.07,14.07,13.57,13.62,14.06,4379730.0,60301494.0,1197494916.0,4789976722.08
sh603390,通达电气,2020-06-11,13.63,13.88,13.48,13.64,13.62,3949099.0,54128460.0,1199253352.0,4797010461.76
sh603390,XD通达电,2020-06-12,13.18,13.36,13.01,13.22,13.54,3008903.0,39677364.0,1162326196.0,4649301928.48
sh603390,通达电气,2020-06-15,13.13,13.35,13.05,13.06,13.22,3021241.0,39837521.0,1148258708.0,4593032011.04
sh603390,通达电气,2020-06-16,13.13,13.34,13.13,13.24,13.06,2389213.0,31587784.0,1164084632.0,4656335668.16
sh603390,通达电气,2020-06-17,13.35,13.37,13.12,13.22,13.24,2277213.0,30075230.0,1162326196.0,4649301928.48
sh603390,通达电气,2020-06-18,13.26,13.34,13.11,13.24,13.22,2641421.0,34962471.0,1164084632.0,4656335668.16
sh603390,通达电气,2020-06-19,13.27,13.47,13.22,13.34,13.24,2624221.0,35055874.0,1172876812.0,4691504366.559999
sh603390,通达电气,2020-06-22,13.31,13.47,13.3,13.39,13.34,2253751.0,30153594.0,1177272902.0,4709088715.76
sh603390,通达电气,2020-06-23,13.36,13.44,13.05,13.09,13.39,3996538.0,52588107.0,1150896362.0,4603582620.56
sh603390,通达电气,2020-06-24,13.08,13.17,12.85,12.85,13.09,3608300.0,46624028.0,1129795130.0,4519177744.4
sh603390,通达电气,2020-06-29,12.81,12.98,12.55,12.84,12.85,2341603.0,29917547.0,1128915912.0,4515660874.559999
sh603390,通达电气,2020-06-30,12.92,13.09,12.85,13.08,12.84,2744730.0,35585613.0,1150017144.0,4600065750.719999
sh603390,通达电气,2020-07-01,13.03,13.2,12.9,13.02,13.08,2049534.0,26710845.0,1144741836.0,4578964531.679999
sh603390,通达电气,2020-07-02,13.08,13.14,12.83,13.11,13.02,2985200.0,38937382.0,1152654798.0,4610616360.24
sh603390,通达电气,2020-07-03,13.2,13.25,13.01,13.17,13.11,3255495.0,42762588.0,1157930106.0,4631717579.28
sh603390,通达电气,2020-07-06,13.34,13.65,13.21,13.6,13.17,7043831.0,94836316.0,1195736480.0,4782942982.4
sh603390,通达电气,2020-07-07,13.71,13.93,13.51,13.72,13.6,7939998.0,109431932.0,1206287096.0,4825145420.48
sh603390,通达电气,2020-07-08,13.7,13.96,13.58,13.94,13.72,7300389.0,100982612.0,1225629892.0,4902516556.96
sh603390,通达电气,2020-07-09,13.94,14.67,13.85,14.39,13.94,11359020.0,161202055.0,1265194702.0,5060775699.76
sh603390,通达电气,2020-07-10,14.29,14.37,13.95,13.97,14.39,8217444.0,116097770.0,1228267546.0,4913067166.48
sh603390,通达电气,2020-07-13,14.11,14.38,14.0,14.3,13.97,7105465.0,101176264.0,1257281740.0,5029123871.2
sh603390,通达电气,2020-07-14,14.29,14.96,14.18,14.55,14.3,11248385.0,163980977.0,1279262190.0,5117045617.2
sh603390,通达电气,2020-07-15,14.6,14.64,13.89,13.91,14.55,7075919.0,100368615.0,1222992238.0,4891965947.44
sh603390,通达电气,2020-07-16,13.92,14.08,13.08,13.15,13.91,5242419.0,71378025.0,1156171670.0,4624683839.6
sh603390,通达电气,2020-07-17,13.21,13.44,13.11,13.27,13.15,2922642.0,38678030.0,1166722286.0,4666886277.68
sh603390,通达电气,2020-07-20,13.38,13.6,13.28,13.6,13.27,3191476.0,43029219.0,1195736480.0,4782942982.4
sh603390,通达电气,2020-07-21,13.57,13.85,13.43,13.63,13.6,2924684.0,39702213.0,1198374134.0,4793493591.92
sh603390,通达电气,2020-07-22,13.6,13.7,13.47,13.55,13.63,3191720.0,43463780.0,1191340390.0,4765358633.2
sh603390,通达电气,2020-07-23,13.41,13.45,13.02,13.28,13.55,4444899.0,58700588.0,1167601504.0,4670403147.52
sh603390,通达电气,2020-07-24,13.2,13.42,12.8,12.9,13.28,3860698.0,50521141.0,1134191220.0,4536762093.599999
sh603390,通达电气,2020-07-27,12.98,13.05,12.74,12.95,12.9,1996055.0,25718728.0,1138587310.0,4554346442.8
sh603390,通达电气,2020-07-28,13.02,14.25,13.02,14.25,12.95,7712683.0,106266372.0,1252885650.0,5011539522.0
sh603390,通达电气,2020-07-29,14.28,14.28,13.79,14.12,14.25,13907385.0,195466075.0,1241455816.0,4965820214.08
sh603390,通达电气,2020-07-30,14.07,14.6,13.9,14.14,14.12,12110503.0,171982174.0,1243214252.0,4972853953.759999
sh603390,通达电气,2020-07-31,13.99,14.11,13.81,14.06,14.14,7328282.0,102495984.0,1236180508.0,4944718995.04
sh603390,通达电气,2020-08-03,14.13,14.37,14.05,14.27,14.06,8051700.0,114520965.0,1254644086.0,5018573261.68
sh603390,通达电气,2020-08-04,14.29,14.55,14.05,14.08,14.27,7798264.0,111109726.0,1237938944.0,4951752734.719999
sh603390,通达电气,2020-08-05,14.0,14.98,13.87,14.73,14.08,15243416.0,220830809.0,1295088114.0,5180349274.32
sh603390,通达电气,2020-08-06,14.7,14.7,14.11,14.32,14.73,9246716.0,133057345.0,1259040176.0,5036157610.88
sh603390,通达电气,2020-08-07,14.23,15.5,14.16,15.0,14.32,20027573.0,298628002.0,1318827000.0,5275304760.0
sh603390,通达电气,2020-08-10,14.7,16.09,14.51,15.76,15.0,22365068.0,343432986.0,1385647568.0,5542586867.84
sh603390,通达电气,2020-08-11,15.55,17.34,15.3,16.86,15.76,36418928.0,608052810.0,1482361548.0,5929442550.24
sh603390,通达电气,2020-08-12,16.99,18.51,16.6,17.85,16.86,38276073.0,668547734.0,1569404130.0,6277612664.400001
sh603390,通达电气,2020-08-13,17.71,18.22,16.54,16.73,17.85,21012597.0,363070969.0,1470931714.0,5883723242.320001
sh603390,通达电气,2020-08-14,16.35,16.36,15.06,15.06,16.73,19086410.0,296170467.0,1324102308.0,5296405979.04
sh603390,通达电气,2020-08-17,14.76,15.27,14.76,15.1,15.06,8844606.0,133102818.0,1327619180.0,5310473458.4
sh603390,通达电气,2020-08-18,15.15,16.1,15.0,15.84,15.1,12252141.0,190743140.0,1392681312.0,5570721826.56
sh603390,通达电气,2020-08-19,16.01,16.13,15.24,15.25,15.84,9609657.0,149942839.0,1340807450.0,5363226506.000001
sh603390,通达电气,2020-08-20,15.05,15.47,14.8,14.89,15.25,6525596.0,98197082.0,1309155602.0,5236619191.76
sh603390,通达电气,2020-08-21,14.96,15.12,14.82,14.88,14.89,3950300.0,58950118.0,1308276384.0,5233102321.92
sh603390,通达电气,2020-08-24,14.92,14.99,14.37,14.52,14.88,4650472.0,67796113.0,1276624536.0,5106495007.68
sh603390,通达电气,2020-08-25,14.59,14.84,14.21,14.66,14.52,4448688.0,65180858.0,1288933588.0,5155731185.440001
sh603390,通达电气,2020-08-26,14.64,14.81,14.21,14.3,14.66,4082200.0,59172847.0,1257281740.0,5029123871.2
sh603390,通达电气,2020-08-27,14.14,14.52,14.09,14.45,14.3,3210500.0,46185782.0,1270470010.0,5081876918.8
sh603390,通达电气,2020-08-28,14.49,14.49,14.11,14.38,14.45,4186319.0,59718182.0,1264315484.0,5057258829.92
sh603390,通达电气,2020-08-31,14.4,14.59,14.31,14.34,14.38,3633200.0,52445435.0,1260798612.0,5043191350.56
sh603390,通达电气,2020-09-01,14.28,14.28,14.11,14.18,14.34,2910118.0,41254766.0,1246731124.0,4986921433.12
sh603390,通达电气,2020-09-02,14.15,14.22,13.84,13.91,14.18,5227508.0,73020717.0,1222992238.0,4891965947.44
sh603390,通达电气,2020-09-03,13.98,13.98,13.6,13.71,13.91,3660889.0,50356401.0,1205407878.0,4821628550.64
sh603390,通达电气,2020-09-04,13.52,13.86,13.48,13.78,13.71,2772461.0,37816082.0,1211562404.0,4846246639.52
sh603390,通达电气,2020-09-07,13.78,13.88,13.5,13.52,13.78,2849000.0,38981806.0,1188702736.0,4754808023.679999
sh603390,通达电气,2020-09-08,13.57,13.68,13.21,13.36,13.52,2988100.0,39914213.0,1174635248.0,4698538106.24
sh603390,通达电气,2020-09-09,13.27,13.45,13.05,13.18,13.36,3103925.0,41100432.0,1158809324.0,4635234449.12
sh603390,通达电气,2020-09-10,13.25,13.34,12.7,12.74,13.18,3766600.0,48964768.0,1120123732.0,4480492176.16
sh603390,通达电气,2020-09-11,12.74,12.79,12.59,12.72,12.74,3465400.0,43919508.0,1118365296.0,4473458436.48
sh603390,通达电气,2020-09-14,12.5,12.7,12.38,12.56,12.72,5897500.0,73781156.0,1104297808.0,4417188519.04
sh603390,通达电气,2020-09-15,12.56,12.68,12.22,12.63,12.56,7442835.0,92157397.0,1110452334.0,4441806607.92
sh603390,通达电气,2020-09-16,12.5,12.87,12.44,12.78,12.63,6425400.0,81945234.0,1123640604.0,4494559655.52
sh603390,通达电气,2020-09-17,12.75,13.15,12.69,12.99,12.78,6369000.0,82366095.0,1142104182.0,4568413922.16
sh603390,通达电气,2020-09-18,12.94,13.05,12.78,12.98,12.99,4240500.0,54776011.0,1141224964.0,4564897052.32
sh603390,通达电气,2020-09-21,12.91,13.12,12.91,13.0,12.98,3177682.0,41314787.0,1142983400.0,4571930792.0
sh603390,通达电气,2020-09-22,12.89,12.89,12.48,12.53,13.0,4145348.0,52460400.0,1101660154.0,4406637909.52
sh603390,通达电气,2020-09-23,12.54,12.84,12.51,12.75,12.53,3082700.0,39014465.0,1121002950.0,4484009046.0
sh603390,通达电气,2020-09-24,12.61,12.65,12.33,12.38,12.75,2844225.0,35421387.0,1088471884.0,4353884861.92
sh603390,通达电气,2020-09-25,12.49,12.52,12.26,12.3,12.38,1787100.0,22041026.0,1081438140.0,4325749903.2
sh603390,通达电气,2020-09-28,12.41,12.77,12.36,12.36,12.3,2532425.0,31727566.0,1086713448.0,4346851122.24
sh603390,通达电气,2020-09-29,12.49,12.54,12.34,12.43,12.36,1781231.0,22165345.0,1092867974.0,4371469211.12
sh603390,通达电气,2020-09-30,12.43,12.51,12.15,12.23,12.43,2038619.0,25130665.0,1075283614.0,4301131814.32
sh603390,通达电气,2020-10-09,12.39,12.66,12.34,12.57,12.23,2601700.0,32626824.0,1105177026.0,4420705388.88
sh603390,通达电气,2020-10-12,12.62,13.07,12.62,13.03,12.57,4553735.0,58912969.0,1145621054.0,4582481401.52
sh603390,通达电气,2020-10-13,13.07,13.11,12.82,12.9,13.03,3187500.0,41077173.0,1134191220.0,4536762093.599999
sh603390,通达电气,2020-10-14,12.9,12.98,12.77,12.85,12.9,2146912.0,27609751.0,1129795130.0,4519177744.4
sh603390,通达电气,2020-10-15,12.85,12.99,12.75,12.81,12.85,2420000.0,31118650.0,1126278258.0,4505110265.04
sh603390,通达电气,2020-10-16,12.8,12.8,12.53,12.6,12.81,2764600.0,34946121.0,1107814680.0,4431255998.4
sh603390,通达电气,2020-10-19,12.61,12.7,12.44,12.47,12.6,1842054.0,23162609.0,1096384846.0,4385536690.4800005
sh603390,通达电气,2020-10-20,12.46,12.79,12.35,12.77,12.47,2644535.0,33313591.0,1122761386.0,4491042785.68
sh603390,通达电气,2020-10-21,12.81,12.9,12.65,12.67,12.77,2539300.0,32400335.0,1113969206.0,4455874087.28
sh603390,通达电气,2020-10-22,12.6,12.66,12.44,12.56,12.67,1780700.0,22351994.0,1104297808.0,4417188519.04
sh603390,通达电气,2020-10-23,12.55,12.68,12.37,12.38,12.56,2030460.0,25414412.0,1088471884.0,4353884861.92
sh603390,通达电气,2020-10-26,12.3,12.65,12.2,12.5,12.38,1740700.0,21653732.0,1099022500.0,4396087300.0
sh603390,通达电气,2020-10-27,12.4,12.65,12.4,12.56,12.5,1479619.0,18526830.0,1104297808.0,4417188519.04
sh603390,通达电气,2020-10-28,12.6,12.62,12.33,12.4,12.56,1671332.0,20756113.0,1090230320.0,4360918601.599999
sh603390,通达电气,2020-10-29,12.18,12.32,12.08,12.14,12.4,2399000.0,29321032.0,1067370652.0,4269479985.76
sh603390,通达电气,2020-10-30,12.15,12.24,11.49,11.59,12.14,4231425.0,50253816.0,1019013662.0,4076052144.56
sh603390,通达电气,2020-11-02,11.54,11.68,11.35,11.43,11.59,2131700.0,24469127.0,1004946174.0,4019782227.12
sh603390,通达电气,2020-11-03,11.51,11.82,11.51,11.77,11.43,1879800.0,22007730.0,1034839586.0,4139355801.68
sh603390,通达电气,2020-11-04,11.77,11.95,11.72,11.82,11.77,1703700.0,20145515.0,1039235676.0,4156940150.88
sh603390,通达电气,2020-11-05,11.87,12.06,11.85,11.97,11.82,1896035.0,22651111.0,1052423946.0,4209693198.48
sh603390,通达电气,2020-11-06,12.08,12.08,11.76,11.77,11.97,1631726.0,19331349.0,1034839586.0,4139355801.68
sh603390,通达电气,2020-11-09,11.89,12.18,11.82,12.14,11.77,2699454.0,32545938.0,1067370652.0,4269479985.76
sh603390,通达电气,2020-11-10,12.12,12.3,11.97,12.21,12.14,2658100.0,32168084.0,1073525178.0,4294098074.64
sh603390,通达电气,2020-11-11,12.2,12.28,12.06,12.13,12.21,1781300.0,21622770.0,1066491434.0,4265963115.92
sh603390,通达电气,2020-11-12,12.15,12.7,12.08,12.47,12.13,4946419.0,61336638.0,1096384846.0,4385536690.4800005
sh603390,通达电气,2020-11-13,12.4,12.41,12.11,12.2,12.47,2391826.0,29217182.0,1072645960.0,4290581204.8
sh603390,通达电气,2020-11-16,12.2,12.66,12.1,12.4,12.2,3486200.0,43276648.0,1090230320.0,4360918601.599999
sh603390,通达电气,2020-11-17,12.32,12.63,12.32,12.45,12.4,3796203.0,47365378.0,1094626410.0,4378502950.8
sh603390,通达电气,2020-11-18,12.43,12.57,12.34,12.39,12.45,2880900.0,35846962.0,1089351102.0,4357401731.76
sh603390,通达电气,2020-11-19,12.39,12.42,12.02,12.04,12.39,3642919.0,44151993.0,1058578472.0,4234311287.36
sh603390,通达电气,2020-11-20,11.98,11.98,11.79,11.89,12.04,2785000.0,32986670.0,1045390202.0,4181558239.76
sh603390,通达电气,2020-11-23,11.86,11.89,11.7,11.8,11.89,1952819.0,23022659.0,1037477240.0,4149906411.2
sh603390,通达电气,2020-11-24,11.8,12.05,11.8,12.01,11.8,2397510.0,28711255.0,1055940818.0,4223760677.84
sh603390,通达电气,2020-11-25,11.86,12.17,11.61,11.68,12.01,5145446.0,60838829.0,1501188165.12,4107703973.12
sh603390,通达电气,2020-11-26,11.62,11.63,11.37,11.54,11.68,3751700.0,43119132.0,1483194471.36,4058467795.36
sh603390,通达电气,2020-11-27,11.54,11.65,11.42,11.6,11.54,1816800.0,21007394.0,1490906054.4,4079569014.4
sh603390,通达电气,2020-11-30,11.6,11.78,11.6,11.69,11.6,2584800.0,30189438.0,1502473428.9599998,4111220842.96
sh603390,通达电气,2020-12-01,11.7,11.74,11.57,11.72,11.69,2340626.0,27370285.0,1506329220.48,4121771452.48
sh603390,通达电气,2020-12-02,11.75,11.8,11.62,11.78,11.72,2375000.0,27811378.0,1514040803.52,4142872671.52
sh603390,通达电气,2020-12-03,11.73,11.96,11.71,11.82,11.78,3174436.0,37614802.0,1519181858.88,4156940150.88
sh603390,通达电气,2020-12-04,11.83,11.92,11.65,11.76,11.82,1759700.0,20653051.0,1511470275.84,4135838931.84
sh603390,通达电气,2020-12-07,11.76,12.36,11.69,11.94,11.76,5095500.0,61122525.0,1534605024.96,4199142588.96
sh603390,通达电气,2020-12-08,11.87,13.13,11.82,13.13,11.94,12490432.0,157863156.0,1687551421.92,4617650099.92
sh603390,通达电气,2020-12-09,13.4,13.75,12.53,12.7,13.13,20984322.0,273711378.0,1632285076.8000002,4466424696.8
sh603390,通达电气,2020-12-10,12.5,12.89,12.45,12.52,12.7,9156453.0,115532537.0,1609150327.68,4403121039.679999
sh603390,通达电气,2020-12-11,12.59,12.65,12.15,12.4,12.52,7943219.0,97925512.0,1593727161.6,4360918601.599999
sh603390,通达电气,2020-12-14,12.44,12.71,12.3,12.69,12.4,7746372.0,96949463.0,1630999812.96,4462907826.96
sh603390,通达电气,2020-12-15,12.67,12.67,12.35,12.38,12.69,5064700.0,63023192.0,1591156633.9199998,4353884861.92
sh603390,通达电气,2020-12-16,12.55,12.55,11.7,11.71,12.38,7147350.0,86253441.0,1505043956.64,4118254582.64
sh603390,通达电气,2020-12-17,11.52,11.55,11.0,11.25,11.71,7633150.0,85582065.0,1445921820.0,3956478570.0
sh603390,通达电气,2020-12-18,11.16,11.2,11.05,11.16,11.25,3563400.0,39633356.0,1434354445.44,3924826741.44
sh603390,通达电气,2020-12-21,11.3,11.48,11.23,11.37,11.16,3829100.0,43446847.0,1461344986.08,3998681008.08
sh603390,通达电气,2020-12-22,11.3,11.34,11.0,11.04,11.37,3685319.0,40972846.0,1418931279.36,3882624303.36
sh603390,通达电气,2020-12-23,11.11,11.15,10.91,10.98,11.04,2847053.0,31273970.0,1411219696.32,3861523084.32
sh603390,通达电气,2020-12-24,10.96,11.05,10.44,10.47,10.98,4241400.0,45022784.0,1345671240.48,3682162722.48
sh603390,通达电气,2020-12-25,10.41,10.64,10.3,10.53,10.47,2377400.0,25107437.0,1353382823.52,3703263941.520001
sh603390,通达电气,2020-12-28,10.61,10.64,10.3,10.31,10.53,2583819.0,26936185.0,1325107019.04,3625892805.04
sh603390,通达电气,2020-12-29,10.31,10.58,10.22,10.38,10.31,2184419.0,22761477.0,1334103865.9199998,3650510893.92
sh603390,通达电气,2020-12-30,10.32,10.59,10.27,10.44,10.38,2074469.0,21632431.0,1341815448.96,3671612112.96
sh603390,通达电气,2020-12-31,10.47,10.64,10.47,10.55,10.44,2322250.0,24544718.0,1355953351.2,3710297681.2
sh603390,通达电气,2021-01-04,10.63,10.63,10.49,10.56,10.55,2267811.0,23946400.0,1357238615.04,3713814551.04
sh603390,通达电气,2021-01-05,10.56,10.63,10.45,10.51,10.56,1705700.0,17956213.0,1350812295.84,3696230201.84
sh603390,通达电气,2021-01-06,10.54,10.55,10.3,10.36,10.51,2374669.0,24626443.0,1331533338.24,3643477154.24
sh603390,通达电气,2021-01-07,10.32,10.39,9.92,9.94,10.36,3769500.0,38140045.0,1277552256.96,3495768620.96
sh603390,通达电气,2021-01-08,9.94,10.09,9.62,10.0,9.94,2360800.0,23325795.0,1285263840.0,3516869840.0
sh603390,通达电气,2021-01-11,9.99,10.0,9.55,9.56,10.0,2459200.0,23903329.0,1228712231.04,3362127567.04
sh603390,通达电气,2021-01-12,9.58,9.77,9.55,9.65,9.56,1099600.0,10607119.0,1240279605.6,3393779395.6000004
sh603390,通达电气,2021-01-13,9.68,9.69,9.28,9.3,9.65,2261900.0,21267250.0,1195295371.2,3270688951.2
sh603390,通达电气,2021-01-14,9.3,9.58,9.2,9.39,9.3,2112219.0,19790376.0,1206862745.76,3302340779.76
sh603390,通达电气,2021-01-15,9.39,10.33,9.34,10.33,9.39,3474100.0,34665070.0,1327677546.72,3632926544.72
sh603390,通达电气,2021-01-18,10.3,10.3,9.88,10.08,10.33,4790900.0,48236078.0,1295545950.72,3545004798.72
sh603390,通达电气,2021-01-19,9.96,10.57,9.95,10.14,10.08,3694001.0,37900522.0,1303257533.76,3566106017.76
sh603390,通达电气,2021-01-20,10.02,10.44,10.02,10.26,10.14,3051200.0,31289183.0,1318680699.84,3608308455.84
sh603390,通达电气,2021-01-21,10.2,10.44,10.1,10.21,10.26,2595700.0,26603280.0,1312254380.64,3590724106.6400003
sh603390,通达电气,2021-01-22,10.21,10.72,9.98,10.31,10.21,3191500.0,32782749.0,1325107019.04,3625892805.04
sh603390,通达电气,2021-01-25,10.21,10.48,10.1,10.16,10.31,2428100.0,24994260.0,1305828061.44,3573139757.44
sh603390,通达电气,2021-01-26,10.16,10.35,10.02,10.21,10.16,1819200.0,18535121.0,1312254380.64,3590724106.6400003
sh603390,通达电气,2021-01-27,10.15,10.23,9.74,9.76,10.21,2642900.0,26307298.0,1254417507.8400002,3432464963.84
sh603390,通达电气,2021-01-28,9.57,10.44,9.38,9.94,9.76,3104820.0,30890014.0,1277552256.96,3495768620.96
sh603390,通达电气,2021-01-29,9.8,9.9,9.45,9.55,9.94,2767700.0,26587143.0,1227426967.2,3358610697.2000003
sh603390,通达电气,2021-02-01,9.55,9.68,9.4,9.61,9.55,1120321.0,10680587.0,1235138550.24,3379711916.24
sh603390,通达电气,2021-02-02,9.6,9.75,9.52,9.62,9.61,1078800.0,10408376.0,1236423814.08,3383228786.08
sh603390,通达电气,2021-02-03,9.56,9.57,9.35,9.36,9.62,1156200.0,10898405.0,1203006954.24,3291790170.24
sh603390,通达电气,2021-02-04,9.37,9.37,9.0,9.13,9.36,1800300.0,16479576.0,1173445885.92,3210902163.92
sh603390,通达电气,2021-02-05,9.07,9.4,9.07,9.1,9.13,1238500.0,11423536.0,1169590094.4,3200351554.4
sh603390,通达电气,2021-02-08,9.12,9.25,8.98,9.2,9.1,1377900.0,12540226.0,1182442732.8,3235520252.8
sh603390,通达电气,2021-02-09,9.2,9.33,9.18,9.21,9.2,1239619.0,11451051.0,1183727996.64,3239037122.64
sh603390,通达电气,2021-02-10,9.21,9.3,9.14,9.16,9.21,1198900.0,11038873.0,1177301677.44,3221452773.44
sh603390,通达电气,2021-02-18,9.27,9.4,9.21,9.39,9.16,1623819.0,15149052.0,1206862745.76,3302340779.76
sh603390,通达电气,2021-02-19,9.37,9.65,9.37,9.62,9.39,1472419.0,14067523.0,1236423814.08,3383228786.08
sh603390,通达电气,2021-02-22,9.62,10.0,9.61,9.74,9.62,2660099.0,26166034.0,1251846980.1599998,3425431224.16
sh603390,通达电气,2021-02-23,9.72,9.74,9.56,9.61,9.74,1250119.0,12041645.0,1235138550.24,3379711916.24
sh603390,通达电气,2021-02-24,9.52,9.84,9.52,9.68,9.61,1587120.0,15453807.0,1244135397.12,3404330005.12
sh603390,通达电气,2021-02-25,9.78,9.78,9.54,9.54,9.68,1168200.0,11218477.0,1226141703.36,3355093827.36
sh603390,通达电气,2021-02-26,9.45,9.6,9.33,9.53,9.54,1000100.0,9497129.0,1224856439.52,3351576957.5200005
sh603390,通达电气,2021-03-01,9.55,9.75,9.55,9.73,9.53,1145400.0,11092877.0,1250561716.32,3421914354.32
sh603390,通达电气,2021-03-02,9.78,9.81,9.61,9.69,9.73,1047900.0,10152907.0,1245420660.96,3407846874.9600005
sh603390,通达电气,2021-03-03,9.69,9.81,9.65,9.79,9.69,1228100.0,11983480.0,1258273299.36,3443015573.36
sh603390,通达电气,2021-03-04,9.78,9.9,9.7,9.74,9.79,1547500.0,15174826.0,1251846980.1599998,3425431224.16
sh603390,通达电气,2021-03-05,9.75,9.88,9.74,9.86,9.74,1369400.0,13448979.0,1267270146.24,3467633662.24
sh603390,通达电气,2021-03-08,9.97,9.99,9.61,9.63,9.86,1592900.0,15613336.0,1237709077.92,3386745655.92
sh603390,通达电气,2021-03-09,9.65,9.73,9.28,9.39,9.63,1605500.0,15191518.0,1206862745.76,3302340779.76
sh603390,通达电气,2021-03-10,9.48,9.53,9.28,9.31,9.39,935300.0,8750137.0,1196580635.04,3274205821.0399995
sh603390,通达电气,2021-03-11,9.38,9.46,9.24,9.45,9.31,721100.0,6752536.0,1214574328.8,3323441998.8
sh603390,通达电气,2021-03-12,9.41,9.48,9.34,9.41,9.45,695000.0,6526892.0,1209433273.44,3309374519.44
sh603390,通达电气,2021-03-15,9.41,9.45,9.26,9.3,9.41,976000.0,9107813.0,1195295371.2,3270688951.2
sh603390,通达电气,2021-03-16,9.25,9.5,9.25,9.43,9.3,922934.0,8666140.0,1212003801.12,3316408259.12
sh603390,通达电气,2021-03-17,9.48,9.52,9.4,9.48,9.43,856934.0,8118768.0,1218430120.32,3333992608.32
sh603390,通达电气,2021-03-18,9.5,9.64,9.47,9.53,9.48,1489500.0,14253033.0,1224856439.52,3351576957.5200005
sh603390,通达电气,2021-03-19,9.5,9.62,9.42,9.54,9.53,1401700.0,13367566.0,1226141703.36,3355093827.36
sh603390,通达电气,2021-03-22,9.55,9.74,9.55,9.74,9.54,1426800.0,13784336.0,1251846980.1599998,3425431224.16
sh603390,通达电气,2021-03-23,9.77,9.96,9.61,9.85,9.74,2565600.0,25099382.0,1265984882.4,3464116792.4
sh603390,通达电气,2021-03-24,9.87,9.96,9.67,9.79,9.85,1595900.0,15592780.0,1258273299.36,3443015573.36
sh603390,通达电气,2021-03-25,9.71,9.83,9.63,9.69,9.79,1173800.0,11417683.0,1245420660.96,3407846874.9600005
sh603390,通达电气,2021-03-26,9.66,10.66,9.66,9.97,9.69,5849501.0,59003537.0,1281408048.48,3506319230.4800005
sh603390,通达电气,2021-03-29,10.08,10.11,9.84,9.98,9.97,3175000.0,31613524.0,1282693312.32,3509836100.32
sh603390,通达电气,2021-03-30,9.9,9.92,9.71,9.75,9.98,1978900.0,19369095.0,1253132244.0,3428948094.0000005
sh603390,通达电气,2021-03-31,9.76,9.96,9.65,9.93,9.75,1894600.0,18738700.0,1276266993.12,3492251751.1200004
sh603390,通达电气,2021-04-01,9.85,10.15,9.85,9.89,9.93,2952800.0,29528411.0,1271125937.76,3478184271.76
sh603390,通达电气,2021-04-02,9.81,9.89,9.71,9.87,9.89,1770600.0,17361433.0,1268555410.08,3471150532.0800004
sh603390,通达电气,2021-04-06,9.87,10.0,9.8,9.99,9.87,1455901.0,14429704.0,1283978576.1599998,3513352970.1600003
sh603390,通达电气,2021-04-07,9.96,10.16,9.9,10.08,9.99,2439300.0,24442679.0,1295545950.72,3545004798.72
sh603390,通达电气,2021-04-08,10.07,10.12,9.94,9.95,10.08,2231600.0,22361337.0,1278837520.8,3499285490.8
sh603390,通达电气,2021-04-09,9.95,9.99,9.82,9.9,9.95,1210300.0,11993691.0,1272411201.6,3481701141.6
sh603390,通达电气,2021-04-12,9.89,9.98,9.77,9.77,9.9,1186400.0,11713239.0,1255702771.68,3435981833.6800003
sh603390,通达电气,2021-04-13,9.77,9.85,9.58,9.6,9.77,1271400.0,12317419.0,1233853286.4,3376195046.4
sh603390,通达电气,2021-04-14,9.58,9.71,9.53,9.67,9.6,1113100.0,10727792.0,1242850133.28,3400813135.28
sh603390,通达电气,2021-04-15,9.67,9.72,9.61,9.68,9.67,815500.0,7876338.0,1244135397.12,3404330005.12
sh603390,通达电气,2021-04-16,9.78,10.65,9.77,10.65,9.68,8354750.0,88029976.0,1368805989.6,3745466379.6
sh603390,通达电气,2021-04-19,11.72,11.72,11.08,11.72,10.65,29839213.0,344438699.0,1506329220.48,4121771452.48
sh603390,通达电气,2021-04-20,11.65,12.18,10.88,11.03,11.72,26305204.0,300886773.0,1417646015.52,3879107433.52
sh603390,通达电气,2021-04-21,10.67,10.95,10.51,10.58,11.03,15392790.0,164990568.0,1359809142.72,3720848290.72
sh603390,通达电气,2021-04-22,10.6,10.7,10.39,10.44,10.58,9672130.0,101699467.0,1341815448.96,3671612112.96
sh603390,通达电气,2021-04-23,10.31,10.5,10.15,10.15,10.44,8104100.0,83256915.0,1304542797.6,3569622887.6000004
sh603390,通达电气,2021-04-26,10.16,10.55,10.04,10.43,10.15,9386900.0,96881361.0,1340530185.12,3668095243.12
sh603390,通达电气,2021-04-27,10.24,10.3,9.81,9.84,10.43,7219890.0,71964458.0,1264699618.56,3460599922.56
sh603390,通达电气,2021-04-28,9.95,10.09,9.78,9.99,9.84,4156900.0,41296293.0,1283978576.1599998,3513352970.1600003
sh603390,通达电气,2021-04-29,9.91,10.16,9.83,9.85,9.99,3697300.0,36797009.0,1265984882.4,3464116792.4
sh603390,通达电气,2021-04-30,9.93,9.93,9.35,9.39,9.85,5635768.0,53875447.0,1206862745.76,3302340779.76
sh603390,通达电气,2021-05-06,9.3,9.49,9.24,9.38,9.39,2169000.0,20314746.0,1205577481.92,3298823909.92
sh603390,通达电气,2021-05-07,9.37,9.38,9.25,9.31,9.38,2259500.0,21019604.0,1196580635.04,3274205821.0399995
sh603390,通达电气,2021-05-10,9.31,9.48,9.24,9.46,9.31,2158940.0,20251047.0,1215859592.64,3326958868.64
sh603390,通达电气,2021-05-11,9.4,9.47,9.3,9.46,9.46,1850819.0,17384299.0,1215859592.64,3326958868.64
sh603390,通达电气,2021-05-12,9.5,9.66,9.43,9.6,9.46,2577024.0,24718114.0,1233853286.4,3376195046.4
sh603390,通达电气,2021-05-13,9.51,9.58,9.44,9.45,9.6,2154900.0,20481836.0,1214574328.8,3323441998.8
sh603390,通达电气,2021-05-14,9.59,9.63,9.48,9.6,9.45,2178100.0,20825610.0,1233853286.4,3376195046.4
sh603390,通达电气,2021-05-17,9.58,9.58,9.29,9.32,9.6,4085100.0,38196359.0,1197865898.88,3277722690.88
sh603390,通达电气,2021-05-18,9.31,9.34,9.22,9.34,9.32,1511900.0,14037981.0,1200436426.56,3284756430.56
sh603390,通达电气,2021-05-19,9.31,9.43,9.29,9.39,9.34,1887900.0,17704473.0,1206862745.76,3302340779.76
sh603390,通达电气,2021-05-20,9.39,9.39,9.24,9.27,9.39,1771900.0,16441506.0,1191439579.68,3260138341.68
sh603390,通达电气,2021-05-21,9.29,9.38,9.25,9.3,9.27,1478400.0,13784391.0,1195295371.2,3270688951.2
sh603390,通达电气,2021-05-24,9.23,9.33,9.23,9.31,9.3,1334714.0,12394342.0,1196580635.04,3274205821.0399995
sh603390,通达电气,2021-05-25,9.32,9.37,9.22,9.32,9.31,1695400.0,15758364.0,1197865898.88,3277722690.88
sh603390,通达电气,2021-05-26,9.31,9.49,9.28,9.44,9.32,2741600.0,25790211.0,1213289064.96,3319925128.96
sh603390,通达电气,2021-05-27,9.44,9.55,9.42,9.5,9.44,2346300.0,22266260.0,1221000648.0,3341026348.0
sh603390,通达电气,2021-05-28,9.56,9.56,9.41,9.44,9.5,2082600.0,19688327.0,1213289064.96,3319925128.96
sh603390,通达电气,2021-05-31,9.38,9.44,9.28,9.42,9.44,2045200.0,19152820.0,1210718537.28,3312891389.28
sh603390,通达电气,2021-06-01,9.42,9.5,9.42,9.5,9.42,2358600.0,22329710.0,1221000648.0,3341026348.0
sh603390,XD通达电,2021-06-02,9.41,9.42,9.25,9.27,9.4,2116100.0,19708746.0,1191439579.68,3260138341.68
sh603390,通达电气,2021-06-03,9.29,9.39,9.28,9.33,9.27,2044691.0,19095260.0,1199151162.72,3281239560.72
sh603390,通达电气,2021-06-04,9.36,9.39,9.29,9.32,9.33,1727000.0,16114776.0,1197865898.88,3277722690.88
sh603390,通达电气,2021-06-07,9.4,9.43,9.27,9.32,9.32,1932600.0,17998034.0,1197865898.88,3277722690.88
sh603390,通达电气,2021-06-08,9.29,9.38,9.25,9.36,9.32,1767300.0,16499041.0,1203006954.24,3291790170.24
sh603390,通达电气,2021-06-09,9.32,9.39,9.32,9.38,9.36,2107500.0,19731122.0,1205577481.92,3298823909.92
sh603390,通达电气,2021-06-10,9.4,9.58,9.36,9.51,9.38,4067491.0,38593566.0,1222285911.8400002,3344543217.84
sh603390,通达电气,2021-06-11,9.54,9.56,9.39,9.39,9.51,3237400.0,30647196.0,1206862745.76,3302340779.76
sh603390,通达电气,2021-06-15,9.38,9.46,9.32,9.42,9.39,2228800.0,20893055.0,1210718537.28,3312891389.28
sh603390,通达电气,2021-06-16,9.37,9.41,9.26,9.28,9.42,1840400.0,17168495.0,1192724843.52,3263655211.52
sh603390,通达电气,2021-06-17,9.3,9.35,9.25,9.26,9.28,1761334.0,16347048.0,1190154315.8400002,3256621471.84
sh603390,通达电气,2021-06-18,9.29,9.37,9.21,9.34,9.26,1812334.0,16794259.0,1200436426.56,3284756430.56
sh603390,通达电气,2021-06-21,9.29,9.44,9.27,9.4,9.34,2202134.0,20627532.0,1208148009.6,3305857649.6
sh603390,通达电气,2021-06-22,9.4,9.53,9.4,9.48,9.4,3391100.0,32084955.0,1218430120.32,3333992608.32
sh603390,通达电气,2021-06-23,9.48,9.58,9.42,9.57,9.48,3071300.0,29204613.0,1229997494.88,3365644436.88
sh603390,通达电气,2021-06-24,9.57,9.61,9.49,9.52,9.57,2515936.0,23996449.0,1223571175.68,3348060087.68
sh603390,通达电气,2021-06-25,9.5,9.51,9.38,9.47,9.52,2255419.0,21272186.0,1217144856.48,3330475738.4800005
sh603390,通达电气,2021-06-28,9.42,9.53,9.42,9.45,9.47,1768100.0,16740925.0,1214574328.8,3323441998.8
sh603390,通达电气,2021-06-29,9.45,9.49,9.29,9.29,9.45,2050300.0,19241837.0,1194010107.36,3267172081.36
sh603390,通达电气,2021-06-30,9.31,9.35,9.28,9.34,9.29,1492400.0,13911149.0,1200436426.56,3284756430.56
sh603390,通达电气,2021-07-01,9.34,9.38,9.28,9.29,9.34,1375700.0,12848700.0,1194010107.36,3267172081.36
sh603390,通达电气,2021-07-02,9.29,9.29,9.12,9.14,9.29,2432300.0,22340241.0,1174731149.76,3214419033.76
sh603390,通达电气,2021-07-05,9.16,9.31,9.16,9.31,9.14,1305100.0,12049633.0,1196580635.04,3274205821.0399995
sh603390,通达电气,2021-07-06,9.32,9.46,9.28,9.36,9.31,1654200.0,15496156.0,1203006954.24,3291790170.24
sh603390,通达电气,2021-07-07,9.36,9.36,9.27,9.3,9.36,1400700.0,13024941.0,1195295371.2,3270688951.2
sh603390,通达电气,2021-07-08,9.34,9.34,9.2,9.2,9.3,1304400.0,12055363.0,1182442732.8,3235520252.8
sh603390,通达电气,2021-07-09,9.2,9.32,9.18,9.3,9.2,1273900.0,11795519.0,1195295371.2,3270688951.2
sh603390,通达电气,2021-07-12,9.32,9.42,9.31,9.37,9.3,1803800.0,16906189.0,1204292218.08,3295307040.08
sh603390,通达电气,2021-07-13,9.37,9.9,9.29,9.89,9.37,10677900.0,103397555.0,1271125937.76,3478184271.76
sh603390,通达电气,2021-07-14,10.0,10.37,9.63,9.65,9.89,10390400.0,103645726.0,1240279605.6,3393779395.6000004
sh603390,通达电气,2021-07-15,9.57,10.26,9.49,10.04,9.65,9816790.0,97123213.0,1290404895.36,3530937319.36
sh603390,通达电气,2021-07-16,9.96,10.0,9.81,9.9,10.04,5412290.0,53515158.0,1272411201.6,3481701141.6
sh603390,通达电气,2021-07-19,9.94,9.96,9.67,9.87,9.9,4055200.0,39661078.0,1268555410.08,3471150532.0800004
sh603390,通达电气,2021-07-20,9.77,9.79,9.64,9.73,9.87,2816300.0,27316669.0,1250561716.32,3421914354.32
sh603390,通达电气,2021-07-21,9.71,9.83,9.67,9.75,9.73,3012300.0,29353771.0,1253132244.0,3428948094.0000005
sh603390,通达电气,2021-07-22,9.74,9.78,9.56,9.76,9.75,3688834.0,35660323.0,1254417507.8400002,3432464963.84
sh603390,通达电气,2021-07-23,9.78,9.83,9.54,9.6,9.76,3196900.0,30802832.0,1233853286.4,3376195046.4
sh603390,通达电气,2021-07-26,9.6,9.74,9.35,9.42,9.6,3074626.0,29256068.0,1210718537.28,3312891389.28
sh603390,通达电气,2021-07-27,9.38,9.56,9.33,9.34,9.42,2288700.0,21574277.0,1200436426.56,3284756430.56
sh603390,通达电气,2021-07-28,9.39,9.39,8.69,8.94,9.34,3467200.0,31099214.0,1149025872.96,3144081636.96
sh603390,通达电气,2021-07-29,8.95,9.06,8.95,9.03,8.94,1943700.0,17501398.0,1160593247.52,3175733465.5199995
sh603390,通达电气,2021-07-30,9.06,9.06,8.79,8.88,9.03,2310700.0,20535503.0,1141314289.92,3122980417.92
sh603390,通达电气,2021-08-02,8.81,9.29,8.81,9.15,8.88,2883934.0,26132575.0,1176016413.6,3217935903.6
sh603390,通达电气,2021-08-03,9.07,9.22,9.03,9.06,9.15,1846700.0,16824937.0,1164449039.04,3186284075.04
sh603390,通达电气,2021-08-04,9.03,9.13,9.01,9.09,9.06,1619100.0,14696797.0,1168304830.56,3196834684.56
sh603390,通达电气,2021-08-05,9.1,9.1,8.95,9.01,9.09,1748700.0,15733888.0,1158022719.8400002,3168699725.84
sh603390,通达电气,2021-08-06,9.03,9.07,8.96,9.05,9.01,1475000.0,13320052.0,1163163775.2,3182767205.2
sh603390,通达电气,2021-08-09,9.0,9.24,8.98,9.14,9.05,2065049.0,18835712.0,1174731149.76,3214419033.76
sh603390,通达电气,2021-08-10,9.1,9.3,9.08,9.28,9.14,2838000.0,26167179.0,1192724843.52,3263655211.52
sh603390,通达电气,2021-08-11,9.28,9.33,9.19,9.33,9.28,1833700.0,16979275.0,1199151162.72,3281239560.72
sh603390,通达电气,2021-08-12,9.35,9.37,9.23,9.28,9.33,1759800.0,16358507.0,1192724843.52,3263655211.52
sh603390,通达电气,2021-08-13,9.3,9.33,9.21,9.28,9.28,1676000.0,15534477.0,1192724843.52,3263655211.52
sh603390,通达电气,2021-08-16,9.3,9.45,9.23,9.41,9.28,2266289.0,21199251.0,1209433273.44,3309374519.44
sh603390,通达电气,2021-08-17,9.33,9.33,8.98,9.0,9.41,4084200.0,37207389.0,1156737456.0,3165182856.0
sh603390,通达电气,2021-08-18,9.0,9.07,8.95,9.07,9.0,2397470.0,21588460.0,1165734302.88,3189800944.88
sh603390,通达电气,2021-08-19,9.05,9.08,8.95,8.99,9.07,1428700.0,12860697.0,1155452192.16,3161665986.16
sh603390,通达电气,2021-08-20,8.97,9.03,8.83,8.9,8.99,1912100.0,16962038.0,1143884817.6,3130014157.6
sh603390,通达电气,2021-08-23,8.89,9.14,8.89,9.13,8.9,2085300.0,18901749.0,1173445885.92,3210902163.92
sh603390,通达电气,2021-08-24,9.12,9.15,8.99,9.05,9.13,1541400.0,13968957.0,1163163775.2,3182767205.2
sh603390,通达电气,2021-08-25,9.03,9.17,9.01,9.08,9.05,1371900.0,12464417.0,1167019566.72,3193317814.72
sh603390,通达电气,2021-08-26,9.09,9.12,8.94,9.04,9.08,1959200.0,17677499.0,1161878511.36,3179250335.36
sh603390,通达电气,2021-08-27,9.06,9.12,8.91,9.12,9.04,2032600.0,18353560.0,1172160622.08,3207385294.08
sh603390,通达电气,2021-08-30,9.15,9.18,9.07,9.15,9.12,2011300.0,18329476.0,1176016413.6,3217935903.6
sh603390,通达电气,2021-08-31,9.15,9.25,9.07,9.14,9.15,1844999.0,16867352.0,1174731149.76,3214419033.76
sh603390,通达电气,2021-09-01,9.15,9.18,9.06,9.15,9.14,2127800.0,19442881.0,1176016413.6,3217935903.6
sh603390,通达电气,2021-09-02,9.13,9.15,8.95,9.1,9.15,3091900.0,27940275.0,1169590094.4,3200351554.4
sh603390,通达电气,2021-09-03,9.07,9.22,9.07,9.11,9.1,2388467.0,21802726.0,1170875358.24,3203868424.24
sh603390,通达电气,2021-09-06,9.14,9.3,9.05,9.26,9.11,3648790.0,33572070.0,1190154315.8400002,3256621471.84
sh603390,通达电气,2021-09-07,9.25,9.25,9.15,9.22,9.26,2249000.0,20696332.0,1185013260.48,3242553992.48
sh603390,通达电气,2021-09-08,9.22,9.42,9.17,9.36,9.22,3598300.0,33525517.0,1203006954.24,3291790170.24
sh603390,通达电气,2021-09-09,9.39,9.41,9.31,9.36,9.36,1991733.0,18617230.0,1203006954.24,3291790170.24
sh603390,通达电气,2021-09-10,9.35,9.4,9.19,9.23,9.36,2388700.0,22140685.0,1186298524.32,3246070862.32
sh603390,通达电气,2021-09-13,9.25,9.29,9.16,9.28,9.23,1383300.0,12787513.0,1192724843.52,3263655211.52
sh603390,通达电气,2021-09-14,9.24,9.38,9.15,9.15,9.28,2308310.0,21381277.0,1176016413.6,3217935903.6
sh603390,通达电气,2021-09-15,9.1,9.2,9.1,9.19,9.15,1447600.0,13248145.0,1181157468.96,3232003382.96
sh603390,通达电气,2021-09-16,9.18,9.26,9.02,9.04,9.19,2293700.0,20941295.0,1161878511.36,3179250335.36
sh603390,通达电气,2021-09-17,9.04,9.05,8.86,8.97,9.04,2512200.0,22459571.0,1152881664.48,3154632246.4799995
sh603390,通达电气,2021-09-22,8.89,9.07,8.87,9.0,8.97,1282900.0,11480589.0,1156737456.0,3165182856.0
sh603390,通达电气,2021-09-23,9.05,9.13,8.95,9.09,9.0,1296400.0,11761004.0,1168304830.56,3196834684.56
sh603390,通达电气,2021-09-24,9.09,9.12,8.91,8.92,9.09,1712600.0,15393533.0,1146455345.28,3137047897.28
sh603390,通达电气,2021-09-27,8.94,8.98,8.65,8.77,8.92,2090655.0,18385766.0,1127176387.68,3084294849.68
sh603390,通达电气,2021-09-28,8.79,8.81,8.74,8.78,8.77,737600.0,6471870.0,1128461651.52,3087811719.52
sh603390,通达电气,2021-09-29,8.75,8.75,8.54,8.54,8.78,1679300.0,14514155.0,1097615319.36,3003406843.36
sh603390,通达电气,2021-09-30,8.54,8.69,8.54,8.69,8.54,745000.0,6437288.0,1116894276.96,3056159890.96
sh603390,通达电气,2021-10-08,8.72,8.9,8.72,8.86,8.69,1312700.0,11614770.0,1138743762.24,3115946678.24
sh603390,通达电气,2021-10-11,8.89,8.94,8.79,8.85,8.86,898600.0,7950539.0,1137458498.4,3112429808.4
sh603390,通达电气,2021-10-12,8.8,8.86,8.72,8.79,8.85,1162800.0,10219526.0,1129746915.36,3091328589.36
sh603390,通达电气,2021-10-13,8.75,8.94,8.75,8.88,8.79,882900.0,7813512.0,1141314289.92,3122980417.92
sh603390,通达电气,2021-10-14,8.85,8.92,8.83,8.89,8.88,595700.0,5292372.0,1142599553.76,3126497287.76
sh603390,通达电气,2021-10-15,8.92,8.92,8.83,8.83,8.89,625700.0,5541471.0,1134887970.72,3105396068.72
sh603390,通达电气,2021-10-18,8.84,8.88,8.76,8.87,8.83,677800.0,5981319.0,1140029026.08,3119463548.08
sh603390,通达电气,2021-10-19,8.87,8.9,8.82,8.84,8.87,583000.0,5157519.0,1136173234.56,3108912938.56
sh603390,通达电气,2021-10-20,8.84,8.84,8.72,8.75,8.84,850200.0,7449132.0,1124605860.0,3077261109.9999995
sh603390,通达电气,2021-10-21,8.75,8.75,8.58,8.6,8.75,1150100.0,9935672.0,1105326902.4,3024508062.4
sh603390,通达电气,2021-10-22,8.61,8.65,8.57,8.57,8.6,705000.0,6058373.0,1101471110.88,3013957452.88
sh603390,通达电气,2021-10-25,8.57,8.65,8.54,8.65,8.57,637900.0,5490089.0,1111753221.6,3042092411.6
sh603390,通达电气,2021-10-26,8.63,8.69,8.58,8.58,8.65,664700.0,5728114.0,1102756374.72,3017474322.7200003
sh603390,通达电气,2021-10-27,8.57,8.57,7.92,8.04,8.58,2634600.0,21477284.0,1033352127.36,2827563351.36
sh603390,通达电气,2021-10-28,8.0,8.08,7.86,7.89,8.04,1267100.0,10048422.0,1014073169.76,2774810303.76
sh603390,通达电气,2021-10-29,7.89,8.06,7.89,8.03,7.89,755418.0,6036196.0,1032066863.52,2824046481.52
sh603390,通达电气,2021-11-01,8.04,8.14,8.0,8.11,8.03,685600.0,5547914.0,1042348974.24,2852181440.24
sh603390,通达电气,2021-11-02,8.12,8.2,7.92,8.02,8.11,1183800.0,9536650.0,1030781599.68,2820529611.6800003
sh603390,通达电气,2021-11-03,8.1,8.15,8.03,8.07,8.02,672300.0,5432607.0,1037207918.88,2838113960.88
sh603390,通达电气,2021-11-04,8.11,8.45,8.08,8.26,8.07,1454934.0,12048439.0,1061627931.84,2904934487.84
sh603390,通达电气,2021-11-05,8.22,8.32,8.18,8.29,8.26,989800.0,8184642.0,1065483723.36,2915485097.36
sh603390,通达电气,2021-11-08,8.29,8.4,8.21,8.36,8.29,971500.0,8096009.0,1074480570.24,2940103186.24
sh603390,通达电气,2021-11-09,8.36,8.38,8.33,8.37,8.36,672600.0,5617389.0,1075765834.0800002,2943620056.08
sh603390,通达电气,2021-11-10,8.37,8.49,8.25,8.42,8.37,1345601.0,11247427.0,1082192153.28,2961204405.28
sh603390,通达电气,2021-11-11,8.38,8.53,8.38,8.47,8.42,1235301.0,10479125.0,1088618472.48,2978788754.4799995
sh603390,通达电气,2021-11-12,8.45,8.72,8.44,8.66,8.47,2123134.0,18215632.0,1113038485.4399998,3045609281.44
sh603390,通达电气,2021-11-15,8.62,8.86,8.62,8.77,8.66,2250200.0,19709159.0,1127176387.68,3084294849.68
sh603390,通达电气,2021-11-16,8.73,8.99,8.61,8.93,8.77,4307834.0,38119939.0,1147740609.12,3140564767.12
sh603390,通达电气,2021-11-17,8.94,9.06,8.81,9.06,8.93,3525735.0,31571034.0,1164449039.04,3186284075.04
sh603390,通达电气,2021-11-18,8.99,9.37,8.94,8.99,9.06,5909000.0,53997709.0,1155452192.16,3161665986.16
sh603390,通达电气,2021-11-19,8.86,9.23,8.74,9.08,8.99,3543410.0,31951111.0,1167019566.72,3193317814.72
sh603390,通达电气,2021-11-22,9.01,9.41,8.98,9.35,9.08,6190920.0,57582717.0,1201721690.3999999,3288273300.3999996
sh603390,通达电气,2021-11-23,9.26,9.34,9.15,9.26,9.35,3872210.0,35744087.0,1190154315.8400002,3256621471.84
sh603390,通达电气,2021-11-24,9.25,9.33,9.16,9.21,9.26,2754834.0,25446451.0,1183727996.64,3239037122.64
sh603390,通达电气,2021-11-25,9.27,9.27,9.1,9.2,9.21,2303210.0,21166150.0,1182442732.8,3235520252.8
sh603390,通达电气,2021-11-26,9.2,9.25,9.02,9.07,9.2,2195600.0,19998599.0,1165734302.88,3189800944.8799996
sh603390,通达电气,2021-11-29,8.97,9.15,8.9,9.06,9.07,2367000.0,21344472.0,1164449039.04,3186284075.04
sh603390,通达电气,2021-11-30,9.24,9.24,9.06,9.15,9.06,2198600.0,20111984.0,1176016413.6,3217935903.6
sh603390,通达电气,2021-12-01,9.13,9.23,9.05,9.23,9.15,1774200.0,16303690.0,1186298524.32,3246070862.3199997
sh603390,通达电气,2021-12-02,9.2,9.64,9.2,9.3,9.23,6338434.0,59640490.0,1195295371.2,3270688951.2
sh603390,通达电气,2021-12-03,9.2,10.23,9.18,10.23,9.3,15710024.0,155418913.0,1314824908.3200002,3597757846.32
sh603390,通达电气,2021-12-06,10.26,10.86,9.96,10.3,10.23,27476702.0,284491755.0,1323821755.1999998,3622375935.2
sh603390,通达电气,2021-12-07,10.15,10.56,9.82,10.25,10.3,18447861.0,186410792.0,1317395436.0,3604791586.0000005
sh603390,通达电气,2021-12-08,10.05,10.15,9.78,9.92,10.25,11376195.0,113118470.0,1274981729.28,3488734881.28
sh603390,通达电气,2021-12-09,9.82,10.03,9.64,9.92,9.92,11489492.0,112879850.0,1274981729.28,3488734881.28
sh603390,通达电气,2021-12-10,9.76,9.99,9.67,9.8,9.92,7109467.0,69771468.0,1259558563.2,3446532443.2
sh603390,通达电气,2021-12-13,9.72,9.8,9.5,9.64,9.8,7275480.0,69878864.0,1238994341.76,3390262525.7599998
sh603390,通达电气,2021-12-14,9.64,9.82,9.51,9.79,9.64,7285310.0,70377711.0,1258273299.36,3443015573.36
sh603390,通达电气,2021-12-15,9.7,9.75,9.57,9.59,9.79,5653200.0,54403121.0,1232568022.56,3372678176.5600004
sh603390,通达电气,2021-12-16,9.61,9.82,9.46,9.8,9.59,8332007.0,80344741.0,1259558563.2,3446532443.2
sh603390,通达电气,2021-12-17,9.74,9.76,9.56,9.56,9.8,4938000.0,47721413.0,1228712231.04,3362127567.04
sh603390,通达电气,2021-12-20,9.52,9.73,9.32,9.55,9.56,5544310.0,52661650.0,1227426967.2,3358610697.2000003
sh603390,通达电气,2021-12-21,9.64,9.87,9.51,9.85,9.55,7241996.0,70639272.0,1265984882.4,3464116792.4
sh603390,通达电气,2021-12-22,9.85,9.96,9.69,9.81,9.85,5644371.0,55179564.0,1260843827.04,3450049313.0400004
sh603390,通达电气,2021-12-23,9.81,9.84,9.5,9.56,9.81,4370000.0,42090695.0,1228712231.04,3362127567.04
sh603390,通达电气,2021-12-24,9.55,9.75,9.13,9.13,9.56,6268000.0,59043782.0,1173445885.92,3210902163.9199996
sh603390,通达电气,2021-12-27,9.08,9.31,8.87,9.13,9.13,4701300.0,42772761.0,1173445885.92,3210902163.9199996
sh603390,通达电气,2021-12-28,9.12,9.2,9.05,9.13,9.13,2521500.0,22961652.0,1173445885.92,3210902163.9199996
sh603390,通达电气,2021-12-29,9.14,9.22,8.95,9.14,9.13,2794734.0,25421953.0,1174731149.76,3214419033.76
sh603390,通达电气,2021-12-30,9.14,9.29,9.1,9.23,9.14,2439729.0,22438109.0,1186298524.32,3246070862.3199997
sh603390,通达电气,2021-12-31,9.18,9.25,9.14,9.17,9.23,2134500.0,19619046.0,1178586941.28,3224969643.2799997
sh603390,通达电气,2022-01-04,9.18,9.34,9.15,9.32,9.17,2796040.0,25947954.0,1197865898.88,3277722690.88
sh603390,通达电气,2022-01-05,9.29,9.35,9.08,9.2,9.32,3064061.0,28125630.0,1182442732.8,3235520252.8
sh603390,通达电气,2022-01-06,9.2,9.44,9.18,9.37,9.2,3105622.0,28985862.0,1204292218.08,3295307040.08
sh603390,通达电气,2022-01-07,9.45,9.45,9.11,9.13,9.37,2828946.0,26185506.0,1173445885.92,3210902163.9199996
sh603390,通达电气,2022-01-10,9.08,9.25,9.04,9.24,9.13,1736900.0,15946116.0,1187583788.16,3249587732.16
sh603390,通达电气,2022-01-11,9.25,9.42,9.25,9.38,9.24,2858934.0,26743117.0,1205577481.92,3298823909.92
sh603390,通达电气,2022-01-12,9.39,10.32,9.35,10.32,9.38,14181896.0,140854127.0,1326392282.88,3629409674.88
sh603390,通达电气,2022-01-13,10.92,11.35,10.42,10.49,10.32,32216049.0,349265589.0,1348241768.1599998,3689196462.1600003
sh603390,通达电气,2022-01-14,10.3,10.47,10.0,10.13,10.49,19687246.0,200881756.0,1301972269.92,3562589147.92
