数据由邢不行整理
股票代码,股票名称,交易日期,开盘价,最高价,最低价,收盘价,前收盘价,成交量,成交额,流通市值,总市值
sh603927,N中科软,2019-09-09,19.42,23.3,19.42,23.3,16.18,39354.0,916560.0,987920000.0,9879200000.0
sh603927,中科软,2019-09-10,25.63,25.63,25.63,25.63,23.3,10828.0,277522.0,1086712000.0,10867120000.0
sh603927,中科软,2019-09-11,28.19,28.19,28.19,28.19,25.63,16191.0,456424.0,1195256000.0,11952560000.0
sh603927,中科软,2019-09-12,31.01,31.01,31.01,31.01,28.19,32400.0,1004724.0,1314824000.0,13148240000.0
sh603927,中科软,2019-09-16,34.11,34.11,34.11,34.11,31.01,85991.0,2933153.0,1446264000.0,14462640000.0
sh603927,中科软,2019-09-17,37.52,37.52,37.52,37.52,34.11,147089.0,5518779.0,1590848000.0,15908480000.0
sh603927,中科软,2019-09-18,41.27,41.27,41.27,41.27,37.52,126759.0,5231344.0,1749848000.0,17498480000.0
sh603927,中科软,2019-09-19,45.4,45.4,45.4,45.4,41.27,99307.0,4508538.0,1924960000.0,19249600000.0
sh603927,中科软,2019-09-20,49.94,49.94,49.94,49.94,45.4,260475.0,13008122.0,2117456000.0,21174560000.0
sh603927,中科软,2019-09-23,54.93,54.93,54.93,54.93,49.94,277744.0,15256478.0,2329032000.0,23290320000.0
sh603927,中科软,2019-09-24,60.42,60.42,60.42,60.42,54.93,140551.0,8492091.0,2561808000.0,25618080000.0
sh603927,中科软,2019-09-25,66.46,66.46,66.46,66.46,60.42,198337.0,13181477.0,2817904000.0,28179040000.0
sh603927,中科软,2019-09-26,73.11,73.11,73.11,73.11,66.46,265674.0,19423426.0,3099864000.0,30998640000.0
sh603927,中科软,2019-09-27,80.42,80.42,80.42,80.42,73.11,1529069.0,122967729.0,3409808000.0,34098080000.0
sh603927,中科软,2019-09-30,88.46,88.46,88.46,88.46,80.42,12184570.0,1077847062.0,3750704000.0,37507040000.0
sh603927,中科软,2019-10-08,88.9,89.0,79.61,79.61,88.46,22513497.0,1888266043.0,3375464000.0,33754640000.0
sh603927,中科软,2019-10-09,75.7,86.4,75.7,84.55,79.61,20347403.0,1669759706.0,3584920000.0,35849200000.0
sh603927,中科软,2019-10-10,84.32,93.01,83.03,93.01,84.55,20627207.0,1807944598.0,3943624000.0,39436240000.0
sh603927,中科软,2019-10-11,95.55,98.99,89.5,90.85,93.01,21198149.0,1994802575.0,3852040000.0,38520400000.0
sh603927,中科软,2019-10-14,89.83,96.71,89.83,92.98,90.85,16427078.0,1522821020.0,3942352000.0,39423520000.0
sh603927,中科软,2019-10-15,90.0,90.0,84.78,85.91,92.98,14741885.0,1291044749.0,3642584000.0,36425840000.0
sh603927,中科软,2019-10-16,86.6,89.7,85.61,88.36,85.91,11709039.0,1025373027.0,3746464000.0,37464640000.0
sh603927,中科软,2019-10-17,86.0,86.0,81.3,83.21,88.36,13232096.0,1105114558.0,3528104000.0,35281040000.0
sh603927,中科软,2019-10-18,82.51,84.38,80.65,83.18,83.21,9504251.0,785413802.0,3526832000.0,35268320000.0
sh603927,中科软,2019-10-21,81.8,81.8,78.1,80.0,83.18,8074255.0,645330853.0,3392000000.0,33920000000.0
sh603927,中科软,2019-10-22,80.3,88.0,79.8,88.0,80.0,13226762.0,1104500528.0,3731200000.0,37312000000.0
sh603927,中科软,2019-10-23,87.0,90.68,85.34,85.71,88.0,14174840.0,1244449864.0,3634104000.0,36341040000.0
sh603927,中科软,2019-10-24,84.53,87.94,84.53,87.7,85.71,10593394.0,914424225.0,3718480000.0,37184800000.0
sh603927,中科软,2019-10-25,87.31,94.19,86.6,89.91,87.7,15016528.0,1352746224.0,3812184000.0,38121840000.0
sh603927,中科软,2019-10-28,98.8,98.9,94.28,98.9,89.91,11155282.0,1093448807.0,4193360000.0,41933600000.0
sh603927,中科软,2019-10-29,105.0,108.79,89.5,89.75,98.9,23601190.0,2376762165.0,3805400000.0,38054000000.0
sh603927,中科软,2019-10-30,87.0,88.99,83.53,85.0,89.75,13661701.0,1174335445.0,3604000000.0,36040000000.0
sh603927,中科软,2019-10-31,83.02,85.99,80.55,81.15,85.0,10713834.0,888584259.0,3440760000.0,34407600000.0
sh603927,中科软,2019-11-01,80.0,84.41,79.51,84.27,81.15,8889731.0,736596300.0,3573048000.0,35730480000.0
sh603927,中科软,2019-11-04,83.89,86.2,81.76,84.29,84.27,8701691.0,729490290.0,3573896000.0,35738960000.0
sh603927,中科软,2019-11-05,84.01,85.12,82.5,84.49,84.29,7019085.0,589222147.0,3582376000.0,35823760000.0
sh603927,中科软,2019-11-06,83.95,89.89,83.5,87.91,84.49,12279127.0,1072409447.0,3727384000.0,37273840000.0
sh603927,中科软,2019-11-07,87.0,88.7,85.8,88.2,87.91,8200945.0,715749537.0,3739680000.0,37396800000.0
sh603927,中科软,2019-11-08,88.47,93.38,82.9,85.2,88.2,11751129.0,1060332627.0,3612480000.0,36124800000.0
sh603927,中科软,2019-11-11,82.08,82.68,79.77,81.12,85.2,9126277.0,741330538.0,3439488000.0,34394880000.0
sh603927,中科软,2019-11-12,81.38,83.28,80.0,83.28,81.12,6560073.0,534968861.0,3531072000.0,35310720000.0
sh603927,中科软,2019-11-13,82.3,82.98,81.51,82.38,83.28,5231926.0,430191321.0,3492912000.0,34929120000.0
sh603927,中科软,2019-11-14,82.26,87.6,81.94,85.82,82.38,8910220.0,756653899.0,3638768000.0,36387680000.0
sh603927,中科软,2019-11-15,85.52,88.4,84.0,84.53,85.82,8717903.0,748875801.0,3584072000.0,35840720000.0
sh603927,中科软,2019-11-18,85.15,88.11,84.83,85.73,84.53,7829179.0,675770513.0,3634952000.0,36349520000.0
sh603927,中科软,2019-11-19,84.59,87.87,83.23,87.87,85.73,8699423.0,742635130.0,3725688000.0,37256880000.0
sh603927,中科软,2019-11-20,87.0,90.6,86.1,86.5,87.87,11409418.0,1009937425.0,3667600000.0,36676000000.0
sh603927,中科软,2019-11-21,84.55,85.56,83.32,84.8,86.5,7362274.0,620975971.0,3595520000.0,35955200000.0
sh603927,中科软,2019-11-22,84.0,87.21,84.0,87.01,84.8,9107528.0,781335943.0,3689224000.0,36892240000.0
sh603927,中科软,2019-11-25,86.86,87.45,78.31,78.31,87.01,10926715.0,882404618.0,3320344000.0,33203440000.0
sh603927,中科软,2019-11-26,76.99,77.83,72.26,73.27,78.31,9063225.0,677352913.0,3106648000.0,31066480000.0
sh603927,中科软,2019-11-27,72.8,74.58,72.06,73.63,73.27,4977067.0,365854395.0,3121912000.0,31219120000.0
sh603927,中科软,2019-11-28,73.18,73.82,72.0,72.11,73.63,4285195.0,311949067.0,3057464000.0,30574640000.0
sh603927,中科软,2019-11-29,71.74,71.74,68.3,70.69,72.11,5704876.0,399676484.0,2997256000.0,29972560000.0
sh603927,中科软,2019-12-02,70.45,71.62,69.81,70.43,70.69,3798956.0,268885396.0,2986232000.0,29862320000.0
sh603927,中科软,2019-12-03,69.88,72.48,69.7,72.36,70.43,4968461.0,356069148.0,3068064000.0,30680640000.0
sh603927,中科软,2019-12-04,71.58,72.13,70.9,71.81,72.36,3719271.0,266205164.0,3044744000.0,30447440000.0
sh603927,中科软,2019-12-05,72.0,73.88,72.0,73.18,71.81,5079581.0,371871363.0,3102832000.0,31028320000.0
sh603927,中科软,2019-12-06,72.7,73.8,71.91,73.39,73.18,5104719.0,372140934.0,3111736000.0,31117360000.0
sh603927,中科软,2019-12-09,72.9,76.96,72.78,75.51,73.39,6688871.0,503695199.0,3201624000.0,32016240000.0
sh603927,中科软,2019-12-10,75.0,76.33,74.58,75.88,75.51,5273586.0,398872341.0,3217312000.0,32173120000.0
sh603927,中科软,2019-12-11,75.45,76.55,73.03,73.03,75.88,5407368.0,403571165.0,3096472000.0,30964720000.0
sh603927,中科软,2019-12-12,73.03,73.5,71.58,71.86,73.03,4289299.0,309470339.0,3046864000.0,30468640000.0
sh603927,中科软,2019-12-13,72.5,73.96,71.7,73.85,71.86,4727728.0,344697643.0,3131240000.0,31312400000.0
sh603927,中科软,2019-12-16,73.76,75.26,73.15,75.07,73.85,4323744.0,321558214.0,3182968000.0,31829680000.0
sh603927,中科软,2019-12-17,75.33,76.48,74.41,75.26,75.07,5614636.0,423005719.0,3191024000.0,31910240000.0
sh603927,中科软,2019-12-18,75.28,77.6,75.0,75.55,75.26,5592875.0,426152683.0,3203320000.0,32033200000.0
sh603927,中科软,2019-12-19,75.18,76.38,73.43,73.87,75.55,4380511.0,326173293.0,3132088000.0,31320880000.0
sh603927,中科软,2019-12-20,73.34,74.16,72.21,72.3,73.87,3307548.0,241175024.0,3065520000.0,30655200000.0
sh603927,中科软,2019-12-23,71.8,71.8,69.5,69.6,72.3,3923775.0,276240786.0,2951040000.0,29510400000.0
sh603927,中科软,2019-12-24,69.92,70.77,69.69,70.6,69.6,2077263.0,145767265.0,2993440000.0,29934400000.0
sh603927,中科软,2019-12-25,70.53,71.6,70.13,71.07,70.6,2508314.0,178047425.0,3013368000.0,30133680000.0
sh603927,中科软,2019-12-26,70.9,71.93,70.3,71.75,71.07,2952304.0,210054363.0,3042200000.0,30422000000.0
sh603927,中科软,2019-12-27,71.5,71.99,69.9,69.91,71.75,3148126.0,223275321.0,2964184000.0,29641840000.0
sh603927,中科软,2019-12-30,69.84,69.84,64.2,66.98,69.91,4106609.0,273153614.0,2839952000.0,28399520000.0
sh603927,中科软,2019-12-31,66.66,68.5,66.4,67.42,66.98,2087999.0,140749508.0,2858608000.0,28586080000.0
sh603927,中科软,2020-01-02,67.67,69.89,67.46,69.09,67.42,3391963.0,233219361.0,2929416000.0,29294160000.0
sh603927,中科软,2020-01-03,69.11,72.48,69.11,71.4,69.09,4989842.0,354891815.0,3027360000.0,30273600000.0
sh603927,中科软,2020-01-06,70.12,71.39,69.75,70.07,71.4,3612652.0,254802882.0,2970968000.0,29709680000.0
sh603927,中科软,2020-01-07,70.42,73.0,70.13,73.0,70.07,5805465.0,416584255.0,3095200000.0,30952000000.0
sh603927,中科软,2020-01-08,72.01,72.8,69.35,69.65,73.0,5617994.0,399013407.0,2953160000.0,29531600000.0
sh603927,中科软,2020-01-09,72.77,74.6,71.56,73.6,69.65,7713189.0,565536354.0,3120640000.0,31206400000.0
sh603927,中科软,2020-01-10,73.36,74.3,72.5,72.9,73.6,4373382.0,320212760.0,3090960000.0,30909600000.0
sh603927,中科软,2020-01-13,72.82,73.06,70.9,73.06,72.9,3935466.0,283329200.0,3097744000.0,30977440000.0
sh603927,中科软,2020-01-14,73.68,74.85,72.29,72.37,73.06,4256889.0,312329711.0,3068488000.0,30684880000.0
sh603927,中科软,2020-01-15,72.37,74.98,71.68,73.7,72.37,5078502.0,373079192.0,3124880000.0,31248800000.0
sh603927,中科软,2020-01-16,73.7,75.58,72.6,74.72,73.7,6189448.0,459355834.0,3168128000.0,31681280000.0
sh603927,中科软,2020-01-17,74.74,74.94,72.88,72.88,74.72,4339100.0,320441671.0,3090112000.0,30901120000.0
sh603927,中科软,2020-01-20,71.89,72.72,70.8,72.26,72.88,3982556.0,286081876.0,3063824000.0,30638240000.0
sh603927,中科软,2020-01-21,72.19,73.25,71.5,71.55,72.26,2687796.0,194242665.0,3033720000.0,30337200000.0
sh603927,中科软,2020-01-22,71.0,73.0,69.7,72.48,71.55,3552191.0,254121331.0,3073152000.0,30731520000.0
sh603927,中科软,2020-01-23,71.6,72.98,69.0,69.6,72.48,3662674.0,258799071.0,2951040000.0,29510400000.0
sh603927,中科软,2020-02-03,62.64,62.64,62.64,62.64,69.6,527200.0,33023808.0,2655936000.0,26559360000.0
sh603927,中科软,2020-02-04,56.41,61.73,56.41,60.88,62.64,4291998.0,258477240.0,2581312000.0,25813120000.0
sh603927,中科软,2020-02-05,61.01,64.03,61.0,62.81,60.88,3734135.0,235836040.0,2663144000.0,26631440000.0
sh603927,中科软,2020-02-06,62.65,66.6,62.58,66.47,62.81,4336559.0,279791143.0,2818328000.0,28183280000.0
sh603927,中科软,2020-02-07,66.5,70.69,65.51,70.3,66.47,5796983.0,397129684.0,2980720000.0,29807200000.0
sh603927,中科软,2020-02-10,69.5,73.33,69.04,70.91,70.3,4462249.0,319034189.0,3006584000.0,30065840000.0
sh603927,中科软,2020-02-11,70.61,71.49,68.7,68.96,70.91,3691087.0,257033039.0,2923904000.0,29239040000.0
sh603927,中科软,2020-02-12,68.76,71.07,68.55,70.21,68.96,2965509.0,208081417.0,2976904000.0,29769040000.0
sh603927,中科软,2020-02-13,70.06,77.23,69.09,77.23,70.21,10796465.0,801570407.0,3274552000.0,32745520000.0
sh603927,中科软,2020-02-14,77.22,78.52,75.36,77.5,77.23,8684646.0,667893564.0,3286000000.0,32860000000.0
sh603927,中科软,2020-02-17,80.97,81.0,77.02,78.07,77.5,7428802.0,583406376.0,3310168000.0,33101680000.0
sh603927,中科软,2020-02-18,77.3,83.31,76.6,81.81,78.07,8219791.0,664289498.0,3468744000.0,34687440000.0
sh603927,中科软,2020-02-19,80.99,83.13,79.5,80.47,81.81,6949696.0,564949495.0,3411928000.0,34119280000.0
sh603927,中科软,2020-02-20,80.0,80.68,77.13,79.7,80.47,7983861.0,629694519.0,3379280000.0,33792800000.0
sh603927,中科软,2020-02-21,79.01,83.18,79.01,80.96,79.7,7840111.0,640269990.0,3432704000.0,34327040000.0
sh603927,中科软,2020-02-24,79.45,84.94,79.0,82.91,80.96,8174657.0,674482313.0,3515384000.0,35153840000.0
sh603927,中科软,2020-02-25,80.05,83.1,76.4,80.24,82.91,7968868.0,636073188.0,3402176000.0,34021760000.0
sh603927,中科软,2020-02-26,78.96,79.86,75.01,75.94,80.24,5773264.0,446941829.0,3219856000.0,32198560000.0
sh603927,中科软,2020-02-27,76.26,77.28,72.71,74.82,75.94,5245854.0,393610991.0,3172368000.0,31723680000.0
sh603927,中科软,2020-02-28,70.99,72.59,67.34,67.34,74.82,7141261.0,495007339.0,2855216000.0,28552160000.0
sh603927,中科软,2020-03-02,68.06,69.8,67.01,69.34,67.34,4403109.0,302296487.0,2940016000.0,29400160000.0
sh603927,中科软,2020-03-03,70.0,72.74,69.7,70.35,69.34,4425549.0,315191504.0,2982840000.0,29828400000.0
sh603927,中科软,2020-03-04,69.0,70.98,68.58,70.25,70.35,2938237.0,204986034.0,2978600000.0,29786000000.0
sh603927,中科软,2020-03-05,71.68,72.08,69.5,70.41,70.25,3224815.0,227143284.0,2985384000.0,29853840000.0
sh603927,中科软,2020-03-06,70.0,70.0,69.09,69.28,70.41,2399526.0,166614725.0,2937472000.0,29374720000.0
sh603927,中科软,2020-03-09,67.66,68.3,65.2,65.45,69.28,3885325.0,258803495.0,2775080000.0,27750800000.0
sh603927,中科软,2020-03-10,63.77,68.01,63.77,68.0,65.45,3017485.0,200159497.0,2883200000.0,28832000000.0
sh603927,中科软,2020-03-11,68.34,68.85,66.45,66.5,68.0,2516875.0,169968518.0,2819600000.0,28196000000.0
sh603927,中科软,2020-03-12,65.05,66.13,64.88,65.27,66.5,1955100.0,127675368.0,2767448000.0,27674480000.0
sh603927,中科软,2020-03-13,62.05,65.65,61.69,64.97,65.27,2613600.0,165781873.0,2754728000.0,27547280000.0
sh603927,中科软,2020-03-16,64.66,65.49,60.88,61.15,64.97,2871638.0,181357742.0,2592760000.0,25927600000.0
sh603927,中科软,2020-03-17,62.3,63.0,58.6,62.11,61.15,2634098.0,160382614.0,2633464000.0,26334640000.0
sh603927,中科软,2020-03-18,62.67,64.09,62.0,62.02,62.11,2429400.0,152608420.0,2629648000.0,26296480000.0
sh603927,中科软,2020-03-19,61.42,62.8,60.6,62.29,62.02,2163508.0,133864388.0,2641096000.0,26410960000.0
sh603927,中科软,2020-03-20,63.01,63.49,61.4,62.55,62.29,1818564.0,113505680.0,2652120000.0,26521200000.0
sh603927,中科软,2020-03-23,60.3,60.8,57.78,58.12,62.55,2166511.0,129064459.0,2464288000.0,24642880000.0
sh603927,中科软,2020-03-24,59.69,60.1,57.91,59.98,58.12,1862211.0,110408282.0,2543152000.0,25431520000.0
sh603927,中科软,2020-03-25,61.6,61.6,60.66,61.42,59.98,1903591.0,116453670.0,2604208000.0,26042080000.0
sh603927,中科软,2020-03-26,61.12,62.84,60.75,61.48,61.42,2190900.0,135741539.0,2606752000.0,26067520000.0
sh603927,中科软,2020-03-27,62.19,62.4,60.2,60.32,61.48,1737953.0,106280167.0,2557568000.0,25575680000.0
sh603927,中科软,2020-03-30,59.32,59.32,57.6,58.64,60.32,1610690.0,93780581.0,2486336000.0,24863360000.0
sh603927,中科软,2020-03-31,59.22,59.49,58.16,58.46,58.64,1127491.0,66434130.0,2478704000.0,24787040000.0
sh603927,中科软,2020-04-01,58.19,59.28,58.03,58.22,58.46,1308700.0,76867335.0,2468528000.0,24685280000.0
sh603927,中科软,2020-04-02,58.08,59.89,57.8,59.89,58.22,1685939.0,99137023.0,2539336000.0,25393360000.0
sh603927,中科软,2020-04-03,59.8,59.85,58.3,58.48,59.89,1560848.0,91926407.0,2479552000.0,24795520000.0
sh603927,中科软,2020-04-07,59.78,61.15,59.5,60.82,58.48,2378474.0,143465649.0,2578768000.0,25787680000.0
sh603927,中科软,2020-04-08,60.28,61.1,60.2,60.57,60.82,1650661.0,100112165.0,2568168000.0,25681680000.0
sh603927,中科软,2020-04-09,61.19,61.28,60.35,60.64,60.57,1633000.0,99237171.0,2571136000.0,25711360000.0
sh603927,中科软,2020-04-10,60.64,60.7,58.02,58.2,60.64,2124669.0,125066207.0,2467680000.0,24676800000.0
sh603927,中科软,2020-04-13,57.68,57.8,56.83,57.23,58.2,1057586.0,60532731.0,2426552000.0,24265520000.0
sh603927,中科软,2020-04-14,57.53,58.53,57.53,58.45,57.23,1180469.0,68661137.0,2478280000.0,24782800000.0
sh603927,中科软,2020-04-15,58.7,59.2,58.25,58.37,58.45,1337600.0,78556075.0,2474888000.0,24748880000.0
sh603927,中科软,2020-04-16,58.25,60.9,57.7,60.45,58.37,2400000.0,142695478.0,2563080000.0,25630800000.0
sh603927,中科软,2020-04-17,61.1,61.38,59.58,59.6,60.45,2600669.0,156885371.0,2527040000.0,25270400000.0
sh603927,中科软,2020-04-20,59.6,60.57,59.02,60.57,59.6,1855495.0,111509338.0,2568168000.0,25681680000.0
sh603927,中科软,2020-04-21,60.08,63.62,59.8,63.62,60.57,5129479.0,321798850.0,2697488000.0,26974880000.0
sh603927,中科软,2020-04-22,62.8,63.99,62.53,62.92,63.62,2750569.0,173333614.0,2667808000.0,26678080000.0
sh603927,中科软,2020-04-23,62.81,63.1,61.1,61.37,62.92,2463919.0,152486854.0,2602088000.0,26020880000.0
sh603927,中科软,2020-04-24,61.1,61.81,59.38,59.6,61.37,2002100.0,121306527.0,2527040000.0,25270400000.0
sh603927,中科软,2020-04-27,60.23,60.29,58.87,58.89,59.6,1314465.0,77854160.0,2496936000.0,24969360000.0
sh603927,中科软,2020-04-28,59.02,61.27,57.0,60.21,58.89,2211900.0,130945695.0,2552904000.0,25529040000.0
sh603927,中科软,2020-04-29,57.02,58.86,57.02,57.5,60.21,2601118.0,150416299.0,2438000000.0,24380000000.0
sh603927,中科软,2020-04-30,57.66,60.27,57.66,59.95,57.5,2646458.0,157284034.0,2541880000.0,25418800000.0
sh603927,中科软,2020-05-06,59.8,61.47,59.3,61.25,59.95,2616200.0,158236937.0,2597000000.0,25970000000.0
sh603927,中科软,2020-05-07,61.23,61.63,60.51,60.6,61.25,1758600.0,106981243.0,2569440000.0,25694400000.0
sh603927,中科软,2020-05-08,60.93,63.81,60.9,63.0,60.6,3724484.0,232234555.0,2671200000.0,26712000000.0
sh603927,中科软,2020-05-11,63.0,63.45,61.6,61.97,63.0,2886700.0,180559933.0,2627528000.0,26275280000.0
sh603927,中科软,2020-05-12,61.67,62.47,60.57,62.16,61.97,1855984.0,114221229.0,2635584000.0,26355840000.0
sh603927,中科软,2020-05-13,61.9,63.34,61.33,63.03,62.16,2718576.0,169854642.0,2672472000.0,26724720000.0
sh603927,中科软,2020-05-14,62.51,63.15,61.51,61.65,63.03,2191991.0,136328392.0,2613960000.0,26139600000.0
sh603927,中科软,2020-05-15,61.93,62.56,61.42,61.44,61.65,2015500.0,124902518.0,2605056000.0,26050560000.0
sh603927,中科软,2020-05-18,61.37,62.49,60.52,61.3,61.44,2077984.0,127967570.0,2599120000.0,25991200000.0
sh603927,中科软,2020-05-19,61.5,62.68,61.3,62.5,61.3,2419082.0,150508172.0,2650000000.0,26500000000.0
sh603927,中科软,2020-05-20,62.39,62.39,60.55,60.8,62.5,2268058.0,139171613.0,2577920000.0,25779200000.0
sh603927,中科软,2020-05-21,60.7,61.19,59.0,59.1,60.8,1863018.0,111478347.0,2505840000.0,25058400000.0
sh603927,XD中科软,2020-05-22,58.92,59.29,57.11,57.61,58.65,1324904.0,76812167.0,2442664000.0,24426640000.0
sh603927,中科软,2020-05-25,57.0,58.08,56.85,57.97,57.61,825984.0,47671011.0,2457928000.0,24579280000.0
sh603927,中科软,2020-05-26,58.0,58.98,58.0,58.85,57.97,895200.0,52573171.0,2495240000.0,24952400000.0
sh603927,中科软,2020-05-27,58.87,59.0,57.51,57.66,58.85,1204144.0,69961609.0,2444784000.0,24447840000.0
sh603927,中科软,2020-05-28,57.66,58.3,56.88,58.2,57.66,1174044.0,67614488.0,2467680000.0,24676800000.0
sh603927,中科软,2020-05-29,57.81,58.3,57.6,57.6,58.2,846484.0,49060742.0,2442240000.0,24422400000.0
sh603927,中科软,2020-06-01,58.33,59.58,58.0,59.3,57.6,1748168.0,103081853.0,2514320000.0,25143200000.0
sh603927,中科软,2020-06-02,59.69,59.69,58.57,59.05,59.3,1386064.0,81709238.0,2503720000.0,25037200000.0
sh603927,中科软,2020-06-03,59.26,59.49,58.62,58.73,59.05,1172803.0,69291349.0,2490152000.0,24901520000.0
sh603927,中科软,2020-06-04,58.75,59.24,58.72,58.86,58.73,913118.0,53798259.0,2495664000.0,24956640000.0
sh603927,中科软,2020-06-05,59.18,59.18,58.0,58.69,58.86,881187.0,51629229.0,2488456000.0,24884560000.0
sh603927,中科软,2020-06-08,59.0,59.6,58.61,58.64,58.69,947706.0,55853675.0,2486336000.0,24863360000.0
sh603927,中科软,2020-06-09,58.83,59.15,58.61,58.79,58.64,884737.0,52078331.0,2492696000.0,24926960000.0
sh603927,中科软,2020-06-10,58.99,58.99,58.0,58.05,58.79,1021098.0,59447458.0,2461320000.0,24613200000.0
sh603927,中科软,2020-06-11,57.8,58.95,57.8,58.45,58.05,1177120.0,68818448.0,2478280000.0,24782800000.0
sh603927,中科软,2020-06-12,57.6,58.22,57.3,57.88,58.45,1257077.0,72554328.0,2454112000.0,24541120000.0
sh603927,中科软,2020-06-15,57.72,58.27,57.2,57.2,57.88,1113300.0,64121307.0,2425280000.0,24252800000.0
sh603927,中科软,2020-06-16,57.79,57.94,57.35,57.91,57.2,998987.0,57593587.0,2455384000.0,24553840000.0
sh603927,中科软,2020-06-17,57.81,59.95,57.61,59.02,57.91,2035367.0,120016538.0,2502448000.0,25024480000.0
sh603927,中科软,2020-06-18,59.0,59.1,58.2,58.9,59.02,1072900.0,62980524.0,2497360000.0,24973600000.0
sh603927,中科软,2020-06-19,59.16,59.16,58.62,58.99,58.9,1185143.0,69761361.0,2501176000.0,25011760000.0
sh603927,中科软,2020-06-22,59.1,60.88,58.98,60.23,58.99,2342204.0,140431762.0,2553752000.0,25537520000.0
sh603927,中科软,2020-06-23,60.17,60.17,59.5,59.69,60.23,1365585.0,81616237.0,2530856000.0,25308560000.0
sh603927,中科软,2020-06-24,59.98,60.75,59.64,60.46,59.69,1756469.0,105831921.0,2563504000.0,25635040000.0
sh603927,中科软,2020-06-29,60.05,60.05,58.69,58.75,60.46,1498158.0,88679291.0,2491000000.0,24910000000.0
sh603927,中科软,2020-06-30,59.15,60.8,59.02,60.44,58.75,2366258.0,142266219.0,2562656000.0,25626560000.0
sh603927,中科软,2020-07-01,61.16,61.16,59.48,60.11,60.44,2021685.0,121638928.0,2548664000.0,25486640000.0
sh603927,中科软,2020-07-02,60.16,65.0,59.71,63.25,60.11,4567228.0,285471030.0,2681800000.0,26818000000.0
sh603927,中科软,2020-07-03,63.04,64.4,62.38,63.99,63.25,3365284.0,213514786.0,2713176000.0,27131760000.0
sh603927,中科软,2020-07-06,64.85,68.21,63.5,67.59,63.99,5105729.0,339284392.0,2865816000.0,28658160000.0
sh603927,中科软,2020-07-07,68.08,70.8,66.0,67.7,67.59,5735377.0,392616378.0,2870480000.0,28704800000.0
sh603927,中科软,2020-07-08,67.75,70.31,67.75,69.4,67.7,3895311.0,269293910.0,2942560000.0,29425600000.0
sh603927,中科软,2020-07-09,69.3,75.98,68.6,73.99,69.4,6586184.0,474089522.0,3137176000.0,31371760000.0
sh603927,中科软,2020-07-10,72.18,73.79,70.2,70.31,73.99,4823782.0,347137799.0,2981144000.0,29811440000.0
sh603927,中科软,2020-07-13,70.0,71.5,68.88,70.75,70.31,3797099.0,266873026.0,2999800000.0,29998000000.0
sh603927,中科软,2020-07-14,70.7,70.7,67.2,68.01,70.75,4241879.0,290839153.0,2883624000.0,28836240000.0
sh603927,中科软,2020-07-15,68.13,68.51,64.79,64.79,68.01,3395589.0,224304166.0,2747096000.0,27470960000.0
sh603927,中科软,2020-07-16,65.0,66.5,62.18,62.53,64.79,2693479.0,173637673.0,2651272000.0,26512720000.0
sh603927,中科软,2020-07-17,62.62,63.39,60.9,61.95,62.53,2179390.0,135763564.0,2626680000.0,26266800000.0
sh603927,中科软,2020-07-20,62.66,63.5,61.5,63.5,61.95,1835991.0,114856805.0,2692400000.0,26924000000.0
sh603927,中科软,2020-07-21,64.12,65.88,63.6,64.19,63.5,2200394.0,142203861.0,2721656000.0,27216560000.0
sh603927,中科软,2020-07-22,64.19,65.03,63.31,63.92,64.19,1889343.0,121339046.0,2710208000.0,27102080000.0
sh603927,中科软,2020-07-23,63.57,63.57,61.51,62.64,63.92,1931551.0,120589464.0,2655936000.0,26559360000.0
sh603927,中科软,2020-07-24,62.7,64.0,60.44,61.18,62.64,2285291.0,142365050.0,2594032000.0,25940320000.0
sh603927,中科软,2020-07-27,61.21,61.77,60.28,60.88,61.18,1112632.0,67817791.0,2581312000.0,25813120000.0
sh603927,中科软,2020-07-28,61.6,61.62,60.8,61.09,60.88,868700.0,53156177.0,2590216000.0,25902160000.0
sh603927,中科软,2020-07-29,60.97,62.75,60.6,62.73,61.09,1550966.0,95839106.0,2659752000.0,26597520000.0
sh603927,中科软,2020-07-30,62.73,62.73,61.06,61.25,62.73,1384200.0,85483544.0,2597000000.0,25970000000.0
sh603927,中科软,2020-07-31,61.1,62.1,60.8,61.72,61.25,1395558.0,85797696.0,2616928000.0,26169280000.0
sh603927,中科软,2020-08-03,61.95,63.71,61.8,63.46,61.72,2244516.0,141584817.0,2690704000.0,26907040000.0
sh603927,中科软,2020-08-04,63.8,63.85,62.71,62.88,63.46,1795111.0,113253132.0,2666112000.0,26661120000.0
sh603927,中科软,2020-08-05,64.95,65.3,63.19,63.32,62.88,2146000.0,137200978.0,2684768000.0,26847680000.0
sh603927,中科软,2020-08-06,63.28,65.0,62.0,64.01,63.32,2884155.0,183135350.0,2714024000.0,27140240000.0
sh603927,中科软,2020-08-07,63.05,63.49,62.0,62.61,64.01,1848784.0,115983826.0,2654664000.0,26546640000.0
sh603927,中科软,2020-08-10,62.61,64.5,62.48,63.81,62.61,2007369.0,128024139.0,2705544000.0,27055440000.0
sh603927,中科软,2020-08-11,63.55,63.79,61.8,61.92,63.81,1681106.0,105307476.0,2625408000.0,26254080000.0
sh603927,中科软,2020-08-12,61.76,61.92,59.04,59.9,61.92,1771408.0,106514781.0,2539760000.0,25397600000.0
sh603927,中科软,2020-08-13,59.78,60.29,59.65,59.74,59.9,838183.0,50230338.0,2532976000.0,25329760000.0
sh603927,中科软,2020-08-14,59.65,61.2,59.47,60.35,59.74,839365.0,50549829.0,2558840000.0,25588400000.0
sh603927,中科软,2020-08-17,60.8,61.69,60.0,61.33,60.35,1161726.0,70895166.0,2600392000.0,26003920000.0
sh603927,中科软,2020-08-18,61.33,61.89,60.51,60.76,61.33,1190112.0,72474425.0,2576224000.0,25762240000.0
sh603927,中科软,2020-08-19,60.76,60.98,59.8,59.82,60.76,1144388.0,68867953.0,2536368000.0,25363680000.0
sh603927,中科软,2020-08-20,59.29,59.88,59.17,59.53,59.82,713661.0,42485530.0,2524072000.0,25240720000.0
sh603927,中科软,2020-08-21,59.99,60.18,58.61,59.0,59.53,769792.0,45750981.0,2501600000.0,25016000000.0
sh603927,中科软,2020-08-24,59.0,59.41,57.61,58.6,59.0,1048305.0,61037424.0,2484640000.0,24846400000.0
sh603927,中科软,2020-08-25,58.68,59.17,58.0,58.43,58.6,712580.0,41760896.0,2477432000.0,24774320000.0
sh603927,中科软,2020-08-26,58.81,59.4,57.77,57.92,58.43,1125900.0,66018476.0,2455808000.0,24558080000.0
sh603927,中科软,2020-08-27,58.01,58.18,56.65,57.29,57.92,1174406.0,67279494.0,2429096000.0,24290960000.0
sh603927,中科软,2020-08-28,57.9,58.8,57.36,58.56,57.29,1164900.0,67735082.0,2482944000.0,24829440000.0
sh603927,中科软,2020-08-31,58.54,59.49,58.49,58.55,58.56,924696.0,54519027.0,2482520000.0,24825200000.0
sh603927,中科软,2020-09-01,58.55,58.8,57.86,58.43,58.55,627800.0,36534580.0,2477432000.0,24774320000.0
sh603927,中科软,2020-09-02,58.47,59.15,58.29,58.91,58.43,815787.0,47869113.0,2497784000.0,24977840000.0
sh603927,中科软,2020-09-03,59.0,59.45,58.06,58.11,58.91,899191.0,52726405.0,2463864000.0,24638640000.0
sh603927,中科软,2020-09-04,56.7,57.84,56.67,57.4,58.11,895184.0,51107182.0,2433760000.0,24337600000.0
sh603927,中科软,2020-09-07,57.0,57.39,54.9,55.45,57.4,1398480.0,79114286.0,2351080000.0,23510800000.0
sh603927,中科软,2020-09-08,55.83,56.0,54.08,54.5,55.45,1303800.0,71124821.0,2310800000.0,23108000000.0
sh603927,中科软,2020-09-09,49.05,49.05,49.05,49.05,54.5,2507600.0,122997780.0,15921049248.0,20797200000.0
sh603927,中科软,2020-09-10,44.15,46.19,44.15,44.15,49.05,13723087.0,613839621.0,14330567264.0,18719600000.0
sh603927,中科软,2020-09-11,42.99,44.5,42.08,44.37,44.15,8859363.0,382270490.0,14401976659.2,18812880000.0
sh603927,中科软,2020-09-14,44.3,45.47,44.3,45.2,44.37,7486931.0,336177476.0,14671384831.999998,19164800000.0
sh603927,中科软,2020-09-15,45.05,45.3,44.2,44.56,45.2,4789411.0,213871617.0,14463648409.6,18893440000.0
sh603927,中科软,2020-09-16,44.37,45.06,44.37,44.75,44.56,3360671.0,150427552.0,14525320160.0,18974000000.0
sh603927,中科软,2020-09-17,44.85,45.13,44.52,45.06,44.75,4851326.0,217760927.0,14625942489.6,19105440000.0
sh603927,中科软,2020-09-18,45.0,45.18,44.31,44.71,45.06,4858468.0,216923908.0,14512336633.599998,18957040000.0
sh603927,中科软,2020-09-21,44.78,44.87,43.92,44.71,44.71,4640840.0,206300054.0,14512336633.599998,18957040000.0
sh603927,中科软,2020-09-22,44.5,44.85,44.11,44.16,44.71,3371448.0,149858714.0,14333813145.6,18723840000.0
sh603927,中科软,2020-09-23,44.21,44.5,43.51,44.19,44.16,3140000.0,138245568.0,14343550790.4,18736560000.0
sh603927,中科软,2020-09-24,43.98,44.09,43.4,43.58,44.19,2428107.0,106172263.0,14145552012.8,18477920000.0
sh603927,中科软,2020-09-25,43.46,43.84,43.25,43.4,43.58,1648967.0,71787044.0,14087126144.0,18401600000.0
sh603927,中科软,2020-09-28,43.4,43.58,41.86,41.91,43.4,2467700.0,104905538.0,13603489785.6,17769840000.0
sh603927,中科软,2020-09-29,42.18,43.46,41.47,43.41,41.91,3396805.0,144885672.0,14090372025.599998,18405840000.0
sh603927,中科软,2020-09-30,42.84,42.89,41.12,41.4,43.41,3835376.0,160244877.0,13437949824.0,17553600000.0
sh603927,中科软,2020-10-09,41.61,42.68,41.25,41.44,41.4,6607015.0,276860955.0,13450933350.4,17570560000.0
sh603927,中科软,2020-10-12,41.44,43.46,41.41,43.15,41.44,8318676.0,353622887.0,14005979104.0,18295600000.0
sh603927,中科软,2020-10-13,43.15,43.38,42.52,42.64,43.15,4055100.0,173525950.0,13840439142.400002,18079360000.0
sh603927,中科软,2020-10-14,42.67,42.69,41.5,41.6,42.64,4231705.0,177371335.0,13502867456.0,17638400000.0
sh603927,中科软,2020-10-15,41.36,41.73,39.99,40.05,41.6,5796290.0,235489226.0,12999755808.000002,16981200000.0
sh603927,中科软,2020-10-16,39.7,40.0,39.0,39.5,40.05,4005700.0,158267813.0,12821232320.0,16748000000.0
sh603927,中科软,2020-10-19,40.0,40.3,39.19,39.36,39.5,3012400.0,119765974.0,12775789977.599998,16688640000.0
sh603927,中科软,2020-10-20,39.14,39.18,38.53,39.07,39.36,3468725.0,134807041.0,12681659411.2,16565680000.0
sh603927,中科软,2020-10-21,39.4,39.5,38.88,39.21,39.07,3904727.0,153044501.0,12727101753.6,16625040000.0
sh603927,中科软,2020-10-22,39.0,39.93,38.73,39.39,39.21,3987046.0,157290828.0,12785527622.400002,16701360000.0
sh603927,中科软,2020-10-23,39.09,39.53,38.66,38.79,39.39,3569593.0,139206959.0,12590774726.4,16446960000.0
sh603927,中科软,2020-10-26,38.6,38.9,38.2,38.63,38.79,2195791.0,84563571.0,12538840620.8,16379120000.0
sh603927,中科软,2020-10-27,38.43,38.58,37.88,38.48,38.63,2761795.0,105670899.0,12490152396.8,16315520000.0
sh603927,中科软,2020-10-28,39.52,41.68,39.36,40.73,38.48,9286135.0,376117957.0,13220475756.8,17269520000.0
sh603927,中科软,2020-10-29,39.88,40.12,39.43,39.83,40.73,4839275.0,192702595.0,12928346412.8,16887920000.0
sh603927,中科软,2020-10-30,39.86,40.48,39.25,39.38,39.83,3735629.0,148715314.0,12782281740.8,16697120000.0
sh603927,中科软,2020-11-02,39.33,39.5,37.98,38.65,39.38,3636491.0,140090863.0,12545332384.0,16387600000.0
sh603927,中科软,2020-11-03,38.7,41.3,38.5,40.51,38.65,5888155.0,237653003.0,13149066361.6,17176240000.0
sh603927,中科软,2020-11-04,40.7,41.15,40.02,40.92,40.51,4896458.0,199586652.0,13282147507.2,17350080000.0
sh603927,中科软,2020-11-05,41.37,41.5,40.6,40.97,40.92,3997165.0,163946231.0,13298376915.2,17371280000.0
sh603927,中科软,2020-11-06,41.0,42.18,40.76,41.99,40.97,7372107.0,305844189.0,13629456838.400002,17803760000.0
sh603927,中科软,2020-11-09,42.09,43.29,41.99,43.06,41.99,7378606.0,315418120.0,13976766169.6,18257440000.0
sh603927,中科软,2020-11-10,43.06,43.06,41.06,41.16,43.06,7340514.0,307466271.0,13360048665.6,17451840000.0
sh603927,中科软,2020-11-11,41.26,41.61,40.51,41.2,41.16,4390479.0,180259887.0,13373032192.0,17468800000.0
sh603927,中科软,2020-11-12,41.19,41.45,40.33,40.6,41.2,3424125.0,139928570.0,13178279296.0,17214400000.0
sh603927,中科软,2020-11-13,40.42,41.35,40.07,41.11,40.6,3123075.0,127377424.0,13343819257.6,17430640000.0
sh603927,中科软,2020-11-16,41.01,41.45,40.7,40.8,41.11,3028400.0,124157169.0,13243196928.0,17299200000.0
sh603927,中科软,2020-11-17,40.79,40.8,39.7,39.91,40.8,3707942.0,148399430.0,12954313465.6,16921840000.0
sh603927,中科软,2020-11-18,39.9,40.28,39.8,39.97,39.91,1832042.0,73344767.0,12973788755.2,16947280000.0
sh603927,中科软,2020-11-19,39.72,40.19,39.35,40.11,39.97,2366900.0,94440843.0,13019231097.599998,17006640000.0
sh603927,中科软,2020-11-20,39.99,40.25,39.66,40.12,40.11,1845300.0,73767697.0,13022476979.2,17010880000.0
sh603927,中科软,2020-11-23,40.0,40.2,39.5,39.69,40.12,2613490.0,103855495.0,12882904070.4,16828560000.0
sh603927,中科软,2020-11-24,39.79,40.45,39.68,39.88,39.69,2225546.0,88999377.0,12944575820.8,16909120000.0
sh603927,中科软,2020-11-25,39.88,41.4,39.72,40.85,39.88,5550247.0,225666918.0,13259426336.0,17320400000.0
sh603927,中科软,2020-11-26,40.7,41.16,40.42,40.79,40.85,2761067.0,112411611.0,13239951046.4,17294960000.0
sh603927,中科软,2020-11-27,40.69,40.81,39.8,39.99,40.79,3157800.0,126885077.0,12980280518.400002,16955760000.0
sh603927,中科软,2020-11-30,39.8,40.78,39.63,40.72,39.99,3756906.0,151565782.0,13217229875.2,17265280000.0
sh603927,中科软,2020-12-01,40.62,40.98,40.08,40.71,40.72,3905710.0,158587995.0,13213983993.599998,17261040000.0
sh603927,中科软,2020-12-02,40.86,41.58,40.72,41.11,40.71,4381474.0,180249827.0,13343819257.6,17430640000.0
sh603927,中科软,2020-12-03,41.11,42.37,40.88,42.21,41.11,6673386.0,279279412.0,13700866233.6,17897040000.0
sh603927,中科软,2020-12-04,42.01,43.47,41.9,42.99,42.21,8532890.0,366310236.0,13954044998.4,18227760000.0
sh603927,中科软,2020-12-07,42.7,43.39,42.51,42.9,42.99,5057973.0,217116128.0,13924832064.0,18189600000.0
sh603927,中科软,2020-12-08,42.91,43.0,41.61,41.66,42.9,4496925.0,189097303.0,13522342745.6,17663840000.0
sh603927,中科软,2020-12-09,41.55,42.0,41.01,41.15,41.66,4987076.0,206916322.0,13356802784.0,17447600000.0
sh603927,中科软,2020-12-10,41.08,43.5,41.01,43.4,41.15,10271360.0,440813949.0,14087126144.0,18401600000.0
sh603927,中科软,2020-12-11,43.12,45.35,42.85,45.3,43.4,14996477.0,662839027.0,14703843648.000002,19207200000.0
sh603927,中科软,2020-12-14,44.61,45.65,43.95,44.44,45.3,8129436.0,363008235.0,14424697830.4,18842560000.0
sh603927,中科软,2020-12-15,44.25,45.5,43.99,44.99,44.44,6459207.0,288861964.0,14603221318.4,19075760000.0
sh603927,中科软,2020-12-16,44.51,44.76,42.88,43.0,44.99,6553563.0,285583984.0,13957290880.0,18232000000.0
sh603927,中科软,2020-12-17,42.88,43.63,42.28,42.73,43.0,5439503.0,234028899.0,13869652076.8,18117520000.0
sh603927,中科软,2020-12-18,42.96,43.28,42.12,42.41,42.73,4327406.0,184244802.0,13765783865.6,17981840000.0
sh603927,中科软,2020-12-21,42.25,43.09,42.11,42.46,42.41,4878700.0,207740509.0,13782013273.6,18003040000.0
sh603927,中科软,2020-12-22,42.13,42.39,40.02,40.1,42.46,8543522.0,350146529.0,13015985216.0,17002400000.0
sh603927,中科软,2020-12-23,40.05,40.63,39.5,40.57,40.1,4638333.0,185717467.0,13168541651.2,17201680000.0
sh603927,中科软,2020-12-24,40.21,40.29,38.6,38.62,40.57,5383022.0,211879943.0,12535594739.2,16374880000.0
sh603927,中科软,2020-12-25,38.51,39.27,38.3,38.95,38.62,2578783.0,100416775.0,12642708832.0,16514800000.0
sh603927,中科软,2020-12-28,38.68,39.18,37.9,38.6,38.95,3862429.0,148321835.0,12529102976.0,16366400000.0
sh603927,中科软,2020-12-29,38.45,40.42,38.39,39.85,38.6,4357152.0,173703242.0,12934838176.0,16896400000.0
sh603927,中科软,2020-12-30,39.57,40.08,39.14,39.77,39.85,2514218.0,99651614.0,12908871123.2,16862480000.0
sh603927,中科软,2020-12-31,39.73,40.89,39.65,40.09,39.77,3105182.0,124976053.0,13012739334.4,16998160000.0
sh603927,中科软,2021-01-04,39.99,40.62,39.69,40.47,40.09,3663420.0,147312285.0,13136082835.2,17159280000.0
sh603927,中科软,2021-01-05,40.16,41.78,39.73,41.69,40.47,5724507.0,232925875.0,13532080390.4,17676560000.0
sh603927,中科软,2021-01-06,41.6,41.92,40.33,40.33,41.69,3950187.0,161541637.0,13090640492.8,17099920000.0
sh603927,中科软,2021-01-07,40.03,40.15,38.6,39.0,40.33,4275840.0,168170422.0,12658938240.0,16536000000.0
sh603927,中科软,2021-01-08,39.0,40.8,38.81,39.78,39.0,3950412.0,158276428.0,12912117004.8,16866720000.0
sh603927,中科软,2021-01-11,39.59,40.84,38.88,38.9,39.78,4109507.0,163416798.0,12626479424.0,16493600000.0
sh603927,中科软,2021-01-12,39.0,39.42,38.63,38.79,38.9,3840863.0,149252199.0,12590774726.4,16446960000.0
sh603927,中科软,2021-01-13,39.45,40.17,38.69,38.8,38.79,5532240.0,217243932.0,12594020608.0,16451200000.0
sh603927,中科软,2021-01-14,38.83,39.9,37.05,39.35,38.8,7369987.0,283795922.0,12772544095.999998,16684400000.0
sh603927,中科软,2021-01-15,38.85,40.8,38.6,39.89,39.35,5876729.0,234484588.0,12947821702.4,16913360000.0
sh603927,中科软,2021-01-18,39.89,40.33,39.37,40.0,39.89,4260300.0,169717299.0,12983526399.999998,16960000000.0
sh603927,中科软,2021-01-19,40.0,40.31,39.11,39.3,40.0,3748200.0,148849455.0,12756314688.0,16663200000.0
sh603927,中科软,2021-01-20,39.32,39.47,38.68,38.88,39.3,2804260.0,109167013.0,12619987660.8,16485120000.0
sh603927,中科软,2021-01-21,38.87,39.29,38.46,38.94,38.88,3009100.0,117052097.0,12639462950.4,16510560000.0
sh603927,中科软,2021-01-22,38.84,38.84,37.74,37.99,38.94,3615194.0,137835300.0,12331104198.400002,16107760000.0
sh603927,中科软,2021-01-25,38.17,38.54,37.2,37.22,37.99,3283700.0,123619497.0,12081171315.2,15781280000.0
sh603927,中科软,2021-01-26,37.1,37.65,36.51,36.59,37.22,3762200.0,138862441.0,11876680774.4,15514160000.0
sh603927,中科软,2021-01-27,36.3,36.78,36.3,36.41,36.59,2448723.0,89380690.0,11818254905.6,15437840000.0
sh603927,中科软,2021-01-28,35.99,36.36,35.66,35.85,36.41,2843660.0,102103633.0,11636485536.0,15200400000.0
sh603927,中科软,2021-01-29,35.85,36.65,35.6,36.08,35.85,3150200.0,113787615.0,11711140812.8,15297920000.0
sh603927,中科软,2021-02-01,35.95,36.36,35.72,35.73,36.08,2308104.0,82835532.0,11597534956.8,15149520000.0
sh603927,中科软,2021-02-02,35.88,35.93,34.57,34.63,35.73,4124078.0,144286089.0,11240487980.8,14683120000.0
sh603927,中科软,2021-02-03,34.81,34.99,34.14,34.18,34.63,2564025.0,88387473.0,11094423308.8,14492320000.0
sh603927,中科软,2021-02-04,34.09,34.09,33.04,33.16,34.18,3112305.0,103977352.0,10763343385.6,14059840000.0
sh603927,中科软,2021-02-05,33.29,33.64,32.91,33.04,33.16,1990541.0,66180345.0,10724392806.4,14008960000.0
sh603927,中科软,2021-02-08,33.1,33.46,32.6,33.12,33.04,2087251.0,69085535.0,10750359859.2,14042880000.0
sh603927,中科软,2021-02-09,33.19,33.5,33.04,33.38,33.12,2046191.0,68098822.0,10834752780.8,14153120000.0
sh603927,中科软,2021-02-10,33.4,34.61,33.23,34.3,33.38,2696341.0,91869626.0,11133373888.0,14543200000.0
sh603927,中科软,2021-02-18,34.79,36.07,34.49,35.78,34.3,3270098.0,116327988.0,11613764364.8,15170720000.0
sh603927,中科软,2021-02-19,35.77,35.98,35.1,35.95,35.78,2335557.0,83138912.0,11668944352.0,15242800000.0
sh603927,中科软,2021-02-22,35.95,36.5,35.72,35.73,35.95,2778000.0,100272035.0,11597534956.8,15149520000.0
sh603927,中科软,2021-02-23,35.51,35.95,35.12,35.64,35.73,1784082.0,63414217.0,11568322022.4,15111360000.0
sh603927,中科软,2021-02-24,35.64,36.39,35.42,35.89,35.64,2530000.0,91171945.0,11649469062.4,15217360000.0
sh603927,中科软,2021-02-25,36.12,36.33,35.4,35.54,35.89,1833500.0,65549310.0,11535863206.4,15068960000.0
sh603927,中科软,2021-02-26,35.1,36.6,35.0,36.38,35.54,3115800.0,112419323.0,11808517260.8,15425120000.0
sh603927,中科软,2021-03-01,36.28,37.52,36.18,37.01,36.38,2644199.0,97886641.0,12013007801.6,15692240000.0
sh603927,中科软,2021-03-02,37.05,37.8,36.6,37.38,37.01,2922475.0,108778687.0,12133105420.8,15849120000.0
sh603927,中科软,2021-03-03,37.36,38.48,37.11,38.16,37.38,3795493.0,143895747.0,12386284185.599998,16179840000.0
sh603927,中科软,2021-03-04,38.0,38.46,37.62,37.99,38.16,2312974.0,87856555.0,12331104198.400002,16107760000.0
sh603927,中科软,2021-03-05,37.88,39.2,37.83,39.2,37.99,4191647.0,162042824.0,12723855872.0,16620800000.0
sh603927,中科软,2021-03-08,39.16,39.5,38.32,38.49,39.2,2843324.0,110801564.0,12493398278.4,16319760000.0
sh603927,中科软,2021-03-09,38.39,39.17,37.43,38.32,38.49,3400995.0,130349901.0,12438218291.2,16247680000.0
sh603927,中科软,2021-03-10,38.33,38.6,36.95,37.01,38.32,3027782.0,113675050.0,12013007801.6,15692240000.0
sh603927,中科软,2021-03-11,37.6,37.74,36.8,37.61,37.01,2451075.0,91250601.0,12207760697.6,15946640000.0
sh603927,中科软,2021-03-12,37.61,37.74,36.3,36.57,37.61,2507100.0,91957396.0,11870189011.2,15505680000.0
sh603927,中科软,2021-03-15,36.7,37.1,36.29,36.75,36.57,1620000.0,59340857.0,11928614879.999998,15582000000.0
sh603927,中科软,2021-03-16,36.74,36.96,36.33,36.64,36.75,1142400.0,41808548.0,11892910182.4,15535360000.0
sh603927,中科软,2021-03-17,36.59,36.7,36.08,36.64,36.64,1219100.0,44448759.0,11892910182.4,15535360000.0
sh603927,中科软,2021-03-18,36.66,36.75,35.18,35.35,36.64,3127356.0,111948640.0,11474191456.0,14988400000.0
sh603927,中科软,2021-03-19,35.11,36.88,35.0,36.43,35.35,2727642.0,98352940.0,11824746668.8,15446320000.0
sh603927,中科软,2021-03-22,36.29,37.11,36.12,36.63,36.43,1602169.0,58910733.0,11889664300.8,15531120000.0
sh603927,中科软,2021-03-23,36.75,37.28,36.5,36.88,36.63,2230764.0,82217903.0,11970811340.8,15637120000.0
sh603927,中科软,2021-03-24,36.6,37.3,36.5,36.83,36.88,2016298.0,74493046.0,11954581932.8,15615920000.0
sh603927,中科软,2021-03-25,36.93,37.19,36.6,36.74,36.83,1957282.0,72270220.0,11925368998.400002,15577760000.0
sh603927,中科软,2021-03-26,36.74,37.28,36.65,37.2,36.74,1960040.0,72501383.0,12074679552.0,15772800000.0
sh603927,中科软,2021-03-29,37.19,37.57,36.8,37.01,37.2,2340167.0,86964885.0,12013007801.6,15692240000.0
sh603927,中科软,2021-03-30,36.85,37.2,36.37,36.69,37.01,1832042.0,67419767.0,11909139590.400002,15556560000.0
sh603927,中科软,2021-03-31,36.71,37.02,36.4,36.68,36.69,1489060.0,54569417.0,11905893708.8,15552320000.0
sh603927,中科软,2021-04-01,36.68,38.22,36.63,38.22,36.68,3476008.0,130715580.0,12405759475.2,16205280000.0
sh603927,中科软,2021-04-02,38.21,38.79,37.85,38.09,38.22,2518221.0,96382114.0,12363563014.400002,16150160000.0
sh603927,中科软,2021-04-06,38.0,38.74,37.9,38.33,38.09,1818246.0,69824735.0,12441464172.8,16251920000.0
sh603927,中科软,2021-04-07,38.25,38.65,38.03,38.48,38.33,1684552.0,64570675.0,12490152396.8,16315520000.0
sh603927,中科软,2021-04-08,38.39,38.95,38.2,38.38,38.48,1793415.0,69185308.0,12457693580.8,16273120000.0
sh603927,中科软,2021-04-09,38.52,38.9,37.93,38.58,38.38,1595924.0,61368618.0,12522611212.8,16357920000.0
sh603927,中科软,2021-04-12,38.52,39.17,38.45,38.92,38.58,2916624.0,113567895.0,12632971187.2,16502080000.0
sh603927,中科软,2021-04-13,38.9,39.26,38.1,38.2,38.92,2492873.0,96113900.0,12399267712.0,16196800000.0
sh603927,中科软,2021-04-14,38.35,38.51,37.88,38.38,38.2,1471707.0,56207484.0,12457693580.8,16273120000.0
sh603927,中科软,2021-04-15,38.13,39.0,38.01,38.97,38.38,2084986.0,80393193.0,12649200595.2,16523280000.0
sh603927,中科软,2021-04-16,39.58,40.15,38.61,39.8,38.97,4605671.0,182408524.0,12918608768.0,16875200000.0
sh603927,中科软,2021-04-19,39.62,40.07,39.18,39.39,39.8,3572517.0,141456056.0,12785527622.400002,16701360000.0
sh603927,中科软,2021-04-20,39.4,41.25,39.4,39.96,39.39,4365704.0,176367629.0,12970542873.6,16943040000.0
sh603927,中科软,2021-04-21,39.8,40.27,39.6,39.86,39.96,1873503.0,74703775.0,12938084057.6,16900640000.0
sh603927,中科软,2021-04-22,39.86,40.12,39.33,40.08,39.86,2333427.0,92593164.0,13009493452.8,16993920000.0
sh603927,中科软,2021-04-23,40.0,40.11,38.59,38.65,40.08,3313053.0,129751052.0,12545332384.0,16387600000.0
sh603927,中科软,2021-04-26,38.55,40.25,38.4,39.39,38.65,4319937.0,171228912.0,12785527622.400002,16701360000.0
sh603927,中科软,2021-04-27,39.57,39.6,37.56,37.61,39.39,4307927.0,164448605.0,12207760697.6,15946640000.0
sh603927,中科软,2021-04-28,37.61,37.94,36.76,37.25,37.61,2849173.0,106342720.0,12090908960.0,15794000000.0
sh603927,中科软,2021-04-29,37.24,37.78,36.1,36.14,37.25,3888284.0,142715098.0,11730616102.400002,15323360000.0
sh603927,中科软,2021-04-30,36.29,36.33,35.65,35.79,36.14,2047015.0,73535232.0,11617010246.4,15174960000.0
sh603927,中科软,2021-05-06,35.82,36.17,35.32,35.44,35.79,1861340.0,66388222.0,11503404390.400002,15026560000.0
sh603927,中科软,2021-05-07,35.48,35.67,35.09,35.16,35.44,1765866.0,62460655.0,11412519705.6,14907840000.0
sh603927,中科软,2021-05-10,35.18,35.44,34.48,34.53,35.16,2155192.0,75128181.0,11208029164.8,14640720000.0
sh603927,中科软,2021-05-11,34.52,35.31,34.4,35.21,34.53,2178811.0,76096736.0,11428749113.6,14929040000.0
sh603927,中科软,2021-05-12,35.19,35.4,34.81,35.36,35.21,1380892.0,48647994.0,11477437337.6,14992640000.0
sh603927,中科软,2021-05-13,35.1,35.62,34.96,35.2,35.36,1665350.0,58701922.0,11425503232.0,14924800000.0
sh603927,中科软,2021-05-14,35.18,35.51,35.02,35.49,35.2,1588969.0,56096426.0,11519633798.400002,15047760000.0
sh603927,中科软,2021-05-17,35.49,35.85,35.33,35.4,35.49,1481560.0,52706303.0,11490420864.0,15009600000.0
sh603927,中科软,2021-05-18,35.4,35.65,35.06,35.54,35.4,1119160.0,39665051.0,11535863206.4,15068960000.0
sh603927,中科软,2021-05-19,35.31,35.53,35.1,35.16,35.54,1297080.0,45718016.0,11412519705.6,14907840000.0
sh603927,中科软,2021-05-20,35.17,35.38,34.49,34.76,35.16,1902745.0,66266721.0,11282684441.6,14738240000.0
sh603927,中科软,2021-05-21,34.78,35.1,34.7,34.81,34.76,1316232.0,45855048.0,11298913849.599998,14759440000.0
sh603927,中科软,2021-05-24,34.83,35.91,34.6,35.74,34.81,2653250.0,94180487.0,11600780838.4,15153760000.0
sh603927,中科软,2021-05-25,35.61,35.91,35.51,35.74,35.74,2023662.0,72297566.0,11600780838.4,15153760000.0
sh603927,中科软,2021-05-26,35.81,36.78,35.75,36.41,35.74,3163939.0,115059842.0,11818254905.6,15437840000.0
sh603927,中科软,2021-05-27,36.47,36.75,36.31,36.47,36.41,2015716.0,73554382.0,11837730195.2,15463280000.0
sh603927,中科软,2021-05-28,36.4,36.87,36.16,36.27,36.47,2027949.0,73889576.0,11772812563.2,15378480000.0
sh603927,中科软,2021-05-31,36.31,37.32,36.29,37.18,36.27,2412648.0,89346781.0,12068187788.8,15764320000.0
sh603927,中科软,2021-06-01,37.2,37.93,36.91,37.66,37.18,2655459.0,99636877.0,12223990105.6,15967840000.0
sh603927,中科软,2021-06-02,37.44,37.88,37.03,37.03,37.66,1763170.0,65676980.0,12019499564.8,15700720000.0
sh603927,中科软,2021-06-03,37.06,37.6,36.73,36.78,37.03,1628685.0,60527434.0,11938352524.8,15594720000.0
sh603927,中科软,2021-06-04,37.0,37.49,36.69,37.11,36.78,1498680.0,55521756.0,12045466617.6,15734640000.0
sh603927,中科软,2021-06-07,37.17,38.99,37.12,38.58,37.11,4096440.0,156303593.0,12522611212.8,16357920000.0
sh603927,中科软,2021-06-08,38.53,39.92,37.93,38.98,38.58,7416869.0,290325393.0,12652446476.8,16527520000.0
sh603927,中科软,2021-06-09,39.31,39.49,37.91,38.2,38.98,4340060.0,166614500.0,12399267712.0,16196800000.0
sh603927,中科软,2021-06-10,38.28,42.02,38.01,42.02,38.2,16852746.0,693026990.0,13639194483.2,17816480000.0
sh603927,中科软,2021-06-11,46.22,46.22,45.0,46.22,42.02,13978283.0,644215241.0,15002464755.2,19597280000.0
sh603927,中科软,2021-06-15,48.0,48.9,45.21,45.21,46.22,28193174.0,1325398899.0,14674630713.6,19169040000.0
sh603927,中科软,2021-06-16,43.1,43.92,40.69,41.37,45.21,24314581.0,1017038138.0,13428212179.2,17540880000.0
sh603927,中科软,2021-06-17,40.85,42.8,39.68,42.29,41.37,15763870.0,647461932.0,13726833286.4,17930960000.0
sh603927,中科软,2021-06-18,41.4,42.5,40.8,41.36,42.29,11057996.0,460015052.0,13424966297.599998,17536640000.0
sh603927,中科软,2021-06-21,40.99,45.5,40.8,45.5,41.36,16943401.0,738197958.0,14768761280.0,19292000000.0
sh603927,中科软,2021-06-22,46.45,47.3,44.75,44.95,45.5,15570767.0,712850724.0,14590237792.0,19058800000.0
sh603927,中科软,2021-06-23,44.49,45.98,43.95,45.32,44.95,10221989.0,460739583.0,14710335411.2,19215680000.0
sh603927,中科软,2021-06-24,45.29,45.85,43.02,43.1,45.32,10314172.0,455235559.0,13989749696.0,18274400000.0
sh603927,中科软,2021-06-25,43.0,44.18,42.17,42.4,43.1,7886878.0,337695035.0,13762537984.0,17977600000.0
sh603927,中科软,2021-06-28,42.0,43.4,41.9,42.81,42.4,5667277.0,243120493.0,13895619129.6,18151440000.0
sh603927,中科软,2021-06-29,43.44,44.2,42.52,42.68,42.81,7442757.0,323591948.0,13853422668.8,18096320000.0
sh603927,中科软,2021-06-30,42.68,43.14,42.26,42.95,42.68,4876515.0,208727896.0,13941061472.0,18210800000.0
sh603927,中科软,2021-07-01,43.02,43.12,40.79,40.85,42.95,7439927.0,308888532.0,13259426336.0,17320400000.0
sh603927,中科软,2021-07-02,40.9,41.93,40.53,41.48,40.85,4491448.0,185271667.0,13463916876.8,17587520000.0
sh603927,DR中科软,2021-07-05,29.32,31.5,29.32,30.17,29.24,6884562.0,208374729.0,9792824787.2,12792080000.0
sh603927,中科软,2021-07-06,29.42,29.87,28.7,29.1,30.17,9702861.0,283617647.0,13223721638.4,17273760000.0
sh603927,中科软,2021-07-07,28.87,28.87,27.91,28.63,29.1,8241341.0,233442548.0,13010142629.12,16994768000.0
sh603927,中科软,2021-07-08,28.57,28.9,27.95,28.15,28.63,7666948.0,216681618.0,12792019385.599998,16709840000.0
sh603927,中科软,2021-07-09,28.15,28.56,28.05,28.25,28.15,5246725.0,148282051.0,12837461728.0,16769200000.0
sh603927,中科软,2021-07-12,28.4,29.49,28.3,29.36,28.25,8642491.0,250935733.0,13341871728.64,17428096000.0
sh603927,中科软,2021-07-13,29.18,30.29,29.1,29.26,29.36,8885383.0,263123546.0,13296429386.24,17368736000.0
sh603927,中科软,2021-07-14,29.0,29.82,28.85,29.67,29.26,7908009.0,232519817.0,13482742990.08,17612112000.0
sh603927,中科软,2021-07-15,29.77,30.37,29.4,30.23,29.67,11262684.0,338755096.0,13737220107.52,17944528000.0
sh603927,中科软,2021-07-16,30.24,30.29,29.3,29.35,30.23,7557000.0,224397987.0,13337327494.4,17422160000.0
sh603927,中科软,2021-07-19,29.0,29.02,28.06,28.62,29.35,6303871.0,179504048.0,13005598394.88,16988832000.0
sh603927,中科软,2021-07-20,28.57,28.9,28.21,28.75,28.62,4161678.0,118733612.0,13064673440.0,17066000000.0
sh603927,中科软,2021-07-21,28.71,28.89,28.39,28.51,28.75,5491880.0,156856346.0,12955611818.240002,16923536000.0
sh603927,中科软,2021-07-22,28.52,28.65,28.01,28.21,28.51,5973493.0,168419784.0,12819284791.04,16745456000.0
sh603927,中科软,2021-07-23,28.08,28.08,26.45,26.75,28.21,10995804.0,297917747.0,12155826592.000002,15878800000.0
sh603927,中科软,2021-07-26,26.41,26.55,25.85,26.1,26.75,5418986.0,142186946.0,11860451366.4,15492960000.0
sh603927,中科软,2021-07-27,26.2,27.15,26.0,26.4,26.1,6633429.0,176433009.0,11996778393.6,15671040000.0
sh603927,中科软,2021-07-28,26.4,26.9,25.9,26.53,26.4,5083755.0,134190548.0,12055853438.72,15748208000.0
sh603927,中科软,2021-07-29,26.88,26.99,26.5,26.5,26.53,4475106.0,119360734.0,12042220736.0,15730400000.0
sh603927,中科软,2021-07-30,26.27,26.55,25.82,26.08,26.5,5016560.0,131449224.0,11851362897.92,15481088000.0
sh603927,中科软,2021-08-02,26.14,26.5,25.51,26.43,26.08,5867583.0,153083781.0,12010411096.320002,15688848000.0
sh603927,中科软,2021-08-03,26.3,27.3,26.3,26.91,26.43,5875735.0,157579932.0,12228534339.84,15973776000.0
sh603927,中科软,2021-08-04,26.74,26.86,26.26,26.35,26.91,5333456.0,141108226.0,11974057222.4,15641360000.0
sh603927,中科软,2021-08-05,26.09,26.28,25.45,25.5,26.35,5895900.0,152209007.0,11587797312.0,15136800000.0
sh603927,中科软,2021-08-06,25.57,25.64,24.9,25.2,25.5,4682024.0,117616922.0,11451470284.8,14958720000.0
sh603927,中科软,2021-08-09,25.3,25.75,25.12,25.66,25.2,3879485.0,98953630.0,11660505059.84,15231776000.0
sh603927,中科软,2021-08-10,25.6,26.18,25.4,26.1,25.66,3744859.0,97075391.0,11860451366.4,15492960000.0
sh603927,中科软,2021-08-11,25.97,26.11,25.62,25.71,26.1,3288472.0,84835975.0,11683226231.04,15261456000.0
sh603927,中科软,2021-08-12,25.63,26.37,25.63,25.75,25.71,4019103.0,104425461.0,11701403168.0,15285200000.0
sh603927,中科软,2021-08-13,25.78,25.82,25.1,25.35,25.75,3429897.0,87012810.0,11519633798.400002,15047760000.0
sh603927,中科软,2021-08-16,25.31,25.64,25.1,25.34,25.35,3217194.0,81505287.0,11515089564.16,15041824000.0
sh603927,中科软,2021-08-17,25.29,25.35,24.65,24.67,25.34,4782956.0,119372442.0,11210625870.079998,14644112000.0
sh603927,中科软,2021-08-18,24.7,24.87,24.33,24.87,24.67,3045696.0,74995001.0,11301510554.88,14762832000.0
sh603927,中科软,2021-08-19,24.9,25.15,24.71,24.72,24.87,2542278.0,63267417.0,11233347041.28,14673792000.0
sh603927,中科软,2021-08-20,24.71,24.8,23.67,23.78,24.72,6068799.0,145326588.0,10806189022.72,14115808000.0
sh603927,中科软,2021-08-23,23.84,25.39,23.82,25.18,23.78,6372875.0,158452857.0,11442381816.32,14946848000.0
sh603927,中科软,2021-08-24,25.35,25.38,24.95,25.09,25.18,3238247.0,81234688.0,11401483708.16,14893424000.0
sh603927,中科软,2021-08-25,25.0,25.3,24.91,25.14,25.09,2195265.0,55104957.0,11424204879.36,14923104000.0
sh603927,中科软,2021-08-26,25.09,25.14,24.59,24.67,25.14,2875092.0,71210733.0,11210625870.079998,14644112000.0
sh603927,中科软,2021-08-27,24.64,25.48,24.64,25.25,24.67,4364102.0,109574439.0,11474191456.0,14988400000.0
sh603927,中科软,2021-08-30,25.8,26.69,25.62,25.68,25.25,8165652.0,213056032.0,11669593528.32,15243648000.0
sh603927,中科软,2021-08-31,25.48,25.71,24.87,25.18,25.68,4644344.0,117000293.0,11442381816.32,14946848000.0
sh603927,中科软,2021-09-01,25.18,26.0,24.84,25.69,25.18,5248355.0,134044802.0,11674137762.56,15249584000.0
sh603927,中科软,2021-09-02,25.65,26.09,25.51,25.97,25.69,4420747.0,114143886.0,11801376321.28,15415792000.0
sh603927,中科软,2021-09-03,26.0,26.4,25.75,26.21,25.97,5143025.0,134202154.0,11910437943.04,15558256000.0
sh603927,中科软,2021-09-06,26.21,26.26,25.91,26.08,26.21,3287964.0,85656060.0,11851362897.92,15481088000.0
sh603927,中科软,2021-09-07,26.09,26.18,25.71,26.02,26.08,3248720.0,84156526.0,11824097492.48,15445472000.0
sh603927,中科软,2021-09-08,26.1,26.41,25.82,26.18,26.02,4540757.0,118368535.0,11896805240.32,15540448000.0
sh603927,中科软,2021-09-09,26.18,26.18,25.67,25.69,26.18,4057109.0,104694719.0,11674137762.56,15249584000.0
sh603927,中科软,2021-09-10,25.7,25.85,25.36,25.69,25.69,3582933.0,91482924.0,11674137762.56,15249584000.0
sh603927,中科软,2021-09-13,25.6,25.75,25.1,25.25,25.69,3519991.0,89200903.0,11474191456.0,14988400000.0
sh603927,中科软,2021-09-14,25.25,26.24,25.25,25.69,25.25,6267651.0,161591698.0,11674137762.56,15249584000.0
sh603927,中科软,2021-09-15,25.6,25.6,24.85,24.91,25.69,4759082.0,118893775.0,11319687491.84,14786576000.0
sh603927,中科软,2021-09-16,25.06,25.18,24.66,24.93,24.91,3384707.0,84194206.0,11328775960.32,14798448000.0
sh603927,中科软,2021-09-17,24.8,24.9,24.44,24.78,24.93,2364975.0,58245270.0,11260612446.72,14709408000.0
sh603927,中科软,2021-09-22,24.5,25.0,24.38,24.9,24.78,2179837.0,53543904.0,11315143257.599998,14780640000.0
sh603927,中科软,2021-09-23,24.88,25.33,24.85,25.14,24.9,3791098.0,95213586.0,11424204879.36,14923104000.0
sh603927,中科软,2021-09-24,25.28,25.85,25.16,25.51,25.14,6072500.0,155585893.0,11592341546.24,15142736000.0
sh603927,中科软,2021-09-27,26.0,26.25,25.1,25.13,25.51,5883606.0,151544626.0,11419660645.12,14917168000.0
sh603927,中科软,2021-09-28,24.78,25.62,24.51,25.57,25.13,4214118.0,106123601.0,11619606951.68,15178352000.0
sh603927,中科软,2021-09-29,25.31,25.48,24.72,24.75,25.57,3767215.0,93859137.0,11246979744.0,14691600000.0
sh603927,中科软,2021-09-30,24.75,25.48,24.75,25.28,24.75,2675320.0,67373583.0,11487824158.72,15006208000.0
sh603927,中科软,2021-10-08,25.56,26.0,25.4,25.65,25.28,3317116.0,85276403.0,11655960825.6,15225840000.0
sh603927,中科软,2021-10-11,25.65,26.09,25.6,25.75,25.65,3559864.0,92192408.0,11701403168.0,15285200000.0
sh603927,中科软,2021-10-12,25.9,25.93,25.42,25.63,25.75,3056656.0,78538453.0,11646872357.12,15213968000.0
sh603927,中科软,2021-10-13,25.53,25.85,25.53,25.65,25.63,2272786.0,58405919.0,11655960825.6,15225840000.0
sh603927,中科软,2021-10-14,25.66,25.7,25.2,25.25,25.65,2667125.0,67642784.0,11474191456.0,14988400000.0
sh603927,中科软,2021-10-15,25.28,25.57,25.08,25.11,25.25,2719622.0,68768406.0,11410572176.64,14905296000.0
sh603927,中科软,2021-10-18,25.13,25.16,24.61,24.82,25.11,3247543.0,80491970.0,11278789383.68,14733152000.0
sh603927,中科软,2021-10-19,24.83,25.22,24.83,25.1,24.82,2016567.0,50513882.0,11406027942.4,14899360000.0
sh603927,中科软,2021-10-20,25.23,26.1,25.2,25.44,25.1,6038464.0,155158414.0,11560531906.56,15101184000.0
sh603927,中科软,2021-10-21,25.1,25.55,24.92,25.22,25.44,3910137.0,98216530.0,11460558753.28,14970592000.0
sh603927,中科软,2021-10-22,25.0,25.73,24.86,25.46,25.22,4762126.0,120663045.0,11569620375.04,15113056000.0
sh603927,中科软,2021-10-25,25.48,25.48,24.84,25.14,25.46,3600846.0,90073080.0,11424204879.36,14923104000.0
sh603927,中科软,2021-10-26,25.12,25.18,24.81,24.85,25.14,2612156.0,65128740.0,11292422086.400002,14750960000.0
sh603927,中科软,2021-10-27,24.7,24.81,24.27,24.4,24.85,3623373.000000001,88639313.0,11087931545.6,14483840000.0
sh603927,中科软,2021-10-28,24.75,24.89,24.44,24.61,24.4,3930826.0,97144505.0,11183360464.64,14608496000.0
sh603927,中科软,2021-10-29,24.61,25.14,24.5,25.08,24.61,3171501.0,79020621.0,11396939473.919998,14887488000.0
sh603927,中科软,2021-11-01,25.0,26.48,24.9,26.05,25.08,9314345.0,241419172.0,11837730195.2,15463280000.0
sh603927,中科软,2021-11-02,26.01,26.27,25.8,26.09,26.05,5620504.0,146296916.0,11855907132.16,15487024000.0
sh603927,中科软,2021-11-03,26.0,26.3,25.9,26.11,26.09,3879282.0,101214452.0,11864995600.64,15498896000.0
sh603927,中科软,2021-11-04,26.15,26.82,26.01,26.42,26.11,7034484.0,186514352.0,12005866862.08,15682912000.0
sh603927,中科软,2021-11-05,26.31,27.73,26.31,27.4,26.42,10840069.0,294800060.0,12451201817.6,16264640000.0
sh603927,中科软,2021-11-08,27.41,28.09,26.91,27.99,27.4,10542776.0,291296043.0,12719311637.76,16614864000.0
sh603927,中科软,2021-11-09,27.65,28.07,27.2,27.3,27.99,7673894.0,211234285.0,12405759475.2,16205280000.0
sh603927,中科软,2021-11-10,27.29,27.8,27.2,27.4,27.3,6098195.0,167532156.0,12451201817.6,16264640000.0
sh603927,中科软,2021-11-11,27.29,28.25,27.13,27.77,27.4,7444859.0,207075982.0,12619338484.48,16484272000.0
sh603927,中科软,2021-11-12,27.8,27.8,27.1,27.42,27.77,6789443.0,186066437.0,12460290286.08,16276512000.0
sh603927,中科软,2021-11-15,27.56,28.04,27.34,27.44,27.42,6211313.0,171588089.0,12469378754.56,16288384000.0
sh603927,中科软,2021-11-16,27.56,28.06,27.45,27.78,27.44,7811058.0,217136179.0,12623882718.72,16490208000.0
sh603927,中科软,2021-11-17,27.6,27.82,27.3,27.46,27.78,7374994.0,202803219.0,12478467223.04,16300256000.0
sh603927,中科软,2021-11-18,27.48,28.08,26.94,26.97,27.46,8464327.0,231914142.0,12255799745.28,16009392000.0
sh603927,中科软,2021-11-19,27.0,27.19,26.67,26.85,26.97,6035480.0,162417401.0,12201268934.4,15938160000.0
sh603927,中科软,2021-11-22,26.9,27.14,26.66,26.98,26.85,4769700.0,128199059.0,12260343979.519999,16015328000.0
sh603927,中科软,2021-11-23,26.9,26.94,26.34,26.64,26.98,5570044.0,148265875.0,12105840015.36,15813504000.0
sh603927,中科软,2021-11-24,26.7,26.83,26.33,26.37,26.64,4845466.0,128135098.0,11983145690.880001,15653232000.0
sh603927,中科软,2021-11-25,26.43,26.8,26.23,26.59,26.37,5157266.0,137137820.0,12083118844.16,15783824000.0
sh603927,中科软,2021-11-26,26.5,27.11,26.07,26.96,26.59,8961722.0,238772550.0,12251255511.04,16003456000.0
sh603927,中科软,2021-11-29,26.58,26.58,25.98,26.04,26.96,7533084.0,197463109.0,11833185960.96,15457344000.0
sh603927,中科软,2021-11-30,26.16,27.4,26.06,27.22,26.04,11385723.0,306340066.0,12369405601.28,16157792000.0
sh603927,中科软,2021-12-01,27.3,27.55,27.05,27.5,27.22,9127205.0,249363038.0,12496644160.0,16324000000.0
sh603927,中科软,2021-12-02,27.27,27.27,26.51,26.55,27.5,7054443.0,189367636.0,12064941907.2,15760080000.0
sh603927,中科软,2021-12-03,26.56,26.94,26.38,26.65,26.55,4383700.0,116825240.0,12110384249.6,15819440000.0
sh603927,中科软,2021-12-06,26.65,26.7,26.03,26.06,26.65,4866978.0,127865823.0,11842274429.44,15469216000.0
sh603927,中科软,2021-12-07,26.1,26.3,25.66,25.83,26.06,3679010.0,95380682.0,11737757041.92,15332688000.0
sh603927,中科软,2021-12-08,25.9,26.4,25.9,26.33,25.83,4231169.0,110967742.0,11964968753.92,15629488000.0
sh603927,中科软,2021-12-09,26.33,26.56,26.18,26.43,26.33,3795077.0,100106437.0,12010411096.320002,15688848000.0
sh603927,中科软,2021-12-10,26.36,26.42,25.9,25.95,26.43,5085604.0,132624679.0,11792287852.8,15403920000.0
sh603927,中科软,2021-12-13,26.0,26.42,25.96,26.2,25.95,3701107.0,97091397.0,11905893708.800001,15552320000.0
sh603927,中科软,2021-12-14,26.08,26.6,26.01,26.6,26.2,5110383.0,135117421.0,12087663078.4,15789760000.0
sh603927,中科软,2021-12-15,26.7,26.98,26.41,26.5,26.6,4726548.0,126119449.0,12042220736.0,15730400000.0
sh603927,中科软,2021-12-16,26.38,26.76,26.35,26.52,26.5,3422480.0,90668224.0,12051309204.480001,15742272000.0
sh603927,中科软,2021-12-17,26.46,26.55,25.83,25.83,26.52,5581825.0,145382989.0,11737757041.92,15332688000.0
sh603927,中科软,2021-12-20,25.84,25.95,25.4,25.42,25.83,4622903.0,118393758.0,11551443438.08,15089312000.0
sh603927,中科软,2021-12-21,25.42,25.79,25.42,25.66,25.42,2805232.0,71933449.0,11660505059.84,15231776000.0
sh603927,中科软,2021-12-22,25.75,28.23,25.7,28.23,25.66,17380984.0,481500055.0,12828373259.52,16757328000.0
sh603927,中科软,2021-12-23,28.5,28.8,27.9,27.97,28.23,25570575.0,723979747.0,12710223169.279999,16602992000.0
sh603927,中科软,2021-12-24,27.8,28.12,27.06,27.32,27.97,12351859.0,338347754.0,12414847943.68,16217152000.0
sh603927,中科软,2021-12-27,27.38,27.51,27.01,27.27,27.32,8242240.0,224453396.0,12392126772.48,16187472000.0
sh603927,中科软,2021-12-28,27.34,27.67,27.0,27.15,27.27,8754124.0,238751020.0,12337595961.6,16116240000.0
sh603927,中科软,2021-12-29,27.08,27.4,26.88,27.25,27.15,7427265.0,201992483.0,12383038304.0,16175600000.0
sh603927,中科软,2021-12-30,27.14,27.62,26.98,27.56,27.25,8245341.0,226024853.0,12523909565.439999,16359616000.0
sh603927,中科软,2021-12-31,27.61,27.61,27.27,27.36,27.56,6561117.0,179739490.0,12433024880.64,16240896000.0
sh603927,中科软,2022-01-04,27.38,27.87,27.34,27.8,27.36,8135999.0,224518546.0,12632971187.199999,16502080000.0
sh603927,中科软,2022-01-05,27.78,29.06,27.4,28.91,27.8,19081986.0,539190522.0,13137381187.84,17160976000.0
sh603927,中科软,2022-01-06,28.61,29.05,28.23,28.57,28.91,10537540.0,301175666.0,12982877223.68,16959152000.0
sh603927,中科软,2022-01-07,28.57,30.0,28.56,29.39,28.57,19039124.0,560071983.0,13355504431.36,17445904000.0
sh603927,中科软,2022-01-10,29.14,30.06,28.86,29.38,29.39,11515528.0,340197377.0,13350960197.119999,17439968000.0
sh603927,中科软,2022-01-11,28.3,28.69,27.58,27.67,29.38,15520231.0,435543221.0,12573896142.08,16424912000.0
sh603927,中科软,2022-01-12,27.77,28.24,27.66,27.75,27.67,6969616.0,194594566.0,12610250016.0,16472400000.0
sh603927,中科软,2022-01-13,27.96,28.42,27.78,27.95,27.75,6010049.0,168831753.0,12701134700.800001,16591120000.0
sh603927,中科软,2022-01-14,27.78,28.32,27.46,27.77,27.95,6007007.0,167272726.0,12619338484.48,16484272000.0
