数据由邢不行整理
股票代码,股票名称,交易日期,开盘价,最高价,最低价,收盘价,前收盘价,成交量,成交额,流通市值,总市值
sh601236,N红塔证,2019-07-05,4.15,4.98,4.15,4.98,3.46,263471.0,1310841.0,1812720000.0,18094358872.1
sh601236,红塔证券,2019-07-08,5.48,5.48,5.48,5.48,4.98,183956.0,1008079.0,1994720000.0,19911061570.1
sh601236,红塔证券,2019-07-09,6.03,6.03,6.03,6.03,5.48,214379.0,1292705.0,2194920000.0,21909434537.9
sh601236,红塔证券,2019-07-10,6.63,6.63,6.63,6.63,6.03,527342.0,3496277.0,2413320000.0,24089477775.5
sh601236,红塔证券,2019-07-11,7.29,7.29,7.29,7.29,6.63,1004154.0,7320283.0,2653560000.0,26487525336.8
sh601236,红塔证券,2019-07-12,8.02,8.02,8.02,8.02,7.29,2121280.0,17012666.0,2919280000.0,29139911275.9
sh601236,红塔证券,2019-07-15,8.82,8.82,8.82,8.82,8.02,2014361.0,17766664.0,3210480000.0,32046635592.7
sh601236,红塔证券,2019-07-16,9.7,9.7,9.7,9.7,8.82,1587759.0,15401262.0,3530800000.0,35244032341.2
sh601236,红塔证券,2019-07-17,10.67,10.67,10.67,10.67,9.7,1411908.0,15065058.0,3883880000.0,38768435575.3
sh601236,红塔证券,2019-07-18,11.74,11.74,11.74,11.74,10.67,9825960.0,115356770.0,4273360000.0,42656179349.0
sh601236,红塔证券,2019-07-19,12.91,12.91,12.91,12.91,11.74,18687019.0,241249415.0,4699240000.0,46907263662.4
sh601236,红塔证券,2019-07-22,13.49,14.19,13.15,13.86,12.91,281181135.0,3821006813.0,5045040000.0,50358998788.6
sh601236,红塔证券,2019-07-23,13.32,13.75,13.01,13.63,13.86,157790092.0,2102875591.0,4961320000.0,49523315547.5
sh601236,红塔证券,2019-07-24,13.5,14.68,13.42,13.55,13.63,207366392.0,2899761628.0,4932200000.0,49232643115.8
sh601236,红塔证券,2019-07-25,13.3,14.49,13.13,14.35,13.55,191360039.0,2637912073.0,5223400000.0,52139367432.6
sh601236,红塔证券,2019-07-26,14.01,14.12,13.69,13.89,14.35,122187979.0,1700075853.0,5055960000.0,50468000950.4
sh601236,红塔证券,2019-07-29,13.78,14.11,13.61,13.95,13.89,85577447.0,1187201459.0,5077800000.0,50686005274.2
sh601236,红塔证券,2019-07-30,14.0,14.88,13.91,14.0,13.95,162427501.0,2326119697.0,5096000000.0,50867675544.0
sh601236,红塔证券,2019-07-31,13.81,14.16,13.72,14.01,14.0,98817789.0,1379191517.0,5099640000.0,50904009598.0
sh601236,红塔证券,2019-08-01,13.85,14.07,13.22,13.52,14.01,122729421.0,1674005100.0,4921280000.0,49123640953.9
sh601236,红塔证券,2019-08-02,13.08,13.75,13.06,13.75,13.52,105818400.0,1419375283.0,5005000000.0,49959324195.0
sh601236,红塔证券,2019-08-05,13.66,14.14,13.61,14.1,13.75,127159822.0,1768254379.0,5132400000.0,51231016083.6
sh601236,红塔证券,2019-08-06,13.85,15.51,13.84,14.84,14.1,203745771.0,2987323592.0,5401760000.0,53919736076.6
sh601236,红塔证券,2019-08-07,14.83,15.24,14.51,14.93,14.84,143399323.0,2129326572.0,5434520000.0,54246742562.3
sh601236,红塔证券,2019-08-08,15.68,16.2,14.54,14.65,14.93,170611794.0,2633502344.0,5332600000.0,53229389051.4
sh601236,红塔证券,2019-08-09,14.82,14.93,13.9,14.05,14.65,120190916.0,1715910812.0,5114200000.0,51049345813.8
sh601236,红塔证券,2019-08-12,14.17,14.68,13.9,14.6,14.05,107323866.0,1531747362.0,5314400000.0,53047718781.6
sh601236,红塔证券,2019-08-13,14.23,14.28,13.97,14.09,14.6,76306685.0,1076216375.0,5128760000.0,51194682029.6
sh601236,红塔证券,2019-08-14,14.45,14.47,13.94,13.96,14.09,73544931.0,1042795967.0,5081440000.0,50722339328.2
sh601236,红塔证券,2019-08-15,13.35,14.13,13.26,13.96,13.96,74161722.0,1013840675.0,5081440000.0,50722339328.2
sh601236,红塔证券,2019-08-16,13.83,15.2,13.82,14.73,13.96,153215575.0,2244221000.0,5361720000.0,53520061483.1
sh601236,红塔证券,2019-08-19,14.99,16.2,14.58,16.0,14.73,188278526.0,2892867855.0,5824000000.0,58134486336.0
sh601236,红塔证券,2019-08-20,15.7,16.09,15.11,15.13,16.0,139077880.0,2163854408.0,5507320000.0,54973423641.5
sh601236,红塔证券,2019-08-21,15.08,15.33,14.84,15.23,15.13,80048378.0,1209268260.0,5543720000.0,55336764181.1
sh601236,红塔证券,2019-08-22,15.1,15.25,14.77,14.98,15.23,56012002.0,839591134.0,5452720000.0,54428412832.1
sh601236,红塔证券,2019-08-23,14.96,15.4,14.82,14.97,14.98,64123943.0,968362285.0,5449080000.0,54392078778.1
sh601236,红塔证券,2019-08-26,14.6,15.53,14.53,15.5,14.97,93774122.0,1417403953.0,5642000000.0,56317783638.0
sh601236,红塔证券,2019-08-27,15.55,16.4,15.31,15.44,15.5,119977086.0,1883664078.0,5620160000.0,56099779314.2
sh601236,红塔证券,2019-08-28,15.2,16.08,15.01,15.84,15.44,106534646.0,1657969419.0,5765760000.0,57553141472.6
sh601236,红塔证券,2019-08-29,15.71,16.44,15.57,15.62,15.84,108043442.0,1721449345.0,5685680000.0,56753792285.5
sh601236,红塔证券,2019-08-30,15.85,16.3,15.6,16.01,15.62,115199340.0,1838966801.0,5827640000.0,58170820390.0
sh601236,红塔证券,2019-09-02,16.0,17.5,15.8,17.13,16.01,145516974.0,2410168632.0,6235320000.0,62240234433.5
sh601236,红塔证券,2019-09-03,16.88,17.38,16.62,17.14,17.13,105676724.0,1787984256.0,6238960000.0,62276568487.4
sh601236,红塔证券,2019-09-04,16.98,18.35,16.9,17.72,17.14,129311932.0,2278412566.0,6450080000.0,64383943617.1
sh601236,红塔证券,2019-09-05,18.3,19.49,17.95,18.18,17.72,156634352.0,2924146497.0,6617520000.0,66055310099.3
sh601236,红塔证券,2019-09-06,18.35,18.47,17.71,18.44,18.18,97288651.0,1759500690.0,6712160000.0,66999995502.2
sh601236,红塔证券,2019-09-09,18.85,19.06,18.11,18.8,18.44,104572571.0,1944743453.0,6843200000.0,68308021444.8
sh601236,红塔证券,2019-09-10,18.6,19.79,18.45,19.37,18.8,115825960.0,2212428766.0,7050680000.0,70379062520.5
sh601236,红塔证券,2019-09-11,19.64,19.76,19.0,19.07,19.37,86382288.0,1669859018.0,6941480000.0,69289040901.7
sh601236,红塔证券,2019-09-12,19.04,19.24,18.4,18.96,19.07,79518839.0,1495881332.0,6901440000.0,68889366308.2
sh601236,红塔证券,2019-09-16,18.87,18.96,18.45,18.91,18.96,52715571.0,987551990.0,6883240000.0,68707696038.4
sh601236,红塔证券,2019-09-17,18.67,18.94,17.31,17.53,18.91,88216991.0,1599866631.0,6380920000.0,63693596591.9
sh601236,红塔证券,2019-09-18,17.6,17.67,17.15,17.28,17.53,53866740.0,934591934.0,6289920000.0,62785245242.9
sh601236,红塔证券,2019-09-19,17.38,17.83,17.3,17.78,17.28,59541277.0,1046016826.0,6471920000.0,64601947940.9
sh601236,红塔证券,2019-09-20,17.65,17.89,17.42,17.66,17.78,46556922.0,823329436.0,6428240000.0,64165939293.4
sh601236,红塔证券,2019-09-23,17.44,17.65,16.5,17.48,17.66,47538704.0,818571124.0,6362720000.0,63511926322.1
sh601236,红塔证券,2019-09-24,17.49,17.8,17.2,17.2,17.48,49189140.0,862091916.0,6260800000.0,62494572811.2
sh601236,红塔证券,2019-09-25,16.91,17.59,16.81,17.2,17.2,47155319.0,814567416.0,6260800000.0,62494572811.2
sh601236,红塔证券,2019-09-26,17.23,17.4,15.56,15.95,17.2,75508846.0,1237237667.0,5805800000.0,57952816066.2
sh601236,红塔证券,2019-09-27,15.88,16.04,15.6,15.74,15.95,39155402.0,618722699.0,5729360000.0,57189800933.0
sh601236,红塔证券,2019-09-30,15.73,15.79,14.92,14.93,15.74,42802081.0,655043772.0,5434520000.0,54246742562.3
sh601236,红塔证券,2019-10-08,15.0,15.32,14.91,15.02,14.93,36176346.0,546876143.0,5467280000.0,54573749047.9
sh601236,红塔证券,2019-10-09,14.88,15.5,14.7,15.5,15.02,40530365.0,615129510.0,5642000000.0,56317783638.0
sh601236,红塔证券,2019-10-10,15.33,15.73,15.33,15.54,15.5,37156281.0,577120468.0,5656560000.0,56463119853.8
sh601236,红塔证券,2019-10-11,15.54,16.49,15.35,15.93,15.54,66685226.0,1061609283.0,5798520000.0,57880147958.3
sh601236,红塔证券,2019-10-14,16.09,16.5,15.92,15.98,15.93,62174820.0,1006448323.0,5816720000.0,58061818228.1
sh601236,红塔证券,2019-10-15,15.8,15.9,15.42,15.43,15.98,35732424.0,557474930.0,5616520000.0,56063445260.3
sh601236,红塔证券,2019-10-16,15.55,15.66,15.02,15.09,15.43,34759443.0,532896328.0,5492760000.0,54828087425.6
sh601236,红塔证券,2019-10-17,15.11,15.3,15.03,15.25,15.09,22804976.0,345828698.0,5551000000.0,55409432289.0
sh601236,红塔证券,2019-10-18,15.28,15.36,14.71,14.75,15.25,35425493.0,529475069.0,5369000000.0,53592729591.0
sh601236,红塔证券,2019-10-21,14.39,14.4,13.64,13.97,14.75,42428915.0,593797401.0,5085080000.0,50758673382.1
sh601236,红塔证券,2019-10-22,13.96,14.11,13.82,14.1,13.97,28091884.0,392975851.0,5132400000.0,51231016083.6
sh601236,红塔证券,2019-10-23,14.27,14.32,13.92,13.97,14.1,26233130.0,369703647.0,5085080000.0,50758673382.1
sh601236,红塔证券,2019-10-24,14.03,14.5,13.96,14.27,13.97,41335569.0,588380143.0,5194280000.0,51848695000.9
sh601236,红塔证券,2019-10-25,14.26,14.7,14.01,14.57,14.27,48680047.0,703265701.0,5303480000.0,52938716619.7
sh601236,红塔证券,2019-10-28,14.52,14.98,14.35,14.73,14.57,45364991.0,664844468.0,5361720000.0,53520061483.1
sh601236,红塔证券,2019-10-29,14.5,14.53,13.92,13.95,14.73,41628507.0,593063037.0,5077800000.0,50686005274.2
sh601236,红塔证券,2019-10-30,14.05,14.31,13.96,14.02,13.95,26306963.0,371724103.0,5103280000.0,50940343651.9
sh601236,红塔证券,2019-10-31,14.07,14.16,13.69,13.75,14.02,26769730.0,371257310.0,5005000000.0,49959324195.0
sh601236,红塔证券,2019-11-01,13.75,14.09,13.66,14.02,13.75,25842730.0,360354862.0,5103280000.0,50940343651.9
sh601236,红塔证券,2019-11-04,14.03,14.38,14.0,14.17,14.02,30982757.0,439282488.0,5157880000.0,51485354461.3
sh601236,红塔证券,2019-11-05,14.21,14.5,14.17,14.29,14.17,43454181.0,623483588.0,5201560000.0,51921363108.8
sh601236,红塔证券,2019-11-06,14.21,14.22,13.86,13.94,14.29,28903345.0,405491331.0,5074160000.0,50649671220.2
sh601236,红塔证券,2019-11-07,13.85,14.07,13.8,14.01,13.94,17667356.0,246213560.0,5099640000.0,50904009598.0
sh601236,红塔证券,2019-11-08,14.21,14.29,13.85,13.87,14.01,26363445.0,371066002.0,5048680000.0,50395332842.5
sh601236,红塔证券,2019-11-11,13.63,13.76,13.28,13.34,13.87,27227787.0,368255566.0,4855760000.0,48469627982.6
sh601236,红塔证券,2019-11-12,13.4,13.6,13.24,13.6,13.34,24773633.0,333212263.0,4950400000.0,49414313385.6
sh601236,红塔证券,2019-11-13,13.5,13.59,13.32,13.43,13.6,18045315.0,242630989.0,4888520000.0,48796634468.3
sh601236,红塔证券,2019-11-14,13.47,13.85,13.31,13.65,13.43,29414261.0,399743317.0,4968600000.0,49595983655.4
sh601236,红塔证券,2019-11-15,13.56,13.82,13.43,13.46,13.65,26212000.0,356911251.0,4899440000.0,48905636630.2
sh601236,红塔证券,2019-11-18,13.46,13.77,13.43,13.63,13.46,27016171.0,368408431.0,4961320000.0,49523315547.5
sh601236,红塔证券,2019-11-19,13.63,14.08,13.56,14.08,13.63,40413072.0,557804064.0,5125120000.0,51158347975.7
sh601236,红塔证券,2019-11-20,14.14,14.39,13.88,13.93,14.08,46175008.0,653116786.0,5070520000.0,50613337166.3
sh601236,红塔证券,2019-11-21,13.74,14.16,13.65,14.15,13.93,29261524.0,409220202.0,5150600000.0,51412686353.4
sh601236,红塔证券,2019-11-22,14.3,14.66,14.09,14.62,14.15,61989580.0,889056854.0,5321680000.0,53120386889.5
sh601236,红塔证券,2019-11-25,14.6,15.25,14.3,15.15,14.62,69890458.0,1030286248.0,5514600000.0,55046091749.4
sh601236,红塔证券,2019-11-26,15.0,15.08,14.56,14.58,15.15,51648070.0,764756706.0,5307120000.0,52975050673.7
sh601236,红塔证券,2019-11-27,14.42,14.82,14.31,14.58,14.58,37575032.0,546944580.0,5307120000.0,52975050673.7
sh601236,红塔证券,2019-11-28,14.51,14.8,14.41,14.7,14.58,35107420.0,513131096.0,5350800000.0,53411059321.2
sh601236,红塔证券,2019-11-29,14.68,15.24,14.6,14.73,14.7,61665268.0,920079743.0,5361720000.0,53520061483.1
sh601236,红塔证券,2019-12-02,15.19,15.39,14.79,14.83,14.73,56853788.0,855254457.0,5398120000.0,53883402022.7
sh601236,红塔证券,2019-12-03,14.64,15.29,14.6,15.29,14.83,63356924.0,954943145.0,5565560000.0,55554768504.8
sh601236,红塔证券,2019-12-04,15.08,15.27,15.04,15.21,15.29,39642268.0,600463414.0,5536440000.0,55264096073.2
sh601236,红塔证券,2019-12-05,15.39,15.92,15.32,15.69,15.21,75023497.0,1174074510.0,5711160000.0,57008130663.2
sh601236,红塔证券,2019-12-06,15.57,15.92,15.48,15.89,15.69,54504393.0,856140318.0,5783960000.0,57734811742.4
sh601236,红塔证券,2019-12-09,16.04,16.15,15.73,15.8,15.89,44672407.0,709084930.0,5751200000.0,57407805256.8
sh601236,红塔证券,2019-12-10,15.63,15.84,15.44,15.75,15.8,43435606.0,678438603.0,5733000000.0,57226134987.0
sh601236,红塔证券,2019-12-11,15.65,16.27,15.61,15.77,15.75,59292516.0,945671638.0,5740280000.0,57298803094.9
sh601236,红塔证券,2019-12-12,15.61,15.82,15.53,15.53,15.77,40058225.0,626740778.0,5652920000.0,56426785799.9
sh601236,红塔证券,2019-12-13,15.9,16.98,15.7,16.54,15.53,104909242.0,1706642687.0,6020560000.0,60096525249.8
sh601236,红塔证券,2019-12-16,16.5,17.45,16.21,17.03,16.54,83396796.0,1400760791.0,6198920000.0,61876893893.9
sh601236,红塔证券,2019-12-17,17.0,18.69,16.89,17.76,17.03,101677893.0,1805819684.0,6464640000.0,64529279833.0
sh601236,红塔证券,2019-12-18,17.71,18.37,17.52,17.76,17.76,86508572.0,1556115444.0,6464640000.0,64529279833.0
sh601236,红塔证券,2019-12-19,17.76,17.98,17.55,17.85,17.76,49338025.0,876284645.0,6497400000.0,64856286318.6
sh601236,红塔证券,2019-12-20,17.9,18.69,17.26,17.47,17.85,82093046.0,1490050976.0,6359080000.0,63475592268.1
sh601236,红塔证券,2019-12-23,17.06,17.67,15.97,16.08,17.47,68162901.0,1154209537.0,5853120000.0,58425158767.7
sh601236,红塔证券,2019-12-24,16.23,16.46,16.03,16.35,16.08,44272334.0,717845590.0,5951400000.0,59406178224.6
sh601236,红塔证券,2019-12-25,16.22,16.87,16.11,16.53,16.35,46200652.0,761347161.0,6016920000.0,60060191195.9
sh601236,红塔证券,2019-12-26,16.6,17.5,16.55,17.35,16.53,57526093.0,972475202.0,6315400000.0,63039583620.6
sh601236,红塔证券,2019-12-27,17.15,17.6,16.5,16.57,17.35,69214806.0,1183112741.0,6031480000.0,60205527411.7
sh601236,红塔证券,2019-12-30,16.01,17.35,15.98,16.97,16.57,57783864.0,973635553.0,6177080000.0,61658889570.1
sh601236,红塔证券,2019-12-31,16.88,17.11,16.63,16.77,16.97,34957572.0,588283189.0,6104280000.0,60932208490.9
sh601236,红塔证券,2020-01-02,17.12,17.3,16.79,16.79,16.77,49675977.0,845122667.0,6111560000.0,61004876598.8
sh601236,红塔证券,2020-01-03,16.59,17.0,16.53,16.77,16.79,31638798.0,531097321.0,6104280000.0,60932208490.9
sh601236,红塔证券,2020-01-06,16.51,16.92,16.37,16.52,16.77,38863525.0,645885178.0,6013280000.0,60023857141.9
sh601236,红塔证券,2020-01-07,16.6,16.79,16.35,16.65,16.52,35452238.0,586850295.0,6060600000.0,60496199843.4
sh601236,红塔证券,2020-01-08,16.4,16.53,15.8,15.85,16.65,41137740.0,665155315.0,5769400000.0,57589475526.6
sh601236,红塔证券,2020-01-09,16.23,16.35,15.91,15.99,15.85,26469542.0,425725921.0,5820360000.0,58098152282.0
sh601236,红塔证券,2020-01-10,16.23,16.3,15.96,16.07,15.99,21974673.0,353737830.0,5849480000.0,58388824713.7
sh601236,红塔证券,2020-01-13,16.1,17.68,15.8,17.68,16.07,71292620.0,1199748893.0,6435520000.0,64238607401.3
sh601236,红塔证券,2020-01-14,18.3,19.15,17.86,18.19,17.68,127242532.0,2340328117.0,6621160000.0,66091644153.2
sh601236,红塔证券,2020-01-15,18.19,19.45,18.06,18.43,18.19,114725215.0,2141965480.0,6708520000.0,66963661448.3
sh601236,红塔证券,2020-01-16,18.35,19.99,18.28,19.7,18.43,110337911.0,2120275727.0,7170800000.0,71578086301.2
sh601236,红塔证券,2020-01-17,19.4,19.58,18.76,18.9,19.7,89094905.0,1702759396.0,6879600000.0,68671361984.4
sh601236,红塔证券,2020-01-20,18.63,19.26,18.41,19.24,18.9,61078402.0,1152639361.0,7003360000.0,69906719819.0
sh601236,红塔证券,2020-01-21,18.89,19.47,18.56,18.59,19.24,59708688.0,1131047835.0,6766760000.0,67545006311.6
sh601236,红塔证券,2020-01-22,18.4,19.88,18.34,19.37,18.59,72274467.0,1381019354.0,7050680000.0,70379062520.5
sh601236,红塔证券,2020-01-23,18.64,19.13,17.58,18.06,19.37,69567827.0,1286499941.0,6573840000.0,65619301451.8
sh601236,红塔证券,2020-02-03,16.25,16.25,16.25,16.25,18.06,5804000.0,94315000.0,5915000000.0,59042837685.0
sh601236,红塔证券,2020-02-04,14.63,15.99,14.63,15.75,16.25,80392249.0,1246296900.0,5733000000.0,57226134987.0
sh601236,红塔证券,2020-02-05,15.77,16.49,15.43,16.05,15.75,68739153.0,1099041698.0,5842200000.0,58316156605.8
sh601236,红塔证券,2020-02-06,15.9,17.03,15.77,16.78,16.05,79923764.0,1314746804.0,6107920000.0,60968542544.9
sh601236,红塔证券,2020-02-07,16.6,17.28,16.5,16.86,16.78,63866347.0,1079053575.0,6137040000.0,61259214976.6
sh601236,红塔证券,2020-02-10,16.44,17.27,16.43,16.99,16.86,46735988.0,791673722.0,6184360000.0,61731557678.0
sh601236,红塔证券,2020-02-11,17.71,18.5,17.29,17.44,16.99,70564767.0,1255382721.0,6348160000.0,63366590106.2
sh601236,红塔证券,2020-02-12,17.58,18.25,17.31,18.0,17.44,72932599.0,1297431369.0,6552000000.0,65401297128.0
sh601236,红塔证券,2020-02-13,17.78,18.11,17.19,17.26,18.0,63711399.0,1117217250.0,6282640000.0,62712577135.0
sh601236,红塔证券,2020-02-14,17.13,18.03,17.03,17.74,17.26,68054716.0,1198527201.0,6457360000.0,64456611725.0
sh601236,红塔证券,2020-02-17,18.18,19.3,17.94,18.94,17.74,88889335.0,1642174440.0,6894160000.0,68816698200.2
sh601236,红塔证券,2020-02-18,18.7,18.96,18.33,18.6,18.94,64552232.0,1201389898.0,6770400000.0,67581340365.6
sh601236,红塔证券,2020-02-19,18.61,19.29,18.3,18.39,18.6,72795335.0,1370709616.0,6693960000.0,66818325232.4
sh601236,红塔证券,2020-02-20,18.4,20.23,18.3,20.23,18.39,108438479.0,2086694684.0,7363720000.0,73503791161.1
sh601236,红塔证券,2020-02-21,20.88,22.23,20.23,21.08,20.23,133999508.0,2818515671.0,7673120000.0,76592185747.7
sh601236,红塔证券,2020-02-24,20.65,23.19,20.65,23.19,21.08,124541224.0,2771179873.0,8441160000.0,84258671133.2
sh601236,红塔证券,2020-02-25,22.68,25.5,21.66,24.79,23.19,132432589.0,3074425819.0,9023560000.0,90072119766.8
sh601236,红塔证券,2020-02-26,23.59,24.99,22.49,22.7,24.79,94115125.0,2237174307.0,8262800000.0,82478302489.2
sh601236,红塔证券,2020-02-27,23.21,24.18,22.8,23.4,22.7,87359736.0,2063052981.0,8517600000.0,85021686266.4
sh601236,红塔证券,2020-02-28,22.04,23.1,21.06,21.5,23.4,86189650.0,1910301347.0,7826000000.0,78118216014.0
sh601236,红塔证券,2020-03-02,22.28,23.48,21.8,22.68,21.5,76283795.0,1728210563.0,8255520000.0,82405634381.3
sh601236,红塔证券,2020-03-03,23.3,23.96,22.59,23.06,22.68,78059088.0,1813996058.0,8393840000.0,83786328431.8
sh601236,红塔证券,2020-03-04,22.95,25.37,22.95,25.37,23.06,106861807.0,2580924148.0,9234680000.0,92179494896.5
sh601236,红塔证券,2020-03-05,26.18,27.88,25.0,26.51,25.37,121180979.0,3187056086.0,9649640000.0,96321577048.0
sh601236,红塔证券,2020-03-06,25.5,25.95,24.51,24.71,26.51,91846607.0,2305177376.0,8994440000.0,89781447335.2
sh601236,红塔证券,2020-03-09,23.9,25.64,23.5,24.46,24.71,85378728.0,2099126112.0,8903440000.0,88873095986.2
sh601236,红塔证券,2020-03-10,24.57,26.49,23.77,25.64,24.46,92385314.0,2325076722.0,9332960000.0,93160514353.4
sh601236,红塔证券,2020-03-11,25.5,25.5,24.31,24.33,25.64,59782268.0,1488771473.0,8856120000.0,88400753284.7
sh601236,红塔证券,2020-03-12,23.8,24.8,23.6,24.01,24.33,46034660.0,1112027440.0,8739640000.0,87238063558.0
sh601236,红塔证券,2020-03-13,22.6,24.43,22.3,23.6,24.01,64510162.0,1507027985.0,8590400000.0,85748367345.6
sh601236,红塔证券,2020-03-16,23.7,23.71,21.24,21.24,23.6,57427821.0,1286547181.0,7731360000.0,77173530611.0
sh601236,红塔证券,2020-03-17,21.56,21.99,20.18,20.86,21.24,48765590.0,1021503029.0,7593040000.0,75792836560.6
sh601236,红塔证券,2020-03-18,21.08,21.54,19.88,20.13,20.86,49575500.0,1037595300.0,7327320000.0,73140450621.5
sh601236,红塔证券,2020-03-19,20.11,21.56,19.9,21.23,20.13,61823164.0,1281792474.0,7727720000.0,77137196557.1
sh601236,红塔证券,2020-03-20,21.3,21.5,20.9,21.42,21.23,39121481.0,831744249.0,7796880000.0,77827543582.3
sh601236,红塔证券,2020-03-23,20.53,21.78,20.48,20.79,21.42,41322601.0,875544350.0,7567560000.0,75538498182.8
sh601236,红塔证券,2020-03-24,21.47,21.9,20.53,21.78,20.79,52202154.0,1114974152.0,7927920000.0,79135569524.9
sh601236,红塔证券,2020-03-25,22.3,22.52,21.95,22.05,21.78,49350231.0,1096046435.0,8026200000.0,80116588981.8
sh601236,红塔证券,2020-03-26,21.76,22.2,21.6,21.67,22.05,30955236.0,677127940.0,7887880000.0,78735894931.3
sh601236,红塔证券,2020-03-27,22.01,22.5,21.59,21.79,21.67,37804088.0,832363720.0,7931560000.0,79171903578.8
sh601236,红塔证券,2020-03-30,20.81,21.47,20.35,20.83,21.79,36821182.0,769223125.0,7582120000.0,75683834398.7
sh601236,红塔证券,2020-03-31,21.08,21.16,20.02,20.04,20.83,36407335.0,749183984.0,7294560000.0,72813444135.8
sh601236,红塔证券,2020-04-01,19.9,20.32,19.03,19.3,20.04,41753456.0,827550779.0,7025200000.0,70124724142.8
sh601236,红塔证券,2020-04-02,19.1,19.75,18.91,19.72,19.3,39582379.0,766203566.0,7178080000.0,71650754409.1
sh601236,红塔证券,2020-04-03,19.6,19.95,19.48,19.63,19.72,29290469.0,578264454.0,7145320000.0,71323747923.5
sh601236,红塔证券,2020-04-07,20.43,20.95,20.15,20.55,19.63,53283803.0,1092215690.0,7480200000.0,74666480887.8
sh601236,红塔证券,2020-04-08,20.19,20.49,20.01,20.17,20.55,34205780.0,692430118.0,7341880000.0,73285786837.3
sh601236,红塔证券,2020-04-09,20.34,20.76,20.09,20.18,20.17,31444010.0,641620450.0,7345520000.0,73322120891.3
sh601236,红塔证券,2020-04-10,20.11,20.2,19.11,19.16,20.18,32480937.0,635852001.0,6974240000.0,69616047387.4
sh601236,红塔证券,2020-04-13,19.0,19.0,18.38,18.55,19.16,23537059.0,438483069.0,6752200000.0,67399670095.8
sh601236,红塔证券,2020-04-14,18.79,19.89,18.79,19.66,18.55,43545264.0,841944778.0,7156240000.0,71432750085.4
sh601236,红塔证券,2020-04-15,19.4,19.75,19.11,19.12,19.66,32867626.0,637301468.0,6959680000.0,69470711171.5
sh601236,红塔证券,2020-04-16,19.05,19.69,19.0,19.37,19.12,31500759.0,611445959.0,7050680000.0,70379062520.5
sh601236,红塔证券,2020-04-17,19.56,19.8,19.25,19.35,19.37,34975734.0,682559387.0,7043400000.0,70306394412.6
sh601236,红塔证券,2020-04-20,19.28,19.76,19.28,19.75,19.35,27710148.0,541405753.0,7189000000.0,71759756571.0
sh601236,红塔证券,2020-04-21,19.58,19.59,19.02,19.46,19.75,24949776.0,481281018.0,7083440000.0,70706069006.2
sh601236,红塔证券,2020-04-22,19.28,19.44,19.05,19.41,19.46,20624402.0,397611693.0,7065240000.0,70524398736.4
sh601236,红塔证券,2020-04-23,19.41,19.43,18.95,18.98,19.41,20929865.0,400909481.0,6908720000.0,68962034416.1
sh601236,红塔证券,2020-04-24,18.88,19.39,18.7,18.81,18.98,26246636.0,498651801.0,6846840000.0,68344355498.8
sh601236,红塔证券,2020-04-27,18.69,18.94,17.97,18.05,18.81,30865800.0,568786399.0,6570200000.0,65582967397.8
sh601236,红塔证券,2020-04-28,18.38,18.5,17.33,18.08,18.05,29415317.0,534605588.0,6581120000.0,65691969559.7
sh601236,红塔证券,2020-04-29,18.19,18.39,17.92,18.0,18.08,18941428.0,343539958.0,6552000000.0,65401297128.0
sh601236,红塔证券,2020-04-30,18.3,19.8,18.21,19.44,18.0,61877391.0,1187669467.0,7076160000.0,70633400898.2
sh601236,红塔证券,2020-05-06,19.0,20.46,18.9,20.23,19.44,64522877.0,1266780077.0,7363720000.0,73503791161.1
sh601236,红塔证券,2020-05-07,20.2,20.89,20.02,20.59,20.23,60483714.0,1242992604.0,7494760000.0,74811817103.6
sh601236,红塔证券,2020-05-08,21.08,22.22,20.45,21.3,20.59,75376266.0,1599484975.0,7753200000.0,77391534934.8
sh601236,红塔证券,2020-05-11,21.3,22.1,21.16,21.58,21.3,52646988.0,1139894469.0,7855120000.0,78408888445.7
sh601236,红塔证券,2020-05-12,21.72,21.94,21.17,21.76,21.58,41300545.0,892779177.0,7920640000.0,79062901417.0
sh601236,红塔证券,2020-05-13,21.45,21.9,21.36,21.62,21.76,34068121.0,736400633.0,7869680000.0,78554224661.5
sh601236,红塔证券,2020-05-14,21.35,21.68,21.1,21.39,21.62,30856187.0,661320556.0,7785960000.0,77718541420.4
sh601236,红塔证券,2020-05-15,21.61,21.84,21.29,21.55,21.39,35979479.0,777237818.0,7844200000.0,78299886283.8
sh601236,红塔证券,2020-05-18,21.39,22.2,21.2,21.8,21.55,48324859.0,1056656422.0,7935200000.0,79208237632.8
sh601236,红塔证券,2020-05-19,22.23,22.32,21.65,21.69,21.8,38402717.0,839721067.0,7895160000.0,78808563039.2
sh601236,红塔证券,2020-05-20,21.41,21.98,21.28,21.3,21.69,38165230.0,821364833.0,7753200000.0,77391534934.8
sh601236,红塔证券,2020-05-21,21.39,21.44,20.51,20.57,21.3,35441668.0,738816284.0,7487480000.0,74739148995.7
sh601236,红塔证券,2020-05-22,20.35,20.75,19.79,19.82,20.57,32919780.0,668430695.0,7214480000.0,72014094948.7
sh601236,红塔证券,2020-05-25,19.81,19.98,19.22,19.65,19.82,26372525.0,516445470.0,7152600000.0,71396416031.4
sh601236,红塔证券,2020-05-26,19.84,20.1,19.65,20.03,19.65,27246918.0,542570372.0,7290920000.0,72777110081.9
sh601236,红塔证券,2020-05-27,19.99,19.99,19.31,19.37,20.03,25893062.0,506645095.0,7050680000.0,70379062520.5
sh601236,红塔证券,2020-05-28,19.55,20.43,19.51,19.86,19.37,41996187.0,835560892.0,7229040000.0,72159431164.6
sh601236,红塔证券,2020-05-29,19.62,19.74,19.41,19.49,19.86,22699192.0,444089346.0,7094360000.0,70815071168.0
sh601236,红塔证券,2020-06-01,20.23,21.44,20.02,21.44,19.49,72428261.0,1515255558.0,7804160000.0,77900211690.2
sh601236,红塔证券,2020-06-02,21.51,21.79,21.12,21.35,21.44,63214416.0,1355436491.0,7771400000.0,77573205204.6
sh601236,红塔证券,2020-06-03,21.51,21.68,20.78,20.83,21.35,49889563.0,1058336049.0,7582120000.0,75683834398.7
sh601236,红塔证券,2020-06-04,21.01,21.08,20.5,20.59,20.83,34356972.0,711839370.0,7494760000.0,74811817103.6
sh601236,红塔证券,2020-06-05,20.72,21.69,20.4,21.58,20.59,58726880.0,1238555227.0,7855120000.0,78408888445.7
sh601236,红塔证券,2020-06-08,21.6,21.6,21.0,21.1,21.58,40455351.0,859121398.0,7680400000.0,76664853855.6
sh601236,红塔证券,2020-06-09,21.21,22.21,21.09,21.71,21.1,67364393.0,1462099030.0,7902440000.0,78881231147.2
sh601236,红塔证券,2020-06-10,21.33,21.56,21.19,21.44,21.71,35457129.0,757521740.0,7804160000.0,77900211690.2
sh601236,红塔证券,2020-06-11,21.3,22.0,21.08,21.12,21.44,47248224.0,1011970130.0,7687680000.0,76737521963.5
sh601236,红塔证券,2020-06-12,20.4,21.2,20.3,20.82,21.12,32438522.0,676007115.0,7578480000.0,75647500344.7
sh601236,红塔证券,2020-06-15,21.09,21.43,20.51,20.51,20.82,38465945.0,808138787.0,7465640000.0,74521144671.95999
sh601236,红塔证券,2020-06-16,20.84,20.98,20.52,20.9,20.51,26318019.0,545624267.0,7607600000.0,75938172776.4
sh601236,XD红塔证,2020-06-17,20.7,20.9,20.4,20.57,20.8,21114625.0,434429864.0,7487480000.0,74739148995.72
sh601236,红塔证券,2020-06-18,20.5,21.0,20.35,20.69,20.57,26311751.0,544831201.0,7531160000.0,75175157643.24
sh601236,红塔证券,2020-06-19,20.72,21.97,20.55,21.52,20.69,66000141.0,1404480965.0,7833280000.0,78190884121.92
sh601236,红塔证券,2020-06-22,21.39,22.54,21.1,21.4,21.52,76046365.0,1658357610.0,7789600000.0,77754875474.4
sh601236,红塔证券,2020-06-23,21.15,21.45,20.81,21.22,21.4,41891958.0,887560155.0,7724080000.0,77100862503.12
sh601236,红塔证券,2020-06-24,21.21,21.34,20.21,20.32,21.22,54748217.0,1126249938.0,7396480000.0,73830797646.72
sh601236,红塔证券,2020-06-29,19.93,19.93,18.71,19.15,20.32,41190044.0,791608359.0,6970600000.0,69579713333.40001
sh601236,红塔证券,2020-06-30,19.18,19.83,19.03,19.4,19.15,33533852.0,650279085.0,7061600000.0,70488064682.40001
sh601236,红塔证券,2020-07-01,19.3,19.59,19.15,19.36,19.4,28773372.0,555876015.0,7047040000.0,70342728466.56
sh601236,红塔证券,2020-07-02,19.15,21.18,18.95,20.71,19.36,75229428.0,1509023278.0,7538440000.0,75247825751.16
sh601236,红塔证券,2020-07-03,20.79,22.77,20.78,22.57,20.71,127708390.0,2794679834.0,8215480000.0,82005959787.72
sh601236,红塔证券,2020-07-06,22.6,24.67,22.6,24.64,22.57,118981571.0,2838480088.0,36342031732.16,89527108957.44
sh601236,红塔证券,2020-07-07,24.27,24.27,22.8,23.21,24.64,111613529.0,2618535572.0,34232895961.99,84331339241.16
sh601236,红塔证券,2020-07-08,22.95,25.38,22.83,24.45,23.21,100458012.0,2400211732.0,36061796909.55,88836761932.20001
sh601236,红塔证券,2020-07-09,23.7,24.25,23.29,23.73,24.45,92577656.0,2191996200.0,34999854423.87,86220710047.08
sh601236,红塔证券,2020-07-10,23.25,25.52,23.01,24.29,23.73,101487671.0,2461762240.0,35825809690.51,88255417068.84001
sh601236,红塔证券,2020-07-13,24.3,26.6,24.01,25.54,24.29,99974547.0,2526245529.0,37669459839.26,92797173813.84
sh601236,红塔证券,2020-07-14,25.06,26.99,24.68,26.49,25.54,104493214.0,2675526311.0,39070633952.310005,96248908940.04
sh601236,红塔证券,2020-07-15,26.57,26.79,24.2,24.8,26.49,74540075.0,1906372925.0,36578018951.2,90108453820.8
sh601236,红塔证券,2020-07-16,24.6,25.42,22.88,23.17,24.8,54542663.0,1329797321.0,34173899157.230003,84186003025.32
sh601236,红塔证券,2020-07-17,23.5,23.73,21.74,22.32,23.17,44080744.0,999608020.0,32920217056.08,81097608438.72
sh601236,红塔证券,2020-07-20,22.79,23.55,22.46,23.08,22.32,39838270.0,914279314.0,34041156346.52,83858996539.68
sh601236,红塔证券,2020-07-21,22.99,23.3,22.66,22.71,23.08,27660333.0,632433599.0,33495435902.49,82514636543.16
sh601236,红塔证券,2020-07-22,22.75,23.54,22.62,22.71,22.71,41080746.0,948044414.0,33495435902.49,82514636543.16
sh601236,红塔证券,2020-07-23,22.4,22.9,21.76,22.42,22.71,34308364.0,765924575.0,33067709067.98,81460948978.31999
sh601236,红塔证券,2020-07-24,22.42,22.64,20.52,20.85,22.42,36293278.0,784483034.0,30752084481.15,75756502506.6
sh601236,红塔证券,2020-07-27,21.07,21.14,20.26,20.82,20.85,23025952.0,478476444.0,30707836877.58,75647500344.72
sh601236,红塔证券,2020-07-28,20.97,21.29,20.81,21.12,20.82,20423138.0,430255451.0,31150312913.28,76737521963.52
sh601236,红塔证券,2020-07-29,21.18,21.88,21.03,21.65,21.12,32198679.0,694316051.0,31932020576.35,78663226823.4
sh601236,红塔证券,2020-07-30,21.6,21.62,21.08,21.12,21.65,24431604.0,520581304.0,31150312913.28,76737521963.52
sh601236,红塔证券,2020-07-31,21.21,21.78,21.13,21.4,21.12,26481941.0,568597427.0,31563290546.6,77754875474.4
sh601236,红塔证券,2020-08-03,21.79,21.94,21.43,21.94,21.4,29291130.0,635363117.0,32359747410.86,79716914388.24
sh601236,红塔证券,2020-08-04,22.1,22.22,21.73,22.0,21.94,32477590.0,714812327.0,32448242618.0,79934918712.0
sh601236,红塔证券,2020-08-05,21.89,21.91,21.46,21.75,22.0,23282190.0,505203023.0,32079512588.25,79026567363.0
sh601236,红塔证券,2020-08-06,21.8,22.5,21.23,22.25,21.75,32265590.0,704165345.0,32816972647.75,80843270061.0
sh601236,红塔证券,2020-08-07,21.88,22.1,21.1,21.51,22.25,28685331.0,619709604.0,31725531759.69,78154550067.95999
sh601236,红塔证券,2020-08-10,21.52,23.1,21.41,22.8,21.51,66425492.0,1493132742.0,33628178713.2,82841643028.8
sh601236,红塔证券,2020-08-11,22.45,22.97,21.71,21.86,22.8,42439684.0,950081542.0,32241753801.34,79426241956.56
sh601236,红塔证券,2020-08-12,21.63,21.87,21.16,21.62,21.86,23711006.0,511265370.0,31887772972.78,78554224661.52
sh601236,红塔证券,2020-08-13,21.75,22.35,21.54,21.92,21.62,24447216.0,536115622.0,32330249008.48,79644246280.31999
sh601236,红塔证券,2020-08-14,21.72,22.15,21.59,22.1,21.92,19353258.0,423614199.0,32595734629.9,80298259251.6
sh601236,红塔证券,2020-08-17,22.45,23.36,22.3,22.82,22.1,50912362.0,1163128113.0,33657677115.58,82914311136.72
sh601236,红塔证券,2020-08-18,22.66,22.8,22.31,22.42,22.82,26663180.0,600440965.0,33067709067.98,81460948978.31999
sh601236,红塔证券,2020-08-19,22.42,22.71,22.12,22.18,22.42,23078036.0,518053535.0,32713728239.42,80588931683.28
sh601236,红塔证券,2020-08-20,21.95,22.2,21.82,22.01,22.18,14409950.0,317035302.0,32462991819.19,79971252765.96
sh601236,红塔证券,2020-08-21,22.29,22.6,21.91,22.18,22.01,18183341.0,404533766.0,32713728239.42,80588931683.28
sh601236,红塔证券,2020-08-24,22.16,22.28,21.77,21.92,22.18,15278197.0,335233470.0,32330249008.48,79644246280.31999
sh601236,红塔证券,2020-08-25,22.07,22.24,21.36,21.39,21.92,21611896.0,470602781.0,31548541345.41,77718541420.44
sh601236,红塔证券,2020-08-26,21.27,21.34,20.45,20.47,21.39,27868554.0,579916335.0,30191614835.93,74375808456.12
sh601236,红塔证券,2020-08-27,20.52,20.71,19.99,20.6,20.47,17106749.0,348782425.0,30383354451.4,74848151157.6
sh601236,红塔证券,2020-08-28,20.6,21.04,20.45,20.97,20.6,18381176.0,381800777.0,30929074895.43,76192511154.12
sh601236,红塔证券,2020-08-31,21.1,21.49,20.8,20.81,20.97,20559787.0,436047274.0,30693087676.39,75611166290.76001
sh601236,红塔证券,2020-09-01,20.85,20.96,20.63,20.92,20.81,10047331.0,209020893.0,30855328889.48,76010840884.32
sh601236,红塔证券,2020-09-02,21.0,21.1,20.62,20.81,20.92,13493468.0,281392685.0,30693087676.39,75611166290.76001
sh601236,红塔证券,2020-09-03,20.89,21.1,20.5,20.53,20.81,16130969.0,334977469.0,30280110043.07,74593812779.88
sh601236,红塔证券,2020-09-04,20.13,20.48,20.03,20.3,20.53,10907020.0,221279499.0,29940878415.7,73758129538.8
sh601236,红塔证券,2020-09-07,20.25,20.44,19.43,19.46,20.3,17432372.0,347558660.0,28701945515.74,70706069006.16
sh601236,红塔证券,2020-09-08,19.14,19.28,17.88,18.76,19.46,34366116.0,641638429.0,27669501432.44,68162685228.96
sh601236,红塔证券,2020-09-09,18.48,18.59,17.9,17.97,18.76,20924174.0,380482638.0,26504314538.43,65292294966.12
sh601236,红塔证券,2020-09-10,18.29,18.34,17.65,17.8,17.97,14094005.0,254247995.0,26253578118.2,64674616048.8
sh601236,红塔证券,2020-09-11,17.72,18.13,17.69,18.08,17.8,10456014.0,187714729.0,26666555751.52,65691969559.68
sh601236,红塔证券,2020-09-14,18.13,18.2,17.93,18.17,18.08,9354954.0,169257757.0,26799298562.230003,66018976045.32
sh601236,红塔证券,2020-09-15,18.17,18.23,18.02,18.15,18.17,8563150.0,155114994.0,26769800159.85,65946307937.4
sh601236,红塔证券,2020-09-16,18.16,18.35,18.08,18.11,18.15,10319879.0,187874797.0,26710803355.09,65800971721.56
sh601236,红塔证券,2020-09-17,18.11,18.22,17.74,17.99,18.11,10378590.0,186207823.0,26533812940.81,65364963074.04
sh601236,红塔证券,2020-09-18,17.92,19.2,17.91,18.94,17.99,24838407.0,461420337.0,27934987053.86,68816698200.23999
sh601236,红塔证券,2020-09-21,19.4,19.49,18.77,18.78,18.94,20658210.0,393784042.0,27698999834.82,68235353336.880005
sh601236,红塔证券,2020-09-22,18.51,19.33,18.43,18.73,18.78,15787516.0,298054368.0,27625253828.870003,68053683067.08
sh601236,红塔证券,2020-09-23,18.8,18.88,18.46,18.5,18.73,9734439.0,181041099.0,27286022201.5,67217999826.0
sh601236,红塔证券,2020-09-24,18.43,18.65,18.25,18.25,18.5,9214899.0,169609827.0,26917292171.75,66309648477.0
sh601236,红塔证券,2020-09-25,18.34,18.68,18.26,18.49,18.25,10643295.0,196806285.0,27271273000.31,67181665772.04
sh601236,红塔证券,2020-09-28,18.44,18.67,18.44,18.54,18.49,6674243.0,123915808.0,27345019006.26,67363336041.84
sh601236,红塔证券,2020-09-29,18.64,18.73,18.53,18.54,18.54,7619511.0,141851456.0,27345019006.26,67363336041.84
sh601236,红塔证券,2020-09-30,18.7,18.7,18.24,18.29,18.54,7627591.0,140567795.0,26976288976.51,66454984692.84
sh601236,红塔证券,2020-10-09,18.59,18.65,18.46,18.6,18.29,7870527.0,146244996.0,27433514213.4,67581340365.6
sh601236,红塔证券,2020-10-12,18.7,19.28,18.7,19.17,18.6,16974796.0,323720178.0,28274218681.23,69652381441.32
sh601236,红塔证券,2020-10-13,18.9,18.99,18.75,18.97,19.17,11013901.0,207919169.0,27979234657.43,68925700362.12
sh601236,红塔证券,2020-10-14,18.73,18.98,18.64,18.73,18.97,8437691.0,158284817.0,27625253828.870003,68053683067.08
sh601236,红塔证券,2020-10-15,18.79,19.03,18.71,18.75,18.73,8053171.0,151843863.0,27654752231.25,68126351175.0
sh601236,红塔证券,2020-10-16,18.75,18.95,18.72,18.81,18.75,7408127.0,139452362.0,27743247438.39,68344355498.76
sh601236,红塔证券,2020-10-19,18.99,18.99,18.57,18.58,18.81,8407023.0,157936228.0,27404015811.02,67508672257.68
sh601236,红塔证券,2020-10-20,18.53,18.53,18.1,18.42,18.58,9379219.0,171512090.0,27168028591.98,66927327394.32
sh601236,红塔证券,2020-10-21,18.46,18.46,18.19,18.2,18.42,5907434.0,107926508.0,26843546165.800003,66127978207.200005
sh601236,红塔证券,2020-10-22,18.15,18.49,18.15,18.35,18.2,6815944.0,124768710.0,27064784183.65,66672989016.6
sh601236,红塔证券,2020-10-23,18.35,18.42,17.89,17.89,18.35,7533118.0,136708714.0,26386320928.910004,65001622534.44
sh601236,红塔证券,2020-10-26,17.82,17.82,17.26,17.42,17.89,9334110.0,162633839.0,25693108472.98,63293921998.32
sh601236,红塔证券,2020-10-27,17.2,17.44,17.12,17.32,17.42,5636920.0,97594103.0,25545616461.08,62930581458.71999
sh601236,红塔证券,2020-10-28,17.33,17.99,17.32,17.92,17.32,12712657.0,226223617.0,26430568532.480003,65110624696.32
sh601236,红塔证券,2020-10-29,17.6,18.03,17.5,17.92,17.92,10803937.0,192253420.0,26430568532.480003,65110624696.32
sh601236,红塔证券,2020-10-30,17.62,17.97,17.21,17.29,17.92,8568300.0,150723825.0,25501368857.51,62821579296.84
sh601236,红塔证券,2020-11-02,17.32,17.68,17.24,17.38,17.29,6784155.0,118165602.0,25634111668.22,63148585782.48
sh601236,红塔证券,2020-11-03,17.4,17.93,17.4,17.72,17.38,7986029.0,141437545.0,26135584508.68,64383943617.12
sh601236,红塔证券,2020-11-04,17.88,18.14,17.71,17.85,17.72,9595377.0,171969920.0,26327324124.15,64856286318.6
sh601236,红塔证券,2020-11-05,18.2,18.22,17.82,17.89,17.85,9461190.0,170013159.0,26386320928.910004,65001622534.44
sh601236,红塔证券,2020-11-06,17.91,18.1,17.58,17.72,17.89,10684438.0,190410187.0,26135584508.68,64383943617.12
sh601236,红塔证券,2020-11-09,17.81,18.78,17.75,18.5,17.72,22013311.0,402728830.0,27286022201.5,67217999826.0
sh601236,红塔证券,2020-11-10,18.63,18.63,18.1,18.23,18.5,11819292.0,216577241.0,26887793769.37,66236980369.08
sh601236,红塔证券,2020-11-11,18.11,18.26,17.81,17.82,18.23,8181567.0,147126586.0,26283076520.58,64747284156.71999
sh601236,红塔证券,2020-11-12,17.89,17.95,17.62,17.69,17.82,5082134.0,90082030.0,26091336905.11,64274941455.24
sh601236,红塔证券,2020-11-13,17.6,17.84,17.6,17.74,17.69,5024104.0,89073501.0,26165082911.06,64456611725.04
sh601236,红塔证券,2020-11-16,17.94,17.98,17.69,17.77,17.74,5820685.0,103708017.0,26209330514.63,64565613886.92
sh601236,红塔证券,2020-11-17,17.77,17.8,17.45,17.6,17.77,7007274.0,123090672.0,25958594094.4,63947934969.6
sh601236,红塔证券,2020-11-18,17.61,17.93,17.61,17.7,17.6,6791592.0,120801817.0,26106086106.3,64311275509.200005
sh601236,红塔证券,2020-11-19,17.6,17.76,17.45,17.7,17.7,7844631.0,138086585.0,26106086106.3,64311275509.200005
sh601236,红塔证券,2020-11-20,17.7,17.74,17.6,17.65,17.7,7924556.0,139913172.0,26032340100.35,64129605239.4
sh601236,红塔证券,2020-11-23,17.59,18.12,17.5,17.86,17.65,19890764.0,354895862.0,26342073325.34,64892620372.56
sh601236,红塔证券,2020-11-24,17.75,17.79,17.5,17.5,17.86,14998383.0,264028238.0,25811102082.5,63584594430.0
sh601236,红塔证券,2020-11-25,17.61,17.67,17.15,17.16,17.5,14532499.0,251992414.0,25309629242.04,62349236595.36
sh601236,红塔证券,2020-11-26,17.0,17.07,16.21,16.53,17.16,18589218.0,308399355.0,24380429567.07,60060191195.88
sh601236,红塔证券,2020-11-27,16.53,16.65,16.37,16.65,16.53,11120241.0,183364897.0,24557419981.35,60496199843.4
sh601236,红塔证券,2020-11-30,16.7,17.19,16.7,16.9,16.65,25305235.0,428942861.0,24926150011.1,61404551192.4
sh601236,红塔证券,2020-12-01,16.7,17.53,16.61,17.3,16.9,28723274.0,490991006.0,25516118058.7,62857913350.8
sh601236,红塔证券,2020-12-02,17.31,17.96,17.14,17.64,17.3,34750521.0,609982163.0,26017590899.16,64093271185.44
sh601236,红塔证券,2020-12-03,17.49,17.89,17.41,17.66,17.64,23854549.0,421889608.0,26047089301.54,64165939293.36
sh601236,红塔证券,2020-12-04,17.57,17.58,17.16,17.33,17.66,14606001.0,253320244.0,25560365662.27,62966915512.68
sh601236,红塔证券,2020-12-07,17.39,17.48,17.02,17.11,17.33,11340261.0,195776936.0,25235883236.09,62167566325.56
sh601236,红塔证券,2020-12-08,16.86,16.94,16.5,16.63,17.11,20130668.0,335448070.0,24527921578.97,60423531735.48
sh601236,红塔证券,2020-12-09,16.59,16.88,16.25,16.29,16.63,15662316.0,259832697.0,24026448738.51,59188173900.84
sh601236,红塔证券,2020-12-10,16.2,16.92,16.2,16.82,16.29,17280644.0,287776780.0,24808156401.58,61113878760.72
sh601236,红塔证券,2020-12-11,16.97,17.85,16.72,17.61,16.82,53718083.0,942817590.0,25973343295.590004,63984269023.56
sh601236,红塔证券,2020-12-14,17.59,17.68,16.85,16.99,17.61,27972941.0,479514223.0,25058892821.81,61731557678.03999
sh601236,红塔证券,2020-12-15,16.85,16.97,16.54,16.77,16.99,15165368.0,254106658.0,24734410395.63,60932208490.92
sh601236,红塔证券,2020-12-16,16.8,16.85,16.34,16.38,16.77,13729261.0,227312563.0,24159191549.22,59515180386.48
sh601236,红塔证券,2020-12-17,16.4,17.07,16.34,17.01,16.38,20909189.0,350036276.0,25088391224.19,61804225785.96
sh601236,红塔证券,2020-12-18,17.0,17.06,16.63,16.7,17.01,11717104.0,197145190.0,24631165987.300003,60677870113.2
sh601236,红塔证券,2020-12-21,16.7,16.91,16.51,16.67,16.7,11857978.0,197614459.0,24586918383.73,60568867951.32
sh601236,红塔证券,2020-12-22,16.68,16.7,15.86,15.87,16.67,18661698.0,303521912.0,23406982288.53,57662143634.52
sh601236,红塔证券,2020-12-23,16.03,17.46,15.99,17.46,15.87,59718518.0,1026271394.0,25752105277.74,63439258214.16
sh601236,红塔证券,2020-12-24,17.38,17.76,16.98,17.1,17.46,47082423.0,815778356.0,25221134034.9,62131232271.600006
sh601236,红塔证券,2020-12-25,16.88,17.42,16.51,17.21,17.1,34376202.0,584930358.0,25383375247.99,62530906865.16
sh601236,红塔证券,2020-12-28,17.0,17.39,16.7,16.84,17.21,26212919.0,445070018.0,24837654803.960003,61186546868.64
sh601236,红塔证券,2020-12-29,16.98,18.52,16.95,18.1,16.84,77796108.0,1412034616.0,26696054153.9,65764637667.6
sh601236,红塔证券,2020-12-30,17.8,18.18,17.42,18.18,18.1,52981341.0,944870705.0,26814047763.42,66055310099.28
sh601236,红塔证券,2020-12-31,18.32,19.13,18.18,18.59,18.18,66376786.0,1235083040.0,27418765012.210003,67545006311.64001
sh601236,红塔证券,2021-01-04,18.5,18.53,17.91,18.19,18.59,40828458.0,740566054.0,26828796964.61,66091644153.24
sh601236,红塔证券,2021-01-05,18.01,18.41,17.68,17.96,18.19,32872833.0,591692243.0,26489565337.24,65255960912.16
sh601236,红塔证券,2021-01-06,17.86,18.18,17.75,18.18,17.96,28296203.0,509474765.0,26814047763.42,66055310099.28
sh601236,红塔证券,2021-01-07,18.15,18.16,17.26,17.86,18.18,27798766.0,493022168.0,26342073325.34,64892620372.56
sh601236,红塔证券,2021-01-08,17.83,18.6,17.44,17.94,17.86,26148700.0,472400956.0,26460066934.86,65183292804.24
sh601236,红塔证券,2021-01-11,17.89,17.98,17.5,17.55,17.94,17886521.0,316824225.0,25884848088.45,63766264699.8
sh601236,红塔证券,2021-01-12,17.4,18.28,17.33,18.11,17.55,31038050.0,553524995.0,26710803355.09,65800971721.56
sh601236,红塔证券,2021-01-13,17.97,18.06,17.35,17.41,18.11,22239032.0,392453711.0,25678359271.79,63257587944.36
sh601236,红塔证券,2021-01-14,17.42,17.86,17.32,17.36,17.41,17460429.0,306902496.0,25604613265.84,63075917674.56
sh601236,红塔证券,2021-01-15,16.99,16.99,15.91,16.27,17.36,35643492.0,584191709.0,23996950336.13,59115505792.920006
sh601236,红塔证券,2021-01-18,16.2,16.4,15.96,16.17,16.27,18363594.0,296968810.0,23849458324.23,58752165253.32
sh601236,红塔证券,2021-01-19,16.41,16.8,16.35,16.43,16.17,22432734.0,371832849.0,24232937555.17,59696850656.28
sh601236,红塔证券,2021-01-20,16.16,16.53,16.15,16.24,16.43,14590893.0,237997520.0,23952702732.56,59006503631.04
sh601236,红塔证券,2021-01-21,16.35,16.65,16.26,16.36,16.24,18983555.0,311991575.0,24129693146.84,59442512278.56
sh601236,红塔证券,2021-01-22,16.33,16.36,16.1,16.19,16.36,14714690.0,238148881.0,23878956726.61,58824833361.24
sh601236,红塔证券,2021-01-25,16.17,16.35,15.96,16.06,16.19,12809571.0,206913355.0,23687217111.14,58352490659.76
sh601236,红塔证券,2021-01-26,16.08,16.19,15.63,15.68,16.06,14400423.0,228816885.0,23126747465.92,56971796609.28
sh601236,红塔证券,2021-01-27,15.52,15.85,15.34,15.44,15.68,11096173.0,172793115.0,22772766637.36,56099779314.240005
sh601236,红塔证券,2021-01-28,15.28,15.58,15.22,15.4,15.44,9932972.0,152776571.0,22713769832.6,55954443098.4
sh601236,红塔证券,2021-01-29,15.51,15.55,14.71,14.99,15.4,13095820.0,197735086.0,22109052583.81,54464746886.04
sh601236,红塔证券,2021-02-01,15.09,15.16,14.67,14.85,14.99,9616685.0,143008253.0,21902563767.15,53956070130.6
sh601236,红塔证券,2021-02-02,14.87,15.1,14.79,14.99,14.85,9197279.0,137747375.0,22109052583.81,54464746886.04
sh601236,红塔证券,2021-02-03,14.99,15.08,14.6,14.62,14.99,9318337.0,137667804.0,21563332139.78,53120386889.52
sh601236,红塔证券,2021-02-04,14.51,14.67,13.96,14.04,14.62,11965962.0,169704400.0,20707878470.76,51013011759.84
sh601236,红塔证券,2021-02-05,14.11,14.22,13.55,13.6,14.04,11161468.0,154951213.0,20058913618.4,49414313385.6
sh601236,红塔证券,2021-02-08,13.67,13.82,13.5,13.6,13.6,8169548.0,111631892.0,20058913618.4,49414313385.6
sh601236,红塔证券,2021-02-09,13.61,14.08,13.42,14.0,13.6,11447954.0,158233925.0,20648881666.0,50867675544.0
sh601236,红塔证券,2021-02-10,13.92,14.38,13.9,14.2,14.0,9762988.0,138140298.0,20943865689.8,51594356623.200005
sh601236,红塔证券,2021-02-18,14.5,14.57,14.25,14.34,14.2,10064959.0,145019812.0,21150354506.46,52103033378.64001
sh601236,红塔证券,2021-02-19,14.39,14.8,14.26,14.77,14.34,10109362.0,147317811.0,21784570157.63,53665397698.92
sh601236,红塔证券,2021-02-22,14.9,15.19,14.52,14.56,14.77,16356848.0,243561319.0,21474836932.64,52902382565.76
sh601236,红塔证券,2021-02-23,14.42,14.67,14.37,14.43,14.56,8901784.0,129310705.0,21283097317.17,52430039864.28
sh601236,红塔证券,2021-02-24,14.39,14.62,14.3,14.47,14.43,7907188.0,114572533.0,21342094121.93,52575376080.12
sh601236,红塔证券,2021-02-25,14.54,14.69,14.41,14.51,14.47,7679365.0,111708587.0,21401090926.69,52720712295.96
sh601236,红塔证券,2021-02-26,14.33,14.59,14.31,14.45,14.51,7582479.0,109983356.0,21312595719.55,52502707972.2
sh601236,红塔证券,2021-03-01,14.44,14.53,14.32,14.4,14.45,8168322.0,117668496.0,21238849713.6,52321037702.4
sh601236,红塔证券,2021-03-02,14.47,14.59,14.31,14.38,14.4,7703303.0,111149177.0,21209351311.22,52248369594.48
sh601236,红塔证券,2021-03-03,14.31,14.53,14.3,14.47,14.38,7448431.0,107454681.0,21342094121.93,52575376080.12
sh601236,红塔证券,2021-03-04,14.36,14.45,14.02,14.08,14.47,8946707.0,127412935.0,20766875275.52,51158347975.68
sh601236,红塔证券,2021-03-05,14.13,14.58,14.08,14.49,14.08,11789028.0,170014489.0,21371592524.31,52648044188.04
sh601236,红塔证券,2021-03-08,14.6,14.76,14.35,14.39,14.49,9519782.0,138473060.0,21224100512.410004,52284703648.44
sh601236,红塔证券,2021-03-09,14.4,14.45,13.57,13.82,14.39,11004904.0,153593422.0,20383396044.58,50213662572.72
sh601236,红塔证券,2021-03-10,13.85,13.98,13.6,13.62,13.82,7226498.0,99143157.0,20088412020.78,49486981493.52
sh601236,红塔证券,2021-03-11,13.64,13.85,13.63,13.8,13.62,5944001.0,81589181.0,20353897642.2,50140994464.8
sh601236,红塔证券,2021-03-12,13.8,13.97,13.5,13.78,13.8,9193813.0,126093017.0,20324399239.82,50068326356.880005
sh601236,红塔证券,2021-03-15,13.67,13.67,13.5,13.53,13.78,5303849.0,71926183.0,19955669210.07,49159975007.880005
sh601236,红塔证券,2021-03-16,13.6,13.64,13.42,13.54,13.53,4254915.0,57548958.0,19970418411.26,49196309061.84
sh601236,红塔证券,2021-03-17,13.65,13.85,13.56,13.74,13.54,7077579.0,96985746.0,20265402435.06,49922990141.04
sh601236,红塔证券,2021-03-18,13.74,13.8,13.61,13.61,13.74,5411221.0,74084119.0,20073662819.59,49450647439.56
sh601236,红塔证券,2021-03-19,13.54,13.58,13.4,13.42,13.61,6492263.0,87401495.0,19793427996.98,48760300414.32
sh601236,红塔证券,2021-03-22,13.48,13.68,13.42,13.66,13.42,7302314.0,99092597.0,20147408825.54,49632317709.36
sh601236,红塔证券,2021-03-23,13.66,13.84,13.53,13.76,13.66,8767293.0,120135619.0,20294900837.44,49995658248.96001
sh601236,红塔证券,2021-03-24,13.7,14.37,13.67,13.93,13.76,16995102.0,238884656.0,20545637257.67,50613337166.28
sh601236,红塔证券,2021-03-25,13.86,15.25,13.82,14.48,13.93,27801943.0,405358332.0,21356843323.12,52611710134.08
sh601236,红塔证券,2021-03-26,14.28,14.45,14.06,14.43,14.48,16693319.0,237702217.0,21283097317.17,52430039864.28
sh601236,红塔证券,2021-03-29,14.25,14.33,14.12,14.18,14.43,8979485.0,127577598.0,20914367287.42,51521688515.28
sh601236,红塔证券,2021-03-30,14.17,14.23,13.96,13.98,14.18,8277840.0,116718622.0,20619383263.62,50795007436.08
sh601236,红塔证券,2021-03-31,14.09,14.47,14.02,14.12,13.98,12200163.0,173838830.0,20825872080.280003,51303684191.52
sh601236,红塔证券,2021-04-01,14.0,14.0,13.78,13.93,14.12,9960193.0,138309534.0,20545637257.67,50613337166.28
sh601236,红塔证券,2021-04-02,13.92,13.97,13.8,13.93,13.93,6096071.0,84628230.0,20545637257.67,50613337166.28
sh601236,红塔证券,2021-04-06,13.99,14.08,13.9,13.93,13.93,5851044.0,81769235.0,20545637257.67,50613337166.28
sh601236,红塔证券,2021-04-07,13.95,14.25,13.9,14.17,13.93,9708307.0,136883046.0,20899618086.23,51485354461.32
sh601236,红塔证券,2021-04-08,14.12,14.5,14.07,14.15,14.17,13410080.0,191356748.0,20870119683.85,51412686353.4
sh601236,红塔证券,2021-04-09,14.13,14.14,13.99,14.02,14.15,6340076.0,89025300.0,20678380068.38,50940343651.92
sh601236,红塔证券,2021-04-12,13.92,14.05,13.5,13.58,14.02,9930242.0,136694609.0,20029415216.02,49341645277.68
sh601236,红塔证券,2021-04-13,13.6,13.71,13.5,13.69,13.58,5937397.0,80755588.0,20191656429.11,49741319871.24
sh601236,红塔证券,2021-04-14,13.6,13.85,13.59,13.81,13.69,5146472.0,70828245.0,20368646843.39,50177328518.76
sh601236,红塔证券,2021-04-15,13.77,13.84,13.6,13.64,13.81,4876375.0,66571276.0,20117910423.16,49559649601.44
sh601236,红塔证券,2021-04-16,13.64,13.76,13.64,13.7,13.64,4480622.0,61436460.0,20206405630.3,49777653925.200005
sh601236,红塔证券,2021-04-19,13.74,14.0,13.69,13.98,13.7,8672557.0,120429020.0,20619383263.62,50795007436.08
sh601236,红塔证券,2021-04-20,13.91,14.14,13.85,13.87,13.98,7065776.0,98699467.0,20457142050.53,50395332842.52
sh601236,红塔证券,2021-04-21,13.84,13.95,13.79,13.82,13.87,4829491.0,66987212.0,20383396044.58,50213662572.72
sh601236,红塔证券,2021-04-22,13.9,13.99,13.8,13.83,13.82,6192561.0,85923241.0,20398145245.77,50249996626.68
sh601236,红塔证券,2021-04-23,13.81,13.82,13.65,13.67,13.83,5614060.0,77034752.0,20162158026.73,49668651763.32
sh601236,红塔证券,2021-04-26,13.67,13.82,13.43,13.48,13.67,7828340.0,106873463.0,19881923204.12,48978304738.08
sh601236,红塔证券,2021-04-27,13.49,13.65,13.39,13.53,13.48,6214607.0,83903348.0,19955669210.07,49159975007.880005
sh601236,红塔证券,2021-04-28,13.55,13.57,13.43,13.47,13.53,4738154.0,63910057.0,19867174002.93,48941970684.12
sh601236,红塔证券,2021-04-29,12.9,13.39,12.8,13.04,13.47,15106305.0,198232233.0,19232958351.76,47379606363.84
sh601236,红塔证券,2021-04-30,13.08,13.13,12.58,12.61,13.04,11009581.0,140831766.0,18598742700.59,45817242043.56
sh601236,红塔证券,2021-05-06,12.72,12.84,12.55,12.59,12.61,5215297.0,65942871.0,18569244298.21,45744573935.64
sh601236,红塔证券,2021-05-07,12.64,12.64,12.26,12.3,12.59,7893352.0,97735555.0,18141517463.7,44690886370.8
sh601236,红塔证券,2021-05-10,12.3,12.42,12.22,12.4,12.3,5079422.0,62746516.0,18289009475.6,45054226910.4
sh601236,XD红塔证,2021-05-11,12.39,12.6,12.26,12.51,12.25,6119927.0,76115453.0,18451250688.69,45453901503.96
sh601236,红塔证券,2021-05-12,12.49,12.5,12.35,12.46,12.51,3981590.0,49462852.0,18377504682.74,45272231234.16
sh601236,红塔证券,2021-05-13,12.45,12.62,12.36,12.44,12.46,4629600.0,57853936.0,18348006280.36,45199563126.24
sh601236,红塔证券,2021-05-14,12.43,13.26,12.42,13.16,12.44,21052739.0,271795920.0,19409948766.04,47815615011.36
sh601236,红塔证券,2021-05-17,13.01,13.15,12.8,12.88,13.16,11437579.0,147945505.0,18996971132.72,46798261500.48
sh601236,红塔证券,2021-05-18,12.89,13.12,12.82,12.94,12.88,6254241.0,81166611.0,19085466339.86,47016265824.24
sh601236,红塔证券,2021-05-19,12.89,13.1,12.84,12.87,12.94,6984654.0,90563006.0,18982221931.53,46761927446.52
sh601236,红塔证券,2021-05-20,12.88,13.28,12.84,13.12,12.87,11843274.0,154961179.0,19350951961.28,47670278795.52
sh601236,红塔证券,2021-05-21,13.16,13.16,12.85,12.86,13.12,7499791.0,96996419.0,18967472730.34,46725593392.56
sh601236,红塔证券,2021-05-24,12.86,13.23,12.85,13.03,12.86,9353776.0,122003317.0,19218209150.57,47343272309.88
sh601236,红塔证券,2021-05-25,13.0,13.6,12.96,13.39,13.03,21063456.0,281797581.0,19749180393.41,48651298252.44
sh601236,红塔证券,2021-05-26,13.48,13.82,13.31,13.35,13.39,18342366.0,248244167.0,19690183588.65,48505962036.6
sh601236,红塔证券,2021-05-27,13.31,13.53,13.26,13.5,13.35,12122365.0,162481879.0,19911421606.5,49050972846.0
sh601236,红塔证券,2021-05-28,13.4,13.7,13.3,13.52,13.5,14603478.0,196874220.0,19940920008.88,49123640953.92
sh601236,红塔证券,2021-05-31,13.45,13.5,13.25,13.4,13.52,10685330.0,142586899.0,19763929594.6,48687632306.4
sh601236,红塔证券,2021-06-01,13.37,13.37,13.18,13.24,13.4,9962257.0,132121228.0,19527942375.56,48106287443.04
sh601236,红塔证券,2021-06-02,13.28,13.45,13.03,13.05,13.24,9193164.0,121393890.0,19247707552.95,47415940417.8
sh601236,红塔证券,2021-06-03,13.12,13.27,12.99,13.04,13.05,8310279.0,108947336.0,19232958351.76,47379606363.84
sh601236,红塔证券,2021-06-04,12.94,13.39,12.83,13.03,13.04,11909464.0,155505625.0,19218209150.57,47343272309.88
sh601236,红塔证券,2021-06-07,13.03,13.18,12.95,13.09,13.03,7340936.0,95989979.0,19306704357.710003,47561276633.64
sh601236,红塔证券,2021-06-08,13.05,13.25,13.0,13.09,13.09,7508492.0,98497123.0,19306704357.710003,47561276633.64
sh601236,红塔证券,2021-06-09,13.09,13.16,12.81,12.86,13.09,9149287.0,118251441.0,18967472730.34,46725593392.56
sh601236,红塔证券,2021-06-10,12.82,12.97,12.72,12.74,12.86,8248843.0,105719250.0,18790482316.06,46289584745.03999
sh601236,红塔证券,2021-06-11,12.75,12.82,12.46,12.62,12.74,11331960.0,143006223.0,18613491901.78,45853576097.52
sh601236,红塔证券,2021-06-15,12.58,12.58,12.27,12.36,12.62,8901538.0,110108503.0,18230012670.84,44908890694.56
sh601236,红塔证券,2021-06-16,12.3,12.53,12.3,12.46,12.36,6914165.0,85866669.0,18377504682.74,45272231234.16
sh601236,红塔证券,2021-06-17,12.51,12.66,12.43,12.52,12.46,6639986.0,83258134.0,18465999889.88,45490235557.92
sh601236,红塔证券,2021-06-18,12.45,12.64,12.44,12.53,12.52,7159766.0,89737803.0,18480749091.07,45526569611.88
sh601236,红塔证券,2021-06-21,12.72,13.78,12.62,13.19,12.53,25449310.0,337895732.0,19454196369.61,47924617173.24
sh601236,红塔证券,2021-06-22,13.07,13.26,12.92,13.01,13.19,15409643.0,201137586.0,19188710748.19,47270604201.96
sh601236,红塔证券,2021-06-23,12.98,13.21,12.83,13.0,13.01,11647200.0,151668844.0,19173961547.0,47234270148.0
sh601236,红塔证券,2021-06-24,13.02,13.48,13.02,13.27,13.0,18522071.0,245888515.0,19572189979.13,48215289604.92
sh601236,红塔证券,2021-06-25,13.25,14.08,13.2,13.75,13.27,34934825.0,477402717.0,20280151636.25,49959324195.0
sh601236,红塔证券,2021-06-28,13.62,13.78,13.44,13.56,13.75,19987898.0,271213960.0,19999916813.64,49268977169.76
sh601236,红塔证券,2021-06-29,13.49,13.72,13.41,13.58,13.56,15138599.0,204905558.0,20029415216.02,49341645277.68
sh601236,红塔证券,2021-06-30,13.51,13.64,13.25,13.56,13.58,12511537.0,168488233.0,19999916813.64,49268977169.76
sh601236,红塔证券,2021-07-01,13.69,13.8,12.9,12.9,13.56,14885660.0,198287258.0,19026469535.1,46870929608.4
sh601236,红塔证券,2021-07-02,12.89,13.0,12.6,12.61,12.9,11257381.0,143623640.0,18598742700.59,45817242043.56
sh601236,红塔证券,2021-07-05,12.54,12.7,12.51,12.62,12.61,5792701.0,72860215.0,18613491901.78,45853576097.52
sh601236,红塔证券,2021-07-06,12.68,12.7,12.5,12.61,12.62,6875075.0,86485555.0,18598742700.59,45817242043.56
sh601236,红塔证券,2021-07-07,12.64,13.66,12.63,13.2,12.61,21992208.0,290977130.0,19468945570.8,47960951227.200005
sh601236,红塔证券,2021-07-08,13.33,13.55,13.11,13.34,13.2,18869827.0,250830855.0,19675434387.46,48469627982.64
sh601236,红塔证券,2021-07-09,13.24,13.36,13.14,13.3,13.34,12034744.0,159691276.0,19616437582.7,48324291766.8
sh601236,红塔证券,2021-07-12,13.37,13.55,13.2,13.41,13.3,17849487.0,239591209.0,19778678795.79,48723966360.36
sh601236,红塔证券,2021-07-13,13.56,13.81,13.42,13.49,13.41,19896642.0,270524944.0,19896672405.31,49014638792.04
sh601236,红塔证券,2021-07-14,13.45,13.5,13.18,13.24,13.49,14106702.0,187725361.0,19527942375.56,48106287443.04
sh601236,红塔证券,2021-07-15,13.23,13.48,13.19,13.46,13.24,15276639.0,203998845.0,19852424801.74,48905636630.16
sh601236,红塔证券,2021-07-16,13.51,13.56,13.19,13.22,13.46,14488089.0,193340683.0,19498443973.18,48033619335.12
sh601236,红塔证券,2021-07-19,13.11,13.18,12.72,12.9,13.22,11565538.0,149137072.0,19026469535.1,46870929608.4
sh601236,红塔证券,2021-07-20,12.81,13.08,12.75,12.86,12.9,7972897.0,102566397.0,18967472730.34,46725593392.56
sh601236,红塔证券,2021-07-21,12.92,14.15,12.85,14.15,12.86,78562061.0,1102490777.0,20870119683.85,51412686353.4
sh601236,红塔证券,2021-07-22,13.64,14.05,13.59,13.88,14.15,72926154.0,1003910413.0,20471891251.72,50431666896.48
sh601236,红塔证券,2021-07-23,13.72,14.56,13.53,14.18,13.88,73973834.0,1039067139.0,20914367287.42,51521688515.28
sh601236,红塔证券,2021-07-26,14.03,14.03,13.32,13.36,14.18,57961169.0,794293599.0,19704932789.84,48542296090.56
sh601236,XR红塔证,2021-08-04,11.98,13.02,11.7,12.52,11.97,46016037.0,572354293.0,32029946861.800003,59054182529.84
sh601236,红塔证券,2021-08-05,12.29,12.45,11.88,12.07,12.52,29120821.0,353678400.0,30878710752.55,56931628045.94
sh601236,红塔证券,2021-08-06,12.03,12.18,11.89,12.13,12.07,17579612.0,211362944.0,31032208900.45,57214635310.46001
sh601236,红塔证券,2021-08-09,12.11,12.84,12.05,12.49,12.13,32168819.0,402503114.0,31953197787.85,58912678897.58
sh601236,红塔证券,2021-08-10,12.51,13.74,12.37,13.74,12.49,64867061.0,864195351.0,35151075869.1,64808663575.08
sh601236,红塔证券,2021-08-11,13.97,14.4,13.46,13.54,13.74,68431040.0,946071559.0,34639415376.1,63865306026.68
sh601236,红塔证券,2021-08-12,13.56,13.65,13.2,13.26,13.54,32934430.0,439029659.0,33923090685.9,62544605458.92
sh601236,红塔证券,2021-08-13,13.12,13.43,13.01,13.14,13.26,27329847.0,360556014.0,33616094390.1,61978590929.880005
sh601236,红塔证券,2021-08-16,13.14,13.64,13.11,13.37,13.14,34248166.0,459938277.0,34204503957.05,63063452110.54
sh601236,红塔证券,2021-08-17,13.25,14.3,13.12,13.26,13.37,47453184.0,647814436.0,33923090685.9,62544605458.92
sh601236,红塔证券,2021-08-18,13.44,14.3,13.25,14.3,13.26,69681976.0,966650947.0,36583725249.5,67450064710.600006
sh601236,红塔证券,2021-08-19,14.0,14.23,13.58,13.61,14.3,53922667.0,744211547.0,20073662819.59,49450647439.56
sh601236,红塔证券,2021-08-20,13.41,13.75,13.33,13.51,13.61,26324704.0,354939120.0,19926170807.69,49087306899.96001
sh601236,红塔证券,2021-08-23,13.48,13.55,13.01,13.13,13.51,31327351.0,412893323.0,19365701162.47,47706612849.48
sh601236,红塔证券,2021-08-24,13.0,13.4,12.96,13.16,13.13,26117494.0,344145102.0,19409948766.04,47815615011.36
sh601236,红塔证券,2021-08-25,12.88,12.98,12.6,12.65,13.16,38999866.0,496630668.0,32362526182.25,59667364936.3
sh601236,红塔证券,2021-08-26,12.62,12.89,12.49,12.69,12.65,25168297.0,319511414.0,32464858280.85,59856036445.98
sh601236,红塔证券,2021-08-27,12.71,12.78,12.27,12.38,12.69,27082155.0,337127277.0,31671784516.7,58393832245.96
sh601236,红塔证券,2021-08-30,12.41,12.56,12.2,12.5,12.38,23788367.0,294066562.0,31978780812.5,58959846775.0
sh601236,红塔证券,2021-08-31,12.39,12.78,12.31,12.7,12.5,26585843.0,333840767.0,32490441305.5,59903204323.4
sh601236,红塔证券,2021-09-01,12.64,13.3,12.45,12.9,12.7,46171179.0,595695531.0,33002101798.5,60846561871.8
sh601236,红塔证券,2021-09-02,12.9,13.06,12.76,12.94,12.9,35068068.0,453548587.0,33104433897.1,61035233381.48
sh601236,红塔证券,2021-09-03,13.39,13.48,12.75,12.75,12.94,36354447.0,473646898.0,32618356428.75,60139043710.5
sh601236,红塔证券,2021-09-06,12.69,13.0,12.62,12.85,12.75,25688942.0,330440910.0,32874186675.25,60610722484.7
sh601236,红塔证券,2021-09-07,12.76,12.96,12.65,12.92,12.85,27561046.0,353280874.0,33053267847.8,60940897626.64
sh601236,红塔证券,2021-09-08,12.9,13.2,12.85,13.03,12.92,31008403.0,403996536.0,33334681118.95,61459744278.26
sh601236,红塔证券,2021-09-09,12.91,12.99,12.78,12.83,13.03,19694775.0,253398113.0,32823020625.95,60516386729.86
sh601236,红塔证券,2021-09-10,12.83,13.18,12.83,12.89,12.83,28959821.0,376425500.0,32976518773.85,60799393994.380005
sh601236,红塔证券,2021-09-13,12.84,12.96,12.47,12.53,12.89,27274793.0,345813242.0,32055529886.45,59101350407.26
sh601236,红塔证券,2021-09-14,12.55,12.61,12.22,12.3,12.53,18751893.0,232393131.0,31467120319.500004,58016489226.6
sh601236,红塔证券,2021-09-15,12.3,12.42,12.28,12.38,12.3,11884021.0,146727489.0,31671784516.7,58393832245.96
sh601236,红塔证券,2021-09-16,12.35,12.46,12.18,12.22,12.38,13114646.0,161432936.0,31262456122.3,57639146207.24
sh601236,红塔证券,2021-09-17,12.31,12.35,12.08,12.18,12.22,12315764.0,150158283.0,31160124023.7,57450474697.56
sh601236,红塔证券,2021-09-22,12.34,12.5,12.28,12.36,12.18,14800780.0,183155048.0,31620618467.4,58299496491.12
sh601236,红塔证券,2021-09-23,12.23,12.45,12.23,12.36,12.36,13383151.0,165122728.0,31620618467.4,58299496491.12
sh601236,红塔证券,2021-09-24,12.29,12.37,12.17,12.23,12.36,9578882.0,117358397.0,31288039146.95,57686314084.66
sh601236,红塔证券,2021-09-27,12.21,12.31,11.82,11.88,12.23,13816550.0,166240244.0,30392633284.2,56035438374.96001
sh601236,红塔证券,2021-09-28,11.92,12.06,11.88,11.94,11.88,7340377.0,87706256.0,30546131432.1,56318445639.48
sh601236,红塔证券,2021-09-29,11.97,11.97,11.74,11.75,11.94,8864545.0,104719422.0,30060053963.75,55422255968.5
sh601236,红塔证券,2021-09-30,11.75,11.85,11.72,11.8,11.75,6570763.0,77348913.0,30187969087.0,55658095355.6
sh601236,红塔证券,2021-10-08,11.86,11.95,11.84,11.9,11.8,6417660.0,76322195.0,30443799333.5,56129774129.8
sh601236,红塔证券,2021-10-11,11.88,11.98,11.86,11.93,11.9,5950482.0,70926497.0,30520548407.45,56271277762.06
sh601236,红塔证券,2021-10-12,11.89,11.93,11.7,11.79,11.93,7206594.0,84853955.0,30162386062.35,55610927478.18
sh601236,红塔证券,2021-10-13,11.83,12.14,11.79,12.0,11.79,11839229.0,142107065.0,30699629580.0,56601452904.0
sh601236,红塔证券,2021-10-14,11.95,12.23,11.9,12.14,12.0,13021670.0,158304336.0,31057791925.1,57261803187.880005
sh601236,红塔证券,2021-10-15,12.05,12.08,11.91,11.97,12.14,8179178.0,98128850.0,30622880506.05,56459949271.74
sh601236,红塔证券,2021-10-18,11.89,11.99,11.76,11.86,11.97,6603441.0,78106714.0,30341467234.9,55941102620.12
sh601236,红塔证券,2021-10-19,11.81,11.95,11.8,11.9,11.86,5540709.0,65838496.0,30443799333.5,56129774129.8
sh601236,红塔证券,2021-10-20,11.86,11.95,11.8,11.83,11.9,5487692.0,65025152.0,30264718160.95,55799598987.86
sh601236,红塔证券,2021-10-21,11.83,11.9,11.71,11.77,11.83,6941491.0,81860137.0,30111220013.05,55516591723.34
sh601236,红塔证券,2021-10-22,11.75,11.84,11.7,11.75,11.77,6827324.0,80317000.0,30060053963.75,55422255968.5
sh601236,红塔证券,2021-10-25,11.84,11.85,11.09,11.41,11.75,20611938.0,234617134.0,29190231125.65,53818548136.21999
sh601236,红塔证券,2021-10-26,11.41,11.42,11.19,11.22,11.41,8737763.0,98560925.0,28704153657.300003,52922358465.240005
sh601236,红塔证券,2021-10-27,11.2,11.21,10.97,11.01,11.22,9157498.0,101156613.0,28166910139.65,51931833039.42
sh601236,红塔证券,2021-10-28,10.99,11.16,10.97,11.02,11.01,5981958.0,66081700.0,28192493164.300003,51979000916.84
sh601236,红塔证券,2021-10-29,11.1,11.37,11.06,11.21,11.02,8974986.0,100609154.0,28678570632.65,52875190587.82
sh601236,红塔证券,2021-11-01,11.19,11.34,11.15,11.26,11.21,5949125.0,67046965.0,28806485755.9,53111029974.920006
sh601236,红塔证券,2021-11-02,11.3,11.32,11.01,11.08,11.26,7743858.0,86264187.0,28345991312.2,52262008181.36
sh601236,红塔证券,2021-11-03,11.08,11.33,11.05,11.24,11.08,6416106.0,71829716.0,28755319706.6,53016694220.08
sh601236,红塔证券,2021-11-04,11.23,11.3,11.18,11.27,11.24,5622208.0,63194456.0,28832068780.550003,53158197852.34
sh601236,红塔证券,2021-11-05,11.25,11.28,11.15,11.19,11.27,4941320.0,55471841.0,28627404583.35,52780854832.98
sh601236,红塔证券,2021-11-08,11.24,11.34,11.17,11.26,11.19,6853152.0,77054599.0,28806485755.9,53111029974.920006
sh601236,红塔证券,2021-11-09,11.28,11.29,11.19,11.27,11.26,5660055.0,63634808.0,28832068780.550003,53158197852.34
sh601236,红塔证券,2021-11-10,11.28,11.32,11.18,11.25,11.27,5707646.0,64179416.0,28780902731.25,53063862097.50001
sh601236,红塔证券,2021-11-11,11.2,11.44,11.19,11.39,11.25,11947196.0,135859574.0,29139065076.35,53724212381.38
sh601236,红塔证券,2021-11-12,11.4,11.4,11.28,11.32,11.39,6265391.0,70945537.0,28959983903.800003,53394037239.44
sh601236,红塔证券,2021-11-15,11.4,11.48,11.3,11.34,11.32,6110759.0,69386830.0,29011149953.1,53488372994.28
sh601236,红塔证券,2021-11-16,11.31,11.36,11.21,11.25,11.34,5976499.0,67424449.0,28780902731.25,53063862097.50001
sh601236,红塔证券,2021-11-17,11.27,11.29,11.23,11.24,11.25,4128089.0,46471620.0,28755319706.6,53016694220.08
sh601236,红塔证券,2021-11-18,11.22,11.26,11.09,11.09,11.24,7035887.0,78378742.0,28371574336.85,52309176058.78
sh601236,红塔证券,2021-11-19,11.06,11.31,11.02,11.25,11.09,8271087.0,92723591.0,28780902731.25,53063862097.50001
sh601236,红塔证券,2021-11-22,11.29,11.44,11.22,11.33,11.25,8956982.0,101535242.0,28985566928.45,53441205116.86
sh601236,红塔证券,2021-11-23,11.33,11.49,11.29,11.38,11.33,10060903.0,114831532.0,29113482051.7,53677044503.96001
sh601236,红塔证券,2021-11-24,11.39,11.44,11.3,11.32,11.38,6267796.0,71036718.0,28959983903.800003,53394037239.44
sh601236,红塔证券,2021-11-25,11.34,11.4,11.26,11.28,11.32,6957942.0,78665809.0,28857651805.2,53205365729.759995
sh601236,红塔证券,2021-11-26,11.28,11.34,11.26,11.28,11.28,4893368.0,55275424.0,28857651805.2,53205365729.759995
sh601236,红塔证券,2021-11-29,11.15,11.24,11.1,11.17,11.28,5402260.0,60385617.0,28576238534.050003,52686519078.14
sh601236,红塔证券,2021-11-30,11.2,11.25,11.14,11.18,11.17,5237916.0,58654234.0,28601821558.7,52733686955.56
sh601236,红塔证券,2021-12-01,11.18,11.35,11.16,11.33,11.18,7747766.0,87449887.0,28985566928.45,53441205116.86
sh601236,红塔证券,2021-12-02,11.33,11.42,11.29,11.38,11.33,8755366.0,99464051.0,29113482051.7,53677044503.96001
sh601236,红塔证券,2021-12-03,11.39,11.43,11.28,11.39,11.38,8712785.0,98945964.0,29139065076.350002,53724212381.38
sh601236,红塔证券,2021-12-06,11.45,11.63,11.36,11.39,11.39,17897808.0,205948906.0,29139065076.350002,53724212381.38
sh601236,红塔证券,2021-12-07,11.48,11.55,11.28,11.35,11.39,10812130.0,122930105.0,29036732977.75,53535540871.700005
sh601236,红塔证券,2021-12-08,11.37,11.57,11.28,11.54,11.35,13036660.0,148945516.0,29522810446.100002,54431730542.68
sh601236,红塔证券,2021-12-09,11.54,11.93,11.48,11.75,11.54,27756383.0,325719555.0,30060053963.75,55422255968.5
sh601236,红塔证券,2021-12-10,11.63,11.72,11.55,11.62,11.75,16655462.0,193139697.0,29727474643.3,54809073562.04
sh601236,红塔证券,2021-12-13,11.78,11.85,11.52,11.53,11.62,18598606.0,217595421.0,29497227421.45,54384562665.259995
sh601236,红塔证券,2021-12-14,11.4,11.55,11.38,11.45,11.53,9348741.0,107150178.0,29292563224.25,54007219645.9
sh601236,红塔证券,2021-12-15,11.48,11.62,11.46,11.54,11.45,8917852.0,102873964.0,29522810446.100002,54431730542.68
sh601236,红塔证券,2021-12-16,11.58,11.65,11.51,11.62,11.54,9061353.0,104835651.0,29727474643.3,54809073562.04
sh601236,红塔证券,2021-12-17,11.68,11.69,11.5,11.53,11.62,10460747.0,121206052.0,29497227421.45,54384562665.259995
sh601236,红塔证券,2021-12-20,11.43,11.58,11.38,11.39,11.53,8251211.0,94658083.0,29139065076.350002,53724212381.38
sh601236,红塔证券,2021-12-21,11.43,11.56,11.32,11.55,11.39,9781217.0,112032198.0,29548393470.75,54478898420.1
sh601236,红塔证券,2021-12-22,11.53,11.57,11.46,11.5,11.55,6457207.0,74367210.0,29420478347.5,54243059033.0
sh601236,红塔证券,2021-12-23,11.5,11.55,11.41,11.45,11.5,5600600.0,64161188.0,29292563224.25,54007219645.9
sh601236,红塔证券,2021-12-24,11.45,11.49,11.24,11.24,11.45,7753010.0,87973498.0,28755319706.600002,53016694220.08
sh601236,红塔证券,2021-12-27,11.24,11.37,11.21,11.28,11.24,4296193.0,48530535.0,28857651805.2,53205365729.759995
sh601236,红塔证券,2021-12-28,11.31,12.41,11.29,12.41,11.28,54120076.0,654905727.0,31748533590.65,58535335878.21999
sh601236,红塔证券,2021-12-29,12.66,12.66,11.84,11.91,12.41,60362139.0,733421839.0,30469382358.149998,56176942007.21999
sh601236,红塔证券,2021-12-30,11.78,12.19,11.78,11.92,11.91,36757051.0,440408076.0,30494965382.8,56224109884.64
sh601236,红塔证券,2021-12-31,11.92,12.06,11.83,11.92,11.92,23924330.0,285673044.0,30494965382.8,56224109884.64
sh601236,红塔证券,2022-01-04,11.94,12.03,11.82,12.0,11.92,20420500.0,243784357.0,30699629580.0,56601452904.0
sh601236,红塔证券,2022-01-05,11.97,12.58,11.92,12.19,12.0,44723722.0,548712722.0,31185707048.35,57497642574.979996
sh601236,红塔证券,2022-01-06,12.16,12.35,12.03,12.11,12.19,33330532.0,406224249.0,30981042851.149998,57120299555.62
sh601236,红塔证券,2022-01-07,12.18,12.22,11.9,11.93,12.11,20077935.0,242442417.0,30520548407.45,56271277762.06
sh601236,红塔证券,2022-01-10,11.68,11.69,11.46,11.58,11.93,25041451.0,289737036.0,29625142544.7,54620402052.36
sh601236,红塔证券,2022-01-11,11.58,11.7,11.54,11.58,11.58,11981112.0,138954671.0,29625142544.7,54620402052.36
sh601236,红塔证券,2022-01-12,11.58,11.65,11.51,11.6,11.58,10328882.0,119516449.0,29676308594.0,54714737807.200005
sh601236,红塔证券,2022-01-13,11.59,11.65,11.51,11.51,11.6,9439894.0,109292825.0,29446061372.15,54290226910.420006
sh601236,红塔证券,2022-01-14,11.45,11.59,11.37,11.55,11.51,12009585.0,137934915.0,29548393470.75,54478898420.1
