数据由邢不行整理
股票代码,股票名称,交易日期,开盘价,最高价,最低价,收盘价,前收盘价,成交量,成交额,流通市值,总市值
sh605368,N蓝天,2021-01-29,17.95,21.54,17.95,21.54,14.96,27618049.0,574294247.0,1410870000.0,9966601080.0
sh605368,蓝天燃气,2021-02-01,19.39,22.07,19.39,20.0,21.54,24390080.0,490145396.0,1310000000.0,9254040000.0
sh605368,蓝天燃气,2021-02-02,19.28,19.28,18.0,18.03,20.0,20203287.0,374146502.0,1180965000.0,8342517060.0
sh605368,蓝天燃气,2021-02-03,17.66,17.66,16.23,16.24,18.03,18914533.0,315225848.0,1063720000.0,7514280479.999999
sh605368,蓝天燃气,2021-02-04,15.94,17.68,15.68,16.9,16.24,17374292.0,293894652.0,1106950000.0,7819663800.0
sh605368,蓝天燃气,2021-02-05,16.32,16.69,15.38,15.46,16.9,14057819.0,224488498.0,1012630000.0,7153372920.0
sh605368,蓝天燃气,2021-02-08,15.38,15.38,14.2,14.29,15.46,12954662.0,189127265.0,935995000.0,6612011580.000001
sh605368,蓝天燃气,2021-02-09,14.13,14.9,13.87,14.21,14.29,10732988.0,154079530.0,930755000.0,6574995420.0
sh605368,蓝天燃气,2021-02-10,14.29,14.77,14.08,14.4,14.21,7741972.0,111393930.0,943200000.0,6662908800.0
sh605368,蓝天燃气,2021-02-18,14.7,15.49,14.42,15.09,14.4,10402245.0,154121164.0,988395000.0,6982173180.0
sh605368,蓝天燃气,2021-02-19,14.8,15.21,14.64,15.03,15.09,9257179.0,138276335.0,984465000.0,6954411060.0
sh605368,蓝天燃气,2021-02-22,15.0,15.4,14.82,15.03,15.03,8885323.0,134487176.0,984465000.0,6954411060.0
sh605368,蓝天燃气,2021-02-23,14.95,15.09,14.47,14.53,15.03,6986469.0,102515679.0,951715000.0,6723060060.000001
sh605368,蓝天燃气,2021-02-24,14.58,14.65,14.13,14.29,14.53,6144081.0,88684387.0,935995000.0,6612011580.000001
sh605368,蓝天燃气,2021-02-25,14.32,14.77,14.2,14.75,14.29,7582209.0,109841919.0,966125000.0,6824854500.0
sh605368,蓝天燃气,2021-02-26,14.5,14.69,14.39,14.41,14.75,5196377.0,75330901.0,943855000.0,6667535820.000001
sh605368,蓝天燃气,2021-03-01,14.42,14.54,14.26,14.53,14.41,4459773.0,64406196.0,951715000.0,6723060060.000001
sh605368,蓝天燃气,2021-03-02,14.58,14.87,14.49,14.75,14.53,6661599.0,97761357.0,966125000.0,6824854500.0
sh605368,蓝天燃气,2021-03-03,14.6,14.62,14.41,14.59,14.75,5379973.0,78143709.0,955645000.0,6750822180.0
sh605368,蓝天燃气,2021-03-04,14.53,14.7,14.36,14.36,14.59,5247414.0,76144697.0,940580000.0,6644400720.0
sh605368,蓝天燃气,2021-03-05,14.2,14.88,14.2,14.58,14.36,7125165.0,104012675.0,954990000.0,6746195159.999999
sh605368,蓝天燃气,2021-03-08,14.49,14.8,14.44,14.62,14.58,6483455.0,94855775.0,957610000.0,6764703240.0
sh605368,蓝天燃气,2021-03-09,14.56,14.58,13.76,14.05,14.62,6793529.0,95979884.0,920275000.0,6500963100.000001
sh605368,蓝天燃气,2021-03-10,14.1,14.2,13.78,14.05,14.05,4272354.0,59658008.0,920275000.0,6500963100.000001
sh605368,蓝天燃气,2021-03-11,14.05,14.17,13.91,14.14,14.05,3733720.0,52586651.0,926170000.0,6542606280.0
sh605368,蓝天燃气,2021-03-12,14.07,15.4,13.91,14.68,14.14,10592089.0,155333634.0,961540000.0,6792465360.0
sh605368,蓝天燃气,2021-03-15,14.45,14.9,14.36,14.48,14.68,6074206.0,88468642.0,948440000.0,6699924960.0
sh605368,蓝天燃气,2021-03-16,14.41,15.28,14.41,14.96,14.48,8170969.0,121204034.0,979880000.0,6922021920.0
sh605368,蓝天燃气,2021-03-17,14.85,15.34,14.8,15.18,14.96,8759362.0,132509437.0,994290000.0,7023816360.000001
sh605368,蓝天燃气,2021-03-18,15.09,15.19,14.81,15.08,15.18,7665034.0,114856913.0,987740000.0,6977546160.0
sh605368,蓝天燃气,2021-03-19,14.88,15.58,14.71,15.5,15.08,12715516.0,193558300.0,1015250000.0,7171881000.0
sh605368,蓝天燃气,2021-03-22,15.48,17.05,15.32,17.05,15.5,16748571.0,277325539.0,1116775000.0,7889069100.0
sh605368,蓝天燃气,2021-03-23,17.01,18.76,16.65,18.76,17.05,35141785.0,637348791.0,1228780000.0,8680289520.0
sh605368,蓝天燃气,2021-03-24,18.7,20.22,17.78,18.6,18.76,35930879.0,680355954.0,1218300000.0,8606257200.0
sh605368,蓝天燃气,2021-03-25,17.47,17.97,16.74,16.74,18.6,23023549.0,390450360.0,1096470000.0,7745631480.0
sh605368,蓝天燃气,2021-03-26,16.16,17.53,16.16,16.93,16.74,18358268.0,312852620.0,1108915000.0,7833544860.0
sh605368,蓝天燃气,2021-03-29,17.33,18.62,17.08,18.12,16.93,23349348.0,418746093.0,1186860000.0,8384160240.0
sh605368,蓝天燃气,2021-03-30,17.39,19.2,16.65,17.66,18.12,23155121.0,411074666.0,1156730000.0,8171317320.0
sh605368,蓝天燃气,2021-03-31,17.18,18.48,17.18,17.47,17.66,18065480.0,323069361.0,1144285000.0,8083403940.0
sh605368,蓝天燃气,2021-04-01,17.3,17.34,16.2,16.55,17.47,18457286.0,305065772.0,1084025000.0,7657718100.000001
sh605368,蓝天燃气,2021-04-02,16.56,18.21,16.56,18.21,16.55,11756369.0,210934627.0,1192755000.0,8425803419.999999
sh605368,蓝天燃气,2021-04-06,19.5,19.5,18.21,18.75,18.21,29806755.0,563612080.0,1228125000.0,8675662500.0
sh605368,蓝天燃气,2021-04-07,18.96,20.63,18.96,20.63,18.75,11301768.0,227331505.0,1351265000.0,9545542260.0
sh605368,蓝天燃气,2021-04-08,21.2,21.65,18.57,18.57,20.63,29049859.0,566657814.0,1216335000.0,8592376140.0
sh605368,蓝天燃气,2021-04-09,17.64,18.35,17.4,17.6,18.57,15562112.0,277319594.0,1152800000.0,8143555200.0
sh605368,蓝天燃气,2021-04-12,17.72,18.2,17.22,17.92,17.6,12295745.0,217938717.0,1173760000.0,8291619840.000001
sh605368,蓝天燃气,2021-04-13,17.5,17.59,16.5,16.89,17.92,10610896.0,180262282.0,1106295000.0,7815036780.0
sh605368,蓝天燃气,2021-04-14,16.9,17.14,16.38,16.95,16.89,8926288.0,149155257.0,1110225000.0,7842798900.0
sh605368,蓝天燃气,2021-04-15,16.8,16.94,16.12,16.13,16.95,9377956.0,153934384.0,1056515000.0,7463383260.0
sh605368,蓝天燃气,2021-04-16,16.1,16.36,16.01,16.12,16.13,5991622.0,96991935.0,1055860000.0,7458756240.0
sh605368,蓝天燃气,2021-04-19,16.15,16.33,15.88,16.17,16.12,5627823.0,90891938.0,1059135000.0,7481891340.0
sh605368,蓝天燃气,2021-04-20,16.18,16.58,16.07,16.3,16.17,8394965.0,137318582.0,1067650000.0,7542042600.0
sh605368,蓝天燃气,2021-04-21,16.18,16.25,15.6,15.88,16.3,9195443.0,145315930.0,1040140000.0,7347707760.0
sh605368,蓝天燃气,2021-04-22,15.97,15.98,15.6,15.68,15.88,4602619.0,72292499.0,1027040000.0,7255167360.0
sh605368,蓝天燃气,2021-04-23,15.7,15.7,15.06,15.15,15.68,6841192.0,104271830.0,992325000.0,7009935300.0
sh605368,蓝天燃气,2021-04-26,15.0,15.25,14.85,15.14,15.15,4087955.0,61664941.0,991670000.0,7005308280.0
sh605368,蓝天燃气,2021-04-27,15.09,15.12,14.73,14.96,15.14,4219586.0,62759059.0,979880000.0,6922021920.0
sh605368,蓝天燃气,2021-04-28,14.91,15.08,14.8,14.98,14.96,2912912.0,43601266.0,981190000.0,6931275960.0
sh605368,蓝天燃气,2021-04-29,15.05,15.59,15.04,15.34,14.98,6764671.0,104105845.0,1004770000.0,7097848680.0
sh605368,蓝天燃气,2021-04-30,15.33,15.33,14.87,14.96,15.34,4142754.0,62261260.0,979880000.0,6922021920.0
sh605368,蓝天燃气,2021-05-06,14.86,15.42,14.86,15.41,14.96,4720941.0,71625470.0,1009355000.0,7130237820.0
sh605368,蓝天燃气,2021-05-07,15.43,15.65,15.24,15.54,15.41,5548923.0,85755852.0,1017870000.0,7190389080.000001
sh605368,蓝天燃气,2021-05-10,15.51,15.54,15.11,15.49,15.54,3606852.0,55490125.0,1014595000.0,7167253980.0
sh605368,蓝天燃气,2021-05-11,15.5,16.32,15.31,16.21,15.49,8031154.0,125980159.0,1061755000.0,7500399420.0
sh605368,蓝天燃气,2021-05-12,16.1,16.6,15.9,16.01,16.21,7067815.0,114283569.0,1048655000.0,7407859020.0
sh605368,蓝天燃气,2021-05-13,15.76,15.85,15.48,15.51,16.01,5312927.0,83021785.0,1015905000.0,7176508020.0
sh605368,蓝天燃气,2021-05-14,15.51,15.87,15.4,15.53,15.51,4676317.0,73139996.0,1017215000.0,7185762060.0
sh605368,蓝天燃气,2021-05-17,15.46,15.5,15.0,15.07,15.53,4267238.0,64582398.0,987085000.0,6972919140.0
sh605368,蓝天燃气,2021-05-18,15.12,15.39,14.99,15.25,15.07,3244480.0,49258915.0,998875000.0,7056205500.0
sh605368,蓝天燃气,2021-05-19,15.13,15.29,15.1,15.14,15.25,2665030.0,40408456.0,991670000.0,7005308280.0
sh605368,蓝天燃气,2021-05-20,15.12,15.28,14.9,15.21,15.14,3671002.0,55441345.0,996255000.0,7037697420.0
sh605368,蓝天燃气,2021-05-21,15.19,15.78,15.1,15.75,15.21,6927905.0,107621238.0,1031625000.0,7287556500.0
sh605368,蓝天燃气,2021-05-24,15.82,15.88,15.52,15.63,15.75,5108231.0,80006697.0,1023765000.0,7232032260.0
sh605368,蓝天燃气,2021-05-25,15.57,15.76,15.44,15.63,15.63,3613415.0,56323109.0,1023765000.0,7232032260.0
sh605368,蓝天燃气,2021-05-26,15.58,15.87,15.5,15.71,15.63,4341658.0,68197076.0,1029005000.0,7269048419.999999
sh605368,蓝天燃气,2021-05-27,15.71,15.86,15.6,15.76,15.71,4302732.0,67690210.0,1032280000.0,7292183520.0
sh605368,XD蓝天燃,2021-05-28,15.28,15.29,14.8,14.86,15.26,5012370.0,75055504.0,973330000.0,6875751720.0
sh605368,蓝天燃气,2021-05-31,14.86,15.16,14.65,14.92,14.86,3791824.0,56289896.0,977260000.0,6903513840.0
sh605368,蓝天燃气,2021-06-01,14.91,14.94,14.69,14.81,14.92,3494460.0,51632437.0,970055000.0,6852616620.0
sh605368,蓝天燃气,2021-06-02,14.81,15.15,14.68,15.14,14.81,6194184.0,92776625.0,991670000.0,7005308280.0
sh605368,蓝天燃气,2021-06-03,15.13,15.8,14.94,15.43,15.14,9343023.0,143876161.0,1010665000.0,7139491860.0
sh605368,蓝天燃气,2021-06-04,15.15,15.39,15.0,15.11,15.43,5330428.0,80740180.0,989705000.0,6991427219.999999
sh605368,蓝天燃气,2021-06-07,14.95,15.11,14.88,14.93,15.11,3194836.0,47731796.0,977915000.0,6908140860.0
sh605368,蓝天燃气,2021-06-08,14.9,15.13,14.87,15.05,14.93,2981441.0,44718259.0,985775000.0,6963665100.0
sh605368,蓝天燃气,2021-06-09,15.05,15.8,14.92,15.66,15.05,10463151.0,161882141.0,1025730000.0,7245913320.000001
sh605368,蓝天燃气,2021-06-10,15.48,15.58,15.21,15.26,15.66,7454965.0,114285277.0,999530000.0,7060832520.0
sh605368,蓝天燃气,2021-06-11,15.28,15.44,15.21,15.39,15.26,4699178.0,72110607.0,1008045000.0,7120983780.0
sh605368,蓝天燃气,2021-06-15,15.21,15.54,15.0,15.09,15.39,4209620.0,64150150.0,988395000.0,6982173180.0
sh605368,蓝天燃气,2021-06-16,14.96,14.96,14.5,14.54,15.09,5291910.0,77842354.0,952370000.0,6727687080.0
sh605368,蓝天燃气,2021-06-17,14.44,14.69,14.38,14.49,14.54,2922852.0,42485444.0,949095000.0,6704551980.0
sh605368,蓝天燃气,2021-06-18,14.4,14.51,14.25,14.45,14.49,2982852.0,42914477.0,946475000.0,6686043900.0
sh605368,蓝天燃气,2021-06-21,14.41,14.6,14.32,14.53,14.45,2480044.0,35983751.0,951715000.0,6723060060.000001
sh605368,蓝天燃气,2021-06-22,14.66,14.94,14.6,14.78,14.53,4179144.0,61860994.0,968090000.0,6838735560.0
sh605368,蓝天燃气,2021-06-23,14.73,14.73,14.45,14.49,14.78,3786077.0,55057138.0,949095000.0,6704551980.0
sh605368,蓝天燃气,2021-06-24,14.55,14.56,14.37,14.38,14.49,2535036.0,36522756.0,941890000.0,6653654760.0
sh605368,蓝天燃气,2021-06-25,14.39,14.52,14.36,14.44,14.38,2208606.0,31857665.0,945820000.0,6681416880.0
sh605368,蓝天燃气,2021-06-28,14.45,14.48,14.38,14.47,14.44,1960124.0,28282471.0,947785000.0,6695297940.0
sh605368,蓝天燃气,2021-06-29,14.45,14.45,14.1,14.16,14.47,2963756.0,42303425.0,927480000.0,6551860320.0
sh605368,蓝天燃气,2021-06-30,14.2,14.5,14.2,14.3,14.16,1915343.0,27428741.0,936650000.0,6616638600.0
sh605368,蓝天燃气,2021-07-01,14.22,14.37,14.03,14.05,14.3,2462048.0,34817937.0,920275000.0,6500963100.000001
sh605368,蓝天燃气,2021-07-02,14.04,14.04,13.85,13.87,14.05,1886697.0,26219556.0,908485000.0,6417676740.0
sh605368,蓝天燃气,2021-07-05,13.9,13.98,13.84,13.93,13.87,1425130.0,19827195.0,912415000.0,6445438860.000001
sh605368,蓝天燃气,2021-07-06,13.93,14.22,13.88,14.17,13.93,2207570.0,31194318.0,928135000.0,6556487340.000001
sh605368,蓝天燃气,2021-07-07,14.08,14.24,14.08,14.16,14.17,1252620.0,17734889.0,927480000.0,6551860320.0
sh605368,蓝天燃气,2021-07-08,14.11,14.2,13.93,13.93,14.16,1609239.0,22553380.0,912415000.0,6445438860.000001
sh605368,蓝天燃气,2021-07-09,13.92,14.23,13.89,14.12,13.93,1559358.0,21933525.0,924860000.0,6533352240.0
sh605368,蓝天燃气,2021-07-12,14.15,14.18,14.08,14.1,14.12,1401404.0,19774512.0,923550000.0,6524098199.999999
sh605368,蓝天燃气,2021-07-13,14.15,14.15,13.69,14.03,14.1,1849632.0,25892014.0,918965000.0,6491709060.0
sh605368,蓝天燃气,2021-07-14,14.04,14.09,13.87,13.87,14.03,1767724.0,24685616.0,908485000.0,6417676740.0
sh605368,蓝天燃气,2021-07-15,13.93,13.93,13.52,13.67,13.87,2234824.0,30602685.0,895385000.0,6325136340.0
sh605368,蓝天燃气,2021-07-16,13.67,13.79,13.64,13.68,13.67,1665300.0,22845623.0,896040000.0,6329763360.0
sh605368,蓝天燃气,2021-07-19,13.69,13.7,13.51,13.54,13.68,1794312.0,24299600.0,886870000.0,6264985080.0
sh605368,蓝天燃气,2021-07-20,13.47,13.47,13.23,13.3,13.54,2032600.0,27080164.0,871150000.0,6153936600.0
sh605368,蓝天燃气,2021-07-21,13.31,13.47,13.31,13.42,13.3,1691012.0,22665791.0,879010000.0,6209460840.0
sh605368,蓝天燃气,2021-07-22,13.44,13.49,13.32,13.39,13.42,1572900.0,21090413.0,877045000.0,6195579780.0
sh605368,蓝天燃气,2021-07-23,13.35,13.45,13.26,13.28,13.39,1726400.0,23002412.0,869840000.0,6144682560.000001
sh605368,蓝天燃气,2021-07-26,13.28,13.31,13.01,13.08,13.28,2029444.0,26569746.0,856740000.0,6052142160.0
sh605368,蓝天燃气,2021-07-27,13.08,13.4,13.06,13.17,13.08,2541964.0,33701715.0,862635000.0,6093785340.0
sh605368,蓝天燃气,2021-07-28,13.14,13.14,12.7,12.81,13.17,2353474.0,30217364.0,839055000.0,5927212620.0
sh605368,蓝天燃气,2021-07-29,12.8,13.11,12.78,12.91,12.81,1350012.0,17450021.0,845605000.0,5973482820.0
sh605368,蓝天燃气,2021-07-30,13.01,13.14,12.93,13.0,12.91,1331964.0,17363621.0,851500000.0,6015126000.0
sh605368,蓝天燃气,2021-08-02,13.1,13.17,12.9,13.16,13.0,1642208.0,21449758.0,861980000.0,6089158320.000001
sh605368,蓝天燃气,2021-08-03,13.16,13.5,13.16,13.32,13.16,2483966.0,33279107.0,872460000.0,6163190640.0
sh605368,蓝天燃气,2021-08-04,13.26,13.39,13.22,13.29,13.32,1642266.0,21845668.0,870495000.0,6149309580.0
sh605368,蓝天燃气,2021-08-05,13.3,14.11,13.3,13.66,13.29,4835622.0,66263485.0,894730000.0,6320509320.0
sh605368,蓝天燃气,2021-08-06,13.55,13.66,13.38,13.53,13.66,2666640.0,36004358.0,886215000.0,6260358060.0
sh605368,蓝天燃气,2021-08-09,13.54,13.88,13.52,13.85,13.53,2903932.0,39895111.0,907175000.0,6408422700.0
sh605368,蓝天燃气,2021-08-10,13.73,13.81,13.67,13.78,13.85,2001216.0,27484176.0,902590000.0,6376033560.0
sh605368,蓝天燃气,2021-08-11,13.81,13.89,13.56,13.64,13.78,2350536.0,32147093.0,893420000.0,6311255280.000001
sh605368,蓝天燃气,2021-08-12,13.55,13.88,13.44,13.67,13.64,3683683.0,50506408.0,895385000.0,6325136340.0
sh605368,蓝天燃气,2021-08-13,13.81,14.0,13.65,13.84,13.67,2955287.0,40730843.0,906520000.0,6403795680.0
sh605368,蓝天燃气,2021-08-16,13.83,14.48,13.79,14.35,13.84,6587109.0,93197848.0,939925000.0,6639773700.0
sh605368,蓝天燃气,2021-08-17,14.64,14.64,13.85,13.87,14.35,5006405.0,70861002.0,908485000.0,6417676740.0
sh605368,蓝天燃气,2021-08-18,13.77,14.57,13.77,14.27,13.87,6301076.0,89808385.0,934685000.0,6602757540.0
sh605368,蓝天燃气,2021-08-19,14.26,14.42,13.78,14.01,14.27,4126086.0,57708786.0,917655000.0,6482455020.0
sh605368,蓝天燃气,2021-08-20,13.96,13.96,13.48,13.6,14.01,2927420.0,39943922.0,890800000.0,6292747200.0
sh605368,蓝天燃气,2021-08-23,13.9,14.4,13.9,14.35,13.6,7099777.0,101314584.0,939925000.0,6639773700.0
sh605368,蓝天燃气,2021-08-24,14.49,15.5,14.42,15.29,14.35,15656208.0,236477389.0,1001495000.0,7074713580.0
sh605368,蓝天燃气,2021-08-25,15.08,15.12,14.69,14.93,15.29,8334036.0,124166700.0,977915000.0,6908140860.0
sh605368,蓝天燃气,2021-08-26,14.97,15.24,14.75,14.93,14.93,7100401.0,106448521.0,977915000.0,6908140860.0
sh605368,蓝天燃气,2021-08-27,15.01,15.22,14.69,14.76,14.93,6752912.0,100959015.0,966780000.0,6829481520.0
sh605368,蓝天燃气,2021-08-30,14.71,14.91,14.51,14.6,14.76,6031404.0,88536976.0,956300000.0,6755449200.0
sh605368,蓝天燃气,2021-08-31,14.56,14.65,14.13,14.4,14.6,4512504.0,64629493.0,943200000.0,6662908800.0
sh605368,蓝天燃气,2021-09-01,14.37,14.91,14.2,14.49,14.4,5140556.0,74751824.0,949095000.0,6704551980.0
sh605368,蓝天燃气,2021-09-02,14.54,15.13,14.46,14.91,14.49,8113972.0,120693819.0,976605000.0,6898886820.0
sh605368,蓝天燃气,2021-09-03,14.84,15.4,14.66,15.05,14.91,8946590.0,134297395.0,985775000.0,6963665100.0
sh605368,蓝天燃气,2021-09-06,14.98,15.35,14.8,15.28,15.05,9012702.0,136068625.0,1000840000.0,7070086560.0
sh605368,蓝天燃气,2021-09-07,15.48,16.8,15.1,16.06,15.28,18198078.0,287294031.0,1051930000.0,7430994120.0
sh605368,蓝天燃气,2021-09-08,15.8,16.29,15.63,15.9,16.06,10830158.0,172954756.0,1041450000.0,7356961800.000001
sh605368,蓝天燃气,2021-09-09,16.2,17.08,16.1,16.66,15.9,15145043.0,251381342.0,1091230000.0,7708615320.0
sh605368,蓝天燃气,2021-09-10,16.38,17.02,15.61,15.66,16.66,14949730.0,241648031.0,1025730000.0,7245913320.000001
sh605368,蓝天燃气,2021-09-13,15.49,15.85,15.4,15.74,15.66,7729461.0,121082494.0,1030970000.0,7282929480.0
sh605368,蓝天燃气,2021-09-14,15.97,16.12,15.13,15.28,15.74,8433228.0,130720877.0,1000840000.0,7070086560.0
sh605368,蓝天燃气,2021-09-15,15.1,15.64,15.06,15.57,15.28,5855642.0,90467170.0,1019835000.0,7204270140.0
sh605368,蓝天燃气,2021-09-16,15.63,16.53,15.62,15.92,15.57,12481593.0,201381185.0,1042760000.0,7366215840.0
sh605368,蓝天燃气,2021-09-17,15.56,16.79,15.3,16.36,15.92,13673508.0,219739856.0,1071580000.0,7569804719.999999
sh605368,蓝天燃气,2021-09-22,15.95,17.06,15.91,17.05,16.36,15914601.0,263964033.0,1116775000.0,7889069100.0
sh605368,蓝天燃气,2021-09-23,17.07,17.07,16.39,16.41,17.05,10774210.0,179465887.0,1074855000.0,7592939820.0
sh605368,蓝天燃气,2021-09-24,16.68,16.97,15.9,16.04,16.41,8539623.0,139496466.0,1050620000.0,7421740080.0
sh605368,蓝天燃气,2021-09-27,16.24,16.89,15.58,16.5,16.04,10760410.0,175301069.0,1080750000.0,7634583000.0
sh605368,蓝天燃气,2021-09-28,16.83,17.51,16.6,17.44,16.5,17508096.0,300439234.0,1142320000.0,8069522879.999999
sh605368,蓝天燃气,2021-09-29,16.73,16.9,15.95,16.13,17.44,11237207.0,183859807.0,1056515000.0,7463383260.0
sh605368,蓝天燃气,2021-09-30,16.09,16.49,15.63,16.49,16.13,7417960.0,119945506.0,1080095000.0,7629955980.0
sh605368,蓝天燃气,2021-10-08,16.8,17.32,16.51,16.72,16.49,8433102.0,141682482.0,1095160000.0,7736377439.999999
sh605368,蓝天燃气,2021-10-11,16.51,16.7,15.2,15.73,16.72,7338724.0,116126224.0,1030315000.0,7278302460.0
sh605368,蓝天燃气,2021-10-12,15.7,15.95,15.08,15.3,15.73,5191416.0,80157105.0,1002150000.0,7079340600.000001
sh605368,蓝天燃气,2021-10-13,15.32,15.38,14.53,14.77,15.3,5035499.0,74649987.0,967435000.0,6834108540.000001
sh605368,蓝天燃气,2021-10-14,14.8,14.97,14.6,14.9,14.77,3212255.0,47629476.0,975950000.0,6894259800.0
sh605368,蓝天燃气,2021-10-15,14.9,14.93,14.64,14.8,14.9,2821100.0,41688831.0,969400000.0,6847989600.0
sh605368,蓝天燃气,2021-10-18,14.62,15.18,14.61,15.14,14.8,3671100.0,55186618.0,991670000.0,7005308280.0
sh605368,蓝天燃气,2021-10-19,14.8,15.08,14.65,14.98,15.14,3979855.0,59248409.0,981190000.0,6931275960.0
sh605368,蓝天燃气,2021-10-20,14.83,14.85,14.22,14.3,14.98,6145487.0,88479932.0,936650000.0,6616638600.0
sh605368,蓝天燃气,2021-10-21,14.19,14.4,14.06,14.21,14.3,3507516.0,49888811.0,930755000.0,6574995420.0
sh605368,蓝天燃气,2021-10-22,14.21,14.21,13.8,13.8,14.21,3656272.0,50857948.0,903900000.0,6385287600.0
sh605368,蓝天燃气,2021-10-25,13.79,14.3,13.78,14.16,13.8,3404004.0,48155828.0,927480000.0,6551860320.0
sh605368,蓝天燃气,2021-10-26,14.27,14.62,14.09,14.44,14.16,4348016.0,62418382.0,945820000.0,6681416880.0
sh605368,蓝天燃气,2021-10-27,14.31,14.31,13.95,14.0,14.44,3110352.0,43728735.0,917000000.0,6477828000.0
sh605368,蓝天燃气,2021-10-28,13.83,14.05,13.38,13.39,14.0,2981595.0,40568231.0,877045000.0,6195579780.0
sh605368,蓝天燃气,2021-10-29,13.4,13.59,13.2,13.57,13.39,1507739.0,20266724.0,888835000.0,6278866139.999999
sh605368,蓝天燃气,2021-11-01,13.68,14.04,13.58,13.87,13.57,2167779.0,29951302.0,908485000.0,6417676740.0
sh605368,蓝天燃气,2021-11-02,13.87,13.9,13.4,13.57,13.87,2429455.0,33167883.0,888835000.0,6278866139.999999
sh605368,蓝天燃气,2021-11-03,13.63,13.97,13.61,13.85,13.57,1670856.0,23125728.0,907175000.0,6408422700.0
sh605368,蓝天燃气,2021-11-04,13.88,14.34,13.85,14.18,13.85,3145279.0,44551515.0,928790000.0,6561114360.0
sh605368,蓝天燃气,2021-11-05,14.19,14.25,13.81,14.09,14.18,3167704.0,44287481.0,922895000.0,6519471180.0
sh605368,蓝天燃气,2021-11-08,14.23,14.4,14.08,14.33,14.09,3380351.0,48201586.0,938615000.0,6630519660.0
sh605368,蓝天燃气,2021-11-09,14.2,14.28,14.08,14.19,14.33,2095196.0,29661664.0,929445000.0,6565741380.0
sh605368,蓝天燃气,2021-11-10,14.11,14.12,13.83,13.98,14.19,2088331.0,29064673.0,915690000.0,6468573959.999999
sh605368,蓝天燃气,2021-11-11,14.0,14.07,13.94,13.97,13.98,1951400.0,27297224.0,915035000.0,6463946940.0
sh605368,蓝天燃气,2021-11-12,13.99,14.05,13.81,13.89,13.97,2180800.0,30296336.0,909795000.0,6426930780.0
sh605368,蓝天燃气,2021-11-15,13.88,14.32,13.88,14.2,13.89,3538971.0,50041779.0,930100000.0,6570368400.0
sh605368,蓝天燃气,2021-11-16,14.21,14.33,14.1,14.28,14.2,2826414.0,40131487.0,935340000.0,6607384560.0
sh605368,蓝天燃气,2021-11-17,14.28,14.84,14.28,14.8,14.28,6702248.0,98430248.0,969400000.0,6847989600.0
sh605368,蓝天燃气,2021-11-18,14.6,14.89,14.51,14.65,14.8,4054504.0,59421376.0,959575000.0,6778584300.000001
sh605368,蓝天燃气,2021-11-19,14.8,14.85,14.51,14.73,14.65,3692102.0,54332609.0,964815000.0,6815600460.0
sh605368,蓝天燃气,2021-11-22,14.87,14.93,14.62,14.76,14.73,3401898.0,50268317.0,966780000.0,6829481520.0
sh605368,蓝天燃气,2021-11-23,14.75,14.75,14.51,14.52,14.76,3348647.0,48776367.0,951060000.0,6718433040.0
sh605368,蓝天燃气,2021-11-24,14.58,14.78,14.49,14.63,14.52,2807300.0,41064962.0,958265000.0,6769330260.0
sh605368,蓝天燃气,2021-11-25,14.71,14.77,14.53,14.57,14.63,2502500.0,36581775.0,954335000.0,6741568140.0
sh605368,蓝天燃气,2021-11-26,14.54,14.76,14.33,14.59,14.57,2613504.0,38060942.0,955645000.0,6750822180.0
sh605368,蓝天燃气,2021-11-29,14.27,14.38,14.03,14.22,14.59,2415502.0,34333713.0,931410000.0,6579622439.999999
sh605368,蓝天燃气,2021-11-30,14.26,14.45,14.0,14.09,14.22,2707719.0,38475691.0,922895000.0,6519471180.0
sh605368,蓝天燃气,2021-12-01,14.05,14.45,14.03,14.44,14.09,3076320.0,43992747.0,945820000.0,6681416880.0
sh605368,蓝天燃气,2021-12-02,14.44,14.44,14.13,14.13,14.44,2218603.0,31604934.0,925515000.0,6537979260.0
sh605368,蓝天燃气,2021-12-03,14.16,14.19,14.03,14.15,14.13,1778900.0,25114583.0,926825000.0,6547233300.0
sh605368,蓝天燃气,2021-12-06,14.15,14.25,13.81,13.84,14.15,2990500.0,41735444.0,906520000.0,6403795680.0
sh605368,蓝天燃气,2021-12-07,13.86,13.94,13.69,13.84,13.84,1936304.0,26701685.0,906520000.0,6403795680.0
sh605368,蓝天燃气,2021-12-08,13.83,13.96,13.77,13.94,13.84,1623324.0,22537709.0,913070000.0,6450065880.0
sh605368,蓝天燃气,2021-12-09,13.88,14.03,13.87,13.99,13.94,1983504.0,27718292.0,916345000.0,6473200980.0
sh605368,蓝天燃气,2021-12-10,13.96,14.09,13.9,13.95,13.99,1380155.0,19292481.0,913725000.0,6454692900.0
sh605368,蓝天燃气,2021-12-13,14.0,14.05,13.95,14.02,13.95,1483708.0,20770611.0,918310000.0,6487082040.0
sh605368,蓝天燃气,2021-12-14,14.03,14.03,13.87,13.94,14.02,1963000.0,27341298.0,913070000.0,6450065880.0
sh605368,蓝天燃气,2021-12-15,13.93,14.12,13.85,14.06,13.94,2813810.0,39429812.0,920930000.0,6505590120.0
sh605368,蓝天燃气,2021-12-16,14.12,14.6,14.1,14.43,14.06,6121173.0,88280738.0,945165000.0,6676789860.0
sh605368,蓝天燃气,2021-12-17,14.37,14.49,14.22,14.27,14.43,3334300.0,47773365.0,934685000.0,6602757540.0
sh605368,蓝天燃气,2021-12-20,14.4,14.41,14.09,14.19,14.27,2510600.0,35674670.0,929445000.0,6565741380.0
sh605368,蓝天燃气,2021-12-21,14.08,14.31,14.08,14.29,14.19,1946216.0,27645955.0,935995000.0,6612011580.000001
sh605368,蓝天燃气,2021-12-22,14.52,15.43,14.51,14.86,14.29,8987042.0,133635603.0,973330000.0,6875751720.0
sh605368,蓝天燃气,2021-12-23,14.68,14.8,14.46,14.49,14.86,5598543.0,81767035.0,949095000.0,6704551980.0
sh605368,蓝天燃气,2021-12-24,14.55,14.84,14.35,14.61,14.49,5052249.0,74065658.0,956955000.0,6760076220.0
sh605368,蓝天燃气,2021-12-27,14.59,14.99,14.38,14.94,14.61,6176000.0,91245986.0,978570000.0,6912767879.999999
sh605368,蓝天燃气,2021-12-28,14.98,14.99,14.54,14.7,14.94,4768904.0,70050591.0,962850000.0,6801719399.999999
sh605368,蓝天燃气,2021-12-29,14.64,14.66,14.4,14.49,14.7,2999208.0,43389767.0,949095000.0,6704551980.0
sh605368,蓝天燃气,2021-12-30,14.44,14.54,14.35,14.42,14.49,2504332.0,36151946.0,944510000.0,6672162840.0
sh605368,蓝天燃气,2021-12-31,14.41,14.53,14.38,14.45,14.42,1958428.0,28307879.0,946475000.0,6686043900.0
sh605368,蓝天燃气,2022-01-04,14.46,14.69,14.37,14.68,14.45,3418416.0,49891171.0,961540000.0,6792465360.0
sh605368,蓝天燃气,2022-01-05,14.7,14.71,14.36,14.46,14.68,2643800.0,38271828.0,947130000.0,6690670919.999999
sh605368,蓝天燃气,2022-01-06,14.45,14.69,14.42,14.65,14.46,2666671.0,38946904.0,959575000.0,6778584300.000001
sh605368,蓝天燃气,2022-01-07,14.63,14.88,14.48,14.7,14.65,4459182.0,65513810.0,962850000.0,6801719399.999999
sh605368,蓝天燃气,2022-01-10,14.74,14.76,14.4,14.68,14.7,3103848.0,45211398.0,961540000.0,6792465360.0
sh605368,蓝天燃气,2022-01-11,14.64,14.73,14.51,14.53,14.68,2026632.0,29541177.0,951715000.0,6723060060.000001
sh605368,蓝天燃气,2022-01-12,14.59,14.61,14.5,14.54,14.53,2181842.0,31717938.0,952370000.0,6727687080.0
sh605368,蓝天燃气,2022-01-13,14.58,14.82,14.54,14.65,14.54,3602837.0,52821811.0,959575000.0,6778584300.000001
sh605368,蓝天燃气,2022-01-14,14.61,14.62,14.08,14.09,14.65,4322030.0,61628971.0,922895000.0,6519471180.0
