数据由邢不行整理
股票代码,股票名称,交易日期,开盘价,最高价,最低价,收盘价,前收盘价,成交量,成交额,流通市值,总市值
sh688037,N芯源微,2019-12-16,53.0,65.7,50.0,64.5,26.97,14913226.0,798596014.0,1140601552.5,5418000000.0
sh688037,芯源微,2019-12-17,59.81,59.99,55.0,59.0,64.5,11924387.0,688081955.0,1043340955.0,4956000000.0
sh688037,芯源微,2019-12-18,59.06,82.0,59.06,73.15,59.0,13054459.0,907729874.0,1293565946.75,6144600000.0
sh688037,芯源微,2019-12-19,68.88,78.58,66.6,75.6,73.15,8459687.0,615376217.0,1336891122.0,6350400000.0
sh688037,芯源微,2019-12-20,73.15,77.0,69.6,69.62,75.6,5890970.0,429429024.0,1231142326.9,5848080000.0
sh688037,芯源微,2019-12-23,67.07,69.5,63.0,68.0,69.62,4992091.0,328546402.0,1202494660.0,5712000000.0
sh688037,芯源微,2019-12-24,67.69,68.96,65.5,68.0,68.0,3453644.0,233106296.0,1202494660.0,5712000000.0
sh688037,芯源微,2019-12-25,67.23,81.6,66.66,80.0,68.0,8118991.0,592524765.0,1414699600.0,6720000000.0
sh688037,芯源微,2019-12-26,76.98,80.86,75.1,78.71,80.0,5971052.0,464385476.0,1391887568.95,6611640000.0
sh688037,芯源微,2019-12-27,78.2,86.0,76.2,79.62,78.71,6157219.0,495969995.0,1407979776.9,6688080000.0
sh688037,芯源微,2019-12-30,77.51,78.89,71.0,77.51,79.62,4717737.0,355731996.0,1370667074.95,6510840000.0
sh688037,芯源微,2019-12-31,76.8,77.97,72.66,73.29,77.51,3299565.0,247970006.0,1296041671.05,6156360000.0
sh688037,芯源微,2020-01-02,73.0,78.0,72.34,76.18,73.29,3350733.0,252814680.0,1347147694.1,6399120000.0
sh688037,芯源微,2020-01-03,76.0,78.66,74.06,75.7,76.18,3645930.0,278794624.0,1338659496.5,6358800000.0
sh688037,芯源微,2020-01-06,73.0,74.45,71.1,72.49,75.7,3044160.0,221901099.0,1281894675.05,6089160000.0
sh688037,芯源微,2020-01-07,72.48,76.48,71.01,75.4,72.49,3824493.0,281788080.0,1333354373.0,6333600000.0
sh688037,芯源微,2020-01-08,74.51,77.77,72.09,75.5,75.4,4340489.0,325317932.0,1335122747.5,6342000000.0
sh688037,芯源微,2020-01-09,75.5,83.7,75.23,77.55,75.5,4556842.0,361168585.0,1371374424.75,6514200000.0
sh688037,芯源微,2020-01-10,78.08,81.44,76.91,78.1,77.55,3086475.0,244094740.0,1381100484.5,6560400000.0
sh688037,芯源微,2020-01-13,78.22,82.3,74.0,81.52,78.1,4175735.0,330934672.0,1441578892.4,6847680000.0
sh688037,芯源微,2020-01-14,80.6,83.35,78.8,79.16,81.52,4198825.0,338924319.0,1399845254.2,6649440000.0
sh688037,芯源微,2020-01-15,77.65,80.29,76.66,78.33,79.16,2602975.0,204023245.0,1385167745.85,6579720000.0
sh688037,芯源微,2020-01-16,78.79,94.0,78.79,94.0,78.33,7259892.0,642634538.0,1662272030.0,7896000000.0
sh688037,芯源微,2020-01-17,92.0,109.8,89.0,102.8,94.0,6919337.0,667301241.0,1817888986.0,8635200000.0
sh688037,芯源微,2020-01-20,98.13,108.78,93.38,99.97,102.8,4992688.0,500884773.0,1767843987.65,8397480000.0
sh688037,芯源微,2020-01-21,95.15,104.55,95.1,98.98,99.97,3508109.0,352295617.0,1750337080.1,8314320000.0
sh688037,芯源微,2020-01-22,96.8,118.78,96.8,118.78,98.98,6074595.0,671849665.0,2100475231.1,9977520000.0
sh688037,芯源微,2020-01-23,116.0,138.0,114.05,127.5,118.78,6385191.0,803685147.0,2254677487.5,10710000000.0
sh688037,芯源微,2020-02-03,103.01,129.99,103.01,118.5,127.5,5142092.0,601304057.0,2095523782.5,9954000000.0
sh688037,芯源微,2020-02-04,126.23,142.2,126.23,142.2,118.5,4237475.0,578781537.0,2514628539.0,11944800000.0
sh688037,芯源微,2020-02-05,149.96,168.0,143.0,148.2,142.2,5630746.0,869280920.0,2620731009.0,12448800000.0
sh688037,芯源微,2020-02-06,146.0,163.17,142.05,154.9,148.2,4493935.0,690739223.0,2739212100.5,13011600000.0
sh688037,芯源微,2020-02-07,152.02,163.88,142.65,159.56,154.9,5085372.0,775170998.0,2821618352.2,13403040000.0
sh688037,芯源微,2020-02-10,154.88,165.0,142.23,144.78,159.56,4363453.0,666298644.0,2560252601.1,12161520000.0
sh688037,芯源微,2020-02-11,140.52,149.88,139.19,144.71,144.78,3146708.0,455967947.0,2559014738.95,12155640000.0
sh688037,芯源微,2020-02-12,143.01,166.66,139.56,159.3,144.71,4894855.0,737686208.0,2817020578.5,13381200000.0
sh688037,芯源微,2020-02-13,158.87,167.84,150.88,151.0,159.3,4356837.0,691249201.0,2670245495.0,12684000000.0
sh688037,芯源微,2020-02-14,151.06,157.99,139.0,143.91,151.0,3932563.0,583796869.0,2544867742.95,12088440000.0
sh688037,芯源微,2020-02-17,144.5,147.86,139.33,144.7,143.91,2800528.0,400072338.0,2558837901.5,12154800000.0
sh688037,芯源微,2020-02-18,144.0,152.52,142.09,149.47,144.7,3625984.0,539891451.0,2643189365.15,12555480000.0
sh688037,芯源微,2020-02-19,147.88,148.81,136.01,137.38,149.47,3817363.0,542345437.0,2429392888.1,11539920000.0
sh688037,芯源微,2020-02-20,136.15,138.8,118.5,124.31,137.38,4782918.0,607024567.0,2198266340.95,10442040000.0
sh688037,芯源微,2020-02-21,121.84,128.5,120.53,124.56,124.31,3310161.0,415524589.0,2202687277.2,10463040000.0
sh688037,芯源微,2020-02-24,121.0,134.99,116.88,131.93,124.56,4575946.0,570113958.0,2333016477.85,11082120000.0
sh688037,芯源微,2020-02-25,125.8,138.5,125.0,134.1,131.93,4471870.0,594453723.0,2371390204.5,11264400000.0
sh688037,芯源微,2020-02-26,131.0,134.78,115.61,116.0,134.1,3568732.0,444864705.0,2051314420.0,9744000000.0
sh688037,芯源微,2020-02-27,115.64,122.64,114.55,116.03,116.0,2361766.0,279349508.0,2051844932.35,9746520000.0
sh688037,芯源微,2020-02-28,108.34,111.98,103.22,105.4,116.03,2774871.0,299027640.0,1863866723.0,8853600000.0
sh688037,芯源微,2020-03-02,109.06,110.5,105.0,108.5,105.4,2046698.0,221647541.0,1918686332.5,9114000000.0
sh688037,芯源微,2020-03-03,111.59,121.02,110.05,113.83,108.5,3187550.0,367632601.0,2012940693.35,9561720000.0
sh688037,芯源微,2020-03-04,111.64,113.8,103.59,108.18,113.83,2281249.0,246848423.0,1913027534.1,9087120000.0
sh688037,芯源微,2020-03-05,110.8,113.37,106.03,111.52,108.18,2133647.0,235117603.0,1972091242.4,9367680000.0
sh688037,芯源微,2020-03-06,108.31,109.3,103.84,105.43,111.52,2342943.0,248942399.0,1864397235.35,8856120000.0
sh688037,芯源微,2020-03-09,100.94,102.02,91.5,91.83,105.43,3217761.0,310416986.0,1623898303.35,7713720000.0
sh688037,芯源微,2020-03-10,92.15,110.2,92.15,110.2,91.83,5508358.0,563828286.0,1948748699.0,9256800000.0
sh688037,芯源微,2020-03-11,110.4,119.68,107.81,112.6,110.2,6038105.0,688393003.0,1991189687.0,9458400000.0
sh688037,芯源微,2020-03-12,105.36,120.98,101.0,112.5,112.6,5320126.0,603871845.0,1989421312.5,9450000000.0
sh688037,芯源微,2020-03-13,107.09,135.0,107.09,131.85,112.5,7771222.0,973511549.0,2331601778.25,11075400000.0
sh688037,芯源微,2020-03-16,131.0,136.98,124.01,128.99,131.85,6268454.0,816028812.0,2281026267.55,10835160000.0
sh688037,芯源微,2020-03-17,135.93,142.05,131.72,136.1,128.99,7075071.0,975640891.0,2406757694.5,11432400000.0
sh688037,芯源微,2020-03-18,138.5,138.5,125.85,126.11,136.1,5678871.0,750445499.0,2230097081.95,10593240000.0
sh688037,芯源微,2020-03-19,125.3,131.55,118.0,129.54,126.11,4530398.0,571671942.0,2290752327.3,10881360000.0
sh688037,芯源微,2020-03-20,129.69,130.89,115.2,115.2,129.54,4429484.0,548029269.0,2037167424.0,9676800000.0
sh688037,芯源微,2020-03-23,108.0,109.8,99.07,102.3,115.2,4709750.0,490241889.0,1809047113.5,8593200000.0
sh688037,芯源微,2020-03-24,106.1,116.7,102.55,116.7,102.3,5446348.0,589225412.0,2063693041.5,9802800000.0
sh688037,芯源微,2020-03-25,121.0,129.9,116.6,118.6,116.7,5748048.0,708702307.0,2097292157.0,9962400000.0
sh688037,芯源微,2020-03-26,114.98,127.55,114.3,124.13,118.6,4413488.0,541922512.0,2195083266.85,10426920000.0
sh688037,芯源微,2020-03-27,126.5,128.8,115.6,117.26,124.13,3840147.0,464278049.0,2073595938.7,9849840000.0
sh688037,芯源微,2020-03-30,112.0,124.88,106.0,121.82,117.26,5014960.0,594757926.0,2154233815.9,10232880000.0
sh688037,芯源微,2020-03-31,124.12,128.7,117.28,121.0,121.82,4172562.0,513973275.0,2139733145.0,10164000000.0
sh688037,芯源微,2020-04-01,119.6,127.32,119.6,122.6,121.0,4097869.0,508157074.0,2168027137.0,10298400000.0
sh688037,芯源微,2020-04-02,122.79,142.79,118.1,136.41,122.6,6043383.0,768137523.0,2412239655.45,11458440000.0
sh688037,芯源微,2020-04-03,131.61,137.84,129.15,131.0,136.41,4572622.0,608519041.0,2316570595.0,11004000000.0
sh688037,芯源微,2020-04-07,137.09,138.28,129.5,130.83,131.0,4213623.0,563678942.0,2313564358.35,10989720000.0
sh688037,芯源微,2020-04-08,129.0,135.0,127.0,130.22,130.83,3596212.0,471381628.0,2302777273.9,10938480000.0
sh688037,芯源微,2020-04-09,130.86,131.45,122.81,123.1,130.22,3866104.0,484928550.0,2176869009.5,10340400000.0
sh688037,芯源微,2020-04-10,123.1,125.88,113.18,115.7,123.1,3831710.0,454880155.0,2046009296.5,9718800000.0
sh688037,芯源微,2020-04-13,113.5,121.0,111.99,117.65,115.7,2509841.0,294772375.0,2080492599.25,9882600000.0
sh688037,芯源微,2020-04-14,118.98,122.5,117.47,121.86,117.65,2874684.0,346419722.0,2154941165.7,10236240000.0
sh688037,芯源微,2020-04-15,120.6,126.85,119.7,120.98,121.86,3298468.0,405959105.0,2139379470.1,10162320000.0
sh688037,芯源微,2020-04-16,117.0,123.3,116.2,118.74,120.98,2746019.0,327197569.0,2099767881.3,9974160000.0
sh688037,芯源微,2020-04-17,120.5,127.68,118.8,121.42,118.74,4171099.0,514010200.0,2147160317.9,10199280000.0
sh688037,芯源微,2020-04-20,120.11,122.52,116.57,118.58,121.42,2702111.0,320360507.0,2096938482.1,9960720000.0
sh688037,芯源微,2020-04-21,117.11,118.11,111.11,113.1,118.58,2853899.0,325069354.0,2000031559.5,9500400000.0
sh688037,芯源微,2020-04-22,111.5,118.58,111.0,116.93,113.1,2979467.0,346832730.0,2067760302.85,9822120000.0
sh688037,芯源微,2020-04-23,116.5,118.5,113.1,113.49,116.93,2538860.0,292421656.0,2006928220.05,9533160000.0
sh688037,芯源微,2020-04-24,113.52,118.6,112.52,115.45,113.49,2872089.0,333344836.0,2041588360.25,9697800000.0
sh688037,芯源微,2020-04-27,113.0,113.0,104.0,105.4,115.45,3106584.0,332852504.0,1974536723.0,8853600000.0
sh688037,芯源微,2020-04-28,102.98,106.88,92.11,102.7,105.4,2636579.0,267109146.0,1923955611.5,8626800000.0
sh688037,芯源微,2020-04-29,100.2,103.76,96.4,96.51,102.7,2080862.0,208234116.0,1807993729.95,8106840000.0
sh688037,芯源微,2020-04-30,97.19,109.19,97.19,105.96,96.51,3483649.0,360664115.0,1985027620.2,8900640000.0
sh688037,芯源微,2020-05-06,103.5,126.49,103.5,122.28,105.96,5465013.0,641735263.0,2290762338.6,10271520000.0
sh688037,芯源微,2020-05-07,121.03,124.79,117.22,117.36,122.28,3252979.0,389782196.0,2198592313.2,9858240000.0
sh688037,芯源微,2020-05-08,118.69,128.2,116.65,124.48,117.36,5061362.0,622162542.0,2331976577.6,10456320000.0
sh688037,芯源微,2020-05-11,123.2,131.0,121.0,124.5,124.48,3619041.0,452294545.0,2332351252.5,10458000000.0
sh688037,芯源微,2020-05-12,122.7,123.99,116.78,120.75,124.5,2859106.0,343390465.0,2262099708.75,10143000000.0
sh688037,芯源微,2020-05-13,122.0,126.75,121.28,122.2,120.75,2875530.0,356744477.0,2289263639.0,10264800000.0
sh688037,芯源微,2020-05-14,120.0,128.0,119.1,122.45,122.2,3745665.0,465947454.0,2293947075.25,10285800000.0
sh688037,芯源微,2020-05-15,125.0,142.0,124.1,134.5,122.45,7452840.0,992177902.0,2519688702.5,11298000000.0
sh688037,芯源微,2020-05-18,140.0,143.33,133.01,137.66,134.5,6602260.0,914560319.0,2578887336.7,11563440000.0
sh688037,芯源微,2020-05-19,136.33,159.01,134.96,153.2,137.66,7277784.0,1051450433.0,2870009734.0,12868800000.0
sh688037,芯源微,2020-05-20,150.0,154.19,137.74,139.77,153.2,6177407.0,897501690.0,2618415538.65,11740680000.0
sh688037,芯源微,2020-05-21,137.68,140.51,127.9,129.19,139.77,4475730.0,595838940.0,2420212516.55,10851960000.0
sh688037,芯源微,2020-05-22,128.03,133.6,123.3,131.33,129.19,3679311.0,476875877.0,2460302730.85,11031720000.0
sh688037,芯源微,2020-05-25,130.0,134.91,127.6,128.97,131.33,2645779.0,346884492.0,2416091092.65,10833480000.0
sh688037,芯源微,2020-05-26,130.5,134.43,129.5,132.9,128.97,3215763.0,425444729.0,2489714710.5,11163600000.0
sh688037,芯源微,2020-05-27,131.79,134.3,126.5,126.67,132.9,3302550.0,429503593.0,2373003479.15,10640280000.0
sh688037,芯源微,2020-05-28,126.0,128.4,117.67,120.99,126.67,3381065.0,411816143.0,2266595807.55,10163160000.0
sh688037,芯源微,2020-05-29,118.97,125.6,118.01,121.41,120.99,2769417.0,339725238.0,2274463980.45,10198440000.0
sh688037,芯源微,2020-06-01,123.65,131.45,122.5,129.96,121.41,3696081.0,471616901.0,2434637500.2,10916640000.0
sh688037,芯源微,2020-06-02,130.48,135.0,127.51,132.75,129.96,4246741.0,558582711.0,2486904648.75,11151000000.0
sh688037,芯源微,2020-06-03,132.8,135.99,128.64,128.8,132.75,3849334.0,508869090.0,2412906356.0,10819200000.0
sh688037,芯源微,2020-06-04,129.04,130.9,121.6,123.21,128.8,3099689.0,387538656.0,2308184721.45,10349640000.0
sh688037,芯源微,2020-06-05,123.21,126.9,122.6,124.73,123.21,1941692.0,242050028.0,2336660013.85,10477320000.0
sh688037,芯源微,2020-06-08,126.0,127.2,119.6,119.7,124.73,2353900.0,290783016.0,2242429276.5,10054800000.0
sh688037,芯源微,2020-06-09,118.8,119.0,115.62,117.6,119.7,2204964.0,258776874.0,2203088412.0,9878400000.0
sh688037,芯源微,2020-06-10,117.23,119.88,116.05,117.82,117.6,1685408.0,198823727.0,2207209835.9,9896880000.0
sh688037,芯源微,2020-06-11,119.0,127.47,118.6,123.0,117.82,3600997.0,447566257.0,2304250635.0,10332000000.0
sh688037,芯源微,2020-06-12,118.02,121.48,118.0,119.45,123.0,2187851.0,261253665.0,2237745840.25,10033800000.0
sh688037,芯源微,2020-06-15,117.87,118.98,111.01,111.97,119.45,2770448.0,316623900.0,2097617427.65,9405480000.0
sh688037,芯源微,2020-06-16,113.38,115.79,112.4,114.76,111.97,1896190.0,216317851.0,2240602930.0,9639840000.0
sh688037,芯源微,2020-06-17,114.09,115.85,111.5,113.52,114.76,1517481.0,171881716.0,2216392860.0,9535680000.0
sh688037,芯源微,2020-06-18,113.31,117.92,113.22,116.27,113.52,2367536.0,275481141.0,2270084547.5,9766680000.0
sh688037,芯源微,2020-06-19,116.82,119.88,113.38,116.6,116.27,2268310.0,264321141.0,2276527550.0,9794400000.0
sh688037,芯源微,2020-06-22,118.88,126.17,118.58,122.3,116.6,3535190.0,435667734.0,2387815775.0,10273200000.0
sh688037,芯源微,2020-06-23,125.6,125.89,120.0,121.4,122.3,2440016.0,299631353.0,2370243950.0,10197600000.0
sh688037,芯源微,2020-06-24,122.45,130.68,121.01,128.3,121.4,3950735.0,499579549.0,2504961275.0,10777200000.0
sh688037,芯源微,2020-06-29,126.66,127.89,122.57,127.8,128.3,2619701.0,327885256.0,2495199150.0,10735200000.0
sh688037,芯源微,2020-06-30,129.39,130.99,126.5,127.1,127.8,2681059.0,344269201.0,2481532175.0,10676400000.0
sh688037,芯源微,2020-07-01,128.89,130.0,123.5,126.05,127.1,3227161.0,409532302.0,2461031712.5,10588200000.0
sh688037,芯源微,2020-07-02,131.0,144.0,131.0,135.39,126.05,5770887.0,791888403.0,2643388207.5,11372760000.0
sh688037,芯源微,2020-07-03,131.0,132.8,127.01,129.54,135.39,4344881.0,564148042.0,2529171345.0,10881360000.0
sh688037,XD芯源微,2020-07-06,130.39,145.0,130.33,141.01,129.42,5665219.0,780855533.0,2753114492.5,11844840000.0
sh688037,芯源微,2020-07-07,141.1,151.99,138.0,138.0,141.01,5626181.0,815607345.0,2694346500.0,11592000000.0
sh688037,芯源微,2020-07-08,139.05,141.88,135.55,140.8,138.0,3425107.0,475479459.0,2749014400.0,11827200000.0
sh688037,芯源微,2020-07-09,140.34,150.85,138.4,145.03,140.8,4381015.0,632512850.0,2831601977.5,12182520000.0
sh688037,芯源微,2020-07-10,142.26,148.93,142.26,144.23,145.03,3795374.0,553532802.0,2815982577.5,12115320000.0
sh688037,芯源微,2020-07-13,144.21,149.96,144.0,149.79,144.23,3796305.0,560100092.0,2924537407.5,12582360000.0
sh688037,芯源微,2020-07-14,148.48,153.79,138.0,148.08,149.79,4717436.0,690977954.0,2891150940.0,12438720000.0
sh688037,芯源微,2020-07-15,151.8,152.88,135.65,136.93,148.08,3907825.0,558733708.0,2673455552.4999995,11502120000.0
sh688037,芯源微,2020-07-16,134.0,134.8,116.6,118.0,136.93,3660087.0,459220492.0,2303861500.0,9912000000.0
sh688037,芯源微,2020-07-17,118.24,120.95,113.5,113.91,118.0,1934908.0,226163339.0,2224007317.5,9568440000.0
sh688037,芯源微,2020-07-20,114.66,117.8,105.1,116.26,113.91,1863796.0,210953860.0,2269889305.0,9765840000.0
sh688037,芯源微,2020-07-21,116.28,120.48,114.41,117.14,116.26,1783483.0,210240476.0,2287070645.0,9839760000.0
sh688037,芯源微,2020-07-22,117.2,119.36,115.22,116.6,117.14,1609269.0,189839710.0,2276527550.0,9794400000.0
sh688037,芯源微,2020-07-23,114.8,119.5,114.5,116.62,116.6,1662609.0,194147024.0,2276918035.0,9796080000.0
sh688037,芯源微,2020-07-24,115.98,115.98,104.97,105.02,116.62,2202264.0,240929787.0,2050436735.0,8821680000.0
sh688037,芯源微,2020-07-27,105.45,108.17,101.88,102.99,105.02,1270476.0,133157144.0,2010802507.5,8651160000.0
sh688037,芯源微,2020-07-28,104.46,106.9,104.04,105.78,102.99,1011549.0,106494125.0,2065275165.0,8885520000.0
sh688037,芯源微,2020-07-29,105.82,112.8,105.22,112.51,105.78,1557011.0,170868791.0,2196673367.5,9450840000.0
sh688037,芯源微,2020-07-30,111.9,115.88,111.11,112.2,112.51,1478058.0,166749774.0,2190620850.0,9424800000.0
sh688037,芯源微,2020-07-31,111.12,115.45,111.12,114.41,112.2,1653972.0,188341032.0,2233769442.5,9610440000.0
sh688037,芯源微,2020-08-03,116.5,122.5,116.3,118.96,114.41,2156888.0,258201520.0,2322604780.0,9992640000.0
sh688037,芯源微,2020-08-04,118.26,118.91,113.88,114.99,118.96,1641144.0,189974993.0,2245093507.5,9659160000.0
sh688037,芯源微,2020-08-05,121.1,122.0,116.68,117.7,114.99,1699832.0,202434063.0,2298004225.0,9886800000.0
sh688037,芯源微,2020-08-06,115.55,117.8,113.51,115.27,117.7,1363370.0,156864035.0,2250560297.5,9682680000.0
sh688037,芯源微,2020-08-07,115.76,115.96,107.53,108.6,115.27,1606737.0,177980563.0,2120333550.0,9122400000.0
sh688037,芯源微,2020-08-10,108.61,112.5,108.61,112.36,108.6,1289988.0,142907269.0,2193744730.0,9438240000.0
sh688037,芯源微,2020-08-11,117.99,134.0,114.9,128.07,112.36,6073167.0,761155509.0,2500470697.5,10757880000.0
sh688037,芯源微,2020-08-12,132.9,144.7,127.53,144.7,128.07,6907474.0,934357708.0,2825158975.0,12154800000.0
sh688037,芯源微,2020-08-13,144.6,144.7,129.6,130.0,144.7,5127962.0,702159462.0,2538152500.0,10920000000.0
sh688037,芯源微,2020-08-14,128.11,134.93,124.15,128.95,130.0,3455203.0,447658462.0,2517652037.5,10831800000.0
sh688037,芯源微,2020-08-17,129.98,129.98,122.88,126.9,128.95,3183681.0,400265378.0,2477627325.0,10659600000.0
sh688037,芯源微,2020-08-18,125.8,128.95,121.36,122.74,126.9,2866347.0,356293760.0,2396406445.0,10310160000.0
sh688037,芯源微,2020-08-19,122.03,122.8,114.2,114.8,122.74,2357693.0,278134228.0,2241383900.0,9643200000.0
sh688037,芯源微,2020-08-20,112.5,120.8,112.48,116.95,114.8,2356490.0,277943554.0,2283361037.5,9823800000.0
sh688037,芯源微,2020-08-21,117.83,120.11,112.22,113.5,116.95,1843571.0,213397997.0,2216002375.0,9534000000.0
sh688037,芯源微,2020-08-24,114.38,122.4,110.6,120.5,113.5,2547481.0,298970317.0,2352672125.0,10122000000.0
sh688037,芯源微,2020-08-25,120.76,122.89,116.0,117.35,120.5,1768729.0,209643389.0,2291170737.5,9857400000.0
sh688037,芯源微,2020-08-26,116.66,117.5,110.62,111.85,117.35,1894861.0,214037116.0,2183787362.5,9395400000.0
sh688037,芯源微,2020-08-27,112.48,121.98,111.13,117.79,111.85,2718714.0,317422020.0,2263423192.5,9894360000.0
sh688037,芯源微,2020-08-28,117.8,117.8,112.74,114.7,117.79,1738131.0,198813583.0,2204046525.0,9634800000.0
sh688037,芯源微,2020-08-31,114.5,119.0,114.41,114.5,114.7,1452930.0,169046979.0,2200203375.0,9618000000.0
sh688037,芯源微,2020-09-01,114.5,114.7,111.68,113.18,114.5,1102600.0,124459241.0,2174838585.0,9507120000.0
sh688037,芯源微,2020-09-02,113.25,115.44,112.03,114.68,113.18,1139319.0,129603412.0,2203662210.0,9633120000.0
sh688037,芯源微,2020-09-03,113.98,115.9,111.7,114.7,114.68,1205829.0,137449739.0,2204046525.0,9634800000.0
sh688037,芯源微,2020-09-04,112.65,120.97,112.65,116.79,114.7,1889223.0,222540602.0,2244207442.5,9810360000.0
sh688037,芯源微,2020-09-07,119.49,119.49,111.33,112.49,116.79,1772366.0,203838460.0,2161579717.5,9449160000.0
sh688037,芯源微,2020-09-08,111.99,112.18,107.1,108.7,112.49,1440575.0,156879331.0,2088752025.0,9130800000.0
sh688037,芯源微,2020-09-09,108.7,110.98,102.37,107.24,108.7,1448236.0,154556374.0,2060697030.0,9008160000.0
sh688037,芯源微,2020-09-10,108.3,112.8,106.88,107.04,107.24,1190851.0,130932815.0,2056853880.0,8991360000.0
sh688037,芯源微,2020-09-11,108.0,109.8,105.57,108.5,107.04,881506.0,95162575.0,2084908875.0,9114000000.0
sh688037,芯源微,2020-09-14,108.7,112.8,107.38,108.55,108.5,1289572.0,141970943.0,2085869662.5,9118200000.0
sh688037,芯源微,2020-09-15,109.6,118.1,106.33,113.99,108.55,2137477.0,241853763.0,2190403342.5,9575160000.0
sh688037,芯源微,2020-09-16,112.6,114.89,109.7,110.35,113.99,1326495.0,148365256.0,2120458012.5,9269400000.0
sh688037,芯源微,2020-09-17,110.88,115.97,109.93,114.69,110.35,1716053.0,195424480.0,2203854367.5,9633960000.0
sh688037,芯源微,2020-09-18,114.43,115.8,112.6,114.96,114.69,1123625.0,128377799.0,2209042620.0,9656640000.0
sh688037,芯源微,2020-09-21,117.72,117.72,111.78,112.68,114.96,937523.0,106740504.0,2165230710.0,9465120000.0
sh688037,芯源微,2020-09-22,110.3,112.94,109.13,109.92,112.68,781904.0,86711334.0,2112195240.0,9233280000.0
sh688037,芯源微,2020-09-23,110.47,114.83,109.64,112.98,109.92,1045094.0,117414796.0,2170995435.0,9490320000.0
sh688037,芯源微,2020-09-24,112.0,113.99,109.8,109.81,112.98,743042.0,82882318.0,2110081507.5,9224040000.0
sh688037,芯源微,2020-09-25,110.83,111.05,106.66,106.97,109.81,759686.0,82142952.0,2055508777.5,8985480000.0
sh688037,芯源微,2020-09-28,107.99,107.99,104.08,104.21,106.97,680178.0,71705668.0,2002473307.5,8753640000.0
sh688037,芯源微,2020-09-29,105.8,108.46,105.0,106.06,104.21,685772.0,73398408.0,2038022445.0,8909040000.0
sh688037,芯源微,2020-09-30,106.44,110.45,106.44,107.16,106.06,851819.0,92047944.0,2059159770.0,9001440000.0
sh688037,芯源微,2020-10-09,108.52,111.05,108.52,109.55,107.16,680256.0,74539117.0,2105085412.5,9202200000.0
sh688037,芯源微,2020-10-12,109.55,114.66,108.11,113.48,109.55,1107161.0,124717795.0,2180603310.0,9532320000.0
sh688037,芯源微,2020-10-13,112.5,114.9,111.75,112.66,113.48,775845.0,87518485.0,2164846395.0,9463440000.0
sh688037,芯源微,2020-10-14,112.0,112.0,107.37,108.16,112.66,988856.0,107749701.0,2078375520.0,9085440000.0
sh688037,芯源微,2020-10-15,108.12,112.49,106.0,106.15,108.16,1045341.0,113543203.0,2039751862.5,8916600000.0
sh688037,芯源微,2020-10-16,106.72,108.0,104.85,105.19,106.15,709759.0,74991800.0,2021304742.5,8835960000.0
sh688037,芯源微,2020-10-19,106.19,107.82,105.4,106.52,105.19,592186.0,63026043.0,2046861690.0,8947680000.0
sh688037,芯源微,2020-10-20,106.51,106.52,102.4,105.0,106.52,903796.0,93857872.0,2017653750.0,8820000000.0
sh688037,芯源微,2020-10-21,104.23,105.35,99.57,99.98,105.0,1332018.0,134966020.0,1921190685.0,8398320000.0
sh688037,芯源微,2020-10-22,99.98,99.98,97.0,98.34,99.98,588280.0,58080965.0,1889676855.0,8260560000.0
sh688037,芯源微,2020-10-23,99.4,100.86,94.0,94.12,98.34,930935.0,89759684.0,1808586390.0,7906080000.0
sh688037,芯源微,2020-10-26,94.1,95.77,92.25,94.51,94.12,589241.0,55468088.0,1816080532.5,7938840000.0
sh688037,芯源微,2020-10-27,94.0,95.33,93.1,94.01,94.51,548807.0,51643649.0,1806472657.5,7896840000.0
sh688037,芯源微,2020-10-28,94.0,95.06,93.02,94.51,94.01,543312.0,51185336.0,1816080532.5,7938840000.0
sh688037,芯源微,2020-10-29,99.99,103.28,99.01,100.0,94.51,1705299.0,171824774.0,1921575000.0,8400000000.0
sh688037,芯源微,2020-10-30,102.55,115.0,100.38,107.18,100.0,2876901.0,308091706.0,2059544085.0,9003120000.0
sh688037,芯源微,2020-11-02,107.35,110.95,104.0,108.02,107.18,1946966.0,209000167.0,2075685315.0,9073680000.0
sh688037,芯源微,2020-11-03,108.44,112.0,106.0,108.95,108.02,1592865.0,174713751.0,2093555962.5,9151800000.0
sh688037,芯源微,2020-11-04,108.95,110.0,106.11,106.18,108.95,1102484.0,118555407.0,2040328335.0,8919120000.0
sh688037,芯源微,2020-11-05,107.68,109.4,106.03,108.5,106.18,1132868.0,122167428.0,2084908875.0,9114000000.0
sh688037,芯源微,2020-11-06,107.46,108.88,105.26,106.01,108.5,1032267.0,110135308.0,2037061657.5,8904840000.0
sh688037,芯源微,2020-11-09,106.77,117.8,106.76,115.5,106.01,3277958.0,374272447.0,2219419125.0,9702000000.0
sh688037,芯源微,2020-11-10,113.72,114.97,111.4,111.65,115.5,1679932.0,189659802.0,2145438487.5,9378600000.0
sh688037,芯源微,2020-11-11,113.0,113.0,103.2,103.48,111.65,1565749.0,166691854.0,1988445810.0,8692320000.0
sh688037,芯源微,2020-11-12,105.3,105.8,101.18,101.85,103.48,1041007.0,106994800.0,1957124137.5,8555400000.0
sh688037,芯源微,2020-11-13,101.01,104.49,101.01,103.07,101.85,666472.0,68680351.0,1980567352.5,8657880000.0
sh688037,芯源微,2020-11-16,103.0,104.2,101.42,102.21,103.07,584746.0,59757314.0,1964041807.5,8585640000.0
sh688037,芯源微,2020-11-17,102.52,104.36,98.5,103.7,102.21,1168515.0,118134061.0,1992673275.0,8710800000.0
sh688037,芯源微,2020-11-18,103.0,104.88,102.0,102.77,103.7,787109.0,81278530.0,1974802627.5,8632680000.0
sh688037,芯源微,2020-11-19,103.6,104.5,100.24,102.83,102.77,722640.0,74515976.0,1975955572.5,8637720000.0
sh688037,芯源微,2020-11-20,102.39,103.78,102.0,102.96,102.83,545584.0,56063262.0,1978453620.0,8648640000.0
sh688037,芯源微,2020-11-23,102.44,103.44,100.5,101.2,102.96,608006.0,61992847.0,1944633900.0,8500800000.0
sh688037,芯源微,2020-11-24,101.2,103.67,100.68,101.2,101.2,671565.0,68550335.0,1944633900.0,8500800000.0
sh688037,芯源微,2020-11-25,101.2,102.96,99.3,100.48,101.2,687875.0,69615913.0,1930798560.0,8440320000.0
sh688037,芯源微,2020-11-26,100.1,101.22,98.5,98.61,100.48,629066.0,62509701.0,1894865107.5,8283240000.0
sh688037,芯源微,2020-11-27,98.8,100.47,97.32,98.4,98.61,523613.0,51715307.0,1890829800.0,8265600000.0
sh688037,芯源微,2020-11-30,99.7,101.58,97.0,99.5,98.4,702086.0,69962318.0,1911967125.0,8358000000.0
sh688037,芯源微,2020-12-01,99.03,101.2,98.77,101.06,99.5,660085.0,66098252.0,1941943695.0,8489040000.0
sh688037,芯源微,2020-12-02,102.0,103.8,100.5,102.04,101.06,798300.0,81413245.0,1960775130.0,8571360000.0
sh688037,芯源微,2020-12-03,100.75,103.3,99.8,99.91,102.04,883935.0,89073682.0,1919845582.5,8392440000.0
sh688037,芯源微,2020-12-04,99.5,100.3,98.1,98.26,99.91,599663.0,59184011.0,1888139595.0,8253840000.0
sh688037,芯源微,2020-12-07,98.93,100.97,98.4,99.0,98.26,732734.0,72886762.0,1902359250.0,8316000000.0
sh688037,芯源微,2020-12-08,99.0,99.0,95.88,96.2,99.0,858670.0,83238498.0,1848555150.0,8080800000.0
sh688037,芯源微,2020-12-09,96.04,96.54,92.7,93.62,96.2,770050.0,72796974.0,1798978515.0,7864080000.0
sh688037,芯源微,2020-12-10,93.63,96.03,93.63,95.09,93.62,605578.0,57591708.0,1827225667.5,7987560000.0
sh688037,芯源微,2020-12-11,96.5,97.02,94.44,96.0,95.09,699251.0,66964076.0,1844712000.0,8064000000.0
sh688037,芯源微,2020-12-14,96.86,96.87,93.39,94.2,96.0,678216.0,63972999.0,1810123650.0,7912800000.0
sh688037,芯源微,2020-12-15,95.26,97.39,94.77,96.2,94.2,1052726.0,101238314.0,1848555150.0,8080800000.0
sh688037,芯源微,2020-12-16,94.79,94.86,89.8,90.7,96.2,1509490.0,137829583.0,4022204875.0,7618800000.0
sh688037,芯源微,2020-12-17,89.0,89.0,84.41,86.79,90.7,1555455.0,134277138.0,3848811037.5,7290360000.0
sh688037,芯源微,2020-12-18,87.5,91.99,87.33,88.61,86.79,1407943.0,126353044.0,3929521212.500001,7443240000.0
sh688037,芯源微,2020-12-21,88.61,93.67,88.61,91.49,88.61,1176369.0,107954370.0,4057238412.5,7685160000.0
sh688037,芯源微,2020-12-22,91.47,91.84,88.5,89.08,91.49,759659.0,68141518.0,3950363950.0,7482720000.0
sh688037,芯源微,2020-12-23,87.71,89.29,86.71,87.3,89.08,870873.0,76473099.0,3871427625.0,7333200000.0
sh688037,芯源微,2020-12-24,87.3,87.98,84.6,85.44,87.3,699142.0,59849866.0,3788943600.0,7176960000.0
sh688037,芯源微,2020-12-25,85.44,85.44,81.98,82.8,85.44,896010.0,74277958.0,3671869500.0,6955200000.0
sh688037,芯源微,2020-12-28,82.57,87.0,82.0,86.0,82.8,1358082.0,115822132.0,3813777500.0,7224000000.0
sh688037,芯源微,2020-12-29,86.0,89.55,84.61,88.1,86.0,1164212.0,101885635.0,3906904625.0,7400400000.0
sh688037,芯源微,2020-12-30,87.9,96.5,87.07,94.9,88.1,2288833.0,215645553.0,4208459125.0,7971600000.0
sh688037,芯源微,2020-12-31,95.1,109.1,95.1,103.05,94.9,2861688.0,295083363.0,4569881062.5,8656200000.0
sh688037,芯源微,2021-01-04,108.0,108.58,103.0,107.05,103.05,3043891.0,325455872.0,4747266062.5,8992200000.0
sh688037,芯源微,2021-01-05,107.05,108.66,104.01,105.14,107.05,2147559.0,226839735.0,4662564725.0,8831760000.0
sh688037,芯源微,2021-01-06,104.11,106.58,101.9,103.31,105.14,1183542.0,122962834.0,4581411087.5,8678040000.0
sh688037,芯源微,2021-01-07,102.39,102.45,91.51,94.21,103.31,2521387.0,241690004.0,4177860212.5,7913640000.0
sh688037,芯源微,2021-01-08,95.68,96.5,91.57,93.5,94.21,1472791.0,137703690.0,4146374375.0,7854000000.0
sh688037,芯源微,2021-01-11,94.94,98.5,92.9,96.24,93.5,1759469.0,170180439.0,4267883100.0,8084160000.0
sh688037,芯源微,2021-01-12,95.12,97.6,93.51,96.61,96.24,1425040.0,137011290.0,4284291212.500001,8115240000.0
sh688037,芯源微,2021-01-13,96.59,97.29,90.3,93.5,96.61,1505900.0,140511076.0,4146374375.0,7854000000.0
sh688037,芯源微,2021-01-14,93.9,108.8,93.4,107.56,93.5,3291113.0,339447499.0,4769882650.0,9035040000.0
sh688037,芯源微,2021-01-15,113.8,115.0,105.88,106.5,107.56,3369759.0,372284263.0,4722875625.0,8946000000.0
sh688037,芯源微,2021-01-18,101.11,112.18,101.11,109.31,106.5,3246052.0,346096886.0,4847488587.5,9182040000.0
sh688037,芯源微,2021-01-19,111.3,111.5,103.2,103.5,109.31,2092051.0,224808543.0,4589836875.0,8694000000.0
sh688037,芯源微,2021-01-20,106.0,108.91,103.88,106.0,103.5,1923838.0,205887532.0,4700702500.0,8904000000.0
sh688037,芯源微,2021-01-21,108.0,109.42,103.55,104.73,106.0,1338753.0,141956588.0,4644382762.5,8797320000.0
sh688037,芯源微,2021-01-22,104.0,105.99,98.47,102.96,104.73,1494809.0,151910715.0,4565889900.0,8648640000.0
sh688037,芯源微,2021-01-25,102.11,105.0,98.68,102.5,102.96,1295274.0,132331069.0,4545490625.0,8610000000.0
sh688037,芯源微,2021-01-26,101.98,107.9,99.8,104.5,102.5,1924241.0,200338415.0,4634183125.0,8778000000.0
sh688037,芯源微,2021-01-27,106.0,106.0,101.18,102.6,104.5,1028054.0,105335970.0,4549925250.0,8618400000.0
sh688037,芯源微,2021-01-28,101.3,104.1,100.0,100.49,102.6,978291.0,99800598.0,4456354662.5,8441160000.0
sh688037,芯源微,2021-01-29,101.47,102.36,98.06,102.36,100.49,971593.0,97589727.0,4539282150.0,8598240000.0
sh688037,芯源微,2021-02-01,102.0,106.3,100.45,104.4,102.36,1035778.0,107955868.0,4629748500.0,8769600000.0
sh688037,芯源微,2021-02-02,106.11,106.11,101.11,105.97,104.4,1056178.0,109394085.0,4699372112.5,8901480000.0
sh688037,芯源微,2021-02-03,105.56,105.8,101.0,103.68,105.97,1068661.0,110119056.0,4597819200.0,8709120000.0
sh688037,芯源微,2021-02-04,103.1,104.5,95.02,97.84,103.68,1145549.0,113140560.0,4338837100.0,8218560000.0
sh688037,芯源微,2021-02-05,97.84,98.26,86.0,86.9,97.84,1533449.0,140067410.0,3853689125.0,7299600000.0
sh688037,芯源微,2021-02-08,88.5,94.55,87.99,92.18,86.9,972591.0,89355408.0,4087837325.0,7743120000.0
sh688037,芯源微,2021-02-09,93.56,95.44,91.26,94.5,92.18,682158.0,63936851.0,4190720625.0,7938000000.0
sh688037,芯源微,2021-02-10,94.5,96.31,92.52,92.62,94.5,492474.0,46434447.0,4107349675.000001,7780080000.0
sh688037,芯源微,2021-02-18,92.23,98.65,92.23,96.26,92.62,685544.0,66419979.0,4268770025.0,8085840000.0
sh688037,芯源微,2021-02-19,95.01,96.8,94.13,96.42,96.26,514388.0,49313542.0,4275865425.0,8099280000.0
sh688037,芯源微,2021-02-22,97.8,98.8,92.07,95.35,96.42,526729.0,50237890.0,4228414937.5,8009400000.0
sh688037,芯源微,2021-02-23,95.8,95.8,92.18,93.76,95.35,496980.0,46544633.0,4157904400.0,7875840000.0
sh688037,芯源微,2021-02-24,94.43,96.2,92.8,93.5,93.76,498234.0,47157908.0,4146374375.0,7854000000.0
sh688037,芯源微,2021-02-25,93.6,95.0,89.3,90.1,93.5,617273.0,56246282.0,3995597125.0,7568400000.0
sh688037,芯源微,2021-02-26,89.86,92.4,86.61,90.55,90.1,652785.0,58853310.0,4015552937.5,7606200000.0
sh688037,芯源微,2021-03-01,92.36,93.36,90.55,93.25,90.55,425396.0,39225377.0,4135287812.5,7833000000.0
sh688037,芯源微,2021-03-02,94.36,95.96,91.1,92.46,93.25,597221.0,56121390.0,4100254275.0,7766640000.0
sh688037,芯源微,2021-03-03,91.64,92.27,90.5,92.0,92.46,366477.0,33440530.0,4079855000.0,7728000000.0
sh688037,芯源微,2021-03-04,91.89,94.5,90.56,90.77,92.0,459413.0,42471846.0,4025309112.5,7624680000.0
sh688037,芯源微,2021-03-05,91.2,91.55,89.01,90.5,90.77,403750.0,36451981.0,4013335625.0,7602000000.0
sh688037,芯源微,2021-03-08,90.5,91.65,86.8,86.97,90.5,573216.0,50763211.0,3856793362.5,7305480000.0
sh688037,芯源微,2021-03-09,87.25,88.44,82.15,82.45,86.97,748961.0,63319439.0,3656348312.5,6925800000.0
sh688037,芯源微,2021-03-10,84.3,84.3,82.2,83.15,82.45,339099.0,28194910.0,3687390687.5,6984600000.0
sh688037,芯源微,2021-03-11,83.4,86.95,81.32,85.7,83.15,542686.0,45731007.0,3800473625.0,7198800000.0
sh688037,芯源微,2021-03-12,85.8,85.8,83.1,83.42,85.7,485640.0,40618434.0,3699364175.0,7007280000.0
sh688037,芯源微,2021-03-15,83.5,83.58,80.62,81.28,83.42,433489.0,35393623.0,3604463200.0,6827520000.0
sh688037,芯源微,2021-03-16,82.38,82.5,80.25,80.56,81.28,334791.0,27104589.0,3572533900.0,6767040000.0
sh688037,芯源微,2021-03-17,80.42,81.93,80.1,81.06,80.56,359139.0,29147725.0,3594707025.0,6809040000.0
sh688037,芯源微,2021-03-18,81.9,81.9,80.15,80.58,81.06,353839.0,28554628.0,3573420825.0,6768720000.0
sh688037,芯源微,2021-03-19,80.15,80.88,79.1,80.88,80.58,403958.0,32371231.0,3586724699.9999995,6793920000.0
sh688037,芯源微,2021-03-22,80.5,82.9,79.52,81.36,80.88,537609.0,43647429.0,3607148484.0,6834240000.0
sh688037,芯源微,2021-03-23,81.35,85.4,81.35,84.08,81.36,810114.0,68082667.0,3727741452.000001,7062720000.0
sh688037,芯源微,2021-03-24,83.02,83.89,80.1,80.2,84.08,517849.0,42199308.0,3555719130.0,6736800000.0
sh688037,芯源微,2021-03-25,80.19,81.27,79.59,79.77,80.2,325312.0,26079125.0,3536654800.5,6700680000.0
sh688037,芯源微,2021-03-26,79.5,82.55,78.79,81.31,79.77,383158.0,30955500.0,3604931701.5,6830040000.0
sh688037,芯源微,2021-03-29,81.32,82.1,79.82,79.86,81.31,357130.0,28866288.0,3540645009.0,6708240000.0
sh688037,芯源微,2021-03-30,79.99,80.0,78.88,78.99,79.86,383004.0,30330961.0,3502072993.5,6635160000.0
sh688037,芯源微,2021-03-31,78.91,79.24,75.5,76.65,78.99,689908.0,52820956.0,3398327572.5000005,6438600000.0
sh688037,芯源微,2021-04-01,76.64,79.8,76.55,78.87,76.65,617859.0,48530596.0,3496752715.5,6625080000.0
sh688037,芯源微,2021-04-02,79.64,82.65,79.56,82.12,78.87,880596.0,71872485.0,3640843578.0,6898080000.0
sh688037,芯源微,2021-04-06,83.5,84.8,81.82,82.21,82.12,1068064.0,88964321.0,3644833786.500001,6905640000.0
sh688037,芯源微,2021-04-07,84.28,85.57,81.8,84.38,82.21,990519.0,82828825.0,3741042147.0,7087920000.0
sh688037,芯源微,2021-04-08,83.35,84.3,81.92,82.87,84.38,699129.0,57987960.0,3674095315.5,6961080000.0
sh688037,芯源微,2021-04-09,82.43,84.29,81.22,81.93,82.87,448786.0,36976776.0,3632419804.5,6882120000.0
sh688037,芯源微,2021-04-12,81.92,82.51,80.1,80.39,81.93,318730.0,25888813.0,3564142903.5000005,6752760000.0
sh688037,芯源微,2021-04-13,78.9,80.88,78.36,79.4,80.39,247479.0,19719573.0,3520250610.0,6669600000.0
sh688037,芯源微,2021-04-14,79.53,80.55,78.74,80.19,79.4,301050.0,23955487.0,3555275773.5,6735960000.0
sh688037,芯源微,2021-04-15,79.21,80.8,77.81,80.18,80.19,381831.0,30184348.0,3554832417.0,6735120000.0
sh688037,芯源微,2021-04-16,80.39,81.0,79.0,79.81,80.18,253336.0,20194695.0,3538428226.5,6704040000.0
sh688037,芯源微,2021-04-19,79.81,84.49,79.81,84.22,79.81,841293.0,70032523.0,3733948443.0,7074480000.0
sh688037,芯源微,2021-04-20,83.83,84.47,82.08,82.23,84.22,541376.0,45105112.0,3645720499.5,6907320000.0
sh688037,芯源微,2021-04-21,82.9,83.6,81.2,81.59,82.23,262285.0,21441190.0,3617345683.5,6853560000.0
sh688037,芯源微,2021-04-22,81.6,83.69,80.5,82.72,81.59,420507.0,34733317.0,3667444968.0,6948480000.0
sh688037,芯源微,2021-04-23,82.42,83.47,81.26,82.87,82.72,352530.0,29062438.0,3674095315.5,6961080000.0
sh688037,芯源微,2021-04-26,83.37,86.47,83.1,86.1,82.87,1048967.0,89538038.0,3817299465.0,7232400000.0
sh688037,芯源微,2021-04-27,85.39,85.39,81.0,82.02,86.1,799749.0,66039906.0,3636410013.0,6889680000.0
sh688037,XD芯源微,2021-04-28,81.82,82.75,78.73,80.25,81.82,499968.0,39911496.0,3557935912.5,6741000000.0
sh688037,芯源微,2021-04-29,80.4,83.46,80.24,80.7,80.25,398424.0,32658867.0,3577886954.9999995,6778800000.0
sh688037,芯源微,2021-04-30,80.8,83.19,78.8,80.4,80.7,620221.0,50358500.0,3564586260.0,6753600000.0
sh688037,芯源微,2021-05-06,80.1,83.6,80.0,83.35,80.4,674016.0,55802531.0,3695376427.5,7001400000.0
sh688037,芯源微,2021-05-07,83.3,83.95,81.61,82.21,83.35,443387.0,36572638.0,3644833786.500001,6905640000.0
sh688037,芯源微,2021-05-10,81.51,83.49,79.88,80.78,82.21,327243.0,26579231.0,3581433807.0,6785520000.0
sh688037,芯源微,2021-05-11,80.4,81.38,78.0,79.44,80.78,435640.0,34513028.0,3522024036.0,6672960000.0
sh688037,芯源微,2021-05-12,82.3,82.3,80.1,81.45,79.44,383011.0,31049892.0,3611138692.5,6841800000.0
sh688037,芯源微,2021-05-13,80.8,83.83,80.0,82.0,81.45,452107.0,37215118.0,3635523300.0,6888000000.0
sh688037,芯源微,2021-05-14,82.0,83.84,81.05,83.35,82.0,530694.0,43838595.0,3695376427.5,7001400000.0
sh688037,芯源微,2021-05-17,82.85,85.43,82.85,85.0,83.35,885219.0,75067056.0,3768530250.0,7140000000.0
sh688037,芯源微,2021-05-18,84.82,84.82,83.2,84.07,85.0,588302.0,49323154.0,3727298095.5,7061880000.0
sh688037,芯源微,2021-05-19,84.08,88.88,83.99,87.3,84.07,1262881.0,109972161.0,3870502245.0,7333200000.0
sh688037,芯源微,2021-05-20,88.0,90.36,85.92,89.97,87.3,1226122.0,108787773.0,3988878430.500001,7557480000.0
sh688037,芯源微,2021-05-21,89.96,91.5,88.52,90.28,89.97,974180.0,88262796.0,4002622482.0,7583520000.0
sh688037,芯源微,2021-05-24,90.73,93.0,87.0,92.5,90.28,901032.0,81711174.0,4101047625.0,7770000000.0
sh688037,芯源微,2021-05-25,92.3,93.7,91.51,91.88,92.5,569637.0,52689637.0,4073559522.0,7717920000.0
sh688037,芯源微,2021-05-26,92.0,94.5,91.3,91.98,91.88,563699.0,52291517.0,4077993087.0,7726320000.0
sh688037,芯源微,2021-05-27,92.8,105.0,91.46,101.5,91.98,2181114.0,218369792.0,4500068475.0,8526000000.0
sh688037,芯源微,2021-05-28,100.37,104.49,99.31,100.84,101.5,1878863.0,192435824.0,4470806946.0,8470560000.0
sh688037,芯源微,2021-05-31,103.57,108.13,103.55,106.45,100.84,1506429.0,160720050.0,4719529942.5,8941800000.0
sh688037,芯源微,2021-06-01,106.48,112.94,103.66,109.5,106.45,1637912.0,179238484.0,4854753675.0,9198000000.0
sh688037,芯源微,2021-06-02,109.49,110.08,102.88,107.0,109.5,1853402.0,197990141.0,4743914550.0,8988000000.0
sh688037,芯源微,2021-06-03,105.8,107.95,103.71,104.19,107.0,784859.0,83073781.0,4619331373.5,8751960000.0
sh688037,芯源微,2021-06-04,102.0,107.44,101.0,105.7,104.19,1081876.0,113744665.0,4686278205.0,8878800000.0
sh688037,芯源微,2021-06-07,109.9,118.0,109.9,116.64,105.7,2043842.0,235816924.0,5171310216.0,9797760000.0
sh688037,芯源微,2021-06-08,117.01,117.49,110.56,114.66,116.64,1463286.0,167077927.0,5083525629.0,9631440000.0
sh688037,芯源微,2021-06-09,115.65,115.65,111.11,113.6,114.66,746908.0,84448044.0,5036529840.0,9542400000.0
sh688037,芯源微,2021-06-10,113.08,121.93,112.81,119.42,113.6,1825844.0,216543540.0,5294563323.0,10031280000.0
sh688037,芯源微,2021-06-11,121.18,121.18,116.05,116.48,119.42,909758.0,107585772.0,5164216512.0,9784320000.0
sh688037,芯源微,2021-06-15,111.48,120.64,111.48,117.4,116.48,1187604.0,139262624.0,5205005310.0,9861600000.0
sh688037,芯源微,2021-06-16,119.55,126.28,117.88,118.79,117.4,1852745.0,225669241.0,5266631863.5,9978360000.0
sh688037,芯源微,2021-06-17,117.92,131.24,117.01,129.89,118.79,2050682.0,257473652.0,5758757578.500001,10910760000.0
sh688037,芯源微,2021-06-18,130.33,142.0,130.33,138.93,129.89,3050709.0,417522971.0,6159551854.5,11670120000.0
sh688037,芯源微,2021-06-21,141.97,145.58,136.07,138.0,138.93,1657564.0,232237634.0,6118319700.0,11592000000.0
sh688037,芯源微,2021-06-22,138.51,140.1,132.0,139.61,138.0,1335285.0,182062636.0,6189700096.5,11727240000.0
sh688037,芯源微,2021-06-23,135.5,144.77,134.0,139.06,139.61,1804436.0,253233556.0,6165315489.000001,11681040000.0
sh688037,芯源微,2021-06-24,135.5,137.63,130.0,133.59,139.06,1392109.0,185841532.0,5922799483.5,11221560000.0
sh688037,芯源微,2021-06-25,135.0,137.29,129.3,131.1,133.59,1750653.0,231232502.0,5812403715.0,11012400000.0
sh688037,芯源微,2021-06-28,130.5,141.3,130.5,137.3,131.1,1747560.0,240119492.0,6087284745.0,11533200000.0
sh688037,芯源微,2021-06-29,135.2,138.88,131.01,132.06,137.3,1366325.0,182770182.0,5854965939.0,11093040000.0
sh688037,芯源微,2021-06-30,152.01,152.88,141.0,149.0,132.06,3241092.0,481524944.0,6606011850.000001,12516000000.0
sh688037,芯源微,2021-07-01,149.6,150.0,138.2,139.57,149.0,2142874.0,303660294.0,6187926670.5,11723880000.0
sh688037,芯源微,2021-07-02,132.93,140.0,132.0,134.32,139.57,1513324.0,205175537.0,5955164508.0,11282880000.0
sh688037,芯源微,2021-07-05,131.93,161.18,131.5,161.18,134.32,3263122.0,485578113.0,7146020067.0,13539120000.0
sh688037,芯源微,2021-07-06,168.02,184.82,164.26,168.2,161.18,3994538.0,689741647.0,7457256330.0,14128800000.0
sh688037,芯源微,2021-07-07,174.28,178.0,163.35,176.4,168.2,2369233.0,410686297.0,7820808660.0,14817600000.0
sh688037,芯源微,2021-07-08,170.97,182.0,170.97,174.8,176.4,2081248.0,366441575.0,7749871620.0,14683200000.0
sh688037,芯源微,2021-07-09,175.0,185.8,173.89,182.03,174.8,2151230.0,389041973.0,8070418369.5,15290520000.0
sh688037,芯源微,2021-07-12,181.89,186.88,171.85,186.13,182.03,2221865.0,398101105.0,8252194534.5,15634920000.0
sh688037,芯源微,2021-07-13,180.91,185.0,174.0,180.37,186.13,2023327.0,362426592.0,7996821190.5,15151080000.0
sh688037,芯源微,2021-07-14,177.0,181.0,171.08,174.2,180.37,1322676.0,233110779.0,7723270230.0,14632800000.0
sh688037,芯源微,2021-07-15,172.0,186.18,171.0,182.4,174.2,1424040.0,253926632.0,8086822560.000001,15321600000.0
sh688037,芯源微,2021-07-16,184.69,216.0,181.99,194.99,182.4,2570525.0,516816519.0,8645008393.5,16379160000.0
sh688037,芯源微,2021-07-19,198.1,200.08,187.0,194.01,194.99,1223085.0,238109469.0,8601559456.5,16296840000.0
sh688037,芯源微,2021-07-20,194.67,200.98,181.0,199.48,194.01,1700767.0,324580381.0,8844075462.0,16756320000.0
sh688037,芯源微,2021-07-21,198.5,239.38,197.5,239.38,199.48,2507366.0,564051021.0,10613067897.0,20107920000.0
sh688037,芯源微,2021-07-22,245.06,280.0,236.8,273.97,239.38,3843820.0,973091379.0,12146638030.5,23013480000.0
sh688037,芯源微,2021-07-23,258.0,263.95,248.0,255.7,273.97,3227362.0,820947301.0,11336625705.0,21478800000.0
sh688037,芯源微,2021-07-26,256.0,271.0,244.0,270.99,255.7,2909013.0,738806922.0,12014517793.5,22763160000.0
sh688037,芯源微,2021-07-27,265.0,302.35,260.2,261.68,270.99,3166288.0,876176196.0,11601752892.0,21981120000.0
sh688037,芯源微,2021-07-28,249.99,254.05,235.18,239.5,261.68,2633380.0,646395999.0,10618388174.999998,20118000000.0
sh688037,芯源微,2021-07-29,249.66,287.4,243.33,280.0,239.5,3053422.0,807944599.0,12413982000.0,23520000000.0
sh688037,芯源微,2021-07-30,273.93,301.0,254.26,283.0,280.0,3564628.0,996010863.0,12546988950.0,23772000000.0
sh688037,芯源微,2021-08-02,270.0,287.0,264.01,267.5,283.0,2270662.0,618148778.0,11859786375.0,22470000000.0
sh688037,芯源微,2021-08-03,261.0,261.0,214.0,214.6,267.5,3969527.0,917235683.0,9514430490.0,18026400000.0
sh688037,芯源微,2021-08-04,215.1,226.8,205.0,221.5,214.6,4573250.0,991713569.0,9820346475.0,18606000000.0
sh688037,芯源微,2021-08-05,221.0,236.9,216.35,228.74,221.5,3618956.0,829553282.0,10141336581.0,19214160000.0
sh688037,芯源微,2021-08-06,234.8,247.53,228.0,235.01,228.74,2326996.0,551710699.0,10419321106.5,19740840000.0
sh688037,芯源微,2021-08-09,223.75,246.3,205.11,229.9,235.01,3755844.0,832322625.0,10192765935.0,19311600000.0
sh688037,芯源微,2021-08-10,230.52,237.47,208.25,217.0,229.9,2692988.0,592457485.0,9620836050.0,18228000000.0
sh688037,芯源微,2021-08-11,214.0,235.94,212.1,224.9,217.0,3162172.0,707159795.0,9971087685.0,18891600000.0
sh688037,芯源微,2021-08-12,222.0,238.0,222.0,230.33,224.9,2410821.0,563970625.0,10211830264.5,19347720000.0
sh688037,芯源微,2021-08-13,231.28,232.04,215.01,224.18,230.33,1803393.0,403677741.0,9939166017.0,18831120000.0
sh688037,芯源微,2021-08-16,215.51,221.81,205.21,213.07,224.18,2887067.0,616162865.0,9446596945.5,17897880000.0
sh688037,芯源微,2021-08-17,210.48,218.98,201.0,202.51,213.07,2402031.0,497014377.0,8978412481.5,17010840000.0
sh688037,芯源微,2021-08-18,206.55,215.76,205.09,212.62,202.51,2418562.0,509688430.0,9426645903.0,17860080000.0
sh688037,芯源微,2021-08-19,212.62,228.6,209.58,220.2,212.62,2135510.0,469939403.0,9762710130.0,18496800000.0
sh688037,芯源微,2021-08-20,225.0,225.0,210.5,214.02,220.2,1623269.0,350317291.0,9488715813.0,17977680000.0
sh688037,芯源微,2021-08-23,214.02,247.62,214.02,243.63,214.02,2807158.0,657111400.0,10801494409.5,20464920000.0
sh688037,芯源微,2021-08-24,234.45,262.19,229.54,246.72,243.63,2564156.0,629660361.0,10938491568.0,20724480000.0
sh688037,芯源微,2021-08-25,240.01,258.0,237.03,244.05,246.72,1693995.0,417517156.0,10820115382.5,20500200000.0
sh688037,芯源微,2021-08-26,245.66,248.9,227.5,234.12,244.05,1792389.0,424723403.0,10379862378.0,19666080000.0
sh688037,芯源微,2021-08-27,229.92,238.46,226.01,227.02,234.12,1431607.0,330783291.0,10065079263.0,19069680000.0
sh688037,芯源微,2021-08-30,226.93,235.57,215.54,220.0,227.02,2004663.0,448418397.0,9753843000.0,18480000000.0
sh688037,芯源微,2021-08-31,221.23,226.0,215.0,220.24,220.0,1517557.0,335388944.0,9764483556.0,18500160000.0
sh688037,芯源微,2021-09-01,215.12,220.6,205.0,215.5,220.24,1942833.0,410821710.0,9554332575.0,18102000000.0
sh688037,芯源微,2021-09-02,214.14,214.14,195.09,198.0,215.5,2337634.0,468622734.0,8778458700.0,16632000000.0
sh688037,芯源微,2021-09-03,198.0,204.6,182.23,197.03,198.0,3167004.0,610491409.0,8735453119.5,16550520000.0
sh688037,芯源微,2021-09-06,192.22,209.33,183.28,203.0,197.03,2084357.0,414851773.0,9000136950.0,17052000000.0
sh688037,芯源微,2021-09-07,200.02,207.8,198.0,202.41,203.0,1051553.0,213090876.0,8973978916.5,17002440000.0
sh688037,芯源微,2021-09-08,204.49,212.65,200.39,203.0,202.41,1454950.0,300909983.0,9000136950.0,17052000000.0
sh688037,芯源微,2021-09-09,204.82,208.82,198.23,204.01,203.0,1425238.0,289190651.0,9044915956.5,17136840000.0
sh688037,芯源微,2021-09-10,202.68,232.02,197.42,229.0,204.01,2412477.0,525001429.0,10152863850.0,19236000000.0
sh688037,芯源微,2021-09-13,221.63,230.6,212.0,217.98,229.0,2209520.0,489587490.0,9664284987.0,18310320000.0
sh688037,芯源微,2021-09-14,220.99,238.81,216.43,237.65,217.98,1850422.0,428808822.0,10536367222.500002,19962600000.0
sh688037,芯源微,2021-09-15,230.49,257.99,227.02,248.99,237.65,1797686.0,438183589.0,11039133493.5,20915160000.0
sh688037,芯源微,2021-09-16,239.0,246.73,226.0,231.2,248.99,1414483.0,331670315.0,10250402280.0,19420800000.0
sh688037,芯源微,2021-09-17,233.2,238.7,216.66,228.53,231.2,1084407.0,246149216.0,10132026094.5,19196520000.0
sh688037,芯源微,2021-09-22,225.96,255.0,220.11,248.56,228.53,1688688.0,413865321.0,11020069164.0,20879040000.0
sh688037,芯源微,2021-09-23,253.97,262.08,238.0,253.78,248.56,1895236.0,478715248.0,11251501257.0,21317520000.0
sh688037,芯源微,2021-09-24,248.0,261.92,247.11,248.15,253.78,1445611.0,366117449.0,11001891547.5,20844600000.0
sh688037,芯源微,2021-09-27,247.69,266.6,240.58,242.2,248.15,1385122.0,349524742.0,10738094430.0,20344800000.0
sh688037,芯源微,2021-09-28,237.88,253.58,234.24,236.01,242.2,1240431.0,300329697.0,10463656756.5,19824840000.0
sh688037,芯源微,2021-09-29,235.26,239.0,223.0,230.73,236.01,1069919.0,246739057.0,10229564524.5,19381320000.0
sh688037,芯源微,2021-09-30,235.61,251.58,226.85,244.1,230.73,1164833.0,282482929.0,10822332165.000002,20504400000.0
sh688037,芯源微,2021-10-08,252.87,253.0,230.33,233.34,244.1,1210395.0,288196120.0,10345280571.0,19600560000.0
sh688037,芯源微,2021-10-11,232.76,234.5,203.81,206.0,233.34,2336056.0,503656171.0,9133143900.0,17304000000.0
sh688037,芯源微,2021-10-12,207.99,215.0,203.88,209.13,206.0,1988058.0,417213000.0,9271914484.5,17566920000.0
sh688037,芯源微,2021-10-13,211.88,212.77,201.12,206.01,209.13,1096195.0,224907120.0,9133587256.5,17304840000.0
sh688037,芯源微,2021-10-14,203.0,210.88,197.62,200.22,206.01,1360120.0,274272380.0,8876883843.0,16818480000.0
sh688037,芯源微,2021-10-15,201.96,208.12,195.05,203.46,200.22,1420513.0,287323874.0,9020531349.0,17090640000.0
sh688037,芯源微,2021-10-18,201.0,202.15,190.02,196.08,203.46,1794481.0,348562903.0,8693334252.0,16470720000.0
sh688037,芯源微,2021-10-19,196.44,202.49,194.46,194.88,196.08,840941.0,165834168.0,8640131472.0,16369920000.0
sh688037,芯源微,2021-10-20,196.99,196.99,190.3,193.68,194.88,1034245.0,200570101.0,8586928692.0,16269120000.0
sh688037,芯源微,2021-10-21,193.27,198.02,191.0,192.0,193.68,733465.0,141611645.0,8512444800.0,16128000000.0
sh688037,芯源微,2021-10-22,194.45,207.99,191.99,198.0,192.0,1515369.0,304477838.0,8778458700.0,16632000000.0
sh688037,芯源微,2021-10-25,198.0,211.0,196.01,204.8,198.0,1084512.0,223058366.0,9079941120.0,17203200000.0
sh688037,芯源微,2021-10-26,204.0,214.83,201.0,202.02,204.8,1038695.0,214689940.0,8956688013.0,16969680000.0
sh688037,芯源微,2021-10-27,202.02,205.49,196.51,198.47,202.02,702622.0,140347083.0,8799296455.5,16671480000.0
sh688037,芯源微,2021-10-28,195.14,202.0,189.01,189.66,198.47,1157459.0,223060757.0,8408699379.0,15931440000.0
sh688037,芯源微,2021-10-29,191.22,204.18,187.0,197.32,189.66,1191164.0,235717797.0,8748310458.0,16574880000.0
sh688037,芯源微,2021-11-01,186.22,200.84,186.22,187.64,197.32,2340850.0,448209042.0,8319141366.0,15761760000.0
sh688037,芯源微,2021-11-02,187.64,199.87,186.3,191.77,187.64,1681809.0,326580837.0,8502247600.5,16108680000.0
sh688037,芯源微,2021-11-03,192.0,204.0,190.0,194.83,191.77,1644846.0,322072199.0,8637914689.5,16365720000.0
sh688037,芯源微,2021-11-04,194.8,202.1,193.0,195.99,194.83,1266447.0,250308785.0,8689344043.5,16493734439.999998
sh688037,芯源微,2021-11-05,200.0,205.77,190.18,190.91,195.99,1621155.0,317201552.0,8464118941.499999,16066221960.0
sh688037,芯源微,2021-11-08,188.0,192.17,169.0,180.15,190.91,2568086.0,452521184.0,7987067347.499999,15160703400.0
sh688037,芯源微,2021-11-09,178.95,193.93,177.0,191.1,180.15,2148124.0,403506271.0,8472542715.0,16082211600.0
sh688037,芯源微,2021-11-10,190.14,203.0,185.72,199.96,191.1,2242893.0,436802751.0,8865356574.0,16827833760.0
sh688037,芯源微,2021-11-11,202.98,239.95,202.98,239.95,199.96,3421797.0,772697168.0,10638339217.5,20193232200.0
sh688037,芯源微,2021-11-12,239.96,248.0,229.01,233.66,239.95,2807755.0,662608269.0,10359467979.0,19663890960.0
sh688037,芯源微,2021-11-15,237.0,237.0,220.67,221.0,233.66,1558333.0,350090567.0,9798178650.0,18598476000.0
sh688037,芯源微,2021-11-16,216.6,220.99,212.7,213.85,221.0,1551185.0,334690753.0,9481178752.5,17996760600.0
sh688037,芯源微,2021-11-17,216.88,216.88,208.7,214.44,213.85,1353331.0,288200714.0,9507336786.0,18046412640.0
sh688037,芯源微,2021-11-18,214.97,214.97,204.5,207.09,214.44,1273628.0,265007452.0,9181469758.5,17427866040.0
sh688037,芯源微,2021-11-19,206.74,211.0,205.0,208.25,207.09,962449.0,199852908.0,9232899112.5,17525487000.0
sh688037,芯源微,2021-11-22,208.34,221.49,206.01,218.25,208.25,1902092.0,410987564.0,9676255612.5,18367047000.0
sh688037,芯源微,2021-11-23,216.0,227.0,212.88,219.0,218.25,1875931.0,411840995.0,9709507350.0,18430164000.0
sh688037,芯源微,2021-11-24,215.94,235.45,215.2,225.01,219.0,1679009.0,382724422.0,9975964606.5,18935941560.0
sh688037,芯源微,2021-11-25,223.0,237.0,221.0,230.11,225.01,1602830.0,370699378.0,10202076421.5,19365137160.0
sh688037,芯源微,2021-11-26,228.24,231.0,219.51,225.15,230.11,1230597.0,275640587.0,9982171597.5,18947723400.0
sh688037,芯源微,2021-11-29,218.0,229.0,216.74,223.89,225.15,981557.0,219071681.0,9926308678.5,18841686840.0
sh688037,芯源微,2021-11-30,225.89,227.3,214.5,219.0,223.89,1391838.0,306001094.0,9709507350.0,18430164000.0
sh688037,芯源微,2021-12-01,217.01,227.32,217.0,221.15,219.0,1164355.0,258865238.0,9804828997.5,18611099400.0
sh688037,芯源微,2021-12-02,222.48,224.93,213.6,214.02,221.15,1113572.0,242731156.0,9488715813.0,18011067120.0
sh688037,芯源微,2021-12-03,213.05,224.18,213.05,219.5,214.02,1107790.0,243764610.0,9731675175.0,18472242000.0
sh688037,芯源微,2021-12-06,221.0,225.88,216.0,217.65,219.5,858195.0,188744368.0,9649654222.5,18316553400.0
sh688037,芯源微,2021-12-07,219.17,219.91,212.81,217.62,217.65,1174263.0,253807857.0,9648324153.0,18314028720.0
sh688037,芯源微,2021-12-08,220.0,223.99,212.37,215.86,217.62,1152257.0,248282382.0,9570293409.0,18165914160.0
sh688037,芯源微,2021-12-09,213.5,213.88,202.62,209.23,215.86,1507915.0,314173989.0,9276348049.5,17607959880.0
sh688037,芯源微,2021-12-10,205.1,210.0,203.08,205.1,209.23,1463329.0,299435003.0,9093241815.0,17260395600.0
sh688037,芯源微,2021-12-13,204.0,212.59,203.6,210.34,205.1,1212751.0,252752156.0,9325560621.0,17701373040.0
sh688037,芯源微,2021-12-14,211.6,212.12,198.16,199.5,210.34,1657917.0,336671734.0,8844962175.0,16789122000.0
sh688037,芯源微,2021-12-15,202.7,210.77,199.69,207.0,199.5,1570466.0,323074212.0,9177479550.0,17420292000.0
sh688037,芯源微,2021-12-16,205.0,222.74,203.0,210.63,207.0,1518648.0,324191825.0,9559579459.5,17725778280.0
sh688037,芯源微,2021-12-17,210.0,210.24,194.0,194.36,210.63,1479366.0,292160523.0,8821154934.0,16356560160.0
sh688037,芯源微,2021-12-20,192.1,195.68,191.0,192.93,194.36,1258211.0,243138890.0,8756253454.5,16236217080.000002
sh688037,芯源微,2021-12-21,195.0,195.43,186.5,188.71,192.93,960588.0,181915602.0,8564726011.5,15881078760.0
sh688037,芯源微,2021-12-22,187.5,191.38,181.94,183.42,188.71,1427888.0,263823837.0,8324635923.0,15435893520.0
sh688037,芯源微,2021-12-23,183.0,184.0,174.0,180.0,183.42,1546244.0,274923248.0,8169417000.0,15148080000.0
sh688037,芯源微,2021-12-24,179.0,180.8,170.5,170.65,180.0,1081533.0,187860604.0,7745061172.5,14361221399.999998
sh688037,芯源微,2021-12-27,171.03,173.0,165.15,168.87,170.65,1247231.0,209913543.0,7664274715.5,14211423720.0
sh688037,芯源微,2021-12-28,165.5,170.42,164.81,168.8,168.87,874906.0,146115711.0,7661097720.0,14205532800.0
sh688037,芯源微,2021-12-29,171.5,176.16,164.14,167.01,168.8,1062101.0,177375040.0,7579857406.500001,14054893560.0
sh688037,芯源微,2021-12-30,167.99,173.45,165.03,172.1,167.01,1151964.0,197152647.0,7810870365.0,14483247600.0
sh688037,芯源微,2021-12-31,172.1,172.8,165.5,168.8,172.1,1329718.0,223216706.0,7661097720.0,14205532800.0
sh688037,芯源微,2022-01-04,169.58,170.42,160.0,163.6,168.8,1198721.0,196201388.0,7425092340.000001,13767921600.0
sh688037,芯源微,2022-01-05,163.19,163.9,154.66,155.0,163.6,1418099.0,223570507.0,7034775750.0,13044180000.0
sh688037,芯源微,2022-01-06,154.95,157.3,153.2,154.68,155.0,1076902.0,167224965.0,7020252341.999999,13017250080.0
sh688037,芯源微,2022-01-07,155.18,156.77,149.2,150.5,154.68,1196485.0,182078311.0,6830540325.0,12665478000.0
sh688037,芯源微,2022-01-10,151.6,151.79,143.46,145.46,150.5,1930690.0,282856391.0,6601796649.0,12241331760.0
sh688037,芯源微,2022-01-11,144.99,147.88,136.87,139.85,145.46,2310033.0,323650448.0,6347183152.5,11769216600.0
sh688037,芯源微,2022-01-12,142.55,142.96,139.1,142.0,139.85,1412584.0,199157760.0,6444762300.0,11950152000.0
sh688037,芯源微,2022-01-13,142.0,142.0,135.71,136.06,142.0,817440.0,112288724.0,6175171539.0,11450265360.0
sh688037,芯源微,2022-01-14,136.08,141.31,135.03,138.0,136.06,1746180.0,242244867.0,6263219700.0,11613528000.0
