数据由邢不行整理
股票代码,股票名称,交易日期,开盘价,最高价,最低价,收盘价,前收盘价,成交量,成交额,流通市值,总市值
sh688668,N鼎通,2020-12-21,40.44,49.99,39.48,44.89,20.07,14512265.0,619226746.0,867957217.7800001,3821934600.0
sh688668,鼎通科技,2020-12-22,41.05,42.16,38.2,38.4,44.89,9358583.0,376755648.0,742471756.8,3269376000.0
sh688668,鼎通科技,2020-12-23,36.2,37.19,34.99,35.83,38.4,6201954.0,223012367.0,692780287.6600001,3050566200.0
sh688668,鼎通科技,2020-12-24,35.5,35.83,32.58,33.11,35.83,5316240.0,179175632.0,640188538.22,2818985400.0
sh688668,鼎通科技,2020-12-25,32.98,33.75,31.7,31.7,33.11,3438869.0,112140248.0,612925903.4,2698938000.0
sh688668,鼎通科技,2020-12-28,31.16,31.54,29.46,29.68,31.7,3306079.0,100453095.0,573868795.36,2526955200.0
sh688668,鼎通科技,2020-12-29,29.9,31.7,29.15,29.89,29.68,3070655.0,92938695.0,577929187.78,2544834600.0
sh688668,鼎通科技,2020-12-30,29.55,30.6,29.36,29.91,29.89,2701849.0,80757666.0,578315891.82,2546537400.0
sh688668,鼎通科技,2020-12-31,29.91,30.67,29.74,30.0,29.91,2050728.0,61933755.0,580056060.0,2554200000.0
sh688668,鼎通科技,2021-01-04,29.9,31.1,29.9,30.67,30.0,2624626.0,80422183.0,593010645.3399999,2611243800.0
sh688668,鼎通科技,2021-01-05,30.62,31.94,30.02,31.55,30.67,3337009.0,103257442.0,610025623.1,2686167000.0
sh688668,鼎通科技,2021-01-06,31.1,31.13,29.9,30.3,31.55,2403716.0,73377163.0,585856620.6,2579742000.0
sh688668,鼎通科技,2021-01-07,30.2,30.84,28.49,28.8,30.3,2422970.0,71702466.0,556853817.6,2452032000.0
sh688668,鼎通科技,2021-01-08,28.8,29.43,27.8,29.01,28.8,1448430.0,41726812.0,560914210.02,2469911400.0
sh688668,鼎通科技,2021-01-11,28.5,28.99,26.83,27.0,29.01,2028939.0,56439827.0,522050454.0,2298780000.0
sh688668,鼎通科技,2021-01-12,27.17,27.26,26.25,26.54,27.0,1342951.0,35820529.0,513156261.08,2259615600.0
sh688668,鼎通科技,2021-01-13,26.45,26.54,25.0,25.31,26.54,1550800.0,39742132.0,489373962.62,2154893400.0
sh688668,鼎通科技,2021-01-14,25.4,26.93,25.2,26.28,25.31,1743218.0,45651667.0,508129108.56,2237479200.0
sh688668,鼎通科技,2021-01-15,26.07,27.73,26.07,27.17,26.28,1865916.0,50711472.0,525337438.34,2313253800.0
sh688668,鼎通科技,2021-01-18,27.2,27.64,26.68,26.82,27.17,1416758.0,38301001.0,518570117.6400001,2283454800.0
sh688668,鼎通科技,2021-01-19,26.87,27.58,26.82,27.18,26.82,1432751.0,39020145.0,525530790.36,2314105200.0
sh688668,鼎通科技,2021-01-20,27.0,27.19,26.5,26.6,27.18,1109681.0,29639518.0,514316373.2,2264724000.0
sh688668,鼎通科技,2021-01-21,26.92,27.15,26.58,26.61,26.6,1057285.0,28329894.0,514509725.22,2265575400.0
sh688668,鼎通科技,2021-01-22,26.61,26.7,25.63,25.81,26.61,1281184.0,33279081.0,499041563.62,2197463400.0
sh688668,鼎通科技,2021-01-25,25.57,25.97,25.19,25.45,25.81,1022563.0,26079646.0,492080890.9,2166813000.0
sh688668,鼎通科技,2021-01-26,25.55,26.78,25.53,25.99,25.45,1209069.0,31657371.0,502521899.98,2212788600.0
sh688668,鼎通科技,2021-01-27,25.68,26.2,25.31,25.83,25.99,832223.0,21438143.0,499428267.66,2199166200.0
sh688668,鼎通科技,2021-01-28,25.67,26.17,25.45,25.54,25.83,691754.0,17840783.0,493821059.08,2174475600.0
sh688668,鼎通科技,2021-01-29,25.92,25.92,24.53,24.9,25.54,878939.0,22114226.0,481446529.8,2119986000.0
sh688668,鼎通科技,2021-02-01,24.9,26.78,24.56,26.51,24.9,1520615.0,39638834.0,512576205.02,2257061400.0
sh688668,鼎通科技,2021-02-02,26.66,27.88,26.36,26.52,26.51,1564057.0,42049482.0,512769557.04,2257912800.0
sh688668,鼎通科技,2021-02-03,26.43,26.43,25.39,25.45,26.52,982083.0,25315138.0,492080890.9,2166813000.0
sh688668,鼎通科技,2021-02-04,25.68,25.68,24.5,24.99,25.45,840915.0,21013358.0,483186697.98,2127648600.0
sh688668,鼎通科技,2021-02-05,25.15,25.7,24.57,24.6,24.99,656815.0,16431613.0,475645969.2000001,2094444000.0
sh688668,鼎通科技,2021-02-08,24.99,24.99,24.11,24.15,24.6,631786.0,15427477.0,466945128.3,2056131000.0
sh688668,鼎通科技,2021-02-09,24.16,24.52,24.16,24.41,24.15,610704.0,14869784.0,471972280.82,2078267400.0
sh688668,鼎通科技,2021-02-10,24.46,24.65,24.25,24.4,24.41,635806.0,15541891.0,471778928.8,2077416000.0
sh688668,鼎通科技,2021-02-18,24.78,25.31,24.62,25.03,24.4,751774.0,18762430.0,483960106.06000006,2131054200.0
sh688668,鼎通科技,2021-02-19,25.1,26.14,25.0,26.09,25.03,732579.0,18844591.0,504455420.18,2221302600.0
sh688668,鼎通科技,2021-02-22,26.23,27.49,25.8,26.6,26.09,1591104.0,42486669.0,514316373.2,2264724000.0
sh688668,鼎通科技,2021-02-23,26.58,26.97,25.81,26.0,26.6,980206.0,25772039.0,502715252.0,2213640000.0
sh688668,鼎通科技,2021-02-24,26.01,27.42,25.97,27.24,26.0,1808894.0,48397838.0,526690902.48,2319213600.0
sh688668,鼎通科技,2021-02-25,27.25,27.9,26.7,26.73,27.24,1892873.0,51731255.0,516829949.46,2275792200.0
sh688668,鼎通科技,2021-02-26,26.2,27.38,26.01,27.04,26.73,1148807.0,30832857.0,522823862.08,2302185600.0
sh688668,鼎通科技,2021-03-01,26.91,27.77,26.91,27.52,27.04,1201908.0,32917463.0,532104759.04,2343052800.0
sh688668,鼎通科技,2021-03-02,27.71,27.75,26.61,26.71,27.52,1038595.0,28075454.0,516443245.42,2274089400.0
sh688668,鼎通科技,2021-03-03,26.71,27.94,26.51,27.88,26.71,1443948.0,39505911.0,539065431.76,2373703200.0
sh688668,鼎通科技,2021-03-04,28.0,28.96,27.51,28.74,27.88,1954404.0,55192004.0,555693705.48,2446923600.0
sh688668,鼎通科技,2021-03-05,28.81,30.0,28.12,28.22,28.74,2015030.0,58217445.0,545639400.44,2402650800.0
sh688668,鼎通科技,2021-03-08,28.38,28.6,27.45,27.45,28.22,1302264.0,36486527.0,530751294.9,2337093000.0
sh688668,鼎通科技,2021-03-09,27.49,27.55,25.98,26.11,27.45,1200423.0,32089091.0,504842124.22,2223005400.0
sh688668,鼎通科技,2021-03-10,26.41,26.51,25.37,25.42,26.11,793029.0,20476227.0,491500834.84,2164258800.0
sh688668,鼎通科技,2021-03-11,25.5,25.89,25.38,25.77,25.42,537736.0,13830299.0,498268155.54,2194057800.0
sh688668,鼎通科技,2021-03-12,25.64,26.09,25.6,25.88,25.77,579693.0,14989050.0,500395027.76,2203423200.0
sh688668,鼎通科技,2021-03-15,25.7,26.09,25.31,25.76,25.88,447065.0,11487123.0,498074803.52,2193206400.0
sh688668,鼎通科技,2021-03-16,25.74,26.08,25.55,26.03,25.76,443609.0,11481873.0,503295308.06,2216194200.0
sh688668,鼎通科技,2021-03-17,25.97,26.78,25.9,26.68,26.03,653277.0,17222554.0,515863189.36,2271535200.0
sh688668,鼎通科技,2021-03-18,26.7,26.86,26.36,26.56,26.68,508419.0,13505558.0,513542965.12,2261318400.0
sh688668,鼎通科技,2021-03-19,26.3,27.38,26.12,26.96,26.56,865208.0,23353947.0,521277045.92,2295374400.0
sh688668,鼎通科技,2021-03-22,27.25,27.34,27.0,27.22,26.96,642860.0,17481586.0,526304198.44,2317510800.0
sh688668,鼎通科技,2021-03-23,27.22,27.45,26.29,26.5,27.22,806296.0,21498783.0,512382853.00000006,2256210000.0
sh688668,鼎通科技,2021-03-24,26.37,26.65,26.25,26.35,26.5,414053.0,10944959.0,509482572.7000001,2243439000.0
sh688668,鼎通科技,2021-03-25,26.11,26.38,25.88,25.88,26.35,455381.0,11895476.0,500395027.76,2203423200.0
sh688668,鼎通科技,2021-03-26,25.94,26.1,25.67,25.96,25.88,439325.0,11399856.0,501941843.92,2210234400.0
sh688668,鼎通科技,2021-03-29,26.11,26.29,25.44,25.52,25.96,797729.0,20475797.0,493434355.04,2172772800.0
sh688668,鼎通科技,2021-03-30,25.52,25.62,25.11,25.17,25.52,471738.0,11938747.0,486667034.34,2142973800.0
sh688668,鼎通科技,2021-03-31,25.15,25.48,24.94,25.16,25.17,333920.0,8382733.0,486473682.32,2142122400.0
sh688668,鼎通科技,2021-04-01,25.3,25.44,24.64,25.19,25.16,513456.0,12903935.0,487053738.38,2144676600.0
sh688668,鼎通科技,2021-04-02,25.19,26.06,25.11,25.97,25.19,866301.0,22238883.0,502135195.94,2211085800.0
sh688668,鼎通科技,2021-04-06,25.97,26.27,25.68,26.19,25.97,532217.0,13857321.0,506388940.38,2229816600.0
sh688668,鼎通科技,2021-04-07,26.04,26.35,25.97,26.31,26.19,397137.0,10402267.0,508709164.62,2240033400.0
sh688668,鼎通科技,2021-04-08,26.4,26.5,25.79,25.93,26.31,723164.0,18962422.0,501361787.86,2207680200.0
sh688668,鼎通科技,2021-04-09,25.86,25.9,25.62,25.82,25.93,379581.0,9774951.0,499234915.6400001,2198314800.0
sh688668,鼎通科技,2021-04-12,25.84,25.84,25.2,25.25,25.82,471977.0,12035140.0,488213850.5,2149785000.0
sh688668,鼎通科技,2021-04-13,25.68,25.68,24.91,25.04,25.25,388778.0,9817920.0,484153458.08,2131905600.0
sh688668,鼎通科技,2021-04-14,25.06,25.26,24.81,25.17,25.04,284139.0,7131274.0,486667034.34,2142973800.0
sh688668,鼎通科技,2021-04-15,25.21,25.25,24.78,24.95,25.17,292589.0,7290265.0,482413289.9,2124243000.0
sh688668,鼎通科技,2021-04-16,24.98,25.77,24.93,25.65,24.95,585150.0,14869919.0,495947931.3,2183841000.0
sh688668,鼎通科技,2021-04-19,25.96,28.99,25.6,27.98,25.65,2548678.0,69995549.0,540998951.9599999,2382217200.0
sh688668,鼎通科技,2021-04-20,27.7,28.47,27.14,27.19,27.98,1970155.0,54588145.0,525724142.38,2314956600.0
sh688668,鼎通科技,2021-04-21,27.0,27.36,26.71,26.98,27.19,710254.0,19133138.0,521663749.96,2297077200.0
sh688668,鼎通科技,2021-04-22,26.82,27.34,26.82,27.0,26.98,653218.0,17654095.0,550791954.0,2298780000.0
sh688668,鼎通科技,2021-04-23,26.86,27.08,26.52,26.68,27.0,686594.0,18328805.0,544264049.36,2271535200.0
sh688668,鼎通科技,2021-04-26,26.33,27.12,26.06,26.56,26.68,596309.0,15888206.0,541816085.12,2261318400.0
sh688668,鼎通科技,2021-04-27,26.5,27.45,26.2,27.17,26.56,950052.0,25528376.0,554259903.34,2313253800.0
sh688668,鼎通科技,2021-04-28,27.18,27.58,26.17,26.23,27.17,1079206.0,29046195.0,535084183.46,2233222200.0
sh688668,鼎通科技,2021-04-29,26.9,27.88,26.76,26.92,26.23,1401715.0,38175970.0,549159977.84,2291968800.0
sh688668,鼎通科技,2021-04-30,26.85,26.99,26.35,26.75,26.92,906714.0,24147686.0,545692028.5,2277495000.0
sh688668,鼎通科技,2021-05-06,26.62,27.5,26.52,27.42,26.75,823780.0,22411591.0,559359828.8399999,2334538800.0
sh688668,鼎通科技,2021-05-07,27.25,29.0,27.23,28.18,27.42,2555336.0,72385288.0,574863602.36,2399245200.0
sh688668,鼎通科技,2021-05-10,28.45,28.5,27.61,28.46,28.18,1605208.0,45173663.0,580575518.9200001,2423084400.0
sh688668,鼎通科技,2021-05-11,29.0,31.6,28.8,30.8,28.46,3977468.0,120778812.0,628310821.6,2622312000.0
sh688668,鼎通科技,2021-05-12,30.5,30.58,29.47,29.75,30.8,2623024.0,78096417.0,606891134.5,2532915000.0
sh688668,鼎通科技,2021-05-13,29.53,29.94,28.39,28.74,29.75,1852612.0,53884906.0,586287435.48,2446923600.0
sh688668,鼎通科技,2021-05-14,28.88,30.48,28.66,30.36,28.74,2381644.0,71219468.0,619334952.72,2584850400.0
sh688668,鼎通科技,2021-05-17,30.37,31.79,29.3,30.79,30.36,2504839.0,77076860.0,628106824.58,2621460600.0
sh688668,鼎通科技,2021-05-18,30.7,30.85,30.01,30.35,30.79,1305399.0,39604172.0,619130955.6999999,2583999000.0
sh688668,鼎通科技,2021-05-19,30.33,31.11,29.56,30.49,30.35,1287087.0,38956097.0,621986913.98,2595918600.0
sh688668,鼎通科技,2021-05-20,30.23,30.94,30.02,30.72,30.49,1189029.0,36293627.0,626678845.44,2615500800.0
sh688668,鼎通科技,2021-05-21,30.8,31.88,29.11,29.44,30.72,2268359.0,69852503.0,600567226.88,2506521600.0
sh688668,鼎通科技,2021-05-24,29.51,30.3,28.88,29.78,29.44,1314389.0,38564825.0,607503125.56,2535469200.0
sh688668,鼎通科技,2021-05-25,29.26,30.6,29.05,30.4,29.78,1586234.0,47351833.0,620150940.8000001,2588256000.0
sh688668,XD鼎通科,2021-05-26,30.02,30.15,29.12,29.55,29.9,891920.0,26350375.0,602811194.1,2515887000.0
sh688668,鼎通科技,2021-05-27,29.14,31.48,29.14,31.19,29.55,2264107.0,69900737.0,636266705.38,2655516599.9999995
sh688668,鼎通科技,2021-05-28,31.11,31.37,30.52,31.09,31.19,1071896.0,33118727.0,634226735.1800001,2647002600.0
sh688668,鼎通科技,2021-05-31,31.96,33.5,31.5,32.61,31.09,2125258.0,68824190.0,665234282.22,2776415400.0
sh688668,鼎通科技,2021-06-01,32.61,32.88,31.85,32.24,32.61,1418907.0,45668180.0,657686392.48,2744913600.0
sh688668,鼎通科技,2021-06-02,32.27,35.58,32.27,33.72,32.24,3547457.0,121333744.0,687877951.44,2870920800.0
sh688668,鼎通科技,2021-06-03,34.7,36.5,34.01,34.49,33.72,2589571.0,90941541.0,703585721.9799999,2936478600.0
sh688668,鼎通科技,2021-06-04,33.73,34.88,33.58,33.9,34.49,1832747.0,62430441.0,691549897.8000001,2886246000.0
sh688668,鼎通科技,2021-06-07,33.75,34.99,33.25,34.4,33.9,1452664.0,49476220.0,701749748.8,2928816000.0
sh688668,鼎通科技,2021-06-08,34.8,34.8,32.55,33.19,34.4,1470938.0,48792159.0,677066109.38,2825796599.9999995
sh688668,鼎通科技,2021-06-09,32.53,33.45,32.01,32.78,33.19,1130969.0,36909808.0,668702231.56,2790889200.0
sh688668,鼎通科技,2021-06-10,32.51,32.97,32.09,32.6,32.78,1159636.0,37621785.0,665030285.2,2775564000.0
sh688668,鼎通科技,2021-06-11,32.58,32.64,30.21,30.65,32.6,2250540.0,70451800.0,625250866.3,2609541000.0
sh688668,鼎通科技,2021-06-15,30.63,31.72,30.22,30.97,30.65,970303.0,30141690.0,631778770.94,2636785800.0
sh688668,鼎通科技,2021-06-16,30.97,31.8,29.7,29.88,30.97,1099306.0,33555786.0,609543095.76,2543983200.0
sh688668,鼎通科技,2021-06-17,29.9,30.96,29.86,30.43,29.88,705402.0,21359983.0,620762931.86,2590810200.0
sh688668,鼎通科技,2021-06-18,30.51,30.52,29.7,30.25,30.43,728558.0,21893612.0,617090985.5,2575485000.0
sh688668,鼎通科技,2021-06-21,29.9,33.28,29.6,32.86,30.25,2138952.0,67000227.0,699589400.0,2797700400.0
sh688668,鼎通科技,2021-06-22,33.5,33.68,32.11,32.5,32.86,1494116.0,48706731.0,691925000.0,2767050000.0
sh688668,鼎通科技,2021-06-23,32.28,32.45,31.56,31.75,32.5,1094270.0,34772699.0,675957500.0,2703195000.0
sh688668,鼎通科技,2021-06-24,31.95,32.69,31.38,32.1,31.75,1061687.0,34201154.0,683409000.0,2732994000.0
sh688668,鼎通科技,2021-06-25,32.13,32.32,30.5,30.95,32.1,1009162.0,31415459.0,658925500.0,2635083000.0
sh688668,鼎通科技,2021-06-28,30.84,33.0,30.61,32.99,30.95,1669190.0,53892611.0,702357100.0000001,2808768600.0
sh688668,鼎通科技,2021-06-29,33.01,33.47,31.72,31.94,32.99,1847814.0,60002559.0,680002600.0,2719371599.9999995
sh688668,鼎通科技,2021-06-30,31.94,33.97,31.7,32.75,31.94,1495939.0,49279105.0,697247500.0,2788335000.0
sh688668,鼎通科技,2021-07-01,32.75,33.85,32.15,33.2,32.75,1719578.0,57119732.0,706828000.0,2826648000.0
sh688668,鼎通科技,2021-07-02,33.0,34.2,32.9,33.56,33.2,1705158.0,57387446.0,714492400.0,2857298400.0000005
sh688668,鼎通科技,2021-07-05,33.61,34.01,32.16,33.95,33.56,1347056.0,44523930.0,722795500.0,2890503000.0
sh688668,鼎通科技,2021-07-06,33.79,35.04,33.18,34.09,33.95,1849708.0,63170068.0,725776100.0,2902422600.0
sh688668,鼎通科技,2021-07-07,33.75,36.65,33.28,36.54,34.09,3210563.0,113723757.0,777936600.0,3111015600.0
sh688668,鼎通科技,2021-07-08,36.18,43.21,36.18,39.34,36.54,4363721.0,175027140.0,837548600.0,3349407600.0
sh688668,鼎通科技,2021-07-09,38.5,42.88,38.44,42.21,39.34,3459519.0,142662787.0,898650900.0,3593759400.0
sh688668,鼎通科技,2021-07-12,41.5,49.44,41.5,48.29,42.21,3513675.0,162168621.0,1028094100.0,4111410600.0
sh688668,鼎通科技,2021-07-13,49.8,50.0,46.0,47.52,48.29,2475640.0,117413166.0,1011700800.0,4045852800.000001
sh688668,鼎通科技,2021-07-14,47.5,50.29,47.48,47.77,47.52,2228456.0,108717550.0,1017023300.0,4067137800.000001
sh688668,鼎通科技,2021-07-15,47.89,48.34,45.2,46.31,47.77,2055131.0,94742939.0,985939900.0,3942833400.000001
sh688668,鼎通科技,2021-07-16,46.0,48.02,45.68,46.02,46.31,1265014.0,59413767.0,979765800.0,3918142800.000001
sh688668,鼎通科技,2021-07-19,48.0,49.15,45.67,47.48,46.02,1355014.0,64358906.0,1010849200.0,4042447200.0
sh688668,鼎通科技,2021-07-20,48.9,48.9,46.66,47.89,47.48,775548.0,36629748.0,1019578100.0,4077354600.0
sh688668,鼎通科技,2021-07-21,47.88,51.47,47.6,48.36,47.89,1497024.0,73765973.0,1029584400.0,4117370400.0
sh688668,鼎通科技,2021-07-22,49.32,52.16,47.77,52.16,48.36,1599833.0,81027239.0,1110486400.0,4440902400.0
sh688668,鼎通科技,2021-07-23,52.98,54.5,50.01,50.85,52.16,1282878.0,66635052.0,1082596500.0,4329369000.0
sh688668,鼎通科技,2021-07-26,50.0,50.86,48.4,48.89,50.85,995140.0,49222231.0,1040868100.0,4162494600.0
sh688668,鼎通科技,2021-07-27,49.79,50.66,46.1,46.36,48.89,1227896.0,59643083.0,987004400.0,3947090400.0
sh688668,鼎通科技,2021-07-28,46.35,47.89,45.0,45.8,46.36,1122813.0,51665257.0,975082000.0,3899412000.0
sh688668,鼎通科技,2021-07-29,45.95,49.43,45.04,47.99,45.8,783085.0,37570285.0,1021707100.0,4085868600.0
sh688668,鼎通科技,2021-07-30,47.49,56.61,47.19,56.3,47.99,1854291.0,96899265.0,1198627000.0,4793382000.0
sh688668,鼎通科技,2021-08-02,58.0,61.58,55.01,57.38,56.3,1982072.0,115660328.0,1221620200.0,4885333200.0
sh688668,鼎通科技,2021-08-03,57.37,58.28,53.43,53.89,57.38,1367338.0,75777437.0,1147318100.0,4588194600.0
sh688668,鼎通科技,2021-08-04,53.18,55.16,51.71,53.3,53.89,1572300.0,83105477.0,1134757000.0,4537962000.0
sh688668,鼎通科技,2021-08-05,53.25,54.13,51.06,52.45,53.3,771192.0,40336830.0,1116660500.0,4465593000.0
sh688668,鼎通科技,2021-08-06,51.99,53.64,50.12,51.58,52.45,733279.0,37614144.0,1098138200.0,4391521200.0
sh688668,鼎通科技,2021-08-09,51.57,54.0,50.4,53.34,51.58,555198.0,29098239.0,1135608600.0,4541367600.0
sh688668,鼎通科技,2021-08-10,53.5,54.25,51.05,51.29,53.34,783948.0,40732612.0,1091964100.0,4366830600.0
sh688668,鼎通科技,2021-08-11,50.58,52.88,48.28,49.38,51.29,949318.0,47028976.0,1051300200.0,4204213200.0
sh688668,鼎通科技,2021-08-12,49.68,50.6,49.2,49.97,49.38,455820.0,22751630.0,1063861300.0,4254445800.0
sh688668,鼎通科技,2021-08-13,49.88,51.9,49.85,50.2,49.97,449311.0,22837887.0,1068758000.0,4274028000.0
sh688668,鼎通科技,2021-08-16,49.0,51.35,48.88,50.25,50.2,341783.0,17081416.0,1069822500.0,4278285000.0
sh688668,鼎通科技,2021-08-17,50.25,51.6,46.59,47.1,50.25,816581.0,39145394.0,1002759000.0,4010094000.0
sh688668,鼎通科技,2021-08-18,47.1,49.86,47.1,48.77,47.1,704198.0,34381082.0,1038313300.0,4152277800.000001
sh688668,鼎通科技,2021-08-19,49.44,49.44,48.09,48.78,48.77,489998.0,23802663.0,1038526200.0,4153129200.0
sh688668,鼎通科技,2021-08-20,49.3,49.55,46.48,47.78,48.78,484631.0,23224162.0,1005912340.0,4067989200.0
sh688668,鼎通科技,2021-08-23,48.78,53.58,47.97,52.36,47.78,980319.0,50148715.0,1102335080.0,4457930400.0
sh688668,鼎通科技,2021-08-24,54.0,54.0,50.36,51.01,52.36,570356.0,29271167.0,1073913530.0,4342991400.0
sh688668,鼎通科技,2021-08-25,49.86,51.0,48.77,49.66,51.01,421994.0,20912719.0,1045491980.0,4228052400.0
sh688668,鼎通科技,2021-08-26,49.28,49.59,47.53,47.69,49.66,634174.0,30540059.0,1004017570.0,4060326600.0
sh688668,鼎通科技,2021-08-27,47.65,48.8,46.22,47.0,47.69,441435.0,20759816.0,989491000.0,4001580000.0
sh688668,鼎通科技,2021-08-30,47.0,47.58,44.5,45.29,47.0,1131723.0,51779484.0,953490370.0,3855990600.0
sh688668,鼎通科技,2021-08-31,45.1,45.6,41.69,44.55,45.29,1523455.0,66494226.0,937911150.0,3792987000.0
sh688668,鼎通科技,2021-09-01,44.55,45.65,42.8,44.77,44.55,576835.0,25656716.0,942542810.0,3811717800.000001
sh688668,鼎通科技,2021-09-02,44.76,45.2,43.5,43.63,44.77,318378.0,14027990.0,918542390.0,3714658200.0
sh688668,鼎通科技,2021-09-03,43.6,44.51,42.2,42.3,43.63,412856.0,17826334.0,890541900.0,3601422000.0
sh688668,鼎通科技,2021-09-06,42.0,43.89,41.79,43.82,42.3,326743.0,14059014.0,922542460.0,3730834800.0
sh688668,鼎通科技,2021-09-07,43.9,44.4,43.18,43.99,43.82,275555.0,12107548.0,926121470.0,3745308600.0
sh688668,鼎通科技,2021-09-08,44.28,45.08,43.81,44.38,43.99,319974.0,14197657.0,934332140.0,3778513200.0
sh688668,鼎通科技,2021-09-09,44.05,44.28,42.39,42.58,44.38,455265.0,19591326.0,896436740.0,3625261200.0
sh688668,鼎通科技,2021-09-10,43.43,43.78,42.18,42.89,42.58,284084.0,12217209.0,902963170.0,3651654600.0
sh688668,鼎通科技,2021-09-13,43.0,43.0,40.62,41.49,42.89,344809.0,14256021.0,873488970.0,3532458600.0
sh688668,鼎通科技,2021-09-14,40.81,42.23,40.81,41.46,41.49,433784.0,18033062.0,872857380.0,3529904400.0
sh688668,鼎通科技,2021-09-15,41.72,41.79,40.28,40.4,41.46,259160.0,10564618.0,850541200.0,3439656000.0
sh688668,鼎通科技,2021-09-16,41.28,41.28,38.58,38.84,40.4,461516.0,18254424.0,817698520.0,3306837600.0
sh688668,鼎通科技,2021-09-17,38.77,40.44,38.77,40.05,38.84,489860.0,19563792.0,843172650.0,3409857000.0
sh688668,鼎通科技,2021-09-22,42.05,42.05,38.67,38.88,40.05,556418.0,22043458.0,818540640.0,3310243200.0
sh688668,鼎通科技,2021-09-23,39.88,41.84,38.91,40.94,38.88,468857.0,19136146.0,861909820.0,3485631599.9999995
sh688668,鼎通科技,2021-09-24,40.01,41.37,38.58,38.95,40.94,597594.0,23426163.0,820014350.0,3316203000.0
sh688668,鼎通科技,2021-09-27,38.95,39.41,37.73,38.08,38.95,399274.0,15371899.0,801698239.9999999,3242131200.0
sh688668,鼎通科技,2021-09-28,37.91,39.22,37.56,37.99,38.08,285611.0,10971177.0,799803470.0,3234468600.0
sh688668,鼎通科技,2021-09-29,37.0,37.81,35.9,36.14,37.99,379163.0,13897596.0,760855420.0,3076959600.0
sh688668,鼎通科技,2021-09-30,36.21,38.9,35.89,38.81,36.14,435022.0,16469589.0,817066930.0,3304283400.0000005
sh688668,鼎通科技,2021-10-08,38.91,40.36,38.58,39.15,38.81,312227.0,12234743.0,824224950.0,3333231000.0
sh688668,鼎通科技,2021-10-11,39.65,41.17,37.68,40.73,39.15,556082.0,22278178.0,857488690.0000001,3467752199.9999995
sh688668,鼎通科技,2021-10-12,40.6,41.71,38.8,39.9,40.73,569764.0,22801375.0,840014700.0,3397086000.0
sh688668,鼎通科技,2021-10-13,39.87,41.19,39.1,40.74,39.9,448738.0,18201056.0,857699220.0,3468603600.0
sh688668,鼎通科技,2021-10-14,40.74,41.75,39.55,40.37,40.74,367383.0,14719179.0,849909610.0,3437101800.0
sh688668,鼎通科技,2021-10-15,40.37,42.0,39.75,41.21,40.37,590092.0,24100282.0,867594130.0,3508619400.0
sh688668,鼎通科技,2021-10-18,40.91,48.0,40.91,46.08,41.21,1454302.0,66608576.0,970122240.0,3923251200.0
sh688668,鼎通科技,2021-10-19,47.0,49.45,45.71,48.25,46.08,1505374.0,72172210.0,1015807250.0,4108005000.0
sh688668,鼎通科技,2021-10-20,48.47,49.85,47.14,49.84,48.25,1099488.0,53854315.0,1049281520.0,4243377600.0
sh688668,鼎通科技,2021-10-21,49.84,49.84,46.0,46.92,49.84,1632978.0,78613581.0,987806760.0,3994768800.0
sh688668,鼎通科技,2021-10-22,47.08,47.85,45.0,45.24,46.92,939491.0,43097425.0,952437720.0,3851733600.0
sh688668,鼎通科技,2021-10-25,44.9,48.84,44.9,47.89,45.24,1183787.0,55965679.0,1008228170.0,4077354600.0
sh688668,鼎通科技,2021-10-26,48.74,49.5,46.41,46.55,47.89,541224.0,25743151.0,980017150.0,3963267000.0
sh688668,鼎通科技,2021-10-27,46.57,47.63,45.5,45.88,46.55,344664.0,15879957.0,927945940.0,3906223200.0
sh688668,鼎通科技,2021-10-28,46.69,48.07,46.03,47.04,45.88,636214.0,29975635.0,990333120.0,4004985600.0
sh688668,鼎通科技,2021-10-29,47.38,47.38,45.3,46.66,47.04,375252.0,17303856.0,982332980.0,3972632400.0
sh688668,鼎通科技,2021-11-01,46.68,51.66,46.14,50.8,46.66,1014741.0,50317742.0,1069492400.0,4325112000.0
sh688668,鼎通科技,2021-11-02,51.2,55.03,50.24,51.75,50.8,1524370.0,80292370.0,1089492750.0,4405995000.0
sh688668,鼎通科技,2021-11-03,51.0,53.87,49.8,50.13,51.75,615611.0,31270194.0,1055386890.0,4268068200.0
sh688668,鼎通科技,2021-11-04,49.33,53.13,49.33,52.66,50.13,765060.0,39901684.0,1108650980.0,4483472400.0
sh688668,鼎通科技,2021-11-05,53.75,53.99,51.54,51.8,52.66,590477.0,30845202.0,1090545400.0,4410252000.0
sh688668,鼎通科技,2021-11-08,51.09,52.24,50.0,51.53,51.8,426252.0,21746181.0,1084861090.0,4387264200.0
sh688668,鼎通科技,2021-11-09,50.48,53.98,50.48,53.08,51.53,553000.0,29037548.0,1117493240.0,4519231200.0
sh688668,鼎通科技,2021-11-10,53.0,54.78,51.36,53.13,53.08,570795.0,30136264.0,1118545890.0,4523488200.0
sh688668,鼎通科技,2021-11-11,52.99,56.38,52.18,55.33,53.13,981027.0,53989567.0,1164862490.0,4710796200.0
sh688668,鼎通科技,2021-11-12,56.18,58.28,54.78,58.0,55.33,1090531.0,62365453.0,1221074000.0,4938120000.0
sh688668,鼎通科技,2021-11-15,64.45,69.6,61.51,66.0,58.0,4589775.0,308324805.0,1389498000.0,5619240000.0
sh688668,鼎通科技,2021-11-16,64.98,68.99,61.0,68.2,66.0,4242470.0,273871180.0,1435814600.0,5806548000.0
sh688668,鼎通科技,2021-11-17,67.6,81.0,67.02,73.79,68.2,3564893.0,260806286.0,1553500870.0,6282480600.000001
sh688668,鼎通科技,2021-11-18,73.22,75.64,67.98,69.94,73.79,3071132.0,215562753.0,1472446820.0,5954691600.0
sh688668,鼎通科技,2021-11-19,70.0,72.99,68.29,71.53,69.94,1640524.0,115973083.0,1505921090.0,6090064200.0
sh688668,鼎通科技,2021-11-22,70.98,74.8,68.55,73.4,71.53,2058408.0,147873338.0,1545290200.0,6249276000.0
sh688668,鼎通科技,2021-11-23,72.5,74.0,66.31,68.3,73.4,2368842.0,162706332.0,1437919900.0,5815062000.0
sh688668,鼎通科技,2021-11-24,68.5,70.85,66.33,66.52,68.3,2038794.0,139341934.0,1400445560.0,5663512800.0
sh688668,鼎通科技,2021-11-25,67.5,70.33,65.81,66.19,66.52,2054141.0,138325208.0,1393498070.0,5635416600.0
sh688668,鼎通科技,2021-11-26,66.57,67.19,61.11,62.58,66.19,2834084.0,178201480.0,1317496740.0,5328061200.0
sh688668,鼎通科技,2021-11-29,61.3,64.73,61.3,64.55,62.58,1814881.0,114570242.0,1358971150.0,5495787000.0
sh688668,鼎通科技,2021-11-30,66.54,66.55,62.48,63.71,64.55,2580096.0,165769935.0,1341286630.0,5424269399.999999
sh688668,鼎通科技,2021-12-01,62.03,66.35,62.03,64.0,63.71,1552343.0,100403570.0,1347392000.0,5448960000.0
sh688668,鼎通科技,2021-12-02,63.2,65.99,61.66,61.66,64.0,1556399.0,99220653.0,1298127980.0,5249732400.0
sh688668,鼎通科技,2021-12-03,61.66,63.5,60.68,61.4,61.66,1153333.0,71543003.0,1292654200.0,5227596000.0
sh688668,鼎通科技,2021-12-06,61.79,61.79,56.36,57.95,61.4,1890322.0,109932723.0,1220021350.0,4933863000.0
sh688668,鼎通科技,2021-12-07,58.49,58.62,52.25,54.84,57.95,3053551.0,166185751.0,1154546520.0,4669077600.0
sh688668,鼎通科技,2021-12-08,55.8,57.98,54.86,57.58,54.84,1602933.0,90723818.0,1212231740.0,4902361200.0
sh688668,鼎通科技,2021-12-09,57.81,57.86,55.0,57.11,57.58,1064838.0,60473931.0,1202336830.0,4862345400.0
sh688668,鼎通科技,2021-12-10,57.8,61.28,56.3,60.3,57.11,1691004.0,100003850.0,1269495900.0,5133942000.0
sh688668,鼎通科技,2021-12-13,60.99,61.5,59.0,60.8,60.3,1044129.0,63033647.0,1280022400.0,5176512000.0
sh688668,鼎通科技,2021-12-14,62.0,63.26,60.27,62.42,60.8,1292336.0,80409368.0,1314128260.0,5314438800.0
sh688668,鼎通科技,2021-12-15,59.6,63.11,59.36,61.44,62.42,642953.0,39837670.0,1293496320.0,5231001600.0
sh688668,鼎通科技,2021-12-16,61.84,62.27,60.11,61.32,61.44,658352.0,40203753.0,1290969960.0,5220784800.0
sh688668,鼎通科技,2021-12-17,62.11,62.11,59.31,60.09,61.32,637740.0,38562683.0,1265074770.0,5116062600.0
sh688668,鼎通科技,2021-12-20,58.1,61.22,58.1,58.25,60.09,935618.0,55209468.0,1226337250.0,4959405000.0
sh688668,鼎通科技,2021-12-21,59.33,59.59,58.26,58.3,58.25,784258.0,46148813.0,1901885395.3000002,4963662000.0
sh688668,鼎通科技,2021-12-22,58.87,58.87,56.61,56.79,58.3,680715.0,39034059.0,1852625584.8899999,4835100600.0
sh688668,鼎通科技,2021-12-23,56.72,65.0,56.58,63.1,56.79,2291391.0,141308822.0,2058472872.1000001,5372334000.0
sh688668,鼎通科技,2021-12-24,64.84,67.97,63.98,64.97,63.1,2217073.0,146511424.0,2119476743.2699997,5531545800.0
sh688668,鼎通科技,2021-12-27,65.94,66.0,62.2,65.79,64.97,1387956.0,88579615.0,2146227103.89,5601360600.000001
sh688668,鼎通科技,2021-12-28,64.98,71.66,64.1,70.18,65.79,1993173.0,138626050.0,2289439400.38,5975125200.0
sh688668,鼎通科技,2021-12-29,70.4,71.84,66.18,68.1,70.18,1527269.0,104451078.0,2221584827.1,5798034000.0
sh688668,鼎通科技,2021-12-30,68.1,68.59,65.04,67.6,68.1,1910555.0,127164249.0,2205273631.6,5755464000.0
sh688668,鼎通科技,2021-12-31,66.95,71.35,66.61,70.48,67.6,1586480.0,109749411.0,2299226117.68,6000667200.0
sh688668,鼎通科技,2022-01-04,70.47,71.0,65.4,70.07,70.48,1442670.0,98521237.0,2285850937.37,5965759800.0
sh688668,鼎通科技,2022-01-05,70.0,70.0,66.41,67.8,70.07,1038191.0,70413812.0,2211798109.8,5772492000.0
sh688668,鼎通科技,2022-01-06,67.8,72.0,66.15,70.7,67.8,1864799.0,129039396.0,2306403043.7,6019398000.0
sh688668,鼎通科技,2022-01-07,70.36,71.95,66.02,67.2,70.7,1527403.0,104167256.0,2192224675.2000003,5721408000.0
sh688668,鼎通科技,2022-01-10,67.2,68.88,65.6,67.18,67.2,1072326.0,71782213.0,2191572227.38,5719705200.0
sh688668,鼎通科技,2022-01-11,68.0,68.98,65.17,66.76,67.18,961462.0,63984144.0,2177870823.1600003,5683946400.0
sh688668,鼎通科技,2022-01-12,66.9,66.9,60.99,65.88,66.76,1544052.0,99134704.0,2149163119.08,5609023199.999999
sh688668,鼎通科技,2022-01-13,64.6,65.76,60.88,61.36,65.88,1621059.0,101009728.0,2001709911.76,5224190400.0
sh688668,鼎通科技,2022-01-14,60.0,66.0,59.88,63.8,61.36,1879791.0,119961059.0,2081308545.8000002,5431932000.0
