数据由邢不行整理
股票代码,股票名称,交易日期,开盘价,最高价,最低价,收盘价,前收盘价,成交量,成交额,流通市值,总市值
sh688148,N芳源,2021-08-06,35.0,39.48,30.0,34.8,4.58,57930755.0,2003551346.0,2514612469.2000003,17704152000.0
sh688148,芳源股份,2021-08-09,34.2,37.83,31.89,37.8,34.8,40034853.0,1391253105.0,2731389406.2000003,19230372000.0
sh688148,芳源股份,2021-08-10,36.11,37.34,33.11,34.49,37.8,28203094.0,992662466.0,2492212185.71,17546442600.0
sh688148,芳源股份,2021-08-11,34.19,36.66,33.8,33.8,34.49,19694837.0,691903597.0,2442353490.2,17195412000.0
sh688148,芳源股份,2021-08-12,32.97,35.25,31.0,35.0,33.8,22908868.0,759009222.0,2529064265.0,17805900000.0
sh688148,芳源股份,2021-08-13,33.9,34.39,31.3,31.3,35.0,18841481.0,620632513.0,2261706042.7000003,15923562000.0
sh688148,芳源股份,2021-08-16,30.4,30.8,28.13,28.2,31.3,13076230.0,379730531.0,2037703207.8,14346468000.0
sh688148,芳源股份,2021-08-17,28.71,29.69,27.63,28.0,28.2,10215066.0,292701664.0,2023251412.0,14244720000.0
sh688148,芳源股份,2021-08-18,27.7,28.66,27.61,28.37,28.0,8467035.0,238453897.0,2049987234.23,14432953799.999998
sh688148,芳源股份,2021-08-19,28.0,30.43,28.0,29.91,28.37,11402213.0,336366975.0,2161266061.8900003,15216413400.0
sh688148,芳源股份,2021-08-20,29.35,29.92,28.53,29.29,29.91,8149561.0,237353748.0,2116465494.91,14900994600.0
sh688148,芳源股份,2021-08-23,29.5,31.73,28.53,30.75,29.29,13285604.0,401298438.0,2221963604.25,15643755000.0
sh688148,芳源股份,2021-08-24,30.24,33.15,30.2,32.4,30.75,15348667.0,490670363.0,2341190919.6,16483176000.0
sh688148,芳源股份,2021-08-25,31.93,32.56,30.68,31.6,32.4,8083539.0,254694019.0,2283383736.4,16076184000.0
sh688148,芳源股份,2021-08-26,31.18,31.86,30.5,30.72,31.6,5549860.0,172745926.0,2219795834.88,15628492800.0
sh688148,芳源股份,2021-08-27,30.35,32.28,30.2,30.7,30.72,7892553.0,246839471.0,2218350655.3,15618318000.0
sh688148,芳源股份,2021-08-30,31.5,31.55,28.18,29.49,30.7,10354779.0,307914055.0,2130917290.71,15002742600.0
sh688148,芳源股份,2021-08-31,29.4,29.64,28.38,29.49,29.49,6054728.0,175699210.0,2130917290.71,15002742600.0
sh688148,芳源股份,2021-09-01,29.18,30.17,27.5,28.3,29.49,5938570.0,171586874.0,2044929105.7,14397342000.0
sh688148,芳源股份,2021-09-02,28.26,29.75,27.6,29.63,28.3,8362778.0,239163024.0,2141033547.77,15073966200.000002
sh688148,芳源股份,2021-09-03,29.3,29.75,27.88,28.23,29.63,5999732.0,171288186.0,2039870977.17,14361730200.0
sh688148,芳源股份,2021-09-06,29.0,30.85,28.1,30.1,28.23,8433428.0,248951338.0,2174995267.9,15313074000.0
sh688148,芳源股份,2021-09-07,29.55,35.3,29.55,34.68,30.1,16071194.0,530466775.0,2505941391.72,17643103200.0
sh688148,芳源股份,2021-09-08,35.99,37.5,35.1,36.6,34.68,13275968.0,483850685.0,2644678631.4,18619884000.0
sh688148,芳源股份,2021-09-09,36.16,36.98,33.58,33.64,36.6,9534978.0,329934453.0,2430792053.56,17114013600.000002
sh688148,芳源股份,2021-09-10,33.7,34.16,30.7,32.2,33.64,11628127.0,374192895.0,2326739123.8,16381428000.0
sh688148,芳源股份,2021-09-13,31.9,32.94,31.3,31.75,32.2,5595278.0,178321530.0,2294222583.25,16152495000.0
sh688148,芳源股份,2021-09-14,31.82,33.23,30.7,32.03,31.75,7964670.0,255541407.0,2314455097.37,16294942200.0
sh688148,芳源股份,2021-09-15,31.7,33.08,31.31,31.5,32.03,4839028.0,155315142.0,2276157838.5,16025310000.0
sh688148,芳源股份,2021-09-16,31.51,31.69,28.63,28.69,31.5,8282686.0,245843834.0,2073110107.51,14595750600.0
sh688148,芳源股份,2021-09-17,28.9,29.17,27.66,28.3,28.69,4422485.0,124757364.0,2044929105.7,14397342000.0
sh688148,芳源股份,2021-09-22,27.6,28.44,26.66,26.8,28.3,6391139.0,175658893.0,1936540637.2,13634232000.0
sh688148,芳源股份,2021-09-23,27.12,27.22,24.9,25.16,26.8,11077011.0,285157251.0,1818035911.64,12799898400.0
sh688148,芳源股份,2021-09-24,25.02,25.17,23.96,24.46,25.16,5836193.0,143574022.0,1767454626.34,12443780400.0
sh688148,芳源股份,2021-09-27,25.4,26.19,23.85,25.0,24.46,8600444.0,215141821.0,1806474475.0,12718500000.0
sh688148,芳源股份,2021-09-28,24.29,26.1,24.29,25.67,25.0,6179463.0,157702615.0,1854887990.93,13059355800.0
sh688148,芳源股份,2021-09-29,25.35,26.93,25.31,25.63,25.67,6121898.0,160454062.0,1851997631.77,13039006200.000002
sh688148,芳源股份,2021-09-30,25.7,26.93,25.7,26.58,25.63,4098631.0,108630410.0,1920643661.82,13522309200.0
sh688148,芳源股份,2021-10-08,27.48,27.48,26.13,26.5,26.58,1984788.0,52581742.0,1914862943.5,13481610000.0
sh688148,芳源股份,2021-10-11,26.76,26.92,25.97,26.69,26.5,2028384.0,53656292.0,1928592149.51,13578270600.0
sh688148,芳源股份,2021-10-12,26.61,26.78,24.8,25.32,26.69,3265887.0,83001506.0,1829597348.28,12881296800.0
sh688148,芳源股份,2021-10-13,25.22,25.77,24.55,25.49,25.32,2267135.0,57366034.0,1841881374.71,12967782600.0
sh688148,芳源股份,2021-10-14,25.22,26.8,25.2,26.32,25.49,3959552.0,103693697.0,1901856327.28,13390036800.0
sh688148,芳源股份,2021-10-15,26.35,27.68,25.88,27.45,26.32,4667045.0,125700375.0,1983508973.55,13964913000.0
sh688148,芳源股份,2021-10-18,27.45,29.33,27.26,28.55,27.45,6645810.0,189469478.0,2062993850.45,14524527000.0
sh688148,芳源股份,2021-10-19,27.33,29.99,27.2,29.25,28.55,6849632.0,200123581.0,2113575135.75,14880645000.0
sh688148,芳源股份,2021-10-20,29.52,30.87,29.0,29.5,29.25,8070111.0,242922627.0,2131639880.5,15007830000.0
sh688148,芳源股份,2021-10-21,29.9,31.14,29.3,30.8,29.5,8927913.0,272245368.0,2225576553.2,15669192000.0
sh688148,芳源股份,2021-10-22,30.93,31.88,30.0,30.37,30.8,6418597.0,198445064.0,2194505192.23,15450433799.999998
sh688148,芳源股份,2021-10-25,30.61,32.6,30.49,31.88,30.37,6998048.0,223040158.0,2303616250.52,16218631200.000002
sh688148,芳源股份,2021-10-26,32.53,32.77,30.83,31.0,31.88,3951775.0,124777313.0,2240028349.0,15770940000.0
sh688148,芳源股份,2021-10-27,30.64,31.26,29.69,30.32,31.0,3444894.9999999995,104298105.0,2190892243.28,15424996800.0
sh688148,芳源股份,2021-10-28,30.36,30.65,28.01,28.16,30.32,4583525.0,133378116.0,2034812848.64,14326118400.0
sh688148,芳源股份,2021-10-29,27.9,30.28,27.78,28.65,28.16,5626981.0,162864323.0,2070219748.35,14575401000.0
sh688148,芳源股份,2021-11-01,28.66,30.55,27.51,30.37,28.65,4807699.0,140247035.0,2194505192.23,15450433799.999998
sh688148,芳源股份,2021-11-02,30.12,30.47,29.47,30.1,30.37,3754860.0,112332627.0,2174995267.9,15313074000.0
sh688148,芳源股份,2021-11-03,30.0,30.12,29.01,29.63,30.1,2709257.0,80124567.0,2141033547.77,15073966200.000002
sh688148,芳源股份,2021-11-04,29.6,32.17,29.33,31.04,29.63,5901968.0,182359438.0,2242918708.1600003,15791289600.0
sh688148,芳源股份,2021-11-05,32.0,35.44,32.0,34.34,31.04,12584330.0,426478374.0,2481373338.86,17470131600.0
sh688148,芳源股份,2021-11-08,36.7,38.99,34.2,36.7,34.34,15062605.0,554660035.0,2651904529.3,18670758000.0
sh688148,芳源股份,2021-11-09,35.48,36.5,33.91,35.07,36.7,9615075.0,337332214.0,2534122393.53,17841511800.0
sh688148,芳源股份,2021-11-10,35.11,35.35,32.6,33.77,35.07,6764157.0,225771307.0,2440185720.83,17180149800.0
sh688148,芳源股份,2021-11-11,34.0,34.8,32.68,34.36,33.77,6481813.0,218562884.0,2482818518.44,17480306400.0
sh688148,芳源股份,2021-11-12,33.87,35.06,33.4,33.51,34.36,5538102.0,188153546.0,2421398386.29,17047877400.0
sh688148,芳源股份,2021-11-15,32.89,33.9,32.3,32.4,33.51,3627333.0,118817815.0,2341190919.6,16483176000.0
sh688148,芳源股份,2021-11-16,32.4,33.7,31.87,32.94,32.4,4069591.0,133880927.0,2380210768.26,16757895600.0
sh688148,芳源股份,2021-11-17,33.08,34.41,32.66,34.3,32.94,5077727.0,170675367.0,2478482979.7000003,17449782000.0
sh688148,芳源股份,2021-11-18,33.78,34.1,32.35,32.54,34.3,4731819.0,157038355.0,2351307176.6600003,16554399600.0
sh688148,芳源股份,2021-11-19,32.99,37.72,32.71,36.41,32.54,9437757.0,336241339.0,2630949425.3900003,18523223400.0
sh688148,芳源股份,2021-11-22,37.98,40.66,36.6,38.25,36.41,9598245.0,371444996.0,2763905946.75,19459305000.0
sh688148,芳源股份,2021-11-23,38.44,42.5,38.44,40.0,38.25,10107168.0,407957947.0,2890359160.0000005,20349600000.0
sh688148,芳源股份,2021-11-24,41.2,41.3,38.61,38.71,40.0,6408496.0,252786091.0,2797145077.09,19693325400.0
sh688148,芳源股份,2021-11-25,38.67,41.58,37.9,39.26,38.71,6724035.0,267506986.0,2836887515.54,19973132400.0
sh688148,芳源股份,2021-11-26,39.19,41.95,38.8,39.88,39.26,6518127.0,264190478.0,2881688082.52,20288551200.0
sh688148,芳源股份,2021-11-29,38.95,41.67,38.9,40.89,39.88,5653282.0,230298436.0,2954669651.31,20802378600.0
sh688148,芳源股份,2021-11-30,41.6,42.24,39.34,39.52,40.89,4229667.0,169405370.0,2855674850.08,20223095360.0
sh688148,芳源股份,2021-12-01,39.52,40.05,38.45,39.05,39.52,2886911.0,112816672.0,2821713129.95,19982587900.0
sh688148,芳源股份,2021-12-02,38.8,39.79,38.28,39.03,39.05,3073601.0,119919751.0,2820267950.37,19972353540.0
sh688148,芳源股份,2021-12-03,39.42,39.55,37.86,38.5,39.03,3426242.0,132094584.0,2781970691.5,19701143000.0
sh688148,芳源股份,2021-12-06,38.44,38.79,36.45,36.8,38.5,4902639.0,183167242.0,2659130427.2000003,18831222400.0
sh688148,芳源股份,2021-12-07,37.19,37.29,34.06,35.62,36.8,8020190.0,283542090.0,2573864831.98,18227395160.0
sh688148,芳源股份,2021-12-08,36.48,38.59,35.6,38.02,35.62,4031088.0,151185413.0,2747286381.58,19455518360.0
sh688148,芳源股份,2021-12-09,37.7,37.88,36.18,37.1,38.02,2786288.0,103036318.0,2680808120.9,18984737800.0
sh688148,芳源股份,2021-12-10,36.58,38.18,36.36,36.63,37.1,3780030.0,140321035.0,2646846400.77,18744230340.0
sh688148,芳源股份,2021-12-13,36.77,36.98,34.05,36.16,36.63,8253083.0,290703663.0,2612884680.64,18503722880.0
sh688148,芳源股份,2021-12-14,35.58,36.36,35.37,35.65,36.16,2709178.0,96958068.0,2576032601.35,18242746700.0
sh688148,芳源股份,2021-12-15,35.72,36.8,35.25,36.06,35.65,2947083.0,106675844.0,2605658782.74,18452551080.0
sh688148,芳源股份,2021-12-16,36.06,36.51,35.3,35.8,36.06,1907106.0,68023071.0,2586871448.2,18319504400.0
sh688148,芳源股份,2021-12-17,35.8,35.8,34.55,34.58,35.8,2352359.0,82159943.0,2498715493.82,17695208440.0
sh688148,芳源股份,2021-12-20,34.67,35.07,33.19,33.53,34.58,2158506.0,72765362.0,2422843565.87,17157904540.0
sh688148,芳源股份,2021-12-21,34.34,34.34,32.78,34.2,33.53,2044531.0,68617920.0,2471257081.7999997,17500755600.0
sh688148,芳源股份,2021-12-22,34.3,35.43,33.88,35.1,34.2,2443603.0,85265487.0,2536290162.9,17961301800.0
sh688148,芳源股份,2021-12-23,35.02,35.4,34.7,35.23,35.1,2929313.0,102837656.0,2545683830.17,18027825140.0
sh688148,芳源股份,2021-12-24,35.54,35.55,33.6,34.73,35.23,3134921.0,108114685.0,2509554340.67,17771966140.0
sh688148,芳源股份,2021-12-27,34.86,34.92,33.48,33.98,34.73,1755865.0,59889261.0,2455360106.42,17388177640.0
sh688148,芳源股份,2021-12-28,33.6,35.44,33.6,35.27,33.98,1582628.0,55218464.0,2548574189.33,18048293860.0
sh688148,芳源股份,2021-12-29,35.27,35.69,34.26,34.8,35.27,2402031.0,83876359.0,2514612469.2000003,17807786400.0
sh688148,芳源股份,2021-12-30,34.8,35.9,34.52,34.6,34.8,1700469.0,59683142.0,2500160673.4,17705442800.0
sh688148,芳源股份,2021-12-31,34.6,35.26,34.11,34.99,34.6,1558276.0,54110475.0,2528341675.21,17905012820.0
sh688148,芳源股份,2022-01-04,35.0,36.36,32.88,33.04,34.99,3840721.0,131846282.0,2387436666.16,16907162720.000002
sh688148,芳源股份,2022-01-05,33.03,33.03,30.41,30.9,33.04,5206730.0,161801285.0,2232802451.1,15812086200.000002
sh688148,芳源股份,2022-01-06,30.82,31.65,30.48,30.94,30.9,2599214.0,80796528.0,2235692810.26,15832554920.0
sh688148,芳源股份,2022-01-07,30.9,31.27,28.71,28.78,30.94,5389640.0,158468189.0,2079613415.62,14727244040.000002
sh688148,芳源股份,2022-01-10,28.86,29.5,28.11,29.07,28.78,2692083.0,77496155.0,2100568519.53,14875642260.0
sh688148,芳源股份,2022-01-11,28.96,29.08,27.99,28.68,29.07,3199163.0,90940828.0,2072387517.7199998,14676072240.0
sh688148,芳源股份,2022-01-12,28.98,29.99,28.9,29.79,28.68,2260522.0,67008203.0,2152594984.41,15244079220.0
sh688148,芳源股份,2022-01-13,29.8,29.89,28.19,28.35,29.79,2244096.0,64276169.0,2048542054.65,14507205300.0
sh688148,芳源股份,2022-01-14,28.21,29.12,28.0,28.85,28.35,2187851.0,62849041.0,2084671544.1499999,14763064300.0
