数据由邢不行整理
股票代码,股票名称,交易日期,开盘价,最高价,最低价,收盘价,前收盘价,成交量,成交额,流通市值,总市值
sh688613,N奥精,2021-05-21,80.02,96.96,78.0,95.01,16.43,23216466.0,2020331595.0,2603195236.71,12668000063.34
sh688613,奥精医疗,2021-05-24,91.0,97.0,86.51,87.7,95.01,13608758.0,1231105357.0,2402907296.7,11693333391.8
sh688613,奥精医疗,2021-05-25,89.41,106.5,88.04,102.0,87.7,13635365.0,1291118746.0,2794715442.0,13600000068.0
sh688613,奥精医疗,2021-05-26,101.0,109.51,99.13,103.77,102.0,9915123.0,1037266032.0,2843211974.67,13836000069.18
sh688613,奥精医疗,2021-05-27,102.0,111.88,102.0,110.48,103.77,5403526.0,581542969.0,3027060412.08,14730666740.32
sh688613,奥精医疗,2021-05-28,111.01,124.88,109.0,115.0,110.48,7971775.0,931244291.0,3150904665.0,15333333410.0
sh688613,奥精医疗,2021-05-31,116.0,134.0,115.55,133.33,115.0,5975876.0,738015657.0,3653131469.43,17777333422.22
sh688613,奥精医疗,2021-06-01,133.32,137.85,126.31,134.79,133.33,5093607.0,669692391.0,3693134259.09,17972000089.86
sh688613,奥精医疗,2021-06-02,133.8,135.79,124.1,126.9,134.79,4851000.0,622249274.0,3476954799.9,16920000084.599998
sh688613,奥精医疗,2021-06-03,125.95,128.96,112.59,114.0,126.9,6359782.0,760340264.0,3123505494.0,15200000075.999998
sh688613,奥精医疗,2021-06-04,113.2,114.5,108.4,112.0,114.0,4365338.0,489464312.0,3068707152.0,14933333407.999998
sh688613,奥精医疗,2021-06-07,111.26,117.28,108.0,116.11,112.0,3911495.0,444612673.0,3181317744.81,15481333410.740002
sh688613,奥精医疗,2021-06-08,113.0,116.8,98.77,101.8,116.11,7840005.0,830149792.0,2789235607.8,13573333401.2
sh688613,奥精医疗,2021-06-09,101.28,105.61,96.55,104.04,101.8,3901351.0,398729200.0,2850609750.84,13872000069.36
sh688613,奥精医疗,2021-06-10,102.79,104.1,95.2,98.48,104.04,4658929.0,457871361.0,2698270360.0800004,13130666732.320002
sh688613,奥精医疗,2021-06-11,98.0,101.98,86.47,87.81,98.48,6182501.0,573938819.0,2405921205.51,11708000058.54
sh688613,奥精医疗,2021-06-15,87.81,91.6,83.69,89.0,87.81,4282498.0,375802475.0,2438526219.0,11866666726.0
sh688613,奥精医疗,2021-06-16,88.87,94.97,85.5,93.73,89.0,4720226.0,427179878.0,2568124297.83,12497333395.82
sh688613,奥精医疗,2021-06-17,93.0,94.62,91.0,93.35,93.73,2929123.0,272703635.0,2557712612.85,12446666728.9
sh688613,奥精医疗,2021-06-18,93.66,97.52,91.31,92.22,93.35,2065704.0,194167877.0,2526751549.62,12296000061.48
sh688613,奥精医疗,2021-06-21,90.0,97.96,87.61,97.8,92.22,3265003.0,301687554.0,2679638923.8,13040000065.2
sh688613,奥精医疗,2021-06-22,96.44,102.36,96.0,99.1,97.8,2677356.0,266903995.0,2715257846.1,13213333399.400002
sh688613,奥精医疗,2021-06-23,100.0,101.44,96.1,97.11,99.1,2099561.0,206016975.0,2660733495.81,12948000064.74
sh688613,奥精医疗,2021-06-24,98.55,98.55,86.99,87.24,97.11,4065618.0,364746963.0,2390303678.04,11632000058.16
sh688613,奥精医疗,2021-06-25,86.0,89.2,85.5,86.42,87.24,2379289.0,206449976.0,2367836357.82,11522666724.28
sh688613,奥精医疗,2021-06-28,86.5,92.77,85.2,90.1,86.42,2594511.0,231080630.0,2468665307.1,12013333393.4
sh688613,奥精医疗,2021-06-29,89.99,92.91,88.05,90.8,90.1,2111982.0,192733456.0,2487844726.8,12106666727.2
sh688613,奥精医疗,2021-06-30,90.23,93.41,90.01,90.79,90.8,1356930.0,124509893.0,2487570735.09,12105333393.86
sh688613,奥精医疗,2021-07-01,94.5,96.5,90.91,93.49,90.79,3136401.0,295319942.0,2561548496.79,12465333395.66
sh688613,奥精医疗,2021-07-02,93.0,93.36,88.99,89.6,93.49,1612200.0,146262029.0,2454965721.6,11946666726.4
sh688613,奥精医疗,2021-07-05,89.66,91.73,87.01,90.78,89.6,1271317.0,114754240.0,2487296743.38,12104000060.52
sh688613,奥精医疗,2021-07-06,91.88,91.88,83.69,88.27,90.78,2380776.0,206884733.0,2418524824.17,11769333392.18
sh688613,奥精医疗,2021-07-07,86.5,88.96,84.1,88.01,88.27,1578532.0,137745350.0,2411401039.71,11734666725.339998
sh688613,奥精医疗,2021-07-08,87.6,89.18,84.57,84.81,88.01,1604023.0,138595671.0,2323723692.51,11308000056.54
sh688613,奥精医疗,2021-07-09,84.6,85.88,82.43,85.76,84.81,1340227.0,112642165.0,2349752904.96,11434666723.839998
sh688613,奥精医疗,2021-07-12,85.0,86.8,83.58,85.66,85.76,1255504.0,107089536.0,2347012987.86,11421333390.44
sh688613,奥精医疗,2021-07-13,85.75,89.57,84.24,89.2,85.66,1553237.0,134822979.0,2444006053.2,11893333392.8
sh688613,奥精医疗,2021-07-14,88.1,91.66,88.0,88.85,89.2,1520511.0,137284931.0,2434416343.35,11846666725.900002
sh688613,奥精医疗,2021-07-15,88.88,90.8,85.8,87.53,88.85,923513.0,81454800.0,2398249437.63,11670666725.02
sh688613,奥精医疗,2021-07-16,86.35,87.99,85.28,85.5,87.53,659150.0,56754986.0,2342629120.5,11400000057.000002
sh688613,奥精医疗,2021-07-19,84.81,85.5,82.6,83.5,85.5,851609.0,71244002.0,2287830778.5,11133333389.0
sh688613,奥精医疗,2021-07-20,82.5,83.49,78.35,80.45,83.5,1833359.0,147207097.0,2204263306.9500003,10726666720.3
sh688613,奥精医疗,2021-07-21,80.0,80.88,77.8,79.0,80.45,2126542.0,167712776.0,2164534509.0,10533333385.999998
sh688613,奥精医疗,2021-07-22,79.99,86.0,77.77,86.0,79.0,2845319.0,232668425.0,2356328706.0,11466666724.0
sh688613,奥精医疗,2021-07-23,84.98,85.3,81.0,81.0,86.0,1752895.0,145110154.0,2219332851.0,10800000054.0
sh688613,奥精医疗,2021-07-26,79.0,80.0,70.0,73.26,81.0,2059795.0,154988853.0,2007263267.46,9768000048.84
sh688613,奥精医疗,2021-07-27,72.2,73.93,68.62,68.73,73.26,1576252.0,110852924.0,1883145022.83,9164000045.82
sh688613,奥精医疗,2021-07-28,68.2,69.5,63.07,66.4,68.73,1469789.0,96901540.0,1819304954.4,8853333377.6
sh688613,奥精医疗,2021-07-29,67.16,69.29,67.16,68.28,66.4,1003761.0,68689387.0,1870815395.88,9104000045.52
sh688613,奥精医疗,2021-07-30,67.0,70.4,66.21,69.75,68.28,912271.0,62604533.0,1911092177.25,9300000046.5
sh688613,奥精医疗,2021-08-02,68.81,70.38,65.3,69.76,69.75,1288094.0,87322007.0,1911366168.96,9301333379.84
sh688613,奥精医疗,2021-08-03,69.8,74.59,68.56,71.3,69.76,1545651.0,112222772.0,1953560892.3,9506666714.2
sh688613,奥精医疗,2021-08-04,70.11,71.83,69.01,69.99,71.3,775856.0,54415959.0,1917667978.29,9332000046.66
sh688613,奥精医疗,2021-08-05,68.85,74.0,68.85,70.09,69.99,983325.0,70071817.0,1920407895.39,9345333380.06
sh688613,奥精医疗,2021-08-06,70.09,70.18,66.68,67.27,70.09,763115.0,51699214.0,1843142233.17,8969333378.18
sh688613,奥精医疗,2021-08-09,65.65,70.49,65.65,70.3,67.27,912892.0,63301364.0,1926161721.3,9373333380.2
sh688613,奥精医疗,2021-08-10,71.46,71.46,68.8,69.37,70.3,723512.0,50323397.0,1900680492.27,9249333379.58
sh688613,奥精医疗,2021-08-11,69.37,69.37,67.27,67.8,69.37,823262.0,55936316.0,1857663793.8,9040000045.2
sh688613,奥精医疗,2021-08-12,68.03,68.5,67.25,67.5,67.8,483161.0,32727108.0,1849444042.5,9000000045.0
sh688613,奥精医疗,2021-08-13,67.28,67.8,66.0,66.6,67.5,586064.0,39162485.0,1824784788.6,8880000044.4
sh688613,奥精医疗,2021-08-16,66.3,74.55,66.04,72.05,66.6,1943908.0,136968769.0,1974110270.55,9606666714.7
sh688613,奥精医疗,2021-08-17,72.83,73.49,70.64,72.6,72.05,1376460.0,99061146.0,1989179814.6,9680000048.4
sh688613,奥精医疗,2021-08-18,72.01,72.76,71.03,72.13,72.6,593179.0,42566751.0,1976302204.23,9617333381.42
sh688613,奥精医疗,2021-08-19,71.79,76.5,71.6,73.48,72.13,1196313.0,88980250.0,2013291085.08,9797333382.32
sh688613,奥精医疗,2021-08-20,74.0,74.0,69.53,70.48,73.48,996207.0,70904127.0,1931093572.08,9397333380.32
sh688613,奥精医疗,2021-08-23,69.8,71.83,67.53,70.1,70.48,1256108.0,86407693.0,1920681887.1,9346666713.4
sh688613,奥精医疗,2021-08-24,70.18,70.18,63.0,64.91,70.1,2570236.0,166844216.0,1778480189.61,8654666709.94
sh688613,奥精医疗,2021-08-25,64.03,65.81,63.5,63.9,64.91,1230257.0,79246942.0,1750807026.9,8520000042.599999
sh688613,奥精医疗,2021-08-26,63.89,64.97,60.2,60.35,63.9,1530060.0,95448457.0,1653539969.85,8046666706.900001
sh688613,奥精医疗,2021-08-27,60.98,61.47,59.4,60.35,60.35,1011351.0,60969898.0,1653539969.85,8046666706.900001
sh688613,奥精医疗,2021-08-30,60.06,61.57,59.03,61.43,60.35,991024.0,60209030.0,1683131074.53,8190666707.62
sh688613,奥精医疗,2021-08-31,62.4,65.25,62.4,63.62,61.43,1549842.0,99358606.0,1743135259.02,8482666709.08
sh688613,奥精医疗,2021-09-01,64.38,66.49,63.01,65.74,63.62,1647948.0,107853013.0,1801221501.54,8765333377.16
sh688613,奥精医疗,2021-09-02,65.75,71.5,65.02,68.9,65.74,2072451.0,143401591.0,1887802881.9,9186666712.6
sh688613,奥精医疗,2021-09-03,69.6,70.5,67.5,69.0,68.9,1263136.0,86806026.0,1890542799.0,9200000046.0
sh688613,奥精医疗,2021-09-06,69.0,71.8,68.33,70.07,69.0,1327647.0,93813718.0,1919859911.97,9342666713.38
sh688613,奥精医疗,2021-09-07,70.01,70.01,68.33,68.95,70.07,1229086.0,84872131.0,1889172840.45,9193333379.3
sh688613,奥精医疗,2021-09-08,68.95,72.18,68.3,70.6,68.95,938808.0,66523307.0,1934381472.6,9413333380.4
sh688613,奥精医疗,2021-09-09,71.21,72.22,68.75,69.52,70.6,879495.0,61732532.0,1904790367.92,9269333379.68
sh688613,奥精医疗,2021-09-10,69.01,69.9,67.6,69.1,69.52,726174.0,49908258.0,1893282716.1,9213333379.4
sh688613,奥精医疗,2021-09-13,68.98,70.6,66.1,67.01,69.1,921673.0,63072376.0,1836018448.71,8934666711.34
sh688613,奥精医疗,2021-09-14,67.02,72.88,66.17,71.78,67.01,2087052.0,147212230.0,1966712494.38,9570666714.52
sh688613,奥精医疗,2021-09-15,70.99,71.0,65.0,65.37,71.78,2087528.0,140293799.0,1791083808.27,8716000043.58
sh688613,奥精医疗,2021-09-16,64.82,69.5,64.18,66.7,65.37,1245576.0,83330019.0,1827524705.7,8893333377.8
sh688613,奥精医疗,2021-09-17,66.02,72.47,64.5,71.16,66.7,2557830.0,179333910.0,1949725008.36,9488000047.44
sh688613,奥精医疗,2021-09-22,70.02,73.3,68.14,68.94,71.16,1814626.0,127699625.0,1888898848.74,9192000045.96
sh688613,奥精医疗,2021-09-23,69.0,71.38,68.0,70.32,68.94,1120099.0,78187397.0,1926709704.72,9376000046.88
sh688613,奥精医疗,2021-09-24,70.15,71.88,69.38,69.93,70.32,914121.0,64279208.0,1916024028.03,9324000046.62
sh688613,奥精医疗,2021-09-27,69.61,72.4,67.95,72.0,69.93,1781555.0,126581770.0,1972740312.0,9600000048.0
sh688613,奥精医疗,2021-09-28,72.0,72.45,70.41,70.82,72.0,861321.0,61318040.0,1940409290.22,9442666713.88
sh688613,奥精医疗,2021-09-29,70.11,70.97,64.51,65.0,70.82,1496188.0,101193156.0,1780946115.0,8666666710.0
sh688613,奥精医疗,2021-09-30,65.48,68.48,64.58,67.88,65.0,898599.0,60565880.0,1859855727.48,9050666711.92
sh688613,奥精医疗,2021-10-08,69.0,70.49,68.21,68.99,67.88,670398.0,46468386.0,1890268807.29,9198666712.66
sh688613,奥精医疗,2021-10-11,68.53,70.59,68.33,69.0,68.99,702858.0,48930437.0,1890542799.0,9200000046.0
sh688613,奥精医疗,2021-10-12,69.02,71.6,67.16,70.24,69.0,1163377.0,81713332.0,1924517771.04,9365333380.16
sh688613,奥精医疗,2021-10-13,70.0,71.47,69.6,70.67,70.24,851784.0,59927394.0,1936299414.57,9422666713.78
sh688613,奥精医疗,2021-10-14,70.34,75.0,70.0,73.06,70.67,1647155.0,120541178.0,2001783433.26,9741333382.04
sh688613,奥精医疗,2021-10-15,72.87,73.99,70.86,71.25,73.06,1569756.0,113055502.0,1952190933.75,9500000047.5
sh688613,奥精医疗,2021-10-18,71.0,71.2,66.33,67.95,71.25,1215993.0,82747328.0,1861773669.45,9060000045.3
sh688613,奥精医疗,2021-10-19,67.8,70.46,67.75,69.95,67.95,892523.0,61987915.0,1916572011.45,9326666713.3
sh688613,奥精医疗,2021-10-20,69.45,70.2,66.82,67.2,69.95,1003831.0,68145811.0,1841224291.2,8960000044.8
sh688613,奥精医疗,2021-10-21,67.87,67.97,65.83,66.33,67.2,668798.0,44406320.0,1817387012.43,8844000044.220001
sh688613,奥精医疗,2021-10-22,66.5,67.45,66.0,66.74,66.33,447424.0,29785851.0,1828620672.54,8898666711.16
sh688613,奥精医疗,2021-10-25,66.7,68.66,66.54,68.25,66.74,732592.0,49650896.0,1869993420.75,9100000045.5
sh688613,奥精医疗,2021-10-26,67.98,68.52,65.02,66.76,68.25,1302517.0,86387538.0,1829168655.96,8901333377.84
sh688613,奥精医疗,2021-10-27,66.76,66.76,63.06,65.0,66.76,1057843.0,68367524.0,1780946115.0,8666666710.0
sh688613,奥精医疗,2021-10-28,65.0,65.0,61.9,62.1,65.0,722056.0,45360620.0,1701488519.1,8280000041.4
sh688613,奥精医疗,2021-10-29,61.93,62.78,59.57,59.75,62.1,1738928.0,105846015.0,1637100467.25,7966666706.5
sh688613,奥精医疗,2021-11-01,59.79,60.38,59.05,59.6,59.75,964839.0,57530725.0,1632990591.6,7946666706.400001
sh688613,奥精医疗,2021-11-02,59.15,60.42,56.43,57.13,59.6,1468847.0,85674760.0,1565314639.23,7617333371.42
sh688613,奥精医疗,2021-11-03,57.13,57.99,56.7,57.43,57.13,536972.0,30784531.0,1573534390.5300002,7657333371.62
sh688613,奥精医疗,2021-11-04,57.85,57.95,56.7,57.45,57.43,856898.0,49007778.0,1574082373.95,7660000038.299999
sh688613,奥精医疗,2021-11-05,57.08,58.77,56.85,57.51,57.45,675861.0,39302113.0,1575726324.2099998,7668000038.34
sh688613,奥精医疗,2021-11-08,57.57,57.57,51.76,52.94,57.51,1936527.0,104016487.0,1450512112.74,7058666701.96
sh688613,奥精医疗,2021-11-09,52.8,54.34,52.36,53.86,52.94,740589.0,39732541.0,1475719350.0600002,7181333369.24
sh688613,奥精医疗,2021-11-10,54.3,55.2,53.15,54.55,53.86,874021.0,47448031.0,1494624778.05,7273333369.7
sh688613,奥精医疗,2021-11-11,54.85,56.51,54.14,56.18,54.55,1071927.0,59429395.0,1539285426.78,7490666704.12
sh688613,奥精医疗,2021-11-12,56.19,57.48,55.5,56.75,56.18,860599.0,48745220.0,1554902954.25,7566666704.5
sh688613,奥精医疗,2021-11-15,56.75,58.77,56.4,58.17,56.75,924375.0,53721930.0,1593809777.0700002,7756000038.78
sh688613,奥精医疗,2021-11-16,58.0,59.3,57.92,58.41,58.17,944250.0,55339712.0,1600385578.11,7788000038.94
sh688613,奥精医疗,2021-11-17,58.0,58.99,57.06,57.56,58.41,882338.0,50813617.0,1577096282.76,7674666705.04
sh688613,奥精医疗,2021-11-18,57.56,57.8,55.83,55.94,57.56,970829.0,54878328.0,1532709625.74,7458666703.96
sh688613,奥精医疗,2021-11-19,55.89,56.96,55.66,56.4,55.94,565631.0,31900304.0,1545313244.4,7520000037.6
sh688613,奥精医疗,2021-11-22,56.15,57.65,54.97,57.64,56.4,1472139.0,83169938.0,1649917044.6000001,7685333371.76
sh688613,奥精医疗,2021-11-23,57.35,60.1,57.21,60.0,57.64,1527927.0,89637011.0,1717470900.0,8000000040.0
sh688613,奥精医疗,2021-11-24,60.12,62.86,59.31,61.81,60.0,2074006.0,127200697.0,1769281272.1499999,8241333374.54
sh688613,奥精医疗,2021-11-25,62.2,63.5,61.17,61.86,61.81,1419363.0,88211150.0,1770712497.9,8248000041.24
sh688613,奥精医疗,2021-11-26,62.28,64.24,62.0,63.0,61.86,1382374.0,87212077.0,1803344445.0000002,8400000042.0
sh688613,奥精医疗,2021-11-29,63.2,63.75,62.0,63.08,63.0,1076283.0,67615805.0,1805634406.2,8410666708.72
sh688613,奥精医疗,2021-11-30,62.93,63.26,61.48,62.03,63.08,1320044.0,81861867.0,1775578665.45,8270666708.0199995
sh688613,奥精医疗,2021-12-01,62.0,62.01,60.6,61.0,62.03,936816.0,57203150.0,1746095415.0,8133333374.0
sh688613,奥精医疗,2021-12-02,60.81,61.57,58.72,58.81,61.0,1031254.0,61743542.0,1683407727.15,7841333372.54
sh688613,奥精医疗,2021-12-03,59.0,60.56,58.83,59.95,58.81,624862.0,37387715.0,1716039674.25,7993333373.3
sh688613,奥精医疗,2021-12-06,59.62,60.09,57.5,57.76,59.95,930580.0,54456355.0,1653351986.3999999,7701333371.839999
sh688613,奥精医疗,2021-12-07,57.79,58.35,55.69,56.55,57.76,768707.0,43650260.0,1618716323.2500002,7540000037.7
sh688613,奥精医疗,2021-12-08,56.98,57.97,55.98,57.54,56.55,646570.0,36886077.0,1647054593.1000001,7672000038.36
sh688613,奥精医疗,2021-12-09,57.54,59.67,57.3,58.91,57.54,693720.0,40908906.0,1686270178.65,7854666705.940001
sh688613,奥精医疗,2021-12-10,59.1,59.1,57.68,57.71,58.91,639850.0,37227756.0,1651920760.65,7694666705.14
sh688613,奥精医疗,2021-12-13,57.71,58.48,57.03,57.91,57.71,466396.0,26989314.0,1657645663.65,7721333371.940001
sh688613,奥精医疗,2021-12-14,57.43,58.65,57.34,57.57,57.91,549485.0,31835170.0,1647913328.55,7676000038.38
sh688613,奥精医疗,2021-12-15,57.5,58.06,55.87,55.9,57.57,666449.0,37756173.0,1600110388.5,7453333370.6
sh688613,奥精医疗,2021-12-16,55.91,56.69,55.7,56.48,55.9,309341.0,17385772.0,1616712607.1999998,7530666704.32
sh688613,奥精医疗,2021-12-17,56.48,56.48,54.5,54.5,56.48,638941.0,35164311.0,1560036067.5,7266666703.0
sh688613,奥精医疗,2021-12-20,54.5,55.23,53.01,53.15,54.5,567198.0,30533232.0,1521392972.2499998,7086666702.1
sh688613,奥精医疗,2021-12-21,53.45,54.0,52.67,53.83,53.15,623139.0,33189536.0,1540857642.45,7177333369.22
sh688613,奥精医疗,2021-12-22,53.89,55.8,53.83,55.09,53.83,819987.0,45107252.0,1576924531.35,7345333370.059999
sh688613,奥精医疗,2021-12-23,55.09,55.41,53.4,53.75,55.09,656703.0,35427951.0,1538567681.25,7166666702.5
sh688613,奥精医疗,2021-12-24,53.75,54.0,52.2,52.56,53.75,742691.0,39232699.0,1504504508.4,7008000035.04
sh688613,奥精医疗,2021-12-27,52.57,55.65,52.12,54.38,52.56,1101055.0,59495701.0,1556601125.7,7250666702.92
sh688613,奥精医疗,2021-12-28,54.36,55.48,53.6,54.82,54.38,914172.0,50023979.0,1569195912.3,7309333369.88
sh688613,奥精医疗,2021-12-29,54.73,55.33,53.35,53.4,54.82,937609.0,50925685.0,1528549101.0,7120000035.599999
sh688613,奥精医疗,2021-12-30,53.33,55.3,53.11,54.72,53.4,869955.0,47244747.0,1566333460.8,7296000036.48
sh688613,奥精医疗,2021-12-31,54.72,56.45,54.36,55.26,54.72,962398.0,53437715.0,1581790698.9,7368000036.84
sh688613,奥精医疗,2022-01-04,55.63,56.58,55.06,55.29,55.26,832248.0,46324558.0,1582649434.35,7372000036.86
sh688613,奥精医疗,2022-01-05,54.8,54.85,52.9,53.5,55.29,1037907.0,55517952.0,1531411552.5,7133333369.0
sh688613,奥精医疗,2022-01-06,53.01,54.99,53.01,54.45,53.5,1031153.0,55631106.0,1558604841.75,7260000036.3
sh688613,奥精医疗,2022-01-07,54.97,57.34,54.5,55.22,54.45,1800374.0,101068628.0,1580645718.3,7362666703.4800005
sh688613,奥精医疗,2022-01-10,55.4,57.13,55.06,56.58,55.22,1137984.0,64069131.0,1619575058.7,7544000037.719999
sh688613,奥精医疗,2022-01-11,56.01,56.61,55.49,55.81,56.58,940739.0,52663185.0,1597534182.15,7441333370.54
sh688613,奥精医疗,2022-01-12,56.0,58.84,55.8,58.3,55.81,1671086.0,96849433.0,1668809224.5000002,7773333372.2
sh688613,奥精医疗,2022-01-13,58.0,58.68,57.12,57.53,58.3,877329.0,50675325.0,1646768347.95,7670666705.02
sh688613,奥精医疗,2022-01-14,57.6,59.36,57.21,58.76,57.53,1452250.0,84890138.0,1681976501.4,7834666705.839999
