数据由邢不行整理
股票代码,股票名称,交易日期,开盘价,最高价,最低价,收盘价,前收盘价,成交量,成交额,流通市值,总市值
sh688157,N松井,2020-06-09,82.55,96.02,76.5,92.0,34.48,14449781.0,1179695467.0,1665631848.0,7323200000.0
sh688157,松井股份,2020-06-10,88.0,91.69,83.0,85.23,92.0,9764798.0,852778903.0,1543063069.62,6784308000.0
sh688157,松井股份,2020-06-11,86.9,102.96,86.28,94.5,85.23,9085899.0,850958047.0,1710893583.0,7522200000.0
sh688157,松井股份,2020-06-12,92.34,102.0,91.55,96.35,94.5,7142008.0,688307282.0,1744387266.9,7669460000.0
sh688157,松井股份,2020-06-15,94.5,94.52,89.0,92.76,96.35,5318325.0,487373738.0,1679391415.44,7383696000.0
sh688157,松井股份,2020-06-16,92.51,95.0,87.13,87.6,92.76,5032283.0,449922843.0,1585971194.4,6972960000.0
sh688157,松井股份,2020-06-17,88.1,94.6,83.33,94.35,87.6,6858724.0,611082448.0,1708177878.9,7510260000.0
sh688157,松井股份,2020-06-18,104.0,110.95,101.36,101.88,94.35,7705471.0,807969098.0,1844506224.72,8109648000.0
sh688157,松井股份,2020-06-19,105.0,118.8,105.0,114.23,101.88,6710167.0,747088582.0,2068099195.62,9092708000.0
sh688157,松井股份,2020-06-22,111.5,120.88,107.38,118.0,114.23,5871122.0,665654220.0,2136353892.0,9392800000.0
sh688157,松井股份,2020-06-23,113.0,114.88,109.05,112.0,118.0,4641194.0,517934305.0,2027725728.0,8915200000.0
sh688157,松井股份,2020-06-24,112.53,114.8,107.82,108.0,112.0,3354697.0,369670238.0,1955306952.0,8596800000.0
sh688157,松井股份,2020-06-29,107.91,113.3,105.12,112.11,108.0,3344278.0,368702348.0,2029717244.34,8923956000.0
sh688157,松井股份,2020-06-30,112.0,114.98,108.11,110.4,112.11,2566327.0,284255025.0,1998758217.6,8787840000.0
sh688157,松井股份,2020-07-01,112.0,118.8,110.58,112.74,110.4,3958087.0,452744391.0,2041123201.56,8974104000.0
sh688157,松井股份,2020-07-02,111.0,112.0,105.25,105.5,112.74,3438008.0,370485679.0,1910045217.0,8397800000.0
sh688157,松井股份,2020-07-03,105.82,106.99,99.88,100.91,105.5,3630148.0,370583988.0,1826944671.54,8032436000.0
sh688157,松井股份,2020-07-06,99.8,106.45,97.2,105.1,100.91,4277149.0,439976985.0,1902803339.4,8365960000.0
sh688157,松井股份,2020-07-07,105.06,109.94,102.19,106.0,105.1,4136307.0,440957065.0,1919097564.0,8437600000.0
sh688157,松井股份,2020-07-08,104.82,105.92,102.3,104.15,106.0,2747309.0,285524576.0,1885603880.1,8290340000.0
sh688157,松井股份,2020-07-09,104.99,111.0,103.8,110.0,104.15,4088423.0,440037095.0,1991516340.0,8756000000.0
sh688157,松井股份,2020-07-10,109.0,109.3,106.2,107.0,110.0,2256664.0,243038524.0,1937202258.0,8517200000.0
sh688157,松井股份,2020-07-13,106.51,109.99,104.9,108.56,107.0,3257857.0,349003374.0,1965445580.64,8641376000.0
sh688157,松井股份,2020-07-14,109.02,115.28,107.79,112.12,108.56,4624998.0,517601781.0,2029898291.28,8924752000.0
sh688157,松井股份,2020-07-15,111.0,111.0,98.0,99.01,112.12,4157112.0,426121686.0,1792545752.94,7881196000.0
sh688157,松井股份,2020-07-16,99.0,101.49,92.3,92.5,99.01,2290286.0,222849960.0,1674684195.0,7363000000.0
sh688157,松井股份,2020-07-17,93.95,95.15,92.62,93.46,92.5,1150206.0,107657317.0,1692064701.2400002,7439416000.0
sh688157,松井股份,2020-07-20,94.87,95.88,88.9,92.0,93.46,1323234.0,121047685.0,1665631848.0,7323200000.0
sh688157,松井股份,2020-07-21,92.9,94.3,91.61,93.16,92.0,999633.0,92773080.0,1686633293.0400002,7415536000.0
sh688157,松井股份,2020-07-22,91.55,94.32,91.24,92.57,93.16,1070240.0,99115086.0,1675951523.58,7368572000.0
sh688157,松井股份,2020-07-23,91.51,93.6,89.06,90.64,92.57,1329390.0,120671771.0,1641009464.1599998,7214944000.0
sh688157,松井股份,2020-07-24,91.36,91.36,84.39,84.8,90.64,1477193.0,129488846.0,1535278051.2,6750080000.0
sh688157,松井股份,2020-07-27,85.61,87.92,83.18,86.84,84.8,1082239.0,92503729.0,1572211626.96,6912464000.0
sh688157,松井股份,2020-07-28,86.95,93.8,86.95,92.3,86.84,1567816.0,143378544.0,1671063256.1999998,7347080000.0
sh688157,松井股份,2020-07-29,91.12,94.88,90.1,93.62,92.3,1466123.0,136257219.0,1694961452.28,7452152000.0
sh688157,松井股份,2020-07-30,94.5,99.35,93.02,98.77,93.62,1947382.0,188587051.0,1788200626.38,7862092000.0
sh688157,松井股份,2020-07-31,98.88,103.77,97.0,99.71,98.77,1757105.0,176031619.0,1805219038.74,7936916000.0
sh688157,松井股份,2020-08-03,99.78,105.8,99.78,103.7,99.71,1811957.0,187500967.0,1877456767.8,8254520000.0
sh688157,松井股份,2020-08-04,103.26,105.29,98.13,100.88,103.7,1196147.0,121111604.0,1826401530.72,8030048000.0
sh688157,松井股份,2020-08-05,100.35,101.95,98.35,99.52,100.88,978738.0,97144524.0,1801779146.88,7921792000.0
sh688157,松井股份,2020-08-06,100.05,101.77,98.67,100.37,99.52,898263.0,90074903.0,1817168136.78,7989452000.0
sh688157,松井股份,2020-08-07,100.6,100.6,94.6,96.5,100.37,1152940.0,111342161.0,1747102971.0,7681400000.0
sh688157,松井股份,2020-08-10,96.47,102.97,95.84,102.5,96.5,1492744.0,150914097.0,1855731135.0,8159000000.0
sh688157,松井股份,2020-08-11,102.12,108.58,102.12,103.11,102.5,1869168.0,198118790.0,1866774998.34,8207556000.0
sh688157,松井股份,2020-08-12,102.93,103.0,95.61,98.99,103.11,1392949.0,136168707.0,1792183659.06,7879604000.0
sh688157,松井股份,2020-08-13,99.89,100.0,96.0,97.8,98.99,893877.0,87542015.0,1770639073.2,7784880000.0
sh688157,松井股份,2020-08-14,99.7,99.8,91.8,94.75,97.8,1176506.0,111447522.0,1715419756.5,7542100000.0
sh688157,松井股份,2020-08-17,94.53,111.55,94.53,108.4,94.75,2618866.0,274726710.0,1962548829.6,8628640000.0
sh688157,松井股份,2020-08-18,105.87,111.6,105.2,109.41,108.4,2036514.0,221207268.0,1980834570.54,8709036000.0
sh688157,松井股份,2020-08-19,109.42,114.76,104.5,106.7,109.41,1615717.0,176757442.0,1931770849.8,8493320000.0
sh688157,松井股份,2020-08-20,106.19,113.5,105.77,109.58,106.7,1543355.0,169406043.0,1983912368.52,8722568000.0
sh688157,松井股份,2020-08-21,109.07,114.87,106.11,111.96,109.58,1817535.0,202386006.0,2027001540.24,8912016000.0
sh688157,松井股份,2020-08-24,111.0,114.5,105.6,107.0,111.96,1807521.0,197433620.0,1937202258.0,8517200000.0
sh688157,松井股份,2020-08-25,106.04,108.0,102.3,105.76,107.0,1201220.0,125845102.0,1914752437.44,8418496000.0
sh688157,松井股份,2020-08-26,104.54,105.57,101.49,104.2,105.76,644759.0,66465274.0,1886509114.8,8294320000.0
sh688157,松井股份,2020-08-27,104.92,106.88,102.0,103.68,104.2,764829.0,80045309.0,1877094673.92,8252928000.0
sh688157,松井股份,2020-08-28,102.0,106.98,100.5,106.15,103.68,763324.0,79594698.0,1921813268.1,8449540000.0
sh688157,松井股份,2020-08-31,105.91,108.79,105.15,105.75,106.15,457632.0,48686607.0,1914571390.5,8417700000.0
sh688157,松井股份,2020-09-01,105.75,113.65,104.68,113.65,105.75,1538945.0,170088528.0,2057598473.1,9046540000.0
sh688157,松井股份,2020-09-02,111.65,117.7,111.65,113.01,113.65,836070.0,95252827.0,2046011468.94,8995596000.0
sh688157,松井股份,2020-09-03,112.28,117.0,111.0,113.26,113.01,817167.0,93126061.0,2050537642.44,9015496000.0
sh688157,松井股份,2020-09-04,112.01,113.17,107.51,108.77,113.26,781084.0,85979840.0,1969247566.38,8658092000.0
sh688157,松井股份,2020-09-07,108.29,119.76,108.29,111.1,108.77,1587303.0,183057355.0,2011431503.4,8843560000.0
sh688157,松井股份,2020-09-08,112.0,119.28,109.75,112.31,111.1,1440811.0,164820894.0,2033338183.14,8939876000.0
sh688157,松井股份,2020-09-09,111.98,114.69,106.37,107.0,112.31,1105474.0,120407595.0,1937202258.0,8517200000.0
sh688157,松井股份,2020-09-10,108.97,110.96,99.98,100.7,107.0,1217359.0,128146648.0,1823142685.8,8015720000.0
sh688157,松井股份,2020-09-11,100.03,103.18,96.75,102.15,100.7,979497.0,97960494.0,1849394492.1,8131140000.0
sh688157,松井股份,2020-09-14,104.0,109.7,101.55,108.0,102.15,818170.0,87746348.0,1955306952.0,8596800000.0
sh688157,松井股份,2020-09-15,107.97,109.46,105.1,107.16,108.0,595569.0,63593661.0,1940099009.04,8529936000.0
sh688157,松井股份,2020-09-16,106.15,107.63,102.79,104.02,107.16,528009.0,55149946.0,1883250269.88,8279992000.0
sh688157,松井股份,2020-09-17,103.01,108.04,102.21,106.32,104.02,758489.0,79840750.0,1924891066.08,8463072000.0
sh688157,松井股份,2020-09-18,106.32,110.78,105.51,108.68,106.32,748662.0,80659911.0,1967618143.92,8650928000.0
sh688157,松井股份,2020-09-21,107.11,107.4,102.5,103.99,108.68,554301.0,57875982.0,1882707129.06,8277604000.0
sh688157,松井股份,2020-09-22,102.85,106.6,102.0,103.55,103.99,493543.0,51525556.0,1874741063.7,8242580000.0
sh688157,松井股份,2020-09-23,104.8,110.5,103.8,109.7,103.55,1045877.0,113538685.0,1986084931.8,8732120000.0
sh688157,松井股份,2020-09-24,109.27,111.0,106.5,107.81,109.7,495419.0,53587676.0,1951867060.14,8581676000.0
sh688157,松井股份,2020-09-25,108.21,109.49,104.11,105.97,107.81,398603.0,42191009.0,1918554423.18,8435212000.0
sh688157,松井股份,2020-09-28,106.23,106.24,101.33,102.0,105.97,464832.0,47883600.0,1846678788.0,8119200000.0
sh688157,松井股份,2020-09-29,102.99,105.39,102.38,104.29,102.0,301707.0,31394818.0,1888138537.26,8301484000.0
sh688157,松井股份,2020-09-30,104.91,104.91,101.11,101.2,104.29,447436.0,45829937.0,1832195032.8,8055520000.0
sh688157,松井股份,2020-10-09,103.99,108.44,102.38,107.68,101.2,461810.0,48742219.0,1949513449.92,8571328000.0
sh688157,松井股份,2020-10-12,107.98,109.51,105.83,108.86,107.68,683083.0,73799691.0,1970876988.84,8665256000.0
sh688157,松井股份,2020-10-13,108.86,111.78,107.4,110.3,108.86,822987.0,90087021.0,1996947748.2,8779880000.0
sh688157,松井股份,2020-10-14,109.9,113.7,108.65,111.0,110.3,716037.0,79628193.0,2009621034.0,8835600000.0
sh688157,松井股份,2020-10-15,109.73,119.73,109.73,117.21,111.0,1390674.0,162099461.0,2122051183.74,9329916000.0
sh688157,松井股份,2020-10-16,117.35,117.78,114.14,115.84,117.21,597789.0,69149102.0,2097247752.96,9220864000.0
sh688157,松井股份,2020-10-19,117.59,121.98,116.02,117.47,115.84,1234901.0,146412944.0,2126758404.18,9350612000.0
sh688157,松井股份,2020-10-20,117.29,122.0,113.57,121.2,117.47,1292734.0,152682409.0,2194288912.8,9647520000.0
sh688157,松井股份,2020-10-21,120.97,123.55,115.18,115.48,121.2,969572.0,115555722.0,2090730063.12,9192208000.0
sh688157,松井股份,2020-10-22,114.44,116.39,112.6,112.9,115.48,724419.0,82534011.0,2044019952.6,8986840000.0
sh688157,松井股份,2020-10-23,112.56,118.0,112.56,112.61,112.9,753088.0,86551284.0,2038769591.34,8963756000.0
sh688157,松井股份,2020-10-26,112.14,115.85,110.4,113.51,112.61,628842.0,71330908.0,2055063815.94,9035396000.0
sh688157,松井股份,2020-10-27,113.98,117.56,113.06,116.2,113.51,430298.0,49698699.0,2103765442.8,9249520000.0
sh688157,松井股份,2020-10-28,115.76,116.64,113.18,114.97,116.2,366733.0,41967261.0,2081496669.18,9151612000.0
sh688157,松井股份,2020-10-29,114.18,118.0,112.9,113.28,114.97,717218.0,82743256.0,2050899736.32,9017088000.0
sh688157,松井股份,2020-10-30,111.55,111.55,100.65,102.2,113.28,1856033.0,196286719.0,1850299726.8,8135120000.0
sh688157,松井股份,2020-11-02,103.31,106.94,100.03,106.28,102.2,882248.0,91626746.0,1924166878.32,8459888000.0
sh688157,松井股份,2020-11-03,106.37,115.43,106.37,114.64,106.28,1120697.0,125783443.0,2075522120.16,9125344000.0
sh688157,松井股份,2020-11-04,115.01,117.55,111.58,112.95,114.64,652925.0,74177561.0,2044925187.3,8990820000.0
sh688157,松井股份,2020-11-05,116.69,116.69,110.79,114.0,112.95,387369.0,43787811.0,2063935116.0,9074400000.0
sh688157,松井股份,2020-11-06,114.0,114.84,109.0,110.68,114.0,506440.0,56721741.0,2003827531.92,8810128000.0
sh688157,松井股份,2020-11-09,111.3,117.7,109.08,117.5,110.68,960308.0,109134289.0,2127301545.0,9353000000.0
sh688157,松井股份,2020-11-10,116.54,118.8,115.31,117.93,117.5,525139.0,61686510.0,2135086563.42,9387228000.0
sh688157,松井股份,2020-11-11,117.0,120.81,112.0,113.26,117.93,991417.0,114575311.0,2050537642.44,9015496000.0
sh688157,松井股份,2020-11-12,115.0,115.83,111.0,115.2,113.26,605668.0,69021601.0,2085660748.8,9169920000.0
sh688157,松井股份,2020-11-13,114.95,116.87,114.5,114.6,115.2,422998.0,48856861.0,2074797932.4,9122160000.0
sh688157,松井股份,2020-11-16,114.51,115.81,111.14,112.0,114.6,757577.0,85086219.0,2027725728.0,8915200000.0
sh688157,松井股份,2020-11-17,112.56,112.56,106.0,110.58,112.0,772608.0,84622283.0,2002017062.52,8802168000.0
sh688157,松井股份,2020-11-18,110.48,110.48,103.42,106.7,110.58,873693.0,92965845.0,1931770849.8,8493320000.0
sh688157,松井股份,2020-11-19,107.45,108.6,106.02,108.0,106.7,413592.0,44389549.0,1955306952.0,8596800000.0
sh688157,松井股份,2020-11-20,108.01,109.39,105.3,105.81,108.0,611846.0,65630361.0,1915657672.14,8422476000.0
sh688157,松井股份,2020-11-23,105.01,107.68,102.1,104.95,105.81,800886.0,83800251.0,1900087635.3,8354020000.0
sh688157,松井股份,2020-11-24,102.56,105.69,101.7,101.8,104.95,519357.0,53372925.0,1843057849.2,8103280000.0
sh688157,松井股份,2020-11-25,102.11,102.11,96.09,96.23,101.8,666262.0,65647409.0,1742214703.62,7659908000.0
sh688157,松井股份,2020-11-26,96.95,98.56,95.42,96.9,96.23,289289.0,28066603.0,1754344848.6,7713240000.0
sh688157,松井股份,2020-11-27,98.2,101.0,97.02,98.51,96.9,516658.0,51119282.0,1783493405.94,7841396000.0
sh688157,松井股份,2020-11-30,97.0,98.46,95.0,95.0,98.51,596859.0,57420813.0,1719945930.0,7562000000.0
sh688157,松井股份,2020-12-01,94.11,96.47,94.11,95.89,95.0,277430.0,26508830.0,1736059107.6599998,7632844000.0
sh688157,松井股份,2020-12-02,96.18,96.59,95.0,95.91,95.89,294749.0,28203278.0,1736421201.54,7634436000.0
sh688157,松井股份,2020-12-03,95.88,96.85,94.47,96.28,95.91,302712.0,29000113.0,1743119938.3200002,7663888000.0
sh688157,松井股份,2020-12-04,96.1,96.1,93.1,94.47,96.28,521553.0,49086836.0,1710350442.18,7519812000.0
sh688157,松井股份,2020-12-07,94.39,94.91,93.22,93.48,94.47,246857.0,23174614.0,1692426795.12,7441008000.0
sh688157,松井股份,2020-12-08,93.77,99.51,93.48,96.88,93.48,890784.0,86661695.0,1753982754.72,7711648000.0
sh688157,松井股份,2020-12-09,96.26,96.26,92.66,95.4,96.88,791575.0,74836589.0,1803537000.0,7593840000.0
sh688157,松井股份,2020-12-10,94.0,98.5,93.48,96.39,95.4,759132.0,73178769.0,1822252950.0,7672644000.0
sh688157,松井股份,2020-12-11,95.98,97.99,88.0,88.19,96.39,1174210.0,107439382.0,1667231950.0,7019924000.0
sh688157,松井股份,2020-12-14,87.88,91.1,84.5,90.97,88.19,860826.0,75688232.0,1719787850.0,7241212000.0
sh688157,松井股份,2020-12-15,90.49,92.5,88.16,91.78,90.97,564846.0,51303340.0,1735100900.0,7305688000.0
sh688157,松井股份,2020-12-16,93.37,93.37,89.5,90.36,91.78,406065.0,36789789.0,1708255799.9999998,7192656000.0
sh688157,松井股份,2020-12-17,89.57,90.21,87.89,88.69,90.36,308492.0,27395643.0,1676684450.0,7059724000.0
sh688157,松井股份,2020-12-18,88.81,89.82,86.2,87.66,88.69,385289.0,33744930.0,1657212300.0,6977736000.0
sh688157,松井股份,2020-12-21,87.68,87.68,84.6,86.02,87.66,414330.0,35709507.0,1626208100.0,6847192000.0
sh688157,松井股份,2020-12-22,85.3,88.0,83.0,83.73,86.02,500027.0,42641294.0,1582915650.0,6664908000.0
sh688157,松井股份,2020-12-23,83.02,83.87,81.25,83.43,83.73,520857.0,43029519.0,1577244150.0,6641028000.0
sh688157,松井股份,2020-12-24,84.8,84.8,78.41,79.49,83.43,634218.0,51275800.0,1502758450.0,6327404000.0
sh688157,松井股份,2020-12-25,78.67,81.72,77.49,78.7,79.49,434907.0,34491197.0,1487823500.0,6264520000.0
sh688157,松井股份,2020-12-28,77.82,79.88,76.43,78.34,78.7,568687.0,44262014.0,1481017700.0,6235864000.0
sh688157,松井股份,2020-12-29,78.34,79.49,75.8,76.12,78.34,548739.0,42392513.0,1439048599.9999998,6059152000.0
sh688157,松井股份,2020-12-30,75.72,78.74,75.72,78.4,76.12,503805.0,39099881.0,1482152000.0,6240640000.0
sh688157,松井股份,2020-12-31,80.0,84.61,78.52,83.0,78.4,953393.0,78908094.0,1569115000.0,6606800000.0
sh688157,松井股份,2021-01-04,81.37,91.86,81.37,91.25,83.0,1319995.0,116418631.0,1725081250.0,7263500000.0
sh688157,松井股份,2021-01-05,91.99,93.0,89.18,89.51,91.25,832791.0,75523503.0,1692186550.0,7124996000.0
sh688157,松井股份,2021-01-06,88.88,91.35,86.0,86.49,89.51,827733.0,72202093.0,1635093450.0,6884604000.0
sh688157,松井股份,2021-01-07,85.49,86.5,81.89,82.3,86.49,1054980.0,88084387.0,1555881500.0,6551080000.0
sh688157,松井股份,2021-01-08,82.1,87.29,80.79,84.82,82.3,923651.0,77949296.0,1603522100.0,6751672000.0
sh688157,松井股份,2021-01-11,83.25,86.54,83.25,84.99,84.82,584321.0,49791546.0,1606735950.0,6765204000.0
sh688157,松井股份,2021-01-12,84.27,90.4,84.27,89.0,84.99,796609.0,70565937.0,1682545000.0,7084400000.0
sh688157,松井股份,2021-01-13,88.98,92.55,88.98,89.26,89.0,752102.0,68457133.0,1687460300.0,7105096000.0
sh688157,松井股份,2021-01-14,89.63,91.44,85.95,89.92,89.26,751407.0,66683230.0,1699937600.0,7157632000.0
sh688157,松井股份,2021-01-15,88.01,91.91,86.48,89.79,89.92,1092488.0,97828848.0,1697479950.0,7147284000.0
sh688157,松井股份,2021-01-18,89.1,93.52,89.1,90.99,89.79,811201.0,74137941.0,1720165950.0,7242804000.0
sh688157,松井股份,2021-01-19,92.42,102.75,91.0,99.15,90.99,2000393.0,196619759.0,1874430750.0,7892340000.0
sh688157,松井股份,2021-01-20,100.23,104.42,98.15,99.6,99.15,982709.0,99528059.0,1882938000.0,7928160000.0
sh688157,松井股份,2021-01-21,102.0,102.0,97.6,100.1,99.6,507923.0,50535667.0,1892390500.0,7967960000.0
sh688157,松井股份,2021-01-22,99.26,99.98,96.19,96.52,100.1,568100.0,55382119.0,1824710600.0,7682992000.0
sh688157,松井股份,2021-01-25,97.08,103.67,95.23,102.77,96.52,963659.0,97154020.0,1942866850.0,8180492000.0
sh688157,松井股份,2021-01-26,102.76,103.75,97.68,98.2,102.77,498359.0,49781119.0,1856471000.0,7816720000.0
sh688157,松井股份,2021-01-27,97.27,104.0,97.27,103.87,98.2,607532.0,61662261.0,1963662350.0,8268052000.0
sh688157,松井股份,2021-01-28,103.89,104.51,99.0,101.6,103.87,488031.0,49241556.0,1920748000.0,8087360000.0
sh688157,松井股份,2021-01-29,100.65,103.18,100.2,101.01,101.6,446938.0,45537624.0,1909594050.0,8040396000.0
sh688157,松井股份,2021-02-01,100.82,101.24,96.22,99.88,101.01,588136.0,57683855.0,1888231400.0,7950448000.0
sh688157,松井股份,2021-02-02,97.99,103.29,97.87,100.43,99.88,401933.0,40177260.0,1898629150.0,7994228000.0
sh688157,松井股份,2021-02-03,98.96,103.15,95.76,99.03,100.43,644314.0,64290900.0,1872162150.0,7882788000.0
sh688157,松井股份,2021-02-04,97.98,98.48,93.1,93.77,99.03,492307.0,46793925.0,1772721850.0,7464092000.0
sh688157,松井股份,2021-02-05,94.28,99.0,93.47,96.52,93.77,386596.0,37294918.0,1824710600.0,7682992000.0
sh688157,松井股份,2021-02-08,95.61,100.24,94.01,96.37,96.52,346563.0,33741623.0,1821874850.0,7671052000.0
sh688157,松井股份,2021-02-09,97.38,102.0,95.88,100.6,96.37,326152.0,32162263.0,1901843000.0,8007760000.0
sh688157,松井股份,2021-02-10,99.97,101.25,97.0,97.51,100.6,327223.0,32150803.0,1843426550.0,7761796000.0
sh688157,松井股份,2021-02-18,99.5,100.22,94.92,95.3,97.51,298102.0,28863347.0,1801646500.0,7585880000.0
sh688157,松井股份,2021-02-19,94.56,98.98,90.0,96.03,95.3,612145.0,57819628.0,1815447150.0,7643988000.0
sh688157,松井股份,2021-02-22,96.01,98.0,94.0,94.66,96.03,333644.0,31983213.0,1789547300.0,7534936000.0
sh688157,松井股份,2021-02-23,94.23,96.9,92.53,93.82,94.66,186494.0,17572362.0,1773667100.0,7468072000.0
sh688157,松井股份,2021-02-24,93.41,94.51,88.43,88.99,93.82,421503.0,38408224.0,1682355950.0,7083604000.0
sh688157,松井股份,2021-02-25,91.25,94.7,89.75,91.0,88.99,400767.0,36714873.0,1720355000.0,7243600000.0
sh688157,松井股份,2021-02-26,90.09,91.0,86.98,89.3,91.0,301046.0,26800467.0,1688216500.0,7108280000.0
sh688157,松井股份,2021-03-01,88.96,93.9,88.96,93.0,89.3,384134.0,35494649.0,1758165000.0,7402800000.0
sh688157,松井股份,2021-03-02,92.59,92.73,89.1,89.8,93.0,321670.0,29055881.0,1697669000.0,7148080000.0
sh688157,松井股份,2021-03-03,88.5,92.6,88.5,91.46,89.8,246913.0,22501958.0,1729051300.0,7280216000.0
sh688157,松井股份,2021-03-04,90.67,91.46,88.5,89.21,91.46,200766.0,18049356.0,1686515050.0,7101116000.0
sh688157,松井股份,2021-03-05,90.97,90.98,87.91,88.9,89.21,205827.0,18371688.0,1680654500.0,7076440000.0
sh688157,松井股份,2021-03-08,89.0,90.0,85.21,87.77,88.9,564723.0,49355631.0,1659291850.0,6986492000.0
sh688157,松井股份,2021-03-09,87.79,88.47,83.5,83.77,87.77,375769.0,31977917.0,1583671850.0,6668092000.0
sh688157,松井股份,2021-03-10,85.0,85.0,78.63,79.25,83.77,471937.0,38132250.0,1498221250.0,6308300000.0
sh688157,松井股份,2021-03-11,79.17,82.4,78.9,81.2,79.25,276725.0,22382861.0,1535086000.0,6463520000.0
sh688157,松井股份,2021-03-12,81.2,91.5,81.19,90.73,81.2,829722.0,72499569.0,1715250650.0,7222108000.0
sh688157,松井股份,2021-03-15,88.81,93.12,88.56,90.08,90.73,424879.0,38436276.0,1702962400.0,7170368000.0
sh688157,松井股份,2021-03-16,88.52,91.47,87.21,88.0,90.08,211320.0,18706880.0,1663640000.0,7004800000.0
sh688157,松井股份,2021-03-17,88.29,89.36,86.68,86.74,88.0,184462.0,16179245.0,1639819700.0,6904504000.0
sh688157,松井股份,2021-03-18,86.7,88.3,86.38,86.74,86.74,163177.0,14252240.0,1639819700.0,6904504000.0
sh688157,松井股份,2021-03-19,85.8,88.21,85.8,86.06,86.74,210152.0,18267748.0,1626964300.0,6850376000.0
sh688157,松井股份,2021-03-22,86.7,90.7,86.6,90.34,86.06,530252.0,47363813.0,1707877700.0,7191064000.0
sh688157,松井股份,2021-03-23,90.0,90.81,87.0,88.5,90.34,198465.0,17547329.0,1673092500.0,7044600000.0
sh688157,松井股份,2021-03-24,87.98,90.5,86.22,89.82,88.5,175179.0,15530669.0,1698047100.0,7149672000.0
sh688157,松井股份,2021-03-25,88.21,89.45,87.29,87.6,89.82,99219.0,8751344.0,1656078000.0,6972960000.0
sh688157,松井股份,2021-03-26,87.81,88.95,87.0,87.12,87.6,148092.0,12964947.0,1647003599.9999998,6934752000.0
sh688157,松井股份,2021-03-29,87.12,88.24,85.54,86.95,87.12,127813.0,11054064.0,1643789750.0,6921220000.0
sh688157,松井股份,2021-03-30,86.87,87.58,85.85,85.88,86.95,86581.0,7471100.0,1623561400.0000002,6836048000.0
sh688157,松井股份,2021-03-31,85.58,86.4,85.3,85.62,85.88,43734.0,3754210.0,1618646099.9999998,6815352000.0
sh688157,松井股份,2021-04-01,85.77,87.4,85.23,86.88,85.62,59331.0,5126610.0,1642466400.0000002,6915648000.0
sh688157,松井股份,2021-04-02,88.3,88.49,86.41,87.09,86.88,106986.0,9342954.0,1646436450.0,6932364000.0
sh688157,松井股份,2021-04-06,86.58,87.32,85.0,85.13,87.09,140276.0,12025424.0,1609382650.0000002,6776348000.0
sh688157,松井股份,2021-04-07,85.95,85.95,84.0,85.26,85.13,125841.0,10727879.0,1611840300.0,6786696000.0
sh688157,松井股份,2021-04-08,84.2,87.86,83.71,83.71,85.26,174683.0,14837970.0,1582537550.0,6663316000.0
sh688157,松井股份,2021-04-09,83.54,85.32,82.12,83.2,83.71,162094.0,13448691.0,1572896000.0,6622720000.0
sh688157,松井股份,2021-04-12,83.11,83.97,81.25,81.7,83.2,67379.0,5554690.0,1544538500.0,6503320000.0
sh688157,松井股份,2021-04-13,82.93,84.24,81.09,82.8,81.7,162631.0,13487421.0,1565334000.0,6590880000.0
sh688157,松井股份,2021-04-14,82.33,85.44,81.32,82.6,82.8,235016.0,19665027.0,1561553000.0,6574960000.0
sh688157,松井股份,2021-04-15,82.49,84.79,81.78,81.94,82.6,319547.0,26364931.0,1549075700.0,6522424000.0
sh688157,松井股份,2021-04-16,81.61,82.35,79.6,81.61,81.94,374386.0,30274786.0,1542837049.9999998,6496156000.0
sh688157,松井股份,2021-04-19,81.61,86.6,81.29,85.38,81.61,342506.0,28757951.0,1614108900.0000002,6796248000.0
sh688157,松井股份,2021-04-20,86.0,86.0,83.19,84.06,85.38,243419.0,20481055.0,1589154300.0,6691176000.0
sh688157,松井股份,2021-04-21,83.11,85.4,82.8,83.55,84.06,250843.0,21061296.0,1579512750.0,6650580000.0
sh688157,松井股份,2021-04-22,83.97,85.09,82.41,82.5,83.55,291856.0,24361115.0,1559662500.0,6567000000.0
sh688157,松井股份,2021-04-23,82.01,85.45,82.0,83.88,82.5,370627.0,31153492.0,1585751400.0000002,6676848000.0
sh688157,松井股份,2021-04-26,83.91,84.81,81.0,81.86,83.88,368977.0,30334175.0,1547563299.9999998,6516056000.0
sh688157,松井股份,2021-04-27,82.8,82.8,79.5,79.88,81.86,247605.0,19874039.0,1510131400.0000002,6358448000.0
sh688157,松井股份,2021-04-28,80.0,80.79,79.1,79.5,79.88,202336.0,16122616.0,1502947500.0,6328200000.0
sh688157,松井股份,2021-04-29,79.41,80.86,78.58,79.63,79.5,277075.0,22033706.0,1505405150.0000002,6338548000.0
sh688157,松井股份,2021-04-30,81.0,85.0,79.6,79.85,79.63,440869.0,36233925.0,1530668605.0,6356060000.0
sh688157,松井股份,2021-05-06,81.2,86.86,81.0,86.6,79.85,590816.0,49996004.0,1660061380.0,6893360000.0
sh688157,松井股份,2021-05-07,86.6,91.5,86.6,87.88,86.6,891643.0,79777240.0,1684598084.0,6995248000.0
sh688157,松井股份,2021-05-10,89.49,92.99,88.0,90.86,87.88,818057.0,74615333.0,1741722598.0,7232456000.0
sh688157,松井股份,2021-05-11,90.56,94.5,88.52,92.9,90.86,529176.0,48695300.0,1780827970.0,7394840000.0
sh688157,松井股份,2021-05-12,92.91,94.8,91.52,94.08,92.9,420400.0,39288141.0,1803447744.0,7488768000.0
sh688157,松井股份,2021-05-13,93.65,96.5,91.85,92.3,94.08,487119.0,45784605.0,1769326390.0,7347080000.0
sh688157,松井股份,2021-05-14,92.3,94.89,91.81,93.0,92.3,432886.0,40283789.0,1782744900.0,7402800000.0
sh688157,松井股份,2021-05-17,93.0,98.1,92.06,97.57,93.0,644638.0,61269503.0,1870348601.0,7766572000.0
sh688157,松井股份,2021-05-18,98.32,98.32,94.8,96.32,97.57,328667.0,31630051.0,1846386976.0,7667072000.0
sh688157,松井股份,2021-05-19,96.19,97.77,94.88,97.25,96.32,499114.0,48354288.0,1864214425.0,7741100000.0
sh688157,松井股份,2021-05-20,96.67,97.35,93.67,94.9,97.25,302023.0,28795533.0,1819166570.0,7554040000.0
sh688157,松井股份,2021-05-21,95.99,97.8,94.5,97.29,94.9,314510.0,30389650.0,1864981197.0,7744284000.0
sh688157,松井股份,2021-05-24,97.37,100.68,94.6,99.23,97.29,326331.0,31936567.0,1902169639.0,7898708000.0
sh688157,松井股份,2021-05-25,99.4,102.99,99.02,101.9,99.23,404319.0,40776305.0,1953351670.0,8111240000.0
sh688157,松井股份,2021-05-26,103.94,109.5,102.8,103.3,101.9,649839.0,68998422.0,1980188690.0,8222680000.0
sh688157,松井股份,2021-05-27,104.0,106.28,102.5,104.13,103.3,315050.0,32895744.0,1996099209.0,8288748000.0
sh688157,松井股份,2021-05-28,103.67,107.5,103.09,107.0,104.13,467445.0,49879670.0,2051115100.0,8517200000.0
sh688157,松井股份,2021-05-31,108.88,110.79,105.39,106.2,107.0,653840.0,70378917.0,2035779660.0,8453520000.0
sh688157,松井股份,2021-06-01,105.58,108.0,104.8,105.7,106.2,485540.0,51476387.0,2026195010.0,8413720000.0
sh688157,松井股份,2021-06-02,105.13,106.7,100.0,100.3,105.7,789351.0,80704440.0,1922680790.0,7983880000.0
sh688157,松井股份,2021-06-03,100.51,109.9,100.3,107.0,100.3,931916.0,99492303.0,2051115100.0,8517200000.0
sh688157,松井股份,2021-06-04,107.36,111.38,106.63,108.0,107.0,655119.0,71545378.0,2070284400.0,8596800000.0
sh688157,松井股份,2021-06-07,106.01,110.49,106.01,109.92,108.0,395156.0,43169669.0,2107089456.0,8749632000.0
sh688157,松井股份,2021-06-08,109.47,112.78,105.5,105.76,109.92,566767.0,61388592.0,2027345168.0,8418496000.0
sh688157,松井股份,2021-06-09,106.59,113.68,106.0,111.99,105.76,463125.0,51471557.0,3825052047.0,8914404000.0
sh688157,松井股份,2021-06-10,111.01,112.61,105.77,108.48,111.99,600248.0,64759465.0,3705166944.0,8635008000.0
sh688157,松井股份,2021-06-11,110.0,110.68,104.58,106.0,108.48,312368.0,33232058.0,3620461800.0,8437600000.0
sh688157,松井股份,2021-06-15,101.5,107.59,101.11,106.43,106.0,560866.0,58841135.0,3635148579.0,8471828000.0
sh688157,松井股份,2021-06-16,105.58,110.06,103.28,103.66,106.43,489816.0,51891386.0,3540538398.0,8251336000.0
sh688157,松井股份,2021-06-17,104.37,108.33,102.07,107.79,103.66,324778.0,34142334.0,3681599787.0,8580084000.0
sh688157,松井股份,2021-06-18,108.0,109.0,105.42,106.14,107.79,287242.0,30681785.0,3625243542.0,8448744000.0
sh688157,松井股份,2021-06-21,106.58,115.7,106.58,114.67,106.14,676381.0,76876218.0,3916588251.0,9127732000.0
sh688157,松井股份,2021-06-22,114.98,118.38,112.29,116.4,114.67,417492.0,48299404.0,3975676920.0,9265440000.0
sh688157,XD松井股,2021-06-23,117.18,118.8,112.23,113.1,116.07,457380.0,52507206.0,3862964430.000001,9002760000.0
sh688157,松井股份,2021-06-24,112.39,114.18,107.58,113.0,113.1,698454.0,77519470.0,3859548900.0,8994800000.0
sh688157,松井股份,2021-06-25,113.0,123.6,112.07,121.8,113.0,1061891.0,126539388.0,4160115540.0,9695280000.0
sh688157,松井股份,2021-06-28,122.99,126.5,120.0,125.24,121.8,986883.0,121983340.0,4277609772.0,9969104000.0
sh688157,松井股份,2021-06-29,124.0,126.98,121.16,123.53,125.24,484987.0,60168670.0,4219204209.000001,9832988000.0
sh688157,松井股份,2021-06-30,123.51,129.8,122.0,124.66,123.53,608763.0,76520581.0,4257799698.0,9922936000.0
sh688157,松井股份,2021-07-01,124.66,129.25,122.68,126.7,124.66,562956.0,71132237.0,4327476510.0,10085320000.0
sh688157,松井股份,2021-07-02,125.55,133.0,124.3,125.6,126.7,633495.0,80738344.0,4289905680.000001,9997760000.0
sh688157,松井股份,2021-07-05,125.66,132.01,125.66,130.5,125.6,548444.0,70935589.0,4457266650.0,10387800000.0
sh688157,松井股份,2021-07-06,130.5,136.0,120.0,124.4,130.5,1122262.0,142076432.0,4248919320.0,9902240000.0
sh688157,松井股份,2021-07-07,122.5,125.94,120.88,123.82,124.4,843006.0,103818972.0,4229109246.000001,9856072000.0
sh688157,松井股份,2021-07-08,123.2,125.04,118.3,120.1,123.82,964030.0,116136874.0,4102051530.0,9559960000.0
sh688157,松井股份,2021-07-09,118.44,121.33,113.88,115.9,120.1,938227.0,109056069.0,3958599270.000001,9225640000.0
sh688157,松井股份,2021-07-12,113.74,119.23,113.74,115.94,115.9,717678.0,83564120.0,3959965482.0,9228824000.0
sh688157,松井股份,2021-07-13,116.66,122.22,115.0,115.65,115.94,683334.0,80598791.0,3950060445.0,9205740000.0
sh688157,松井股份,2021-07-14,116.0,120.18,111.37,116.7,115.65,824133.0,96661932.0,3985923510.000001,9289320000.0
sh688157,松井股份,2021-07-15,116.37,119.03,112.0,116.02,116.7,591006.0,68154689.0,3962697906.0,9235192000.0
sh688157,松井股份,2021-07-16,116.57,117.78,113.0,113.6,116.02,424213.0,48851253.0,3880042080.0,9042560000.0
sh688157,松井股份,2021-07-19,113.6,113.67,109.0,112.79,113.6,750275.0,83702152.0,3852376287.0,8978084000.0
sh688157,松井股份,2021-07-20,113.0,113.48,109.7,111.41,112.79,494170.0,54823517.0,3805241973.0,8868236000.0
sh688157,松井股份,2021-07-21,112.63,115.82,111.54,115.0,111.41,965156.0,110660786.0,3927859500.0,9154000000.0
sh688157,松井股份,2021-07-22,115.35,115.35,110.21,113.71,115.0,495273.0,55593963.0,3883799163.0,9051316000.0
sh688157,松井股份,2021-07-23,114.0,116.23,110.7,111.9,113.71,388367.0,43787681.0,3821978070.0,8907240000.0
sh688157,松井股份,2021-07-26,112.83,116.34,111.16,114.49,111.9,718967.0,82252241.0,3910440297.0,9113404000.0
sh688157,松井股份,2021-07-27,115.8,116.28,109.12,109.12,114.49,743865.0,84153702.0,3727026336.0,8685952000.0
sh688157,松井股份,2021-07-28,109.1,112.93,105.0,111.5,109.12,582932.0,63738944.0,3808315950.0,8875400000.0
sh688157,松井股份,2021-07-29,113.2,118.4,111.05,115.62,111.5,785790.0,90869985.0,3949035786.0,9203352000.0
sh688157,松井股份,2021-07-30,116.6,116.8,111.77,113.2,115.62,561862.0,63584279.0,3866379960.0,9010720000.0
sh688157,松井股份,2021-08-02,112.8,115.45,110.0,112.6,113.2,671029.0,75345955.0,3845886780.0,8962960000.0
sh688157,松井股份,2021-08-03,112.0,117.25,112.0,116.0,112.6,791417.0,91632991.0,3962014800.0,9233600000.0
sh688157,松井股份,2021-08-04,116.0,120.14,115.27,118.71,116.0,712935.0,84373571.0,4054575663.0,9449316000.0
sh688157,松井股份,2021-08-05,118.58,119.6,114.71,115.0,118.71,494472.0,57663280.0,3927859500.0,9154000000.0
sh688157,松井股份,2021-08-06,115.38,116.48,111.3,112.36,115.0,425459.0,47936444.0,3837689508.0,8943856000.0
sh688157,松井股份,2021-08-09,113.4,114.3,108.0,114.0,112.36,368011.0,41134652.0,3893704200.0,9074400000.0
sh688157,松井股份,2021-08-10,112.67,115.78,112.0,114.66,114.0,419930.0,47783821.0,3916246698.0,9126936000.0
sh688157,松井股份,2021-08-11,115.2,115.2,111.02,112.31,114.66,265293.0,29804848.0,3835981743.0,8939876000.0
sh688157,松井股份,2021-08-12,112.34,113.87,108.3,109.48,112.31,441360.0,48772867.0,3739322244.0,8714608000.0
sh688157,松井股份,2021-08-13,108.8,111.39,106.66,110.4,109.48,439949.0,47998615.0,3770745120.0,8787840000.0
sh688157,松井股份,2021-08-16,110.98,116.6,106.02,115.79,110.4,715483.0,80331379.0,3954842187.000001,9216884000.0
sh688157,松井股份,2021-08-17,115.09,117.7,107.63,108.36,115.79,424867.0,47315067.0,3701068308.0,8625456000.0
sh688157,松井股份,2021-08-18,109.02,109.79,105.81,106.86,108.36,386083.0,41457969.0,3649835358.0,8506056000.0
sh688157,松井股份,2021-08-19,106.6,112.01,106.5,108.8,106.86,359196.0,39504366.0,3716096640.0,8660480000.0
sh688157,松井股份,2021-08-20,108.22,110.1,103.07,106.1,108.8,348175.0,36894644.0,3623877330.0,8445560000.0
sh688157,松井股份,2021-08-23,105.7,115.2,103.22,114.17,106.1,626864.0,68948889.0,3899510601.0,9087932000.0
sh688157,松井股份,2021-08-24,113.5,121.51,112.61,119.99,114.17,677952.0,79927300.0,4098294447.0,9551204000.0
sh688157,松井股份,2021-08-25,120.16,120.96,117.15,118.94,119.99,391877.0,46505745.0,4062431382.0,9467624000.0
sh688157,松井股份,2021-08-26,119.28,127.0,117.26,122.0,118.94,603044.0,74321619.0,4166946600.0,9711200000.0
sh688157,松井股份,2021-08-27,113.01,120.99,112.03,118.31,122.0,1119531.0,129809981.0,4124546882.0,9417476000.0
sh688157,松井股份,2021-08-30,118.26,119.48,111.0,111.3,118.31,610674.0,69725874.0,3880162860.0,8859480000.0
sh688157,松井股份,2021-08-31,110.02,111.0,105.12,105.37,111.3,476487.0,51019557.0,3673430014.0,8387452000.0
sh688157,松井股份,2021-09-01,104.02,105.01,96.8,99.5,105.37,821441.0,81974932.0,3468788900.0,7920200000.0
sh688157,松井股份,2021-09-02,99.97,101.25,94.21,94.21,99.5,546840.0,52922250.0,3284367861.9999995,7499116000.0
sh688157,松井股份,2021-09-03,93.42,94.6,89.88,91.0,94.21,976762.0,89018476.0,3172460200.0,7243600000.0
sh688157,松井股份,2021-09-06,90.01,93.0,89.0,92.0,91.0,579383.0,52561278.0,3207322400.0,7323200000.0
sh688157,松井股份,2021-09-07,92.48,96.96,91.0,92.01,92.0,501796.0,47198075.0,3207671022.0,7323996000.0
sh688157,松井股份,2021-09-08,92.01,94.86,91.0,93.38,92.01,404413.0,37380078.0,3255432236.0000005,7433048000.0
sh688157,松井股份,2021-09-09,92.15,94.29,91.0,92.35,93.38,234379.0,21592845.0,3219524170.0,7351060000.0
sh688157,松井股份,2021-09-10,92.38,93.95,90.5,91.53,92.35,314609.0,28889687.0,3190937166.0,7285788000.0
sh688157,松井股份,2021-09-13,91.03,95.6,90.09,93.15,91.53,478542.0,44501501.0,3247413930.0,7414740000.0
sh688157,松井股份,2021-09-14,94.5,94.88,92.27,94.32,93.15,276296.0,25962345.0,3288202704.0,7507872000.0
sh688157,松井股份,2021-09-15,94.17,94.84,91.79,92.03,94.32,444820.0,41254053.0,3208368265.9999995,7325588000.0
sh688157,松井股份,2021-09-16,92.5,97.59,92.48,95.17,92.03,449253.0,42847715.0,3317835574.0,7575532000.0
sh688157,松井股份,2021-09-17,93.26,96.0,91.26,92.77,95.17,344031.0,32104213.0,3234166294.0,7384492000.0
sh688157,松井股份,2021-09-22,93.32,94.39,90.6,91.84,92.77,366866.0,33860126.0,3201744448.0,7310464000.0
sh688157,松井股份,2021-09-23,91.82,93.45,91.0,92.1,91.84,254681.0,23478371.0,3210808620.0,7331160000.0
sh688157,松井股份,2021-09-24,92.75,92.75,90.46,90.71,92.1,264427.0,24108322.0,3162350162.0,7220516000.0
sh688157,松井股份,2021-09-27,91.66,91.66,87.76,88.5,90.71,387934.0,34552850.0,3085304699.9999995,7044600000.0
sh688157,松井股份,2021-09-28,88.88,90.75,87.66,89.8,88.5,185173.0,16521412.0,3130625560.0,7148080000.0
sh688157,松井股份,2021-09-29,87.93,89.11,86.53,86.86,89.8,191640.0,16817967.0,3028130692.0000005,6914056000.0
sh688157,松井股份,2021-09-30,87.87,88.84,86.97,87.51,86.86,130707.0,11482076.0,3050791121.9999995,6965796000.0
sh688157,松井股份,2021-10-08,87.59,89.34,87.0,87.82,87.51,164373.0,14451808.0,3061598404.0,6990472000.0
sh688157,松井股份,2021-10-11,88.1,89.55,87.0,87.2,87.82,186154.0,16375087.0,3039983840.0,6941120000.0
sh688157,松井股份,2021-10-12,85.52,87.71,84.78,85.5,87.2,206479.0,17793383.0,2980718100.0,6805800000.0
sh688157,松井股份,2021-10-13,85.76,87.77,83.0,87.6,85.5,222634.0,18986816.0,3053928719.9999995,6972960000.0
sh688157,松井股份,2021-10-14,87.6,87.6,83.77,85.0,87.6,391347.0,33247725.0,2963287000.0,6766000000.0
sh688157,松井股份,2021-10-15,82.31,85.74,82.31,84.41,85.0,184686.0,15625554.0,2942718302.0000005,6719036000.0
sh688157,松井股份,2021-10-18,84.41,85.5,83.0,84.42,84.41,158212.0,13313885.0,2943066924.0,6719832000.0
sh688157,松井股份,2021-10-19,84.0,85.18,82.0,84.93,84.42,246463.0,20646505.0,2960846646.0,6760428000.0
sh688157,松井股份,2021-10-20,83.66,88.0,83.0,87.8,84.93,238142.0,20358888.0,3060901160.0,6988880000.0
sh688157,松井股份,2021-10-21,87.79,88.33,86.03,86.63,87.8,130857.0,11385811.0,3020112386.0,6895748000.0
sh688157,松井股份,2021-10-22,86.63,88.96,84.81,87.9,86.63,168737.0,14683331.0,3064387380.0,6996840000.0
sh688157,松井股份,2021-10-25,88.27,88.27,86.35,86.82,87.9,112497.0,9753813.0,3026736204.0,6910872000.0
sh688157,松井股份,2021-10-26,84.42,91.31,80.17,89.55,86.82,613679.0,53088425.0,3121910010.0,7128180000.0
sh688157,松井股份,2021-10-27,89.07,89.47,85.2,87.2,89.55,202706.0,17587418.0,2424726800.0,6941120000.0
sh688157,松井股份,2021-10-28,85.69,86.85,82.2,82.68,87.2,260205.0,21838001.0,2882406696.0,6581328000.0
sh688157,松井股份,2021-10-29,82.0,91.6,82.0,90.33,82.68,391725.0,34642666.0,3149102526.0,7190268000.0
sh688157,松井股份,2021-11-01,89.99,94.0,88.0,89.21,90.33,283598.0,25703352.0,3110056862.0,7101116000.0
sh688157,松井股份,2021-11-02,89.21,90.52,86.59,88.38,89.21,188517.0,16700934.0,3081121236.0,7035048000.0
sh688157,松井股份,2021-11-03,88.56,89.69,86.0,86.7,88.38,100584.0,8758747.0,3022552739.9999995,6901320000.0
sh688157,松井股份,2021-11-04,88.01,90.88,86.71,89.77,86.7,177736.0,15852417.0,3129579694.0,7145692000.0
sh688157,松井股份,2021-11-05,90.38,92.5,88.83,90.12,89.77,186798.0,16935429.0,3141781464.0000005,7173552000.0
sh688157,松井股份,2021-11-08,91.82,91.82,87.93,88.01,90.12,146474.0,13007363.0,3068222222.0,7005596000.0
sh688157,松井股份,2021-11-09,88.1,90.18,87.79,90.17,88.01,129331.0,11502607.0,3143524574.0,7177532000.0
sh688157,松井股份,2021-11-10,88.11,90.35,87.43,88.28,90.17,154112.0,13650899.0,3077635016.0,7027088000.0
sh688157,松井股份,2021-11-11,88.2,93.45,87.76,92.84,88.28,347156.0,31624173.0,3236606648.0000005,7390064000.0
sh688157,松井股份,2021-11-12,93.99,96.88,91.85,95.98,92.84,316333.0,30155475.0,3346073956.0,7640008000.0
sh688157,松井股份,2021-11-15,95.98,98.14,92.69,98.06,95.98,344855.0,33135774.0,3418587332.0,7805576000.0
sh688157,松井股份,2021-11-16,98.06,101.5,97.51,99.47,98.06,438337.0,43577183.0,3467743033.9999995,7917812000.0
sh688157,松井股份,2021-11-17,99.1,106.62,99.1,103.6,99.47,874254.0,91702692.0,3611723920.0,8246560000.0
sh688157,松井股份,2021-11-18,104.04,105.93,102.03,104.25,103.6,468055.0,48601789.0,3634384350.0,8298300000.0
sh688157,松井股份,2021-11-19,102.13,104.7,102.12,104.0,104.25,287552.0,29787919.0,3625668800.0,8278400000.0
sh688157,松井股份,2021-11-22,103.98,104.83,100.0,104.49,104.0,251555.0,25862470.0,3642751278.0,8317404000.0
sh688157,松井股份,2021-11-23,105.47,114.16,103.31,113.15,104.49,685814.0,76096326.0,3944657930.0,9006740000.0
sh688157,松井股份,2021-11-24,113.93,114.89,110.0,111.75,113.15,300357.0,34013502.0,3895850850.0,8895300000.0
sh688157,松井股份,2021-11-25,111.6,114.49,108.61,113.12,111.75,291598.0,32703908.0,3943612064.0000005,9004352000.0
sh688157,松井股份,2021-11-26,113.6,114.0,108.61,110.24,113.12,482489.0,53403404.0,3843208927.9999995,8775104000.0
sh688157,松井股份,2021-11-29,106.66,116.6,106.66,116.13,110.24,817229.0,93322692.0,4048547285.9999995,9243948000.0
sh688157,松井股份,2021-11-30,114.6,121.0,114.42,117.0,116.13,650915.0,75630770.0,4078877400.0,9313200000.0
sh688157,松井股份,2021-12-01,119.6,119.6,113.1,113.76,117.0,261953.0,30097036.0,3965923872.0,9055296000.0
sh688157,松井股份,2021-12-02,112.52,114.63,108.9,112.0,113.76,391478.0,43514762.0,3904566400.0,8915200000.0
sh688157,松井股份,2021-12-03,110.32,113.68,108.28,113.0,112.0,396641.0,44070777.0,3939428600.0,8994800000.0
sh688157,松井股份,2021-12-06,113.19,115.09,110.41,114.8,113.0,330653.0,37588982.0,4002180560.0,9138080000.0
sh688157,松井股份,2021-12-07,113.02,115.91,108.14,110.01,114.8,408888.0,45058994.0,3835190622.0,8756796000.0
sh688157,松井股份,2021-12-08,110.84,116.98,109.17,115.0,110.01,297734.0,34018117.0,4009153000.0,9154000000.0
sh688157,松井股份,2021-12-09,116.97,116.97,112.0,113.5,115.0,188770.0,21655251.0,3956859699.9999995,9034600000.0
sh688157,松井股份,2021-12-10,112.02,118.99,111.29,116.81,113.5,247269.0,28847937.0,4072253582.0,9298076000.0
sh688157,松井股份,2021-12-13,117.56,118.0,113.0,115.0,116.81,339109.0,38831932.0,4009153000.0,9154000000.0
sh688157,松井股份,2021-12-14,114.11,117.83,114.0,114.25,115.0,212654.0,24585962.0,3983006350.0,9094300000.0
sh688157,松井股份,2021-12-15,114.99,122.59,114.59,120.11,114.25,606169.0,72203407.0,4187298841.9999995,9560756000.0
sh688157,松井股份,2021-12-16,121.91,122.97,116.0,118.32,120.11,315687.0,37216657.0,4124895504.0,9418272000.0
sh688157,松井股份,2021-12-17,119.89,122.0,114.61,114.61,118.32,278770.0,32767348.0,3995556742.0,9122956000.0
sh688157,松井股份,2021-12-20,110.1,116.78,110.03,115.52,114.61,228988.0,26429109.0,4027281344.0,9195392000.0
sh688157,松井股份,2021-12-21,112.0,116.72,111.22,113.29,115.52,112347.0,12669670.0,3949538638.0,9017884000.0
sh688157,松井股份,2021-12-22,113.29,114.95,109.98,112.64,113.29,134845.0,15062342.0,3926878208.0,8966144000.0
sh688157,松井股份,2021-12-23,111.76,113.57,109.25,109.37,112.64,174740.0,19431831.0,3812878814.0,8705852000.0
sh688157,松井股份,2021-12-24,109.38,110.66,107.08,107.72,109.37,165375.0,17974309.0,3755356184.0,8574512000.0
sh688157,松井股份,2021-12-27,105.99,108.53,105.98,107.91,107.72,171034.0,18335460.0,3761980002.0,8589636000.0
sh688157,松井股份,2021-12-28,109.53,110.53,105.14,109.98,107.91,160531.0,17279076.0,3834144756.0,8754408000.0
sh688157,松井股份,2021-12-29,110.37,113.1,107.0,111.22,109.98,209825.0,23287666.0,3877373884.0,8853112000.0
sh688157,松井股份,2021-12-30,111.78,115.89,109.43,115.19,111.22,228993.0,26091017.0,4015776818.0,9169124000.0
sh688157,松井股份,2021-12-31,114.56,122.2,113.22,121.7,115.19,427285.0,50754620.0,4242729740.0,9687320000.0
sh688157,松井股份,2022-01-04,121.54,121.54,117.79,118.9,121.7,195076.0,23243811.0,4145115580.0,9464440000.0
sh688157,松井股份,2022-01-05,118.39,119.88,113.19,113.26,118.9,144143.0,16650121.0,3948492772.0,9015496000.0
sh688157,松井股份,2022-01-06,114.75,116.5,111.28,112.32,113.26,144170.0,16306363.0,3915722304.0,8940672000.0
sh688157,松井股份,2022-01-07,112.04,114.42,107.99,108.51,112.32,340000.0,37787619.0,3782897322.0000005,8637396000.0
sh688157,松井股份,2022-01-10,107.99,115.18,105.37,112.73,108.51,277917.0,31118278.0,3930015806.0,8973308000.0
sh688157,松井股份,2022-01-11,111.35,114.87,105.0,105.56,112.73,317849.0,34664466.0,3680053832.0,8402576000.0
sh688157,松井股份,2022-01-12,108.76,109.77,103.44,107.31,105.56,472254.0,50261213.0,3741062682.0,8541876000.0
sh688157,松井股份,2022-01-13,105.01,105.55,101.94,103.0,107.31,280817.0,28906336.0,3590806599.9999995,8198800000.0
sh688157,松井股份,2022-01-14,101.0,105.0,99.31,103.0,103.0,192664.0,19817094.0,3590806599.9999995,8198800000.0
