数据由邢不行整理
股票代码,股票名称,交易日期,开盘价,最高价,最低价,收盘价,前收盘价,成交量,成交额,流通市值,总市值
sh688004,N博汇,2020-06-12,92.0,131.0,90.0,126.8,28.77,9271617.0,971051293.0,1631174220.0,7202240000.0
sh688004,博汇科技,2020-06-15,125.95,132.98,119.0,131.07,126.8,6964759.0,882218400.0,1686104140.5,7444776000.0
sh688004,博汇科技,2020-06-16,125.01,125.9,112.05,116.03,131.07,5730511.0,670031632.0,1492627324.5,6590504000.0
sh688004,博汇科技,2020-06-17,115.0,117.17,104.95,107.99,116.03,4798571.0,524581405.0,1389199558.5,6133832000.0
sh688004,博汇科技,2020-06-18,108.5,117.79,107.0,107.0,107.99,4658942.0,523336637.0,1376464050.0,6077600000.0
sh688004,博汇科技,2020-06-19,104.5,116.8,100.11,114.4,107.0,4298956.0,457331600.0,1471658760.0,6497920000.0
sh688004,博汇科技,2020-06-22,109.0,111.11,106.01,107.1,114.4,3429554.0,371016252.0,1377750465.0,6083280000.0
sh688004,博汇科技,2020-06-23,106.07,108.66,103.18,105.45,107.1,2426880.0,256574959.0,1356524617.4999998,5989560000.0
sh688004,博汇科技,2020-06-24,106.49,107.78,102.88,103.5,105.45,2587939.0,271349822.0,1331439525.0000002,5878800000.0
sh688004,博汇科技,2020-06-29,101.8,104.52,99.36,99.57,103.5,2086446.0,211685997.0,1280883415.5,5655576000.0
sh688004,博汇科技,2020-06-30,100.8,101.95,99.13,99.95,99.57,1593875.0,159652960.0,1285771792.5,5677160000.0
sh688004,博汇科技,2020-07-01,100.3,101.8,96.5,98.27,99.95,2149415.0,213248942.0,1264160020.5,5581736000.0
sh688004,博汇科技,2020-07-02,98.9,100.5,96.62,100.5,98.27,1935192.0,189838535.0,1292847075.0,5708400000.0
sh688004,博汇科技,2020-07-03,99.49,102.34,99.0,100.05,100.5,2005820.0,201975257.0,1287058207.5,5682840000.0
sh688004,博汇科技,2020-07-06,99.5,104.95,99.44,103.27,100.05,2312730.0,236778946.0,1328480770.5,5865736000.0
sh688004,博汇科技,2020-07-07,105.97,107.66,102.61,103.81,103.27,2837628.0,297190404.0,1335427411.4999998,5896408000.0
sh688004,博汇科技,2020-07-08,103.42,103.69,101.21,102.96,103.81,2076314.0,212841563.0,1324492884.0,5848128000.0
sh688004,博汇科技,2020-07-09,102.73,109.66,102.73,107.37,102.96,3196202.0,340792581.0,1381223785.5,6098616000.0
sh688004,博汇科技,2020-07-10,107.65,109.38,104.75,105.75,107.37,2195742.0,234433294.0,1360383862.5,6006600000.0
sh688004,博汇科技,2020-07-13,105.53,107.38,104.87,106.61,105.75,2220231.0,235524259.0,1371447031.4999998,6055448000.0
sh688004,博汇科技,2020-07-14,105.95,107.47,101.3,103.45,106.61,2229868.0,231851469.0,1330796317.5,5875960000.0
sh688004,博汇科技,2020-07-15,103.08,104.47,94.8,94.8,103.45,2419348.0,239567385.0,1219521420.0,5384640000.0
sh688004,博汇科技,2020-07-16,95.79,95.79,85.02,85.2,94.8,1882713.0,168849648.0,1096025580.0,4839360000.0
sh688004,博汇科技,2020-07-17,86.5,87.84,83.6,85.85,85.2,1072708.0,92468529.0,1104387277.5,4876280000.0
sh688004,博汇科技,2020-07-20,85.03,87.22,80.98,83.11,85.85,1436506.0,119192329.0,1069139506.5,4720648000.0
sh688004,博汇科技,2020-07-21,83.19,86.58,82.51,86.19,83.11,1289206.0,109197994.0,1108761088.5,4895592000.0
sh688004,博汇科技,2020-07-22,84.27,86.47,84.12,84.89,86.19,925368.0,78840987.0,1092037693.5,4821752000.0
sh688004,博汇科技,2020-07-23,84.3,86.0,81.1,83.27,84.89,982902.0,81789717.0,1071197770.5,4729736000.0
sh688004,博汇科技,2020-07-24,82.0,83.68,76.16,76.28,83.27,1255063.0,99397417.0,981277362.0,4332704000.0
sh688004,博汇科技,2020-07-27,76.66,78.28,74.03,74.67,76.28,729872.0,54991696.0,960566080.5,4241256000.0
sh688004,博汇科技,2020-07-28,75.16,75.97,74.96,75.89,74.67,487971.0,36788790.0,976260343.5,4310552000.0
sh688004,博汇科技,2020-07-29,75.6,78.72,74.9,78.47,75.89,800712.0,61930636.0,1009449850.5,4457096000.0
sh688004,博汇科技,2020-07-30,78.74,79.65,77.69,78.4,78.47,802087.0,63132065.0,1008549360.0,4453120000.0
sh688004,博汇科技,2020-07-31,78.06,81.54,77.61,81.0,78.4,1003160.0,79807229.0,1041996150.0,4600800000.0
sh688004,博汇科技,2020-08-03,81.36,83.76,80.94,82.68,81.0,1032477.0,84812928.0,1063607922.0,4696224000.0
sh688004,博汇科技,2020-08-04,82.34,83.54,79.33,79.64,82.68,949071.0,76987060.0,1024500906.0,4523552000.0
sh688004,博汇科技,2020-08-05,80.77,80.88,78.18,79.5,79.64,657774.0,52286344.0,1022699925.0,4515600000.0
sh688004,博汇科技,2020-08-06,80.0,90.99,77.49,89.01,79.5,2300867.0,193232286.0,1145037991.5,5055768000.0
sh688004,博汇科技,2020-08-07,87.0,87.45,82.28,82.92,89.01,1619523.0,136925346.0,1066695318.0,4709856000.0
sh688004,博汇科技,2020-08-10,83.78,85.7,82.02,84.03,82.92,791910.0,66478669.0,1080974524.5,4772904000.0
sh688004,博汇科技,2020-08-11,83.9,83.9,78.58,78.85,84.03,914293.0,74243032.0,1014338227.5,4478680000.0
sh688004,博汇科技,2020-08-12,78.49,79.2,75.76,78.83,78.85,741007.0,57015459.0,1014080944.5,4477544000.0
sh688004,博汇科技,2020-08-13,78.9,83.3,78.9,80.26,78.83,832186.0,67974933.0,1032476679.0,4558768000.0
sh688004,博汇科技,2020-08-14,80.02,82.5,79.81,81.22,80.26,534407.0,43139363.0,1044826263.0,4613296000.0
sh688004,博汇科技,2020-08-17,81.11,82.19,80.05,81.93,81.22,533052.0,43295434.0,1053959809.5,4653624000.0
sh688004,博汇科技,2020-08-18,82.48,82.48,80.5,80.95,81.93,495932.0,40275940.0,1041352942.5,4597960000.0
sh688004,博汇科技,2020-08-19,80.97,80.97,78.1,78.26,80.95,557492.0,43983818.0,1006748379.0,4445168000.0
sh688004,博汇科技,2020-08-20,77.98,78.53,77.0,77.78,78.26,278827.0,21705037.0,1000573587.0,4417904000.0
sh688004,博汇科技,2020-08-21,77.81,79.44,77.1,78.0,77.78,296923.0,23272938.0,1003403700.0,4430400000.0
sh688004,博汇科技,2020-08-24,78.0,78.68,76.14,78.29,78.0,326361.0,25193291.0,1007134303.5,4446872000.0
sh688004,博汇科技,2020-08-25,78.67,82.66,78.29,82.29,78.29,1038522.0,84866521.0,1058590903.5,4674072000.0
sh688004,博汇科技,2020-08-26,81.2,81.59,77.1,78.38,82.29,693081.0,54917299.0,1008292077.0,4451984000.0
sh688004,博汇科技,2020-08-27,76.5,79.35,76.5,78.28,78.38,448041.0,34925240.0,1007005662.0,4446304000.0
sh688004,博汇科技,2020-08-28,77.8,78.48,76.15,77.24,78.28,438610.0,33815176.0,993626946.0,4387232000.0
sh688004,博汇科技,2020-08-31,78.71,78.78,77.0,77.08,77.24,303868.0,23672330.0,991568682.0,4378144000.0
sh688004,博汇科技,2020-09-01,77.18,78.99,76.55,77.99,77.08,263017.0,20389631.0,1003275058.5,4429832000.0
sh688004,博汇科技,2020-09-02,77.8,78.68,76.82,76.95,77.99,362622.0,28016735.0,989896342.5,4370760000.0
sh688004,博汇科技,2020-09-03,76.58,77.5,76.0,76.1,76.95,312442.0,23845048.0,978961815.0,4322480000.0
sh688004,博汇科技,2020-09-04,76.1,76.1,75.19,75.58,76.1,211863.0,16000410.0,972272457.0,4292944000.0
sh688004,博汇科技,2020-09-07,76.0,76.11,71.0,72.21,75.58,507904.0,37385249.0,928920271.5,4101528000.0
sh688004,博汇科技,2020-09-08,72.42,72.53,68.03,69.35,72.21,614568.0,42667050.0,892128802.5,3939080000.0
sh688004,博汇科技,2020-09-09,68.98,68.98,65.13,65.68,69.35,523784.0,35050389.0,844917372.0,3730624000.0
sh688004,博汇科技,2020-09-10,66.5,66.8,63.52,64.54,65.68,318506.0,20819890.0,830252241.0000001,3665872000.0
sh688004,博汇科技,2020-09-11,63.64,66.69,62.76,66.3,64.54,352201.0,22796340.0,852893144.9999999,3765840000.0
sh688004,博汇科技,2020-09-14,66.3,69.26,66.3,66.94,66.3,404032.0,27481739.0,861126201.0,3802192000.0
sh688004,博汇科技,2020-09-15,67.0,68.35,66.51,67.8,66.94,293824.0,19844409.0,872189370.0,3851040000.0
sh688004,博汇科技,2020-09-16,67.8,67.91,66.2,66.5,67.8,231038.0,15420948.0,855465975.0,3777200000.0
sh688004,博汇科技,2020-09-17,66.57,72.82,65.83,70.66,66.5,1098450.0,77401964.0,908980839.0,4013488000.0
sh688004,博汇科技,2020-09-18,70.84,72.55,69.78,70.38,70.66,558603.0,39478669.0,905378877.0,3997584000.0
sh688004,博汇科技,2020-09-21,70.69,70.95,69.31,69.77,70.38,197409.0,13789518.0,897531745.5,3962936000.0
sh688004,博汇科技,2020-09-22,69.03,69.61,68.01,68.16,69.77,259722.0,17799391.0,876820464.0000001,3871488000.0
sh688004,博汇科技,2020-09-23,68.18,69.89,68.18,68.95,68.16,265591.0,18371464.0,886983142.5,3916360000.0
sh688004,博汇科技,2020-09-24,68.53,68.88,66.3,66.63,68.95,304237.0,20454214.0,857138314.5,3784584000.0
sh688004,博汇科技,2020-09-25,67.98,67.98,65.6,66.3,66.63,138338.0,9194696.0,852893144.9999999,3765840000.0
sh688004,博汇科技,2020-09-28,65.8,67.3,64.21,65.04,66.3,152622.0,9955716.0,836684316.0,3694272000.0
sh688004,博汇科技,2020-09-29,65.08,66.48,64.97,65.4,65.04,155009.0,10205504.0,841315410.0,3714720000.0
sh688004,博汇科技,2020-09-30,66.09,66.46,65.15,65.32,65.4,189291.0,12448467.0,840286278.0,3710176000.0
sh688004,博汇科技,2020-10-09,65.52,67.33,65.52,67.18,65.32,208857.0,13975545.0,864213597.0,3815824000.0
sh688004,博汇科技,2020-10-12,67.3,69.58,67.3,69.5,67.18,338338.0,23305434.0,894058425.0,3947600000.0
sh688004,博汇科技,2020-10-13,69.49,70.49,69.1,69.73,69.5,291285.0,20325783.0,897017179.5,3960664000.0
sh688004,博汇科技,2020-10-14,68.54,70.36,68.54,68.99,69.73,149862.0,10352693.0,887497708.5,3918632000.0
sh688004,博汇科技,2020-10-15,69.49,69.49,67.7,67.84,68.99,178244.0,12193505.0,872703936.0,3853312000.0
sh688004,博汇科技,2020-10-16,67.62,68.23,67.6,67.84,67.84,133469.0,9057694.0,872703936.0,3853312000.0
sh688004,博汇科技,2020-10-19,68.49,70.98,68.21,70.05,67.84,488375.0,34285175.0,901133707.5,3978840000.0
sh688004,博汇科技,2020-10-20,69.1,69.33,68.23,69.33,70.05,247844.0,17052684.0,891871519.5,3937944000.0
sh688004,博汇科技,2020-10-21,69.34,69.84,66.71,67.48,69.33,229922.0,15706617.0,868072842.0,3832864000.0
sh688004,博汇科技,2020-10-22,67.5,68.2,65.5,66.27,67.48,253063.0,16807513.0,852507220.5,3764136000.0
sh688004,博汇科技,2020-10-23,65.89,66.78,64.27,64.59,66.27,252080.0,16468606.0,830895448.5,3668712000.0
sh688004,博汇科技,2020-10-26,64.3,65.34,63.9,64.78,64.59,153578.0,9919140.0,833339636.9999999,3679504000.0
sh688004,博汇科技,2020-10-27,64.79,65.29,64.41,64.79,64.78,153288.0,9914102.0,833468278.5,3680072000.0
sh688004,博汇科技,2020-10-28,64.72,65.55,64.38,65.47,64.79,185248.0,12038879.0,842215900.5,3718696000.0
sh688004,博汇科技,2020-10-29,64.63,65.39,64.63,64.99,65.47,162053.0,10528406.0,836041108.5,3691432000.0
sh688004,博汇科技,2020-10-30,65.3,65.3,61.8,61.8,64.99,374860.0,23858412.0,795004470.0,3510240000.0
sh688004,博汇科技,2020-11-02,61.93,62.01,58.3,58.98,61.8,392969.0,23401237.0,758727567.0,3350064000.0
sh688004,博汇科技,2020-11-03,59.16,61.95,59.02,60.8,58.98,233180.0,14184704.0,782140320.0000001,3453440000.0
sh688004,博汇科技,2020-11-04,61.5,61.88,59.88,60.78,60.8,174210.0,10573079.0,781883037.0,3452304000.0
sh688004,博汇科技,2020-11-05,62.2,62.2,60.81,61.67,60.78,178371.0,10970762.0,793332130.5,3502856000.0
sh688004,博汇科技,2020-11-06,61.67,61.93,60.55,60.98,61.67,163843.0,9985362.0,784455867.0,3463664000.0
sh688004,博汇科技,2020-11-09,61.8,64.09,61.41,63.5,60.98,384956.0,24330104.0,816873524.9999999,3606800000.0
sh688004,博汇科技,2020-11-10,64.39,64.7,62.39,62.84,63.5,296007.0,18769801.0,808383186.0,3569312000.0
sh688004,博汇科技,2020-11-11,62.38,62.83,60.87,60.93,62.84,229137.0,14079488.0,783812659.5,3460824000.0
sh688004,博汇科技,2020-11-12,61.25,61.5,60.29,60.84,60.93,152740.0,9306865.0,782654886.0,3455712000.0
sh688004,博汇科技,2020-11-13,60.77,61.22,60.31,61.19,60.84,131652.0,8015290.0,787157338.5,3475592000.0
sh688004,博汇科技,2020-11-16,61.48,61.97,60.73,61.18,61.19,145828.0,8900337.0,787028697.0,3475024000.0
sh688004,博汇科技,2020-11-17,61.03,61.03,59.5,60.54,61.18,196734.0,11827055.0,778795641.0,3438672000.0
sh688004,博汇科技,2020-11-18,60.48,61.5,60.1,61.25,60.54,233286.0,14177879.0,787929187.5,3479000000.0
sh688004,博汇科技,2020-11-19,61.25,61.36,60.6,61.0,61.25,189358.0,11551188.0,784713150.0,3464800000.0
sh688004,博汇科技,2020-11-20,61.0,61.48,60.69,61.17,61.0,186412.0,11371729.0,786900055.5,3474456000.0
sh688004,博汇科技,2020-11-23,60.02,61.05,59.81,60.27,61.17,262999.0,15837806.0,775322320.5000001,3423336000.0
sh688004,博汇科技,2020-11-24,60.27,60.9,60.16,60.26,60.27,155124.0,9395079.0,775193679.0,3422768000.0
sh688004,博汇科技,2020-11-25,60.79,60.79,59.5,59.5,60.26,156327.0,9347393.0,765416925.0,3379600000.0
sh688004,博汇科技,2020-11-26,59.55,59.79,58.48,58.65,59.5,139171.0,8209452.0,754482397.4999999,3331320000.0
sh688004,博汇科技,2020-11-27,58.35,58.95,58.35,58.92,58.65,114848.0,6734801.0,757955718.0,3346656000.0
sh688004,博汇科技,2020-11-30,58.92,59.72,58.92,59.28,58.92,97591.0,5788997.0,762586812.0000001,3367104000.0
sh688004,博汇科技,2020-12-01,59.11,59.97,58.0,59.65,59.28,179566.0,10612059.0,767346547.5,3388120000.0
sh688004,博汇科技,2020-12-02,59.25,59.91,59.25,59.77,59.65,142283.0,8479745.0,768890245.5,3394936000.0
sh688004,博汇科技,2020-12-03,59.11,60.0,59.11,59.56,59.77,132597.0,7905865.0,766188774.0,3383008000.0
sh688004,博汇科技,2020-12-04,59.56,59.97,59.41,59.68,59.56,99367.0,5921459.0,767732472.0,3389824000.0
sh688004,博汇科技,2020-12-07,59.3,59.3,57.99,58.01,59.68,269606.0,15744490.0,746249341.5,3294968000.0
sh688004,博汇科技,2020-12-08,58.1,58.56,56.33,57.02,58.01,340159.0,19423625.0,733513833.0,3238736000.0
sh688004,博汇科技,2020-12-09,57.49,57.49,55.38,55.67,57.02,231885.0,12996434.0,716147230.5,3162056000.0
sh688004,博汇科技,2020-12-10,55.39,55.4,53.61,53.93,55.67,270096.0,14623718.0,693763609.5,3063224000.0
sh688004,博汇科技,2020-12-11,54.96,54.96,51.4,51.9,53.93,381503.0,20034714.0,667649385.0,2947920000.0
sh688004,博汇科技,2020-12-14,52.0,52.87,50.18,52.3,51.9,482929.0,25102632.0,705527000.0,2970640000.0
sh688004,博汇科技,2020-12-15,52.39,52.39,51.02,51.69,52.3,171712.0,8898210.0,697298100.0,2935992000.0
sh688004,博汇科技,2020-12-16,51.6,51.98,49.19,49.6,51.69,310189.0,15592555.0,669104000.0,2817280000.0
sh688004,博汇科技,2020-12-17,49.82,51.95,48.85,51.06,49.6,370149.0,18670161.0,688799400.0,2900208000.0
sh688004,博汇科技,2020-12-18,51.0,51.8,50.0,50.39,51.06,221120.0,11232340.0,679761100.0,2862152000.0
sh688004,博汇科技,2020-12-21,50.39,51.1,50.03,51.02,50.39,142351.0,7221026.0,688259800.0,2897936000.0
sh688004,博汇科技,2020-12-22,50.94,50.94,49.3,49.78,51.02,226031.0,11284360.0,671532200.0,2827504000.0
sh688004,博汇科技,2020-12-23,49.1,50.08,48.81,49.12,49.78,163927.0,8061523.0,662628800.0,2790016000.0
sh688004,博汇科技,2020-12-24,49.27,49.27,45.48,45.96,49.12,482854.0,22620315.0,620000400.0,2610528000.0
sh688004,博汇科技,2020-12-25,45.91,46.3,45.1,45.84,45.96,218423.0,9987172.0,618381600.0,2603712000.0
sh688004,博汇科技,2020-12-28,45.79,45.79,44.44,44.51,45.84,257429.0,11577716.0,600439900.0,2528168000.0
sh688004,博汇科技,2020-12-29,44.55,45.92,44.47,45.08,44.51,164886.0,7494601.0,608129200.0,2560544000.0
sh688004,博汇科技,2020-12-30,45.68,46.2,44.51,45.89,45.08,189582.0,8630746.0,619056100.0,2606552000.0
sh688004,博汇科技,2020-12-31,46.1,47.75,45.15,46.69,45.89,289619.0,13561301.0,629848100.0,2651992000.0
sh688004,博汇科技,2021-01-04,47.02,47.97,46.25,47.66,46.69,235684.0,11147725.0,642933400.0,2707088000.0
sh688004,博汇科技,2021-01-05,47.58,48.3,47.02,47.45,47.66,208964.0,9915705.0,640100500.0,2695160000.0
sh688004,博汇科技,2021-01-06,47.33,47.79,45.7,46.01,47.45,237330.0,11006995.0,620674900.0,2613368000.0
sh688004,博汇科技,2021-01-07,45.8,45.98,42.5,43.49,46.01,380024.0,16774126.0,586680100.0,2470232000.0
sh688004,博汇科技,2021-01-08,43.09,44.35,42.14,43.45,43.49,347706.0,15102335.0,586140500.0,2467960000.0
sh688004,博汇科技,2021-01-11,43.75,43.78,41.82,41.86,43.45,317074.0,13467584.0,564691400.0,2377648000.0
sh688004,博汇科技,2021-01-12,42.28,42.7,41.6,42.0,41.86,185984.0,7833021.0,566580000.0,2385600000.0
sh688004,博汇科技,2021-01-13,42.19,42.19,39.55,39.66,42.0,603893.0,24146811.0,535013400.0,2252688000.0
sh688004,博汇科技,2021-01-14,39.65,41.81,39.18,41.39,39.66,400289.0,16377374.0,558351100.0,2350952000.0
sh688004,博汇科技,2021-01-15,41.05,44.4,41.05,43.89,41.39,677451.0,29467824.0,592076100.0,2492952000.0
sh688004,博汇科技,2021-01-18,43.56,43.98,43.2,43.7,43.89,328241.0,14308103.0,589513000.0,2482160000.0
sh688004,博汇科技,2021-01-19,43.26,45.49,43.26,45.15,43.7,414149.0,18562569.0,609073500.0,2564520000.0
sh688004,博汇科技,2021-01-20,44.99,45.33,43.6,44.09,45.15,320505.0,14143067.0,594774100.0,2504312000.0
sh688004,博汇科技,2021-01-21,43.59,44.0,43.11,43.93,44.09,246199.0,10757651.0,592615700.0,2495224000.0
sh688004,博汇科技,2021-01-22,44.48,44.48,42.11,42.29,43.93,221912.0,9497087.0,570492100.0,2402072000.0
sh688004,博汇科技,2021-01-25,42.01,42.87,40.57,40.83,42.29,292531.0,12034191.0,550796700.0,2319144000.0
sh688004,博汇科技,2021-01-26,40.26,42.18,40.22,41.3,40.83,204588.0,8487527.0,557137000.0,2345840000.0
sh688004,博汇科技,2021-01-27,41.8,42.48,40.06,40.67,41.3,182570.0,7434339.0,548638300.0,2310056000.0
sh688004,博汇科技,2021-01-28,40.7,41.59,40.02,40.6,40.67,224117.0,9185186.0,547694000.0,2306080000.0
sh688004,博汇科技,2021-01-29,40.6,41.58,39.72,40.09,40.6,220180.0,8825986.0,540814100.0,2277112000.0
sh688004,博汇科技,2021-02-01,40.0,41.2,39.99,41.12,40.09,230032.0,9354200.0,554708800.0,2335616000.0
sh688004,博汇科技,2021-02-02,41.17,41.55,40.16,40.45,41.12,214471.0,8693264.0,545670500.0,2297560000.0
sh688004,博汇科技,2021-02-03,40.22,40.27,38.8,39.01,40.45,268904.0,10620412.0,526244900.0,2215768000.0
sh688004,博汇科技,2021-02-04,38.0,39.14,37.1,38.0,39.01,204593.0,7756579.0,512620000.0,2158400000.0
sh688004,博汇科技,2021-02-05,38.41,39.46,37.31,37.74,38.0,212035.0,8174916.0,509112600.0,2143632000.0
sh688004,博汇科技,2021-02-08,37.05,37.67,36.0,36.58,37.74,276993.0,10168486.0,493464200.0,2077744000.0
sh688004,博汇科技,2021-02-09,36.03,37.75,36.03,36.8,36.58,201133.0,7469916.0,496432000.0,2090240000.0
sh688004,博汇科技,2021-02-10,36.39,37.88,36.21,37.1,36.8,175268.0,6503059.0,500479000.0,2107280000.0
sh688004,博汇科技,2021-02-18,37.89,38.59,37.47,38.0,37.1,257012.0,9795818.0,512620000.0,2158400000.0
sh688004,博汇科技,2021-02-19,38.09,39.66,37.99,39.65,38.0,245522.0,9563963.0,534878500.0,2252120000.0
sh688004,博汇科技,2021-02-22,39.69,41.0,39.65,39.93,39.65,336749.0,13587526.0,538655700.0,2268024000.0
sh688004,博汇科技,2021-02-23,40.11,40.58,38.96,38.99,39.93,254025.0,10008018.0,525975100.0,2214632000.0
sh688004,博汇科技,2021-02-24,38.9,40.25,38.9,39.44,38.99,291990.0,11602593.0,532045600.0,2240192000.0
sh688004,博汇科技,2021-02-25,39.44,39.86,38.79,39.01,39.44,270992.0,10630043.0,526244900.0,2215768000.0
sh688004,博汇科技,2021-02-26,38.36,40.0,38.36,40.0,39.01,272958.0,10817595.0,539600000.0,2272000000.0
sh688004,博汇科技,2021-03-01,40.0,41.55,39.9,41.39,40.0,340415.0,13947960.0,558351100.0,2350952000.0
sh688004,博汇科技,2021-03-02,41.36,41.79,40.45,40.83,41.39,354714.0,14494939.0,550796700.0,2319144000.0
sh688004,博汇科技,2021-03-03,40.63,41.38,40.38,41.23,40.83,221952.0,9099224.0,556192700.0,2341864000.0
sh688004,博汇科技,2021-03-04,40.97,41.76,40.66,41.39,41.23,259693.0,10731085.0,558351100.0,2350952000.0
sh688004,博汇科技,2021-03-05,41.33,42.13,40.98,41.83,41.39,256722.0,10693034.0,564286700.0,2375944000.0
sh688004,博汇科技,2021-03-08,42.3,44.1,42.29,42.5,41.83,546330.0,23586765.0,573325000.0,2414000000.0
sh688004,博汇科技,2021-03-09,42.5,42.56,40.05,40.15,42.5,293780.0,12069095.0,541623500.0,2280520000.0
sh688004,博汇科技,2021-03-10,40.18,40.67,39.25,39.48,40.15,223495.0,8886355.0,532585200.0,2242464000.0
sh688004,博汇科技,2021-03-11,40.0,40.49,39.42,40.04,39.48,130257.0,5209503.0,540139600.0,2274272000.0
sh688004,博汇科技,2021-03-12,40.98,40.98,39.4,40.05,40.04,148423.0,5940517.0,540274500.0,2274840000.0
sh688004,博汇科技,2021-03-15,39.66,39.75,37.5,37.77,40.05,345602.0,13318437.0,509517300.00000006,2145336000.0
sh688004,博汇科技,2021-03-16,38.18,39.1,38.0,38.77,37.77,214097.0,8277856.0,523007300.00000006,2202136000.0
sh688004,博汇科技,2021-03-17,38.77,39.67,38.62,39.2,38.77,163775.0,6418196.0,528808000.0,2226560000.0
sh688004,博汇科技,2021-03-18,39.07,39.15,38.3,38.35,39.2,206104.0,7943414.0,517341500.0,2178280000.0
sh688004,博汇科技,2021-03-19,38.27,39.54,37.98,38.87,38.35,208228.0,8107253.0,524356300.0,2207816000.0
sh688004,博汇科技,2021-03-22,39.36,39.85,38.9,39.62,38.87,181067.0,7128963.0,534473800.0,2250416000.0
sh688004,博汇科技,2021-03-23,39.68,40.22,39.11,39.32,39.62,162105.0,6415809.0,530426800.0,2233376000.0
sh688004,博汇科技,2021-03-24,39.22,39.48,38.18,38.18,39.32,306651.0,11869134.0,515048200.0,2168624000.0
sh688004,博汇科技,2021-03-25,38.47,38.67,37.8,38.48,38.18,158401.0,6053574.0,519095200.0,2185664000.0
sh688004,博汇科技,2021-03-26,38.42,38.9,38.15,38.9,38.48,189935.0,7326590.0,524761000.0,2209520000.0
sh688004,博汇科技,2021-03-29,38.69,39.22,38.25,38.29,38.9,147522.0,5691818.0,516532100.0,2174872000.0
sh688004,博汇科技,2021-03-30,38.35,38.35,36.54,36.9,38.29,294676.0,10975280.0,497781000.0,2095920000.0
sh688004,博汇科技,2021-03-31,37.06,37.43,36.89,36.95,36.9,161022.0,5970182.0,498455500.0,2098760000.0
sh688004,博汇科技,2021-04-01,37.17,37.85,36.96,37.23,36.95,150113.0,5582451.0,502232700.0,2114664000.0
sh688004,博汇科技,2021-04-02,37.35,38.15,37.22,37.94,37.23,233000.0,8810683.0,511810600.0,2154992000.0
sh688004,博汇科技,2021-04-06,38.21,38.51,37.97,38.29,37.94,204786.0,7842486.0,516532100.0,2174872000.0
sh688004,博汇科技,2021-04-07,38.29,38.36,37.82,38.35,38.29,162896.0,6206322.0,517341500.0,2178280000.0
sh688004,博汇科技,2021-04-08,38.21,38.94,38.1,38.48,38.35,173671.0,6678464.0,519095200.0,2185664000.0
sh688004,博汇科技,2021-04-09,38.48,38.48,37.8,38.02,38.48,129693.0,4924255.0,512889800.00000006,2159536000.0
sh688004,博汇科技,2021-04-12,38.47,38.47,36.98,37.2,38.02,203758.0,7615585.0,501828000.0,2112960000.0
sh688004,博汇科技,2021-04-13,36.85,37.2,36.4,36.81,37.2,223381.0,8201333.0,496566900.0,2090808000.0
sh688004,博汇科技,2021-04-14,36.68,37.15,36.47,37.11,36.81,120560.0,4443620.0,500613900.0,2107848000.0
sh688004,博汇科技,2021-04-15,37.0,37.47,36.61,36.82,37.11,117290.0,4325670.0,496701800.0,2091376000.0
sh688004,博汇科技,2021-04-16,37.19,38.28,36.73,38.03,36.82,262021.0,9891886.0,513024700.0,2160104000.0
sh688004,博汇科技,2021-04-19,38.23,39.66,38.23,39.55,38.03,527586.0,20655045.0,533529500.0,2246440000.0
sh688004,博汇科技,2021-04-20,39.49,39.82,38.65,38.75,39.55,443930.0,17404022.0,532630375.0,2201000000.0
sh688004,博汇科技,2021-04-21,38.25,39.38,38.25,38.8,38.75,253469.0,9873648.0,533317640.0,2203840000.0
sh688004,博汇科技,2021-04-22,38.98,39.59,38.64,39.16,38.8,288314.0,11289906.0,538265948.0,2224288000.0
sh688004,博汇科技,2021-04-23,38.8,39.5,38.69,39.23,39.16,258649.0,10098681.0,539228119.0,2228264000.0
sh688004,博汇科技,2021-04-26,39.32,40.8,39.16,40.79,39.23,650369.0,26192071.0,560670787.0,2316872000.0
sh688004,博汇科技,2021-04-27,40.39,40.39,35.05,35.67,40.79,1375863.0,50361930.0,490294851.0,2026056000.0
sh688004,博汇科技,2021-04-28,35.46,35.53,33.78,34.27,35.67,743526.0,25647743.0,471051431.0,1946536000.0
sh688004,博汇科技,2021-04-29,34.37,34.53,33.81,34.0,34.27,280700.0,9574596.0,467340200.0,1931200000.0
sh688004,博汇科技,2021-04-30,34.03,34.21,33.33,33.52,34.0,319146.0,10737045.0,460742456.0,1903936000.0
sh688004,博汇科技,2021-05-06,33.34,33.76,33.33,33.64,33.52,166773.0,5595136.0,462391892.0,1910752000.0
sh688004,博汇科技,2021-05-07,33.78,33.78,33.0,33.29,33.64,179864.0,6013359.0,457581037.0,1890872000.0
sh688004,博汇科技,2021-05-10,33.14,33.59,32.95,33.13,33.29,184647.0,6132620.0,455381789.0,1881784000.0
sh688004,博汇科技,2021-05-11,32.92,33.44,32.9,33.39,33.13,204835.0,6804833.0,458955567.0,1896552000.0
sh688004,博汇科技,2021-05-12,33.1,33.4,33.03,33.18,33.39,183140.0,6073084.0,456069054.00000006,1884624000.0
sh688004,博汇科技,2021-05-13,32.91,33.53,32.54,33.08,33.18,158036.0,5253512.0,454694524.0,1878944000.0
sh688004,博汇科技,2021-05-14,33.2,33.68,33.2,33.63,33.08,210192.0,7050397.0,462254439.0,1910184000.0
sh688004,博汇科技,2021-05-17,33.9,33.9,33.06,33.38,33.63,280304.0,9334138.0,458818114.0,1895984000.0
sh688004,博汇科技,2021-05-18,33.34,33.7,33.0,33.69,33.38,227883.0,7594518.0,463079157.0,1913592000.0
sh688004,博汇科技,2021-05-19,33.69,33.95,33.25,33.26,33.69,145072.0,4861848.0,457168678.0,1889168000.0
sh688004,博汇科技,2021-05-20,33.48,33.48,32.54,33.0,33.26,153415.0,5070656.0,453594900.0,1874400000.0
sh688004,博汇科技,2021-05-21,33.23,33.43,32.93,33.01,33.0,132346.0,4381378.0,453732353.0,1874968000.0
sh688004,博汇科技,2021-05-24,32.91,33.5,32.91,33.14,33.01,172375.0,5729701.0,455519242.0,1882352000.0
sh688004,博汇科技,2021-05-25,33.38,33.8,33.03,33.61,33.14,194091.0,6493910.0,461979533.0,1909048000.0
sh688004,博汇科技,2021-05-26,33.59,35.35,33.36,34.62,33.61,597527.0,20703748.0,475862286.0,1966416000.0
sh688004,博汇科技,2021-05-27,34.57,35.8,34.56,35.52,34.62,527245.0,18628194.0,488233056.0,2017536000.0
sh688004,博汇科技,2021-05-28,35.13,36.63,34.8,35.0,35.52,385585.0,13718129.0,481085500.0,1988000000.0
sh688004,XD博汇科,2021-05-31,34.7,35.49,34.7,35.2,34.75,301432.0,10583712.0,483834560.0,1999360000.0
sh688004,博汇科技,2021-06-01,35.22,36.49,35.21,36.38,35.2,669588.0,24199801.0,500054014.0,2066384000.0
sh688004,博汇科技,2021-06-02,36.44,43.66,36.44,43.66,36.38,1136371.0,48080629.0,600119798.0,2479888000.0
sh688004,博汇科技,2021-06-03,44.54,48.84,43.21,43.21,43.66,3404735.0,157550096.0,593934413.0,2454328000.0
sh688004,博汇科技,2021-06-04,42.0,42.93,37.5,40.34,43.21,2128090.0,85299576.0,554485402.0,2291312000.0
sh688004,博汇科技,2021-06-07,40.34,41.4,38.87,39.93,40.34,1210005.0,48105519.0,548849829.0,2268024000.0
sh688004,博汇科技,2021-06-08,40.0,40.8,39.2,39.5,39.93,921045.0,36748576.0,542939350.0,2243600000.0
sh688004,博汇科技,2021-06-09,39.98,39.98,38.64,38.64,39.5,733991.0,28765791.0,531118392.0,2194752000.0
sh688004,博汇科技,2021-06-10,38.48,40.46,38.11,40.18,38.64,1068518.0,42369582.0,552286154.0,2282224000.0
sh688004,博汇科技,2021-06-11,40.0,40.85,37.86,38.05,40.18,1067075.0,42034488.0,523008665.0,2161240000.0
sh688004,博汇科技,2021-06-15,37.8,38.1,36.56,37.34,38.05,1206694.0,44811624.0,1470771070.8,2120912000.0
sh688004,博汇科技,2021-06-16,36.9,37.49,36.32,36.4,37.34,540891.0,19921541.0,1433745768.0,2067520000.0
sh688004,博汇科技,2021-06-17,36.19,37.28,36.19,37.05,36.4,855126.0,31541611.0,1459348371.0,2104440000.0
sh688004,博汇科技,2021-06-18,37.45,37.78,36.61,36.89,37.05,692468.0,25791318.0,1453046191.8000002,2095352000.0
sh688004,博汇科技,2021-06-21,36.61,37.75,36.61,37.51,36.89,628771.0,23474302.0,1477467136.2,2130568000.0
sh688004,博汇科技,2021-06-22,37.72,37.99,37.23,37.8,37.51,513268.0,19368570.0,1488889836.0,2147040000.0
sh688004,博汇科技,2021-06-23,37.97,37.97,37.15,37.3,37.8,541322.0,20252056.0,1469195526.0,2118640000.0
sh688004,博汇科技,2021-06-24,37.29,37.3,36.44,36.46,37.3,495419.0,18213515.0,1436109085.2,2070928000.0
sh688004,博汇科技,2021-06-25,36.52,37.11,36.3,36.79,36.46,435913.0,15991377.0,1449107329.8,2089672000.0
sh688004,博汇科技,2021-06-28,36.75,37.19,36.2,37.02,36.79,643522.0,23683375.0,1458166712.4,2102736000.0
sh688004,博汇科技,2021-06-29,37.35,37.88,36.88,36.9,37.02,782127.0,29269255.0,1453440078.0,2095920000.0
sh688004,博汇科技,2021-06-30,36.8,37.55,36.5,37.4,36.9,544765.0,20258298.0,1473134388.0,2124320000.0
sh688004,博汇科技,2021-07-01,37.68,37.9,36.78,36.81,37.4,694346.0,25889509.0,1449895102.2,2090808000.0
sh688004,博汇科技,2021-07-02,36.75,36.75,34.6,34.69,36.81,824263.0,28985985.0,1366391227.8,1970392000.0
sh688004,博汇科技,2021-07-05,34.59,36.2,34.59,35.87,34.69,520598.0,18534292.0,1412869799.4,2037416000.0
sh688004,博汇科技,2021-07-06,35.88,36.5,35.26,35.71,35.87,393776.0,14147085.0,1406567620.2,2028328000.0
sh688004,博汇科技,2021-07-07,35.87,36.15,35.05,35.73,35.71,367203.0,13042617.0,1407355392.6,2029464000.0
sh688004,博汇科技,2021-07-08,35.6,35.98,35.36,35.5,35.73,344861.0,12262331.0,1398296010.0,2016400000.0
sh688004,博汇科技,2021-07-09,35.5,35.59,35.2,35.45,35.5,293002.0,10361590.0,1396326579.0,2013560000.0
sh688004,博汇科技,2021-07-12,35.43,36.48,35.43,35.98,35.45,568823.0,20455744.0,1417202547.6,2043664000.0
sh688004,博汇科技,2021-07-13,35.97,36.95,35.97,36.64,35.98,439143.0,16039334.0,1443199036.8,2081152000.0
sh688004,博汇科技,2021-07-14,36.64,36.64,35.42,35.5,36.64,437867.0,15764531.0,1398296010.0,2016400000.0
sh688004,博汇科技,2021-07-15,35.06,35.48,34.28,34.5,35.5,492355.0,17029720.0,1358907390.0,1959600000.0
sh688004,博汇科技,2021-07-16,34.5,34.5,33.82,34.12,34.5,366684.0,12491242.0,1343939714.4,1938016000.0
sh688004,博汇科技,2021-07-19,34.0,34.0,33.18,33.6,34.12,276736.0,9271074.0,1323457631.9999998,1908480000.0
sh688004,博汇科技,2021-07-20,33.69,33.7,33.31,33.4,33.6,277291.0,9267654.0,1315579908.0,1897120000.0
sh688004,博汇科技,2021-07-21,33.66,34.19,33.4,33.83,33.4,252846.0,8552086.0,1332517014.6,1921544000.0
sh688004,博汇科技,2021-07-22,34.06,34.43,33.54,34.4,33.83,324945.0,11063259.0,1354968528.0,1953920000.0
sh688004,博汇科技,2021-07-23,34.44,34.45,33.62,33.85,34.4,322390.0,10917042.0,1333304787.0,1922680000.0
sh688004,博汇科技,2021-07-26,33.53,34.1,32.96,33.3,33.85,349760.0,11695069.0,1311641046.0,1891440000.0
sh688004,博汇科技,2021-07-27,33.02,34.54,33.02,34.1,33.3,660072.0,22417382.0,1343151942.0,1936880000.0
sh688004,博汇科技,2021-07-28,34.11,34.12,32.57,32.88,34.1,363678.0,12006230.0,1295097825.6,1867584000.0
sh688004,博汇科技,2021-07-29,32.84,33.75,32.84,33.47,32.88,212985.0,7114062.0,1318337111.4,1901096000.0
sh688004,博汇科技,2021-07-30,33.49,34.27,33.22,34.18,33.47,366866.0,12443974.0,1346303031.6,1941424000.0
sh688004,博汇科技,2021-08-02,33.82,35.48,33.8,35.21,34.18,533622.0,18649847.0,1386873310.2,1999928000.0
sh688004,博汇科技,2021-08-03,35.08,40.31,35.05,38.88,35.21,2533152.0,97564902.0,1531429545.6,2208384000.0
sh688004,博汇科技,2021-08-04,37.99,37.99,36.0,37.55,38.88,2186505.0,80293804.0,1479042680.9999998,2132840000.0
sh688004,博汇科技,2021-08-05,37.0,37.37,36.12,36.16,37.55,956815.0,35097860.0,1424292499.2,2053888000.0
sh688004,博汇科技,2021-08-06,36.2,36.34,35.4,35.68,36.16,522213.0,18651747.0,1405385961.6,2026624000.0
sh688004,博汇科技,2021-08-09,35.68,36.78,35.4,36.58,35.68,510652.0,18510913.0,1440835719.6,2077744000.0
sh688004,博汇科技,2021-08-10,36.58,36.8,36.24,36.6,36.58,559791.0,20460623.0,1441623492.0,2078880000.0
sh688004,博汇科技,2021-08-11,36.62,36.62,36.03,36.28,36.6,494400.0,17902573.0,1429019133.6,2060704000.0
sh688004,博汇科技,2021-08-12,36.2,37.35,36.01,36.96,36.28,712823.0,26246380.0,1455803395.2,2099328000.0
sh688004,博汇科技,2021-08-13,36.84,37.24,36.28,36.43,36.96,411782.0,15043819.0,1434927426.6,2069224000.0
sh688004,博汇科技,2021-08-16,36.38,36.42,35.9,35.91,36.43,355897.0,12868931.0,1414445344.2,2039688000.0
sh688004,博汇科技,2021-08-17,35.83,35.85,34.7,34.9,35.91,492120.0,17335869.0,1374662838.0,1982320000.0
sh688004,博汇科技,2021-08-18,35.0,35.5,34.72,35.28,34.9,278915.0,9777480.0,1389630513.6,2003904000.0
sh688004,博汇科技,2021-08-19,35.05,35.54,35.03,35.24,35.28,280733.0,9926995.0,1388054968.8,2001632000.0
sh688004,博汇科技,2021-08-20,35.81,35.81,34.58,35.2,35.24,371806.0,13047139.0,1391069504.0,1999360000.0
sh688004,博汇科技,2021-08-23,35.05,37.5,35.05,36.85,35.2,829196.0,30341695.0,1456275887.0,2093080000.0
sh688004,博汇科技,2021-08-24,36.63,37.16,36.4,36.68,36.85,628638.0,23105513.0,1449557653.6,2083424000.0
sh688004,博汇科技,2021-08-25,36.68,37.93,36.4,37.91,36.68,1031554.0,38458592.0,1498166048.2,2153288000.0
sh688004,博汇科技,2021-08-26,37.66,38.69,37.32,37.51,37.91,848525.0,32172662.0,1482358440.1999998,2130568000.0
sh688004,博汇科技,2021-08-27,37.56,37.98,36.71,36.91,37.51,513151.0,18969696.0,1458647028.2,2096488000.0
sh688004,博汇科技,2021-08-30,36.9,38.81,36.9,38.01,36.91,1198374.0,45831121.0,1502117950.1999998,2158968000.0
sh688004,博汇科技,2021-08-31,38.03,38.89,37.69,38.07,38.01,736754.0,28114017.0,1504489091.4,2162376000.0
sh688004,博汇科技,2021-09-01,37.82,38.2,37.4,37.62,38.07,594217.0,22465592.0,1486705532.4,2136816000.0
sh688004,博汇科技,2021-09-02,37.7,37.82,36.7,37.29,37.62,585723.0,21708194.0,1473664255.8000002,2118072000.0
sh688004,博汇科技,2021-09-03,37.29,38.67,37.19,37.96,37.29,861980.0,32878632.0,1500141999.2,2156128000.0
sh688004,博汇科技,2021-09-06,38.03,39.39,38.0,39.12,37.96,994728.0,38389840.0,1545984062.4,2222016000.0
sh688004,博汇科技,2021-09-07,39.33,39.85,38.5,38.65,39.12,757084.0,29371473.0,1527410123.0,2195320000.0
sh688004,博汇科技,2021-09-08,38.85,40.3,38.58,40.0,38.65,1247713.0,49506658.0,1580760799.9999998,2272000000.0
sh688004,博汇科技,2021-09-09,39.95,40.0,39.3,39.4,40.0,634471.0,25076553.0,1557049388.0,2237920000.0
sh688004,博汇科技,2021-09-10,39.4,39.94,37.9,38.5,39.4,844194.0,32626114.0,1521482270.0000002,2186800000.0
sh688004,博汇科技,2021-09-13,38.2,38.49,38.02,38.16,38.5,497945.0,19013449.0,1508045803.2,2167488000.0
sh688004,博汇科技,2021-09-14,37.8,38.37,37.08,37.17,38.16,643356.0,24251431.0,1468921973.4,2111256000.0
sh688004,博汇科技,2021-09-15,37.1,37.58,36.67,37.17,37.17,456167.0,16981639.0,1468921973.4,2111256000.0
sh688004,博汇科技,2021-09-16,37.3,37.5,36.4,36.4,37.17,543608.0,20109386.0,1438492328.0,2067520000.0
sh688004,博汇科技,2021-09-17,36.25,37.25,36.25,36.85,36.4,418095.0,15345112.0,1456275887.0,2093080000.0
sh688004,博汇科技,2021-09-22,36.02,36.83,36.01,36.29,36.85,351899.0,12781436.0,1434145235.8000002,2061272000.0
sh688004,博汇科技,2021-09-23,36.12,36.73,36.12,36.35,36.29,310006.0,11315861.0,1436516377.0,2064680000.0
sh688004,博汇科技,2021-09-24,36.35,36.4,35.01,35.03,36.35,592333.0,21105992.0,1384351270.6,1989704000.0
sh688004,博汇科技,2021-09-27,34.97,35.65,34.22,34.41,35.03,365396.0,12722674.0,1359849478.2,1954488000.0
sh688004,博汇科技,2021-09-28,34.36,34.57,34.11,34.28,34.41,215999.0,7413620.0,1354712005.6,1947104000.0
sh688004,博汇科技,2021-09-29,34.28,34.28,33.11,33.16,34.28,349809.0,11683968.0,1310450703.2,1883488000.0
sh688004,博汇科技,2021-09-30,33.15,33.8,33.11,33.6,33.16,334152.0,11146760.0,1327839071.9999998,1908480000.0
sh688004,博汇科技,2021-10-08,33.6,34.35,33.6,34.25,33.6,299940.0,10216403.0,1353526435.0,1945400000.0
sh688004,博汇科技,2021-10-11,34.05,34.59,34.05,34.47,34.25,212681.0,7307772.0,1362220619.4,1957896000.0
sh688004,博汇科技,2021-10-12,34.28,34.35,33.56,33.93,34.47,209297.0,7083036.0,1340880348.6,1927224000.0
sh688004,博汇科技,2021-10-13,34.2,34.86,33.88,34.84,33.93,376861.0,12994433.0,1376842656.8000002,1978912000.0
sh688004,博汇科技,2021-10-14,34.84,35.1,34.22,34.63,34.84,310708.0,10748373.0,1368543662.6,1966984000.0
sh688004,博汇科技,2021-10-15,34.6,34.97,34.07,34.1,34.63,181026.0,6231548.0,1347598581.9999998,1936880000.0
sh688004,博汇科技,2021-10-18,34.33,34.38,34.04,34.38,34.1,329518.0,11267515.0,1358663907.6,1952784000.0
sh688004,博汇科技,2021-10-19,34.38,34.72,33.84,34.03,34.38,218957.0,7486875.0,1344832250.6,1932904000.0
sh688004,博汇科技,2021-10-20,34.19,34.73,33.81,33.87,34.03,311258.0,10662099.0,1338509207.4,1923816000.0
sh688004,博汇科技,2021-10-21,33.87,33.94,32.97,33.05,33.87,352162.0,11733892.0,1306103611.0,1877240000.0
sh688004,博汇科技,2021-10-22,33.01,33.17,32.85,33.06,33.05,232772.0,7685618.0,1306498801.2,1877808000.0
sh688004,博汇科技,2021-10-25,32.94,33.13,32.85,33.1,33.06,116508.0,3848995.0,1308079562.0,1880080000.0
sh688004,博汇科技,2021-10-26,32.86,33.22,32.86,32.97,33.1,166759.0,5508818.0,1302942089.4,1872696000.0
sh688004,博汇科技,2021-10-27,32.68,32.87,30.63,30.7,32.97,562204.0,17654673.0,1201392924.0,1743760000.0
sh688004,博汇科技,2021-10-28,30.61,30.61,29.3,29.7,30.7,425359.0,12692381.0,1173714894.0,1686960000.0
sh688004,博汇科技,2021-10-29,29.81,30.47,29.7,30.23,29.7,275989.0,8313756.0,1194659974.6,1717064000.0
sh688004,博汇科技,2021-11-01,30.33,31.16,29.72,30.9,30.23,233526.0,7141128.0,1221137718.0,1755120000.0
sh688004,博汇科技,2021-11-02,31.01,31.3,29.69,30.1,30.9,263120.0,8026807.0,1189522502.0,1709680000.0
sh688004,博汇科技,2021-11-03,30.2,30.54,30.0,30.33,30.1,153027.0,4643743.0,1198611876.6,1722744000.0
sh688004,博汇科技,2021-11-04,30.66,30.9,30.33,30.72,30.33,274895.0,8401366.0,1214024294.4,1744896000.0
sh688004,博汇科技,2021-11-05,30.79,31.36,30.71,30.97,30.72,264357.0,8215449.0,1223904049.4,1759096000.0
sh688004,博汇科技,2021-11-08,31.35,31.65,30.61,31.19,30.97,265550.0,8286955.0,1232598233.8,1771592000.0
sh688004,博汇科技,2021-11-09,31.16,31.46,31.16,31.3,31.19,312233.0,9787208.0,1236945326.0,1777840000.0
sh688004,博汇科技,2021-11-10,31.3,31.73,31.3,31.71,31.3,308588.0,9714076.0,1253148124.2,1801128000.0
sh688004,博汇科技,2021-11-11,31.87,32.68,31.65,32.28,31.71,425788.0,13724157.0,1275673965.6,1833504000.0
sh688004,博汇科技,2021-11-12,32.24,32.49,32.01,32.36,32.28,279607.0,9022087.0,1278835487.2,1838048000.0
sh688004,博汇科技,2021-11-15,32.54,33.65,32.54,33.2,32.36,617975.0,20545862.0,1312031464.0,1885760000.0
sh688004,博汇科技,2021-11-16,33.3,33.66,32.81,33.2,33.2,501046.0,16641888.0,1312031464.0,1885760000.0
sh688004,博汇科技,2021-11-17,33.02,33.75,33.02,33.59,33.2,415627.0,13943037.0,1327443881.8000002,1907912000.0
sh688004,博汇科技,2021-11-18,33.68,34.5,33.31,33.32,33.59,618211.0,20947182.0,1316773746.4,1892576000.0
sh688004,博汇科技,2021-11-19,33.05,33.95,33.03,33.76,33.32,399872.0,13443101.0,1334162115.2,1917568000.0
sh688004,博汇科技,2021-11-22,33.88,34.04,33.51,33.97,33.76,396256.0,13374628.0,1342461109.4,1929496000.0
sh688004,博汇科技,2021-11-23,33.96,34.29,33.55,33.84,33.97,381596.0,12905444.0,1337323636.8000002,1922112000.0
sh688004,博汇科技,2021-11-24,33.8,34.4,33.63,34.19,33.84,663142.0,22569614.0,1351155293.8,1941992000.0
sh688004,博汇科技,2021-11-25,33.95,34.37,33.84,33.95,34.19,420601.0,14366061.0,1341670729.0,1928360000.0
sh688004,博汇科技,2021-11-26,33.95,34.19,33.39,33.46,33.95,519788.0,17480459.0,1322306409.2,1900528000.0
sh688004,博汇科技,2021-11-29,33.4,33.49,33.08,33.24,33.46,389142.0,12949968.0,1313612224.8,1888032000.0
sh688004,博汇科技,2021-11-30,33.32,34.93,33.2,34.4,33.24,945217.0,32400875.0,1359454288.0,1953920000.0
sh688004,博汇科技,2021-12-01,34.48,35.7,34.4,35.53,34.4,769100.0,27143146.0,1404110780.6,2018104000.0
sh688004,博汇科技,2021-12-02,35.07,35.71,34.36,34.41,35.53,680259.0,23606783.0,1359849478.2,1954488000.0
sh688004,博汇科技,2021-12-03,34.77,34.86,33.9,33.93,34.41,513039.0,17584641.0,1340880348.6000001,1927224000.0
sh688004,博汇科技,2021-12-06,33.76,34.03,32.6,32.75,33.93,492080.0,16278492.0,1294247905.0,1860200000.0
sh688004,博汇科技,2021-12-07,33.02,33.06,32.01,32.18,32.75,426192.0,13782017.0,1271722063.6,1827824000.0
sh688004,博汇科技,2021-12-08,32.35,32.62,32.2,32.55,32.18,223993.0,7275541.0,1286344101.0,1848840000.0
sh688004,博汇科技,2021-12-09,32.62,32.87,32.39,32.79,32.55,332464.0,10867369.0,1295828665.8,1862472000.0
sh688004,博汇科技,2021-12-10,32.88,33.15,32.68,32.7,32.79,322918.0,10612954.0,1292271954.0,1857360000.0
sh688004,博汇科技,2021-12-13,32.6,32.9,32.6,32.78,32.7,312236.0,10236181.0,1295433475.6,1861904000.0
sh688004,博汇科技,2021-12-14,32.65,33.46,32.61,33.31,32.78,542765.0,18000447.0,1316378556.1999998,1892008000.0
sh688004,博汇科技,2021-12-15,33.55,33.9,33.32,33.53,33.31,503812.0,16936556.0,1325072740.6,1904504000.0
sh688004,博汇科技,2021-12-16,33.75,34.3,33.55,34.2,33.53,411377.0,14002934.0,1351550484.0,1942560000.0
sh688004,博汇科技,2021-12-17,34.57,34.57,33.55,33.7,34.2,481653.0,16277520.0,1331790974.0,1914160000.0
sh688004,博汇科技,2021-12-20,34.1,34.1,33.26,33.6,33.7,454082.0,15279125.0,1327839071.9999998,1908480000.0
sh688004,博汇科技,2021-12-21,33.62,33.94,33.31,33.66,33.6,372198.0,12560446.0,1330210213.2,1911888000.0
sh688004,博汇科技,2021-12-22,33.71,34.86,33.53,34.29,33.66,843274.0,29007986.0,1355107195.8,1947672000.0
sh688004,博汇科技,2021-12-23,34.4,36.82,33.9,35.73,34.29,1950518.0,69186288.0,1412014584.6,2029464000.0
sh688004,博汇科技,2021-12-24,36.11,36.5,34.12,34.41,35.73,1256875.0,44366586.0,1359849478.2,1954488000.0
sh688004,博汇科技,2021-12-27,34.78,34.89,33.68,34.29,34.41,599706.0,20498704.0,1355107195.8,1947672000.0
sh688004,博汇科技,2021-12-28,34.38,34.78,34.18,34.55,34.29,479793.0,16547619.0,1365382141.0000002,1962440000.0
sh688004,博汇科技,2021-12-29,34.88,34.98,34.24,34.43,34.55,316195.0,10907649.0,1360639858.6,1955624000.0
sh688004,博汇科技,2021-12-30,34.36,35.45,34.36,35.05,34.43,631070.0,22148151.0,1385141651.0000002,1990840000.0
sh688004,博汇科技,2021-12-31,35.57,35.78,35.12,35.16,35.05,630686.0,22320835.0,1389488743.2,1997088000.0
sh688004,博汇科技,2022-01-04,35.25,37.1,35.25,36.78,35.16,1506395.0,55039436.0,1453509555.6,2089104000.0
sh688004,博汇科技,2022-01-05,37.18,37.8,36.38,36.68,36.78,1269154.0,46900319.0,1449557653.6,2083424000.0
sh688004,博汇科技,2022-01-06,36.79,37.47,36.31,36.69,36.68,773837.0,28565223.0,1449952843.8,2083992000.0
sh688004,博汇科技,2022-01-07,37.0,38.33,36.05,36.5,36.69,1418026.0,52771631.0,1442444230.0,2073200000.0
sh688004,博汇科技,2022-01-10,36.9,37.38,36.02,37.1,36.5,1020706.0,37609300.0,1466155642.0,2107280000.0
sh688004,博汇科技,2022-01-11,36.95,37.54,36.02,36.07,37.1,903228.0,32982282.0,1425451051.4,2048776000.0
sh688004,博汇科技,2022-01-12,36.44,36.88,36.24,36.51,36.07,416345.0,15195173.0,1442839420.1999998,2073768000.0
sh688004,博汇科技,2022-01-13,36.77,37.2,36.41,36.56,36.51,609670.0,22439582.0,1444815371.2,2076608000.0
sh688004,博汇科技,2022-01-14,36.5,36.95,35.73,35.74,36.56,804156.0,29152258.0,1412409774.8,2030032000.0
