数据由邢不行整理
股票代码,股票名称,交易日期,开盘价,最高价,最低价,收盘价,前收盘价,成交量,成交额,流通市值,总市值
sh688033,N天宜,2019-07-22,35.0,56.0,28.3,40.08,20.37,33751275.0,1213648694.0,1740914278.8,17985386495.0
sh688033,天宜上佳,2019-07-23,32.02,36.8,31.51,34.32,40.08,13109294.0,457179727.0,1490723005.2,15400660292.2
sh688033,天宜上佳,2019-07-24,34.95,39.2,34.5,39.01,34.32,16407326.0,610149164.0,1694437774.85,17505237703.9
sh688033,天宜上佳,2019-07-25,40.96,50.0,40.89,43.5,39.01,25763501.0,1170635453.0,1889465347.5,19520067678.0
sh688033,天宜上佳,2019-07-26,41.0,43.28,39.8,40.5,43.5,15264452.0,627613754.0,1759157392.5,18173856114.0
sh688033,天宜上佳,2019-07-29,41.76,45.5,41.38,45.5,40.5,17381194.0,761594992.0,1976337317.5,20417542054.0
sh688033,天宜上佳,2019-07-30,45.0,47.5,43.89,46.5,45.5,18961725.0,875252862.0,2019773302.5,20866279242.0
sh688033,天宜上佳,2019-07-31,46.4,47.68,44.7,47.3,46.5,16007930.0,746272617.0,2054522090.5,21225268992.4
sh688033,天宜上佳,2019-08-01,46.48,54.45,46.12,51.49,47.3,20360648.0,999491143.0,2236518867.65,23105477810.1
sh688033,天宜上佳,2019-08-02,49.7,58.21,49.5,54.96,51.49,23157533.0,1265337498.0,2387241735.6,24662595852.5
sh688033,天宜上佳,2019-08-05,54.85,58.7,51.0,58.7,54.96,16749939.0,940153434.0,2549692319.5,26340872935.6
sh688033,天宜上佳,2019-08-06,58.72,64.8,52.32,52.9,58.7,21501286.0,1293284709.0,2297763606.5,23738197245.2
sh688033,天宜上佳,2019-08-07,55.0,56.0,51.59,55.92,52.9,13729084.0,741586221.0,2428940281.2,25093383553.0
sh688033,天宜上佳,2019-08-08,56.2,57.8,52.5,52.8,55.92,12682686.0,703863090.0,2293420008.0,23693323526.4
sh688033,天宜上佳,2019-08-09,53.05,53.37,48.8,49.39,52.8,11528317.0,583859142.0,2145303299.15,22163129715.3
sh688033,天宜上佳,2019-08-12,49.28,49.8,44.6,46.65,49.39,9812300.0,460963622.0,2026288700.25,20933589820.2
sh688033,天宜上佳,2019-08-13,46.6,49.25,46.6,49.0,46.65,9596861.0,459665972.0,2128363265.0,21988122212.0
sh688033,天宜上佳,2019-08-14,49.7,52.2,48.64,50.9,49.0,13043656.0,658287845.0,2210891636.5,22840722869.2
sh688033,天宜上佳,2019-08-15,49.0,52.48,48.71,52.01,50.9,10361098.0,528218830.0,2259105579.85,23338821147.9
sh688033,天宜上佳,2019-08-16,53.57,53.9,50.55,51.45,52.01,9733574.0,505786325.0,2234781428.25,23087528322.6
sh688033,天宜上佳,2019-08-19,51.32,52.49,49.53,51.9,51.45,8738444.0,447994053.0,2254327621.5,23289460057.2
sh688033,天宜上佳,2019-08-20,51.61,52.55,50.8,50.81,51.9,5497675.0,284099719.0,2206982397.85,22800336522.3
sh688033,天宜上佳,2019-08-21,50.79,50.79,46.39,46.5,50.81,8691938.0,416387139.0,2019773302.5,20866279242.0
sh688033,天宜上佳,2019-08-22,46.5,47.38,45.1,45.93,46.5,4902303.0,227031406.0,1995014791.05,20610499044.8
sh688033,天宜上佳,2019-08-23,45.04,46.6,41.55,42.44,45.93,8364538.0,366060641.0,1843423203.4,19044406258.7
sh688033,天宜上佳,2019-08-26,42.41,43.75,41.89,42.86,42.44,4803326.0,205775902.0,1861666317.1,19232875877.7
sh688033,天宜上佳,2019-08-27,43.15,43.7,42.06,43.32,42.86,4804950.0,206265257.0,1881646870.2,19439294984.2
sh688033,天宜上佳,2019-08-28,42.8,43.4,41.49,41.59,43.32,4973355.0,210810156.0,1806502616.15,18662979648.9
sh688033,天宜上佳,2019-08-29,41.3,41.4,39.38,40.5,41.59,7405608.0,298498072.0,1759157392.5,18173856114.0
sh688033,天宜上佳,2019-08-30,40.5,41.12,39.86,40.46,40.5,4293781.0,173973643.0,1757419953.1,18155906626.5
sh688033,天宜上佳,2019-09-02,40.75,41.03,40.21,40.81,40.46,2827330.0,115159087.0,1772622547.85,18312964642.3
sh688033,天宜上佳,2019-09-03,40.78,44.1,40.6,43.57,40.81,7954920.0,340955623.0,1892505866.45,19551479281.2
sh688033,天宜上佳,2019-09-04,43.2,44.3,43.0,43.13,43.57,5695945.0,248106476.0,1873394033.05,19354034918.4
sh688033,天宜上佳,2019-09-05,43.16,43.63,42.85,43.15,43.13,4583545.0,198098717.0,1874262752.75,19363009662.2
sh688033,天宜上佳,2019-09-06,43.01,43.45,41.01,41.13,43.15,5225063.0,219750263.0,1786522063.05,18456560542.4
sh688033,天宜上佳,2019-09-09,41.2,41.65,40.94,41.21,41.13,2515784.0,103593152.0,1789996941.85,18492459517.5
sh688033,天宜上佳,2019-09-10,41.2,42.5,41.19,41.65,41.21,3059562.0,128020315.0,1809108775.25,18689903880.2
sh688033,天宜上佳,2019-09-11,41.75,41.75,40.94,41.03,41.65,2690178.0,111057654.0,1782178464.55,18411686823.6
sh688033,天宜上佳,2019-09-12,41.2,41.25,39.8,40.04,41.03,3179967.0,127750220.0,1739176839.4,17967437007.5
sh688033,天宜上佳,2019-09-16,40.04,40.55,40.01,40.26,40.04,1502304.0,60483773.0,1748732756.1,18066159188.9
sh688033,天宜上佳,2019-09-17,40.33,40.5,39.39,39.42,40.26,2161316.0,86277122.0,1712246528.7,17689219951.0
sh688033,天宜上佳,2019-09-18,39.59,40.23,37.8,38.35,39.42,3843983.0,148192026.0,1665770024.75,17209071159.8
sh688033,天宜上佳,2019-09-19,38.57,40.52,38.02,39.25,38.35,3669747.0,144684719.0,1704862411.25,17612934629.0
sh688033,天宜上佳,2019-09-20,39.88,41.05,39.55,39.96,39.25,4907669.0,197861398.0,1735701960.6,17931538032.5
sh688033,天宜上佳,2019-09-23,39.5,39.99,38.66,38.95,39.96,2637260.0,103178499.0,1691831615.75,17478313472.6
sh688033,天宜上佳,2019-09-24,38.78,40.31,38.61,39.75,38.95,3345843.0,132721711.0,1726580403.75,17837303223.0
sh688033,天宜上佳,2019-09-25,39.61,40.19,38.77,38.77,39.75,2434620.0,96099085.0,1684013138.45,17397540778.8
sh688033,天宜上佳,2019-09-26,38.8,38.9,35.35,35.35,38.77,4061628.0,148521351.0,1535462069.75,15862859595.8
sh688033,天宜上佳,2019-09-27,35.82,36.35,35.08,35.83,35.35,1855198.0,66348765.0,1556311342.55,16078253446.0
sh688033,天宜上佳,2019-09-30,35.8,35.8,33.62,34.08,35.83,2902299.0,99430217.0,1480298368.8,15292963367.0
sh688033,天宜上佳,2019-10-08,34.07,34.3,32.89,32.98,34.08,1801986.0,60087997.0,1432518785.3,14799352460.2
sh688033,天宜上佳,2019-10-09,32.91,33.44,32.7,33.1,32.98,1303051.0,43142759.0,1437731103.5,14853200922.8
sh688033,天宜上佳,2019-10-10,33.23,33.83,33.1,33.42,33.1,1403703.0,47063764.0,1451630618.7,14996796823.0
sh688033,天宜上佳,2019-10-11,33.65,33.65,33.11,33.15,33.42,1131449.0,37690069.0,1439902902.75,14875637782.2
sh688033,天宜上佳,2019-10-14,33.33,33.95,33.05,33.8,33.15,1478472.0,49657622.0,1468136293.0,15167316954.4
sh688033,天宜上佳,2019-10-15,33.79,33.9,33.21,33.25,33.8,1034652.0,34698038.0,1444246501.25,14920511501.0
sh688033,天宜上佳,2019-10-16,33.26,33.57,31.88,31.95,33.25,2005476.0,65222523.0,1387779720.75,14337153156.6
sh688033,天宜上佳,2019-10-17,31.95,32.98,31.8,32.26,31.95,1790359.0,58116593.0,1401244876.1,14476261684.9
sh688033,天宜上佳,2019-10-18,32.1,33.53,32.02,32.69,32.26,2521801.0,83194179.0,1419922349.65,14669218675.7
sh688033,天宜上佳,2019-10-21,32.68,32.68,30.6,31.09,32.69,2371040.0,74021661.0,1350424773.65,13951239174.9
sh688033,天宜上佳,2019-10-22,31.0,31.55,30.91,31.32,31.09,1149913.0,35907762.0,1360415050.2,14054448728.2
sh688033,天宜上佳,2019-10-23,31.42,33.96,31.01,33.5,31.32,3690919.0,120821356.0,1455105497.5,15032695798.0
sh688033,天宜上佳,2019-10-24,33.5,35.2,33.06,33.7,33.5,5423432.0,185407423.0,1463792694.5,15122443235.6
sh688033,天宜上佳,2019-10-25,33.59,33.59,32.27,32.58,33.7,2866844.0,93758116.0,1415144391.3,14619857585.0
sh688033,天宜上佳,2019-10-28,32.33,33.48,32.33,33.08,32.58,2367389.0,78116252.0,1436862383.8,14844226179.0
sh688033,天宜上佳,2019-10-29,33.0,33.59,31.9,31.94,33.08,2280424.0,74830531.0,1387345360.9,14332665784.7
sh688033,天宜上佳,2019-10-30,31.5,31.98,30.75,30.8,31.94,2034107.0,63259277.0,1337828338.0,13821105390.4
sh688033,天宜上佳,2019-10-31,30.8,31.06,28.9,29.08,30.8,2603296.0,77127538.0,1263118443.8,13049277427.0
sh688033,天宜上佳,2019-11-01,29.29,29.39,28.72,29.01,29.08,1131403.0,32897839.0,1260077924.85,13017865823.9
sh688033,天宜上佳,2019-11-04,29.1,30.0,29.1,29.61,29.01,1229000.0,36324777.0,1286139515.85,13287108136.7
sh688033,天宜上佳,2019-11-05,29.42,29.66,28.58,29.01,29.61,1634445.0,47213791.0,1260077924.85,13017865823.9
sh688033,天宜上佳,2019-11-06,29.21,29.44,28.58,28.88,29.01,1118531.0,32345154.0,1254431246.8,12959529989.4
sh688033,天宜上佳,2019-11-07,28.69,29.24,28.65,28.96,28.88,1260971.0,36537459.0,1257906125.6,12995428964.5
sh688033,天宜上佳,2019-11-08,29.1,29.28,28.65,28.84,28.96,1389877.0,40372124.0,1252693807.4,12941580501.9
sh688033,天宜上佳,2019-11-11,28.41,28.73,26.7,26.89,28.84,2275271.0,62255140.0,1167993636.65,12066542985.3
sh688033,天宜上佳,2019-11-12,27.4,27.4,26.3,26.58,26.89,1213117.0,32386072.0,1154528481.3,11927434457.0
sh688033,天宜上佳,2019-11-13,26.6,27.05,26.5,26.71,26.58,882228.0,23625029.0,1160175159.35,11985770291.5
sh688033,天宜上佳,2019-11-14,26.72,27.19,26.32,26.78,26.71,1280848.0,34365883.0,1163215678.3,12017181894.6
sh688033,天宜上佳,2019-11-15,26.66,26.97,26.31,26.37,26.78,1188565.0,31671891.0,1145406924.45,11833199647.6
sh688033,天宜上佳,2019-11-18,26.37,26.5,26.01,26.15,26.37,1100537.0,28863853.0,1135851007.75,11734477466.2
sh688033,天宜上佳,2019-11-19,26.12,26.55,26.08,26.42,26.15,961695.0,25308224.0,1147578723.7,11855636507.0
sh688033,天宜上佳,2019-11-20,26.55,26.55,25.7,25.7,26.42,1183215.0,30864884.0,1116304814.5,11532545731.6
sh688033,天宜上佳,2019-11-21,25.71,25.71,24.55,24.55,25.7,1667251.0,41732184.0,1066353431.75,11016497965.4
sh688033,天宜上佳,2019-11-22,24.6,24.99,24.15,24.18,24.55,1254787.0,30765673.0,1050282117.3,10850465205.8
sh688033,天宜上佳,2019-11-25,24.39,24.39,23.23,23.45,24.18,1516275.0,35657935.0,1018573848.25,10522887058.6
sh688033,天宜上佳,2019-11-26,23.6,23.7,23.35,23.55,23.45,849867.0,19981558.0,1022917446.75,10567760777.4
sh688033,天宜上佳,2019-11-27,23.63,23.72,23.46,23.54,23.55,925040.0,21838291.0,1022483086.9,10563273405.5
sh688033,天宜上佳,2019-11-28,23.62,24.1,23.48,23.85,23.54,1419085.0,33901716.0,1035948242.25,10702381933.8
sh688033,天宜上佳,2019-11-29,23.62,24.27,23.6,24.21,23.85,1340652.0,32221596.0,1051585196.85,10863927321.5
sh688033,天宜上佳,2019-12-02,24.36,24.52,23.83,23.93,24.21,1132210.0,27368389.0,1039423121.05,10738280908.8
sh688033,天宜上佳,2019-12-03,23.81,23.81,23.17,23.37,23.93,1139519.0,26615548.0,1015098969.45,10486988083.6
sh688033,天宜上佳,2019-12-04,23.36,23.7,23.21,23.51,23.37,669391.0,15725538.0,1021180007.35,10549811289.9
sh688033,天宜上佳,2019-12-05,23.46,23.68,23.36,23.65,23.51,778602.0,18307941.0,1027261045.25,10612634496.2
sh688033,天宜上佳,2019-12-06,23.65,23.94,23.48,23.76,23.65,1153445.0,27409886.0,1032039003.6,10661995586.9
sh688033,天宜上佳,2019-12-09,23.77,25.5,23.77,25.32,23.76,3291274.0,81478997.0,1099799140.2,11362025600.2
sh688033,天宜上佳,2019-12-10,25.15,29.01,24.81,27.38,25.32,6051022.0,164101062.0,1189277269.3,12286424207.4
sh688033,天宜上佳,2019-12-11,27.93,28.5,26.15,26.37,27.38,3892175.0,105958470.0,1145406924.45,11833199647.6
sh688033,天宜上佳,2019-12-12,26.42,27.2,26.2,26.48,26.37,2026241.0,54289641.0,1150184882.8,11882560738.2
sh688033,天宜上佳,2019-12-13,26.48,26.87,25.86,26.17,26.48,1821273.0,47784267.0,1136719727.45,11743452210.0
sh688033,天宜上佳,2019-12-16,26.27,26.76,26.27,26.53,26.17,1490550.0,39471582.0,1152356682.05,11904997597.6
sh688033,天宜上佳,2019-12-17,26.49,27.24,26.49,26.99,26.53,2012215.0,54212817.0,1172337235.15,12111416704.1
sh688033,天宜上佳,2019-12-18,26.99,27.98,26.92,27.79,26.99,2983972.0,82650589.0,1207086023.15,12470406454.5
sh688033,天宜上佳,2019-12-19,28.72,28.89,27.72,28.06,27.79,2626164.0,73969387.0,1218813739.1,12591565495.3
sh688033,天宜上佳,2019-12-20,28.03,28.25,27.45,27.45,28.06,1813032.0,50443949.0,1192317788.25,12317835810.6
sh688033,天宜上佳,2019-12-23,27.15,27.39,25.95,25.96,27.45,1898479.0,50361211.0,1127598170.6,11649217400.5
sh688033,天宜上佳,2019-12-24,26.0,26.78,26.0,26.77,25.96,1604388.0,42608143.0,1162781318.45,12012694522.8
sh688033,天宜上佳,2019-12-25,26.91,27.57,26.62,27.2,26.77,1931468.0,52607699.0,1181458792.0,12205651513.6
sh688033,天宜上佳,2019-12-26,27.4,27.55,26.81,27.04,27.2,1571782.0,42671915.0,1174509034.4,12133853563.5
sh688033,天宜上佳,2019-12-27,27.13,27.46,26.79,26.8,27.04,1732250.0,47109842.0,1164084398.0,12026156638.4
sh688033,天宜上佳,2019-12-30,26.82,27.14,26.25,26.84,26.8,1149572.0,30800032.0,1165821837.4,12044106125.9
sh688033,天宜上佳,2019-12-31,26.99,27.1,26.65,27.02,26.84,1099871.0,29555120.0,1173640314.7,12124878819.8
sh688033,天宜上佳,2020-01-02,27.21,27.66,27.1,27.52,27.02,1909115.0,52297996.0,1195358307.2,12349247413.8
sh688033,天宜上佳,2020-01-03,27.5,27.99,27.4,27.97,27.52,2053120.0,57105772.0,1214904500.45,12551179148.4
sh688033,天宜上佳,2020-01-06,27.88,28.42,27.41,27.91,27.97,2326617.0,65124997.0,1212298341.35,12524254917.1
sh688033,天宜上佳,2020-01-07,28.2,28.33,27.72,28.1,27.91,1783557.0,49829585.0,1220551178.5,12609514982.8
sh688033,天宜上佳,2020-01-08,27.82,29.0,27.82,28.3,28.1,3466872.0,98748301.0,1229238375.5,12699262420.4
sh688033,天宜上佳,2020-01-09,28.72,29.77,28.43,29.75,28.3,4178246.0,121618775.0,1292220553.75,13349931343.0
sh688033,天宜上佳,2020-01-10,29.98,30.64,29.75,30.43,29.75,3855984.0,116796261.0,1321757023.55,13655072630.8
sh688033,天宜上佳,2020-01-13,30.5,30.59,29.5,30.3,30.43,2504764.0,75108820.0,1316110345.5,13596736796.4
sh688033,天宜上佳,2020-01-14,30.29,30.96,30.13,30.35,30.3,2553186.0,77678333.0,1318282144.75,13619173655.8
sh688033,天宜上佳,2020-01-15,30.22,30.51,29.26,29.38,30.35,2581070.0,76735644.0,1276149239.3,13183898583.4
sh688033,天宜上佳,2020-01-16,29.78,29.95,29.28,29.43,29.38,2010788.0,59549611.0,1278321038.55,13206335442.8
sh688033,天宜上佳,2020-01-17,29.46,31.98,29.46,31.66,29.43,6168194.0,191941995.0,1375183285.1,14207019372.1
sh688033,天宜上佳,2020-01-20,31.66,33.38,30.51,32.62,31.66,5907718.0,190707159.0,1416881830.7,14637807072.6
sh688033,天宜上佳,2020-01-21,32.79,33.45,31.31,31.31,32.62,3951099.0,127448706.0,1359980690.35,14049961356.3
sh688033,天宜上佳,2020-01-22,31.05,32.09,29.1,31.22,31.31,4237574.0,129063914.0,1433507760.16,14009575009.4
sh688033,天宜上佳,2020-01-23,31.3,31.68,29.2,29.69,31.22,3504551.0,106809313.0,1363255778.32,13323007111.7
sh688033,天宜上佳,2020-02-03,23.76,25.08,23.75,23.75,29.69,4210628.0,100796079.0,1090512790.0,10657508215.0
sh688033,天宜上佳,2020-02-04,23.75,25.88,23.75,25.2,23.75,4505050.0,112631743.0,1157091465.6,11308177137.6
sh688033,天宜上佳,2020-02-05,25.45,27.21,25.3,26.28,25.2,4938989.0,130180604.0,1206681099.84,11792813300.6
sh688033,天宜上佳,2020-02-06,26.26,27.44,25.88,27.31,26.28,4160880.0,111968733.0,1253974917.68,12255012604.3
sh688033,天宜上佳,2020-02-07,27.38,28.2,26.88,28.19,27.31,4705791.0,130261894.0,1294381286.32,12649901329.7
sh688033,天宜上佳,2020-02-10,28.18,30.45,27.75,30.3,28.19,5643204.0,164698802.0,1391264738.4,13596736796.4
sh688033,天宜上佳,2020-02-11,30.0,30.0,28.5,29.11,30.3,4312840.0,126043804.0,1336624308.08,13062739542.7
sh688033,天宜上佳,2020-02-12,29.18,30.09,29.0,29.99,29.11,3661747.0,108578616.0,1377030676.72,13457628268.1
sh688033,天宜上佳,2020-02-13,30.4,31.22,29.78,30.02,29.99,5480866.0,167081430.0,1378408166.56,13471090383.8
sh688033,天宜上佳,2020-02-14,29.79,30.25,28.51,29.2,30.02,4266902.0,125399966.0,1340756777.6,13103125889.6
sh688033,天宜上佳,2020-02-17,29.5,31.68,29.25,31.35,29.2,5439873.0,165685998.0,1439476882.8,14067910843.8
sh688033,天宜上佳,2020-02-18,31.68,31.68,30.4,31.02,31.35,4796254.0,148808253.0,1424324494.56,13919827571.8
sh688033,天宜上佳,2020-02-19,31.1,32.97,30.52,31.33,31.02,5952590.0,187781536.0,1438558556.24,14058936100.0
sh688033,天宜上佳,2020-02-20,31.03,31.53,30.21,31.08,31.33,3993900.0,123586463.0,1427079474.24,13946751803.0
sh688033,天宜上佳,2020-02-21,31.12,31.28,30.43,30.43,31.08,3410080.0,105164890.0,1397233861.04,13655072630.8
sh688033,天宜上佳,2020-02-24,30.45,30.45,29.47,29.6,30.43,3407756.0,101376812.0,1359123308.8,13282620764.8
sh688033,天宜上佳,2020-02-25,28.96,29.3,28.01,29.08,29.6,3905420.0,112584344.0,1335246818.24,13049277427.0
sh688033,天宜上佳,2020-02-26,28.25,29.8,28.21,28.66,29.08,3769145.0,109733625.0,1315961960.48,12860807808.1
sh688033,天宜上佳,2020-02-27,28.8,29.1,28.36,28.51,28.66,2133603.0,61109196.0,1309074511.28,12793497229.9
sh688033,天宜上佳,2020-02-28,27.66,28.14,26.08,26.2,28.51,3195825.0,86533645.0,1203007793.6,11756914325.6
sh688033,天宜上佳,2020-03-02,26.69,29.98,26.55,29.81,26.2,5029237.0,143835137.0,1368765737.68,13376855574.3
sh688033,天宜上佳,2020-03-03,30.49,30.66,29.3,29.45,29.81,5300795.0,158843564.0,1352235859.6,13215310186.6
sh688033,天宜上佳,2020-03-04,29.14,29.88,28.76,29.26,29.45,2676651.0,78455947.0,1343511757.28,13130050120.9
sh688033,天宜上佳,2020-03-05,29.87,31.3,29.68,30.25,29.26,5756376.0,176535290.0,1388968922.0,13574299937.0
sh688033,天宜上佳,2020-03-06,29.71,30.77,29.5,30.01,30.25,3618675.0,109467694.0,1377949003.28,13466603011.9
sh688033,天宜上佳,2020-03-09,29.8,30.79,28.5,29.95,30.01,4785099.0,142603808.0,1375194023.6,13439678780.6
sh688033,天宜上佳,2020-03-10,29.57,31.98,28.85,31.79,29.95,7819469.0,240462634.0,1459680067.12,14265355206.5
sh688033,天宜上佳,2020-03-11,31.9,34.89,31.56,32.77,31.79,10922787.0,363158550.0,1504678068.56,14705117650.8
sh688033,天宜上佳,2020-03-12,31.76,33.88,31.53,32.28,32.77,6553631.0,214639788.0,1482179067.84,14485236428.6
sh688033,天宜上佳,2020-03-13,30.01,31.9,30.0,30.71,32.28,5857797.0,181124027.0,1410090432.88,13780719043.5
sh688033,天宜上佳,2020-03-16,31.21,32.15,28.33,28.5,30.71,5320981.0,162429551.0,1308615348.0,12789009858.0
sh688033,天宜上佳,2020-03-17,28.06,29.8,26.77,28.86,28.5,4238527.0,118825686.0,1325145226.08,12950555245.7
sh688033,天宜上佳,2020-03-18,29.2,29.96,28.0,28.07,28.86,4287263.0,125174862.0,1288871326.96,12596052867.2
sh688033,天宜上佳,2020-03-19,28.07,28.58,26.72,27.65,28.07,3645155.0,100290467.0,1269586469.2,12407583248.2
sh688033,天宜上佳,2020-03-20,27.99,28.32,27.01,27.65,27.65,2271083.0,62724865.0,1269586469.2,12407583248.2
sh688033,天宜上佳,2020-03-23,26.88,27.15,25.0,25.14,27.65,3177795.0,83076374.0,1154336485.92,11281252906.3
sh688033,天宜上佳,2020-03-24,25.9,25.98,24.75,25.9,25.14,2142799.0,54813249.0,1189232895.2,11622293169.2
sh688033,天宜上佳,2020-03-25,26.66,27.5,26.3,27.23,25.9,2846434.0,76590491.0,1250301611.44,12219113629.2
sh688033,天宜上佳,2020-03-26,26.94,27.07,26.2,26.32,27.23,1973256.0,52585228.0,1208517752.96,11810762788.2
sh688033,天宜上佳,2020-03-27,26.88,27.09,26.11,26.16,26.32,1998558.0,53303696.0,1201171140.48,11738964838.1
sh688033,天宜上佳,2020-03-30,25.5,25.78,24.8,25.36,26.16,2100800.0,53094061.0,1164438078.08,11379975087.7
sh688033,天宜上佳,2020-03-31,26.0,26.0,25.1,25.45,25.36,1218804.0,31091677.0,1168570547.6,11420361434.6
sh688033,天宜上佳,2020-04-01,25.05,25.75,25.0,25.22,25.45,1238226.0,31503778.0,1158009792.16,11317151881.4
sh688033,天宜上佳,2020-04-02,25.05,25.68,24.98,25.68,25.22,1371343.0,34805960.0,1179131303.04,11523570987.8
sh688033,天宜上佳,2020-04-03,25.43,26.09,25.42,25.64,25.68,1409342.0,36301164.0,1177294649.92,11505621500.3
sh688033,天宜上佳,2020-04-07,26.2,26.52,26.0,26.38,25.64,1666264.0,43815633.0,1211272732.64,11837687019.4
sh688033,天宜上佳,2020-04-08,26.15,26.73,26.0,26.52,26.38,1211429.0,32100950.0,1217701018.56,11900510225.8
sh688033,天宜上佳,2020-04-09,26.57,26.76,26.23,26.27,26.52,1159508.0,30590269.0,1206221936.56,11788325928.8
sh688033,天宜上佳,2020-04-10,26.27,26.36,25.1,25.27,26.27,1446282.0,37041954.0,1160305608.56,11339588740.8
sh688033,天宜上佳,2020-04-13,25.1,25.44,24.81,25.08,25.27,805837.0,20259429.0,1151581506.24,11254328675.0
sh688033,天宜上佳,2020-04-14,25.66,25.67,25.33,25.59,25.08,925558.0,23616171.0,1174998833.52,11483184640.9
sh688033,天宜上佳,2020-04-15,25.61,25.77,25.36,25.5,25.59,910486.0,23292625.0,1170866364.0,11442798294.0
sh688033,天宜上佳,2020-04-16,25.35,25.77,25.2,25.52,25.5,976631.0,24899857.0,1171784690.56,11451773037.8
sh688033,天宜上佳,2020-04-17,25.55,27.02,25.55,26.64,25.52,3085535.0,81640893.0,1223210977.92,11954358688.3
sh688033,天宜上佳,2020-04-20,26.93,26.95,26.3,26.46,26.64,1813851.0,48153904.0,1214946038.88,11873585994.5
sh688033,天宜上佳,2020-04-21,26.46,26.48,25.88,26.17,26.46,1192607.0,31212310.0,1201630303.76,11743452210.0
sh688033,天宜上佳,2020-04-22,26.2,26.55,25.95,26.47,26.17,1059155.0,27822365.0,1215405202.16,11878073366.4
sh688033,天宜上佳,2020-04-23,26.41,26.59,26.15,26.25,26.47,1103005.0,29125899.0,1205303610.0,11779351185.0
sh688033,天宜上佳,2020-04-24,26.5,26.5,25.65,26.15,26.25,1303331.0,34084225.0,1200711977.2,11734477466.2
sh688033,天宜上佳,2020-04-27,26.03,26.53,25.71,26.05,26.15,1065703.0,27866767.0,1196120344.4,11689603747.4
sh688033,天宜上佳,2020-04-28,26.06,26.06,21.63,24.08,26.05,2623349.0,63055370.0,1105665178.24,10805591487.0
sh688033,天宜上佳,2020-04-29,23.8,24.57,23.7,23.81,24.08,1125305.0,27058055.0,1093267769.68,10684432446.3
sh688033,天宜上佳,2020-04-30,23.82,24.98,23.76,24.5,23.81,1854420.0,45231168.0,1124950036.0,10994061106.0
sh688033,天宜上佳,2020-05-06,24.51,26.16,24.11,26.09,24.5,2294561.0,58122189.0,1197956997.52,11707553234.9
sh688033,天宜上佳,2020-05-07,26.18,26.35,25.45,25.58,26.09,1816168.0,46942851.0,1174539670.24,11478697269.0
sh688033,天宜上佳,2020-05-08,25.75,26.15,25.51,25.67,25.58,1468849.0,37914986.0,1178672139.76,11519083616.0
sh688033,天宜上佳,2020-05-11,25.9,25.92,25.1,25.42,25.67,913594.0,23341605.0,1167193057.76,11406899319.0
sh688033,天宜上佳,2020-05-12,25.42,25.62,24.6,24.83,25.42,1357497.0,33857584.0,1140102424.24,11142144378.0
sh688033,天宜上佳,2020-05-13,24.7,25.12,24.45,25.08,24.83,841125.0,20947412.0,1151581506.24,11254328675.0
sh688033,天宜上佳,2020-05-14,25.0,25.0,24.43,24.43,25.08,1480875.0,36580756.0,1121735893.04,10962649502.8
sh688033,天宜上佳,2020-05-15,24.45,24.79,24.23,24.68,24.43,1130973.0,27729340.0,1133214975.04,11074833799.8
sh688033,天宜上佳,2020-05-18,24.94,24.95,23.95,24.1,24.68,1272922.0,30959439.0,1106583504.8,10814566230.8
sh688033,天宜上佳,2020-05-19,24.33,24.58,24.3,24.33,24.1,1603021.0,39154323.0,1117144260.24,10917775784.0
sh688033,天宜上佳,2020-05-20,24.43,25.39,24.18,24.9,24.33,2488980.0,62113300.0,1143316567.2,11173555981.2
sh688033,天宜上佳,2020-05-21,25.19,25.3,24.1,24.15,24.9,1751607.0,43133917.0,1108879321.2,10837003090.2
sh688033,天宜上佳,2020-05-22,24.15,24.3,23.29,23.49,24.15,1397110.0,33117046.0,1078574544.72,10540836546.1
sh688033,天宜上佳,2020-05-25,23.33,23.88,22.88,23.18,23.49,1020169.0,23653793.0,1064340483.04,10401728017.8
sh688033,天宜上佳,2020-05-26,23.36,24.74,23.2,24.66,23.18,2303244.0,55963990.0,1132296648.48,11065859056.1
sh688033,天宜上佳,2020-05-27,24.7,25.13,24.0,24.07,24.66,1652587.0,40540528.0,1105206014.96,10801104115.2
sh688033,天宜上佳,2020-05-28,24.05,24.35,23.42,24.11,24.07,1432640.0,34234564.0,1107042668.08,10819053602.7
sh688033,天宜上佳,2020-05-29,24.24,24.68,24.0,24.44,24.11,1415473.0,34583563.0,1122195056.32,10967136874.7
sh688033,天宜上佳,2020-06-01,24.25,25.25,24.25,25.06,24.44,2147535.0,53658636.0,1150663179.68,11245353931.3
sh688033,天宜上佳,2020-06-02,25.06,25.59,25.0,25.42,25.06,2047116.0,51818166.0,1167193057.76,11406899319.0
sh688033,天宜上佳,2020-06-03,25.5,25.61,24.96,25.06,25.42,1953803.0,49235345.0,1150663179.68,11245353931.3
sh688033,天宜上佳,2020-06-04,25.08,26.49,24.92,26.1,25.06,4379802.0,112896854.0,1198416160.8,11712040606.8
sh688033,天宜上佳,2020-06-05,26.09,26.35,25.61,25.83,26.1,2287083.0,59243216.0,1186018752.24,11590881566.0
sh688033,天宜上佳,2020-06-08,25.83,26.1,25.58,25.61,25.83,1359806.0,35105134.0,1175917160.08,11492159384.7
sh688033,天宜上佳,2020-06-09,25.88,25.88,25.03,25.11,25.61,1827393.0,46156154.0,1152958996.08,11267790790.7
sh688033,天宜上佳,2020-06-10,25.02,25.16,24.71,24.83,25.11,1181944.0,29372770.0,1140102424.24,11142144378.0
sh688033,天宜上佳,2020-06-11,25.06,25.2,24.44,24.87,24.83,1341520.0,33351488.0,1141939077.36,11160093865.6
sh688033,天宜上佳,2020-06-12,24.32,24.77,24.18,24.54,24.87,1146945.0,28091444.0,1126786689.12,11012010593.5
sh688033,天宜上佳,2020-06-15,24.44,25.09,24.42,24.52,24.54,1050470.0,26001586.0,1125868362.56,11003035849.76
sh688033,天宜上佳,2020-06-16,24.53,25.06,24.53,25.02,24.52,1097786.0,27349221.0,1148826526.56,11227404443.76
sh688033,天宜上佳,2020-06-17,25.04,25.27,24.89,25.24,25.02,1767802.0,44460680.0,1158928118.72,11326126625.12
sh688033,天宜上佳,2020-06-18,25.29,25.65,25.21,25.47,25.24,1756508.0,44676584.0,1169488874.16,11429336178.36
sh688033,天宜上佳,2020-06-19,25.6,25.6,25.02,25.11,25.47,1801726.0,45411222.0,1152958996.0800002,11267790790.68
sh688033,XD天宜上,2020-06-22,25.15,25.78,25.15,25.27,25.02,1948040.0,49545840.0,1160305608.56,11339588740.76
sh688033,天宜上佳,2020-06-23,25.27,25.28,24.6,24.61,25.27,1923673.0,47901454.0,1130000832.08,11043422196.68
sh688033,天宜上佳,2020-06-24,24.88,24.88,24.0,24.43,24.61,2013226.0,49037315.0,1121735893.04,10962649502.84
sh688033,天宜上佳,2020-06-29,24.19,24.41,23.9,24.0,24.43,1435525.0,34596938.0,1101991872.0,10769692512.0
sh688033,天宜上佳,2020-06-30,24.23,24.37,24.0,24.18,24.0,1551593.0,37421318.0,1110256811.04,10850465205.84
sh688033,天宜上佳,2020-07-01,24.18,24.48,24.08,24.24,24.18,1642958.0,39877785.0,1113011790.72,10877389437.12
sh688033,天宜上佳,2020-07-02,24.22,24.63,24.15,24.5,24.24,1474355.0,36027591.0,1124950036.0,10994061106.0
sh688033,天宜上佳,2020-07-03,24.69,24.88,24.52,24.7,24.5,1820354.0,44943060.0,1134133301.6,11083808543.6
sh688033,天宜上佳,2020-07-06,24.97,26.88,24.89,26.53,24.7,4932792.0,128534719.0,1218160181.84,11904997597.64
sh688033,天宜上佳,2020-07-07,26.85,27.65,26.54,27.14,26.53,5399022.0,146782869.0,1246169141.92,12178727282.32
sh688033,天宜上佳,2020-07-08,27.58,27.58,26.85,27.3,27.14,3353868.0,91052269.0,1253515754.4,12250525232.4
sh688033,天宜上佳,2020-07-09,27.3,28.96,27.01,28.46,27.3,4962513.0,138873260.0,1306778694.88,12771060370.48
sh688033,天宜上佳,2020-07-10,28.5,28.82,27.66,27.84,28.46,3967570.0,111834153.0,1278310571.52,12492843313.92
sh688033,天宜上佳,2020-07-13,27.3,28.0,26.6,28.0,27.84,5814581.0,158901143.0,1285657184.0,12564641264.0
sh688033,天宜上佳,2020-07-14,27.8,28.35,27.06,27.97,28.0,4344218.0,120908878.0,1284279694.16,12551179148.36
sh688033,天宜上佳,2020-07-15,28.2,30.18,28.04,28.26,27.97,7558181.0,219201766.0,1297595429.28,12681312932.88
sh688033,天宜上佳,2020-07-16,27.72,27.72,25.63,25.95,28.26,4538289.0,121255424.0,1191528711.6,11644730028.599998
sh688033,天宜上佳,2020-07-17,25.95,26.33,25.51,25.72,25.95,2023724.0,52457000.0,1180967956.16,11541520475.36
sh688033,天宜上佳,2020-07-20,25.74,25.95,24.69,25.68,25.72,2637130.0,66782619.0,1179131303.04,11523570987.839998
sh688033,天宜上佳,2020-07-21,25.76,25.89,25.15,25.15,25.68,1913396.0,48652709.0,1154795649.2,11285740278.2
sh688033,天宜上佳,2020-07-22,25.05,25.15,23.16,23.16,25.15,15616853.0,368625029.0,7034966633.76,10392753274.08
sh688033,天宜上佳,2020-07-23,23.3,23.59,22.37,22.72,23.16,9156518.0,209604358.0,6901314417.92,10195308911.36
sh688033,天宜上佳,2020-07-24,22.68,22.68,21.74,21.9,22.72,6421064.0,142437431.0,6652235288.400001,9827344417.2
sh688033,天宜上佳,2020-07-27,21.58,21.84,20.78,21.05,21.9,6291072.0,132367299.0,6394043507.8,9445917807.4
sh688033,天宜上佳,2020-07-28,21.18,21.2,20.39,20.49,21.05,9829081.0,202028780.0,6223940687.639999,9194624982.12
sh688033,天宜上佳,2020-07-29,20.53,21.02,19.91,21.0,20.49,11980759.0,245704276.0,6378855756.0,9423480948.0
sh688033,天宜上佳,2020-07-30,20.78,21.03,20.65,20.71,21.0,7095291.0,148113996.0,6290766795.56,9293347163.48
sh688033,天宜上佳,2020-07-31,20.67,20.99,20.53,20.9,20.71,5847900.0,121563924.0,6348480252.4,9378607229.2
sh688033,天宜上佳,2020-08-03,21.09,22.0,20.96,21.93,20.9,8557722.0,184408408.0,6661347939.48,9840806532.84
sh688033,天宜上佳,2020-08-04,22.02,22.07,21.47,21.51,21.93,5845884.0,126930966.0,6533770824.36,9652336913.88
sh688033,天宜上佳,2020-08-05,21.68,21.69,21.36,21.58,21.51,4415013.0,95057624.0,6555033676.88,9683748517.04
sh688033,天宜上佳,2020-08-06,21.59,21.65,21.18,21.27,21.58,4906653.0,104704287.0,6460869615.719999,9544639988.76
sh688033,天宜上佳,2020-08-07,21.3,21.36,20.52,20.8,21.27,4375921.0,91348890.0,6318104748.8,9333733510.4
sh688033,天宜上佳,2020-08-10,20.79,21.6,20.73,21.48,20.8,5332762.0,113471566.0,6524658173.28,9638874798.24
sh688033,天宜上佳,2020-08-11,21.3,21.37,20.75,20.85,21.48,4560978.0,96151017.0,6333292500.6,9356170369.8
sh688033,天宜上佳,2020-08-12,20.88,20.89,20.27,20.6,20.85,4150233.0,84895025.0,6257353741.6,9243986072.8
sh688033,天宜上佳,2020-08-13,20.98,21.06,20.76,20.82,20.6,2963803.0,61979573.0,6324179849.52,9342708254.16
sh688033,天宜上佳,2020-08-14,20.75,21.07,20.6,20.95,20.82,2561180.0,53312786.0,6363668004.2,9401044088.6
sh688033,天宜上佳,2020-08-17,21.08,21.15,20.87,21.03,20.95,3834500.0,80518577.0,6387968407.08,9436943063.64
sh688033,天宜上佳,2020-08-18,21.03,21.2,20.91,21.06,21.03,4058528.0,85443175.0,6397081058.16,9450405179.28
sh688033,天宜上佳,2020-08-19,21.06,21.06,20.62,20.74,21.06,3973247.0,82660757.0,6299879446.639999,9306809279.12
sh688033,天宜上佳,2020-08-20,20.58,20.71,20.39,20.42,20.74,2615642.0,53638599.0,6202677835.12,9163213378.96
sh688033,天宜上佳,2020-08-21,20.44,20.67,20.36,20.43,20.42,1856138.0,38043799.0,6205715385.4800005,9167700750.84
sh688033,天宜上佳,2020-08-24,20.4,20.49,20.1,20.31,20.43,2415077.0,49040574.0,6169264781.16,9113852288.28
sh688033,天宜上佳,2020-08-25,20.22,20.49,20.22,20.47,20.31,2171315.0,44155920.0,6217865586.92,9185650238.36
sh688033,天宜上佳,2020-08-26,20.57,20.58,19.93,20.07,20.47,4053265.0,81859373.0,6096363572.52,9006155363.16
sh688033,天宜上佳,2020-08-27,20.07,20.17,19.73,19.93,20.07,3406426.0,67856248.0,6053837867.48,8943332156.84
sh688033,天宜上佳,2020-08-28,20.08,20.12,19.83,19.87,19.93,3170926.0,63213207.0,6053700226.320001,8916407925.56
sh688033,天宜上佳,2020-08-31,19.87,20.07,19.84,19.88,19.87,2974264.0,59377551.0,6056746879.679999,8920895297.44
sh688033,天宜上佳,2020-09-01,19.9,19.95,19.71,19.95,19.88,1967271.0,38986638.0,6078073453.2,8952306900.6
sh688033,天宜上佳,2020-09-02,19.95,20.52,19.88,20.42,19.95,4528340.0,91534677.0,6221266161.12,9163213378.96
sh688033,天宜上佳,2020-09-03,20.4,20.57,20.1,20.19,20.42,2868384.0,58319607.0,6151193133.84,9060003825.72
sh688033,天宜上佳,2020-09-04,19.9,20.15,19.85,19.97,20.19,2625049.0,52534446.0,6084166759.92,8961281644.36
sh688033,天宜上佳,2020-09-07,19.98,20.1,19.72,19.79,19.97,3412336.0,68007727.0,6029326999.44,8880508950.519999
sh688033,天宜上佳,2020-09-08,19.79,19.88,19.41,19.68,19.79,2861410.0,56099963.0,5995813812.48,8831147859.84
sh688033,天宜上佳,2020-09-09,19.46,19.6,19.2,19.2,19.68,3151554.0,61125293.0,5849574451.200001,8615754009.6
sh688033,天宜上佳,2020-09-10,19.33,19.43,18.17,18.25,19.2,3048142.0,57118584.0,5560142382.0,8189453681.0
sh688033,天宜上佳,2020-09-11,18.18,18.59,17.85,18.46,18.25,2767636.0,50410624.0,5624122102.56,8283688490.48
sh688033,天宜上佳,2020-09-14,18.5,19.12,18.48,18.93,18.46,2563052.0,48411761.0,5767314810.4800005,8494594968.84
sh688033,天宜上佳,2020-09-15,18.93,19.02,18.71,18.94,18.93,1417745.0,26771840.0,5770361463.839999,8499082340.72
sh688033,天宜上佳,2020-09-16,18.89,19.1,18.65,18.76,18.94,1243996.0,23476865.0,5715521703.360001,8418309646.88
sh688033,天宜上佳,2020-09-17,18.7,20.06,18.7,19.94,18.76,7121096.0,139768571.0,6075026799.84,8947819528.720001
sh688033,天宜上佳,2020-09-18,20.04,20.07,19.6,19.92,19.94,3502238.0,69385202.0,6068933493.12,8938844784.960001
sh688033,天宜上佳,2020-09-21,19.85,19.99,19.69,19.74,19.92,1824965.0,36128706.0,6014093732.64,8858072091.119999
sh688033,天宜上佳,2020-09-22,19.63,19.82,19.28,19.32,19.74,2166830.0,42300285.0,5886134291.52,8669602472.16
sh688033,天宜上佳,2020-09-23,19.48,19.96,19.34,19.85,19.32,2507092.0,49412722.0,6047606919.599999,8907433181.8
sh688033,天宜上佳,2020-09-24,19.8,19.8,19.3,19.39,19.85,1788517.0,34859705.0,5907460865.04,8701014075.32
sh688033,天宜上佳,2020-09-25,19.37,19.51,19.0,19.06,19.39,1485226.0,28546381.0,5806921304.16,8552930803.28
sh688033,天宜上佳,2020-09-28,19.06,19.12,18.56,18.56,19.06,1355799.0,25434531.0,5654588636.160001,8328562209.280001
sh688033,天宜上佳,2020-09-29,18.59,19.19,18.58,19.0,18.56,1552588.0,29555494.0,5788641384.000001,8526006572.0
sh688033,天宜上佳,2020-09-30,19.09,19.19,18.86,19.0,19.0,1284811.0,24499583.0,5788641384.000001,8526006572.0
sh688033,天宜上佳,2020-10-09,19.36,19.76,19.32,19.62,19.0,1687250.0,33049077.0,5977533892.32,8804223628.56
sh688033,天宜上佳,2020-10-12,19.61,19.86,19.52,19.8,19.62,2718864.0,53719183.0,6032373652.8,8884996322.4
sh688033,天宜上佳,2020-10-13,19.8,19.85,19.58,19.69,19.8,1583350.0,31151929.0,5998860465.84,8835635231.72
sh688033,天宜上佳,2020-10-14,19.63,19.69,19.28,19.35,19.69,1761598.0,34232430.0,5895274251.599999,8683064587.8
sh688033,天宜上佳,2020-10-15,19.43,19.43,19.21,19.21,19.35,1166279.0,22485590.0,5852621104.559999,8620241381.48
sh688033,天宜上佳,2020-10-16,19.2,19.33,19.17,19.32,19.21,885806.0,17064333.0,5886134291.52,8669602472.16
sh688033,天宜上佳,2020-10-19,19.32,19.55,19.32,19.44,19.32,1410664.0,27449164.0,5922694131.839999,8723450934.72
sh688033,天宜上佳,2020-10-20,19.6,19.6,19.32,19.45,19.44,1063751.0,20704254.0,5925740785.2,8727938306.6
sh688033,天宜上佳,2020-10-21,19.4,19.47,18.92,18.94,19.45,1837239.0,35117321.0,5770361463.839999,8499082340.72
sh688033,天宜上佳,2020-10-22,18.82,18.99,18.57,18.62,18.94,2405177.0,44853829.0,5672868556.320001,8355486440.56
sh688033,天宜上佳,2020-10-23,18.75,18.75,18.27,18.27,18.62,1719137.0,31735822.0,5566235688.719999,8198428424.759999
sh688033,天宜上佳,2020-10-26,18.29,18.29,18.0,18.07,18.27,2177319.0,39437620.0,5505302621.52,8108680987.16
sh688033,天宜上佳,2020-10-27,18.07,18.23,17.96,18.05,18.07,1692347.0,30574005.0,5499209314.8,8099706243.4
sh688033,天宜上佳,2020-10-28,18.08,18.28,17.91,18.19,18.05,1523531.0,27577378.0,5541862461.84,8162529449.719999
sh688033,天宜上佳,2020-10-29,17.97,18.18,17.9,18.0,18.19,1455891.0,26228204.0,5483976048.0,8077269384.0
sh688033,天宜上佳,2020-10-30,18.01,18.26,17.47,17.49,18.0,2082468.0,37179975.0,5328596726.639999,7848413418.12
sh688033,天宜上佳,2020-11-02,17.6,17.64,16.91,17.24,17.49,2702261.0,46479747.0,5252430392.64,7736229121.120001
sh688033,天宜上佳,2020-11-03,17.22,17.76,17.22,17.67,17.24,1630721.0,28713837.0,5383436487.12,7929186111.96
sh688033,天宜上佳,2020-11-04,17.67,17.85,17.48,17.71,17.67,1303872.0,22999819.0,5395623100.56,7947135599.48
sh688033,天宜上佳,2020-11-05,17.89,18.08,17.63,17.98,17.71,1888388.0,33790796.0,5477882741.28,8068294640.24
sh688033,天宜上佳,2020-11-06,17.95,17.98,17.63,17.78,17.98,1750705.0,31061370.0,5416949674.08,7978547202.64
sh688033,天宜上佳,2020-11-09,17.8,18.42,17.8,18.31,17.78,2966849.0,54128771.0,5578422302.16,8216377912.28
sh688033,天宜上佳,2020-11-10,18.58,18.58,18.04,18.14,18.31,2161357.0,39339049.0,5526629195.04,8140092590.32
sh688033,天宜上佳,2020-11-11,18.14,18.14,17.56,17.66,18.14,1902820.0,33893450.0,5380389833.759999,7924698740.08
sh688033,天宜上佳,2020-11-12,17.66,17.84,17.52,17.62,17.66,1040656.0,18393503.0,5368203220.320001,7906749252.56
sh688033,天宜上佳,2020-11-13,17.55,17.82,17.49,17.78,17.62,1006771.0,17798006.0,5416949674.08,7978547202.64
sh688033,天宜上佳,2020-11-16,18.49,18.49,17.84,17.97,17.78,2190380.0,39377013.0,5474836087.92,8063807268.36
sh688033,天宜上佳,2020-11-17,17.98,17.98,17.57,17.65,17.97,1630370.0,28851636.0,5377343180.400001,7920211368.2
sh688033,天宜上佳,2020-11-18,17.68,17.9,17.55,17.72,17.65,1598458.0,28372375.0,5398669753.92,7951622971.36
sh688033,天宜上佳,2020-11-19,17.72,17.76,17.4,17.46,17.72,2938524.0,51433397.0,5319456766.559999,7834951302.48
sh688033,天宜上佳,2020-11-20,17.43,17.51,17.4,17.43,17.46,1923288.0,33540578.0,5310316806.48,7821489186.84
sh688033,天宜上佳,2020-11-23,17.45,17.5,17.21,17.29,17.43,2346641.0,40589843.0,5267663659.44,7758665980.52
sh688033,天宜上佳,2020-11-24,17.3,17.37,17.18,17.19,17.29,1964561.0,33861800.0,5237197125.84,7713792261.72
sh688033,天宜上佳,2020-11-25,17.29,17.38,17.03,17.04,17.19,2093275.0,35892328.0,5191497325.440001,7646481683.519999
sh688033,天宜上佳,2020-11-26,17.18,17.18,17.01,17.05,17.04,1522117.0,25976532.0,5194543978.8,7650969055.4
sh688033,天宜上佳,2020-11-27,17.04,17.18,17.01,17.15,17.05,1926326.0,32890561.0,5225010512.4,7695842774.200001
sh688033,天宜上佳,2020-11-30,17.16,17.28,17.1,17.18,17.15,2522090.0,43421942.0,5234150472.48,7709304889.84
sh688033,天宜上佳,2020-12-01,17.2,17.33,17.15,17.27,17.18,2628127.0,45331943.0,5261570352.72,7749691236.76
sh688033,天宜上佳,2020-12-02,17.35,17.38,17.13,17.17,17.27,2244486.0,38662291.0,5231103819.12,7704817517.960001
sh688033,天宜上佳,2020-12-03,17.12,17.32,17.0,17.28,17.17,3378380.0,57967927.0,5264617006.080001,7754178608.64
sh688033,天宜上佳,2020-12-04,17.25,17.26,17.09,17.11,17.28,1730467.0,29655430.0,5212823898.96,7677893286.679999
sh688033,天宜上佳,2020-12-07,17.16,17.2,16.77,16.81,17.11,3064807.0,51982314.0,5121424298.16,7543272130.28
sh688033,天宜上佳,2020-12-08,16.8,16.8,16.32,16.35,16.81,5025492.0,83209717.0,4981278243.6,7336853023.8
sh688033,天宜上佳,2020-12-09,16.33,16.36,15.3,15.38,16.35,8575294.0,135374538.0,4685752867.68,6901577951.44
sh688033,天宜上佳,2020-12-10,15.45,15.52,15.15,15.21,15.38,4050485.0,62117128.0,4633959760.559999,6825292629.48
sh688033,天宜上佳,2020-12-11,15.27,15.28,14.71,15.04,15.21,4698291.0,69984711.0,4582166653.44,6749007307.52
sh688033,天宜上佳,2020-12-14,14.93,15.12,14.88,14.92,15.04,2784347.0,41743167.0,4545606813.12,6695158844.96
sh688033,天宜上佳,2020-12-15,14.95,15.28,14.71,15.18,14.92,4462520.0,66784622.0,4624819800.48,6811830513.84
sh688033,天宜上佳,2020-12-16,15.11,15.11,14.84,14.84,15.18,1985140.0,29750499.0,4521233586.24,6659259869.92
sh688033,天宜上佳,2020-12-17,14.9,14.94,14.51,14.75,14.84,2973612.0,43772044.0,4493813706.0,6618873523.0
sh688033,天宜上佳,2020-12-18,14.75,14.86,14.56,14.61,14.75,2198195.0,32234744.0,4451160558.96,6556050316.68
sh688033,天宜上佳,2020-12-21,14.61,14.71,14.45,14.61,14.61,2884129.0,42139518.0,4451160558.96,6556050316.68
sh688033,天宜上佳,2020-12-22,14.51,14.66,14.23,14.32,14.61,3046683.0,44022148.0,4362807611.52,6425916532.16
sh688033,天宜上佳,2020-12-23,14.27,14.38,14.23,14.36,14.32,2251907.0,32217667.0,4374994224.96,6443866019.679999
sh688033,天宜上佳,2020-12-24,14.35,14.43,13.8,13.83,14.36,3269192.0,46031328.0,4213521596.88,6206035310.04
sh688033,天宜上佳,2020-12-25,13.93,14.49,13.88,14.29,13.83,3937417.0,56405862.0,4353667651.44,6412454416.52
sh688033,天宜上佳,2020-12-28,14.29,14.34,13.96,14.06,14.29,2431870.0,34333921.0,4283594624.16,6309244863.28
sh688033,天宜上佳,2020-12-29,14.06,14.33,14.02,14.25,14.06,1831436.0,26053866.0,4341481038.0,6394504929.0
sh688033,天宜上佳,2020-12-30,14.27,14.27,14.11,14.15,14.25,1884683.0,26736827.0,4311014504.4,6349631210.2
sh688033,天宜上佳,2020-12-31,14.17,14.4,14.15,14.33,14.15,2323391.0,33247952.0,4365854264.88,6430403904.039999
sh688033,天宜上佳,2021-01-04,14.27,14.67,14.27,14.52,14.33,2845926.0,41314947.0,4423740678.72,6515663969.76
sh688033,天宜上佳,2021-01-05,14.55,15.18,14.41,14.87,14.52,4756844.0,70783763.0,4530373546.32,6672721985.56
sh688033,天宜上佳,2021-01-06,14.81,14.97,14.37,14.39,14.87,4109836.0,60031063.0,4384134185.04,6457328135.32
sh688033,天宜上佳,2021-01-07,14.13,14.36,13.14,13.28,14.39,7118090.0,96580413.0,4045955662.08,5959229856.64
sh688033,天宜上佳,2021-01-08,13.35,13.46,12.98,13.15,13.28,3298019.0,43660689.0,4006349168.4,5900894022.200001
sh688033,天宜上佳,2021-01-11,13.09,13.36,12.89,12.93,13.15,3427093.0,44783316.0,3939322794.48,5802171840.839999
sh688033,天宜上佳,2021-01-12,12.78,13.07,12.7,12.94,12.93,1894853.0,24431742.0,3942369447.84,5806659212.719999
sh688033,天宜上佳,2021-01-13,12.9,13.09,12.39,13.0,12.94,4243489.0,53884712.0,3960649368.000001,5833583443.999999
sh688033,天宜上佳,2021-01-14,13.01,14.0,12.88,13.7,13.0,6349145.0,86786378.0,4173915103.2,6147699475.6
sh688033,天宜上佳,2021-01-15,13.7,13.92,13.52,13.68,13.7,3054026.0,41905483.0,4167821796.48,6138724731.84
sh688033,天宜上佳,2021-01-18,13.68,13.87,13.55,13.74,13.68,3012784.0,41367169.0,4186101716.64,6165648963.12
sh688033,天宜上佳,2021-01-19,13.8,14.36,13.66,14.13,13.74,4418642.0,62332162.0,4304921197.679999,6340656466.44
sh688033,天宜上佳,2021-01-20,14.08,14.36,13.89,13.95,14.13,2626582.0,36920481.0,4250081437.2,6259883772.599999
sh688033,天宜上佳,2021-01-21,13.95,14.02,13.69,13.81,13.95,2302065.0,31865619.0,4207428290.16,6197060566.28
sh688033,天宜上佳,2021-01-22,13.76,13.88,13.18,13.2,13.81,3544972.0,47620148.0,4021582435.2,5923330881.6
sh688033,天宜上佳,2021-01-25,13.1,13.33,12.9,12.98,13.2,2823718.0,36922529.0,3954556061.28,5824608700.24
sh688033,天宜上佳,2021-01-26,12.98,13.18,12.83,12.86,12.98,2431240.0,31652713.0,3917996220.96,5770760237.679999
sh688033,天宜上佳,2021-01-27,12.86,13.13,12.73,12.77,12.86,2559004.0,32952196.0,3890576340.72,5730373890.759999
sh688033,天宜上佳,2021-01-28,12.85,13.07,12.73,12.76,12.77,2997433.0,38702992.0,3887529687.36,5725886518.88
sh688033,天宜上佳,2021-01-29,12.88,12.88,12.13,12.31,12.76,3493428.0,43420746.0,3750430286.16,5523954784.28
sh688033,天宜上佳,2021-02-01,12.39,12.6,12.24,12.41,12.31,2491457.0,30845283.0,3780896819.76,5568828503.08
sh688033,天宜上佳,2021-02-02,12.36,12.53,12.21,12.25,12.41,2038810.0,25211800.0,3732150366.0,5497030553.0
sh688033,天宜上佳,2021-02-03,12.26,12.28,11.77,11.78,12.25,3120127.0,37351487.0,3588957658.08,5286124074.64
sh688033,天宜上佳,2021-02-04,11.76,11.87,11.31,11.5,11.78,2831780.0,32587689.0,3503651364.0,5160477662.0
sh688033,天宜上佳,2021-02-05,11.51,11.8,11.44,11.44,11.5,2084753.0,24126490.0,3485371443.84,5133553430.72
sh688033,天宜上佳,2021-02-08,11.44,11.62,11.38,11.47,11.44,1823039.0,20998104.0,3494511403.92,5147015546.360001
sh688033,天宜上佳,2021-02-09,11.57,11.95,11.48,11.76,11.47,3375105.0,39691831.0,3582864351.36,5277149330.88
sh688033,天宜上佳,2021-02-10,11.76,11.93,11.6,11.71,11.76,3067620.0,35974594.0,3567631084.56,5254712471.4800005
sh688033,天宜上佳,2021-02-18,11.89,12.17,11.89,11.94,11.71,3465335.0,41599896.0,3637704111.84,5357922024.72
sh688033,天宜上佳,2021-02-19,11.89,12.38,11.89,12.33,11.94,3979509.0,48597708.0,3756523592.88,5532929528.04
sh688033,天宜上佳,2021-02-22,12.4,12.79,12.37,12.43,12.33,5825114.0,73399955.0,3786990126.48,5577803246.84
sh688033,天宜上佳,2021-02-23,12.37,12.47,12.22,12.35,12.43,3572541.0,44118956.0,3762616899.6,5541904271.8
sh688033,天宜上佳,2021-02-24,12.39,12.57,12.21,12.4,12.35,3094318.0,38410209.0,3777850166.4,5564341131.2
sh688033,天宜上佳,2021-02-25,12.43,12.48,12.07,12.11,12.4,3373565.0,41205024.0,3689497218.96,5434207346.68
sh688033,天宜上佳,2021-02-26,12.02,12.27,11.92,12.15,12.11,2898281.0,35173866.0,3701683832.4,5452156834.2
sh688033,天宜上佳,2021-03-01,12.18,12.45,12.17,12.42,12.15,2964978.0,36658305.0,3783943473.12,5573315874.96
sh688033,天宜上佳,2021-03-02,12.95,13.26,12.55,12.6,12.42,9028807.0,115809794.0,3838783233.6,5654088568.8
sh688033,天宜上佳,2021-03-03,12.86,13.62,12.86,13.3,12.6,11526762.0,153245060.0,4052048968.8,5968204600.400001
sh688033,天宜上佳,2021-03-04,13.31,14.18,13.15,13.9,13.3,11456440.0,158346722.0,4234848170.4,6237446913.2
sh688033,天宜上佳,2021-03-05,13.8,14.03,13.6,13.8,13.9,6795725.0,93583187.0,4204381636.8,6192573194.4
sh688033,天宜上佳,2021-03-08,13.8,13.92,13.4,13.41,13.8,5619089.0,76847292.0,4085562155.76,6017565691.08
sh688033,天宜上佳,2021-03-09,13.45,13.68,12.86,13.13,13.41,4590373.0,60945551.0,4000255861.68,5891919278.440001
sh688033,天宜上佳,2021-03-10,13.4,13.44,12.69,12.7,13.13,4664827.0,60320655.0,3869249767.2,5698962287.599999
sh688033,天宜上佳,2021-03-11,12.64,13.01,12.6,12.98,12.7,3057130.0,39341620.0,3954556061.28,5824608700.24
sh688033,天宜上佳,2021-03-12,13.0,13.1,12.69,12.89,12.98,3800077.0,48774917.0,3927136181.04,5784222353.32
sh688033,天宜上佳,2021-03-15,12.76,13.39,12.69,12.85,12.89,5102014.0,66680787.0,3914949567.6,5766272865.799999
sh688033,天宜上佳,2021-03-16,12.82,13.72,12.82,13.61,12.85,6437827.0,86268252.0,4146495222.96,6107313128.68
sh688033,天宜上佳,2021-03-17,13.6,13.7,13.35,13.37,13.61,3378069.0,45618576.0,4073375542.32,5999616203.56
sh688033,天宜上佳,2021-03-18,13.53,13.54,13.14,13.21,13.37,2832035.0,37507088.0,4024629088.56,5927818253.4800005
sh688033,天宜上佳,2021-03-19,13.22,13.73,13.08,13.47,13.21,4374853.0,59131672.0,4103842075.92,6044489922.360001
sh688033,天宜上佳,2021-03-22,13.5,13.59,13.31,13.57,13.47,3091711.0,41600568.0,4134308609.52,6089363641.16
sh688033,天宜上佳,2021-03-23,13.6,13.74,13.34,13.53,13.57,2248483.0,30377346.0,4122121996.08,6071414153.64
sh688033,天宜上佳,2021-03-24,13.48,13.84,13.36,13.72,13.53,4327566.0,59308161.0,4180008409.92,6156674219.36
sh688033,天宜上佳,2021-03-25,13.53,13.85,13.51,13.59,13.72,3707855.0,50764101.0,4140401916.24,6098338384.92
sh688033,天宜上佳,2021-03-26,13.59,13.95,13.52,13.69,13.59,3761147.0,51675054.0,4170868449.84,6143212103.72
sh688033,天宜上佳,2021-03-29,13.62,13.84,13.49,13.55,13.69,3688204.0,50576556.0,4128215302.8,6080388897.400001
sh688033,天宜上佳,2021-03-30,13.49,13.49,12.65,12.76,13.55,7036243.0,90714995.0,3887529687.36,5725886518.88
sh688033,天宜上佳,2021-03-31,12.84,13.1,12.73,12.76,12.76,3199262.0,41260478.0,3887529687.36,5725886518.88
sh688033,天宜上佳,2021-04-01,12.81,13.04,12.73,12.84,12.76,2381026.0,30649838.0,3911902914.24,5761785493.919999
sh688033,天宜上佳,2021-04-02,12.9,13.08,12.84,12.98,12.84,2399515.0,31173953.0,3954556061.28,5824608700.24
sh688033,天宜上佳,2021-04-06,12.99,13.1,12.85,12.94,12.98,2256184.0,29179523.0,3942369447.84,5806659212.719999
sh688033,天宜上佳,2021-04-07,12.92,12.94,12.75,12.9,12.94,2374991.0,30500592.0,3930182834.4,5788709725.2
sh688033,天宜上佳,2021-04-08,12.88,12.9,12.65,12.68,12.9,3916521.0,49936696.0,3863156460.48,5689987543.84
sh688033,天宜上佳,2021-04-09,12.69,12.75,12.49,12.67,12.68,2634995.0,33217766.0,3860109807.12,5685500171.96
sh688033,天宜上佳,2021-04-12,12.67,12.76,12.57,12.65,12.67,1719233.0,21782651.0,3854016500.4,5676525428.2
sh688033,天宜上佳,2021-04-13,12.61,12.85,12.55,12.67,12.65,3015411.0,38265789.0,3860109807.12,5685500171.96
sh688033,天宜上佳,2021-04-14,12.68,12.69,12.5,12.58,12.67,2153913.0,27121912.0,3832689926.88,5645113825.04
sh688033,天宜上佳,2021-04-15,12.59,12.61,12.47,12.48,12.58,1593437.0,19958478.0,3802223393.28,5600240106.24
sh688033,天宜上佳,2021-04-16,12.57,12.93,12.52,12.76,12.48,3809824.0,48738876.0,3900644415.36,5725886518.88
sh688033,天宜上佳,2021-04-19,12.75,13.12,12.72,13.06,12.76,4773672.0,61854892.0,3992352356.16,5860507675.280001
sh688033,天宜上佳,2021-04-20,13.02,13.27,12.9,12.91,13.06,3703142.0,48190802.0,3946498385.76,5793197097.08
sh688033,天宜上佳,2021-04-21,12.85,13.03,12.82,12.85,12.91,2302580.0,29685770.0,3928156797.6,5766272865.799999
sh688033,天宜上佳,2021-04-22,12.83,12.99,12.81,12.84,12.85,2114335.0,27240230.0,3925099866.24,5761785493.919999
sh688033,天宜上佳,2021-04-23,12.84,12.84,12.63,12.68,12.84,2305904.0,29305121.0,3876188964.48,5689987543.84
sh688033,天宜上佳,2021-04-26,12.67,12.83,12.53,12.67,12.68,2070347.0,26324865.0,3873132033.12,5685500171.96
sh688033,天宜上佳,2021-04-27,12.65,12.65,12.12,12.23,12.67,3889584.0,47784939.0,3738627053.28,5488055809.24
sh688033,天宜上佳,2021-04-28,12.21,12.28,12.16,12.22,12.23,1198810.0,14643554.0,3735570121.92,5483568437.36
sh688033,天宜上佳,2021-04-29,12.25,12.28,12.04,12.04,12.22,1955652.0,23800865.0,3680545357.44,5402795743.52
sh688033,天宜上佳,2021-04-30,11.88,11.88,11.4,11.44,12.04,5080101.0,58662541.0,3497129475.84,5133553430.72
sh688033,天宜上佳,2021-05-06,11.44,11.76,11.42,11.56,11.44,2885275.0,33532312.0,3533812652.1600003,5187401893.28
sh688033,天宜上佳,2021-05-07,11.58,11.86,11.57,11.68,11.56,2613885.0,30680895.0,3570495828.48,5241250355.84
sh688033,天宜上佳,2021-05-10,11.78,11.79,11.4,11.52,11.68,2584736.0,29785784.0,3521584926.7200003,5169452405.76
sh688033,天宜上佳,2021-05-11,11.5,11.63,11.38,11.57,11.52,1826215.0,21062517.0,3536869583.52,5191889265.16
sh688033,天宜上佳,2021-05-12,11.57,11.66,11.47,11.63,11.57,1800283.0,20829587.0,3555211171.6800003,5218813496.44
sh688033,天宜上佳,2021-05-13,11.6,11.79,11.55,11.69,11.63,2505321.0,29310734.0,3573552759.84,5245737727.72
sh688033,天宜上佳,2021-05-14,11.63,11.9,11.63,11.75,11.69,2632271.0,31004426.0,3591894348.0,5272661959.000001
sh688033,天宜上佳,2021-05-17,11.68,11.69,11.17,11.18,11.75,7536080.0,84822444.0,3417649260.48,5016881761.84
sh688033,天宜上佳,2021-05-18,11.18,11.3,11.14,11.29,11.18,3031210.0,34030305.0,3451275505.44,5066242852.52
sh688033,天宜上佳,2021-05-19,11.28,11.29,11.21,11.24,11.29,1758847.0,19795442.0,3435990848.64,5043805993.12
sh688033,天宜上佳,2021-05-20,11.18,11.24,11.14,11.19,11.24,2244118.0,25090550.0,3420706191.84,5021369133.72
sh688033,天宜上佳,2021-05-21,11.24,11.33,11.19,11.25,11.19,1718414.0,19367880.0,3439047780.0,5048293365.0
sh688033,天宜上佳,2021-05-24,11.2,11.31,11.18,11.28,11.25,1810377.0,20395270.0,3448218574.08,5061755480.639999
sh688033,天宜上佳,2021-05-25,11.24,11.47,11.24,11.47,11.28,3146547.0,35829695.0,3506300269.92,5147015546.360001
sh688033,天宜上佳,2021-05-26,11.52,12.28,11.47,11.97,11.47,9418071.0,113312920.0,3659146837.92,5371384140.360001
sh688033,天宜上佳,2021-05-27,11.9,12.13,11.88,11.88,11.97,4229807.0,50609205.0,3631634455.68,5330997793.440001
sh688033,天宜上佳,2021-05-28,11.86,11.98,11.65,11.68,11.88,3641386.0,42892579.0,3570495828.48,5241250355.84
sh688033,天宜上佳,2021-05-31,11.62,11.98,11.62,11.91,11.68,3652379.0,43376679.0,3640805249.76,5344459909.08
sh688033,天宜上佳,2021-06-01,11.94,12.18,11.88,12.1,11.91,4314306.0,52097446.0,3698886945.6,5429719974.8
sh688033,天宜上佳,2021-06-02,12.03,12.75,12.02,12.53,12.1,10117078.0,126113011.0,3830334994.08,5622676965.639999
sh688033,天宜上佳,2021-06-03,12.52,12.68,12.28,12.28,12.53,5990730.0,74550961.0,3753911710.08,5510492668.64
sh688033,天宜上佳,2021-06-04,12.22,12.54,12.22,12.31,12.28,4554444.0,56453994.0,3763082504.16,5523954784.28
sh688033,天宜上佳,2021-06-07,12.32,12.47,12.2,12.26,12.31,3361088.0,41301666.0,3747797847.36,5501517924.88
sh688033,天宜上佳,2021-06-08,12.27,12.31,12.08,12.11,12.26,3523405.0,43006919.0,3701943876.96,5434207346.68
sh688033,天宜上佳,2021-06-09,12.15,12.23,12.07,12.17,12.11,2823735.0,34277856.0,3720285465.12,5461131577.96
sh688033,天宜上佳,2021-06-10,12.19,12.34,12.14,12.27,12.17,3445068.0,42147773.0,3750854778.72,5506005296.76
sh688033,XD天宜上,2021-06-11,12.22,12.27,11.9,11.92,12.23,3199917.0,38688339.0,3643862181.12,5348947280.96
sh688033,天宜上佳,2021-06-15,12.02,12.04,11.81,11.98,11.92,1831152.0,21844872.0,3662203769.28,5375871512.240001
sh688033,天宜上佳,2021-06-16,11.92,12.47,11.89,12.22,11.98,5098715.0,62506968.0,3735570121.92,5483568437.36
sh688033,天宜上佳,2021-06-17,12.4,12.42,12.1,12.27,12.22,4543498.0,55625859.0,3750854778.72,5506005296.76
sh688033,天宜上佳,2021-06-18,12.2,12.37,12.18,12.26,12.27,3667571.0,44947485.0,3747797847.36,5501517924.88
sh688033,天宜上佳,2021-06-21,12.21,12.41,12.21,12.4,12.26,3526233.0,43480120.0,3790594886.4,5564341131.2
sh688033,天宜上佳,2021-06-22,12.45,12.74,12.45,12.5,12.4,5881811.0,73989454.0,3821164200.0,5609214850.0
sh688033,天宜上佳,2021-06-23,12.49,12.91,12.4,12.87,12.5,6310338.0,80177639.0,3934270660.32,5775247609.559999
sh688033,天宜上佳,2021-06-24,12.8,14.05,12.8,13.67,12.87,18635076.0,252034961.0,4178825169.12,6134237359.96
sh688033,天宜上佳,2021-06-25,13.46,13.88,13.24,13.35,13.67,8946639.0,120716103.0,4081003365.6,5990641459.8
sh688033,天宜上佳,2021-06-28,13.4,15.02,13.4,14.73,13.35,24038350.0,350806765.0,4502859893.28,6609898779.240001
sh688033,天宜上佳,2021-06-29,14.72,15.23,14.53,14.94,14.73,13272427.0,198335034.0,4567055451.84,6704133588.72
sh688033,天宜上佳,2021-06-30,14.95,16.46,14.95,15.89,14.94,19970123.0,318484393.0,4857463931.04,7130433917.320001
sh688033,天宜上佳,2021-07-01,16.05,16.33,15.4,15.73,15.89,11707613.0,184705313.0,4808553029.28,7058635967.24
sh688033,天宜上佳,2021-07-02,15.6,16.6,15.53,16.6,15.73,15753175.0,256283703.0,5074506057.6,7449037320.8
sh688033,天宜上佳,2021-07-05,16.69,16.7,15.28,16.34,16.6,13355564.0,214277474.0,4995025842.24,7332365651.92
sh688033,天宜上佳,2021-07-06,16.07,16.58,16.07,16.48,16.34,8300186.0,136236512.0,5037822881.28,7395188858.24
sh688033,天宜上佳,2021-07-07,16.71,18.37,16.37,17.87,16.48,20955678.0,369248398.0,5462736340.32,8018933549.56
sh688033,天宜上佳,2021-07-08,17.93,18.51,17.34,17.89,17.87,12467656.0,223940775.0,5468850203.04,8027908293.32
sh688033,天宜上佳,2021-07-09,17.59,17.95,17.03,17.66,17.89,9763437.0,171445420.0,5398540781.76,7924698740.08
sh688033,天宜上佳,2021-07-12,17.67,18.75,17.67,18.59,17.66,13585627.0,251481507.0,5682835398.24,8342024324.92
sh688033,天宜上佳,2021-07-13,18.7,19.65,18.18,18.28,18.59,12932697.0,243708867.0,5588070526.08,8202915796.639999
sh688033,天宜上佳,2021-07-14,18.1,19.1,18.08,18.71,18.28,11272262.0,211118419.0,5719518574.56,8395872787.48
sh688033,天宜上佳,2021-07-15,18.52,18.97,17.7,18.67,18.71,8974834.0,163950942.0,5707290849.12,8377923299.96
sh688033,天宜上佳,2021-07-16,18.64,19.4,18.64,19.08,18.67,9951552.0,190566786.0,5832625034.88,8561905547.04
sh688033,天宜上佳,2021-07-19,19.45,19.6,18.94,19.22,19.08,6720232.0,129865134.0,5875422073.92,8624728753.36
sh688033,天宜上佳,2021-07-20,19.1,19.5,18.85,19.11,19.22,5341086.0,102353816.0,5841795828.96,8575367662.68
sh688033,天宜上佳,2021-07-21,18.9,19.4,18.88,18.99,19.11,6625235.0,126406748.0,5805112652.64,8521519200.12
sh688033,天宜上佳,2021-07-22,18.86,20.11,18.78,19.93,18.99,10271319.0,202900922.0,6131600183.44,8943332156.84
sh688033,天宜上佳,2021-07-23,20.2,22.15,20.2,21.56,19.93,16851368.0,365898882.0,6633080780.48,9674773773.28
sh688033,天宜上佳,2021-07-26,21.35,21.99,20.71,20.85,21.56,8424656.0,178223899.0,6414644446.799999,9356170369.8
sh688033,天宜上佳,2021-07-27,20.92,22.4,20.61,21.05,20.85,11704526.0,254464496.0,6476175808.4,9445917807.4
sh688033,天宜上佳,2021-07-28,21.2,21.28,19.22,19.9,21.05,14938259.0,300205398.0,6122370479.200001,8929870041.2
sh688033,天宜上佳,2021-07-29,20.35,21.96,20.08,21.79,19.9,12954642.0,276086946.0,6703841846.320001,9777983326.52
sh688033,天宜上佳,2021-07-30,21.81,22.38,21.38,21.85,21.79,10770199.0,236052824.0,6722301254.8,9804907557.8
sh688033,天宜上佳,2021-08-02,21.9,22.12,21.14,22.04,21.85,9726084.0,210988111.0,6780756048.32,9890167623.52
sh688033,天宜上佳,2021-08-03,22.0,22.61,21.6,21.8,22.04,6954924.0,153405968.0,6706918414.4,9782470698.4
sh688033,天宜上佳,2021-08-04,21.65,23.57,21.53,23.2,21.8,11263175.0,255493401.0,7137637945.599999,10410702761.6
sh688033,天宜上佳,2021-08-05,23.16,24.5,22.71,23.13,23.2,10105801.0,236681874.0,7116101969.04,10379291158.44
sh688033,天宜上佳,2021-08-06,23.65,27.76,23.65,27.53,23.13,18054756.0,467078524.0,8469791924.24,12353734785.64
sh688033,天宜上佳,2021-08-09,27.53,27.53,25.63,25.91,27.53,13027801.0,342021744.0,7971387895.280001,11626780541.079998
sh688033,天宜上佳,2021-08-10,26.09,28.18,25.59,26.34,25.91,12836505.0,345482691.0,8103680322.72,11819737531.92
sh688033,天宜上佳,2021-08-11,26.5,27.06,25.74,26.62,26.34,9381378.0,248744657.0,8189824228.96,11945383944.56
sh688033,天宜上佳,2021-08-12,26.53,27.99,26.0,27.16,26.62,7939528.0,214361592.0,8355958905.28,12187702026.08
sh688033,天宜上佳,2021-08-13,26.89,28.28,26.56,26.88,27.16,8057502.0,220961101.0,8269814999.04,12062055613.44
sh688033,天宜上佳,2021-08-16,27.44,27.44,24.51,24.65,26.88,9949646.0,254515467.0,7583740317.2,11061371684.2
sh688033,天宜上佳,2021-08-17,25.28,25.95,23.6,23.77,24.65,10035502.0,245299639.0,7313002326.16,10666482958.76
sh688033,天宜上佳,2021-08-18,23.76,25.68,23.3,24.38,23.77,9410731.0,231332165.0,7500672979.04,10940212643.44
sh688033,天宜上佳,2021-08-19,23.87,24.8,23.8,24.28,24.38,7170773.0,174208261.0,7469907298.240001,10895338924.64
sh688033,天宜上佳,2021-08-20,23.86,24.77,22.8,23.7,24.28,10503055.0,247928601.0,7291466349.6,10635071355.6
sh688033,天宜上佳,2021-08-23,24.0,24.9,23.57,24.62,23.7,8274018.0,201846463.0,7574510612.96,11047909568.56
sh688033,天宜上佳,2021-08-24,24.0,25.95,23.5,25.19,24.62,12864519.0,320806977.0,7749874993.519999,11303689765.72
sh688033,天宜上佳,2021-08-25,26.0,28.27,25.91,26.1,25.19,13487358.0,363534453.0,8029842688.8,11712040606.8
sh688033,天宜上佳,2021-08-26,25.6,28.2,25.6,27.49,26.1,13823704.0,377823556.0,8457485651.92,12335785298.12
sh688033,天宜上佳,2021-08-27,27.3,27.53,26.05,26.3,27.49,8006377.0,212290467.0,8091374050.4,11801788044.400002
sh688033,天宜上佳,2021-08-30,26.3,27.37,25.78,25.99,26.3,9595191.0,253880913.0,7996000439.92,11662679516.12
sh688033,天宜上佳,2021-08-31,25.68,26.83,25.42,26.59,25.99,6059939.0,159710573.0,8180594524.72,11931921828.92
sh688033,天宜上佳,2021-09-01,26.54,26.54,22.7,22.8,26.59,13956293.0,336488411.0,7014575222.4,10231207886.4
sh688033,天宜上佳,2021-09-02,23.24,25.39,23.24,25.0,22.8,13140240.0,324521919.0,7691420200.0,11218429700.0
sh688033,天宜上佳,2021-09-03,25.49,26.56,24.55,25.0,25.0,7043959.0,179751834.0,7691420200.0,11218429700.0
sh688033,天宜上佳,2021-09-06,24.2,25.99,23.62,25.38,25.0,5988806.0,149624022.0,7808329787.04,11388949831.44
sh688033,天宜上佳,2021-09-07,25.88,27.2,25.5,26.26,25.38,7195899.0,190590434.0,8079067778.08,11783838556.88
sh688033,天宜上佳,2021-09-08,26.47,26.8,25.05,25.42,26.26,4430092.0,112726814.0,7820636059.36,11406899318.96
sh688033,天宜上佳,2021-09-09,25.41,25.5,23.94,24.68,25.42,4595379.0,112599560.0,7592970021.440001,11074833799.84
sh688033,天宜上佳,2021-09-10,24.6,26.54,24.48,24.65,24.68,10624523.0,270528543.0,7583740317.2,11061371684.2
sh688033,天宜上佳,2021-09-13,24.25,25.58,24.04,24.36,24.65,4656407.0,114681572.0,7494519842.88,10931237899.68
sh688033,天宜上佳,2021-09-14,23.79,24.73,23.68,23.8,24.36,4634351.0,111518880.0,7322232030.400001,10679945074.400002
sh688033,天宜上佳,2021-09-15,24.4,24.4,22.97,23.5,23.8,4169682.0,98040045.0,7229934987.999999,10545323918.000002
sh688033,天宜上佳,2021-09-16,23.1,24.65,23.0,23.12,23.5,7057518.0,168170490.0,7113025400.959999,10374803786.56
sh688033,天宜上佳,2021-09-17,23.3,24.3,22.83,23.4,23.12,4961709.0,116207876.0,7199169307.2,10500450199.2
sh688033,天宜上佳,2021-09-22,22.8,22.93,20.61,22.1,23.4,12026963.0,258279471.0,6799215456.8,9917091854.8
sh688033,天宜上佳,2021-09-23,22.57,23.5,22.5,23.04,22.1,8648912.0,199108969.0,7088412856.32,10338904811.52
sh688033,天宜上佳,2021-09-24,22.66,23.44,22.18,22.78,23.04,4799295.0,109442937.0,7008422086.24,10222233142.64
sh688033,天宜上佳,2021-09-27,21.65,22.97,20.95,21.83,22.78,8212040.0,178580083.0,6716148118.64,9795932814.04
sh688033,天宜上佳,2021-09-28,21.1,22.08,21.05,21.21,21.83,4607179.0,98990797.0,6525400897.679999,9517715757.48
sh688033,天宜上佳,2021-09-29,21.43,21.43,19.55,19.8,21.21,6572576.0,133552493.0,6091604798.400001,8884996322.4
sh688033,天宜上佳,2021-09-30,20.2,22.25,19.81,21.7,19.8,9222910.0,196542005.0,6676152733.6,9737596979.6
sh688033,天宜上佳,2021-10-08,22.09,22.18,20.71,21.62,21.7,5789674.0,123940651.0,6651540188.96,9701698004.56
sh688033,天宜上佳,2021-10-11,20.8,21.36,20.5,20.91,21.62,6947644.0,145074866.0,6433103855.28,9383094601.08
sh688033,天宜上佳,2021-10-12,21.01,21.1,19.77,20.03,20.91,5190628.0,105324246.0,6162365864.24,8988205875.640001
sh688033,天宜上佳,2021-10-13,20.25,20.25,19.25,20.0,20.03,4793654.0,95198717.0,6153136160.0,8974743760.0
sh688033,天宜上佳,2021-10-14,20.2,21.42,19.85,21.2,20.0,4580125.0,96076290.0,6522324329.6,9513228385.6
sh688033,天宜上佳,2021-10-15,22.1,23.55,22.1,23.21,21.2,12627750.0,289643676.0,7140714513.68,10415190133.48
sh688033,天宜上佳,2021-10-18,23.75,27.85,22.75,27.85,23.21,24503234.0,645293144.0,8568242102.8,12497330685.8
sh688033,天宜上佳,2021-10-19,29.6,30.33,28.05,29.77,27.85,19462008.0,572608529.0,9158943174.16,13358906086.76
sh688033,天宜上佳,2021-10-20,29.92,30.05,28.6,28.7,29.77,13040159.0,382390585.0,8829750389.6,12878757295.599998
sh688033,天宜上佳,2021-10-21,28.97,29.36,27.39,27.48,28.7,9968041.0,280674891.0,8454409083.839999,12331297926.24
sh688033,天宜上佳,2021-10-22,27.48,28.1,25.68,26.3,27.48,8956264.0,236951295.0,8091374050.4,11801788044.400002
sh688033,天宜上佳,2021-10-25,25.76,27.83,25.76,27.0,26.3,9367936.0,251713274.0,8306733816.0,12115904076.0
sh688033,天宜上佳,2021-10-26,27.25,27.8,26.81,26.96,27.0,6738799.0,183891052.0,8294427543.679999,12097954588.48
sh688033,天宜上佳,2021-10-27,26.96,27.33,26.2,26.5,26.96,4524057.0,120104647.0,7565853562.0,11891535482.0
sh688033,天宜上佳,2021-10-28,26.09,27.5,25.5,25.79,26.5,4648469.0,121898064.0,7934469078.320001,11572932078.52
sh688033,天宜上佳,2021-10-29,26.2,29.38,26.2,28.52,25.79,10389220.0,287674466.0,8774372164.16,12797984601.759998
sh688033,天宜上佳,2021-11-01,28.99,32.38,28.84,31.48,28.52,15940991.0,497558517.0,9685036315.84,14126246678.24
sh688033,天宜上佳,2021-11-02,31.96,31.96,30.3,30.75,31.48,8976098.0,279696026.0,9460446846.0,13798668531.0
sh688033,天宜上佳,2021-11-03,30.65,31.0,29.5,30.43,30.75,5599905.0,168325906.0,9361996667.44,13655072630.84
sh688033,天宜上佳,2021-11-04,31.1,34.96,30.7,32.51,30.43,14641285.0,484009493.0,10001922828.08,14588445981.88
sh688033,天宜上佳,2021-11-05,33.0,33.16,29.93,30.12,32.51,10572368.0,326800067.0,9266623056.96,13515964102.56
sh688033,天宜上佳,2021-11-08,30.45,30.55,29.4,29.75,30.12,5294356.0,158187291.0,9152790038.0,13349931343.0
sh688033,天宜上佳,2021-11-09,30.2,30.88,29.61,29.93,29.75,5720928.0,172562128.0,9208168263.44,13430704036.84
sh688033,天宜上佳,2021-11-10,29.51,30.22,28.65,29.3,29.93,5613100.0,163836965.0,9014344474.4,13147999608.400002
sh688033,天宜上佳,2021-11-11,29.57,30.13,28.45,29.0,29.3,5494227.0,160467891.0,8922047432.0,13013378452.000002
sh688033,天宜上佳,2021-11-12,29.0,31.47,29.0,31.17,29.0,8125610.0,247514911.0,9589662705.36,13987138149.96
sh688033,天宜上佳,2021-11-15,30.88,33.0,30.54,31.8,31.17,10311192.0,329408321.0,9783486494.4,14269842578.400002
sh688033,天宜上佳,2021-11-16,31.5,32.35,29.7,30.09,31.8,6155122.0,190926929.0,9257393352.72,13502501986.92
sh688033,天宜上佳,2021-11-17,29.49,31.0,29.49,30.16,30.09,4981028.0,150817964.0,9278929329.28,13533913590.08
sh688033,天宜上佳,2021-11-18,30.46,31.2,29.34,29.45,30.16,8278445.0,248609845.0,9060492995.6,13215310186.6
sh688033,天宜上佳,2021-11-19,29.36,32.49,29.36,31.93,29.45,9334817.0,290526548.0,9823481879.44,14328178412.84
sh688033,天宜上佳,2021-11-22,32.23,33.15,31.7,31.83,31.93,6159840.0,199509651.0,9792716198.64,14283304694.04
sh688033,天宜上佳,2021-11-23,31.8,32.35,28.66,29.06,31.83,14560303.0,435593260.0,8940506840.48,13040302683.28
sh688033,天宜上佳,2021-11-24,29.0,29.38,27.41,28.76,29.06,12019799.0,339912332.0,8848209798.08,12905681526.88
sh688033,天宜上佳,2021-11-25,28.91,29.85,28.15,29.16,28.76,9282711.0,270504070.0,8971272521.28,13085176402.08
sh688033,天宜上佳,2021-11-26,29.38,30.12,28.91,29.6,29.16,4808505.0,142349359.0,9106641516.8,13282620764.800001
sh688033,天宜上佳,2021-11-29,29.1,32.6,28.92,31.78,29.6,13080339.0,413400946.0,9777333358.24,14260867834.640001
sh688033,天宜上佳,2021-11-30,32.18,32.95,30.38,30.88,31.78,7067745.0,221532804.0,9500442231.039999,13857004365.439999
sh688033,天宜上佳,2021-12-01,30.87,31.35,29.6,30.64,30.88,5301371.0,161277837.0,9426604597.119999,13749307440.32
sh688033,天宜上佳,2021-12-02,30.85,30.97,29.7,29.89,30.64,3832869.0,115232024.0,9195861991.119999,13412754549.32
sh688033,天宜上佳,2021-12-03,29.85,30.98,29.73,29.9,29.89,4599624.0,138341035.0,9198938559.2,13417241921.2
sh688033,天宜上佳,2021-12-06,29.85,30.36,29.5,29.98,29.9,5107424.0,152493586.0,9223551103.84,13453140896.24
sh688033,天宜上佳,2021-12-07,30.19,30.33,27.56,28.41,29.98,8785385.0,249461561.0,8740529915.28,12748623511.08
sh688033,天宜上佳,2021-12-08,28.61,29.8,28.61,29.5,28.41,4491147.0,132123738.0,9075875836.0,13237747046.0
sh688033,天宜上佳,2021-12-09,29.8,29.8,27.66,27.78,29.5,6932819.0,195758620.0,8546706126.24,12465919082.64
sh688033,天宜上佳,2021-12-10,27.5,30.31,27.42,29.82,27.78,10295876.0,301923030.0,9174326014.56,13381342946.16
sh688033,天宜上佳,2021-12-13,29.3,29.93,28.59,28.89,29.82,5317064.0,153723325.0,8888205183.119999,12964017361.320002
sh688033,天宜上佳,2021-12-14,28.51,29.3,26.8,27.47,28.89,10154417.0,280225208.0,8451332515.76,12326810554.36
sh688033,天宜上佳,2021-12-15,27.47,28.48,27.09,27.99,27.47,6530725.0,183020670.0,8611314055.92,12560153892.119999
sh688033,天宜上佳,2021-12-16,28.24,29.78,27.89,28.78,27.99,7183826.0,208344245.0,8854362934.24,12914656270.64
sh688033,天宜上佳,2021-12-17,28.84,30.25,28.4,28.95,28.78,8749130.0,258332143.0,8906664591.6,12990941592.6
sh688033,天宜上佳,2021-12-20,28.23,30.14,27.89,28.25,28.95,7407617.0,213105777.0,8691304826.0,12676825561.0
sh688033,天宜上佳,2021-12-21,28.07,30.52,27.77,30.4,28.25,10118016.0,300029806.0,9352766963.2,13641610515.199999
sh688033,天宜上佳,2021-12-22,30.1,33.61,30.1,32.88,30.4,12962235.0,420279564.0,10115755847.04,14754478741.44
sh688033,天宜上佳,2021-12-23,33.05,34.06,32.58,33.04,32.88,8129322.0,270707680.0,10164980936.32,14826276691.52
sh688033,天宜上佳,2021-12-24,32.47,33.8,31.56,31.67,33.04,6523856.0,210452183.0,9743491109.36,14211506743.960001
sh688033,天宜上佳,2021-12-27,31.59,31.69,30.2,30.59,31.67,6432210.0,197897708.0,9411221756.720001,13726870580.92
sh688033,天宜上佳,2021-12-28,30.52,30.9,29.58,29.92,30.59,3974402.0,119208361.0,9205091695.36,13426216664.960001
sh688033,天宜上佳,2021-12-29,29.64,29.95,28.53,29.46,29.92,7049555.0,205912150.0,9063569563.68,13219797558.480001
sh688033,天宜上佳,2021-12-30,29.64,31.86,29.14,31.5,29.46,7535538.0,233300299.0,9691189452.0,14135221421.999998
sh688033,天宜上佳,2021-12-31,31.48,33.48,31.35,33.05,31.5,8250679.0,271251381.0,10168057504.4,14830764063.4
sh688033,天宜上佳,2022-01-04,32.78,33.34,30.44,31.77,33.05,10318620.0,326481762.0,9774256790.16,14256380462.76
sh688033,天宜上佳,2022-01-05,31.7,32.48,29.92,30.18,31.77,6948136.0,212297771.0,9285082465.44,13542888333.84
sh688033,天宜上佳,2022-01-06,29.73,30.6,28.7,29.93,30.18,13064121.0,386476351.0,9208168263.439999,13430704036.84
sh688033,天宜上佳,2022-01-07,29.92,30.2,27.77,28.0,29.93,10673201.0,304878969.0,8614390624.0,12564641264.0
sh688033,天宜上佳,2022-01-10,27.81,27.98,24.92,25.76,28.0,15111511.0,392733639.0,7925239374.08,11559469962.88
sh688033,天宜上佳,2022-01-11,25.85,26.55,23.6,23.92,25.76,15990181.0,392869126.0,7359150847.360001,10733793536.960001
sh688033,天宜上佳,2022-01-12,24.25,25.37,23.13,25.11,23.92,17547455.0,428712199.0,7725262448.879999,11267790790.68
sh688033,天宜上佳,2022-01-13,24.99,25.59,24.31,24.46,25.11,5655172.0,140847785.0,7525285523.68,10976111618.48
sh688033,天宜上佳,2022-01-14,24.01,24.89,23.45,23.8,24.46,9413690.0,225528534.0,7322232030.400001,10679945074.400002
