数据由邢不行整理
股票代码,股票名称,交易日期,开盘价,最高价,最低价,收盘价,前收盘价,成交量,成交额,流通市值,总市值
sh688128,N中电研,2019-11-05,23.2,27.89,22.25,26.92,18.79,36989946.0,888411072.0,1224263695.08,10889140000.0
sh688128,中国电研,2019-11-06,23.8,24.2,21.88,21.93,26.92,21824232.0,505020080.0,997329228.57,8870685000.0
sh688128,中国电研,2019-11-07,21.32,24.89,21.29,23.35,21.93,22803371.0,525080260.0,1061907774.15,9445075000.0
sh688128,中国电研,2019-11-08,22.72,24.78,22.45,23.78,23.35,18941956.0,444852398.0,1081463249.22,9619010000.0
sh688128,中国电研,2019-11-11,23.44,24.12,21.76,22.1,23.78,13986421.0,316986282.0,1005060462.9,8939450000.0
sh688128,中国电研,2019-11-12,22.48,22.78,21.4,21.77,22.1,10010093.0,221276667.0,990052772.73,8805965000.0
sh688128,中国电研,2019-11-13,21.8,22.72,21.32,22.22,21.77,10030678.0,221593571.0,1010517804.78,8987990000.0
sh688128,中国电研,2019-11-14,22.1,22.33,21.51,21.6,22.22,9325808.0,204515214.0,982321538.4,8737200000.0
sh688128,中国电研,2019-11-15,21.48,21.48,19.91,20.0,21.6,11987314.0,246588553.0,909556980.0,8090000000.0
sh688128,中国电研,2019-11-18,20.0,20.27,19.38,19.54,20.0,6075148.0,119849121.0,888637169.46,7903930000.0
sh688128,中国电研,2019-11-19,19.68,19.93,19.51,19.84,19.54,3970210.0,78337386.0,902280524.16,8025280000.0
sh688128,中国电研,2019-11-20,19.8,19.81,19.16,19.22,19.84,5409034.0,104957105.0,874084257.78,7774490000.0
sh688128,中国电研,2019-11-21,19.11,19.42,19.06,19.12,19.22,2949675.0,56638818.0,869536472.88,7734040000.0
sh688128,中国电研,2019-11-22,19.11,19.43,18.87,19.21,19.12,4201718.0,80256392.0,873629479.29,7770445000.0
sh688128,中国电研,2019-11-25,19.21,19.31,18.73,19.03,19.21,3217235.0,61039991.0,865443466.47,7697635000.0
sh688128,中国电研,2019-11-26,19.07,19.2,18.91,19.07,19.03,2193023.0,41802937.0,867262580.43,7713815000.0
sh688128,中国电研,2019-11-27,19.04,19.37,18.97,19.36,19.07,3842833.0,73831317.0,880451156.64,7831120000.0
sh688128,中国电研,2019-11-28,19.28,19.79,19.22,19.24,19.36,5063383.0,98834786.0,874993814.76,7782580000.0
sh688128,中国电研,2019-11-29,19.19,19.39,19.07,19.37,19.24,2980870.0,57401109.0,880905935.13,7835165000.0
sh688128,中国电研,2019-12-02,19.4,19.54,19.03,19.03,19.37,2856165.0,55084919.0,865443466.47,7697635000.0
sh688128,中国电研,2019-12-03,18.92,18.98,18.25,18.45,19.03,4435099.0,82073794.0,839066314.05,7463025000.0
sh688128,中国电研,2019-12-04,18.45,18.65,18.28,18.45,18.45,2491266.0,45922107.0,839066314.05,7463025000.0
sh688128,中国电研,2019-12-05,18.43,18.55,18.36,18.5,18.45,2289258.0,42242538.0,841340206.5,7483250000.0
sh688128,中国电研,2019-12-06,18.46,18.59,18.31,18.45,18.5,2370725.0,43708468.0,839066314.05,7463025000.0
sh688128,中国电研,2019-12-09,18.48,18.91,18.41,18.9,18.45,4086976.0,76532167.0,859531346.1,7645050000.0
sh688128,中国电研,2019-12-10,18.82,20.3,18.7,19.7,18.9,9811301.0,193491173.0,895913625.3,7968650000.0
sh688128,中国电研,2019-12-11,19.4,19.96,19.2,19.28,19.7,4642634.0,90444538.0,876812928.72,7798760000.0
sh688128,中国电研,2019-12-12,19.29,19.62,19.1,19.12,19.28,3427946.0,66411390.0,869536472.88,7734040000.0
sh688128,中国电研,2019-12-13,19.26,19.39,18.95,19.35,19.12,3208717.0,61512448.0,879996378.15,7827075000.0
sh688128,中国电研,2019-12-16,19.35,19.55,19.26,19.53,19.35,3126071.0,60724900.0,888182390.97,7899885000.0
sh688128,中国电研,2019-12-17,19.58,19.84,19.48,19.69,19.53,3950725.0,77605706.0,895458846.81,7964605000.0
sh688128,中国电研,2019-12-18,19.66,20.46,19.65,20.14,19.69,6505790.0,130891949.0,915923878.86,8146630000.0
sh688128,中国电研,2019-12-19,20.15,20.29,19.85,19.94,20.14,3663753.0,73287529.0,906828309.06,8065730000.0
sh688128,中国电研,2019-12-20,19.94,20.16,19.73,19.74,19.94,3232063.0,64598253.0,897732739.26,7984830000.0
sh688128,中国电研,2019-12-23,19.76,19.97,19.26,19.29,19.74,3199521.0,62866435.0,877267707.21,7802805000.0
sh688128,中国电研,2019-12-24,19.36,19.57,19.32,19.52,19.29,1748551.0,34009396.0,887727612.48,7895840000.0
sh688128,中国电研,2019-12-25,19.51,19.96,19.48,19.74,19.52,2920358.0,57837033.0,897732739.26,7984830000.0
sh688128,中国电研,2019-12-26,19.78,20.52,19.68,20.19,19.74,5209698.0,105315740.0,918197771.31,8166855000.0
sh688128,中国电研,2019-12-27,20.17,20.33,19.75,19.81,20.19,3446280.0,69196648.0,900916188.69,8013145000.0
sh688128,中国电研,2019-12-30,19.7,19.7,19.03,19.46,19.81,3475306.0,67599779.0,884998941.54,7871570000.0
sh688128,中国电研,2019-12-31,19.41,19.65,19.36,19.52,19.46,1791595.0,34929385.0,887727612.48,7895840000.0
sh688128,中国电研,2020-01-02,19.7,20.05,19.58,20.0,19.52,3526108.0,70042385.0,909556980.0,8090000000.0
sh688128,中国电研,2020-01-03,20.07,20.24,19.89,20.12,20.0,3512662.0,70540410.0,915014321.88,8138540000.0
sh688128,中国电研,2020-01-06,19.95,20.36,19.9,20.14,20.12,3853471.0,77662887.0,915923878.86,8146630000.0
sh688128,中国电研,2020-01-07,20.14,20.58,20.01,20.57,20.14,4941121.0,100275216.0,935479353.93,8320565000.0
sh688128,中国电研,2020-01-08,20.49,21.25,20.31,20.5,20.57,6642217.0,137762167.0,932295904.5,8292250000.0
sh688128,中国电研,2020-01-09,20.8,21.09,20.59,20.99,20.5,4392049.0,91604489.0,954580050.51,8490455000.0
sh688128,中国电研,2020-01-10,21.08,21.47,20.78,21.42,20.99,5314128.0,112593968.0,974135525.58,8664390000.0
sh688128,中国电研,2020-01-13,21.34,21.95,21.14,21.82,21.42,4858355.0,104483983.0,992326665.18,8826190000.0
sh688128,中国电研,2020-01-14,21.89,22.5,21.7,22.13,21.82,6398559.0,140874272.0,1006424798.37,8951585000.0
sh688128,中国电研,2020-01-15,22.01,22.3,21.46,21.46,22.13,4611624.0,100286606.0,975954639.54,8680570000.0
sh688128,中国电研,2020-01-16,21.58,22.14,21.42,21.78,21.46,5352856.0,116378890.0,990507551.22,8810010000.0
sh688128,中国电研,2020-01-17,21.94,23.19,21.88,22.8,21.78,9020563.0,204528693.0,1036894957.2,9222600000.0
sh688128,中国电研,2020-01-20,22.73,23.63,22.42,23.32,22.8,6752299.0,155949272.0,1060543438.68,9432940000.0
sh688128,中国电研,2020-01-21,23.17,23.54,22.3,22.33,23.32,5295350.0,120130332.0,1015520368.17,9032485000.0
sh688128,中国电研,2020-01-22,22.32,22.71,21.28,22.54,22.33,5611316.0,123253393.0,1025070716.46,9117430000.0
sh688128,中国电研,2020-01-23,22.25,22.51,21.2,21.44,22.54,5498237.0,119874948.0,975045082.56,8672480000.0
sh688128,中国电研,2020-02-03,17.8,18.29,17.15,17.15,21.44,6481894.0,113411277.0,779945110.35,6937175000.0
sh688128,中国电研,2020-02-04,17.58,18.97,17.58,18.93,17.15,6959086.0,127932298.0,860895681.57,7657185000.0
sh688128,中国电研,2020-02-05,18.97,20.18,18.61,19.79,18.93,6391057.0,125370200.0,900006631.71,8005055000.0
sh688128,中国电研,2020-02-06,19.61,21.18,19.43,21.06,19.79,7374553.0,151491694.0,957763499.94,8518770000.0
sh688128,中国电研,2020-02-07,20.99,21.82,20.52,21.7,21.06,6909932.0,146241692.0,986869323.3,8777650000.0
sh688128,中国电研,2020-02-10,21.52,22.4,21.41,21.96,21.7,5835777.0,127840009.0,998693564.04,8882820000.0
sh688128,中国电研,2020-02-11,22.01,22.01,20.42,20.89,21.96,5428817.0,115028653.0,950032265.61,8450005000.0
sh688128,中国电研,2020-02-12,20.71,21.98,20.69,21.7,20.89,5326730.0,114146278.0,986869323.3,8777650000.0
sh688128,中国电研,2020-02-13,21.68,22.67,21.47,21.89,21.7,6859317.0,151235234.0,995510114.61,8854505000.0
sh688128,中国电研,2020-02-14,21.73,23.97,21.73,23.47,21.89,10548285.0,238291592.0,1067365116.03,9493615000.0
sh688128,中国电研,2020-02-17,23.3,24.35,22.91,23.92,23.47,9653019.0,228099439.0,1087830148.08,9675640000.0
sh688128,中国电研,2020-02-18,23.78,24.16,22.92,23.6,23.92,7800833.0,183789320.0,1073277236.4,9546200000.0
sh688128,中国电研,2020-02-19,23.54,23.9,22.82,22.88,23.6,5773039.0,135227871.0,1040533185.12,9254960000.0
sh688128,中国电研,2020-02-20,22.88,23.1,21.9,22.61,22.88,6563981.0,147658599.0,1028254165.89,9145745000.0
sh688128,中国电研,2020-02-21,22.53,22.99,22.31,22.46,22.61,4522938.0,102111137.0,1021432488.54,9085070000.0
sh688128,中国电研,2020-02-24,22.45,22.68,22.13,22.55,22.46,3693534.0,82837807.0,1025525494.95,9121475000.0
sh688128,中国电研,2020-02-25,22.2,23.2,22.0,22.85,22.55,5503444.0,124601469.0,1039168849.65,9242825000.0
sh688128,中国电研,2020-02-26,22.35,22.68,21.57,21.74,22.85,5005744.0,110844634.0,988688437.26,8793830000.0
sh688128,中国电研,2020-02-27,21.8,22.0,20.97,21.25,21.74,3139162.0,67127224.0,966404291.25,8595625000.0
sh688128,中国电研,2020-02-28,20.58,20.81,19.64,19.8,21.25,4043016.0,81707001.0,900461410.2,8009100000.0
sh688128,中国电研,2020-03-02,20.08,21.34,20.07,21.28,19.8,4165628.0,86800826.0,967768626.72,8607760000.0
sh688128,中国电研,2020-03-03,21.55,21.99,21.05,21.18,21.28,4663509.0,100466685.0,963220841.82,8567310000.0
sh688128,中国电研,2020-03-04,20.95,21.49,20.77,21.32,21.18,2966558.0,62787636.0,969587740.68,8623940000.0
sh688128,中国电研,2020-03-05,21.58,21.7,21.33,21.49,21.32,2833937.0,60882552.0,977318975.01,8692705000.0
sh688128,中国电研,2020-03-06,21.25,21.28,20.88,21.03,21.49,2350968.0,49516362.0,956399164.47,8506635000.0
sh688128,中国电研,2020-03-09,20.73,20.74,19.88,20.01,21.03,2920241.0,59146728.0,910011758.49,8094045000.0
sh688128,中国电研,2020-03-10,19.52,20.39,19.52,20.37,20.01,2543532.0,51034956.0,926383784.13,8239665000.0
sh688128,中国电研,2020-03-11,20.45,20.94,20.21,20.31,20.37,2663618.0,54732259.0,923655113.19,8215395000.0
sh688128,中国电研,2020-03-12,20.05,20.07,19.72,19.81,20.31,2066732.0,41008736.0,900916188.69,8013145000.0
sh688128,中国电研,2020-03-13,18.73,19.78,18.61,19.56,19.81,2556089.0,49064104.0,889546726.44,7912020000.0
sh688128,中国电研,2020-03-16,19.85,19.88,18.72,18.85,19.56,2185060.0,42048998.0,857257453.65,7624825000.0
sh688128,中国电研,2020-03-17,19.03,19.34,18.38,19.08,18.85,1787527.0,33874632.0,867717358.92,7717860000.0
sh688128,中国电研,2020-03-18,19.33,19.66,18.8,18.93,19.08,2154202.0,41603122.0,860895681.57,7657185000.0
sh688128,中国电研,2020-03-19,18.92,19.37,18.72,19.22,18.93,1926938.0,36717536.0,874084257.78,7774490000.0
sh688128,中国电研,2020-03-20,19.33,19.57,19.13,19.48,19.22,1705115.0,32986325.0,885908498.52,7879660000.0
sh688128,中国电研,2020-03-23,19.08,19.11,18.46,18.53,19.48,1904402.0,35862747.0,842704541.97,7495385000.0
sh688128,中国电研,2020-03-24,18.95,19.05,18.41,18.9,18.53,1628937.0,30645792.0,859531346.1,7645050000.0
sh688128,中国电研,2020-03-25,19.3,19.43,19.14,19.3,18.9,2145403.0,41422770.0,877722485.7,7806850000.0
sh688128,中国电研,2020-03-26,19.2,19.22,18.78,18.85,19.3,1621963.0,30846093.0,857257453.65,7624825000.0
sh688128,中国电研,2020-03-27,19.05,19.09,18.67,18.7,18.85,1267425.0,23962892.0,850435776.3,7564150000.0
sh688128,中国电研,2020-03-30,18.53,18.53,17.83,17.98,18.7,1660762.0,29946011.0,817691725.02,7272910000.0
sh688128,中国电研,2020-03-31,18.1,18.39,17.71,17.9,17.98,1065464.0,19179322.0,814053497.1,7240550000.0
sh688128,中国电研,2020-04-01,17.9,18.25,17.8,18.07,17.9,1110254.0,20037980.0,821784731.43,7309315000.0
sh688128,中国电研,2020-04-02,17.99,18.49,17.92,18.46,18.07,1419838.0,25914611.0,839521092.54,7467070000.0
sh688128,中国电研,2020-04-03,18.42,18.48,18.06,18.14,18.46,1112336.0,20272516.0,824968180.86,7337630000.0
sh688128,中国电研,2020-04-07,18.44,18.78,18.41,18.65,18.14,1871572.0,34738895.0,848161883.85,7543925000.0
sh688128,中国电研,2020-04-08,18.5,18.75,18.42,18.6,18.65,1265580.0,23564704.0,845887991.4,7523700000.0
sh688128,中国电研,2020-04-09,18.75,18.75,18.58,18.6,18.6,1087788.0,20268421.0,845887991.4,7523700000.0
sh688128,中国电研,2020-04-10,18.61,18.69,18.0,18.11,18.6,1364148.0,24893293.0,823603845.39,7325495000.0
sh688128,中国电研,2020-04-13,17.99,18.05,17.83,17.92,18.11,874885.0,15667763.0,814963054.08,7248640000.0
sh688128,中国电研,2020-04-14,18.16,18.29,18.05,18.24,17.92,733596.0,13333834.0,829515965.76,7378080000.0
sh688128,中国电研,2020-04-15,18.3,18.58,18.26,18.41,18.24,1271061.0,23441681.0,837247200.09,7446845000.0
sh688128,中国电研,2020-04-16,18.24,18.4,18.17,18.32,18.41,932805.0,17043513.0,833154193.68,7410440000.0
sh688128,中国电研,2020-04-17,18.36,18.55,18.32,18.49,18.32,1300639.0,24029926.0,840885428.01,7479205000.0
sh688128,中国电研,2020-04-20,18.58,18.67,18.46,18.65,18.49,1072328.0,19897283.0,848161883.85,7543925000.0
sh688128,中国电研,2020-04-21,18.61,18.61,18.25,18.44,18.65,784046.0,14423445.0,838611535.56,7458980000.0
sh688128,中国电研,2020-04-22,18.33,18.53,18.19,18.51,18.44,923922.0,17016850.0,841794984.99,7487295000.0
sh688128,中国电研,2020-04-23,18.51,19.05,18.43,18.8,18.51,2187901.0,41006769.0,854983561.2,7604600000.0
sh688128,中国电研,2020-04-24,18.79,19.07,18.65,18.81,18.8,1937875.0,36568997.0,855438339.69,7608645000.0
sh688128,中国电研,2020-04-27,18.75,19.26,18.7,18.84,18.81,1276372.0,24183052.0,856802675.16,7620780000.0
sh688128,中国电研,2020-04-28,18.7,18.71,16.2,17.42,18.84,3387247.0,58793447.0,792224129.58,7046390000.0
sh688128,中国电研,2020-04-29,17.16,17.52,17.07,17.21,17.42,1791091.0,30905128.0,782673781.29,6961445000.0
sh688128,中国电研,2020-04-30,17.21,18.2,17.17,18.16,17.21,2127736.0,37802976.0,825877737.84,7345720000.0
sh688128,中国电研,2020-05-06,17.81,19.69,17.61,19.55,18.16,4920311.0,91707368.0,935882135.95,7907975000.0
sh688128,中国电研,2020-05-07,19.35,19.45,18.73,18.87,19.55,3572953.0,68002719.0,903329713.83,7632915000.0
sh688128,中国电研,2020-05-08,18.95,19.39,18.92,19.05,18.87,2226671.0,42552186.0,911946531.45,7705725000.0
sh688128,中国电研,2020-05-11,19.05,19.2,18.65,18.79,19.05,1926336.0,36509823.0,899500017.11,7600555000.0
sh688128,中国电研,2020-05-12,18.68,18.85,18.21,18.66,18.79,1614248.0,29898538.0,893276759.94,7547970000.0
sh688128,中国电研,2020-05-13,18.65,19.24,18.45,19.01,18.66,2459125.0,46530495.0,910031683.09,7689545000.0
sh688128,中国电研,2020-05-14,18.9,19.15,18.71,18.85,19.01,1716110.0,32543319.0,902372289.65,7624825000.0
sh688128,中国电研,2020-05-15,18.94,19.21,18.75,19.04,18.85,2290216.0,43433291.0,911467819.36,7701680000.0
sh688128,中国电研,2020-05-18,19.06,19.06,18.56,18.69,19.04,1856066.0,34877237.0,894712896.21,7560105000.0
sh688128,中国电研,2020-05-19,18.79,19.05,18.56,19.02,18.69,2177241.0,41013032.0,910510395.18,7693590000.0
sh688128,中国电研,2020-05-20,18.92,19.65,18.85,19.2,19.02,3953638.0,76477445.0,919127212.8,7766400000.0
sh688128,中国电研,2020-05-21,19.4,19.43,18.72,18.79,19.2,2500605.0,47582201.0,899500017.11,7600555000.0
sh688128,中国电研,2020-05-22,18.8,18.9,18.05,18.26,18.79,2033312.0,37416511.0,874128276.34,7386170000.0
sh688128,中国电研,2020-05-25,18.12,18.2,17.64,17.79,18.26,1509269.0,26935375.0,851628808.11,7196055000.0
sh688128,中国电研,2020-05-26,17.96,18.84,17.83,18.84,17.79,2590993.0,47875932.0,901893577.56,7620780000.0
sh688128,中国电研,2020-05-27,18.82,18.97,18.53,18.59,18.84,2686609.0,50500093.0,889925775.31,7519655000.0
sh688128,中国电研,2020-05-28,18.58,18.72,17.97,18.29,18.59,1639083.0,29986223.0,875564412.61,7398305000.0
sh688128,中国电研,2020-05-29,18.34,18.83,18.21,18.53,18.29,1567201.0,29146008.0,887053502.77,7495385000.0
sh688128,中国电研,2020-06-01,18.72,19.55,18.61,19.3,18.53,3519733.0,67568183.0,923914333.7,7806850000.0
sh688128,中国电研,2020-06-02,19.4,19.7,19.1,19.5,19.3,3398388.0,66090625.0,933488575.5,7887750000.0
sh688128,中国电研,2020-06-03,19.57,19.96,19.32,19.33,19.5,3213754.0,63157539.0,925350469.97,7818985000.0
sh688128,中国电研,2020-06-04,19.36,21.3,19.3,20.67,19.33,9125221.0,186425232.0,989497890.03,8361015000.0
sh688128,中国电研,2020-06-05,20.4,21.29,20.0,21.02,20.67,6909278.0,142896834.0,1006252813.18,8502590000.0
sh688128,中国电研,2020-06-08,21.19,21.56,20.48,20.63,21.02,4605113.0,96503670.0,987583041.67,8344835000.0
sh688128,中国电研,2020-06-09,20.4,20.65,19.88,20.15,20.63,3784714.0,76373642.0,964604861.35,8150675000.0
sh688128,XD中国电,2020-06-10,19.87,19.88,19.48,19.65,19.85,1982165.0,38952709.0,940669256.85,7948425000.0
sh688128,中国电研,2020-06-11,19.75,19.93,19.21,19.3,19.65,2546827.0,49833318.0,923914333.7,7806850000.0
sh688128,中国电研,2020-06-12,18.87,19.36,18.84,19.17,19.3,1950074.0,37233209.0,917691076.53,7754265000.0
sh688128,中国电研,2020-06-15,19.0,19.58,19.0,19.24,19.17,1810223.0,34934704.0,921042061.16,7782580000.0
sh688128,中国电研,2020-06-16,19.4,20.34,19.26,20.07,19.24,3950935.0,78353656.0,960775164.63,8118315000.0
sh688128,中国电研,2020-06-17,20.08,20.76,19.7,20.4,20.07,4140075.0,83425018.0,976572663.6,8251800000.0
sh688128,中国电研,2020-06-18,20.68,20.93,20.04,20.18,20.4,3625977.0,74002566.0,966040997.62,8162810000.0
sh688128,中国电研,2020-06-19,19.92,20.38,19.92,20.24,20.18,2310575.0,46492423.0,968913270.16,8187080000.0
sh688128,中国电研,2020-06-22,20.18,20.84,20.05,20.47,20.24,3437220.0,70761274.0,979923648.23,8280115000.0
sh688128,中国电研,2020-06-23,20.36,20.55,20.0,20.29,20.47,2605145.0,52688442.0,971306830.61,8207305000.0
sh688128,中国电研,2020-06-24,20.22,20.36,19.88,20.12,20.29,2223586.0,44596711.0,963168725.08,8138540000.0
sh688128,中国电研,2020-06-29,19.92,20.09,19.4,19.56,20.12,1979453.0,38859513.0,936360848.04,7912020000.0
sh688128,中国电研,2020-06-30,19.73,20.46,19.66,20.45,19.56,3911180.0,78984184.0,978966224.05,8272025000.0
sh688128,中国电研,2020-07-01,20.45,20.59,20.02,20.32,20.45,3265812.0,66346812.0,972742966.88,8219440000.0
sh688128,中国电研,2020-07-02,20.32,21.07,20.13,20.95,20.32,5098888.0,105032970.0,1002901828.55,8474275000.0
sh688128,中国电研,2020-07-03,21.11,21.22,20.6,20.87,20.95,3441245.0,71836768.0,999072131.83,8441915000.0
sh688128,中国电研,2020-07-06,20.98,22.1,20.91,21.99,20.87,5773589.0,124883444.0,1052687885.91,8894955000.0
sh688128,中国电研,2020-07-07,22.15,22.96,21.59,22.13,21.99,6503549.0,145649010.0,1059389855.17,8951585000.0
sh688128,中国电研,2020-07-08,22.08,22.75,21.9,22.43,22.13,4239113.0,94875316.0,1073751217.87,9072935000.0
sh688128,中国电研,2020-07-09,22.43,23.5,22.23,23.2,22.43,6385263.0,145084872.0,1110612048.8,9384400000.0
sh688128,中国电研,2020-07-10,23.2,23.46,22.63,22.76,23.2,5572122.0,128425878.0,1089548716.84,9206420000.0
sh688128,中国电研,2020-07-13,22.8,24.42,22.7,24.26,22.76,6711107.0,157640763.0,1161355530.34,9813170000.0
sh688128,中国电研,2020-07-14,24.71,29.11,24.31,29.11,24.26,16512686.0,450198886.0,1393530893.99,11774995000.0
sh688128,中国电研,2020-07-15,30.04,30.11,25.4,25.8,29.11,14152782.0,386420404.0,1235077192.2,10436100000.0
sh688128,中国电研,2020-07-16,25.28,25.77,22.88,23.0,25.8,8311934.0,200267087.0,1101037807.0,9303500000.0
sh688128,中国电研,2020-07-17,23.0,23.96,22.9,23.66,23.0,4658743.0,109705230.0,1132632804.94,9570470000.0
sh688128,中国电研,2020-07-20,23.87,24.5,22.86,24.37,23.66,4535944.0,107793409.0,1166621363.33,9857665000.0
sh688128,中国电研,2020-07-21,24.45,24.74,23.78,24.0,24.37,3407908.0,82380152.0,1148909016.0,9708000000.0
sh688128,中国电研,2020-07-22,24.28,24.56,23.71,23.78,24.0,3598884.0,86653451.0,1138377350.02,9619010000.0
sh688128,中国电研,2020-07-23,23.51,23.69,22.38,23.2,23.78,4159569.0,95837083.0,1110612048.8,9384400000.0
sh688128,中国电研,2020-07-24,22.99,22.99,21.01,21.31,23.2,4667427.0,102928266.0,1020135463.79,8619895000.0
sh688128,中国电研,2020-07-27,21.2,21.63,21.06,21.37,21.31,1615492.0,34463309.0,1023007736.33,8644165000.0
sh688128,中国电研,2020-07-28,21.6,21.86,21.22,21.43,21.37,1968946.0,42368484.0,1025880008.87,8668435000.0
sh688128,中国电研,2020-07-29,21.47,22.57,21.27,22.53,21.43,2892816.0,63968923.0,1078538338.77,9113385000.0
sh688128,中国电研,2020-07-30,22.65,22.65,22.21,22.21,22.53,2157157.0,48357337.0,1063219551.89,8983945000.0
sh688128,中国电研,2020-07-31,22.05,22.85,22.05,22.85,22.21,2618969.0,59049424.0,1093857125.65,9242825000.0
sh688128,中国电研,2020-08-03,23.0,23.99,23.0,23.99,22.85,3374957.0,79864293.0,1148430303.9099998,9703955000.0
sh688128,中国电研,2020-08-04,24.19,24.2,23.34,23.63,23.99,2746107.0,65000412.0,1131196668.67,9558335000.0
sh688128,中国电研,2020-08-05,23.38,23.82,23.33,23.55,23.63,2081087.0,48999820.0,1127366971.95,9525975000.0
sh688128,中国电研,2020-08-06,23.54,23.69,22.6,22.86,23.55,2637414.0,60636454.0,1094335837.74,9246870000.0
sh688128,中国电研,2020-08-07,22.9,22.9,21.85,22.2,22.86,2339999.0,52116775.0,1062740839.8,8979900000.0
sh688128,中国电研,2020-08-10,22.0,22.52,21.86,22.34,22.2,1291702.0,28805868.0,1069442809.06,9036530000.0
sh688128,中国电研,2020-08-11,21.91,22.47,21.77,21.8,22.34,1274647.0,28204535.0,1043592356.2,8818100000.0
sh688128,中国电研,2020-08-12,21.73,21.79,21.02,21.48,21.8,1899913.0,40480854.0,1028273569.32,8688660000.0
sh688128,中国电研,2020-08-13,21.62,22.27,21.62,22.06,21.48,1785472.0,39358584.0,1056038870.54,8923270000.0
sh688128,中国电研,2020-08-14,22.2,22.32,21.7,22.26,22.06,1615512.0,35612774.0,1065613112.34,9004170000.0
sh688128,中国电研,2020-08-17,22.26,22.68,22.23,22.52,22.26,1510550.0,33929806.0,1078059626.6799998,9109340000.0
sh688128,中国电研,2020-08-18,22.65,22.75,22.4,22.52,22.52,1289298.0,29072360.0,1078059626.6799998,9109340000.0
sh688128,中国电研,2020-08-19,22.5,22.5,21.79,21.84,22.52,1664890.0,36684833.0,1045507204.56,8834280000.0
sh688128,中国电研,2020-08-20,21.71,21.9,21.5,21.59,21.84,970176.0,21042798.0,1033539402.31,8733155000.0
sh688128,中国电研,2020-08-21,21.65,21.84,21.26,21.26,21.59,1206006.0,25980352.0,1017741903.34,8599670000.0
sh688128,中国电研,2020-08-24,21.28,21.38,20.67,21.08,21.26,1702315.0,35773047.0,1009125085.72,8526860000.0
sh688128,中国电研,2020-08-25,21.36,22.32,21.35,21.87,21.08,2737811.0,60045309.0,1061954908.83,8846415000.0
sh688128,中国电研,2020-08-26,21.9,22.25,21.31,21.43,21.87,2075360.0,45136061.0,1040589560.87,8668435000.0
sh688128,中国电研,2020-08-27,21.4,21.71,21.13,21.45,21.43,1406881.0,30162411.0,1041560713.05,8676525000.0
sh688128,中国电研,2020-08-28,21.45,21.64,21.31,21.57,21.45,1211432.0,26002589.0,1047387626.13,8725065000.0
sh688128,中国电研,2020-08-31,21.68,22.14,21.53,21.75,21.57,1479574.0,32396653.0,1056127995.75,8797875000.0
sh688128,中国电研,2020-09-01,21.78,22.69,21.63,22.57,21.75,2560456.0,57186084.0,1095945235.13,9129565000.0
sh688128,中国电研,2020-09-02,22.7,22.88,22.23,22.36,22.57,1812393.0,40666091.0,1085748137.24,9044620000.0
sh688128,中国电研,2020-09-03,22.4,22.5,21.79,21.97,22.36,1585123.0,34965270.0,1066810669.73,8886865000.0
sh688128,中国电研,2020-09-04,21.55,21.96,21.4,21.86,21.97,1055085.0,22911953.0,1061469332.74,8842370000.0
sh688128,中国电研,2020-09-07,21.88,21.98,21.23,21.28,21.86,1383448.0,29931089.0,1033305919.52,8607760000.0
sh688128,中国电研,2020-09-08,21.21,21.67,21.13,21.45,21.28,1094140.0,23343762.0,1041560713.05,8676525000.0
sh688128,中国电研,2020-09-09,21.31,21.35,20.72,20.76,21.45,1638799.0,34368521.0,1008055962.84,8397420000.0
sh688128,中国电研,2020-09-10,20.93,20.98,19.87,20.01,20.76,1472245.0,30105302.0,971637756.09,8094045000.0
sh688128,中国电研,2020-09-11,19.97,20.39,19.9,20.22,20.01,752334.0,15135709.0,981834853.98,8178990000.0
sh688128,中国电研,2020-09-14,20.45,20.98,20.27,20.65,20.22,982767.0,20372501.0,1002714625.85,8352925000.0
sh688128,中国电研,2020-09-15,20.64,20.94,20.62,20.79,20.65,754966.0,15705645.0,1009512691.11,8409555000.0
sh688128,中国电研,2020-09-16,20.73,21.2,20.73,20.89,20.79,915817.0,19192841.0,1014368452.01,8450005000.0
sh688128,中国电研,2020-09-17,20.8,22.16,20.61,21.74,20.89,3713401.0,80610063.0,1055642419.66,8793830000.0
sh688128,中国电研,2020-09-18,21.69,22.14,21.61,21.98,21.74,1869940.0,40937043.0,1067296245.82,8890910000.0
sh688128,中国电研,2020-09-21,21.86,22.18,21.82,21.95,21.98,1087180.0,23858021.0,1065839517.55,8878775000.0
sh688128,中国电研,2020-09-22,21.89,21.89,21.07,21.36,21.95,1442486.0,30912724.0,1037190528.24,8640120000.0
sh688128,中国电研,2020-09-23,21.44,21.94,21.39,21.7,21.36,1110700.0,24122151.0,1053700115.3,8777650000.0
sh688128,中国电研,2020-09-24,21.6,21.6,20.9,21.1,21.7,1489126.0,31479778.0,1024565549.9,8534950000.0
sh688128,中国电研,2020-09-25,21.16,21.37,20.61,20.76,21.1,713305.0,14924285.0,1008055962.84,8397420000.0
sh688128,中国电研,2020-09-28,21.0,21.0,20.2,20.2,20.76,618109.0,12619387.0,980863701.8,8170900000.0
sh688128,中国电研,2020-09-29,20.38,20.8,20.35,20.54,20.2,600190.0,12385632.0,997373288.86,8308430000.0
sh688128,中国电研,2020-09-30,20.8,20.99,20.45,20.5,20.54,675933.0,13991808.0,995430984.5,8292250000.0
sh688128,中国电研,2020-10-09,20.71,21.2,20.71,21.1,20.5,960853.0,20245769.0,1024565549.9,8534950000.0
sh688128,中国电研,2020-10-12,21.27,21.56,21.18,21.54,21.1,1193458.0,25573127.0,1045930897.86,8712930000.0
sh688128,中国电研,2020-10-13,21.5,21.62,21.31,21.56,21.54,922689.0,19853955.0,1046902050.04,8721020000.0
sh688128,中国电研,2020-10-14,21.57,21.64,21.08,21.12,21.56,1028024.0,21850134.0,1025536702.08,8543040000.0
sh688128,中国电研,2020-10-15,21.17,21.32,20.8,20.9,21.12,961035.0,20168684.0,1014854028.1,8454050000.0
sh688128,中国电研,2020-10-16,20.9,21.03,20.8,20.95,20.9,548642.0,11469933.0,1017281908.55,8474275000.0
sh688128,中国电研,2020-10-19,20.95,21.07,20.48,20.48,20.95,1037634.0,21487576.0,994459832.32,8284160000.0
sh688128,中国电研,2020-10-20,20.53,20.69,20.2,20.66,20.48,858417.0,17535086.0,1003200201.94,8356970000.0
sh688128,中国电研,2020-10-21,20.62,20.69,20.18,20.26,20.66,815651.0,16574414.0,983777158.34,8195170000.0
sh688128,中国电研,2020-10-22,20.26,20.29,20.04,20.11,20.26,473882.0,9550030.0,976493516.99,8134495000.0
sh688128,中国电研,2020-10-23,20.2,20.26,19.87,19.89,20.11,879476.0,17586271.0,965810843.01,8045505000.0
sh688128,中国电研,2020-10-26,19.88,20.06,19.62,19.76,19.89,566082.0,11243479.0,959498353.84,7992920000.0
sh688128,中国电研,2020-10-27,19.85,19.94,19.73,19.9,19.76,500192.0,9922282.0,966296419.1,8049550000.0
sh688128,中国电研,2020-10-28,20.09,20.14,19.84,20.13,19.9,789911.0,15801088.0,977464669.17,8142585000.0
sh688128,中国电研,2020-10-29,19.9,20.08,19.7,19.74,20.13,1010903.0,20086080.0,958527201.66,7984830000.0
sh688128,中国电研,2020-10-30,19.79,19.83,18.95,18.99,19.74,1079579.0,20964189.0,922108994.91,7681455000.0
sh688128,中国电研,2020-11-02,19.01,19.25,18.5,18.66,18.99,1346160.0,25277141.0,906084983.94,7547970000.0
sh688128,中国电研,2020-11-03,18.81,19.55,18.67,19.35,18.66,1071655.0,20569752.0,939589734.15,7827075000.0
sh688128,中国电研,2020-11-04,19.35,19.49,19.05,19.22,19.35,637651.0,12276900.0,933277244.98,7774490000.0
sh688128,中国电研,2020-11-05,19.51,19.52,19.3,19.38,19.22,894577.0,17371611.0,1834173762.42,7839210000.0
sh688128,中国电研,2020-11-06,19.3,19.3,18.56,18.7,19.38,1931762.0,36265998.0,1769816788.3,7564150000.0
sh688128,中国电研,2020-11-09,18.76,19.37,18.7,19.26,18.7,1622207.0,31022087.0,1822816649.34,7790670000.0
sh688128,中国电研,2020-11-10,19.27,19.5,19.12,19.19,19.26,1723643.0,33316545.0,1816191666.71,7762355000.0
sh688128,中国电研,2020-11-11,19.26,19.3,18.94,19.05,19.19,930685.0,17744927.0,1802941701.45,7705725000.0
sh688128,中国电研,2020-11-12,19.05,19.1,18.71,18.8,19.05,1182735.0,22281327.0,1779281049.2,7604600000.0
sh688128,中国电研,2020-11-13,18.83,18.91,18.64,18.75,18.8,704161.0,13218867.0,1774548918.75,7584375000.0
sh688128,中国电研,2020-11-16,18.9,18.99,18.75,18.9,18.75,1140373.0,21532005.0,1788745310.1,7645050000.0
sh688128,中国电研,2020-11-17,18.95,18.95,18.55,18.61,18.9,1395313.0,26005591.0,1761298953.49,7527745000.0
sh688128,中国电研,2020-11-18,18.62,18.96,18.61,18.8,18.61,1405258.0,26348993.0,1779281049.2,7604600000.0
sh688128,中国电研,2020-11-19,18.64,18.85,18.63,18.78,18.8,1029919.0,19327978.0,1777388197.02,7596510000.0
sh688128,中国电研,2020-11-20,18.8,19.68,18.73,19.38,18.78,2425705.0,46629371.0,1834173762.42,7839210000.0
sh688128,中国电研,2020-11-23,19.53,19.53,19.23,19.4,19.38,1308268.0,25356325.0,1836066614.6,7847300000.0
sh688128,中国电研,2020-11-24,19.39,19.39,19.21,19.26,19.4,803189.0,15494078.0,1822816649.34,7790670000.0
sh688128,中国电研,2020-11-25,19.26,19.37,19.03,19.1,19.26,967411.0,18572991.0,1807673831.9,7725950000.0
sh688128,中国电研,2020-11-26,19.08,19.19,18.8,19.0,19.1,669664.0,12716793.0,1798209571.0,7685500000.0
sh688128,中国电研,2020-11-27,19.0,19.16,18.84,19.05,19.0,481050.0,9133025.0,1802941701.45,7705725000.0
sh688128,中国电研,2020-11-30,19.06,19.28,18.98,19.11,19.05,760434.0,14551195.0,1808620257.99,7729995000.0
sh688128,中国电研,2020-12-01,19.05,19.38,19.03,19.3,19.11,864437.0,16629291.0,1826602353.7,7806850000.0
sh688128,中国电研,2020-12-02,19.28,19.38,19.11,19.32,19.3,799214.0,15392291.0,1828495205.88,7814940000.0
sh688128,中国电研,2020-12-03,19.39,19.4,19.11,19.11,19.32,765027.0,14672410.0,1808620257.99,7729995000.0
sh688128,中国电研,2020-12-04,19.11,19.11,18.85,18.86,19.11,1115342.0,21112894.0,1784959605.74,7628870000.0
sh688128,中国电研,2020-12-07,18.9,18.94,18.78,18.86,18.86,554502.0,10444503.0,1784959605.74,7628870000.0
sh688128,中国电研,2020-12-08,18.86,18.92,18.75,18.79,18.86,538744.0,10133505.0,1778334623.11,7600555000.0
sh688128,中国电研,2020-12-09,18.81,18.9,18.18,18.22,18.79,1135811.0,21040563.0,1724388335.98,7369990000.0
sh688128,中国电研,2020-12-10,18.19,18.25,17.94,18.04,18.22,841797.0,15192333.0,1707352666.36,7297180000.0
sh688128,中国电研,2020-12-11,18.06,18.12,17.52,17.55,18.04,1085682.0,19227049.0,1660977787.9499998,7098975000.0
sh688128,中国电研,2020-12-14,17.52,17.82,17.3,17.77,17.55,450004.0,7970906.0,1681799161.93,7187965000.0
sh688128,中国电研,2020-12-15,17.77,17.8,17.6,17.76,17.77,354660.0,6270459.0,1680852735.8400002,7183920000.0
sh688128,中国电研,2020-12-16,17.81,17.81,17.55,17.55,17.76,380925.0,6715651.0,1660977787.9499998,7098975000.0
sh688128,中国电研,2020-12-17,17.56,17.73,17.17,17.63,17.55,515320.0,8989593.0,1668549196.67,7131335000.0
sh688128,中国电研,2020-12-18,17.76,17.8,17.5,17.5,17.63,601129.0,10610738.0,1656245657.5,7078750000.0
sh688128,中国电研,2020-12-21,17.22,17.93,17.22,17.69,17.5,533973.0,9450456.0,1674227753.21,7155605000.0
sh688128,中国电研,2020-12-22,17.68,17.98,17.55,17.7,17.69,910517.0,16211198.0,1675174179.3,7159650000.0
sh688128,中国电研,2020-12-23,17.89,17.89,17.48,17.73,17.7,602873.0,10635927.0,1678013457.57,7171785000.0
sh688128,中国电研,2020-12-24,17.64,17.76,17.12,17.2,17.73,625536.0,10843800.0,1627852874.8,6957400000.0
sh688128,中国电研,2020-12-25,17.22,17.39,17.08,17.26,17.2,440997.0,7610854.0,1633531431.3400002,6981670000.0
sh688128,中国电研,2020-12-28,17.17,17.22,16.75,16.93,17.26,847151.0,14377945.0,1602299370.37,6848185000.0
sh688128,中国电研,2020-12-29,16.93,17.13,16.8,16.95,16.93,374261.0,6348855.0,1604192222.55,6856275000.0
sh688128,中国电研,2020-12-30,16.91,17.11,16.88,16.95,16.95,358281.0,6085993.0,1604192222.55,6856275000.0
sh688128,中国电研,2020-12-31,16.95,17.35,16.95,17.28,16.95,457714.0,7887799.0,1635424283.52,6989760000.0
sh688128,中国电研,2021-01-04,17.16,17.89,17.16,17.78,17.28,1010848.0,17791168.0,1682745588.0200002,7192010000.0
sh688128,中国电研,2021-01-05,17.9,17.9,17.56,17.63,17.78,618870.0,10954534.0,1668549196.67,7131335000.0
sh688128,中国电研,2021-01-06,17.82,17.82,17.25,17.35,17.63,744215.0,12934292.0,1642049266.15,7018075000.0
sh688128,中国电研,2021-01-07,17.47,17.47,16.78,16.9,17.35,1070328.0,18164336.0,1599460092.1,6836050000.0
sh688128,中国电研,2021-01-08,16.83,17.12,16.57,17.0,16.9,552773.0,9325923.0,1608924353.0,6876500000.0
sh688128,中国电研,2021-01-11,16.94,16.95,16.6,16.61,17.0,595265.0,9970961.0,1572013735.49,6718745000.0
sh688128,中国电研,2021-01-12,16.35,16.75,16.35,16.51,16.61,741654.0,12267925.0,1562549474.59,6678295000.0
sh688128,中国电研,2021-01-13,16.51,17.29,16.1,16.94,16.51,1557185.0,25903332.0,1603245796.46,6852230000.0
sh688128,中国电研,2021-01-14,16.6,18.41,16.6,17.85,16.94,2588741.0,46208511.0,1689370570.65,7220325000.0
sh688128,中国电研,2021-01-15,17.6,17.96,17.35,17.7,17.85,1362494.0,24059167.0,1675174179.3,7159650000.0
sh688128,中国电研,2021-01-18,17.5,17.87,17.5,17.73,17.7,1063640.0,18816475.0,1678013457.57,7171785000.0
sh688128,中国电研,2021-01-19,17.63,18.08,17.63,17.91,17.73,893146.0,15970476.0,1695049127.19,7244595000.0
sh688128,中国电研,2021-01-20,17.76,18.04,17.64,17.77,17.91,615668.0,10933439.0,1681799161.93,7187965000.0
sh688128,中国电研,2021-01-21,17.77,18.06,17.48,17.9,17.77,886976.0,15847279.0,1694102701.1,7240550000.0
sh688128,中国电研,2021-01-22,17.8,17.84,17.36,17.45,17.9,777704.0,13630600.0,1651513527.05,7058525000.0
sh688128,中国电研,2021-01-25,17.46,17.5,16.89,16.99,17.45,858164.0,14688648.0,1607977926.91,6872455000.0
sh688128,中国电研,2021-01-26,16.71,17.31,16.71,17.14,16.99,537753.0,9187663.0,1622174318.2599998,6933130000.0
sh688128,中国电研,2021-01-27,16.97,17.03,16.66,16.72,17.14,660256.0,11104955.0,1582424422.48,6763240000.0
sh688128,中国电研,2021-01-28,16.7,16.86,16.5,16.52,16.72,584366.0,9756858.0,1563495900.6799998,6682340000.0
sh688128,中国电研,2021-01-29,16.52,16.69,16.08,16.26,16.52,682430.0,11104885.0,1538888822.34,6577170000.0
sh688128,中国电研,2021-02-01,16.08,16.55,16.08,16.44,16.26,442688.0,7265264.0,1555924491.96,6649980000.0
sh688128,中国电研,2021-02-02,16.55,16.55,16.27,16.46,16.44,497571.0,8160541.0,1557817344.14,6658070000.0
sh688128,中国电研,2021-02-03,16.46,16.46,16.05,16.12,16.46,579940.0,9373836.0,1525638857.08,6520540000.0
sh688128,中国电研,2021-02-04,16.17,16.17,15.31,15.4,16.12,1106440.0,17231270.0,1457496178.6,6229300000.0
sh688128,中国电研,2021-02-05,15.55,15.63,14.69,14.92,15.4,982854.0,14921902.0,1412067726.28,6035140000.0
sh688128,中国电研,2021-02-08,14.95,15.07,14.77,14.84,14.92,507383.0,7550334.0,1404496317.56,6002780000.0
sh688128,中国电研,2021-02-09,14.95,15.14,14.88,15.12,14.84,550876.0,8290216.0,1430996248.08,6116040000.0
sh688128,中国电研,2021-02-10,15.12,15.34,15.11,15.17,15.12,572460.0,8704925.0,1435728378.53,6136265000.0
sh688128,中国电研,2021-02-18,15.47,15.73,15.2,15.41,15.17,713156.0,11061311.0,1458442604.69,6233345000.0
sh688128,中国电研,2021-02-19,15.52,16.0,15.35,15.88,15.41,1012845.0,15984644.0,1502924630.9199998,6423460000.0
sh688128,中国电研,2021-02-22,16.0,16.41,15.88,15.89,15.88,1241828.0,20007147.0,1503871057.01,6427505000.0
sh688128,中国电研,2021-02-23,15.81,16.03,15.65,15.72,15.89,980905.0,15500400.0,1487781813.48,6358740000.0
sh688128,中国电研,2021-02-24,15.65,16.03,15.65,15.77,15.72,1073419.0,16979106.0,1492513943.93,6378965000.0
sh688128,中国电研,2021-02-25,15.9,15.9,15.66,15.7,15.77,728354.0,11471703.0,1485888961.3000002,6350650000.0
sh688128,中国电研,2021-02-26,15.7,15.83,15.42,15.51,15.7,718923.0,11242367.0,1467906865.59,6273795000.0
sh688128,中国电研,2021-03-01,15.76,16.16,15.71,15.96,15.51,1190344.0,18941936.0,1510496039.64,6455820000.0
sh688128,中国电研,2021-03-02,15.99,16.16,15.51,15.52,15.96,1578666.0,24755539.0,1468853291.68,6277840000.0
sh688128,中国电研,2021-03-03,15.52,15.72,15.37,15.61,15.52,1206487.0,18814682.0,1477371126.4899998,6314245000.0
sh688128,中国电研,2021-03-04,15.6,15.8,15.5,15.61,15.61,973706.0,15246670.0,1477371126.4899998,6314245000.0
sh688128,中国电研,2021-03-05,15.51,15.86,15.51,15.7,15.61,1022611.0,16068044.0,1485888961.3000002,6350650000.0
sh688128,中国电研,2021-03-08,15.73,16.1,15.73,15.77,15.7,1462033.0,23239951.0,1492513943.93,6378965000.0
sh688128,中国电研,2021-03-09,15.81,15.99,15.2,15.38,15.77,1156536.0,17875569.0,1455603326.4199998,6221210000.0
sh688128,中国电研,2021-03-10,15.58,15.59,15.01,15.08,15.38,993473.0,15147004.0,1427210543.72,6099860000.0
sh688128,中国电研,2021-03-11,15.18,15.33,15.01,15.25,15.08,640166.0,9731871.0,1443299787.25,6168625000.0
sh688128,中国电研,2021-03-12,15.31,15.34,15.13,15.17,15.25,522010.0,7935610.0,1435728378.53,6136265000.0
sh688128,中国电研,2021-03-15,15.17,15.3,15.04,15.19,15.17,537927.0,8151635.0,1437621230.71,6144355000.0
sh688128,中国电研,2021-03-16,15.14,15.4,15.11,15.39,15.19,781701.0,11939933.0,1456549752.51,6225255000.0
sh688128,中国电研,2021-03-17,15.42,15.47,15.3,15.39,15.39,526309.0,8101115.0,1456549752.51,6225255000.0
sh688128,中国电研,2021-03-18,15.39,15.47,15.3,15.4,15.39,524239.0,8077381.0,1457496178.6,6229300000.0
sh688128,中国电研,2021-03-19,15.35,15.57,15.25,15.47,15.4,841300.0,13013577.0,1464121161.2300005,6257615000.0
sh688128,中国电研,2021-03-22,15.47,15.88,15.47,15.78,15.47,912405.0,14322218.0,1493460370.02,6383010000.0
sh688128,中国电研,2021-03-23,15.78,15.93,15.67,15.74,15.78,811021.0,12817833.0,1489674665.6599998,6366830000.0
sh688128,中国电研,2021-03-24,15.82,15.82,15.57,15.59,15.74,799165.0,12535059.0,1475478274.3100002,6306155000.0
sh688128,中国电研,2021-03-25,15.52,15.72,15.45,15.5,15.59,673466.0,10491874.0,1466960439.5,6269750000.0
sh688128,中国电研,2021-03-26,15.53,15.77,15.51,15.69,15.5,531236.0,8325176.0,1484942535.21,6346605000.0
sh688128,中国电研,2021-03-29,15.77,15.77,15.51,15.54,15.69,596005.0,9304071.0,1470746143.86,6285930000.0
sh688128,中国电研,2021-03-30,15.54,15.54,15.2,15.25,15.54,765089.0,11692631.0,1443299787.25,6168625000.0
sh688128,中国电研,2021-03-31,15.3,15.32,15.15,15.23,15.25,410337.0,6248945.0,1441406935.07,6160535000.0
sh688128,中国电研,2021-04-01,15.33,15.45,15.16,15.35,15.23,620740.0,9508289.0,1452764048.15,6209075000.0
sh688128,中国电研,2021-04-02,15.4,15.5,15.37,15.42,15.35,596497.0,9203550.0,1459389030.78,6237390000.0
sh688128,中国电研,2021-04-06,15.45,15.69,15.45,15.64,15.42,653542.0,10199145.0,1480210404.76,6326380000.0
sh688128,中国电研,2021-04-07,15.65,15.76,15.57,15.68,15.64,713414.0,11162089.0,1483996109.12,6342560000.0
sh688128,中国电研,2021-04-08,15.8,15.81,15.5,15.55,15.68,650170.0,10184804.0,1471692569.95,6289975000.0
sh688128,中国电研,2021-04-09,15.51,15.59,15.47,15.54,15.55,307897.0,4781068.0,1470746143.86,6285930000.0
sh688128,中国电研,2021-04-12,15.56,15.97,15.48,15.68,15.54,1138084.0,17936259.0,1483996109.12,6342560000.0
sh688128,中国电研,2021-04-13,15.6,15.67,15.4,15.45,15.68,531233.0,8263954.0,1462228309.0500002,6249525000.0
sh688128,中国电研,2021-04-14,15.55,15.65,15.41,15.65,15.45,493975.0,7683024.0,1481156830.85,6330425000.0
sh688128,中国电研,2021-04-15,15.67,15.67,15.45,15.55,15.65,529533.0,8221228.0,1471692569.95,6289975000.0
sh688128,中国电研,2021-04-16,15.52,15.81,15.52,15.79,15.55,833793.0,13110342.0,1494406796.11,6387055000.0
sh688128,中国电研,2021-04-19,15.86,16.5,15.8,16.32,15.79,1597290.0,25895082.0,1544567378.88,6601440000.0
sh688128,中国电研,2021-04-20,16.23,16.45,16.08,16.1,16.32,1221642.0,19916169.0,1523746004.9,6512450000.0
sh688128,中国电研,2021-04-21,16.06,16.23,15.95,16.04,16.1,858751.0,13818290.0,1518067448.36,6488180000.0
sh688128,中国电研,2021-04-22,15.99,16.17,15.94,15.96,16.04,720318.0,11554584.0,1510496039.64,6455820000.0
sh688128,中国电研,2021-04-23,15.91,16.02,15.83,15.97,15.96,564211.0,8977681.0,1511442465.73,6459865000.0
sh688128,中国电研,2021-04-26,15.98,16.35,15.88,16.14,15.97,846924.0,13652858.0,1527531709.26,6528630000.0
sh688128,中国电研,2021-04-27,16.01,16.02,15.48,15.62,16.14,1335491.0,20906501.0,1473678412.58,6318290000.0
sh688128,中国电研,2021-04-28,15.54,15.63,15.42,15.45,15.62,738829.0,11438852.0,1457639659.05,6249525000.0
sh688128,中国电研,2021-04-29,15.43,15.64,15.33,15.45,15.45,470336.0,7289404.0,1457639659.05,6249525000.0
sh688128,中国电研,2021-04-30,15.42,15.57,15.35,15.39,15.45,569621.0,8785621.0,1451978922.5100002,6225255000.0
sh688128,中国电研,2021-05-06,15.39,15.44,15.28,15.35,15.39,586440.0,9000939.0,1448205098.15,6209075000.0
sh688128,中国电研,2021-05-07,15.35,15.5,15.14,15.14,15.35,789332.0,12021852.0,1428392520.26,6124130000.0
sh688128,中国电研,2021-05-10,15.15,15.2,15.07,15.13,15.14,400155.0,6057367.0,1427449064.1699998,6120085000.0
sh688128,中国电研,2021-05-11,15.11,15.19,14.91,15.14,15.13,534209.0,8047746.0,1428392520.26,6124130000.0
sh688128,中国电研,2021-05-12,15.14,15.29,15.03,15.27,15.14,412792.0,6254040.0,1440657449.43,6176715000.0
sh688128,中国电研,2021-05-13,15.18,15.35,15.18,15.27,15.27,442571.0,6762324.0,1440657449.43,6176715000.0
sh688128,中国电研,2021-05-14,15.28,15.47,15.22,15.41,15.27,799690.0,12297663.0,1453865834.69,6233345000.0
sh688128,中国电研,2021-05-17,15.35,15.65,15.35,15.48,15.41,631839.0,9759365.0,1460470027.32,6261660000.0
sh688128,中国电研,2021-05-18,15.37,15.54,15.28,15.48,15.48,607307.0,9361037.0,1460470027.32,6261660000.0
sh688128,中国电研,2021-05-19,15.4,15.56,15.37,15.51,15.48,609633.0,9442203.0,1463300395.59,6273795000.0
sh688128,中国电研,2021-05-20,15.5,15.88,15.43,15.73,15.51,1021012.0,15969667.0,1484056429.57,6362785000.0
sh688128,中国电研,2021-05-21,15.73,15.73,15.5,15.51,15.73,626396.0,9759530.0,1463300395.59,6273795000.0
sh688128,中国电研,2021-05-24,15.5,15.71,15.45,15.59,15.51,628972.0,9768025.0,1470848044.31,6306155000.0
sh688128,中国电研,2021-05-25,15.66,15.8,15.59,15.8,15.59,867471.0,13618100.0,1490660622.1999998,6391100000.0
sh688128,中国电研,2021-05-26,15.78,16.24,15.76,15.92,15.8,1303922.0,20891554.0,1501982095.28,6439640000.0
sh688128,中国电研,2021-05-27,15.86,16.09,15.84,16.03,15.92,719953.0,11531905.0,1512360112.27,6484135000.0
sh688128,中国电研,2021-05-28,16.11,16.17,15.7,15.82,16.03,791680.0,12601439.0,1492547534.38,6399190000.0
sh688128,中国电研,2021-05-31,15.82,16.34,15.79,16.28,15.82,1631154.0,26280770.0,1535946514.52,6585260000.0
sh688128,中国电研,2021-06-01,16.34,16.77,16.21,16.5,16.28,1794398.0,29662810.0,1556702548.5,6674250000.0
sh688128,中国电研,2021-06-02,16.5,16.84,16.39,16.61,16.5,1821369.0,30280626.0,1567080565.49,6718745000.0
sh688128,中国电研,2021-06-03,16.48,16.75,16.3,16.4,16.61,1351080.0,22276730.0,1547267987.6,6633800000.0
sh688128,中国电研,2021-06-04,16.4,16.75,16.32,16.53,16.4,1288406.0,21365663.0,1559532916.77,6686385000.0
sh688128,中国电研,2021-06-07,16.54,16.79,16.5,16.77,16.53,1102877.0,18392053.0,1582175862.93,6783465000.0
sh688128,中国电研,2021-06-08,16.77,16.8,16.25,16.4,16.77,1189221.0,19640797.0,1547267987.6,6633800000.0
sh688128,中国电研,2021-06-09,16.42,16.57,16.33,16.47,16.4,938581.0,15430807.0,1553872180.23,6662115000.0
sh688128,中国电研,2021-06-10,16.56,16.65,16.42,16.64,16.47,1075014.0,17754248.0,1569910933.76,6730880000.0
sh688128,中国电研,2021-06-11,16.77,16.78,16.17,16.22,16.64,1022895.0,16819715.0,1530285777.98,6560990000.0
sh688128,中国电研,2021-06-15,16.39,16.39,16.12,16.26,16.22,584172.0,9486804.0,1534059602.34,6577170000.0
sh688128,中国电研,2021-06-16,16.3,16.4,15.84,15.87,16.26,925554.0,14881769.0,1497264814.8300002,6419415000.0
sh688128,中国电研,2021-06-17,15.85,16.18,15.79,16.13,15.87,956068.0,15274270.0,1521794673.17,6524585000.0
sh688128,中国电研,2021-06-18,16.12,16.35,16.05,16.3,16.13,838926.0,13593342.0,1537833426.7,6593350000.0
sh688128,中国电研,2021-06-21,16.4,16.76,16.21,16.74,16.3,1358444.0,22513451.0,1579345494.66,6771330000.0
sh688128,中国电研,2021-06-22,16.58,17.31,16.58,17.25,16.74,2480263.0,42215132.0,1627461755.25,6977625000.0
sh688128,XD中国电,2021-06-23,16.98,17.11,16.7,16.81,16.95,1434201.0,24181865.0,1585949687.29,6799645000.0
sh688128,中国电研,2021-06-24,17.2,17.21,16.8,17.1,16.81,1261995.0,21451217.0,1613309913.9,6916950000.0
sh688128,中国电研,2021-06-25,17.1,17.17,16.8,17.16,17.1,1331834.0,22632394.0,1618970650.4399998,6941220000.0
sh688128,中国电研,2021-06-28,17.16,18.73,17.05,18.4,17.16,4671044.0,84681983.0,1735959205.6,7442800000.0
sh688128,中国电研,2021-06-29,18.15,18.67,17.91,18.3,18.4,2207074.0,40309721.0,1726524644.7,7402350000.0
sh688128,中国电研,2021-06-30,18.15,18.64,18.02,18.45,18.3,1815069.0,33501104.0,1740676486.05,7463025000.0
sh688128,中国电研,2021-07-01,18.52,19.03,18.48,18.69,18.45,2426485.0,45458565.0,1763319432.21,7560105000.0
sh688128,中国电研,2021-07-02,18.67,19.74,18.66,19.04,18.69,4003150.0,77074682.0,1796340395.36,7701680000.0
sh688128,中国电研,2021-07-05,19.05,22.68,18.8,22.3,19.04,12110077.0,254961906.0,2103907080.7,9020350000.0
sh688128,中国电研,2021-07-06,21.6,25.33,21.55,23.95,22.3,13610203.0,320275197.0,2259577335.55,9687775000.0
sh688128,中国电研,2021-07-07,23.85,24.8,22.99,23.39,23.95,8729833.0,208805291.0,2206743794.51,9461255000.0
sh688128,中国电研,2021-07-08,23.03,23.5,20.92,22.9,23.39,15332956.0,341376311.0,2160514446.1,9263050000.0
sh688128,中国电研,2021-07-09,22.33,24.4,22.3,23.12,22.9,10642806.0,250221011.0,2181270480.08,9352040000.0
sh688128,中国电研,2021-07-12,23.1,24.1,22.4,23.86,23.12,8766403.0,202701961.0,2251086230.74,9651370000.0
sh688128,中国电研,2021-07-13,23.4,23.79,22.66,22.9,23.86,3344255.0,76871111.0,2160514446.1,9263050000.0
sh688128,中国电研,2021-07-14,23.3,23.3,21.79,22.45,22.9,5038747.0,112772004.0,2118058922.05,9081025000.0
sh688128,中国电研,2021-07-15,22.32,26.94,21.5,26.94,22.45,11623031.0,289154962.0,2541670706.46,10897230000.0
sh688128,中国电研,2021-07-16,26.94,30.18,26.88,28.99,26.94,16292389.0,462492873.0,2735079204.91,11726455000.0
sh688128,中国电研,2021-07-19,30.0,30.76,28.01,28.87,28.99,8990564.0,264276451.0,2723757731.83,11677915000.0
sh688128,中国电研,2021-07-20,29.12,31.55,27.58,30.45,28.87,6767923.0,197799180.0,2872823794.05,12317025000.0
sh688128,中国电研,2021-07-21,29.77,31.0,29.4,29.7,30.45,5331052.0,159424865.0,2802064587.3,12013650000.0
sh688128,中国电研,2021-07-22,29.91,30.9,29.13,29.32,29.7,4463363.0,133501921.0,2766213255.88,11859940000.0
sh688128,中国电研,2021-07-23,29.0,29.56,28.01,28.66,29.32,4447425.0,127542189.0,2703945153.94,11592970000.0
sh688128,中国电研,2021-07-26,28.65,28.78,26.6,27.27,28.66,5015736.0,138055965.0,2572804757.43,11030715000.0
sh688128,中国电研,2021-07-27,27.95,29.88,27.35,28.29,27.27,6410279.0,186547777.0,2669037278.61,11443305000.0
sh688128,中国电研,2021-07-28,27.9,28.18,24.36,25.97,28.29,4972014.0,130421498.0,2450155465.73,10504865000.0
sh688128,中国电研,2021-07-29,27.29,29.33,27.19,28.56,25.97,4632901.0,131976177.0,2694510593.04,11552520000.0
sh688128,中国电研,2021-07-30,28.53,30.16,27.44,29.3,28.56,5733574.0,164460779.0,2764326343.7,11851850000.0
sh688128,中国电研,2021-08-02,29.01,35.16,29.01,35.16,29.3,6433676.0,211896741.0,3317191612.44,14222220000.0
sh688128,中国电研,2021-08-03,34.32,39.05,34.32,36.82,35.16,7618947.0,280840477.0,3473805323.38,14893690000.0
sh688128,中国电研,2021-08-04,35.0,38.15,33.39,36.9,36.82,7872143.0,282696742.0,3481352972.1,14926050000.0
sh688128,中国电研,2021-08-05,36.99,36.99,34.0,35.58,36.9,6634243.0,237066152.0,3356816768.2200003,14392110000.0
sh688128,中国电研,2021-08-06,37.3,41.36,36.43,36.91,35.58,9246320.0,355256084.0,3482296428.19,14930095000.0
sh688128,中国电研,2021-08-09,37.4,37.47,34.0,35.99,36.91,6020481.0,214347661.0,3395498467.91,14557955000.0
sh688128,中国电研,2021-08-10,37.54,37.54,33.62,34.88,35.99,5049528.0,175478665.0,3290774841.92,14108960000.0
sh688128,中国电研,2021-08-11,34.0,36.88,33.7,35.09,34.88,6299929.0,221811705.0,3310587419.81,14193905000.0
sh688128,中国电研,2021-08-12,34.94,40.07,34.61,38.88,35.09,5806637.0,217569110.0,3668157277.92,15726960000.0
sh688128,中国电研,2021-08-13,39.24,39.92,36.63,38.31,38.88,4877157.0,185907863.0,3614380280.79,15496395000.0
sh688128,中国电研,2021-08-16,37.25,39.29,36.7,36.89,38.31,3669759.0,137828507.0,3480409516.01,14922005000.0
sh688128,中国电研,2021-08-17,36.68,37.8,36.13,37.1,36.89,2824802.0,104231436.0,3500222093.9,15006950000.0
sh688128,中国电研,2021-08-18,36.54,39.18,35.9,38.79,37.1,3578865.0,134911003.0,3659666173.11,15690555000.0
sh688128,中国电研,2021-08-19,38.73,38.73,35.88,37.36,38.79,2974630.0,110760402.0,3524751952.24,15112120000.0
sh688128,中国电研,2021-08-20,37.36,37.69,35.69,37.28,37.36,1930860.0,70788301.0,3517204303.52,15079760000.0
sh688128,中国电研,2021-08-23,37.81,39.88,36.63,39.64,37.28,3169082.0,122584257.0,3739859940.76,16034380000.0
sh688128,中国电研,2021-08-24,40.28,40.3,36.86,36.98,39.64,3091922.0,118562539.0,3488368108.82,14958410000.0
sh688128,中国电研,2021-08-25,37.22,38.19,36.48,37.58,36.98,2207342.0,82245318.0,3544966834.22,15201110000.0
sh688128,中国电研,2021-08-26,37.77,44.44,37.1,42.0,37.58,4634016.0,189608370.0,3961910778.000001,16989000000.0
sh688128,中国电研,2021-08-27,42.64,44.28,40.36,43.08,42.0,3664275.0,154545854.0,4063788483.72,17425860000.0
sh688128,中国电研,2021-08-30,44.0,50.88,44.0,46.4,43.08,5998957.0,286733272.0,4376968097.599999,18768800000.0
sh688128,中国电研,2021-08-31,46.5,51.04,46.33,48.78,46.4,5318706.0,260540231.0,4601476375.02,19731510000.0
sh688128,中国电研,2021-09-01,48.98,51.88,45.68,47.18,48.78,3934864.0,189408951.0,4450546440.62,19084310000.0
sh688128,中国电研,2021-09-02,46.55,48.55,45.82,46.1,47.18,4228789.0,198578831.0,4348668734.900001,18647450000.0
sh688128,中国电研,2021-09-03,46.99,47.33,40.88,43.1,46.1,5140495.0,222184947.0,4065675107.9,17433950000.0
sh688128,中国电研,2021-09-06,42.2,42.2,37.75,40.27,43.1,6965327.0,277105358.0,3798717786.43,16289215000.0
sh688128,中国电研,2021-09-07,40.19,40.79,38.83,40.5,40.27,3396344.0,135277137.0,3820413964.5,16382250000.0
sh688128,中国电研,2021-09-08,40.1,41.68,36.6,36.95,40.5,6060472.0,235026789.0,3485538172.55,14946275000.0
sh688128,中国电研,2021-09-09,36.88,37.31,34.45,35.9,36.95,7175876.0,252190355.0,3386490403.1,14521550000.0
sh688128,中国电研,2021-09-10,34.91,36.32,34.8,35.92,35.9,3146960.0,112322271.0,3388377027.28,14529640000.0
sh688128,中国电研,2021-09-13,35.79,35.81,33.41,34.74,35.92,4375789.0,149765221.0,3277066200.66,14052330000.0
sh688128,中国电研,2021-09-14,34.46,36.58,34.27,34.88,34.74,3925024.0,138285173.0,3290272569.92,14108960000.0
sh688128,中国电研,2021-09-15,34.46,35.55,33.85,35.1,34.88,2593749.0,90194572.0,3311025435.9,14197950000.0
sh688128,中国电研,2021-09-16,34.5,35.4,32.4,32.8,35.1,3177276.0,106484107.0,3094063655.2,13267600000.0
sh688128,中国电研,2021-09-17,33.03,34.5,31.83,33.53,32.8,3788609.0,126818626.0,3162925437.77,13562885000.0
sh688128,中国电研,2021-09-22,33.0,34.45,32.19,33.79,33.53,2807970.0,93603859.0,3187451552.11,13668055000.0
sh688128,中国电研,2021-09-23,34.38,34.43,32.18,32.52,33.79,2169559.0,71655794.0,3067650916.68,13154340000.0
sh688128,中国电研,2021-09-24,32.29,33.25,31.99,32.25,32.52,1734757.0,56631548.0,3042181490.25,13045125000.0
sh688128,中国电研,2021-09-27,30.2,31.17,28.75,30.35,32.25,4967314.0,149413219.0,2862952193.15,12276575000.0
sh688128,中国电研,2021-09-28,30.35,31.21,29.2,29.47,30.35,2985158.0,90091150.0,2779940729.2300005,11920615000.0
sh688128,中国电研,2021-09-29,30.05,30.08,26.7,27.41,29.47,4720583.0,131136908.0,2585618438.69,11087345000.0
sh688128,中国电研,2021-09-30,28.53,29.78,27.12,29.23,27.41,4167413.0,120541046.0,2757301239.07,11823535000.0
sh688128,中国电研,2021-10-08,29.88,30.5,27.79,28.82,29.23,3087003.0,88770868.0,2718625443.38,11657690000.0
sh688128,中国电研,2021-10-11,29.5,29.5,27.73,28.72,28.82,1254629.0,35865436.0,2709192322.48,11617240000.0
sh688128,中国电研,2021-10-12,29.2,29.2,27.68,28.15,28.72,1550693.0,43733896.0,2655423533.35,11386675000.0
sh688128,中国电研,2021-10-13,28.14,28.68,27.76,28.55,28.15,965041.0,27300255.0,2693156016.9500003,11548475000.0
sh688128,中国电研,2021-10-14,29.46,31.08,28.54,29.84,28.55,2664023.0,79864060.0,2814843276.56,12070280000.0
sh688128,中国电研,2021-10-15,29.89,31.19,29.0,30.65,29.84,2896364.0,87657099.0,2891251555.85,12397925000.0
sh688128,中国电研,2021-10-18,30.16,30.5,28.6,29.5,30.65,2531263.0,74373267.0,2782770665.5,11932750000.0
sh688128,中国电研,2021-10-19,29.6,30.25,28.96,29.98,29.5,2077222.0,61729456.0,2828049645.82,12126910000.0
sh688128,中国电研,2021-10-20,30.26,30.95,29.26,30.21,29.98,3136745.0,94470269.0,2849745823.89,12219945000.0
sh688128,中国电研,2021-10-21,30.21,30.28,28.5,28.75,30.21,2605195.0,75666594.0,2712022258.75,11629375000.0
sh688128,中国电研,2021-10-22,28.0,29.1,27.56,27.6,28.75,2397360.0,67575066.0,2603541368.4,11164200000.0
sh688128,中国电研,2021-10-25,28.53,29.8,27.51,28.14,27.6,3704533.0,106397186.0,2654480221.26,11382630000.0
sh688128,中国电研,2021-10-26,28.33,29.7,27.41,27.8,28.14,3767473.0,106697143.0,2622407610.2,11245100000.0
sh688128,中国电研,2021-10-27,27.37,27.97,26.38,26.93,27.8,3353773.0000000005,90020607.0,2530240708.37,10893185000.0
sh688128,中国电研,2021-10-28,26.78,26.85,25.88,26.1,26.93,2026877.0,53277446.0,2462044554.9,10557450000.0
sh688128,中国电研,2021-10-29,26.07,27.0,25.72,26.48,26.1,1774493.0,46671954.0,2497890414.32,10711160000.0
sh688128,中国电研,2021-11-01,27.48,29.48,27.1,28.66,26.48,4546648.0,129207948.0,2703532449.94,11592970000.0
sh688128,中国电研,2021-11-02,28.87,29.8,27.9,28.65,28.66,2916894.0,83313004.0,2702589137.85,11588925000.0
sh688128,中国电研,2021-11-03,28.53,32.58,28.53,29.51,28.65,7674099.0,233827134.0,2783713977.59,11936795000.0
sh688128,中国电研,2021-11-04,30.35,31.33,28.87,30.82,29.51,7308568.0,222883281.0,2907287861.38,12466690000.0
sh688128,中国电研,2021-11-05,30.86,32.18,30.14,30.9,30.82,5046994.0,157403741.0,2980614000.0,12499050000.0
sh688128,中国电研,2021-11-08,30.79,32.43,30.4,31.36,30.9,5406743.0,169264064.0,3024985600.0,12685120000.0
sh688128,中国电研,2021-11-09,31.56,32.88,29.6,30.22,31.36,7658778.0,239632685.0,2915021200.0,12223990000.0
sh688128,中国电研,2021-11-10,30.35,32.23,29.6,30.8,30.22,7642978.0,237985665.0,2970968000.0,12458600000.0
sh688128,中国电研,2021-11-11,30.31,31.23,29.0,29.2,30.8,6915822.0,206019442.0,2816632000.0,11811400000.0
sh688128,中国电研,2021-11-12,29.24,31.25,29.24,30.91,29.2,5417417.0,164043426.0,2981578600.0,12503095000.0
sh688128,中国电研,2021-11-15,31.71,31.98,29.32,29.73,30.91,4441729.0,132610092.0,2867755800.0,12025785000.0
sh688128,中国电研,2021-11-16,29.74,29.75,27.82,27.97,29.73,4543045.0,129034822.0,2697986200.0,11313865000.0
sh688128,中国电研,2021-11-17,27.9,30.33,27.82,30.15,27.97,5610674.0,165726452.0,2908269000.0,12195675000.0
sh688128,中国电研,2021-11-18,29.96,32.48,29.65,31.68,30.15,5698667.0,178050876.0,3055852800.0000005,12814560000.0
sh688128,中国电研,2021-11-19,31.9,32.0,30.53,31.23,31.68,4616666.0,143621771.0,3012445800.0,12632535000.0
sh688128,中国电研,2021-11-22,31.2,31.7,30.41,31.5,31.23,5123034.0,159279488.0,3038490000.0,12741750000.0
sh688128,中国电研,2021-11-23,31.56,35.07,31.12,34.75,31.5,10590900.0,351683881.0,3351985000.0,14056375000.0
sh688128,中国电研,2021-11-24,34.9,36.48,33.98,35.34,34.75,9827736.0,346422935.0,3408896400.0,14295030000.0
sh688128,中国电研,2021-11-25,35.5,37.91,34.61,35.79,35.34,8705011.0,316883029.0,3452303400.0000005,14477055000.0
sh688128,中国电研,2021-11-26,35.61,37.0,34.69,36.21,35.79,6056646.0,216230239.0,3492816599.9999995,14646945000.0
sh688128,中国电研,2021-11-29,35.41,36.55,35.02,35.98,36.21,4819814.0,172478463.0,3470630800.0,14553910000.0
sh688128,中国电研,2021-11-30,35.77,36.21,34.6,34.85,35.98,5186031.0,182565556.0,3361631000.0,14096825000.0
sh688128,中国电研,2021-12-01,34.82,35.15,33.95,35.12,34.85,3842115.0,132860266.0,3387675200.0,14206040000.0
sh688128,中国电研,2021-12-02,35.3,41.3,35.2,39.06,35.12,12752739.0,485634622.0,3767727600.0,15799770000.0
sh688128,中国电研,2021-12-03,39.1,40.88,38.48,39.66,39.06,6877387.0,273141856.0,3825603600.0,16042470000.0
sh688128,中国电研,2021-12-06,39.3,39.63,36.8,37.03,39.66,5294838.0,200278639.0,3571913800.0,14978635000.0
sh688128,中国电研,2021-12-07,37.4,37.7,33.68,35.08,37.03,5705250.0,198998943.0,3383816800.0,14189860000.0
sh688128,中国电研,2021-12-08,35.53,35.95,34.56,35.11,35.08,3775569.0,132422820.0,3386710600.0,14201995000.0
sh688128,中国电研,2021-12-09,35.79,39.18,35.79,36.5,35.11,8219339.0,309080018.0,3520790000.0,14764250000.0
sh688128,中国电研,2021-12-10,36.19,37.89,35.15,37.12,36.5,4149875.0,151084283.0,3580595200.0,15015040000.0
sh688128,中国电研,2021-12-13,37.09,37.15,34.86,34.88,37.12,5339266.0,190139287.0,3364524800.0,14108960000.0
sh688128,中国电研,2021-12-14,35.18,35.18,31.61,33.1,34.88,8681204.0,283103327.0,3192826000.0,13388950000.0
sh688128,中国电研,2021-12-15,32.54,33.3,32.2,32.69,33.1,3501871.0,114648311.0,3153277400.0,13223105000.0
sh688128,中国电研,2021-12-16,32.51,33.22,32.09,32.83,32.69,2848356.0,93034421.0,3166781800.0,13279735000.0
sh688128,中国电研,2021-12-17,32.84,32.9,31.67,31.81,32.83,2213801.0,71531585.0,3068392600.0,12867145000.0
sh688128,中国电研,2021-12-20,31.84,32.0,29.75,30.04,31.81,4345120.0,133208484.0,2897658400.0000005,12151180000.0
sh688128,中国电研,2021-12-21,30.55,30.66,29.18,29.94,30.04,2655925.0,79396659.0,2888012400.0,12110730000.0
sh688128,中国电研,2021-12-22,29.94,30.23,28.81,29.7,29.94,3179248.0,93636867.0,2864862000.0,12013650000.0
sh688128,中国电研,2021-12-23,29.7,30.1,28.53,30.0,29.7,3303043.0,96609811.0,2893800000.0,12135000000.0
sh688128,中国电研,2021-12-24,29.92,30.07,28.2,28.21,30.0,3548375.0,102850551.0,2721136599.9999995,11410945000.0
sh688128,中国电研,2021-12-27,28.18,29.1,27.7,28.71,28.21,2704788.0,77662022.0,2769366599.9999995,11613195000.0
sh688128,中国电研,2021-12-28,28.71,29.19,28.44,29.04,28.71,1858420.0,53663209.0,2801198400.0000005,11746680000.0
sh688128,中国电研,2021-12-29,29.0,29.68,28.65,29.32,29.04,1588365.0,46315002.0,2828207199.9999995,11859940000.0
sh688128,中国电研,2021-12-30,29.25,29.52,28.95,29.05,29.32,2040029.0,59481519.0,2802163000.0,11750725000.0
sh688128,中国电研,2021-12-31,28.91,29.97,28.91,29.56,29.05,1966609.0,58135994.0,2851357600.0,11957020000.0
sh688128,中国电研,2022-01-04,29.6,31.21,29.39,30.91,29.56,4003266.0,122732410.0,2981578600.0,12503095000.0
sh688128,中国电研,2022-01-05,30.9,30.93,29.79,30.22,30.91,2228418.0,67468670.0,2915021200.0,12223990000.0
sh688128,中国电研,2022-01-06,30.58,31.46,30.0,31.2,30.22,2937507.0,91487075.0,3009552000.0,12620400000.0
sh688128,中国电研,2022-01-07,30.91,31.85,30.17,30.43,31.2,2639225.0,81314077.0,2935277800.0000005,12308935000.0
sh688128,中国电研,2022-01-10,30.36,31.18,29.82,31.03,30.43,1634436.0,50263757.0,2993153800.0,12551635000.0
sh688128,中国电研,2022-01-11,31.06,31.8,30.0,30.15,31.03,1811528.0,56303816.0,2908269000.0,12195675000.0
sh688128,中国电研,2022-01-12,30.88,30.88,29.45,29.6,30.15,1918074.0,57144046.0,2855216000.0,11973200000.0
sh688128,中国电研,2022-01-13,30.08,30.08,28.6,28.71,29.6,1718407.0,49795385.0,2769366599.9999995,11613195000.0
sh688128,中国电研,2022-01-14,28.7,29.37,28.17,28.92,28.71,1331077.0,38588601.0,2789623200.0,11698140000.0
