数据由邢不行整理
股票代码,股票名称,交易日期,开盘价,最高价,最低价,收盘价,前收盘价,成交量,成交额,流通市值,总市值
sh688687,N凯因,2021-02-08,59.0,70.0,41.99,42.0,18.98,27940382.0,1471211503.0,1622195274.0,7132793724.0
sh688687,凯因科技,2021-02-09,40.2,40.97,31.72,32.12,42.0,18593877.0,660665371.0,1240593147.64,5454888914.639999
sh688687,凯因科技,2021-02-10,32.66,34.6,31.83,32.75,32.12,10218765.0,340790918.0,1264926076.75,5561880820.5
sh688687,凯因科技,2021-02-18,33.39,34.09,31.85,31.93,32.75,7904463.0,259824563.0,1233254645.21,5422621514.46
sh688687,凯因科技,2021-02-19,31.48,31.8,29.55,30.21,31.93,7301309.0,220937229.0,1166821886.37,5130516628.62
sh688687,凯因科技,2021-02-22,30.21,31.06,29.99,30.16,30.21,5306603.0,161421618.0,1164890701.52,5122025207.52
sh688687,凯因科技,2021-02-23,29.95,29.99,29.03,29.18,30.16,4633677.0,135971018.0,1127039478.46,4955593353.96
sh688687,凯因科技,2021-02-24,29.87,30.46,29.23,29.49,29.18,3792180.0,113176468.0,1139012824.53,5008240164.78
sh688687,凯因科技,2021-02-25,29.89,30.89,29.88,30.51,29.49,4657687.0,141809780.0,1178408995.47,5181465155.219999
sh688687,凯因科技,2021-02-26,30.13,30.57,29.75,30.2,30.51,3365782.0,101377146.0,1166435649.4,5128818344.4
sh688687,凯因科技,2021-03-01,31.03,31.03,30.03,30.26,30.2,2420098.0,73415264.0,1168753071.22,5139008049.72
sh688687,凯因科技,2021-03-02,30.47,30.47,29.07,29.1,30.26,3126532.0,92221830.0,1123949582.7,4942007080.2
sh688687,凯因科技,2021-03-03,29.01,29.19,28.21,28.71,29.1,2617419.0,74738142.0,1108886340.87,4875773995.62
sh688687,凯因科技,2021-03-04,28.63,28.9,27.6,27.67,28.71,2744221.0,77377827.0,1068717695.99,4699152436.740001
sh688687,凯因科技,2021-03-05,27.6,28.74,27.16,28.21,27.67,2932976.0,82096711.0,1089574492.37,4790859784.62
sh688687,凯因科技,2021-03-08,28.32,30.44,28.32,29.36,28.21,4642430.0,138054505.0,1133991743.92,4986162469.92
sh688687,凯因科技,2021-03-09,29.2,29.21,27.6,27.83,29.36,2477908.0,69974003.0,1074897487.51,4726324984.26
sh688687,凯因科技,2021-03-10,28.28,28.44,26.75,26.78,27.83,2508275.0,68101947.0,1034342605.66,4548005141.16
sh688687,凯因科技,2021-03-11,26.89,27.17,26.83,27.0,26.78,1450239.0,39139752.0,1042839819.0,4585367394.0
sh688687,凯因科技,2021-03-12,27.0,27.27,26.0,26.0,27.0,2159460.0,57492614.0,1004216122.0,4415538972.0
sh688687,凯因科技,2021-03-15,25.91,26.44,25.52,25.62,26.0,1619006.0,41756674.0,989539117.14,4351004171.639999
sh688687,凯因科技,2021-03-16,25.62,26.25,25.35,26.24,25.62,1617354.0,41732025.0,1013485809.28,4456297793.28
sh688687,凯因科技,2021-03-17,26.2,26.38,25.91,26.16,26.24,1415490.0,36990872.0,1010395913.52,4442711519.52
sh688687,凯因科技,2021-03-18,26.13,26.53,26.04,26.28,26.16,1078586.0,28315119.0,1015030757.16,4463090930.16
sh688687,凯因科技,2021-03-19,26.2,27.23,25.85,26.63,26.28,2037597.0,54447331.0,1028549051.11,4522530877.86
sh688687,凯因科技,2021-03-22,26.62,27.27,26.58,27.05,26.63,1520589.0,41069441.0,1044771003.85,4593858815.099999
sh688687,凯因科技,2021-03-23,27.34,27.34,26.33,26.48,27.05,1291330.0,34490944.0,1022755496.56,4497056614.56
sh688687,凯因科技,2021-03-24,26.55,26.69,25.85,25.95,26.48,1138552.0,29853849.0,1002284937.15,4407047550.9
sh688687,凯因科技,2021-03-25,26.0,26.1,25.58,25.61,25.95,931651.0,23984895.0,989152880.17,4349305887.42
sh688687,凯因科技,2021-03-26,25.65,26.05,25.58,25.92,25.61,840028.0,21733817.0,1001126226.24,4401952698.24
sh688687,凯因科技,2021-03-29,26.0,26.0,25.36,25.62,25.92,1097034.0,28098667.0,989539117.14,4351004171.639999
sh688687,凯因科技,2021-03-30,25.68,25.69,25.37,25.49,25.62,701283.0,17850988.0,984518036.53,4328926476.78
sh688687,凯因科技,2021-03-31,25.38,25.67,25.3,25.31,25.49,930987.0,23661952.0,977565771.07,4298357360.820001
sh688687,凯因科技,2021-04-01,25.35,25.36,24.98,25.09,25.31,1325848.0,33311269.0,969068557.73,4260995107.98
sh688687,凯因科技,2021-04-02,25.1,25.55,25.09,25.53,25.09,1275016.0,32371966.0,986062984.41,4335719613.66
sh688687,凯因科技,2021-04-06,25.53,25.73,25.39,25.64,25.53,826418.0,21130760.0,990311591.08,4354400740.08
sh688687,凯因科技,2021-04-07,25.72,25.8,25.42,25.77,25.64,844829.0,21655700.0,995332671.69,4376478434.94
sh688687,凯因科技,2021-04-08,25.76,26.69,25.75,26.12,25.77,2008608.0,53023637.0,1008850965.64,4435918382.64
sh688687,凯因科技,2021-04-09,26.24,26.46,25.82,25.88,26.12,1119503.0,29230739.0,999581278.36,4395159561.36
sh688687,凯因科技,2021-04-12,25.88,25.89,25.25,25.39,25.88,958744.0,24454529.0,980655666.83,4311943634.58
sh688687,凯因科技,2021-04-13,25.29,25.73,25.13,25.4,25.39,993157.0,25343107.0,981041903.8,4313641918.8
sh688687,凯因科技,2021-04-14,25.26,25.64,25.26,25.46,25.4,951176.0,24205498.0,983359325.62,4323831624.12
sh688687,凯因科技,2021-04-15,25.39,25.47,25.05,25.14,25.46,919738.0,23163080.0,970999742.58,4269486529.08
sh688687,凯因科技,2021-04-16,25.14,26.95,25.13,26.34,25.14,2835847.0,74722565.0,1017348178.98,4473280635.4800005
sh688687,凯因科技,2021-04-19,26.36,29.76,26.33,29.12,26.34,5482233.0,155265097.0,1124722056.64,4945403648.64
sh688687,凯因科技,2021-04-20,29.06,29.86,28.11,28.69,29.12,3481166.0,100468679.0,1108113866.9299998,4872377427.18
sh688687,凯因科技,2021-04-21,28.2,28.78,27.0,27.61,28.69,2704271.0,75726333.0,1066400274.17,4688962731.42
sh688687,凯因科技,2021-04-22,27.14,28.57,27.14,28.34,27.61,2896300.0,81138695.0,1094595572.98,4812937479.48
sh688687,凯因科技,2021-04-23,28.38,28.38,27.41,27.49,28.34,2160406.0,59992168.0,1061765430.53,4668583320.78
sh688687,凯因科技,2021-04-26,27.65,29.54,27.5,29.25,27.49,4772701.0,137953301.0,1129743137.25,4967481343.5
sh688687,凯因科技,2021-04-27,29.32,33.97,28.4,33.1,29.25,8677575.0,271350050.0,1278444370.7,5621320768.2
sh688687,凯因科技,2021-04-28,32.32,34.95,31.16,33.45,33.1,7781697.0,258460417.0,1291962664.65,5680760715.9
sh688687,凯因科技,2021-04-29,33.8,34.64,32.36,32.56,33.45,5305801.0,177342831.0,1257587574.32,5529613420.32
sh688687,凯因科技,2021-04-30,32.57,36.5,32.51,34.88,32.56,7458695.0,258569394.0,1347194551.36,5923615359.36
sh688687,凯因科技,2021-05-06,35.5,35.8,33.5,34.35,34.88,4879150.0,168134826.0,1326723991.95,5833606295.7
sh688687,凯因科技,2021-05-07,34.31,34.6,31.4,31.55,34.35,5857937.0,189590947.0,1218577640.35,5358086714.099999
sh688687,凯因科技,2021-05-10,31.68,34.49,31.68,33.33,31.55,3939086.0,131838865.0,1287327821.01,5660381305.26
sh688687,凯因科技,2021-05-11,33.49,34.15,30.5,30.98,33.33,3542997.0,112559248.0,1196562133.06,5261284513.56
sh688687,凯因科技,2021-05-12,30.32,31.58,30.31,31.12,30.98,2360306.0,73419879.0,1201969450.64,5285060492.64
sh688687,凯因科技,2021-05-13,30.89,32.66,30.82,31.32,31.12,2155566.0,68670572.0,1209694190.04,5319026177.04
sh688687,凯因科技,2021-05-14,31.27,32.8,31.11,32.27,31.32,2749244.0,88636230.0,1246386702.19,5480363177.940001
sh688687,凯因科技,2021-05-17,32.06,34.46,30.69,33.3,32.27,3870248.0,125888322.0,1286169110.1,5655286452.6
sh688687,凯因科技,2021-05-18,33.01,38.13,32.55,37.06,33.3,6538546.0,233796326.0,1431394210.82,6293841319.320001
sh688687,凯因科技,2021-05-19,36.73,37.4,36.03,36.18,37.06,4353468.0,159240752.0,1397405357.46,6144392307.96
sh688687,凯因科技,2021-05-20,35.6,37.28,35.55,36.01,36.18,3135144.0,114552780.0,1390839328.97,6115521476.219999
sh688687,凯因科技,2021-05-21,35.5,36.31,34.1,34.28,36.01,3322345.0,115618983.0,1324020333.1599998,5821718306.16
sh688687,凯因科技,2021-05-24,34.22,35.18,33.71,34.54,34.28,1968308.0,67639173.0,1334062494.38,5865873695.88
sh688687,凯因科技,2021-05-25,35.18,36.34,34.72,36.17,34.54,3706770.0,132474354.0,1397019120.49,6142694023.740001
sh688687,凯因科技,2021-05-26,35.72,36.42,34.91,35.25,36.17,2150658.0,76046762.0,1361485319.25,5986451875.5
sh688687,XD凯因科,2021-05-27,35.1,36.35,34.28,35.69,35.1,2317374.0,82072171.0,1378479745.9299998,6061176381.18
sh688687,凯因科技,2021-05-28,35.7,37.57,35.53,36.8,35.69,3509608.0,129238600.0,1421352049.6,6249685929.6
sh688687,凯因科技,2021-05-31,37.66,37.66,36.1,36.8,36.8,2772268.0,101903188.0,1421352049.6,6249685929.6
sh688687,凯因科技,2021-06-01,36.98,37.44,34.56,35.53,36.8,3656782.0,130782103.0,1372299954.41,6034003833.66
sh688687,凯因科技,2021-06-02,35.18,35.95,32.22,32.45,35.53,4169914.0,141538775.0,1253338967.65,5510932293.9
sh688687,凯因科技,2021-06-03,32.63,33.34,31.97,31.98,32.45,2822952.0,92541944.0,1235185830.06,5431112935.559999
sh688687,凯因科技,2021-06-04,31.9,32.39,31.51,31.82,31.98,1959263.0,62428444.0,1229006038.54,5403940388.04
sh688687,凯因科技,2021-06-07,31.78,32.84,31.49,32.31,31.82,1552984.0,50021667.0,1247931650.07,5487156314.82
sh688687,凯因科技,2021-06-08,32.1,32.46,30.9,31.26,32.31,1992049.0,62877068.0,1207376768.22,5308836471.72
sh688687,凯因科技,2021-06-09,31.3,32.58,30.44,32.46,31.26,2335837.0,73439695.0,1253725204.62,5512630578.120001
sh688687,凯因科技,2021-06-10,32.4,32.69,31.8,31.89,32.46,1386932.0,44388734.0,1231709697.3300002,5415828377.58
sh688687,凯因科技,2021-06-11,31.82,31.89,30.46,30.69,31.89,1832205.0,56570414.0,1185361260.93,5212034271.18
sh688687,凯因科技,2021-06-15,30.5,31.39,29.26,30.89,30.69,1818498.0,55075878.0,1193086000.33,5245999955.580001
sh688687,凯因科技,2021-06-16,30.75,31.02,30.01,30.29,30.89,865205.0,26313708.0,1169911782.13,5144102902.38
sh688687,凯因科技,2021-06-17,30.31,30.77,29.94,30.09,30.29,904114.0,27288149.0,1162187042.73,5110137217.98
sh688687,凯因科技,2021-06-18,30.09,30.74,30.03,30.3,30.09,824937.0,25058714.0,1170298019.1,5145801186.599999
sh688687,凯因科技,2021-06-21,30.35,30.75,30.02,30.4,30.3,1200939.0,36476274.0,1174160388.8,5162784028.8
sh688687,凯因科技,2021-06-22,30.6,32.4,30.4,32.02,30.4,2519085.0,79683361.0,1236730777.94,5437906072.44
sh688687,凯因科技,2021-06-23,31.78,32.81,31.47,31.64,32.02,1524238.0,48697108.0,1222053773.08,5373371272.080001
sh688687,凯因科技,2021-06-24,31.66,32.17,30.9,31.21,31.64,1097614.0,34481197.0,1205445583.37,5300345050.62
sh688687,凯因科技,2021-06-25,31.48,31.48,29.97,30.11,31.21,1874141.0,56913961.0,1162959516.67,5113533786.42
sh688687,凯因科技,2021-06-28,30.11,31.19,30.09,30.7,30.11,1810038.0,55644872.0,1185747497.9,5213732555.4
sh688687,凯因科技,2021-06-29,30.7,31.26,29.63,29.69,30.7,1598624.0,48138445.0,1146737563.93,5042205849.179999
sh688687,凯因科技,2021-06-30,30.03,30.16,28.71,29.0,29.69,1563085.0,45723187.0,1120087213.0,4925024238.0
sh688687,凯因科技,2021-07-01,29.27,30.58,28.72,29.85,29.0,2230645.0,66766527.0,1152917355.45,5069378396.7
sh688687,凯因科技,2021-07-02,29.82,29.82,28.76,28.92,29.85,1163591.0,33730262.0,1116997317.24,4911437964.24
sh688687,凯因科技,2021-07-05,28.92,29.26,28.06,28.44,28.92,1187133.0,33818007.0,1098457942.68,4829920321.68
sh688687,凯因科技,2021-07-06,28.1,28.33,27.16,27.65,28.44,1770095.0,48960495.0,1067945222.05,4695755868.3
sh688687,凯因科技,2021-07-07,27.64,28.35,27.29,27.9,27.65,834102.0,23297493.0,1077601146.3,4738212973.8
sh688687,凯因科技,2021-07-08,27.95,28.0,27.57,27.96,27.9,1022544.0,28365817.0,1079918568.12,4748402679.12
sh688687,凯因科技,2021-07-09,27.96,28.95,27.88,28.65,27.96,1517328.0,43342478.0,1106568919.05,4865584290.3
sh688687,凯因科技,2021-07-12,28.41,29.33,28.4,28.99,28.65,1058035.0,30568632.0,1119700976.03,4923325953.78
sh688687,凯因科技,2021-07-13,29.01,29.2,28.62,28.88,28.99,660729.0,19025965.0,1115452369.36,4904644827.36
sh688687,凯因科技,2021-07-14,28.56,29.26,28.56,29.1,28.88,900804.0,26153639.0,1123949582.7,4942007080.2
sh688687,凯因科技,2021-07-15,29.05,29.12,28.01,28.16,29.1,1183490.0,33510574.0,1087643307.52,4782368363.52
sh688687,凯因科技,2021-07-16,28.1,28.52,27.7,27.94,28.16,817139.0,22833383.0,1079146094.1799998,4745006110.68
sh688687,凯因科技,2021-07-19,27.73,28.12,27.51,27.8,27.94,645568.0,17944176.0,1073738776.6,4721230131.599999
sh688687,凯因科技,2021-07-20,27.82,28.58,27.79,28.09,27.8,593385.0,16709064.0,1084939648.73,4770480373.9800005
sh688687,凯因科技,2021-07-21,28.0,28.45,28.0,28.01,28.09,863652.0,24337713.0,1081849752.97,4756894100.22
sh688687,凯因科技,2021-07-22,28.1,28.1,27.31,27.4,28.01,1233139.0,33845916.0,1058289297.8,4653298762.8
sh688687,凯因科技,2021-07-23,27.4,27.46,26.81,26.84,27.4,1080139.0,29169774.0,1036660027.48,4558194846.48
sh688687,凯因科技,2021-07-26,26.77,26.8,25.7,25.99,26.84,954629.0,24966331.0,1003829885.03,4413840687.78
sh688687,凯因科技,2021-07-27,25.99,26.58,25.69,25.71,25.99,815391.0,21210462.0,993015249.87,4366288729.62
sh688687,凯因科技,2021-07-28,25.68,26.22,25.02,25.7,25.71,829915.0,21251825.0,992629012.9,4364590445.4
sh688687,凯因科技,2021-07-29,26.17,26.2,25.62,25.83,25.7,813146.0,21083346.0,997650093.51,4386668140.26
sh688687,凯因科技,2021-07-30,25.7,27.28,25.22,27.06,25.83,1557033.0,41040134.0,1045157240.82,4595557099.320001
sh688687,凯因科技,2021-08-02,27.2,27.52,26.68,27.19,27.06,1371664.0,37233873.0,1050178321.43,4617634794.179999
sh688687,凯因科技,2021-08-03,27.3,28.57,27.03,28.09,27.19,1767041.0,49578545.0,1084939648.73,4770480373.9800005
sh688687,凯因科技,2021-08-04,28.34,28.4,27.6,27.79,28.09,1029674.0,28649426.0,1073352539.63,4719531847.38
sh688687,凯因科技,2021-08-05,27.56,29.8,27.56,29.19,27.79,3054163.0,89164504.0,1127425715.43,4957291638.18
sh688687,凯因科技,2021-08-06,29.34,29.49,28.54,29.27,29.19,1632799.0,47230981.0,1130515611.19,4970877911.94
sh688687,凯因科技,2021-08-09,29.59,29.6,28.4,28.7,29.27,1783563.0,51246653.0,1158117295.3,4874075711.400001
sh688687,凯因科技,2021-08-10,28.42,29.0,28.42,28.6,28.7,1100145.0,31572692.0,1154082043.4,4857092869.2
sh688687,凯因科技,2021-08-11,28.78,28.8,28.01,28.2,28.6,1304473.0,36882805.0,1137941035.8,4789161500.4
sh688687,凯因科技,2021-08-12,28.28,28.6,28.0,28.24,28.2,797591.0,22532009.0,1139555136.56,4795954637.28
sh688687,凯因科技,2021-08-13,28.0,28.26,27.68,27.9,28.24,1004480.0,27987995.0,1125835280.1,4738212973.8
sh688687,凯因科技,2021-08-16,27.65,28.38,27.39,27.9,27.9,1190172.0,33371010.0,1125835280.1,4738212973.8
sh688687,凯因科技,2021-08-17,28.16,28.42,27.51,27.76,27.9,1224546.0,34224273.0,1120185927.44,4714436994.72
sh688687,凯因科技,2021-08-18,27.76,27.76,25.91,26.16,27.76,2245516.0,59283157.0,1055621897.04,4442711519.52
sh688687,凯因科技,2021-08-19,26.03,26.38,26.02,26.3,26.16,585791.0,15366009.0,1061271249.7,4466487498.599999
sh688687,凯因科技,2021-08-20,26.31,26.31,25.57,25.91,26.3,857696.0,22143729.0,1045533767.29,4400254414.02
sh688687,凯因科技,2021-08-23,25.91,26.55,25.91,26.22,25.91,845567.0,22179505.0,1058043048.18,4452901224.84
sh688687,凯因科技,2021-08-24,26.42,26.68,26.3,26.41,26.22,852498.0,22553430.0,1065710026.79,4485168625.02
sh688687,凯因科技,2021-08-25,26.65,27.35,26.31,27.15,26.41,1379172.0,37287953.0,1095570890.85,4610841657.3
sh688687,凯因科技,2021-08-26,27.15,27.25,26.6,26.91,27.15,792244.0,21302587.0,1085886286.29,4570082836.02
sh688687,凯因科技,2021-08-27,27.04,27.04,26.05,26.12,26.91,903758.0,23822569.0,1054007796.28,4435918382.64
sh688687,凯因科技,2021-08-30,26.12,26.4,25.71,25.92,26.12,713004.0,18457174.0,1045937292.48,4401952698.24
sh688687,凯因科技,2021-08-31,26.06,26.18,25.4,25.91,25.92,753175.0,19373806.0,1045533767.29,4400254414.02
sh688687,凯因科技,2021-09-01,25.91,26.08,25.41,25.99,25.91,743783.0,19173632.0,1048761968.81,4413840687.78
sh688687,凯因科技,2021-09-02,25.99,26.2,25.82,26.12,25.99,662423.0,17259155.0,1054007796.28,4435918382.64
sh688687,凯因科技,2021-09-03,26.4,27.07,26.15,26.83,26.12,1045607.0,28002057.0,1082658084.77,4556496562.26
sh688687,凯因科技,2021-09-06,26.85,27.77,26.85,27.62,26.83,1288788.0,35433636.0,1114536574.78,4690661015.64
sh688687,凯因科技,2021-09-07,27.9,27.9,27.25,27.58,27.62,668812.0,18344179.0,1112922474.02,4683867878.76
sh688687,凯因科技,2021-09-08,27.58,27.68,26.91,27.15,27.58,936141.0,25437023.0,1095570890.85,4610841657.3
sh688687,凯因科技,2021-09-09,27.0,27.3,26.71,26.85,27.15,648508.0,17464841.0,1083465135.15,4559893130.7
sh688687,凯因科技,2021-09-10,26.73,27.15,26.51,26.53,26.85,1083801.0,28968861.0,1070552329.07,4505548035.66
sh688687,凯因科技,2021-09-13,26.75,26.83,26.28,26.64,26.53,703276.0,18693333.0,1074991106.16,4524229162.08
sh688687,凯因科技,2021-09-14,26.62,27.12,26.26,26.4,26.64,797407.0,21174331.0,1065306501.6,4483470340.8
sh688687,凯因科技,2021-09-15,26.57,26.58,25.45,25.59,26.4,1482051.0,38049157.0,1032620961.21,4345909318.9800005
sh688687,凯因科技,2021-09-16,25.74,27.17,25.3,25.37,25.59,2457653.0,64331047.0,1023743407.03,4308547066.14
sh688687,凯因科技,2021-09-17,25.45,25.98,25.21,25.7,25.37,834822.0,21359510.0,1037059738.3,4364590445.4
sh688687,凯因科技,2021-09-22,25.57,25.98,24.88,25.32,25.7,643027.0,16296464.0,1021725781.08,4300055645.04
sh688687,凯因科技,2021-09-23,25.32,25.6,25.03,25.09,25.32,867816.0,21945024.0,1012444701.71,4260995107.98
sh688687,凯因科技,2021-09-24,25.13,25.23,24.92,24.98,25.09,706667.0,17661380.0,1008005924.62,4242313981.56
sh688687,凯因科技,2021-09-27,24.92,25.09,24.24,24.59,24.98,711440.0,17536901.0,992268442.21,4176080896.98
sh688687,凯因科技,2021-09-28,24.59,24.74,24.26,24.4,24.59,390965.0,9538924.0,984601463.6,4143813496.8
sh688687,凯因科技,2021-09-29,24.32,24.33,23.55,23.74,24.4,638354.0,15220420.0,957968801.06,4031726738.28
sh688687,凯因科技,2021-09-30,23.65,23.9,23.65,23.72,23.74,455469.0,10830288.0,957161750.68,4028330169.84
sh688687,凯因科技,2021-10-08,23.98,24.73,23.81,24.55,23.72,826239.0,20226222.0,990654341.45,4169287760.1
sh688687,凯因科技,2021-10-11,24.72,24.82,24.34,24.68,24.55,245369.0,6023976.0,995900168.92,4191365454.96
sh688687,凯因科技,2021-10-12,24.68,24.68,24.0,24.16,24.68,489861.0,11855842.0,974916859.04,4103054675.52
sh688687,凯因科技,2021-10-13,24.29,24.44,23.99,24.11,24.16,380615.0,9192508.0,972899233.09,4094563254.42
sh688687,凯因科技,2021-10-14,24.13,24.29,23.93,24.18,24.11,273741.0,6605919.0,975723909.42,4106451243.96
sh688687,凯因科技,2021-10-15,24.38,24.38,23.84,23.93,24.18,504561.0,12080146.0,965635779.67,4063994138.46
sh688687,凯因科技,2021-10-18,23.89,23.99,22.83,23.08,23.93,945967.0,22018428.0,931336138.52,3919639979.76
sh688687,凯因科技,2021-10-19,23.12,23.34,23.02,23.06,23.08,366619.0,8485206.0,930529088.14,3916243411.32
sh688687,凯因科技,2021-10-20,23.12,23.18,22.84,23.05,23.06,289540.0,6650224.0,930125562.95,3914545127.1
sh688687,凯因科技,2021-10-21,22.8,23.18,22.53,22.61,23.05,522873.0,11937794.0,912370454.59,3839820621.42
sh688687,凯因科技,2021-10-22,22.61,22.61,21.58,22.09,22.61,1207508.0,26544887.0,891387144.71,3751509841.98
sh688687,凯因科技,2021-10-25,22.08,22.15,21.87,22.03,22.09,289117.0,6372998.0,888965993.5699999,3741320136.66
sh688687,凯因科技,2021-10-26,22.02,22.26,22.0,22.13,22.03,341823.0,7558940.0,893001245.47,3758302978.86
sh688687,凯因科技,2021-10-27,22.09,22.13,21.2,21.21,22.13,695412.0,14892354.0,855876927.99,3602060830.62
sh688687,凯因科技,2021-10-28,21.21,21.45,20.7,20.72,21.21,426620.0,8928153.0,836104193.6800001,3518844903.84
sh688687,凯因科技,2021-10-29,20.72,21.2,20.72,21.16,20.72,345965.0,7285866.0,853859302.0400001,3593569409.52
sh688687,凯因科技,2021-11-01,21.78,23.08,21.25,22.81,21.16,1643649.0,36814444.0,920440958.39,3873786305.82
sh688687,凯因科技,2021-11-02,22.54,23.6,22.46,22.8,22.81,932894.0,21579072.0,920037433.2,3872088021.6
sh688687,凯因科技,2021-11-03,22.92,23.19,22.7,23.04,22.8,428150.0,9805091.0,929722037.76,3912846842.88
sh688687,凯因科技,2021-11-04,23.09,23.44,22.9,23.0,23.04,387715.0,8926744.0,928107937.0,3906053706.0
sh688687,凯因科技,2021-11-05,22.99,23.79,22.92,23.05,23.0,1004712.0,23336490.0,930125562.95,3914545127.1
sh688687,凯因科技,2021-11-08,23.08,23.3,22.82,23.05,23.05,340200.0,7804255.0,930125562.95,3914545127.1
sh688687,凯因科技,2021-11-09,23.05,23.7,22.86,23.58,23.05,611227.0,14294132.0,951512398.02,4004554190.76
sh688687,凯因科技,2021-11-10,23.44,23.71,23.0,23.67,23.58,516150.0,12119909.0,955144124.73,4019838748.74
sh688687,凯因科技,2021-11-11,23.67,24.59,23.53,24.31,23.67,904484.0,21914934.0,980969736.89,4128528938.82
sh688687,凯因科技,2021-11-12,24.32,24.44,23.88,24.4,24.31,747519.0,18118354.0,984601463.6,4143813496.8
sh688687,凯因科技,2021-11-15,24.5,25.33,24.5,25.01,24.4,1152000.0,28837027.0,1009216500.19,4247408834.22
sh688687,凯因科技,2021-11-16,25.15,25.28,24.28,24.3,25.01,1266725.0,31283000.0,980566211.7,4126830654.6
sh688687,凯因科技,2021-11-17,24.3,24.98,24.29,24.55,24.3,612087.0,15104362.0,990654341.45,4169287760.1
sh688687,凯因科技,2021-11-18,24.55,25.05,24.32,24.34,24.55,673544.0,16633881.0,982180312.46,4133623791.48
sh688687,凯因科技,2021-11-19,24.56,25.52,24.56,24.91,24.34,1101729.0,27660940.0,1005181248.29,4230425992.02
sh688687,凯因科技,2021-11-22,24.91,25.3,24.7,25.09,24.91,603558.0,15108586.0,1012444701.7099999,4260995107.9799995
sh688687,凯因科技,2021-11-23,24.86,25.39,24.8,25.21,25.09,606934.0,15225982.0,1017287003.9899999,4281374518.62
sh688687,凯因科技,2021-11-24,25.2,25.71,25.03,25.49,25.21,898676.0,22904364.0,1028585709.31,4328926476.78
sh688687,凯因科技,2021-11-25,25.6,25.74,25.19,25.45,25.49,698477.0,17782110.0,1026971608.55,4322133339.900001
sh688687,凯因科技,2021-11-26,25.36,25.7,25.19,25.34,25.45,835886.0,21211948.0,1022532831.46,4303452213.48
sh688687,凯因科技,2021-11-29,25.34,26.14,25.2,25.5,25.34,897489.0,22975120.0,1028989234.5,4330624761.0
sh688687,凯因科技,2021-11-30,25.49,25.58,25.0,25.35,25.5,1027533.0,25933954.0,1022936356.65,4305150497.7
sh688687,凯因科技,2021-12-01,25.35,25.47,25.01,25.17,25.35,573488.0,14428835.0,1015672903.2299999,4274581381.7400002
sh688687,凯因科技,2021-12-02,25.19,25.35,24.45,24.65,25.17,848014.0,21077832.0,994689593.35,4186270602.3
sh688687,凯因科技,2021-12-03,24.66,24.93,24.46,24.53,24.65,520302.0,12848774.0,989847291.07,4165891191.66
sh688687,凯因科技,2021-12-06,24.58,24.63,23.45,23.51,24.53,1042445.0,24765367.0,948687721.69,3992666201.22
sh688687,凯因科技,2021-12-07,23.58,23.63,22.66,22.85,23.51,714303.0,16482231.0,922055059.15,3880579442.7
sh688687,凯因科技,2021-12-08,22.98,23.06,22.72,22.93,22.85,275646.0,6319887.0,925283260.6700001,3894165716.46
sh688687,凯因科技,2021-12-09,23.0,23.5,23.0,23.39,22.93,504221.0,11762670.0,943845419.4100001,3972286790.58
sh688687,凯因科技,2021-12-10,23.23,23.5,23.14,23.44,23.39,397848.0,9274462.0,945863045.36,3980778211.68
sh688687,凯因科技,2021-12-13,23.5,23.77,23.4,23.45,23.44,408463.0,9614851.0,946266570.5500001,3982476495.9
sh688687,凯因科技,2021-12-14,23.38,23.69,23.38,23.5,23.45,482617.0,11355357.0,948284196.5,3990967917.0
sh688687,凯因科技,2021-12-15,23.51,23.62,23.16,23.27,23.5,526347.0,12304980.0,939003117.13,3951907379.94
sh688687,凯因科技,2021-12-16,23.43,23.44,23.2,23.31,23.27,281179.0,6552895.0,940617217.89,3958700516.8199997
sh688687,凯因科技,2021-12-17,23.05,23.46,22.66,22.76,23.31,647778.0,14817614.0,918423332.4399999,3865294884.72
sh688687,凯因科技,2021-12-20,22.7,23.3,22.6,22.77,22.76,421095.0,9677780.0,918826857.63,3866993168.94
sh688687,凯因科技,2021-12-21,22.7,23.07,22.61,23.07,22.77,434156.0,9955449.0,930932613.33,3917941695.5400004
sh688687,凯因科技,2021-12-22,22.9,24.45,22.9,24.11,23.07,1493046.0,35772911.0,972899233.09,4094563254.42
sh688687,凯因科技,2021-12-23,23.98,24.29,23.47,23.47,24.11,816410.0,19358161.0,947073620.9300001,3985873064.34
sh688687,凯因科技,2021-12-24,23.68,23.68,23.06,23.2,23.47,631147.0,14726771.0,936178440.8,3940019390.4
sh688687,凯因科技,2021-12-27,23.2,24.03,23.15,23.86,23.2,796000.0,18827445.0,962811103.3399999,4052106148.9199996
sh688687,凯因科技,2021-12-28,24.16,24.23,23.65,23.84,23.86,572809.0,13655911.0,962004052.9599999,4048709580.48
sh688687,凯因科技,2021-12-29,24.5,27.47,24.42,25.73,23.84,3692836.0,95966153.0,1038270313.87,4369685298.06
sh688687,凯因科技,2021-12-30,26.0,27.17,25.36,26.85,25.73,4148393.0,109657450.0,1083465135.15,4559893130.7
sh688687,凯因科技,2021-12-31,26.6,28.0,26.5,27.36,26.85,3488444.0,95872714.0,1104044919.84,4646505625.92
sh688687,凯因科技,2022-01-04,27.52,27.97,26.42,26.64,27.36,2329313.0,62762086.0,1074991106.16,4524229162.08
sh688687,凯因科技,2022-01-05,26.62,26.62,25.75,25.95,26.64,1567028.0,40798369.0,1047147868.05,4407047550.9
sh688687,凯因科技,2022-01-06,25.7,26.75,25.7,26.55,25.95,1254147.0,33047470.0,1071359379.4499999,4508944604.1
sh688687,凯因科技,2022-01-07,26.55,26.81,25.81,25.88,26.55,1296871.0,34113887.0,1044323191.72,4395159561.36
sh688687,凯因科技,2022-01-10,25.81,27.6,25.77,27.58,25.88,2862935.0,77712522.0,1112922474.02,4683867878.76
sh688687,凯因科技,2022-01-11,27.55,28.08,27.02,27.86,27.58,2906087.0,80079433.0,1124221179.34,4731419836.92
sh688687,凯因科技,2022-01-12,28.0,28.18,27.28,27.45,27.86,2124658.0,58682668.0,1107676646.55,4661790183.9
sh688687,凯因科技,2022-01-13,27.24,28.03,27.01,27.6,27.45,2361438.0,65435687.0,1113729524.3999999,4687264447.200001
sh688687,凯因科技,2022-01-14,27.44,28.05,27.2,27.85,27.6,1965562.0,54605197.0,1123817654.15,4729721552.7
