数据由邢不行整理
股票代码,股票名称,交易日期,开盘价,最高价,最低价,收盘价,前收盘价,成交量,成交额,流通市值,总市值
sh688597,N煜邦,2021-06-17,15.88,19.54,14.32,14.38,5.88,24959568.0,394772244.0,516492168.86,2537681452.4
sh688597,煜邦电力,2021-06-18,13.6,14.07,12.86,13.06,14.38,16535564.0,219761123.0,469081204.82,2304737118.8
sh688597,煜邦电力,2021-06-21,13.07,13.48,12.9,13.31,13.06,9032195.0,119539225.0,478060554.07,2348855363.8
sh688597,煜邦电力,2021-06-22,13.31,14.58,12.92,13.81,13.31,12381654.0,168972124.0,496019252.57000005,2437091853.8
sh688597,煜邦电力,2021-06-23,13.5,13.58,13.17,13.26,13.81,8156405.0,108657070.0,476264684.22,2340031714.8
sh688597,煜邦电力,2021-06-24,13.16,13.56,13.1,13.13,13.26,6217501.0,82784352.0,471595422.61,2317090227.4
sh688597,煜邦电力,2021-06-25,13.13,13.18,12.68,12.8,13.13,5798163.0,74620381.0,459742681.6,2258854144.0
sh688597,煜邦电力,2021-06-28,12.92,13.11,12.77,13.03,12.8,3515034.0,45640234.0,468003682.91,2299442929.4
sh688597,煜邦电力,2021-06-29,13.06,13.07,12.69,12.78,13.03,3368593.0,43175076.0,459024333.66,2255324684.4
sh688597,煜邦电力,2021-06-30,12.68,12.85,12.54,12.62,12.78,3260612.0,41301701.0,453277550.1400001,2227089007.6
sh688597,煜邦电力,2021-07-01,12.71,12.99,12.64,12.64,12.62,3093002.0,39514898.0,453995898.08,2230618467.2
sh688597,煜邦电力,2021-07-02,12.64,12.64,12.22,12.35,12.64,3048302.0,37626838.0,443579852.95,2179441303.0
sh688597,煜邦电力,2021-07-05,12.33,12.7,12.28,12.57,12.35,2408329.0,30120377.0,451481680.29,2218265358.6
sh688597,煜邦电力,2021-07-06,12.59,12.79,12.47,12.77,12.57,2455028.0,31054558.0,458665159.69,2253559954.6
sh688597,煜邦电力,2021-07-07,12.65,12.99,12.63,12.92,12.77,3101998.0,39917808.0,464052769.24,2280030901.6
sh688597,煜邦电力,2021-07-08,12.99,13.38,12.86,13.11,12.92,5531998.0,72928357.0,470877074.67,2313560767.8
sh688597,煜邦电力,2021-07-09,13.02,13.99,13.02,13.77,13.11,6653054.0,90396827.0,494582556.69,2430032934.6
sh688597,煜邦电力,2021-07-12,13.58,13.85,13.38,13.72,13.77,4394587.0,59547586.0,492786686.84,2421209285.6
sh688597,煜邦电力,2021-07-13,13.55,13.9,13.4,13.83,13.72,3443362.0,46910117.0,496737600.51,2440621313.4
sh688597,XD煜邦电,2021-07-14,13.6,13.6,12.96,13.03,13.6,3058691.0,40608111.0,468003682.91,2299442929.4
sh688597,煜邦电力,2021-07-15,13.09,13.3,12.5,12.56,13.03,3830317.0,48819725.0,451122506.32000005,2216500628.8
sh688597,煜邦电力,2021-07-16,12.65,12.95,12.51,12.8,12.56,2254179.0,28806444.0,459742681.6,2258854144.0
sh688597,煜邦电力,2021-07-19,12.6,12.75,12.5,12.59,12.8,1975972.0,24919861.0,452200028.23,2221794818.2
sh688597,煜邦电力,2021-07-20,12.51,13.22,12.48,12.97,12.59,3933380.0,50881419.0,465848639.09,2288854550.6
sh688597,煜邦电力,2021-07-21,12.97,13.15,12.79,12.92,12.97,2428851.0,31390581.0,464052769.24,2280030901.6
sh688597,煜邦电力,2021-07-22,12.95,13.26,12.91,13.18,12.92,3290309.0,43063231.0,473391292.46,2325913876.4
sh688597,煜邦电力,2021-07-23,13.5,13.74,12.8,13.0,13.18,4258160.0,55997300.0,466926161.0,2294148740.0
sh688597,煜邦电力,2021-07-26,12.71,12.89,12.54,12.79,13.0,2581809.0,32807075.0,459383507.63,2257089414.2
sh688597,煜邦电力,2021-07-27,12.64,12.83,12.52,12.58,12.79,2185661.0,27699291.0,451840854.26,2220030088.4
sh688597,煜邦电力,2021-07-28,12.58,12.58,11.88,11.89,12.58,2872466.0,34925611.0,427057850.33,2098263732.2
sh688597,煜邦电力,2021-07-29,12.02,12.24,12.0,12.2,11.89,1647271.0,20011826.0,438192243.4,2152970356.0
sh688597,煜邦电力,2021-07-30,12.18,13.24,12.1,12.98,12.2,4874124.0,62414943.0,466207813.06,2290619280.4
sh688597,煜邦电力,2021-08-02,12.75,13.66,12.73,13.27,12.98,5071255.0,67205985.0,476623858.19000006,2341796444.6
sh688597,煜邦电力,2021-08-03,13.19,13.45,13.0,13.12,13.27,3596109.0,47640306.0,471236248.64,2315325497.6
sh688597,煜邦电力,2021-08-04,13.11,13.49,13.11,13.4,13.12,3108656.0,41445086.0,481293119.8,2364737932.0
sh688597,煜邦电力,2021-08-05,13.38,13.98,13.2,13.8,13.4,5573880.0,76379584.0,495660078.6,2435327124.0
sh688597,煜邦电力,2021-08-06,13.78,13.95,13.24,13.52,13.8,3038530.0,41351912.0,485603207.44,2385914689.6
sh688597,煜邦电力,2021-08-09,13.65,13.65,13.2,13.48,13.52,1995026.0,26721005.0,484166511.56,2378855770.4
sh688597,煜邦电力,2021-08-10,13.59,14.4,13.34,14.28,13.48,4717146.0,66216630.0,512900429.16,2520034154.4
sh688597,煜邦电力,2021-08-11,14.82,17.14,14.73,15.37,14.28,17115203.0,278284799.0,552050391.89,2712389702.6
sh688597,煜邦电力,2021-08-12,15.42,16.1,14.58,14.63,15.37,10446350.0,157315185.0,525471518.11,2581799697.4
sh688597,煜邦电力,2021-08-13,14.85,16.18,14.72,15.53,14.63,9019478.0,140663275.0,557797175.41,2740625379.4
sh688597,煜邦电力,2021-08-16,15.69,16.02,14.71,14.89,15.53,6420561.0,97262533.0,534810041.33,2627682672.2
sh688597,煜邦电力,2021-08-17,14.92,14.98,14.19,14.37,14.89,4471459.0,65251439.0,516132994.89,2535916722.6
sh688597,煜邦电力,2021-08-18,14.3,14.55,14.01,14.44,14.37,2791735.0,39724558.0,518647212.68,2548269831.2
sh688597,煜邦电力,2021-08-19,14.27,14.37,13.7,13.86,14.44,3015330.0,41854520.0,497815122.42,2445915502.8
sh688597,煜邦电力,2021-08-20,13.94,13.94,13.03,13.23,13.86,3267002.0,43717930.0,496132342.65,2334737525.4
sh688597,煜邦电力,2021-08-23,13.25,13.88,13.25,13.68,13.23,2373030.0,32459436.0,513007592.4,2414150366.4
sh688597,煜邦电力,2021-08-24,13.87,14.05,13.6,13.88,13.68,2480253.0,34323032.0,520507703.4,2449444962.4
sh688597,煜邦电力,2021-08-25,14.4,15.38,14.22,14.42,13.88,6408273.0,94390323.0,540758003.1,2544740371.6
sh688597,煜邦电力,2021-08-26,14.11,14.88,13.93,14.22,14.42,4637680.0,66712954.0,533257892.1,2509445775.6
sh688597,煜邦电力,2021-08-27,14.08,14.2,13.58,13.72,14.22,2399605.0,33090692.0,514507614.6,2421209285.6
sh688597,煜邦电力,2021-08-30,13.75,13.83,13.14,13.22,13.72,2349980.0,31408330.0,495757337.1,2332972795.6
sh688597,煜邦电力,2021-08-31,13.22,13.35,12.9,12.99,13.22,1180196.0,15396042.0,487132209.45,2292384010.2
sh688597,煜邦电力,2021-09-01,13.3,13.3,12.7,13.0,12.99,1785277.0,23200719.0,487507215.0,2294148740.0
sh688597,煜邦电力,2021-09-02,12.91,13.7,12.8,13.52,13.0,2442945.0,32430919.0,507007503.6,2385914689.6
sh688597,煜邦电力,2021-09-03,13.35,13.95,13.35,13.59,13.52,2648725.0,36154015.0,509632542.45,2398267798.2
sh688597,煜邦电力,2021-09-06,13.68,14.04,13.65,13.77,13.59,2539976.0,35125377.0,516382642.35,2430032934.6
sh688597,煜邦电力,2021-09-07,13.71,13.96,13.55,13.65,13.77,2153108.0,29561093.0,511882575.75000006,2408856177.0
sh688597,煜邦电力,2021-09-08,13.61,13.92,13.6,13.75,13.65,2128120.0,29278109.0,515632631.25,2426503475.0
sh688597,煜邦电力,2021-09-09,13.58,13.69,13.01,13.25,13.75,2290884.0,30537666.0,496882353.75,2338266985.0
sh688597,煜邦电力,2021-09-10,13.28,13.79,13.15,13.39,13.25,2566148.0,34867416.0,502132431.45,2362973202.2
sh688597,煜邦电力,2021-09-13,13.3,13.33,13.01,13.1,13.39,1859596.0,24366424.0,491257270.5,2311796038.0
sh688597,煜邦电力,2021-09-14,13.14,13.14,12.78,12.86,13.1,1764679.0,22820038.0,482257137.3,2269442522.8
sh688597,煜邦电力,2021-09-15,12.83,12.97,12.76,12.82,12.86,1139096.0,14655431.0,480757115.1,2262383603.6
sh688597,煜邦电力,2021-09-16,12.82,12.93,12.48,12.69,12.82,1950452.0,24709287.0,475882042.9500001,2239442116.2
sh688597,煜邦电力,2021-09-17,12.69,12.74,12.29,12.49,12.69,1589339.0,19795170.0,468381931.95,2204147520.2000003
sh688597,煜邦电力,2021-09-22,12.39,12.93,12.3,12.92,12.49,2243224.0,28452016.0,484507170.6,2280030901.6
sh688597,煜邦电力,2021-09-23,13.0,13.09,12.7,12.77,12.92,2290853.0,29423287.0,478882087.35,2253559954.6
sh688597,煜邦电力,2021-09-24,12.8,12.84,12.45,12.5,12.77,1409305.0,17710169.0,468756937.5,2205912250.0
sh688597,煜邦电力,2021-09-27,12.55,12.69,12.0,12.1,12.5,1448848.0,17759376.0,453756715.5,2135323058.0
sh688597,煜邦电力,2021-09-28,12.22,12.65,12.1,12.61,12.1,1502232.0,18623615.0,472881998.55,2225324277.8
sh688597,煜邦电力,2021-09-29,12.5,12.92,12.3,12.53,12.61,2088534.0,26303335.0,469881954.15,2211206439.4
sh688597,煜邦电力,2021-09-30,13.0,13.25,12.61,12.88,12.53,3599515.0,46408780.0,483007148.4,2272971982.4
sh688597,煜邦电力,2021-10-08,12.78,13.08,12.62,12.82,12.88,2438031.0,31189680.0,480757115.1,2262383603.6
sh688597,煜邦电力,2021-10-11,12.8,12.96,12.48,12.5,12.82,1805771.0,22745467.0,468756937.5,2205912250.0
sh688597,煜邦电力,2021-10-12,12.44,12.56,12.11,12.19,12.5,1521080.0,18724205.0,457131765.4500001,2151205626.2000003
sh688597,煜邦电力,2021-10-13,12.15,12.29,12.12,12.17,12.19,1486635.0,18150371.0,456381754.35,2147676166.6
sh688597,煜邦电力,2021-10-14,12.17,12.33,12.04,12.23,12.17,1193574.0,14547345.0,458631787.65,2158264545.4
sh688597,煜邦电力,2021-10-15,12.25,12.4,12.08,12.28,12.23,1095428.0,13397510.0,460506815.4,2167088194.4
sh688597,煜邦电力,2021-10-18,12.22,12.3,12.15,12.26,12.28,806729.0,9844504.0,459756804.3,2163558734.8
sh688597,煜邦电力,2021-10-19,12.27,12.31,12.14,12.2,12.26,924231.0,11269020.0,457506771.0,2152970356.0
sh688597,煜邦电力,2021-10-20,12.26,12.38,12.1,12.28,12.2,1102905.0,13485852.0,460506815.4,2167088194.4
sh688597,煜邦电力,2021-10-21,12.31,12.33,11.87,11.9,12.28,1891707.0,22817674.0,446256604.50000006,2100028462.0
sh688597,煜邦电力,2021-10-22,11.9,11.99,11.72,11.77,11.9,1202244.0,14232044.0,441381532.35,2077086974.6
sh688597,煜邦电力,2021-10-25,11.8,12.24,11.72,12.09,11.77,1194920.0,14364925.0,453381709.95,2133558328.2
sh688597,煜邦电力,2021-10-26,12.1,12.18,11.71,11.71,12.09,1136818.0,13475984.0,439131499.05,2066498595.8
sh688597,煜邦电力,2021-10-27,11.71,11.8,11.37,11.4,11.71,1179814.0,13603608.0,409458325.8,2011791972.0
sh688597,煜邦电力,2021-10-28,11.15,11.15,9.75,10.03,11.4,4034500.0,40951650.0,376130566.65,1770023989.4
sh688597,煜邦电力,2021-10-29,9.96,10.16,9.91,10.06,10.03,1267135.0,12720874.0,377255583.3,1775318178.8
sh688597,煜邦电力,2021-11-01,10.0,10.17,9.97,10.0,10.06,1315231.0,13245520.0,375005550.0,1764729800.0
sh688597,煜邦电力,2021-11-02,10.07,10.29,9.91,9.97,10.0,1521758.0,15352256.0,373880533.35,1759435610.6
sh688597,煜邦电力,2021-11-03,10.02,10.37,9.91,10.24,9.97,1606998.0,16340877.0,384005683.2,1807083315.2
sh688597,煜邦电力,2021-11-04,10.34,10.66,10.21,10.59,10.24,1743687.0,18191707.0,397130877.45,1868848858.2
sh688597,煜邦电力,2021-11-05,10.65,11.47,10.61,11.09,10.59,3914269.0,43590983.0,415881154.95,1957085348.2
sh688597,煜邦电力,2021-11-08,11.0,11.28,10.9,11.1,11.09,1048811.0,11642077.0,416256160.5,1958850078.0
sh688597,煜邦电力,2021-11-09,11.08,12.66,11.08,11.61,11.1,5203269.0,62195279.0,435381443.55,2048851297.8
sh688597,煜邦电力,2021-11-10,11.67,12.3,11.6,12.07,11.61,3273956.0,38881031.0,452631698.85,2130028868.6
sh688597,煜邦电力,2021-11-11,12.12,12.34,11.72,11.95,12.07,2949050.0,35171125.0,448131632.25,2108852111.0
sh688597,煜邦电力,2021-11-12,11.85,12.47,11.71,12.31,11.95,2341411.0,28668277.0,461631832.05,2172382383.8
sh688597,煜邦电力,2021-11-15,12.44,13.36,12.2,13.14,12.31,4196437.0,54701532.0,492757292.7000001,2318854957.2000003
sh688597,煜邦电力,2021-11-16,13.28,13.28,12.55,12.86,13.14,2566559.0,32899603.0,482257137.3,2269442522.8
sh688597,煜邦电力,2021-11-17,13.11,13.25,12.91,13.1,12.86,2391636.0,31306501.0,491257270.5,2311796038.0
sh688597,煜邦电力,2021-11-18,13.09,13.25,12.7,12.8,13.1,1887566.0,24406814.0,480007104.00000006,2258854144.0
sh688597,煜邦电力,2021-11-19,12.82,13.68,12.82,13.54,12.8,4152785.0,55610290.0,507757514.7000001,2389444149.2000003
sh688597,煜邦电力,2021-11-22,14.49,14.49,13.6,13.81,13.54,4049844.0,56477682.0,517882664.54999995,2437091853.8
sh688597,煜邦电力,2021-11-23,13.96,14.64,13.68,14.28,13.81,4677159.0,66568672.0,535507925.40000004,2520034154.4
sh688597,煜邦电力,2021-11-24,14.15,14.49,14.03,14.18,14.28,1682803.0,23935027.0,531757869.9,2502386856.4
sh688597,煜邦电力,2021-11-25,13.98,15.91,13.98,15.4,14.18,6192574.0,93678212.0,577508547.0,2717683891.9999995
sh688597,煜邦电力,2021-11-26,15.3,15.39,14.67,14.82,15.4,3806625.0,56810013.0,555758225.1,2615329563.6
sh688597,煜邦电力,2021-11-29,15.01,17.78,14.76,17.78,14.82,13142230.0,224389645.0,666759867.9,3137689584.4
sh688597,煜邦电力,2021-11-30,18.64,21.34,18.26,21.32,17.78,17718486.0,361690368.0,799511832.6,3762403933.6
sh688597,煜邦电力,2021-12-01,21.24,22.0,20.3,21.9,21.32,12181288.0,258863447.0,821262154.5,3864758262.0
sh688597,煜邦电力,2021-12-02,21.22,21.5,20.21,21.02,21.9,5485164.0,114483831.0,788261666.1,3709462039.6
sh688597,煜邦电力,2021-12-03,21.22,21.66,20.26,20.69,21.02,4346662.0,90225775.0,775886482.95,3651225956.2
sh688597,煜邦电力,2021-12-06,20.64,21.2,19.91,21.1,20.69,3938871.0,81487382.0,791261710.5,3723579878.0
sh688597,煜邦电力,2021-12-07,21.48,21.58,19.0,19.25,21.1,3903910.0,76977120.0,721885683.75,3397104865.0
sh688597,煜邦电力,2021-12-08,19.32,20.36,18.75,19.9,19.25,3846139.0,75781104.0,746261044.5,3511812302.0
sh688597,煜邦电力,2021-12-09,20.36,20.89,19.41,19.82,19.9,3407948.0,68068556.0,743261000.0999999,3497694463.6
sh688597,煜邦电力,2021-12-10,19.97,22.32,18.22,19.68,19.82,6757060.0,134935314.0,738010922.4,3472988246.4
sh688597,煜邦电力,2021-12-13,18.99,20.38,18.66,19.95,19.68,3212934.0,63085803.0,748136072.25,3520635951.0
sh688597,煜邦电力,2021-12-14,20.25,20.55,19.5,19.89,19.95,2366397.0,47501840.0,745886038.9499999,3510047572.2000003
sh688597,煜邦电力,2021-12-15,19.57,21.3,19.21,19.83,19.89,3795423.0,77627780.0,743636005.65,3499459193.4
sh688597,煜邦电力,2021-12-16,20.02,21.89,19.86,21.38,19.83,4317463.0,90295279.0,801761865.9,3772992312.4
sh688597,煜邦电力,2021-12-17,21.47,21.47,19.51,20.0,21.38,3613519.0,73929219.0,781674260.0000001,3529459600.0
sh688597,煜邦电力,2021-12-20,20.01,23.76,20.01,22.5,20.0,8842810.0,194558345.0,879383542.5,3970642050.0
sh688597,煜邦电力,2021-12-21,23.1,23.59,21.19,23.3,22.5,4990935.0,111589225.0,910650512.9,4111820434.0000005
sh688597,煜邦电力,2021-12-22,23.61,27.96,23.61,27.29,23.3,7676904.0,204600056.0,1066594527.77,4815947624.2
sh688597,煜邦电力,2021-12-23,27.41,27.78,26.0,27.33,27.29,4313430.0,116690771.0,1068157876.29,4823006543.4
sh688597,煜邦电力,2021-12-24,27.32,27.35,26.22,26.28,27.33,3246066.0,86498925.0,1027119977.64,4637709914.400001
sh688597,煜邦电力,2021-12-27,26.49,26.49,23.85,24.26,26.28,4380723.0,109495389.0,948170877.38,4281234494.8
sh688597,煜邦电力,2021-12-28,24.63,25.77,23.0,23.86,24.26,4051312.0,98452064.0,932537392.1800001,4210645302.8
sh688597,煜邦电力,2021-12-29,22.99,23.58,22.15,22.92,23.86,3976877.0,90362845.0,895798701.96,4044760701.6
sh688597,煜邦电力,2021-12-30,22.94,23.91,22.2,22.92,22.92,2866717.0,66437877.0,895798701.96,4044760701.6
sh688597,煜邦电力,2021-12-31,22.46,23.69,22.46,22.49,22.92,1669457.0,38013917.0,878992705.37,3968877320.2
sh688597,煜邦电力,2022-01-04,22.68,22.85,21.08,22.06,22.49,2692428.0,58918059.0,862186708.7800001,3892993938.7999997
sh688597,煜邦电力,2022-01-05,22.5,22.5,19.45,19.65,22.06,2150542.0,43287751.0,767994960.45,3467694057.0
sh688597,煜邦电力,2022-01-06,19.6,20.56,19.6,20.46,19.65,1398899.0,28055845.0,799652767.98,3610637170.7999997
sh688597,煜邦电力,2022-01-07,19.5,20.66,18.36,18.59,20.46,2638161.0,50246960.0,726566224.67,3280632698.2
sh688597,煜邦电力,2022-01-10,18.92,18.97,17.47,17.64,18.59,2656523.0,47259930.0,689436697.3199999,3112983367.2000003
sh688597,煜邦电力,2022-01-11,17.64,18.06,17.11,17.25,17.64,1848313.0,32345529.0,674194049.25,3044158905.0
sh688597,煜邦电力,2022-01-12,17.4,18.68,17.4,18.4,17.25,4295446.0,78122704.0,719140319.1999999,3247102832.0
sh688597,煜邦电力,2022-01-13,18.36,18.44,17.13,17.26,18.4,3443794.0,60214255.0,674584886.38,3045923634.8
sh688597,煜邦电力,2022-01-14,17.37,17.55,16.4,16.63,17.26,2861474.0,48019270.0,649962147.19,2934745657.4
