数据由邢不行整理
股票代码,股票名称,交易日期,开盘价,最高价,最低价,收盘价,前收盘价,成交量,成交额,流通市值,总市值
sh688020,N方邦,2019-07-22,106.0,136.49,74.74,101.1,53.88,14063045.0,1321166418.0,1845393768.3,8088000000.0
sh688020,方邦股份,2019-07-23,85.0,94.88,83.18,89.52,101.1,5683223.0,512440376.0,1634022256.56,7161600000.0
sh688020,方邦股份,2019-07-24,90.42,97.38,90.0,96.42,89.52,5534103.0,520724612.0,1759969012.26,7713600000.0
sh688020,方邦股份,2019-07-25,99.75,110.9,98.71,101.41,96.42,7381559.0,762099944.0,1851052245.73,8112800000.0
sh688020,方邦股份,2019-07-26,100.0,107.31,98.01,99.67,101.41,4966991.0,507928413.0,1819291759.51,7973600000.0
sh688020,方邦股份,2019-07-29,102.55,107.99,100.22,107.21,99.67,5929415.0,624227419.0,1956920533.13,8576800000.0
sh688020,方邦股份,2019-07-30,108.0,112.85,105.01,111.35,107.21,6723054.0,735391133.0,2032488586.55,8908000000.0
sh688020,方邦股份,2019-07-31,114.02,117.95,107.01,112.96,111.35,6414145.0,723180974.0,2061876162.88,9036800000.0
sh688020,方邦股份,2019-08-01,109.9,118.88,109.0,118.45,112.96,6881988.0,787851734.0,2162085972.85,9476000000.0
sh688020,方邦股份,2019-08-02,116.0,133.0,115.46,126.95,118.45,8881871.0,1121077260.0,2317237773.35,10156000000.0
sh688020,方邦股份,2019-08-05,128.05,141.95,123.27,139.2,126.95,7634660.0,1034490027.0,2540838897.6,11136000000.0
sh688020,方邦股份,2019-08-06,135.0,140.66,118.18,120.79,139.2,8961931.0,1199312881.0,2204798350.87,9663200000.0
sh688020,方邦股份,2019-08-07,124.36,125.6,115.01,123.0,120.79,5786351.0,696275749.0,2245137819.0,9840000000.0
sh688020,方邦股份,2019-08-08,122.46,123.06,114.05,114.21,123.0,4301423.0,509460143.0,2084692604.13,9136800000.0
sh688020,方邦股份,2019-08-09,115.45,117.33,111.36,112.23,114.21,3905104.0,444568734.0,2048551361.19,8978400000.0
sh688020,方邦股份,2019-08-12,113.0,121.28,111.49,118.7,112.23,5593545.0,660740790.0,2166649261.1,9496000000.0
sh688020,方邦股份,2019-08-13,119.0,120.98,114.06,119.91,118.7,4666808.0,548437598.0,2188735576.23,9592800000.0
sh688020,方邦股份,2019-08-14,121.61,122.8,118.53,118.9,119.91,3704380.0,445619460.0,2170299891.7,9512000000.0
sh688020,方邦股份,2019-08-15,115.0,118.9,113.81,117.8,118.9,3228824.0,375553282.0,2150221423.4,9424000000.0
sh688020,方邦股份,2019-08-16,118.5,123.8,117.02,119.3,117.8,4886297.0,588916394.0,2177601152.9,9544000000.0
sh688020,方邦股份,2019-08-19,120.0,121.5,114.8,116.6,119.3,3354755.0,393072472.0,2128317639.8,9328000000.0
sh688020,方邦股份,2019-08-20,117.3,122.8,117.02,117.31,116.6,4034359.0,484297039.0,2141277378.43,9384800000.0
sh688020,方邦股份,2019-08-21,116.1,117.3,106.13,107.75,117.31,4463517.0,497135340.0,1966777235.75,8620000000.0
sh688020,方邦股份,2019-08-22,107.0,108.99,104.0,104.79,107.75,2460175.0,260734716.0,1912747902.87,8383200000.0
sh688020,方邦股份,2019-08-23,105.0,105.69,96.6,98.45,104.79,3772135.0,377855535.0,1797022912.85,7876000000.0
sh688020,方邦股份,2019-08-26,98.98,100.79,97.78,99.79,98.45,1993606.0,198100565.0,1821482137.87,7983200000.0
sh688020,方邦股份,2019-08-27,99.88,100.66,97.79,100.04,99.79,1949188.0,193511584.0,1826045426.12,8003200000.0
sh688020,方邦股份,2019-08-28,99.24,100.6,96.66,96.77,100.04,1903376.0,186864819.0,1766357615.81,7741600000.0
sh688020,方邦股份,2019-08-29,96.75,96.85,93.51,95.24,96.77,1996020.0,189833719.0,1738430291.72,7619200000.0
sh688020,方邦股份,2019-08-30,95.24,98.69,94.98,96.75,95.24,2141189.0,207228584.0,1765992552.75,7740000000.0
sh688020,方邦股份,2019-09-02,96.72,97.9,95.55,97.02,96.75,1089052.0,105261121.0,1770920904.06,7761600000.0
sh688020,方邦股份,2019-09-03,97.0,105.69,96.4,103.67,97.02,3120602.0,318394866.0,1892304371.51,8293600000.0
sh688020,方邦股份,2019-09-04,102.5,104.5,100.56,100.97,103.67,2002936.0,204544818.0,1843020858.41,8077600000.0
sh688020,方邦股份,2019-09-05,101.5,103.77,100.02,101.8,100.97,1838603.0,187444710.0,1858170975.4,8144000000.0
sh688020,方邦股份,2019-09-06,101.81,103.2,98.6,98.63,101.8,1891950.0,191071606.0,1800308480.39,7890400000.0
sh688020,方邦股份,2019-09-09,98.7,99.99,98.19,99.65,98.63,1171518.0,116086449.0,1818926696.45,7972000000.0
sh688020,方邦股份,2019-09-10,100.02,102.53,99.59,99.82,99.65,1492030.0,150287937.0,1822029732.46,7985600000.0
sh688020,方邦股份,2019-09-11,100.02,101.5,99.08,99.4,99.82,1171592.0,117315780.0,1814363408.2,7952000000.0
sh688020,方邦股份,2019-09-12,99.92,99.92,95.0,95.2,99.4,1735534.0,167223781.0,1737700165.6,7616000000.0
sh688020,方邦股份,2019-09-16,95.6,96.47,94.49,95.66,95.2,812669.0,77543976.0,1746096615.98,7652800000.0
sh688020,方邦股份,2019-09-17,95.7,95.86,93.61,94.09,95.66,892507.0,84510047.0,1717439165.77,7527200000.0
sh688020,方邦股份,2019-09-18,94.78,94.9,90.61,91.98,94.09,1381720.0,126752904.0,1678925012.94,7358400000.0
sh688020,方邦股份,2019-09-19,92.0,95.21,91.22,93.77,91.98,1381612.0,129801797.0,1711598156.81,7501600000.0
sh688020,方邦股份,2019-09-20,92.28,94.35,92.28,93.21,93.77,952387.0,88751793.0,1701376391.13,7456800000.0
sh688020,方邦股份,2019-09-23,93.0,93.98,92.4,93.96,93.21,913792.0,85332575.0,1715066255.88,7516800000.0
sh688020,方邦股份,2019-09-24,93.9,97.77,93.6,96.99,93.96,2057082.0,198511977.0,1770373309.47,7759200000.0
sh688020,方邦股份,2019-09-25,96.01,97.59,93.59,93.59,96.99,1462387.0,139250901.0,1708312589.27,7487200000.0
sh688020,方邦股份,2019-09-26,93.5,94.66,86.6,86.68,93.59,1942920.0,174636700.0,1582183302.04,6934400000.0
sh688020,方邦股份,2019-09-27,86.98,95.62,86.34,93.98,86.68,2256471.0,206932504.0,1715431318.94,7518400000.0
sh688020,方邦股份,2019-09-30,92.0,93.05,87.68,87.8,93.98,1530652.0,136960324.0,1602626833.4,7024000000.0
sh688020,方邦股份,2019-10-08,87.6,88.78,85.09,85.4,87.8,837867.0,73044104.0,1558819266.2,6832000000.0
sh688020,方邦股份,2019-10-09,85.45,87.37,84.5,86.37,85.4,554685.0,47734478.0,1576524824.61,6909600000.0
sh688020,方邦股份,2019-10-10,86.4,87.98,85.8,86.9,86.37,771280.0,67170926.0,1586198995.7,6952000000.0
sh688020,方邦股份,2019-10-11,86.9,87.5,85.28,85.3,86.9,764237.0,65870741.0,1556993950.9,6824000000.0
sh688020,方邦股份,2019-10-14,85.98,89.6,85.08,89.6,85.3,1387896.0,121936729.0,1635482508.8,7168000000.0
sh688020,方邦股份,2019-10-15,88.6,89.97,87.05,87.68,89.6,823502.0,72597264.0,1600436455.04,7014400000.0
sh688020,方邦股份,2019-10-16,87.78,88.6,85.65,85.7,87.68,847919.0,73908126.0,1564295212.1,6856000000.0
sh688020,方邦股份,2019-10-17,85.11,86.17,83.5,83.84,85.7,1007969.0,85045770.0,1530344347.52,6707200000.0
sh688020,方邦股份,2019-10-18,84.27,96.42,84.27,90.99,83.84,3216055.0,295445707.0,1660854391.47,7279200000.0
sh688020,方邦股份,2019-10-21,88.7,91.7,85.69,88.49,90.99,2075386.0,182728308.0,1615221508.97,7079200000.0
sh688020,方邦股份,2019-10-22,88.45,90.1,87.3,90.05,88.49,1493286.0,132834784.0,1643696427.65,7204000000.0
sh688020,方邦股份,2019-10-23,89.9,94.58,88.4,93.49,90.05,2327281.0,213234684.0,1706487273.97,7479200000.0
sh688020,方邦股份,2019-10-24,92.23,95.02,91.4,91.64,93.49,1906382.0,178080571.0,1672718940.92,7331200000.0
sh688020,方邦股份,2019-10-25,91.66,91.68,87.3,87.7,91.64,1620318.0,144087575.0,1600801518.1,7016000000.0
sh688020,方邦股份,2019-10-28,87.28,89.5,86.0,88.45,87.7,1372084.0,120600196.0,1614491382.85,7076000000.0
sh688020,方邦股份,2019-10-29,88.01,88.27,85.27,85.27,88.45,1219220.0,105716184.0,1556446356.31,6821600000.0
sh688020,方邦股份,2019-10-30,83.66,86.45,83.55,83.8,85.27,1075782.0,91133399.0,1529614221.4,6704000000.0
sh688020,方邦股份,2019-10-31,83.9,84.75,78.8,79.02,83.8,1542147.0,124007116.0,1442364150.06,6321600000.0
sh688020,方邦股份,2019-11-01,79.03,79.96,78.04,79.56,79.02,644959.0,51222852.0,1452220852.68,6364800000.0
sh688020,方邦股份,2019-11-04,79.65,81.8,79.65,80.82,79.56,727394.0,58983226.0,1475219825.46,6465600000.0
sh688020,方邦股份,2019-11-05,80.96,81.4,78.1,78.4,80.82,873262.0,68868656.0,1431047195.2,6272000000.0
sh688020,方邦股份,2019-11-06,77.54,80.27,77.53,78.65,78.4,880072.0,69705273.0,1435610483.45,6292000000.0
sh688020,方邦股份,2019-11-07,78.65,80.79,78.25,80.22,78.65,881653.0,70590704.0,1464267933.66,6417600000.0
sh688020,方邦股份,2019-11-08,80.3,82.81,79.9,80.49,80.22,937765.0,76206429.0,1469196284.97,6439200000.0
sh688020,方邦股份,2019-11-11,79.23,79.9,76.73,76.78,80.49,870073.0,67828031.0,1401477087.34,6142400000.0
sh688020,方邦股份,2019-11-12,77.02,77.89,76.32,77.36,76.78,442226.0,34148139.0,1412063916.08,6188800000.0
sh688020,方邦股份,2019-11-13,77.38,80.5,77.25,80.4,77.36,1101710.0,87524828.0,1467553501.2,6432000000.0
sh688020,方邦股份,2019-11-14,80.0,82.49,79.61,80.55,80.4,1124565.0,91279091.0,1470291474.15,6444000000.0
sh688020,方邦股份,2019-11-15,80.4,82.43,79.88,81.25,80.55,982402.0,79878893.0,1483068681.25,6500000000.0
sh688020,方邦股份,2019-11-18,81.0,83.68,81.0,83.64,81.25,1194977.0,98844713.0,1526693716.92,6691200000.0
sh688020,方邦股份,2019-11-19,83.0,84.5,82.55,84.3,83.64,912768.0,76297488.0,1538740797.9,6744000000.0
sh688020,方邦股份,2019-11-20,84.3,85.1,81.0,81.5,84.3,903059.0,74946387.0,1487631969.5,6520000000.0
sh688020,方邦股份,2019-11-21,81.5,82.02,78.7,78.96,81.5,829234.0,66338731.0,1441268960.88,6316800000.0
sh688020,方邦股份,2019-11-22,78.99,80.2,77.77,80.15,78.96,776672.0,61548406.0,1462990212.95,6412000000.0
sh688020,方邦股份,2019-11-25,79.66,80.1,77.08,77.98,80.15,572925.0,44940421.0,1423380870.94,6238400000.0
sh688020,方邦股份,2019-11-26,77.72,78.9,77.72,78.54,77.98,285626.0,22426851.0,1433602636.62,6283200000.0
sh688020,方邦股份,2019-11-27,78.78,80.78,78.49,80.6,78.54,595933.0,47537629.0,1471204131.8,6448000000.0
sh688020,方邦股份,2019-11-28,80.5,82.44,80.02,81.3,80.6,682202.0,55484661.0,1483981338.9,6504000000.0
sh688020,方邦股份,2019-11-29,81.1,81.8,80.21,81.3,81.3,469202.0,38017030.0,1483981338.9,6504000000.0
sh688020,方邦股份,2019-12-02,81.5,83.35,81.31,82.0,81.3,662797.0,54563393.0,1496758546.0,6560000000.0
sh688020,方邦股份,2019-12-03,81.27,81.75,79.0,79.15,82.0,664741.0,53060493.0,1444737059.95,6332000000.0
sh688020,方邦股份,2019-12-04,79.15,80.78,78.8,79.42,79.15,462798.0,36903499.0,1449665411.26,6353600000.0
sh688020,方邦股份,2019-12-05,79.45,80.2,79.0,80.19,79.42,551113.0,43874237.0,1463720339.07,6415200000.0
sh688020,方邦股份,2019-12-06,80.21,82.7,79.96,82.7,80.19,1015897.0,83030645.0,1509535753.1,6616000000.0
sh688020,方邦股份,2019-12-09,82.44,85.28,82.4,84.72,82.7,1138873.0,95757833.0,1546407122.16,6777600000.0
sh688020,方邦股份,2019-12-10,84.59,92.0,83.8,87.54,84.72,2111425.0,185751454.0,1597881013.62,7003200000.0
sh688020,方邦股份,2019-12-11,86.52,89.68,86.51,87.26,87.54,1123953.0,98849008.0,1592770130.78,6980800000.0
sh688020,方邦股份,2019-12-12,86.11,91.5,86.11,91.18,87.26,1584139.0,141847217.0,1664322490.54,7294400000.0
sh688020,方邦股份,2019-12-13,91.5,92.0,88.47,90.37,91.18,1210131.0,108656008.0,1649537436.61,7229600000.0
sh688020,方邦股份,2019-12-16,90.5,94.63,90.21,92.69,90.37,1058702.0,98755986.0,1691884751.57,7415200000.0
sh688020,方邦股份,2019-12-17,92.44,93.79,90.55,92.6,92.69,1124573.0,103603720.0,1690241967.8,7408000000.0
sh688020,方邦股份,2019-12-18,92.58,96.51,92.21,96.5,92.6,1608103.0,152930258.0,1761429264.5,7720000000.0
sh688020,方邦股份,2019-12-19,96.0,96.32,93.97,94.9,96.5,759788.0,71970433.0,1732224219.7,7592000000.0
sh688020,方邦股份,2019-12-20,94.6,95.84,91.31,91.32,94.9,942677.0,87739202.0,1666877931.96,7305600000.0
sh688020,方邦股份,2019-12-23,90.83,92.22,87.58,87.76,91.32,809558.0,72496010.0,1601896707.28,7020800000.0
sh688020,方邦股份,2019-12-24,87.76,91.2,87.76,91.0,87.76,710218.0,63944493.0,1661036923.0,7280000000.0
sh688020,方邦股份,2019-12-25,91.55,95.15,91.0,93.28,91.0,947413.0,88741797.0,1702654111.84,7462400000.0
sh688020,方邦股份,2019-12-26,93.58,94.8,90.6,92.34,93.28,770978.0,71245739.0,1685496148.02,7387200000.0
sh688020,方邦股份,2019-12-27,93.0,93.89,89.6,90.57,92.34,851634.0,78710108.0,1653188067.21,7245600000.0
sh688020,方邦股份,2019-12-30,90.11,91.97,89.5,90.57,90.57,530042.0,48208431.0,1653188067.21,7245600000.0
sh688020,方邦股份,2019-12-31,90.17,91.5,90.17,90.73,90.57,395415.0,35831574.0,1656108571.69,7258400000.0
sh688020,方邦股份,2020-01-02,91.39,93.39,91.0,92.7,90.73,626841.0,58028990.0,1692067283.1,7416000000.0
sh688020,方邦股份,2020-01-03,92.7,94.5,91.88,93.03,92.7,645381.0,60164432.0,1698090823.59,7442400000.0
sh688020,方邦股份,2020-01-06,92.3,94.49,91.51,93.21,93.03,778760.0,72849974.0,1701376391.13,7456800000.0
sh688020,方邦股份,2020-01-07,93.3,94.46,91.76,93.9,93.21,910991.0,84593774.0,1713971066.7,7512000000.0
sh688020,方邦股份,2020-01-08,92.39,96.0,92.33,93.78,93.9,1066846.0,100299139.0,1711780688.34,7502400000.0
sh688020,方邦股份,2020-01-09,94.5,96.28,93.8,96.25,93.78,1153270.0,109835046.0,1756865976.25,7700000000.0
sh688020,方邦股份,2020-01-10,96.3,98.5,95.18,95.31,96.25,997904.0,96814207.0,1739708012.43,7624800000.0
sh688020,方邦股份,2020-01-13,95.0,95.95,92.4,95.9,95.31,1171501.0,110029416.0,1750477372.7,7672000000.0
sh688020,方邦股份,2020-01-14,95.76,98.03,94.5,96.9,95.9,1326678.0,128220585.0,1768730525.7,7752000000.0
sh688020,方邦股份,2020-01-15,96.0,98.28,95.8,97.13,96.9,982156.0,95667398.0,1772928750.89,7770400000.0
sh688020,方邦股份,2020-01-16,95.88,104.55,95.88,101.54,97.13,2099017.0,210924568.0,1853425155.62,8123200000.0
sh688020,方邦股份,2020-01-17,101.15,109.58,101.15,106.75,101.54,2148205.0,227052508.0,1948524082.75,8540000000.0
sh688020,方邦股份,2020-01-20,106.42,108.96,102.7,105.05,106.75,1532736.0,162456759.0,1917493722.65,8404000000.0
sh688020,方邦股份,2020-01-21,104.92,113.0,103.8,105.5,105.05,1631773.0,177136175.0,1925707641.5,8440000000.0
sh688020,方邦股份,2020-01-22,102.8,110.0,96.8,108.98,105.5,2254112.0,231878061.0,2092416000.0,8718400000.0
sh688020,方邦股份,2020-01-23,106.9,111.96,100.5,103.25,108.98,1473892.0,157103901.0,1982400000.0,8260000000.0
sh688020,方邦股份,2020-02-03,86.03,95.88,83.24,84.03,103.25,2003083.0,177746030.0,1613376000.0,6722400000.0
sh688020,方邦股份,2020-02-04,86.2,94.45,86.2,92.6,84.03,1272092.0,116166723.0,1777920000.0,7408000000.0
sh688020,方邦股份,2020-02-05,93.71,99.85,91.04,94.86,92.6,1363798.0,130878748.0,1821312000.0,7588800000.0
sh688020,方邦股份,2020-02-06,94.03,99.16,94.03,98.27,94.86,1075486.0,104746819.0,1886784000.0,7861600000.0
sh688020,方邦股份,2020-02-07,100.0,104.5,96.73,104.16,98.27,1420484.0,142783599.0,1999872000.0,8332800000.0
sh688020,方邦股份,2020-02-10,102.55,108.53,102.55,107.98,104.16,1429908.0,151358258.0,2073216000.0,8638400000.0
sh688020,方邦股份,2020-02-11,108.0,109.38,100.38,103.26,107.98,1382925.0,144104013.0,1982592000.0,8260800000.0
sh688020,方邦股份,2020-02-12,101.94,107.48,101.35,105.47,103.26,1181326.0,123875610.0,2025024000.0,8437600000.0
sh688020,方邦股份,2020-02-13,104.92,110.87,103.6,106.0,105.47,1612447.0,172725052.0,2035200000.0,8480000000.0
sh688020,方邦股份,2020-02-14,105.97,107.98,102.0,104.0,106.0,1519549.0,160047559.0,1996800000.0,8320000000.0
sh688020,方邦股份,2020-02-17,104.55,110.99,104.55,109.1,104.0,1860671.0,200321991.0,2094720000.0,8728000000.0
sh688020,方邦股份,2020-02-18,109.0,116.0,108.0,112.04,109.1,1701344.0,191653777.0,2151168000.0,8963200000.0
sh688020,方邦股份,2020-02-19,112.92,113.18,107.02,107.6,112.04,1871618.0,206578172.0,2065920000.0,8608000000.0
sh688020,方邦股份,2020-02-20,110.01,119.98,110.01,118.18,107.6,3344314.0,387681579.0,2269056000.0,9454400000.0
sh688020,方邦股份,2020-02-21,115.0,117.84,113.53,116.06,118.18,2262560.0,260826527.0,2228352000.0,9284800000.0
sh688020,方邦股份,2020-02-24,117.32,126.6,117.28,125.01,116.06,2465547.0,302178401.0,2400192000.0,10000800000.0
sh688020,方邦股份,2020-02-25,120.0,132.5,119.0,127.2,125.01,2664854.0,336136102.0,2442240000.0,10176000000.0
sh688020,方邦股份,2020-02-26,123.2,127.0,114.26,114.58,127.2,2179299.0,260700946.0,2199936000.0,9166400000.0
sh688020,方邦股份,2020-02-27,115.42,117.96,107.76,109.37,114.58,1778215.0,199153792.0,2099904000.0,8749600000.0
sh688020,方邦股份,2020-02-28,103.99,105.0,98.78,99.45,109.37,2177690.0,221569039.0,1909440000.0,7956000000.0
sh688020,方邦股份,2020-03-02,103.9,109.44,100.0,108.61,99.45,1695337.0,176588859.0,2085312000.0,8688800000.0
sh688020,方邦股份,2020-03-03,112.0,117.45,108.66,110.31,108.61,1744872.0,198291822.0,2117952000.0,8824800000.0
sh688020,方邦股份,2020-03-04,107.03,112.98,105.06,112.86,110.31,1493456.0,161818983.0,2166912000.0,9028800000.0
sh688020,方邦股份,2020-03-05,116.88,117.4,109.5,110.62,112.86,1354982.0,152465766.0,2123904000.0,8849600000.0
sh688020,方邦股份,2020-03-06,108.01,110.0,106.06,106.34,110.62,856495.0,92087166.0,2041728000.0,8507200000.0
sh688020,方邦股份,2020-03-09,102.95,104.99,96.0,96.58,106.34,1547899.0,155099427.0,1854336000.0,7726400000.0
sh688020,方邦股份,2020-03-10,95.94,103.19,94.25,103.14,96.58,1339002.0,132955641.0,1980288000.0,8251200000.0
sh688020,方邦股份,2020-03-11,103.23,105.85,99.11,99.5,103.14,1216257.0,124760473.0,1910400000.0,7960000000.0
sh688020,方邦股份,2020-03-12,96.75,99.04,94.9,96.16,99.5,924679.0,89315526.0,1846272000.0,7692800000.0
sh688020,方邦股份,2020-03-13,90.33,98.82,88.78,96.9,96.16,1598060.0,150790126.0,1860480000.0,7752000000.0
sh688020,方邦股份,2020-03-16,97.0,99.0,89.01,90.75,96.9,1138555.0,107893028.0,1742400000.0,7260000000.0
sh688020,方邦股份,2020-03-17,91.5,94.88,89.57,93.36,90.75,1041069.0,96465597.0,1792512000.0,7468800000.0
sh688020,方邦股份,2020-03-18,94.0,96.61,92.0,92.0,93.36,948297.0,89755540.0,1766400000.0,7360000000.0
sh688020,方邦股份,2020-03-19,92.0,96.19,91.07,95.7,92.0,1381045.0,129336553.0,1837440000.0,7656000000.0
sh688020,方邦股份,2020-03-20,96.5,97.88,92.1,94.16,95.7,1002650.0,95014622.0,1807872000.0,7532800000.0
sh688020,方邦股份,2020-03-23,90.63,91.99,85.0,85.61,94.16,1258756.0,110655033.0,1643712000.0,6848800000.0
sh688020,方邦股份,2020-03-24,88.72,88.85,83.69,88.0,85.61,926224.0,80531083.0,1689600000.0,7040000000.0
sh688020,方邦股份,2020-03-25,91.2,92.3,88.21,89.87,88.0,826209.0,74601910.0,1725504000.0,7189600000.0
sh688020,方邦股份,2020-03-26,89.0,89.86,86.5,86.82,89.87,716564.0,62950219.0,1666944000.0,6945600000.0
sh688020,方邦股份,2020-03-27,87.98,88.5,85.2,85.5,86.82,540204.0,46634200.0,1641600000.0,6840000000.0
sh688020,方邦股份,2020-03-30,84.4,84.4,80.47,81.8,85.5,669930.0,54799993.0,1570560000.0,6544000000.0
sh688020,方邦股份,2020-03-31,82.82,83.68,81.61,82.25,81.8,420821.0,34770114.0,1579200000.0,6580000000.0
sh688020,方邦股份,2020-04-01,82.0,84.87,82.0,83.2,82.25,587656.0,49175750.0,1597440000.0,6656000000.0
sh688020,方邦股份,2020-04-02,83.2,89.69,82.49,89.16,83.2,993118.0,86281173.0,1711872000.0,7132800000.0
sh688020,方邦股份,2020-04-03,89.17,90.09,87.02,87.6,89.16,524378.0,46217175.0,1681920000.0,7008000000.0
sh688020,方邦股份,2020-04-07,91.08,91.9,90.02,91.0,87.6,595606.0,54246590.0,1747200000.0,7280000000.0
sh688020,方邦股份,2020-04-08,89.0,91.65,88.5,89.71,91.0,374800.0,33898671.0,1722432000.0,7176800000.0
sh688020,方邦股份,2020-04-09,90.49,90.68,88.3,90.0,89.71,426242.0,38046669.0,1728000000.0,7200000000.0
sh688020,方邦股份,2020-04-10,90.0,90.0,84.7,84.9,90.0,648081.0,55992331.0,1630080000.0,6792000000.0
sh688020,方邦股份,2020-04-13,84.8,85.48,84.17,84.78,84.9,346854.0,29465666.0,1627776000.0,6782400000.0
sh688020,方邦股份,2020-04-14,85.3,87.31,85.3,87.31,84.78,328057.0,28360124.0,1676352000.0,6984800000.0
sh688020,方邦股份,2020-04-15,87.53,91.46,87.05,89.4,87.31,700860.0,62915565.0,1716480000.0,7152000000.0
sh688020,方邦股份,2020-04-16,89.1,91.23,88.5,90.68,89.4,540962.0,48610079.0,1741056000.0,7254400000.0
sh688020,方邦股份,2020-04-17,91.63,93.88,90.8,91.08,90.68,709551.0,65668415.0,1748736000.0,7286400000.0
sh688020,方邦股份,2020-04-20,92.0,93.47,91.15,92.38,91.08,338906.0,31261323.0,1773696000.0,7390400000.0
sh688020,方邦股份,2020-04-21,91.43,93.55,91.17,92.75,92.38,371562.0,34440334.0,1780800000.0,7420000000.0
sh688020,方邦股份,2020-04-22,90.0,96.57,90.0,95.9,92.75,696057.0,65881325.0,1841280000.0,7672000000.0
sh688020,方邦股份,2020-04-23,96.6,97.89,95.19,96.44,95.9,769252.0,74346502.0,1851648000.0,7715200000.0
sh688020,方邦股份,2020-04-24,96.38,98.2,95.35,95.69,96.44,496909.0,48025477.0,1837248000.0,7655200000.0
sh688020,方邦股份,2020-04-27,95.3,97.45,93.3,94.78,95.69,678241.0,64626344.0,1819776000.0,7582400000.0
sh688020,方邦股份,2020-04-28,95.28,95.28,87.0,91.91,94.78,981899.0,89143477.0,1764672000.0,7352800000.0
sh688020,方邦股份,2020-04-29,91.8,94.94,91.45,94.06,91.91,521194.0,48995060.0,1805952000.0,7524800000.0
sh688020,方邦股份,2020-04-30,97.0,101.64,95.81,100.92,94.06,935444.0,92489575.0,1937664000.0,8073600000.0
sh688020,方邦股份,2020-05-06,99.3,109.8,98.1,109.0,100.92,1371811.0,145486708.0,2092800000.0,8720000000.0
sh688020,方邦股份,2020-05-07,116.13,122.96,104.0,106.3,109.0,2321562.0,263743962.0,2040960000.0,8504000000.0
sh688020,方邦股份,2020-05-08,105.01,110.47,105.01,106.45,106.3,1561922.0,168204177.0,2043840000.0,8516000000.0
sh688020,方邦股份,2020-05-11,108.0,110.0,102.56,103.8,106.45,1178735.0,124086266.0,1992960000.0,8304000000.0
sh688020,方邦股份,2020-05-12,103.8,106.06,101.88,105.9,103.8,898601.0,93486035.0,2033280000.0,8472000000.0
sh688020,方邦股份,2020-05-13,105.0,110.3,103.05,110.12,105.9,1184840.0,126964276.0,2114304000.0,8809600000.0
sh688020,方邦股份,2020-05-14,107.78,110.2,107.31,109.95,110.12,1082065.0,117809902.0,2111040000.0,8796000000.0
sh688020,方邦股份,2020-05-15,109.99,111.96,108.0,111.96,109.95,1091372.0,120375278.0,2149632000.0,8956800000.0
sh688020,方邦股份,2020-05-18,112.8,112.89,106.99,110.0,111.96,1018394.0,110787232.0,2112000000.0,8800000000.0
sh688020,方邦股份,2020-05-19,109.2,116.0,108.56,115.27,110.0,1688697.0,190048392.0,2213184000.0,9221600000.0
sh688020,方邦股份,2020-05-20,114.68,114.8,107.35,108.12,115.27,1259559.0,139958902.0,2075904000.0,8649600000.0
sh688020,方邦股份,2020-05-21,108.12,109.0,100.4,100.62,108.12,1058760.0,110077543.0,1931904000.0,8049600000.0
sh688020,方邦股份,2020-05-22,100.1,102.28,97.07,98.91,100.62,752664.0,74880413.0,1899072000.0,7912800000.0
sh688020,方邦股份,2020-05-25,98.88,99.5,94.44,95.0,98.91,823193.0,79242116.0,1824000000.0,7600000000.0
sh688020,方邦股份,2020-05-26,96.3,99.7,95.02,99.5,95.0,779407.0,76401383.0,1910400000.0,7960000000.0
sh688020,方邦股份,2020-05-27,99.03,100.38,96.02,98.44,99.5,572906.0,55986713.0,1890048000.0,7875200000.0
sh688020,方邦股份,2020-05-28,98.65,103.81,98.65,102.79,98.44,1476813.0,150428197.0,1973568000.0,8223200000.0
sh688020,方邦股份,2020-05-29,100.52,104.28,100.52,103.38,102.79,757855.0,78155289.0,1984896000.0,8270400000.0
sh688020,方邦股份,2020-06-01,103.0,109.88,103.0,108.18,103.38,932978.0,100237513.0,2077056000.0,8654400000.0
sh688020,方邦股份,2020-06-02,107.55,108.9,106.18,107.99,108.18,976647.0,105091171.0,2073408000.0,8639200000.0
sh688020,方邦股份,2020-06-03,107.99,110.8,106.33,107.23,107.99,928200.0,100749959.0,2058816000.0,8578400000.0
sh688020,方邦股份,2020-06-04,108.0,108.28,105.11,106.25,107.23,856964.0,91098619.0,2040000000.0,8500000000.0
sh688020,方邦股份,2020-06-05,106.88,109.45,105.8,109.18,106.25,759373.0,81899860.0,2096256000.0,8734400000.0
sh688020,方邦股份,2020-06-08,112.75,113.0,105.01,105.93,109.18,1073303.0,116421516.0,2033856000.0,8474400000.0
sh688020,方邦股份,2020-06-09,105.22,106.44,103.32,105.36,105.93,625219.0,65664990.0,2022912000.0,8428800000.0
sh688020,方邦股份,2020-06-10,106.36,107.44,103.33,103.6,105.36,654809.0,68461223.0,1989120000.0,8288000000.0
sh688020,方邦股份,2020-06-11,103.48,105.99,102.11,102.9,103.6,616238.0,64037985.0,1975680000.0,8232000000.0
sh688020,XD方邦股,2020-06-12,100.78,103.48,100.6,102.4,102.4,354254.0,36218734.0,1966080000.0,8192000000.0
sh688020,方邦股份,2020-06-15,102.0,103.77,99.7,99.72,102.4,595111.0,60080332.0,1914624000.0,7977600000.0
sh688020,方邦股份,2020-06-16,102.0,103.0,99.85,101.44,99.72,1135595.0,114583539.0,1947648000.0,8115200000.0
sh688020,方邦股份,2020-06-17,101.43,102.96,98.88,99.52,101.44,847283.0,84765138.0,1910784000.0,7961600000.0
sh688020,方邦股份,2020-06-18,99.52,101.5,98.69,100.3,99.52,888893.0,89092344.0,1925760000.0,8024000000.0
sh688020,方邦股份,2020-06-19,101.18,104.01,100.25,103.63,100.3,1298730.0,133239886.0,1989696000.0,8290400000.0
sh688020,方邦股份,2020-06-22,104.63,109.94,104.63,107.39,103.63,1347413.0,145049661.0,2061888000.0,8591200000.0
sh688020,方邦股份,2020-06-23,107.5,108.98,106.16,107.5,107.39,740428.0,79639937.0,2064000000.0,8600000000.0
sh688020,方邦股份,2020-06-24,108.0,110.79,108.0,109.51,107.5,1219795.0,133693198.0,2102592000.0,8760800000.0
sh688020,方邦股份,2020-06-29,109.54,109.6,105.0,107.11,109.51,884763.0,94468024.0,2056512000.0,8568800000.0
sh688020,方邦股份,2020-06-30,108.98,118.5,108.11,115.9,107.11,2348681.0,267071320.0,2225280000.0,9272000000.0
sh688020,方邦股份,2020-07-01,116.05,116.8,110.3,113.1,115.9,1454425.0,164536650.0,2171520000.0,9048000000.0
sh688020,方邦股份,2020-07-02,113.11,114.03,110.2,111.93,113.1,1503788.0,168345973.0,2149056000.0,8954400000.0
sh688020,方邦股份,2020-07-03,111.68,113.79,108.8,111.83,111.93,1372625.0,152589669.0,2147136000.0,8946400000.0
sh688020,方邦股份,2020-07-06,111.83,118.2,111.04,116.91,111.83,1805879.0,208140376.0,2244672000.0,9352800000.0
sh688020,方邦股份,2020-07-07,117.1,125.8,115.91,118.89,116.91,2004427.0,243601550.0,2282688000.0,9511200000.0
sh688020,方邦股份,2020-07-08,119.48,124.37,119.32,121.59,118.89,1168066.0,141800453.0,2334528000.0,9727200000.0
sh688020,方邦股份,2020-07-09,122.25,131.0,120.65,126.99,121.59,1958062.0,245179288.0,2438208000.0,10159200000.0
sh688020,方邦股份,2020-07-10,126.75,131.0,124.12,128.35,126.99,1767277.0,225887014.0,2464320000.0,10268000000.0
sh688020,方邦股份,2020-07-13,128.35,129.96,124.35,127.19,128.35,2645682.0,334300689.0,2442048000.0,10175200000.0
sh688020,方邦股份,2020-07-14,127.8,127.8,117.35,122.51,127.19,2443923.0,298308477.0,2352192000.0,9800800000.0
sh688020,方邦股份,2020-07-15,122.02,123.48,115.56,115.8,122.51,1715744.0,203932987.0,2223360000.0,9264000000.0
sh688020,方邦股份,2020-07-16,117.06,118.42,110.2,110.5,115.8,1412764.0,160393740.0,2121600000.0,8840000000.0
sh688020,方邦股份,2020-07-17,111.99,112.43,106.99,107.22,110.5,1000544.0,109075847.0,2058624000.0,8577600000.0
sh688020,方邦股份,2020-07-20,108.0,110.08,106.95,109.57,107.22,910438.0,98872799.0,2103744000.0,8765600000.0
sh688020,方邦股份,2020-07-21,109.51,112.0,108.68,111.79,109.57,749516.0,83006132.0,2146368000.0,8943200000.0
sh688020,方邦股份,2020-07-22,112.0,117.46,111.01,113.99,111.79,992482.0,114365748.0,4179160426.82,9119200000.0
sh688020,方邦股份,2020-07-23,113.0,116.47,111.08,111.95,113.99,999208.0,113128663.0,4104368890.1,8956000000.0
sh688020,方邦股份,2020-07-24,110.44,110.44,102.9,102.98,111.95,1635382.0,172713645.0,3775506103.64,8238400000.0
sh688020,方邦股份,2020-07-27,104.33,105.93,101.08,105.25,102.98,665416.0,69197299.0,3858730019.5,8420000000.0
sh688020,方邦股份,2020-07-28,106.16,107.74,104.0,107.22,105.25,554095.0,59114124.0,3930955179.96,8577600000.0
sh688020,方邦股份,2020-07-29,106.8,113.41,106.28,113.41,107.22,931756.0,102512021.0,4157896166.38,9072800000.0
sh688020,方邦股份,2020-07-30,113.66,113.92,111.13,111.26,113.41,534145.0,59909792.0,4079071752.68,8900800000.0
sh688020,方邦股份,2020-07-31,111.4,117.96,111.4,115.77,111.26,1184985.0,137267502.0,4244419708.86,9261600000.0
sh688020,方邦股份,2020-08-03,117.31,120.7,115.7,119.86,115.77,1146672.0,136446416.0,4394369407.48,9588800000.0
sh688020,方邦股份,2020-08-04,116.58,118.3,112.88,114.0,119.86,1194489.0,137863871.0,4179527052.000001,9120000000.0
sh688020,方邦股份,2020-08-05,114.0,120.09,112.86,120.09,114.0,1302082.0,152760047.0,4402801786.62,9607200000.0
sh688020,方邦股份,2020-08-06,120.09,124.0,118.21,121.0,120.09,1408240.0,170134257.0,4436164678.0,9680000000.0
sh688020,方邦股份,2020-08-07,111.0,113.3,106.02,108.61,121.0,2077015.0,227856078.0,3981916079.98,8688800000.0
sh688020,方邦股份,2020-08-10,108.0,109.72,104.88,108.82,108.61,989554.0,105690379.0,3989615208.76,8705600000.0
sh688020,方邦股份,2020-08-11,109.1,109.88,104.8,104.8,108.82,846925.0,90372079.0,3842231886.4,8384000000.0
sh688020,方邦股份,2020-08-12,104.81,107.48,102.55,106.2,104.8,740851.0,77660641.0,3893559411.6,8496000000.0
sh688020,方邦股份,2020-08-13,107.06,109.37,105.05,107.75,106.2,466744.0,50082347.0,3950386314.5,8620000000.0
sh688020,方邦股份,2020-08-14,107.21,108.69,105.23,106.91,107.75,329571.0,35121559.0,3919589799.38,8552800000.0
sh688020,方邦股份,2020-08-17,106.92,109.81,106.19,108.8,106.91,505281.0,54661511.0,3988881958.4,8704000000.0
sh688020,方邦股份,2020-08-18,108.33,108.99,106.01,108.55,108.8,496332.0,53425955.0,3979716328.9,8684000000.0
sh688020,方邦股份,2020-08-19,108.56,108.56,103.0,104.4,108.55,392214.0,41579987.0,3827566879.2,8352000000.0
sh688020,方邦股份,2020-08-20,104.4,104.9,102.6,103.28,104.4,290067.0,30054731.0,3786504859.04,8262400000.0
sh688020,方邦股份,2020-08-21,104.87,105.71,103.3,104.61,103.28,349114.0,36444023.0,3835266007.98,8368800000.0
sh688020,方邦股份,2020-08-24,105.5,106.34,102.64,105.68,104.61,470931.0,49104842.0,3874494902.24,8454400000.0
sh688020,方邦股份,2020-08-25,105.3,106.45,103.6,104.55,105.68,406680.0,42516531.0,3833066256.9,8364000000.0
sh688020,方邦股份,2020-08-26,104.87,105.4,99.91,99.93,104.55,767982.0,78022364.0,3663685423.74,7994400000.0
sh688020,方邦股份,2020-08-27,99.42,102.84,99.06,101.26,99.93,509881.0,51535336.0,3712446572.68,8100800000.0
sh688020,方邦股份,2020-08-28,101.57,101.57,99.0,100.72,101.26,481716.0,48184149.0,3692648812.96,8057600000.0
sh688020,方邦股份,2020-08-31,101.49,102.17,100.01,100.4,100.72,526230.0,53118225.0,3680916807.2,8032000000.0
sh688020,方邦股份,2020-09-01,100.4,100.77,95.08,96.57,100.4,1015697.0,98495677.0,3540499363.26,7725600000.0
sh688020,方邦股份,2020-09-02,96.6,96.89,95.02,95.1,96.57,542323.0,51762789.0,3486605461.8,7608000000.0
sh688020,方邦股份,2020-09-03,95.39,96.43,94.17,96.15,95.1,613086.0,58530715.0,3525101105.7000003,7692000000.0
sh688020,方邦股份,2020-09-04,95.31,96.4,92.8,95.15,96.15,693808.0,65406357.0,3488438587.7,7612000000.0
sh688020,方邦股份,2020-09-07,95.15,96.54,93.9,94.3,95.15,543379.0,51763440.0,3457275447.4,7544000000.0
sh688020,方邦股份,2020-09-08,94.26,95.08,92.07,94.18,94.3,518263.0,48343713.0,3452875945.24,7534400000.0
sh688020,方邦股份,2020-09-09,93.0,93.42,90.64,92.05,94.18,476829.0,44032217.0,3374784781.9,7364000000.0
sh688020,方邦股份,2020-09-10,92.35,92.84,90.3,90.52,92.05,514819.0,46884037.0,3318691129.36,7241600000.0
sh688020,方邦股份,2020-09-11,90.52,91.99,87.52,91.38,90.52,619735.0,55654781.0,3350220894.84,7310400000.0
sh688020,方邦股份,2020-09-14,92.03,94.72,91.41,94.14,91.38,514197.0,48072215.0,3451409444.5200005,7531200000.0
sh688020,方邦股份,2020-09-15,94.15,95.0,93.18,94.53,94.14,410030.0,38621116.0,3465707826.54,7562400000.0
sh688020,方邦股份,2020-09-16,94.66,94.99,92.83,93.91,94.53,215364.0,20173675.0,3442977065.38,7512800000.0
sh688020,方邦股份,2020-09-17,94.0,96.51,92.69,95.91,93.91,567192.0,54026611.0,3516302101.38,7672800000.0
sh688020,方邦股份,2020-09-18,95.0,96.66,94.54,96.02,95.91,363941.0,34787020.0,3520334978.36,7681600000.0
sh688020,方邦股份,2020-09-21,96.02,96.55,94.23,95.78,96.02,383270.0,36449264.0,3511535974.04,7662400000.0
sh688020,方邦股份,2020-09-22,95.5,96.9,94.07,95.0,95.78,584310.0,55755919.0,3482939209.9999995,7600000000.0
sh688020,方邦股份,2020-09-23,94.85,99.88,94.85,98.95,95.0,774934.0,76198228.0,3627756156.1,7916000000.0
sh688020,方邦股份,2020-09-24,97.8,99.5,95.09,95.6,98.95,701261.0,67822883.0,3504936720.8,7648000000.0
sh688020,方邦股份,2020-09-25,95.51,96.5,92.05,92.46,95.6,643635.0,60089661.0,3389816414.28,7396800000.0
sh688020,方邦股份,2020-09-28,92.69,92.96,88.53,88.9,92.46,639624.0,57696562.0,3259297850.2000003,7112000000.0
sh688020,方邦股份,2020-09-29,89.06,93.45,89.0,91.15,88.9,760078.0,69834724.0,3341788515.7,7292000000.0
sh688020,方邦股份,2020-09-30,91.89,93.85,90.83,92.5,91.15,680852.0,62862668.0,3391282915.0,7400000000.0
sh688020,方邦股份,2020-10-09,93.66,95.49,92.81,93.28,92.5,779605.0,73120479.0,3419879679.04,7462400000.0
sh688020,方邦股份,2020-10-12,93.28,94.68,92.82,94.2,93.28,1163097.0,108763285.0,3453609195.6,7536000000.0
sh688020,方邦股份,2020-10-13,94.6,94.6,92.2,92.9,94.2,971035.0,90415889.0,3405947922.2,7432000000.0
sh688020,方邦股份,2020-10-14,93.3,93.3,90.0,90.87,92.9,1107310.0,101024665.0,3331523010.6600003,7269600000.0
sh688020,方邦股份,2020-10-15,90.35,92.47,90.35,91.29,90.87,497579.0,45512867.0,3346921268.2200003,7303200000.0
sh688020,方邦股份,2020-10-16,91.44,91.99,89.5,91.72,91.29,566268.0,51560385.0,3362686150.96,7337600000.0
sh688020,方邦股份,2020-10-19,92.3,92.3,89.05,89.06,91.72,774350.0,69949406.0,3265163853.0800004,7124800000.0
sh688020,方邦股份,2020-10-20,89.08,89.97,87.66,88.52,89.06,526449.0,46522788.0,3245366093.36,7081600000.0
sh688020,方邦股份,2020-10-21,89.0,89.19,85.1,85.48,88.52,926281.0,79962208.0,3133912038.64,6838400000.0
sh688020,方邦股份,2020-10-22,85.48,86.68,84.3,85.5,85.48,561040.0,48084937.0,3134645288.9999995,6840000000.0
sh688020,方邦股份,2020-10-23,85.36,87.27,84.6,84.63,85.5,602091.0,51674595.0,3102748898.34,6770400000.0
sh688020,方邦股份,2020-10-26,84.66,86.97,83.5,85.72,84.63,638716.0,54847872.0,3142711042.96,6857600000.0
sh688020,方邦股份,2020-10-27,87.01,87.97,85.31,87.35,85.72,482635.0,42008058.0,3202470947.3,6988000000.0
sh688020,方邦股份,2020-10-28,88.29,88.29,86.9,87.89,87.35,313507.0,27493437.0,3222268707.02,7031200000.0
sh688020,方邦股份,2020-10-29,87.57,88.4,87.17,87.66,87.89,298003.0,26176559.0,3213836327.88,7012800000.0
sh688020,方邦股份,2020-10-30,87.0,87.95,84.48,85.15,87.66,1475537.0,126802577.0,3121813407.7000003,6812000000.0
sh688020,方邦股份,2020-11-02,86.1,88.47,84.37,87.63,85.15,783892.0,67707030.0,3212736452.34,7010400000.0
sh688020,方邦股份,2020-11-03,88.37,89.8,88.0,89.45,87.63,445238.0,39695955.0,3279462235.1,7156000000.0
sh688020,方邦股份,2020-11-04,90.33,90.9,89.09,90.45,89.45,477567.0,43014925.0,3316124753.1,7236000000.0
sh688020,方邦股份,2020-11-05,93.49,93.49,90.49,91.78,90.45,406480.0,37249086.0,3364885902.04,7342400000.0
sh688020,方邦股份,2020-11-06,92.99,92.99,90.51,90.68,91.78,361099.0,32888971.0,3324557132.24,7254400000.0
sh688020,方邦股份,2020-11-09,91.45,94.95,91.38,94.78,90.68,735829.0,69116534.0,3474873456.04,7582400000.0
sh688020,方邦股份,2020-11-10,94.5,94.5,93.03,93.56,94.78,384202.0,35958804.0,3430145184.08,7484800000.0
sh688020,方邦股份,2020-11-11,93.32,93.32,89.0,90.78,93.56,374581.0,34046677.0,3328223384.04,7262400000.0
sh688020,方邦股份,2020-11-12,90.81,91.78,90.15,90.77,90.78,215117.0,19557988.0,3327856758.86,7261600000.0
sh688020,方邦股份,2020-11-13,91.72,92.72,90.01,91.6,90.77,312886.0,28646731.0,3358286648.8,7328000000.0
sh688020,方邦股份,2020-11-16,94.96,94.96,91.6,93.7,91.6,787693.0,73444134.0,3435277936.6000004,7496000000.0
sh688020,方邦股份,2020-11-17,94.44,95.37,93.13,94.32,93.7,514553.0,48557201.0,3458008697.76,7545600000.0
sh688020,方邦股份,2020-11-18,94.52,97.55,93.51,96.96,94.32,606665.0,58372888.0,3554797745.28,7756800000.0
sh688020,方邦股份,2020-11-19,96.2,98.47,96.02,98.1,96.96,641090.0,62318667.0,3596593015.8,7848000000.0
sh688020,方邦股份,2020-11-20,98.1,98.77,96.4,97.5,98.1,330831.0,32315522.0,3574595505.0,7800000000.0
sh688020,方邦股份,2020-11-23,97.51,98.45,95.3,95.51,97.5,347847.0,33389609.0,3501637094.1800003,7640800000.0
sh688020,方邦股份,2020-11-24,95.54,97.5,95.14,96.31,95.51,354469.0,34150615.0,3530967108.58,7704800000.0
sh688020,方邦股份,2020-11-25,96.3,99.87,95.74,97.7,96.31,736050.0,72576347.0,3581928008.6000004,7816000000.0
sh688020,方邦股份,2020-11-26,97.76,98.89,97.32,97.65,97.7,463908.0,45488444.0,3580094882.7,7812000000.0
sh688020,方邦股份,2020-11-27,97.65,98.59,93.4,95.06,97.65,478899.0,45605268.0,3485138961.08,7604800000.0
sh688020,方邦股份,2020-11-30,95.07,97.31,94.11,95.05,95.06,339556.0,32634273.0,3484772335.9,7604000000.0
sh688020,方邦股份,2020-12-01,95.05,96.54,94.52,95.68,95.05,327444.0,31177286.0,3507869722.24,7654400000.0
sh688020,方邦股份,2020-12-02,95.74,96.2,94.01,94.1,95.68,378340.0,35836855.0,3449942943.8,7528000000.0
sh688020,方邦股份,2020-12-03,93.63,94.11,92.78,93.35,94.1,362994.0,33863279.0,3422446055.3,7468000000.0
sh688020,方邦股份,2020-12-04,93.13,94.45,92.38,92.46,93.35,432636.0,40317398.0,3389816414.28,7396800000.0
sh688020,方邦股份,2020-12-07,93.48,96.49,91.4,96.25,92.46,1079550.0,102195703.0,3528767357.5,7700000000.0
sh688020,方邦股份,2020-12-08,97.29,97.48,94.76,95.63,96.25,843550.0,81185915.0,3506036596.34,7650400000.0
sh688020,方邦股份,2020-12-09,96.24,96.41,93.1,93.63,95.63,855052.0,80725424.0,3432711560.34,7490400000.0
sh688020,方邦股份,2020-12-10,92.9,97.0,91.46,94.69,93.63,1137779.0,106962686.0,3471573829.42,7575200000.0
sh688020,方邦股份,2020-12-11,94.27,94.69,87.7,89.0,94.69,1232368.0,111121276.0,3262964102.0,7120000000.0
sh688020,方邦股份,2020-12-14,88.25,93.38,88.25,92.35,89.0,841358.0,76994706.0,3385783537.3,7388000000.0
sh688020,方邦股份,2020-12-15,92.35,93.95,91.0,93.0,92.35,446710.0,41563316.0,3409614174.0,7440000000.0
sh688020,方邦股份,2020-12-16,93.91,94.96,92.16,94.51,93.0,575041.0,53885588.0,3464974576.18,7560800000.0
sh688020,方邦股份,2020-12-17,95.2,95.2,92.43,93.76,94.51,299864.0,28073251.0,3437477687.6800003,7500800000.0
sh688020,方邦股份,2020-12-18,93.76,94.7,93.3,94.0,93.76,166835.0,15671027.0,3446276692.0,7520000000.0
sh688020,方邦股份,2020-12-21,93.72,95.7,93.16,95.09,94.0,237455.0,22492202.0,3486238836.62,7607200000.0
sh688020,方邦股份,2020-12-22,95.55,95.56,91.28,92.25,95.09,493695.0,45710017.0,3382117285.5,7380000000.0
sh688020,方邦股份,2020-12-23,92.25,92.49,90.22,92.27,92.25,249107.0,22724874.0,3382850535.86,7381600000.0
sh688020,方邦股份,2020-12-24,92.27,92.27,88.88,89.11,92.27,689104.0,62069353.0,3266996978.98,7128800000.0
sh688020,方邦股份,2020-12-25,88.69,93.0,88.69,92.45,89.11,678342.0,62328626.0,3389449789.1,7396000000.0
sh688020,方邦股份,2020-12-28,92.45,96.96,91.89,96.41,92.45,1079833.0,103004766.0,3534633360.38,7712800000.0
sh688020,方邦股份,2020-12-29,96.41,97.44,95.0,97.2,96.41,654899.0,63128798.0,3563596749.6,7776000000.0
sh688020,方邦股份,2020-12-30,97.19,98.27,94.03,95.3,97.2,1006121.0,96521516.0,3493937965.4,7624000000.0
sh688020,方邦股份,2020-12-31,96.04,96.5,93.91,95.21,95.3,955678.0,90974921.0,3490638338.78,7616800000.0
sh688020,方邦股份,2021-01-04,95.25,96.16,91.03,91.8,95.21,1657889.0,154193734.0,3365619152.4,7344000000.0
sh688020,方邦股份,2021-01-05,91.5,91.5,89.85,91.21,91.8,864820.0,78348944.0,3343988266.78,7296800000.0
sh688020,方邦股份,2021-01-06,91.21,91.21,86.08,88.0,91.21,1100091.0,96780404.0,3226301584.0,7040000000.0
sh688020,方邦股份,2021-01-07,87.8,87.85,83.2,86.9,88.0,977593.0,82964633.0,3185972814.2000003,6952000000.0
sh688020,方邦股份,2021-01-08,84.8,87.52,83.18,86.89,86.9,758976.0,64738560.0,3185606189.02,6951200000.0
sh688020,方邦股份,2021-01-11,86.38,86.49,83.5,84.62,86.89,705154.0,59890857.0,3102382273.16,6769600000.0
sh688020,方邦股份,2021-01-12,84.8,84.8,81.68,83.01,84.62,729595.0,60426859.0,3043355619.18,6640800000.0
sh688020,方邦股份,2021-01-13,82.11,82.98,77.0,77.12,83.01,1565652.0,123243195.0,2827413388.16,6169600000.0
sh688020,方邦股份,2021-01-14,77.58,82.58,76.72,82.07,77.12,1141673.0,91593743.0,3008892852.26,6565600000.0
sh688020,方邦股份,2021-01-15,82.07,84.35,80.08,81.47,82.07,741788.0,61116934.0,2986895341.46,6517600000.0
sh688020,方邦股份,2021-01-18,80.55,83.03,80.55,82.91,81.47,513848.0,42018975.0,3039689367.38,6632800000.0
sh688020,方邦股份,2021-01-19,82.07,84.8,80.82,82.0,82.91,573811.0,47429084.0,3006326476.0000005,6560000000.0
sh688020,方邦股份,2021-01-20,81.31,82.5,80.68,81.25,82.0,333034.0,27094025.0,2978829587.5,6500000000.0
sh688020,方邦股份,2021-01-21,80.98,82.5,79.99,81.94,81.25,469870.0,38226970.0,3004126724.92,6555200000.0
sh688020,方邦股份,2021-01-22,81.38,81.38,78.77,80.0,81.94,693735.0,55375686.0,2933001439.9999995,6400000000.0
sh688020,方邦股份,2021-01-25,78.7,79.86,77.07,77.45,80.0,709879.0,55507196.0,2839512019.1,6196000000.0
sh688020,方邦股份,2021-01-26,76.78,78.19,75.39,75.54,77.45,427655.0,32703027.0,2769486609.72,6043200000.0
sh688020,方邦股份,2021-01-27,75.88,75.88,73.42,74.48,75.54,409327.0,30395456.0,2730624340.64,5958400000.0
sh688020,方邦股份,2021-01-28,73.65,77.88,73.65,76.02,74.48,548899.0,41884659.0,2787084618.36,6081600000.0
sh688020,方邦股份,2021-01-29,77.0,78.62,75.99,78.0,76.02,640453.0,49753040.0,2859676403.9999995,6240000000.0
sh688020,方邦股份,2021-02-01,78.73,78.73,75.76,76.28,78.0,367683.0,28128569.0,2796616873.0400004,6102400000.0
sh688020,方邦股份,2021-02-02,75.53,76.84,74.8,75.26,76.28,450040.0,33879730.0,2759221104.68,6020800000.0
sh688020,方邦股份,2021-02-03,76.22,81.63,74.12,81.28,75.26,1220011.0,96715227.0,2979929463.04,6502400000.0
sh688020,方邦股份,2021-02-04,81.2,81.99,78.75,80.22,81.28,850568.0,68083230.0,2941067193.96,6417600000.0
sh688020,方邦股份,2021-02-05,79.44,81.2,79.36,80.3,80.22,419643.0,33676914.0,2944000195.4,6424000000.0
sh688020,方邦股份,2021-02-08,80.3,85.0,79.64,81.98,80.3,677370.0,56059691.0,3005593225.64,6558400000.0
sh688020,方邦股份,2021-02-09,81.98,84.84,80.5,84.55,81.98,554804.0,46469596.0,3099815896.9,6764000000.0
sh688020,方邦股份,2021-02-10,84.87,85.88,83.0,84.82,84.55,426138.0,35997137.0,3109714776.76,6785600000.0
sh688020,方邦股份,2021-02-18,85.31,87.71,85.31,87.1,84.82,511988.0,44445224.0,3193305317.8,6968000000.0
sh688020,方邦股份,2021-02-19,87.12,87.69,86.22,86.36,87.1,409331.0,35555712.0,3166175054.48,6908800000.0
sh688020,方邦股份,2021-02-22,85.57,86.81,83.92,84.0,86.36,527070.0,44792732.0,3079651512.0,6720000000.0
sh688020,方邦股份,2021-02-23,83.19,87.65,83.19,86.03,84.0,360336.0,30833575.0,3154076423.54,6882400000.0
sh688020,方邦股份,2021-02-24,86.03,87.3,85.39,86.24,86.03,272947.0,23514078.0,3161775552.32,6899200000.0
sh688020,方邦股份,2021-02-25,85.7,87.0,82.28,85.48,86.24,761704.0,64173178.0,3133912038.64,6838400000.0
sh688020,方邦股份,2021-02-26,83.0,85.92,82.68,84.0,85.48,666251.0,55668176.0,3079651512.0,6720000000.0
sh688020,方邦股份,2021-03-01,84.3,89.5,82.35,88.1,84.0,660171.0,57678825.0,3229967835.8,7048000000.0
sh688020,方邦股份,2021-03-02,87.6,88.76,86.01,86.8,88.1,282197.0,24615003.0,3182306562.4,6944000000.0
sh688020,方邦股份,2021-03-03,86.01,86.36,82.11,83.35,86.8,611756.0,50891292.0,3055820875.3,6668000000.0
sh688020,方邦股份,2021-03-04,82.52,83.5,82.01,83.0,83.35,305816.0,25271689.0,3042988994.0,6640000000.0
sh688020,方邦股份,2021-03-05,82.23,83.45,82.1,82.59,83.0,180594.0,14936728.0,3027957361.62,6607200000.0
sh688020,方邦股份,2021-03-08,82.8,84.98,82.36,82.6,82.59,404152.0,33851590.0,3028323986.8,6608000000.0
sh688020,方邦股份,2021-03-09,82.2,83.37,78.79,80.51,82.6,226714.0,18333974.0,2951699324.1800003,6440800000.0
sh688020,方邦股份,2021-03-10,80.83,81.36,79.83,80.07,80.51,146282.0,11758377.0,2935567816.26,6405600000.0
sh688020,方邦股份,2021-03-11,81.0,81.38,79.22,80.03,80.07,168970.0,13538828.0,2934101315.5400004,6402400000.0
sh688020,方邦股份,2021-03-12,80.49,80.49,79.05,79.98,80.03,149866.0,11925075.0,2932268189.64,6398400000.0
sh688020,方邦股份,2021-03-15,80.28,80.28,78.87,79.3,79.98,143039.0,11360145.0,2907337677.4,6344000000.0
sh688020,方邦股份,2021-03-16,79.41,80.94,79.0,79.62,79.3,162855.0,12961991.0,2919069683.1600003,6369600000.0
sh688020,方邦股份,2021-03-17,79.81,80.22,76.8,77.34,79.62,299987.0,23464705.0,2835479142.12,6187200000.0
sh688020,方邦股份,2021-03-18,76.83,77.18,74.25,74.88,77.34,409789.0,30773437.0,2745289347.84,5990400000.0
sh688020,方邦股份,2021-03-19,75.11,75.11,72.7,74.24,74.88,384761.0,28277564.0,2721825336.32,5939200000.0
sh688020,方邦股份,2021-03-22,74.15,74.15,71.0,73.1,74.24,573787.0,41671569.0,2680030065.8,5848000000.0
sh688020,方邦股份,2021-03-23,72.7,74.52,72.4,72.7,73.1,425263.0,31098101.0,2665365058.6,5816000000.0
sh688020,方邦股份,2021-03-24,72.7,72.7,71.0,71.1,72.7,384178.0,27460760.0,2606705029.8,5688000000.0
sh688020,方邦股份,2021-03-25,71.08,71.66,70.01,71.25,71.1,505179.0,35622694.0,2612204407.5,5700000000.0
sh688020,方邦股份,2021-03-26,71.25,71.91,70.28,71.9,71.25,625606.0,44441699.0,2636035044.2000003,5752000000.0
sh688020,方邦股份,2021-03-29,71.91,72.17,70.3,71.7,71.9,345022.0,24532412.0,2628702540.6,5736000000.0
sh688020,方邦股份,2021-03-30,71.69,71.69,70.16,71.02,71.7,286406.0,20260866.0,2603772028.36,5681600000.0
sh688020,方邦股份,2021-03-31,71.46,71.46,70.33,71.0,71.02,205487.0,14531388.0,2603038778.0,5680000000.0
sh688020,方邦股份,2021-04-01,71.22,74.98,71.12,73.44,71.0,532666.0,39173734.0,2692495321.92,5875200000.0
sh688020,方邦股份,2021-04-02,73.43,73.9,72.53,73.46,73.44,202964.0,14878698.0,2693228572.28,5876800000.0
sh688020,方邦股份,2021-04-06,74.33,74.38,73.0,73.45,73.46,133667.0,9830118.0,2692861947.1,5876000000.0
sh688020,方邦股份,2021-04-07,73.45,73.85,73.03,73.44,73.45,124497.0,9129416.0,2692495321.92,5875200000.0
sh688020,方邦股份,2021-04-08,73.07,73.95,72.95,73.44,73.44,192855.0,14172125.0,2692495321.92,5875200000.0
sh688020,方邦股份,2021-04-09,72.95,75.43,71.15,74.6,73.44,638976.0,46908010.0,2735023842.8,5968000000.0
sh688020,方邦股份,2021-04-12,74.46,75.25,74.0,74.38,74.6,246132.0,18357410.0,2726958088.84,5950400000.0
sh688020,方邦股份,2021-04-13,74.23,74.93,73.2,73.83,74.38,168711.0,12489324.0,2706793703.94,5906400000.0
sh688020,方邦股份,2021-04-14,73.75,74.09,72.8,73.12,73.83,149826.0,10983011.0,2680763316.16,5849600000.0
sh688020,方邦股份,2021-04-15,73.5,77.77,72.35,77.26,73.12,683751.0,52008362.0,2832546140.68,6180800000.0
sh688020,方邦股份,2021-04-16,76.5,78.5,76.15,77.37,77.26,417971.0,32201748.0,2836579017.6600003,6189600000.0
sh688020,方邦股份,2021-04-19,78.49,80.77,76.51,80.43,77.37,563622.0,44695883.0,2948766322.74,6434400000.0
sh688020,方邦股份,2021-04-20,80.46,81.92,79.75,81.88,80.43,375444.0,30435027.0,3001926973.84,6550400000.0
sh688020,方邦股份,2021-04-21,77.9,80.48,77.12,80.48,81.88,546107.0,42858418.0,2950599448.6400003,6438400000.0
sh688020,方邦股份,2021-04-22,80.45,83.9,79.7,83.07,80.48,487023.0,40252764.0,3045555370.26,6645600000.0
sh688020,方邦股份,2021-04-23,83.07,83.6,82.0,82.99,83.07,227477.0,18845645.0,3042622368.82,6639200000.0
sh688020,方邦股份,2021-04-26,84.0,84.28,82.3,82.3,82.99,277191.0,23096199.0,3017325231.4,6584000000.0
sh688020,方邦股份,2021-04-27,81.46,82.22,79.02,79.43,82.3,467923.0,37399959.0,2912103804.74,6354400000.0
sh688020,方邦股份,2021-04-28,79.84,82.0,78.08,80.1,79.43,364470.0,28979631.0,2936667691.8,6408000000.0
sh688020,方邦股份,2021-04-29,79.52,80.96,79.52,80.02,80.1,179055.0,14359483.0,2933734690.36,6401600000.0
sh688020,方邦股份,2021-04-30,81.16,81.16,77.8,79.45,80.02,389864.0,30812209.0,2912837055.1,6356000000.0
sh688020,方邦股份,2021-05-06,78.5,80.35,77.26,77.5,79.45,229700.0,18046511.0,2841345145.0,6200000000.0
sh688020,方邦股份,2021-05-07,77.5,77.79,76.54,77.24,77.5,206887.0,15922962.0,2831812890.32,6179200000.0
sh688020,方邦股份,2021-05-10,76.16,80.47,76.0,80.47,77.24,335773.0,26432743.0,2950232823.46,6437600000.0
sh688020,方邦股份,2021-05-11,80.45,82.0,80.0,80.28,80.47,177709.0,14336567.0,2943266945.04,6422400000.0
sh688020,方邦股份,2021-05-12,80.0,81.78,77.92,81.16,80.28,189355.0,15223632.0,2975529960.88,6492800000.0
sh688020,方邦股份,2021-05-13,79.51,81.86,78.58,78.82,81.16,366681.0,29332226.0,2889739668.76,6305600000.0
sh688020,方邦股份,2021-05-14,79.77,79.77,74.56,77.45,78.82,680316.0,51923790.0,2839512019.1,6196000000.0
sh688020,方邦股份,2021-05-17,76.2,80.64,75.93,79.05,77.45,442081.0,34458214.0,2898172047.9,6324000000.0
sh688020,方邦股份,2021-05-18,79.69,79.69,77.0,78.13,79.05,278364.0,21734494.0,2864442531.34,6250400000.0
sh688020,方邦股份,2021-05-19,77.02,78.34,75.7,75.87,78.13,326376.0,24933997.0,2781585240.6600003,6069600000.0
sh688020,方邦股份,2021-05-20,76.16,77.3,75.6,75.79,75.87,247000.0,18811974.0,2778652239.22,6063200000.0
sh688020,方邦股份,2021-05-21,76.62,76.62,74.6,74.75,75.79,294379.0,22108369.0,2740523220.5,5980000000.0
sh688020,方邦股份,2021-05-24,74.74,75.77,74.4,75.37,74.75,254884.0,19174662.0,2763253981.6600003,6029600000.0
sh688020,方邦股份,2021-05-25,75.05,76.71,75.01,75.33,75.37,267644.0,20229771.0,2761787480.94,6026400000.0
sh688020,方邦股份,2021-05-26,75.88,78.6,75.06,78.31,75.33,516638.0,39880570.0,2871041784.58,6264800000.0
sh688020,方邦股份,2021-05-27,77.33,79.55,77.33,79.44,78.31,303815.0,23933936.0,2912470429.92,6355200000.0
sh688020,方邦股份,2021-05-28,78.78,80.85,78.58,78.92,79.44,352456.0,28067777.0,2893405920.5600004,6313600000.0
sh688020,方邦股份,2021-05-31,79.56,80.22,78.19,80.11,78.92,519168.0,41091293.0,2937034316.98,6408800000.0
sh688020,方邦股份,2021-06-01,80.11,81.97,79.63,80.36,80.11,649510.0,52629601.0,2946199946.48,6428800000.0
sh688020,方邦股份,2021-06-02,80.98,81.28,78.91,80.0,80.36,381137.0,30473701.0,2933001439.9999995,6400000000.0
sh688020,方邦股份,2021-06-03,80.2,81.8,79.23,80.13,80.0,436128.0,35251120.0,2937767567.34,6410400000.0
sh688020,方邦股份,2021-06-04,80.82,82.8,79.34,81.62,80.13,405563.0,33049814.0,2992394719.1600003,6529600000.0
sh688020,方邦股份,2021-06-07,82.98,83.0,81.0,81.51,81.62,466873.0,38249583.0,2988361842.18,6520800000.0
sh688020,方邦股份,2021-06-08,81.56,82.6,80.29,80.52,81.51,421591.0,34116888.0,2952065949.36,6441600000.0
sh688020,方邦股份,2021-06-09,80.99,81.39,79.4,79.42,80.52,284344.0,22726423.0,2911737179.56,6353600000.0
sh688020,方邦股份,2021-06-10,79.8,82.55,79.45,80.98,79.42,557947.0,45261144.0,2968930707.64,6478400000.0
sh688020,XD方邦股,2021-06-11,80.7,81.47,77.05,77.26,80.48,507184.0,40007322.0,2832546140.68,6180800000.0
sh688020,方邦股份,2021-06-15,77.65,78.65,77.0,77.21,77.26,235165.0,18212980.0,2830713014.78,6176800000.0
sh688020,方邦股份,2021-06-16,76.18,79.97,75.6,76.08,77.21,497406.0,38514322.0,2789284369.44,6086400000.0
sh688020,方邦股份,2021-06-17,77.11,83.98,76.06,83.0,76.08,1008686.0,80697537.0,3042988994.0,6640000000.0
sh688020,方邦股份,2021-06-18,84.8,89.0,84.11,84.57,83.0,1717064.0,148856150.0,3100549147.26,6765600000.0
sh688020,方邦股份,2021-06-21,86.38,90.58,83.88,89.98,84.57,1343648.0,117472561.0,3298893369.6400003,7198400000.0
sh688020,方邦股份,2021-06-22,90.5,90.5,87.6,88.15,89.98,429676.0,37925540.0,3231800961.7,7052000000.0
sh688020,方邦股份,2021-06-23,88.99,91.54,87.7,90.06,88.15,1071460.0,96380126.0,3301826371.08,7204800000.0
sh688020,方邦股份,2021-06-24,90.06,97.98,89.51,93.68,90.06,1118048.0,105319982.0,3434544686.24,7494400000.0
sh688020,方邦股份,2021-06-25,96.0,96.0,90.98,91.9,93.68,590717.0,54550759.0,3369285404.2,7352000000.0
sh688020,方邦股份,2021-06-28,92.3,95.78,91.0,95.01,91.9,790059.0,74542476.0,3483305835.1800003,7600800000.0
sh688020,方邦股份,2021-06-29,95.23,95.92,92.0,92.8,95.01,508869.0,47522714.0,3402281670.4,7424000000.0
sh688020,方邦股份,2021-06-30,93.24,95.44,92.64,92.97,92.8,664058.0,62230593.0,3408514298.46,7437600000.0
sh688020,方邦股份,2021-07-01,93.95,94.48,88.53,88.98,92.97,671043.0,60988648.0,3262230851.64,7118400000.0
sh688020,方邦股份,2021-07-02,89.82,93.18,89.01,89.81,88.98,1000331.0,90717089.0,3292660741.58,7184800000.0
sh688020,方邦股份,2021-07-05,89.8,94.9,89.26,90.31,89.81,688347.0,62770102.0,3310992000.58,7224800000.0
sh688020,方邦股份,2021-07-06,89.66,92.31,86.18,86.6,90.31,780672.0,68978772.0,3174974058.8,6928000000.0
sh688020,方邦股份,2021-07-07,86.68,90.0,86.26,89.16,86.6,499913.0,44141398.0,3268830104.88,7132800000.0
sh688020,方邦股份,2021-07-08,89.9,90.48,87.31,88.3,89.16,552789.0,48862127.0,3237300339.4,7064000000.0
sh688020,方邦股份,2021-07-09,88.88,92.81,88.88,91.75,88.3,844491.0,77208391.0,3363786026.5,7340000000.0
sh688020,方邦股份,2021-07-12,91.5,91.75,89.33,89.65,91.75,956241.0,86196912.0,3286794738.7,7172000000.0
sh688020,方邦股份,2021-07-13,89.0,91.05,88.12,90.19,89.65,546633.0,48944910.0,3306592498.42,7215200000.0
sh688020,方邦股份,2021-07-14,90.5,90.5,86.66,87.39,90.19,621065.0,54651601.0,3203937448.02,6991200000.0
sh688020,方邦股份,2021-07-15,87.59,87.59,84.9,85.45,87.39,421417.0,36109446.0,3132812163.1,6836000000.0
sh688020,方邦股份,2021-07-16,85.69,89.27,85.47,88.4,85.45,569407.0,50178681.0,3240966591.2000003,7072000000.0
sh688020,方邦股份,2021-07-19,88.88,89.18,87.0,87.55,88.4,279804.0,24566724.0,3209803450.9,7004000000.0
sh688020,方邦股份,2021-07-20,87.0,87.1,83.88,86.12,87.55,651253.0,55717533.0,3157376050.16,6889600000.0
sh688020,方邦股份,2021-07-21,86.3,92.68,85.59,91.62,86.12,871125.0,78889247.0,3359019899.16,7329600000.0
sh688020,方邦股份,2021-07-22,92.0,93.5,90.16,92.96,91.62,482878.0,44708254.0,3482515673.28,7436800000.0
sh688020,方邦股份,2021-07-23,91.4,93.27,90.5,91.4,92.96,440035.0,40337683.0,3424074145.2,7312000000.0
sh688020,方邦股份,2021-07-26,91.65,92.58,88.4,91.57,91.4,420235.0,38131946.0,3430442773.26,7325600000.0
sh688020,方邦股份,2021-07-27,91.69,94.56,89.5,93.06,91.57,1026310.0,95618287.0,3486261925.08,7444800000.0
sh688020,方邦股份,2021-07-28,91.76,91.76,83.9,87.63,93.06,856125.0,75047597.0,3282840452.34,7010400000.0
sh688020,方邦股份,2021-07-29,88.0,93.38,87.95,92.6,87.63,706996.0,64848305.0,3469029166.8,7408000000.0
sh688020,方邦股份,2021-07-30,90.0,98.58,89.11,98.0,92.6,1728531.0,167402792.0,3671326764.0,7840000000.0
sh688020,方邦股份,2021-08-02,100.19,101.0,89.38,89.51,98.0,2093497.0,194748286.0,3353269986.1800003,7160800000.0
sh688020,方邦股份,2021-08-03,89.02,92.43,86.5,87.01,89.51,1039671.0,92733109.0,3259613691.18,6960800000.0
sh688020,方邦股份,2021-08-04,86.8,90.21,86.8,89.5,87.01,658370.0,58242426.0,3352895361.0000005,7160000000.0
sh688020,方邦股份,2021-08-05,89.89,89.89,86.61,86.92,89.5,644618.0,56375400.0,3256242064.56,6953600000.0
sh688020,方邦股份,2021-08-06,87.99,89.31,86.03,87.5,86.92,458034.0,40100974.0,3277970324.9999995,7000000000.0
sh688020,方邦股份,2021-08-09,88.31,88.31,85.61,86.08,87.5,489636.0,42184409.0,3224773549.44,6886400000.0
sh688020,方邦股份,2021-08-10,85.9,86.98,84.6,84.8,86.08,695571.0,59549704.0,3176821526.4,6784000000.0
sh688020,方邦股份,2021-08-11,85.04,89.98,84.51,89.98,84.8,993683.0,87288096.0,3370877369.64,7198400000.0
sh688020,方邦股份,2021-08-12,89.98,91.47,87.97,88.14,89.98,410795.0,36703036.0,3301946336.52,7051200000.0
sh688020,方邦股份,2021-08-13,89.8,90.85,87.03,87.88,88.14,590293.0,52216663.0,3292206081.84,7030400000.0
sh688020,方邦股份,2021-08-16,87.51,91.5,87.1,88.9,87.88,625349.0,55987505.0,3330417850.2000003,7112000000.0
sh688020,方邦股份,2021-08-17,87.93,89.19,86.6,86.76,88.9,620195.0,54262606.0,3250248061.68,6940800000.0
sh688020,方邦股份,2021-08-18,87.81,88.31,82.8,84.57,86.76,881762.0,74739163.0,3168205147.26,6765600000.0
sh688020,方邦股份,2021-08-19,83.76,88.69,83.67,88.0,84.57,549162.0,47735244.0,3296701584.0,7040000000.0
sh688020,方邦股份,2021-08-20,88.69,89.8,86.18,89.3,88.0,454588.0,40299298.0,3345402857.4,7144000000.0
sh688020,方邦股份,2021-08-23,88.8,94.79,88.8,93.95,89.3,916931.0,85289247.0,3519603566.1000004,7516000000.0
sh688020,方邦股份,2021-08-24,94.01,94.98,92.99,94.13,93.95,405950.0,38129170.0,3526346819.34,7530400000.0
sh688020,方邦股份,2021-08-25,94.21,97.0,91.63,92.88,94.13,597608.0,55817358.0,3479518671.84,7430400000.0
sh688020,方邦股份,2021-08-26,92.45,97.53,92.1,93.01,92.88,719640.0,68222046.0,3484388799.1800003,7440800000.0
sh688020,方邦股份,2021-08-27,93.49,95.79,91.0,93.05,93.01,570214.0,52981405.0,3485887299.9,7444000000.0
sh688020,方邦股份,2021-08-30,92.82,94.59,91.01,93.3,93.05,538509.0,50000292.0,3495252929.4,7464000000.0
sh688020,方邦股份,2021-08-31,93.9,93.9,89.41,92.02,93.3,563239.0,51301866.0,3447300906.36,7361600000.0
sh688020,方邦股份,2021-09-01,92.02,92.02,88.01,90.65,92.02,604744.0,54202169.0,3395977256.7000003,7252000000.0
sh688020,方邦股份,2021-09-02,90.65,95.55,90.18,90.92,90.65,953670.0,88858264.0,3406092136.56,7273600000.0
sh688020,方邦股份,2021-09-03,92.03,96.67,90.23,93.1,90.92,970393.0,91056519.0,3487760425.8,7448000000.0
sh688020,方邦股份,2021-09-06,94.0,94.0,90.61,91.11,93.1,640896.0,58811013.0,3413210014.98,7288800000.0
sh688020,方邦股份,2021-09-07,91.7,91.7,90.2,90.69,91.11,515587.0,46803910.0,3397475757.42,7255200000.0
sh688020,方邦股份,2021-09-08,91.5,97.5,90.6,96.25,90.69,1360099.0,130278378.0,3605767357.5,7700000000.0
sh688020,方邦股份,2021-09-09,96.89,97.79,93.6,95.0,96.25,755113.0,71779011.0,3558939209.9999995,7600000000.0
sh688020,方邦股份,2021-09-10,94.74,109.3,94.02,103.85,95.0,2583126.0,263817268.0,3890482494.3,8308000000.0
sh688020,方邦股份,2021-09-13,103.85,108.68,102.01,103.37,103.85,1477460.0,155223001.0,3872500485.66,8269600000.0
sh688020,方邦股份,2021-09-14,101.97,105.99,99.99,102.6,103.37,902430.0,92561345.0,3843654346.8,8208000000.0
sh688020,方邦股份,2021-09-15,101.2,103.03,98.2,99.0,102.6,738934.0,73739714.0,3708789282.000001,7920000000.0
sh688020,方邦股份,2021-09-16,99.21,99.79,96.79,97.6,99.0,677291.0,66196341.0,3656341756.8,7808000000.0
sh688020,方邦股份,2021-09-17,97.01,97.71,91.02,93.5,97.6,922838.0,86418872.0,3502745433.0,7480000000.0
sh688020,方邦股份,2021-09-22,93.5,93.9,86.93,87.68,93.5,1092226.0,96925487.0,3284713578.24,7014400000.0
sh688020,方邦股份,2021-09-23,87.72,89.09,86.28,86.8,87.68,610122.0,53093838.0,3251746562.4,6944000000.0
sh688020,方邦股份,2021-09-24,86.81,87.68,83.5,86.8,86.8,1038415.0,88550154.0,3251746562.4,6944000000.0
sh688020,方邦股份,2021-09-27,85.52,86.68,79.4,81.82,86.8,776519.0,63438600.0,3065183222.76,6545600000.0
sh688020,方邦股份,2021-09-28,81.68,85.8,80.81,83.98,81.82,553772.0,46336882.0,3146102261.64,6718400000.0
sh688020,方邦股份,2021-09-29,83.01,84.59,81.2,81.2,83.98,297194.0,24621329.0,3041956461.6,6496000000.0
sh688020,方邦股份,2021-09-30,81.96,84.38,81.02,84.01,81.2,265436.0,22159030.0,3147226137.1800003,6720800000.0
sh688020,方邦股份,2021-10-08,85.49,85.49,82.61,84.0,84.01,224063.0,18659029.0,3146851512.0,6720000000.0
sh688020,方邦股份,2021-10-11,83.72,84.25,83.0,84.0,84.0,349007.0,29226866.0,3146851512.0,6720000000.0
sh688020,方邦股份,2021-10-12,86.77,86.77,81.95,82.25,84.0,182380.0,15130107.0,3081292105.5,6580000000.0
sh688020,方邦股份,2021-10-13,82.21,83.77,81.52,83.14,82.25,114608.0,9452812.0,3114633746.5200005,6651200000.0
sh688020,方邦股份,2021-10-14,83.95,83.95,82.77,83.8,83.14,85232.0,7123417.0,3139359008.4,6704000000.0
sh688020,方邦股份,2021-10-15,83.49,83.49,81.97,82.35,83.8,118157.0,9763849.0,3085038357.3,6588000000.0
sh688020,方邦股份,2021-10-18,83.86,83.86,78.51,79.54,82.35,303231.0,24388340.0,2979768681.72,6363200000.0
sh688020,方邦股份,2021-10-19,79.54,82.83,79.04,81.55,79.54,447903.0,36422461.0,3055068342.9,6524000000.0
sh688020,方邦股份,2021-10-20,81.51,83.59,80.18,83.11,81.55,303998.0,24935147.0,3113509870.98,6648800000.0
sh688020,方邦股份,2021-10-21,83.88,83.88,82.0,82.77,83.11,414191.0,34290828.0,3100772614.86,6621600000.0
sh688020,方邦股份,2021-10-22,83.01,85.08,82.11,84.71,82.77,366804.0,30840397.0,3173449899.78,6776800000.0
sh688020,方邦股份,2021-10-25,85.21,89.87,84.2,89.38,84.71,883183.0,77469994.0,3348399858.84,7150400000.0
sh688020,方邦股份,2021-10-26,89.38,89.38,87.0,88.47,89.38,351401.0,31011843.0,3314308967.46,7077600000.0
sh688020,方邦股份,2021-10-27,89.5,89.76,87.8,88.84,88.47,295604.0,26233345.0,3328170099.12,7107200000.0
sh688020,方邦股份,2021-10-28,88.02,89.61,86.11,86.11,88.84,239952.0,21121116.0,3225897424.9799995,6888800000.0
sh688020,方邦股份,2021-10-29,87.28,87.28,85.0,85.35,86.11,153622.0,13177100.0,3197425911.3,6828000000.0
sh688020,方邦股份,2021-11-01,85.35,88.49,81.01,87.02,85.35,772942.0,64851400.0,3259988316.36,6961600000.0
sh688020,方邦股份,2021-11-02,92.88,99.38,90.28,91.0,87.02,1453893.0,137433570.0,3409089138.0,7280000000.0
sh688020,方邦股份,2021-11-03,94.26,94.28,91.01,92.43,91.0,461062.0,42809460.0,3462660538.74,7394400000.0
sh688020,方邦股份,2021-11-04,93.12,100.42,91.02,98.18,92.43,1128408.0,110866560.0,3678070017.24,7854400000.0
sh688020,方邦股份,2021-11-05,100.37,100.37,97.0,97.5,98.18,415788.0,40828956.0,3652595505.0,7800000000.0
sh688020,方邦股份,2021-11-08,97.54,100.77,96.71,100.01,97.5,789598.0,78123876.0,3746626425.18,8000800000.0
sh688020,方邦股份,2021-11-09,101.16,101.16,98.11,98.8,100.01,305912.0,30320954.0,3701296778.4,7904000000.0
sh688020,方邦股份,2021-11-10,99.99,100.99,97.11,98.95,98.8,355570.0,35195219.0,3706916156.1,7916000000.0
sh688020,方邦股份,2021-11-11,97.5,100.5,94.7,95.8,98.95,1111112.0,107697753.0,3588909224.4,7664000000.0
sh688020,方邦股份,2021-11-12,96.0,99.77,94.34,98.65,95.8,748233.0,73186857.0,3695677400.7,7892000000.0
sh688020,方邦股份,2021-11-15,98.88,99.7,96.44,98.18,98.65,707164.0,69342400.0,3678070017.24,7854400000.0
sh688020,方邦股份,2021-11-16,99.3,99.3,96.01,97.17,98.18,559333.0,54681840.0,3640232874.06,7773600000.0
sh688020,方邦股份,2021-11-17,97.17,99.48,95.78,98.15,97.17,501378.0,49161177.0,3676946141.7,7852000000.0
sh688020,方邦股份,2021-11-18,99.34,99.34,94.4,95.09,98.15,734762.0,70319497.0,3562310836.6200004,7607200000.0
sh688020,方邦股份,2021-11-19,95.39,97.24,91.7,93.12,95.09,962937.0,90032482.0,3488509676.16,7449600000.0
sh688020,方邦股份,2021-11-22,93.34,95.19,90.35,91.52,93.12,1502175.0,137997121.0,3428569647.36,7321600000.0
sh688020,方邦股份,2021-11-23,91.38,91.5,88.44,88.91,91.52,1265924.0,113078521.0,3330792475.38,7112800000.0
sh688020,方邦股份,2021-11-24,89.0,92.88,88.52,91.2,88.91,647816.0,59185823.0,3416581641.6,7296000000.0
sh688020,方邦股份,2021-11-25,92.9,92.9,90.0,90.92,91.2,443328.0,40373821.0,3406092136.56,7273600000.0
sh688020,方邦股份,2021-11-26,90.45,92.37,88.61,90.3,90.92,558153.0,50356105.0,3382865375.4,7224000000.0
sh688020,方邦股份,2021-11-29,89.9,92.98,89.02,91.01,90.3,627564.0,57623818.0,3409463763.1800003,7280800000.0
sh688020,方邦股份,2021-11-30,90.8,94.44,89.88,91.09,91.01,699721.0,64428644.0,3412460764.6200004,7287200000.0
sh688020,方邦股份,2021-12-01,91.2,92.93,90.5,91.12,91.09,540751.0,49621525.0,3413584640.16,7289600000.0
sh688020,方邦股份,2021-12-02,91.12,94.37,89.2,93.42,91.12,1208491.0,111252587.0,3499748431.56,7473600000.0
sh688020,方邦股份,2021-12-03,92.9,93.42,90.05,90.54,93.42,999327.0,91012543.0,3391856379.72,7243200000.0
sh688020,方邦股份,2021-12-06,91.25,91.67,89.67,89.7,90.54,421496.0,38035943.0,3360387864.6,7176000000.0
sh688020,方邦股份,2021-12-07,91.75,91.75,84.31,85.1,89.7,784810.0,68072865.0,3188060281.8,6808000000.0
sh688020,方邦股份,2021-12-08,85.37,88.77,85.36,86.57,85.1,633593.0,55170766.0,3243130183.26,6925600000.0
sh688020,方邦股份,2021-12-09,85.0,89.48,85.0,88.65,86.57,649285.0,57039306.0,3321052220.7000003,7092000000.0
sh688020,方邦股份,2021-12-10,88.38,89.8,86.88,88.84,88.65,724942.0,63919259.0,3328170099.12,7107200000.0
sh688020,方邦股份,2021-12-13,88.89,90.59,88.18,88.98,88.84,334330.0,29971869.0,3333414851.6400003,7118400000.0
sh688020,方邦股份,2021-12-14,90.19,90.19,88.02,88.21,88.98,291374.0,25829203.0,3304568712.78,7056800000.0
sh688020,方邦股份,2021-12-15,88.98,90.93,88.0,89.94,88.21,414836.0,37141024.0,3369378868.9199996,7195200000.0
sh688020,方邦股份,2021-12-16,90.85,95.36,89.07,94.07,89.94,1052829.0,98102020.0,3524099068.26,7525600000.0
sh688020,方邦股份,2021-12-17,94.07,94.14,91.7,91.99,94.07,446401.0,41468393.0,3446177030.82,7359200000.0
sh688020,方邦股份,2021-12-20,91.0,92.89,90.38,91.55,91.99,491118.0,44936382.0,3429693522.9,7324000000.0
sh688020,方邦股份,2021-12-21,91.73,95.47,91.68,93.08,91.55,599514.0,56316963.0,3487011175.4399996,7446400000.0
sh688020,方邦股份,2021-12-22,93.09,95.45,92.82,94.89,93.08,350139.0,33081739.0,3554818333.02,7591200000.0
sh688020,方邦股份,2021-12-23,95.48,96.0,92.45,93.05,94.89,425306.0,40065083.0,3485887299.9,7444000000.0
sh688020,方邦股份,2021-12-24,93.06,93.6,90.09,90.22,93.05,427773.0,38989868.0,3379868373.96,7217600000.0
sh688020,方邦股份,2021-12-27,91.5,91.55,88.89,89.82,90.22,336294.0,30078177.0,3364883366.7599998,7185600000.0
sh688020,方邦股份,2021-12-28,89.89,90.59,89.01,89.23,89.82,290438.0,26049466.0,3342780481.14,7138400000.0
sh688020,方邦股份,2021-12-29,89.43,89.96,87.5,88.8,89.23,269022.0,23779256.0,3326671598.3999996,7104000000.0
sh688020,方邦股份,2021-12-30,88.99,92.8,88.66,90.8,88.8,474183.0,43083610.0,3401596634.3999996,7264000000.0
sh688020,方邦股份,2021-12-31,92.38,93.63,90.81,91.15,90.8,361718.0,33335050.0,3414708515.7,7292000000.0
sh688020,方邦股份,2022-01-04,91.31,93.52,88.29,89.07,91.15,579192.0,51997318.0,3336786478.26,7125600000.0
sh688020,方邦股份,2022-01-05,88.88,88.89,85.77,85.96,89.07,620354.0,53841934.0,3220278047.28,6876800000.0
sh688020,方邦股份,2022-01-06,85.9,87.01,85.78,86.21,85.96,224433.0,19364304.0,3229643676.78,6896800000.0
sh688020,方邦股份,2022-01-07,86.21,87.3,84.45,85.21,86.21,413453.0,35512210.0,3192181158.7799997,6816800000.0
sh688020,方邦股份,2022-01-10,86.12,86.12,81.67,82.5,85.21,1028090.0,85013834.0,3090657735.0,6600000000.0
sh688020,方邦股份,2022-01-11,83.46,84.21,80.2,80.39,82.5,649674.0,53016993.0,3011611822.02,6431200000.0
sh688020,方邦股份,2022-01-12,80.22,81.32,79.52,81.13,80.39,1081934.0,86705774.0,3039334085.3399997,6490400000.0
sh688020,方邦股份,2022-01-13,80.22,81.64,79.3,81.2,81.13,335757.0,27063705.0,3041956461.6,6496000000.0
sh688020,方邦股份,2022-01-14,80.7,82.3,80.02,81.31,81.2,363932.0,29678785.0,3046077338.5800004,6504800000.0
