数据由邢不行整理
股票代码,股票名称,交易日期,开盘价,最高价,最低价,收盘价,前收盘价,成交量,成交额,流通市值,总市值
sh688268,N华特,2019-12-26,50.01,55.1,49.81,52.0,22.16,21117832.0,1098028701.0,1415809616.0,6240000000.0
sh688268,华特气体,2019-12-27,52.4,52.4,46.02,48.0,52.0,15518380.0,755728033.0,1306901184.0,5760000000.0
sh688268,华特气体,2019-12-30,46.99,46.99,42.77,43.59,48.0,9017010.0,399043824.0,1186829637.72,5230800000.0
sh688268,华特气体,2019-12-31,43.4,45.07,42.16,43.85,43.59,6111372.0,269896818.0,1193908685.8,5262000000.0
sh688268,华特气体,2020-01-02,44.2,46.6,43.0,45.3,43.85,6886035.0,308760011.0,1233387992.4,5436000000.0
sh688268,华特气体,2020-01-03,45.5,46.26,44.08,45.0,45.3,6400874.0,288602325.0,1225219860.0,5400000000.0
sh688268,华特气体,2020-01-06,44.61,50.87,44.6,50.7,45.0,11181111.0,535652828.0,1380414375.6,6084000000.0
sh688268,华特气体,2020-01-07,50.0,53.66,49.58,50.9,50.7,8811434.0,454439477.0,1385859797.2,6108000000.0
sh688268,华特气体,2020-01-08,50.7,56.25,50.4,55.0,50.9,8115082.0,436277059.0,1497490940.0,6600000000.0
sh688268,华特气体,2020-01-09,53.16,56.1,52.8,55.52,55.0,6104187.0,332544148.0,1511649036.16,6662400000.0
sh688268,华特气体,2020-01-10,55.58,56.88,54.0,54.45,55.52,3164757.0,174834753.0,1482516030.6,6534000000.0
sh688268,华特气体,2020-01-13,54.0,61.5,53.97,61.0,54.45,6118253.0,352245930.0,1660853588.0,7320000000.0
sh688268,华特气体,2020-01-14,61.0,69.8,59.55,63.41,61.0,6372628.0,407417551.0,1726470918.28,7609200000.0
sh688268,华特气体,2020-01-15,64.32,67.4,63.58,65.88,63.41,3550457.0,231575174.0,1793721875.04,7905600000.0
sh688268,华特气体,2020-01-16,66.15,75.3,65.13,75.1,65.88,5940161.0,418308132.0,2044755810.8,9012000000.0
sh688268,华特气体,2020-01-17,73.5,77.98,71.0,74.77,75.1,5201901.0,387713236.0,2035770865.16,8972400000.0
sh688268,华特气体,2020-01-20,73.6,82.0,73.2,75.38,74.77,4483795.0,344902521.0,2052379401.04,9045600000.0
sh688268,华特气体,2020-01-21,73.66,74.48,68.8,70.0,75.38,4367639.0,310541062.0,1905897560.0,8400000000.0
sh688268,华特气体,2020-01-22,69.53,77.98,66.9,75.8,70.0,3761684.0,274175259.0,2063814786.4,9096000000.0
sh688268,华特气体,2020-01-23,73.88,75.8,66.6,70.0,75.8,3352266.0,239995507.0,1905897560.0,8400000000.0
sh688268,华特气体,2020-02-03,58.3,65.16,58.12,58.38,70.0,3727615.0,226935320.0,1589518565.04,7005600000.0
sh688268,华特气体,2020-02-04,60.5,68.16,60.5,66.9,58.38,3153030.0,205309726.0,1821493525.2,8028000000.0
sh688268,华特气体,2020-02-05,65.0,73.5,64.22,68.2,66.9,3318268.0,230417588.0,1856888765.6,8184000000.0
sh688268,华特气体,2020-02-06,67.19,73.56,67.19,71.29,68.2,2618808.0,187259816.0,1941020529.32,8554800000.0
sh688268,华特气体,2020-02-07,70.6,77.56,68.8,75.1,71.29,4428569.0,316439169.0,2044755810.8,9012000000.0
sh688268,华特气体,2020-02-10,78.8,81.0,74.75,75.08,75.1,3651957.0,282977077.0,2044211268.64,9009600000.0
sh688268,华特气体,2020-02-11,74.23,77.48,71.65,73.29,75.08,2532484.0,186543791.0,1995474745.32,8794800000.0
sh688268,华特气体,2020-02-12,74.0,78.88,71.11,76.71,73.29,3905790.0,291588052.0,2088591454.68,9205200000.0
sh688268,华特气体,2020-02-13,75.68,80.38,73.05,75.85,76.71,3898529.0,298455773.0,2065176141.8,9102000000.0
sh688268,华特气体,2020-02-14,76.0,81.03,74.58,76.9,75.85,4211968.0,329378297.0,2093764605.2,9228000000.0
sh688268,华特气体,2020-02-17,77.16,78.56,74.81,77.72,76.9,3001639.0,230264849.0,2116090833.76,9326400000.0
sh688268,华特气体,2020-02-18,77.01,89.0,76.7,85.4,77.72,5707737.0,469623962.0,2325195023.2,10248000000.0
sh688268,华特气体,2020-02-19,84.0,86.0,80.0,80.38,85.4,4006021.0,328243557.0,2188514941.04,9645600000.0
sh688268,华特气体,2020-02-20,80.38,82.98,75.68,77.12,80.38,2837409.0,222192975.0,2099754568.96,9254400000.0
sh688268,华特气体,2020-02-21,79.3,82.4,78.5,80.32,77.12,3123186.0,249423230.0,2186881314.56,9638400000.0
sh688268,华特气体,2020-02-24,80.0,83.86,76.98,82.0,80.32,3821401.0,307267342.0,2232622856.0,9840000000.0
sh688268,华特气体,2020-02-25,79.4,81.84,76.01,78.89,82.0,3069456.0,242875403.0,2147946550.12,9466800000.0
sh688268,华特气体,2020-02-26,76.5,77.14,67.51,68.5,78.89,3848614.0,275867622.0,1865056898.0,8220000000.0
sh688268,华特气体,2020-02-27,68.6,69.95,64.81,65.0,68.5,2633814.0,176343723.0,1769762020.0,7800000000.0
sh688268,华特气体,2020-02-28,61.0,63.79,59.52,60.66,65.0,3735574.0,228621529.0,1651596371.28,7279200000.0
sh688268,华特气体,2020-03-02,62.81,64.45,60.69,62.23,60.66,3192565.0,198638673.0,1694342930.84,7467600000.0
sh688268,华特气体,2020-03-03,63.8,68.59,62.58,63.25,62.23,4527448.0,294973956.0,1722114581.0,7590000000.0
sh688268,华特气体,2020-03-04,62.47,64.8,59.01,61.31,63.25,3081539.0,190155015.0,1669293991.48,7357200000.0
sh688268,华特气体,2020-03-05,63.0,65.3,61.33,64.33,61.31,3154076.0,199426760.0,1751519857.64,7719600000.0
sh688268,华特气体,2020-03-06,62.98,63.58,61.99,62.21,64.33,1592698.0,99769063.0,1693798388.68,7465200000.0
sh688268,华特气体,2020-03-09,60.36,60.36,55.57,56.21,62.21,2607810.0,151443992.0,1530435740.68,6745200000.0
sh688268,华特气体,2020-03-10,55.88,61.27,54.18,60.99,56.21,3919278.0,228912677.0,1660581316.92,7318800000.0
sh688268,华特气体,2020-03-11,60.9,60.9,57.2,57.71,60.99,2221607.0,131535809.0,1571276402.68,6925200000.0
sh688268,华特气体,2020-03-12,56.4,60.0,56.22,58.08,57.71,1654565.0,96035021.0,1581350432.64,6969600000.0
sh688268,华特气体,2020-03-13,54.28,62.98,54.28,61.15,58.08,4365635.0,263634156.0,1664937654.2,7338000000.0
sh688268,华特气体,2020-03-16,60.6,64.2,60.6,62.01,61.15,4604077.0,287788486.0,1688352967.08,7441200000.0
sh688268,华特气体,2020-03-17,63.8,65.2,59.02,64.1,62.01,4445884.0,280891720.0,1745257622.8,7692000000.0
sh688268,华特气体,2020-03-18,66.13,69.13,63.01,63.95,64.1,4858641.0,325408375.0,1741173556.6,7674000000.0
sh688268,华特气体,2020-03-19,64.33,67.49,60.02,67.25,63.95,5441228.0,344972509.0,1831023013.0,8070000000.0
sh688268,华特气体,2020-03-20,67.21,68.47,64.08,64.66,67.25,3965319.0,261404647.0,1760504803.28,7759200000.0
sh688268,华特气体,2020-03-23,61.2,62.67,54.5,56.18,64.66,3182623.0,187346271.0,1529618927.44,6741600000.0
sh688268,华特气体,2020-03-24,57.87,58.58,54.28,57.51,56.18,2218349.0,125619252.0,1565830981.08,6901200000.0
sh688268,华特气体,2020-03-25,59.92,60.2,57.47,58.03,57.51,2117702.0,124485363.0,1579989077.24,6963600000.0
sh688268,华特气体,2020-03-26,57.07,59.48,56.11,57.65,58.03,1746749.0,100892950.0,1569642776.2,6918000000.0
sh688268,华特气体,2020-03-27,58.93,58.93,55.6,55.88,57.65,1853036.0,105296088.0,1521450795.04,6705600000.0
sh688268,华特气体,2020-03-30,54.0,54.76,50.2,50.9,55.88,2886777.0,148672985.0,1385859797.2,6108000000.0
sh688268,华特气体,2020-03-31,52.1,53.1,49.88,50.21,50.9,2314752.0,119661817.0,1367073092.68,6025200000.0
sh688268,华特气体,2020-04-01,50.3,52.6,50.02,51.2,50.21,1939559.0,100225929.0,1394027929.6,6144000000.0
sh688268,华特气体,2020-04-02,50.46,55.35,50.26,55.35,51.2,2471879.0,130840683.0,1507020427.8,6642000000.0
sh688268,华特气体,2020-04-03,54.5,55.47,52.7,53.33,55.35,1969371.0,105889303.0,1452021669.64,6399600000.0
sh688268,华特气体,2020-04-07,55.0,55.6,53.84,54.56,53.33,1921648.0,105008226.0,1485511012.48,6547200000.0
sh688268,华特气体,2020-04-08,53.85,56.16,53.08,54.76,54.56,1615378.0,88990226.0,1490956434.08,6571200000.0
sh688268,华特气体,2020-04-09,55.0,55.68,53.46,54.1,54.76,1872067.0,101411834.0,1472986542.8,6492000000.0
sh688268,华特气体,2020-04-10,53.63,53.9,50.16,51.62,54.1,1904483.0,98574695.0,1405463314.96,6194400000.0
sh688268,华特气体,2020-04-13,50.49,50.8,48.9,49.27,51.62,1985460.0,98854527.0,1341479611.16,5912400000.0
sh688268,华特气体,2020-04-14,49.55,51.15,49.55,51.02,49.27,1422728.0,71629103.0,1389127050.16,6122400000.0
sh688268,华特气体,2020-04-15,51.08,52.85,50.53,52.13,51.02,1718156.0,89425883.0,1419349140.04,6255600000.0
sh688268,华特气体,2020-04-16,51.79,52.47,51.1,51.86,52.13,1196823.0,61815813.0,1411997820.88,6223200000.0
sh688268,华特气体,2020-04-17,52.5,54.28,52.1,52.66,51.86,2129782.0,113206210.0,1433779507.28,6319200000.0
sh688268,华特气体,2020-04-20,52.62,52.82,51.66,52.35,52.66,1255249.0,65382250.0,1425339103.8,6282000000.0
sh688268,华特气体,2020-04-21,52.35,52.38,50.1,51.3,52.35,1485163.0,75813646.0,1396750640.4,6156000000.0
sh688268,华特气体,2020-04-22,51.28,57.5,50.58,57.4,51.3,4334441.0,239680147.0,1562835999.2,6888000000.0
sh688268,华特气体,2020-04-23,58.0,58.38,56.16,56.69,57.4,2711786.0,155179803.0,1543504752.52,6802800000.0
sh688268,华特气体,2020-04-24,56.56,60.79,55.1,58.64,56.69,2554250.0,149643672.0,1596597613.12,7036800000.0
sh688268,华特气体,2020-04-27,58.1,60.19,55.76,57.25,58.64,1826978.0,104267286.0,1558751933.0,6870000000.0
sh688268,华特气体,2020-04-28,57.05,57.45,49.0,53.3,57.25,2864322.0,154892826.0,1451204856.4,6396000000.0
sh688268,华特气体,2020-04-29,53.32,55.49,53.32,53.8,53.3,1602887.0,87139085.0,1464818410.4,6456000000.0
sh688268,华特气体,2020-04-30,55.11,63.7,54.4,62.6,53.8,4062341.0,240056491.0,1704416960.8,7512000000.0
sh688268,华特气体,2020-05-06,62.4,73.39,61.0,71.5,62.6,5294594.0,360859377.0,1946738222.0,8580000000.0
sh688268,华特气体,2020-05-07,70.26,72.26,67.0,67.7,71.5,4042992.0,279069586.0,1843275211.6,8124000000.0
sh688268,华特气体,2020-05-08,68.5,69.77,65.89,67.96,67.7,4979886.0,339122778.0,1850354259.68,8155200000.0
sh688268,华特气体,2020-05-11,67.91,71.99,66.18,67.4,67.96,4385448.0,300919934.0,1835107079.2,8088000000.0
sh688268,华特气体,2020-05-12,66.07,66.99,63.19,66.51,67.4,3602072.0,234249415.0,1810874953.08,7981200000.0
sh688268,华特气体,2020-05-13,65.41,68.0,65.2,66.06,66.51,2944368.0,194885232.0,1798622754.48,7927200000.0
sh688268,华特气体,2020-05-14,66.66,75.5,66.57,69.26,66.06,7410065.0,525205934.0,1885749500.08,8311200000.0
sh688268,华特气体,2020-05-15,70.3,73.3,68.33,69.5,69.26,5962497.0,421952731.0,1892284006.0,8340000000.0
sh688268,华特气体,2020-05-18,72.27,82.8,70.0,77.08,69.5,8613908.0,652372228.0,2098665484.64,9249600000.0
sh688268,华特气体,2020-05-19,77.5,92.5,75.73,92.5,77.08,8561758.0,722837576.0,2518507490.0,11100000000.0
sh688268,华特气体,2020-05-20,94.59,101.75,88.0,92.5,92.5,10914279.0,1036444465.0,2518507490.0,11100000000.0
sh688268,华特气体,2020-05-21,93.01,94.01,84.25,88.5,92.5,8661080.0,769108511.0,2409599058.0,10620000000.0
sh688268,华特气体,2020-05-22,85.4,87.74,80.21,83.52,88.5,7773680.0,652311441.0,2274008060.16,10022400000.0
sh688268,华特气体,2020-05-25,82.9,89.59,82.31,85.58,83.52,7318637.0,636280699.0,2330095902.64,10269600000.0
sh688268,华特气体,2020-05-26,85.0,91.8,84.61,89.63,85.58,7210808.0,634108088.0,2440365690.04,10755600000.0
sh688268,华特气体,2020-05-27,87.98,94.58,85.6,87.55,89.63,7652994.0,682585050.0,2383733305.4,10506000000.0
sh688268,华特气体,2020-05-28,85.57,85.65,79.51,83.0,87.55,6623037.0,545036009.0,2259849964.0,9960000000.0
sh688268,华特气体,2020-05-29,81.21,91.02,80.52,84.52,83.0,7125937.0,615122327.0,2301235168.16,10142400000.0
sh688268,华特气体,2020-06-01,85.78,90.99,84.6,88.94,84.52,6187440.0,547346886.0,2421578985.52,10672800000.0
sh688268,华特气体,2020-06-02,90.52,101.76,88.3,96.5,88.94,8996442.0,844936029.0,2627415922.0,11580000000.0
sh688268,华特气体,2020-06-03,94.1,104.87,93.2,95.87,96.5,9086529.0,892193726.0,2610262843.96,11504400000.0
sh688268,华特气体,2020-06-04,94.02,97.3,88.61,90.1,95.87,6263731.0,575592482.0,2453162430.8,10812000000.0
sh688268,华特气体,2020-06-05,89.05,92.8,86.8,88.68,90.1,4629903.0,416666407.0,2414499937.44,10641600000.0
sh688268,华特气体,2020-06-08,89.2,91.6,85.8,86.4,88.68,3850921.0,342025780.0,2352422131.2,10368000000.0
sh688268,华特气体,2020-06-09,86.08,89.96,85.23,89.83,86.4,4270449.0,374869188.0,2445811111.64,10779600000.0
sh688268,华特气体,2020-06-10,88.22,88.61,84.8,85.78,89.83,3844272.0,331400037.0,2335541324.24,10293600000.0
sh688268,华特气体,2020-06-11,86.2,89.24,85.58,85.62,85.78,3804208.0,332509227.0,2331184986.96,10274400000.0
sh688268,XD华特气,2020-06-12,82.0,84.43,81.6,83.26,85.37,3054240.0,252801181.0,2266929012.08,9991200000.0
sh688268,华特气体,2020-06-15,82.14,82.88,78.01,78.01,83.26,3874237.0,310315683.0,2123986695.08,9361200000.0
sh688268,华特气体,2020-06-16,79.37,82.49,79.37,80.85,78.01,3100719.0,250730236.0,2201311681.8,9702000000.0
sh688268,华特气体,2020-06-17,81.0,81.06,76.8,78.6,80.85,3525058.0,275933600.0,2140050688.8,9432000000.0
sh688268,华特气体,2020-06-18,78.6,81.98,78.0,79.0,78.6,3331417.0,266549262.0,2150941532.0,9480000000.0
sh688268,华特气体,2020-06-19,78.65,81.97,78.0,80.43,79.0,3141568.0,251293438.0,2189876296.44,9651600000.0
sh688268,华特气体,2020-06-22,82.0,92.42,81.85,89.3,80.43,6868622.0,598986427.0,2431380744.4,10716000000.0
sh688268,华特气体,2020-06-23,89.01,94.94,87.55,91.09,89.3,6449424.0,589689304.0,2480117267.72,10930800000.0
sh688268,华特气体,2020-06-24,90.02,93.97,89.05,89.45,91.09,4704580.0,428170781.0,2435464810.6,10734000000.0
sh688268,华特气体,2020-06-29,88.78,92.38,86.71,89.04,89.45,4052799.0,362751630.0,2537640000.0,10684800000.0
sh688268,华特气体,2020-06-30,91.65,95.88,91.0,92.55,89.04,5085026.0,474339804.0,2637675000.0,11106000000.0
sh688268,华特气体,2020-07-01,91.18,93.92,88.54,91.19,92.55,4450165.0,405855599.0,2598915000.0,10942800000.0
sh688268,华特气体,2020-07-02,91.86,97.59,91.79,96.01,91.19,6337593.0,601993613.0,2736285000.0,11521200000.0
sh688268,华特气体,2020-07-03,95.94,96.0,90.22,92.2,96.01,4554474.0,421769779.0,2627700000.0,11064000000.0
sh688268,华特气体,2020-07-06,92.9,105.52,92.86,103.99,92.2,6269097.0,631786661.0,2963715000.0,12478800000.0
sh688268,华特气体,2020-07-07,105.48,109.99,101.0,101.16,103.99,6751000.0,707259849.0,2883060000.0,12139200000.0
sh688268,华特气体,2020-07-08,100.1,103.93,98.5,102.5,101.16,4291937.0,433038313.0,2921250000.0,12300000000.0
sh688268,华特气体,2020-07-09,101.0,112.61,100.2,108.01,102.5,5900982.0,632186566.0,3078285000.0,12961200000.0
sh688268,华特气体,2020-07-10,105.79,108.47,103.29,105.7,108.01,3931147.0,415265482.0,3012450000.0,12684000000.0
sh688268,华特气体,2020-07-13,104.5,114.25,104.1,111.11,105.7,5079322.0,560083103.0,3166635000.0,13333200000.0
sh688268,华特气体,2020-07-14,108.45,112.9,101.81,109.38,111.11,4946523.0,530237741.0,3117330000.0,13125600000.0
sh688268,华特气体,2020-07-15,108.0,110.0,95.0,96.6,109.38,5487550.0,553882840.0,2753100000.0,11592000000.0
sh688268,华特气体,2020-07-16,96.17,96.17,81.68,83.8,96.6,5243851.0,468811877.0,2388300000.0,10056000000.0
sh688268,华特气体,2020-07-17,84.4,86.58,81.83,82.98,83.8,2636006.0,222298383.0,2364930000.0,9957600000.0
sh688268,华特气体,2020-07-20,84.4,85.6,79.28,85.06,82.98,2748731.0,227343320.0,2424210000.0,10207200000.0
sh688268,华特气体,2020-07-21,85.5,88.0,84.3,85.3,85.06,2522071.0,216429181.0,2431050000.0,10236000000.0
sh688268,华特气体,2020-07-22,83.99,91.26,83.4,90.42,85.3,4018843.0,355839435.0,2576970000.0,10850400000.0
sh688268,华特气体,2020-07-23,88.95,90.89,87.0,89.19,90.42,2365501.0,210461301.0,2541915000.0,10702800000.0
sh688268,华特气体,2020-07-24,88.32,89.74,81.68,81.88,89.19,2916443.0,248174465.0,2333580000.0,9825600000.0
sh688268,华特气体,2020-07-27,82.51,84.5,80.5,82.08,81.88,1531073.0,126301042.0,2339280000.0,9849600000.0
sh688268,华特气体,2020-07-28,83.7,84.48,81.52,82.59,82.08,1208604.0,100286917.0,2353815000.0,9910800000.0
sh688268,华特气体,2020-07-29,82.28,89.39,82.03,88.44,82.59,2258832.0,195197756.0,2520540000.0,10612800000.0
sh688268,华特气体,2020-07-30,88.88,93.42,86.9,90.5,88.44,2497013.0,224379243.0,2579250000.0,10860000000.0
sh688268,华特气体,2020-07-31,90.06,97.53,90.0,95.52,90.5,3723382.0,351460797.0,2722320000.0,11462400000.0
sh688268,华特气体,2020-08-03,97.5,100.85,93.93,96.8,95.52,4063218.0,394905584.0,2758800000.0,11616000000.0
sh688268,华特气体,2020-08-04,96.66,96.66,90.14,93.06,96.8,3094953.0,288829267.0,2652210000.0,11167200000.0
sh688268,华特气体,2020-08-05,97.57,98.5,93.07,93.52,93.06,2580812.0,246382585.0,2665320000.0,11222400000.0
sh688268,华特气体,2020-08-06,91.5,93.84,90.43,92.0,93.52,1821070.0,167477346.0,2622000000.0,11040000000.0
sh688268,华特气体,2020-08-07,91.06,92.0,84.0,86.05,92.0,2373522.0,206832181.0,2452425000.0,10326000000.0
sh688268,华特气体,2020-08-10,84.44,89.44,83.22,87.16,86.05,2018310.0,172761388.0,2484060000.0,10459200000.0
sh688268,华特气体,2020-08-11,86.5,93.14,86.34,89.01,87.16,3275467.0,295031091.0,2536785000.0,10681200000.0
sh688268,华特气体,2020-08-12,89.0,93.89,87.5,92.48,89.01,3257534.0,296891158.0,2635680000.0,11097600000.0
sh688268,华特气体,2020-08-13,92.66,93.27,85.7,86.44,92.48,2533696.0,224734659.0,2463540000.0,10372800000.0
sh688268,华特气体,2020-08-14,85.05,87.0,83.48,85.48,86.44,1956858.0,166286183.0,2436180000.0,10257600000.0
sh688268,华特气体,2020-08-17,86.5,86.8,84.88,86.65,85.48,1706106.0,146604466.0,2469525000.0,10398000000.0
sh688268,华特气体,2020-08-18,87.04,87.08,85.05,85.56,86.65,1275228.0,109169438.0,2438460000.0,10267200000.0
sh688268,华特气体,2020-08-19,85.69,85.77,83.03,83.05,85.56,1553843.0,130696039.0,2366925000.0,9966000000.0
sh688268,华特气体,2020-08-20,82.2,85.68,81.58,83.42,83.05,1134644.0,94960615.0,2377470000.0,10010400000.0
sh688268,华特气体,2020-08-21,84.35,85.37,81.2,81.92,83.42,1090617.0,90578738.0,2334720000.0,9830400000.0
sh688268,华特气体,2020-08-24,82.59,82.78,78.78,79.28,81.92,2121339.0,170814678.0,2259480000.0,9513600000.0
sh688268,华特气体,2020-08-25,79.9,80.19,72.6,73.72,79.28,3924292.0,295462462.0,2101020000.0,8846400000.0
sh688268,华特气体,2020-08-26,72.9,73.95,69.9,70.16,73.72,2141462.0,153388233.0,1999560000.0,8419200000.0
sh688268,华特气体,2020-08-27,70.47,75.5,69.22,73.52,70.16,2424480.0,176646436.0,2095320000.0,8822400000.0
sh688268,华特气体,2020-08-28,72.5,74.8,72.04,73.8,73.52,1586149.0,116631401.0,2103300000.0,8856000000.0
sh688268,华特气体,2020-08-31,75.0,75.5,73.18,73.46,73.8,1406678.0,104645914.0,2093610000.0,8815200000.0
sh688268,华特气体,2020-09-01,72.89,74.47,71.6,73.54,73.46,1081309.0,79026736.0,2095890000.0,8824800000.0
sh688268,华特气体,2020-09-02,73.41,73.85,71.68,72.81,73.54,1161744.0,84265175.0,2075085000.0,8737200000.0
sh688268,华特气体,2020-09-03,72.79,73.86,71.71,72.82,72.81,882924.0,64275498.0,2075370000.0,8738400000.0
sh688268,华特气体,2020-09-04,72.59,76.5,71.92,74.79,72.82,1760193.0,131936389.0,2131515000.0,8974800000.0
sh688268,华特气体,2020-09-07,74.77,75.02,71.8,72.18,74.79,1346485.0,98970487.0,2057130000.0,8661600000.0
sh688268,华特气体,2020-09-08,72.01,72.5,69.99,70.78,72.18,1088737.0,77285056.0,2017230000.0,8493600000.0
sh688268,华特气体,2020-09-09,69.5,69.92,66.06,67.53,70.78,1512768.0,102680310.0,1924605000.0,8103600000.0
sh688268,华特气体,2020-09-10,68.04,71.86,68.04,70.08,67.53,1825690.0,128172550.0,1997280000.0,8409600000.0
sh688268,华特气体,2020-09-11,70.08,71.58,68.72,71.17,70.08,1100325.0,77595891.0,2028345000.0,8540400000.0
sh688268,华特气体,2020-09-14,74.0,74.5,71.66,71.88,71.17,1384952.0,100973116.0,2048580000.0,8625600000.0
sh688268,华特气体,2020-09-15,72.46,76.56,71.0,74.96,71.88,2134717.0,158680762.0,2136360000.0,8995200000.0
sh688268,华特气体,2020-09-16,74.31,75.38,72.93,73.3,74.96,1218112.0,90068813.0,2089050000.0,8796000000.0
sh688268,华特气体,2020-09-17,73.21,76.88,72.21,75.75,73.3,2178608.0,163972255.0,2158875000.0,9090000000.0
sh688268,华特气体,2020-09-18,77.5,79.98,76.6,77.3,75.75,2539717.0,198685921.0,2203050000.0,9276000000.0
sh688268,华特气体,2020-09-21,77.5,78.22,76.0,76.02,77.3,1264523.0,96935222.0,2166570000.0,9122400000.0
sh688268,华特气体,2020-09-22,75.77,76.45,73.73,73.79,76.02,1351481.0,101430494.0,2103015000.0,8854800000.0
sh688268,华特气体,2020-09-23,74.15,77.28,74.01,76.3,73.79,1741670.0,131898513.0,2174550000.0,9156000000.0
sh688268,华特气体,2020-09-24,75.7,76.05,72.88,73.2,76.3,1574756.0,116893534.0,2086200000.0,8784000000.0
sh688268,华特气体,2020-09-25,73.7,73.7,70.0,70.42,73.2,1387291.0,98888246.0,2006970000.0,8450400000.0
sh688268,华特气体,2020-09-28,70.42,70.94,67.03,67.5,70.42,1752218.0,119853235.0,1923750000.0,8100000000.0
sh688268,华特气体,2020-09-29,68.23,70.35,68.04,68.5,67.5,1667809.0,115012665.0,1952250000.0,8220000000.0
sh688268,华特气体,2020-09-30,69.5,69.5,65.5,66.0,68.5,1922091.0,128829387.0,1881000000.0,7920000000.0
sh688268,华特气体,2020-10-09,67.42,70.7,67.42,69.66,66.0,2007530.0,138791414.0,1985310000.0,8359200000.0
sh688268,华特气体,2020-10-12,70.88,74.19,69.68,73.4,69.66,2219507.0,160960318.0,2091900000.0,8808000000.0
sh688268,华特气体,2020-10-13,73.57,73.65,72.0,72.7,73.4,1423498.0,103542886.0,2071950000.0,8724000000.0
sh688268,华特气体,2020-10-14,72.7,73.38,70.84,71.38,72.7,1298784.0,93321197.0,2034330000.0,8565600000.0
sh688268,华特气体,2020-10-15,71.68,73.18,69.56,69.92,71.38,1425194.0,101603253.0,1992720000.0,8390400000.0
sh688268,华特气体,2020-10-16,70.55,70.87,68.5,69.81,69.92,966971.0,67225181.0,1989585000.0,8377200000.0
sh688268,华特气体,2020-10-19,70.5,71.45,69.26,69.77,69.81,802134.0,56381152.0,1988445000.0,8372400000.0
sh688268,华特气体,2020-10-20,70.0,70.38,67.5,70.38,69.77,946410.0,64982801.0,2005830000.0,8445600000.0
sh688268,华特气体,2020-10-21,69.92,70.35,67.29,67.72,70.38,1082906.0,73954478.0,1930020000.0,8126400000.0
sh688268,华特气体,2020-10-22,66.95,68.68,66.01,67.6,67.72,852008.0,57776980.0,1926600000.0,8112000000.0
sh688268,华特气体,2020-10-23,66.6,68.21,65.6,66.05,67.6,800661.0,53414488.0,1882425000.0,7926000000.0
sh688268,华特气体,2020-10-26,65.8,66.46,64.02,64.56,66.05,910132.0,59161077.0,1839960000.0,7747200000.0
sh688268,华特气体,2020-10-27,64.39,65.15,63.26,64.75,64.56,748883.0,48122908.0,1845375000.0,7770000000.0
sh688268,华特气体,2020-10-28,64.76,65.9,63.22,65.69,64.75,823287.0,53201140.0,1872165000.0,7882800000.0
sh688268,华特气体,2020-10-29,64.02,65.9,64.02,65.63,65.69,849223.0,55105206.0,1870455000.0,7875600000.0
sh688268,华特气体,2020-10-30,66.3,68.77,64.27,64.32,65.63,2128616.0,141923117.0,1833120000.0,7718400000.0
sh688268,华特气体,2020-11-02,64.07,65.5,61.28,62.35,64.32,1532118.0,96407826.0,1776975000.0,7482000000.0
sh688268,华特气体,2020-11-03,62.82,66.99,62.8,66.75,62.35,2079925.0,136813475.0,1902375000.0,8010000000.0
sh688268,华特气体,2020-11-04,67.27,67.55,65.5,66.03,66.75,1298340.0,86578848.0,1881855000.0,7923600000.0
sh688268,华特气体,2020-11-05,67.55,68.7,65.68,66.76,66.03,1298337.0,86898727.0,1902660000.0,8011200000.0
sh688268,华特气体,2020-11-06,66.99,69.44,66.17,67.45,66.76,2187829.0,147911294.0,1922325000.0,8094000000.0
sh688268,华特气体,2020-11-09,69.0,73.72,68.4,72.7,67.45,3547719.0,254769647.0,2071950000.0,8724000000.0
sh688268,华特气体,2020-11-10,72.0,72.65,70.1,70.45,72.7,1962506.0,139921672.0,2007825000.0,8454000000.0
sh688268,华特气体,2020-11-11,70.22,71.5,66.8,66.87,70.45,1721654.0,117895858.0,1905795000.0,8024400000.0
sh688268,华特气体,2020-11-12,67.83,68.45,66.63,67.36,66.87,929327.0,62685694.0,1919760000.0,8083200000.0
sh688268,华特气体,2020-11-13,67.07,69.19,66.1,68.7,67.36,1128392.0,76865416.0,1957950000.0,8244000000.0
sh688268,华特气体,2020-11-16,68.9,69.97,67.81,68.98,68.7,966339.0,66311032.0,1965930000.0,8277600000.0
sh688268,华特气体,2020-11-17,68.98,68.98,65.56,67.8,68.98,1534364.0,102284462.0,1932300000.0,8136000000.0
sh688268,华特气体,2020-11-18,67.5,68.99,66.76,67.2,67.8,978714.0,66233836.0,1915200000.0,8064000000.0
sh688268,华特气体,2020-11-19,67.5,68.5,66.35,66.92,67.2,804485.0,54356804.0,1907220000.0,8030400000.0
sh688268,华特气体,2020-11-20,66.93,67.15,65.82,66.13,66.92,649915.0,43071741.0,1884705000.0,7935600000.0
sh688268,华特气体,2020-11-23,65.65,66.2,64.52,65.65,66.13,995381.0,64971776.0,1871025000.0,7878000000.0
sh688268,华特气体,2020-11-24,65.57,67.08,64.8,65.86,65.65,1048246.0,69318320.0,1877010000.0,7903200000.0
sh688268,华特气体,2020-11-25,65.8,66.93,65.4,65.48,65.86,848737.0,56078829.0,1866180000.0,7857600000.0
sh688268,华特气体,2020-11-26,65.18,65.58,63.56,63.72,65.48,780538.0,50375708.0,1816020000.0,7646400000.0
sh688268,华特气体,2020-11-27,63.72,65.18,63.3,64.1,63.72,831257.0,53330452.0,1826850000.0,7692000000.0
sh688268,华特气体,2020-11-30,64.35,65.9,63.82,64.81,64.1,876372.0,56819563.0,1847085000.0,7777200000.0
sh688268,华特气体,2020-12-01,64.5,65.75,64.2,65.25,64.81,763247.0,49647413.0,1859625000.0,7830000000.0
sh688268,华特气体,2020-12-02,65.25,68.39,65.25,67.2,65.25,1614666.0,108131103.0,1915200000.0,8064000000.0
sh688268,华特气体,2020-12-03,67.29,68.68,65.95,66.12,67.2,935825.0,62805895.0,1884420000.0,7934400000.0
sh688268,华特气体,2020-12-04,66.5,67.99,65.68,66.87,66.12,876220.0,58606490.0,1905795000.0,8024400000.0
sh688268,华特气体,2020-12-07,67.96,68.47,66.8,67.39,66.87,1035370.0,70175243.0,1920615000.0,8086800000.0
sh688268,华特气体,2020-12-08,67.01,68.1,66.0,66.12,67.39,630598.0,42245767.0,1884420000.0,7934400000.0
sh688268,华特气体,2020-12-09,66.15,67.19,63.0,63.4,66.12,1002928.0,65186113.0,1806900000.0,7608000000.0
sh688268,华特气体,2020-12-10,63.5,65.0,62.57,64.48,63.4,883566.0,56549925.0,1837680000.0,7737600000.0
sh688268,华特气体,2020-12-11,64.13,65.19,62.86,63.45,64.48,701425.0,44692434.0,1808325000.0,7614000000.0
sh688268,华特气体,2020-12-14,63.52,64.59,62.12,63.27,63.45,591848.0,37221525.0,1803195000.0,7592400000.0
sh688268,华特气体,2020-12-15,63.2,63.38,61.66,62.37,63.27,769249.0,47881936.0,1777545000.0,7484400000.0
sh688268,华特气体,2020-12-16,62.15,62.22,58.91,59.12,62.37,1262594.0,75542990.0,1684920000.0,7094400000.0
sh688268,华特气体,2020-12-17,58.5,59.97,56.8,59.52,59.12,1129603.0,65761284.0,1696320000.0,7142400000.0
sh688268,华特气体,2020-12-18,59.99,60.9,58.0,58.6,59.52,720884.0,42856675.0,1670100000.0,7032000000.0
sh688268,华特气体,2020-12-21,58.59,61.88,58.2,61.57,58.6,1250733.0,76347771.0,1754745000.0,7388400000.0
sh688268,华特气体,2020-12-22,61.11,62.39,60.07,60.24,61.57,941767.0,57483130.0,1716840000.0,7228800000.0
sh688268,华特气体,2020-12-23,60.08,61.3,59.18,60.57,60.24,714300.0,43146680.0,1726245000.0,7268400000.0
sh688268,华特气体,2020-12-24,61.25,61.25,58.32,58.38,60.57,754968.0,44800093.0,1663830000.0,7005600000.0
sh688268,华特气体,2020-12-25,58.29,59.26,56.8,57.74,58.38,883870.0,51058405.0,1645590000.0,6928800000.0
sh688268,华特气体,2020-12-28,57.74,57.74,55.14,55.8,57.74,1022408.0,57215441.0,1866147300.0,6696000000.0
sh688268,华特气体,2020-12-29,56.0,59.45,55.8,58.3,55.8,1182611.0,68799642.0,1949756050.0,6996000000.0
sh688268,华特气体,2020-12-30,58.19,59.5,57.26,58.94,58.3,703956.0,41072015.0,1971159890.0,7072800000.0
sh688268,华特气体,2020-12-31,58.94,62.07,58.67,61.41,58.94,1208277.0,73732581.0,2053765335.0,7369200000.0
sh688268,华特气体,2021-01-04,61.29,62.37,60.79,61.56,61.41,1078013.0,66244918.0,2058781860.0,7387200000.0
sh688268,华特气体,2021-01-05,61.72,62.8,60.98,62.06,61.56,1041023.0,64409607.0,2075503610.0,7447200000.0
sh688268,华特气体,2021-01-06,62.0,62.68,59.01,59.54,62.06,1185299.0,71250706.0,1991225990.0,7144800000.0
sh688268,华特气体,2021-01-07,59.24,60.01,57.26,57.77,59.54,891138.0,51717490.0,1932030995.0,6932400000.0
sh688268,华特气体,2021-01-08,57.89,59.0,55.55,58.6,57.77,745947.0,43159526.0,1959789100.0,7032000000.0
sh688268,华特气体,2021-01-11,58.6,60.2,57.38,57.76,58.6,1037812.0,61085951.0,1931696560.0,6931200000.0
sh688268,华特气体,2021-01-12,57.76,57.76,55.8,56.4,57.76,1036906.0,58470060.0,1886213400.0,6768000000.0
sh688268,华特气体,2021-01-13,56.08,58.88,56.05,58.88,56.4,1191560.0,68535051.0,1969153280.0,7065600000.0
sh688268,华特气体,2021-01-14,58.46,64.29,58.1,62.6,58.88,2737903.0,169741060.0,2093563100.0,7512000000.0
sh688268,华特气体,2021-01-15,64.4,67.6,63.1,65.44,62.6,3549360.0,232010664.0,2188542640.0,7852800000.0
sh688268,华特气体,2021-01-18,66.0,69.87,65.63,69.15,65.44,2885480.0,196595067.0,2312618025.0,8298000000.0
sh688268,华特气体,2021-01-19,69.1,73.3,67.06,67.59,69.15,3278822.0,229866973.0,2260446165.0,8110800000.0
sh688268,华特气体,2021-01-20,67.8,69.59,66.45,66.99,67.59,1764750.0,119132779.0,2240380065.0,8038800000.0
sh688268,华特气体,2021-01-21,68.1,69.12,65.66,65.75,66.99,2238358.0,149844255.0,2198910125.0,7890000000.0
sh688268,华特气体,2021-01-22,65.7,66.48,63.88,64.06,65.75,1697493.0,109611479.0,2142390610.0,7687200000.0
sh688268,华特气体,2021-01-25,63.81,65.56,62.0,65.0,64.06,1555138.0,99904247.0,2173827500.0,7800000000.0
sh688268,华特气体,2021-01-26,65.01,67.74,64.51,65.66,65.0,1571667.0,104367467.0,2195900210.0,7879200000.0
sh688268,华特气体,2021-01-27,64.0,65.28,61.7,61.75,65.66,1683193.0,105834105.0,2065136125.0,7410000000.0
sh688268,华特气体,2021-01-28,60.57,62.58,59.81,59.99,61.75,937689.0,57324515.0,2006275565.0,7198800000.0
sh688268,华特气体,2021-01-29,60.96,61.4,56.8,57.75,59.99,1079493.0,63084529.0,1931362125.0,6930000000.0
sh688268,华特气体,2021-02-01,58.17,61.46,58.17,60.99,57.75,718185.0,43445454.0,2039719065.0,7318800000.0
sh688268,华特气体,2021-02-02,61.59,61.79,59.0,60.4,60.99,725899.0,43851982.0,2019987400.0,7248000000.0
sh688268,华特气体,2021-02-03,59.99,61.0,58.15,58.61,60.4,660481.0,38954030.0,1960123535.0,7033200000.0
sh688268,华特气体,2021-02-04,58.03,62.12,57.21,60.68,58.61,1170497.0,69399697.0,2029351580.0,7281600000.0
sh688268,华特气体,2021-02-05,61.0,61.6,56.88,56.9,60.68,1281260.0,75179866.0,1902935150.0,6828000000.0
sh688268,华特气体,2021-02-08,56.8,58.8,55.26,56.98,56.9,784847.0,44834107.0,1905610630.0,6837600000.0
sh688268,华特气体,2021-02-09,56.71,58.67,56.21,57.89,56.98,679171.0,39189892.0,1936044215.0,6946800000.0
sh688268,华特气体,2021-02-10,57.89,58.34,56.25,57.01,57.89,919020.0,52421495.0,1906613935.0,6841200000.0
sh688268,华特气体,2021-02-18,58.0,62.5,57.9,61.28,57.01,1550793.0,94275708.0,2049417680.0,7353600000.0
sh688268,华特气体,2021-02-19,61.77,62.8,60.08,60.89,61.28,1169233.0,70996650.0,2036374715.0,7306800000.0
sh688268,华特气体,2021-02-22,61.74,62.46,60.39,60.93,60.89,1338961.0,82496294.0,2037712455.0,7311600000.0
sh688268,华特气体,2021-02-23,60.0,60.9,58.5,58.57,60.93,1228819.0,72492546.0,1958785795.0,7028400000.0
sh688268,华特气体,2021-02-24,58.82,60.3,58.59,58.87,58.57,1064826.0,63293722.0,1968818845.0,7064400000.0
sh688268,华特气体,2021-02-25,59.3,59.49,57.21,58.0,58.87,963172.0,55799369.0,1939723000.0,6960000000.0
sh688268,华特气体,2021-02-26,56.52,58.15,56.49,56.68,58.0,795090.0,45338126.0,1895577580.0,6801600000.0
sh688268,华特气体,2021-03-01,57.26,59.24,56.72,59.04,56.68,883338.0,51488299.0,1974504240.0,7084800000.0
sh688268,华特气体,2021-03-02,59.99,61.96,59.62,60.66,59.04,1644397.0,100126751.0,2028682710.0,7279200000.0
sh688268,华特气体,2021-03-03,60.74,61.45,60.08,60.89,60.66,908703.0,55224667.0,2036374715.0,7306800000.0
sh688268,华特气体,2021-03-04,61.5,62.39,59.87,60.1,60.89,1073175.0,65435064.0,2009954350.0,7212000000.0
sh688268,华特气体,2021-03-05,59.5,62.77,59.4,62.36,60.1,1917199.0,118597902.0,2085536660.0,7483200000.0
sh688268,华特气体,2021-03-08,62.7,62.89,60.22,60.76,62.36,1241361.0,76497084.0,2032027060.0,7291200000.0
sh688268,华特气体,2021-03-09,60.5,62.6,58.09,59.0,60.76,1504362.0,91366860.0,1973166500.0,7080000000.0
sh688268,华特气体,2021-03-10,60.0,62.57,58.52,60.26,59.0,1890150.0,114525148.0,2015305310.0,7231200000.0
sh688268,华特气体,2021-03-11,61.15,63.8,60.51,62.74,60.26,2563857.0,159254651.0,2098245190.0,7528800000.0
sh688268,华特气体,2021-03-12,64.8,66.54,61.2,61.99,62.74,2947136.0,189516883.0,2073162565.0,7438800000.0
sh688268,华特气体,2021-03-15,60.98,61.0,58.07,58.31,61.99,1995154.0,118312242.0,1950090485.0,6997200000.0
sh688268,华特气体,2021-03-16,58.5,59.5,56.7,58.19,58.31,1185145.0,68534211.0,1946077265.0,6982800000.0
sh688268,华特气体,2021-03-17,57.94,59.06,57.2,58.39,58.19,680154.0,39737189.0,1952765965.0,7006800000.0
sh688268,华特气体,2021-03-18,58.39,58.98,57.55,58.09,58.39,750222.0,43567351.0,1942732915.0,6970800000.0
sh688268,华特气体,2021-03-19,57.51,58.4,57.18,57.48,58.09,519755.0,29990063.0,1922332380.0,6897600000.0
sh688268,华特气体,2021-03-22,57.0,58.1,57.0,57.86,57.48,594062.0,34208485.0,1935040910.0,6943200000.0
sh688268,华特气体,2021-03-23,58.83,61.38,58.5,58.98,57.86,1622194.0,97412851.0,1972497630.0,7077600000.0
sh688268,华特气体,2021-03-24,58.7,58.8,56.08,56.99,58.98,1260570.0,72206191.0,1905945065.0,6838800000.0
sh688268,华特气体,2021-03-25,56.59,57.94,56.39,57.77,56.99,584279.0,33496221.0,1932030995.0,6932400000.0
sh688268,华特气体,2021-03-26,57.76,58.89,57.23,58.53,57.77,744082.0,43299427.0,1957448055.0,7023600000.0
sh688268,华特气体,2021-03-29,58.54,59.58,58.1,58.43,58.53,492327.0,28913271.0,1954103705.0,7011600000.0
sh688268,华特气体,2021-03-30,58.16,58.42,56.7,56.87,58.43,756300.0,43346340.0,1901931845.0,6824400000.0
sh688268,华特气体,2021-03-31,56.84,57.59,56.41,57.2,56.87,328688.0,18733478.0,1912968200.0,6864000000.0
sh688268,华特气体,2021-04-01,57.47,59.91,56.65,59.02,57.2,1312549.0,77095680.0,1973835370.0,7082400000.0
sh688268,华特气体,2021-04-02,59.33,60.97,59.33,60.24,59.02,1200911.0,72408771.0,2014636440.0,7228800000.0
sh688268,华特气体,2021-04-06,60.61,62.34,59.35,60.63,60.24,1270540.0,77685576.0,2027679405.0,7275600000.0
sh688268,华特气体,2021-04-07,60.71,61.49,59.7,61.1,60.63,791981.0,48042843.0,2043397850.0,7332000000.0
sh688268,华特气体,2021-04-08,61.16,61.63,59.88,59.9,61.1,722379.0,43885875.0,2003265650.0,7188000000.0
sh688268,华特气体,2021-04-09,60.1,60.4,59.04,59.36,59.9,540740.0,32259332.0,1985206160.0,7123200000.0
sh688268,华特气体,2021-04-12,59.5,59.86,57.76,58.0,59.36,560505.0,32803378.0,1939723000.0,6960000000.0
sh688268,华特气体,2021-04-13,58.01,60.17,57.45,59.01,58.0,700772.0,41332184.0,1973500935.0,7081200000.0
sh688268,华特气体,2021-04-14,58.7,59.57,58.48,59.13,59.01,392490.0,23133125.0,1977514155.0,7095600000.0
sh688268,华特气体,2021-04-15,59.0,59.17,57.77,58.91,59.13,548609.0,32031865.0,1970156585.0,7069200000.0
sh688268,华特气体,2021-04-16,58.88,59.32,58.08,58.94,58.91,426116.0,25026525.0,1971159890.0,7072800000.0
sh688268,华特气体,2021-04-19,59.09,60.73,58.98,60.6,58.94,841768.0,50643002.0,2026676100.0,7272000000.0
sh688268,华特气体,2021-04-20,60.1,61.5,59.37,59.39,60.6,901868.0,54409275.0,1986209465.0,7126800000.0
sh688268,华特气体,2021-04-21,59.37,59.52,58.16,58.66,59.39,495322.0,29066871.0,1961795710.0,7039200000.0
sh688268,华特气体,2021-04-22,58.66,60.93,58.51,60.42,58.66,1023716.0,61653574.0,2020656270.0,7250400000.0
sh688268,华特气体,2021-04-23,60.4,61.18,59.65,60.48,60.42,714463.0,43140476.0,2022662880.0,7257600000.0
sh688268,华特气体,2021-04-26,60.6,62.8,60.6,60.86,60.48,1478581.0,91242385.0,2035371410.0,7303200000.0
sh688268,华特气体,2021-04-27,60.92,64.8,60.16,63.93,60.86,1952034.0,121995517.0,2138042955.0,7671600000.0
sh688268,华特气体,2021-04-28,63.94,64.28,62.08,63.28,63.93,1319380.0,82910015.0,2116304680.0,7593600000.0
sh688268,华特气体,2021-04-29,62.4,62.86,60.77,61.31,63.28,1214793.0,74583314.0,2063375788.0,7357200000.0
sh688268,华特气体,2021-04-30,61.31,61.5,60.2,60.81,61.31,738143.0,44912406.0,2046548388.0,7297200000.0
sh688268,华特气体,2021-05-06,60.99,61.35,59.22,59.29,60.81,880995.0,52941765.0,1995393092.0,7114800000.0
sh688268,华特气体,2021-05-07,59.33,59.45,57.61,57.78,59.29,810272.0,47380990.0,1944574344.0,6933600000.0
sh688268,华特气体,2021-05-10,57.52,58.32,57.13,57.87,57.78,435757.0,25179548.0,1947603276.0,6944400000.0
sh688268,华特气体,2021-05-11,57.51,58.68,57.3,58.14,57.87,367110.0,21319283.0,1956690072.0,6976800000.0
sh688268,华特气体,2021-05-12,58.08,58.73,57.59,58.73,58.14,430528.0,25029213.0,1976546404.0,7047600000.0
sh688268,华特气体,2021-05-13,58.08,60.27,58.08,59.0,58.73,634978.0,37664011.0,1985633200.0,7080000000.0
sh688268,华特气体,2021-05-14,59.17,60.24,58.9,59.56,59.0,460333.0,27386090.0,2004479888.0,7147200000.0
sh688268,华特气体,2021-05-17,59.98,59.98,58.0,58.22,59.56,666836.0,39368669.0,1959382456.0,6986400000.0
sh688268,华特气体,2021-05-18,58.04,59.69,57.58,59.1,58.22,749481.0,43899084.0,1988998680.0,7092000000.0
sh688268,华特气体,2021-05-19,59.0,59.6,58.07,58.11,59.1,607486.0,35701180.0,1955680428.0,6973200000.0
sh688268,华特气体,2021-05-20,58.28,58.5,57.6,58.03,58.11,524476.0,30385925.0,1952988044.0,6963600000.0
sh688268,华特气体,2021-05-21,58.48,58.48,57.02,57.13,58.03,611315.0,35156030.0,1922698724.0,6855600000.0
sh688268,华特气体,2021-05-24,57.5,57.85,56.78,57.72,57.13,554426.0,31800177.0,1942555056.0,6926400000.0
sh688268,华特气体,2021-05-25,57.76,59.13,57.38,59.05,57.72,679745.0,39720489.0,1987315940.0,7086000000.0
sh688268,华特气体,2021-05-26,58.63,59.49,58.56,58.66,59.05,511795.0,30150961.0,1974190568.0,7039200000.0
sh688268,华特气体,2021-05-27,58.68,63.18,58.68,61.65,58.66,2155170.0,132440975.0,2074818420.0,7398000000.0
sh688268,华特气体,2021-05-28,61.01,63.54,61.0,62.82,61.65,2043440.0,128403606.0,2114194536.0,7538400000.0
sh688268,华特气体,2021-05-31,62.9,66.7,62.9,65.27,62.82,2186955.0,142106122.0,2196648796.0,7832400000.0
sh688268,华特气体,2021-06-01,66.5,71.8,65.05,69.28,65.27,3559545.0,245156605.0,2331604544.0,8313600000.0
sh688268,华特气体,2021-06-02,69.28,69.95,66.1,66.99,69.28,2394190.0,161356351.0,2254535052.0,8038800000.0
sh688268,华特气体,2021-06-03,67.3,68.46,66.14,66.37,66.99,1308361.0,87524407.0,2233669076.0,7964400000.0
sh688268,华特气体,2021-06-04,66.0,68.19,65.36,67.3,66.37,1326289.0,88716538.0,2264968040.0,8076000000.0
sh688268,华特气体,2021-06-07,68.26,70.63,67.72,69.3,67.3,2151397.0,148606635.0,2332277640.0,8316000000.0
sh688268,华特气体,2021-06-08,69.3,69.65,66.16,66.7,69.3,1470963.0,99427809.0,2244775160.0,8004000000.0
sh688268,华特气体,2021-06-09,66.71,69.27,66.5,67.22,66.7,1317518.0,89461789.0,2262275656.0,8066400000.0
sh688268,XD华特气,2021-06-10,67.35,68.34,66.33,67.96,66.92,1249965.0,84290183.0,2287180208.0,8155200000.0
sh688268,华特气体,2021-06-11,67.96,67.96,64.57,64.95,67.96,1263349.0,82933469.0,2185879260.0,7794000000.0
sh688268,华特气体,2021-06-15,64.91,66.58,64.07,64.8,64.95,1324332.0,86296455.0,2180831040.0,7776000000.0
sh688268,华特气体,2021-06-16,65.62,68.36,64.0,64.78,64.8,1642285.0,108610441.0,2180157944.0,7773600000.0
sh688268,华特气体,2021-06-17,64.02,74.16,64.02,71.03,64.78,3047192.0,210964522.0,2390500444.0,8523600000.0
sh688268,华特气体,2021-06-18,72.36,77.63,71.1,75.15,71.03,3654060.0,270791505.0,2529158220.0,9018000000.0
sh688268,华特气体,2021-06-21,74.79,75.5,69.96,72.38,75.15,3554846.0,257574900.0,2435934424.0,8685600000.0
sh688268,华特气体,2021-06-22,71.98,73.17,69.69,70.71,72.38,1884430.0,133780880.0,2379730908.0,8485200000.0
sh688268,华特气体,2021-06-23,70.5,74.6,70.2,72.61,70.71,2925058.0,212582898.0,2443675028.0,8713200000.0
sh688268,华特气体,2021-06-24,71.78,73.77,70.33,70.68,72.61,1432167.0,102189575.0,2378721264.0,8481600000.0
sh688268,华特气体,2021-06-25,70.79,73.38,70.03,71.56,70.68,1422710.0,102203312.0,2408337488.0,8587200000.0
sh688268,华特气体,2021-06-28,71.71,75.5,71.71,73.91,71.56,1777016.0,131497874.0,2487426268.0,8869200000.0
sh688268,华特气体,2021-06-29,73.6,74.5,71.11,71.25,73.91,1427217.0,103283008.0,2397904500.0,8550000000.0
sh688268,华特气体,2021-06-30,71.5,75.77,71.5,75.18,71.25,2264567.0,168614009.0,2530167864.0,9021600000.0
sh688268,华特气体,2021-07-01,75.35,77.8,72.7,72.97,75.18,2263659.0,170764911.0,2455790756.0,8756400000.0
sh688268,华特气体,2021-07-02,74.0,74.45,70.7,71.95,72.97,1899400.0,137619227.0,2421462860.0,8634000000.0
sh688268,华特气体,2021-07-05,73.36,75.38,72.11,75.35,71.95,1783693.0,132271428.0,2535889180.0,9042000000.0
sh688268,华特气体,2021-07-06,75.4,77.77,71.01,73.05,75.35,2547340.0,191054914.0,2458483140.0,8766000000.0
sh688268,华特气体,2021-07-07,72.41,77.78,71.89,77.62,73.05,2652085.0,200626600.0,2612285576.0,9314400000.0
sh688268,华特气体,2021-07-08,78.0,80.8,76.8,78.37,77.62,2506594.0,197574123.0,2637526676.0,9404400000.0
sh688268,华特气体,2021-07-09,78.2,79.5,76.5,77.0,78.37,1961397.0,152196863.0,2591419600.0,9240000000.0
sh688268,华特气体,2021-07-12,77.5,79.1,75.68,76.1,77.0,2258251.0,174304108.0,2561130280.0,9132000000.0
sh688268,华特气体,2021-07-13,76.59,76.6,71.7,72.66,76.1,2093141.0,153638725.0,2445357768.0,8719200000.0
sh688268,华特气体,2021-07-14,72.5,73.3,71.11,72.12,72.66,1304197.0,94116966.0,2427184176.0,8654400000.0
sh688268,华特气体,2021-07-15,71.97,73.0,70.8,72.6,72.12,1192178.0,85870348.0,2443338480.0,8712000000.0
sh688268,华特气体,2021-07-16,73.3,74.85,71.6,72.01,72.6,1192060.0,87256135.0,2423482148.0,8641200000.0
sh688268,华特气体,2021-07-19,71.49,74.85,71.25,72.45,72.01,1398943.0,101963526.0,2438290260.0,8694000000.0
sh688268,华特气体,2021-07-20,71.67,73.31,70.87,73.18,72.45,1249805.0,89642551.0,2462858264.0,8781600000.0
sh688268,华特气体,2021-07-21,73.1,75.95,72.26,75.1,73.18,1736242.0,129307297.0,2527475480.0,9012000000.0
sh688268,华特气体,2021-07-22,76.0,85.11,75.11,83.99,75.1,3971009.0,323491821.0,2826666652.0,10078800000.0
sh688268,华特气体,2021-07-23,83.0,86.28,82.14,83.05,83.99,2673075.0,223563327.0,2795031140.0,9966000000.0
sh688268,华特气体,2021-07-26,83.26,90.88,83.12,87.79,83.05,3582793.0,314618379.0,2954554892.0,10534800000.0
sh688268,华特气体,2021-07-27,87.3,98.33,87.1,88.33,87.79,5128188.0,474418993.0,2972728484.0,10599600000.0
sh688268,华特气体,2021-07-28,87.33,92.8,83.35,90.24,88.33,3551635.0,317895452.0,3037009152.0,10828800000.0
sh688268,华特气体,2021-07-29,92.42,102.99,90.0,98.63,90.24,4536153.0,439727407.0,3319372924.0,11835600000.0
sh688268,华特气体,2021-07-30,97.0,102.98,95.53,98.79,98.63,4012377.0,395884210.0,3324757692.0,11854800000.0
sh688268,华特气体,2021-08-02,100.0,102.2,90.0,95.27,98.79,3979992.0,379457572.0,3206292796.0,11432400000.0
sh688268,华特气体,2021-08-03,93.0,94.64,86.04,87.0,95.27,3669515.0,327636940.0,2927967600.0,10440000000.0
sh688268,华特气体,2021-08-04,85.99,91.9,85.58,90.94,87.0,2901630.0,261502374.0,3060567512.0,10912800000.0
sh688268,华特气体,2021-08-05,90.22,92.85,88.0,89.77,90.94,2205697.0,199954725.0,3021191396.0,10772400000.0
sh688268,华特气体,2021-08-06,92.58,93.39,88.4,90.43,89.77,2080401.0,189476509.0,3043403564.0,10851600000.0
sh688268,华特气体,2021-08-09,88.6,93.88,86.2,92.75,90.43,2037648.0,183738744.0,3121482700.0,11130000000.0
sh688268,华特气体,2021-08-10,93.0,94.8,87.86,90.03,92.75,2006259.0,181842299.0,3029941644.0,10803600000.0
sh688268,华特气体,2021-08-11,89.31,93.5,87.48,90.25,90.03,1591080.0,144362706.0,3037345700.0,10830000000.0
sh688268,华特气体,2021-08-12,90.96,96.01,90.22,94.85,90.25,1981356.0,185519787.0,3192157780.0,11382000000.0
sh688268,华特气体,2021-08-13,93.69,95.9,90.57,90.88,94.85,2235132.0,206583007.0,3058548224.0,10905600000.0
sh688268,华特气体,2021-08-16,90.54,92.0,87.57,89.8,90.88,1370496.0,123155360.0,3022201040.0,10776000000.0
sh688268,华特气体,2021-08-17,89.11,92.0,83.5,84.12,89.8,2797521.0,242147108.0,2831041776.0,10094400000.0
sh688268,华特气体,2021-08-18,85.48,88.6,84.16,87.06,84.12,1628944.0,141566935.0,2929986888.0,10447200000.0
sh688268,华特气体,2021-08-19,86.63,93.5,86.0,93.19,87.06,2402185.0,217780869.0,3136290812.0,11182800000.0
sh688268,华特气体,2021-08-20,92.13,96.3,91.5,95.48,93.19,1777272.0,168063913.0,3213360304.0,11457600000.0
sh688268,华特气体,2021-08-23,95.3,97.55,93.4,94.45,95.48,1257277.0,118807438.0,3178695860.0,11334000000.0
sh688268,华特气体,2021-08-24,94.01,101.5,92.5,97.16,94.45,2051491.0,200262097.0,3269900368.0,11659200000.0
sh688268,华特气体,2021-08-25,98.0,98.5,93.0,97.16,97.16,1577076.0,150579525.0,3269900368.0,11659200000.0
sh688268,华特气体,2021-08-26,97.11,98.5,91.99,92.5,97.16,1285351.0,121288989.0,3113069000.0,11100000000.0
sh688268,华特气体,2021-08-27,90.0,95.95,89.61,94.68,92.5,1365975.0,128957843.0,3186436464.0000005,11361600000.0
sh688268,华特气体,2021-08-30,97.42,98.3,92.22,94.0,94.68,1173530.0,110990446.0,3163551200.0,11280000000.0
sh688268,华特气体,2021-08-31,92.64,93.9,86.65,92.0,94.0,1889126.0,167999963.0,3096241599.9999995,11040000000.0
sh688268,华特气体,2021-09-01,89.99,91.17,79.0,79.5,92.0,2759693.0,228321426.0,2675556599.9999995,9540000000.0
sh688268,华特气体,2021-09-02,79.66,81.0,75.36,79.0,79.5,1594818.0,124401395.0,2658729200.0,9480000000.0
sh688268,华特气体,2021-09-03,78.48,81.24,75.5,78.81,79.0,1625456.0,127267283.0,2652334788.0,9457200000.0
sh688268,华特气体,2021-09-06,78.44,80.89,77.56,80.6,78.81,1071315.0,85519359.0,2712576880.0,9672000000.0
sh688268,华特气体,2021-09-07,80.6,82.6,79.82,81.8,80.6,797052.0,65089463.0,2752962640.0000005,9816000000.0
sh688268,华特气体,2021-09-08,81.81,83.48,80.6,82.39,81.8,875309.0,71782372.0,2772818972.0,9886800000.0
sh688268,华特气体,2021-09-09,82.32,83.41,80.98,81.58,82.39,610641.0,49987180.0,2745558584.0000005,9789600000.0
sh688268,华特气体,2021-09-10,82.0,88.98,79.07,87.65,81.58,2150136.0,182194186.0,2949843220.0,10518000000.0
sh688268,华特气体,2021-09-13,88.18,88.87,86.0,86.69,87.65,1073644.0,93538387.0,2917534612.0,10402800000.0
sh688268,华特气体,2021-09-14,85.96,90.25,85.9,88.92,86.69,1120803.0,99600831.0,2992584816.0,10670400000.0
sh688268,华特气体,2021-09-15,88.31,92.49,87.34,90.99,88.92,822656.0,74780612.0,3062250251.9999995,10918800000.0
sh688268,华特气体,2021-09-16,91.41,92.89,87.54,87.54,90.99,1171118.0,105542044.0,2946141192.0,10504800000.0
sh688268,华特气体,2021-09-17,88.0,92.81,88.0,91.62,87.54,1046184.0,95367964.0,3083452775.9999995,10994400000.0
sh688268,华特气体,2021-09-22,91.0,92.34,85.97,86.82,91.62,1149466.0,101457450.0,2921909736.0000005,10418400000.0
sh688268,华特气体,2021-09-23,87.24,90.5,86.69,88.3,86.82,970998.0,86365700.0,2971718840.0,10596000000.0
sh688268,华特气体,2021-09-24,88.27,92.17,86.38,89.08,88.3,875579.0,78560625.0,2997969584.0,10689600000.0
sh688268,华特气体,2021-09-27,92.0,92.0,81.5,83.29,89.08,1297273.0,109684898.0,2803108292.0,9994800000.0
sh688268,华特气体,2021-09-28,82.44,84.88,81.01,81.28,83.29,695778.0,57783500.0,2735462144.0,9753600000.0
sh688268,华特气体,2021-09-29,81.02,81.03,77.26,79.05,81.28,952994.0,75618289.0,2660411940.0,9486000000.0
sh688268,华特气体,2021-09-30,80.99,80.99,77.56,78.1,79.05,934634.0,73501303.0,2628439880.0,9372000000.0
sh688268,华特气体,2021-10-08,78.64,79.49,77.2,78.35,78.1,707805.0,55227549.0,2636853580.0,9402000000.0
sh688268,华特气体,2021-10-11,78.97,79.49,76.61,76.93,78.35,634194.0,49407229.0,2589063764.0,9231600000.0
sh688268,华特气体,2021-10-12,77.45,78.2,73.82,74.5,76.93,721086.0,54403596.0,2507282600.0,8940000000.0
sh688268,华特气体,2021-10-13,74.49,75.55,73.2,75.06,74.5,824989.0,61426938.0,2526129288.0,9007200000.0
sh688268,华特气体,2021-10-14,75.07,76.98,74.14,76.25,75.06,461200.0,34835894.0,2566178500.0,9150000000.0
sh688268,华特气体,2021-10-15,76.98,78.94,74.5,77.66,76.25,905655.0,70251179.0,2613631768.0,9319200000.0
sh688268,华特气体,2021-10-18,77.8,78.77,73.67,74.52,77.66,924709.0,69377568.0,2507955696.0,8942400000.0
sh688268,华特气体,2021-10-19,74.52,76.3,74.52,75.04,74.52,815217.0,61440624.0,2525456192.0,9004800000.0
sh688268,华特气体,2021-10-20,75.04,75.7,73.55,75.2,75.04,764736.0,57195371.0,2530840960.0,9024000000.0
sh688268,华特气体,2021-10-21,76.0,76.0,69.7,71.65,75.2,2331282.0,165873201.0,2411366420.0,8598000000.0
sh688268,华特气体,2021-10-22,71.91,77.43,71.54,75.41,71.65,1626648.0,122087834.0,2537908468.0,9049200000.0
sh688268,华特气体,2021-10-25,74.9,75.48,72.2,74.85,75.41,1090040.0,80627940.0,2519061780.0,8982000000.0
sh688268,华特气体,2021-10-26,74.6,75.56,72.53,74.38,74.85,1052191.0,77936114.0,2503244024.0,8925600000.0
sh688268,华特气体,2021-10-27,74.0,75.13,70.36,71.0,74.38,1063836.0,76281885.0,2298314375.0,8520000000.0
sh688268,华特气体,2021-10-28,70.77,72.0,67.67,68.12,71.0,1390946.0,96255928.0,2292564976.0,8174400000.0
sh688268,华特气体,2021-10-29,68.55,70.46,67.77,68.8,68.12,857767.0,59105016.0,2315450240.0,8256000000.0
sh688268,华特气体,2021-11-01,69.35,69.79,67.12,68.0,68.8,1090521.0,74611123.0,2288526400.0,8160000000.0
sh688268,华特气体,2021-11-02,68.13,71.49,67.68,68.98,68.0,1920025.0,133344540.0,2321508104.0,8277600000.0
sh688268,华特气体,2021-11-03,70.06,71.48,69.15,69.98,68.98,1622792.0,114032308.0,2355162904.0,8397600000.0
sh688268,华特气体,2021-11-04,69.98,75.59,69.75,75.0,69.98,2339882.0,171299918.0,2524110000.0,9000000000.0
sh688268,华特气体,2021-11-05,75.44,77.01,73.62,74.3,75.0,1131922.0,84645905.0,2500551640.0,8916000000.0
sh688268,华特气体,2021-11-08,73.48,78.76,72.12,76.04,74.3,1506193.0,113532352.0,2559110992.0,9124800000.0
sh688268,华特气体,2021-11-09,76.8,79.88,76.09,79.08,76.04,1386322.0,108582444.0,2661421584.0,9489600000.0
sh688268,华特气体,2021-11-10,79.52,81.68,78.45,80.65,79.08,1508037.0,120819589.0,2714259620.0,9678000000.0
sh688268,华特气体,2021-11-11,79.93,86.62,79.35,84.3,80.65,2098112.0,176068805.0,2837099640.0,10116000000.0
sh688268,华特气体,2021-11-12,83.88,84.71,81.57,83.99,84.3,1291627.0,107471556.0,2826666652.0,10078800000.0
sh688268,华特气体,2021-11-15,83.67,84.47,80.5,83.2,83.99,1396133.0,114652852.0,2800079360.0,9984000000.0
sh688268,华特气体,2021-11-16,82.04,82.5,78.66,81.44,83.2,1624449.0,130943953.0,2740846912.0,9772800000.0
sh688268,华特气体,2021-11-17,80.7,83.3,80.03,83.01,81.44,928651.0,76635436.0,2793684948.0,9961200000.0
sh688268,华特气体,2021-11-18,83.67,84.92,81.8,83.33,83.01,970767.0,81122955.0,2804454484.0,9999600000.0
sh688268,华特气体,2021-11-19,84.5,85.97,81.08,84.78,83.33,1038063.0,86995089.0,2853253944.0,10173600000.0
sh688268,华特气体,2021-11-22,84.95,91.1,84.95,90.49,84.78,1970040.0,176091250.0,3045422852.0,10858800000.0
sh688268,华特气体,2021-11-23,90.17,91.33,88.55,89.95,90.49,1078801.0,96916197.0,3027249260.0,10794000000.0
sh688268,华特气体,2021-11-24,89.89,90.08,86.76,87.39,89.95,901723.0,79253388.0,2941092971.9999995,10486800000.0
sh688268,华特气体,2021-11-25,86.82,87.58,84.01,84.65,87.39,920112.0,78540077.0,2848878820.0,10158000000.0
sh688268,华特气体,2021-11-26,84.99,89.16,84.36,88.9,84.65,1330174.0,116799097.0,2991911720.0,10668000000.0
sh688268,华特气体,2021-11-29,88.78,89.9,85.84,87.83,88.9,896869.0,77820960.0,2955901084.0000005,10539600000.0
sh688268,华特气体,2021-11-30,87.0,89.89,84.0,86.86,87.83,1246064.0,107023631.0,2923255928.0,10423200000.0
sh688268,华特气体,2021-12-01,85.43,87.2,84.3,86.27,86.86,642767.0,55183928.0,2903399596.0,10352400000.0
sh688268,华特气体,2021-12-02,85.8,86.6,84.06,84.25,86.27,604141.0,51270746.0,2835416900.0,10110000000.0
sh688268,华特气体,2021-12-03,84.5,85.68,82.18,83.0,84.25,626272.0,52534471.0,2793348400.0000005,9960000000.0
sh688268,华特气体,2021-12-06,83.87,83.87,79.57,79.65,83.0,871898.0,70439050.0,2680604820.0,9558000000.0
sh688268,华特气体,2021-12-07,79.68,81.3,75.58,75.6,79.65,874124.0,67051660.0,2544302880.0,9072000000.0
sh688268,华特气体,2021-12-08,76.09,78.87,75.92,77.6,75.6,743147.0,57471557.0,2611612480.0,9312000000.0
sh688268,华特气体,2021-12-09,79.0,79.0,76.35,76.39,77.6,540498.0,41565715.0,2570890172.0,9166800000.0
sh688268,华特气体,2021-12-10,76.12,80.39,75.61,75.73,76.39,1019866.0,78840476.0,2548678004.0,9087600000.0
sh688268,华特气体,2021-12-13,76.2,77.56,75.0,76.66,75.73,633503.0,48233465.0,2579976968.0,9199200000.0
sh688268,华特气体,2021-12-14,77.0,91.99,76.89,91.99,76.66,3943364.0,343163588.0,3095905052.0,11038800000.0
sh688268,华特气体,2021-12-15,91.0,91.17,85.95,88.17,91.99,3123007.0,276954116.0,2967343716.0,10580400000.0
sh688268,华特气体,2021-12-16,88.17,91.28,86.88,89.72,88.17,1311510.0,117069627.0,3019508656.0,10766400000.0
sh688268,华特气体,2021-12-17,90.26,90.66,87.5,87.5,89.72,803806.0,71311720.0,2944795000.0,10500000000.0
sh688268,华特气体,2021-12-20,86.81,90.0,83.89,86.5,87.5,1422892.0,122555650.0,2911140200.0,10380000000.0
sh688268,华特气体,2021-12-21,84.5,87.2,84.12,85.85,86.5,834154.0,71718032.0,2889264580.0,10302000000.0
sh688268,华特气体,2021-12-22,87.9,87.9,85.11,86.98,85.85,830740.0,72248024.0,2927294503.9999995,10437600000.0
sh688268,华特气体,2021-12-23,87.28,88.2,85.08,86.92,86.98,484887.0,42087956.0,2925275216.0,10430400000.0
sh688268,华特气体,2021-12-24,86.72,87.0,82.22,82.22,86.92,547970.0,46229734.0,2767097656.0,9866400000.0
sh688268,华特气体,2021-12-27,82.0,85.69,81.84,83.81,82.22,688999.0,58002778.0,2946323788.0,10057200000.0
sh688268,华特气体,2021-12-28,84.3,89.91,83.93,88.43,83.81,1119754.0,98057280.0,3108738964.0000005,10611600000.0
sh688268,华特气体,2021-12-29,89.85,89.85,86.25,86.85,88.43,437173.0,38165942.0,3053194380.0,10422000000.0
sh688268,华特气体,2021-12-30,86.18,90.98,86.18,90.27,86.85,704181.0,63069344.0,3173423796.0,10832400000.0
sh688268,华特气体,2021-12-31,90.0,90.84,88.25,90.2,90.27,662075.0,59130352.0,3170962959.9999995,10824000000.0
sh688268,华特气体,2022-01-04,90.21,90.49,86.3,89.79,90.2,882022.0,77861784.0,3156549491.9999995,10774800000.0
sh688268,华特气体,2022-01-05,89.75,91.0,86.63,88.47,89.79,799853.0,70896621.0,3110145156.0,10616400000.0
sh688268,华特气体,2022-01-06,88.0,90.67,84.93,87.0,88.47,615950.0,53359975.0,3058467600.0,10440000000.0
sh688268,华特气体,2022-01-07,85.69,86.99,83.03,84.91,87.0,464484.0,39321992.0,2984994068.0,10189200000.0
sh688268,华特气体,2022-01-10,84.77,85.28,82.13,83.0,84.91,333517.0,27831206.0,2917848400.0000005,9960000000.0
sh688268,华特气体,2022-01-11,83.0,83.0,79.5,79.65,83.0,432580.0,34883869.0,2800079820.0,9558000000.0
sh688268,华特气体,2022-01-12,79.14,80.65,78.88,79.06,79.65,521874.0,41422930.0,2779338488.0,9487200000.0
sh688268,华特气体,2022-01-13,79.28,81.85,77.45,79.22,79.06,926926.0,73738045.0,2784963256.0,9506400000.0
sh688268,华特气体,2022-01-14,79.88,81.77,78.46,80.82,79.22,717245.0,57957546.0,2841210936.0,9698400000.0
