数据由邢不行整理
股票代码,股票名称,交易日期,开盘价,最高价,最低价,收盘价,前收盘价,成交量,成交额,流通市值,总市值
sh688085,N三友,2020-04-09,40.0,40.0,34.8,36.0,20.96,30287621.0,1096830606.0,1529439408.0,7392006000.0
sh688085,三友医疗,2020-04-10,35.11,45.64,35.11,42.15,36.0,24714865.0,995782977.0,1790718640.2,8654807025.0
sh688085,三友医疗,2020-04-13,40.01,43.82,39.14,41.45,42.15,16090465.0,657573504.0,1760979540.6,8511073575.0
sh688085,三友医疗,2020-04-14,41.06,42.0,38.5,40.01,41.45,11387752.0,452485006.0,1699801964.28,8215393335.0
sh688085,三友医疗,2020-04-15,40.0,41.7,39.06,40.3,40.01,8982593.0,363688954.0,1712122448.4,8274940050.0
sh688085,三友医疗,2020-04-16,39.45,40.21,38.28,39.5,40.3,8111296.0,318291026.0,1678134906.0,8110673250.0
sh688085,三友医疗,2020-04-17,39.27,39.85,37.75,37.75,39.5,5712531.0,220653213.0,1603787157.0,7751339625.0
sh688085,三友医疗,2020-04-20,37.8,41.23,37.75,40.05,37.75,6910406.0,274390495.0,1701501341.4,8223606675.0
sh688085,三友医疗,2020-04-21,40.06,44.0,39.55,43.05,40.05,7691651.0,326274724.0,1828954625.4,8839607175.0
sh688085,三友医疗,2020-04-22,42.01,46.75,41.01,44.89,43.05,6575788.0,292907445.0,1907125972.92,9217420815.0
sh688085,三友医疗,2020-04-23,44.58,48.78,44.33,44.68,44.89,6017659.0,278818614.0,1898204243.04,9174300780.0
sh688085,三友医疗,2020-04-24,44.68,48.48,44.68,46.45,44.68,4820429.0,225374622.0,1973401680.6,9537741075.0
sh688085,三友医疗,2020-04-27,45.56,47.6,44.44,45.91,46.45,3021610.0,139294837.0,1950460089.48,9426860985.0
sh688085,三友医疗,2020-04-28,46.0,47.25,42.01,46.36,45.91,4050379.0,183353584.0,1969578082.08,9519261060.0
sh688085,三友医疗,2020-04-29,46.01,49.88,44.65,48.52,46.36,4644352.0,220530009.0,2061344446.56,9962781420.0
sh688085,三友医疗,2020-04-30,47.94,49.28,47.02,48.28,48.52,2912409.0,140135399.0,2051148183.84,9913501380.0
sh688085,三友医疗,2020-05-06,48.2,51.43,47.0,50.6,48.28,3408849.0,166873608.0,2149712056.8,10389875100.0
sh688085,三友医疗,2020-05-07,49.97,50.48,48.5,49.2,50.6,2180149.0,108057798.0,2090233857.6,10102408200.0
sh688085,三友医疗,2020-05-08,49.45,51.14,49.03,49.48,49.2,2000831.0,100609859.0,2102129497.44,10159901580.0
sh688085,三友医疗,2020-05-11,50.02,53.25,50.0,50.79,49.48,2521659.0,129554452.0,2157784098.12,10428888465.0
sh688085,三友医疗,2020-05-12,51.13,60.95,51.01,60.95,50.79,4556828.0,255583045.0,2589425886.6,12515076825.0
sh688085,三友医疗,2020-05-13,62.89,73.0,61.99,67.3,60.95,7927761.0,524927966.0,2859202004.4,13818944550.0
sh688085,三友医疗,2020-05-14,67.0,68.5,64.2,65.41,67.3,4922934.0,326263360.0,2778906435.48,13430864235.0
sh688085,三友医疗,2020-05-15,65.41,67.2,63.77,65.85,65.41,3494296.0,228551963.0,2797599583.8,13521210975.0
sh688085,三友医疗,2020-05-18,65.68,65.71,62.62,63.5,65.85,3428026.0,220471501.0,2697761178.0,13038677250.0
sh688085,三友医疗,2020-05-19,65.0,66.9,61.49,64.7,63.5,3907115.0,247461835.0,2748742491.6,13285077450.0
sh688085,三友医疗,2020-05-20,64.93,65.67,62.56,64.9,64.7,2865490.0,183642660.0,2757239377.2,13326144150.0
sh688085,三友医疗,2020-05-21,64.85,73.88,63.9,70.61,64.9,4481967.0,312345459.0,2999825461.08,14498598435.0
sh688085,三友医疗,2020-05-22,68.61,70.99,63.19,65.49,70.61,4229794.0,283687897.0,2782305189.72,13447290915.0
sh688085,三友医疗,2020-05-25,65.08,67.19,63.3,65.22,65.49,2107216.0,137265045.0,2770834394.16,13391850870.0
sh688085,三友医疗,2020-05-26,65.25,69.3,64.35,68.18,65.22,2287295.0,154515104.0,2896588301.04,13999638030.0
sh688085,三友医疗,2020-05-27,68.5,68.79,63.92,64.75,68.18,2128701.0,140248485.0,2750866713.0,13295344125.0
sh688085,三友医疗,2020-05-28,64.01,64.59,58.1,59.6,64.75,3368260.0,205804708.0,2532071908.8,12237876600.0
sh688085,三友医疗,2020-05-29,59.6,66.6,58.68,63.13,59.6,3465493.0,220991321.0,2682041939.64,12962703855.0
sh688085,三友医疗,2020-06-01,63.08,68.88,61.5,65.0,63.13,2725919.0,177659091.0,2761487820.0,13346677500.0
sh688085,三友医疗,2020-06-02,65.06,65.6,62.66,63.65,65.0,1618394.0,102946649.0,2704133842.2,13069477275.0
sh688085,三友医疗,2020-06-03,63.66,68.5,63.65,66.31,63.65,2889332.0,191617911.0,2817142420.68,13615664385.0
sh688085,三友医疗,2020-06-04,66.66,66.72,63.7,63.7,66.31,2276221.0,147101128.0,2706258063.6,13079743950.0
sh688085,三友医疗,2020-06-05,63.21,65.77,61.55,63.9,63.7,1806566.0,115893159.0,2714754949.2,13120810650.0
sh688085,三友医疗,2020-06-08,63.93,64.88,60.67,61.1,63.9,2193783.0,135873393.0,2595798550.8,12545876850.0
sh688085,三友医疗,2020-06-09,60.8,62.29,60.0,61.81,61.1,1578894.0,97033877.0,2625962494.68,12691663635.0
sh688085,三友医疗,2020-06-10,62.02,64.4,61.13,63.86,61.81,2386823.0,151620681.0,2713055572.08,13112597310.0
sh688085,三友医疗,2020-06-11,63.53,63.7,61.0,61.75,63.86,2469507.0,152776150.0,2623413429.0,12679343625.0
sh688085,三友医疗,2020-06-12,60.46,65.5,60.22,63.79,61.75,2620298.0,165762025.0,2710081662.12,13098223965.0
sh688085,三友医疗,2020-06-15,65.13,66.88,62.62,63.17,63.79,2744990.0,176427401.0,2683741316.76,12970917194.999998
sh688085,三友医疗,2020-06-16,63.34,66.3,61.61,65.41,63.17,3761846.0,241443279.0,2778906435.48,13430864235.0
sh688085,三友医疗,2020-06-17,65.01,77.92,65.01,75.17,65.41,5906317.0,430818992.0,3193554452.76,15434919195.0
sh688085,三友医疗,2020-06-18,73.0,74.49,68.26,69.81,75.17,3617013.0,254774522.0,2965837918.68,14334331635.0
sh688085,三友医疗,2020-06-19,69.89,77.45,68.79,72.42,69.81,4007760.0,297452067.0,3076722275.76,14870252070.0
sh688085,三友医疗,2020-06-22,72.4,81.66,71.43,76.9,72.42,4296578.0,331392878.0,3267052513.2,15790146150.0
sh688085,三友医疗,2020-06-23,77.8,80.28,76.2,78.5,76.9,2526949.0,197145958.0,3335027598.0,16118679750.0
sh688085,三友医疗,2020-06-24,78.0,80.8,74.5,76.63,78.5,2207808.0,168425084.0,3255581717.6400003,15734706105.0
sh688085,三友医疗,2020-06-29,75.0,78.65,75.0,77.07,76.63,1646243.0,126597316.0,3274274865.96,15825052845.0
sh688085,三友医疗,2020-06-30,77.19,79.98,74.0,79.29,77.07,2664483.0,205606363.0,3368590296.12,16280893215.0
sh688085,三友医疗,2020-07-01,78.5,79.29,75.0,76.3,79.29,1907581.0,146943936.0,3241561856.4,15666946050.0
sh688085,三友医疗,2020-07-02,76.0,79.22,72.29,72.96,76.3,2839194.0,214134103.0,3099663866.88,14981132160.0
sh688085,三友医疗,2020-07-03,72.3,74.4,70.13,73.2,72.96,1989931.0,144201298.0,3109860129.6000004,15030412200.0
sh688085,三友医疗,2020-07-06,72.72,74.2,71.0,72.99,73.2,2640472.0,192577511.0,3100938399.72,14987292165.000002
sh688085,三友医疗,2020-07-07,72.9,77.6,71.66,75.05,72.99,3267218.0,242683231.0,3188456321.4,15410279175.0
sh688085,三友医疗,2020-07-08,74.51,75.45,73.2,73.94,75.05,2157544.0,159542132.0,3141298606.32,15182358990.0
sh688085,三友医疗,2020-07-09,73.0,77.6,72.6,76.63,73.94,2808910.0,211818746.0,3255581717.6400003,15734706105.0
sh688085,三友医疗,2020-07-10,75.9,81.36,75.33,78.88,76.63,3057402.0,241464994.0,3351171680.6400003,16196706480.0
sh688085,三友医疗,2020-07-13,79.0,88.28,77.0,86.97,78.88,3864069.0,318467825.0,3694870703.16,17857854495.0
sh688085,三友医疗,2020-07-14,85.37,89.9,81.0,81.34,86.97,3569385.0,304414176.0,3455683373.52,16701826890.0
sh688085,三友医疗,2020-07-15,81.1,87.3,77.77,78.57,81.34,2747822.0,229370176.0,3338001507.96,16133053095.0
sh688085,三友医疗,2020-07-16,78.98,81.0,67.0,71.57,78.57,3162297.0,232718056.0,3040610511.96,14695718595.0
sh688085,三友医疗,2020-07-17,71.57,73.8,67.25,68.0,71.57,3028320.0,212734890.0,2888941104.0,13962678000.0
sh688085,三友医疗,2020-07-20,69.23,69.8,63.92,68.64,68.0,2422028.0,160779541.0,2916131137.92,14094091440.0
sh688085,三友医疗,2020-07-21,67.99,71.3,67.99,70.65,68.64,1610798.0,112931059.0,3001524838.2000003,14506811775.0
sh688085,三友医疗,2020-07-22,69.93,73.18,69.5,71.54,70.65,1513217.0,108007627.0,3039335979.1200004,14689558590.0
sh688085,三友医疗,2020-07-23,71.0,73.15,69.04,72.16,71.54,1308136.0,93226190.0,3065676324.48,14816865360.0
sh688085,三友医疗,2020-07-24,71.65,71.88,63.6,63.85,72.16,1784149.0,120365769.0,2712630727.8,13110543975.0
sh688085,三友医疗,2020-07-27,64.06,67.85,64.06,67.3,63.85,1615889.0,107770125.0,2859202004.4,13818944550.0
sh688085,三友医疗,2020-07-28,68.4,69.17,65.8,67.0,67.3,947622.0,63420444.0,2846456676.0,13757344500.0
sh688085,三友医疗,2020-07-29,67.13,72.27,66.21,71.03,67.0,1595416.0,111870092.0,3017668920.84,14584838505.0
sh688085,三友医疗,2020-07-30,71.25,72.9,69.65,69.99,71.03,1225582.0,87398251.0,2973485115.72,14371291665.0
sh688085,三友医疗,2020-07-31,69.31,75.19,69.04,73.56,69.99,1999489.0,142567093.0,3125154523.68,15104332260.0
sh688085,三友医疗,2020-08-03,74.09,76.19,72.28,75.88,73.56,1636388.0,122317780.0,3223718396.6400003,15580705980.0
sh688085,三友医疗,2020-08-04,74.82,78.81,70.09,70.3,75.88,2337619.0,172221753.0,2986655288.4,14434945049.999998
sh688085,三友医疗,2020-08-05,70.44,72.81,69.67,72.39,70.3,1128123.0,80644466.0,3075447742.92,14864092065.0
sh688085,三友医疗,2020-08-06,72.14,73.57,68.15,70.31,72.39,1560806.0,109157223.0,2987080132.68,14436998385.0
sh688085,三友医疗,2020-08-07,69.01,71.27,67.75,69.02,70.31,795945.0,54921844.0,2932275220.56,14172118170.0
sh688085,三友医疗,2020-08-10,68.9,69.45,64.99,66.2,69.02,1383027.0,91551899.0,2812469133.6,13593077700.0
sh688085,三友医疗,2020-08-11,65.92,67.5,65.05,65.23,66.2,545348.0,36104230.0,2771259238.44,13393904205.0
sh688085,三友医疗,2020-08-12,66.0,66.29,62.53,65.33,65.23,765947.0,49152621.0,2775507681.24,13414437555.0
sh688085,三友医疗,2020-08-13,65.66,65.9,63.21,64.22,65.33,609869.0,39307956.0,2728349966.1600003,13186517370.0
sh688085,三友医疗,2020-08-14,64.5,65.78,63.18,64.7,64.22,771398.0,49498447.0,2748742491.6,13285077450.000002
sh688085,三友医疗,2020-08-17,64.9,65.95,63.0,65.72,64.7,1192914.0,77078067.0,2792076608.1600003,13494517620.000002
sh688085,三友医疗,2020-08-18,65.86,67.5,65.37,67.5,65.72,1019388.0,67785422.0,2867698890.0000005,13860011250.0
sh688085,三友医疗,2020-08-19,67.5,67.87,58.9,60.36,67.5,2099038.0,131096555.0,2564360074.08,12393930060.0
sh688085,三友医疗,2020-08-20,60.0,62.36,59.3,59.59,60.36,1455016.0,88479981.0,2531647064.52,12235823265.0
sh688085,三友医疗,2020-08-21,59.95,63.5,59.95,61.55,59.59,1255951.0,77784255.0,2614916543.4,12638276924.999998
sh688085,三友医疗,2020-08-24,62.0,63.5,61.04,63.11,61.55,862126.0,53972875.0,2681192251.08,12958597185.0
sh688085,三友医疗,2020-08-25,62.94,63.61,60.3,60.87,63.11,1111829.0,68591047.0,2586027132.36,12498650145.0
sh688085,三友医疗,2020-08-26,61.06,62.11,59.5,60.6,60.87,992874.0,60391061.0,2574556336.8,12443210100.0
sh688085,三友医疗,2020-08-27,60.34,62.3,59.84,61.52,60.6,748009.0,45956129.0,2613642010.56,12632116920.0
sh688085,三友医疗,2020-08-28,62.0,64.6,60.7,64.19,61.52,1435190.0,90507001.0,2727075433.32,13180357365.000002
sh688085,三友医疗,2020-08-31,64.24,65.8,61.87,62.63,64.19,1139831.0,73135825.0,2660799725.64,12860037105.0
sh688085,三友医疗,2020-09-01,62.63,63.72,62.32,63.38,62.63,765819.0,48458339.0,2692663046.64,13014037230.0
sh688085,三友医疗,2020-09-02,63.39,65.98,63.39,65.5,63.38,1107075.0,72359991.0,2782730034.0,13449344250.0
sh688085,三友医疗,2020-09-03,65.18,68.37,64.92,66.77,65.5,1186408.0,79394676.0,2836685257.56,13710117795.0
sh688085,三友医疗,2020-09-04,65.03,66.98,64.27,65.55,66.77,845835.0,55099344.0,2784854255.4,13459610925.0
sh688085,三友医疗,2020-09-07,65.55,68.5,64.0,65.66,65.55,1135310.0,75409940.0,2789527542.48,13482197610.0
sh688085,三友医疗,2020-09-08,66.0,68.2,64.73,66.78,65.66,1164103.0,77474097.0,2837110101.84,13712171129.999998
sh688085,三友医疗,2020-09-09,65.3,66.49,61.01,61.1,66.78,1569076.0,98402425.0,2595798550.8,12545876850.0
sh688085,三友医疗,2020-09-10,62.0,62.29,59.02,59.79,61.1,923292.0,55734501.0,2540143950.12,12276889964.999998
sh688085,三友医疗,2020-09-11,59.1,60.78,58.2,59.85,59.79,1208367.0,71761872.0,2542693015.8,12289209975.0
sh688085,三友医疗,2020-09-14,60.12,62.13,58.31,58.87,59.85,1129813.0,67536062.0,2501058276.36,12087983145.0
sh688085,三友医疗,2020-09-15,58.87,59.34,57.53,58.62,58.87,690569.0,40449966.0,2490437169.36,12036649770.0
sh688085,三友医疗,2020-09-16,58.79,59.18,56.07,56.26,58.62,1182016.0,67520277.0,2390173919.28,11552062710.0
sh688085,三友医疗,2020-09-17,56.4,57.94,54.45,57.52,56.26,1350954.0,75799989.0,2443704298.56,11810782919.999998
sh688085,三友医疗,2020-09-18,57.67,58.45,57.0,58.28,57.52,877044.0,50613435.0,2475992463.84,11966836380.0
sh688085,三友医疗,2020-09-21,58.39,59.4,58.03,59.2,58.28,687637.0,40490946.0,2515078137.6,12155743200.0
sh688085,三友医疗,2020-09-22,58.51,59.48,54.68,55.6,59.2,1904122.0,108098041.0,2362134196.8,11416542600.0
sh688085,三友医疗,2020-09-23,55.89,56.94,54.66,56.62,55.6,1601656.0,89890805.0,2405468313.36,11625982770.0
sh688085,三友医疗,2020-09-24,56.56,56.56,51.31,53.04,56.62,1937354.0,104249828.0,2253374061.12,10890888840.0
sh688085,三友医疗,2020-09-25,52.9,53.94,52.16,52.8,53.04,1008101.0,53343642.0,2243177798.4,10841608799.999998
sh688085,三友医疗,2020-09-28,52.8,53.49,51.3,53.26,52.8,945400.0,49326131.0,2262720635.28,10936062209.999998
sh688085,三友医疗,2020-09-29,53.88,53.88,52.7,53.07,53.26,539583.0,28686455.0,2254648593.96,10897048845.0
sh688085,三友医疗,2020-09-30,52.45,54.68,52.0,52.02,53.07,1157518.0,61607708.0,2210039944.56,10681448670.0
sh688085,三友医疗,2020-10-09,52.3,55.76,51.15,52.97,52.02,1978622.0,105277442.0,2356393333.04,10876515495.0
sh688085,三友医疗,2020-10-12,53.12,54.54,51.87,54.12,52.97,2284596.0,122119133.0,2407551579.84,11112649020.0
sh688085,三友医疗,2020-10-13,54.86,60.38,54.3,58.34,54.12,3799750.0,217298142.0,2595280102.88,11979156390.0
sh688085,三友医疗,2020-10-14,58.0,60.29,57.41,58.84,58.34,2407315.0,142037218.0,2617522818.88,12081823140.0
sh688085,三友医疗,2020-10-15,58.7,59.8,58.1,58.99,58.84,1766960.0,104101041.0,2624195633.68,12112623165.0
sh688085,三友医疗,2020-10-16,58.55,59.55,57.68,58.99,58.99,1642143.0,96094903.0,2624195633.68,12112623165.0
sh688085,三友医疗,2020-10-19,58.47,59.41,57.02,58.0,58.99,1205261.0,69846387.0,2580155056.0,11909343000.0
sh688085,三友医疗,2020-10-20,58.15,58.15,55.4,55.55,58.0,1526835.0,85858634.0,2471165747.6,11406275925.0
sh688085,三友医疗,2020-10-21,56.12,56.5,54.2,54.2,55.55,890546.0,49373271.0,2411110414.4,11129075700.0
sh688085,三友医疗,2020-10-22,54.99,55.74,52.56,55.74,54.2,1566039.0,85173547.0,2479617979.68,11445289290.0
sh688085,三友医疗,2020-10-23,55.75,56.65,52.0,53.12,55.74,1745945.0,94939377.0,2363066147.84,10907315520.0
sh688085,三友医疗,2020-10-26,52.77,54.31,52.5,53.58,53.12,1208196.0,64832085.0,2383529446.56,11001768930.0
sh688085,三友医疗,2020-10-27,54.54,54.78,53.09,53.6,53.58,863316.0,46472018.0,2384419155.2000003,11005875600.0
sh688085,三友医疗,2020-10-28,53.57,53.99,52.51,53.77,53.6,982104.0,52227194.0,2391981678.64,11040782294.999998
sh688085,三友医疗,2020-10-29,53.0,55.23,52.22,54.73,53.77,1276345.0,69145509.0,2434687693.36,11237902455.0
sh688085,三友医疗,2020-10-30,54.99,56.3,53.05,53.5,54.73,1424718.0,77909364.0,2379970612.0,10985342250.0
sh688085,三友医疗,2020-11-02,53.77,54.47,48.02,50.4,53.5,2814623.0,143347592.0,2242065772.8,10348808400.0
sh688085,三友医疗,2020-11-03,50.42,55.19,49.66,53.39,50.4,2702161.0,143154005.0,2375077214.48,10962755565.0
sh688085,三友医疗,2020-11-04,53.85,54.4,52.79,53.67,53.39,1065509.0,57087893.0,2387533135.44,11020248945.0
sh688085,三友医疗,2020-11-05,53.99,57.78,53.73,56.48,53.67,1839698.0,103810929.0,2512537199.36,11597236080.0
sh688085,三友医疗,2020-11-06,56.66,56.66,53.77,54.16,56.48,1347861.0,73518353.0,2409330997.12,11120862360.0
sh688085,三友医疗,2020-11-09,53.68,54.88,53.25,54.69,54.16,948275.0,51372698.0,2432908276.08,11229689115.0
sh688085,三友医疗,2020-11-10,54.59,55.22,52.52,52.8,54.69,769465.0,41131589.0,2348830809.6,10841608799.999998
sh688085,三友医疗,2020-11-11,52.8,53.31,51.28,51.33,52.8,695918.0,36195272.0,2283437224.56,10539768555.0
sh688085,三友医疗,2020-11-12,52.1,52.61,51.16,51.5,51.33,390572.0,20181964.0,2290999748.0,10574675250.0
sh688085,三友医疗,2020-11-13,51.24,52.0,50.61,51.23,51.5,665860.0,34242338.0,2278988681.36,10519235205.000002
sh688085,三友医疗,2020-11-16,51.4,52.22,50.4,50.8,51.23,698576.0,35564738.0,2259859945.6,10430941800.0
sh688085,三友医疗,2020-11-17,50.81,50.81,48.63,49.34,50.8,801518.0,39488314.0,2194911214.88,10131154890.0
sh688085,三友医疗,2020-11-18,49.3,49.43,47.7,47.88,49.34,1075288.0,51749218.0,2129962484.16,9831367980.0
sh688085,三友医疗,2020-11-19,47.7,48.48,47.05,47.5,47.88,803935.0,38442245.0,2113058020.0,9753341250.0
sh688085,三友医疗,2020-11-20,47.5,48.35,47.27,48.18,47.5,775163.0,37248135.0,2143308113.76,9892968030.0
sh688085,三友医疗,2020-11-23,48.2,48.39,46.54,47.88,48.18,1400840.0,66005585.0,2129962484.16,9831367980.0
sh688085,三友医疗,2020-11-24,47.55,47.93,46.63,46.89,47.88,697517.0,32930206.0,2085921906.48,9628087815.0
sh688085,三友医疗,2020-11-25,46.2,46.21,41.47,41.7,46.89,4270153.0,181902842.0,1855042514.4,8562406949.999999
sh688085,三友医疗,2020-11-26,41.15,42.78,40.91,41.0,41.7,2130421.0,88886250.0,1823902712.0,8418673500.0
sh688085,三友医疗,2020-11-27,41.28,41.46,40.0,41.3,41.0,1350680.0,55201910.0,1837248341.6,8480273550.0
sh688085,三友医疗,2020-11-30,41.52,41.52,40.04,40.99,41.3,1217786.0,49568284.0,1823457857.68,8416620165.0
sh688085,三友医疗,2020-12-01,40.99,41.97,40.73,41.31,40.99,968506.0,39943704.0,1837693195.92,8482326885.0
sh688085,三友医疗,2020-12-02,41.08,41.83,40.68,41.02,41.31,864359.0,35452775.0,1824792420.64,8422780170.0
sh688085,三友医疗,2020-12-03,41.1,42.47,40.65,41.58,41.02,1351254.0,55979099.0,1849704262.56,8537766930.0
sh688085,三友医疗,2020-12-04,41.55,42.14,41.14,41.44,41.58,886158.0,36738743.0,1843476302.08,8509020240.0
sh688085,三友医疗,2020-12-07,41.2,41.99,41.01,41.23,41.44,715696.0,29630757.0,1834134361.36,8465900205.0
sh688085,三友医疗,2020-12-08,41.24,41.37,40.4,40.8,41.23,951333.0,38822642.0,1815005625.6,8377606800.000001
sh688085,三友医疗,2020-12-09,40.9,41.05,40.04,40.1,40.8,904090.0,36476072.0,1783865823.1999998,8233873350.0
sh688085,三友医疗,2020-12-10,40.1,41.99,39.78,41.2,40.1,1194871.0,49195834.0,1832799798.4,8459740200.0
sh688085,三友医疗,2020-12-11,41.4,41.7,39.73,40.5,41.2,1184513.0,48141643.0,1801659996.0,8316006750.0
sh688085,三友医疗,2020-12-14,40.22,40.49,38.15,39.39,40.5,1036061.0,40679853.0,1752281166.48,8088086565.0
sh688085,三友医疗,2020-12-15,39.41,40.25,39.01,39.69,39.39,914764.0,36190864.0,1765626796.0800002,8149686615.0
sh688085,三友医疗,2020-12-16,39.85,39.85,38.71,39.2,39.69,922290.0,36269235.0,1743828934.4,8049073199.999999
sh688085,三友医疗,2020-12-17,39.2,41.29,39.2,40.29,39.2,1789862.0,72150554.0,1792318055.28,8272886715.000001
sh688085,三友医疗,2020-12-18,40.0,41.38,39.36,40.61,40.29,1523816.0,61921989.0,1806553393.52,8338593435.0
sh688085,三友医疗,2020-12-21,40.6,40.97,40.0,40.15,40.61,921348.0,37099476.0,1786090094.8000002,8244140024.999999
sh688085,三友医疗,2020-12-22,39.8,40.69,39.75,39.99,40.15,877479.0,35279099.0,1778972425.6799998,8211286665.000001
sh688085,三友医疗,2020-12-23,39.71,40.13,38.18,39.06,39.99,1091213.0,42288091.0,1737600973.92,8020326510.0
sh688085,三友医疗,2020-12-24,39.06,39.06,37.51,37.67,39.06,901093.0,34346011.0,1675766223.44,7734912945.0
sh688085,三友医疗,2020-12-25,38.0,38.13,36.36,36.97,37.67,1173288.0,43317145.0,1644626421.04,7591179495.0
sh688085,三友医疗,2020-12-28,36.79,37.95,35.51,37.07,36.97,1473410.0,54295809.0,1649074964.24,7611712844.999999
sh688085,三友医疗,2020-12-29,37.07,37.69,36.51,37.52,37.07,886286.0,32926251.0,1669093408.64,7704112920.0
sh688085,三友医疗,2020-12-30,37.38,37.4,36.3,36.35,37.52,788266.0,28985773.0,1617045453.2,7463872725.0
sh688085,三友医疗,2020-12-31,36.35,39.1,36.17,38.76,36.35,1579903.0,59951628.0,1724255344.32,7958726459.999999
sh688085,三友医疗,2021-01-04,38.6,38.6,37.38,37.62,38.76,1837845.0,69521623.0,1673541951.8400002,7724646270.0
sh688085,三友医疗,2021-01-05,37.51,39.09,37.35,38.74,37.62,1442716.0,55627114.0,1723365635.68,7954619790.000001
sh688085,三友医疗,2021-01-06,38.94,39.44,37.7,38.66,38.74,1242479.0,47901327.0,1719806801.12,7938193110.0
sh688085,三友医疗,2021-01-07,38.6,38.6,36.51,36.56,38.66,1449152.0,53918307.0,1626387393.9199998,7506992760.0
sh688085,三友医疗,2021-01-08,36.51,38.22,35.6,37.06,36.56,1604523.0,59463965.0,1648630109.92,7609659510.0
sh688085,三友医疗,2021-01-11,37.14,37.49,35.3,35.52,37.06,1616383.0,58114248.0,1580122544.64,7293445919.999999
sh688085,三友医疗,2021-01-12,35.03,35.9,34.89,35.76,35.52,849611.0,30109833.0,1590799048.32,7342725960.0
sh688085,三友医疗,2021-01-13,35.28,36.18,34.64,34.9,35.76,1197918.0,42173565.0,1552541576.8,7166139150.0
sh688085,三友医疗,2021-01-14,35.52,37.15,34.0,36.1,34.9,1474899.0,52962719.0,1605924095.1999998,7412539350.000001
sh688085,三友医疗,2021-01-15,35.99,38.5,35.99,38.0,36.1,1672901.0,62742511.0,1690446416.0,7802673000.0
sh688085,三友医疗,2021-01-18,38.4,38.4,36.68,36.81,38.0,1715987.0,64181182.0,1637508751.92,7558326135.0
sh688085,三友医疗,2021-01-19,36.95,38.5,36.7,37.78,36.81,1377456.0,52019016.0,1680659620.96,7757499630.0
sh688085,三友医疗,2021-01-20,37.78,38.54,37.48,38.08,37.78,868308.0,33064325.0,1694005250.5600002,7819099680.0
sh688085,三友医疗,2021-01-21,38.46,40.55,38.09,39.89,38.08,2150887.0,85399103.0,1774523882.48,8190753315.0
sh688085,三友医疗,2021-01-22,39.8,40.3,39.08,39.38,39.89,1112898.0,44073949.0,1751836312.16,8086033230.0
sh688085,三友医疗,2021-01-25,40.1,41.13,38.57,40.58,39.38,2052622.0,82837782.0,1805218830.56,8332433430.0
sh688085,三友医疗,2021-01-26,40.15,40.15,37.88,38.02,40.58,1570912.0,61390407.0,1691336124.64,7806779669.999999
sh688085,三友医疗,2021-01-27,38.48,41.38,38.23,40.3,38.02,1998690.0,80201798.0,1792762909.6,8274940050.0
sh688085,三友医疗,2021-01-28,39.96,41.46,39.43,39.6,40.3,1600424.0,64830658.0,1761623107.2,8131206600.0
sh688085,三友医疗,2021-01-29,40.49,40.5,37.32,38.35,39.6,1305133.0,50254363.0,1706016317.2,7874539725.0
sh688085,三友医疗,2021-02-01,37.27,37.99,36.0,37.29,38.35,1569422.0,57705691.0,1658861759.2800002,7656886215.0
sh688085,三友医疗,2021-02-02,36.36,37.58,36.1,36.77,37.29,934417.0,34396223.0,1635729334.64,7550112794.999999
sh688085,三友医疗,2021-02-03,37.34,41.0,37.22,37.45,36.77,1925598.0,75143580.0,1665979428.4,7689739575.0
sh688085,三友医疗,2021-02-04,37.05,37.88,35.26,36.2,37.45,1455037.0,52883879.0,1610372638.4,7433072700.0
sh688085,三友医疗,2021-02-05,35.86,36.68,35.2,35.33,36.2,993889.0,35608290.0,1571670312.56,7254432555.0
sh688085,三友医疗,2021-02-08,35.13,35.83,34.78,35.07,35.33,1050235.0,36889640.0,1560104100.24,7201045845.0
sh688085,三友医疗,2021-02-09,35.07,35.68,34.64,35.5,35.07,826470.0,29151545.0,1579232836.0,7289339250.0
sh688085,三友医疗,2021-02-10,35.79,38.98,35.48,38.04,35.5,2352674.0,88539998.0,1692225833.28,7810886340.0
sh688085,三友医疗,2021-02-18,39.13,39.8,38.03,38.24,38.04,1358780.0,52721289.0,1701122919.68,7851953040.0
sh688085,三友医疗,2021-02-19,38.5,39.98,38.04,39.9,38.24,1642281.0,64701261.0,1774968736.8,8192806650.0
sh688085,三友医疗,2021-02-22,40.73,40.73,38.89,39.02,39.9,1254473.0,49734080.0,1735821556.64,8012113170.0
sh688085,三友医疗,2021-02-23,39.02,39.3,38.2,38.56,39.02,982561.0,38050484.0,1715358257.9199998,7917659760.0
sh688085,三友医疗,2021-02-24,39.01,39.46,38.22,39.35,38.56,1250212.0,48876373.0,1750501749.1999998,8079873225.0
sh688085,三友医疗,2021-02-25,39.43,39.44,37.76,37.99,39.35,1131124.0,43307160.0,1690001561.6799998,7800619665.0
sh688085,三友医疗,2021-02-26,37.12,37.66,35.88,36.2,37.99,1291716.0,47283287.0,1610372638.4,7433072700.0
sh688085,三友医疗,2021-03-01,36.42,37.28,36.32,36.96,36.2,1567751.0,57587935.0,1644181566.72,7589126160.0
sh688085,三友医疗,2021-03-02,36.89,37.6,35.87,36.28,36.96,863030.0,31566803.0,1613931472.96,7449499380.0
sh688085,三友医疗,2021-03-03,36.0,36.6,35.75,36.5,36.28,657353.0,23812731.0,1623718268.0,7494672750.0
sh688085,三友医疗,2021-03-04,36.31,36.54,35.21,35.34,36.5,1015808.0,36190922.0,1572115166.88,7256485890.0
sh688085,三友医疗,2021-03-05,35.03,35.76,34.91,35.55,35.34,658108.0,23270325.0,1581457107.6,7299605925.0
sh688085,三友医疗,2021-03-08,35.78,36.57,34.34,34.43,35.55,1306783.0,46337507.0,1531633423.7599998,7069632405.0
sh688085,三友医疗,2021-03-09,34.5,34.9,30.26,30.35,34.43,2764316.0,87967150.0,1350132861.2,6231871725.0
sh688085,三友医疗,2021-03-10,30.93,31.0,29.18,29.22,30.35,1937783.0,57774412.0,1299864323.04,5999844870.0
sh688085,三友医疗,2021-03-11,28.83,29.94,28.83,29.65,29.22,2185712.0,64282110.0,1318993058.8,6088138275.0
sh688085,三友医疗,2021-03-12,29.66,30.04,28.66,29.14,29.65,1360702.0,39483241.0,1296305488.48,5983418190.0
sh688085,三友医疗,2021-03-15,29.13,29.14,27.66,28.07,29.14,1028890.0,28993594.0,1248706076.24,5763711345.0
sh688085,三友医疗,2021-03-16,28.09,28.47,27.72,28.26,28.07,574438.0,16222843.0,1257158308.3200002,5802724710.0
sh688085,三友医疗,2021-03-17,27.67,28.46,27.67,28.37,28.26,615095.0,17354607.0,1262051705.8400002,5825311395.000001
sh688085,三友医疗,2021-03-18,28.3,28.65,28.08,28.36,28.37,755260.0,21409259.0,1261606851.52,5823258060.0
sh688085,三友医疗,2021-03-19,28.43,29.68,28.19,29.4,28.36,1723924.0,50340763.0,1307871700.8,6036804900.0
sh688085,三友医疗,2021-03-22,29.2,30.27,28.88,29.99,29.4,1073531.0,31665462.0,1334118105.6799998,6157951665.000001
sh688085,三友医疗,2021-03-23,30.0,31.4,29.95,30.01,29.99,1337194.0,40858572.0,1335007814.32,6162058334.999999
sh688085,三友医疗,2021-03-24,29.91,30.21,28.52,28.73,30.01,875680.0,25596486.0,1278066461.36,5899231455.0
sh688085,三友医疗,2021-03-25,28.62,29.8,28.5,28.82,28.73,777821.0,22724616.0,1282070150.24,5917711470.0
sh688085,三友医疗,2021-03-26,29.27,29.79,28.83,29.2,28.82,735797.0,21606519.0,1298974614.4,5995738199.999999
sh688085,三友医疗,2021-03-29,29.2,29.27,28.76,28.76,29.2,476323.0,13792181.0,1279401024.32,5905391459.999999
sh688085,三友医疗,2021-03-30,29.32,29.33,27.87,28.06,28.76,881592.0,24840396.0,1248261221.9199998,5761658010.0
sh688085,三友医疗,2021-03-31,27.91,28.61,27.91,28.15,28.06,700216.0,19737984.0,1252264910.8,5780138025.0
sh688085,三友医疗,2021-04-01,28.15,28.69,28.04,28.36,28.15,564955.0,16024925.0,1261606851.52,5823258060.0
sh688085,三友医疗,2021-04-02,28.39,28.52,28.06,28.32,28.36,589250.0,16672375.0,1259827434.24,5815044719.999999
sh688085,三友医疗,2021-04-06,28.14,29.0,28.14,28.91,28.32,715869.0,20538427.0,1286073839.12,5936191485.0
sh688085,三友医疗,2021-04-07,29.01,29.5,28.69,29.35,28.91,1019587.0,29802575.0,1305647429.2,6026538225.0
sh688085,三友医疗,2021-04-08,29.35,29.49,28.04,28.12,29.35,1149186.0,32894551.0,1250930347.84,5773978020.0
sh688085,三友医疗,2021-04-09,28.12,29.4,27.66,28.79,28.12,1997455.0,57490613.0,2376446366.4,5911551465.0
sh688085,三友医疗,2021-04-12,28.61,29.48,28.05,28.92,28.79,1305846.0,37673865.0,2387177107.2,5938244820.0
sh688085,三友医疗,2021-04-13,29.07,29.07,28.15,28.25,28.92,729000.0,20705210.0,2331872520.0,5800671375.0
sh688085,三友医疗,2021-04-14,28.24,28.38,27.95,28.29,28.25,483479.0,13618856.0,2335174286.4,5808884715.0
sh688085,三友医疗,2021-04-15,28.35,28.35,27.67,27.78,28.29,861834.0,24035938.0,2293076764.8,5704164630.0
sh688085,三友医疗,2021-04-16,27.7,28.78,27.7,28.68,27.78,1881856.0,53648370.0,2367366508.8,5888964780.0
sh688085,三友医疗,2021-04-19,28.89,29.95,28.72,29.86,28.68,1958805.0,57728617.0,2464768617.6,6131258310.0
sh688085,三友医疗,2021-04-20,29.84,30.8,29.5,29.55,29.86,2017615.0,60722638.0,2439179928.0,6067604925.000001
sh688085,三友医疗,2021-04-21,29.6,29.99,29.15,29.79,29.55,1329717.0,39495244.0,2458990526.4,6116884965.0
sh688085,三友医疗,2021-04-22,29.79,31.71,29.78,31.5,29.79,3014470.0,92216579.0,2600141040.0,6468005250.0
sh688085,三友医疗,2021-04-23,30.7,34.48,30.4,33.23,31.5,5165358.0,170167062.0,2742942436.8,6823232205.000001
sh688085,三友医疗,2021-04-26,33.0,34.5,32.28,33.91,33.23,2962572.0,99552219.0,2799072465.6,6962858985.0
sh688085,三友医疗,2021-04-27,33.5,33.82,32.91,33.62,33.91,1932042.0,64703276.0,2775134659.2,6903312270.0
sh688085,三友医疗,2021-04-28,33.5,34.2,33.21,33.75,33.62,1542901.0,52079661.0,2785865400.0,6930005625.0
sh688085,三友医疗,2021-04-29,32.16,33.58,31.65,33.28,33.75,2244277.0,73799411.0,2747069644.8,6833498880.0
sh688085,三友医疗,2021-04-30,33.3,33.97,32.94,33.5,33.28,1410068.0,47312519.0,2765229360.0,6878672250.0
sh688085,三友医疗,2021-05-06,33.15,33.72,31.5,32.21,33.5,1726202.0,55896956.0,2658747393.6,6613792034.999999
sh688085,三友医疗,2021-05-07,32.01,32.39,31.05,31.36,32.21,1009309.0,31830481.0,2588584857.6,6439258560.0
sh688085,三友医疗,2021-05-10,31.21,31.86,30.51,30.83,31.36,999847.0,31115727.0,2544836452.8,6330431805.0
sh688085,三友医疗,2021-05-11,30.51,31.23,30.0,30.77,30.83,993836.0,30414646.0,2539883803.2,6318111795.0
sh688085,三友医疗,2021-05-12,30.68,31.2,30.18,31.13,30.77,1098510.0,33677793.0,2569599700.8,6392031855.0
sh688085,三友医疗,2021-05-13,30.71,34.95,30.56,33.76,31.13,4214807.0,141252971.0,2786690841.6000004,6932058959.999999
sh688085,三友医疗,2021-05-14,33.9,38.69,33.83,38.15,33.76,6539303.0,238788312.0,3149059704.0,7833473025.0
sh688085,三友医疗,2021-05-17,38.15,42.98,36.4,41.38,38.15,6884197.0,272619027.0,3415677340.8,8496700230.0
sh688085,三友医疗,2021-05-18,40.38,41.45,39.69,40.9,41.38,4251258.0,172404483.0,3376056144.0,8398140150.0
sh688085,三友医疗,2021-05-19,39.24,40.47,38.7,39.76,40.9,3449881.0,136566015.0,3281955801.6,8164059960.0
sh688085,三友医疗,2021-05-20,39.26,39.75,37.29,37.65,39.76,3284365.0,124813774.0,3107787624.0,7730806274.999999
sh688085,三友医疗,2021-05-21,37.75,38.65,36.84,37.53,37.65,2430267.0,91449021.0,3097882324.8,7706166255.0
sh688085,三友医疗,2021-05-24,37.64,38.96,36.93,38.43,37.53,2691806.0,102445564.0,3172172068.8,7890966405.0
sh688085,三友医疗,2021-05-25,38.33,40.58,37.65,39.79,38.43,3603715.0,140102637.0,3284432126.4,8170219965.0
sh688085,三友医疗,2021-05-26,39.1,39.83,38.45,38.72,39.79,2476052.0,96422493.0,3196109875.2000003,7950513120.0
sh688085,三友医疗,2021-05-27,38.79,38.8,37.71,38.17,38.72,1838859.0,70364500.0,3150710587.2,7837579695.0
sh688085,三友医疗,2021-05-28,38.16,38.82,37.45,38.51,38.17,2111740.0,80766331.0,3178775601.6,7907393085.0
sh688085,三友医疗,2021-05-31,38.58,42.35,38.53,40.22,38.51,4937220.0,199075110.0,3319926115.2,8258513370.000001
sh688085,三友医疗,2021-06-01,40.0,40.14,38.98,39.49,40.22,2973651.0,117215995.0,3259668878.4,8108619915.0
sh688085,三友医疗,2021-06-02,39.47,39.49,37.45,37.52,39.49,2717041.0,103193682.0,3097056883.2000003,7704112920.0
sh688085,三友医疗,2021-06-03,38.14,39.8,36.8,37.31,37.52,3061940.0,117443713.0,3079722609.6,7660992885.0
sh688085,三友医疗,2021-06-04,36.5,36.56,34.36,35.39,37.31,5467358.0,192542270.0,2921237822.4,7266752565.0
sh688085,三友医疗,2021-06-07,35.31,35.85,34.64,34.76,35.39,1985658.0,69788764.0,2869235001.6,7137392460.0
sh688085,三友医疗,2021-06-08,34.69,35.98,34.52,35.04,34.76,2117094.0,74492587.0,2892347366.4,7194885840.0
sh688085,三友医疗,2021-06-09,35.04,35.51,34.61,34.86,35.04,1404693.0,49232568.0,2877489417.6000004,7157925810.0
sh688085,三友医疗,2021-06-10,35.24,38.0,35.0,37.67,34.86,3350292.0,122973407.0,3109438507.2,7734912945.0
sh688085,XD三友医,2021-06-11,37.4,37.49,36.12,36.45,37.5,1798757.0,66136747.0,3008734632.0,7484406075.0
sh688085,三友医疗,2021-06-15,36.2,36.5,35.05,35.87,36.45,955615.0,34181255.0,2960859019.2,7365312645.000001
sh688085,三友医疗,2021-06-16,35.99,36.0,34.5,34.74,35.87,1109849.0,38903527.0,2867584118.4,7133285790.0
sh688085,三友医疗,2021-06-17,34.58,35.4,34.53,35.25,34.74,1122285.0,39291768.0,2909681640.0,7238005875.0
sh688085,三友医疗,2021-06-18,35.17,36.7,34.78,35.76,35.25,1413752.0,50869494.0,2951779161.6000004,7342725960.0
sh688085,三友医疗,2021-06-21,36.12,38.03,35.76,37.38,35.76,3787173.0,141286018.0,3085500700.8,7675366230.0
sh688085,三友医疗,2021-06-22,39.5,44.86,39.0,44.86,37.38,12909776.0,544846492.0,3702931017.6,9211260810.0
sh688085,三友医疗,2021-06-23,45.0,45.0,40.15,41.9,44.86,8509502.0,357752502.0,3458600304.0,8603473650.0
sh688085,三友医疗,2021-06-24,42.06,42.5,39.3,39.55,41.9,5445126.0,219563218.0,3264621528.0,8120939925.000001
sh688085,三友医疗,2021-06-25,39.7,40.16,38.35,39.6,39.55,3994860.0,156947633.0,3268748736.0,8131206600.0
sh688085,三友医疗,2021-06-28,39.59,41.22,39.43,40.23,39.6,3334971.0,135131018.0,3320751556.8,8260566705.0
sh688085,三友医疗,2021-06-29,40.23,41.55,39.13,40.75,40.23,3525795.0,143534381.0,3363674520.0,8367340125.0
sh688085,三友医疗,2021-06-30,41.08,44.46,41.08,43.63,40.75,5332359.0,229387883.0,3601401700.8,8958700605.0
sh688085,三友医疗,2021-07-01,45.14,45.97,42.55,43.63,43.63,4814216.0,212583853.0,3601401700.8,8958700605.0
sh688085,三友医疗,2021-07-02,43.33,45.48,42.1,42.55,43.63,4441353.0,191920160.0,3512254008.0,8736940425.0
sh688085,三友医疗,2021-07-05,41.72,42.53,40.21,41.66,42.55,3487653.0,144129403.0,3438789705.6,8554193610.0
sh688085,三友医疗,2021-07-06,41.68,42.77,38.53,39.44,41.66,3533359.0,141218131.0,3255541670.4,8098353240.0
sh688085,三友医疗,2021-07-07,39.37,41.52,39.03,40.43,39.44,3272195.0,133135466.0,3337260388.8,8301633405.000001
sh688085,三友医疗,2021-07-08,41.09,41.09,39.01,39.19,40.43,2274923.0,89902060.0,3234905630.4,8047019865.0
sh688085,三友医疗,2021-07-09,39.1,40.4,38.61,40.04,39.19,2063082.0,81652410.0,3305068166.4,8221553340.0
sh688085,三友医疗,2021-07-12,40.11,42.46,39.12,42.0,40.04,3387939.0,139899182.0,3466854720.0,8624007000.0
sh688085,三友医疗,2021-07-13,41.56,43.43,41.0,42.59,42.0,2536024.0,106777746.0,3515555774.4,8745153765.0
sh688085,三友医疗,2021-07-14,42.05,43.1,41.4,41.4,42.59,1923818.0,80954691.0,3417328224.0,8500806899.999999
sh688085,三友医疗,2021-07-15,41.39,42.4,39.6,42.17,41.4,2506030.0,102446113.0,3480887227.2000003,8658913695.0
sh688085,三友医疗,2021-07-16,41.6,42.28,40.08,40.16,42.17,2081818.0,84986474.0,3314973465.6,8246193360.0
sh688085,三友医疗,2021-07-19,39.98,41.17,39.37,40.18,40.16,1219374.0,49187719.0,3316624348.8,8250300030.0
sh688085,三友医疗,2021-07-20,39.8,40.75,39.6,39.78,40.18,1465996.0,58704629.0,3283606684.8,8168166629.999999
sh688085,三友医疗,2021-07-21,39.9,41.99,39.85,41.97,39.78,3468952.0,143207373.0,3464378395.2,8617846995.0
sh688085,三友医疗,2021-07-22,41.93,41.99,39.8,39.91,41.97,3542369.0,143063255.0,3294337425.6,8194859985.0
sh688085,三友医疗,2021-07-23,39.71,40.14,38.01,38.46,39.91,2715802.0,104760005.0,3174648393.6,7897126409.999999
sh688085,三友医疗,2021-07-26,38.01,38.06,33.72,35.67,38.46,3647680.0,129993237.0,2944350187.2,7324245945.0
sh688085,三友医疗,2021-07-27,35.02,35.65,34.2,34.33,35.67,1812768.0,63244436.0,2833741012.8,7049099055.0
sh688085,三友医疗,2021-07-28,34.1,35.49,32.89,35.18,34.33,1720306.0,59039409.0,2903903548.8,7223632530.0
sh688085,三友医疗,2021-07-29,35.64,36.31,34.82,35.03,35.18,1796744.0,63917447.0,2891521924.8,7192832505.0
sh688085,三友医疗,2021-07-30,34.68,34.98,33.2,33.7,35.03,2558326.0,86959797.0,2781738192.0000005,6919738950.0
sh688085,三友医疗,2021-08-02,33.05,34.68,32.56,34.56,33.7,1781218.0,60125093.0,2852726169.6,7096325760.0
sh688085,三友医疗,2021-08-03,33.98,35.65,33.96,35.31,34.56,1734649.0,61179331.0,2914634289.6,7250325885.0
sh688085,三友医疗,2021-08-04,35.23,35.45,34.32,35.14,35.31,1306327.0,45633605.0,2900601782.4,7215419190.0
sh688085,三友医疗,2021-08-05,35.14,35.6,34.66,35.26,35.14,1186668.0,41534021.0,2910507081.6,7240059210.0
sh688085,三友医疗,2021-08-06,35.0,35.11,34.0,34.48,35.26,1106002.0,38029163.0,2846122636.8,7079899080.000001
sh688085,三友医疗,2021-08-09,33.91,35.2,33.91,35.0,34.48,948228.0,32932543.0,2889045600.0,7186672500.0
sh688085,三友医疗,2021-08-10,34.5,34.94,34.02,34.8,35.0,1325097.0,45685596.0,2930510088.0,7145605800.0
sh688085,三友医疗,2021-08-11,35.2,35.8,34.5,35.25,34.8,1464396.0,51443266.0,2968404614.9999995,7238005875.0
sh688085,三友医疗,2021-08-12,35.7,35.88,34.93,35.0,35.25,1275694.0,45050357.0,2947352100.0,7186672500.0
sh688085,三友医疗,2021-08-13,34.71,35.1,34.08,34.43,35.0,1073007.0,37035453.0,2899352365.8,7069632405.0
sh688085,三友医疗,2021-08-16,34.51,35.75,34.03,35.2,34.43,1220777.0,42787499.0,2964194111.9999995,7227739200.0
sh688085,三友医疗,2021-08-17,35.1,35.31,33.08,33.26,35.2,1575614.0,53674084.0,2800826595.6,6829392210.0
sh688085,三友医疗,2021-08-18,33.26,33.7,32.28,32.65,33.26,1305710.0,42751519.0,2749458459.0,6704138774.999999
sh688085,三友医疗,2021-08-19,32.7,33.3,31.71,32.74,32.65,2317803.0,75011618.0,2757037364.4,6722618790.0
sh688085,三友医疗,2021-08-20,32.47,32.69,29.3,30.26,32.74,3578431.0,109385086.0,2548196415.6,6213391710.0
sh688085,三友医疗,2021-08-23,30.39,31.56,30.06,31.23,30.26,1888113.0,58542398.0,2629880173.8,6412565205.0
sh688085,三友医疗,2021-08-24,31.32,31.82,31.02,31.68,31.23,1379329.0,43381432.0,2667774700.8,6504965280.000001
sh688085,三友医疗,2021-08-25,31.18,31.59,29.9,30.39,31.68,3154497.0,95836896.0,2559143723.4,6240085065.0
sh688085,三友医疗,2021-08-26,30.0,30.48,29.33,29.39,30.39,2120256.0,63111875.0,2474933663.4,6034751565.0
sh688085,三友医疗,2021-08-27,29.5,29.79,28.26,28.62,29.39,2406862.0,68849132.0,2410091917.2,5876644770.0
sh688085,三友医疗,2021-08-30,28.38,29.18,28.24,28.42,28.62,1459700.0,41766311.0,2393249905.2,5835578070.0
sh688085,三友医疗,2021-08-31,28.7,28.75,27.93,28.28,28.42,1129143.0,31843104.0,2381460496.8,5806831380.0
sh688085,三友医疗,2021-09-01,28.25,28.79,27.27,28.41,28.28,2015572.0,56546552.0,2392407804.6,5833524735.0
sh688085,三友医疗,2021-09-02,28.3,29.19,28.1,28.88,28.41,1541812.0,44208681.0,2431986532.8,5930031480.0
sh688085,三友医疗,2021-09-03,29.2,29.2,28.46,28.87,28.88,1537591.0,44225524.0,2431144432.2,5927978145.0
sh688085,三友医疗,2021-09-06,29.03,30.87,28.95,30.43,28.87,2763789.0,83523832.0,2562512125.8,6248298405.000001
sh688085,三友医疗,2021-09-07,30.43,31.42,30.11,30.6,30.43,1760469.0,53933566.0,2576827836.0,6283205100.0
sh688085,三友医疗,2021-09-08,30.59,30.59,30.01,30.35,30.6,1067043.0,32258978.0,2555775321.0,6231871725.0
sh688085,三友医疗,2021-09-09,30.35,30.62,30.02,30.2,30.35,777898.0,23519048.0,2543143812.0,6201071700.0
sh688085,三友医疗,2021-09-10,30.12,30.15,29.1,29.22,30.2,1660868.0,48823890.0,2460617953.2,5999844870.0
sh688085,三友医疗,2021-09-13,29.33,30.15,29.27,29.61,29.22,1179215.0,35113233.0,2493459876.6,6079924935.0
sh688085,三友医疗,2021-09-14,29.49,35.38,29.49,33.29,29.61,6544316.0,215330834.0,2803352897.4,6835552215.0
sh688085,三友医疗,2021-09-15,32.72,32.72,30.3,31.14,33.29,5405717.0,167287355.0,2622301268.4,6394085190.0
sh688085,三友医疗,2021-09-16,30.79,32.18,30.15,30.87,31.14,3414031.0,105821993.0,2599564552.2,6338645145.000001
sh688085,三友医疗,2021-09-17,30.33,32.5,29.91,31.57,30.87,4425034.0,138792414.0,2658511594.2,6482378595.0
sh688085,三友医疗,2021-09-22,30.16,31.0,28.57,28.91,31.57,4358111.0,129023503.0,2434512834.6,5936191485.0
sh688085,三友医疗,2021-09-23,28.96,29.84,28.61,28.73,28.91,2768910.0,80535980.0,2419355023.8,5899231455.0
sh688085,三友医疗,2021-09-24,29.0,29.0,28.35,28.6,28.73,1294383.0,37194088.0,2408407716.0,5872538100.000001
sh688085,三友医疗,2021-09-27,28.69,29.69,28.4,28.83,28.6,1885408.0,54757273.0,2427776029.8,5919764804.999999
sh688085,三友医疗,2021-09-28,28.88,28.96,28.05,28.23,28.83,1386791.0,39146021.0,2377249993.8,5796564705.000001
sh688085,三友医疗,2021-09-29,27.95,28.18,27.27,27.29,28.23,1497987.0,41218193.0,2298092537.4,5603551215.0
sh688085,三友医疗,2021-09-30,27.31,27.9,27.31,27.65,27.29,881204.0,24338739.0,2328408159.0,5677471274.999999
sh688085,三友医疗,2021-10-08,28.0,28.5,27.65,27.99,27.65,1149527.0,32185756.0,2357039579.4,5747284665.0
sh688085,三友医疗,2021-10-11,28.1,29.19,28.08,28.85,27.99,1666406.0,47865316.0,2429460231.0,5923871475.0
sh688085,三友医疗,2021-10-12,28.87,29.18,28.3,28.6,28.85,1191944.0,34249752.0,2408407716.0,5872538100.000001
sh688085,三友医疗,2021-10-13,28.71,28.85,27.8,28.19,28.6,1524679.0,43015288.0,2373881591.4,5788351365.0
sh688085,三友医疗,2021-10-14,28.01,28.88,27.86,28.53,28.19,1020320.0,29059123.0,2402513011.8,5858164754.999999
sh688085,三友医疗,2021-10-15,28.6,28.68,27.4,27.44,28.53,1993371.0,55170516.0,2310724046.4,5634351240.0
sh688085,三友医疗,2021-10-18,27.62,27.63,26.73,27.49,27.44,906591.0,24690146.0,2314934549.4,5644617915.000001
sh688085,三友医疗,2021-10-19,27.49,27.84,27.31,27.4,27.49,693326.0,19112846.0,2307355644.0,5626137900.0
sh688085,三友医疗,2021-10-20,27.42,27.49,26.27,26.42,27.4,1773804.0,47110005.0,2224829785.2,5424911070.0
sh688085,三友医疗,2021-10-21,26.42,26.6,25.95,26.27,26.42,914194.0,24004065.0,2212198276.2,5394111045.0
sh688085,三友医疗,2021-10-22,26.35,26.52,26.18,26.42,26.27,687349.0,18101652.0,2224829785.2,5424911070.0
sh688085,三友医疗,2021-10-25,26.28,26.8,25.52,26.77,26.42,1719873.0,44922032.0,2254303306.2,5496777794.999999
sh688085,三友医疗,2021-10-26,26.58,26.94,26.13,26.27,26.77,754971.0,20016517.0,2212198276.2,5394111045.0
sh688085,三友医疗,2021-10-27,26.62,26.62,25.9,26.22,26.27,973001.0,25471925.0,2164307875.2,5383844370.0
sh688085,三友医疗,2021-10-28,26.22,26.67,25.66,26.21,26.22,1227357.0,32106605.0,2207145672.6,5381791035.0
sh688085,三友医疗,2021-10-29,26.45,27.62,26.2,27.09,26.21,1874129.0,50694110.0,2281250525.4,5562484515.0
sh688085,三友医疗,2021-11-01,27.4,27.4,26.71,27.06,27.09,853841.0,23043017.0,2278724223.6,5556324510.0
sh688085,三友医疗,2021-11-02,26.85,28.76,26.85,27.84,27.06,2838121.0,79426373.0,2344408070.4,5716484640.0
sh688085,三友医疗,2021-11-03,28.22,29.9,27.71,29.5,27.84,3617188.0,104950134.0,2484196770.0,6057338250.0
sh688085,三友医疗,2021-11-04,29.6,29.6,28.55,29.23,29.5,1995684.0,57887098.0,2461460053.8,6001898205.0
sh688085,三友医疗,2021-11-05,29.0,29.39,28.68,28.78,29.23,987883.0,28565314.0,2423565526.8,5909498130.0
sh688085,三友医疗,2021-11-08,28.78,28.9,28.22,28.36,28.78,970443.0,27610726.0,2388197301.6,5823258060.0
sh688085,三友医疗,2021-11-09,28.5,29.18,28.03,28.85,28.36,1351520.0,38917861.0,2429460231.0,5923871475.0
sh688085,三友医疗,2021-11-10,29.1,29.18,28.19,28.68,28.85,1246580.0,35676828.0,2415144520.8,5888964780.0
sh688085,三友医疗,2021-11-11,28.79,28.88,28.22,28.46,28.68,1428350.0,40592743.0,2396618307.6,5843791409.999999
sh688085,三友医疗,2021-11-12,28.58,29.16,28.36,28.63,28.46,1563435.0,44964519.0,2410934017.8,5878698105.0
sh688085,三友医疗,2021-11-15,28.63,30.38,28.63,29.64,28.63,2961919.0,88175469.0,2495986178.4,6086084939.999999
sh688085,三友医疗,2021-11-16,29.74,30.58,29.38,30.07,29.64,2356158.0,70889755.0,2532196504.2,6174378345.0
sh688085,三友医疗,2021-11-17,29.99,30.3,29.55,29.86,30.07,1094146.0,32585104.0,2514512391.6,6131258310.0
sh688085,三友医疗,2021-11-18,30.06,30.31,29.1,29.26,29.86,1543349.0,45805407.0,2463986355.6,6008058210.0
sh688085,三友医疗,2021-11-19,29.02,29.9,29.0,29.8,29.26,994024.0,29359479.0,2509459788.0,6118938300.0
sh688085,三友医疗,2021-11-22,30.04,30.49,29.3,30.36,29.8,1447402.0,43422646.0,2556617421.6,6233925060.000001
sh688085,三友医疗,2021-11-23,30.23,31.36,30.22,30.75,30.36,1692803.0,52383497.0,2589459345.0,6314005125.0
sh688085,三友医疗,2021-11-24,31.03,31.14,30.33,30.76,30.75,930580.0,28595393.0,2590301445.6,6316058460.0
sh688085,三友医疗,2021-11-25,31.13,31.99,30.73,31.75,30.76,2419121.0,76220329.0,2673669405.0000005,6519338625.0
sh688085,三友医疗,2021-11-26,31.75,31.99,30.92,31.36,31.75,1219250.0,38236653.0,2640827481.6000004,6439258560.0
sh688085,三友医疗,2021-11-29,31.18,31.99,30.4,30.68,31.36,1673799.0,51704875.0,2583564640.8,6299631780.0
sh688085,三友医疗,2021-11-30,31.12,31.12,30.24,30.68,30.68,1080163.0,33008311.0,2583564640.8,6299631780.0
sh688085,三友医疗,2021-12-01,30.68,30.99,30.15,30.65,30.68,1019603.0,31226178.0,2581038339.0,6293471775.0
sh688085,三友医疗,2021-12-02,30.59,30.89,29.84,29.84,30.65,1135811.0,34386236.0,2512828190.4,6127151640.0
sh688085,三友医疗,2021-12-03,29.8,30.28,29.34,29.93,29.84,840773.0,25095314.0,2520407095.7999997,6145631655.0
sh688085,三友医疗,2021-12-06,29.99,30.2,29.15,29.18,29.93,884481.0,26031790.0,2457249550.8,5991631530.000001
sh688085,三友医疗,2021-12-07,29.18,29.49,28.7,28.94,29.18,726852.0,21131568.0,2437039136.4,5942351490.0
sh688085,三友医疗,2021-12-08,29.3,29.39,28.8,29.03,28.94,695361.0,20208437.0,2444618041.8,5960831505.0
sh688085,三友医疗,2021-12-09,29.09,30.11,28.94,29.82,29.03,888308.0,26368444.0,2511143989.2000003,6123044970.0
sh688085,三友医疗,2021-12-10,29.7,30.24,29.28,30.0,29.82,1117603.0,33272910.0,2526301800.0,6160005000.0
sh688085,三友医疗,2021-12-13,30.1,30.21,29.69,30.06,30.0,739958.0,22210374.0,2531354403.6,6172325010.0
sh688085,三友医疗,2021-12-14,30.06,30.35,29.81,29.95,30.06,799425.0,24070346.0,2522091297.0,6149738325.0
sh688085,三友医疗,2021-12-15,29.96,30.42,29.42,29.6,29.95,753424.0,22585141.0,2492617776.0,6077871600.0
sh688085,三友医疗,2021-12-16,29.84,30.07,29.68,29.85,29.6,533522.0,15932803.0,2513670291.0,6129204975.000001
sh688085,三友医疗,2021-12-17,29.85,30.04,28.6,28.62,29.85,1494452.0,43288750.0,2410091917.2,5876644770.0
sh688085,三友医疗,2021-12-20,28.52,28.92,28.29,28.36,28.62,1098504.0,31404324.0,2388197301.6,5823258060.0
sh688085,三友医疗,2021-12-21,28.36,29.32,28.36,29.29,28.36,876727.0,25334173.0,2466512657.4,6014218215.0
sh688085,三友医疗,2021-12-22,29.27,30.5,29.11,30.19,29.29,1290688.0,38705478.0,2542301711.4,6199018365.0
sh688085,三友医疗,2021-12-23,30.0,30.25,29.39,29.52,30.19,723294.0,21444083.0,2485880971.2,6061444920.0
sh688085,三友医疗,2021-12-24,29.78,29.78,28.82,28.98,29.52,662291.0,19263145.0,2440407538.8,5950564830.0
sh688085,三友医疗,2021-12-27,28.78,29.34,28.78,29.19,28.98,550710.0,15990073.0,2458091651.4,5993684865.0
sh688085,三友医疗,2021-12-28,29.06,29.75,29.01,29.38,29.19,1059272.0,31083989.0,2474091562.8,6032698230.0
sh688085,三友医疗,2021-12-29,29.5,31.02,29.35,30.4,29.38,2525690.0,76709938.0,2559985824.0,6242138400.0
sh688085,三友医疗,2021-12-30,30.7,31.15,29.94,30.8,30.4,1739790.0,53353412.0,2593669848.0,6324271800.000001
sh688085,三友医疗,2021-12-31,30.8,31.78,30.51,30.87,30.8,1894441.0,58958284.0,2599564552.2,6338645145.000001
sh688085,三友医疗,2022-01-04,30.9,31.24,30.25,30.5,30.87,2018218.0,61764194.0,2568406830.0,6262671750.0
sh688085,三友医疗,2022-01-05,30.44,30.58,29.65,30.2,30.5,1688319.0,50773063.0,2543143812.0,6201071700.0
sh688085,三友医疗,2022-01-06,30.3,30.35,29.85,30.25,30.2,997708.0,30024192.0,2547354315.0,6211338375.0
sh688085,三友医疗,2022-01-07,30.25,30.84,29.8,29.99,30.25,1521958.0,46224744.0,2525459699.4,6157951665.000001
sh688085,三友医疗,2022-01-10,29.68,30.74,29.61,30.52,29.99,1012035.0,30716469.0,2570091031.2000003,6266778419.999999
sh688085,三友医疗,2022-01-11,30.54,31.4,30.31,31.15,30.52,1637538.0,50693080.0,2623143369.0,6396138525.0
sh688085,三友医疗,2022-01-12,30.96,32.77,30.84,32.1,31.15,3183983.0,102519302.0,2703142926.0,6591205350.0
sh688085,三友医疗,2022-01-13,31.9,32.57,31.4,31.4,32.1,1611019.0,51376668.0,2644195884.0,6447471899.999999
sh688085,三友医疗,2022-01-14,31.85,32.38,31.23,31.91,31.4,1724555.0,54963620.0,2687143014.6,6552191985.000001
