数据由邢不行整理
股票代码,股票名称,交易日期,开盘价,最高价,最低价,收盘价,前收盘价,成交量,成交额,流通市值,总市值
sh688138,N清溢,2019-11-20,20.22,21.0,18.36,19.55,8.78,45499376.0,883172874.0,1188395175.35,5215940000.0
sh688138,清溢光电,2019-11-21,18.45,18.45,16.25,16.29,19.55,33049120.0,563179589.0,990228000.33,4346172000.0
sh688138,清溢光电,2019-11-22,16.39,17.48,16.16,16.36,16.29,23345692.0,391262819.0,994483123.72,4364848000.0
sh688138,清溢光电,2019-11-25,16.56,16.7,15.08,15.3,16.36,20034905.0,313977084.0,930048398.1,4082040000.0
sh688138,清溢光电,2019-11-26,15.32,15.82,14.86,14.95,15.3,14406776.0,219764301.0,908772781.15,3988660000.0
sh688138,清溢光电,2019-11-27,14.91,15.18,14.83,15.06,14.95,9790603.0,146781855.0,915459403.62,4018008000.0
sh688138,清溢光电,2019-11-28,15.15,15.8,15.08,15.1,15.06,12136871.0,186233074.0,917890902.7,4028680000.0
sh688138,清溢光电,2019-11-29,14.99,15.55,14.87,15.4,15.1,10826586.0,165526081.0,936127145.8,4108720000.0
sh688138,清溢光电,2019-12-02,15.98,16.16,15.29,15.29,15.4,11149533.0,174476186.0,929440523.33,4079372000.0
sh688138,清溢光电,2019-12-03,14.9,14.9,14.43,14.81,15.29,12199802.0,179254809.0,900262534.37,3951308000.0
sh688138,清溢光电,2019-12-04,14.68,15.1,14.64,14.8,14.81,7701891.0,114183555.0,899654659.6,3948640000.0
sh688138,清溢光电,2019-12-05,14.76,15.67,14.65,15.58,14.8,13909122.0,210145485.0,947068891.66,4156744000.0
sh688138,清溢光电,2019-12-06,15.35,15.58,15.02,15.09,15.58,10103999.0,154188593.0,917283027.93,4026012000.0
sh688138,清溢光电,2019-12-09,15.19,15.72,15.09,15.53,15.09,11062698.0,170794864.0,944029517.81,4143404000.0
sh688138,清溢光电,2019-12-10,15.43,16.82,15.37,16.38,15.53,21218322.0,343476014.0,995698873.26,4370184000.0
sh688138,清溢光电,2019-12-11,16.11,16.48,15.65,15.78,16.38,10903921.0,174526171.0,959226387.06,4210104000.0
sh688138,清溢光电,2019-12-12,15.95,16.46,15.81,16.03,15.78,11086076.0,179351673.0,974423256.31,4276804000.0
sh688138,清溢光电,2019-12-13,16.11,16.22,15.61,15.8,16.03,9135719.0,144494041.0,960442136.6,4215440000.0
sh688138,清溢光电,2019-12-16,15.86,16.34,15.73,16.33,15.8,8554335.0,137525241.0,992659499.41,4356844000.0
sh688138,清溢光电,2019-12-17,16.31,16.69,16.14,16.4,16.33,11015657.0,180481732.0,996914622.8,4375520000.0
sh688138,清溢光电,2019-12-18,16.55,17.32,16.48,17.28,16.4,15337405.0,261110840.0,1050407602.56,4610304000.0
sh688138,清溢光电,2019-12-19,17.35,17.35,16.8,17.0,17.28,8355689.0,141950886.0,1033387109.0,4535600000.0
sh688138,清溢光电,2019-12-20,17.0,17.18,16.77,16.85,17.0,6812808.0,115454054.0,1024268987.45,4495580000.0
sh688138,清溢光电,2019-12-23,16.65,16.74,15.83,15.9,16.85,8144228.0,132466393.0,966520884.3,4242120000.0
sh688138,清溢光电,2019-12-24,15.95,16.36,15.93,16.3,15.9,5591845.0,90310196.0,990835875.1,4348840000.0
sh688138,清溢光电,2019-12-25,16.31,17.2,16.21,16.98,16.3,9937201.0,167403591.0,1032171359.46,4530264000.0
sh688138,清溢光电,2019-12-26,16.99,18.26,16.86,17.48,16.98,13352374.0,235219597.0,1062565097.96,4663664000.0
sh688138,清溢光电,2019-12-27,17.28,17.48,16.83,16.92,17.48,8807472.0,151091215.0,1028524110.84,4514256000.0
sh688138,清溢光电,2019-12-30,16.72,17.11,16.31,17.09,16.92,5719097.0,95800058.0,1038857981.93,4559612000.0
sh688138,清溢光电,2019-12-31,16.96,17.22,16.74,16.97,17.09,4138782.0,70170994.0,1031563484.69,4527596000.0
sh688138,清溢光电,2020-01-02,17.1,17.35,16.9,17.27,16.97,6325399.0,108366173.0,1049799727.79,4607636000.0
sh688138,清溢光电,2020-01-03,17.23,17.43,16.94,17.22,17.27,6570895.0,112833854.0,1046760353.94,4594296000.0
sh688138,清溢光电,2020-01-06,17.0,17.24,16.87,17.12,17.22,5352694.0,91381712.0,1040681606.24,4567616000.0
sh688138,清溢光电,2020-01-07,17.6,17.99,17.26,17.51,17.12,8958572.0,157603813.0,1064388722.27,4671668000.0
sh688138,清溢光电,2020-01-08,17.37,17.93,17.06,17.3,17.51,10148073.0,177102227.0,1051623352.1,4615640000.0
sh688138,清溢光电,2020-01-09,17.6,17.85,17.39,17.8,17.3,8155116.0,143707064.0,1082017090.6,4749040000.0
sh688138,清溢光电,2020-01-10,17.94,18.18,17.61,17.87,17.8,7883027.0,141207525.0,1086272213.99,4767716000.0
sh688138,清溢光电,2020-01-13,17.8,18.78,17.7,18.7,17.87,9459980.0,173128934.0,1136725819.9,4989160000.0
sh688138,清溢光电,2020-01-14,18.62,19.44,18.5,18.79,18.7,10895588.0,205866112.0,1142196692.83,5013172000.0
sh688138,清溢光电,2020-01-15,18.8,19.51,18.5,19.51,18.79,10235904.0,195319087.0,1185963676.27,5205268000.0
sh688138,清溢光电,2020-01-16,19.52,20.77,19.38,20.32,19.51,12587387.0,253777547.0,1235201532.64,5421376000.0
sh688138,清溢光电,2020-01-17,20.6,21.5,20.11,20.48,20.32,16170605.0,336108200.0,1244927528.96,5464064000.0
sh688138,清溢光电,2020-01-20,20.68,22.55,20.48,21.47,20.48,16107712.0,344487485.0,1305107131.19,5728196000.0
sh688138,清溢光电,2020-01-21,21.2,21.2,19.61,19.66,21.47,13653103.0,278328701.0,1195081797.82,5245288000.0
sh688138,清溢光电,2020-01-22,19.45,21.29,19.44,21.29,19.66,11897061.0,243734480.0,1294165385.33,5680172000.0
sh688138,清溢光电,2020-01-23,20.7,21.89,19.93,20.33,21.29,12072996.0,253016905.0,1235809407.41,5424044000.0
sh688138,清溢光电,2020-02-03,16.55,17.7,16.26,16.26,20.33,10940963.0,182262252.0,988404376.02,4338168000.0
sh688138,清溢光电,2020-02-04,16.73,18.51,16.7,18.33,16.26,11524115.0,203604368.0,1114234453.41,4890444000.0
sh688138,清溢光电,2020-02-05,18.2,19.89,18.2,19.14,18.33,12845674.0,244333373.0,1163472309.78,5106552000.0
sh688138,清溢光电,2020-02-06,18.78,20.22,18.77,20.17,19.14,12333798.0,241641128.0,1226083411.09,5381356000.0
sh688138,清溢光电,2020-02-07,20.02,22.68,19.84,21.58,20.17,16731895.0,353183960.0,1311793753.66,5757544000.0
sh688138,清溢光电,2020-02-10,21.42,22.19,20.75,21.26,21.58,10806556.0,229987249.0,1292341761.02,5672168000.0
sh688138,清溢光电,2020-02-11,21.49,22.06,20.45,20.83,21.26,9564949.0,202862026.0,1266203145.91,5557444000.0
sh688138,清溢光电,2020-02-12,20.63,22.52,20.5,22.1,20.83,14316748.0,308046624.0,1343403241.7,5896280000.0
sh688138,清溢光电,2020-02-13,22.17,23.63,21.7,22.3,22.1,16410407.0,371624517.0,1355560737.1,5949640000.0
sh688138,清溢光电,2020-02-14,23.99,26.45,23.01,24.01,22.3,22291960.0,546037237.0,1459507322.77,6405868000.0
sh688138,清溢光电,2020-02-17,23.68,24.97,23.29,24.56,24.01,16167418.0,391751202.0,1492940435.12,6552608000.0
sh688138,清溢光电,2020-02-18,24.62,26.83,24.38,26.29,24.56,16082268.0,408739410.0,1598102770.33,7014172000.0
sh688138,清溢光电,2020-02-19,25.88,27.8,25.4,25.68,26.29,15344476.0,403046354.0,1561022409.36,6851424000.0
sh688138,清溢光电,2020-02-20,25.87,26.38,24.12,25.2,25.68,13232021.0,332592209.0,1531844420.4,6723360000.0
sh688138,清溢光电,2020-02-21,24.77,25.65,24.51,24.56,25.2,10384672.0,259718047.0,1492940435.12,6552608000.0
sh688138,清溢光电,2020-02-24,24.35,26.49,24.31,26.49,24.56,12393520.0,314738435.0,1610260265.73,7067532000.0
sh688138,清溢光电,2020-02-25,25.8,26.78,24.48,25.85,26.49,12584555.0,324010920.0,1571356280.45,6896780000.0
sh688138,清溢光电,2020-02-26,25.85,25.85,22.68,23.2,25.85,13406485.0,322428652.0,1410269466.4,6189760000.0
sh688138,清溢光电,2020-02-27,23.3,23.57,22.65,22.8,23.2,6066135.0,139953106.0,1385954475.6,6083040000.0
sh688138,清溢光电,2020-02-28,21.43,21.65,20.27,20.38,22.8,8983916.0,189243387.0,1238848781.26,5437384000.0
sh688138,清溢光电,2020-03-02,21.0,22.51,20.6,22.2,20.38,7740949.0,167137444.0,1349481989.4,5922960000.0
sh688138,清溢光电,2020-03-03,22.88,23.54,21.95,22.24,22.2,8582664.0,195452789.0,1351913488.48,5933632000.0
sh688138,清溢光电,2020-03-04,21.9,22.35,21.1,21.7,22.24,5847973.0,127242770.0,1319088250.9,5789560000.0
sh688138,清溢光电,2020-03-05,22.14,22.36,21.31,21.98,21.7,5835977.0,127048392.0,1336108744.46,5864264000.0
sh688138,清溢光电,2020-03-06,21.52,21.88,21.32,21.54,21.98,3641791.0,78566689.0,1309362254.58,5746872000.0
sh688138,清溢光电,2020-03-09,21.1,21.12,19.85,19.89,21.54,6462806.0,131410186.0,1209062917.53,5306652000.0
sh688138,清溢光电,2020-03-10,19.9,21.22,19.9,21.22,19.89,6556446.0,135323750.0,1289910261.94,5661496000.0
sh688138,清溢光电,2020-03-11,21.22,21.47,20.3,20.3,21.22,5426126.0,113259248.0,1233985783.1,5416040000.0
sh688138,清溢光电,2020-03-12,19.73,20.77,19.71,20.37,20.3,3658253.0,74127195.0,1238240906.49,5434716000.0
sh688138,清溢光电,2020-03-13,19.12,21.08,19.09,20.75,20.37,5965328.0,121393296.0,1261340147.75,5536100000.0
sh688138,清溢光电,2020-03-16,21.11,21.83,19.7,19.99,20.75,7501253.0,157548274.0,1215141665.23,5333332000.0
sh688138,清溢光电,2020-03-17,20.6,21.58,20.01,21.2,19.99,8476927.0,177024263.0,1288694512.4,5656160000.0
sh688138,清溢光电,2020-03-18,21.53,22.35,21.01,21.15,21.2,9142584.0,199159945.0,1285655138.55,5642820000.0
sh688138,清溢光电,2020-03-19,21.41,22.45,20.8,22.23,21.15,8592413.0,186326374.0,1351305613.71,5930964000.0
sh688138,清溢光电,2020-03-20,22.5,23.2,21.9,22.15,22.23,7249729.0,162643634.0,1346442615.55,5909620000.0
sh688138,清溢光电,2020-03-23,21.25,21.65,19.5,19.78,22.15,7005495.0,144064926.0,1202376295.06,5277304000.0
sh688138,清溢光电,2020-03-24,20.16,20.45,19.4,20.24,19.78,4693934.0,94222046.0,1230338534.48,5400032000.0
sh688138,清溢光电,2020-03-25,21.07,21.09,20.23,20.4,20.24,4724477.0,97645188.0,1240064530.8,5442720000.0
sh688138,清溢光电,2020-03-26,20.2,20.39,19.55,19.66,20.4,4052524.0,80773449.0,1195081797.82,5245288000.0
sh688138,清溢光电,2020-03-27,19.96,20.16,19.02,19.09,19.66,3380223.0,66159105.0,1160432935.93,5093212000.0
sh688138,清溢光电,2020-03-30,18.5,18.53,17.19,18.0,19.09,4986282.0,89308058.0,1094174586.0,4802400000.0
sh688138,清溢光电,2020-03-31,18.48,18.59,17.83,18.06,18.0,2852940.0,52083771.0,1097821834.62,4818408000.0
sh688138,清溢光电,2020-04-01,17.92,18.64,17.9,18.22,18.06,2857117.0,52489247.0,1107547830.94,4861096000.0
sh688138,清溢光电,2020-04-02,18.03,19.24,18.0,19.2,18.22,4253463.0,79579997.0,1167119558.4,5122560000.0
sh688138,清溢光电,2020-04-03,18.94,19.12,18.46,18.6,19.2,3516671.0,65800134.0,1130647072.2,4962480000.0
sh688138,清溢光电,2020-04-07,19.16,19.19,18.81,19.05,18.6,2998183.0,57064105.0,1158001436.85,5082540000.0
sh688138,清溢光电,2020-04-08,18.94,19.39,18.82,18.96,19.05,2486576.0,47370787.0,1152530563.92,5058528000.0
sh688138,清溢光电,2020-04-09,19.08,19.32,18.73,18.86,18.96,2537440.0,48053912.0,1146451816.22,5031848000.0
sh688138,清溢光电,2020-04-10,18.88,18.88,17.78,17.93,18.86,3366947.0,61208983.0,1089919462.61,4783724000.0
sh688138,清溢光电,2020-04-13,17.7,17.85,17.33,17.4,17.93,1823384.0,31992263.0,1057702099.8,4642320000.0
sh688138,清溢光电,2020-04-14,17.59,17.8,17.56,17.8,17.4,1773680.0,31400251.0,1082017090.6,4749040000.0
sh688138,清溢光电,2020-04-15,18.06,18.15,17.6,17.6,17.8,1885771.0,33730137.0,1069859595.2,4695680000.0
sh688138,清溢光电,2020-04-16,17.47,17.98,17.4,17.8,17.6,1843303.0,32729046.0,1082017090.6,4749040000.0
sh688138,清溢光电,2020-04-17,17.99,18.6,17.87,18.34,17.8,4238681.0,77605620.0,1114842328.18,4893112000.0
sh688138,清溢光电,2020-04-20,18.51,18.51,18.1,18.42,18.34,3251669.0,59284974.0,1119705326.34,4914456000.0
sh688138,清溢光电,2020-04-21,18.17,18.4,17.72,17.96,18.42,1968986.0,35406358.0,1091743086.92,4791728000.0
sh688138,清溢光电,2020-04-22,17.7,18.58,17.51,18.53,17.96,3946308.0,72573437.0,1126391948.81,4943804000.0
sh688138,清溢光电,2020-04-23,18.56,18.75,18.18,18.26,18.53,3026767.0,55511791.0,1109979330.02,4871768000.0
sh688138,清溢光电,2020-04-24,18.12,18.75,18.1,18.35,18.26,3359383.0,61826125.0,1115450202.95,4895780000.0
sh688138,清溢光电,2020-04-27,18.18,18.33,17.53,17.65,18.35,2538745.0,45568047.0,1072898969.05,4709020000.0
sh688138,清溢光电,2020-04-28,17.76,17.97,15.25,16.7,17.65,4063615.0,68389832.0,1015150865.9,4455560000.0
sh688138,清溢光电,2020-04-29,16.65,17.16,16.62,16.99,16.7,1794650.0,30444624.0,1032779234.23,4532932000.0
sh688138,清溢光电,2020-04-30,17.14,18.97,17.07,18.67,16.99,6127299.0,111716157.0,1134902195.59,4981156000.0
sh688138,清溢光电,2020-05-06,18.38,22.15,18.22,21.75,18.67,13165017.0,268400270.0,1322127624.75,5802900000.0
sh688138,清溢光电,2020-05-07,21.4,21.55,20.58,20.68,21.75,9443550.0,198695080.0,1257085024.36,5517424000.0
sh688138,清溢光电,2020-05-08,20.94,22.22,20.88,21.21,20.68,8606283.0,185436300.0,1289302387.17,5658828000.0
sh688138,清溢光电,2020-05-11,21.2,22.18,21.02,21.63,21.21,6624275.0,142925853.0,1314833127.51,5770884000.0
sh688138,清溢光电,2020-05-12,21.37,21.6,20.02,21.18,21.63,6617001.0,138409827.0,1287478762.86,5650824000.0
sh688138,清溢光电,2020-05-13,21.13,21.28,20.68,21.03,21.18,4489285.0,94209906.0,1278360641.31,5610804000.0
sh688138,清溢光电,2020-05-14,20.94,22.97,20.72,21.95,21.03,12812471.0,284533635.0,1334285120.15,5856260000.0
sh688138,清溢光电,2020-05-15,21.99,23.78,21.66,23.08,21.95,12349213.0,282697820.0,1402974969.16,6157744000.0
sh688138,清溢光电,2020-05-18,23.95,24.58,22.75,23.42,23.08,14490970.0,343602936.0,1423642711.34,6248456000.0
sh688138,清溢光电,2020-05-19,23.38,27.15,23.23,26.76,23.42,19974156.0,500108449.0,1626672884.52,7139568000.0
sh688138,清溢光电,2020-05-20,26.04,26.28,24.18,24.74,26.76,18559645.0,470277131.0,1570000400.0,6600632000.0
sh688138,清溢光电,2020-05-21,24.65,24.93,22.65,23.01,24.74,13243636.0,312236122.0,1460214600.0,6139068000.0
sh688138,清溢光电,2020-05-22,22.9,23.44,22.04,23.09,23.01,9515390.0,216571167.0,1465291400.0,6160412000.0
sh688138,清溢光电,2020-05-25,22.9,24.15,22.63,23.15,23.09,9095951.0,213385289.0,1469099000.0,6176420000.0
sh688138,清溢光电,2020-05-26,22.91,24.3,22.91,24.03,23.15,10174848.0,241331554.0,1524943800.0,6411204000.0
sh688138,清溢光电,2020-05-27,24.08,24.46,23.25,23.56,24.03,8707359.0,207277497.0,1495117600.0,6285808000.0
sh688138,清溢光电,2020-05-28,23.32,23.44,21.78,22.77,23.56,9858068.0,222248432.0,1444984200.0,6075036000.0
sh688138,清溢光电,2020-05-29,22.44,25.7,22.4,24.18,22.77,15043368.0,366398848.0,1534462800.0,6451224000.0
sh688138,清溢光电,2020-06-01,24.36,25.8,24.2,25.16,24.18,12677294.0,320324996.0,1596653600.0,6712688000.0
sh688138,清溢光电,2020-06-02,25.51,27.9,25.13,26.55,25.16,16823091.0,448713221.0,1684863000.0,7083540000.0
sh688138,清溢光电,2020-06-03,26.16,27.77,25.51,25.57,26.55,16202409.0,429455775.0,1622672200.0,6822076000.0
sh688138,清溢光电,2020-06-04,26.0,29.32,25.67,28.1,25.57,21510273.0,587796179.0,1783226000.0,7497080000.0
sh688138,清溢光电,2020-06-05,27.76,28.36,26.8,27.18,28.1,14104418.0,386504088.0,1724842800.0,7251624000.0
sh688138,清溢光电,2020-06-08,27.52,29.24,27.13,27.8,27.18,13731454.0,386369165.0,1764188000.0,7417040000.0
sh688138,XD清溢光,2020-06-09,27.5,27.5,25.8,26.54,27.72,11354278.0,299424056.0,1684228400.0,7080872000.0
sh688138,清溢光电,2020-06-10,26.3,27.01,25.55,26.82,26.54,9428647.0,246996394.0,1701997200.0,7155576000.0
sh688138,清溢光电,2020-06-11,26.6,27.57,25.75,25.82,26.82,10450721.0,278286172.0,1638537200.0,6888776000.0
sh688138,清溢光电,2020-06-12,24.75,25.53,24.5,24.93,25.82,8818180.0,220795721.0,1582057800.0,6651324000.0
sh688138,清溢光电,2020-06-15,24.59,25.29,23.89,23.9,24.93,8441424.0,206972784.0,1516694000.0,6376520000.0
sh688138,清溢光电,2020-06-16,24.55,24.97,24.1,24.61,23.9,6385797.0,157033191.0,1561750600.0,6565948000.0
sh688138,清溢光电,2020-06-17,24.94,25.75,24.21,25.4,24.61,7778099.0,196103548.0,1611884000.0,6776720000.0
sh688138,清溢光电,2020-06-18,24.97,25.82,24.97,25.29,25.4,5859110.0,148861910.0,1604903400.0,6747372000.0
sh688138,清溢光电,2020-06-19,25.36,25.45,24.88,25.15,25.29,4736585.0,118964960.0,1596019000.0,6710020000.0
sh688138,清溢光电,2020-06-22,25.66,27.46,25.66,27.08,25.15,10486859.0,280052576.0,1718496800.0,7224944000.0
sh688138,清溢光电,2020-06-23,26.75,27.53,26.6,27.34,27.08,7830161.0,212111127.0,1734996400.0000002,7294312000.0
sh688138,清溢光电,2020-06-24,27.3,27.88,27.03,27.2,27.34,6441599.0,176235333.0,1726112000.0,7256960000.0
sh688138,清溢光电,2020-06-29,26.89,27.0,25.85,26.12,27.2,6733912.0,177528486.0,1657575200.0,6968816000.0
sh688138,清溢光电,2020-06-30,26.41,27.95,26.41,27.66,26.12,9919414.0,272052583.0,1755303599.9999998,7379688000.0
sh688138,清溢光电,2020-07-01,27.49,28.0,26.51,27.36,27.66,8569125.0,233431232.0,1736265600.0,7299648000.0
sh688138,清溢光电,2020-07-02,27.35,29.56,26.89,28.81,27.36,11704558.0,335062996.0,1828282600.0,7686508000.0
sh688138,清溢光电,2020-07-03,28.8,29.19,27.7,28.3,28.81,7372900.0,208476969.0,1795918000.0,7550440000.0
sh688138,清溢光电,2020-07-06,28.69,31.84,28.69,31.8,28.3,14337407.0,437734792.0,2018028000.0,8484240000.0
sh688138,清溢光电,2020-07-07,33.0,35.16,30.88,30.95,31.8,16441938.0,539203531.0,1964087000.0,8257460000.0
sh688138,清溢光电,2020-07-08,31.7,36.5,31.34,35.5,30.95,17416754.0,580287553.0,2252830000.0,9471400000.0
sh688138,清溢光电,2020-07-09,36.66,41.8,34.1,41.7,35.5,18991412.0,734431680.0,2646282000.0,11125560000.0
sh688138,清溢光电,2020-07-10,40.57,45.48,39.65,43.99,41.7,16320620.0,713722858.0,2791605400.0,11736532000.0
sh688138,清溢光电,2020-07-13,44.01,46.48,42.06,45.69,43.99,15621874.0,693550160.0,2899487400.0,12190092000.0
sh688138,清溢光电,2020-07-14,44.65,46.4,38.01,42.8,45.69,17051849.0,735068342.0,2716088000.0,11419040000.0
sh688138,清溢光电,2020-07-15,42.21,42.57,38.33,39.02,42.8,14064557.0,564031794.0,2476209200.0,10410536000.0
sh688138,清溢光电,2020-07-16,38.18,38.97,33.01,33.7,39.02,12947508.0,460939601.0,2138602000.0,8991160000.0
sh688138,清溢光电,2020-07-17,34.14,35.5,33.3,34.8,33.7,7843762.0,272046783.0,2208408000.0,9284640000.0
sh688138,清溢光电,2020-07-20,35.1,35.69,33.38,35.3,34.8,7196794.0,249724876.0,2240138000.0,9418040000.0
sh688138,清溢光电,2020-07-21,34.89,35.85,34.03,34.42,35.3,5986537.0,208963596.0,2184293200.0,9183256000.0
sh688138,清溢光电,2020-07-22,34.41,37.99,34.16,37.01,34.42,9980747.0,361596421.0,2348654600.0,9874268000.0
sh688138,清溢光电,2020-07-23,36.2,36.84,34.65,36.02,37.01,7085452.0,253871858.0,2285829200.0,9610136000.0
sh688138,清溢光电,2020-07-24,35.22,35.69,31.05,31.31,36.02,9519702.0,316146635.0,1986932600.0,8353508000.0
sh688138,清溢光电,2020-07-27,31.92,32.65,30.17,31.4,31.31,4874106.0,153102993.0,1992644000.0,8377520000.0
sh688138,清溢光电,2020-07-28,31.75,32.64,31.14,31.9,31.4,3918153.0,125054771.0,2024374000.0,8510920000.0
sh688138,清溢光电,2020-07-29,31.8,35.37,31.27,35.37,31.9,7393728.0,249007981.0,2244580200.0,9436716000.0
sh688138,清溢光电,2020-07-30,35.06,36.68,34.78,35.21,35.37,7579006.0,270497795.0,2234426600.0,9394028000.0
sh688138,清溢光电,2020-07-31,34.88,37.68,34.6,36.5,35.21,8013269.0,292399104.0,2316290000.0,9738200000.0
sh688138,清溢光电,2020-08-03,37.22,38.42,36.37,37.0,36.5,9604024.0,358738270.0,2348020000.0,9871600000.0
sh688138,清溢光电,2020-08-04,37.2,37.37,35.01,35.31,37.0,7482372.0,267035625.0,2240772600.0,9420708000.0
sh688138,清溢光电,2020-08-05,37.31,37.85,35.85,36.13,35.31,7146694.0,262355077.0,2292809800.0,9639484000.0
sh688138,清溢光电,2020-08-06,35.2,36.44,34.82,35.65,36.13,5072714.0,180497141.0,2262349000.0,9511420000.0
sh688138,清溢光电,2020-08-07,35.04,35.43,32.5,33.09,35.65,6942828.0,233076474.0,2099891400.0,8828412000.0
sh688138,清溢光电,2020-08-10,33.0,33.61,32.18,33.1,33.09,4687829.0,153693085.0,2100526000.0,8831080000.0
sh688138,清溢光电,2020-08-11,33.0,33.38,31.66,31.7,33.1,3737636.0,121604997.0,2011682000.0,8457560000.0
sh688138,清溢光电,2020-08-12,31.85,33.08,31.85,32.96,31.7,4975803.0,161958766.0,2091641600.0,8793728000.0
sh688138,清溢光电,2020-08-13,33.39,34.39,32.5,32.58,32.96,4848372.0,162521349.0,2067526800.0,8692344000.0
sh688138,清溢光电,2020-08-14,32.15,33.49,32.02,33.23,32.58,3825438.0,124691617.0,2108775800.0,8865764000.0
sh688138,清溢光电,2020-08-17,33.4,33.66,32.71,33.48,33.23,3762845.0,125048376.0,2124640800.0,8932464000.0
sh688138,清溢光电,2020-08-18,33.88,33.88,32.54,32.83,33.48,3615395.0,119167752.0,2083391800.0,8759044000.0
sh688138,清溢光电,2020-08-19,32.99,33.05,31.13,31.47,32.83,4301857.0,136208158.0,1997086200.0,8396196000.0
sh688138,清溢光电,2020-08-20,31.0,32.2,30.53,31.3,31.47,2945295.0,92678058.0,1986298000.0,8350840000.0
sh688138,清溢光电,2020-08-21,31.77,32.1,29.89,30.15,31.3,3456177.0,106426763.0,1913319000.0,8044020000.0
sh688138,清溢光电,2020-08-24,30.26,30.68,28.5,29.95,30.15,3497906.0,103253357.0,1900627000.0,7990660000.0
sh688138,清溢光电,2020-08-25,30.0,30.33,29.23,29.47,29.95,2501728.0,74305185.0,1870166200.0,7862596000.0
sh688138,清溢光电,2020-08-26,29.49,29.98,28.26,28.55,29.47,3396738.0,98357215.0,1811783000.0,7617140000.0
sh688138,清溢光电,2020-08-27,28.95,31.17,28.09,30.21,28.55,5700901.0,171296777.0,1917126600.0,8060028000.0
sh688138,清溢光电,2020-08-28,30.0,30.6,28.89,29.37,30.21,3738869.0,109836073.0,1863820200.0,7835916000.0
sh688138,清溢光电,2020-08-31,29.23,30.1,29.23,29.36,29.37,2782523.0,82769371.0,1863185600.0,7833248000.0
sh688138,清溢光电,2020-09-01,29.31,29.68,28.71,29.09,29.36,2341913.0,68209252.0,1846051400.0,7761212000.0
sh688138,清溢光电,2020-09-02,29.35,29.35,28.15,28.39,29.09,2853848.0,81589691.0,1801629400.0,7574452000.0
sh688138,清溢光电,2020-09-03,28.25,29.05,27.69,28.4,28.39,2937093.0,83142598.0,1802264000.0,7577120000.0
sh688138,清溢光电,2020-09-04,28.01,29.65,27.88,29.08,28.4,3364182.0,97689635.0,1845416800.0,7758544000.0
sh688138,清溢光电,2020-09-07,28.51,29.49,28.42,28.63,29.08,3313840.0,96454514.0,1816859800.0,7638484000.0
sh688138,清溢光电,2020-09-08,28.72,29.48,28.31,29.48,28.63,3164629.0,92146685.0,1870800800.0,7865264000.0
sh688138,清溢光电,2020-09-09,29.4,29.4,26.8,26.92,29.48,5093300.0,141826968.0,1708343200.0,7182256000.0
sh688138,清溢光电,2020-09-10,27.1,27.75,25.21,25.66,26.92,3760645.0,99652341.0,1628383599.9999998,6846088000.0
sh688138,清溢光电,2020-09-11,25.11,26.42,25.02,26.37,25.66,2777574.0,71492206.0,1673440200.0,7035516000.0
sh688138,清溢光电,2020-09-14,27.0,27.73,26.6,27.57,26.37,3236203.0,88541225.0,1749592200.0,7355676000.0
sh688138,清溢光电,2020-09-15,27.58,29.47,27.13,29.16,27.57,5036594.0,144128614.0,1850493600.0,7779888000.0
sh688138,清溢光电,2020-09-16,29.1,29.55,28.46,28.68,29.16,3231936.0,93552027.0,1820032800.0,7651824000.0
sh688138,清溢光电,2020-09-17,28.78,30.46,28.43,29.89,28.68,6684151.0,198530722.0,1896819400.0,7974652000.0
sh688138,清溢光电,2020-09-18,30.12,30.57,29.55,30.01,29.89,4379976.0,131513191.0,1904434600.0,8006668000.0
sh688138,清溢光电,2020-09-21,30.25,30.4,29.59,29.88,30.01,2615586.0,78091701.0,1896184800.0,7971984000.0
sh688138,清溢光电,2020-09-22,29.31,30.1,29.02,29.1,29.88,3209900.0,94762834.0,1846686000.0,7763880000.0
sh688138,清溢光电,2020-09-23,29.44,30.66,29.44,30.27,29.1,5665430.0,171112324.0,1920934200.0,8076036000.0
sh688138,清溢光电,2020-09-24,29.9,30.48,29.56,29.81,30.27,3411730.0,102282168.0,1891742600.0,7953308000.0
sh688138,清溢光电,2020-09-25,29.87,29.99,29.11,29.41,29.81,2289216.0,67406774.0,1866358600.0,7846588000.0
sh688138,清溢光电,2020-09-28,29.59,29.6,27.3,27.6,29.41,3833505.0,106990216.0,1751496000.0,7363680000.0
sh688138,清溢光电,2020-09-29,27.7,29.38,27.7,29.0,27.6,3510401.0,101051975.0,1840340000.0,7737200000.0
sh688138,清溢光电,2020-09-30,29.4,29.97,28.66,29.4,29.0,3008131.0,88438482.0,1865724000.0,7843920000.0
sh688138,清溢光电,2020-10-09,30.02,30.64,29.82,30.29,29.4,3292493.0,99619098.0,1922203400.0,8081372000.0
sh688138,清溢光电,2020-10-12,30.88,31.33,30.33,31.01,30.29,4818720.0,148797327.0,1967894600.0,8273468000.0
sh688138,清溢光电,2020-10-13,30.81,31.09,30.37,30.57,31.01,2511727.0,77176418.0,1939972200.0,8156076000.0
sh688138,清溢光电,2020-10-14,30.59,30.72,29.95,30.14,30.57,2511197.0,75972855.0,1912684400.0,8041352000.0
sh688138,清溢光电,2020-10-15,30.14,30.85,29.84,29.98,30.14,2084932.0,63209253.0,1902530800.0,7998664000.0
sh688138,清溢光电,2020-10-16,30.3,30.58,29.41,30.01,29.98,1933132.0,57789065.0,1904434600.0,8006668000.0
sh688138,清溢光电,2020-10-19,30.24,30.3,29.27,29.42,30.01,1759167.0,52402898.0,1866993200.0,7849256000.0
sh688138,清溢光电,2020-10-20,29.22,30.0,28.72,29.92,29.42,1837103.0,54093383.0,1898723200.0,7982656000.0
sh688138,清溢光电,2020-10-21,30.29,30.29,28.07,28.18,29.92,3133369.0,89979496.0,1788302800.0,7518424000.0
sh688138,清溢光电,2020-10-22,28.0,28.57,27.6,28.06,28.18,1476659.0,41592696.0,1780687600.0,7486408000.0
sh688138,清溢光电,2020-10-23,28.49,28.49,27.45,27.45,28.06,1855582.0,51750139.0,1741977000.0,7323660000.0
sh688138,清溢光电,2020-10-26,27.28,28.09,27.14,27.87,27.45,1259165.0,34866145.0,1768630200.0,7435716000.0
sh688138,清溢光电,2020-10-27,27.32,28.27,27.32,28.23,27.87,1047409.0,29291094.0,1791475799.9999998,7531764000.0
sh688138,清溢光电,2020-10-28,28.29,28.43,27.8,28.07,28.23,1246808.0,35065922.0,1781322200.0,7489076000.0
sh688138,清溢光电,2020-10-29,27.5,28.4,27.35,28.23,28.07,1031692.0,29042490.0,1791475799.9999998,7531764000.0
sh688138,清溢光电,2020-10-30,28.41,29.08,27.6,27.76,28.23,1988497.0,56455466.0,1761649600.0,7406368000.0
sh688138,清溢光电,2020-11-02,27.79,28.5,27.3,28.12,27.76,1950709.0,54529200.0,1784495200.0,7502416000.0
sh688138,清溢光电,2020-11-03,28.38,28.96,28.0,28.54,28.12,2144695.0,61511470.0,1811148400.0,7614472000.0
sh688138,清溢光电,2020-11-04,28.43,29.18,28.43,28.8,28.54,1925303.0,55584617.0,1827648000.0,7683840000.0
sh688138,清溢光电,2020-11-05,29.44,29.5,28.55,28.83,28.8,2399667.0,69342945.0,1829551800.0,7691844000.0
sh688138,清溢光电,2020-11-06,28.6,29.14,28.12,28.39,28.83,1479923.0,42172031.0,1801629400.0,7574452000.0
sh688138,清溢光电,2020-11-09,28.5,31.38,28.5,30.76,28.39,5226064.0,157964312.0,1952029600.0,8206768000.0
sh688138,清溢光电,2020-11-10,30.8,30.95,30.04,30.36,30.76,3079097.0,93776045.0,1926645600.0,8100048000.0
sh688138,清溢光电,2020-11-11,30.57,30.57,29.03,29.15,30.36,2025757.0,60041358.0,1849859000.0,7777220000.0
sh688138,清溢光电,2020-11-12,29.52,29.82,28.29,28.61,29.15,1306459.0,37772099.0,1815590600.0,7633148000.0
sh688138,清溢光电,2020-11-13,28.54,28.8,27.8,28.56,28.61,1726979.0,48885260.0,1812417600.0,7619808000.0
sh688138,清溢光电,2020-11-16,29.87,29.87,28.4,28.93,28.56,2254849.0,65349296.0,1835897800.0,7718524000.0
sh688138,清溢光电,2020-11-17,29.07,29.37,28.2,28.91,28.93,1308751.0,37448950.0,1834628600.0,7713188000.0
sh688138,清溢光电,2020-11-18,28.61,28.99,28.24,28.26,28.91,1384688.0,39578689.0,1793379600.0,7539768000.0
sh688138,清溢光电,2020-11-19,28.17,28.5,27.26,27.37,28.26,2030071.0,56278784.0,1736900200.0,7302316000.0
sh688138,清溢光电,2020-11-20,27.37,27.74,27.37,27.58,27.37,1076904.0,29658865.0,2157031800.0,7358344000.0
sh688138,清溢光电,2020-11-23,27.58,27.99,27.01,27.78,27.58,1171758.0,32307272.0,2172673800.0,7411704000.0
sh688138,清溢光电,2020-11-24,27.8,28.14,27.42,27.9,27.78,1082910.0,30204027.0,2182059000.0,7443720000.0
sh688138,清溢光电,2020-11-25,27.91,28.19,27.71,27.82,27.9,1050197.0,29289770.0,2175802200.0,7422376000.0
sh688138,清溢光电,2020-11-26,27.43,28.05,26.71,26.78,27.82,1221006.0,33219348.0,2094463800.0,7144904000.0
sh688138,清溢光电,2020-11-27,26.75,26.97,25.91,26.45,26.78,1335180.0,35223967.0,2068654500.0,7056860000.0
sh688138,清溢光电,2020-11-30,26.35,27.2,26.29,26.74,26.45,1179625.0,31588698.0,2091335400.0,7134232000.0
sh688138,清溢光电,2020-12-01,26.74,26.98,26.31,26.56,26.74,1238367.0,32924124.0,2077257600.0,7086208000.0
sh688138,清溢光电,2020-12-02,26.56,27.0,26.4,26.5,26.56,1653215.0,44130517.0,2072565000.0,7070200000.0
sh688138,清溢光电,2020-12-03,26.4,26.83,25.81,25.88,26.5,1686393.0,43964808.0,2024074800.0,6904784000.0
sh688138,清溢光电,2020-12-04,25.92,26.1,25.73,25.76,25.88,892149.0,23061459.0,2014689600.0,6872768000.0
sh688138,清溢光电,2020-12-07,26.02,26.35,25.18,25.34,25.76,1853256.0,47520720.0,1981841400.0,6760712000.0
sh688138,清溢光电,2020-12-08,25.18,25.59,25.01,25.06,25.34,1763126.0,44514964.0,1959942600.0,6686008000.0
sh688138,清溢光电,2020-12-09,25.06,25.26,23.72,23.84,25.06,3620027.0,87508797.0,1864526400.0,6360512000.0
sh688138,清溢光电,2020-12-10,23.84,23.95,22.63,22.72,23.84,3983925.0,92419327.0,1776931200.0,6061696000.0
sh688138,清溢光电,2020-12-11,22.99,22.99,21.55,22.0,22.72,4363918.0,96148735.0,1720620000.0,5869600000.0
sh688138,清溢光电,2020-12-14,22.39,22.86,21.93,22.71,22.0,2851844.0,64255462.0,1776149100.0,6059028000.0
sh688138,清溢光电,2020-12-15,22.56,23.18,22.56,22.86,22.71,1786756.0,40924930.0,1787880600.0,6099048000.0
sh688138,清溢光电,2020-12-16,23.06,23.06,22.36,22.56,22.86,1387492.0,31372421.0,1764417600.0,6019008000.0
sh688138,清溢光电,2020-12-17,22.28,22.73,21.83,22.67,22.56,1524594.0,34001995.0,1773020700.0,6048356000.0
sh688138,清溢光电,2020-12-18,23.1,24.16,22.92,23.04,22.67,3974146.0,93192880.0,1801958400.0,6147072000.0
sh688138,清溢光电,2020-12-21,22.82,24.13,22.65,23.77,23.04,3294777.0,77784548.0,1859051700.0,6341836000.0
sh688138,清溢光电,2020-12-22,23.5,23.98,23.17,23.3,23.77,2157655.0,50800342.0,1822293000.0,6216440000.0
sh688138,清溢光电,2020-12-23,23.2,23.89,23.01,23.67,23.3,1875753.0,44003712.0,1851230700.0,6315156000.0
sh688138,清溢光电,2020-12-24,23.67,23.85,22.82,22.91,23.67,1919841.0,44633560.0,1791791099.9999998,6112388000.0
sh688138,清溢光电,2020-12-25,22.81,23.21,22.56,22.77,22.91,1250606.0,28530810.0,1780841700.0000002,6075036000.0
sh688138,清溢光电,2020-12-28,22.69,22.7,21.6,21.7,22.77,2122870.0,46581859.0,1697157000.0,5789560000.0
sh688138,清溢光电,2020-12-29,22.18,23.0,21.78,22.5,21.7,1935933.0,43468047.0,1759725000.0,6003000000.0
sh688138,清溢光电,2020-12-30,22.51,22.51,22.04,22.24,22.5,1553719.0,34600252.0,1739390400.0,5933632000.0
sh688138,清溢光电,2020-12-31,22.24,23.27,22.24,23.08,22.24,1884374.0,43138715.0,1805086800.0,6157744000.0
sh688138,清溢光电,2021-01-04,23.08,23.61,22.75,23.35,23.08,1894627.0,44052298.0,1826203500.0,6229780000.0
sh688138,清溢光电,2021-01-05,23.37,23.8,22.93,23.61,23.35,2281054.0,53294338.0,1846538100.0,6299148000.0
sh688138,清溢光电,2021-01-06,23.87,23.87,22.32,22.76,23.61,2283020.0,52014645.0,1780059600.0,6072368000.0
sh688138,清溢光电,2021-01-07,23.15,23.54,21.5,21.75,22.76,2844667.0,63351414.0,1701067500.0,5802900000.0
sh688138,清溢光电,2021-01-08,22.01,22.2,20.93,21.85,21.75,1844587.0,39888890.0,1708888500.0,5829580000.0
sh688138,清溢光电,2021-01-11,21.8,22.22,20.91,21.15,21.85,1883019.0,40505367.0,1654141500.0,5642820000.0
sh688138,清溢光电,2021-01-12,21.09,21.4,20.22,20.57,21.15,2225342.0,45975318.0,1608779700.0,5488076000.0
sh688138,清溢光电,2021-01-13,20.68,20.68,19.67,20.03,20.57,2273233.0,45313392.0,1566546300.0,5344004000.0
sh688138,清溢光电,2021-01-14,20.0,22.97,19.69,22.1,20.03,4510155.0,97847203.0,1728441000.0,5896280000.0
sh688138,清溢光电,2021-01-15,21.79,23.33,21.7,22.15,22.1,4206669.0,95308894.0,1732351500.0,5909620000.0
sh688138,清溢光电,2021-01-18,22.25,23.25,21.94,22.8,22.15,3062772.0,69681130.0,1783188000.0,6083040000.0
sh688138,清溢光电,2021-01-19,22.8,23.49,22.42,23.05,22.8,2652613.0,61198020.0,1802740500.0,6149740000.0
sh688138,清溢光电,2021-01-20,22.82,23.14,22.14,22.53,23.05,1946756.0,43903421.0,1762071300.0,6011004000.0
sh688138,清溢光电,2021-01-21,22.39,22.75,22.06,22.41,22.53,1915400.0,42888979.0,1752686099.9999998,5978988000.0
sh688138,清溢光电,2021-01-22,22.3,22.7,21.2,21.53,22.41,2115169.0,45859815.0,1683861300.0,5744204000.0
sh688138,清溢光电,2021-01-25,21.12,21.49,20.53,20.68,21.53,1810794.0,37833924.0,1617382800.0,5517424000.0
sh688138,清溢光电,2021-01-26,20.55,21.59,20.5,20.88,20.68,1463065.0,30762556.0,1633024800.0,5570784000.0
sh688138,清溢光电,2021-01-27,20.88,21.16,20.2,20.33,20.88,1174931.0,24113263.0,1590009300.0,5424044000.0
sh688138,清溢光电,2021-01-28,20.2,20.74,19.81,19.97,20.33,1317485.0,26675151.0,1561853700.0,5327996000.0
sh688138,清溢光电,2021-01-29,20.1,20.3,19.33,19.68,19.97,1417921.0,27999455.0,1539172800.0,5250624000.0
sh688138,清溢光电,2021-02-01,19.98,19.98,19.5,19.94,19.68,916938.0,18103281.0,1559507400.0,5319992000.0
sh688138,清溢光电,2021-02-02,19.65,20.05,19.42,19.62,19.94,1172768.0,23045946.0,1534480200.0,5234616000.0
sh688138,清溢光电,2021-02-03,19.55,19.55,18.47,18.47,19.62,2156158.0,40604775.0,1444538700.0,4927796000.0
sh688138,清溢光电,2021-02-04,18.18,18.6,17.51,18.26,18.47,2067828.0,37172050.0,1428114600.0,4871768000.0
sh688138,清溢光电,2021-02-05,18.14,18.38,17.6,17.68,18.26,1090334.0,19436695.0,1382752800.0,4717024000.0
sh688138,清溢光电,2021-02-08,17.79,18.13,17.44,17.57,17.68,1132877.0,20169496.0,1374149700.0,4687676000.0
sh688138,清溢光电,2021-02-09,17.66,18.01,17.5,17.94,17.57,936018.0,16661939.0,1403087400.0,4786392000.0
sh688138,清溢光电,2021-02-10,17.98,18.62,17.86,18.15,17.94,1264940.0,22998074.0,1419511500.0,4842420000.0
sh688138,清溢光电,2021-02-18,18.61,19.17,18.42,18.82,18.15,1544961.0,29090288.0,1471912200.0,5021176000.0
sh688138,清溢光电,2021-02-19,18.77,19.37,18.7,19.17,18.82,1531348.0,29229959.0,1499285700.0,5114556000.0
sh688138,清溢光电,2021-02-22,19.35,19.65,19.01,19.08,19.17,1934397.0,37506071.0,1492246800.0,5090544000.0
sh688138,清溢光电,2021-02-23,19.15,19.28,18.72,19.09,19.08,1105152.0,21025696.0,1493028900.0000002,5093212000.0
sh688138,清溢光电,2021-02-24,19.1,19.74,19.1,19.21,19.09,1235431.0,23966370.0,1502414100.0,5125228000.0
sh688138,清溢光电,2021-02-25,19.22,19.33,18.73,18.86,19.21,1066710.0,20225531.0,1475040600.0,5031848000.0
sh688138,清溢光电,2021-02-26,18.91,19.11,18.51,18.95,18.86,941572.0,17840027.0,1482079500.0,5055860000.0
sh688138,清溢光电,2021-03-01,19.01,19.63,18.7,19.62,18.95,1172668.0,22677040.0,1534480200.0,5234616000.0
sh688138,清溢光电,2021-03-02,19.62,20.0,19.23,19.29,19.62,1007805.0,19628476.0,1508670900.0,5146572000.0
sh688138,清溢光电,2021-03-03,19.29,19.53,19.06,19.36,19.29,856272.0,16487895.0,1514145600.0,5165248000.0
sh688138,清溢光电,2021-03-04,19.37,20.14,19.35,19.68,19.36,2098947.0,41589029.0,1539172800.0,5250624000.0
sh688138,清溢光电,2021-03-05,19.96,20.28,19.61,20.0,19.68,1694167.0,33987964.0,1564200000.0,5336000000.0
sh688138,清溢光电,2021-03-08,20.17,20.5,19.68,19.8,20.0,1340426.0,26797670.0,1548558000.0,5282640000.0
sh688138,清溢光电,2021-03-09,20.18,20.19,18.48,18.68,19.8,1811037.0,34420367.0,1460962800.0,4983824000.0
sh688138,清溢光电,2021-03-10,19.0,19.06,17.98,18.04,18.68,1189197.0,21842292.0,1410908400.0,4813072000.0
sh688138,清溢光电,2021-03-11,18.14,18.83,17.58,18.63,18.04,1371913.0,25171613.0,1457052300.0,4970484000.0
sh688138,清溢光电,2021-03-12,18.54,18.93,18.1,18.32,18.63,1056406.0,19424555.0,1432807200.0,4887776000.0
sh688138,清溢光电,2021-03-15,18.33,18.33,17.8,17.9,18.32,716531.0,12927941.0,1399959000.0,4775720000.0
sh688138,清溢光电,2021-03-16,17.78,18.26,17.78,18.21,17.9,708595.0,12825772.0,1424204100.0,4858428000.0
sh688138,清溢光电,2021-03-17,18.11,18.49,18.05,18.11,18.21,987010.0,18015679.0,1416383100.0,4831748000.0
sh688138,清溢光电,2021-03-18,18.39,18.39,17.7,17.9,18.11,818708.0,14736912.0,1399959000.0,4775720000.0
sh688138,清溢光电,2021-03-19,17.74,18.18,17.55,17.85,17.9,914938.0,16382823.0,1396048500.0,4762380000.0
sh688138,清溢光电,2021-03-22,17.85,18.28,17.85,18.2,17.85,687147.0,12443240.0,1423422000.0,4855760000.0
sh688138,清溢光电,2021-03-23,18.24,18.89,18.24,18.45,18.2,1470343.0,27368604.0,1442974500.0,4922460000.0
sh688138,清溢光电,2021-03-24,18.31,18.47,17.88,18.06,18.45,1041082.0,18820694.0,1412472600.0,4818408000.0
sh688138,清溢光电,2021-03-25,18.19,18.25,17.6,17.96,18.06,704417.0,12726470.0,1404651600.0,4791728000.0
sh688138,清溢光电,2021-03-26,17.96,18.25,17.93,18.12,17.96,771627.0,13977129.0,1417165200.0,4834416000.0
sh688138,清溢光电,2021-03-29,18.22,18.32,17.86,17.97,18.12,762692.0,13786610.0,1405433700.0,4794396000.0
sh688138,清溢光电,2021-03-30,17.97,17.97,17.02,17.07,17.97,1742253.0,30372086.0,1335044700.0,4554276000.0
sh688138,清溢光电,2021-03-31,17.13,17.4,17.03,17.34,17.07,745405.0,12860502.0,1356161400.0000002,4626312000.0
sh688138,清溢光电,2021-04-01,17.44,17.7,17.22,17.49,17.34,706627.0,12358955.0,1367892900.0,4666332000.0
sh688138,清溢光电,2021-04-02,17.58,19.05,17.58,18.91,17.49,3087997.0,57155599.0,1478951099.9999998,5045188000.0
sh688138,清溢光电,2021-04-06,19.3,19.37,18.63,18.77,18.91,1800087.0,33947169.0,1468001700.0000002,5007836000.0
sh688138,清溢光电,2021-04-07,18.77,18.98,18.38,18.66,18.77,1168011.0,21699803.0,1459398599.9999998,4978488000.0
sh688138,清溢光电,2021-04-08,18.5,18.92,18.4,18.45,18.66,1063931.0,19852201.0,1442974500.0,4922460000.0
sh688138,清溢光电,2021-04-09,18.31,18.7,18.31,18.51,18.45,849151.0,15726341.0,1447667100.0,4938468000.0
sh688138,清溢光电,2021-04-12,18.51,18.65,17.75,17.84,18.51,1156145.0,20966758.0,1395266400.0000002,4759712000.0
sh688138,清溢光电,2021-04-13,17.64,17.89,17.52,17.54,17.84,804447.0,14208959.0,1371803400.0,4679672000.0
sh688138,清溢光电,2021-04-14,17.59,17.78,17.41,17.78,17.54,774447.0,13596723.0,1390573800.0,4743704000.0
sh688138,清溢光电,2021-04-15,17.75,18.14,17.43,18.03,17.78,950879.0,16957011.0,1410126300.0,4810404000.0
sh688138,清溢光电,2021-04-16,18.01,18.41,17.92,18.37,18.03,792899.0,14474102.0,1436717700.0,4901116000.0
sh688138,清溢光电,2021-04-19,18.35,18.82,18.35,18.73,18.37,1494261.0,27868601.0,1464873299.9999998,4997164000.0
sh688138,清溢光电,2021-04-20,18.15,18.48,17.89,17.92,18.73,2030056.0,36819378.0,1401523200.0,4781056000.0
sh688138,清溢光电,2021-04-21,17.78,17.88,17.5,17.52,17.92,1001213.0,17663702.0,1370239200.0000002,4674336000.0
sh688138,清溢光电,2021-04-22,17.58,17.94,17.42,17.54,17.52,1221386.0,21492733.0,1371803400.0,4679672000.0
sh688138,清溢光电,2021-04-23,17.45,17.5,17.05,17.13,17.54,1253631.0,21563203.0,1339737300.0,4570284000.0
sh688138,清溢光电,2021-04-26,17.15,17.66,16.9,17.24,17.13,1551285.0,26710183.0,1348340400.0,4599632000.0
sh688138,清溢光电,2021-04-27,17.1,17.1,16.2,16.25,17.24,1795048.0,29602318.0,1270912500.0,4335500000.0
sh688138,清溢光电,2021-04-28,16.28,16.28,15.69,15.82,16.25,1331070.0,21200995.0,1237282200.0,4220776000.0
sh688138,清溢光电,2021-04-29,15.98,16.3,15.78,15.82,15.82,938320.0,15046879.0,1237282200.0,4220776000.0
sh688138,清溢光电,2021-04-30,15.88,15.91,15.21,15.34,15.82,1200797.0,18560415.0,1199741400.0,4092712000.0
sh688138,清溢光电,2021-05-06,15.69,15.86,15.4,15.66,15.34,691162.0,10797337.0,1224768600.0,4178088000.0
sh688138,清溢光电,2021-05-07,15.68,15.78,15.53,15.75,15.66,829499.0,13002219.0,1231807500.0,4202100000.0
sh688138,清溢光电,2021-05-10,15.87,16.03,15.42,15.66,15.75,1028419.0,16171056.0,1224768600.0,4178088000.0
sh688138,清溢光电,2021-05-11,15.08,15.76,15.08,15.56,15.66,932681.0,14387434.0,1216947600.0,4151408000.0
sh688138,清溢光电,2021-05-12,15.26,15.85,15.26,15.72,15.56,703322.0,10985150.0,1229461200.0,4194096000.0
sh688138,清溢光电,2021-05-13,15.62,16.1,15.55,15.65,15.72,948058.0,15008038.0,1223986500.0,4175420000.0
sh688138,清溢光电,2021-05-14,15.68,15.87,15.63,15.75,15.65,711637.0,11221262.0,1231807500.0,4202100000.0
sh688138,清溢光电,2021-05-17,15.63,16.15,15.63,15.76,15.75,1350635.0,21430610.0,1232589600.0,4204768000.0
sh688138,清溢光电,2021-05-18,15.76,15.82,15.49,15.67,15.76,919809.0,14391186.0,1225550700.0,4180756000.0
sh688138,清溢光电,2021-05-19,15.54,15.87,15.54,15.79,15.67,1290033.0,20298450.0,1234935900.0,4212772000.0
sh688138,清溢光电,2021-05-20,15.79,15.93,15.63,15.64,15.79,1055814.0,16613360.0,1223204400.0,4172752000.0
sh688138,清溢光电,2021-05-21,15.72,15.79,15.19,15.19,15.64,1113308.0,17282491.0,1188009900.0,4052692000.0
sh688138,清溢光电,2021-05-24,15.12,17.17,15.12,16.58,15.19,4140870.0,67890696.0,1296721800.0,4423544000.0
sh688138,清溢光电,2021-05-25,16.65,16.7,16.01,16.46,16.58,2488170.0,40837280.0,1287336600.0,4391528000.0
sh688138,清溢光电,2021-05-26,16.56,17.49,16.37,16.82,16.46,3870160.0,66021307.0,1315492200.0,4487576000.0
sh688138,清溢光电,2021-05-27,16.8,18.27,16.79,17.8,16.82,4800280.0,85310818.0,1392138000.0,4749040000.0
sh688138,清溢光电,2021-05-28,17.6,18.07,17.44,17.61,17.8,3331039.0,59017839.0,1377278100.0,4698348000.0
sh688138,清溢光电,2021-05-31,17.61,18.1,17.58,18.01,17.61,3710080.0,66107121.0,1408562100.0,4805068000.0
sh688138,清溢光电,2021-06-01,18.06,19.17,17.85,19.15,18.01,5978834.0,111235050.0,1497721500.0,5109220000.0
sh688138,清溢光电,2021-06-02,19.0,19.38,18.5,18.54,19.15,6086686.0,114630990.0,1450013400.0,4946472000.0
sh688138,清溢光电,2021-06-03,18.55,18.8,17.89,17.91,18.54,3777102.0,69262280.0,1400741099.9999998,4778388000.0
sh688138,清溢光电,2021-06-04,17.88,19.17,17.8,18.89,17.91,5501440.0,103028030.0,1477386900.0,5039852000.0
sh688138,清溢光电,2021-06-07,19.58,20.0,18.94,19.29,18.89,5745531.0,111248798.0,1508670900.0,5146572000.0
sh688138,清溢光电,2021-06-08,19.29,19.36,18.66,18.89,19.29,3519806.0,66608657.0,1477386900.0,5039852000.0
sh688138,清溢光电,2021-06-09,18.9,19.68,18.71,18.94,18.89,3366244.0,64201044.0,1481297400.0,5053192000.0
sh688138,清溢光电,2021-06-10,19.06,19.44,18.66,19.16,18.94,3886814.0,73984315.0,1498503599.9999998,5111888000.0
sh688138,清溢光电,2021-06-11,19.4,19.4,18.05,18.19,19.16,4401153.0,81697615.0,1422639900.0,4853092000.0
sh688138,清溢光电,2021-06-15,18.19,18.65,18.0,18.1,18.19,2933167.0,53739186.0,1415601000.0,4829080000.0
sh688138,清溢光电,2021-06-16,18.0,18.97,17.67,17.74,18.1,4161547.0,76293274.0,1387445400.0,4733032000.0
sh688138,清溢光电,2021-06-17,17.93,19.5,17.9,19.19,17.74,7032292.0,131830954.0,1500849900.0,5119892000.0
sh688138,清溢光电,2021-06-18,19.19,20.47,19.13,20.3,19.19,9700848.0,192921790.0,1587663000.0,5416040000.0
sh688138,清溢光电,2021-06-21,20.15,20.7,19.86,20.2,20.3,6037265.0,121684055.0,1579842000.0,5389360000.0
sh688138,清溢光电,2021-06-22,20.16,20.47,19.56,19.77,20.2,3791963.0,75143479.0,1546211700.0000002,5274636000.0
sh688138,清溢光电,2021-06-23,19.99,20.9,19.77,20.36,19.77,5936915.0,121392054.0,1592355600.0,5432048000.0
sh688138,清溢光电,2021-06-24,20.17,20.46,19.58,19.63,20.36,3567847.0,70923691.0,1535262300.0,5237284000.0
sh688138,清溢光电,2021-06-25,19.59,20.35,19.12,19.72,19.63,3668887.0,72149940.0,1542301200.0,5261296000.0
sh688138,清溢光电,2021-06-28,19.72,20.49,19.48,20.08,19.72,3595544.0,72118975.0,1570456800.0,5357344000.0
sh688138,清溢光电,2021-06-29,19.91,20.03,18.97,19.15,20.08,3990008.0,77251622.0,1497721500.0,5109220000.0
sh688138,清溢光电,2021-06-30,19.25,20.77,19.2,20.75,19.15,7722949.0,156760812.0,1622857500.0,5536100000.0
sh688138,清溢光电,2021-07-01,21.0,21.0,19.5,19.8,20.75,5384834.0,109070915.0,1548558000.0,5282640000.0
sh688138,清溢光电,2021-07-02,19.7,20.2,19.35,19.57,19.8,3395306.0,67208097.0,1530569700.0,5221276000.0
sh688138,清溢光电,2021-07-05,19.82,20.48,19.66,20.09,19.57,3244520.0,65005268.0,1571238900.0000002,5360012000.0
sh688138,XD清溢光,2021-07-06,19.98,20.36,19.15,19.58,20.0,3548190.0,69945918.0,1531351800.0,5223944000.0
sh688138,清溢光电,2021-07-07,19.41,19.94,19.19,19.82,19.58,2727700.0,53453119.0,1550122200.0,5287976000.0
sh688138,清溢光电,2021-07-08,19.91,20.78,19.6,20.6,19.82,5973785.0,122147460.0,1611126000.0,5496080000.0
sh688138,清溢光电,2021-07-09,20.5,22.22,20.1,21.5,20.6,6684422.0,141415028.0,1681515000.0,5736200000.0
sh688138,清溢光电,2021-07-12,21.5,21.7,21.11,21.5,21.5,4314167.0,92273145.0,1681515000.0,5736200000.0
sh688138,清溢光电,2021-07-13,21.4,21.95,20.52,20.82,21.5,4305456.0,91046448.0,1628332200.0,5554776000.0
sh688138,清溢光电,2021-07-14,20.66,21.13,20.18,20.2,20.82,3062460.0,63056255.0,1579842000.0,5389360000.0
sh688138,清溢光电,2021-07-15,20.2,20.27,18.88,19.12,20.2,4807285.0,92930706.0,1495375200.0,5101216000.0
sh688138,清溢光电,2021-07-16,19.21,20.18,18.94,18.94,19.12,2989717.0,57793653.0,1481297400.0,5053192000.0
sh688138,清溢光电,2021-07-19,18.98,19.16,18.5,19.03,18.94,2026423.0,38313316.0,1488336300.0,5077204000.0
sh688138,清溢光电,2021-07-20,19.03,19.26,18.63,19.22,19.03,2132956.0,40336067.0,1503196200.0,5127896000.0
sh688138,清溢光电,2021-07-21,19.27,20.66,19.22,20.18,19.22,4382226.0,87775604.0,1578277800.0,5384024000.0
sh688138,清溢光电,2021-07-22,20.09,21.68,19.85,21.52,20.18,6549637.0,137248097.0,1683079200.0000002,5741536000.0
sh688138,清溢光电,2021-07-23,21.4,22.16,20.95,21.8,21.52,7153995.0,155278367.0,1704978000.0,5816240000.0
sh688138,清溢光电,2021-07-26,21.8,22.7,21.04,22.18,21.8,6986574.0,152938308.0,1734697800.0,5917624000.0
sh688138,清溢光电,2021-07-27,20.0,21.52,18.7,20.54,22.18,13140649.0,262790167.0,1606433400.0,5480072000.0
sh688138,清溢光电,2021-07-28,19.8,20.27,18.8,19.25,20.54,6714044.0,131081792.0,1505542500.0,5135900000.0
sh688138,清溢光电,2021-07-29,19.77,21.98,19.35,21.41,19.25,8042065.0,167644755.0,1674476099.9999998,5712188000.0
sh688138,清溢光电,2021-07-30,21.49,23.13,21.3,22.81,21.41,9628823.0,216512089.0,1783970100.0,6085708000.0
sh688138,清溢光电,2021-08-02,22.98,23.28,22.2,22.62,22.81,6608183.0,149456023.0,1769110200.0,6035016000.0
sh688138,清溢光电,2021-08-03,23.0,23.1,21.28,21.5,22.62,5349191.0,117619138.0,1681515000.0,5736200000.0
sh688138,清溢光电,2021-08-04,21.8,22.41,21.55,21.9,21.5,4266216.0,93631630.0,1712799000.0,5842920000.0
sh688138,清溢光电,2021-08-05,21.93,21.93,21.08,21.26,21.9,3268930.0,69914404.0,1662744600.0,5672168000.0
sh688138,清溢光电,2021-08-06,21.26,21.9,21.15,21.71,21.26,3744976.0,80637888.0,1697939100.0,5792228000.0
sh688138,清溢光电,2021-08-09,21.9,22.48,21.1,21.84,21.71,3914543.0,85101506.0,1708106400.0000002,5826912000.0
sh688138,清溢光电,2021-08-10,21.62,22.22,21.32,21.68,21.84,3229958.0,70236244.0,1695592800.0,5784224000.0
sh688138,清溢光电,2021-08-11,21.69,21.8,20.67,21.18,21.68,3290406.0,69241524.0,1656487800.0,5650824000.0
sh688138,清溢光电,2021-08-12,21.17,22.13,21.06,21.9,21.18,3726370.0,81023175.0,1712799000.0,5842920000.0
sh688138,清溢光电,2021-08-13,21.99,21.99,20.6,20.66,21.9,3863845.0,81536798.0,1615818599.9999998,5512088000.0
sh688138,清溢光电,2021-08-16,20.6,21.22,20.08,20.83,20.66,2318400.0,47974307.0,1629114300.0,5557444000.0
sh688138,清溢光电,2021-08-17,20.8,20.98,19.15,19.28,20.83,4235478.0,83765577.0,1507888800.0,5143904000.0
sh688138,清溢光电,2021-08-18,19.32,19.57,18.58,18.99,19.28,3265273.0,61840642.0,1485207900.0,5066532000.0
sh688138,清溢光电,2021-08-19,18.84,19.38,18.62,18.76,18.99,2387936.0,45321072.0,1467219600.0,5005168000.0
sh688138,清溢光电,2021-08-20,18.72,18.92,18.18,18.38,18.76,2425471.0,44782711.0,1437499800.0,4903784000.0
sh688138,清溢光电,2021-08-23,18.44,19.19,18.38,19.07,18.38,2359442.0,44626273.0,1491464700.0,5087876000.0
sh688138,清溢光电,2021-08-24,19.07,19.38,18.81,19.11,19.07,1855280.0,35449444.0,1494593100.0,5098548000.0
sh688138,清溢光电,2021-08-25,19.08,19.13,18.28,18.44,19.11,3054892.0,56580958.0,1442192400.0,4919792000.0
sh688138,清溢光电,2021-08-26,18.56,18.66,17.88,18.01,18.44,2418263.0,43936902.0,1408562100.0,4805068000.0
sh688138,清溢光电,2021-08-27,17.88,18.44,17.39,18.24,18.01,3255311.0,58405436.0,1426550400.0,4866432000.0
sh688138,清溢光电,2021-08-30,18.3,18.48,17.5,17.65,18.24,2712894.0,48678511.0,1380406500.0,4709020000.0
sh688138,清溢光电,2021-08-31,17.36,17.65,16.8,17.17,17.65,2282404.0,39048200.0,1342865700.0,4580956000.0
sh688138,清溢光电,2021-09-01,17.34,17.34,16.53,17.03,17.17,2188441.0,36946910.0,1331916300.0,4543604000.0
sh688138,清溢光电,2021-09-02,17.03,17.14,16.62,16.73,17.03,1675448.0,28190145.0,1308453300.0,4463564000.0
sh688138,清溢光电,2021-09-03,16.79,17.27,16.65,17.03,16.73,1811252.0,30791893.0,1331916300.0,4543604000.0
sh688138,清溢光电,2021-09-06,17.09,17.41,16.81,17.21,17.03,1414932.0,24343291.0,1345994100.0,4591628000.0
sh688138,清溢光电,2021-09-07,17.22,17.41,17.04,17.2,17.21,1325763.0,22746079.0,1345212000.0,4588960000.0
sh688138,清溢光电,2021-09-08,17.26,17.57,17.11,17.5,17.2,1628089.0,28242971.0,1368675000.0,4669000000.0
sh688138,清溢光电,2021-09-09,17.4,17.45,17.06,17.15,17.5,1542648.0,26537014.0,1341301500.0,4575620000.0
sh688138,清溢光电,2021-09-10,17.21,17.56,16.89,17.34,17.15,2472950.0,42688897.0,1356161400.0000002,4626312000.0
sh688138,清溢光电,2021-09-13,17.57,17.73,16.97,16.98,17.34,2061967.0,35521917.0,1328005799.9999998,4530264000.0
sh688138,清溢光电,2021-09-14,17.01,17.38,16.76,16.83,16.98,1474758.0,25128594.0,1316274300.0,4490244000.0
sh688138,清溢光电,2021-09-15,16.99,17.07,16.69,16.81,16.83,822241.0,13857148.0,1314710100.0,4484908000.0
sh688138,清溢光电,2021-09-16,16.83,16.86,16.32,16.36,16.81,1495148.0,24798153.0,1279515600.0,4364848000.0
sh688138,清溢光电,2021-09-17,16.49,16.54,15.86,16.16,16.36,1380844.0,22258149.0,1263873600.0,4311488000.0
sh688138,清溢光电,2021-09-22,15.96,16.35,15.96,16.16,16.16,738521.0,11950510.0,1263873600.0,4311488000.0
sh688138,清溢光电,2021-09-23,16.16,16.51,16.16,16.39,16.16,771593.0,12644552.0,1281861900.0,4372852000.0
sh688138,清溢光电,2021-09-24,16.5,16.5,16.02,16.06,16.39,1104401.0,17826105.0,1256052600.0,4284808000.0
sh688138,清溢光电,2021-09-27,16.1,16.28,15.8,15.92,16.06,1211766.0,19383382.0,1245103200.0,4247456000.0
sh688138,清溢光电,2021-09-28,15.99,16.03,15.69,15.7,15.92,1171820.0,18498432.0,1227897000.0,4188760000.0
sh688138,清溢光电,2021-09-29,15.61,15.62,15.11,15.21,15.7,1183514.0,18179438.0,1189574100.0,4058028000.0
sh688138,清溢光电,2021-09-30,15.4,15.52,15.35,15.41,15.21,777749.0,12000963.0,1205216100.0,4111388000.0
sh688138,清溢光电,2021-10-08,15.43,15.96,15.41,15.75,15.41,844359.0,13299508.0,1231807500.0,4202100000.0
sh688138,清溢光电,2021-10-11,15.74,15.93,15.6,15.81,15.75,701453.0,11088428.0,1236500100.0,4218108000.0
sh688138,清溢光电,2021-10-12,15.82,15.82,15.32,15.45,15.81,882101.0,13660370.0,1208344500.0,4122060000.0
sh688138,清溢光电,2021-10-13,15.46,15.79,15.42,15.71,15.45,747518.0,11708004.0,1228679100.0,4191428000.0
sh688138,清溢光电,2021-10-14,15.95,16.06,15.52,15.95,15.71,792544.0,12559640.0,1247449500.0,4255460000.0
sh688138,清溢光电,2021-10-15,16.04,16.26,15.82,16.18,15.95,925776.0,14908233.0,1265437800.0,4316824000.0
sh688138,清溢光电,2021-10-18,16.18,16.18,15.56,15.73,16.18,1218702.0,19196390.0,1230243300.0,4196764000.0
sh688138,清溢光电,2021-10-19,15.74,15.84,15.58,15.59,15.73,683866.0,10750732.0,1219293900.0,4159412000.0
sh688138,清溢光电,2021-10-20,15.59,15.59,15.22,15.24,15.59,939585.0,14425352.0,1191920400.0,4066032000.0
sh688138,清溢光电,2021-10-21,15.25,15.32,14.99,15.02,15.24,669418.0,10111737.0,1174714200.0,4007336000.0
sh688138,清溢光电,2021-10-22,15.07,15.74,14.97,15.36,15.02,1460168.0,22549513.0,1201305600.0,4098048000.0
sh688138,清溢光电,2021-10-25,15.36,15.51,15.07,15.48,15.36,802119.0,12233959.0,1210690800.0,4130064000.0
sh688138,清溢光电,2021-10-26,15.43,15.65,15.34,15.37,15.48,865331.0,13394756.0,1202087700.0,4100716000.0
sh688138,清溢光电,2021-10-27,15.35,15.35,14.58,14.6,15.37,1470548.0,21723507.0,1141866000.0,3895280000.0
sh688138,清溢光电,2021-10-28,14.6,14.79,14.26,14.3,14.6,845958.0,12310237.0,1118403000.0,3815240000.0
sh688138,清溢光电,2021-10-29,14.72,16.92,14.72,16.16,14.3,5492196.0,88959651.0,1263873600.0,4311488000.0
sh688138,清溢光电,2021-11-01,16.16,16.63,15.88,16.56,16.16,3286332.0,53618792.0,1295157600.0,4418208000.0
sh688138,清溢光电,2021-11-02,16.49,16.87,16.2,16.53,16.56,2505916.0,41574663.0,1292811300.0,4410204000.0
sh688138,清溢光电,2021-11-03,16.47,16.85,16.13,16.28,16.53,1237549.0,20271953.0,1273258800.0,4343504000.0
sh688138,清溢光电,2021-11-04,16.3,16.56,16.23,16.41,16.28,1432675.0,23502412.0,1283426100.0,4378188000.0
sh688138,清溢光电,2021-11-05,16.58,17.0,16.43,16.52,16.41,1911297.0,31929895.0,1292029200.0,4407536000.0
sh688138,清溢光电,2021-11-08,16.76,16.76,16.05,16.37,16.52,890203.0,14487849.0,1280297700.0,4367516000.0
sh688138,清溢光电,2021-11-09,16.37,17.34,16.37,17.08,16.37,2365670.0,39907499.0,1335826800.0,4556944000.0
sh688138,清溢光电,2021-11-10,17.31,17.37,16.88,17.16,17.08,1543820.0,26348947.0,1342083599.9999998,4578288000.0
sh688138,清溢光电,2021-11-11,17.1,17.58,16.9,17.4,17.16,2139103.0,36987030.0,1360854000.0,4642320000.0
sh688138,清溢光电,2021-11-12,17.18,17.46,17.06,17.31,17.4,1402737.0,24223417.0,1353815100.0,4618308000.0
sh688138,清溢光电,2021-11-15,17.58,17.99,17.44,17.8,17.31,2553121.0,45380461.0,1392138000.0,4749040000.0
sh688138,清溢光电,2021-11-16,17.8,17.9,17.36,17.47,17.8,1589923.0,28057706.0,1366328700.0,4660996000.0
sh688138,清溢光电,2021-11-17,17.54,17.96,17.4,17.87,17.47,1388933.0,24624695.0,1397612700.0,4767716000.0
sh688138,清溢光电,2021-11-18,17.86,17.98,17.15,17.2,17.87,1662464.0,29050774.0,1345212000.0,4588960000.0
sh688138,清溢光电,2021-11-19,17.16,17.52,16.95,17.01,17.2,2192451.0,37713526.0,1330352100.0,4538268000.0
sh688138,清溢光电,2021-11-22,17.06,18.36,17.06,18.28,17.01,3856154.0,69671240.0,1490734000.0,4877104000.0
sh688138,清溢光电,2021-11-23,18.06,18.29,17.85,18.07,18.28,1765945.0,31882921.0,1473608500.0,4821076000.0
sh688138,清溢光电,2021-11-24,17.81,18.76,17.8,18.38,18.07,2503369.0,46135593.0,1498889000.0,4903784000.0
sh688138,清溢光电,2021-11-25,18.47,18.76,18.09,18.28,18.38,1789723.0,32957501.0,1490734000.0,4877104000.0
sh688138,清溢光电,2021-11-26,18.21,18.31,17.88,18.14,18.28,1515899.0,27421229.0,1479317000.0,4839752000.0
sh688138,清溢光电,2021-11-29,17.9,18.18,17.65,17.97,18.14,1239613.0,22210760.0,1465453500.0,4794396000.0
sh688138,清溢光电,2021-11-30,17.97,18.28,17.78,18.09,17.97,1289615.0,23288326.0,1475239500.0,4826412000.0
sh688138,清溢光电,2021-12-01,18.1,18.47,18.04,18.28,18.09,1368364.0,24993074.0,1490734000.0,4877104000.0
sh688138,清溢光电,2021-12-02,18.16,18.24,17.4,17.48,18.28,1399786.0,24845418.0,1425494000.0,4663664000.0
sh688138,清溢光电,2021-12-03,17.48,18.3,17.48,17.79,17.48,1293124.0,23182347.0,1450774500.0,4746372000.0
sh688138,清溢光电,2021-12-06,17.8,17.95,16.9,16.92,17.79,1487480.0,25575252.0,1379826000.0,4514256000.0
sh688138,清溢光电,2021-12-07,16.99,17.18,16.26,16.41,16.92,1913244.0,31626386.0,1338235500.0,4378188000.0
sh688138,清溢光电,2021-12-08,16.59,16.83,16.49,16.66,16.41,1059044.0,17663755.0,1358623000.0,4444888000.0
sh688138,清溢光电,2021-12-09,16.7,17.2,16.69,17.05,16.66,1288110.0,21913997.0,1390427500.0,4548940000.0
sh688138,清溢光电,2021-12-10,17.05,17.21,16.81,16.9,17.05,887758.0,15038207.0,1378195000.0,4508920000.0
sh688138,清溢光电,2021-12-13,16.9,17.17,16.7,17.03,16.9,1397924.0,23699363.0,1388796500.0,4543604000.0
sh688138,清溢光电,2021-12-14,16.83,17.15,16.83,17.0,17.03,602614.0,10259049.0,1386350000.0,4535600000.0
sh688138,清溢光电,2021-12-15,17.21,17.27,16.66,16.71,17.0,1300659.0,21963388.0,1362700500.0,4458228000.0
sh688138,清溢光电,2021-12-16,16.85,16.91,16.6,16.73,16.71,775607.0,12987422.0,1364331500.0,4463564000.0
sh688138,清溢光电,2021-12-17,16.77,16.88,16.26,16.29,16.73,1194248.0,19603309.0,1328449500.0,4346172000.0
sh688138,清溢光电,2021-12-20,16.29,16.39,15.89,15.91,16.29,949752.0,15251135.0,1297460500.0,4244788000.0
sh688138,清溢光电,2021-12-21,15.97,16.2,15.85,16.09,15.91,813931.0,13039250.0,1312139500.0,4292812000.0
sh688138,清溢光电,2021-12-22,16.14,16.37,16.08,16.19,16.09,784560.0,12752799.0,1320294500.0,4319492000.0
sh688138,清溢光电,2021-12-23,16.24,16.26,15.79,15.84,16.19,1069253.0,17016408.0,1291752000.0,4226112000.0
sh688138,清溢光电,2021-12-24,15.94,15.99,15.6,15.62,15.84,725622.0,11408905.0,1273811000.0,4167416000.0
sh688138,清溢光电,2021-12-27,15.68,15.75,15.31,15.43,15.62,1236201.0,19109426.0,1258316500.0,4116724000.0
sh688138,清溢光电,2021-12-28,15.55,15.83,15.42,15.72,15.43,782442.0,12253905.0,1281966000.0,4194096000.0
sh688138,清溢光电,2021-12-29,15.89,16.34,15.61,16.14,15.72,1944685.0,31084199.0,1316217000.0,4306152000.0
sh688138,清溢光电,2021-12-30,16.08,17.44,16.05,17.43,16.14,4846936.0,82657809.0,1421416500.0,4650324000.0
sh688138,清溢光电,2021-12-31,17.6,20.06,17.14,19.22,17.43,9874117.0,188504875.0,1567391000.0,5127896000.0
sh688138,清溢光电,2022-01-04,19.14,19.97,18.92,19.89,19.22,5873534.0,115326723.0,1622029500.0,5306652000.0
sh688138,清溢光电,2022-01-05,19.94,20.3,19.19,19.93,19.89,6386542.0,126364357.0,1625291500.0,5317324000.0
sh688138,清溢光电,2022-01-06,19.77,20.18,19.48,19.61,19.93,2329144.0,45935813.0,1599195500.0,5231948000.0
sh688138,清溢光电,2022-01-07,19.44,19.79,19.16,19.26,19.61,2330502.0,45177362.0,1570653000.0,5138568000.0
sh688138,清溢光电,2022-01-10,19.28,20.95,19.06,20.26,19.26,4484957.0,90837398.0,1652203000.0,5405368000.0
sh688138,清溢光电,2022-01-11,20.11,20.39,19.5,19.63,20.26,2181429.0,43221503.0,1600826500.0,5237284000.0
sh688138,清溢光电,2022-01-12,19.51,19.94,19.36,19.5,19.63,1673187.0,32851915.0,1590225000.0,5202600000.0
sh688138,清溢光电,2022-01-13,19.52,19.8,19.08,19.38,19.5,1779453.0,34569002.0,1580439000.0,5170584000.0
sh688138,清溢光电,2022-01-14,19.47,19.78,19.2,19.47,19.38,1556901.0,30289204.0,1587778500.0,5194596000.0
