数据由邢不行整理
股票代码,股票名称,交易日期,开盘价,最高价,最低价,收盘价,前收盘价,成交量,成交额,流通市值,总市值
sh688005,N容百,2019-07-22,42.58,68.13,35.12,49.53,26.62,32360091.0,1445109747.0,2017706928.51,21955940721.0
sh688005,容百科技,2019-07-23,40.75,44.85,39.49,41.7,49.53,12953054.0,551425444.0,1698735693.9,18485013690.0
sh688005,容百科技,2019-07-24,42.01,44.5,42.01,44.36,41.7,12081010.0,524283436.0,1807096292.12,19664153652.0
sh688005,容百科技,2019-07-25,45.5,51.5,45.5,48.92,44.36,18392838.0,887351359.0,1992857317.64,21685536444.0
sh688005,容百科技,2019-07-26,48.0,48.0,44.58,44.69,48.92,11251665.0,517046978.0,1820539524.23,19810437933.0
sh688005,容百科技,2019-07-29,45.55,48.31,45.55,47.85,44.69,10709178.0,505889574.0,1949268655.95,21211220745.0
sh688005,容百科技,2019-07-30,48.7,50.88,47.68,49.86,47.85,15659738.0,778140178.0,2031150160.62,22102225002.0
sh688005,容百科技,2019-07-31,50.0,51.5,48.46,51.2,49.86,14633757.0,737081088.0,2085737830.4,22696227840.0
sh688005,容百科技,2019-08-01,50.22,55.98,49.68,55.14,51.2,17684982.0,934293830.0,2246241874.38,24442773498.0
sh688005,容百科技,2019-08-02,53.5,61.99,53.0,58.37,55.14,20545235.0,1186744577.0,2377822600.79,25874586309.0
sh688005,容百科技,2019-08-05,58.38,67.2,56.0,67.2,58.37,19191095.0,1190760005.0,2737530902.4,29788799040.0
sh688005,容百科技,2019-08-06,65.0,69.46,57.0,59.0,67.2,21241229.0,1392985189.0,2403486953.0,26153856300.0
sh688005,容百科技,2019-08-07,61.2,63.44,57.02,61.7,59.0,13381198.0,805624818.0,2513477033.9,27350727690.0
sh688005,容百科技,2019-08-08,61.2,62.01,56.01,56.1,61.7,10863878.0,637292227.0,2285349458.7,24868327770.0
sh688005,容百科技,2019-08-09,56.99,56.99,52.29,53.12,56.1,9631082.0,519488485.0,2163952999.04,23547336384.0
sh688005,容百科技,2019-08-12,53.0,53.48,49.47,51.38,53.12,7751024.0,397087059.0,2093070502.46,22776019266.0
sh688005,容百科技,2019-08-13,51.5,53.31,51.0,53.3,51.38,7736282.0,404338897.0,2171285671.1,23627127810.0
sh688005,容百科技,2019-08-14,54.0,55.05,53.5,54.04,53.3,6924523.0,375990190.0,2201431100.68,23955159228.0
sh688005,容百科技,2019-08-15,52.0,54.97,51.62,54.95,54.04,5821282.0,313053649.0,2238501831.65,24358549215.0
sh688005,容百科技,2019-08-16,57.01,58.48,55.02,55.12,54.95,9239863.0,525279618.0,2245427133.04,24433907784.0
sh688005,容百科技,2019-08-19,54.6,55.5,53.01,54.51,55.12,6692544.0,362406321.0,2220577522.17,24163503507.0
sh688005,容百科技,2019-08-20,53.65,54.8,53.29,53.35,54.51,4302186.0,232027683.0,2173322524.45,23649292095.0
sh688005,容百科技,2019-08-21,53.35,53.66,48.7,49.07,53.35,7578516.0,382137387.0,1998967877.69,21752029299.0
sh688005,容百科技,2019-08-22,49.0,49.74,48.0,48.59,49.07,3945875.0,192373306.0,1979414085.53,21539252163.0
sh688005,容百科技,2019-08-23,48.91,49.0,44.4,45.45,48.59,7289028.0,339311579.0,1851499695.15,20147335065.0
sh688005,容百科技,2019-08-26,45.71,46.49,45.0,45.95,45.45,3527813.0,162079158.0,1871868228.65,20368977915.0
sh688005,容百科技,2019-08-27,46.28,46.5,44.85,46.11,45.95,3787401.0,172922100.0,1878386159.37,20439903627.0
sh688005,容百科技,2019-08-28,45.9,46.38,44.83,44.85,46.11,3431920.0,156194203.0,1827057454.95,19881363645.0
sh688005,容百科技,2019-08-29,44.85,45.14,43.02,44.82,44.85,4515788.0,199012540.0,1825835342.94,19868065074.0
sh688005,容百科技,2019-08-30,45.08,45.29,44.32,44.57,44.82,3182161.0,142750196.0,1815651076.19,19757243649.0
sh688005,容百科技,2019-09-02,45.14,45.14,44.5,44.98,44.57,2316238.0,103929663.0,1832353273.66,19938990786.0
sh688005,容百科技,2019-09-03,44.85,48.43,44.7,47.96,44.98,6891681.0,325414261.0,1953749733.32,21259982172.0
sh688005,容百科技,2019-09-04,47.89,48.72,46.87,47.23,47.96,4180786.0,199431756.0,1924011674.41,20936383611.0
sh688005,容百科技,2019-09-05,47.81,47.99,47.01,47.41,47.23,3113929.0,147932962.0,1931344346.47,21016175037.0
sh688005,容百科技,2019-09-06,47.41,47.66,45.27,45.4,47.41,4038241.0,186860421.0,1849462841.8,20125170780.0
sh688005,容百科技,2019-09-09,45.41,45.9,45.14,45.6,45.4,2513854.0,114419771.0,1857610255.2,20213827920.0
sh688005,容百科技,2019-09-10,45.72,47.08,45.69,45.87,45.6,2800876.0,129733406.0,1868609263.29,20333515059.0
sh688005,容百科技,2019-09-11,45.92,46.3,45.05,45.29,45.87,1889996.0,86254087.0,1844981764.43,20076409353.0
sh688005,容百科技,2019-09-12,45.7,45.72,44.0,44.1,45.29,2746220.0,121971844.0,1796504654.7,19548899370.0
sh688005,容百科技,2019-09-16,44.5,44.73,44.1,44.36,44.1,1420954.0,62991190.0,1807096292.12,19664153652.0
sh688005,容百科技,2019-09-17,44.45,44.58,43.13,43.34,44.36,1930293.0,84601219.0,1765544483.78,19212002238.0
sh688005,容百科技,2019-09-18,43.4,43.8,41.65,42.33,43.34,2891182.0,122087435.0,1724400046.11,18764283681.0
sh688005,容百科技,2019-09-19,42.5,44.17,42.01,43.2,42.33,2958127.0,127882203.0,1759841294.4,19149942240.0
sh688005,容百科技,2019-09-20,43.2,43.53,42.6,43.12,43.2,1516580.0,65263979.0,1756582329.04,19114479384.0
sh688005,容百科技,2019-09-23,43.22,43.6,42.27,42.51,43.12,2171411.0,93130079.0,1731732718.17,18844075107.0
sh688005,容百科技,2019-09-24,42.5,43.85,42.25,43.52,42.51,3228391.0,139863380.0,1772877155.84,19291793664.0
sh688005,容百科技,2019-09-25,43.23,43.78,42.07,42.15,43.52,2553565.0,109307763.0,1717067374.05,18684492255.0
sh688005,容百科技,2019-09-26,42.12,42.65,38.6,38.6,42.15,4010797.0,159665517.0,1572450786.2,17110828020.0
sh688005,容百科技,2019-09-27,38.69,39.68,38.38,39.13,38.6,2249515.0,88000720.0,1594041431.71,17345769441.0
sh688005,容百科技,2019-09-30,38.87,38.9,36.2,36.68,39.13,2859124.0,106554318.0,1494235617.56,16259719476.0
sh688005,容百科技,2019-10-08,36.81,36.99,35.62,35.9,36.68,1619547.0,58441902.0,1462460705.3,15913956630.0
sh688005,容百科技,2019-10-09,35.9,36.59,35.6,36.39,35.9,1285212.0,46732953.0,1482421868.13,16131166623.0
sh688005,容百科技,2019-10-10,37.37,38.8,37.37,37.6,36.39,2873302.0,109302568.0,1531713719.2,16667542320.0
sh688005,容百科技,2019-10-11,37.2,37.45,36.8,36.96,37.6,1927925.0,71523552.0,1505641996.32,16383839472.0
sh688005,容百科技,2019-10-14,37.7,37.75,36.99,37.49,36.96,1551047.0,58061316.0,1527232641.83,16618780893.0
sh688005,容百科技,2019-10-15,37.48,37.78,36.71,36.72,37.49,1374641.0,51190926.0,1495865100.24,16277450904.0
sh688005,容百科技,2019-10-16,36.94,37.04,35.55,35.62,36.72,1753863.0,63350965.0,1451054326.54,15789836634.0
sh688005,容百科技,2019-10-17,35.62,35.95,35.1,35.33,35.62,1401794.0,49821245.0,1439240577.11,15661283781.0
sh688005,容百科技,2019-10-18,35.45,36.7,35.34,35.89,35.33,2113792.0,76459698.0,1462053334.63,15909523773.0
sh688005,容百科技,2019-10-21,35.98,35.98,34.1,34.55,35.89,1866350.0,64541354.0,1407465664.85,15315520935.0
sh688005,容百科技,2019-10-22,34.66,35.0,34.5,34.9,34.55,1121203.0,38967683.0,1421723638.3,15470670930.0
sh688005,容百科技,2019-10-23,35.05,37.51,34.8,36.8,34.9,3365566.0,121775071.0,1499124065.6,16312913760.0
sh688005,容百科技,2019-10-24,36.42,37.36,36.25,36.5,36.8,2562166.0,94531550.0,1486902945.5,16179928050.0
sh688005,容百科技,2019-10-25,36.5,36.86,35.51,35.78,36.5,1756816.0,63371350.0,1457572257.26,15860762346.0
sh688005,容百科技,2019-10-28,35.81,36.75,35.51,36.43,35.78,1842472.0,66690962.0,1484051350.81,16148898051.0
sh688005,容百科技,2019-10-29,36.41,36.89,35.5,35.5,36.43,2044753.0,74360141.0,1446165878.5,15736642350.0
sh688005,容百科技,2019-10-30,35.43,35.71,34.39,34.5,35.5,1814237.0,63338450.0,1405428811.5,15293356650.0
sh688005,容百科技,2019-10-31,34.55,34.89,32.11,32.29,34.5,2518874.0,83083037.0,1315399893.43,14313695253.0
sh688005,容百科技,2019-11-01,32.5,32.66,32.01,32.35,32.29,1128631.0,36527313.0,1317844117.45,14340292395.0
sh688005,容百科技,2019-11-04,32.45,33.18,32.41,32.49,32.35,1020703.0,33489067.0,1323547306.83,14402352393.0
sh688005,容百科技,2019-11-05,32.43,32.55,30.31,30.93,32.49,2621694.0,81309412.0,1259997482.31,13710826701.0
sh688005,容百科技,2019-11-07,26.5,28.84,25.6,27.89,30.93,6968770.0,189972424.0,1136156798.63,12363238173.0
sh688005,容百科技,2019-11-08,26.73,27.76,26.7,26.96,27.89,3851083.0,104565452.0,1098271326.32,11950982472.0
sh688005,容百科技,2019-11-11,26.79,26.79,25.21,25.32,26.96,3014948.0,77777732.0,1031462536.44,11223993924.0
sh688005,容百科技,2019-11-12,25.4,25.7,24.63,24.87,25.32,2361303.0,59251760.0,1013130856.29,11024515359.0
sh688005,容百科技,2019-11-13,25.0,25.5,25.0,25.16,24.87,1775792.0,44856046.0,1024944605.72,11153068212.0
sh688005,容百科技,2019-11-14,25.17,25.72,24.69,25.39,25.16,2368667.0,59980278.0,1034314131.13,11255023923.0
sh688005,容百科技,2019-11-15,25.3,25.7,24.89,25.0,25.39,1798766.0,45586377.0,1018426675.0,11082142500.0
sh688005,容百科技,2019-11-18,24.0,24.47,23.66,23.92,25.0,3044147.0,72686568.0,974430642.64,10603393944.0
sh688005,容百科技,2019-11-19,23.92,24.33,23.73,24.33,23.92,1995252.0,48189415.0,991132840.11,10785141081.0
sh688005,容百科技,2019-11-20,23.95,24.08,23.01,23.21,24.33,4247156.0,99424782.0,945507325.07,10288661097.0
sh688005,容百科技,2019-11-21,23.14,23.22,22.54,22.58,23.21,2387002.0,54409481.0,919842972.86,10009391106.0
sh688005,容百科技,2019-11-22,22.57,23.2,22.5,22.63,22.58,2341613.0,53488974.0,921879826.21,10031555391.0
sh688005,容百科技,2019-11-25,22.56,22.57,21.82,22.16,22.63,2094982.0,46396940.0,902733404.72,9823211112.0
sh688005,容百科技,2019-11-26,22.1,23.3,21.93,22.96,22.16,2830148.0,64009810.0,935323058.32,10177839672.0
sh688005,容百科技,2019-11-27,22.73,24.26,22.6,23.63,22.96,4410080.0,104073008.0,962616893.21,10474841091.0
sh688005,容百科技,2019-11-28,23.34,23.98,23.01,23.28,23.63,2955632.0,69346531.0,948358919.76,10319691096.0
sh688005,容百科技,2019-11-29,23.18,23.67,23.18,23.51,23.28,2352679.0,55192772.0,957728445.17,10421646807.0
sh688005,容百科技,2019-12-02,23.85,23.85,22.17,22.31,23.51,2719351.0,62714009.0,908843964.77,9889703967.0
sh688005,容百科技,2019-12-03,22.32,22.52,21.88,22.52,22.31,1878159.0,41692035.0,917398748.84,9982793964.0
sh688005,容百科技,2019-12-04,22.39,22.94,22.13,22.7,22.52,1541663.0,34951515.0,924731420.9,10062585390.0
sh688005,容百科技,2019-12-05,22.77,23.33,22.37,23.3,22.7,2500129.0,57192764.0,949173661.1,10328556810.0
sh688005,容百科技,2019-12-06,23.1,23.86,23.06,23.56,23.3,2959158.0,69786915.0,959765298.52,10443811092.0
sh688005,容百科技,2019-12-09,23.87,24.94,23.72,24.57,23.56,4184373.0,102298454.0,1000909736.19,10891529649.0
sh688005,容百科技,2019-12-10,24.56,29.22,24.4,29.2,24.57,10270725.0,283652148.0,1189522356.4,12943942440.0
sh688005,容百科技,2019-12-11,29.21,31.12,27.96,28.1,29.2,8570233.0,252149517.0,1144711582.7,12456328170.0
sh688005,容百科技,2019-12-12,28.26,28.87,27.62,27.66,28.1,4251759.0,119594597.0,1126787273.22,12261282462.0
sh688005,容百科技,2019-12-13,28.11,28.2,26.0,26.88,27.66,4790843.0,128430603.0,1095012360.96,11915519616.0
sh688005,容百科技,2019-12-16,26.02,27.18,26.0,27.15,26.88,3839201.0,102601655.0,1106011369.05,12035206755.0
sh688005,容百科技,2019-12-17,26.69,29.57,26.65,28.71,27.15,5792535.0,166328760.0,1169561193.57,12726732447.0
sh688005,容百科技,2019-12-18,28.42,30.28,28.41,29.28,28.71,5456992.0,160767170.0,1192781321.76,12979405296.0
sh688005,容百科技,2019-12-19,29.54,29.54,28.31,28.61,29.28,3318679.0,95526756.0,1165487486.87,12682403877.0
sh688005,容百科技,2019-12-20,28.5,29.39,28.5,28.52,28.61,2516186.0,72726537.0,1161821150.84,12642508164.0
sh688005,容百科技,2019-12-23,28.31,28.79,26.67,26.78,28.52,2812990.0,77036214.0,1090938654.26,11871191046.0
sh688005,容百科技,2019-12-24,26.75,28.79,26.75,28.73,26.78,3866500.0,108316964.0,1170375934.91,12735598161.0
sh688005,容百科技,2019-12-25,28.96,30.89,28.96,30.29,28.73,8029364.0,242616564.0,1233925759.43,13427123853.0
sh688005,容百科技,2019-12-26,30.64,31.5,30.0,30.89,30.29,4985593.0,153993384.0,1258367999.63,13693095273.0
sh688005,容百科技,2019-12-27,30.66,34.5,30.66,32.86,30.89,8087591.0,267700192.0,1338620021.62,14566368102.0
sh688005,容百科技,2019-12-30,32.95,32.95,31.02,32.17,32.86,4076344.0,131029893.0,1310511445.39,14260500969.0
sh688005,容百科技,2019-12-31,31.97,34.42,31.91,33.27,32.17,4775424.0,159734667.0,1355322219.09,14748115239.0
sh688005,容百科技,2020-01-02,33.39,34.14,32.8,33.68,33.27,3855016.0,129128983.0,1372024416.56,14929862376.0
sh688005,容百科技,2020-01-03,33.15,33.68,32.3,32.67,33.68,4501751.0,147481347.0,1330879978.89,14482143819.0
sh688005,容百科技,2020-01-06,32.45,34.35,32.18,33.91,32.67,5004237.0,168418243.0,1381393941.97,15031818087.0
sh688005,容百科技,2020-01-07,33.88,34.1,32.81,33.59,33.91,4361715.0,145212554.0,1368358080.53,14889966663.0
sh688005,容百科技,2020-01-08,33.21,34.34,33.06,33.22,33.59,4200941.0,141645886.0,1353285365.74,14725950954.0
sh688005,容百科技,2020-01-09,33.83,33.98,33.31,33.63,33.22,2970003.0,99813586.0,1369987563.21,14907698091.0
sh688005,容百科技,2020-01-10,33.68,33.9,32.88,33.0,33.63,3051541.0,101599175.0,1344323211.0,14628428100.0
sh688005,容百科技,2020-01-13,32.91,33.48,31.7,32.83,33.0,3832317.0,124139831.0,1337397909.61,14553069531.0
sh688005,容百科技,2020-01-14,33.28,37.18,33.0,36.66,32.83,9140588.0,320701917.0,1493420876.22,16250853762.0
sh688005,容百科技,2020-01-15,35.85,36.4,34.66,34.82,36.66,6311735.0,222917632.0,1418464672.94,15435208074.0
sh688005,容百科技,2020-01-16,34.72,36.07,34.59,35.29,34.82,4399705.0,156261645.0,1437611094.43,15643552353.0
sh688005,容百科技,2020-01-17,35.33,40.0,35.33,38.19,35.29,9104681.0,340432488.0,1555748588.73,16929080883.0
sh688005,容百科技,2020-01-20,38.3,38.93,35.02,37.45,38.19,6139292.0,228096171.0,1525603159.15,16601049465.0
sh688005,容百科技,2020-01-21,37.0,38.01,35.7,35.78,37.45,3941316.0,144522243.0,1457572257.26,15860762346.0
sh688005,容百科技,2020-01-22,34.81,37.17,32.01,35.8,35.78,6863557.0,237341989.0,1546560000.0,15869628060.0
sh688005,容百科技,2020-01-23,35.2,37.38,33.66,34.04,35.8,5506255.0,196692637.0,1470528000.0,15089445228.0
sh688005,容百科技,2020-02-03,27.23,29.65,27.23,27.23,34.04,6036634.0,168605677.0,1176336000.0,12070669611.0
sh688005,容百科技,2020-02-04,29.0,32.64,28.52,32.02,27.23,7083652.0,217604235.0,1383264000.0,14194008114.0
sh688005,容百科技,2020-02-05,34.06,37.98,33.0,36.65,32.02,9130756.0,329589529.0,1583280000.0,16246420905.0
sh688005,容百科技,2020-02-06,35.0,38.82,34.3,37.89,36.65,8518195.0,313798171.0,1636848000.0,16796095173.0
sh688005,容百科技,2020-02-07,37.0,39.9,36.75,39.1,37.89,7557613.0,289744439.0,1689120000.0,17332470870.0
sh688005,容百科技,2020-02-10,38.89,46.92,38.12,46.92,39.1,13904042.0,616012406.0,2026944000.0,20798965044.0
sh688005,容百科技,2020-02-11,47.77,54.88,43.5,46.02,46.92,13793250.0,652998047.0,1988064000.0,20400007914.0
sh688005,容百科技,2020-02-12,46.38,53.45,45.03,51.91,46.02,11587295.0,585252067.0,2242512000.0,23010960687.0
sh688005,容百科技,2020-02-13,52.0,56.47,50.5,51.47,51.91,11525319.0,615640872.0,2223504000.0,22815914979.0
sh688005,容百科技,2020-02-14,50.98,54.59,46.1,49.02,51.47,10508778.0,527106551.0,2117664000.0,21729865014.0
sh688005,容百科技,2020-02-17,47.99,50.89,47.66,50.15,49.02,7279451.0,360437142.0,2166480000.0,22230777855.0
sh688005,容百科技,2020-02-18,49.0,50.49,47.77,49.02,50.15,7288426.0,356892179.0,2117664000.0,21729865014.0
sh688005,容百科技,2020-02-19,51.5,53.18,47.8,48.14,49.02,9352115.0,474300811.0,2079648000.0,21339773598.0
sh688005,容百科技,2020-02-20,46.93,47.85,44.0,44.97,48.14,9145150.0,416228432.0,1942704000.0,19934557929.0
sh688005,容百科技,2020-02-21,43.65,45.49,43.09,44.01,44.97,6180235.0,272416356.0,1901232000.0,19509003657.0
sh688005,容百科技,2020-02-24,44.01,45.55,43.83,44.26,44.01,3888320.0,172476706.0,1912032000.0,19619825082.0
sh688005,容百科技,2020-02-25,42.0,47.19,41.1,46.35,44.26,7997295.0,354987011.0,2002320000.0,20546292195.0
sh688005,容百科技,2020-02-26,44.91,45.98,42.19,42.61,46.35,5012842.0,221577276.0,1840752000.0,18888403677.0
sh688005,容百科技,2020-02-27,43.18,43.97,41.06,41.08,42.61,3574723.0,151306649.0,1774656000.0,18210176556.0
sh688005,容百科技,2020-02-28,38.8,39.95,35.7,36.5,41.08,5192593.0,196171067.0,1576800000.0,16179928050.0
sh688005,容百科技,2020-03-02,37.9,39.5,37.13,39.08,36.5,3349839.0,128965872.0,1688256000.0,17323605156.0
sh688005,容百科技,2020-03-03,40.5,42.71,39.0,39.59,39.08,5368252.0,220015515.0,1710288000.0,17549680863.0
sh688005,容百科技,2020-03-04,39.05,40.61,38.05,39.38,39.59,2917020.0,114567382.0,1701216000.0,17456590866.0
sh688005,容百科技,2020-03-05,39.98,40.41,38.49,39.13,39.38,3301327.0,129798570.0,1690416000.0,17345769441.0
sh688005,容百科技,2020-03-06,38.6,39.98,38.22,39.07,39.13,2618750.0,102544161.0,1687824000.0,17319172299.0
sh688005,容百科技,2020-03-09,38.05,39.99,37.5,37.65,39.07,3313159.0,128684687.0,1626480000.0,16689706605.0
sh688005,容百科技,2020-03-10,36.2,39.26,36.02,39.25,37.65,4132598.0,156399517.0,1695600000.0,17398963725.0
sh688005,容百科技,2020-03-11,39.6,40.96,38.69,39.34,39.25,3991409.0,158908654.0,1699488000.0,17438859438.0
sh688005,容百科技,2020-03-12,38.75,38.77,37.37,37.77,39.34,2573518.0,97737364.0,1631664000.0,16742900889.0
sh688005,容百科技,2020-03-13,35.19,36.95,34.7,36.2,37.77,3992743.0,143907815.0,1563840000.0,16046942340.0
sh688005,容百科技,2020-03-16,36.9,36.9,32.2,33.16,36.2,5012443.0,172534332.0,1432512000.0,14699353812.0
sh688005,容百科技,2020-03-17,33.35,33.96,30.55,32.38,33.16,3222071.0,103326115.0,1398816000.0,14353590966.0
sh688005,容百科技,2020-03-18,32.54,33.39,30.77,30.85,32.38,3350924.0,107647971.0,1332720000.0,13675363845.0
sh688005,容百科技,2020-03-19,31.16,31.7,29.38,30.51,30.85,3303147.0,100629322.0,1318032000.0,13524646707.0
sh688005,容百科技,2020-03-20,31.44,32.43,30.82,31.43,30.51,3210787.0,101376809.0,1357776000.0,13932469551.0
sh688005,容百科技,2020-03-23,30.0,30.78,28.87,28.99,31.43,2913500.0,86771768.0,1252368000.0,12850852443.0
sh688005,容百科技,2020-03-24,29.86,30.29,28.87,30.21,28.99,3251573.0,96942010.0,1305072000.0,13391660997.0
sh688005,容百科技,2020-03-25,31.54,32.91,31.54,32.0,30.21,4518378.0,145616376.0,1382400000.0,14185142400.0
sh688005,容百科技,2020-03-26,31.5,32.44,30.75,31.13,32.0,2927262.0,92251202.0,1344816000.0,13799483841.0
sh688005,容百科技,2020-03-27,31.7,31.99,30.46,30.65,31.13,1843392.0,57275435.0,1324080000.0,13586706705.0
sh688005,容百科技,2020-03-30,29.26,30.48,28.9,30.37,30.65,2863443.0,84546867.0,1311984000.0,13462586709.0
sh688005,容百科技,2020-03-31,30.51,30.82,29.58,29.62,30.37,1959070.0,58893889.0,1279584000.0,13130122434.0
sh688005,容百科技,2020-04-01,30.0,31.63,29.81,30.3,29.62,3832183.0,117912500.0,1308960000.0,13431556710.0
sh688005,容百科技,2020-04-02,29.9,31.35,29.58,31.31,30.3,3041708.0,93177694.0,1352592000.0,13879275267.0
sh688005,容百科技,2020-04-03,31.2,31.99,30.6,30.75,31.31,2448706.0,76209556.0,1328400000.0,13631035275.0
sh688005,容百科技,2020-04-07,31.71,31.84,31.1,31.44,30.75,2435110.0,76601568.0,1358208000.0,13936902408.0
sh688005,容百科技,2020-04-08,31.2,32.38,31.2,31.74,31.44,2881143.0,91433050.0,1371168000.0,14069888118.0
sh688005,容百科技,2020-04-09,32.02,32.32,31.46,31.75,31.74,1699051.0,54017834.0,1371600000.0,14074320975.0
sh688005,容百科技,2020-04-10,31.66,31.99,29.81,30.19,31.75,2408444.0,73696485.0,1304208000.0,13382795283.0
sh688005,容百科技,2020-04-13,27.7,28.02,25.11,27.09,30.19,4289894.0,114843675.0,1170288000.0,12008609613.0
sh688005,容百科技,2020-04-14,27.09,28.5,27.02,28.43,27.09,2895499.0,81092490.0,1228176000.0,12602612451.0
sh688005,容百科技,2020-04-15,28.56,29.88,28.5,28.73,28.43,2603694.0,76043923.0,1241136000.0,12735598161.0
sh688005,容百科技,2020-04-16,28.6,29.08,27.84,27.9,28.73,1896958.0,53309620.0,1205280000.0,12367671030.0
sh688005,容百科技,2020-04-17,28.3,28.59,27.8,27.98,27.9,1870896.0,52789857.0,1208736000.0,12403133886.0
sh688005,容百科技,2020-04-20,28.3,28.39,27.65,28.16,27.98,1268546.0,35475078.0,1216512000.0,12482925312.0
sh688005,容百科技,2020-04-21,27.91,28.08,27.3,27.71,28.16,1306813.0,36050821.0,1197072000.0,12283446747.0
sh688005,容百科技,2020-04-22,27.2,28.05,27.1,27.77,27.71,1125808.0,31260250.0,1199664000.0,12310043889.0
sh688005,容百科技,2020-04-23,27.99,29.38,27.85,28.58,27.77,2757679.0,79071537.0,1234656000.0,12669105306.0
sh688005,容百科技,2020-04-24,28.5,29.15,28.15,28.76,28.58,2701712.0,77443922.0,1242432000.0,12748896732.0
sh688005,容百科技,2020-04-27,28.75,28.76,27.6,27.65,28.76,1735984.0,48727471.0,1194480000.0,12256849605.0
sh688005,容百科技,2020-04-28,27.66,27.99,24.02,26.38,27.65,2342250.0,61431763.0,1139616000.0,11693876766.0
sh688005,容百科技,2020-04-29,26.0,27.45,26.0,26.6,26.38,1479843.0,39762806.0,1149120000.0,11791399620.0
sh688005,容百科技,2020-04-30,27.11,29.9,27.0,29.07,26.6,3763036.0,108119256.0,1255824000.0,12886315299.0
sh688005,容百科技,2020-05-06,28.99,32.86,28.91,32.86,29.07,5278685.0,163998562.0,1419552000.0,14566368102.0
sh688005,容百科技,2020-05-07,32.54,33.33,31.13,31.59,32.86,3969636.0,127184745.0,1364688000.0,14003395263.0
sh688005,容百科技,2020-05-08,32.12,33.3,31.8,32.44,31.59,3494886.0,113944916.0,1401408000.0,14380188108.0
sh688005,容百科技,2020-05-11,33.3,33.98,31.95,32.57,32.44,3744621.0,124481792.0,1407024000.0,14437815249.0
sh688005,容百科技,2020-05-12,32.35,33.0,30.85,32.11,32.57,2843859.0,89850167.0,1387152000.0,14233903827.0
sh688005,容百科技,2020-05-13,31.5,32.6,31.42,32.02,32.11,2147470.0,68829029.0,1383264000.0,14194008114.0
sh688005,容百科技,2020-05-14,31.77,32.4,31.28,31.58,32.02,2015489.0,64192150.0,1364256000.0,13998962406.0
sh688005,容百科技,2020-05-15,31.7,33.19,30.97,32.52,31.58,4089525.0,131865269.0,1404864000.0,14415650964.0
sh688005,容百科技,2020-05-18,31.45,32.2,31.1,31.2,32.52,2988559.0,94222392.0,1347840000.0,13830513840.0
sh688005,容百科技,2020-05-19,31.41,31.89,31.2,31.64,31.2,1972333.0,62251210.0,1366848000.0,14025559548.0
sh688005,容百科技,2020-05-20,32.11,36.64,32.11,35.0,31.64,7894559.0,275265135.0,1512000000.0,15514999500.0
sh688005,容百科技,2020-05-21,34.0,35.49,33.01,33.1,35.0,4949744.0,167887488.0,1429920000.0,14672756670.0
sh688005,容百科技,2020-05-22,33.4,33.85,32.61,33.26,33.1,3690147.0,123372950.0,1436832000.0,14743682382.0
sh688005,容百科技,2020-05-25,33.5,34.78,33.2,33.91,33.26,3376590.0,114856775.0,1464912000.0,15031818087.0
sh688005,容百科技,2020-05-26,34.25,36.64,34.04,36.49,33.91,5539931.0,197964398.0,1576368000.0,16175495193.0
sh688005,容百科技,2020-05-27,36.01,39.63,35.82,37.0,36.49,7144740.0,270836055.0,1598400000.0,16401570900.0
sh688005,容百科技,2020-05-28,37.28,37.4,35.26,36.5,37.0,4451649.0,161869500.0,1576800000.0,16179928050.0
sh688005,容百科技,2020-05-29,38.11,38.8,36.5,36.7,36.5,3952225.0,147855314.0,1585440000.0,16268585190.0
sh688005,容百科技,2020-06-01,36.64,38.9,36.3,38.01,36.7,4769060.0,179294315.0,1642032000.0,16849289457.0
sh688005,容百科技,2020-06-02,38.39,38.78,36.5,37.09,38.01,4206097.0,156858167.0,1602288000.0,16441466613.0
sh688005,容百科技,2020-06-03,36.21,37.39,36.02,36.14,37.09,2995298.0,109051092.0,1561248000.0,16020345198.0
sh688005,容百科技,2020-06-04,36.21,38.77,36.21,37.45,36.14,4745621.0,178933475.0,1617840000.0,16601049465.0
sh688005,容百科技,2020-06-05,37.01,37.42,35.61,35.88,37.45,3527781.0,127680813.0,1550016000.0,15905090916.0
sh688005,容百科技,2020-06-08,36.47,36.48,35.03,35.28,35.88,2286355.0,81439636.0,1524096000.0,15639119496.0
sh688005,容百科技,2020-06-09,35.94,36.26,35.25,35.56,35.28,1594807.0,56903734.0,1536192000.0,15763239492.0
sh688005,容百科技,2020-06-10,35.88,35.88,34.4,34.58,35.56,2097978.0,73123955.0,1493856000.0,15328819506.0
sh688005,容百科技,2020-06-11,35.25,36.26,34.81,35.6,34.58,3120885.0,111180385.0,1537920000.0,15780970920.0
sh688005,容百科技,2020-06-12,34.7,34.94,33.7,34.75,35.6,2109853.0,72583796.0,1501200000.0,15404178075.0
sh688005,容百科技,2020-06-15,34.01,34.74,33.01,33.12,34.75,2638807.0,88874422.0,1430784000.0,14681622384.0
sh688005,容百科技,2020-06-16,33.5,34.5,33.22,34.23,33.12,2236174.0,75751898.0,1478736000.0,15173669511.0
sh688005,容百科技,2020-06-17,34.5,34.5,33.58,34.2,34.23,1871105.0,63674151.0,1477440000.0,15160370940.0
sh688005,容百科技,2020-06-18,34.2,34.33,33.72,34.07,34.2,1280884.0,43582828.0,1471824000.0,15102743799.0
sh688005,容百科技,2020-06-19,34.15,35.69,34.13,35.35,34.07,3017119.0,106512483.0,1527120000.0,15670149495.000004
sh688005,容百科技,2020-06-22,35.64,36.68,35.35,35.5,35.35,2567649.0,92183297.0,1533600000.0,15736642350.000004
sh688005,容百科技,2020-06-23,35.0,36.18,34.75,36.0,35.5,2446458.0,87099750.0,1555200000.0,15958285200.0
sh688005,容百科技,2020-06-24,35.9,36.49,35.39,36.43,36.0,2410766.0,86858547.0,1573776000.0,16148898051.0
sh688005,容百科技,2020-06-29,36.2,36.49,34.83,34.96,36.43,1573943.0,55937490.0,1510272000.0,15497268072.0
sh688005,XD容百科,2020-06-30,34.87,35.75,34.81,34.96,34.87,1683808.0,59428671.0,1510272000.0,15497268072.0
sh688005,容百科技,2020-07-01,35.06,36.2,34.7,35.28,34.96,1860635.0,66179831.0,1524096000.0,15639119496.0
sh688005,容百科技,2020-07-02,35.53,35.6,34.91,35.25,35.28,1623541.0,57029044.0,1522800000.0,15625820925.0
sh688005,容百科技,2020-07-03,35.26,36.6,35.26,36.01,35.25,2712120.0,98304485.0,1555632000.0,15962718057.0
sh688005,容百科技,2020-07-06,35.8,38.38,35.8,38.02,36.01,4409283.0,163865633.0,1642464000.0,16853722314.0
sh688005,容百科技,2020-07-07,38.95,43.62,38.95,42.04,38.02,7388924.0,309065912.0,1816128000.0,18635730828.0
sh688005,容百科技,2020-07-08,42.0,42.58,40.89,42.28,42.04,4234116.0,177098872.0,1826496000.0,18742119396.0
sh688005,容百科技,2020-07-09,42.65,43.65,41.76,43.37,42.28,5015806.0,214774487.0,1873584000.0,19225300809.0
sh688005,容百科技,2020-07-10,43.06,43.28,41.0,41.09,43.37,4280949.0,179708960.0,1775088000.0,18214609413.0
sh688005,容百科技,2020-07-13,40.8,41.76,39.26,41.55,41.09,5265552.0,215071382.0,1794960000.0,18418520835.0
sh688005,容百科技,2020-07-14,41.56,41.66,39.5,40.39,41.55,3818097.0,154728025.0,1744848000.0,17904309423.0
sh688005,容百科技,2020-07-15,40.38,41.2,38.5,38.7,40.39,3554707.0,142654350.0,1671840000.0,17155156590.0
sh688005,容百科技,2020-07-16,38.68,39.38,34.58,34.83,38.7,4668481.0,170364245.0,1504656000.0,15439640931.0
sh688005,容百科技,2020-07-17,34.56,35.48,32.5,32.52,34.83,4625232.0,155193410.0,1404864000.0,14415650964.0
sh688005,容百科技,2020-07-20,32.98,33.35,31.68,32.97,32.52,2797568.0,91005249.0,1424304000.0,14615129529.0
sh688005,容百科技,2020-07-21,32.97,33.89,32.72,33.8,32.97,2838502.0,95086417.0,1460160000.0,14983056660.0
sh688005,容百科技,2020-07-22,32.11,32.98,32.01,32.62,33.8,4885386.0,159348936.0,8938215986.0,14459979534.0
sh688005,容百科技,2020-07-23,32.3,32.5,30.51,31.01,32.62,4191217.0,131457664.0,8497059403.0,13746289557.0
sh688005,容百科技,2020-07-24,29.69,30.29,28.03,28.46,31.01,5716111.0,166664945.0,7798333138.0,12615911022.0
sh688005,容百科技,2020-07-27,28.46,29.0,27.5,27.74,28.46,2565842.0,71832655.0,7601045722.000001,12296745318.0
sh688005,容百科技,2020-07-28,28.09,28.57,27.54,27.88,27.74,2616592.0,73366212.0,7639407164.0,12358805316.000002
sh688005,容百科技,2020-07-29,27.56,29.27,27.56,29.27,27.88,6331455.0,181619114.0,8020281481.0,12974972438.999998
sh688005,容百科技,2020-07-30,29.5,29.77,28.34,28.52,29.27,4455692.0,128699819.0,7814773756.0,12642508163.999998
sh688005,容百科技,2020-07-31,28.4,28.97,28.31,28.75,28.52,3550805.0,101871420.0,7877796125.0,12744463875.0
sh688005,容百科技,2020-08-03,28.75,31.79,28.75,31.2,28.75,8199038.0,249269311.0,8549121360.000001,13830513840.0
sh688005,容百科技,2020-08-04,31.0,31.17,30.22,30.43,31.2,4374293.0,134504886.0,8338133429.0,13489183851.0
sh688005,容百科技,2020-08-05,30.45,31.42,30.02,31.35,30.43,4336446.0,133687307.0,8590222905.0,13897006695.0
sh688005,容百科技,2020-08-06,31.39,31.5,30.4,31.27,31.35,3543049.0,109902034.0,8568302081.0,13861543839.0
sh688005,容百科技,2020-08-07,31.0,31.0,29.88,30.26,31.27,3126093.0,94959887.0,8291551678.000001,13413825282.0
sh688005,容百科技,2020-08-10,30.0,30.81,29.84,30.36,30.26,2249159.0,68298555.0,8318952708.000001,13458153851.999998
sh688005,容百科技,2020-08-11,30.36,30.45,29.03,29.12,30.36,2599763.0,77613391.0,7979179936.0,12908479583.999998
sh688005,容百科技,2020-08-12,29.55,30.43,28.4,30.4,29.12,3228291.0,93890341.0,8329913120.0,13475885280.0
sh688005,容百科技,2020-08-13,30.8,30.99,29.7,29.84,30.4,3050475.0,92106412.0,8176467352.0,13227645288.0
sh688005,容百科技,2020-08-14,29.68,29.97,29.03,29.58,29.84,2081664.0,61336079.0,8105224674.0,13112391006.0
sh688005,容百科技,2020-08-17,29.59,30.1,29.34,29.92,29.58,2560816.0,76285872.0,8198388175.999999,13263108144.0
sh688005,容百科技,2020-08-18,30.0,30.28,29.63,29.8,29.92,2336570.0,69914134.0,8165506940.0,13209913860.0
sh688005,容百科技,2020-08-19,29.9,29.98,28.51,28.72,29.8,3284704.0,95568397.0,7869575816.0,12731165304.0
sh688005,容百科技,2020-08-20,28.6,29.75,28.11,29.5,28.72,3826557.0,112508205.0,8083303850.0,13076928150.0
sh688005,容百科技,2020-08-21,29.5,29.87,29.03,29.11,29.5,1581202.0,46537933.0,7976439833.0,12904046727.0
sh688005,容百科技,2020-08-24,29.12,29.49,28.6,28.9,29.11,1787142.0,51710699.0,7918897670.0,12810956730.0
sh688005,容百科技,2020-08-25,29.35,29.35,28.45,28.46,28.9,2144977.0,61806436.0,7798333138.0,12615911022.0
sh688005,容百科技,2020-08-26,28.44,28.7,27.18,27.52,28.46,3271010.0,91003266.0,7540763456.0,12199222464.0
sh688005,容百科技,2020-08-27,27.6,28.25,27.31,27.94,27.52,2050600.0,57227371.0,7655847781.999999,12385402458.0
sh688005,容百科技,2020-08-28,27.98,28.18,27.63,27.99,27.94,2086739.0,58289749.0,7669548297.0,12407566743.0
sh688005,容百科技,2020-08-31,28.28,29.52,28.28,28.62,27.99,3099087.0,89569053.0,7842174786.0,12686836734.0
sh688005,容百科技,2020-09-01,28.78,29.25,28.23,29.01,28.62,2678538.0,77205724.0,7949038803.0,12859718157.0
sh688005,容百科技,2020-09-02,29.02,29.19,28.55,28.78,29.01,1995523.0,57492776.0,7886016433.999999,12757762446.0
sh688005,容百科技,2020-09-03,28.78,29.03,28.1,28.3,28.78,2499120.0,71800530.0,7754491490.0,12544985310.0
sh688005,容百科技,2020-09-04,27.86,28.6,27.59,28.52,28.3,1703824.0,47911659.0,7814773756.0,12642508163.999998
sh688005,容百科技,2020-09-07,28.55,28.55,27.6,27.72,28.52,2537966.0,71370856.0,7595565516.0,12287879604.0
sh688005,容百科技,2020-09-08,27.65,27.91,27.12,27.55,27.72,1773444.0,48601521.0,7548983765.0,12212521035.0
sh688005,容百科技,2020-09-09,27.34,27.39,26.54,26.54,27.55,2317134.0,62264827.0,7272233362.0,11764802478.0
sh688005,容百科技,2020-09-10,26.9,27.09,26.1,26.11,26.54,1832850.0,48777190.0,7154408933.0,11574189627.0
sh688005,容百科技,2020-09-11,26.02,26.42,25.62,26.36,26.11,1600292.0,41645251.0,7222911507.999999,11685011052.000002
sh688005,容百科技,2020-09-14,27.0,29.46,27.0,28.72,26.36,6675258.0,190928441.0,7869575816.0,12731165304.0
sh688005,容百科技,2020-09-15,28.9,29.45,28.2,28.62,28.72,4570111.0,132050139.0,7842174786.0,12686836734.0
sh688005,容百科技,2020-09-16,28.56,28.63,28.04,28.16,28.62,2836014.0,80179739.0,7716130048.0,12482925312.0
sh688005,容百科技,2020-09-17,28.13,30.1,28.0,29.65,28.16,9233616.0,270479927.0,8124405395.0,13143421005.0
sh688005,容百科技,2020-09-18,29.87,30.65,29.26,30.57,29.65,8604328.0,260244712.0,8376494871.0,13551243849.0
sh688005,容百科技,2020-09-21,30.68,32.45,30.5,30.5,30.57,8449326.0,264901360.0,8357314150.0,13520213850.0
sh688005,容百科技,2020-09-22,30.51,30.98,29.85,30.1,30.5,5367803.0,162986744.0,8247710030.0,13342899570.0
sh688005,容百科技,2020-09-23,30.42,31.42,30.28,31.05,30.1,6497119.0,200965386.0,8508019815.0,13764020985.0
sh688005,容百科技,2020-09-24,30.5,30.71,28.65,29.31,31.05,6854318.0,202641021.0,8031241893.0,12992703867.0
sh688005,容百科技,2020-09-25,29.4,29.53,28.76,28.98,29.31,3079856.0,89714103.0,7940818493.999999,12846419586.0
sh688005,容百科技,2020-09-28,28.98,29.32,27.11,27.28,28.98,4283522.0,119490829.0,7475000984.0,12092833896.000002
sh688005,容百科技,2020-09-29,27.3,28.93,27.3,28.48,27.28,4222767.0,120514889.0,7803813344.000001,12624776736.000002
sh688005,容百科技,2020-09-30,28.82,30.0,28.45,29.74,28.48,8421324.0,248346372.0,8149066322.0,13183316717.999998
sh688005,容百科技,2020-10-09,32.6,35.69,32.6,35.69,29.74,22113397.0,774930636.0,9779427607.0,15820866632.999998
sh688005,容百科技,2020-10-12,37.0,38.4,35.98,38.21,35.69,25506733.0,951560424.0,10469933563.0,16937946597.0
sh688005,容百科技,2020-10-13,38.06,39.39,36.71,38.22,38.21,11481444.0,437981911.0,10472673666.0,16942379454.0
sh688005,容百科技,2020-10-14,39.31,40.8,38.0,40.55,38.22,14360606.0,572117908.0,11111117665.0,17975235135.0
sh688005,容百科技,2020-10-15,40.28,41.49,38.72,39.51,40.55,8189424.0,325661170.0,10826146953.0,17514218007.0
sh688005,容百科技,2020-10-16,39.1,39.84,36.74,37.87,39.51,11977188.0,454033989.0,10376770061.0,16787229459.0
sh688005,容百科技,2020-10-19,38.72,39.67,37.56,38.12,37.87,7758192.0,299876134.0,10445272636.0,16898050884.0
sh688005,容百科技,2020-10-20,38.12,39.5,37.12,39.04,38.12,6968515.0,266085226.0,10697362112.0,17305873728.0
sh688005,容百科技,2020-10-21,38.8,38.99,36.91,36.98,39.04,5509987.0,208859680.0,10132900894.0,16392705186.0
sh688005,容百科技,2020-10-22,36.72,38.63,36.18,37.53,36.98,5296090.0,197876443.0,10283606559.0,16636512321.0
sh688005,容百科技,2020-10-23,37.56,39.2,36.21,36.7,37.53,5356348.0,201582014.0,10056178010.0,16268585190.0
sh688005,容百科技,2020-10-26,36.62,37.71,35.63,36.95,36.7,5121799.0,187942097.0,10124680585.0,16379406615.0
sh688005,容百科技,2020-10-27,36.89,37.2,35.3,36.79,36.95,5359182.0,194887160.0,10080838937.0,16308480903.0
sh688005,容百科技,2020-10-28,36.96,38.97,36.33,38.12,36.79,7070241.0,265905849.0,10445272636.0,16898050884.0
sh688005,容百科技,2020-10-29,38.79,40.6,37.66,38.13,38.12,9046611.0,353599141.0,10448012739.0,16902483740.999998
sh688005,容百科技,2020-10-30,38.85,39.15,35.57,35.83,38.13,8762596.0,322380659.0,9817789049.0,15882926631.0
sh688005,容百科技,2020-11-02,35.78,35.98,33.91,34.43,35.83,7065965.0,244399092.0,9434174629.0,15262326651.000002
sh688005,容百科技,2020-11-03,34.82,35.15,34.1,34.81,34.43,4595552.0,159545072.0,9538298543.0,15430775217.0
sh688005,容百科技,2020-11-04,35.33,38.35,34.83,36.13,34.81,8949267.0,328840397.0,9899992139.0,16015912341.0
sh688005,容百科技,2020-11-05,37.77,38.8,37.0,38.31,36.13,9862845.0,375883794.0,10497334593.0,16982275167.0
sh688005,容百科技,2020-11-06,39.1,39.94,35.13,36.42,38.31,12530465.0,462459248.0,9979455126.0,16144465194.000002
sh688005,容百科技,2020-11-09,36.3,37.88,34.98,37.15,36.42,13429577.0,485903455.0,10179482645.0,16468063755.0
sh688005,容百科技,2020-11-10,37.38,37.38,35.05,35.52,37.15,7187706.0,257460584.0,9732845856.0,15745508063.999998
sh688005,容百科技,2020-11-11,35.52,36.8,34.7,34.85,35.52,4045006.0,144814665.0,9549258955.0,15448506645.0
sh688005,容百科技,2020-11-12,35.75,36.59,35.17,35.99,34.85,4586350.0,164829107.0,9861630697.0,15953852342.999998
sh688005,容百科技,2020-11-13,35.79,37.01,35.01,36.28,35.99,5051499.0,183189815.0,9941093684.0,16082405196.0
sh688005,容百科技,2020-11-16,36.66,37.8,34.8,35.36,36.28,5826529.0,206949976.0,9689004208.0,15674582352.0
sh688005,容百科技,2020-11-17,35.35,35.35,33.09,33.46,35.36,5578179.0,190702328.0,9168384638.0,14832339522.0
sh688005,容百科技,2020-11-18,33.45,33.8,31.64,31.78,33.46,6722733.0,218187144.0,8708047334.0,14087619546.0
sh688005,容百科技,2020-11-19,32.14,32.14,30.58,31.53,31.78,5452259.0,169668678.0,8639544759.0,13976798121.0
sh688005,容百科技,2020-11-20,31.6,32.35,31.21,32.22,31.53,4934794.0,157129250.0,8828611866.0,14282665254.0
sh688005,容百科技,2020-11-23,32.0,32.17,31.3,31.81,32.22,3385043.0,107315892.0,8716267643.0,14100918117.0
sh688005,容百科技,2020-11-24,31.8,32.98,31.78,32.36,31.81,4170549.0,135211230.0,8866973308.0,14344725252.0
sh688005,容百科技,2020-11-25,32.61,33.55,32.18,32.19,32.36,3899511.0,128140760.0,8820391557.0,14269366683.0
sh688005,容百科技,2020-11-26,32.19,34.5,31.01,33.79,32.19,8028582.0,262984408.0,9258808037.0,14978623803.0
sh688005,容百科技,2020-11-27,33.8,36.4,33.36,34.05,33.79,6389838.0,224250371.0,9330050715.0,15093878085.0
sh688005,容百科技,2020-11-30,34.55,34.88,33.51,33.89,34.05,3101158.0,105413106.0,9286209067.0,15022952373.0
sh688005,容百科技,2020-12-01,33.84,35.21,33.67,34.55,33.89,3335236.0,115577011.0,9467055865.0,15315520935.0
sh688005,容百科技,2020-12-02,34.8,34.85,33.33,33.82,34.55,3706823.0,125638836.0,9267028346.0,14991922374.0
sh688005,容百科技,2020-12-03,33.81,34.31,33.5,33.71,33.82,1867666.0,63163448.0,9236887213.0,14943160947.0
sh688005,容百科技,2020-12-04,33.7,33.7,32.6,33.31,33.71,4459940.0,147198092.0,9127283093.0,14765846667.0
sh688005,容百科技,2020-12-07,33.5,35.67,33.5,35.5,33.31,6846139.0,239027577.0,9727365650.0,15736642350.000002
sh688005,容百科技,2020-12-08,35.73,38.12,35.73,38.0,35.5,11899383.0,443170132.0,10412391400.0,16844856600.0
sh688005,容百科技,2020-12-09,38.0,40.09,37.68,38.19,38.0,13286349.0,517361590.0,10464453357.0,16929080883.0
sh688005,容百科技,2020-12-10,38.9,39.99,38.2,39.45,38.19,9027741.0,355787836.0,10809706335.0,17487620865.0
sh688005,容百科技,2020-12-11,38.7,41.44,38.7,41.0,39.45,10604340.0,432595793.0,11234422300.0,18174713700.0
sh688005,容百科技,2020-12-14,40.99,41.89,39.44,40.85,41.0,8911564.0,363329408.0,11193320755.0,18108220845.0
sh688005,容百科技,2020-12-15,40.67,42.36,40.1,41.9,40.85,5669136.0,236142105.0,11481031569.999998,18573670830.0
sh688005,容百科技,2020-12-16,42.15,43.28,41.66,42.2,41.9,5906284.0,251031120.0,11563234660.0,18706656540.0
sh688005,容百科技,2020-12-17,44.31,49.9,43.89,48.35,42.2,16701029.0,780910075.0,13248398004.999998,21432863595.0
sh688005,容百科技,2020-12-18,50.28,56.24,48.45,54.15,48.35,17876472.0,956583766.0,14837657745.0,24003920655.0
sh688005,容百科技,2020-12-21,54.0,55.7,52.01,54.93,54.15,13278844.0,724073490.0,15051385779.0,24349683501.0
sh688005,容百科技,2020-12-22,54.8,55.59,50.5,51.56,54.93,14339675.0,759241917.0,14127971068.0,22855810692.0
sh688005,容百科技,2020-12-23,52.4,53.17,49.7,51.08,51.56,13201201.0,684297307.0,13996446124.0,22643033556.0
sh688005,容百科技,2020-12-24,51.2,51.47,48.7,49.1,51.08,12359380.0,616918074.0,13453905730.0,21765327870.0
sh688005,容百科技,2020-12-25,50.5,54.78,50.03,53.1,49.1,16015958.0,837188450.0,14549946930.0,23538470670.0
sh688005,容百科技,2020-12-28,52.78,55.85,52.0,53.54,53.1,11154630.0,598622929.0,14670511462.0,23733516378.0
sh688005,容百科技,2020-12-29,53.54,53.54,47.2,49.23,53.54,13557804.0,676058217.0,13489527069.000002,21822955011.0
sh688005,容百科技,2020-12-30,49.05,52.76,49.05,51.49,49.23,11005649.0,562978120.0,14108790347.0,22824780693.0
sh688005,容百科技,2020-12-31,51.25,54.02,50.51,51.54,51.49,8900225.0,461211179.0,14122490862.0,22846944978.0
sh688005,容百科技,2021-01-04,53.23,57.2,52.35,56.81,51.54,11473320.0,633675720.0,15566525143.0,25183060617.0
sh688005,容百科技,2021-01-05,56.0,56.36,51.0,53.09,56.81,12276966.0,655869151.0,14547206827.0,23534037813.0
sh688005,容百科技,2021-01-06,52.0,53.88,47.0,49.29,53.09,11461867.0,569740259.0,13505967686.999998,21849552153.0
sh688005,容百科技,2021-01-07,49.76,51.98,47.53,49.12,49.29,13581366.0,677278774.0,13459385936.0,21774193584.0
sh688005,容百科技,2021-01-08,49.0,49.44,44.89,45.43,49.12,11907309.0,550075217.0,12448287929.0,20138469351.0
sh688005,容百科技,2021-01-11,46.9,49.44,44.84,45.92,45.43,10632108.0,499257513.0,12582552976.0,20355679344.0
sh688005,容百科技,2021-01-12,46.5,49.78,45.36,48.89,45.92,10513899.0,502729898.0,13396363566.999998,21672237873.0
sh688005,容百科技,2021-01-13,48.91,50.7,47.0,47.48,48.89,7682087.0,373975002.0,13010009044.000002,21047205036.0
sh688005,容百科技,2021-01-14,46.8,47.32,43.13,44.68,47.48,8957836.0,401504509.0,12242780204.0,19806005076.0
sh688005,容百科技,2021-01-15,45.0,50.5,44.51,49.61,44.68,9775854.0,463937097.0,13593650983.0,21991403577.0
sh688005,容百科技,2021-01-18,50.0,54.9,50.0,52.34,49.61,14377699.0,760533603.0,14341699102.0,23201573538.0
sh688005,容百科技,2021-01-19,58.88,62.81,58.88,62.15,52.34,16302704.0,1015316340.0,17029740145.0,27550206255.0
sh688005,容百科技,2021-01-20,63.55,72.0,63.0,68.03,62.15,21216141.0,1419958615.0,18640920709.0,30156726171.0
sh688005,容百科技,2021-01-21,68.05,68.5,63.48,65.24,68.03,12650015.0,827941835.0,17876431972.0,28919959068.0
sh688005,容百科技,2021-01-22,65.4,72.62,64.0,69.69,65.24,10735492.0,727122834.0,19095777807.0,30892580433.0
sh688005,容百科技,2021-01-25,70.37,74.5,67.2,69.75,69.69,11254411.0,795500707.0,19112218425.0,30919177575.0
sh688005,容百科技,2021-01-26,70.0,70.3,66.05,67.66,69.75,7159661.0,487976390.0,18539536898.0,29992710462.000004
sh688005,容百科技,2021-01-27,68.0,73.3,66.8,72.3,67.66,8276353.0,577879749.0,19810944690.0,32049556110.0
sh688005,容百科技,2021-01-28,69.83,70.65,66.82,67.0,72.3,5797639.0,397500524.0,18358690100.0,29974686661.0
sh688005,容百科技,2021-01-29,67.78,69.8,64.0,65.88,67.0,5400524.0,360122185.0,18051798564.0,29473617272.04
sh688005,容百科技,2021-02-01,66.29,73.3,66.0,67.81,65.88,8397316.0,586533663.0,18580638443.0,30337067201.23
sh688005,容百科技,2021-02-02,66.0,76.8,65.35,75.5,67.81,9745383.0,700827773.0,20687777650.0,33777445416.5
sh688005,容百科技,2021-02-03,75.3,79.8,73.54,73.84,75.5,7716007.0,587327315.0,20232920552.0,33034789000.72
sh688005,容百科技,2021-02-04,74.26,75.0,68.38,70.25,73.84,6289271.0,447908342.0,19249223575.0,31428682655.75
sh688005,容百科技,2021-02-05,70.3,71.5,64.0,64.61,70.25,5877106.0,397206406.0,17703805483.0,28905440375.63
sh688005,容百科技,2021-02-08,65.32,68.99,64.08,66.98,64.61,4766780.0,318742609.0,18353209894.0,29965738993.34
sh688005,容百科技,2021-02-09,67.98,71.2,66.8,66.99,66.98,5192674.0,356838489.0,18355949997.0,29970212827.17
sh688005,容百科技,2021-02-10,67.42,69.77,62.8,67.92,66.99,7882092.0,521363146.0,18610779576.0,30386279373.36
sh688005,容百科技,2021-02-18,70.0,70.99,61.5,64.14,67.92,8802465.0,567422834.0,17575020642.0,28695170185.62
sh688005,容百科技,2021-02-19,64.14,65.55,61.8,64.8,64.14,5285900.0,337466772.0,17755867440.0,28990443218.4
sh688005,容百科技,2021-02-22,64.2,65.3,62.27,62.7,64.8,4478511.0,284855065.0,17180445810.0,28050938114.1
sh688005,容百科技,2021-02-23,61.6,63.83,59.66,60.58,62.7,5810248.0,357174564.0,16599543973.999998,27102485342.140003
sh688005,容百科技,2021-02-24,61.01,61.9,57.88,58.48,60.58,4518307.0,267121563.0,16024122344.0,26162980237.84
sh688005,容百科技,2021-02-25,59.1,59.45,57.61,58.58,58.48,2532030.0,148509142.0,16051523374.0,26207718576.14
sh688005,容百科技,2021-02-26,56.6,62.0,56.6,60.88,58.58,4878350.0,292305527.0,16681747064.0,27236700357.04
sh688005,容百科技,2021-03-01,62.7,62.88,59.7,62.03,60.88,4795199.0,294194280.0,16996858909.0,27751191247.49
sh688005,容百科技,2021-03-02,62.2,63.0,58.6,59.2,62.03,2995661.0,180472046.0,16221409760.0,26485096273.6
sh688005,容百科技,2021-03-03,59.34,62.5,58.6,61.95,59.2,3121150.0,190984763.0,16974938085.0,27715400576.85
sh688005,容百科技,2021-03-04,60.7,61.95,58.28,58.99,61.95,3949708.0,233794643.0,16163867597.0,26391145763.17
sh688005,容百科技,2021-03-05,58.55,61.6,58.0,58.1,58.99,3499263.0,209518955.0,15919998430.000002,25992974552.3
sh688005,容百科技,2021-03-08,57.81,59.2,52.43,53.25,58.1,7662758.0,423964958.0,14591048475.0,23823165144.75
sh688005,容百科技,2021-03-09,57.0,59.8,52.0,56.58,53.25,10038978.0,564549697.0,15503502774.0,25312951810.14
sh688005,容百科技,2021-03-10,58.95,59.4,55.0,55.5,56.58,6208688.0,354179181.0,15207571650.0,24829777756.500004
sh688005,容百科技,2021-03-11,56.66,57.95,54.11,57.33,55.5,5449839.0,308073797.0,15709010499.0,25648489347.390003
sh688005,容百科技,2021-03-12,58.0,60.5,55.38,60.11,57.33,7144553.0,412041616.0,16470759132.999998,26892215152.13
sh688005,容百科技,2021-03-15,59.35,59.35,56.5,56.9,60.11,4949722.0,284888798.0,15591186070.0,25456114492.7
sh688005,容百科技,2021-03-16,57.03,58.15,53.88,55.83,56.9,4629211.0,258808756.0,15297995049.0,24977414272.89
sh688005,容百科技,2021-03-17,55.38,57.98,54.34,57.3,55.83,4651672.0,264411430.0,15700790190.0,25635067845.9
sh688005,容百科技,2021-03-18,58.0,58.0,55.3,56.38,57.3,4486112.0,254109440.0,15448700714.0,25223475133.54
sh688005,容百科技,2021-03-19,55.2,55.89,53.05,53.05,56.38,4684200.0,254939642.0,14536246415.0,23733688468.15
sh688005,容百科技,2021-03-22,53.87,56.36,53.67,54.2,53.05,3269981.0,179704985.0,14851358259.999998,24248179358.6
sh688005,容百科技,2021-03-23,54.25,55.0,51.47,52.51,54.2,3931982.0,207076809.0,14388280853.0,23492101441.33
sh688005,容百科技,2021-03-24,51.57,52.84,50.5,52.61,52.51,4023051.0,209003352.0,14415681883.0,23536839779.63
sh688005,容百科技,2021-03-25,51.6,55.05,51.12,53.25,52.61,5272359.0,279684563.0,14591048475.0,23823165144.75
sh688005,容百科技,2021-03-26,54.05,59.93,53.06,59.15,53.25,8023836.0,462429572.0,16207709245.0,26462727104.45
sh688005,容百科技,2021-03-29,58.7,59.1,56.7,57.86,59.15,5207125.0,302710303.0,15854235958.0,25885602540.38
sh688005,容百科技,2021-03-30,57.76,58.8,56.31,57.65,57.86,4605854.0,263542816.0,15796693795.0,25791652029.95
sh688005,容百科技,2021-03-31,57.84,58.99,57.0,57.13,57.65,3378859.0,195428840.0,15654208439.0,25559012670.79
sh688005,容百科技,2021-04-01,57.5,61.38,57.5,57.86,57.13,5280404.0,313673847.0,15854235958.0,25885602540.38
sh688005,容百科技,2021-04-02,58.73,60.15,57.9,59.1,57.86,4542880.0,268676705.0,16194008730.0,26440357935.3
sh688005,容百科技,2021-04-06,59.3,60.99,56.51,57.0,59.1,4486584.0,259765619.0,15618587100.0,25500852831.0
sh688005,容百科技,2021-04-07,56.6,57.9,54.91,55.15,57.0,4173403.0,231894293.0,15111668045.0,24673193572.45
sh688005,容百科技,2021-04-08,54.62,55.5,54.1,54.15,55.15,2540314.0,138530578.0,14837657745.0,24225810189.45
sh688005,容百科技,2021-04-09,53.95,54.7,52.4,53.76,54.15,2896436.0,154723934.0,14730793728.0,24051330670.08
sh688005,容百科技,2021-04-12,53.65,54.35,50.11,50.35,53.76,5493294.0,283493897.0,13796418605.0,22525753334.050003
sh688005,容百科技,2021-04-13,50.9,52.32,49.7,51.4,50.35,3345619.0,171757991.0,14084129420.0,22995505886.2
sh688005,容百科技,2021-04-14,51.8,54.9,51.39,54.3,51.4,5065671.0,272738393.0,14878759290.0,24292917696.9
sh688005,容百科技,2021-04-15,54.0,55.54,53.6,54.73,54.3,3730839.0,204209737.0,14996583719.0,24485292551.59
sh688005,容百科技,2021-04-16,55.0,57.18,55.0,56.8,54.73,4546474.0,256845867.0,15563785040.0,25411376154.4
sh688005,容百科技,2021-04-19,57.85,61.2,55.77,60.49,56.8,7158945.0,425072734.0,16574883047.0,27062220837.67
sh688005,容百科技,2021-04-20,60.77,63.85,59.31,61.11,60.49,5969815.0,367361378.0,16744769433.0,27339598535.13
sh688005,容百科技,2021-04-21,59.65,61.1,59.1,60.12,61.11,4271652.0,256123332.0,16473499236.000002,26896688985.96
sh688005,容百科技,2021-04-22,60.01,62.86,60.01,60.45,60.12,3888736.0,236753712.0,16563922634.999998,27044325502.35
sh688005,容百科技,2021-04-23,60.27,62.4,59.75,61.41,60.45,3518503.0,215375948.0,16826972523.0,27473813550.03
sh688005,容百科技,2021-04-26,61.4,65.7,60.99,62.7,61.41,6958007.0,442185651.0,17180445810.0,28050938114.1
sh688005,容百科技,2021-04-27,62.42,62.8,59.99,62.33,62.7,4353036.0,267020213.0,17079061998.999998,27885406262.39
sh688005,容百科技,2021-04-28,64.42,65.79,61.66,65.0,62.33,5831844.0,376226153.0,17810669500.0,29079919895.0
sh688005,容百科技,2021-04-29,64.6,66.5,63.36,64.0,65.0,2939596.0,189309939.0,17536659200.0,28632536512.000004
sh688005,容百科技,2021-04-30,63.97,70.11,63.5,69.36,64.0,8012829.0,548644529.0,19005354408.0,31030511444.88
sh688005,容百科技,2021-05-06,69.27,71.33,68.56,69.46,69.36,6181366.0,432065947.0,19032755438.0,31075249783.18
sh688005,容百科技,2021-05-07,69.03,69.99,67.6,67.77,69.46,3791071.0,258847019.0,18569678031.0,30319171865.91
sh688005,容百科技,2021-05-10,67.77,68.97,65.04,66.15,67.77,5108849.0,343052094.0,18125781345.0,29594410785.45
sh688005,容百科技,2021-05-11,64.62,66.68,63.78,64.5,66.15,3785164.0,247209764.0,17673664350.0,28856228203.5
sh688005,容百科技,2021-05-12,63.5,67.16,63.5,64.9,64.5,2665016.0,175077201.0,17783268470.0,29035181556.7
sh688005,容百科技,2021-05-13,64.5,66.18,63.61,65.2,64.9,2646986.0,171735824.0,17865471560.0,29169396571.6
sh688005,容百科技,2021-05-14,65.1,71.76,65.1,71.44,65.2,6069776.0,422580969.0,19575295832.0,31961068881.52
sh688005,容百科技,2021-05-17,72.0,75.0,70.57,74.0,71.44,6578237.0,480362324.0,20276762200.0,33106370342.0
sh688005,容百科技,2021-05-18,74.5,75.38,72.46,72.94,74.0,3296953.0,243120316.0,19986311282.0,32632143956.02
sh688005,容百科技,2021-05-19,72.32,76.68,72.0,76.05,72.94,6264920.0,473266408.0,20838483315.0,34023506277.15
sh688005,容百科技,2021-05-20,75.88,79.58,74.7,76.3,76.05,6184887.0,475188247.0,20906985890.0,34135352122.9
sh688005,容百科技,2021-05-21,76.58,78.5,75.66,76.3,76.3,3815538.0,292949802.0,20906985890.0,34135352122.9
sh688005,容百科技,2021-05-24,76.53,79.48,74.5,78.3,76.3,5983348.0,464764313.0,21455006490.000004,35030118888.9
sh688005,容百科技,2021-05-25,78.0,79.8,76.8,77.8,78.3,3557766.0,277030936.0,21318001340.0,34806427197.4
sh688005,容百科技,2021-05-26,77.8,79.05,75.86,77.41,77.8,3690580.0,284737496.0,21211137323.0,34631947678.03
sh688005,容百科技,2021-05-27,77.4,78.91,75.77,76.92,77.41,4918104.0,380931021.0,21076872276.0,34412729820.36
sh688005,容百科技,2021-05-28,83.0,92.3,83.0,92.3,76.92,8905505.0,814286842.0,25291150690.0,41293486250.9
sh688005,容百科技,2021-05-31,99.0,109.78,98.0,109.78,92.3,17087612.0,1781311538.0,30080850734.0,49113747785.74
sh688005,容百科技,2021-06-01,105.0,109.78,104.77,107.56,109.78,9419858.0,1009204532.0,29472547868.0,48120556675.48
sh688005,容百科技,2021-06-02,110.0,112.9,103.85,105.99,107.56,7380968.0,789856930.0,29042351697.0,47418164764.170006
sh688005,容百科技,2021-06-03,106.39,113.5,105.0,109.0,105.99,9277724.0,1015245857.0,29867122700.0,48764788746.99999
sh688005,容百科技,2021-06-04,109.0,128.17,109.0,120.99,109.0,11077614.0,1328109234.0,33152506197.0,54128915509.17
sh688005,容百科技,2021-06-07,120.05,121.1,110.5,114.4,120.99,12477603.0,1419486940.0,31346778320.0,51180659015.2
sh688005,容百科技,2021-06-08,116.3,121.0,109.01,113.7,114.4,10289544.0,1184428365.0,31154971110.0,50867490647.1
sh688005,容百科技,2021-06-09,114.65,118.02,111.02,112.9,113.7,6452372.0,734329289.0,30935762870.0,50509583940.700005
sh688005,容百科技,2021-06-10,113.0,118.34,111.0,115.0,112.9,9841920.0,1136819875.0,31511184500.0,51449089045.0
sh688005,容百科技,2021-06-11,116.5,117.35,105.18,109.3,115.0,10020096.0,1099450972.0,29949325790.0,48899003761.9
sh688005,容百科技,2021-06-15,111.2,114.54,105.65,106.66,109.3,8216305.0,898132014.0,29225938598.000004,47717911630.78
sh688005,容百科技,2021-06-16,105.54,107.6,94.72,95.0,106.66,13992732.0,1387548806.0,26030978500.0,42501421385.0
sh688005,容百科技,2021-06-17,96.1,101.49,96.1,101.29,95.0,11317333.0,1128879356.0,27754503287.0,45315462864.07001
sh688005,容百科技,2021-06-18,101.43,115.36,101.43,113.0,101.29,11211301.0,1230292148.0,30963163900.0,50554322279.0
sh688005,容百科技,2021-06-21,111.0,113.37,106.89,110.53,113.0,8826809.0,975876037.0,30286358459.0,49449285322.99
sh688005,容百科技,2021-06-22,112.5,118.6,107.0,117.0,110.53,9902029.0,1136865457.0,32059205100.0,52343855811.0
sh688005,容百科技,2021-06-23,115.6,118.5,113.7,117.66,117.0,9251228.0,1079129400.0,32240051898.0,52639128843.78
sh688005,容百科技,2021-06-24,116.87,118.5,111.3,114.3,117.66,7578025.0,861982355.0,31319377290.0,51135920676.9
sh688005,容百科技,2021-06-25,112.29,119.8,110.47,116.3,114.3,7250544.0,831602531.0,31867397890.0,52030687442.9
sh688005,容百科技,2021-06-28,114.5,127.6,114.5,120.6,116.3,9207303.0,1117709093.0,33045642180.0,53954435989.8
sh688005,容百科技,2021-06-29,124.0,125.7,119.85,125.7,120.6,7292950.0,898074397.0,34443094710.0,56236091243.1
sh688005,容百科技,2021-06-30,125.7,125.86,113.37,121.2,125.7,9769033.0,1175972990.0,33210048360.0,54222866019.6
sh688005,容百科技,2021-07-01,121.96,125.48,117.71,123.0,121.2,6420023.0,781086812.0,33703266900.0,55028156109.0
sh688005,容百科技,2021-07-02,120.0,135.1,119.02,130.93,123.0,7247540.0,928492665.0,35876168579.0,58575906336.19
sh688005,容百科技,2021-07-05,130.93,132.75,122.38,130.83,130.93,8395996.0,1066747537.0,35848767549.0,58531167997.89
sh688005,容百科技,2021-07-06,129.0,132.48,115.0,117.94,130.83,10993433.0,1336293645.0,32316774782.0,52764396191.02
sh688005,容百科技,2021-07-07,124.0,141.53,124.0,141.53,117.94,12152995.0,1615717728.0,38780677759.0,63318170195.99
sh688005,容百科技,2021-07-08,145.0,149.69,140.0,143.36,141.53,13211786.0,1917326445.0,39282116608.0,64136881786.88
sh688005,容百科技,2021-07-09,140.75,144.2,135.67,142.24,143.36,8998935.0,1258898175.0,38975225072.0,63635812397.92
sh688005,容百科技,2021-07-12,144.95,161.41,142.6,152.49,142.24,10177141.0,1535930859.0,41783830647.0,68221492073.67
sh688005,容百科技,2021-07-13,150.0,158.49,146.23,150.85,152.49,7524581.0,1136849276.0,41334453755.0,67487783325.55
sh688005,容百科技,2021-07-14,146.0,146.0,134.0,136.0,150.85,12634702.0,1757472707.0,37265400800.0,60844140088.0
sh688005,容百科技,2021-07-15,136.0,137.5,128.88,137.02,136.0,8858315.0,1183560024.0,37544891306.0,61300471138.66
sh688005,容百科技,2021-07-16,137.0,137.0,126.13,126.81,137.02,8445110.0,1109772864.0,34747246143.0,56732686798.23
sh688005,容百科技,2021-07-19,124.71,133.0,123.18,125.55,126.81,8522115.0,1080378312.0,34401993165.0,56168983735.65
sh688005,容百科技,2021-07-20,123.18,132.67,123.12,131.5,125.55,7462787.0,971003054.0,36032354450.0,58830914864.5
sh688005,容百科技,2021-07-21,131.8,136.8,128.92,132.82,131.5,11389271.0,1519254336.0,36394048046.0,59421460930.06
sh688005,容百科技,2021-07-22,132.11,140.0,126.6,135.21,132.82,12050006.0,1601262883.0,37292310663.0,60490707215.43
sh688005,容百科技,2021-07-23,140.21,141.3,129.0,131.97,135.21,7045719.0,943682916.0,36398685291.0,59041185054.51
sh688005,容百科技,2021-07-26,129.04,133.3,118.0,124.3,131.97,11687912.0,1458084810.0,34283220290.0,55609754506.9
sh688005,容百科技,2021-07-27,128.25,135.88,116.68,117.0,124.3,12672885.0,1617032452.0,32269805100.0,52343855811.0
sh688005,容百科技,2021-07-28,122.0,133.1,119.91,126.19,117.0,12967789.0,1635736949.0,34804501757.0,56455309100.77
sh688005,容百科技,2021-07-29,131.0,132.85,124.5,130.76,126.19,9764738.0,1264315153.0,36064954828.0,58499851161.08
sh688005,容百科技,2021-07-30,133.0,135.95,120.1,120.95,130.76,11746531.0,1482285045.0,33359255785.0,54111020173.850006
sh688005,容百科技,2021-08-02,122.0,130.98,122.0,128.05,120.95,10185990.0,1299067119.0,35317508915.0,57287442193.15
sh688005,容百科技,2021-08-03,125.6,128.57,121.14,122.95,128.05,6479609.0,802287073.0,33910876385.0,55005786939.850006
sh688005,容百科技,2021-08-04,122.66,141.5,122.3,139.5,122.95,12056663.0,1609244280.0,38475536850.0,62409981928.5
sh688005,容百科技,2021-08-05,140.02,142.14,131.93,137.78,139.5,9635888.0,1308638805.0,38001143134.0,61640482509.740005
sh688005,容百科技,2021-08-06,141.02,146.78,138.51,139.6,137.78,9332476.0,1328444227.0,38503117880.0,62454720266.8
sh688005,容百科技,2021-08-09,136.0,136.0,127.0,132.15,139.6,7713567.0,1006478731.0,36448331145.0,59121714063.45
sh688005,容百科技,2021-08-10,130.88,132.91,123.51,125.22,132.15,8808743.0,1119510807.0,34536965766.0,56021347219.26
sh688005,容百科技,2021-08-11,126.73,135.11,124.03,132.6,125.22,7932655.0,1035100197.0,36572445780.0,59323036585.8
sh688005,容百科技,2021-08-12,130.98,141.77,130.45,139.02,132.6,7996255.0,1099442175.0,38343147906.0,62195237904.66
sh688005,容百科技,2021-08-13,138.0,146.5,137.0,137.94,139.02,6450200.0,913049006.0,38045272782.0,61712063851.02
sh688005,容百科技,2021-08-16,136.0,136.0,124.47,129.2,137.94,7558976.0,970076916.0,35634690760.0,57801933083.6
sh688005,容百科技,2021-08-17,128.53,131.87,123.87,125.45,129.2,5922017.0,750843854.0,34600402135.0,56124245397.35
sh688005,容百科技,2021-08-18,125.7,128.88,117.33,119.1,125.45,10168269.0,1237960796.0,32849006730.0,53283360915.3
sh688005,容百科技,2021-08-19,119.45,127.88,117.5,126.4,119.1,9266949.0,1134995560.0,34862421920.0,56549259611.200005
sh688005,容百科技,2021-08-20,124.01,126.97,120.78,121.9,126.4,6383733.0,785625213.0,33621275570.0,54536034387.7
sh688005,容百科技,2021-08-23,121.72,125.86,117.5,124.83,121.9,6947872.0,854821092.0,34429399749.0,55846867699.89
sh688005,容百科技,2021-08-24,126.0,136.0,124.65,134.0,124.83,8369545.0,1105215821.0,36958580200.0,59949373322.0
sh688005,XD容百科,2021-08-25,133.0,133.0,125.2,131.38,133.91,6651847.0,858130424.0,36235957214.0,58777228858.54
sh688005,容百科技,2021-08-26,134.0,140.5,124.42,125.47,131.38,8810345.0,1141798760.0,34605918341.0,56133193065.01
sh688005,容百科技,2021-08-27,124.01,129.36,122.72,125.26,125.47,5645421.0,714899174.0,34547998178.0,56039242554.58
sh688005,容百科技,2021-08-30,125.5,127.96,119.02,120.22,125.26,10184498.0,1251331640.0,33157914266.0,53784430304.26
sh688005,容百科技,2021-08-31,119.02,122.04,117.01,118.8,120.22,6047333.0,721104604.0,32766263640.0,53149145900.4
sh688005,容百科技,2021-09-01,120.02,120.56,109.0,112.75,118.8,9318560.0,1059916356.0,31097611325.0,50442476433.25
sh688005,容百科技,2021-09-02,112.62,114.8,106.04,108.45,112.75,11226802.0,1224446690.0,29911627035.0,48518727886.35
sh688005,容百科技,2021-09-03,107.99,107.99,101.0,102.79,108.45,10172062.0,1056979321.0,28350540737.0,45986537938.57
sh688005,容百科技,2021-09-06,102.81,113.51,101.8,112.47,102.79,10258729.0,1114939876.0,31020384441.0,50317209086.01
sh688005,容百科技,2021-09-07,111.41,121.09,109.52,119.9,112.47,11494809.0,1350467035.0,33069654970.0,53641267621.7
sh688005,容百科技,2021-09-08,120.87,120.9,114.8,115.56,119.9,6557829.0,766908352.0,31872638268.0,51699623739.48
sh688005,容百科技,2021-09-09,115.99,126.04,115.99,119.97,115.56,8128626.0,984718505.0,33088961691.0,53672584458.51
sh688005,容百科技,2021-09-10,120.0,126.89,118.69,121.86,119.97,6047430.0,741956473.0,33610243158.0,54518139052.38
sh688005,容百科技,2021-09-13,125.99,125.99,119.54,121.59,121.86,5892235.0,718711530.0,33535774377.0,54397345538.97
sh688005,容百科技,2021-09-14,120.06,132.0,118.8,127.1,121.59,7992472.0,1017727166.0,35055489130.0,56862427979.3
sh688005,容百科技,2021-09-15,126.82,130.15,120.0,123.47,127.1,6495122.0,802995320.0,34054297741.0,55238426299.01
sh688005,容百科技,2021-09-16,122.0,123.03,110.98,111.49,123.47,11308464.0,1298650568.0,30750090347.000004,49878773370.67
sh688005,容百科技,2021-09-17,110.5,112.1,105.7,110.31,111.49,13082524.0,1413387043.0,30424634193.0,49350860978.73
sh688005,容百科技,2021-09-22,109.43,121.0,106.41,117.61,110.31,8926634.0,1028758016.0,32438049383.0,52616759674.63
sh688005,容百科技,2021-09-23,118.62,120.8,112.88,113.5,117.61,6582106.0,765755841.0,31304469050.0,50801797781.99999
sh688005,容百科技,2021-09-24,114.0,122.46,111.5,116.07,113.5,7860369.0,925740964.0,32013301521.0,51952111617.240005
sh688005,容百科技,2021-09-27,116.56,118.39,109.0,111.73,116.07,6305402.0,709867826.0,30816284819.0,50009558292.36
sh688005,容百科技,2021-09-28,111.35,115.93,108.68,109.0,111.73,5619367.0,633102972.0,30063322700.0,48842443290.0
sh688005,容百科技,2021-09-29,108.0,111.27,104.58,105.55,109.0,5397175.0,577872572.0,29111777165.0,47296512745.5
sh688005,容百科技,2021-09-30,107.1,110.28,106.11,108.08,105.55,4642972.0,504044075.0,29809577224.0,48430195144.8
sh688005,容百科技,2021-10-08,111.79,111.79,102.7,104.4,108.08,6205652.0,650699563.0,28794595320.0,46781202564.0
sh688005,容百科技,2021-10-11,105.96,109.19,103.66,104.42,104.4,3939277.0,418213543.0,28800111526.0,46790164480.2
sh688005,容百科技,2021-10-12,104.98,104.98,99.5,101.41,104.42,4926596.0,500387209.0,27969922523.0,45441396092.100006
sh688005,容百科技,2021-10-13,104.42,108.6,103.21,107.8,101.41,6740574.0,715923033.0,29732350340.0,48304728318.0
sh688005,容百科技,2021-10-14,107.8,115.91,107.8,111.2,107.8,6174728.0,696262666.0,30670105360.0,49828254072.0
sh688005,容百科技,2021-10-15,110.31,114.34,108.0,111.9,111.2,5708092.0,638350500.0,30863172570.000004,50141921139.0
sh688005,容百科技,2021-10-18,111.63,115.62,110.11,114.15,111.9,5113264.0,582016041.0,31483745745.0,51150136711.5
sh688005,容百科技,2021-10-19,118.56,120.49,113.5,115.0,114.15,6011794.0,698421632.0,31718184500.0,51531018150.00001
sh688005,容百科技,2021-10-20,114.1,120.88,113.5,118.43,115.0,7101482.0,845831768.0,32664213829.0,53067986778.3
sh688005,容百科技,2021-10-21,117.0,118.8,114.5,115.41,118.43,4742064.0,551552001.0,31831266723.000004,51714737432.1
sh688005,容百科技,2021-10-22,115.04,116.29,107.76,108.0,115.41,8262512.0,918553300.0,29787512400.000004,48394347480.0
sh688005,容百科技,2021-10-25,110.0,110.0,101.74,106.51,108.0,9636409.0,1017636345.0,29376555053.0,47726684723.1
sh688005,容百科技,2021-10-26,109.0,111.8,102.6,104.04,106.51,9530871.0,1014307094.0,28695303612.0,46619888072.4
sh688005,容百科技,2021-10-27,105.0,112.79,102.2,109.42,104.04,8084462.0,878478083.0,30179163026.0,49030643530.2
sh688005,容百科技,2021-10-28,113.33,117.95,110.8,111.8,109.42,8912019.0,1013196678.0,30835591540.0,50097111558.0
sh688005,容百科技,2021-10-29,111.83,116.41,109.39,115.0,111.8,9866055.0,1119937069.0,31718184500.0,51531018150.00001
sh688005,容百科技,2021-11-01,116.0,119.99,111.11,113.09,115.0,8215822.0,945817440.0,31191386827.0,50675155152.9
sh688005,容百科技,2021-11-02,114.34,122.2,112.5,118.16,113.09,12009778.0,1427490906.0,32589745048.000004,52947000909.6
sh688005,容百科技,2021-11-03,118.19,124.8,115.68,117.51,118.16,7670192.0,915374534.0,32410468353.0,52655738633.1
sh688005,容百科技,2021-11-04,118.66,127.96,118.55,124.92,117.51,10939794.0,1361529063.0,34454222676.0,55976128585.200005
sh688005,容百科技,2021-11-05,127.5,134.56,124.0,129.09,124.92,12184181.0,1596764653.0,35604351627.0,57844688112.9
sh688005,容百科技,2021-11-08,132.78,137.6,130.0,131.74,129.09,10693049.0,1423780738.0,36335248922.0,59032142009.4
sh688005,容百科技,2021-11-09,133.32,134.28,125.5,128.05,131.74,7021521.0,902247338.0,35317508915.0,57378668470.5
sh688005,容百科技,2021-11-10,128.3,128.3,119.0,123.5,128.05,9709076.0,1187366246.0,34062572050.0,55339832535.0
sh688005,容百科技,2021-11-11,123.31,125.8,119.88,122.46,123.5,5335313.0,653107089.0,33775729338.000004,54873812892.6
sh688005,容百科技,2021-11-12,123.0,125.24,120.0,124.88,122.46,5943985.0,726936161.0,34443190264.0,55958204752.8
sh688005,容百科技,2021-11-15,124.0,125.58,116.5,117.58,124.88,7364442.0,877881146.0,32429775074.0,52687105339.8
sh688005,容百科技,2021-11-16,115.01,118.0,112.0,112.84,117.58,5741694.0,656839964.0,31122434252.0,50563131200.4
sh688005,容百科技,2021-11-17,113.8,116.5,112.5,115.22,112.84,4673348.0,536386929.0,31778862766.0,51629599228.2
sh688005,容百科技,2021-11-18,115.23,115.68,110.5,113.9,115.22,6918489.0,782303395.0,31414793170.0,51038112759.0
sh688005,容百科技,2021-11-19,117.9,125.0,117.16,120.1,113.9,8836541.0,1067662446.0,33124817030.000004,53816306781.0
sh688005,容百科技,2021-11-22,125.0,138.77,124.0,132.05,120.1,13257189.0,1753781449.0,36420750115.0,59171051710.5
sh688005,容百科技,2021-11-23,133.93,137.9,131.0,134.87,132.05,8189994.0,1105708290.0,37198535161.0,60434681894.7
sh688005,容百科技,2021-11-24,135.0,137.98,130.0,130.5,134.87,6981080.0,933671604.0,35993244150.0,58476503205.0
sh688005,容百科技,2021-11-25,130.81,132.4,125.37,126.5,130.5,5727807.0,733918799.0,34890002950.0,56684119965.0
sh688005,容百科技,2021-11-26,127.5,135.3,126.71,133.2,126.5,6590360.0,867260083.0,36737931960.0,59686361892.0
sh688005,容百科技,2021-11-29,132.0,142.8,130.5,141.88,133.2,10927699.0,1524230656.0,39131965364.0,63575833522.8
sh688005,容百科技,2021-11-30,142.85,142.85,136.16,137.8,141.88,5968256.0,826828245.0,38006659340.0,61747602618.00001
sh688005,容百科技,2021-12-01,138.01,141.98,134.89,136.05,137.8,5479249.0,756016650.0,37523991315.0,60963434950.5
sh688005,容百科技,2021-12-02,136.0,139.98,133.73,135.87,136.05,4067012.0,554244237.0,37474345461.0,60882777704.7
sh688005,容百科技,2021-12-03,135.87,136.9,133.5,136.0,135.87,3970736.0,537597150.0,37510200800.0,60941030160.0
sh688005,容百科技,2021-12-06,135.1,136.0,129.0,129.98,136.0,5466000.0,721779152.0,35849822794.0,58243493383.799995
sh688005,容百科技,2021-12-07,129.9,132.57,121.63,123.99,129.98,7145870.0,892698800.0,34197719097.000004,55559399481.9
sh688005,容百科技,2021-12-08,125.03,129.0,125.01,127.5,123.99,5285204.0,672196037.0,35165813250.0,57132215775.0
sh688005,容百科技,2021-12-09,126.57,127.51,122.6,125.41,127.5,6225130.0,775234131.0,34589369723.0,56195695532.1
sh688005,容百科技,2021-12-10,127.51,129.0,124.3,124.55,125.41,7745522.0,978920336.0,34352172865.0,55810333135.5
sh688005,容百科技,2021-12-13,127.49,127.49,121.5,124.42,124.55,6187178.0,762108820.0,34316317525.999996,55752080680.200005
sh688005,容百科技,2021-12-14,124.32,127.2,123.27,124.29,124.42,5299873.0,662728248.0,34280462187.0,55693828224.9
sh688005,容百科技,2021-12-15,123.62,127.65,119.7,120.51,124.29,6118632.0,745474870.0,33237899252.999996,54000026063.1
sh688005,容百科技,2021-12-16,120.06,121.89,118.08,119.92,120.51,4321334.0,516507196.0,33075171176.0,53735649535.2
sh688005,容百科技,2021-12-17,119.88,121.69,115.69,116.47,119.92,6754068.0,793536124.0,32123625641.0,52189718990.700005
sh688005,容百科技,2021-12-20,116.3,119.23,113.04,114.4,116.47,5505042.0,634590904.0,31552698320.0,51262160664.0
sh688005,容百科技,2021-12-21,115.04,116.3,110.65,114.0,114.4,5361706.0,608959874.0,31442374200.0,51082922340.0
sh688005,容百科技,2021-12-22,115.47,116.3,113.7,115.16,114.0,3748198.0,431689376.0,31762314148.0,51602713479.6
sh688005,容百科技,2021-12-23,116.0,116.06,111.0,111.5,115.16,4113351.0,464005916.0,30752848450.000004,49962682814.99999
sh688005,容百科技,2021-12-24,111.98,112.7,101.51,103.0,111.5,10858501.0,1139591935.0,28408460900.0,46153868430.0
sh688005,容百科技,2021-12-27,103.43,107.07,103.43,106.88,103.0,7866085.0,827686002.0,29478604864.0,47892480172.8
sh688005,容百科技,2021-12-28,105.79,109.7,105.69,109.0,106.88,4745002.0,513619875.0,30063322700.0,48836101888.0
sh688005,容百科技,2021-12-29,109.8,109.93,105.53,106.82,109.0,3637260.0,388807165.0,29462056246.000004,47859379850.24
sh688005,容百科技,2021-12-30,107.79,109.57,105.17,106.67,106.82,4022729.0,429862225.0,29420684701.0,47792174205.44
sh688005,容百科技,2021-12-31,108.0,116.6,107.8,115.58,106.67,9599873.0,1080889437.0,31878154474.0,51784189506.56
sh688005,容百科技,2022-01-04,126.0,129.37,117.8,120.8,115.58,14375441.0,1754018544.0,33317884240.0,54122945945.6
sh688005,容百科技,2022-01-05,122.49,124.0,116.62,118.95,120.8,9315409.0,1118079835.0,32807635184.999996,53294076326.4
sh688005,容百科技,2022-01-06,118.79,126.75,116.2,123.99,118.95,9660638.0,1188350510.0,34197719097.000004,55552185991.68
sh688005,容百科技,2022-01-07,122.25,123.65,113.57,116.65,123.99,8972848.0,1050081554.0,32173271495.0,52263589772.8
sh688005,容百科技,2022-01-10,121.0,128.08,119.0,126.51,116.65,15537285.0,1936222503.0,34892761053.0,56681240824.32
sh688005,容百科技,2022-01-11,128.0,128.0,119.0,121.0,126.51,7586508.0,926024802.0,33373046300.0,54212553472.0
sh688005,容百科技,2022-01-12,124.1,131.62,124.1,131.11,121.0,12181493.0,1574388740.0,36161488433.0,58742213931.520004
sh688005,容百科技,2022-01-13,130.0,133.62,124.8,130.8,131.11,8963154.0,1164155095.0,36075987240.0,58603322265.600006
sh688005,容百科技,2022-01-14,128.8,140.18,128.0,136.23,130.8,12152736.0,1648416764.0,37573637169.0,61036166607.36
