数据由邢不行整理
股票代码,股票名称,交易日期,开盘价,最高价,最低价,收盘价,前收盘价,成交量,成交额,流通市值,总市值
sh688222,N先导,2020-04-16,40.0,49.9,38.1,47.08,20.52,26019133.0,1106528954.0,1631224261.92,18864014400.0
sh688222,成都先导,2020-04-17,45.82,46.0,40.0,40.0,47.08,19823705.0,839539151.0,1385916960.0,16027200000.0
sh688222,成都先导,2020-04-20,37.9,41.2,37.07,39.44,40.0,12349546.0,477396276.0,1366514122.56,15802819200.0
sh688222,成都先导,2020-04-21,38.33,40.5,38.15,39.17,39.44,8025411.0,315636703.0,1357159183.08,15694635600.0
sh688222,成都先导,2020-04-22,39.2,42.57,38.93,41.9,39.17,11264365.0,459795635.0,1451748015.6,16788492000.0
sh688222,成都先导,2020-04-23,41.48,41.89,39.5,39.58,41.9,8634046.0,350158222.0,1371364831.92,15858914400.0
sh688222,成都先导,2020-04-24,39.03,41.55,38.6,39.34,39.58,8489638.0,340421475.0,1363049330.16,15762751200.0
sh688222,成都先导,2020-04-27,39.09,39.5,37.31,37.71,39.34,6202630.0,236402957.0,1306573214.04,15109642800.0
sh688222,成都先导,2020-04-28,37.45,37.71,33.06,34.2,37.71,7675075.0,267892684.0,1184959000.8,13703256000.0
sh688222,成都先导,2020-04-29,34.21,35.18,33.92,34.02,34.2,2952485.0,102034583.0,1178722374.48,13631133600.0
sh688222,成都先导,2020-04-30,34.4,35.9,33.76,35.01,34.02,3996169.0,139102865.0,1213023819.24,14027806800.0
sh688222,成都先导,2020-05-06,34.6,37.95,34.37,37.25,35.01,5709807.0,208043620.0,1290635169.0,14925330000.0
sh688222,成都先导,2020-05-07,37.59,40.3,37.28,38.23,37.25,5924761.0,229678864.0,1324590134.52,15317996400.0
sh688222,成都先导,2020-05-08,37.82,38.85,37.32,37.53,38.23,4749860.0,180269969.0,1300336587.72,15037520400.0
sh688222,成都先导,2020-05-11,38.15,39.42,37.83,38.27,37.53,3311805.0,127269078.0,1325976051.48,15334023600.0
sh688222,成都先导,2020-05-12,38.0,39.86,37.8,39.72,38.27,4739412.0,184346547.0,1376215541.28,15915009600.0
sh688222,成都先导,2020-05-13,39.7,43.37,39.08,41.87,39.72,7677056.0,318884024.0,1450708577.88,16776471600.0
sh688222,成都先导,2020-05-14,41.22,43.17,40.75,41.4,41.87,4731367.0,198393878.0,1434424053.6,16588152000.0
sh688222,成都先导,2020-05-15,41.23,43.2,41.23,41.79,41.4,2990300.0,125668154.0,1447936743.96,16744417200.0
sh688222,成都先导,2020-05-18,41.83,42.2,39.15,39.5,41.79,4160018.0,167596283.0,1368592998.0,15826860000.0
sh688222,成都先导,2020-05-19,40.49,46.2,40.0,45.7,39.5,7032285.0,303708867.0,1583410126.8,18311076000.0
sh688222,成都先导,2020-05-20,44.8,45.38,42.85,43.51,45.7,5300583.0,233807203.0,1507531173.24,17433586800.0
sh688222,成都先导,2020-05-21,43.81,45.9,41.73,42.18,43.51,5675846.0,248889143.0,1461449434.32,16900682400.0
sh688222,成都先导,2020-05-22,42.88,43.0,41.2,41.85,42.18,3472653.0,145814042.0,1450015619.4,16768458000.0
sh688222,成都先导,2020-05-25,42.0,43.84,41.5,41.89,41.85,3679399.0,156936906.0,1451401536.36,16784485200.0
sh688222,成都先导,2020-05-26,41.96,45.26,41.66,44.79,41.89,4645463.0,203762017.0,1551880515.96,17946457200.0
sh688222,成都先导,2020-05-27,44.79,47.68,44.44,45.77,44.79,5441959.0,250748972.0,1585835481.48,18339123600.0
sh688222,成都先导,2020-05-28,45.71,46.29,43.28,45.0,45.77,3559442.0,158595350.0,1559156580.0,18030600000.0
sh688222,成都先导,2020-05-29,44.98,49.84,44.81,47.87,45.0,5395585.0,258939711.0,1658596121.88,19180551600.0
sh688222,成都先导,2020-06-01,48.19,51.5,47.01,50.27,47.87,5884436.0,292155384.0,1741751139.48,20142183600.0
sh688222,成都先导,2020-06-02,49.75,50.25,48.02,49.03,50.27,4132721.0,202251321.0,1698787713.72,19645340400.0
sh688222,成都先导,2020-06-03,49.22,54.38,49.22,53.76,49.03,5696267.0,296036283.0,1862672394.24,21540556800.0
sh688222,成都先导,2020-06-04,53.44,55.08,52.46,53.5,53.76,3994294.0,214288424.0,1853663934.0,21436380000.0
sh688222,成都先导,2020-06-05,52.9,55.8,51.52,52.07,53.5,4177296.0,222586373.0,1804117402.68,20863407600.0
sh688222,成都先导,2020-06-08,51.35,52.48,49.7,50.49,52.07,3911526.0,197998396.0,1749373682.76,20230333200.0
sh688222,成都先导,2020-06-09,50.34,52.0,49.8,52.0,50.49,3198480.0,163243265.0,1801692048.0,20835360000.0
sh688222,成都先导,2020-06-10,51.66,53.88,51.02,51.88,52.0,3432406.0,179112758.0,1797534297.12,20787278400.0
sh688222,成都先导,2020-06-11,51.78,51.8,48.72,48.8,51.88,3878916.0,194250612.0,1690818691.2,19553184000.0
sh688222,成都先导,2020-06-12,47.69,50.4,47.69,49.48,48.8,3007504.0,148485801.0,1714379279.52,19825646400.0
sh688222,成都先导,2020-06-15,49.72,51.7,49.26,50.0,49.48,3031671.0,152494437.0,1732396200.0,20034000000.0
sh688222,成都先导,2020-06-16,50.4,56.01,48.93,54.82,50.0,5092274.0,266713987.0,1899399193.68,21965277600.0
sh688222,成都先导,2020-06-17,54.27,56.28,53.5,55.9,54.82,3745169.0,205983270.0,1936818951.6,22398012000.0
sh688222,成都先导,2020-06-18,55.2,55.47,52.11,52.78,55.9,3328934.0,177139651.0,1828717428.72,21147890400.0
sh688222,成都先导,2020-06-19,52.85,54.39,52.15,52.65,52.78,2807744.0,149020673.0,1824213198.6,21095802000.0
sh688222,成都先导,2020-06-22,52.59,53.68,52.2,52.95,52.65,2159241.0,114172847.0,1834607575.8,21216006000.0
sh688222,成都先导,2020-06-23,53.01,57.5,52.7,55.96,52.95,3722351.0,207003545.0,1938897827.04,22422052800.0
sh688222,成都先导,2020-06-24,55.88,56.88,53.29,53.68,55.96,3115610.0,169010791.0,1859900560.32,21508502400.000004
sh688222,成都先导,2020-06-29,53.55,54.4,53.3,54.09,53.68,2058665.0,110798275.0,1874106209.16,21672781200.0
sh688222,成都先导,2020-06-30,54.46,56.0,53.17,54.25,54.09,3007001.0,163596611.0,1879649877.0,21736890000.0
sh688222,成都先导,2020-07-01,54.02,54.4,50.12,51.73,54.25,5159678.0,266708617.0,1792337108.52,20727176400.0
sh688222,成都先导,2020-07-02,51.2,51.48,50.2,50.69,51.73,2914428.0,147930613.0,1756303267.56,20310469200.0
sh688222,成都先导,2020-07-03,50.28,50.69,48.38,50.24,50.69,2814509.0,140006798.0,1740711701.7600002,20130163200.0
sh688222,成都先导,2020-07-06,50.19,51.33,49.0,50.94,50.24,4335354.0,218115195.0,1764965248.56,20410639200.0
sh688222,XD成都先,2020-07-07,50.9,53.5,50.9,52.85,50.82,4629191.0,241962008.0,1831142783.4,21175938000.0
sh688222,成都先导,2020-07-08,53.0,53.48,51.27,51.87,52.85,3466130.0,179971924.0,1797187817.88,20783271600.0
sh688222,成都先导,2020-07-09,51.86,55.99,51.01,55.66,51.87,5383238.0,289749887.0,1928503449.84,22301848800.0
sh688222,成都先导,2020-07-10,55.38,57.43,54.68,56.51,55.66,4949377.0,277789120.0,1957954185.24,22642426800.0
sh688222,成都先导,2020-07-13,56.6,61.42,56.6,60.0,56.51,4140213.0,245187006.0,2078875440.0,24040800000.0
sh688222,成都先导,2020-07-14,59.88,61.99,54.7,55.77,60.0,4449516.0,256717305.0,1932314721.48,22345923600.0
sh688222,成都先导,2020-07-15,55.78,57.67,54.13,54.3,55.77,3659999.0,204946591.0,1881382273.2,21756924000.0
sh688222,成都先导,2020-07-16,54.4,55.29,47.68,48.33,54.3,4421456.0,226170790.0,1674534166.92,19364864400.0
sh688222,成都先导,2020-07-17,49.0,49.99,47.53,48.78,48.33,2354598.0,115044096.0,1690125732.72,19545170400.0
sh688222,成都先导,2020-07-20,49.67,49.85,45.58,47.1,48.78,3025702.0,141715582.0,1631917220.4,18872028000.0
sh688222,成都先导,2020-07-21,47.42,49.5,47.3,48.88,47.1,2191237.0,106307506.0,1693590525.12,19585238400.0
sh688222,成都先导,2020-07-22,49.0,49.98,48.5,49.43,48.88,1562806.0,76907399.0,1712646883.32,19805612400.0
sh688222,成都先导,2020-07-23,48.38,51.84,48.38,51.6,49.43,2709222.0,135702744.0,1787832878.4,20675088000.0
sh688222,成都先导,2020-07-24,50.97,51.41,44.8,44.91,51.6,3145794.0,151221236.0,1556038266.84,17994538800.0
sh688222,成都先导,2020-07-27,45.3,46.12,43.44,44.54,44.91,1711580.0,76642155.0,1543218534.96,17846287200.0
sh688222,成都先导,2020-07-28,44.91,46.9,44.67,46.2,44.54,1467364.0,67118991.0,1600734088.8,18511416000.0
sh688222,成都先导,2020-07-29,46.65,49.88,46.2,49.69,46.2,2383606.0,115990414.0,1721655343.56,19909789200.0
sh688222,成都先导,2020-07-30,49.48,50.5,49.0,49.85,49.69,1976971.0,98494040.0,1727199011.4,19973898000.0
sh688222,成都先导,2020-07-31,49.4,50.39,48.43,49.59,49.85,2828440.0,139064308.0,1718190551.16,19869721200.0
sh688222,成都先导,2020-08-03,50.2,51.6,49.24,51.39,49.59,2366906.0,119482335.0,1780556814.36,20590945200.0
sh688222,成都先导,2020-08-04,51.4,51.88,49.59,50.64,51.39,1864977.0,94467288.0,1754570871.36,20290435200.0
sh688222,成都先导,2020-08-05,50.1,50.9,49.24,50.0,50.64,1613764.0,80618286.0,1732396200.0,20034000000.0
sh688222,成都先导,2020-08-06,50.4,50.4,48.01,48.56,50.0,1461296.0,71405571.0,1682503189.44,19457020800.0
sh688222,成都先导,2020-08-07,48.33,48.9,46.3,46.91,48.56,1639778.0,77347696.0,1625334114.8400002,18795898800.0
sh688222,成都先导,2020-08-10,46.37,47.98,46.26,47.64,46.91,1004944.0,47263447.0,1650627099.36,19088395200.0
sh688222,成都先导,2020-08-11,47.6,48.18,45.58,45.7,47.64,1020418.0,47590518.0,1583410126.8000002,18311076000.0
sh688222,成都先导,2020-08-12,46.13,46.49,43.43,44.18,45.7,1335108.0,59325305.0,1530745282.3200002,17702042400.0
sh688222,成都先导,2020-08-13,44.18,44.9,43.5,44.3,44.18,829869.0,36714123.0,1534903033.2,17750124000.0
sh688222,成都先导,2020-08-14,44.4,44.63,42.88,43.9,44.3,1005810.0,43875356.0,1521043863.6,17589852000.0
sh688222,成都先导,2020-08-17,44.17,44.8,43.53,44.78,43.9,824380.0,36551666.0,1551534036.7199998,17942450400.0
sh688222,成都先导,2020-08-18,44.98,46.39,44.92,45.38,44.78,804383.0,36633280.0,1572322791.12,18182858400.0
sh688222,成都先导,2020-08-19,45.52,45.53,43.12,43.4,45.38,809927.0,35859786.0,1503719901.6,17389512000.0
sh688222,成都先导,2020-08-20,43.16,43.49,42.19,42.41,43.4,765279.0,32690532.0,1469418456.84,16992838799.999998
sh688222,成都先导,2020-08-21,43.0,43.13,39.5,40.3,42.41,2645224.0,108215166.0,1396311337.2,16147404000.0
sh688222,成都先导,2020-08-24,40.54,41.48,39.88,40.64,40.3,1152157.0,47034158.0,1408091631.36,16283635200.0
sh688222,成都先导,2020-08-25,40.3,41.64,40.3,40.51,40.64,1047165.0,42990824.0,1403587401.24,16231546800.0
sh688222,成都先导,2020-08-26,41.1,41.35,39.8,39.82,40.51,975084.0,39480677.0,1379680333.68,15955077600.0
sh688222,成都先导,2020-08-27,39.81,40.37,38.73,39.82,39.82,840607.0,33242466.0,1379680333.68,15955077600.0
sh688222,成都先导,2020-08-28,40.2,41.46,39.75,41.23,39.82,938507.0,38330111.0,1428533906.52,16520036399.999998
sh688222,成都先导,2020-08-31,41.64,43.39,41.21,42.25,41.23,1228865.0,52141817.0,1463874788.9999998,16928730000.0
sh688222,成都先导,2020-09-01,42.0,43.09,41.75,42.39,42.25,838167.0,35566901.0,1468725498.36,16984825200.0
sh688222,成都先导,2020-09-02,42.48,43.01,42.05,42.1,42.39,579679.0,24578596.0,1458677600.4,16868628000.0
sh688222,成都先导,2020-09-03,41.48,43.87,41.26,43.03,42.1,982103.0,41743521.0,1490900169.72,17241260400.0
sh688222,成都先导,2020-09-04,42.25,43.49,41.52,42.65,43.03,756186.0,31999589.0,1477733958.6,17089002000.0
sh688222,成都先导,2020-09-07,42.66,44.0,42.0,42.06,42.65,1272664.0,55033905.0,1457291683.44,16852600800.0
sh688222,成都先导,2020-09-08,42.17,42.68,41.19,42.09,42.06,622410.0,26127919.0,1458331121.16,16864621200.000002
sh688222,成都先导,2020-09-09,42.09,42.84,39.36,39.5,42.09,1146678.0,46266413.0,1368592998.0,15826860000.0
sh688222,成都先导,2020-09-10,39.62,40.49,37.9,38.2,39.5,767853.0,30044029.0,1323550696.8,15305976000.0
sh688222,成都先导,2020-09-11,38.3,39.47,37.88,39.08,38.2,508501.0,19680043.0,1354040869.92,15658574400.0
sh688222,成都先导,2020-09-14,39.55,40.3,38.75,40.25,39.08,441059.0,17604668.0,1394578941.0,16127370000.0
sh688222,成都先导,2020-09-15,40.25,40.59,39.9,40.26,40.25,345074.0,13868488.0,1394925420.24,16131376800.0
sh688222,成都先导,2020-09-16,39.8,40.29,38.51,38.77,40.26,538511.0,21138731.0,1343300013.48,15534363600.000002
sh688222,成都先导,2020-09-17,39.38,40.25,38.72,39.96,38.77,1000269.0,39647599.0,1384531043.04,16011172800.0
sh688222,成都先导,2020-09-18,39.04,40.6,39.04,40.25,39.96,593650.0,23784446.0,1394578941.0,16127370000.0
sh688222,成都先导,2020-09-21,39.86,41.02,39.5,39.82,40.25,482427.0,19280713.0,1379680333.68,15955077600.0
sh688222,成都先导,2020-09-22,39.12,39.88,38.88,39.08,39.82,544500.0,21393050.0,1354040869.92,15658574400.0
sh688222,成都先导,2020-09-23,38.5,40.47,38.48,39.95,39.08,586219.0,23225851.0,1384184563.8,16007166000.0
sh688222,成都先导,2020-09-24,39.33,41.81,39.18,40.8,39.95,1295235.0,52823799.0,1413635299.2,16347744000.0
sh688222,成都先导,2020-09-25,41.14,41.6,39.47,39.47,40.8,721193.0,29083052.0,1367553560.2800002,15814839600.0
sh688222,成都先导,2020-09-28,39.32,39.45,37.3,37.61,39.47,946427.0,36165886.0,1303108421.64,15069574800.0
sh688222,成都先导,2020-09-29,37.61,38.4,37.31,38.0,37.61,686329.0,25969220.0,1316621112.0000002,15225840000.0
sh688222,成都先导,2020-09-30,37.8,38.8,37.8,37.86,38.0,449550.0,17184822.0,1311770402.64,15169744800.0
sh688222,成都先导,2020-10-09,38.65,39.15,38.23,38.85,37.86,544914.0,21105098.0,1346071847.4,15566418000.0
sh688222,成都先导,2020-10-12,38.86,40.15,38.56,39.91,38.85,1261663.0,49428985.0,1382798646.84,15991138799.999998
sh688222,成都先导,2020-10-13,40.5,42.37,40.08,40.46,39.91,2083486.0,85090151.0,1401855005.04,16211512800.0
sh688222,成都先导,2020-10-14,40.46,40.85,39.21,39.31,40.46,1247544.0,49712479.0,1362009892.44,15750730800.0
sh688222,成都先导,2020-10-15,39.01,40.18,38.03,38.2,39.31,1065135.0,41051274.0,1323550696.8,15305976000.0
sh688222,成都先导,2020-10-16,37.78,38.0,34.88,36.33,38.2,3600193.0,131327890.0,1335298105.6799998,14556704400.0
sh688222,成都先导,2020-10-19,36.49,36.8,35.5,35.92,36.33,1500742.0,54245156.0,1320228680.32,14392425600.0
sh688222,成都先导,2020-10-20,36.14,36.14,35.04,35.89,35.92,1048495.0,37224566.0,1319126039.44,14380405200.0
sh688222,成都先导,2020-10-21,35.6,36.73,35.2,35.89,35.89,1119813.0,40377153.0,1319126039.44,14380405200.0
sh688222,成都先导,2020-10-22,35.97,36.07,35.21,35.8,35.89,692417.0,24656546.0,1315818116.8000002,14344344000.0
sh688222,成都先导,2020-10-23,35.61,36.7,35.61,35.99,35.8,947178.0,34239335.0,1322801509.0400002,14420473200.0
sh688222,成都先导,2020-10-26,35.74,36.65,35.53,36.24,35.99,667383.0,24100519.0,1331990183.04,14520643200.0
sh688222,成都先导,2020-10-27,36.35,36.35,35.76,36.0,36.24,582466.0,20964890.0,1323169056.0,14424480000.0
sh688222,成都先导,2020-10-28,35.75,36.13,34.6,34.72,36.0,1016115.0,35804202.0,1276123045.12,13911609600.0
sh688222,成都先导,2020-10-29,34.5,35.17,33.85,35.05,34.72,875116.0,30270553.0,1288252094.8,14043834000.0
sh688222,成都先导,2020-10-30,34.85,35.37,33.98,34.84,35.05,905769.0,31305585.0,1280533608.64,13959691200.000002
sh688222,成都先导,2020-11-02,34.5,34.8,31.08,31.33,34.84,2163739.0,69361507.0,1151524625.68,12553304400.0
sh688222,成都先导,2020-11-03,31.65,33.6,31.0,33.33,31.33,1769863.0,57649756.0,1225034017.68,13354664400.0
sh688222,成都先导,2020-11-04,33.87,33.87,32.3,32.79,33.33,975219.0,32128069.0,1205186481.8400002,13138297200.0
sh688222,成都先导,2020-11-05,33.87,33.87,32.88,33.32,32.79,821659.0,27370772.0,1224666470.72,13350657600.0
sh688222,成都先导,2020-11-06,33.82,33.82,32.4,32.68,33.32,539556.0,17720050.0,1201143465.28,13094222400.0
sh688222,成都先导,2020-11-09,32.67,33.73,32.67,33.52,32.68,907782.0,30284197.0,1232017409.92,13430793600.000002
sh688222,成都先导,2020-11-10,34.08,34.97,33.73,34.26,33.52,1050483.0,36132457.0,1259215884.96,13727296800.0
sh688222,成都先导,2020-11-11,34.99,35.69,34.27,34.45,34.26,957541.0,33260067.0,1266199277.2,13803426000.0
sh688222,成都先导,2020-11-12,35.48,35.48,33.38,33.53,34.45,662883.0,22401257.0,1232384956.88,13434800400.0
sh688222,成都先导,2020-11-13,33.53,33.67,32.61,32.79,33.53,622188.0,20460987.0,1205186481.8400002,13138297200.0
sh688222,成都先导,2020-11-16,32.45,33.22,32.45,32.88,32.79,489415.0,16070287.0,1208494404.48,13174358400.0
sh688222,成都先导,2020-11-17,32.88,32.94,31.82,32.09,32.88,543125.0,17441958.0,1179458194.64,12857821200.000002
sh688222,成都先导,2020-11-18,32.47,32.47,31.31,31.95,32.09,514238.0,16310045.0,1174312537.2,12801726000.0
sh688222,成都先导,2020-11-19,31.9,32.4,31.31,31.92,31.95,380007.0,12171695.0,1173209896.32,12789705600.0
sh688222,成都先导,2020-11-20,31.63,32.5,31.63,32.02,31.92,385069.0,12367837.0,1176885365.92,12829773600.000002
sh688222,成都先导,2020-11-23,32.66,34.4,32.05,34.03,32.02,1435339.0,47579207.0,1250762304.88,13635140400.0
sh688222,成都先导,2020-11-24,33.8,34.27,33.06,33.4,34.03,847742.0,28379936.0,1227606846.4,13382712000.0
sh688222,成都先导,2020-11-25,33.51,33.7,32.7,32.78,33.4,566516.0,18666745.0,1204818934.88,13134290400.0
sh688222,成都先导,2020-11-26,32.52,35.58,32.52,34.94,32.78,2467605.0,85230327.0,1284209078.24,13999759200.0
sh688222,成都先导,2020-11-27,34.54,36.38,34.54,35.4,34.94,1880878.0,66934233.0,1301116238.4,14184072000.0
sh688222,成都先导,2020-11-30,35.5,35.5,34.28,34.93,35.4,1044311.0,36292024.0,1283841531.28,13995752400.0
sh688222,成都先导,2020-12-01,34.52,35.39,34.52,35.05,34.93,960595.0,33647294.0,1288252094.8,14043834000.0
sh688222,成都先导,2020-12-02,36.0,37.46,35.51,36.5,35.05,2539976.0,93253414.0,1341546404.0,14624820000.0
sh688222,成都先导,2020-12-03,36.58,37.99,36.24,37.3,36.5,1617657.0,60317221.0,1370950160.8,14945364000.0
sh688222,成都先导,2020-12-04,37.29,37.9,36.22,36.61,37.3,1258811.0,46557878.0,1345589420.56,14668894800.0
sh688222,成都先导,2020-12-07,36.31,36.79,35.51,36.0,36.61,901913.0,32529089.0,1323169056.0,14424480000.0
sh688222,成都先导,2020-12-08,35.88,37.27,35.8,36.0,36.0,941345.0,34165604.0,1323169056.0,14424480000.0
sh688222,成都先导,2020-12-09,35.9,35.9,34.59,35.2,36.0,1065954.0,37425706.0,1293765299.2,14103936000.0
sh688222,成都先导,2020-12-10,35.08,35.38,34.63,34.81,35.2,558360.0,19508002.0,1279430967.76,13947670800.0
sh688222,成都先导,2020-12-11,35.0,35.3,34.57,34.75,34.81,539605.0,18818833.0,1277225686.0,13923630000.0
sh688222,成都先导,2020-12-14,34.81,37.47,34.81,37.42,34.75,2564049.0,94542543.0,1375360724.32,14993445600.0
sh688222,成都先导,2020-12-15,37.4,37.73,36.52,36.99,37.42,1229303.0,45684718.0,1359556205.04,14821153200.0
sh688222,成都先导,2020-12-16,36.61,38.94,36.6,37.48,36.99,1965365.0,74948932.0,1377566006.0800002,15017486399.999998
sh688222,成都先导,2020-12-17,38.1,39.0,37.0,37.82,37.48,2333411.0,88786099.0,1390062602.72,15153717600.0
sh688222,成都先导,2020-12-18,37.73,38.04,35.66,35.66,37.82,2686599.0,98040474.0,1310672459.36,14288248799.999998
sh688222,成都先导,2020-12-21,35.49,35.49,33.29,33.53,35.66,2759994.0,93903140.0,1232384956.88,13434800400.0
sh688222,成都先导,2020-12-22,33.55,34.68,32.88,33.35,33.53,1614058.0,54791650.0,1225769111.6,13362678000.0
sh688222,成都先导,2020-12-23,33.01,34.3,32.79,33.55,33.35,1491313.0,49832979.0,1233120050.8,13442814000.0
sh688222,成都先导,2020-12-24,33.5,33.85,31.7,32.33,33.55,1605022.0,52750971.0,1188279321.68,12953984400.0
sh688222,成都先导,2020-12-25,32.05,32.65,31.92,32.3,32.33,724909.0,23404807.0,1187176680.8,12941964000.0
sh688222,成都先导,2020-12-28,32.28,32.28,29.19,29.19,32.3,2575371.0,77467685.0,1072869576.24,11695849200.0
sh688222,成都先导,2020-12-29,29.1,29.65,28.0,28.88,29.19,1514257.0,43466748.0,1061475620.48,11571638400.0
sh688222,成都先导,2020-12-30,28.78,29.66,28.41,29.11,28.88,1048449.0,30490813.0,1069929200.56,11663794800.0
sh688222,成都先导,2020-12-31,29.11,30.8,29.01,30.12,29.11,1492190.0,44517076.0,1107051443.52,12068481600.0
sh688222,成都先导,2021-01-04,30.1,30.69,29.6,30.11,30.12,978623.0,29350594.0,1106683896.56,12064474800.0
sh688222,成都先导,2021-01-05,30.0,30.37,29.68,30.03,30.11,938945.0,28191854.0,1103743520.88,12032420400.0
sh688222,成都先导,2021-01-06,30.0,30.16,28.82,29.23,30.03,971861.0,28376617.0,1074339764.08,11711876399.999998
sh688222,成都先导,2021-01-07,29.22,29.23,26.53,26.71,29.23,2079501.0,57307263.0,981717930.16,10702162800.0
sh688222,成都先导,2021-01-08,26.77,27.38,26.05,26.62,26.71,931058.0,25007361.0,978410007.52,10666101600.0
sh688222,成都先导,2021-01-11,26.35,27.19,25.6,25.71,26.62,1064559.0,27972246.0,944963234.16,10301482800.0
sh688222,成都先导,2021-01-12,25.9,26.4,25.2,25.37,25.71,1007859.0,25737257.0,932466637.52,10165251600.0
sh688222,成都先导,2021-01-13,25.79,25.79,23.92,24.4,25.37,1412511.0,34691328.0,896814582.4000001,9776592000.0
sh688222,成都先导,2021-01-14,24.77,26.39,24.03,25.55,24.4,1676730.0,42688949.0,939082482.8,10237374000.0
sh688222,成都先导,2021-01-15,25.15,26.49,25.15,26.24,25.55,1076916.0,28084479.0,964443223.04,10513843200.0
sh688222,成都先导,2021-01-18,26.15,27.7,25.81,26.92,26.24,881958.0,23860567.0,989436416.32,10786305600.0
sh688222,成都先导,2021-01-19,27.46,29.88,27.45,28.89,26.92,2193311.0,63784832.0,1061843167.44,11575645200.0
sh688222,成都先导,2021-01-20,28.91,29.88,28.33,29.19,28.89,1232783.0,36045409.0,1072869576.24,11695849200.0
sh688222,成都先导,2021-01-21,28.96,30.85,28.96,29.75,29.19,1768490.0,53192661.0,1093452206.0,11920230000.0
sh688222,成都先导,2021-01-22,29.61,31.17,29.47,30.84,29.75,1560915.0,47778016.0,1133514824.64,12356971200.000002
sh688222,成都先导,2021-01-25,30.52,31.1,28.06,29.4,30.84,2015624.0,59214133.0,1080588062.4,11779992000.0
sh688222,成都先导,2021-01-26,29.17,30.38,28.61,29.41,29.4,1145663.0,33607139.0,1080955609.36,11783998799.999998
sh688222,成都先导,2021-01-27,29.97,30.29,28.0,28.18,29.41,981920.0,28201787.0,1035747333.28,11291162400.0
sh688222,成都先导,2021-01-28,27.79,28.27,27.08,27.16,28.18,818526.0,22574378.0,998257543.36,10882468799.999998
sh688222,成都先导,2021-01-29,27.43,27.87,26.33,26.69,27.16,589705.0,15823907.0,980982836.24,10694149200.0
sh688222,成都先导,2021-02-01,26.94,29.91,26.63,29.42,26.69,1503429.0,43607239.0,1081323156.32,11788005600.0
sh688222,成都先导,2021-02-02,29.48,35.3,29.48,35.3,29.42,4132697.0,138983551.0,1297440768.8,14144004000.0
sh688222,成都先导,2021-02-03,34.47,35.28,33.17,34.25,35.3,2736092.0,93497775.0,1258848338.0,13723290000.0
sh688222,成都先导,2021-02-04,34.18,34.68,32.18,33.33,34.25,1963978.0,65032342.0,1225034017.68,13354664400.0
sh688222,成都先导,2021-02-05,33.48,37.6,32.48,35.43,33.33,3214190.0,114558210.0,1302218879.28,14196092400.0
sh688222,成都先导,2021-02-08,35.0,36.38,33.5,34.01,35.43,1968996.0,68192627.0,1250027210.96,13627126800.0
sh688222,成都先导,2021-02-09,34.48,37.55,34.02,36.27,34.01,2129577.0,77406206.0,1333092823.9199998,14532663600.000002
sh688222,成都先导,2021-02-10,36.87,41.0,35.83,40.13,36.27,3315822.0,131417862.0,1474965950.4799998,16079288400.0
sh688222,成都先导,2021-02-18,40.61,41.86,38.16,38.84,40.13,2651877.0,105048829.0,1427552392.64,15562411200.000002
sh688222,成都先导,2021-02-19,39.4,40.77,38.21,39.22,38.84,1868769.0,73864720.0,1441519177.12,15714669600.0
sh688222,成都先导,2021-02-22,38.94,39.83,34.01,34.27,39.22,3191670.0,115522377.0,1259583431.92,13731303600.000002
sh688222,成都先导,2021-02-23,34.62,36.88,34.3,35.35,34.27,2173617.0,77434723.0,1299278503.6,14164038000.0
sh688222,成都先导,2021-02-24,35.8,36.88,34.5,35.3,35.35,1312830.0,46600447.0,1297440768.8,14144004000.0
sh688222,成都先导,2021-02-25,35.6,35.65,33.5,34.13,35.3,1356604.0,46419223.0,1254437774.48,13675208400.0
sh688222,成都先导,2021-02-26,33.5,36.3,33.21,35.33,34.13,1708729.0,60268439.0,1298543409.68,14156024400.0
sh688222,成都先导,2021-03-01,35.33,36.46,34.6,35.24,35.33,1431917.0,50764910.0,1295235487.04,14119963200.0
sh688222,成都先导,2021-03-02,35.1,35.2,34.0,34.35,35.24,1044087.0,36072295.0,1262523807.6,13763358000.0
sh688222,成都先导,2021-03-03,34.22,34.84,33.01,34.0,34.35,1117774.0,37590702.0,1249659664.0,13623120000.0
sh688222,成都先导,2021-03-04,33.88,34.25,32.81,32.99,34.0,1012588.0,33665064.0,1212537421.04,13218433200.0
sh688222,成都先导,2021-03-05,32.67,33.48,32.1,32.86,32.99,1004259.0,32942891.0,1207759310.56,13166344800.0
sh688222,成都先导,2021-03-08,32.86,33.95,30.39,30.62,32.86,1497943.0,47945929.0,1125428791.52,12268821600.0
sh688222,成都先导,2021-03-09,30.5,30.88,28.89,29.43,30.62,1137073.0,33966660.0,1081690703.28,11792012400.0
sh688222,成都先导,2021-03-10,30.86,30.87,29.0,29.35,29.43,738184.0,21823575.0,1078750327.6,11759958000.0
sh688222,成都先导,2021-03-11,29.2,30.78,28.7,29.86,29.35,1034046.0,31040437.0,1097495222.56,11964304800.0
sh688222,成都先导,2021-03-12,30.0,30.65,29.22,29.89,29.86,875380.0,26206805.0,1098597863.4399998,11976325200.0
sh688222,成都先导,2021-03-15,30.0,30.0,28.41,28.71,29.89,769580.0,22265629.0,1055227322.16,11503522800.0
sh688222,成都先导,2021-03-16,28.88,29.52,28.45,29.3,28.71,677193.0,19623913.0,1076912592.8,11739924000.0
sh688222,成都先导,2021-03-17,29.4,29.65,28.79,29.0,29.3,520100.0,15160984.0,1065886184.0,11619720000.0
sh688222,成都先导,2021-03-18,29.34,31.25,28.61,31.13,29.0,1542968.0,46521742.0,1144173686.48,12473168400.0
sh688222,成都先导,2021-03-19,30.5,31.39,29.59,29.72,31.13,1184290.0,35947074.0,1092349565.12,11908209600.0
sh688222,成都先导,2021-03-22,29.72,30.2,29.31,29.8,29.72,717329.0,21247644.0,1095289940.8,11940264000.0
sh688222,成都先导,2021-03-23,29.62,29.84,28.2,28.27,29.8,806291.0,23253794.0,1039055255.92,11327223600.000002
sh688222,成都先导,2021-03-24,28.08,28.49,27.0,27.29,28.27,902943.0,24828751.0,1003035653.84,10934557200.0
sh688222,成都先导,2021-03-25,27.38,27.98,26.92,27.2,27.29,646042.0,17727411.0,999727731.2,10898496000.0
sh688222,成都先导,2021-03-26,27.42,28.3,27.12,27.64,27.2,810167.0,22388278.0,1015899797.44,11074795200.0
sh688222,成都先导,2021-03-29,27.98,28.7,27.66,27.92,27.64,793032.0,22354510.0,1026191112.32,11186985600.0
sh688222,成都先导,2021-03-30,27.76,28.01,26.81,27.03,27.92,1000146.0,27287154.0,993479432.88,10830380400.0
sh688222,成都先导,2021-03-31,27.05,27.51,26.77,26.85,27.03,589888.0,15941956.0,986863587.6,10758258000.0
sh688222,成都先导,2021-04-01,27.0,27.97,26.27,27.88,26.85,1094450.0,29730042.0,1024720924.48,11170958400.0
sh688222,成都先导,2021-04-02,27.8,28.21,27.4,27.8,27.88,785497.0,21783643.0,1021780548.8,11138904000.0
sh688222,成都先导,2021-04-06,27.9,29.84,27.5,29.27,27.8,1537299.0,44256805.0,1075809951.92,11727903600.000002
sh688222,成都先导,2021-04-07,29.0,29.26,28.33,28.78,29.27,1048126.0,30033811.0,1057800150.88,11531570400.0
sh688222,成都先导,2021-04-08,28.58,29.87,28.58,29.04,28.78,1312087.0,38409882.0,1067356371.84,11635747200.0
sh688222,成都先导,2021-04-09,28.78,30.09,28.6,28.94,29.04,1214952.0,35593046.0,1063680902.24,11595679200.0
sh688222,成都先导,2021-04-12,28.45,28.45,26.3,26.4,28.94,1612723.0,43699351.0,970323974.4,10577952000.0
sh688222,成都先导,2021-04-13,26.55,26.88,25.9,26.27,26.4,1109214.0,29238438.0,965545863.92,10525863600.000002
sh688222,成都先导,2021-04-14,26.46,26.49,25.8,26.22,26.27,757857.0,19832740.0,963708129.12,10505829600.0
sh688222,成都先导,2021-04-15,26.22,27.65,25.6,27.01,26.22,1214267.0,32283925.0,992744338.96,10822366800.0
sh688222,成都先导,2021-04-16,27.0,29.44,27.0,28.01,27.01,3118836.0,88940654.0,7792454041.72,11223046800.0
sh688222,成都先导,2021-04-19,26.88,27.46,26.0,26.32,28.01,3817115.0,101740119.0,7322291695.04,10545897600.0
sh688222,成都先导,2021-04-20,26.2,26.44,25.06,25.12,26.32,3741824.0,96272646.0,6988448608.64,10065081600.0
sh688222,成都先导,2021-04-21,25.11,25.2,24.6,24.79,25.12,2609026.0,64996545.0,6896641759.88,9932857200.0
sh688222,成都先导,2021-04-22,24.99,25.57,24.77,24.95,24.79,1583528.0,39715366.0,6941154171.400001,9996966000.0
sh688222,成都先导,2021-04-23,24.95,25.2,24.42,24.49,24.95,1465054.0,36156854.0,6813180988.28,9812653200.0
sh688222,成都先导,2021-04-26,24.54,25.96,24.54,25.75,24.49,4268862.0,108804402.0,7163716229.0,10317510000.0
sh688222,成都先导,2021-04-27,25.9,25.9,25.0,25.38,25.75,2049937.0,51940610.0,7060781277.36,10169258400.0
sh688222,成都先导,2021-04-28,25.39,26.48,25.0,26.26,25.38,3248232.0,84706052.0,7305599540.72,10521856800.0
sh688222,成都先导,2021-04-29,25.93,25.93,23.8,24.99,26.26,3442750.0,86173309.0,6987982988.28,10012993200.0
sh688222,成都先导,2021-04-30,24.88,25.17,24.38,24.5,24.99,2530953.0,62387015.0,6850963713.999999,9816660000.0
sh688222,成都先导,2021-05-06,24.45,24.8,23.2,23.39,24.5,2768842.0,65923294.0,6540573113.08,9371905200.0
sh688222,成都先导,2021-05-07,23.55,23.63,23.12,23.39,23.39,1090267.0,25469796.0,6540573113.08,9371905200.0
sh688222,成都先导,2021-05-10,23.6,23.62,22.5,22.77,23.39,1503735.0,34650289.0,6367201786.44,9123483600.0
sh688222,成都先导,2021-05-11,22.77,23.07,22.4,22.55,22.77,1032297.0,23351066.0,6305682928.6,9035334000.0
sh688222,成都先导,2021-05-12,22.43,22.81,21.9,22.8,22.55,1664670.0,37086616.0,6375590721.599999,9135504000.0
sh688222,成都先导,2021-05-13,22.41,24.89,22.39,23.75,22.8,3569797.0,85345374.0,6641240335.0,9516150000.0
sh688222,成都先导,2021-05-14,23.75,24.76,23.6,24.36,23.75,3474851.0,84817112.0,6811815349.92,9760564800.0
sh688222,成都先导,2021-05-17,24.11,28.5,24.11,26.31,24.36,4667088.0,123440444.0,7357096135.32,10541890800.0
sh688222,成都先导,2021-05-18,26.89,28.46,25.4,28.19,26.31,6530773.0,178668323.0,7882802738.68,11295169200.0
sh688222,成都先导,2021-05-19,27.71,28.3,27.1,27.6,28.19,3430524.0,94574615.0,7717820347.2,11058768000.0
sh688222,成都先导,2021-05-20,27.48,28.28,26.75,27.59,27.6,3099418.0,85309278.0,7715024035.48,11054761200.000002
sh688222,成都先导,2021-05-21,27.59,28.19,26.7,27.28,27.59,2293078.0,62676631.0,7628338372.16,10930550400.0
sh688222,成都先导,2021-05-24,27.6,27.95,26.26,26.38,27.28,2684601.0,71427782.0,7376670317.36,10569938400.0
sh688222,成都先导,2021-05-25,26.41,30.5,26.41,29.9,26.38,8122648.0,235789257.0,8360972042.799999,11980332000.0
sh688222,成都先导,2021-05-26,29.7,31.3,29.7,30.26,29.9,7377243.0,226043764.0,8461639264.719999,12124576800.0
sh688222,成都先导,2021-05-27,30.33,30.98,29.46,29.71,30.26,3995975.0,118807392.0,8307842120.12,11904202800.0
sh688222,成都先导,2021-05-28,29.47,31.27,29.32,29.9,29.71,6092703.0,183804245.0,8360972042.799999,11980332000.0
sh688222,成都先导,2021-05-31,29.3,31.8,29.29,31.33,29.9,6551402.0,200587658.0,8760844618.76,12553304400.0
sh688222,成都先导,2021-06-01,31.37,32.59,30.9,31.3,31.33,4825924.0,152732630.0,8752455683.6,12541284000.0
sh688222,成都先导,2021-06-02,30.5,31.47,29.6,29.99,31.3,4124258.0,124740816.0,8386138848.28,12016393200.0
sh688222,成都先导,2021-06-03,29.9,30.0,27.88,27.88,29.99,4799887.0,137437969.0,7796117075.36,11170958400.0
sh688222,成都先导,2021-06-04,27.66,29.16,27.66,28.81,27.88,3924134.0,112115758.0,8056174065.320001,11543590800.0
sh688222,成都先导,2021-06-07,29.08,29.45,28.5,28.9,28.81,2042750.0,58978373.0,8081340870.799999,11579652000.0
sh688222,成都先导,2021-06-08,28.89,30.5,28.5,29.01,28.9,3955340.0,117140797.0,8112100299.72,11623726800.0
sh688222,成都先导,2021-06-09,29.47,30.39,28.41,28.69,29.01,3437658.0,101290929.0,8022618324.68,11495509200.0
sh688222,成都先导,2021-06-10,28.53,30.5,27.93,29.91,28.69,4577247.0,132773253.0,8363768354.52,11984338799.999998
sh688222,成都先导,2021-06-11,29.55,29.71,28.02,28.38,29.91,3827940.0,110069249.0,7935932661.360001,11371298400.0
sh688222,成都先导,2021-06-15,28.11,28.46,27.05,27.7,28.38,2293753.0,63650043.0,7745783464.4,11098836000.0
sh688222,成都先导,2021-06-16,27.89,28.36,26.81,26.9,27.7,2759724.0,75845418.0,7522078526.8,10778292000.0
sh688222,成都先导,2021-06-17,26.88,27.12,25.95,26.11,26.9,3051931.0,80329672.0,7301169900.92,10461754800.0
sh688222,成都先导,2021-06-18,26.35,26.83,26.0,26.23,26.11,3107612.0,81818566.0,7334725641.56,10509836399.999998
sh688222,成都先导,2021-06-21,26.42,27.77,26.06,27.09,26.23,3194167.0,86502514.0,7575208449.48,10854421200.000002
sh688222,成都先导,2021-06-22,27.52,27.96,27.01,27.38,27.09,3233681.0,88628906.0,7656301489.36,10970618400.0
sh688222,成都先导,2021-06-23,27.42,28.48,26.8,27.93,27.38,4531490.0,125239010.0,7810098633.96,11190992400.0
sh688222,成都先导,2021-06-24,27.95,28.1,25.4,25.68,27.93,5427501.0,143224024.0,7180928496.96,10289462400.0
sh688222,成都先导,2021-06-25,25.8,26.13,25.56,26.02,25.68,3042518.0,78750524.0,7276003095.44,10425693600.0
sh688222,成都先导,2021-06-28,26.3,29.95,25.8,29.26,26.02,7187661.0,201884843.0,8182008092.72,11723896800.0
sh688222,成都先导,2021-06-29,29.3,30.3,28.72,29.26,29.26,4898421.0,143614186.0,8182008092.72,11723896800.0
sh688222,成都先导,2021-06-30,29.31,30.8,28.93,29.5,29.26,5081418.0,152261272.0,8249119574.0,11820060000.0
sh688222,成都先导,2021-07-01,29.95,31.3,29.6,30.3,29.5,5502928.0,167791738.0,8472824511.6,12140604000.0
sh688222,成都先导,2021-07-02,30.0,31.19,29.1,29.5,30.3,4117915.0,123346078.0,8249119574.0,11820060000.0
sh688222,成都先导,2021-07-05,29.22,30.77,29.13,29.55,29.5,3274196.0,97465289.0,8263101132.6,11840094000.0
sh688222,成都先导,2021-07-06,29.29,29.52,27.0,27.44,29.55,4833026.0,134911188.0,7673079359.679999,10994659200.0
sh688222,成都先导,2021-07-07,27.48,30.2,27.28,30.11,27.44,6355243.0,185137297.0,8419694588.92,12064474800.0
sh688222,成都先导,2021-07-08,30.01,30.08,27.92,28.45,30.11,6613674.0,188350990.0,7955506843.400001,11399346000.0
sh688222,成都先导,2021-07-09,28.13,28.94,27.58,27.92,28.45,3770664.0,106116467.0,7807302322.240001,11186985600.0
sh688222,成都先导,2021-07-12,27.98,28.96,27.42,28.41,27.92,4465127.0,126628844.0,7944321596.519999,11383318799.999998
sh688222,XD成都先,2021-07-13,28.05,29.33,27.36,29.03,28.36,4072743.0,115210540.0,8117692923.16,11631740400.0
sh688222,成都先导,2021-07-14,29.16,31.78,28.74,31.23,29.03,7562160.0,231228736.0,8732881501.560001,12513236399.999998
sh688222,成都先导,2021-07-15,30.85,31.55,30.36,30.9,31.23,3950038.0,121505598.0,8640603214.800001,12381012000.0
sh688222,成都先导,2021-07-16,30.55,30.8,29.38,29.52,30.9,4352038.0,130303771.0,8254712197.44,11828073600.000002
sh688222,成都先导,2021-07-19,29.5,31.08,29.4,30.26,29.52,4238551.0,129153373.0,8461639264.719999,12124576800.0
sh688222,成都先导,2021-07-20,30.77,32.56,30.5,31.35,30.26,6185136.0,195931848.0,8766437242.199999,12561318000.0
sh688222,成都先导,2021-07-21,31.35,33.19,31.15,32.0,31.35,6207777.0,201112869.0,8948197504.0,12821760000.0
sh688222,成都先导,2021-07-22,32.14,32.5,30.86,31.49,32.0,4225057.0,132564016.0,8805585606.279999,12617413200.0
sh688222,成都先导,2021-07-23,31.49,31.76,30.0,30.45,31.49,4645623.0,142007518.0,8514769187.4,12200706000.0
sh688222,成都先导,2021-07-26,30.55,30.6,28.66,28.88,30.45,4128646.0,121342703.0,8075748247.360001,11571638400.0
sh688222,成都先导,2021-07-27,28.7,29.8,28.7,29.11,28.88,3265688.0,95810667.0,8140063416.92,11663794800.0
sh688222,成都先导,2021-07-28,28.8,29.98,27.51,29.6,29.11,3989597.0,115908258.0,8277082691.2,11860128000.0
sh688222,成都先导,2021-07-29,29.78,30.88,29.51,30.49,29.6,4391993.0,132846589.0,8525954434.28,12216733200.0
sh688222,成都先导,2021-07-30,30.14,30.49,28.73,29.32,30.49,3903285.0,114432292.0,8198785963.04,11747937600.0
sh688222,成都先导,2021-08-02,28.8,31.1,28.51,31.09,29.32,4566305.0,136646220.0,8693733137.48,12457141200.000002
sh688222,成都先导,2021-08-03,31.02,31.88,30.62,30.98,31.09,3885528.0,121020926.0,8662973708.56,12413066399.999998
sh688222,成都先导,2021-08-04,31.2,32.04,30.65,31.71,30.98,4959882.0,156424060.0,8867104464.12,12705562800.0
sh688222,成都先导,2021-08-05,31.58,32.36,30.77,31.75,31.71,4740557.0,149794481.0,8878289711.0,12721590000.0
sh688222,成都先导,2021-08-06,31.88,31.91,29.99,30.6,31.75,4393861.0,134317172.0,8556713863.200001,12260808000.0
sh688222,成都先导,2021-08-09,30.38,31.09,30.01,30.92,30.6,2342617.0,71890819.0,8646195838.24,12389025600.0
sh688222,成都先导,2021-08-10,30.87,30.98,29.81,30.23,30.92,2961645.0,89348774.0,8453250329.559999,12112556399.999998
sh688222,成都先导,2021-08-11,30.39,31.27,29.88,30.31,30.23,2894312.0,88627527.0,8475620823.320001,12144610800.0
sh688222,成都先导,2021-08-12,30.01,30.06,28.73,28.93,30.31,5254763.0,153413248.0,8089729805.96,11591672400.0
sh688222,成都先导,2021-08-13,28.93,29.09,27.68,28.05,28.93,4343250.0,123068818.0,7843654374.6,11239074000.0
sh688222,成都先导,2021-08-16,28.04,28.39,27.58,28.22,28.05,1811063.0,50830641.0,7891191673.84,11307189600.0
sh688222,成都先导,2021-08-17,28.16,28.46,26.6,26.8,28.22,2637025.0,72289045.0,7494115409.6,10738224000.0
sh688222,成都先导,2021-08-18,26.72,27.1,26.28,26.53,26.8,2427547.0,64464154.0,7418614993.16,10630040400.0
sh688222,成都先导,2021-08-19,26.49,27.25,26.33,26.76,26.53,1694453.0,45500291.0,7482930162.72,10722196800.0
sh688222,成都先导,2021-08-20,26.75,26.75,25.75,25.88,26.76,1667637.0,43421126.0,7236854731.36,10369598400.0
sh688222,成都先导,2021-08-23,25.96,26.3,25.55,26.16,25.88,1571015.0,40940335.0,7315151459.52,10481788800.0
sh688222,成都先导,2021-08-24,26.01,27.46,26.01,27.03,26.16,3112509.0,83962773.0,7558430579.16,10830380400.0
sh688222,成都先导,2021-08-25,27.2,27.35,26.53,26.7,27.03,1996544.0,53584289.0,7466152292.400001,10698156000.0
sh688222,成都先导,2021-08-26,26.57,26.7,24.85,25.01,26.7,3532485.0,90419353.0,6993575611.72,10021006800.0
sh688222,成都先导,2021-08-27,25.25,25.45,24.85,25.02,25.01,1513352.0,37930726.0,6996371923.44,10025013600.0
sh688222,成都先导,2021-08-30,25.9,27.86,25.52,27.36,25.02,4807580.0,128933268.0,7635904369.92,10962604800.0
sh688222,成都先导,2021-08-31,27.23,27.46,26.4,26.61,27.36,2198025.0,58747940.0,7426586815.919999,10662094800.0
sh688222,成都先导,2021-09-01,26.61,27.1,25.41,26.87,26.61,2826968.0,73662451.0,7499150234.639999,10766271600.0
sh688222,成都先导,2021-09-02,27.0,27.79,26.43,26.51,26.87,2176678.0,58630137.0,7398677808.72,10622026800.0
sh688222,成都先导,2021-09-03,26.5,27.05,26.2,26.59,26.51,1611958.0,42846252.0,7421005014.48,10654081200.000002
sh688222,成都先导,2021-09-06,26.59,27.49,26.08,27.14,26.59,2872641.0,77752779.0,7574504554.08,10874455200.0
sh688222,成都先导,2021-09-07,27.14,27.37,26.68,27.16,27.14,1978893.0,53312700.0,7580086355.52,10882468799.999998
sh688222,成都先导,2021-09-08,27.01,28.75,26.93,28.01,27.16,3567475.0,99281391.0,7817312916.719999,11223046800.0
sh688222,成都先导,2021-09-09,27.79,28.04,27.4,27.43,28.01,1815755.0,50203106.0,7655440674.96,10990652400.0
sh688222,成都先导,2021-09-10,27.55,27.7,26.88,27.12,27.43,1782110.0,48374882.0,7568922752.64,10866441600.0
sh688222,成都先导,2021-09-13,27.08,27.67,26.6,26.71,27.12,1526011.0,41276334.0,7454495823.12,10702162800.0
sh688222,成都先导,2021-09-14,26.57,27.65,26.29,26.61,26.71,2731643.0,73781271.0,7426586815.919999,10662094800.0
sh688222,成都先导,2021-09-15,26.62,27.05,26.0,26.53,26.61,1932387.0,51379400.0,7404259610.16,10630040400.0
sh688222,成都先导,2021-09-16,26.38,27.09,26.12,26.21,26.53,1690199.0,44960413.0,7314950787.120001,10501822800.0
sh688222,成都先导,2021-09-17,26.31,27.68,25.7,27.13,26.21,3916917.0,105413101.0,7571713653.36,10870448400.0
sh688222,成都先导,2021-09-22,27.0,29.37,26.8,28.1,27.13,4529601.0,128304136.0,7842431023.2,11259108000.0
sh688222,成都先导,2021-09-23,28.1,28.88,27.9,28.1,28.1,2306755.0,65250288.0,7842431023.2,11259108000.0
sh688222,成都先导,2021-09-24,28.0,29.7,27.68,28.83,28.1,3960510.0,114315591.0,8046166775.76,11551604400.0
sh688222,成都先导,2021-09-27,29.1,29.75,27.78,28.1,28.83,3560031.0,102757761.0,7842431023.2,11259108000.0
sh688222,成都先导,2021-09-28,28.09,28.67,27.6,27.75,28.1,2179905.0,61101243.0,7744749497.999999,11118870000.0
sh688222,成都先导,2021-09-29,27.75,28.46,27.21,27.8,27.75,2476803.0,68976931.0,7758704001.599999,11138904000.0
sh688222,成都先导,2021-09-30,27.89,28.21,27.46,27.77,27.8,2027611.0,56329616.0,7750331299.440001,11126883600.000002
sh688222,成都先导,2021-10-08,27.74,29.75,27.7,29.29,27.77,5414319.0,158197100.0,8174548208.879999,11735917200.0
sh688222,成都先导,2021-10-11,29.31,29.75,28.45,28.58,29.29,2784580.0,80186546.0,7976394257.76,11451434400.0
sh688222,成都先导,2021-10-12,28.5,29.37,27.92,28.73,28.58,3011344.0,86391924.0,8018257768.559999,11511536399.999998
sh688222,成都先导,2021-10-13,28.5,29.0,28.1,28.99,28.73,2291802.0,65657625.0,8090821187.28,11615713200.0
sh688222,成都先导,2021-10-14,28.74,29.07,27.27,27.31,28.99,3569702.0,99661031.0,7621949866.32,10942570800.0
sh688222,成都先导,2021-10-15,27.31,27.55,26.7,26.74,27.31,2273144.0,61421989.0,7462868525.28,10714183200.0
sh688222,成都先导,2021-10-18,26.73,26.97,26.12,26.43,26.74,1784489.0,47140830.0,7376350602.96,10589972400.0
sh688222,成都先导,2021-10-19,26.63,27.16,26.45,26.66,26.43,1915728.0,51389281.0,7440541319.519999,10682128799.999998
sh688222,成都先导,2021-10-20,26.66,26.85,26.09,26.3,26.66,1481129.0,38876094.0,7340068893.6,10537884000.0
sh688222,成都先导,2021-10-21,26.44,26.44,25.4,25.72,26.3,1700060.0,43850354.0,7178196651.84,10305489600.0
sh688222,成都先导,2021-10-22,25.74,26.05,25.36,25.8,25.72,1072945.0,27557769.0,7200523857.599999,10337544000.0
sh688222,成都先导,2021-10-25,25.7,25.73,24.6,24.99,25.8,1767539.0,44257963.0,6974460899.28,10012993200.0
sh688222,成都先导,2021-10-26,24.97,25.14,24.63,24.88,24.99,1241836.0,30869808.0,6943760991.360001,9968918400.0
sh688222,成都先导,2021-10-27,24.78,26.05,24.66,25.0,24.88,2554422.0,64715214.0,6977251800.0,10017000000.0
sh688222,成都先导,2021-10-28,24.9,25.35,24.7,25.08,25.0,1088256.0,27241161.0,6999579005.76,10049054400.0
sh688222,成都先导,2021-10-29,25.3,25.33,24.77,25.23,25.08,899410.0,22528704.0,7041442516.56,10109156400.0
sh688222,成都先导,2021-11-01,25.23,25.28,23.85,24.56,25.23,2176858.0,53156423.0,6854452168.32,9840700800.0
sh688222,成都先导,2021-11-02,24.4,24.7,23.67,23.71,24.56,2356796.0,56637835.0,6617225607.12,9500122800.0
sh688222,成都先导,2021-11-03,23.71,24.29,23.51,24.06,23.71,2006190.0,48055941.0,6714907132.32,9640360800.0
sh688222,成都先导,2021-11-04,24.0,24.45,23.78,23.86,24.06,1908881.0,45822051.0,6659089117.920001,9560224800.0
sh688222,成都先导,2021-11-05,23.98,24.25,23.59,23.91,23.86,1402220.0,33606138.0,6673043621.52,9580258800.0
sh688222,成都先导,2021-11-08,23.78,23.88,23.23,23.84,23.91,1462229.0,34473396.0,6653507316.48,9552211200.0
sh688222,成都先导,2021-11-09,23.81,24.3,23.6,24.1,23.84,1366326.0,32887306.0,6726070735.2,9656388000.0
sh688222,成都先导,2021-11-10,23.9,24.5,23.71,24.39,24.1,1920574.0,46363857.0,6807006856.08,9772585200.0
sh688222,成都先导,2021-11-11,24.39,24.84,24.24,24.58,24.39,1492554.0,36718472.0,6860033969.76,9848714400.0
sh688222,成都先导,2021-11-12,24.6,24.83,24.36,24.57,24.58,1386495.0,34128773.0,6857243069.04,9844707600.0
sh688222,成都先导,2021-11-15,24.57,25.47,24.41,25.15,24.57,2126903.0,53488621.0,7019115310.8,10077102000.0
sh688222,成都先导,2021-11-16,24.4,24.4,23.67,23.71,25.15,4124886.0,98739247.0,6617225607.12,9500122800.0
sh688222,成都先导,2021-11-17,23.65,24.1,23.26,23.79,23.71,2311518.0,54825869.0,6639552812.88,9532177200.0
sh688222,成都先导,2021-11-18,23.86,23.95,22.67,22.72,23.79,3381772.0,78367999.0,6340926435.839999,9103449600.0
sh688222,成都先导,2021-11-19,22.74,22.95,22.49,22.82,22.72,1457730.0,33169181.0,6368835443.04,9143517600.0
sh688222,成都先导,2021-11-22,23.02,23.1,22.72,22.95,22.82,1852926.0,42354884.0,6405117152.400001,9195606000.0
sh688222,成都先导,2021-11-23,22.97,23.08,22.76,22.98,22.95,1200984.0,27514504.0,6413489854.559999,9207626400.0
sh688222,成都先导,2021-11-24,23.04,23.79,22.85,23.56,22.98,3336655.0,78039682.0,6575362096.32,9440020800.0
sh688222,成都先导,2021-11-25,23.89,24.18,23.31,23.8,23.56,2796456.0,66463464.0,6642343713.599999,9536184000.0
sh688222,成都先导,2021-11-26,23.8,24.59,23.7,24.3,23.8,3129344.0,75947617.0,6781888749.6,9736524000.0
sh688222,成都先导,2021-11-29,24.5,24.75,23.77,24.02,24.3,2422142.0,58398762.0,6703743529.440001,9624333600.0
sh688222,成都先导,2021-11-30,24.06,24.34,23.84,24.27,24.02,2014423.0,48631750.0,6773516047.440001,9724503600.0
sh688222,成都先导,2021-12-01,24.15,24.38,23.92,24.01,24.27,1518490.0,36545409.0,6700952628.72,9620326800.0
sh688222,成都先导,2021-12-02,23.9,24.1,23.2,23.32,24.01,2075016.0,48865922.0,6508380479.04,9343857600.0
sh688222,成都先导,2021-12-03,23.32,23.78,23.3,23.49,23.32,1139587.0,26825450.0,6555825791.28,9411973200.0
sh688222,成都先导,2021-12-06,23.71,23.71,22.81,23.0,23.49,1507795.0,34816256.0,6419071655.999999,9215640000.0
sh688222,成都先导,2021-12-07,23.36,23.36,22.81,23.04,23.0,1087619.0,24960038.0,6430235258.88,9231667200.0
sh688222,成都先导,2021-12-08,23.2,23.35,22.91,23.23,23.04,1205168.0,27915404.0,6483262372.56,9307796400.0
sh688222,成都先导,2021-12-09,23.3,24.52,23.2,24.43,23.23,6112718.0,147381852.0,6818170458.96,9788612400.0
sh688222,成都先导,2021-12-10,24.42,24.42,23.9,24.0,24.43,2339245.0,56281130.0,6698161727.999999,9616320000.0
sh688222,成都先导,2021-12-13,24.15,24.25,23.82,23.93,24.0,1791804.0,43023422.0,6678625422.960001,9588272400.0
sh688222,成都先导,2021-12-14,23.99,24.15,23.7,23.82,23.93,1616806.0,38574082.0,6647925515.04,9544197600.0
sh688222,成都先导,2021-12-15,23.78,23.99,23.51,23.6,23.82,1888415.0,44781650.0,6586525699.200001,9456048000.0
sh688222,成都先导,2021-12-16,23.45,23.69,23.28,23.61,23.6,1286161.0,30204508.0,6589316599.92,9460054800.0
sh688222,成都先导,2021-12-17,23.65,23.74,23.33,23.57,23.61,1336568.0,31398982.0,6578152997.04,9444027600.0
sh688222,成都先导,2021-12-20,23.39,24.05,23.34,23.41,23.57,1843753.0,43727469.0,6533498585.52,9379918800.0
sh688222,成都先导,2021-12-21,23.55,23.64,22.92,23.02,23.41,2129679.0,49236751.0,6424653457.440001,9223653600.0
sh688222,成都先导,2021-12-22,23.09,23.19,22.96,23.05,23.02,1138585.0,26242776.0,6433026159.599999,9235674000.0
sh688222,成都先导,2021-12-23,23.12,23.18,22.38,22.62,23.05,2437784.0,55057793.0,6313017428.64,9063381600.0
sh688222,成都先导,2021-12-24,22.55,22.84,22.41,22.71,22.62,1298712.0,29444849.0,6338135535.12,9099442800.0
sh688222,成都先导,2021-12-27,22.8,23.31,22.55,23.09,22.71,1636644.0,37530111.0,6444189762.4800005,9251701200.0
sh688222,成都先导,2021-12-28,23.2,23.48,23.07,23.16,23.09,1258681.0,29260913.0,6463726067.52,9279748800.0
sh688222,成都先导,2021-12-29,23.01,23.59,22.99,23.24,23.16,1468629.0,34200340.0,6486053273.28,9311803200.0
sh688222,成都先导,2021-12-30,23.23,23.38,23.0,23.25,23.24,1130562.0,26255708.0,6488844174.0,9315810000.0
sh688222,成都先导,2021-12-31,23.72,23.89,23.33,23.49,23.25,1818712.0,42975478.0,6555825791.28,9411973200.0
sh688222,成都先导,2022-01-04,23.63,23.95,23.28,23.7,23.49,1773573.0,41969093.0,6614434706.4,9496116000.0
sh688222,成都先导,2022-01-05,23.86,23.86,23.0,23.22,23.7,1758670.0,40801401.0,6480471471.84,9303789600.0
sh688222,成都先导,2022-01-06,22.92,23.32,22.92,23.21,23.22,1106517.0,25600201.0,6477680571.12,9299782800.0
sh688222,成都先导,2022-01-07,23.31,23.6,22.92,22.95,23.21,1617029.0,37562995.0,6405117152.400001,9195606000.0
sh688222,成都先导,2022-01-10,23.1,23.7,22.84,23.52,22.95,2277242.0,53395668.0,6564198493.44,9423993600.0
sh688222,成都先导,2022-01-11,23.49,23.77,23.42,23.45,23.52,1443237.0,34063370.0,6544662188.4,9395946000.0
sh688222,成都先导,2022-01-12,23.5,23.85,23.28,23.8,23.45,1910951.0,45297938.0,6642343713.599999,9536184000.0
sh688222,成都先导,2022-01-13,23.78,24.09,23.41,23.51,23.8,1603684.0,38099875.0,6561407592.72,9419986800.0
sh688222,成都先导,2022-01-14,23.5,24.22,23.4,24.1,23.51,3799504.0,91232682.0,6726070735.2,9656388000.0
