数据由邢不行整理
股票代码,股票名称,交易日期,开盘价,最高价,最低价,收盘价,前收盘价,成交量,成交额,流通市值,总市值
sh688518,N联赢,2020-06-22,28.0,29.6,26.2,26.22,7.81,49846393.0,1356889677.0,1783633644.24,7845024000.0
sh688518,联赢激光,2020-06-23,25.08,27.6,24.66,27.19,26.22,34625719.0,912898590.0,1849618565.48,8135248000.0
sh688518,联赢激光,2020-06-24,27.11,31.0,26.68,29.0,27.19,34246305.0,979405988.0,1972745068.0,8676800000.0
sh688518,联赢激光,2020-06-29,29.0,29.16,27.56,28.69,29.0,20095234.0,566523876.0,1951657103.48,8584048000.0
sh688518,联赢激光,2020-06-30,28.57,28.73,27.55,27.63,28.69,17705442.0,495141062.0,1879549869.96,8266896000.0
sh688518,联赢激光,2020-07-01,27.63,28.23,26.38,27.5,27.63,18424156.0,503239272.0,1870706530.0,8228000000.0
sh688518,联赢激光,2020-07-02,27.11,27.77,26.9,27.28,27.5,12423866.0,337900264.0,1855740877.76,8162176000.0
sh688518,联赢激光,2020-07-03,27.1,27.18,26.35,26.56,27.28,11526641.0,307508485.0,1806762379.52,7946752000.0
sh688518,联赢激光,2020-07-06,26.78,28.49,26.55,27.9,26.56,16806745.0,463957931.0,1897916806.8,8347680000.0
sh688518,联赢激光,2020-07-07,28.11,29.9,27.64,28.43,27.9,21549527.0,623790808.0,1933970423.56,8506256000.0
sh688518,联赢激光,2020-07-08,28.67,28.86,27.8,28.32,28.43,14842127.0,419667750.0,1926487597.44,8473344000.0
sh688518,联赢激光,2020-07-09,28.44,30.86,28.0,30.58,28.32,22504972.0,655131941.0,2080225661.36,9149536000.0
sh688518,联赢激光,2020-07-10,30.6,30.65,29.01,29.18,30.58,17067421.0,505461542.0,1984989692.56,8730656000.0
sh688518,联赢激光,2020-07-13,29.3,30.18,29.03,30.05,29.18,13143548.0,389377032.0,2044172044.6,8990960000.0
sh688518,联赢激光,2020-07-14,30.05,30.05,28.28,29.06,30.05,14131479.0,411759644.0,1976826609.52,8694752000.0
sh688518,联赢激光,2020-07-15,29.05,29.36,27.28,27.45,29.06,9403521.0,265150419.0,1867305245.4,8213040000.0
sh688518,联赢激光,2020-07-16,27.58,27.73,25.43,25.6,27.45,8003371.0,213787549.0,1741457715.2,7659520000.0
sh688518,联赢激光,2020-07-17,25.75,26.18,24.84,25.71,25.6,4949995.0,126848374.0,1748940541.32,7692432000.0
sh688518,联赢激光,2020-07-20,26.1,26.28,24.74,26.13,25.71,5029984.0,128766703.0,1777511331.96,7818096000.0
sh688518,联赢激光,2020-07-21,26.09,26.7,25.86,26.54,26.13,4705230.0,124226339.0,1805401865.68,7940768000.0
sh688518,联赢激光,2020-07-22,26.3,26.7,25.9,26.16,26.54,4000801.0,105156385.0,1779552102.72,7827072000.0
sh688518,联赢激光,2020-07-23,25.88,26.3,25.1,25.65,26.16,4758477.0,121655113.0,1744858999.8,7674480000.0
sh688518,联赢激光,2020-07-24,25.36,25.78,23.75,23.88,25.65,5979775.0,147331961.0,1624453524.96,7144896000.0
sh688518,联赢激光,2020-07-27,24.13,24.3,23.21,23.56,23.88,2896277.0,68422524.0,1602685303.52,7049152000.0
sh688518,联赢激光,2020-07-28,23.84,24.36,23.7,24.15,23.56,3006341.0,72327404.0,1642820461.8,7225680000.0
sh688518,联赢激光,2020-07-29,24.15,24.85,23.89,24.83,24.15,3280727.0,80463946.0,1689077932.36,7429136000.0
sh688518,联赢激光,2020-07-30,24.9,24.92,24.36,24.5,24.83,2587942.0,63647366.0,1666629454.0,7330400000.0
sh688518,联赢激光,2020-07-31,24.5,24.79,24.24,24.57,24.5,2735517.0,67077036.0,1671391252.44,7351344000.0
sh688518,联赢激光,2020-08-03,24.65,25.37,24.6,25.19,24.57,4555082.0,114069346.0,1713567181.4800005,7536848000.0
sh688518,联赢激光,2020-08-04,25.25,25.42,24.8,24.92,25.19,3716790.0,93416289.0,1695200244.64,7456064000.0
sh688518,联赢激光,2020-08-05,25.02,25.1,24.52,24.72,24.92,2786383.0,68957176.0,1681595106.2399998,7396224000.0
sh688518,联赢激光,2020-08-06,24.77,24.77,24.06,24.35,24.72,3300378.0,80253836.0,1656425600.2,7285520000.0
sh688518,联赢激光,2020-08-07,24.43,24.46,23.41,23.73,24.35,2636297.0,62795768.0,1614249671.16,7100016000.0
sh688518,联赢激光,2020-08-10,23.55,24.44,23.55,24.32,23.73,2489461.0,60155196.0,1654384829.4399998,7276544000.0
sh688518,联赢激光,2020-08-11,24.51,24.52,23.67,23.8,24.32,2102258.0,50711136.0,1619011469.6,7120960000.0
sh688518,联赢激光,2020-08-12,24.05,25.58,24.0,25.33,23.8,7997640.0,199894888.0,1723090778.36,7578736000.0
sh688518,联赢激光,2020-08-13,25.37,25.38,24.75,24.8,25.33,4146444.0,103426373.0,1687037161.6,7420160000.0
sh688518,联赢激光,2020-08-14,24.83,25.87,24.83,25.5,24.8,5679796.0,145010989.0,1734655146.0,7629600000.0
sh688518,联赢激光,2020-08-17,25.65,25.67,24.92,25.28,25.5,4218295.0,106451353.0,1719689493.76,7563776000.0
sh688518,联赢激光,2020-08-18,25.3,25.57,24.7,24.86,25.28,3925422.0,98025564.0,1691118703.12,7438112000.0
sh688518,联赢激光,2020-08-19,24.73,25.07,24.17,24.21,24.86,2746782.0,67355602.0,1646902003.3200002,7243632000.0
sh688518,联赢激光,2020-08-20,24.05,24.48,23.72,24.11,24.21,1603225.0,38747134.0,1640099434.12,7213712000.0
sh688518,联赢激光,2020-08-21,24.3,24.47,23.66,23.8,24.11,1949383.0,46751765.0,1619011469.6,7120960000.0
sh688518,联赢激光,2020-08-24,23.76,23.96,22.91,23.17,23.8,3145773.0,72878373.0,1576155283.64,6932464000.0
sh688518,联赢激光,2020-08-25,23.2,23.56,22.97,23.48,23.17,2496929.0,58090561.0,1597243248.16,7025216000.0
sh688518,联赢激光,2020-08-26,23.37,23.66,22.59,22.69,23.48,2408216.0,55529527.0,1543502951.48,6788848000.0
sh688518,联赢激光,2020-08-27,23.0,23.1,22.16,22.94,22.69,2365376.0,53528865.0,1560509374.48,6863648000.0
sh688518,联赢激光,2020-08-28,23.1,23.1,22.6,22.89,22.94,1685252.0,38495180.0,1557108089.88,6848688000.0
sh688518,联赢激光,2020-08-31,22.4,22.41,21.5,21.5,22.89,4946382.0,107934482.0,1462552378.0,6432800000.0
sh688518,联赢激光,2020-09-01,21.51,21.6,21.28,21.57,21.5,2202844.0,47217066.0,1467314176.44,6453744000.0
sh688518,联赢激光,2020-09-02,21.57,21.69,20.87,20.88,21.57,3642714.0,76851501.0,1420376448.96,6247296000.0
sh688518,联赢激光,2020-09-03,21.0,21.0,20.66,20.8,20.88,1836142.0,38206183.0,1414934393.6,6223360000.0
sh688518,联赢激光,2020-09-04,20.28,20.91,20.2,20.7,20.8,1677069.0,34618969.0,1408131824.4,6193440000.0
sh688518,联赢激光,2020-09-07,20.73,21.08,20.5,20.59,20.7,1953869.0,40623799.0,1400648998.28,6160528000.0
sh688518,联赢激光,2020-09-08,20.8,21.04,20.45,20.93,20.59,1451214.0,30198280.0,1423777733.56,6262256000.0
sh688518,联赢激光,2020-09-09,20.93,20.95,20.51,20.88,20.93,1764967.0,36619088.0,1420376448.96,6247296000.0
sh688518,联赢激光,2020-09-10,20.97,21.15,19.06,19.18,20.88,2694009.0,53952710.0,1304732772.56,5738656000.0
sh688518,联赢激光,2020-09-11,18.81,19.45,18.39,19.27,19.18,2129818.0,40453982.0,1310855084.84,5765584000.0
sh688518,联赢激光,2020-09-14,19.58,20.04,19.3,19.89,19.27,1617461.0,31988312.0,1353031013.88,5951088000.0
sh688518,联赢激光,2020-09-15,20.58,20.6,19.99,20.19,19.89,1245375.0,25142951.0,1373438721.48,6040848000.0
sh688518,联赢激光,2020-09-16,20.16,20.28,19.62,19.82,20.19,1268355.0,25220632.0,1348269215.44,5930144000.0
sh688518,联赢激光,2020-09-17,19.78,21.14,19.68,20.82,19.82,4308479.0,89504917.0,1416294907.44,6229344000.0
sh688518,联赢激光,2020-09-18,20.83,21.02,20.56,20.87,20.82,2278770.0,47399077.0,1419696192.04,6244304000.0
sh688518,联赢激光,2020-09-21,20.99,20.99,20.61,20.67,20.87,1114285.0,23112981.0,1406091053.64,6184464000.0
sh688518,联赢激光,2020-09-22,20.32,20.62,19.8,19.9,20.67,1545609.0,31247031.0,1353711270.8,5954080000.0
sh688518,联赢激光,2020-09-23,20.1,20.41,19.9,20.22,19.9,889362.0,17949561.0,1375479492.24,6049824000.0
sh688518,联赢激光,2020-09-24,20.0,20.04,19.29,19.5,20.22,1615189.0,31615215.0,1326500994.0,5834400000.0
sh688518,联赢激光,2020-09-25,19.56,19.71,19.0,19.13,19.5,980336.0,18912356.0,1301331487.96,5723696000.0
sh688518,联赢激光,2020-09-28,19.12,19.29,18.67,18.84,19.13,952159.0,17951962.0,1281604037.28,5636928000.0
sh688518,联赢激光,2020-09-29,18.91,19.1,18.82,18.82,18.84,851862.0,16148288.0,1280243523.44,5630944000.0
sh688518,联赢激光,2020-09-30,18.83,19.13,18.62,18.67,18.82,865201.0,16342785.0,1270039669.64,5586064000.0
sh688518,联赢激光,2020-10-09,19.42,19.63,18.95,19.28,18.67,960292.0,18440015.0,1311535341.7599998,5768576000.0
sh688518,联赢激光,2020-10-12,19.33,20.19,19.33,20.12,19.28,1827001.0,36394756.0,1368676923.04,6019904000.0
sh688518,联赢激光,2020-10-13,20.2,20.39,19.93,20.2,20.12,1152567.0,23234914.0,1374118978.4,6043840000.0
sh688518,联赢激光,2020-10-14,20.2,20.26,19.97,20.04,20.2,1069763.0,21423419.0,1363234867.68,5995968000.0
sh688518,联赢激光,2020-10-15,20.14,20.15,19.68,19.87,20.04,721308.0,14333312.0,1351670500.04,5945104000.0
sh688518,联赢激光,2020-10-16,19.73,19.95,19.51,19.6,19.87,709567.0,13936122.0,1333303563.1999998,5864320000.0
sh688518,联赢激光,2020-10-19,19.57,19.77,19.11,19.21,19.6,862374.0,16782082.0,1306773543.32,5747632000.0
sh688518,联赢激光,2020-10-20,19.21,19.44,19.1,19.33,19.21,698011.0,13440173.0,1314936626.36,5783536000.0
sh688518,联赢激光,2020-10-21,19.3,19.3,18.98,19.12,19.33,792311.0,15145636.0,1300651231.04,5720704000.0
sh688518,联赢激光,2020-10-22,19.02,19.15,18.76,19.02,19.12,661477.0,12553495.0,1293848661.84,5690784000.0
sh688518,联赢激光,2020-10-23,19.4,19.4,18.71,18.78,19.02,1092316.0,20780876.0,1277522495.76,5618976000.0
sh688518,联赢激光,2020-10-26,18.78,18.93,18.59,18.87,18.78,640331.0,12022295.0,1283644808.04,5645904000.0
sh688518,联赢激光,2020-10-27,19.88,19.9,19.06,19.13,18.87,2199192.0,42837546.0,1301331487.96,5723696000.0
sh688518,联赢激光,2020-10-28,18.7,19.3,18.65,18.89,19.13,1306595.0,24668114.0,1285005321.88,5651888000.0
sh688518,联赢激光,2020-10-29,18.67,18.78,18.5,18.62,18.89,1057505.0,19710210.0,1266638385.04,5571104000.0
sh688518,联赢激光,2020-10-30,18.79,18.89,17.83,17.83,18.62,1747933.0,31904987.0,1212898088.36,5334736000.0
sh688518,联赢激光,2020-11-02,18.0,18.16,16.88,16.91,17.83,2416318.0,41589915.0,1150314451.72,5059472000.0
sh688518,联赢激光,2020-11-03,17.18,17.77,16.94,17.55,16.91,1513413.0,26344115.0,1193850894.6,5250960000.0
sh688518,联赢激光,2020-11-04,17.7,17.71,17.3,17.38,17.55,811682.0,14165023.0,1182286526.96,5200096000.0
sh688518,联赢激光,2020-11-05,17.9,17.99,17.51,17.82,17.38,1145714.0,20356213.0,1212217831.44,5331744000.0
sh688518,联赢激光,2020-11-06,17.83,17.97,17.41,17.6,17.82,897318.0,15766128.0,1197252179.2,5265920000.0
sh688518,联赢激光,2020-11-09,17.63,18.59,17.63,18.34,17.6,1684132.0,30660191.0,1247591191.28,5487328000.0
sh688518,联赢激光,2020-11-10,18.35,18.52,18.14,18.33,18.34,1298222.0,23801076.0,1246910934.36,5484336000.0
sh688518,联赢激光,2020-11-11,18.59,18.59,17.94,18.24,18.33,1184985.0,21458134.0,1240788622.0800002,5457408000.0
sh688518,联赢激光,2020-11-12,18.06,18.23,17.85,17.85,18.24,641277.0,11533346.0,1214258602.2,5340720000.0
sh688518,联赢激光,2020-11-13,17.98,17.98,17.68,17.9,17.85,486688.0,8670373.0,1217659886.8,5355680000.0
sh688518,联赢激光,2020-11-16,18.1,18.15,17.83,17.97,17.9,711668.0,12763573.0,1222421685.24,5376624000.0
sh688518,联赢激光,2020-11-17,18.0,18.0,17.65,17.65,17.97,693384.0,12315375.0,1200653463.8,5280880000.0
sh688518,联赢激光,2020-11-18,17.66,17.9,17.5,17.76,17.65,729785.0,12913289.0,1208136289.92,5313792000.0
sh688518,联赢激光,2020-11-19,17.9,18.84,17.87,18.44,17.76,3324612.0,61675690.0,1254393760.48,5517248000.0
sh688518,联赢激光,2020-11-20,18.3,18.55,18.21,18.47,18.44,1454262.0,26733555.0,1256434531.24,5526224000.0
sh688518,联赢激光,2020-11-23,18.45,18.79,18.25,18.78,18.47,1835971.0,34041395.0,1277522495.76,5618976000.0
sh688518,联赢激光,2020-11-24,18.7,18.92,18.64,18.78,18.78,1271500.0,23871077.0,1277522495.76,5618976000.0
sh688518,联赢激光,2020-11-25,18.95,19.07,18.42,18.42,18.78,1220700.0,22757461.0,1253033246.64,5511264000.0
sh688518,联赢激光,2020-11-26,18.42,18.59,18.26,18.28,18.42,724462.0,13288439.0,1243509649.76,5469376000.0
sh688518,联赢激光,2020-11-27,18.29,18.34,17.89,17.98,18.28,857061.0,15478527.0,1223101942.16,5379616000.0
sh688518,联赢激光,2020-11-30,17.98,18.13,17.84,17.97,17.98,743326.0,13382369.0,1222421685.24,5376624000.0
sh688518,联赢激光,2020-12-01,17.99,18.07,17.93,17.99,17.97,881331.0,15873132.0,1223782199.08,5382608000.0
sh688518,联赢激光,2020-12-02,18.09,18.16,17.93,18.06,17.99,777993.0,14026510.0,1228543997.52,5403552000.0
sh688518,联赢激光,2020-12-03,18.01,18.1,17.73,17.74,18.06,886273.0,15864434.0,1206775776.0800002,5307808000.0
sh688518,联赢激光,2020-12-04,17.8,17.9,17.74,17.88,17.74,516617.0,9210196.0,1216299372.96,5349696000.0
sh688518,联赢激光,2020-12-07,17.83,17.99,17.57,17.63,17.88,690728.0,12236481.0,1199292949.96,5274896000.0
sh688518,联赢激光,2020-12-08,17.65,17.66,17.21,17.25,17.63,787106.0,13707180.0,1173443187.0,5161200000.0
sh688518,联赢激光,2020-12-09,17.38,17.44,16.96,17.05,17.25,841980.0,14472270.0,1159838048.6,5101360000.0
sh688518,联赢激光,2020-12-10,17.05,17.15,16.88,17.01,17.05,620038.0,10540441.0,1157117020.92,5089392000.0
sh688518,联赢激光,2020-12-11,17.1,17.2,16.31,16.49,17.01,1374163.0,22701115.0,1121743661.08,4933808000.0
sh688518,联赢激光,2020-12-14,16.31,16.57,16.29,16.49,16.49,442004.0,7264405.0,1121743661.08,4933808000.0
sh688518,联赢激光,2020-12-15,16.49,16.49,16.26,16.28,16.49,551960.0,9020279.0,1107458265.76,4870976000.0
sh688518,联赢激光,2020-12-16,16.28,16.28,15.33,15.38,16.28,1818557.0,28437213.0,1046235142.96,4601696000.0
sh688518,联赢激光,2020-12-17,15.35,15.49,14.7,15.4,15.38,1909890.0,28722530.0,1047595656.8,4607680000.0
sh688518,联赢激光,2020-12-18,15.26,15.58,14.86,14.95,15.4,1066182.0,16085287.0,1016984095.4,4473040000.0
sh688518,联赢激光,2020-12-21,14.99,15.46,14.85,15.36,14.95,1431969.0,21819058.0,1044874629.12,4595712000.0
sh688518,联赢激光,2020-12-22,15.21,16.24,14.86,15.72,15.36,4140625.0,65148624.0,1117063200.0,4703424000.0
sh688518,联赢激光,2020-12-23,15.52,15.9,15.4,15.43,15.72,1470358.0,22874412.0,1096455800.0,4616656000.0
sh688518,联赢激光,2020-12-24,15.63,15.63,14.8,14.88,15.43,1354753.0,20421890.0,1057372800.0,4452096000.0
sh688518,联赢激光,2020-12-25,14.87,15.24,14.7,15.08,14.88,1071877.0,16095009.0,1071584800.0,4511936000.0
sh688518,联赢激光,2020-12-28,15.01,15.08,14.15,14.24,15.08,1624603.0,23532281.0,1011894400.0,4260608000.0
sh688518,联赢激光,2020-12-29,14.27,14.55,14.12,14.41,14.24,786578.0,11321800.0,1023974600.0,4311472000.0
sh688518,联赢激光,2020-12-30,14.46,15.18,14.22,14.85,14.41,1641595.0,24194051.0,1055241000.0,4443120000.0
sh688518,联赢激光,2020-12-31,14.9,15.48,14.76,15.25,14.85,1695629.0,25780343.0,1083665000.0,4562800000.0
sh688518,联赢激光,2021-01-04,15.4,15.4,15.1,15.28,15.25,1168275.0,17844180.0,1085796800.0,4571776000.0
sh688518,联赢激光,2021-01-05,15.48,16.24,15.45,15.7,15.28,2554492.0,40305474.0,1115642000.0,4697440000.0
sh688518,联赢激光,2021-01-06,15.6,15.7,14.97,15.0,15.7,1494397.0,22746164.0,1065900000.0,4488000000.0
sh688518,联赢激光,2021-01-07,14.95,14.95,13.91,14.03,15.0,2770800.0,39654297.0,996971800.0,4197776000.0
sh688518,联赢激光,2021-01-08,14.03,14.33,13.53,14.0,14.03,1147145.0,16054735.0,994840000.0,4188800000.0
sh688518,联赢激光,2021-01-11,13.98,13.98,13.35,13.4,14.0,1447336.0,19707551.0,952204000.0,4009280000.0
sh688518,联赢激光,2021-01-12,13.35,13.67,13.28,13.4,13.4,813500.0,10913707.0,952204000.0,4009280000.0
sh688518,联赢激光,2021-01-13,13.4,13.41,12.7,12.78,13.4,1550136.0,20074027.0,908146800.0,3823776000.0
sh688518,联赢激光,2021-01-14,12.77,13.74,12.7,13.39,12.78,1666202.0,22159954.0,951493400.0,4006288000.0
sh688518,联赢激光,2021-01-15,13.52,13.91,13.3,13.88,13.39,1830478.0,25106114.0,986312800.0,4152896000.0
sh688518,联赢激光,2021-01-18,13.9,14.0,13.65,13.74,13.88,1139299.0,15715558.0,976364400.0,4111008000.0
sh688518,联赢激光,2021-01-19,13.8,14.15,13.72,14.01,13.74,1373765.0,19250750.0,995550600.0,4191792000.0
sh688518,联赢激光,2021-01-20,14.0,14.19,13.83,14.04,14.01,941393.0,13185859.0,997682400.0,4200768000.0
sh688518,联赢激光,2021-01-21,14.03,14.49,13.93,14.36,14.04,1523631.0,21762430.0,1020421600.0,4296512000.0
sh688518,联赢激光,2021-01-22,14.38,14.5,13.79,13.87,14.36,1087806.0,15267222.0,985602200.0,4149904000.0
sh688518,联赢激光,2021-01-25,13.81,13.81,13.2,13.26,13.87,1297419.0,17304526.0,942255600.0,3967392000.0
sh688518,联赢激光,2021-01-26,13.19,13.48,13.11,13.12,13.26,897347.0,11929263.0,932307200.0,3925504000.0
sh688518,联赢激光,2021-01-27,13.34,13.34,12.86,13.04,13.12,1069335.0,13841972.0,926622400.0,3901568000.0
sh688518,联赢激光,2021-01-28,13.0,13.5,12.86,13.05,13.04,1052726.0,13977631.0,927333000.0,3904560000.0
sh688518,联赢激光,2021-01-29,13.1,13.29,12.62,12.74,13.05,1104247.0,14210568.0,905304400.0,3811808000.0
sh688518,联赢激光,2021-02-01,12.74,13.3,12.6,13.24,12.74,1143637.0,14970923.0,940834400.0,3961408000.0
sh688518,联赢激光,2021-02-02,13.15,13.25,13.01,13.16,13.24,632150.0,8289357.0,935149600.0,3937472000.0
sh688518,联赢激光,2021-02-03,13.22,13.23,12.7,12.82,13.16,1037296.0,13346322.0,910989200.0,3835744000.0
sh688518,联赢激光,2021-02-04,12.82,12.9,12.23,12.33,12.82,916436.0,11395298.0,876169800.0,3689136000.0
sh688518,联赢激光,2021-02-05,12.27,12.49,11.83,11.86,12.33,1204684.0,14587479.0,842771600.0,3548512000.0
sh688518,联赢激光,2021-02-08,12.0,12.0,11.7,11.7,11.86,750851.0,8886079.0,831402000.0,3500640000.0
sh688518,联赢激光,2021-02-09,11.77,11.89,11.64,11.81,11.7,720052.0,8484454.0,839218600.0,3533552000.0
sh688518,联赢激光,2021-02-10,11.81,12.3,11.76,12.0,11.81,884542.0,10685964.0,852720000.0,3590400000.0
sh688518,联赢激光,2021-02-18,12.05,12.64,12.05,12.48,12.0,1329379.0,16589490.0,886828800.0,3734016000.0
sh688518,联赢激光,2021-02-19,12.59,13.04,12.55,12.94,12.48,1157084.0,14889266.0,919516400.0,3871648000.0
sh688518,联赢激光,2021-02-22,13.0,13.73,13.0,13.25,12.94,1865876.0,25071380.0,941545000.0,3964400000.0
sh688518,联赢激光,2021-02-23,13.09,13.44,13.05,13.24,13.25,930283.0,12373210.0,940834400.0,3961408000.0
sh688518,联赢激光,2021-02-24,13.69,14.25,13.55,13.88,13.24,2621459.0,36618015.0,986312800.0,4152896000.0
sh688518,联赢激光,2021-02-25,13.96,13.96,13.36,13.51,13.88,1103472.0,14924993.0,960020600.0,4042192000.0
sh688518,联赢激光,2021-02-26,13.5,13.74,13.21,13.57,13.51,855888.0,11600764.0,964284200.0,4060144000.0
sh688518,联赢激光,2021-03-01,13.7,13.88,13.67,13.77,13.57,945079.0,13015343.0,978496200.0,4119984000.0
sh688518,联赢激光,2021-03-02,13.79,13.89,13.57,13.8,13.77,824586.0,11308798.0,980628000.0,4128960000.0
sh688518,联赢激光,2021-03-03,13.83,14.24,13.7,14.24,13.8,1542629.0,21774712.0,1011894400.0,4260608000.0
sh688518,联赢激光,2021-03-04,14.08,14.89,14.08,14.45,14.24,2438770.0,35645514.0,1026817000.0,4323440000.0
sh688518,联赢激光,2021-03-05,14.3,14.79,14.25,14.45,14.45,1284614.0,18661594.0,1026817000.0,4323440000.0
sh688518,联赢激光,2021-03-08,14.36,14.64,14.27,14.3,14.45,981010.0,14163783.0,1016158000.0,4278560000.0
sh688518,联赢激光,2021-03-09,14.3,14.45,13.59,13.89,14.3,1121709.0,15763334.0,987023400.0,4155888000.0
sh688518,联赢激光,2021-03-10,13.99,14.27,13.57,13.59,13.89,854297.0,11716957.0,965705400.0,4066128000.0
sh688518,联赢激光,2021-03-11,13.7,13.8,13.44,13.68,13.59,816298.0,11114608.0,972100800.0,4093056000.0
sh688518,联赢激光,2021-03-12,13.8,13.87,13.6,13.65,13.68,465360.0,6369814.0,969969000.0,4084080000.0
sh688518,联赢激光,2021-03-15,13.81,13.81,13.55,13.62,13.65,577760.0,7899680.0,967837200.0,4075104000.0
sh688518,联赢激光,2021-03-16,13.8,13.96,13.61,13.94,13.62,908003.0,12548846.0,990576400.0,4170848000.0
sh688518,联赢激光,2021-03-17,13.99,14.3,13.72,14.14,13.94,911142.0,12844842.0,1004788400.0,4230688000.0
sh688518,联赢激光,2021-03-18,14.1,14.65,14.1,14.45,14.14,1356865.0,19562858.0,1026817000.0,4323440000.0
sh688518,联赢激光,2021-03-19,14.31,14.7,14.28,14.67,14.45,1338948.0,19592427.0,1042450200.0,4389264000.0
sh688518,联赢激光,2021-03-22,14.76,14.76,14.31,14.34,14.67,1301637.0,18813175.0,1019000400.0,4290528000.0
sh688518,联赢激光,2021-03-23,14.44,14.44,13.8,13.85,14.34,1104282.0,15535779.0,984181000.0,4143920000.0
sh688518,联赢激光,2021-03-24,13.85,13.95,13.38,13.46,13.85,845377.0,11532696.0,956467600.0,4027232000.0
sh688518,联赢激光,2021-03-25,13.49,13.67,13.35,13.44,13.46,739624.0,9956897.0,955046400.0,4021248000.0
sh688518,联赢激光,2021-03-26,13.4,13.68,13.36,13.45,13.44,633442.0,8521134.0,955757000.0,4024240000.0
sh688518,联赢激光,2021-03-29,13.54,13.54,13.16,13.17,13.45,799347.0,10605348.0,935860200.0,3940464000.0
sh688518,联赢激光,2021-03-30,13.18,13.18,12.9,12.96,13.17,665323.0,8636325.0,920937600.0,3877632000.0
sh688518,联赢激光,2021-03-31,12.73,13.07,12.73,12.95,12.96,486666.0,6300785.0,920227000.0,3874640000.0
sh688518,联赢激光,2021-04-01,12.95,13.08,12.87,12.93,12.95,528764.0,6843787.0,918805800.0,3868656000.0
sh688518,联赢激光,2021-04-02,12.93,13.21,12.88,13.18,12.93,670864.0,8794429.0,936570800.0,3943456000.0
sh688518,联赢激光,2021-04-06,13.18,13.33,13.12,13.23,13.18,513384.0,6796598.0,940123800.0,3958416000.0
sh688518,联赢激光,2021-04-07,13.23,13.38,13.22,13.25,13.23,364839.0,4843616.0,941545000.0,3964400000.0
sh688518,联赢激光,2021-04-08,13.26,13.26,13.09,13.1,13.25,596265.0,7860910.0,930886000.0,3919520000.0
sh688518,联赢激光,2021-04-09,13.13,13.3,13.03,13.08,13.1,437648.0,5725430.0,929464800.0,3913536000.0
sh688518,联赢激光,2021-04-12,13.1,13.1,12.7,12.78,13.08,640570.0,8211649.0,908146800.0,3823776000.0
sh688518,联赢激光,2021-04-13,12.78,12.83,12.67,12.78,12.78,431092.0,5490973.0,908146800.0,3823776000.0
sh688518,联赢激光,2021-04-14,12.78,12.89,12.73,12.86,12.78,469349.0,6008635.0,913831600.0,3847712000.0
sh688518,联赢激光,2021-04-15,12.8,13.23,12.66,13.1,12.86,883513.0,11452682.0,930886000.0,3919520000.0
sh688518,联赢激光,2021-04-16,13.1,13.27,13.01,13.19,13.1,464108.0,6122709.0,937281400.0,3946448000.0
sh688518,联赢激光,2021-04-19,13.28,14.4,13.14,14.06,13.19,3105318.0,43273160.0,999103600.0,4206752000.0
sh688518,联赢激光,2021-04-20,13.9,16.1,13.9,14.97,14.06,6165816.0,93391016.0,1063768200.0,4479024000.0
sh688518,联赢激光,2021-04-21,14.4,15.06,14.34,14.82,14.97,2838750.0,41832859.0,1053109200.0,4434144000.0
sh688518,联赢激光,2021-04-22,15.02,15.4,14.78,14.79,14.82,1484350.0,22255723.0,1050977400.0,4425168000.0
sh688518,联赢激光,2021-04-23,14.73,14.96,14.6,14.67,14.79,1054387.0,15507821.0,1042450200.0,4389264000.0
sh688518,联赢激光,2021-04-26,15.0,15.19,14.76,14.84,14.67,1240045.0,18511869.0,1061209884.0,4440128000.0
sh688518,联赢激光,2021-04-27,14.74,15.03,14.56,14.88,14.84,1221728.0,18135438.0,1064070288.0,4452096000.0
sh688518,联赢激光,2021-04-28,15.0,15.59,14.66,15.33,14.88,2606924.0,39727374.0,1096249833.0,4586736000.0
sh688518,联赢激光,2021-04-29,15.56,15.57,14.83,14.85,15.33,1765888.0,26584638.0,1061924985.0,4443120000.0
sh688518,联赢激光,2021-04-30,14.6,14.73,13.69,13.83,14.85,3158839.0,44129387.0,988984683.0,4137936000.0
sh688518,联赢激光,2021-05-06,13.83,14.22,13.81,13.9,13.83,1137203.0,15865308.0,993990390.0,4158880000.0
sh688518,联赢激光,2021-05-07,13.9,14.07,13.54,13.68,13.9,980231.0,13422826.0,978258168.0,4093056000.0
sh688518,联赢激光,2021-05-10,13.68,13.94,13.59,13.82,13.68,619877.0,8528817.0,988269582.0,4134944000.0
sh688518,联赢激光,2021-05-11,13.69,13.89,13.57,13.69,13.82,815277.0,11156874.0,978973269.0,4096048000.0
sh688518,联赢激光,2021-05-12,13.82,13.82,13.5,13.67,13.69,668806.0,9115069.0,977543067.0,4090064000.0
sh688518,联赢激光,2021-05-13,13.53,13.76,13.39,13.4,13.67,699813.0,9493226.0,958235340.0,4009280000.0
sh688518,联赢激光,2021-05-14,13.5,13.82,13.39,13.66,13.4,961235.0,13172548.0,976827966.0,4087072000.0
sh688518,联赢激光,2021-05-17,13.7,13.79,13.52,13.78,13.66,815885.0,11167327.0,985409178.0,4122976000.0
sh688518,联赢激光,2021-05-18,13.77,13.86,13.6,13.75,13.78,796918.0,10905974.0,983263875.0,4114000000.0
sh688518,联赢激光,2021-05-19,13.85,13.88,13.4,13.44,13.75,1019352.0,13768723.0,961095744.0,4021248000.0
sh688518,联赢激光,2021-05-20,13.55,13.55,12.93,13.02,13.44,1500742.0,19650310.0,931061502.0,3895584000.0
sh688518,联赢激光,2021-05-21,13.02,13.13,12.93,12.95,13.02,580766.0,7565241.0,926055795.0,3874640000.0
sh688518,联赢激光,2021-05-24,12.93,13.24,12.93,13.09,12.95,746418.0,9764303.0,936067209.0,3916528000.0
sh688518,联赢激光,2021-05-25,13.01,13.15,13.0,13.11,13.09,681589.0,8922544.0,937497411.0,3922512000.0
sh688518,联赢激光,2021-05-26,13.11,13.47,13.1,13.33,13.11,1003616.0,13367927.0,953229633.0,3988336000.0
sh688518,联赢激光,2021-05-27,13.33,13.66,13.32,13.61,13.33,1094872.0,14848770.0,973252461.0,4072112000.0
sh688518,联赢激光,2021-05-28,13.67,13.67,13.34,13.38,13.61,955873.0,12905403.0,956805138.0,4003296000.0
sh688518,联赢激光,2021-05-31,13.4,14.6,13.38,14.59,13.38,4546939.0,64809712.0,1043332359.0,4365328000.0
sh688518,联赢激光,2021-06-01,14.75,15.47,14.58,14.6,14.59,6227789.0,93554188.0,1044047460.0,4368320000.0
sh688518,联赢激光,2021-06-02,14.75,15.12,14.5,14.8,14.6,3872212.0,57577676.0,1058349480.0,4428160000.0
sh688518,联赢激光,2021-06-03,14.81,15.69,14.77,15.12,14.8,5913708.0,90545293.0,1081232712.0,4523904000.0
sh688518,联赢激光,2021-06-04,15.18,15.26,14.63,14.73,15.12,2750793.0,41150857.0,1053343773.0,4407216000.0
sh688518,联赢激光,2021-06-07,15.03,15.71,14.66,15.5,14.73,4504016.0,69077284.0,1108406550.0,4637600000.0
sh688518,联赢激光,2021-06-08,15.6,15.66,15.25,15.45,15.5,2048237.0,31592405.0,1104831045.0,4622640000.0
sh688518,联赢激光,2021-06-09,15.62,17.43,15.33,16.88,15.45,9473884.0,157476541.0,1207090488.0,5050496000.0
sh688518,联赢激光,2021-06-10,16.96,17.25,16.45,17.06,16.88,4400796.0,74055337.0,1219962306.0,5104352000.0
sh688518,联赢激光,2021-06-11,16.98,17.12,16.5,16.5,17.06,5088440.0,85714682.0,1179916650.0,4936800000.0
sh688518,联赢激光,2021-06-15,16.3,17.66,16.3,17.05,16.5,4217399.0,72373383.0,1219247205.0,5101360000.0
sh688518,联赢激光,2021-06-16,16.9,17.05,15.89,16.5,17.05,4921551.0,80091023.0,1179916650.0,4936800000.0
sh688518,联赢激光,2021-06-17,16.41,16.65,15.35,15.68,16.5,3334532.0,52508409.0,1121278368.0,4691456000.0
sh688518,联赢激光,2021-06-18,15.68,15.79,15.18,15.46,15.68,2509598.0,38835773.0,1105546146.0,4625632000.0
sh688518,联赢激光,2021-06-21,15.3,16.88,15.18,16.22,15.46,5728325.0,93234856.0,1159893822.0,4853024000.0
sh688518,联赢激光,2021-06-22,15.8,16.6,14.63,15.05,16.22,14622600.0,222106062.0,3709638154.25,4502960000.0
sh688518,联赢激光,2021-06-23,14.94,15.38,14.8,15.2,15.05,7049055.0,106597759.0,3746611292.000001,4547840000.0
sh688518,联赢激光,2021-06-24,15.2,16.35,15.19,16.28,15.2,7352161.0,116204726.0,4012817883.8,4870976000.0
sh688518,联赢激光,2021-06-25,16.54,18.99,15.86,18.41,16.28,19111664.0,345644778.0,4537836439.849999,5508272000.0
sh688518,联赢激光,2021-06-28,18.2,18.88,18.13,18.79,18.41,11592504.0,216418696.0,4631501722.150001,5621968000.0
sh688518,联赢激光,2021-06-29,18.76,18.94,18.11,18.2,18.79,5165452.0,95461993.0,4486074047.0,5445440000.0
sh688518,联赢激光,2021-06-30,18.14,19.1,18.09,18.77,18.2,7487445.0,140206453.0,4626571970.45,5615984000.0
sh688518,XD联赢激,2021-07-01,18.79,19.83,18.58,18.72,18.65,9495449.0,182664452.0,4614247591.2,5601024000.0
sh688518,联赢激光,2021-07-02,18.44,19.0,18.23,18.39,18.72,4989931.0,92420481.0,4532906688.15,5502288000.0
sh688518,联赢激光,2021-07-05,18.45,18.65,17.48,17.96,18.39,7881279.0,141087130.0,4426917026.6,5373632000.0
sh688518,联赢激光,2021-07-06,18.18,19.58,18.0,19.08,17.96,9105727.0,173240754.0,4702983121.8,5708736000.0
sh688518,联赢激光,2021-07-07,19.08,21.03,18.32,20.41,19.08,17991655.0,359768755.0,5030811609.85,6106672000.0
sh688518,联赢激光,2021-07-08,20.66,22.74,20.55,22.48,20.41,14835696.0,323066762.0,5541040910.8,6726016000.0
sh688518,联赢激光,2021-07-09,22.8,22.9,21.68,22.1,22.48,10487907.0,234361544.0,5447375628.5,6612320000.0
sh688518,联赢激光,2021-07-12,22.97,26.52,22.97,24.16,22.1,21559743.0,544154096.0,5955140053.599999,7228672000.0
sh688518,联赢激光,2021-07-13,24.38,25.53,23.58,23.99,24.16,11238130.0,276587837.0,5913237164.150001,7177808000.0
sh688518,联赢激光,2021-07-14,24.34,25.37,23.6,24.18,23.99,8810263.0,217228541.0,5960069805.299999,7234656000.0
sh688518,联赢激光,2021-07-15,24.29,25.6,24.1,24.6,24.18,6393577.0,158456408.0,6063594591.0,7360320000.0
sh688518,联赢激光,2021-07-16,24.38,25.38,23.37,23.5,24.6,9237442.0,225880974.0,5792458247.5,7031200000.0
sh688518,联赢激光,2021-07-19,23.94,25.26,23.76,24.35,23.5,9495495.0,234266767.0,6001972694.75,7285520000.0
sh688518,联赢激光,2021-07-20,24.89,25.14,24.06,24.62,24.35,6925442.0,170316577.0,6068524342.7,7366304000.0
sh688518,联赢激光,2021-07-21,24.7,26.0,24.36,25.14,24.62,12034667.0,303955171.0,6196697886.9,7521888000.0
sh688518,联赢激光,2021-07-22,25.89,27.8,25.85,27.71,25.14,12817336.0,346082815.0,6830170980.35,8290832000.0
sh688518,联赢激光,2021-07-23,27.07,29.23,27.01,28.09,27.71,13604455.0,385630993.0,6923836262.65,8404528000.0
sh688518,联赢激光,2021-07-26,28.11,30.6,28.1,29.69,28.09,14085511.0,418127199.0,7318216398.650001,8883248000.0
sh688518,联赢激光,2021-07-27,29.68,31.3,28.1,28.33,29.69,12639704.0,378930329.0,6982993283.05,8476336000.0
sh688518,联赢激光,2021-07-28,28.73,29.73,27.38,28.43,28.33,13194332.0,378839616.0,7007642041.55,8506256000.0
sh688518,联赢激光,2021-07-29,28.55,32.56,28.55,31.77,28.43,11440507.0,351934144.0,7830910575.45,9505584000.0
sh688518,联赢激光,2021-07-30,31.1,36.18,31.1,34.41,31.77,13892847.0,477989846.0,8481637799.85,10295472000.0
sh688518,联赢激光,2021-08-02,35.2,38.37,34.59,36.28,34.41,15327123.0,555451042.0,8942569583.8,10854976000.0
sh688518,联赢激光,2021-08-03,36.1,36.36,30.25,32.79,36.28,23053893.0,753366508.0,8082327912.15,9810768000.0
sh688518,联赢激光,2021-08-04,32.36,35.4,32.09,35.4,32.79,12375124.0,426529004.0,8725660509.0,10591680000.0
sh688518,联赢激光,2021-08-05,35.5,35.77,33.51,34.36,35.4,8591147.0,296460613.0,8469313420.6,10280512000.0
sh688518,联赢激光,2021-08-06,35.19,37.8,34.52,35.45,34.36,7821915.0,281165714.0,8737984888.25,10606640000.0
sh688518,联赢激光,2021-08-09,35.0,35.49,33.2,34.81,35.45,8158271.0,279732557.0,8580232833.849999,10415152000.0
sh688518,联赢激光,2021-08-10,35.01,37.4,33.77,34.94,34.81,9192871.0,330243123.0,8612276219.9,10454048000.0
sh688518,联赢激光,2021-08-11,34.94,37.2,34.59,37.08,34.94,8906393.0,324709862.0,9139759651.8,11094336000.0
sh688518,联赢激光,2021-08-12,37.08,38.5,35.92,38.5,37.08,5943300.0,221646429.0,9489772022.5,11519200000.0
sh688518,联赢激光,2021-08-13,41.0,41.0,35.6,37.5,38.5,12816284.0,486023413.0,9243284437.5,11220000000.0
sh688518,联赢激光,2021-08-16,36.34,36.93,33.06,33.81,37.5,10426109.0,357242091.0,8333745248.849999,10115952000.0
sh688518,联赢激光,2021-08-17,33.81,35.25,32.95,33.26,33.81,5844190.0,198720670.0,8198177077.099999,9951392000.0
sh688518,联赢激光,2021-08-18,33.23,35.2,32.02,32.4,33.26,5745527.0,191829595.0,7986197754.0,9694080000.0
sh688518,联赢激光,2021-08-19,32.42,35.14,32.42,33.85,32.4,6526268.0,222565431.0,8343604752.249999,10127920000.0
sh688518,联赢激光,2021-08-20,33.85,34.94,32.55,32.9,33.85,5197205.0,174537075.0,8109441546.5,9843680000.0
sh688518,联赢激光,2021-08-23,34.25,35.76,33.15,35.23,32.9,7423146.0,254837829.0,8683757619.55,10540816000.0
sh688518,联赢激光,2021-08-24,34.7,36.47,34.05,35.56,35.23,5681764.0,200737781.0,8765098522.6,10639552000.0
sh688518,联赢激光,2021-08-25,34.8,36.68,33.21,36.01,35.56,7666495.0,272265513.0,8876017935.85,10774192000.0
sh688518,联赢激光,2021-08-26,35.36,36.38,34.8,35.19,36.01,3760513.0,133214489.0,8673898116.15,10528848000.0
sh688518,联赢激光,2021-08-27,35.3,37.94,34.44,37.7,35.19,4630026.0,167412013.0,9292581954.5,11279840000.0
sh688518,联赢激光,2021-08-30,37.59,40.69,36.5,39.82,37.7,7865082.0,308294461.0,9913984802.7,11914144000.0
sh688518,联赢激光,2021-08-31,38.36,39.6,37.9,38.69,39.82,5314030.0,206717550.0,9632648719.65,11576048000.0
sh688518,联赢激光,2021-09-01,39.6,39.8,33.96,36.52,38.69,7275965.0,261772353.0,9092383852.2,10926784000.0
sh688518,联赢激光,2021-09-02,35.7,37.61,35.11,36.5,36.52,4074345.0,148597049.0,9087404452.5,10920800000.0
sh688518,联赢激光,2021-09-03,35.1,39.19,35.1,37.06,36.5,6807734.0,257825883.0,9226827644.1,11088352000.0
sh688518,联赢激光,2021-09-06,38.1,38.1,34.3,37.1,37.06,5984154.0,214126604.0,9236786443.5,11100320000.0
sh688518,联赢激光,2021-09-07,37.1,37.87,35.72,36.85,37.1,3983010.0,146193158.0,9174543947.25,11025520000.0
sh688518,联赢激光,2021-09-08,36.26,37.49,32.9,33.34,36.85,8268983.0,283463359.0,8300659299.9,9975328000.0
sh688518,联赢激光,2021-09-09,33.1,34.5,33.05,33.48,33.34,4178367.0,140803428.0,8335515097.799999,10017216000.0
sh688518,联赢激光,2021-09-10,33.59,33.59,29.35,32.39,33.48,11846880.0,367195510.0,8064137814.15,9691088000.0
sh688518,联赢激光,2021-09-13,32.58,32.77,29.33,32.2,32.39,8620433.0,267816678.0,8016833517.0,9634240000.0
sh688518,联赢激光,2021-09-14,32.12,34.79,30.8,31.6,32.2,8045437.0,262645894.0,7867451526.0,9454720000.0
sh688518,联赢激光,2021-09-15,31.91,33.55,30.41,33.48,31.6,4572677.0,147142163.0,8335515097.799999,10017216000.0
sh688518,联赢激光,2021-09-16,32.29,35.2,32.02,32.22,33.48,7416225.0,252511378.0,8021812916.7,9640224000.0
sh688518,联赢激光,2021-09-17,34.47,34.47,28.61,32.4,32.22,7451170.0,230146940.0,8066627513.999999,9694080000.0
sh688518,联赢激光,2021-09-22,31.25,31.5,29.4,31.0,32.4,7646312.0,231266189.0,7718069534.999999,9275200000.0
sh688518,联赢激光,2021-09-23,30.5,31.58,29.21,29.96,31.0,4216991.0,128188562.0,7459140750.599999,8964032000.0
sh688518,联赢激光,2021-09-24,30.22,31.17,29.4,30.03,29.96,3182029.0,96499584.0,7476568649.55,8984976000.0
sh688518,联赢激光,2021-09-27,28.8,31.39,28.8,29.7,30.03,3415376.0,102862770.0,7394408554.5,8886240000.0
sh688518,联赢激光,2021-09-28,29.5,30.67,28.4,28.7,29.7,2940415.0,86261404.0,7145438569.5,8587040000.0
sh688518,联赢激光,2021-09-29,28.85,29.32,27.48,28.07,28.7,4237924.0,119866222.0,6988587478.950001,8398544000.0
sh688518,联赢激光,2021-09-30,28.71,30.63,27.6,30.19,28.07,2568975.0,75627074.0,7516403847.150001,9032848000.0
sh688518,联赢激光,2021-10-08,30.22,30.45,28.6,29.48,30.19,3000463.0,88429419.0,7339635157.8,8820416000.0
sh688518,联赢激光,2021-10-11,29.92,30.88,28.92,29.95,29.48,2709349.0,81322228.0,7456651050.75,8961040000.0
sh688518,联赢激光,2021-10-12,29.94,30.35,28.5,28.82,29.95,3784666.0,110366080.0,7175314967.7,8622944000.0
sh688518,联赢激光,2021-10-13,29.42,31.6,28.9,30.8,28.82,3957278.0,120644953.0,7668275538.0,9215360000.0
sh688518,联赢激光,2021-10-14,30.25,32.4,30.25,31.23,30.8,4741014.0,150325670.0,7775332631.55,9344016000.0
sh688518,联赢激光,2021-10-15,30.9,34.45,30.9,34.32,31.23,10666236.0,355813759.0,8544649885.2,10268544000.0
sh688518,联赢激光,2021-10-18,35.0,38.19,34.7,37.35,34.32,10259590.0,378752573.0,9299028939.75,11175120000.0
sh688518,联赢激光,2021-10-19,37.34,39.0,36.72,37.69,37.35,7246061.0,275117520.0,9383678734.65,11276848000.0
sh688518,联赢激光,2021-10-20,38.23,39.2,36.5,37.92,37.69,9626265.0,366831557.0,9440941831.2,11345664000.0
sh688518,联赢激光,2021-10-21,37.47,39.56,36.21,37.8,37.92,7473048.0,279837470.0,9411065433.0,11309760000.0
sh688518,联赢激光,2021-10-22,37.7,37.7,34.93,35.68,37.8,7410197.0,264868097.0,8883249064.8,10675456000.0
sh688518,联赢激光,2021-10-25,35.35,37.24,34.78,36.04,35.68,6415701.0,231457379.0,8972878259.4,10783168000.0
sh688518,联赢激光,2021-10-26,36.58,37.22,35.9,36.15,36.04,4554946.0,167082981.0,9000264957.75,10816080000.0
sh688518,联赢激光,2021-10-27,36.5,37.55,35.92,37.07,36.15,3897337.000000001,143137365.0,9120609568.95,11091344000.0
sh688518,联赢激光,2021-10-28,37.63,37.63,35.28,36.55,37.07,4162864.0,152440388.0,9099852951.75,10935760000.0
sh688518,联赢激光,2021-10-29,37.0,38.5,36.36,38.0,36.55,6494582.0,244636503.0,9460859430.0,11369600000.0
sh688518,联赢激光,2021-11-01,40.5,43.87,40.25,41.9,38.0,16309887.0,689591125.0,10431842371.5,12536480000.0
sh688518,联赢激光,2021-11-02,42.86,44.55,42.17,43.2,41.9,8002491.0,346103468.0,10755503352.0,12925440000.0
sh688518,联赢激光,2021-11-03,43.8,43.93,40.58,42.41,43.2,7078025.0,297435935.0,10558817063.849998,12689072000.0
sh688518,联赢激光,2021-11-04,41.91,45.56,41.9,43.85,42.41,6570292.0,291074170.0,10917333842.25,13119920000.0
sh688518,联赢激光,2021-11-05,43.98,45.45,42.51,42.9,43.85,5796937.0,253472601.0,10680812356.5,12835680000.0
sh688518,联赢激光,2021-11-08,44.3,48.5,44.3,48.29,42.9,10810991.0,508668158.0,12022760575.65,14448368000.0
sh688518,联赢激光,2021-11-09,49.5,49.69,47.18,47.5,48.29,6112243.0,294668207.0,11826074287.5,14212000000.0
sh688518,联赢激光,2021-11-10,46.55,48.79,46.1,47.25,47.5,5884944.0,278252518.0,11763831791.25,14137200000.0
sh688518,联赢激光,2021-11-11,46.59,49.22,46.31,48.36,47.25,5407563.0,260389520.0,12040188474.6,14469312000.0
sh688518,联赢激光,2021-11-12,47.86,50.7,47.14,50.11,48.36,5220539.0,257354518.0,12475885948.35,14992912000.0
sh688518,联赢激光,2021-11-15,50.19,50.98,46.3,47.47,50.11,6339114.0,302976955.0,11818605187.95,14203024000.0
sh688518,联赢激光,2021-11-16,47.03,47.78,44.2,44.52,47.47,9053878.0,414169564.0,11084143732.2,13320384000.0
sh688518,联赢激光,2021-11-17,44.15,47.0,43.96,44.63,44.52,6431234.0,292081302.0,11111530430.55,13353296000.0
sh688518,联赢激光,2021-11-18,45.47,46.88,43.5,45.97,44.63,4921619.0,226192668.0,11445150210.45,13754224000.0
sh688518,联赢激光,2021-11-19,46.49,46.49,43.7,44.84,45.97,5551193.0,248498328.0,11163814127.400002,13416128000.0
sh688518,联赢激光,2021-11-22,45.88,48.48,44.93,47.74,44.84,5909125.0,278963186.0,11885827083.9,14283808000.0
sh688518,联赢激光,2021-11-23,48.8,48.8,45.68,47.6,47.74,5794071.0,274796948.0,11850971286.0,14241920000.0
sh688518,联赢激光,2021-11-24,47.61,52.34,47.36,49.73,47.6,9192129.0,463099722.0,12381277354.05,14879216000.0
sh688518,联赢激光,2021-11-25,48.88,49.8,47.19,48.54,49.73,5248438.0,255548355.0,12085003071.900002,14523168000.0
sh688518,联赢激光,2021-11-26,47.02,52.27,47.02,50.91,48.54,5312990.0,270409186.0,12675061936.349998,15232272000.0
sh688518,联赢激光,2021-11-29,50.0,52.9,49.12,52.3,50.91,6477111.0,333955702.0,13021130215.5,15648160000.0
sh688518,联赢激光,2021-11-30,52.2,52.58,49.09,49.67,52.3,6279264.0,318330071.0,12366339154.95,14861264000.0
sh688518,联赢激光,2021-12-01,50.17,52.0,48.86,49.72,49.67,5307617.0,266157699.0,12378787654.2,14876224000.0
sh688518,联赢激光,2021-12-02,49.72,51.2,48.63,48.8,49.72,3274010.0,162282658.0,12149735268.000002,14600960000.0
sh688518,联赢激光,2021-12-03,49.72,51.15,49.13,49.9,48.8,3936963.0,197658793.0,12423602251.5,14930080000.0
sh688518,联赢激光,2021-12-06,49.5,50.61,47.61,48.59,49.9,3738029.0,182760275.0,12097451571.150002,14538128000.0
sh688518,联赢激光,2021-12-07,48.11,48.64,44.68,45.75,48.59,9206195.0,419605530.0,11390376813.75,13688400000.0
sh688518,联赢激光,2021-12-08,45.0,48.05,45.0,47.29,45.75,3487094.0,163904316.0,11773790590.65,14149168000.0
sh688518,联赢激光,2021-12-09,48.1,48.2,45.8,46.3,47.29,3401649.0,158873018.0,11527310305.5,13852960000.0
sh688518,联赢激光,2021-12-10,46.01,49.95,45.5,49.95,46.3,5295493.0,258097866.0,12436050750.75,14945040000.0
sh688518,联赢激光,2021-12-13,51.29,51.44,47.68,49.0,49.95,5624437.0,276698813.0,12199529265.0,14660800000.0
sh688518,联赢激光,2021-12-14,49.23,53.99,48.67,53.2,49.0,7364211.0,382220228.0,13245203202.0,15917440000.0
sh688518,联赢激光,2021-12-15,53.73,55.78,51.85,53.19,53.2,4041126.0,214788744.0,13242713502.150002,15914448000.0
sh688518,联赢激光,2021-12-16,52.71,53.4,51.4,52.53,53.19,2624498.0,136740224.0,13078393312.05,15716976000.0
sh688518,联赢激光,2021-12-17,52.49,52.67,50.02,50.5,52.53,2723949.0,138906878.0,12572984242.5,15109600000.0
sh688518,联赢激光,2021-12-20,50.45,51.88,48.45,50.6,50.5,4098937.0,206436318.0,12597881240.999998,15139520000.0
sh688518,联赢激光,2021-12-21,49.11,52.96,49.11,52.72,50.6,3711909.0,191804385.0,13125697609.2,15773824000.0
sh688518,联赢激光,2021-12-22,52.49,53.11,50.68,51.51,52.72,3047275.0,157683121.0,12824443927.35,15411792000.0
sh688518,联赢激光,2021-12-23,51.2,55.15,51.02,53.55,51.51,4035012.0,216171787.0,13332342696.750002,16022160000.0
sh688518,联赢激光,2021-12-24,53.92,53.92,48.59,50.4,53.55,6638353.0,333451622.0,12548087244.0,15079680000.0
sh688518,联赢激光,2021-12-27,49.52,50.26,48.0,49.05,50.4,4368182.0,212695020.0,12211977764.25,14675760000.0
sh688518,联赢激光,2021-12-28,49.08,49.8,47.2,48.83,49.05,3762385.0,182038878.0,12157204367.55,14609936000.0
sh688518,联赢激光,2021-12-29,49.34,49.5,47.32,48.1,48.83,2774156.0,133404860.0,11975456278.5,14391520000.0
sh688518,联赢激光,2021-12-30,47.48,50.05,47.21,47.71,48.1,3679614.0,178742744.0,11878357984.35,14274832000.0
sh688518,联赢激光,2021-12-31,48.42,52.0,48.0,49.27,47.71,6587778.0,329611261.0,12266751160.949999,14741584000.0
sh688518,联赢激光,2022-01-04,50.5,51.12,45.82,46.25,49.27,6005282.0,286328212.0,11514861806.25,13838000000.0
sh688518,联赢激光,2022-01-05,44.94,46.01,42.69,43.86,46.25,16135849.0,707566690.0,10919823542.1,13122912000.0
sh688518,联赢激光,2022-01-06,42.8,46.52,42.75,45.1,43.86,9524422.0,429568071.0,11228546323.5,13493920000.0
sh688518,联赢激光,2022-01-07,44.16,46.3,41.5,42.89,45.1,10308490.0,443047904.0,10678322656.650002,12832688000.0
sh688518,联赢激光,2022-01-10,42.78,45.12,41.33,43.98,42.89,8858601.0,385674560.0,10949699940.3,13158816000.0
sh688518,联赢激光,2022-01-11,45.5,45.5,41.99,42.7,43.98,5596282.0,239793378.0,10631018359.5,12775840000.0
sh688518,联赢激光,2022-01-12,43.0,45.11,42.4,44.99,42.7,4527794.0,199580098.0,11201159625.15,13461008000.0
sh688518,联赢激光,2022-01-13,44.66,45.15,41.82,42.19,44.99,6336179.0,271090000.0,10504043667.15,12623248000.0
sh688518,联赢激光,2022-01-14,41.7,45.33,41.65,44.4,42.19,5489461.0,243597636.0,11054267334.0,13284480000.0
