数据由邢不行整理
股票代码,股票名称,交易日期,开盘价,最高价,最低价,收盘价,前收盘价,成交量,成交额,流通市值,总市值
sh688779,N锂科,2021-08-11,21.0,25.88,20.07,23.17,5.65,272195207.0,5878199926.0,8052939967.87,44699709322.24
sh688779,长远锂科,2021-08-12,24.5,28.88,24.01,28.04,23.17,213300853.0,5541793467.0,9745551864.44,54094943866.88
sh688779,长远锂科,2021-08-13,27.5,29.88,26.3,26.3,28.04,152705386.0,4269540041.0,9140799359.3,50738124953.6
sh688779,长远锂科,2021-08-16,26.1,27.4,25.1,26.31,26.3,99380579.0,2608270711.0,9144274948.41,50757417016.31999
sh688779,长远锂科,2021-08-17,25.85,26.66,24.79,25.66,26.31,77431415.0,1981561089.0,8918361656.26,49503432939.52
sh688779,长远锂科,2021-08-18,25.55,27.37,25.11,27.3,25.66,95425823.0,2509792785.0,9488358270.3,52667331225.6
sh688779,长远锂科,2021-08-19,26.65,27.27,25.88,26.45,27.3,70137880.0,1864804711.0,9192933195.95,51027505894.4
sh688779,长远锂科,2021-08-20,26.03,26.08,24.0,24.59,26.45,79155371.0,1978775512.0,8546473621.490001,47439182228.48
sh688779,长远锂科,2021-08-23,24.5,29.51,23.81,28.97,24.59,135954961.0,3719367017.0,10068781651.67,55889105699.84
sh688779,长远锂科,2021-08-24,28.7,33.76,28.52,31.3,28.97,110829683.0,3451705554.0,10878593914.3,60384156313.6
sh688779,长远锂科,2021-08-25,31.1,33.0,30.8,31.9,31.3,69261968.0,2199716254.0,11087129260.9,61541680076.8
sh688779,长远锂科,2021-08-26,31.5,32.4,30.45,31.39,31.9,44733802.0,1401779226.0,10909874216.29,60557784878.08
sh688779,长远锂科,2021-08-27,31.3,34.43,31.06,31.42,31.39,80039174.0,2622533977.0,10920300983.62,60615661066.24
sh688779,长远锂科,2021-08-30,30.81,32.15,29.4,30.1,31.42,68897562.0,2114742405.0,10461523221.1,58069108787.200005
sh688779,长远锂科,2021-08-31,29.8,32.23,29.26,31.99,30.1,59256644.0,1825570401.0,11118409562.89,61715308641.28
sh688779,长远锂科,2021-09-01,31.75,32.4,27.58,28.85,31.99,70706418.0,2095126359.0,10027074582.35,55657600947.200005
sh688779,长远锂科,2021-09-02,28.31,30.48,28.11,29.8,28.85,40615089.0,1200226598.0,10357255547.8,57490346905.6
sh688779,长远锂科,2021-09-03,29.11,30.2,27.9,28.35,29.8,39830218.0,1152347075.0,9853295126.85,54692997811.200005
sh688779,长远锂科,2021-09-06,28.6,29.18,26.9,28.12,28.35,31576282.0,883335661.0,9773356577.32,54249280368.64001
sh688779,长远锂科,2021-09-07,28.5,30.18,27.9,29.45,28.12,41291416.0,1214382295.0,10235609928.95,56815124710.4
sh688779,长远锂科,2021-09-08,29.33,30.6,28.85,29.18,29.45,33363966.0,983680595.0,10141769022.98,56294239016.96
sh688779,长远锂科,2021-09-09,28.99,30.45,28.9,29.35,29.18,28489515.0,843099262.0,10200854037.85,56622204083.200005
sh688779,长远锂科,2021-09-10,29.13,29.99,27.72,29.9,29.35,45330096.0,1295833512.0,10392011438.9,57683267532.8
sh688779,长远锂科,2021-09-13,29.92,31.1,29.59,30.06,29.9,34839388.0,1052108689.0,10447620864.66,57991940536.32001
sh688779,长远锂科,2021-09-14,30.9,30.99,29.24,29.35,30.06,35135630.0,1053470646.0,10200854037.85,56622204083.200005
sh688779,长远锂科,2021-09-15,29.2,29.47,28.19,28.68,29.35,29538402.0,847585399.0,9967989567.48,55329635880.96
sh688779,长远锂科,2021-09-16,28.3,28.7,26.15,26.22,28.68,36284285.0,990466205.0,9112994646.42,50583788451.84
sh688779,长远锂科,2021-09-17,26.45,26.87,24.71,25.95,26.22,27696691.0,715072444.0,9019153740.45,50062902758.4
sh688779,长远锂科,2021-09-22,25.8,27.08,25.51,26.5,25.95,21825723.0,580252181.0,9210311141.5,51123966208.0
sh688779,长远锂科,2021-09-23,26.93,26.95,25.83,25.97,26.5,17347961.0,457123842.0,9026104918.67,50101486883.84
sh688779,长远锂科,2021-09-24,26.15,26.3,25.1,25.2,25.97,21162939.0,541990022.0,8758484557.199999,48615998054.4
sh688779,长远锂科,2021-09-27,25.3,25.78,24.0,25.28,25.2,23017230.0,579278769.0,8786289270.08,48770334556.16
sh688779,长远锂科,2021-09-28,25.2,25.36,24.58,24.73,25.28,14941755.0,372460753.0,8595131869.03,47709271106.56
sh688779,长远锂科,2021-09-29,24.8,25.74,24.51,24.73,24.73,27402656.0,685140844.0,8595131869.03,47709271106.56
sh688779,长远锂科,2021-09-30,25.1,25.98,24.76,25.57,24.73,26890401.0,681543556.0,8887081354.27,49329804375.04
sh688779,长远锂科,2021-10-08,26.31,26.43,25.27,25.62,25.57,18305864.0,471839812.0,8904459299.82,49426264688.64001
sh688779,长远锂科,2021-10-11,25.61,25.77,24.86,24.88,25.62,15907851.0,401446854.0,8647265705.68,47998652047.36
sh688779,长远锂科,2021-10-12,24.92,25.05,23.15,23.64,24.88,21148855.0,506219525.0,8216292656.04,45606436270.08
sh688779,长远锂科,2021-10-13,23.56,24.41,23.51,24.18,23.64,17114251.0,412132342.0,8403974467.98,46648207656.96001
sh688779,长远锂科,2021-10-14,24.01,25.29,23.71,24.68,24.18,22623584.0,557549814.0,8577753923.48,47612810792.96001
sh688779,长远锂科,2021-10-15,24.63,25.25,24.33,24.59,24.68,17073129.0,423475068.0,8546473621.490001,47439182228.48
sh688779,长远锂科,2021-10-18,24.67,25.16,24.55,25.15,24.59,15875215.0,394941260.0,8741106611.65,48519537740.8
sh688779,长远锂科,2021-10-19,25.15,25.54,24.76,24.93,25.15,19257227.0,482253681.0,8664643651.23,48095112360.96001
sh688779,长远锂科,2021-10-20,24.81,25.9,24.68,25.42,24.93,25233323.0,639913113.0,8834947517.62,49040423434.24
sh688779,长远锂科,2021-10-21,25.75,25.77,24.41,24.61,25.42,25318737.0,634015171.0,8553424799.71,47477766353.92
sh688779,长远锂科,2021-10-22,24.42,25.18,24.35,24.57,24.61,15396947.0,381091449.0,8539522443.269999,47400598103.04
sh688779,长远锂科,2021-10-25,24.59,25.38,24.21,25.38,24.57,20777262.0,517923593.0,8821045161.18,48963255183.36
sh688779,长远锂科,2021-10-26,25.69,26.65,25.39,25.96,25.38,30176924.0,787455290.0,9022629329.56,50082194821.12
sh688779,长远锂科,2021-10-27,25.88,26.13,24.92,25.23,25.96,24080827.0,610190000.0,8768911324.53,48673874242.56
sh688779,长远锂科,2021-10-28,25.19,25.25,22.8,23.1,25.23,31874849.0,754611330.0,8028610844.1,44564664883.2
sh688779,长远锂科,2021-10-29,23.15,23.6,22.9,23.41,23.1,14810681.0,344822510.0,8136354106.51,45162718827.52
sh688779,长远锂科,2021-11-01,23.2,23.77,23.06,23.39,23.41,16521026.0,387777831.0,8129402928.29,45124134702.08
sh688779,长远锂科,2021-11-02,23.46,24.1,23.05,23.49,23.39,16004735.0,377647029.0,8164158819.389999,45317055329.28
sh688779,长远锂科,2021-11-03,23.49,23.54,23.1,23.3,23.49,9867537.0,229411140.0,8098122626.3,44950506137.6
sh688779,长远锂科,2021-11-04,23.3,23.98,23.25,23.81,23.3,16118987.0,382037180.0,8275377670.91,45934401336.32
sh688779,长远锂科,2021-11-05,23.8,26.3,23.76,25.42,23.81,43014420.0,1094175204.0,8834947517.62,49040423434.24
sh688779,长远锂科,2021-11-08,25.95,27.0,25.85,26.4,25.42,36827069.0,975206490.0,9175555250.4,50931045580.8
sh688779,长远锂科,2021-11-09,26.43,26.77,25.64,26.14,26.4,24034615.0,626015895.0,9085189933.54,50429451950.08
sh688779,长远锂科,2021-11-10,26.0,26.54,25.64,26.0,26.14,18114620.0,470336456.0,9036531686.0,50159363072.0
sh688779,长远锂科,2021-11-11,26.0,26.2,25.17,25.49,26.0,20376215.0,520834987.0,8859276641.39,49175467873.28
sh688779,长远锂科,2021-11-12,25.49,26.76,25.32,26.27,25.49,23657784.0,619887007.0,9130372591.97,50680248765.44
sh688779,长远锂科,2021-11-15,26.39,26.51,25.25,25.33,26.27,23620451.0,604822274.0,8803667215.63,48866794869.76
sh688779,长远锂科,2021-11-16,25.32,25.52,24.65,24.68,25.33,16681840.0,418478073.0,8577753923.48,47612810792.96001
sh688779,长远锂科,2021-11-17,24.79,27.08,24.79,27.03,24.68,42446592.0,1111534778.0,9394517364.33,52146445532.16
sh688779,长远锂科,2021-11-18,26.77,27.27,26.38,26.67,27.03,27335307.0,732075468.0,9269396156.37,51451931274.24
sh688779,长远锂科,2021-11-19,26.62,27.95,26.62,26.8,26.67,24584624.0,667589846.0,9314578814.8,51702728089.6
sh688779,长远锂科,2021-11-22,26.89,28.08,26.89,27.63,26.8,29349710.0,814279069.0,9603052710.93,53303969295.36
sh688779,长远锂科,2021-11-23,27.8,27.94,27.23,27.52,27.63,20693928.0,569182992.0,9564821230.72,53091756605.439995
sh688779,长远锂科,2021-11-24,27.45,27.96,26.93,27.05,27.52,19834250.0,544173728.0,9401468542.55,52185029657.6
sh688779,长远锂科,2021-11-25,27.3,27.94,26.81,27.2,27.05,16474874.0,452210342.0,9453602379.2,52474410598.4
sh688779,长远锂科,2021-11-26,27.28,28.17,27.11,27.7,27.2,21839235.0,606341993.0,9627381834.7,53439013734.4
sh688779,长远锂科,2021-11-29,27.15,28.18,26.95,27.83,27.7,20322938.0,561825801.0,9672564493.13,53689810549.76
sh688779,长远锂科,2021-11-30,28.22,28.35,26.72,26.79,27.83,21229467.0,582693812.0,9311103225.689999,51683436026.88
sh688779,长远锂科,2021-12-01,27.15,27.82,26.92,27.21,26.79,16186321.0,443396733.0,9457077968.31,52493702661.119995
sh688779,长远锂科,2021-12-02,27.48,27.69,26.19,26.7,27.21,19490692.0,519363391.0,9279822923.7,51509807462.4
sh688779,长远锂科,2021-12-03,26.51,26.74,26.02,26.29,26.7,18629875.0,490974555.0,9137323770.19,50718832890.88
sh688779,长远锂科,2021-12-06,26.1,26.28,25.1,25.23,26.29,18425774.0,472744520.0,8768911324.53,48673874242.56
sh688779,长远锂科,2021-12-07,25.38,25.48,24.2,24.5,25.23,15601513.0,384777573.0,8515193319.5,47265553664.0
sh688779,长远锂科,2021-12-08,24.58,25.05,24.52,24.94,24.5,11187404.0,277839086.0,8668119240.34,48114404423.68
sh688779,长远锂科,2021-12-09,24.77,25.13,24.7,24.93,24.94,9314755.0,232189328.0,8664643651.23,48095112360.96001
sh688779,长远锂科,2021-12-10,24.96,25.41,24.52,25.19,24.93,13162308.0,330317504.0,8755008968.09,48596705991.68
sh688779,长远锂科,2021-12-13,25.35,25.44,24.8,24.99,25.19,12657611.0,316200451.0,8685497185.890001,48210864737.28
sh688779,长远锂科,2021-12-14,24.85,24.88,24.24,24.54,24.99,14824860.0,362665340.0,8529095675.940001,47342721914.88
sh688779,长远锂科,2021-12-15,24.6,24.8,24.3,24.34,24.54,14389592.0,352820483.0,8459583893.74,46956880660.48
sh688779,长远锂科,2021-12-16,24.37,24.66,24.03,24.6,24.34,14667681.0,356672836.0,8549949210.599999,47458474291.200005
sh688779,长远锂科,2021-12-17,24.4,24.54,23.49,23.49,24.6,20728399.0,495790702.0,8164158819.389999,45317055329.28
sh688779,长远锂科,2021-12-20,23.38,23.69,23.18,23.39,23.49,9336565.0,218877420.0,8129402928.29,45124134702.08
sh688779,长远锂科,2021-12-21,23.39,23.67,23.37,23.62,23.39,6734317.0,158537118.0,8209341477.82,45567852144.64001
sh688779,长远锂科,2021-12-22,23.66,24.24,23.6,23.96,23.62,9236985.0,221425612.0,8327511507.559999,46223782277.119995
sh688779,长远锂科,2021-12-23,24.02,24.16,23.5,23.51,23.96,8301021.0,196421809.0,8171109997.610001,45355639454.72
sh688779,长远锂科,2021-12-24,23.5,23.68,22.58,22.61,23.51,15252860.0,349662129.0,7858306977.71,43619353809.92
sh688779,长远锂科,2021-12-27,22.5,23.06,22.39,22.83,22.61,6706021.0,152728323.0,7934769938.13,44043779189.759995
sh688779,长远锂科,2021-12-28,22.81,23.24,22.76,23.17,22.83,8238808.0,190034659.0,8052939967.87,44699709322.24
sh688779,长远锂科,2021-12-29,23.1,23.35,22.71,22.8,23.17,8441426.0,193910564.0,7924343170.799999,43985903001.6
sh688779,长远锂科,2021-12-30,22.63,23.07,22.63,22.84,22.8,7004838.0,160341764.0,7938245527.24,44063071252.48
sh688779,长远锂科,2021-12-31,23.28,23.69,23.27,23.44,22.84,11759551.0,276090625.0,8146780873.839999,45220595015.68
sh688779,长远锂科,2022-01-04,23.57,23.79,22.91,23.25,23.44,10876838.0,252038465.0,8080744680.75,44854045824.0
sh688779,长远锂科,2022-01-05,23.1,23.22,22.62,22.75,23.25,8301878.0,189080802.0,7906965225.25,43889442688.0
sh688779,长远锂科,2022-01-06,22.65,23.29,22.5,23.24,22.75,8425454.0,193781757.0,8077269091.639999,44834753761.28
sh688779,长远锂科,2022-01-07,23.2,23.3,22.73,22.77,23.24,7634895.0,175002091.0,7913916403.469999,43928026813.439995
sh688779,长远锂科,2022-01-10,22.75,22.97,22.57,22.84,22.77,4206340.0,95892876.0,7938245527.24,44063071252.48
sh688779,长远锂科,2022-01-11,22.85,22.96,22.52,22.63,22.84,5455990.0,123986517.0,7865258155.93,43657937935.36
sh688779,长远锂科,2022-01-12,22.89,23.31,22.8,23.31,22.63,11448514.0,264409107.0,8101598215.410001,44969798200.32
sh688779,长远锂科,2022-01-13,23.35,23.36,22.8,22.81,23.31,8299754.0,190161291.0,7927818759.91,44005195064.32
sh688779,长远锂科,2022-01-14,22.62,23.01,22.6,22.79,22.81,5175310.0,118127184.0,7920867581.690001,43966610938.88
