数据由邢不行整理
股票代码,股票名称,交易日期,开盘价,最高价,最低价,收盘价,前收盘价,成交量,成交额,流通市值,总市值
sh688398,N赛特,2020-02-11,70.0,113.0,69.99,85.0,24.12,13793652.0,1224258053.0,1547096900.0,6800000000.0
sh688398,赛特新材,2020-02-12,76.0,84.01,71.01,83.88,85.0,8381258.0,639749415.0,1526711623.2,6710400000.0
sh688398,赛特新材,2020-02-13,79.0,79.55,74.47,75.8,83.88,6167807.0,474862683.0,1379646412.0,6064000000.0
sh688398,赛特新材,2020-02-14,73.3,78.82,71.57,74.98,75.8,4201441.0,315512479.0,1364721477.2,5998400000.0
sh688398,赛特新材,2020-02-17,73.95,79.52,73.17,76.53,74.98,5112609.0,389135904.0,1392933244.2,6122400000.0
sh688398,赛特新材,2020-02-18,76.5,76.88,73.05,73.55,76.53,3930408.0,291655844.0,1338693847.0,5884000000.0
sh688398,赛特新材,2020-02-19,73.0,73.84,71.42,71.44,73.55,2760522.0,199888654.0,1300289441.6,5715200000.0
sh688398,赛特新材,2020-02-20,71.3,73.5,70.74,71.82,71.44,2327338.0,167563273.0,1307205874.8,5745600000.0
sh688398,赛特新材,2020-02-21,71.89,72.38,67.5,67.7,71.82,3838251.0,263155953.0,1232217178.0,5416000000.0
sh688398,赛特新材,2020-02-24,65.99,68.94,65.99,67.99,67.7,2196845.0,149249150.0,1237495508.6,5439200000.0
sh688398,赛特新材,2020-02-25,66.5,69.38,66.35,68.77,67.99,2208349.0,150467408.0,1251692397.8,5501600000.0
sh688398,赛特新材,2020-02-26,67.24,68.8,67.06,67.46,68.77,2047793.0,139003957.0,1227848904.4,5396800000.0
sh688398,赛特新材,2020-02-27,67.78,67.99,63.66,63.81,67.46,2431392.0,158298651.0,1161414743.4,5104800000.0
sh688398,赛特新材,2020-02-28,61.22,61.61,58.0,58.0,63.81,2475751.0,147490780.0,1055666120.0,4640000000.0
sh688398,赛特新材,2020-03-02,58.51,62.18,58.51,61.0,58.0,1849166.0,111622043.0,1110269540.0,4880000000.0
sh688398,赛特新材,2020-03-03,61.89,63.49,60.31,60.48,61.0,1957446.0,121033107.0,1100804947.2,4838400000.0
sh688398,赛特新材,2020-03-04,59.5,62.29,58.9,62.0,60.48,1795976.0,108736937.0,1128470680.0,4960000000.0
sh688398,赛特新材,2020-03-05,62.96,62.96,61.0,61.71,62.0,1355925.0,84096489.0,1123192349.4,4936800000.0
sh688398,赛特新材,2020-03-06,61.52,62.3,60.8,61.66,61.71,1213202.0,74516629.0,1122282292.4,4932800000.0
sh688398,赛特新材,2020-03-09,59.0,60.84,58.45,58.47,61.66,1371319.0,81343749.0,1064220655.8,4677600000.0
sh688398,赛特新材,2020-03-10,58.0,59.22,56.5,59.11,58.47,1411040.0,81541154.0,1075869385.4,4728800000.0
sh688398,赛特新材,2020-03-11,59.34,59.98,58.1,58.28,59.11,1114376.0,65697685.0,1060762439.2,4662400000.0
sh688398,赛特新材,2020-03-12,56.9,57.88,56.5,56.87,58.28,979101.0,55760179.0,1035098831.8,4549600000.0
sh688398,赛特新材,2020-03-13,53.9,56.3,52.5,54.11,56.87,1440148.0,77419531.0,984863685.4,4328800000.0
sh688398,赛特新材,2020-03-16,54.31,55.59,51.58,51.58,54.11,1150978.0,62180196.0,938814801.2,4126400000.0
sh688398,赛特新材,2020-03-17,52.96,53.0,47.52,49.55,51.58,1505116.0,74620756.0,901866487.0,3964000000.0
sh688398,赛特新材,2020-03-18,49.84,50.8,47.89,47.9,49.55,1081914.0,53790679.0,871834606.0,3832000000.0
sh688398,赛特新材,2020-03-19,48.5,48.5,46.57,47.8,47.9,1154458.0,54826722.0,870014492.0,3824000000.0
sh688398,赛特新材,2020-03-20,48.7,50.0,48.5,49.16,47.8,1180279.0,58126602.0,894768042.4,3932800000.0
sh688398,赛特新材,2020-03-23,48.0,51.16,47.1,49.17,49.16,1351402.0,67180343.0,894950053.8,3933600000.0
sh688398,赛特新材,2020-03-24,50.3,50.89,49.04,50.25,49.17,1177162.0,58948681.0,914607285.0,4020000000.0
sh688398,赛特新材,2020-03-25,51.41,52.0,50.81,51.08,50.25,1138677.0,58509207.0,929714231.2,4086400000.0
sh688398,赛特新材,2020-03-26,50.8,50.87,48.5,48.5,51.08,1097304.0,54171724.0,882755290.0,3880000000.0
sh688398,赛特新材,2020-03-27,48.91,49.48,48.08,48.42,48.5,576917.0,28062543.0,881299198.8,3873600000.0
sh688398,赛特新材,2020-03-30,48.3,48.3,45.04,45.59,48.42,1072543.0,49124552.0,829789972.6,3647200000.0
sh688398,赛特新材,2020-03-31,46.5,46.75,44.61,44.88,45.59,564213.0,25653647.0,816867163.2,3590400000.0
sh688398,赛特新材,2020-04-01,44.9,45.6,44.57,45.0,44.88,600312.0,27070916.0,819051300.0,3600000000.0
sh688398,赛特新材,2020-04-02,44.9,46.2,44.63,46.12,45.0,717754.0,32623517.0,839436576.8,3689600000.0
sh688398,赛特新材,2020-04-03,46.0,46.4,45.1,45.2,46.12,692584.0,31640231.0,822691528.0,3616000000.0
sh688398,赛特新材,2020-04-07,45.9,46.66,45.81,46.47,45.2,841959.0,38985872.0,845806975.8,3717600000.0
sh688398,赛特新材,2020-04-08,46.2,47.62,46.05,47.42,46.47,946161.0,44445995.0,863098058.8,3793600000.0
sh688398,赛特新材,2020-04-09,47.73,47.78,46.86,47.1,47.42,545145.0,25757390.0,857273694.0,3768000000.0
sh688398,赛特新材,2020-04-10,47.26,47.26,45.4,45.57,47.1,616922.0,28398117.0,829425949.8,3645600000.0
sh688398,赛特新材,2020-04-13,45.52,45.53,44.61,44.84,45.57,443072.0,19881618.0,816139117.6,3587200000.0
sh688398,赛特新材,2020-04-14,44.87,45.42,44.87,45.42,44.84,503013.0,22767757.0,826695778.8,3633600000.0
sh688398,赛特新材,2020-04-15,45.84,45.93,45.26,45.5,45.42,536609.0,24462421.0,828151870.0,3640000000.0
sh688398,赛特新材,2020-04-16,45.3,45.49,45.02,45.38,45.5,422526.0,19109738.0,825967733.2,3630400000.0
sh688398,赛特新材,2020-04-17,45.88,46.55,45.5,45.5,45.38,630312.0,28965135.0,828151870.0,3640000000.0
sh688398,赛特新材,2020-04-20,45.7,46.82,45.55,46.38,45.5,684586.0,31705485.0,844168873.2,3710400000.0
sh688398,赛特新材,2020-04-21,45.6,46.3,45.21,45.56,46.38,511988.0,23373859.0,829243938.4,3644800000.0
sh688398,赛特新材,2020-04-22,45.41,46.77,45.29,46.6,45.56,600138.0,27693450.0,848173124.0,3728000000.0
sh688398,赛特新材,2020-04-23,46.66,48.24,46.39,47.5,46.6,1063576.0,50414770.0,864554150.0,3800000000.0
sh688398,赛特新材,2020-04-24,47.54,51.99,47.54,51.55,47.5,2732024.0,137986011.0,938268767.0,4124000000.0
sh688398,赛特新材,2020-04-27,51.0,52.99,50.78,51.63,51.55,1666985.0,86407456.0,939724858.2,4130400000.0
sh688398,赛特新材,2020-04-28,51.76,51.76,42.1,46.35,51.63,1984214.0,93280104.0,843622839.0,3708000000.0
sh688398,赛特新材,2020-04-29,46.29,47.91,46.01,46.36,46.35,951936.0,44830367.0,843804850.4,3708800000.0
sh688398,赛特新材,2020-04-30,46.66,49.95,46.62,49.34,46.36,1401883.0,68225886.0,898044247.6,3947200000.0
sh688398,赛特新材,2020-05-06,48.37,55.01,48.31,54.66,49.34,2418226.0,126566245.0,994874312.4,4372800000.0
sh688398,赛特新材,2020-05-07,54.9,54.99,52.38,52.81,54.66,1965944.0,104924497.0,961202203.4,4224800000.0
sh688398,赛特新材,2020-05-08,53.03,55.29,52.81,53.91,52.81,1894036.0,103219576.0,981223457.4,4312800000.0
sh688398,赛特新材,2020-05-11,53.86,57.98,53.7,56.13,53.91,2359958.0,132202839.0,1021629988.2,4490400000.0
sh688398,赛特新材,2020-05-12,56.0,56.97,54.5,56.16,56.13,1600394.0,88804206.0,1022176022.4,4492800000.0
sh688398,赛特新材,2020-05-13,56.4,56.4,54.65,55.2,56.16,1287978.0,71208284.0,1004702928.0,4416000000.0
sh688398,赛特新材,2020-05-14,54.77,54.99,53.71,53.74,55.2,1255692.0,68196657.0,978129263.6,4299200000.0
sh688398,赛特新材,2020-05-15,54.25,55.55,53.86,54.57,53.74,1053070.0,57581709.0,993236209.8,4365600000.0
sh688398,赛特新材,2020-05-18,55.0,55.0,52.0,52.05,54.57,1156426.0,61612914.0,947369337.0,4164000000.0
sh688398,赛特新材,2020-05-19,53.11,53.26,51.49,52.99,52.05,1013585.0,53181223.0,964478408.6,4239200000.0
sh688398,赛特新材,2020-05-20,52.99,55.2,52.59,53.6,52.99,1262298.0,68368593.0,975581104.0,4288000000.0
sh688398,赛特新材,2020-05-21,53.7,55.54,53.48,55.02,53.6,1636053.0,89469499.0,1001426722.8,4401600000.0
sh688398,赛特新材,2020-05-22,54.64,55.5,51.93,53.0,55.02,1204874.0,64446219.0,964660420.0,4240000000.0
sh688398,赛特新材,2020-05-25,52.71,53.0,50.01,50.28,53.0,945985.0,48078801.0,915153319.2,4022400000.0
sh688398,赛特新材,2020-05-26,50.21,52.44,50.0,52.31,50.28,756643.0,38952886.0,952101633.4,4184800000.0
sh688398,赛特新材,2020-05-27,52.0,55.5,51.87,55.45,52.31,2159849.0,117534853.0,1009253213.0,4436000000.0
sh688398,赛特新材,2020-05-28,55.46,56.54,53.7,56.0,55.45,1787541.0,98257217.0,1019263840.0,4480000000.0
sh688398,赛特新材,2020-05-29,56.1,57.75,55.6,56.56,56.0,2157344.0,122806407.0,1029456478.4,4524800000.0
sh688398,赛特新材,2020-06-01,58.0,58.0,56.11,57.58,56.56,2111782.0,120797528.0,1048021641.2,4606400000.0
sh688398,赛特新材,2020-06-02,58.08,58.08,56.45,57.09,57.58,1530584.0,87242923.0,1039103082.6,4567200000.0
sh688398,赛特新材,2020-06-03,57.09,57.4,55.24,55.7,57.09,1470453.0,82640961.0,1013803498.0,4456000000.0
sh688398,赛特新材,2020-06-04,55.72,63.5,55.6,61.49,55.7,4762930.0,286453661.0,1119188098.6,4919200000.0
sh688398,赛特新材,2020-06-05,60.2,60.81,59.0,59.74,61.49,2117202.0,126496690.0,1087336103.6,4779200000.0
sh688398,赛特新材,2020-06-08,58.8,62.8,58.8,61.69,59.74,2281585.0,139732188.0,1122828326.6,4935200000.0
sh688398,赛特新材,2020-06-09,61.68,64.3,60.0,60.67,61.69,2347599.0,146164187.0,1104263163.8,4853600000.0
sh688398,赛特新材,2020-06-10,61.2,61.25,58.4,59.25,60.67,1264933.0,74680268.0,1078417545.0,4740000000.0
sh688398,赛特新材,2020-06-11,59.25,59.65,56.9,57.29,59.25,1425538.0,82863014.0,1042743310.6,4583200000.0
sh688398,赛特新材,2020-06-12,55.11,56.8,55.0,56.48,57.29,1156549.0,64745523.0,1028000387.2,4518400000.0
sh688398,赛特新材,2020-06-15,56.01,57.9,56.01,56.45,56.48,1012564.0,57819574.0,1027454353.0,4516000000.0
sh688398,赛特新材,2020-06-16,56.6,60.86,56.6,59.36,56.45,1604539.0,93779067.0,1080419670.4,4748800000.0
sh688398,赛特新材,2020-06-17,60.0,60.83,58.06,60.15,59.36,1522834.0,90858176.0,1094798571.0,4812000000.0
sh688398,赛特新材,2020-06-18,60.25,60.64,58.48,59.06,60.15,1167309.0,69207532.0,1074959328.4,4724800000.0
sh688398,赛特新材,2020-06-19,59.68,60.2,58.8,59.73,59.06,1090271.0,64992776.0,1087154092.2,4778400000.0
sh688398,赛特新材,2020-06-22,60.3,60.45,59.11,59.52,59.73,1168818.0,70014970.0,1083331852.8,4761600000.0
sh688398,赛特新材,2020-06-23,59.78,59.78,58.42,58.85,59.52,868004.0,50956546.0,1071137089.0,4708000000.0
sh688398,XD赛特新,2020-06-24,58.66,58.73,56.75,57.71,58.55,1227802.0,70307070.0,1050387789.4,4616800000.0
sh688398,赛特新材,2020-06-29,56.9,57.53,55.01,55.36,57.71,1343236.0,75236536.0,1007615110.4,4428800000.0
sh688398,赛特新材,2020-06-30,56.09,57.0,55.57,56.75,55.36,850959.0,48077189.0,1032914695.0,4540000000.0
sh688398,赛特新材,2020-07-01,57.01,57.99,55.8,56.63,56.75,1004921.0,57343748.0,1030730558.2,4530400000.0
sh688398,赛特新材,2020-07-02,56.9,57.5,56.01,57.0,56.63,1269529.0,72118140.0,1037464980.0,4560000000.0
sh688398,赛特新材,2020-07-03,57.18,57.75,56.52,57.37,57.0,1082828.0,61942970.0,1044199401.8,4589600000.0
sh688398,赛特新材,2020-07-06,57.19,60.31,57.19,60.31,57.37,2271846.0,134940958.0,1097710753.4,4824800000.0
sh688398,赛特新材,2020-07-07,60.82,63.25,59.52,62.48,60.31,2563421.0,158357451.0,1137207227.2,4998400000.0
sh688398,赛特新材,2020-07-08,62.3,63.39,61.01,62.8,62.48,1848346.0,115317654.0,1143031592.0,5024000000.0
sh688398,赛特新材,2020-07-09,63.0,65.7,62.8,65.31,62.8,2797472.0,180168360.0,1188716453.4,5224800000.0
sh688398,赛特新材,2020-07-10,66.95,67.35,63.51,64.1,65.31,3012618.0,196609636.0,1166693074.0,5128000000.0
sh688398,赛特新材,2020-07-13,64.1,66.3,62.9,66.16,64.1,2337369.0,151475316.0,1204187422.4,5292800000.0
sh688398,赛特新材,2020-07-14,66.38,71.44,65.56,69.81,66.16,3863684.0,266448096.0,1270621583.4,5584800000.0
sh688398,赛特新材,2020-07-15,69.85,70.9,63.06,63.06,69.81,2929128.0,193837802.0,1147763888.4,5044800000.0
sh688398,赛特新材,2020-07-16,63.06,64.49,58.02,58.31,63.06,2005396.0,121511796.0,1061308473.4,4664800000.0
sh688398,赛特新材,2020-07-17,57.72,59.7,57.72,58.5,58.31,1009793.0,59275158.0,1064766690.0,4680000000.0
sh688398,赛特新材,2020-07-20,59.88,59.98,56.63,59.77,58.5,1055107.0,61971108.0,1087882137.8,4781600000.0
sh688398,赛特新材,2020-07-21,59.75,60.8,58.88,59.97,59.77,903798.0,54009933.0,1091522365.8,4797600000.0
sh688398,赛特新材,2020-07-22,59.25,60.8,58.79,59.22,59.97,1026454.0,61444086.0,1077871510.8,4737600000.0
sh688398,赛特新材,2020-07-23,59.22,59.8,57.02,58.35,59.22,857823.0,49927143.0,1062036519.0,4668000000.0
sh688398,赛特新材,2020-07-24,58.35,58.81,53.61,53.8,58.35,1373437.0,76687791.0,979221332.0,4304000000.0
sh688398,赛特新材,2020-07-27,53.4,56.95,53.4,55.45,53.8,1025556.0,56515310.0,1009253213.0,4436000000.0
sh688398,赛特新材,2020-07-28,55.98,56.8,54.78,55.94,55.45,548430.0,30446102.0,1018171771.6,4475200000.0
sh688398,赛特新材,2020-07-29,55.73,59.5,55.35,58.9,55.94,1161371.0,66907624.0,1072047146.0,4712000000.0
sh688398,赛特新材,2020-07-30,58.98,61.43,58.98,60.33,58.9,1536995.0,92591264.0,1098074776.2,4826400000.0
sh688398,赛特新材,2020-07-31,61.0,66.85,60.33,65.3,60.33,3561957.0,230666019.0,1188534442.0,5224000000.0
sh688398,赛特新材,2020-08-03,65.98,67.63,64.51,67.03,65.3,3715789.0,245991052.0,1220022414.2,5362400000.0
sh688398,赛特新材,2020-08-04,68.96,69.87,62.5,63.17,67.03,3129863.0,206785434.0,1149766013.8,5053600000.0
sh688398,赛特新材,2020-08-05,62.2,63.36,61.15,62.98,63.17,1596395.0,99292383.0,1146307797.2,5038400000.0
sh688398,赛特新材,2020-08-06,62.77,62.77,60.15,60.73,62.98,1386415.0,84805580.0,1105355232.2,4858400000.0
sh688398,赛特新材,2020-08-07,61.97,63.15,60.61,61.47,60.73,1546865.0,95955306.0,1118824075.8,4917600000.0
sh688398,赛特新材,2020-08-10,61.8,63.7,60.0,62.35,61.47,997781.0,62171592.0,1134841079.0,4988000000.0
sh688398,赛特新材,2020-08-11,61.61,61.61,58.4,58.94,62.35,1671986.0,100077068.0,1119860000.0,4715200000.0
sh688398,赛特新材,2020-08-12,58.16,58.51,56.01,57.52,58.94,1122238.0,63981605.0,1092880000.0,4601600000.0
sh688398,赛特新材,2020-08-13,57.52,59.08,56.97,58.65,57.52,831334.0,48511500.0,1114350000.0,4692000000.0
sh688398,赛特新材,2020-08-14,58.08,59.19,57.09,58.9,58.65,671281.0,39075865.0,1119100000.0,4712000000.0
sh688398,赛特新材,2020-08-17,58.9,60.3,58.49,60.2,58.9,662062.0,39465710.0,1143800000.0,4816000000.0
sh688398,赛特新材,2020-08-18,60.25,63.0,59.6,62.92,60.2,1298115.0,80260303.0,1195480000.0,5033600000.0
sh688398,赛特新材,2020-08-19,63.0,64.65,62.0,62.11,62.92,1512952.0,95696950.0,1180090000.0,4968800000.0
sh688398,赛特新材,2020-08-20,61.5,64.5,61.5,62.93,62.11,1220304.0,76786447.0,1195670000.0,5034400000.0
sh688398,赛特新材,2020-08-21,62.78,65.8,62.78,63.69,62.93,1334287.0,85338015.0,1210110000.0,5095200000.0
sh688398,赛特新材,2020-08-24,64.0,64.0,57.21,59.73,63.69,1801241.0,106966370.0,1134870000.0,4778400000.0
sh688398,赛特新材,2020-08-25,59.6,60.69,58.38,58.67,59.73,947732.0,56027752.0,1114730000.0,4693600000.0
sh688398,赛特新材,2020-08-26,58.67,59.17,56.76,58.19,58.67,1007127.0,58260953.0,1105610000.0,4655200000.0
sh688398,赛特新材,2020-08-27,58.85,58.85,56.56,58.1,58.19,666976.0,38349704.0,1103900000.0,4648000000.0
sh688398,赛特新材,2020-08-28,57.92,58.6,56.84,58.12,58.1,562201.0,32447226.0,1104280000.0,4649600000.0
sh688398,赛特新材,2020-08-31,58.6,59.85,58.28,59.25,58.12,627286.0,37134243.0,1125750000.0,4740000000.0
sh688398,赛特新材,2020-09-01,59.52,59.74,57.73,58.67,59.25,403988.0,23718731.0,1114730000.0,4693600000.0
sh688398,赛特新材,2020-09-02,58.93,58.93,57.65,58.13,58.67,406346.0,23692931.0,1104470000.0,4650400000.0
sh688398,赛特新材,2020-09-03,58.47,58.63,56.54,56.72,58.13,672585.0,38545947.0,1077680000.0,4537600000.0
sh688398,赛特新材,2020-09-04,55.98,58.0,55.0,57.77,56.72,577688.0,32565407.0,1097630000.0,4621600000.0
sh688398,赛特新材,2020-09-07,57.04,58.29,56.0,56.12,57.77,478091.0,27265130.0,1066280000.0,4489600000.0
sh688398,赛特新材,2020-09-08,56.86,56.87,55.28,55.6,56.12,420353.0,23513627.0,1056400000.0,4448000000.0
sh688398,赛特新材,2020-09-09,55.02,55.36,52.31,52.48,55.6,877784.0,47037083.0,997120000.0,4198400000.0
sh688398,赛特新材,2020-09-10,52.75,54.12,50.56,51.11,52.48,699536.0,36671077.0,971090000.0,4088800000.0
sh688398,赛特新材,2020-09-11,50.6,52.31,50.35,51.9,51.11,400198.0,20599751.0,986100000.0,4152000000.0
sh688398,赛特新材,2020-09-14,52.32,53.69,51.84,53.5,51.9,419251.0,22275784.0,1016500000.0,4280000000.0
sh688398,赛特新材,2020-09-15,53.35,53.85,53.0,53.7,53.5,261513.0,13987943.0,1020300000.0,4296000000.0
sh688398,赛特新材,2020-09-16,53.51,53.65,52.25,52.43,53.7,258791.0,13680304.0,996170000.0,4194400000.0
sh688398,赛特新材,2020-09-17,52.47,54.81,51.94,53.9,52.43,652812.0,35186022.0,1024100000.0,4312000000.0
sh688398,赛特新材,2020-09-18,53.58,54.63,53.1,54.07,53.9,358188.0,19347187.0,1027330000.0,4325600000.0
sh688398,赛特新材,2020-09-21,53.74,54.55,53.58,54.07,54.07,278120.0,15014422.0,1027330000.0,4325600000.0
sh688398,赛特新材,2020-09-22,53.89,54.74,53.22,53.81,54.07,376333.0,20375426.0,1022390000.0,4304800000.0
sh688398,赛特新材,2020-09-23,54.61,54.81,54.03,54.56,53.81,286106.0,15590678.0,1036640000.0,4364800000.0
sh688398,赛特新材,2020-09-24,53.94,54.2,53.02,53.83,54.56,373111.0,20002513.0,1022770000.0,4306400000.0
sh688398,赛特新材,2020-09-25,53.83,53.89,52.49,52.88,53.83,310395.0,16459657.0,1004720000.0,4230400000.0
sh688398,赛特新材,2020-09-28,52.78,53.26,50.75,50.76,52.88,312699.0,16088986.0,964440000.0,4060800000.0
sh688398,赛特新材,2020-09-29,51.01,51.62,50.48,51.02,50.76,189151.0,9680279.0,969380000.0,4081600000.0
sh688398,赛特新材,2020-09-30,51.5,52.92,50.92,51.71,51.02,335805.0,17569473.0,982490000.0,4136800000.0
sh688398,赛特新材,2020-10-09,52.77,54.94,52.3,54.8,51.71,442125.0,23890496.0,1041200000.0,4384000000.0
sh688398,赛特新材,2020-10-12,55.48,56.38,54.53,56.02,54.8,452577.0,25275009.0,1064380000.0,4481600000.0
sh688398,赛特新材,2020-10-13,55.5,57.23,54.99,56.9,56.02,514345.0,29071489.0,1081100000.0,4552000000.0
sh688398,赛特新材,2020-10-14,57.23,57.38,56.1,56.68,56.9,411668.0,23408099.0,1076920000.0,4534400000.0
sh688398,赛特新材,2020-10-15,57.28,57.49,55.96,56.99,56.68,493015.0,28095319.0,1082810000.0,4559200000.0
sh688398,赛特新材,2020-10-16,56.99,57.68,56.69,57.29,56.99,390028.0,22357262.0,1088510000.0,4583200000.0
sh688398,赛特新材,2020-10-19,57.29,57.67,56.79,57.3,57.29,322594.0,18447545.0,1088700000.0,4584000000.0
sh688398,赛特新材,2020-10-20,57.11,57.49,55.77,56.92,57.3,392140.0,22177979.0,1081480000.0,4553600000.0
sh688398,赛特新材,2020-10-21,57.68,57.68,56.0,57.0,56.92,451202.0,25727400.0,1083000000.0,4560000000.0
sh688398,赛特新材,2020-10-22,56.17,57.34,55.59,56.1,57.0,413115.0,23293365.0,1065900000.0,4488000000.0
sh688398,赛特新材,2020-10-23,56.94,56.94,53.15,53.2,56.1,453265.0,24717862.0,1010800000.0,4256000000.0
sh688398,赛特新材,2020-10-26,53.2,54.61,52.52,54.01,53.2,344213.0,18502219.0,1026190000.0,4320800000.0
sh688398,赛特新材,2020-10-27,53.51,55.53,53.51,55.15,54.01,264524.0,14520221.0,1047850000.0,4412000000.0
sh688398,赛特新材,2020-10-28,54.21,55.75,54.2,55.2,55.15,244879.0,13525557.0,1048800000.0,4416000000.0
sh688398,赛特新材,2020-10-29,54.05,55.35,54.05,54.7,55.2,216632.0,11863902.0,1039300000.0,4376000000.0
sh688398,赛特新材,2020-10-30,55.2,55.2,53.03,54.51,54.7,275448.0,14885121.0,1035690000.0,4360800000.0
sh688398,赛特新材,2020-11-02,54.99,54.99,51.53,52.59,54.51,471784.0,24771398.0,999210000.0,4207200000.0
sh688398,赛特新材,2020-11-03,52.0,53.83,52.0,53.23,52.59,193115.0,10309357.0,1011370000.0,4258400000.0
sh688398,赛特新材,2020-11-04,53.82,53.96,52.69,53.22,53.23,201033.0,10699972.0,1011180000.0,4257600000.0
sh688398,赛特新材,2020-11-05,53.94,53.94,52.86,53.6,53.22,221783.0,11846192.0,1018400000.0,4288000000.0
sh688398,赛特新材,2020-11-06,53.89,53.89,52.2,53.0,53.6,321218.0,16950840.0,1007000000.0,4240000000.0
sh688398,赛特新材,2020-11-09,53.12,54.74,53.02,54.3,53.0,313594.0,16939728.0,1031700000.0,4344000000.0
sh688398,赛特新材,2020-11-10,54.25,55.53,54.25,54.69,54.3,315174.0,17281200.0,1039110000.0,4375200000.0
sh688398,赛特新材,2020-11-11,54.69,55.82,53.48,55.6,54.69,481830.0,26486687.0,1056400000.0,4448000000.0
sh688398,赛特新材,2020-11-12,56.0,57.26,55.43,56.87,55.6,742754.0,41956921.0,1080530000.0,4549600000.0
sh688398,赛特新材,2020-11-13,56.1,57.48,55.55,57.25,56.87,537738.0,30525506.0,1087750000.0,4580000000.0
sh688398,赛特新材,2020-11-16,58.08,60.1,57.48,60.06,57.25,1342714.0,79693891.0,1141140000.0,4804800000.0
sh688398,赛特新材,2020-11-17,61.15,61.5,59.07,60.0,60.06,1003527.0,60512804.0,1140000000.0,4800000000.0
sh688398,赛特新材,2020-11-18,60.0,60.0,57.6,58.0,60.0,696901.0,40712520.0,1102000000.0,4640000000.0
sh688398,赛特新材,2020-11-19,58.01,60.26,57.35,59.89,58.0,600222.0,35231707.0,1137910000.0,4791200000.0
sh688398,赛特新材,2020-11-20,59.02,59.94,58.1,59.31,59.89,505952.0,29825567.0,1126890000.0,4744800000.0
sh688398,赛特新材,2020-11-23,58.9,59.46,57.98,58.5,59.31,319784.0,18690341.0,1111500000.0,4680000000.0
sh688398,赛特新材,2020-11-24,58.5,60.35,58.01,59.99,58.5,572834.0,34118626.0,1139810000.0,4799200000.0
sh688398,赛特新材,2020-11-25,60.11,60.6,58.92,59.71,59.99,429459.0,25608624.0,1134490000.0,4776800000.0
sh688398,赛特新材,2020-11-26,59.9,59.9,58.3,58.42,59.71,279252.0,16402047.0,1109980000.0,4673600000.0
sh688398,赛特新材,2020-11-27,58.76,60.57,58.13,60.0,58.42,667906.0,39902820.0,1140000000.0,4800000000.0
sh688398,赛特新材,2020-11-30,60.95,64.49,60.95,63.8,60.0,1280027.0,81055295.0,1212200000.0,5104000000.0
sh688398,赛特新材,2020-12-01,64.05,65.74,63.12,64.11,63.8,1262646.0,81532759.0,1218090000.0,5128800000.0
sh688398,赛特新材,2020-12-02,63.71,64.98,62.29,63.14,64.11,864968.0,54531907.0,1199660000.0,5051200000.0
sh688398,赛特新材,2020-12-03,63.98,66.88,63.21,64.22,63.14,1648327.0,107683153.0,1220180000.0,5137600000.0
sh688398,赛特新材,2020-12-04,64.38,66.5,63.05,65.18,64.22,1006113.0,65129712.0,1238420000.0,5214400000.0
sh688398,赛特新材,2020-12-07,65.16,68.19,64.63,65.96,65.18,1382622.0,92776317.0,1253240000.0,5276800000.0
sh688398,赛特新材,2020-12-08,67.9,68.05,66.25,67.09,65.96,858502.0,57519310.0,1274710000.0,5367200000.0
sh688398,赛特新材,2020-12-09,67.0,70.5,66.52,69.13,67.09,2015972.0,139170837.0,1313470000.0,5530400000.0
sh688398,赛特新材,2020-12-10,68.68,70.8,66.91,67.51,69.13,1361399.0,93856232.0,1282690000.0,5400800000.0
sh688398,赛特新材,2020-12-11,68.0,68.6,63.57,63.94,67.51,1526976.0,99507601.0,1214860000.0,5115200000.0
sh688398,赛特新材,2020-12-14,64.19,65.47,63.11,64.85,63.94,1111985.0,71342023.0,1232150000.0,5188000000.0
sh688398,赛特新材,2020-12-15,65.75,65.75,62.37,63.31,64.85,568259.0,36125785.0,1202890000.0,5064800000.0
sh688398,赛特新材,2020-12-16,63.26,64.12,60.88,61.2,63.31,676522.0,41725921.0,1162800000.0,4896000000.0
sh688398,赛特新材,2020-12-17,61.43,62.8,59.5,62.3,61.2,662456.0,40772599.0,1183700000.0,4984000000.0
sh688398,赛特新材,2020-12-18,62.0,63.91,61.3,61.74,62.3,487773.0,30421879.0,1173060000.0,4939200000.0
sh688398,赛特新材,2020-12-21,61.98,61.98,58.54,59.25,61.74,1191273.0,71272743.0,1125750000.0,4740000000.0
sh688398,赛特新材,2020-12-22,59.5,61.18,58.13,58.38,59.25,866355.0,51813038.0,1109220000.0,4670400000.0
sh688398,赛特新材,2020-12-23,59.26,59.26,57.76,58.78,58.38,578252.0,33873642.0,1116820000.0,4702400000.0
sh688398,赛特新材,2020-12-24,58.01,58.57,54.8,55.65,58.78,1305680.0,73621039.0,1057350000.0,4452000000.0
sh688398,赛特新材,2020-12-25,56.48,56.83,55.1,55.7,55.65,312304.0,17467912.0,1058300000.0,4456000000.0
sh688398,赛特新材,2020-12-28,55.1,56.49,53.89,54.28,55.7,580525.0,31869575.0,1031320000.0,4342400000.0
sh688398,赛特新材,2020-12-29,54.45,56.83,54.14,55.85,54.28,500969.0,27915255.0,1061150000.0,4468000000.0
sh688398,赛特新材,2020-12-30,55.26,56.3,54.55,55.37,55.85,523834.0,28831808.0,1052030000.0,4429600000.0
sh688398,赛特新材,2020-12-31,55.44,55.9,54.43,55.2,55.37,521270.0,28753636.0,1048800000.0,4416000000.0
sh688398,赛特新材,2021-01-04,55.1,57.5,55.1,56.7,55.2,648100.0,36738639.0,1077300000.0,4536000000.0
sh688398,赛特新材,2021-01-05,57.49,57.5,55.65,56.0,56.7,482656.0,27064515.0,1064000000.0,4480000000.0
sh688398,赛特新材,2021-01-06,56.0,56.07,51.3,52.0,56.0,1230993.0,65178116.0,988000000.0,4160000000.0
sh688398,赛特新材,2021-01-07,52.0,52.3,46.12,46.48,52.0,1620743.0,78146793.0,883120000.0,3718400000.0
sh688398,赛特新材,2021-01-08,46.58,47.6,44.58,45.98,46.48,754073.0,34958322.0,873620000.0,3678400000.0
sh688398,赛特新材,2021-01-11,46.36,46.36,43.26,43.85,45.98,671531.0,29854879.0,833150000.0,3508000000.0
sh688398,赛特新材,2021-01-12,43.7,44.79,43.69,44.11,43.85,442697.0,19516254.0,838090000.0,3528800000.0
sh688398,赛特新材,2021-01-13,43.74,44.47,42.01,42.02,44.11,693530.0,29724365.0,798380000.0,3361600000.0
sh688398,赛特新材,2021-01-14,40.05,44.35,40.05,42.89,42.02,514625.0,21921451.0,814910000.0,3431200000.0
sh688398,赛特新材,2021-01-15,42.6,43.94,42.58,43.02,42.89,398611.0,17178957.0,817380000.0,3441600000.0
sh688398,赛特新材,2021-01-18,42.5,44.41,42.45,43.35,43.02,553886.0,23996507.0,823650000.0,3468000000.0
sh688398,赛特新材,2021-01-19,43.35,46.5,43.13,45.63,43.35,702535.0,31797327.0,866970000.0,3650400000.0
sh688398,赛特新材,2021-01-20,45.55,46.62,44.51,45.45,45.63,445813.0,20093317.0,863550000.0,3636000000.0
sh688398,赛特新材,2021-01-21,45.23,45.48,44.65,45.11,45.45,330300.0,14867845.0,857090000.0,3608800000.0
sh688398,赛特新材,2021-01-22,45.73,45.73,43.13,43.5,45.11,510871.0,22310104.0,826500000.0,3480000000.0
sh688398,赛特新材,2021-01-25,43.39,43.39,41.76,41.8,43.5,380928.0,16128037.0,794200000.0,3344000000.0
sh688398,赛特新材,2021-01-26,42.65,43.3,42.0,42.28,41.8,251449.0,10691296.0,803320000.0,3382400000.0
sh688398,赛特新材,2021-01-27,42.01,42.89,41.0,41.99,42.28,282989.0,11875596.0,797810000.0,3359200000.0
sh688398,赛特新材,2021-01-28,41.89,43.24,41.51,41.59,41.99,267163.0,11266380.0,790210000.0,3327200000.0
sh688398,赛特新材,2021-01-29,41.66,42.21,40.82,41.39,41.59,314603.0,13006913.0,786410000.0,3311200000.0
sh688398,赛特新材,2021-02-01,41.4,41.97,41.14,41.53,41.39,322598.0,13394879.0,789070000.0,3322400000.0
sh688398,赛特新材,2021-02-02,41.26,41.72,41.01,41.1,41.53,337979.0,13950724.0,780900000.0,3288000000.0
sh688398,赛特新材,2021-02-03,41.02,41.05,40.0,40.0,41.1,504970.0,20360875.0,760000000.0,3200000000.0
sh688398,赛特新材,2021-02-04,40.0,40.48,37.98,39.35,40.0,648070.0,25096719.0,747650000.0,3148000000.0
sh688398,赛特新材,2021-02-05,39.39,40.88,38.5,39.38,39.35,335959.0,13371879.0,748220000.0,3150400000.0
sh688398,赛特新材,2021-02-08,39.38,39.77,38.68,39.04,39.38,250650.0,9798191.0,741760000.0,3123200000.0
sh688398,赛特新材,2021-02-09,39.3,39.92,38.68,39.17,39.04,275825.0,10769295.0,744230000.0,3133600000.0
sh688398,赛特新材,2021-02-10,39.5,40.66,39.03,40.33,39.17,264455.0,10605161.0,766270000.0,3226400000.0
sh688398,赛特新材,2021-02-18,40.88,41.78,40.62,41.09,40.33,381950.0,15725342.0,1466913000.0,3287200000.0
sh688398,赛特新材,2021-02-19,41.1,43.47,40.4,42.81,41.09,549048.0,23251932.0,1528317000.0,3424800000.0
sh688398,赛特新材,2021-02-22,43.2,44.77,43.04,43.84,42.81,579418.0,25497575.0,1565088000.0,3507200000.0
sh688398,赛特新材,2021-02-23,43.83,44.47,42.8,43.59,43.84,565493.0,24608695.0,1556163000.0,3487200000.0
sh688398,赛特新材,2021-02-24,44.4,47.2,44.26,45.7,43.59,767545.0,35249229.0,1631490000.0,3656000000.0
sh688398,赛特新材,2021-02-25,45.73,45.73,44.1,44.47,45.7,619143.0,27580717.0,1587579000.0,3557600000.0
sh688398,赛特新材,2021-02-26,42.95,44.59,42.95,44.57,44.47,341221.0,15059446.0,1591149000.0,3565600000.0
sh688398,赛特新材,2021-03-01,44.95,45.49,44.0,44.55,44.57,319212.0,14273871.0,1590435000.0,3564000000.0
sh688398,赛特新材,2021-03-02,44.87,45.47,43.86,44.74,44.55,244014.0,10835246.0,1597218000.0,3579200000.0
sh688398,赛特新材,2021-03-03,44.47,45.27,44.21,44.83,44.74,312590.0,14015063.0,1600431000.0,3586400000.0
sh688398,赛特新材,2021-03-04,44.83,46.15,44.7,45.1,44.83,372024.0,16824754.0,1610070000.0,3608000000.0
sh688398,赛特新材,2021-03-05,44.99,45.77,44.7,45.32,45.1,204559.0,9248763.0,1617924000.0,3625600000.0
sh688398,赛特新材,2021-03-08,45.76,45.76,43.76,43.76,45.32,366750.0,16374991.0,1562232000.0,3500800000.0
sh688398,赛特新材,2021-03-09,44.5,44.5,42.1,42.4,43.76,360356.0,15528576.0,1513680000.0,3392000000.0
sh688398,赛特新材,2021-03-10,42.93,42.93,40.73,41.2,42.4,308927.0,12817071.0,1470840000.0,3296000000.0
sh688398,赛特新材,2021-03-11,41.76,41.98,40.64,41.48,41.2,354050.0,14664341.0,1480836000.0,3318400000.0
sh688398,赛特新材,2021-03-12,41.39,41.48,40.12,40.94,41.48,273699.0,11184408.0,1461558000.0,3275200000.0
sh688398,赛特新材,2021-03-15,41.6,41.92,40.36,41.03,40.94,198183.0,8160403.0,1464771000.0,3282400000.0
sh688398,赛特新材,2021-03-16,40.74,41.8,40.58,41.08,41.03,246443.0,10138776.0,1466556000.0,3286400000.0
sh688398,赛特新材,2021-03-17,41.08,41.69,40.69,41.24,41.08,216787.0,8940720.0,1472268000.0,3299200000.0
sh688398,赛特新材,2021-03-18,41.5,41.69,41.05,41.32,41.24,241895.0,9999321.0,1475124000.0,3305600000.0
sh688398,赛特新材,2021-03-19,41.06,42.18,41.05,41.33,41.32,200633.0,8358175.0,1475481000.0,3306400000.0
sh688398,赛特新材,2021-03-22,41.58,43.1,41.23,42.2,41.33,318908.0,13422882.0,1506540000.0,3376000000.0
sh688398,赛特新材,2021-03-23,42.29,42.76,41.61,41.68,42.2,511203.0,21452687.0,1487976000.0,3334400000.0
sh688398,赛特新材,2021-03-24,41.64,42.27,40.38,41.04,41.68,330789.0,13627911.0,1465128000.0,3283200000.0
sh688398,赛特新材,2021-03-25,41.49,41.78,40.58,40.66,41.04,152924.0,6260707.0,1451562000.0,3252800000.0
sh688398,赛特新材,2021-03-26,41.06,41.12,40.32,40.99,40.66,266775.0,10896330.0,1463343000.0,3279200000.0
sh688398,赛特新材,2021-03-29,41.0,41.18,40.33,40.51,40.99,191513.0,7781531.0,1446207000.0,3240800000.0
sh688398,赛特新材,2021-03-30,40.51,40.98,39.86,40.1,40.51,211958.0,8556820.0,1431570000.0,3208000000.0
sh688398,赛特新材,2021-03-31,40.03,40.87,39.87,40.27,40.1,109130.0,4400202.0,1437639000.0,3221600000.0
sh688398,赛特新材,2021-04-01,40.2,40.47,39.7,40.0,40.27,315118.0,12623807.0,1428000000.0,3200000000.0
sh688398,赛特新材,2021-04-02,39.61,40.29,39.6,39.98,40.0,280023.0,11205968.0,1427286000.0,3198400000.0
sh688398,赛特新材,2021-04-06,40.47,40.48,39.7,39.8,39.98,265896.0,10612863.0,1420860000.0,3184000000.0
sh688398,赛特新材,2021-04-07,39.92,40.66,39.56,40.3,39.8,388239.0,15577515.0,1438710000.0,3224000000.0
sh688398,赛特新材,2021-04-08,40.65,40.68,39.43,40.3,40.3,283690.0,11394825.0,1438710000.0,3224000000.0
sh688398,赛特新材,2021-04-09,39.92,40.28,39.41,40.25,40.3,302540.0,12028731.0,1436925000.0,3220000000.0
sh688398,赛特新材,2021-04-12,40.12,40.12,38.2,38.29,40.25,370425.0,14415849.0,1366953000.0,3063200000.0
sh688398,赛特新材,2021-04-13,38.12,38.93,37.53,37.62,38.29,301743.0,11501357.0,1343034000.0,3009600000.0
sh688398,赛特新材,2021-04-14,38.0,38.77,37.22,38.68,37.62,232735.0,8880994.0,1380876000.0,3094400000.0
sh688398,赛特新材,2021-04-15,38.55,39.78,38.55,39.43,38.68,383223.0,15090118.0,1420978340.0,3154400000.0
sh688398,赛特新材,2021-04-16,39.0,39.63,38.73,39.08,39.43,252877.0,9878685.0,1408365039.9999998,3126400000.0
sh688398,赛特新材,2021-04-19,39.08,40.33,39.08,40.31,39.08,344033.0,13752911.0,1452691780.0000002,3224800000.0
sh688398,赛特新材,2021-04-20,40.19,40.52,39.8,39.92,40.31,218116.0,8748443.0,1438636960.0,3193600000.0
sh688398,赛特新材,2021-04-21,39.79,40.37,39.2,39.53,39.92,263840.0,10434752.0,1424582140.0,3162400000.0
sh688398,赛特新材,2021-04-22,39.15,39.78,39.13,39.19,39.53,168312.0,6616891.0,1412329220.0,3135200000.0
sh688398,赛特新材,2021-04-23,39.19,39.57,38.71,39.18,39.19,231713.0,9054406.0,1411968840.0,3134400000.0
sh688398,赛特新材,2021-04-26,39.0,40.39,38.72,40.39,39.18,531853.0,21109788.0,1455574820.0,3231200000.0
sh688398,赛特新材,2021-04-27,40.67,40.8,38.73,39.19,40.39,433630.0,17059306.0,1412329220.0,3135200000.0
sh688398,赛特新材,2021-04-28,39.03,39.9,38.85,39.5,39.19,242215.0,9530794.0,1423501000.0,3160000000.0
sh688398,赛特新材,2021-04-29,39.89,39.9,39.01,39.01,39.5,223471.0,8761262.0,1405842380.0000002,3120800000.0
sh688398,赛特新材,2021-04-30,39.06,39.13,38.14,38.21,39.01,341946.0,13164748.0,1377011980.0,3056800000.0
sh688398,赛特新材,2021-05-06,38.52,39.58,38.5,38.95,38.21,450232.0,17611457.0,1403680100.0,3116000000.0
sh688398,赛特新材,2021-05-07,39.27,39.27,38.21,38.33,38.95,367070.0,14121085.0,1381336540.0,3066400000.0
sh688398,赛特新材,2021-05-10,38.7,38.93,37.61,37.67,38.33,282289.0,10742029.0,1357551460.0,3013600000.0
sh688398,赛特新材,2021-05-11,37.21,37.23,35.6,35.82,37.67,557274.0,20091154.0,1290881160.0,2865600000.0
sh688398,赛特新材,2021-05-12,36.2,37.5,35.9,36.62,35.82,372986.0,13675957.0,1319711560.0,2929600000.0
sh688398,赛特新材,2021-05-13,36.99,37.39,36.36,36.59,36.62,381853.0,14107418.0,1318630419.9999998,2927200000.0
sh688398,赛特新材,2021-05-14,36.82,37.37,36.53,37.2,36.59,403071.0,14844536.0,1340613599.9999998,2976000000.0
sh688398,赛特新材,2021-05-17,36.84,39.04,36.62,39.04,37.2,596113.0,22719015.0,1406923520.0000002,3123200000.0
sh688398,赛特新材,2021-05-18,39.05,39.15,37.63,38.0,39.04,358520.0,13658066.0,1369444000.0,3040000000.0
sh688398,赛特新材,2021-05-19,37.83,37.96,37.08,37.69,38.0,354187.0,13263055.0,1358272220.0,3015200000.0
sh688398,赛特新材,2021-05-20,37.23,37.96,37.07,37.24,37.69,143694.0,5372596.0,1342055119.9999998,2979200000.0
sh688398,赛特新材,2021-05-21,37.2,37.3,36.51,36.79,37.24,317398.0,11724595.0,1325838020.0,2943200000.0
sh688398,赛特新材,2021-05-24,36.97,36.98,36.35,36.64,36.79,167276.0,6122370.0,1320432320.0,2931200000.0
sh688398,赛特新材,2021-05-25,36.66,37.45,36.29,37.33,36.64,211116.0,7796091.0,1345298540.0,2986400000.0
sh688398,赛特新材,2021-05-26,37.37,38.77,37.35,37.92,37.33,343191.0,13058518.0,1366560960.0,3033600000.0
sh688398,赛特新材,2021-05-27,38.01,39.22,37.83,38.56,37.92,445253.0,17223395.0,1389625280.0,3084800000.0
sh688398,赛特新材,2021-05-28,38.9,39.8,38.63,39.32,38.56,477950.0,18715630.0,1417014160.0,3145600000.0
sh688398,赛特新材,2021-05-31,40.0,40.0,39.14,39.74,39.32,344983.0,13707468.0,1432150119.9999998,3179200000.0
sh688398,赛特新材,2021-06-01,39.51,41.49,39.51,40.7,39.74,522909.0,21293177.0,1466746600.0,3256000000.0
sh688398,赛特新材,2021-06-02,41.29,41.75,40.23,41.17,40.7,501866.0,20659434.0,1483684460.0,3293600000.0
sh688398,赛特新材,2021-06-03,41.3,41.69,40.51,40.73,41.17,441430.0,18126808.0,1467827740.0,3258400000.0
sh688398,赛特新材,2021-06-04,40.53,41.13,40.33,40.37,40.73,275112.0,11184644.0,1454854060.0,3229600000.0
sh688398,赛特新材,2021-06-07,40.71,41.34,40.55,41.17,40.37,331012.0,13585899.0,1483684460.0,3293600000.0
sh688398,赛特新材,2021-06-08,41.17,41.82,40.66,41.1,41.17,260938.0,10752801.0,1481161800.0,3288000000.0
sh688398,赛特新材,2021-06-09,41.69,41.69,40.35,40.4,41.1,229144.0,9292177.0,1455935200.0,3232000000.0
sh688398,赛特新材,2021-06-10,40.27,41.1,40.22,40.58,40.4,189393.0,7713663.0,1462422040.0,3246400000.0
sh688398,赛特新材,2021-06-11,40.85,41.39,40.42,41.15,40.58,361065.0,14834138.0,1482963700.0,3292000000.0
sh688398,赛特新材,2021-06-15,41.34,41.34,39.78,40.54,41.15,293398.0,11842951.0,1460980520.0,3243200000.0
sh688398,赛特新材,2021-06-16,40.62,41.17,39.76,39.99,40.54,371881.0,14962111.0,1441159620.0,3199200000.0
sh688398,赛特新材,2021-06-17,40.7,41.59,39.81,41.33,39.99,486957.0,19913028.0,1489450540.0,3306400000.0
sh688398,赛特新材,2021-06-18,42.09,42.09,40.52,41.16,41.33,373199.0,15377999.0,1483324080.0,3292800000.0
sh688398,赛特新材,2021-06-21,41.01,42.31,41.01,41.58,41.16,381570.0,15869964.0,1498460039.9999998,3326400000.0
sh688398,赛特新材,2021-06-22,41.93,43.3,41.6,41.85,41.58,1077571.0,45894474.0,1508190300.0,3348000000.0
sh688398,赛特新材,2021-06-23,41.97,42.75,41.5,41.85,41.85,781801.0,32895716.0,1508190300.0,3348000000.0
sh688398,XD赛特新,2021-06-24,41.7,42.43,41.07,41.86,41.49,533367.0,22293113.0,1508550680.0,3348800000.0
sh688398,赛特新材,2021-06-25,41.86,42.11,40.66,41.26,41.86,425981.0,17544450.0,1486927880.0,3300800000.0
sh688398,赛特新材,2021-06-28,41.26,41.86,41.13,41.79,41.26,364148.0,15138190.0,1506028020.0,3343200000.0
sh688398,赛特新材,2021-06-29,42.09,42.19,40.85,41.07,41.79,280583.0,11564838.0,1480080660.0,3285600000.0
sh688398,赛特新材,2021-06-30,41.07,41.48,40.6,40.74,41.07,296987.0,12141085.0,1468188120.0,3259200000.0
sh688398,赛特新材,2021-07-01,41.28,41.58,40.5,40.5,40.74,329724.0,13520369.0,1459539000.0,3240000000.0
sh688398,赛特新材,2021-07-02,40.5,41.17,39.36,39.62,40.5,420184.0,16820980.0,1427825560.0,3169600000.0
sh688398,赛特新材,2021-07-05,39.77,40.36,39.32,39.73,39.62,240527.0,9573663.0,1431789739.9999998,3178400000.0
sh688398,赛特新材,2021-07-06,40.35,40.35,38.95,39.42,39.73,263684.0,10413334.0,1420617960.0,3153600000.0
sh688398,赛特新材,2021-07-07,39.03,40.08,39.03,39.8,39.42,256058.0,10106572.0,1434312400.0,3184000000.0
sh688398,赛特新材,2021-07-08,40.5,40.5,38.45,38.7,39.8,459580.0,18023543.0,1394670600.0,3096000000.0
sh688398,赛特新材,2021-07-09,38.7,39.48,38.19,38.82,38.7,337447.0,13092176.0,1398995160.0,3105600000.0
sh688398,赛特新材,2021-07-12,38.78,39.83,38.78,39.58,38.82,300251.0,11847446.0,1426384040.0,3166400000.0
sh688398,赛特新材,2021-07-13,39.64,39.94,39.5,39.9,39.58,254091.0,10094017.0,1437916200.0,3192000000.0
sh688398,赛特新材,2021-07-14,39.9,39.9,38.69,38.91,39.9,304268.0,11882361.0,1402238580.0,3112800000.0
sh688398,赛特新材,2021-07-15,38.83,38.89,37.0,37.71,38.91,421333.0,15933579.0,1358992980.0,3016800000.0
sh688398,赛特新材,2021-07-16,37.99,38.29,37.5,37.73,37.71,223699.0,8469210.0,1359713740.0,3018400000.0
sh688398,赛特新材,2021-07-19,37.9,37.99,37.07,37.4,37.73,250299.0,9337051.0,1347821200.0,2992000000.0
sh688398,赛特新材,2021-07-20,37.6,37.83,37.1,37.73,37.4,137853.0,5168839.0,1359713740.0,3018400000.0
sh688398,赛特新材,2021-07-21,37.64,38.67,37.64,38.46,37.73,219433.0,8380987.0,1386021479.9999998,3076800000.0
sh688398,赛特新材,2021-07-22,38.58,46.0,38.58,44.28,38.46,2278614.0,98444068.0,1595762640.0,3542400000.0
sh688398,赛特新材,2021-07-23,43.8,47.3,43.17,46.7,44.28,2190409.0,101106497.0,1682974600.0,3736000000.0
sh688398,赛特新材,2021-07-26,46.09,47.88,45.53,46.43,46.7,1052385.0,48917022.0,1673244340.0,3714400000.0
sh688398,赛特新材,2021-07-27,47.75,47.87,43.5,44.33,46.43,941569.0,42906081.0,1597564540.0,3546400000.0
sh688398,赛特新材,2021-07-28,44.29,46.41,42.03,44.65,44.33,925851.0,41369110.0,1609096700.0000002,3572000000.0
sh688398,赛特新材,2021-07-29,45.99,46.05,44.63,45.24,44.65,433484.0,19624598.0,1630359120.0,3619200000.0
sh688398,赛特新材,2021-07-30,45.66,46.4,44.4,46.05,45.24,677768.0,30844525.0,1659549900.0,3684000000.0
sh688398,赛特新材,2021-08-02,45.2,46.26,45.2,45.45,46.05,435604.0,19811036.0,1637927100.0,3636000000.0
sh688398,赛特新材,2021-08-03,45.38,48.98,45.27,47.19,45.45,1006195.0,47574966.0,1700633219.9999998,3775200000.0
sh688398,赛特新材,2021-08-04,47.99,48.53,46.58,48.3,47.19,827480.0,39540858.0,1740635400.0,3864000000.0
sh688398,赛特新材,2021-08-05,47.01,50.4,47.01,49.22,48.3,1383286.0,67559305.0,1773790360.0,3937600000.0
sh688398,赛特新材,2021-08-06,48.8,56.56,48.52,52.18,49.22,2276599.0,121220915.0,1880462840.0,4174400000.0
sh688398,赛特新材,2021-08-09,53.97,55.18,52.22,53.48,52.18,1615596.0,86954024.0,1927312240.0,4278400000.0
sh688398,赛特新材,2021-08-10,54.38,54.38,51.54,52.05,53.48,870589.0,45537200.0,1875777900.0,4164000000.0
sh688398,赛特新材,2021-08-11,52.51,52.6,49.95,51.0,52.05,772197.0,39083466.0,1837938000.0,4080000000.0
sh688398,赛特新材,2021-08-12,50.99,53.55,50.08,52.64,51.0,783819.0,40731472.0,1897040320.0,4211200000.0
sh688398,赛特新材,2021-08-13,52.64,53.26,51.0,51.6,52.64,498526.0,25844858.0,1859560800.0,4128000000.0
sh688398,赛特新材,2021-08-16,52.24,54.8,52.1,53.8,51.6,764559.0,40883613.0,1938844400.0,4304000000.0
sh688398,赛特新材,2021-08-17,54.0,54.76,51.82,52.25,53.8,532114.0,27927049.0,1882985500.0,4180000000.0
sh688398,赛特新材,2021-08-18,52.6,52.6,48.8,51.15,52.25,960568.0,48526166.0,1843343700.0,4092000000.0
sh688398,赛特新材,2021-08-19,51.15,52.58,46.9,47.39,51.15,1447001.0,71529188.0,1713020547.0,3791200000.0
sh688398,赛特新材,2021-08-20,47.39,48.14,46.29,47.0,47.39,914152.0,43237972.0,1698923100.0,3760000000.0
sh688398,赛特新材,2021-08-23,47.94,54.0,47.94,53.29,47.0,1175036.0,60626449.0,1926289617.0,4263200000.0
sh688398,赛特新材,2021-08-24,52.72,54.97,52.72,53.07,53.29,925125.0,49969426.0,1918337211.0,4245600000.0
sh688398,赛特新材,2021-08-25,54.87,54.87,50.32,50.71,53.07,1241551.0,63755414.0,1833029583.0,4056800000.0
sh688398,赛特新材,2021-08-26,50.58,51.65,48.89,49.6,50.71,917875.0,45542490.0,1792906080.0,3968000000.0
sh688398,赛特新材,2021-08-27,49.5,50.75,48.14,49.07,49.6,571081.0,27946218.0,1773748011.0,3925600000.0
sh688398,赛特新材,2021-08-30,49.08,49.43,47.74,48.47,49.07,535732.0,25934390.0,1752059631.0,3877600000.0
sh688398,赛特新材,2021-08-31,48.49,49.77,47.23,47.4,48.47,572615.0,27633686.0,1713382020.0,3792000000.0
sh688398,赛特新材,2021-09-01,47.04,49.0,46.09,48.7,47.4,540840.0,25748692.0,1760373510.0,3896000000.0
sh688398,赛特新材,2021-09-02,48.5,48.5,46.83,47.96,48.7,399024.0,19025087.0,1733624508.0,3836800000.0
sh688398,赛特新材,2021-09-03,47.5,50.86,47.5,48.13,47.96,619607.0,30707572.0,1739769549.0,3850400000.0
sh688398,赛特新材,2021-09-06,48.13,50.49,47.3,50.14,48.13,760514.0,37874698.0,1812425622.0,4011200000.0
sh688398,赛特新材,2021-09-07,50.25,52.77,48.63,50.13,50.14,1015463.0,50693839.0,1812064149.0,4010400000.0
sh688398,赛特新材,2021-09-08,48.88,50.48,48.88,49.2,50.13,318076.0,15778529.0,1778447159.9999998,3936000000.0
sh688398,赛特新材,2021-09-09,49.0,50.03,48.29,49.25,49.2,345344.0,16942566.0,1780254525.0000002,3940000000.0
sh688398,赛特新材,2021-09-10,49.64,49.72,47.63,47.88,49.25,442944.0,21378618.0,1730732723.9999998,3830400000.0
sh688398,赛特新材,2021-09-13,47.64,47.64,45.4,46.5,47.88,707104.0,32698778.0,1680849450.0,3720000000.0
sh688398,赛特新材,2021-09-14,47.2,47.79,46.28,46.53,46.5,339230.0,15892485.0,1681933869.0000002,3722400000.0
sh688398,赛特新材,2021-09-15,47.33,47.42,46.02,46.97,46.53,268947.0,12615689.0,1697838681.0,3757600000.0
sh688398,赛特新材,2021-09-16,46.96,47.75,45.0,45.35,46.97,354751.0,16444017.0,1639280055.0,3628000000.0
sh688398,赛特新材,2021-09-17,46.04,46.04,44.56,45.61,45.35,249743.0,11291097.0,1648678353.0,3648800000.0
sh688398,赛特新材,2021-09-22,45.36,45.6,44.01,44.7,45.61,281769.0,12565089.0,1615784310.0,3576000000.0
sh688398,赛特新材,2021-09-23,45.52,45.52,44.12,44.12,44.7,248720.0,11077292.0,1594818875.9999998,3529600000.0
sh688398,赛特新材,2021-09-24,44.26,44.97,42.78,42.8,44.12,305729.0,13259315.0,1547104440.0,3424000000.0
sh688398,赛特新材,2021-09-27,42.94,43.73,41.0,41.29,42.8,319477.0,13531335.0,1492522017.0,3303200000.0
sh688398,赛特新材,2021-09-28,41.42,41.71,40.83,41.42,41.29,201195.0,8304474.0,1497221166.0,3313600000.0
sh688398,赛特新材,2021-09-29,41.89,41.89,40.61,40.75,41.42,292034.0,12005685.0,1473002475.0,3260000000.0
sh688398,赛特新材,2021-09-30,41.68,41.87,41.0,41.49,40.75,232695.0,9604595.0,1499751477.0,3319200000.0
sh688398,赛特新材,2021-10-08,42.0,42.44,41.0,41.44,41.49,289293.0,12000629.0,1497944112.0,3315200000.0
sh688398,赛特新材,2021-10-11,42.25,42.25,41.03,41.33,41.44,252738.0,10462437.0,1493967909.0,3306400000.0
sh688398,赛特新材,2021-10-12,41.32,41.32,39.01,39.55,41.33,378375.0,15050685.0,1429625715.0,3164000000.0
sh688398,赛特新材,2021-10-13,39.0,40.35,38.8,39.25,39.55,359306.0,14097063.0,1418781525.0,3140000000.0
sh688398,赛特新材,2021-10-14,39.19,40.75,39.04,40.51,39.25,276592.0,11080717.0,1464327123.0000002,3240800000.0
sh688398,赛特新材,2021-10-15,40.22,40.57,39.46,39.8,40.51,201183.0,8011875.0,1438662539.9999998,3184000000.0
sh688398,赛特新材,2021-10-18,40.22,40.3,38.52,38.78,39.8,378221.0,14721679.0,1401792294.0,3102400000.0
sh688398,赛特新材,2021-10-19,38.9,39.29,38.61,38.76,38.78,171203.0,6649942.0,1401069348.0,3100800000.0
sh688398,赛特新材,2021-10-20,38.88,39.07,38.26,38.93,38.76,228820.0,8862962.0,1407214389.0,3114400000.0
sh688398,赛特新材,2021-10-21,39.0,39.75,38.61,39.04,38.93,255062.0,9971726.0,1411190592.0,3123200000.0
sh688398,赛特新材,2021-10-22,39.11,39.27,38.62,38.88,39.04,212496.0,8277838.0,1405407024.0,3110400000.0
sh688398,赛特新材,2021-10-25,39.33,39.33,37.89,38.12,38.88,384244.0,14668927.0,1377935076.0,3049600000.0
sh688398,赛特新材,2021-10-26,38.12,38.87,37.59,38.11,38.12,529235.0,20222614.0,1377573603.0,3048800000.0
sh688398,赛特新材,2021-10-27,40.15,40.96,37.84,38.9,38.11,1100396.0,42797162.0,1354887000.0,3112000000.0
sh688398,赛特新材,2021-10-28,39.06,39.07,37.56,37.6,38.9,425752.0,16187744.0,1359138480.0,3008000000.0
sh688398,赛特新材,2021-10-29,38.31,40.3,37.57,39.26,37.6,518316.0,20243166.0,1419142998.0,3140800000.0
sh688398,赛特新材,2021-11-01,38.84,41.14,38.84,40.71,39.26,528307.0,21369864.0,1471556583.0,3256800000.0
sh688398,赛特新材,2021-11-02,40.5,41.16,40.2,40.3,40.71,293611.0,11937980.0,1456736190.0,3224000000.0
sh688398,赛特新材,2021-11-03,40.63,41.08,40.04,40.96,40.3,446714.0,18176440.0,1480593408.0,3276800000.0
sh688398,赛特新材,2021-11-04,41.0,42.44,40.51,41.6,40.96,563352.0,23395756.0,1503727680.0,3328000000.0
sh688398,赛特新材,2021-11-05,41.82,44.3,41.39,43.79,41.6,913594.0,39603541.0,1582890266.9999998,3503200000.0
sh688398,赛特新材,2021-11-08,43.76,44.02,42.99,43.64,43.79,313942.0,13636071.0,1577468172.0,3491200000.0
sh688398,赛特新材,2021-11-09,44.23,44.23,43.0,43.9,43.64,359370.0,15739520.0,1586866470.0,3512000000.0
sh688398,赛特新材,2021-11-10,43.84,44.44,43.3,44.3,43.9,265341.0,11699950.0,1601325390.0,3544000000.0
sh688398,赛特新材,2021-11-11,43.82,45.5,43.82,44.88,44.3,598018.0,26866063.0,1622290824.0000002,3590400000.0
sh688398,赛特新材,2021-11-12,44.88,47.8,44.0,47.65,44.88,942130.0,43843147.0,1722418844.9999998,3812000000.0
sh688398,赛特新材,2021-11-15,48.4,49.69,47.7,49.01,47.65,1133135.0,55260661.0,1771579173.0,3920800000.0
sh688398,赛特新材,2021-11-16,49.01,50.38,47.99,49.01,49.01,507010.0,24975242.0,1771579173.0,3920800000.0
sh688398,赛特新材,2021-11-17,49.01,50.97,49.01,50.75,49.01,962336.0,48425918.0,1834475475.0,4060000000.0
sh688398,赛特新材,2021-11-18,50.43,50.75,48.56,49.0,50.75,559545.0,27580750.0,1771217700.0,3920000000.0
sh688398,赛特新材,2021-11-19,48.68,48.97,47.4,48.0,49.0,811801.0,39091259.0,1735070400.0,3840000000.0
sh688398,赛特新材,2021-11-22,48.67,49.79,48.01,48.7,48.0,759384.0,36873106.0,1760373510.0,3896000000.0
sh688398,赛特新材,2021-11-23,49.2,50.27,48.46,49.37,48.7,757272.0,37474710.0,1784592201.0,3949600000.0
sh688398,赛特新材,2021-11-24,49.01,50.2,48.7,49.7,49.37,598228.0,29720689.0,1796520810.0,3976000000.0
sh688398,赛特新材,2021-11-25,49.64,49.64,48.0,48.23,49.7,339358.0,16527649.0,1743384279.0,3858400000.0
sh688398,赛特新材,2021-11-26,48.33,49.45,47.6,48.56,48.23,384796.0,18636895.0,1755312888.0,3884800000.0
sh688398,赛特新材,2021-11-29,48.33,48.99,47.59,48.01,48.56,333056.0,16060123.0,1735431873.0,3840800000.0
sh688398,赛特新材,2021-11-30,48.0,49.46,48.0,48.13,48.01,460880.0,22372118.0,1739769549.0,3850400000.0
sh688398,赛特新材,2021-12-01,48.98,50.75,48.52,50.4,48.13,739903.0,37101487.0,1821823920.0,4032000000.0
sh688398,赛特新材,2021-12-02,50.4,50.53,48.11,48.39,50.4,489837.0,23981716.0,1749167847.0,3871200000.0
sh688398,赛特新材,2021-12-03,46.9,49.51,46.9,48.3,48.39,323924.0,15717776.0,1745914590.0,3864000000.0
sh688398,赛特新材,2021-12-06,48.4,48.4,45.75,46.14,48.3,431874.0,20226766.0,1667836422.0,3691200000.0
sh688398,赛特新材,2021-12-07,46.1,46.69,44.66,44.92,46.14,354991.0,16129490.0,1623736716.0,3593600000.0
sh688398,赛特新材,2021-12-08,45.37,45.69,44.6,45.46,44.92,269097.0,12132369.0,1643256258.0,3636800000.0
sh688398,赛特新材,2021-12-09,45.12,50.31,45.12,49.57,45.46,874901.0,42554342.0,1791821661.0,3965600000.0
sh688398,赛特新材,2021-12-10,50.6,50.6,46.51,47.31,49.57,1133245.0,54007816.0,1710128763.0,3784800000.0
sh688398,赛特新材,2021-12-13,48.09,52.27,47.85,50.91,47.31,1651598.0,83112551.0,1840259043.0,4072800000.0
sh688398,赛特新材,2021-12-14,52.35,52.35,50.13,50.9,50.91,1017847.0,52016259.0,1839897570.0000002,4072000000.0
sh688398,赛特新材,2021-12-15,50.9,51.08,49.85,50.73,50.9,489681.0,24738953.0,1833752529.0,4058400000.0
sh688398,赛特新材,2021-12-16,50.2,50.89,48.91,49.05,50.73,521548.0,25791319.0,1773025065.0,3924000000.0
sh688398,赛特新材,2021-12-17,48.9,50.75,48.51,49.1,49.05,612239.0,30353471.0,1774832429.9999998,3928000000.0
sh688398,赛特新材,2021-12-20,49.1,50.87,48.0,50.2,49.1,580808.0,29035552.0,1814594460.0,4016000000.0
sh688398,赛特新材,2021-12-21,50.21,51.67,49.01,51.0,50.2,558560.0,28336431.0,1843512300.0,4080000000.0
sh688398,赛特新材,2021-12-22,51.56,54.0,50.56,52.25,51.0,902755.0,47642476.0,1888696424.9999998,4180000000.0
sh688398,赛特新材,2021-12-23,52.74,53.6,51.37,51.96,52.25,394729.0,20486624.0,1878213708.0,4156800000.0
sh688398,赛特新材,2021-12-24,51.3,52.38,49.31,49.4,51.96,522038.0,26232625.0,1785676620.0,3952000000.0
sh688398,赛特新材,2021-12-27,49.38,51.4,49.38,50.6,49.4,543674.0,27419455.0,1829053380.0,4048000000.0
sh688398,赛特新材,2021-12-28,50.88,50.88,48.5,49.44,50.6,645283.0,31777857.0,1787122512.0,3955200000.0
sh688398,赛特新材,2021-12-29,49.0,50.41,49.0,49.15,49.44,316913.0,15690332.0,1776639794.9999998,3932000000.0
sh688398,赛特新材,2021-12-30,49.23,51.36,48.95,50.54,49.15,600547.0,30332870.0,1826884542.0,4043200000.0
sh688398,赛特新材,2021-12-31,50.03,51.25,50.0,50.8,50.54,470740.0,23855716.0,1836282840.0000002,4064000000.0
sh688398,赛特新材,2022-01-04,50.8,51.56,49.5,49.6,50.8,702235.0,35488019.0,1792906080.0,3968000000.0
sh688398,赛特新材,2022-01-05,50.0,50.0,46.84,48.26,49.6,835668.0,39997140.0,1744468697.9999998,3860800000.0
sh688398,赛特新材,2022-01-06,47.88,50.48,47.52,50.03,48.26,833608.0,41125423.0,1808449419.0,4002400000.0
sh688398,赛特新材,2022-01-07,49.5,50.8,48.52,49.1,50.03,423907.0,20952962.0,1774832429.9999998,3928000000.0
sh688398,赛特新材,2022-01-10,49.1,51.9,48.43,51.18,49.1,559719.0,28341441.0,1850018814.0000002,4094400000.0
sh688398,赛特新材,2022-01-11,51.53,51.76,49.88,50.6,51.18,308601.0,15608914.0,1829053380.0,4048000000.0
sh688398,赛特新材,2022-01-12,50.6,53.45,49.71,53.12,50.6,1027724.0,53794493.0,1920144576.0,4249600000.0
sh688398,赛特新材,2022-01-13,52.91,55.5,51.5,51.7,53.12,1298630.0,69414487.0,1868815410.0,4136000000.0
sh688398,赛特新材,2022-01-14,51.04,51.97,49.2,49.2,51.7,851294.0,42780711.0,1778447159.9999998,3936000000.0
