数据由邢不行整理
股票代码,股票名称,交易日期,开盘价,最高价,最低价,收盘价,前收盘价,成交量,成交额,流通市值,总市值
sh688595,N芯海,2020-09-28,72.0,73.0,61.38,62.81,22.82,16656510.0,1089193617.0,1278327020.85,6281000000.0
sh688595,芯海科技,2020-09-29,64.54,73.68,63.8,69.8,62.81,12854875.0,882382806.0,1420589493.0,6980000000.0
sh688595,芯海科技,2020-09-30,67.6,68.66,61.7,61.83,69.8,10243308.0,655819939.0,1258381781.55,6183000000.0
sh688595,芯海科技,2020-10-09,63.0,65.5,62.19,62.94,61.83,6455185.0,412228221.0,1280972817.9,6294000000.0
sh688595,芯海科技,2020-10-12,63.36,71.38,63.23,71.0,62.94,9134977.0,620669888.0,1445012235.0,7100000000.0
sh688595,芯海科技,2020-10-13,69.92,69.92,67.21,69.25,71.0,6375523.0,436874410.0,1409395736.25,6925000000.0
sh688595,芯海科技,2020-10-14,68.49,73.8,68.03,69.3,69.25,7385277.0,523172101.0,1410413350.5,6930000000.0
sh688595,芯海科技,2020-10-15,70.9,74.88,68.88,69.35,69.3,5648352.0,404507497.0,1411430964.75,6935000000.0
sh688595,芯海科技,2020-10-16,69.48,70.83,66.66,70.0,69.35,3683312.0,254306589.0,1424659950.0,7000000000.0
sh688595,芯海科技,2020-10-19,70.57,70.57,64.91,65.19,70.0,5386070.0,358875573.0,1326765459.15,6519000000.0
sh688595,芯海科技,2020-10-20,65.0,66.75,64.01,66.56,65.19,2748060.0,179904172.0,1354648089.6,6656000000.0
sh688595,芯海科技,2020-10-21,66.3,66.62,63.36,63.55,66.56,2955939.0,190719912.0,1293387711.75,6355000000.0
sh688595,芯海科技,2020-10-22,63.05,63.79,61.92,62.97,63.55,2212323.0,139126366.0,1281583386.45,6297000000.0
sh688595,芯海科技,2020-10-23,62.97,64.47,62.3,62.72,62.97,2533767.0,160001932.0,1276495315.2,6272000000.0
sh688595,芯海科技,2020-10-26,62.25,64.66,62.2,63.46,62.72,1651543.0,105137840.0,1291556006.1,6346000000.0
sh688595,芯海科技,2020-10-27,63.8,65.5,62.14,64.6,63.46,1838617.0,116944565.0,1314757611.0,6460000000.0
sh688595,芯海科技,2020-10-28,64.4,65.18,63.92,63.92,64.6,1633873.0,105527525.0,1300918057.2,6392000000.0
sh688595,芯海科技,2020-10-29,62.5,63.82,62.15,62.68,63.92,2310058.0,145409211.0,1275681223.8,6268000000.0
sh688595,芯海科技,2020-10-30,62.76,65.95,62.22,63.35,62.68,3109927.0,199272891.0,1289317254.75,6335000000.0
sh688595,芯海科技,2020-11-02,63.95,65.2,62.11,64.78,63.35,2715052.0,173093184.0,1318421022.3,6478000000.0
sh688595,芯海科技,2020-11-03,65.49,67.66,64.9,65.55,64.78,3203626.0,212083788.0,1334092281.75,6555000000.0
sh688595,芯海科技,2020-11-04,65.99,67.58,64.83,67.08,65.55,3224913.0,214493183.0,1365231277.8000002,6708000000.0
sh688595,芯海科技,2020-11-05,67.8,67.89,65.73,67.0,67.08,3075798.0,205517128.0,1363603095.0,6700000000.0
sh688595,芯海科技,2020-11-06,67.0,70.07,66.52,70.07,67.0,3632415.0,249028043.0,1426084609.95,7007000000.0
sh688595,芯海科技,2020-11-09,72.94,84.08,72.06,81.0,70.07,8523756.0,675523115.0,1648535085.0,8100000000.0
sh688595,芯海科技,2020-11-10,79.29,79.9,75.68,77.0,81.0,5792827.0,450121884.0,1567125945.0,7700000000.0
sh688595,芯海科技,2020-11-11,75.95,77.88,75.48,77.28,77.0,3490717.0,268125342.0,1572824584.8,7728000000.0
sh688595,芯海科技,2020-11-12,77.05,78.0,72.1,73.78,77.28,3527157.0,262607562.0,1501591587.3,7378000000.0
sh688595,芯海科技,2020-11-13,73.04,76.48,72.27,75.25,73.78,2285083.0,170254004.0,1531509446.25,7525000000.0
sh688595,芯海科技,2020-11-16,74.8,76.96,73.5,75.31,75.25,1762536.0,133012352.0,1532730583.35,7531000000.0
sh688595,芯海科技,2020-11-17,75.8,80.95,72.7,80.0,75.31,3523584.0,268055237.0,1628182800.0,8000000000.0
sh688595,芯海科技,2020-11-18,78.11,79.2,75.0,75.08,80.0,2960017.0,227923861.0,1528049557.8,7508000000.0
sh688595,芯海科技,2020-11-19,74.99,77.77,73.61,75.0,75.08,2308110.0,173762040.0,1526421375.0,7500000000.0
sh688595,芯海科技,2020-11-20,74.87,75.49,73.1,74.46,75.0,1526536.0,113238248.0,1515431141.1,7446000000.0
sh688595,芯海科技,2020-11-23,75.0,78.18,73.82,76.24,74.46,2321622.0,176276989.0,1551658208.4,7624000000.0
sh688595,芯海科技,2020-11-24,75.6,80.52,75.12,77.14,76.24,3068916.0,240688518.0,1569975264.9,7714000000.0
sh688595,芯海科技,2020-11-25,78.76,79.88,77.23,78.15,77.14,2395001.0,188484243.0,1590531072.7499998,7815000000.0
sh688595,芯海科技,2020-11-26,77.47,78.88,72.01,72.02,78.15,3831247.0,287574514.0,1465771565.6999998,7202000000.0
sh688595,芯海科技,2020-11-27,71.23,73.45,70.38,72.89,72.02,2357020.0,170416560.0,1483478053.65,7289000000.0
sh688595,芯海科技,2020-11-30,72.99,76.21,72.01,74.24,72.89,2118620.0,157362443.0,1510953638.4,7424000000.0
sh688595,芯海科技,2020-12-01,74.13,77.24,73.84,76.4,74.24,1731656.0,130821829.0,1554914574.0000002,7640000000.0
sh688595,芯海科技,2020-12-02,76.03,77.8,75.57,75.75,76.4,1517920.0,115780707.0,1541685588.7499998,7575000000.0
sh688595,芯海科技,2020-12-03,76.2,80.38,75.82,77.32,75.75,2446875.0,191316604.0,1573638676.2,7732000000.0
sh688595,芯海科技,2020-12-04,77.11,79.9,76.3,79.2,77.32,1794350.0,140419976.0,1611900972.0,7920000000.0
sh688595,芯海科技,2020-12-07,81.35,82.33,77.68,78.15,79.2,1948055.0,155605313.0,1590531072.7499998,7815000000.0
sh688595,芯海科技,2020-12-08,77.56,79.39,77.1,78.0,78.15,1170085.0,91576971.0,1587478230.0,7800000000.0
sh688595,芯海科技,2020-12-09,78.0,79.77,75.66,75.88,78.0,1480204.0,115951307.0,1544331385.8,7588000000.0
sh688595,芯海科技,2020-12-10,75.41,77.5,74.1,74.66,75.88,1660873.0,125972548.0,1519501598.1,7466000000.0
sh688595,芯海科技,2020-12-11,74.6,74.6,70.63,71.86,74.66,1964917.0,142283211.0,1462515200.1,7186000000.0
sh688595,芯海科技,2020-12-14,72.05,73.24,70.6,72.89,71.86,1167921.0,84270281.0,1483478053.65,7289000000.0
sh688595,芯海科技,2020-12-15,72.57,74.21,72.0,72.77,72.89,1135895.0,83204026.0,1481035779.45,7277000000.0
sh688595,芯海科技,2020-12-16,72.7,73.95,71.88,71.9,72.77,1048472.0,76384072.0,1463329291.5,7190000000.0
sh688595,芯海科技,2020-12-17,71.69,72.97,70.08,72.73,71.9,1232603.0,87885494.0,1480221688.05,7273000000.0
sh688595,芯海科技,2020-12-18,74.0,74.87,70.38,70.52,72.73,1177055.0,84832327.0,1435243138.2,7052000000.0
sh688595,芯海科技,2020-12-21,70.0,72.39,68.63,71.4,70.52,1270365.0,89759312.0,1453153149.0,7140000000.0
sh688595,芯海科技,2020-12-22,71.4,71.4,66.81,67.1,71.4,1509781.0,103732859.0,1365638323.5,6710000000.0
sh688595,芯海科技,2020-12-23,67.1,69.96,66.11,68.71,67.1,1290007.0,87617428.0,1398405502.35,6871000000.0
sh688595,芯海科技,2020-12-24,68.37,69.33,66.66,67.55,68.71,918335.0,62325835.0,1374796851.75,6755000000.0
sh688595,芯海科技,2020-12-25,67.55,68.4,64.89,65.35,67.55,1117882.0,73602883.0,1330021824.75,6535000000.0
sh688595,芯海科技,2020-12-28,65.19,65.19,61.51,61.78,65.35,1189428.0,74929625.0,1257364167.3,6178000000.0
sh688595,芯海科技,2020-12-29,61.85,64.3,61.85,62.9,61.78,1090705.0,69048004.0,1280158726.5,6290000000.0
sh688595,芯海科技,2020-12-30,62.5,64.19,61.52,63.6,62.9,1074102.0,67643343.0,1294405326.0,6360000000.0
sh688595,芯海科技,2020-12-31,63.89,65.77,63.3,64.87,63.6,889098.0,57533675.0,1320252727.95,6487000000.0
sh688595,芯海科技,2021-01-04,65.52,65.9,64.2,64.99,64.87,1070033.0,69716607.0,1322695002.15,6499000000.0
sh688595,芯海科技,2021-01-05,64.87,66.9,64.4,66.36,64.99,1221767.0,80205170.0,1350577632.6,6636000000.0
sh688595,芯海科技,2021-01-06,66.21,66.21,62.5,64.2,66.36,1592270.0,101466210.0,1306616697.0,6420000000.0
sh688595,芯海科技,2021-01-07,62.73,65.4,58.44,60.44,64.2,2583354.0,159326830.0,1230092105.4,6044000000.0
sh688595,芯海科技,2021-01-08,60.2,60.2,56.56,58.71,60.44,1486361.0,87158852.0,1194882652.35,5871000000.0
sh688595,芯海科技,2021-01-11,58.08,60.68,57.8,58.2,58.71,1314846.0,77858519.0,1184502987.0,5820000000.0
sh688595,芯海科技,2021-01-12,58.01,59.18,56.9,57.1,58.2,1186297.0,68642536.0,1162115473.5,5710000000.0
sh688595,芯海科技,2021-01-13,57.6,57.8,53.9,54.34,57.1,1768475.0,97887401.0,1105943166.9,5434000000.0
sh688595,芯海科技,2021-01-14,54.88,59.0,54.0,58.2,54.34,2104451.0,120127858.0,1184502987.0,5820000000.0
sh688595,芯海科技,2021-01-15,60.65,61.8,59.58,60.34,58.2,2353210.0,142573643.0,1228056876.9,6034000000.0
sh688595,芯海科技,2021-01-18,60.79,61.98,59.18,60.56,60.34,1861700.0,113201474.0,1232534379.6,6056000000.0
sh688595,芯海科技,2021-01-19,60.45,66.48,60.23,62.3,60.56,2581672.0,165075633.0,1267947355.5,6230000000.0
sh688595,芯海科技,2021-01-20,61.7,64.33,61.51,63.51,62.3,1410365.0,88317855.0,1292573620.35,6351000000.0
sh688595,芯海科技,2021-01-21,64.01,64.78,62.33,64.05,63.51,1155877.0,73525902.0,1303563854.25,6405000000.0
sh688595,芯海科技,2021-01-22,64.04,64.68,62.11,64.3,64.05,1138032.0,72316943.0,1308651925.5,6430000000.0
sh688595,芯海科技,2021-01-25,65.0,65.0,61.0,62.54,64.3,939227.0,58728740.0,1272831903.9,6254000000.0
sh688595,芯海科技,2021-01-26,62.0,62.97,59.59,59.81,62.54,877777.0,53552253.0,1217270165.85,5981000000.0
sh688595,芯海科技,2021-01-27,59.81,60.77,57.88,58.18,59.81,845429.0,49578720.0,1184095941.3,5818000000.0
sh688595,芯海科技,2021-01-28,58.0,59.48,56.16,58.29,58.18,639025.0,37356967.0,1186334692.65,5829000000.0
sh688595,芯海科技,2021-01-29,58.2,58.81,55.59,56.79,58.29,845618.0,47993684.0,1155806265.15,5679000000.0
sh688595,芯海科技,2021-02-01,57.49,59.6,56.5,58.72,56.79,814702.0,47463312.0,1195086175.2,5872000000.0
sh688595,芯海科技,2021-02-02,58.33,60.33,58.16,59.58,58.72,644723.0,38444045.0,1212589140.3,5958000000.0
sh688595,芯海科技,2021-02-03,59.05,59.39,55.67,55.67,59.58,814573.0,46597106.0,1133011705.95,5567000000.0
sh688595,芯海科技,2021-02-04,55.67,58.81,55.01,58.23,55.67,861888.0,48814948.0,1185113555.55,5823000000.0
sh688595,芯海科技,2021-02-05,58.23,58.43,55.56,55.81,58.23,704264.0,39670868.0,1135861025.85,5581000000.0
sh688595,芯海科技,2021-02-08,55.83,56.8,54.19,56.3,55.81,380645.0,21288090.0,1145833645.5,5630000000.0
sh688595,芯海科技,2021-02-09,56.3,57.0,55.39,56.7,56.3,407313.0,23019419.0,1153974559.5,5670000000.0
sh688595,芯海科技,2021-02-10,56.7,58.0,55.8,56.41,56.7,467064.0,26275950.0,1148072396.85,5641000000.0
sh688595,芯海科技,2021-02-18,57.97,60.98,56.8,58.95,56.41,1186423.0,70000510.0,1199767200.75,5895000000.0
sh688595,芯海科技,2021-02-19,58.88,59.9,58.03,59.85,58.95,585972.0,34607072.0,1218084257.25,5985000000.0
sh688595,芯海科技,2021-02-22,60.08,60.88,58.2,58.4,59.85,851905.0,50627223.0,1188573444.0,5840000000.0
sh688595,芯海科技,2021-02-23,58.28,58.76,56.66,57.16,58.4,580871.0,33432839.0,1163336610.6,5716000000.0
sh688595,芯海科技,2021-02-24,56.57,59.31,56.57,58.48,57.16,676002.0,39370635.0,1190201626.8,5848000000.0
sh688595,芯海科技,2021-02-25,58.77,58.86,56.1,56.53,58.48,649536.0,36940328.0,1150514671.05,5653000000.0
sh688595,芯海科技,2021-02-26,56.54,59.25,56.54,57.02,56.53,979100.0,56863071.0,1160487290.7,5702000000.0
sh688595,芯海科技,2021-03-01,57.31,61.28,57.0,61.0,57.02,1192968.0,71239872.0,1241489385.0,6100000000.0
sh688595,芯海科技,2021-03-02,61.9,63.68,59.88,62.17,61.0,1445540.0,89725014.0,1265301558.45,6217000000.0
sh688595,芯海科技,2021-03-03,61.7,62.77,61.11,61.94,62.17,619750.0,38350484.0,1260620532.9,6194000000.0
sh688595,芯海科技,2021-03-04,61.2,63.32,59.77,60.01,61.94,877223.0,53828966.0,1221340622.85,6001000000.0
sh688595,芯海科技,2021-03-05,59.0,60.82,58.99,60.4,60.01,575677.0,34522045.0,1229278014.0,6040000000.0
sh688595,芯海科技,2021-03-08,60.41,61.68,58.7,59.36,60.4,622747.0,37610273.0,1208111637.6,5936000000.0
sh688595,芯海科技,2021-03-09,59.37,62.42,55.11,60.06,59.36,1392720.0,82224812.0,1222358237.1,6006000000.0
sh688595,芯海科技,2021-03-10,60.4,62.18,57.5,61.35,60.06,1252629.0,75233063.0,1248612684.75,6135000000.0
sh688595,芯海科技,2021-03-11,61.18,63.5,60.77,63.0,61.35,827335.0,51511523.0,1282193955.0,6300000000.0
sh688595,芯海科技,2021-03-12,62.8,63.33,60.52,60.82,63.0,598605.0,36873517.0,1237825973.7,6082000000.0
sh688595,芯海科技,2021-03-15,60.82,60.82,57.68,58.18,60.82,522779.0,30813053.0,1184095941.3,5818000000.0
sh688595,芯海科技,2021-03-16,58.0,59.22,58.0,58.53,58.18,318779.0,18701941.0,1191219241.05,5853000000.0
sh688595,芯海科技,2021-03-17,58.55,59.9,58.31,59.19,58.53,353012.0,20912222.0,1204651749.15,5919000000.0
sh688595,芯海科技,2021-03-18,59.02,59.19,55.7,55.98,59.19,1067225.0,60886932.0,1139320914.3,5598000000.0
sh688595,芯海科技,2021-03-19,55.12,56.46,54.3,54.65,55.98,1088017.0,60255625.0,1112252375.25,5465000000.0
sh688595,芯海科技,2021-03-22,54.18,55.08,52.03,52.71,54.65,1843184.0,98234293.0,1072768942.35,5271000000.0
sh688595,芯海科技,2021-03-23,52.77,53.35,49.9,50.65,52.71,1338845.0,68899238.0,1030843235.25,5065000000.0
sh688595,芯海科技,2021-03-24,50.01,50.53,48.81,49.03,50.65,801783.0,39679541.0,997872533.55,4903000000.0
sh688595,芯海科技,2021-03-25,49.17,49.83,48.53,48.8,49.03,630884.0,30997224.0,993191508.0,4880000000.0
sh688595,芯海科技,2021-03-26,48.0,49.9,48.0,49.3,48.8,693089.0,34136440.0,1003367650.5,4930000000.0
sh688595,芯海科技,2021-03-29,49.0,49.88,48.1,48.6,49.3,1154441.0,56488720.0,1032750000.0,4860000000.0
sh688595,芯海科技,2021-03-30,48.49,48.7,46.88,47.34,48.6,949617.0,44963551.0,1005975000.0,4734000000.0
sh688595,芯海科技,2021-03-31,47.59,48.4,46.97,48.17,47.34,595163.0,28412928.0,1023612500.0,4817000000.0
sh688595,芯海科技,2021-04-01,47.91,50.49,47.86,49.63,48.17,926401.0,45902712.0,1054637500.0,4963000000.0
sh688595,芯海科技,2021-04-02,50.18,54.18,49.64,53.52,49.63,1857042.0,97143576.0,1137300000.0,5352000000.0
sh688595,芯海科技,2021-04-06,54.85,54.85,51.89,52.23,53.52,1304176.0,68743361.0,1109887500.0,5223000000.0
sh688595,芯海科技,2021-04-07,52.28,53.5,51.02,53.37,52.23,1168262.0,61058928.0,1134112500.0,5337000000.0
sh688595,芯海科技,2021-04-08,52.51,55.59,52.51,53.72,53.37,1530001.0,83056764.0,1141550000.0,5372000000.0
sh688595,芯海科技,2021-04-09,53.72,55.58,53.5,54.78,53.72,920007.0,50453442.0,1164075000.0,5478000000.0
sh688595,芯海科技,2021-04-12,54.7,57.15,54.0,54.42,54.78,1325739.0,73996787.0,1156425000.0,5442000000.0
sh688595,芯海科技,2021-04-13,53.9,58.83,53.9,57.92,54.42,1631537.0,93247553.0,1230800000.0,5792000000.0
sh688595,芯海科技,2021-04-14,57.97,61.5,57.55,60.45,57.92,1964395.0,118704488.0,1284562500.0,6045000000.0
sh688595,芯海科技,2021-04-15,59.61,61.3,59.1,59.36,60.45,1325214.0,79424195.0,1261400000.0,5936000000.0
sh688595,芯海科技,2021-04-16,59.0,60.77,58.8,59.94,59.36,626003.0,37413438.0,1273725000.0,5994000000.0
sh688595,芯海科技,2021-04-19,59.82,60.3,58.0,59.95,59.94,778745.0,46075868.0,1273937500.0,5995000000.0
sh688595,芯海科技,2021-04-20,59.7,63.29,58.51,58.9,59.95,1286926.0,78210613.0,1251625000.0,5890000000.0
sh688595,芯海科技,2021-04-21,58.98,60.48,57.2,59.58,58.9,913382.0,53822140.0,1266075000.0,5958000000.0
sh688595,芯海科技,2021-04-22,60.54,62.48,58.78,61.4,59.58,695070.0,42564236.0,1304750000.0,6140000000.0
sh688595,芯海科技,2021-04-23,61.52,64.98,61.01,62.86,61.4,1140361.0,72094442.0,1335775000.0,6286000000.0
sh688595,芯海科技,2021-04-26,64.0,68.6,62.58,66.71,62.86,2003627.0,132742568.0,1417587500.0,6671000000.0
sh688595,芯海科技,2021-04-27,66.5,67.3,61.63,62.14,66.71,2080039.0,132330900.0,1320475000.0,6214000000.0
sh688595,芯海科技,2021-04-28,55.96,64.38,52.88,61.88,62.14,3029339.0,176094927.0,1314950000.0,6188000000.0
sh688595,芯海科技,2021-04-29,61.65,64.83,60.38,61.15,61.88,1058587.0,66025895.0,1299437500.0,6115000000.0
sh688595,芯海科技,2021-04-30,60.7,62.05,58.53,59.92,61.15,741537.0,44326281.0,1273300000.0,5992000000.0
sh688595,芯海科技,2021-05-06,61.0,61.0,58.04,58.75,59.92,452212.0,26586401.0,1248437500.0,5875000000.0
sh688595,芯海科技,2021-05-07,58.81,59.41,56.6,57.22,58.75,528255.0,30348591.0,1215925000.0,5722000000.0
sh688595,芯海科技,2021-05-10,57.23,58.51,56.01,58.23,57.22,517842.0,29688883.0,1237387500.0,5823000000.0
sh688595,芯海科技,2021-05-11,57.5,58.81,56.78,58.38,58.23,337759.0,19528657.0,1240575000.0,5838000000.0
sh688595,芯海科技,2021-05-12,58.0,60.98,57.5,59.5,58.38,532856.0,31681166.0,1264375000.0,5950000000.0
sh688595,芯海科技,2021-05-13,57.83,62.27,57.83,60.25,59.5,635695.0,38594376.0,1280312500.0,6025000000.0
sh688595,芯海科技,2021-05-14,59.51,60.95,59.38,59.73,60.25,427306.0,25682895.0,1269262500.0,5973000000.0
sh688595,芯海科技,2021-05-17,59.43,62.23,59.43,59.83,59.73,450788.0,27351353.0,1271387500.0,5983000000.0
sh688595,芯海科技,2021-05-18,60.0,60.07,58.2,58.53,59.83,407447.0,24047166.0,1243762500.0,5853000000.0
sh688595,芯海科技,2021-05-19,58.9,60.79,58.4,59.25,58.53,569589.0,33925904.0,1259062500.0,5925000000.0
sh688595,芯海科技,2021-05-20,59.48,59.95,58.21,58.71,59.25,412653.0,24207458.0,1247587500.0,5871000000.0
sh688595,芯海科技,2021-05-21,58.71,60.25,57.25,57.59,58.71,442531.0,25733782.0,1223787500.0,5759000000.0
sh688595,芯海科技,2021-05-24,57.11,58.35,55.8,57.25,57.59,390947.0,22212316.0,1216562500.0,5725000000.0
sh688595,芯海科技,2021-05-25,57.38,58.65,57.03,58.3,57.25,289453.0,16848438.0,1238875000.0,5830000000.0
sh688595,芯海科技,2021-05-26,59.0,59.18,57.01,58.28,58.3,322789.0,18783357.0,1238450000.0,5828000000.0
sh688595,芯海科技,2021-05-27,58.61,65.68,57.7,65.05,58.28,1630049.0,102752680.0,1382312500.0,6505000000.0
sh688595,芯海科技,2021-05-28,65.99,69.68,65.99,68.33,65.05,1976779.0,134659008.0,1452012500.0,6833000000.0
sh688595,芯海科技,2021-05-31,68.59,74.25,67.88,73.22,68.33,1626656.0,116927669.0,1555925000.0,7322000000.0
sh688595,芯海科技,2021-06-01,71.3,75.73,71.0,74.93,73.22,1277509.0,95194096.0,1592262500.0,7493000000.0
sh688595,芯海科技,2021-06-02,73.63,76.48,73.0,73.5,74.93,1090737.0,81448313.0,1561875000.0,7350000000.0
sh688595,芯海科技,2021-06-03,73.44,75.44,69.8,70.6,73.5,1243954.0,89673934.0,1500250000.0,7060000000.0
sh688595,芯海科技,2021-06-04,70.93,72.89,70.11,71.08,70.6,590900.0,42159456.0,1510450000.0,7108000000.0
sh688595,芯海科技,2021-06-07,72.25,76.69,70.0,70.24,71.08,1261878.0,92127852.0,1492600000.0,7024000000.0
sh688595,芯海科技,2021-06-08,70.1,75.58,70.0,72.93,70.24,1330806.0,97256391.0,1549762500.0,7293000000.0
sh688595,芯海科技,2021-06-09,72.81,75.0,69.65,73.83,72.93,2261946.0,163267019.0,1568887500.0,7383000000.0
sh688595,XD芯海科,2021-06-10,72.96,86.58,72.5,81.1,73.53,3733293.0,296714092.0,1723375000.0,8110000000.0
sh688595,芯海科技,2021-06-11,80.9,82.65,76.62,78.9,81.1,3048553.0,241600873.0,1676625000.0,7890000000.0
sh688595,芯海科技,2021-06-15,77.0,79.49,73.64,74.17,78.9,2458767.0,187892118.0,1576112500.0,7417000000.0
sh688595,芯海科技,2021-06-16,75.5,80.78,75.0,76.05,74.17,2403172.0,185724626.0,1616062500.0,7605000000.0
sh688595,芯海科技,2021-06-17,74.0,91.26,73.74,91.26,76.05,5599778.0,474616511.0,1939275000.0,9126000000.0
sh688595,芯海科技,2021-06-18,90.8,92.0,84.26,86.48,91.26,4570966.0,402257855.0,1837700000.0,8648000000.0
sh688595,芯海科技,2021-06-21,87.12,92.84,87.12,88.6,86.48,2995124.0,269709978.0,1882750000.0,8860000000.0
sh688595,芯海科技,2021-06-22,90.42,96.6,87.11,88.16,88.6,2969359.0,271392276.0,1873400000.0,8816000000.0
sh688595,芯海科技,2021-06-23,88.5,92.5,85.08,89.56,88.16,2590896.0,231296652.0,1903150000.0,8956000000.0
sh688595,芯海科技,2021-06-24,87.28,87.76,82.67,83.75,89.56,2458542.0,209016930.0,1779687500.0,8375000000.0
sh688595,芯海科技,2021-06-25,82.96,86.45,79.52,82.08,83.75,1853163.0,152431262.0,1744200000.0,8208000000.0
sh688595,芯海科技,2021-06-28,81.3,85.68,81.12,83.19,82.08,1747829.0,145741043.0,1767787500.0,8319000000.0
sh688595,芯海科技,2021-06-29,82.01,85.17,80.2,82.2,83.19,1264701.0,104340715.0,1746750000.0,8220000000.0
sh688595,芯海科技,2021-06-30,84.23,89.9,83.5,87.97,82.2,2770373.0,242398566.0,1869362500.0,8797000000.0
sh688595,芯海科技,2021-07-01,87.91,88.5,82.01,83.38,87.97,2015141.0,172040607.0,1771825000.0,8338000000.0
sh688595,芯海科技,2021-07-02,84.77,90.0,82.61,87.4,83.38,2287845.0,198760125.0,1857250000.0,8740000000.0
sh688595,芯海科技,2021-07-05,88.5,90.68,85.65,89.78,87.4,1990812.0,175661751.0,1907825000.0,8978000000.0
sh688595,芯海科技,2021-07-06,89.5,97.44,86.5,89.18,89.78,3655942.0,336823518.0,1895075000.0,8918000000.0
sh688595,芯海科技,2021-07-07,85.0,88.65,80.1,87.71,89.18,2989281.0,252906590.0,1863837500.0,8771000000.0
sh688595,芯海科技,2021-07-08,87.78,91.88,86.66,89.67,87.71,2436014.0,217325622.0,1905487500.0,8967000000.0
sh688595,芯海科技,2021-07-09,86.0,88.82,83.5,85.66,89.67,1786862.0,153177566.0,1820275000.0,8566000000.0
sh688595,芯海科技,2021-07-12,86.9,88.1,83.0,86.71,85.66,1775684.0,153048793.0,1842587500.0,8671000000.0
sh688595,芯海科技,2021-07-13,85.38,86.86,80.51,80.61,86.71,2133364.0,175755782.0,1712962500.0,8061000000.0
sh688595,芯海科技,2021-07-14,80.7,82.6,77.38,77.38,80.61,1320810.0,105138710.0,1644325000.0,7738000000.0
sh688595,芯海科技,2021-07-15,77.92,78.17,74.8,75.27,77.38,1313744.0,99429491.0,1599487500.0,7527000000.0
sh688595,芯海科技,2021-07-16,75.27,90.32,75.27,90.32,75.27,5393633.0,468272471.0,1919300000.0,9032000000.0
sh688595,芯海科技,2021-07-19,90.99,102.0,90.99,96.02,90.32,5219316.0,502777975.0,2040425000.0,9602000000.0
sh688595,芯海科技,2021-07-20,98.88,102.5,95.06,101.93,96.02,3026588.0,301152630.0,2166012500.0,10193000000.0
sh688595,芯海科技,2021-07-21,102.81,122.32,102.01,122.32,101.93,2548349.0,293137821.0,2599300000.0,12232000000.0
sh688595,芯海科技,2021-07-22,130.04,146.78,129.87,146.78,122.32,5614155.0,798087416.0,3119075000.0,14678000000.0
sh688595,芯海科技,2021-07-23,137.2,147.7,129.87,132.06,146.78,5863781.0,803849333.0,2806275000.0,13206000000.0
sh688595,芯海科技,2021-07-26,132.75,136.66,128.47,134.62,132.06,3550045.0,471669600.0,2860675000.0,13462000000.0
sh688595,芯海科技,2021-07-27,136.73,149.27,129.0,129.0,134.62,4901881.0,679119597.0,2741250000.0,12900000000.0
sh688595,芯海科技,2021-07-28,128.6,128.99,114.0,118.0,129.0,5019510.0,601008179.0,2507500000.0,11800000000.0
sh688595,芯海科技,2021-07-29,121.9,137.46,121.88,131.38,118.0,4052368.0,531132875.0,2791825000.0,13138000000.0
sh688595,芯海科技,2021-07-30,133.93,149.26,129.09,137.43,131.38,3911445.0,539677671.0,2920387500.0,13743000000.0
sh688595,芯海科技,2021-08-02,142.0,144.5,123.0,127.05,137.43,3052157.0,393340896.0,2699812500.0,12705000000.0
sh688595,芯海科技,2021-08-03,129.49,129.83,114.8,115.66,127.05,2529700.0,306294524.0,2457775000.0,11566000000.0
sh688595,芯海科技,2021-08-04,117.03,124.14,116.98,118.73,115.66,2421062.0,288407732.0,2523012500.0,11873000000.0
sh688595,芯海科技,2021-08-05,117.03,121.9,112.06,116.68,118.73,2755397.0,325358488.0,2479450000.0,11668000000.0
sh688595,芯海科技,2021-08-06,118.18,125.0,112.76,114.0,116.68,2364402.0,274972821.0,2422500000.0,11400000000.0
sh688595,芯海科技,2021-08-09,112.14,114.13,106.57,111.9,114.0,2590215.0,284482345.0,2377875000.0,11190000000.0
sh688595,芯海科技,2021-08-10,112.28,113.97,106.8,109.68,111.9,1759581.0,192679068.0,2330700000.0,10968000000.0
sh688595,芯海科技,2021-08-11,109.84,113.87,106.62,112.52,109.68,2252119.0,248943088.0,2391050000.0,11252000000.0
sh688595,芯海科技,2021-08-12,112.91,122.0,112.51,116.5,112.52,2352861.0,276102594.0,2475625000.0,11650000000.0
sh688595,芯海科技,2021-08-13,111.68,112.79,106.8,107.9,116.5,2400289.0,259582893.0,2292875000.0,10790000000.0
sh688595,芯海科技,2021-08-16,104.0,112.6,104.0,109.7,107.9,1469057.0,159908269.0,2331125000.0,10970000000.0
sh688595,芯海科技,2021-08-17,108.88,111.51,103.0,104.48,109.7,1754206.0,184394889.0,2220200000.0,10448000000.0
sh688595,芯海科技,2021-08-18,106.0,108.0,102.01,104.5,104.48,1148046.0,120682086.0,2220625000.0,10450000000.0
sh688595,芯海科技,2021-08-19,106.64,109.68,104.53,106.62,104.5,1359149.0,145896601.0,2265675000.0,10662000000.0
sh688595,芯海科技,2021-08-20,106.0,110.11,103.01,105.06,106.62,1419408.0,151136334.0,2232525000.0,10506000000.0
sh688595,芯海科技,2021-08-23,106.97,111.0,103.54,110.38,105.06,1471355.0,159640558.0,2345575000.0,11038000000.0
sh688595,芯海科技,2021-08-24,110.59,123.62,107.51,119.72,110.38,2568412.0,299685202.0,2544050000.0,11972000000.0
sh688595,芯海科技,2021-08-25,117.0,120.9,112.29,113.8,119.72,1381126.0,158428798.0,2418250000.0,11380000000.0
sh688595,芯海科技,2021-08-26,111.52,116.8,110.52,111.7,113.8,983798.0,110919749.0,2373625000.0,11170000000.0
sh688595,芯海科技,2021-08-27,111.0,118.0,111.0,115.1,111.7,1402914.0,159984045.0,2445875000.0,11510000000.0
sh688595,芯海科技,2021-08-30,116.28,119.6,110.6,110.6,115.1,1214858.0,139194489.0,2350250000.0,11060000000.0
sh688595,芯海科技,2021-08-31,107.98,107.98,102.18,102.88,110.6,1722812.0,179444819.0,2186200000.0,10288000000.0
sh688595,芯海科技,2021-09-01,103.87,106.28,98.8,106.1,102.88,1128255.0,116664528.0,2254625000.0,10610000000.0
sh688595,芯海科技,2021-09-02,104.94,109.0,99.0,101.2,106.1,1189107.0,120555010.0,2150500000.0,10120000000.0
sh688595,芯海科技,2021-09-03,100.0,101.3,94.0,95.98,101.2,1253696.0,122158960.0,2039575000.0,9598000000.0
sh688595,芯海科技,2021-09-06,94.5,107.16,93.8,105.05,95.98,1340528.0,136813105.0,2232312500.0,10505000000.0
sh688595,芯海科技,2021-09-07,102.51,112.5,102.51,105.36,105.05,1669523.0,179941785.0,2238900000.0,10536000000.0
sh688595,芯海科技,2021-09-08,105.5,106.67,99.54,100.0,105.36,1243514.0,126240682.0,2125000000.0,10000000000.0
sh688595,芯海科技,2021-09-09,98.74,101.24,96.02,97.2,100.0,1176763.0,114772571.0,2065500000.0,9720000000.0
sh688595,芯海科技,2021-09-10,95.74,105.77,94.25,100.5,97.2,1502160.0,150976577.0,2135625000.0,10050000000.0
sh688595,芯海科技,2021-09-13,98.65,101.3,96.11,97.5,100.5,895754.0,87632919.0,2071875000.0,9750000000.0
sh688595,芯海科技,2021-09-14,97.5,108.0,96.02,99.55,97.5,2312597.0,234554975.0,2115437500.0,9955000000.0
sh688595,芯海科技,2021-09-15,97.11,98.01,92.15,94.2,99.55,1987373.0,187928506.0,2001750000.0,9420000000.0
sh688595,芯海科技,2021-09-16,91.58,93.65,88.72,90.97,94.2,1305873.0,118846898.0,1933112500.0,9097000000.0
sh688595,芯海科技,2021-09-17,90.05,94.0,88.0,90.09,90.97,1237188.0,111840355.0,1914412500.0,9009000000.0
sh688595,芯海科技,2021-09-22,87.04,94.3,86.42,91.9,90.09,1169487.0,106935720.0,1952875000.0,9190000000.0
sh688595,芯海科技,2021-09-23,92.11,100.87,92.05,97.16,91.9,1631183.0,157969730.0,2064650000.0,9716000000.0
sh688595,芯海科技,2021-09-24,96.99,98.77,94.11,94.7,97.16,948358.0,91126874.0,2012375000.0,9470000000.0
sh688595,芯海科技,2021-09-27,97.0,102.23,91.33,91.61,94.7,1541493.0,150071339.0,1946712500.0,9161000000.0
sh688595,芯海科技,2021-09-28,94.14,105.0,93.8,98.49,91.61,2177163.0,215508124.0,5183501615.25,9849000000.0
sh688595,芯海科技,2021-09-29,96.43,97.6,89.08,90.6,98.49,2013824.0,184919279.0,4768253085.0,9060000000.0
sh688595,芯海科技,2021-09-30,92.45,96.69,90.18,95.0,90.6,1260966.0,119315964.0,4999823875.0,9500000000.0
sh688595,芯海科技,2021-10-08,98.34,99.3,92.71,93.6,95.0,895204.0,84570261.0,4926142260.0,9360000000.0
sh688595,芯海科技,2021-10-11,92.28,94.9,91.0,92.84,93.6,592354.0,54801931.0,4886143669.0,9284000000.0
sh688595,芯海科技,2021-10-12,93.0,93.94,87.48,89.66,92.84,954165.0,85772529.0,4718781143.5,8966000000.0
sh688595,芯海科技,2021-10-13,89.0,94.0,88.76,92.77,89.66,659313.0,60677275.0,4882459588.25,9277000000.0
sh688595,芯海科技,2021-10-14,93.14,95.0,90.81,92.38,92.77,528104.0,48899015.0,4861933995.5,9238000000.0
sh688595,芯海科技,2021-10-15,93.99,96.2,90.0,94.52,92.38,1258629.0,118668613.0,4974561607.0,9452000000.0
sh688595,芯海科技,2021-10-18,94.3,94.3,90.33,92.52,94.52,829653.0,76348293.0,4869302157.0,9252000000.0
sh688595,芯海科技,2021-10-19,92.21,94.8,91.25,93.16,92.52,864526.0,80348147.0,4902985181.0,9316000000.0
sh688595,芯海科技,2021-10-20,93.13,94.5,91.0,92.7,93.16,675433.0,62748418.0,4878775507.5,9270000000.0
sh688595,芯海科技,2021-10-21,92.82,92.82,88.99,89.57,92.7,1215903.0,109826796.0,4714044468.25,8957000000.0
sh688595,芯海科技,2021-10-22,89.7,92.44,89.7,90.19,89.57,942675.0,85755863.0,4746674897.75,9019000000.0
sh688595,芯海科技,2021-10-25,90.2,94.0,89.3,93.3,90.19,1267617.0,116711541.0,4910353342.5,9330000000.0
sh688595,芯海科技,2021-10-26,92.8,94.5,91.1,92.55,93.3,908966.0,84367342.0,4870881048.75,9255000000.0
sh688595,芯海科技,2021-10-27,92.01,92.9,88.66,89.04,92.55,1234908.0,111278839.0,4686150714.0,8904000000.0
sh688595,芯海科技,2021-10-28,89.1,93.9,88.01,90.99,89.04,1509373.0,138168493.0,4788778677.75,9099000000.0
sh688595,芯海科技,2021-10-29,94.0,99.0,93.96,97.29,90.99,2849866.0,276710635.0,5120345945.25,9729000000.0
sh688595,芯海科技,2021-11-01,97.89,101.0,94.1,97.26,97.29,3102731.0,303353196.0,5118767053.5,9726000000.0
sh688595,芯海科技,2021-11-02,97.29,99.3,96.27,96.9,97.26,2609821.0,255448633.0,5099820352.5,9690000000.0
sh688595,芯海科技,2021-11-03,96.59,99.5,94.95,96.88,96.9,2509002.0,244494282.0,5098767758.0,9688000000.0
sh688595,芯海科技,2021-11-04,97.0,99.6,95.2,96.27,96.88,2427115.0,236335874.0,5066663625.75,9627000000.0
sh688595,芯海科技,2021-11-05,97.67,102.75,97.17,100.87,96.27,2816690.0,282589571.0,5308760360.75,10087000000.0
sh688595,芯海科技,2021-11-08,101.66,101.67,95.21,96.52,100.87,1980707.0,192710273.0,5079821057.0,9652000000.0
sh688595,芯海科技,2021-11-09,96.97,101.34,95.8,99.03,96.52,2125607.0,209448371.0,5211921666.75,9903000000.0
sh688595,芯海科技,2021-11-10,98.39,99.36,96.22,99.11,99.03,1610696.0,157757142.0,5216132044.75,9911000000.0
sh688595,芯海科技,2021-11-11,98.6,108.99,96.6,105.2,99.11,3556796.0,369445943.0,5536647070.000001,10520000000.0
sh688595,芯海科技,2021-11-12,106.59,109.8,103.5,107.2,105.2,2512806.0,269078563.0,5641906520.0,10720000000.0
sh688595,芯海科技,2021-11-15,107.2,111.88,105.36,106.91,107.2,2702055.0,293068024.0,5626643899.750001,10691000000.0
sh688595,芯海科技,2021-11-16,105.32,106.84,100.3,100.9,106.91,2668506.0,275493018.0,5310339252.5,10090000000.0
sh688595,芯海科技,2021-11-17,100.9,102.0,98.07,100.97,100.9,1567771.0,156963534.0,5314023333.25,10097000000.0
sh688595,芯海科技,2021-11-18,101.44,101.49,96.31,96.57,100.97,2016493.0,198086168.0,5082452543.25,9657000000.0
sh688595,芯海科技,2021-11-19,97.27,98.95,96.4,98.11,96.57,1562296.0,153053281.0,5163502319.75,9811000000.0
sh688595,芯海科技,2021-11-22,98.97,104.0,97.24,102.81,98.11,2590019.0,262359427.0,5410862027.25,10281000000.0
sh688595,芯海科技,2021-11-23,102.8,109.58,102.0,106.88,102.81,2900074.0,310716179.0,5625065008.0,10688000000.0
sh688595,芯海科技,2021-11-24,110.49,110.78,106.22,106.93,106.88,2369398.0,256521592.0,5627696494.25,10693000000.0
sh688595,芯海科技,2021-11-25,106.35,120.01,105.9,114.55,106.93,4434767.0,504931127.0,6028734998.75,11455000000.0
sh688595,芯海科技,2021-11-26,115.22,116.69,110.2,113.71,114.55,3114142.0,353008474.0,5984526029.75,11371000000.0
sh688595,芯海科技,2021-11-29,111.82,116.53,110.57,112.59,113.71,2452266.0,277449950.0,5925580737.750001,11259000000.0
sh688595,芯海科技,2021-11-30,113.03,117.77,112.6,116.73,112.59,2863066.0,331378494.0,6143467799.25,11673000000.0
sh688595,芯海科技,2021-12-01,116.3,125.8,115.51,118.92,116.73,3981002.0,484962109.0,6258726897.0,11892000000.0
sh688595,芯海科技,2021-12-02,119.19,120.0,112.97,113.59,118.92,2855984.0,328022122.0,5978210462.75,11359000000.0
sh688595,芯海科技,2021-12-03,114.93,119.0,113.8,117.81,113.59,2840833.0,330456265.0,6200307902.25,11781000000.0
sh688595,芯海科技,2021-12-06,117.81,121.28,114.01,119.5,117.81,2538091.0,297718421.0,6289252137.5,11950000000.0
sh688595,芯海科技,2021-12-07,118.65,119.99,112.59,116.0,119.5,2311233.0,268056920.0,6105048100.000001,11600000000.0
sh688595,芯海科技,2021-12-08,117.49,122.49,115.6,121.29,116.0,2133339.0,255364280.0,6383459345.250001,12129000000.0
sh688595,芯海科技,2021-12-09,125.0,129.55,120.0,126.5,121.29,2846833.0,355742924.0,6657660212.5,12650000000.0
sh688595,芯海科技,2021-12-10,124.55,133.79,123.78,128.02,126.5,3060213.0,395972598.0,6737657394.5,12802000000.0
sh688595,芯海科技,2021-12-13,128.02,151.0,125.82,145.0,128.02,4804424.0,675264826.0,7631310125.0,14500000000.0
sh688595,芯海科技,2021-12-14,143.8,150.98,132.0,137.21,145.0,5116682.0,722569634.0,7221324567.250001,13721000000.0
sh688595,芯海科技,2021-12-15,136.0,136.8,125.37,126.3,137.21,3715569.0,479256474.0,6647134267.5,12630000000.0
sh688595,芯海科技,2021-12-16,127.89,128.22,124.5,126.86,126.3,1513953.0,191056915.0,6676606913.5,12686000000.0
sh688595,芯海科技,2021-12-17,127.0,127.42,117.75,123.3,126.86,2737124.0,331808456.0,6489245092.5,12330000000.0
sh688595,芯海科技,2021-12-20,122.99,123.88,118.5,118.99,123.3,1089231.0,131306203.0,6262410977.75,11899000000.0
sh688595,芯海科技,2021-12-21,118.99,121.29,113.74,117.02,118.99,1905340.0,222118459.0,6158730419.5,11702000000.0
sh688595,芯海科技,2021-12-22,117.02,120.6,116.01,117.98,117.02,1187065.0,140848300.0,6209254955.5,11798000000.0
sh688595,芯海科技,2021-12-23,118.79,130.58,118.79,126.47,117.98,3000346.0,377969549.0,6656081320.75,12647000000.0
sh688595,芯海科技,2021-12-24,126.67,130.74,124.0,124.0,126.47,1120149.0,141479929.0,6526085900.0,12400000000.0
sh688595,芯海科技,2021-12-27,125.99,128.0,118.24,120.9,124.0,1852484.0,225124976.0,6362933752.5,12090000000.0
sh688595,芯海科技,2021-12-28,122.4,124.49,121.0,121.53,120.9,959138.0,117480824.0,6396090479.25,12153000000.0
sh688595,芯海科技,2021-12-29,121.0,121.56,117.26,119.12,121.53,969849.0,115518630.0,6269252842.0,11912000000.0
sh688595,芯海科技,2021-12-30,119.76,127.89,119.12,125.04,119.12,1375717.0,171700754.0,6580820814.0,12504000000.0
sh688595,芯海科技,2021-12-31,125.0,125.95,121.81,124.45,125.04,836317.0,102905744.0,6549769276.25,12445000000.0
sh688595,芯海科技,2022-01-04,122.0,124.07,115.71,117.1,124.45,1677865.0,198539492.0,6162940797.5,11710000000.0
sh688595,芯海科技,2022-01-05,115.52,118.77,108.49,110.68,117.1,1947366.0,216927878.0,5825057963.0,11068000000.0
sh688595,芯海科技,2022-01-06,109.88,115.22,108.38,114.7,110.68,1762154.0,198637816.0,6036629457.5,11470000000.0
sh688595,芯海科技,2022-01-07,115.3,115.65,111.1,111.61,114.7,1342041.0,151797515.0,5874003607.25,11161000000.0
sh688595,芯海科技,2022-01-10,111.42,114.69,108.53,111.0,111.61,1170497.0,130726492.0,5841899475.0,11100000000.0
sh688595,芯海科技,2022-01-11,111.26,112.72,107.63,108.35,111.0,1239595.0,135553574.0,5702430703.75,10835000000.0
sh688595,芯海科技,2022-01-12,108.79,110.81,105.19,107.5,108.35,1818959.0,195468372.0,5657695437.5,10750000000.0
sh688595,芯海科技,2022-01-13,107.09,108.47,104.0,105.17,107.5,1290885.0,136308080.0,5535068178.25,10517000000.0
sh688595,芯海科技,2022-01-14,104.68,112.25,104.26,109.65,105.17,1635427.0,177687804.0,5770849346.25,10965000000.0
