数据由邢不行整理
股票代码,股票名称,交易日期,开盘价,最高价,最低价,收盘价,前收盘价,成交量,成交额,流通市值,总市值
sh688012,N中微,2019-07-22,109.8,125.0,62.0,81.03,29.01,36520183.0,3090029229.0,3924005210.19,43339887064.1
sh688012,中微公司,2019-07-23,74.96,89.79,74.9,83.28,81.03,17441884.0,1465149109.0,4032964999.44,44543327097.4
sh688012,中微公司,2019-07-24,84.0,85.98,81.2,85.0,83.28,13791161.0,1154103564.0,4116258705.0,45463290145.0
sh688012,中微公司,2019-07-25,84.3,89.89,83.8,87.11,85.0,16005684.0,1392563677.0,4218438774.03,46591849465.1
sh688012,中微公司,2019-07-26,85.0,86.5,78.0,78.59,87.11,12001208.0,981437289.0,3805844372.07,42034823205.8
sh688012,中微公司,2019-07-29,78.8,83.5,78.8,82.03,78.59,9232525.0,754175976.0,3972431783.19,43874749301.1
sh688012,中微公司,2019-07-30,82.2,84.5,80.58,83.78,82.03,10526392.0,876202420.0,4057178285.94,44810758215.9
sh688012,中微公司,2019-07-31,83.81,91.88,83.81,88.48,83.78,16798110.0,1490764789.0,4284783179.04,47324610729.8
sh688012,中微公司,2019-08-01,86.65,91.59,85.93,91.05,88.48,16036874.0,1423165416.0,4409239471.65,48699206678.8
sh688012,中微公司,2019-08-02,88.6,102.3,88.06,95.5,91.05,21739755.0,2066907062.0,4624737721.5,51079343633.5
sh688012,中微公司,2019-08-05,94.99,99.51,90.11,99.37,95.5,16109072.0,1547800241.0,4812148559.01,53149260490.7
sh688012,中微公司,2019-08-06,97.0,106.5,87.5,91.0,99.37,21003763.0,2109266742.0,4406818143.0,48672463567.0
sh688012,中微公司,2019-08-07,92.99,94.35,85.7,90.01,91.0,12660483.0,1138874592.0,4358875835.73,48142949952.4
sh688012,中微公司,2019-08-08,90.0,92.55,86.5,86.5,90.01,9782281.0,874599345.0,4188898564.5,46265583500.5
sh688012,中微公司,2019-08-09,87.0,87.8,81.51,81.88,86.5,9546931.0,801101422.0,3965167797.24,43794519965.6
sh688012,中微公司,2019-08-12,81.75,84.45,78.98,82.93,81.88,7021680.0,575536805.0,4016015698.89,44356125314.4
sh688012,中微公司,2019-08-13,82.8,83.87,81.02,83.74,82.93,5595248.0,463306203.0,4055241223.02,44789363726.4
sh688012,中微公司,2019-08-14,84.67,85.06,83.0,84.0,83.74,5915410.0,497940268.0,4067832132.0,44928427908.0
sh688012,中微公司,2019-08-15,81.47,83.17,80.9,83.01,84.0,5346393.0,439399673.0,4019889824.73,44398914293.4
sh688012,中微公司,2019-08-16,83.01,84.41,82.2,82.6,83.01,4841838.0,402648199.0,4000034929.8,44179620776.2
sh688012,中微公司,2019-08-19,82.61,83.38,80.61,82.95,82.6,6210595.0,509520901.0,4016984230.35,44366822559.2
sh688012,中微公司,2019-08-20,83.0,85.0,82.52,84.05,82.95,6855238.0,574183791.0,4070253460.65,44955171019.8
sh688012,中微公司,2019-08-21,83.69,84.66,79.5,79.6,84.05,7440739.0,606012852.0,3854755210.8,42575034065.2
sh688012,中微公司,2019-08-22,80.99,86.51,80.26,82.6,79.6,11053404.0,925638495.0,4000034929.8,44179620776.2
sh688012,中微公司,2019-08-23,81.02,81.8,74.01,75.45,82.6,11264204.0,876105433.0,3653784932.85,40355355781.7
sh688012,中微公司,2019-08-26,75.3,76.76,74.08,74.92,75.45,4700089.0,353410541.0,3628118849.16,40071878796.0
sh688012,中微公司,2019-08-27,74.6,75.64,74.18,75.31,74.92,3908419.0,292896992.0,3647005212.63,40280475068.5
sh688012,中微公司,2019-08-28,75.0,75.5,72.51,72.6,75.31,4661423.0,345094238.0,3515769199.8,38830998406.2
sh688012,中微公司,2019-08-29,72.8,73.08,69.69,71.5,72.6,5494909.0,389484281.0,3462499969.5,38242649945.5
sh688012,中微公司,2019-08-30,71.79,72.36,70.65,70.71,71.5,3367142.0,241119809.0,3424242976.83,37820108778.3
sh688012,中微公司,2019-09-02,71.71,73.86,70.71,72.82,70.71,4209172.0,305846002.0,3526423045.86,38948668098.3
sh688012,中微公司,2019-09-03,72.29,78.38,72.28,76.86,72.82,7565368.0,575654777.0,3722066400.78,41109511535.8
sh688012,中微公司,2019-09-04,77.82,82.89,76.89,77.4,76.86,9248514.0,739900142.0,3748216750.2,41398337143.8
sh688012,中微公司,2019-09-05,76.8,79.3,76.01,77.9,77.4,5786848.0,449703454.0,3772430036.7,41665768262.3
sh688012,中微公司,2019-09-06,77.0,78.18,75.0,75.2,77.9,4509972.0,344287254.0,3641678289.6,40221640222.4
sh688012,中微公司,2019-09-09,75.5,77.42,75.2,76.28,75.2,3400839.0,260159204.0,3693978988.44,40799291438.4
sh688012,中微公司,2019-09-10,76.31,78.5,76.3,76.95,76.28,3453237.0,267366630.0,3726424792.35,41157649137.2
sh688012,中微公司,2019-09-11,76.91,77.76,76.13,76.13,76.95,2840615.0,218384378.0,3686715002.49,40719062102.8
sh688012,中微公司,2019-09-12,76.13,76.28,72.62,73.04,76.13,3993047.0,293891851.0,3537076891.92,39066337790.5
sh688012,中微公司,2019-09-16,73.05,73.86,72.83,73.22,73.04,1824180.0,133578479.0,3545793675.06,39162612993.1
sh688012,中微公司,2019-09-17,72.83,73.5,71.46,71.48,73.22,2020646.0,145816134.0,3461531438.04,38231952700.8
sh688012,中微公司,2019-09-18,71.51,71.84,70.02,70.5,71.48,1900315.0,134071204.0,3414073396.5,37707787708.5
sh688012,中微公司,2019-09-19,70.5,73.23,70.24,72.53,70.5,3092492.0,224029842.0,3512379339.69,38793558049.6
sh688012,中微公司,2019-09-20,72.03,73.93,72.03,73.43,72.53,2681099.0,196235885.0,3555963255.39,39274934062.9
sh688012,中微公司,2019-09-23,73.31,76.68,71.17,75.98,73.43,3753503.0,278171155.0,3679451016.54,40638832767.3
sh688012,中微公司,2019-09-24,75.5,84.3,75.23,81.57,75.98,11289066.0,916838553.0,3950155559.61,43628712672.1
sh688012,中微公司,2019-09-25,80.89,81.9,76.88,77.2,81.57,6255140.0,492648318.0,3738531435.6,41291364696.4
sh688012,中微公司,2019-09-26,77.89,78.0,70.9,70.97,77.2,6068111.0,445279986.0,3436833885.81,37959172959.9
sh688012,中微公司,2019-09-27,70.98,73.8,69.98,72.57,70.97,3232391.0,232385744.0,3514316402.61,38814952539.1
sh688012,中微公司,2019-09-30,72.5,72.95,67.97,68.85,72.57,3680576.0,256385792.0,3334169551.05,36825265017.4
sh688012,中微公司,2019-10-08,67.91,69.45,66.66,66.91,68.85,2498744.0,169964172.0,3240221999.43,35787632277.7
sh688012,中微公司,2019-10-09,66.8,68.5,66.36,68.3,66.91,1543275.0,104680616.0,3307534935.9,36531090787.1
sh688012,中微公司,2019-10-10,68.7,69.81,68.16,69.34,68.3,1693131.0,116835558.0,3357898571.82,37087347513.6
sh688012,中微公司,2019-10-11,69.58,69.58,67.65,67.95,69.34,1706595.0,116375060.0,3290585635.35,36343889004.2
sh688012,中微公司,2019-10-14,68.64,68.97,67.0,68.36,67.95,2151170.0,146959571.0,3310440530.28,36563182521.3
sh688012,中微公司,2019-10-15,68.23,68.76,66.68,66.73,68.36,1988198.0,134219899.0,3231505216.29,35691357075.0
sh688012,中微公司,2019-10-16,66.9,67.29,64.73,64.8,66.73,2181753.0,143481191.0,3138041930.4,34659072957.6
sh688012,中微公司,2019-10-17,64.74,65.15,63.47,63.69,64.8,1730317.0,110874031.0,3084288434.37,34065375874.5
sh688012,中微公司,2019-10-18,64.0,65.74,63.8,64.15,63.69,2104100.0,136530350.0,3106564657.95,34311412503.5
sh688012,中微公司,2019-10-21,63.6,63.99,60.08,61.46,64.15,2415364.0,149199242.0,2976297176.58,32872633086.0
sh688012,中微公司,2019-10-22,61.0,62.62,61.0,62.03,61.46,1163414.0,71998959.0,3003900323.19,33177504561.1
sh688012,中微公司,2019-10-23,62.03,66.28,61.51,65.23,62.03,3042153.0,195589514.0,3158865356.79,34889063719.5
sh688012,中微公司,2019-10-24,64.5,65.68,63.6,63.77,65.23,2127019.0,137565382.0,3088162560.21,34108164853.5
sh688012,中微公司,2019-10-25,63.38,63.94,61.77,62.44,63.77,1416205.0,88773588.0,3023755218.12,33396798078.3
sh688012,中微公司,2019-10-28,63.2,66.47,63.2,65.84,62.44,2896490.0,188916349.0,3188405566.32,35215329684.1
sh688012,中微公司,2019-10-29,67.82,67.9,64.83,64.83,65.84,2873710.0,190794073.0,3139494727.59,34675118824.7
sh688012,中微公司,2019-10-30,64.0,68.45,63.5,66.0,64.83,3876265.0,259054449.0,3196153818.0,35300907642.0
sh688012,中微公司,2019-10-31,66.39,68.65,65.6,67.6,66.0,3980463.0,269175983.0,3273636334.8,36156687221.2
sh688012,中微公司,2019-11-01,66.96,72.66,66.67,70.09,67.6,5294600.0,370606560.0,3394218501.57,37488494191.3
sh688012,中微公司,2019-11-04,71.0,72.58,69.8,70.79,70.09,3872555.0,275503373.0,3428117102.67,37862897757.2
sh688012,中微公司,2019-11-05,70.11,71.39,68.83,69.47,70.79,3318874.0,231914670.0,3364194026.31,37156879604.4
sh688012,中微公司,2019-11-06,69.05,70.7,66.36,66.76,69.47,3166810.0,217462568.0,3232958013.48,35707402942.1
sh688012,中微公司,2019-11-07,66.77,70.14,66.47,69.6,66.76,3648855.0,249796587.0,3370489480.8,37226411695.2
sh688012,中微公司,2019-11-08,69.33,72.56,68.86,68.88,69.6,4240114.0,299964982.0,3335622348.24,36841310884.6
sh688012,中微公司,2019-11-11,67.83,68.21,65.4,65.5,68.88,3130360.0,209184113.0,3171940531.5,35033476523.5
sh688012,中微公司,2019-11-12,65.32,66.75,65.32,65.79,65.5,1770264.0,116855186.0,3185984237.67,35188586572.2
sh688012,中微公司,2019-11-13,65.82,70.5,65.79,69.59,65.79,4647475.0,319736751.0,3370005215.07,37221063072.8
sh688012,中微公司,2019-11-14,69.31,71.39,68.8,70.25,69.59,4269880.0,299610734.0,3401966753.25,37574072149.2
sh688012,中微公司,2019-11-15,69.56,72.85,69.56,70.4,70.25,4503539.0,322700742.0,3409230739.2,37654301484.8
sh688012,中微公司,2019-11-18,70.2,71.69,69.18,69.98,70.4,2115543.0,148241775.0,3388891578.54,37429659345.3
sh688012,中微公司,2019-11-19,70.7,72.49,70.32,72.45,69.98,3449643.0,247395300.0,3508505213.85,38750769070.7
sh688012,中微公司,2019-11-20,72.9,73.5,71.2,71.8,72.45,3100652.0,224095748.0,3477027941.4,38403108616.6
sh688012,中微公司,2019-11-21,71.55,73.28,70.58,70.78,71.8,2461175.0,176755082.0,3427632836.94,37857549134.9
sh688012,中微公司,2019-11-22,70.67,72.1,67.48,68.57,70.78,3370180.0,234189500.0,3320610110.61,36675503591.1
sh688012,中微公司,2019-11-25,68.22,68.45,64.5,65.15,68.57,3078744.0,202841909.0,3154991230.95,34846274740.6
sh688012,中微公司,2019-11-26,65.35,65.99,64.71,65.06,65.15,1234847.0,80607107.0,3150632839.38,34798137139.2
sh688012,中微公司,2019-11-27,65.14,67.5,64.77,66.66,65.06,2302521.0,153153898.0,3228115356.18,35653916718.4
sh688012,中微公司,2019-11-28,66.55,67.88,66.55,67.37,66.66,1853424.0,124676015.0,3262498223.01,36033668906.7
sh688012,中微公司,2019-11-29,67.02,67.84,66.31,66.81,67.37,1205793.0,80749249.0,3235379342.13,35734146054.0
sh688012,中微公司,2019-12-02,67.0,68.15,66.56,66.9,66.81,1460986.0,98572925.0,3239737733.7,35782283655.3
sh688012,中微公司,2019-12-03,65.97,65.97,63.78,65.0,66.9,2340442.0,151406855.0,3147727245.0,34766045405.0
sh688012,中微公司,2019-12-04,64.55,73.08,64.55,70.48,65.0,6489169.0,452787076.0,3413104865.04,37697090463.8
sh688012,中微公司,2019-12-05,70.4,72.6,69.28,71.7,70.48,5191798.0,370005561.0,3472185284.1,38349622392.9
sh688012,中微公司,2019-12-06,71.99,76.28,71.63,74.8,71.7,5411987.0,403950363.0,3622307660.4,40007695327.6
sh688012,中微公司,2019-12-09,76.8,79.84,76.12,78.4,74.8,6103986.0,479371006.0,3796643323.2,41933199380.8
sh688012,中微公司,2019-12-10,78.5,82.51,77.05,79.45,78.4,6694290.0,533774034.0,3847491224.85,42494804729.7
sh688012,中微公司,2019-12-11,78.51,80.5,77.42,78.04,79.45,4522823.0,355911348.0,3779209756.92,41740648975.5
sh688012,中微公司,2019-12-12,78.08,84.15,78.08,82.61,78.04,6685733.0,550215709.0,4000519195.53,44184969398.6
sh688012,中微公司,2019-12-13,82.57,83.27,80.5,83.0,82.61,4341149.0,354621065.0,4019405559.0,44393565671.0
sh688012,中微公司,2019-12-16,83.99,83.99,81.58,83.3,83.0,3295236.0,273146280.0,4033933530.9,44554024342.1
sh688012,中微公司,2019-12-17,83.27,85.6,82.2,83.32,83.3,3214298.0,269078072.0,4034902062.36,44564721586.8
sh688012,中微公司,2019-12-18,83.0,85.8,83.0,84.16,83.32,3777316.0,319216246.0,4075580383.68,45014005865.9
sh688012,中微公司,2019-12-19,83.78,84.46,79.7,79.9,84.16,4172487.0,339155405.0,3869283182.7,42735492736.3
sh688012,中微公司,2019-12-20,79.02,80.7,79.02,79.02,79.9,2436785.0,194509737.0,3826667798.46,42264813967.7
sh688012,中微公司,2019-12-23,77.0,78.48,74.88,75.41,79.02,3542790.0,271591243.0,3651847869.93,40333961292.2
sh688012,中微公司,2019-12-24,76.03,79.36,76.03,79.1,75.41,2727349.0,213759778.0,3830541924.3,42307602946.7
sh688012,中微公司,2019-12-25,79.21,89.11,79.21,89.0,79.1,7239213.0,618789940.0,4309964997.0,47602739093.0
sh688012,中微公司,2019-12-26,88.3,96.18,87.51,91.4,89.0,7135441.0,659014618.0,4426188772.2,48886408461.8
sh688012,中微公司,2019-12-27,91.1,95.5,91.1,95.0,91.4,5336789.0,499750345.0,4600524435.0,50811912515.0
sh688012,中微公司,2019-12-30,94.06,96.88,91.88,93.31,95.0,3464651.0,326047627.0,4518683526.63,49907995334.5
sh688012,中微公司,2019-12-31,93.44,94.95,91.51,92.4,93.31,2275529.0,211602095.0,4474615345.2,49421270698.8
sh688012,中微公司,2020-01-02,92.62,103.98,92.62,103.85,92.4,4990693.0,489074818.0,5029099606.05,55545443312.4
sh688012,中微公司,2020-01-03,105.0,109.68,102.28,103.96,103.85,5024064.0,532436019.0,5034426529.08,55604278158.5
sh688012,中微公司,2020-01-06,102.4,107.31,100.33,103.06,103.96,3311728.0,343776121.0,4990842613.38,55122902145.2
sh688012,中微公司,2020-01-07,104.52,107.8,102.5,107.0,103.06,3727416.0,393301590.0,5181643311.0,57230259359.0
sh688012,中微公司,2020-01-08,105.8,119.05,104.05,117.97,107.0,5064967.0,563926781.0,5712882816.81,63097698098.9
sh688012,中微公司,2020-01-09,117.0,121.87,115.03,118.08,117.97,3868587.0,456426450.0,5718209739.84,63156532945.0
sh688012,中微公司,2020-01-10,118.5,125.02,114.06,115.5,118.08,4848000.0,583585841.0,5593269181.5,61776588373.5
sh688012,中微公司,2020-01-13,113.9,138.5,113.0,134.0,115.5,6393744.0,791615931.0,6489160782.0,71671539758.0
sh688012,中微公司,2020-01-14,131.89,148.88,130.11,135.01,134.0,7502352.0,1029115766.0,6538071620.73,72211750617.4
sh688012,中微公司,2020-01-15,135.09,147.82,132.5,147.0,135.01,5944521.0,830668951.0,7118706231.0,78624748839.0
sh688012,中微公司,2020-01-16,147.0,172.66,145.06,171.01,147.0,7353894.0,1181850943.0,8281428248.73,91466791149.4
sh688012,中微公司,2020-01-17,167.87,198.0,160.19,196.01,171.01,9108618.0,1608356060.0,9492092573.73,104838347074.0
sh688012,中微公司,2020-01-20,188.0,195.2,175.6,177.61,196.01,8799789.0,1626728190.0,8601043630.53,94996881913.6
sh688012,中微公司,2020-01-21,178.41,184.79,168.0,170.55,177.61,7142737.0,1261914588.0,8259152025.15,91220754520.4
sh688012,中微公司,2020-01-22,167.75,200.96,165.13,200.9,170.55,10533096.0,1911814521.0,10329870574.8,107453823413.0
sh688012,中微公司,2020-01-23,190.5,199.47,168.66,183.38,200.9,8784483.0,1645309982.0,9429027705.36,98083037021.1
sh688012,中微公司,2020-02-03,155.0,168.78,147.77,150.3,183.38,8001014.0,1258564271.0,7728121191.6,80389794221.1
sh688012,中微公司,2020-02-04,159.98,179.48,156.65,177.66,150.3,8259352.0,1392653657.0,9134916905.52,95023625025.4
sh688012,中微公司,2020-02-05,180.0,198.5,172.03,179.21,177.66,9057068.0,1687910781.0,9214614762.12,95852661492.8
sh688012,中微公司,2020-02-06,175.18,187.38,173.23,183.0,179.21,6053599.0,1095992295.0,9409488876.0,97879789371.0
sh688012,中微公司,2020-02-07,179.54,200.0,174.76,195.66,183.0,8193297.0,1544073865.0,10060440401.5,104651145291.0
sh688012,中微公司,2020-02-10,192.2,209.98,188.18,193.11,195.66,6726400.0,1327279554.0,9929324572.92,103287246587.0
sh688012,中微公司,2020-02-11,193.02,209.88,193.02,204.0,193.11,7039307.0,1420875801.0,10489266288.0,109111896348.0
sh688012,中微公司,2020-02-12,202.03,214.99,193.08,205.6,204.0,6809966.0,1386317827.0,10571535043.2,109967675927.0
sh688012,中微公司,2020-02-13,210.0,233.77,203.85,216.0,205.6,7237109.0,1579399741.0,11106281952.0,115530243192.0
sh688012,中微公司,2020-02-14,216.0,223.98,192.88,205.1,216.0,7793969.0,1633434466.0,10545826057.2,109700244809.0
sh688012,中微公司,2020-02-17,205.0,209.36,199.0,205.48,205.1,4505530.0,918171673.0,10565364886.6,109903492459.0
sh688012,中微公司,2020-02-18,205.6,218.75,204.2,210.0,205.48,5273745.0,1116922726.0,10797774120.0,112321069770.0
sh688012,中微公司,2020-02-19,208.44,215.05,199.88,203.07,210.0,5627401.0,1156530592.0,10441447574.0,108614474468.0
sh688012,中微公司,2020-02-20,202.88,204.98,186.01,192.4,203.07,7626796.0,1475554180.0,9892817812.8,102907494399.0
sh688012,中微公司,2020-02-21,191.0,200.1,190.3,192.99,192.4,4755783.0,928465157.0,9923154416.28,103223063119.0
sh688012,中微公司,2020-02-24,189.0,199.99,185.08,197.33,192.99,5448285.0,1053683982.0,10146308414.8,105544365227.0
sh688012,中微公司,2020-02-25,190.11,217.58,189.16,216.25,197.33,8639828.0,1788155892.0,11119136445.0,115663958751.0
sh688012,中微公司,2020-02-26,208.99,217.0,193.0,195.0,216.25,6616353.0,1350870882.0,10026504540.0,104298136215.0
sh688012,中微公司,2020-02-27,197.0,200.97,176.75,180.21,195.0,6619311.0,1236834032.0,9266032734.12,96387523729.8
sh688012,中微公司,2020-02-28,165.94,173.0,160.0,161.6,180.21,6889882.0,1138770088.0,8309144275.2,86433737499.2
sh688012,中微公司,2020-03-02,165.98,169.0,157.88,160.0,161.6,6028486.0,985108797.0,8226875520.0,85577957920.0
sh688012,中微公司,2020-03-03,165.0,172.9,162.0,165.89,160.0,6116113.0,1026402711.0,8529727375.08,88728296495.9
sh688012,中微公司,2020-03-04,161.41,164.5,148.28,154.3,165.89,6838005.0,1064560768.0,7933793079.6,82529243169.1
sh688012,中微公司,2020-03-05,158.5,160.88,151.55,158.31,154.3,5033106.0,786911877.0,8139979147.32,84674040739.5
sh688012,中微公司,2020-03-06,155.0,157.87,151.6,152.73,158.31,2963199.0,456949693.0,7853066863.56,81689509457.0
sh688012,中微公司,2020-03-09,148.0,149.99,139.0,140.12,152.73,4537348.0,657676702.0,7204686236.64,74944896648.4
sh688012,中微公司,2020-03-10,137.0,156.6,137.0,156.6,140.12,8231351.0,1230778453.0,8052054415.2,83759426314.2
sh688012,中微公司,2020-03-11,157.3,158.0,147.4,149.45,156.6,4954086.0,754238742.0,7684415915.4,79935161319.6
sh688012,中微公司,2020-03-12,144.98,154.55,142.22,151.35,149.45,4068335.0,610572965.0,7782110062.2,80951399569.9
sh688012,中微公司,2020-03-13,145.0,172.28,143.56,165.93,151.35,9868236.0,1596609663.0,8531784093.96,88749690985.4
sh688012,中微公司,2020-03-16,168.6,178.09,161.84,168.0,165.93,8353991.0,1423544459.0,8638219296.0,89856855816.0
sh688012,中微公司,2020-03-17,173.32,177.95,161.99,174.24,168.0,7470821.0,1279858888.0,8959067441.28,93194396174.9
sh688012,中微公司,2020-03-18,177.73,179.77,163.0,163.03,174.24,6650414.0,1144312072.0,8382671975.16,87198590498.1
sh688012,中微公司,2020-03-19,162.5,167.5,154.81,165.3,163.03,5741775.0,926137272.0,8499390771.6,88412727776.1
sh688012,中微公司,2020-03-20,166.18,169.28,159.22,160.57,165.3,3446314.0,564751134.0,8256183764.04,85882829395.1
sh688012,中微公司,2020-03-23,154.0,155.0,134.22,138.18,160.57,6538852.0,944600698.0,7104935370.96,73907263908.7
sh688012,中微公司,2020-03-24,143.05,144.44,127.36,142.0,138.18,6060965.0,829109742.0,7301352024.0,75950437654.0
sh688012,中微公司,2020-03-25,148.0,151.89,143.53,144.8,142.0,4844777.0,716320556.0,7445322345.6,77448051917.6
sh688012,中微公司,2020-03-26,143.0,146.75,139.41,140.03,144.8,3517229.0,499138423.0,7200058619.16,74896759047.1
sh688012,中微公司,2020-03-27,141.5,145.16,138.88,140.42,140.03,2536122.0,358507513.0,7220111628.24,75105355319.5
sh688012,中微公司,2020-03-30,135.2,140.0,130.88,136.81,140.42,3408296.0,459297204.0,7034492749.32,73174502644.0
sh688012,中微公司,2020-03-31,139.46,143.66,136.85,137.8,136.81,2786353.0,390627338.0,7085396541.6,73704016258.6
sh688012,中微公司,2020-04-01,134.29,143.3,134.29,139.0,137.8,3188401.0,448181934.0,7147098108.0,74345850943.0
sh688012,中微公司,2020-04-02,138.5,152.99,138.45,151.2,139.0,5541424.0,806271859.0,7774397366.4,80871170234.4
sh688012,中微公司,2020-04-03,149.0,150.42,145.18,146.5,151.2,3431078.0,507380073.0,7532732898.0,78357317720.5
sh688012,中微公司,2020-04-07,153.0,155.0,148.88,149.63,146.5,2858196.0,433080730.0,7693671150.36,80031436522.3
sh688012,中微公司,2020-04-08,147.01,151.98,147.01,148.8,149.63,1868641.0,278772810.0,7650994233.6,79587500865.6
sh688012,中微公司,2020-04-09,149.6,150.23,144.5,145.75,148.8,1840691.0,269699296.0,7494169419.0,77956171042.8
sh688012,中微公司,2020-04-10,145.75,146.5,136.0,137.38,145.75,2663917.0,372201257.0,7063800993.36,73479374119.1
sh688012,中微公司,2020-04-13,135.01,142.44,135.01,137.2,137.38,2000389.0,277330249.0,7054545758.4,73383098916.4
sh688012,中微公司,2020-04-14,139.99,142.32,138.5,141.6,137.2,2341463.0,329771124.0,7280784835.2,75736492759.2
sh688012,中微公司,2020-04-15,142.43,152.89,141.2,150.86,141.6,5134701.0,766766133.0,7756915255.92,80689317073.8
sh688012,中微公司,2020-04-16,148.0,153.72,148.0,152.86,150.86,2801216.0,425923460.0,7859751199.92,81759041547.8
sh688012,中微公司,2020-04-17,158.88,168.45,155.3,161.0,152.86,5942851.0,966371440.0,8278293492.0,86112820157.0
sh688012,中微公司,2020-04-20,160.02,165.6,159.69,161.13,161.0,3159006.0,512729186.0,8284977828.36,86182352247.8
sh688012,中微公司,2020-04-21,160.7,160.7,151.7,154.0,161.13,3401567.0,525774889.0,7918367688.0,82368784498.0
sh688012,中微公司,2020-04-22,150.9,159.69,150.6,159.69,154.0,3443826.0,540910513.0,8210935948.68,85412150626.5
sh688012,中微公司,2020-04-23,160.07,161.68,155.02,155.96,159.69,2390001.0,376596320.0,8019146913.12,83417114482.5
sh688012,中微公司,2020-04-24,155.6,158.96,153.24,156.07,155.96,2173019.0,338890200.0,8024802890.04,83475949328.6
sh688012,中微公司,2020-04-27,157.66,158.6,153.43,156.07,156.07,1702906.0,266927115.0,8024802890.04,83475949328.6
sh688012,中微公司,2020-04-28,156.07,162.62,130.07,159.11,156.07,5091515.0,787295981.0,8181113524.92,85101930529.1
sh688012,中微公司,2020-04-29,155.79,158.65,150.0,151.0,159.11,2542058.0,394102922.0,7764113772.0,80764197787.0
sh688012,中微公司,2020-04-30,152.8,172.88,152.8,168.06,151.0,4936531.0,808374028.0,8641304374.32,89888947550.2
sh688012,中微公司,2020-05-06,170.15,196.41,170.0,190.9,168.06,6443685.0,1184048985.0,9815690854.8,102105201043.0
sh688012,中微公司,2020-05-07,190.8,192.6,182.4,183.49,190.9,3997142.0,743082286.0,9434683682.28,98141871867.1
sh688012,中微公司,2020-05-08,186.0,199.45,184.0,188.8,183.49,3950200.0,756356745.0,9707713113.6,100981990346.0
sh688012,中微公司,2020-05-11,191.86,196.55,183.5,186.28,188.8,3115550.0,589309360.0,9578139824.16,99634137508.4
sh688012,中微公司,2020-05-12,184.45,187.36,176.66,184.88,186.28,3014114.0,546890304.0,9506154663.36,98885330376.6
sh688012,中微公司,2020-05-13,191.84,199.5,189.9,191.2,184.88,4569608.0,888759365.0,9831116246.4,102265659714.0
sh688012,中微公司,2020-05-14,192.0,198.7,190.0,194.88,191.2,3403326.0,663253992.0,10020334383.4,104233952747.0
sh688012,中微公司,2020-05-15,196.0,213.99,192.5,210.15,194.88,5441366.0,1113960524.0,10805486815.8,112401299106.0
sh688012,中微公司,2020-05-18,221.0,225.0,200.08,211.7,210.15,7126301.0,1521242462.0,10885184672.4,113230335573.0
sh688012,中微公司,2020-05-19,211.0,254.04,208.0,249.18,211.7,7986044.0,1847292610.0,12812330263.0,133276972216.0
sh688012,中微公司,2020-05-20,242.0,248.0,230.0,235.81,249.18,6214714.0,1482776480.0,12124871977.3,126125864107.0
sh688012,中微公司,2020-05-21,235.1,245.0,219.14,225.8,235.81,5899651.0,1368359053.0,11610178077.6,120771893115.0
sh688012,中微公司,2020-05-22,222.4,230.2,208.1,225.34,225.8,5658190.0,1239787651.0,11586525810.5,120525856486.0
sh688012,中微公司,2020-05-25,221.0,229.89,212.5,218.05,225.34,4080566.0,900919717.0,11211688794.6,116626710778.0
sh688012,中微公司,2020-05-26,221.38,236.97,221.38,234.51,218.05,5453270.0,1261423382.0,12058028613.7,125430543199.0
sh688012,中微公司,2020-05-27,230.03,241.58,230.03,231.79,234.51,3813185.0,898365998.0,11918171729.9,123975717914.0
sh688012,中微公司,2020-05-28,230.08,232.5,211.17,218.01,231.79,4857504.0,1063432690.0,11209632075.7,116605316288.0
sh688012,中微公司,2020-05-29,216.06,228.0,213.0,217.11,218.01,3189431.0,703768551.0,11163355900.9,116123940275.0
sh688012,中微公司,2020-06-01,219.2,232.0,219.2,226.6,217.11,3676729.0,837416550.0,11651312455.2,121199782904.0
sh688012,中微公司,2020-06-02,231.7,233.84,223.5,228.81,226.6,3332888.0,764236706.0,11764946173.3,122381828448.0
sh688012,中微公司,2020-06-03,228.69,230.81,216.52,220.6,228.81,4321743.0,964670183.0,11342804623.2,117990609482.0
sh688012,中微公司,2020-06-04,219.78,222.8,210.0,210.0,220.6,4207033.0,902116932.0,10797774120.0,112321069770.0
sh688012,中微公司,2020-06-05,209.57,216.78,209.57,213.3,210.0,2632698.0,563434313.0,10967453427.6,114086115152.0
sh688012,中微公司,2020-06-08,217.87,218.0,210.31,212.38,213.3,2153230.0,460811334.0,10920148893.4,113594041894.0
sh688012,中微公司,2020-06-09,212.96,213.4,206.22,209.47,212.38,2528791.0,531261348.0,10770522594.8,112037592784.0
sh688012,中微公司,2020-06-10,208.6,211.28,201.5,202.9,209.47,2825212.0,578241808.0,10432706518.8,108523547887.0
sh688012,中微公司,2020-06-11,204.0,215.5,204.0,208.12,202.9,3636086.0,763788594.0,10701108332.6,111315528764.0
sh688012,中微公司,2020-06-12,202.38,209.97,198.8,205.81,208.12,2330172.0,476537405.0,10582332817.3,110079996997.0
sh688012,中微公司,2020-06-15,203.0,203.0,193.0,195.59,205.81,3233223.0,641955920.0,10056841143.48,104613704934.83
sh688012,中微公司,2020-06-16,198.8,202.86,196.3,198.61,195.59,2260324.0,451025368.0,10212123418.92,106228988890.57
sh688012,中微公司,2020-06-17,198.0,200.57,191.66,195.22,198.61,2031588.0,396205512.0,10037816493.84,104415805907.14
sh688012,中微公司,2020-06-18,196.75,208.8,195.0,206.28,195.22,3734984.0,761761703.0,10606499264.159998,110331382248.36
sh688012,中微公司,2020-06-19,204.51,213.09,201.21,212.91,206.28,3770682.0,786027421.0,10947400418.52,113877518879.67
sh688012,中微公司,2020-06-22,216.0,235.0,216.0,231.93,212.91,5155616.0,1183339113.0,11925370245.96,124050598627.41
sh688012,中微公司,2020-06-23,229.91,235.48,224.02,232.6,231.93,3307304.0,759409178.0,11959820287.2,124408956326.2
sh688012,中微公司,2020-06-24,232.32,240.85,228.56,232.0,232.6,3429920.0,804233866.0,11928969504.0,124088038984.0
sh688012,中微公司,2020-06-29,227.6,227.89,217.67,218.5,232.0,3222824.0,713842941.0,11234826882.0,116867398784.5
sh688012,中微公司,2020-06-30,222.42,226.1,217.61,219.31,218.5,2617140.0,579937435.0,11276475439.32,117300637196.47
sh688012,中微公司,2020-07-01,219.35,227.98,217.0,226.71,219.31,3758378.0,842554422.0,11656968432.12,121258617750.27
sh688012,中微公司,2020-07-02,226.0,231.48,221.28,227.99,226.71,3083877.0,697545827.0,11722783436.28,121943241413.63
sh688012,中微公司,2020-07-03,229.0,230.0,216.6,227.8,227.99,3257752.0,730303501.0,11713014021.6,121841617588.6
sh688012,中微公司,2020-07-06,235.05,270.78,235.05,266.08,227.8,5429266.0,1381788952.0,13681293989.76,142316144020.96
sh688012,中微公司,2020-07-07,273.27,297.7,258.0,258.5,266.08,6604339.0,1828450649.0,13291545762.0,138261888264.5
sh688012,中微公司,2020-07-08,256.0,268.37,255.61,260.0,258.5,4390694.0,1148489243.0,13368672720.000002,139064181620.0
sh688012,中微公司,2020-07-09,260.55,266.21,257.0,264.89,260.0,4629429.0,1211253386.0,13620106603.08,141679657958.93
sh688012,中微公司,2020-07-10,260.9,274.77,257.37,269.18,264.89,4983042.0,1321212804.0,13840689702.96,143974216955.66
sh688012,中微公司,2020-07-13,267.85,271.6,260.93,271.4,269.18,5063942.0,1345195837.0,13954837600.8,145161611121.8
sh688012,中微公司,2020-07-14,268.4,298.0,258.0,285.1,271.4,5697789.0,1550307710.0,14659263817.2,152489223768.7
sh688012,中微公司,2020-07-15,288.0,288.99,264.0,268.0,285.1,4351286.0,1207511214.0,13780016495.999998,143343079516.0
sh688012,中微公司,2020-07-16,260.25,260.34,220.0,230.0,268.0,5324867.0,1272751627.0,11826133560.0,123018314510.0
sh688012,中微公司,2020-07-17,225.2,233.33,212.1,213.79,230.0,3244205.0,718220104.0,10992648233.88,114348197648.23
sh688012,中微公司,2020-07-20,212.5,216.4,190.27,210.08,213.79,4386991.0,886563486.0,10801887557.76,112363858748.96
sh688012,中微公司,2020-07-21,207.16,232.68,207.1,217.0,210.08,4100909.0,914385222.0,11157699924.000002,116065105429.0
sh688012,中微公司,2020-07-22,212.0,227.5,207.5,209.55,217.0,7079390.0,1532135413.0,51424101209.25,112080381763.35
sh688012,中微公司,2020-07-23,209.8,214.55,196.81,205.23,209.55,4822386.0,985070630.0,50363962258.05,109769776899.51
sh688012,中微公司,2020-07-24,196.0,209.0,195.0,199.97,205.23,5405694.0,1092830083.0,49073144923.95,106956401532.89
sh688012,中微公司,2020-07-27,202.0,203.88,185.0,190.45,199.97,6812453.0,1299129225.0,46736912790.75001,101864513036.65
sh688012,中微公司,2020-07-28,193.1,194.44,184.0,188.0,190.45,4251894.0,799056725.0,46135676580.0,100554100556.0
sh688012,中微公司,2020-07-29,188.0,203.0,187.01,200.18,188.0,8208092.0,1627001799.0,49124679456.3,107068722602.66
sh688012,中微公司,2020-07-30,204.0,215.88,204.0,208.14,200.18,6165099.0,1290148934.0,51078083634.9,111326226009.18
sh688012,中微公司,2020-07-31,207.26,221.7,207.26,220.39,208.14,8939994.0,1939049093.0,54084264688.65,117878288412.43
sh688012,中微公司,2020-08-03,230.45,256.8,230.45,249.49,220.39,8124279.0,2017675405.0,61225478457.15,133442779509.13
sh688012,中微公司,2020-08-04,249.0,249.0,225.88,228.77,249.49,8038944.0,1898079018.0,56140737931.95,122360433958.49
sh688012,中微公司,2020-08-05,242.0,243.0,222.99,226.2,228.77,7003187.0,1620696202.0,55510053417.0,120985838009.4
sh688012,中微公司,2020-08-06,223.0,227.6,216.0,220.0,226.2,4907340.0,1083079590.0,53988557699.99999,117669692140.0
sh688012,中微公司,2020-08-07,220.0,222.97,204.8,208.21,220.0,5960668.0,1255738011.0,51095261812.35,111363666365.77
sh688012,中微公司,2020-08-10,206.0,226.78,205.36,220.99,208.21,6432501.0,1382155002.0,54231506209.65,118199205754.63
sh688012,中微公司,2020-08-11,220.0,223.87,211.6,211.91,220.99,4776991.0,1040200178.0,52003251191.85,113342656642.67
sh688012,中微公司,2020-08-12,209.0,216.0,200.05,214.99,211.91,5682236.0,1182022608.0,52759090999.65,114990032332.63
sh688012,中微公司,2020-08-13,214.56,216.5,208.35,210.65,214.99,3788648.0,805118685.0,51694043997.75,112668730224.05
sh688012,中微公司,2020-08-14,209.56,214.48,203.55,207.1,210.65,2936886.0,611967489.0,50822864998.5,110769969282.7
sh688012,中微公司,2020-08-17,209.92,209.92,204.02,207.7,207.1,2994225.0,619491401.0,50970106519.5,111090886624.9
sh688012,中微公司,2020-08-18,207.11,212.0,204.27,210.86,207.7,4267580.0,889286372.0,51745578530.1,112781051293.82
sh688012,中微公司,2020-08-19,209.52,211.5,200.0,200.0,210.86,3733974.0,760729950.0,49080507000.0,106972447400.0
sh688012,中微公司,2020-08-20,198.0,207.08,195.0,201.0,200.0,2444516.0,497539693.0,49325909535.0,107507309637.0
sh688012,中微公司,2020-08-21,203.81,205.0,196.0,197.68,201.0,2254665.0,450926968.0,48511173118.8,105731567010.16
sh688012,中微公司,2020-08-24,197.68,199.48,191.11,193.93,197.68,3105084.0,603046141.0,47590913612.55,103725833621.41
sh688012,中微公司,2020-08-25,195.06,199.44,190.23,190.49,193.93,2250302.0,435741608.0,46746728892.15,101885907526.13
sh688012,中微公司,2020-08-26,190.88,191.41,175.8,175.8,190.49,4667187.0,852796157.0,43141765653.0,94028781264.6
sh688012,中微公司,2020-08-27,177.7,193.27,176.25,190.0,175.8,5816871.0,1083584340.0,46626481650.0,101623825030.0
sh688012,中微公司,2020-08-28,188.0,189.87,184.88,187.06,190.0,2622847.0,488845451.0,45904998197.100006,100051330053.22
sh688012,中微公司,2020-08-31,188.03,196.78,183.82,185.58,187.06,4023533.0,766670501.0,45541802445.3,99259733942.46
sh688012,中微公司,2020-09-01,185.0,186.91,181.21,183.99,185.58,2370306.0,437639845.0,45151612414.65,98409302985.63
sh688012,中微公司,2020-09-02,185.56,186.88,179.3,180.3,183.99,2888095.0,525927817.0,44246077060.5,96435661331.1
sh688012,中微公司,2020-09-03,180.0,182.78,177.0,178.29,180.3,3724981.0,666905579.0,43752817965.15,95360588234.73
sh688012,中微公司,2020-09-04,176.3,187.5,176.05,185.39,178.29,6492539.0,1197747527.0,45495175963.65,99158110117.43
sh688012,中微公司,2020-09-07,185.5,185.5,164.0,165.0,185.39,8757828.0,1501070677.0,40491418275.0,88252269105.0
sh688012,中微公司,2020-09-08,163.8,166.8,159.66,161.76,165.0,3287289.0,532723998.0,39696314061.6,86519315457.12
sh688012,中微公司,2020-09-09,159.43,159.85,153.5,155.23,161.76,3460954.0,540842002.0,38093835508.05,83026665049.51001
sh688012,中微公司,2020-09-10,158.0,160.48,153.0,153.78,155.23,2598516.0,408848301.0,37738001832.3,82251114805.86
sh688012,中微公司,2020-09-11,155.6,158.2,153.13,158.05,153.78,2637124.0,412816523.0,38785870656.75,84534976557.85
sh688012,中微公司,2020-09-14,162.5,165.77,157.86,158.9,158.05,3608907.0,583136279.0,38994462811.5,84989609459.3
sh688012,中微公司,2020-09-15,159.68,174.0,156.01,170.26,158.9,5531349.0,926733912.0,41782235609.1,91065644471.62
sh688012,中微公司,2020-09-16,168.02,170.6,164.21,166.91,170.26,3316444.0,554008552.0,40960137116.85,89273855977.67
sh688012,中微公司,2020-09-17,167.5,175.76,164.51,172.6,166.91,4687870.0,805859985.0,42356477540.99999,92317222106.2
sh688012,中微公司,2020-09-18,172.98,176.88,171.0,175.73,172.6,3248186.0,564853935.0,43124587475.55,93991340908.01
sh688012,中微公司,2020-09-21,177.01,184.26,174.4,175.98,175.73,4024445.0,722503047.0,43185938109.3,94125056467.26
sh688012,中微公司,2020-09-22,174.5,178.56,173.08,174.3,175.98,2478930.0,435445241.0,42773661850.50001,93226487909.1
sh688012,中微公司,2020-09-23,175.5,180.0,174.1,176.04,174.3,2735866.0,484378492.0,43200662261.4,94157148201.48
sh688012,中微公司,2020-09-24,174.71,176.48,171.0,172.05,176.04,2500588.0,432775248.0,42221506146.75,92023047875.85
sh688012,中微公司,2020-09-25,173.72,173.8,162.88,165.8,172.05,2814801.0,473348050.0,40687740303.0,88680158894.59999
sh688012,中微公司,2020-09-28,164.85,164.97,157.26,163.19,165.8,2801050.0,452816779.0,40047239686.65,87284168456.03
sh688012,中微公司,2020-09-29,164.9,174.17,164.65,172.37,163.19,3832516.0,656337057.0,42300034957.950005,92194203791.69
sh688012,中微公司,2020-09-30,172.37,174.57,170.0,170.16,172.37,2413002.0,416381175.0,41757695355.6,91012158247.92
sh688012,中微公司,2020-10-09,175.0,176.99,168.88,170.64,170.16,3268173.0,561281582.0,41875488572.4,91268892121.68
sh688012,中微公司,2020-10-12,173.0,184.5,171.0,184.28,170.64,6193417.0,1106166907.0,45222779149.8,98564413034.36
sh688012,中微公司,2020-10-13,183.0,183.98,177.8,179.13,184.28,3391061.0,609193816.0,43958956094.55,95809872513.81
sh688012,中微公司,2020-10-14,179.13,179.13,171.4,172.87,179.13,3278864.0,569760251.0,42422736225.450005,92461634910.19
sh688012,中微公司,2020-10-15,172.0,176.6,170.0,170.52,172.87,2791024.0,481757723.0,41846040268.2,91204708653.24
sh688012,中微公司,2020-10-16,172.3,174.08,164.08,166.2,170.52,3276042.0,547747611.0,40785901317.0,88894103789.4
sh688012,中微公司,2020-10-19,167.4,168.6,164.0,164.69,166.2,2351263.0,390663401.0,40415343489.15,88086461811.53
sh688012,中微公司,2020-10-20,164.89,166.5,161.0,166.5,164.69,2376284.0,388529912.0,40859522077.5,89054562460.5
sh688012,中微公司,2020-10-21,166.3,166.3,159.6,160.4,166.5,2719082.0,438766422.0,39362566614.0,85791902814.79999
sh688012,中微公司,2020-10-22,159.79,161.68,156.12,156.2,160.4,2648081.0,419549285.0,38331875967.0,83545481419.4
sh688012,中微公司,2020-10-23,156.0,158.66,151.01,151.35,156.2,2864774.0,441366261.0,37141673672.25,80951399569.95
sh688012,中微公司,2020-10-26,151.0,152.6,147.54,150.0,151.35,2505313.0,375402164.0,36810380250.0,80229335550.0
sh688012,中微公司,2020-10-27,151.0,153.47,148.99,152.28,150.0,2982995.0,450921424.0,37369898029.8,81448821450.36
sh688012,中微公司,2020-10-28,152.5,158.12,149.36,157.08,152.28,3400566.0,522319914.0,38547830197.8,84016160187.96
sh688012,中微公司,2020-10-29,152.78,157.68,150.5,156.13,157.08,3688861.0,569296253.0,38314697789.55,83508041062.81
sh688012,中微公司,2020-10-30,156.13,167.79,154.65,161.98,156.13,7357305.0,1184515887.0,39750302619.3,86636985149.26
sh688012,中微公司,2020-11-02,162.11,164.33,152.02,155.43,161.98,5353458.0,837532711.0,38142916015.05,83133637496.91
sh688012,中微公司,2020-11-03,157.0,170.49,155.0,165.79,155.43,5833936.0,959579753.0,40685286277.65,88674810272.23
sh688012,中微公司,2020-11-04,168.2,170.42,162.5,163.2,165.79,3914513.0,652638540.0,40049693712.0,87289517078.4
sh688012,中微公司,2020-11-05,168.9,171.0,163.55,165.11,163.2,3746489.0,623079079.0,40518412553.85,88311103951.06999
sh688012,中微公司,2020-11-06,165.66,166.6,159.0,164.95,165.11,4734015.0,770586451.0,40479148148.25,88225525993.15001
sh688012,中微公司,2020-11-09,167.14,185.44,167.14,181.96,164.95,10314142.0,1842138215.0,44653445268.6,97323532644.52
sh688012,中微公司,2020-11-10,181.96,181.96,174.38,174.42,181.96,4902876.0,867575331.0,42803110154.7,93290671377.54
sh688012,中微公司,2020-11-11,174.88,175.66,156.56,159.0,174.42,7073897.0,1161038044.0,39019003065.0,85043095683.0
sh688012,中微公司,2020-11-12,160.88,161.45,155.5,157.0,159.0,3715202.0,587004376.0,38528197995.0,83973371209.0
sh688012,中微公司,2020-11-13,157.0,160.48,153.3,159.46,157.0,3413000.0,536706867.0,39131888231.100006,85289132312.02
sh688012,中微公司,2020-11-16,154.45,157.8,148.71,150.0,159.46,7028484.0,1061510249.0,36810380250.0,80229335550.0
sh688012,中微公司,2020-11-17,150.7,150.83,142.68,150.8,150.0,5570769.0,815634249.0,37006702278.0,80657225339.59999
sh688012,中微公司,2020-11-18,150.8,150.98,147.12,149.62,150.8,2602970.0,388963345.0,36717127286.700005,80026087899.94
sh688012,中微公司,2020-11-19,149.0,153.32,147.69,150.21,149.62,2493097.0,376473790.0,36861914782.35,80341656619.76999
sh688012,中微公司,2020-11-20,150.21,151.62,147.92,148.79,150.21,1925100.0,286914966.0,36513443182.65,79582152243.23
sh688012,中微公司,2020-11-23,148.79,148.79,143.5,146.2,148.79,3733091.0,543023035.0,35877850617.0,78196859049.4
sh688012,中微公司,2020-11-24,145.07,147.8,145.01,146.09,146.2,2451688.0,358602629.0,35850856338.15,78138024203.33
sh688012,中微公司,2020-11-25,146.7,148.48,143.8,143.81,146.09,2770994.0,403484796.0,35291338558.35,76918538302.97
sh688012,中微公司,2020-11-26,143.55,145.0,140.04,140.6,143.81,2740014.0,388089235.0,34503596421.0,75201630522.2
sh688012,中微公司,2020-11-27,141.0,146.38,141.0,143.24,140.6,2957588.0,423595932.0,35151459113.4,76613666827.88
sh688012,中微公司,2020-11-30,145.3,152.32,145.01,148.41,143.24,5456137.0,812060480.0,36420190219.35,79378904593.17
sh688012,中微公司,2020-12-01,148.2,151.36,147.05,150.3,148.41,3196251.0,477074428.0,36884001010.5,80389794221.09999
sh688012,中微公司,2020-12-02,150.01,155.88,150.01,152.79,150.3,4156718.0,638824196.0,37495053322.65,81721601191.23
sh688012,中微公司,2020-12-03,152.99,154.5,150.57,151.02,152.79,2388114.0,362983142.0,37060690835.7,80774895031.74
sh688012,中微公司,2020-12-04,150.0,151.8,146.7,148.3,151.02,3314569.0,493197607.0,36393195940.5,79320069747.09999
sh688012,中微公司,2020-12-07,152.17,154.58,150.2,150.97,148.3,3169579.0,482652210.0,37048420708.95,80748151919.89
sh688012,中微公司,2020-12-08,150.6,153.58,149.0,151.9,150.97,2718653.0,412207106.0,37276645066.5,81245573800.3
sh688012,中微公司,2020-12-09,152.98,155.0,151.04,152.8,151.9,4349886.0,668526900.0,37497507348.0,81726949813.59999
sh688012,中微公司,2020-12-10,151.7,159.91,151.45,159.21,152.8,6849720.0,1080712719.0,39070537597.35,85155416752.77
sh688012,中微公司,2020-12-11,159.3,171.22,158.3,171.0,159.21,11194110.0,1884664408.0,41963833485.0,91461442526.99998
sh688012,中微公司,2020-12-14,169.5,170.3,164.12,165.45,171.0,7036495.0,1173725986.0,40601849415.75,88492957111.65
sh688012,中微公司,2020-12-15,166.0,166.88,156.77,158.8,165.45,5737294.0,926095091.0,38969922558.0,84936123235.59999
sh688012,中微公司,2020-12-16,158.8,158.8,155.2,155.99,158.8,2995521.0,468909147.0,38280341434.65,83433160349.62999
sh688012,中微公司,2020-12-17,155.21,157.21,152.33,155.15,155.99,2753118.0,426461019.0,38074203305.25,82983876070.55
sh688012,中微公司,2020-12-18,161.0,161.0,155.56,157.0,155.15,3044743.0,480663642.0,38528197995.0,83973371209.0
sh688012,中微公司,2020-12-21,156.0,172.28,153.49,165.5,157.0,6491460.0,1083141034.0,40614119542.5,88519700223.5
sh688012,中微公司,2020-12-22,164.9,167.9,156.25,156.68,165.5,4629794.0,741569706.0,38449669183.8,83802215293.16
sh688012,中微公司,2020-12-23,156.68,160.6,155.05,159.77,156.68,3879980.0,614258163.0,39207963016.95,85454939605.49
sh688012,中微公司,2020-12-24,160.23,162.94,156.77,157.77,159.77,2715022.0,432180652.0,38717157946.950005,84385215131.49
sh688012,中微公司,2020-12-25,155.11,156.85,145.4,146.85,157.77,5823175.0,866779501.0,36037362264.75,78544519503.45
sh688012,中微公司,2020-12-28,145.0,148.0,143.37,146.1,146.85,2629859.0,382196199.0,35853310363.5,78143372825.7
sh688012,中微公司,2020-12-29,146.3,150.5,146.3,147.83,146.1,2649809.0,394250718.0,36277856749.05,79068684495.71
sh688012,中微公司,2020-12-30,146.41,149.99,144.85,148.77,147.83,3062289.0,451868587.0,36508535131.950005,79571454998.49
sh688012,中微公司,2020-12-31,152.0,160.6,152.0,157.59,148.77,6677753.0,1048635374.0,38672985490.65,84288939928.83
sh688012,中微公司,2021-01-04,159.0,162.9,153.68,160.49,157.59,5198113.0,826510733.0,39384652842.15,85840040416.12999
sh688012,中微公司,2021-01-05,159.02,164.87,154.5,159.97,160.49,7159142.0,1133012341.0,39257043523.95,85561912052.89
sh688012,中微公司,2021-01-06,160.28,165.87,155.27,156.0,159.97,5521989.0,884325912.0,38282795460.0,83438508972.0
sh688012,中微公司,2021-01-07,155.0,155.9,147.01,149.2,156.0,5775389.0,866235119.0,36614058222.0,79801445760.4
sh688012,中微公司,2021-01-08,150.2,152.17,145.7,150.85,149.2,3562085.0,532119560.0,37018972404.75,80683968451.45
sh688012,中微公司,2021-01-11,150.36,159.0,150.0,157.94,150.85,5739717.0,896718859.0,38758876377.9,84476141711.78
sh688012,中微公司,2021-01-12,157.9,160.28,154.36,157.83,157.94,4398321.0,694080861.0,38731882099.05,84417306865.71
sh688012,中微公司,2021-01-13,157.8,171.8,157.0,167.8,157.83,10411764.0,1738870907.0,41178545373.0,89749883368.59999
sh688012,中微公司,2021-01-14,168.72,187.89,168.72,181.05,167.8,13695860.0,2462350972.0,44430128961.75,96836808008.85
sh688012,中微公司,2021-01-15,182.0,193.65,172.56,175.36,181.05,14989425.0,2753497127.0,43033788537.600006,93793441880.32
sh688012,中微公司,2021-01-18,174.32,188.44,172.72,183.0,175.36,11126234.0,2006546452.0,44908663905.0,97879789371.0
sh688012,中微公司,2021-01-19,184.0,184.0,173.0,174.0,183.0,7073436.0,1264124405.0,42700041090.0,93066029238.00002
sh688012,中微公司,2021-01-20,174.92,177.3,167.2,176.65,174.0,6652085.0,1140134299.0,43350357807.75,94483414166.05
sh688012,中微公司,2021-01-21,174.5,177.58,170.11,174.01,176.65,5348139.0,930154148.0,42702495115.35,93071377860.37
sh688012,中微公司,2021-01-22,173.99,175.25,163.9,168.5,174.01,5896762.0,989207395.0,41350327147.5,90124286934.5
sh688012,中微公司,2021-01-25,166.0,172.41,162.49,168.72,168.5,5081971.0,855241644.0,41404315705.2,90241956626.64
sh688012,中微公司,2021-01-26,167.92,174.79,166.5,172.2,168.72,4593498.0,786034355.0,42258316527.00001,92103277211.4
sh688012,中微公司,2021-01-27,172.82,173.41,164.5,165.51,172.2,4294081.0,718487600.0,40616573567.85,88525048845.87
sh688012,中微公司,2021-01-28,162.0,168.26,157.5,158.01,165.51,4217306.0,686015735.0,38776054555.35,84513582068.37001
sh688012,中微公司,2021-01-29,160.6,162.0,151.8,153.55,158.01,4451729.0,691111112.0,37681559249.25,82128096491.35
sh688012,中微公司,2021-02-01,152.0,160.5,152.0,157.04,153.55,3608709.0,565194081.0,38538014096.4,83994765698.48
sh688012,中微公司,2021-02-02,157.53,157.79,153.1,154.21,157.04,3224437.0,498855202.0,37843524922.35,82481105567.77
sh688012,中微公司,2021-02-03,154.5,154.5,145.9,146.96,154.21,6499121.0,966450993.0,36064356543.6,78603354349.52
sh688012,中微公司,2021-02-04,145.0,148.95,140.18,145.92,146.96,5745283.0,826799338.0,35809137907.2,78047097623.04
sh688012,中微公司,2021-02-05,146.01,147.47,135.2,135.8,145.92,6286341.0,878003540.0,33325664253.0,72634291784.6
sh688012,中微公司,2021-02-08,135.79,138.95,134.0,134.7,135.8,4087032.0,558738898.0,33055721464.5,72045943323.9
sh688012,中微公司,2021-02-09,136.0,139.49,133.58,138.12,134.7,3161158.0,434035292.0,33894998134.2,73875172174.44
sh688012,中微公司,2021-02-10,137.22,138.58,133.58,137.22,138.12,3805146.0,519524768.0,33674135852.7,73393796161.14
sh688012,中微公司,2021-02-18,140.14,144.26,139.2,140.8,137.22,5155992.0,730483372.0,34552676928.0,75308602969.6
sh688012,中微公司,2021-02-19,140.93,140.93,136.8,139.53,140.8,4863082.0,672613354.0,34241015708.55,74629327928.61
sh688012,中微公司,2021-02-22,140.73,145.0,140.73,140.9,139.53,5155178.0,734777255.0,34577217181.5,75362089193.3
sh688012,中微公司,2021-02-23,140.05,140.05,136.0,137.52,140.9,4409751.0,605278247.0,33747756613.2,73554254832.24
sh688012,中微公司,2021-02-24,137.01,140.53,136.16,137.5,137.52,5112792.0,705825762.0,33742848562.5,73543557587.5
sh688012,中微公司,2021-02-25,139.57,139.58,130.32,130.58,137.5,6657606.0,890456554.0,32044663020.3,69842310907.46
sh688012,中微公司,2021-02-26,127.5,129.44,124.66,124.75,130.58,5641495.0,712793885.0,30613966241.25,66724064065.75
sh688012,中微公司,2021-03-01,126.07,128.98,126.02,128.8,124.75,4311348.0,550774892.0,31607846508.0,68890256125.6
sh688012,中微公司,2021-03-02,132.0,133.25,126.51,128.8,128.8,5491258.0,709706159.0,31607846508.0,68890256125.6
sh688012,中微公司,2021-03-03,128.5,128.5,125.5,127.62,128.8,3335814.0,422810081.0,31318271516.7,68259118685.94
sh688012,中微公司,2021-03-04,128.55,130.02,121.3,121.31,127.62,6817819.0,848944458.0,29769781520.85,64884137970.47
sh688012,中微公司,2021-03-05,121.0,123.5,118.0,121.03,121.31,4210144.0,510640430.0,29701068811.050003,64734376544.11
sh688012,中微公司,2021-03-08,121.59,122.49,112.37,112.68,121.03,6142885.0,718797490.0,27651957643.8,60268276865.16
sh688012,中微公司,2021-03-09,112.0,113.89,104.7,104.95,112.68,5544371.0,599998946.0,25754996048.25,56133791773.15
sh688012,中微公司,2021-03-10,109.0,109.88,105.0,105.21,104.95,4271682.0,459365206.0,25818800707.35,56272855954.77
sh688012,中微公司,2021-03-11,106.57,113.5,102.6,111.83,105.21,6394649.0,698301563.0,27443365489.05,59813643963.71001
sh688012,中微公司,2021-03-12,111.0,111.0,105.77,106.34,111.83,4851489.0,520716032.0,26096105571.9,56877250282.58
sh688012,中微公司,2021-03-15,106.0,106.71,101.0,102.02,106.34,3930936.0,403561556.0,25035966620.7,54566645418.74
sh688012,中微公司,2021-03-16,103.0,103.77,99.89,102.63,102.02,3013114.0,307297169.0,25185662167.05,54892911383.31
sh688012,中微公司,2021-03-17,102.63,105.52,101.41,104.56,102.63,3369170.0,350556576.0,25659289059.6,55925195500.72
sh688012,中微公司,2021-03-18,104.8,105.4,103.11,104.47,104.56,2481891.0,258868618.0,25637202831.45,55877057899.39
sh688012,中微公司,2021-03-19,101.57,106.58,101.56,104.66,104.47,2802123.0,292691751.0,25683829313.1,55978681724.420006
sh688012,中微公司,2021-03-22,104.38,105.55,103.01,105.52,104.66,2114106.0,221600068.0,25894875493.2,56438663248.24
sh688012,中微公司,2021-03-23,106.0,110.57,105.61,105.99,105.52,4299226.0,463749989.0,26010214684.65,56690048499.63
sh688012,中微公司,2021-03-24,104.6,105.0,100.68,100.7,105.99,3688628.0,376736533.0,24712035274.5,53860627265.9
sh688012,中微公司,2021-03-25,98.61,102.47,98.18,98.71,100.7,3351823.0,336315106.0,24223684229.85,52796251414.27
sh688012,中微公司,2021-03-26,99.58,103.56,98.71,103.26,98.71,4979032.0,504119192.0,25340265764.1,55229874592.62
sh688012,中微公司,2021-03-29,103.52,106.5,102.81,104.0,103.26,3209232.0,335720389.0,25521863640.0,55625672648.0
sh688012,中微公司,2021-03-30,104.03,105.55,102.38,102.86,104.0,2777037.0,287745417.0,25242104750.1,55015929697.82001
sh688012,中微公司,2021-03-31,103.3,108.35,103.0,107.51,102.86,5414602.0,573935688.0,26383226537.85,57503039099.87
sh688012,中微公司,2021-04-01,108.0,119.0,107.2,114.9,107.51,8802216.0,1004073627.0,28196751271.5,61455671031.3
sh688012,中微公司,2021-04-02,112.0,120.83,112.0,118.88,114.9,10334806.0,1215914379.0,29173453360.8,63584422734.56
sh688012,中微公司,2021-04-06,118.59,119.68,115.8,118.35,118.88,4407488.0,519071966.0,29043390017.25,63300945748.950005
sh688012,中微公司,2021-04-07,118.91,126.26,116.73,124.55,118.35,7221398.0,887535686.0,30564885734.25,66617091618.35
sh688012,中微公司,2021-04-08,123.3,126.88,121.11,121.82,124.55,4520629.0,558061647.0,29894936813.7,65156917711.34
sh688012,中微公司,2021-04-09,121.88,123.9,118.6,119.0,121.82,3890519.0,468479376.0,29202901665.0,63648606202.99999
sh688012,中微公司,2021-04-12,119.81,122.5,115.71,116.45,119.0,3159342.0,373848717.0,28577125200.75,62284707498.65
sh688012,中微公司,2021-04-13,115.48,118.3,113.25,113.7,116.45,2892906.0,333994855.0,27902268229.5,60813836346.9
sh688012,中微公司,2021-04-14,113.97,116.29,113.25,115.14,113.7,2247559.0,257744219.0,28255647879.9,61584037968.18
sh688012,中微公司,2021-04-15,114.0,121.0,112.5,118.78,115.14,4247366.0,495755586.0,29148913107.3,63530936510.86
sh688012,中微公司,2021-04-16,118.0,120.0,116.28,117.76,118.78,2799082.0,329700856.0,28898602521.6,62985377029.12
sh688012,中微公司,2021-04-19,117.01,123.45,115.5,122.3,117.76,4730784.0,572228620.0,30012730030.5,65413651585.100006
sh688012,中微公司,2021-04-20,121.6,123.58,118.7,119.1,122.3,2899141.0,350209529.0,29227441918.5,63702092426.7
sh688012,中微公司,2021-04-21,118.0,120.1,117.03,117.71,119.1,2047797.0,243174471.0,28886332394.85,62958633917.27
sh688012,中微公司,2021-04-22,117.71,122.82,117.71,118.47,117.71,3271582.0,392993433.0,29072838321.45,63365129217.39
sh688012,中微公司,2021-04-23,117.63,120.98,117.12,118.99,118.47,2247422.0,268111910.0,29200447639.65,63643257580.63
sh688012,中微公司,2021-04-26,119.43,122.93,117.5,117.65,118.99,4343836.0,522108727.0,28871608242.75,62926542183.05
sh688012,中微公司,2021-04-27,116.66,116.83,111.47,113.1,117.65,4089894.0,464828056.0,27755026708.5,60492919004.7
sh688012,中微公司,2021-04-28,115.49,115.99,112.88,114.4,113.1,2858724.0,326317201.0,28074050004.0,61188239912.8
sh688012,中微公司,2021-04-29,114.7,120.2,114.37,118.68,114.4,4283979.0,506432006.0,29124372853.8,63477450287.16
sh688012,中微公司,2021-04-30,118.0,119.97,116.28,118.8,118.68,3548012.0,419716618.0,29153821158.0,63541633755.6
sh688012,中微公司,2021-05-06,118.75,119.39,116.51,116.53,118.8,2529208.0,297739017.0,28596757403.55,62327496477.61
sh688012,中微公司,2021-05-07,116.13,117.98,107.71,108.9,116.53,5599165.0,623274267.0,26724336061.5,58246497609.3
sh688012,中微公司,2021-05-10,108.01,109.38,105.48,107.32,108.9,2847560.0,305087671.0,26336600056.2,57401415274.84
sh688012,中微公司,2021-05-11,106.79,108.42,104.5,107.59,107.32,2687470.0,285868167.0,26402858740.65,57545828078.83
sh688012,中微公司,2021-05-12,107.3,110.0,104.82,109.46,107.59,2626106.0,281480301.0,26861761481.1,58546020462.02
sh688012,中微公司,2021-05-13,107.5,116.34,107.33,112.77,109.46,4461088.0,502737975.0,27674043871.95,60316414466.49
sh688012,中微公司,2021-05-14,113.7,122.34,113.0,121.0,112.77,7630706.0,903971705.0,29693706735.0,64718330676.99999
sh688012,中微公司,2021-05-17,121.03,124.27,119.91,120.07,121.0,5146420.0,627883865.0,29465482377.45,64220908796.59
sh688012,中微公司,2021-05-18,119.99,125.35,119.07,122.37,120.07,4919528.0,606904189.0,30029908207.95,65451091941.69
sh688012,中微公司,2021-05-19,122.03,125.17,121.01,121.48,122.37,3922044.0,482135159.0,29811499951.8,64975064550.76
sh688012,中微公司,2021-05-20,120.1,123.29,120.02,120.43,121.48,2820121.0,342053595.0,29553827290.05,64413459201.91
sh688012,中微公司,2021-05-21,121.47,122.7,117.19,117.59,120.43,2680586.0,319328462.0,28856884090.65,62894450448.83
sh688012,中微公司,2021-05-24,117.6,119.68,114.63,119.01,117.59,3555887.0,416233290.0,29205355690.35,63653954825.37
sh688012,中微公司,2021-05-25,118.37,123.86,118.37,123.1,119.01,5109541.0,625016270.0,30209052058.5,65841541374.700005
sh688012,中微公司,2021-05-26,123.58,129.2,123.58,125.09,123.1,6806581.0,860773460.0,30697403103.15,66905917226.33
sh688012,中微公司,2021-05-27,125.0,134.45,124.5,131.53,125.09,9603011.0,1255869766.0,32277795428.550003,70350430032.61
sh688012,中微公司,2021-05-28,130.24,130.4,127.4,128.38,131.53,5567633.0,716864653.0,31504777443.300003,68665613986.06
sh688012,中微公司,2021-05-31,130.19,132.2,128.55,130.8,128.38,4803950.0,625862565.0,32098651578.0,69959980599.6
sh688012,中微公司,2021-06-01,130.83,139.9,129.04,137.53,130.8,10486937.0,1436513411.0,33750210638.55,73559603454.61
sh688012,中微公司,2021-06-02,137.2,141.88,134.35,138.61,137.53,6979119.0,963136655.0,34015245376.35,74137254670.56999
sh688012,中微公司,2021-06-03,138.3,138.32,132.35,133.21,138.61,5557601.0,752027546.0,32690071687.35,71248998590.77
sh688012,中微公司,2021-06-04,131.0,138.68,130.51,137.09,133.21,5839796.0,794424577.0,33642233523.15,73324264070.33
sh688012,中微公司,2021-06-07,143.0,147.99,138.0,139.76,137.09,9016854.0,1293044202.0,34297458291.6,74752346243.12001
sh688012,中微公司,2021-06-08,141.1,141.1,133.87,134.98,139.76,6859700.0,936283617.0,33124434174.3,72195704750.26001
sh688012,中微公司,2021-06-09,135.0,138.69,132.5,133.83,134.98,5708510.0,772294537.0,32842221259.050003,71580613177.70999
sh688012,中微公司,2021-06-10,134.7,139.25,134.7,137.6,133.83,9019247.0,1236619829.0,33767388816.0,73597043811.2
sh688012,中微公司,2021-06-11,137.7,138.6,129.11,129.18,137.6,11213371.0,1482790598.0,31701099471.300003,69093503775.66
sh688012,中微公司,2021-06-15,129.32,135.45,126.85,134.21,129.18,11926129.0,1583418683.0,32935474222.35,71783860827.77
sh688012,中微公司,2021-06-16,135.0,139.98,131.02,131.95,134.21,9574744.0,1295357929.0,32380864493.25,70575072172.15
sh688012,中微公司,2021-06-17,132.81,158.34,132.8,153.68,131.95,22277870.0,3262918531.0,37713461578.8,82197628582.16
sh688012,中微公司,2021-06-18,157.49,163.8,153.76,160.76,153.68,17918534.0,2828888358.0,39450911526.6,85984453220.12
sh688012,中微公司,2021-06-21,160.0,162.86,158.2,161.6,160.76,9410624.0,1511941277.0,39657049656.0,86433737499.2
sh688012,中微公司,2021-06-22,161.5,162.89,155.08,157.5,161.6,8205644.0,1295611371.0,38650899262.5,84240802327.5
sh688012,中微公司,2021-06-23,158.88,171.39,155.38,164.18,157.5,13347376.0,2189835145.0,40290188196.3,87813682070.65999
sh688012,中微公司,2021-06-24,162.01,166.66,156.66,158.0,164.18,9090962.0,1457063202.0,38773600530.0,84508233446.0
sh688012,中微公司,2021-06-25,159.9,163.0,155.1,162.12,158.0,8795582.0,1405513555.0,39784658974.2,86711865862.44
sh688012,中微公司,2021-06-28,164.2,169.19,160.1,165.7,162.12,9056292.0,1493603029.0,40663200049.5,88626672670.90001
sh688012,中微公司,2021-06-29,165.0,166.0,160.03,161.89,165.7,7318702.0,1186440497.0,39728216391.15,86588847547.93
sh688012,中微公司,2021-06-30,162.89,171.36,162.88,165.92,161.89,11108599.0,1867766190.0,40717188607.200005,88744342363.04
sh688012,中微公司,2021-07-01,163.0,167.0,156.8,158.99,165.92,9281730.0,1501378463.0,39016549039.65,85037747060.63
sh688012,中微公司,2021-07-02,155.6,156.91,150.33,151.5,158.99,9227073.0,1412065597.0,37178484052.5,81031628905.5
sh688012,中微公司,2021-07-05,158.9,171.33,158.0,162.7,151.5,21415885.0,3505813747.0,39926992444.5,100075398764.4
sh688012,中微公司,2021-07-06,163.61,169.6,156.95,161.18,162.7,13197354.0,2149122835.0,39553980591.3,99140459574.96
sh688012,中微公司,2021-07-07,156.61,166.51,153.98,165.04,161.18,12032607.0,1940759369.0,40501234376.4,101514713042.88
sh688012,中微公司,2021-07-08,165.0,180.58,165.0,177.49,165.04,18515548.0,3259355639.0,43556495937.15,109172603114.28
sh688012,中微公司,2021-07-09,175.56,180.8,170.86,178.04,177.49,12241059.0,2146432822.0,43691467331.4,109510903478.88
sh688012,中微公司,2021-07-12,177.0,181.57,171.6,175.98,178.04,14266433.0,2506816905.0,43185938109.3,108243814840.56
sh688012,中微公司,2021-07-13,174.03,175.96,167.2,168.0,175.98,11064486.0,1885614606.0,41227625880.0,103335384096.00002
sh688012,中微公司,2021-07-14,169.79,171.4,164.75,168.0,168.0,8941959.0,1499793099.0,41227625880.0,103335384096.00002
sh688012,中微公司,2021-07-15,165.27,168.79,162.11,166.4,168.0,8838488.0,1457959368.0,40834981824.0,102351237580.8
sh688012,中微公司,2021-07-16,168.47,171.98,156.11,156.5,166.4,12256516.0,2011460954.0,38405496727.5,96261831018.0
sh688012,中微公司,2021-07-19,152.5,155.58,149.33,154.8,156.5,8287023.0,1265681636.0,37988312418.0,95216175345.6
sh688012,中微公司,2021-07-20,153.94,155.99,150.88,153.13,154.8,6056366.0,927782983.0,37578490184.55,94188972420.36
sh688012,中微公司,2021-07-21,154.25,169.71,153.5,165.0,153.13,14157193.0,2305874056.0,40491418275.0,101490109379.99998
sh688012,中微公司,2021-07-22,167.6,194.3,164.68,191.0,165.0,22108561.0,3991065578.0,47266920317.0,117482490252.0
sh688012,中微公司,2021-07-23,195.31,208.0,193.28,197.04,191.0,19187691.0,3824140115.0,48761643870.48,121197643346.88
sh688012,中微公司,2021-07-26,200.0,215.0,192.0,212.9,197.04,18134701.0,3672918597.0,52686530552.3,130952995678.8
sh688012,中微公司,2021-07-27,208.0,230.85,197.98,200.96,212.9,23889679.0,5075876188.0,49731729355.52,123608802309.12
sh688012,中微公司,2021-07-28,195.0,202.9,183.9,195.65,200.96,14894506.0,2896593684.0,48417659476.55,120342666061.8
sh688012,中微公司,2021-07-29,203.47,226.82,197.3,225.05,195.65,18924981.0,4014159467.0,55693300614.35,138426358278.6
sh688012,中微公司,2021-07-30,219.99,234.97,215.0,229.89,225.05,17059693.0,3829560648.0,56891059223.43,141403401487.08002
sh688012,中微公司,2021-08-02,226.0,229.0,202.38,213.8,229.89,16927511.0,3639728182.0,52909254260.600006,131506578093.6
sh688012,中微公司,2021-08-03,207.5,209.5,185.66,187.67,213.8,21321118.0,4151428944.0,46442842596.29,115434235317.24
sh688012,中微公司,2021-08-04,189.0,197.55,185.7,195.0,187.67,13259893.0,2549321109.0,48256803465.0,119942856539.99998
sh688012,中微公司,2021-08-05,191.84,194.99,185.71,190.78,195.0,8189350.0,1565842468.0,47212476743.86,117347170106.16
sh688012,中微公司,2021-08-06,195.38,198.25,179.08,183.2,190.78,14536621.0,2699403511.0,45336648178.4,112684775990.4
sh688012,中微公司,2021-08-09,178.1,183.7,175.05,182.5,183.2,10442555.0,1866366180.0,45163418627.5,112254211890.0
sh688012,中微公司,2021-08-10,182.51,186.0,175.38,180.55,182.5,9406174.0,1687365872.0,44680850592.85,111054783324.6
sh688012,中微公司,2021-08-11,180.0,187.58,177.49,182.3,180.55,9134268.0,1670057964.0,45113924470.100006,112131193575.6
sh688012,中微公司,2021-08-12,180.0,190.83,178.53,185.99,182.3,10138860.0,1892974588.0,46027091674.13,114400881476.28
sh688012,中微公司,2021-08-13,182.98,184.84,171.61,172.95,185.99,10226707.0,1815504097.0,42800072611.65,106380087377.4
sh688012,中微公司,2021-08-16,171.4,179.83,169.0,174.48,172.95,8740262.0,1531846281.0,43178702915.76,107321177482.56
sh688012,中微公司,2021-08-17,173.48,177.5,166.5,167.2,174.48,7941328.0,1352444690.0,41377115586.4,102843310838.4
sh688012,中微公司,2021-08-18,168.64,171.21,165.05,167.9,167.2,7414774.0,1244670458.0,41550345137.3,103273874938.8
sh688012,中微公司,2021-08-19,167.0,176.87,166.01,171.38,167.9,9413801.0,1627632044.0,42411543476.06,105414393609.36
sh688012,中微公司,2021-08-20,171.78,179.65,171.7,174.41,171.38,7447031.0,1305200523.0,43161379960.67,107278121072.52
sh688012,中微公司,2021-08-23,176.01,182.8,171.58,181.46,174.41,8804029.0,1577615727.0,44906049009.02,111614516655.12
sh688012,中微公司,2021-08-24,180.8,186.55,177.8,182.0,181.46,7824581.0,1430423871.0,45249512490.0,112156495360.0
sh688012,中微公司,2021-08-25,185.3,189.49,176.2,178.51,182.0,9521555.0,1727918766.0,44381815794.45,110005802124.8
sh688012,中微公司,2021-08-26,180.68,183.5,171.0,172.16,178.51,9233125.0,1630556204.0,42803055331.2,106092649676.8
sh688012,中微公司,2021-08-27,173.0,176.9,171.01,173.31,172.16,6359090.0,1103327124.0,43088972580.45,106801330828.8
sh688012,中微公司,2021-08-30,172.99,176.7,158.01,159.28,173.31,14959347.0,2464799493.0,39600782139.6,98155420774.4
sh688012,中微公司,2021-08-31,159.6,164.85,155.07,164.85,159.28,11626173.0,1859771503.0,40985616120.75,101587902528.00002
sh688012,中微公司,2021-09-01,165.0,165.0,154.0,158.3,164.85,9391596.0,1481576679.0,39357130918.5,97551501184.0
sh688012,中微公司,2021-09-02,155.61,157.33,148.3,149.8,158.3,10822054.0,1642817333.0,37243829511.0,92313423104.0
sh688012,中微公司,2021-09-03,149.8,158.0,149.55,154.52,149.8,9273243.0,1427255592.0,38417333351.4,95222097049.6
sh688012,中微公司,2021-09-06,153.02,161.98,151.45,160.78,154.52,7944843.0,1266456507.0,39973717682.1,99079787494.4
sh688012,中微公司,2021-09-07,159.99,162.8,157.6,159.0,160.78,5336857.0,850102295.0,39531167505.0,97982872320.00002
sh688012,中微公司,2021-09-08,160.57,162.66,156.0,159.16,159.0,5559405.0,884572269.0,39570947296.2,98081471436.8
sh688012,中微公司,2021-09-09,158.0,164.3,154.7,161.82,159.16,7938827.0,1264652228.0,40232286324.9,99720681753.6
sh688012,中微公司,2021-09-10,161.03,170.45,158.12,167.32,161.82,10822841.0,1796039773.0,41599716647.4,103110026393.6
sh688012,中微公司,2021-09-13,165.0,165.7,157.33,157.9,167.32,7491151.0,1197615371.0,39257681440.5,97305003392.0
sh688012,中微公司,2021-09-14,156.01,162.47,155.6,157.48,157.9,5791861.0,921454404.0,39153259488.6,97046180710.4
sh688012,中微公司,2021-09-15,156.9,160.87,155.04,158.11,157.48,4097439.0,650158590.0,39309892416.45,97434414732.8
sh688012,中微公司,2021-09-16,156.1,161.6,155.01,159.69,158.11,6459584.0,1027145152.0,39702717854.55,98408081011.2
sh688012,中微公司,2021-09-17,158.0,161.1,153.2,153.2,159.69,5209791.0,814489982.0,38089150074.0,94408654335.99998
sh688012,中微公司,2021-09-22,153.17,160.66,152.64,157.75,153.2,4798861.0,757449109.0,39220387886.25,97212566720.0
sh688012,中微公司,2021-09-23,159.14,165.69,155.9,163.01,157.75,7295318.0,1181683730.0,40528148521.95,100454012684.8
sh688012,中微公司,2021-09-24,163.0,165.66,161.21,162.95,163.01,5100271.0,834559825.0,40513231100.25,100417038016.0
sh688012,中微公司,2021-09-27,165.05,167.7,157.77,158.09,162.95,5458880.0,884889344.0,39304919942.55,97422089843.2
sh688012,中微公司,2021-09-28,156.51,163.5,155.15,158.8,158.09,5155050.0,822929275.0,39481442766.0,97859623424.0
sh688012,中微公司,2021-09-29,157.12,158.28,152.6,155.59,158.8,5677894.0,885187986.0,38683360705.05,95881478643.2
sh688012,中微公司,2021-09-30,155.8,157.74,151.6,151.8,155.59,6993456.0,1075197930.0,37741076901.0,93545912064.0
sh688012,中微公司,2021-10-08,154.3,158.36,153.5,154.18,151.8,5522744.0,858694092.0,38332801295.1,95012573926.4
sh688012,中微公司,2021-10-11,154.36,156.0,149.8,150.0,154.18,5608526.0,854303315.0,37293554250.0,92436672000.0
sh688012,中微公司,2021-10-12,149.53,151.97,142.88,144.19,150.0,6511381.0,951746627.0,35849050582.05,88856291571.20001
sh688012,中微公司,2021-10-13,144.35,147.68,144.15,145.7,144.19,5992185.0,873929126.0,36224472361.5,89786820736.0
sh688012,中微公司,2021-10-14,145.53,147.56,143.0,145.21,145.7,4459198.0,649668490.0,36102646750.95,89484860940.79999
sh688012,中微公司,2021-10-15,146.39,153.94,143.02,153.87,145.21,8484120.0,1278820582.0,38255727949.65,94821538137.6
sh688012,中微公司,2021-10-18,151.81,153.16,148.44,150.48,153.87,4587389.0,689474001.0,37412893623.6,92732469350.4
sh688012,中微公司,2021-10-19,150.17,152.8,149.23,150.9,150.48,3357525.0,506487627.0,37517315575.5,92991292032.0
sh688012,中微公司,2021-10-20,151.01,152.88,149.01,149.85,150.9,3530478.0,530218927.0,37256260695.75,92344235328.0
sh688012,中微公司,2021-10-21,150.0,153.35,148.35,149.95,149.85,4344203.0,654834236.0,37281123065.25,92405859776.00002
sh688012,中微公司,2021-10-22,151.7,158.5,151.55,156.8,149.95,7660270.0,1193149483.0,38984195376.0,96627134464.0
sh688012,中微公司,2021-10-25,156.36,157.8,152.77,157.43,156.8,5079251.0,788436332.0,39140828303.85,97015368486.4
sh688012,中微公司,2021-10-26,157.45,158.27,153.65,154.95,157.43,4616844.0,718911851.0,38524241540.25,95487082175.99998
sh688012,中微公司,2021-10-27,153.83,155.97,148.94,150.59,154.95,5829193.0,882785033.0,37440242230.05,92800256243.2
sh688012,中微公司,2021-10-28,145.94,150.42,143.11,143.47,150.59,6066134.0,886054043.0,35670041521.65,88412595545.6
sh688012,中微公司,2021-10-29,145.0,157.69,144.66,156.2,143.47,9853420.0,1513984890.0,38835021159.0,96257387776.0
sh688012,中微公司,2021-11-01,157.0,158.56,153.5,157.0,156.2,4856145.0,759771025.0,39033920115.0,96750383359.99998
sh688012,中微公司,2021-11-02,157.9,162.9,155.43,156.8,157.0,5923668.0,940799372.0,38984195376.0,96627134464.0
sh688012,中微公司,2021-11-03,159.8,161.53,154.18,157.15,156.8,4886397.0,770068120.0,39071213669.25,96842820032.0
sh688012,中微公司,2021-11-04,157.98,160.3,155.6,156.7,157.15,4219305.0,664426732.0,38959333006.5,96565510015.99998
sh688012,中微公司,2021-11-05,159.95,162.25,156.52,157.19,156.7,5552208.0,882388727.0,39081158617.05,96867469811.2
sh688012,中微公司,2021-11-08,156.7,156.7,149.13,151.98,157.19,5424671.0,826089766.0,37785829166.1,93656836070.4
sh688012,中微公司,2021-11-09,152.6,159.05,150.78,158.2,151.98,6748969.0,1052206701.0,39332268549.0,97489876736.0
sh688012,中微公司,2021-11-10,156.07,170.42,155.6,169.36,158.2,13680187.0,2248797440.0,42106908985.200005,104367165132.8
sh688012,中微公司,2021-11-11,166.01,180.66,165.28,173.38,169.36,14822403.0,2564273448.0,43106376239.1,106844467942.4
sh688012,中微公司,2021-11-12,170.7,175.6,168.33,169.89,173.38,7065311.0,1209545710.0,42238679543.55,104693774707.2
sh688012,中微公司,2021-11-15,171.66,172.8,165.17,167.68,169.89,6005636.0,1009513600.0,41689221177.6,103331874406.4
sh688012,中微公司,2021-11-16,167.5,169.35,162.6,163.28,167.68,5609659.0,928554477.0,40595276919.6,100620398694.4
sh688012,中微公司,2021-11-17,163.0,165.46,161.3,164.17,163.28,5218223.0,852808891.0,40816552008.15,101168856281.6
sh688012,中微公司,2021-11-18,163.4,165.5,160.5,164.45,164.17,5191015.0,846023817.0,40886166642.75,101341404736.0
sh688012,中微公司,2021-11-19,163.9,165.39,161.78,164.5,164.45,4307674.0,706344470.0,40898597827.5,101372216960.0
sh688012,中微公司,2021-11-22,164.0,170.0,163.0,169.09,164.5,6063379.0,1020832757.0,42039780587.55,104200779123.2
sh688012,中微公司,2021-11-23,168.16,171.0,164.5,164.61,169.09,6075435.0,1020636469.0,40925946433.950005,101440003852.8
sh688012,中微公司,2021-11-24,163.3,169.38,161.5,162.42,164.61,5341356.0,881169680.0,40381460541.9,100090428441.6
sh688012,中微公司,2021-11-25,162.71,167.29,161.7,166.4,162.42,5605259.0,922919322.0,41370982848.0,102543081472.0
sh688012,中微公司,2021-11-26,167.0,167.0,160.39,162.0,166.4,4930461.0,801272881.0,40277038590.0,99831605760.0
sh688012,中微公司,2021-11-29,158.9,161.5,158.0,158.2,162.0,4183785.0,666953092.0,39332268549.0,97489876736.0
sh688012,中微公司,2021-11-30,160.0,164.0,159.0,160.03,158.2,5307920.0,855168702.0,39787249910.85,98617604134.40001
sh688012,中微公司,2021-12-01,158.9,163.55,158.72,160.24,160.03,3962034.0,636761190.0,39839460886.8,98747015475.20001
sh688012,中微公司,2021-12-02,160.24,161.21,151.18,151.97,160.24,8170730.0,1268045249.0,37783342929.15,93650673625.6
sh688012,中微公司,2021-12-03,152.5,157.88,152.26,156.9,151.97,6787949.0,1056955267.0,39009057745.5,96688758912.0
sh688012,中微公司,2021-12-06,156.0,157.8,152.3,153.03,156.9,4471775.0,690002639.0,38046884045.85,94303892774.40001
sh688012,中微公司,2021-12-07,153.9,154.89,147.06,149.1,153.03,5228010.0,781796148.0,37069792924.5,91882051967.99998
sh688012,中微公司,2021-12-08,149.98,151.99,149.14,150.54,149.1,3926828.0,590435322.0,37427811045.3,92769444019.2
sh688012,中微公司,2021-12-09,150.57,152.85,149.6,152.0,150.54,4823038.0,730026918.0,37790801640.0,93669160960.00002
sh688012,中微公司,2021-12-10,151.0,152.0,149.22,150.0,152.0,5915436.0,887774433.0,37293554250.0,92436672000.0
sh688012,中微公司,2021-12-13,150.0,150.99,147.09,147.76,150.0,5437262.0,807258973.0,36736637173.2,91056284364.8
sh688012,中微公司,2021-12-14,148.18,149.88,147.01,148.53,147.76,3437041.0,511140337.0,36928077418.35,91530792614.4
sh688012,中微公司,2021-12-15,148.96,149.75,144.98,145.15,148.53,4456269.0,652829801.0,36087729329.25,89447886272.0
sh688012,中微公司,2021-12-16,145.8,147.57,144.45,145.8,145.15,3339229.0,486816732.0,36249334731.0,89848445184.0
sh688012,中微公司,2021-12-17,145.0,146.0,138.03,138.1,145.8,7899285.0,1108500546.0,34334932279.500004,85103362688.0
sh688012,中微公司,2021-12-20,136.29,138.96,132.2,133.05,138.1,6247504.0,842965695.0,33079382619.75,81991328064.0
sh688012,中微公司,2021-12-21,133.02,133.91,129.83,131.92,133.05,4957351.0,653221174.0,32798437844.4,81294971801.6
sh688012,中微公司,2021-12-22,132.61,133.19,130.15,130.3,131.92,4192937.0,550396346.0,32395667458.5,80296655744.0
sh688012,中微公司,2021-12-23,130.01,130.68,127.43,128.45,130.3,5135010.0,660092440.0,31935713622.750004,79156603456.0
sh688012,中微公司,2021-12-24,128.53,129.39,125.08,125.8,128.45,4675015.0,590889274.0,31276860831.0,77523555584.0
sh688012,中微公司,2021-12-27,126.0,127.95,125.11,126.18,125.8,3891426.0,492201294.0,31371337835.1,77757728486.40001
sh688012,中微公司,2021-12-28,126.5,127.33,123.7,125.36,126.18,4333672.0,542484599.0,31167466405.2,77252408012.8
sh688012,中微公司,2021-12-29,125.81,127.5,123.4,124.05,125.36,4840007.0,605100744.0,30841769364.75,76445127744.0
sh688012,中微公司,2021-12-30,123.07,127.87,123.03,127.14,124.05,6403025.0,809501623.0,31610016582.300003,78349323187.2
sh688012,中微公司,2021-12-31,127.18,128.14,125.28,126.6,127.14,5056968.0,641667179.0,31475759787.0,78016551168.0
sh688012,中微公司,2022-01-04,127.11,127.88,118.0,120.11,126.6,19493831.0,2344618872.0,39498537433.3,74017124492.8
sh688012,中微公司,2022-01-05,120.11,120.67,117.08,118.9,120.11,11044191.0,1303389035.0,39100625267.0,73271468672.0
sh688012,中微公司,2022-01-06,118.9,123.55,117.82,121.04,118.9,9641063.0,1167546934.0,39804370751.200005,74590231859.2
sh688012,中微公司,2022-01-07,121.46,123.76,120.02,120.7,121.04,6557714.0,798886495.0,39692560721.0,74380708736.0
sh688012,中微公司,2022-01-10,120.5,121.34,115.71,118.66,120.7,6517556.0,774782134.0,39021700539.799995,73123569996.8
sh688012,中微公司,2022-01-11,118.88,119.4,114.81,115.03,118.66,6312770.0,733946502.0,37827964040.9,70886602534.4
sh688012,中微公司,2022-01-12,115.56,119.45,115.55,118.88,115.03,7144934.0,840921275.0,39094048206.4,73259143782.40001
sh688012,中微公司,2022-01-13,118.12,119.24,116.3,116.52,118.88,4905374.0,575553698.0,38317955055.6,71804806809.59999
sh688012,中微公司,2022-01-14,116.8,119.18,116.32,117.3,116.52,5599932.0,660933681.0,38574460419.0,72285477504.0
