数据由邢不行整理
股票代码,股票名称,交易日期,开盘价,最高价,最低价,收盘价,前收盘价,成交量,成交额,流通市值,总市值
sh688256,N寒武纪,2020-07-20,250.0,295.0,205.6,212.4,64.39,24237613.0,5645861832.0,6606656334.000001,84981240000.0
sh688256,寒武纪,2020-07-21,208.0,285.6,202.0,274.0,212.4,17584895.0,4292970831.0,8522711090.000001,109627400000.0
sh688256,寒武纪,2020-07-22,260.0,284.33,257.77,281.0,274.0,12701827.0,3450335246.0,8740444585.0,112428100000.0
sh688256,寒武纪,2020-07-23,274.92,297.77,268.0,281.5,281.0,9920207.0,2791441976.0,8755996977.5,112628150000.0
sh688256,寒武纪,2020-07-24,273.0,276.0,240.44,259.33,281.5,11385255.0,2940728530.0,8066403894.05,103757933000.0
sh688256,寒武纪,2020-07-27,252.28,257.9,227.94,234.01,259.33,8338869.0,2022044467.0,7278830737.85,93627401000.0
sh688256,寒武纪,2020-07-28,236.0,243.8,227.5,238.64,234.01,5977562.0,1410915512.0,7422845892.4,95479864000.0
sh688256,寒武纪,2020-07-29,234.53,245.78,229.66,241.5,238.64,5473260.0,1312286233.0,7511805577.5,96624150000.0
sh688256,寒武纪,2020-07-30,240.0,254.99,236.36,243.17,241.5,6180875.0,1516837929.0,7563750568.45,97292317000.0
sh688256,寒武纪,2020-07-31,238.01,255.55,237.1,249.6,243.17,5629413.0,1392176361.0,7763754336.0,99864960000.0
sh688256,寒武纪,2020-08-03,250.01,257.88,247.01,249.5,249.6,6972166.0,1760964726.0,7760643857.5,99824950000.0
sh688256,寒武纪,2020-08-04,250.97,252.88,232.99,235.0,249.5,5908943.0,1424160483.0,7309624475.0,94023500000.0
sh688256,寒武纪,2020-08-05,246.0,246.0,236.79,236.92,235.0,4082217.0,985070039.0,7369345662.200001,94791692000.0
sh688256,寒武纪,2020-08-06,233.96,247.45,231.8,243.83,236.92,5013107.0,1211258410.0,7584279726.55,97556383000.0
sh688256,寒武纪,2020-08-07,240.98,240.98,223.37,227.44,243.83,4853751.0,1119390462.0,7074472300.400001,90998744000.0
sh688256,寒武纪,2020-08-10,219.99,225.89,218.0,222.5,227.44,2517723.0,556920403.0,6920814662.500001,89022250000.0
sh688256,寒武纪,2020-08-11,220.88,226.3,219.1,221.49,222.5,2243543.0,499535721.0,6889398829.65,88618149000.0
sh688256,寒武纪,2020-08-12,220.33,222.0,213.5,217.76,221.49,2028145.0,437985755.0,6773377981.6,87125776000.0
sh688256,寒武纪,2020-08-13,219.0,219.6,212.0,212.5,217.76,1744022.0,375895504.0,6609766812.5,85021250000.0
sh688256,寒武纪,2020-08-14,212.33,213.9,207.5,212.68,212.5,1653598.0,348869120.0,6615365673.8,85093268000.0
sh688256,寒武纪,2020-08-17,213.0,219.8,209.68,219.08,212.68,2056219.0,443435980.0,6814436297.799999,87653908000.0
sh688256,寒武纪,2020-08-18,219.18,219.18,212.3,213.81,219.08,1839468.0,394749715.0,6650514080.85,85545381000.0
sh688256,寒武纪,2020-08-19,213.88,214.5,204.87,205.2,213.81,1968958.0,411339029.0,6382701882.0,82100520000.0
sh688256,寒武纪,2020-08-20,204.0,207.27,200.11,201.51,205.2,1634059.0,331414026.0,6267925225.35,80624151000.0
sh688256,寒武纪,2020-08-21,202.5,205.62,201.11,204.95,201.51,1081110.0,219802676.0,6374925685.75,82000495000.0
sh688256,寒武纪,2020-08-24,206.3,207.84,196.5,197.9,204.95,2042284.0,407457573.0,6155636951.5,79179790000.0
sh688256,寒武纪,2020-08-25,198.38,199.88,189.66,189.98,197.9,2647656.0,513330948.0,5909287054.3,76010998000.0
sh688256,寒武纪,2020-08-26,189.66,190.92,173.51,176.4,189.98,3925619.0,711521259.0,5486884074.0,70577640000.0
sh688256,寒武纪,2020-08-27,177.2,188.87,170.51,182.56,176.4,3263707.0,586419659.0,5678489549.6,73042256000.0
sh688256,寒武纪,2020-08-28,177.73,177.88,168.02,174.28,182.56,3513509.0,604292859.0,5420941929.8,69729428000.0
sh688256,寒武纪,2020-08-31,173.0,177.2,170.0,170.0,174.28,2203273.0,382994315.0,5287813450.0,68017000000.0
sh688256,寒武纪,2020-09-01,170.21,173.8,169.03,171.18,170.0,1594161.0,273420605.0,5324517096.3,68489118000.0
sh688256,寒武纪,2020-09-02,170.99,172.35,167.12,167.76,171.18,1469648.0,248042528.0,5218138731.6,67120776000.0
sh688256,寒武纪,2020-09-03,167.9,172.56,164.28,170.09,167.76,2584763.0,437472228.0,5290612880.65,68053009000.0
sh688256,寒武纪,2020-09-04,166.78,182.3,166.78,174.53,170.09,3431503.0,606661797.0,5428718126.05,69829453000.0
sh688256,寒武纪,2020-09-07,170.4,172.8,163.52,163.52,174.53,2828212.0,473534230.0,5086254443.2,65424352000.0
sh688256,寒武纪,2020-09-08,163.51,163.51,160.01,160.86,163.52,1465181.0,236398576.0,5003515715.099999,64360086000.0
sh688256,寒武纪,2020-09-09,159.0,165.9,155.0,160.68,160.86,2242834.0,359860676.0,4997916853.8,64288068000.0
sh688256,寒武纪,2020-09-10,162.0,165.77,157.33,157.58,160.68,1454894.0,235198490.0,4901492020.3,63047758000.0
sh688256,寒武纪,2020-09-11,158.07,162.89,155.55,161.96,157.58,1374164.0,219382545.0,5037730978.599999,64800196000.0
sh688256,寒武纪,2020-09-14,164.0,167.5,163.0,164.72,161.96,1550297.0,256600967.0,5123580185.2,65904472000.0
sh688256,寒武纪,2020-09-15,163.5,170.87,161.26,169.34,164.72,2191487.0,366601497.0,5267284291.900001,67752934000.0
sh688256,寒武纪,2020-09-16,167.0,170.55,165.39,166.77,169.34,1420541.0,237916832.0,5187344994.45,66724677000.0
sh688256,寒武纪,2020-09-17,166.76,178.0,163.78,174.22,166.77,3009337.0,518489580.0,5419075642.7,69705422000.0
sh688256,寒武纪,2020-09-18,173.0,176.5,172.01,174.26,174.22,1629983.0,283449999.0,5420319834.099999,69721426000.0
sh688256,寒武纪,2020-09-21,173.99,176.88,169.5,170.77,174.26,1433184.0,246903266.0,5311764134.45,68325077000.0
sh688256,寒武纪,2020-09-22,169.98,170.71,166.68,167.65,170.77,1023886.0,172589092.0,5214717205.25,67076765000.0
sh688256,寒武纪,2020-09-23,168.03,172.9,167.04,170.75,167.65,1319498.0,224991493.0,5311142038.75,68317075000.0
sh688256,寒武纪,2020-09-24,169.0,170.67,164.01,164.51,170.75,1128801.0,188412135.0,5117048180.35,65820451000.0
sh688256,寒武纪,2020-09-25,165.0,165.77,161.52,162.45,164.51,824078.0,134494754.0,5052972323.25,64996245000.0
sh688256,寒武纪,2020-09-28,162.45,163.42,156.5,156.88,162.45,1027627.0,163307673.0,4879718670.8,62767688000.0
sh688256,寒武纪,2020-09-29,157.9,162.58,157.02,161.36,156.88,875555.0,140840143.0,5019068107.6,64560136000.0
sh688256,寒武纪,2020-09-30,162.11,163.5,159.8,160.19,161.36,603538.0,97405882.0,4982675509.150001,64092019000.0
sh688256,寒武纪,2020-10-09,164.0,164.98,163.07,163.73,160.19,698762.0,114628812.0,5092786448.05,65508373000.0
sh688256,寒武纪,2020-10-12,164.94,175.65,164.03,174.3,163.73,2065351.0,354017709.0,5421564025.5,69737430000.0
sh688256,寒武纪,2020-10-13,174.3,174.3,170.66,171.9,174.3,1273304.0,218964471.0,5346912541.500001,68777190000.0
sh688256,寒武纪,2020-10-14,171.0,172.74,168.28,168.35,171.9,956448.0,161956273.0,5236490554.75,67356835000.0
sh688256,寒武纪,2020-10-15,167.98,175.0,167.69,169.17,168.35,1496560.0,257138987.0,5261996478.450001,67684917000.0
sh688256,寒武纪,2020-10-16,170.49,173.98,170.0,171.4,169.17,1226507.0,210804072.0,5331360148.999999,68577140000.0
sh688256,寒武纪,2020-10-19,172.2,186.37,172.2,182.71,171.4,3573909.0,647545238.0,5683155267.349999,73102271000.0
sh688256,寒武纪,2020-10-20,181.45,185.88,178.53,182.96,182.71,2033631.0,368933495.0,5690931463.6,73202296000.0
sh688256,寒武纪,2020-10-21,182.69,187.01,178.3,186.4,182.96,2554978.0,469257188.0,5797931924.000001,74578640000.0
sh688256,寒武纪,2020-10-22,186.0,189.98,179.08,179.18,186.4,2244238.0,414769844.0,5573355376.3,71689918000.0
sh688256,寒武纪,2020-10-23,179.51,180.2,172.01,172.01,179.18,2128252.0,373336873.0,5350334067.85,68821201000.0
sh688256,寒武纪,2020-10-26,170.02,172.9,166.56,169.8,172.01,1259469.0,214092031.0,5281592493.0,67936980000.0
sh688256,寒武纪,2020-10-27,169.88,190.39,168.88,187.43,169.8,2921881.0,525108710.0,5829969852.549999,74990743000.0
sh688256,寒武纪,2020-10-28,187.0,190.04,182.72,183.89,187.43,2088590.0,388663719.0,5719858913.650001,73574389000.0
sh688256,寒武纪,2020-10-29,181.02,186.82,181.0,183.12,183.89,1746769.0,321515612.0,5695908229.2,73266312000.0
sh688256,寒武纪,2020-10-30,183.43,193.88,183.43,187.08,183.12,3045277.0,576442853.0,5819083177.8,74850708000.0
sh688256,寒武纪,2020-11-02,187.01,193.38,181.08,184.11,187.08,2026738.0,377113853.0,5726701966.349999,73662411000.0
sh688256,寒武纪,2020-11-03,185.95,190.66,183.03,184.92,184.11,2035723.0,380681721.0,5751896842.200001,73986492000.0
sh688256,寒武纪,2020-11-04,186.0,187.93,178.0,178.93,184.92,2086595.0,379571014.0,5565579180.05,71589893000.0
sh688256,寒武纪,2020-11-05,182.0,184.63,179.13,183.38,178.93,1450813.0,264304841.0,5703995473.3,73370338000.0
sh688256,寒武纪,2020-11-06,183.3,192.15,182.66,188.7,183.38,2366422.0,445176004.0,5869472929.5,75498870000.0
sh688256,寒武纪,2020-11-09,190.02,202.99,190.0,197.18,188.7,3700445.0,727637124.0,6133241506.3,78891718000.0
sh688256,寒武纪,2020-11-10,193.22,193.22,187.5,188.35,197.18,2490711.0,473495398.0,5858586254.75,75358835000.0
sh688256,寒武纪,2020-11-11,186.0,188.29,179.0,179.0,188.35,1859647.0,340231130.0,5567756515.0,71617900000.0
sh688256,寒武纪,2020-11-12,181.0,183.68,179.51,181.08,179.0,1008985.0,182876827.0,5632454467.8,72450108000.0
sh688256,寒武纪,2020-11-13,180.0,181.79,175.8,179.2,181.08,1057510.0,189170824.0,5573977472.0,71697920000.0
sh688256,寒武纪,2020-11-16,179.58,182.18,172.51,173.32,179.2,1517848.0,266345079.0,5391081336.2,69345332000.0
sh688256,寒武纪,2020-11-17,174.0,175.0,167.11,171.0,173.32,1386272.0,235107823.0,5318918235.000001,68417100000.0
sh688256,寒武纪,2020-11-18,170.77,172.99,168.08,170.32,171.0,890385.0,151845822.0,5297766981.2,68145032000.0
sh688256,寒武纪,2020-11-19,169.0,172.5,166.71,171.17,170.32,752789.0,128333451.0,5324206048.45,68485117000.0
sh688256,寒武纪,2020-11-20,171.5,173.3,169.47,169.77,171.17,659806.0,112634071.0,5280659349.45,67924977000.0
sh688256,寒武纪,2020-11-23,168.65,170.67,166.78,168.88,169.77,756393.0,127418444.0,5252976090.799999,67568888000.0
sh688256,寒武纪,2020-11-24,168.88,172.84,168.66,169.62,168.88,890771.0,152141480.0,5275993631.7,67864962000.0
sh688256,寒武纪,2020-11-25,169.62,170.31,166.81,166.91,169.62,733840.0,123318430.0,5191699664.35,66780691000.0
sh688256,寒武纪,2020-11-26,166.92,168.37,162.82,163.0,166.91,945516.0,155403085.0,5070079955.0,65216300000.0
sh688256,寒武纪,2020-11-27,162.0,164.78,161.24,163.99,163.0,667604.0,108867918.0,5100873692.150001,65612399000.0
sh688256,寒武纪,2020-11-30,165.0,168.66,164.1,166.28,163.99,907111.0,151069922.0,5172103649.8,66528628000.0
sh688256,寒武纪,2020-12-01,165.03,167.78,165.03,166.43,166.28,650292.0,108237623.0,5176769367.55,66588643000.0
sh688256,寒武纪,2020-12-02,166.76,171.69,166.76,170.0,166.43,1144697.0,194471992.0,5287813450.0,68017000000.0
sh688256,寒武纪,2020-12-03,168.9,169.99,167.01,167.92,170.0,824922.0,138625276.0,5223115497.2,67184792000.0
sh688256,寒武纪,2020-12-04,167.99,169.85,166.01,166.42,167.92,673302.0,112593681.0,5176458319.7,66584642000.0
sh688256,寒武纪,2020-12-07,168.36,170.89,166.55,166.66,166.42,680811.0,114713879.0,5183923468.1,66680666000.0
sh688256,寒武纪,2020-12-08,166.1,168.5,160.0,161.0,166.66,1469393.0,240452044.0,5007870385.0,64416100000.0
sh688256,寒武纪,2020-12-09,161.0,162.45,158.33,159.0,161.0,834108.0,133898308.0,4945660815.0,63615900000.0
sh688256,寒武纪,2020-12-10,159.12,161.83,158.19,158.6,159.0,680522.0,108771405.0,4933218901.0,63455860000.0
sh688256,寒武纪,2020-12-11,162.0,165.0,160.3,163.22,158.6,1121708.0,182297623.0,5076923007.7,65304322000.0
sh688256,寒武纪,2020-12-14,162.0,163.0,159.0,160.43,163.22,687312.0,110229348.0,4990140657.55,64188043000.0
sh688256,寒武纪,2020-12-15,160.5,160.96,158.84,159.25,160.43,506269.0,80839626.0,4953437011.25,63715925000.0
sh688256,寒武纪,2020-12-16,159.25,159.6,157.01,157.63,159.25,647482.0,102270519.0,4903047259.55,63067763000.0
sh688256,寒武纪,2020-12-17,156.13,158.51,154.1,158.15,157.63,960064.0,149935508.0,4919221747.75,63275815000.0
sh688256,寒武纪,2020-12-18,159.68,162.5,158.69,159.66,158.15,736511.0,118042171.0,4966189973.1,63879966000.0
sh688256,寒武纪,2020-12-21,160.5,163.6,157.66,162.06,159.66,797158.0,129172222.0,5040841457.1,64840206000.0
sh688256,寒武纪,2020-12-22,162.0,163.5,157.58,157.98,162.06,714312.0,114812477.0,4913933934.3,63207798000.0
sh688256,寒武纪,2020-12-23,156.56,159.94,155.17,158.0,157.98,820654.0,128919026.0,4914556030.0,63215800000.0
sh688256,寒武纪,2020-12-24,158.0,159.77,154.55,155.02,158.0,753010.0,117707952.0,4821863770.7,62023502000.0
sh688256,寒武纪,2020-12-25,154.99,155.9,149.48,149.5,155.02,1179143.0,178179480.0,4650165357.5,59814950000.0
sh688256,寒武纪,2020-12-28,149.29,149.5,137.0,137.01,149.5,1850511.0,259053270.0,4261666592.85,54817701000.0
sh688256,寒武纪,2020-12-29,136.96,140.51,136.08,137.78,137.01,941527.0,130509348.0,4285617277.3,55125778000.0
sh688256,寒武纪,2020-12-30,139.49,144.0,138.0,141.39,137.78,846697.0,119320442.0,4397905551.15,56570139000.0
sh688256,寒武纪,2020-12-31,141.3,147.2,140.8,146.78,141.39,987986.0,143369600.0,4565560342.3,58726678000.0
sh688256,寒武纪,2021-01-04,146.78,149.0,145.0,147.58,146.78,897563.0,131911443.0,4590444170.3,59046758000.0
sh688256,寒武纪,2021-01-05,146.88,154.49,146.44,152.95,147.58,1479982.0,224699811.0,4757476865.75,61195295000.0
sh688256,寒武纪,2021-01-06,151.01,156.0,149.11,150.1,152.95,1038467.0,157656611.0,4668828228.5,60055010000.0
sh688256,寒武纪,2021-01-07,149.78,149.98,141.51,143.25,150.1,1081015.0,156404569.0,4455760451.25,57314325000.0
sh688256,寒武纪,2021-01-08,143.9,147.46,142.0,146.48,143.25,687613.0,100091948.0,4556228906.8,58606648000.0
sh688256,寒武纪,2021-01-11,145.51,155.99,145.4,152.12,146.48,1327775.0,203070112.0,4731659894.2,60863212000.0
sh688256,寒武纪,2021-01-12,150.59,154.43,149.5,152.33,152.12,825878.0,125728804.0,4738191899.05,60947233000.0
sh688256,寒武纪,2021-01-13,151.93,153.55,147.1,149.61,152.33,1116522.0,166817178.0,4653586883.849999,59858961000.0
sh688256,寒武纪,2021-01-14,147.6,163.96,147.6,159.73,149.61,2815053.0,446309206.0,4968367308.05,63907973000.0
sh688256,寒武纪,2021-01-15,159.0,162.5,153.96,155.1,159.73,1741943.0,273870665.0,4824352153.5,62055510000.0
sh688256,寒武纪,2021-01-18,154.0,158.5,151.0,154.89,155.1,1148981.0,178673008.0,4817820148.65,61971489000.0
sh688256,寒武纪,2021-01-19,153.35,158.96,150.06,150.18,154.89,1425750.0,219647285.0,4671316611.3,60087018000.0
sh688256,寒武纪,2021-01-20,148.3,149.08,143.43,144.4,150.18,2151668.0,313031799.0,4764545001.6,57774440000.0
sh688256,寒武纪,2021-01-21,151.0,172.0,151.0,170.0,144.4,5186183.0,855545615.0,5609228880.0,68017000000.0
sh688256,寒武纪,2021-01-22,166.1,169.0,161.8,162.36,170.0,2714913.0,446876718.0,5357143535.04,64960236000.0
sh688256,寒武纪,2021-01-25,161.2,174.75,158.48,172.78,162.36,3569844.0,606605320.0,5700956269.92,69129278000.0
sh688256,寒武纪,2021-01-26,172.4,180.79,170.4,171.01,172.78,2787697.0,489800086.0,5642554298.639999,68421101000.0
sh688256,寒武纪,2021-01-27,171.72,175.09,163.71,165.62,171.01,1900147.0,317162873.0,5464708747.679999,66264562000.0
sh688256,寒武纪,2021-01-28,161.1,172.24,161.1,166.0,165.62,1477743.0,247506697.0,5477247023.999999,66416600000.0
sh688256,寒武纪,2021-01-29,166.59,167.99,152.0,153.6,166.0,2235775.0,352210476.0,5068103270.4,61455360000.0
sh688256,寒武纪,2021-02-01,150.5,156.54,149.35,150.99,153.6,1207520.0,182100414.0,4981985109.36,60411099000.0
sh688256,寒武纪,2021-02-02,151.99,152.5,147.09,147.69,150.99,1089143.0,161694578.0,4873100078.16,59090769000.0
sh688256,寒武纪,2021-02-03,147.44,149.97,144.1,144.13,147.69,1016571.0,148304549.0,4755636226.32,57666413000.0
sh688256,寒武纪,2021-02-04,143.94,145.75,138.28,141.06,144.13,1268737.0,178938785.0,4654340151.84,56438106000.0
sh688256,寒武纪,2021-02-05,141.34,143.6,137.81,137.89,141.06,747198.0,104680848.0,4549744530.96,55169789000.0
sh688256,寒武纪,2021-02-08,138.0,139.88,136.12,138.91,137.89,783964.0,108578726.0,4583399904.24,55577891000.0
sh688256,寒武纪,2021-02-09,138.91,148.0,138.91,145.3,138.91,1093978.0,158616757.0,4794240919.2,58134530000.0
sh688256,寒武纪,2021-02-10,147.5,147.5,143.6,145.84,145.3,954070.0,139304781.0,4812058469.76,58350584000.0
sh688256,寒武纪,2021-02-18,146.0,152.85,146.0,150.02,145.84,1183736.0,177640976.0,4949979509.28,60023002000.0
sh688256,寒武纪,2021-02-19,149.49,151.55,147.02,151.27,150.02,709191.0,105722587.0,4991223839.28,60523127000.0
sh688256,寒武纪,2021-02-22,151.25,154.9,148.0,148.07,151.27,942876.0,142634824.0,4885638354.48,59242807000.0
sh688256,寒武纪,2021-02-23,147.46,148.71,145.02,145.75,148.07,640966.0,93924096.0,4809088878.0,58314575000.0
sh688256,寒武纪,2021-02-24,145.77,149.93,145.21,145.68,145.75,793749.0,116847373.0,4806779195.52,58286568000.0
sh688256,寒武纪,2021-02-25,146.0,147.46,140.31,140.88,145.68,947113.0,134893716.0,4648400968.32,56366088000.0
sh688256,寒武纪,2021-02-26,138.93,145.0,137.19,144.02,140.88,1032104.0,144974102.0,4752006725.280001,57622402000.0
sh688256,寒武纪,2021-03-01,144.8,154.89,144.02,153.77,144.02,1832665.0,275750604.0,5073712499.28,61523377000.0
sh688256,寒武纪,2021-03-02,154.31,156.36,151.69,154.34,153.77,1101393.0,169657053.0,5092519913.76,61751434000.0
sh688256,寒武纪,2021-03-03,152.8,157.89,150.21,155.7,154.34,1023437.0,158457990.0,5137393744.8,62295570000.0
sh688256,寒武纪,2021-03-04,154.49,157.98,152.85,153.98,155.7,753258.0,116510448.0,5080641546.719999,61607398000.0
sh688256,寒武纪,2021-03-05,152.14,154.22,147.8,152.91,153.98,934997.0,141515596.0,5045336400.24,61179291000.0
sh688256,寒武纪,2021-03-08,154.0,158.68,151.3,156.71,152.91,1689326.0,264234979.0,5170719163.440001,62699671000.0
sh688256,寒武纪,2021-03-09,154.87,163.96,149.0,158.1,156.71,1783838.0,283495491.0,5216582858.400001,63255810000.0
sh688256,寒武纪,2021-03-10,162.9,163.9,157.62,158.25,158.1,1253668.0,201082425.0,5221532178.0,63315825000.0
sh688256,寒武纪,2021-03-11,157.5,163.79,155.12,162.3,158.25,1245247.0,200697512.0,5355163807.2,64936230000.0
sh688256,寒武纪,2021-03-12,161.5,167.77,153.0,153.0,162.3,2055302.0,332095506.0,5048305992.0,61215300000.0
sh688256,寒武纪,2021-03-15,150.28,152.9,146.0,146.58,153.0,1363301.0,201715407.0,4836475113.12,58646658000.0
sh688256,寒武纪,2021-03-16,148.9,149.5,145.72,147.2,146.58,516481.0,75975409.0,4856932300.8,58894720000.0
sh688256,寒武纪,2021-03-17,146.0,149.4,144.45,145.2,147.2,693799.0,101802314.0,4790941372.8,58094520000.0
sh688256,寒武纪,2021-03-18,144.6,146.38,144.1,144.22,145.2,484378.0,70222474.0,4758605818.08,57702422000.0
sh688256,寒武纪,2021-03-19,144.79,146.97,141.36,146.97,144.22,555914.0,80852839.0,4849343344.08,58802697000.0
sh688256,寒武纪,2021-03-22,146.7,148.18,145.2,147.25,146.97,388041.0,56955747.0,4858582074.0,58914725000.0
sh688256,寒武纪,2021-03-23,147.22,149.69,143.01,144.2,147.25,541806.0,79032076.0,4757945908.8,57694420000.0
sh688256,寒武纪,2021-03-24,143.1,144.7,141.26,141.4,144.2,404875.0,57680480.0,4665558609.6,56574140000.0
sh688256,寒武纪,2021-03-25,141.05,142.88,140.31,141.2,141.4,299195.0,42350751.0,4658959516.8,56494120000.0
sh688256,寒武纪,2021-03-26,142.01,143.25,141.34,142.84,141.2,340449.0,48481113.0,4713072077.76,57150284000.0
sh688256,寒武纪,2021-03-29,143.0,143.96,140.3,140.5,142.84,436434.0,61974872.0,4635862692.0,56214050000.0
sh688256,寒武纪,2021-03-30,139.5,141.58,139.5,140.19,140.5,277987.0,39013686.0,4625634098.16,56090019000.0
sh688256,寒武纪,2021-03-31,140.08,141.39,139.28,140.89,140.19,253713.0,35685445.0,4648730922.96,56370089000.0
sh688256,寒武纪,2021-04-01,141.55,145.18,141.42,143.19,140.89,472595.0,67767608.0,4724620490.16,57290319000.0
sh688256,寒武纪,2021-04-02,144.69,148.0,143.55,146.01,143.19,644778.0,94381919.0,4817667698.639999,58418601000.0
sh688256,寒武纪,2021-04-06,147.0,147.3,143.67,144.0,146.01,396193.0,57237161.0,4751346816.0,57614400000.0
sh688256,寒武纪,2021-04-07,144.24,144.24,142.01,143.3,144.0,306399.0,43828985.0,4728249991.2,57334330000.0
sh688256,寒武纪,2021-04-08,143.27,144.8,141.68,141.7,143.3,383048.0,54841983.0,4675457248.8,56694170000.0
sh688256,寒武纪,2021-04-09,141.41,142.0,139.86,142.0,141.7,516221.0,72607564.0,4685355888.0,56814200000.0
sh688256,寒武纪,2021-04-12,141.99,142.75,139.02,139.18,142.0,396495.0,55555951.0,4592308679.52,55685918000.0
sh688256,寒武纪,2021-04-13,138.38,139.83,138.11,138.59,139.18,323953.0,44964179.0,4572841355.759999,55449859000.0
sh688256,寒武纪,2021-04-14,138.59,140.56,138.31,139.11,138.59,321251.0,44719185.0,4589998997.04,55657911000.0
sh688256,寒武纪,2021-04-15,138.96,138.96,127.0,131.3,139.11,1169468.0,153899738.0,4332304423.2,52533130000.0
sh688256,寒武纪,2021-04-16,131.0,131.98,127.8,131.28,131.3,812413.0,105384468.0,4331644513.92,52525128000.0
sh688256,寒武纪,2021-04-19,131.39,133.25,129.67,132.46,131.28,760573.0,100223675.0,4370579161.440001,52997246000.0
sh688256,寒武纪,2021-04-20,132.5,132.54,128.56,128.63,132.46,976314.0,126968780.0,4244206534.32,51464863000.0
sh688256,寒武纪,2021-04-21,128.0,131.53,127.8,130.0,128.63,543986.0,70574278.0,4289410320.0,52013000000.0
sh688256,寒武纪,2021-04-22,129.99,131.48,129.55,130.6,130.0,517969.0,67732863.0,4309207598.400001,52253060000.0
sh688256,寒武纪,2021-04-23,130.0,131.87,129.38,129.96,130.6,483041.0,63119966.0,4288090501.44,51996996000.0
sh688256,寒武纪,2021-04-26,130.0,132.18,128.91,129.9,129.96,582032.0,76056919.0,4286110773.6,51972990000.0
sh688256,寒武纪,2021-04-27,128.81,128.81,119.21,119.4,129.9,1803468.0,221393716.0,3939658401.6,47771940000.0
sh688256,寒武纪,2021-04-28,120.51,120.6,116.58,118.2,119.4,1227983.0,144426131.0,3900063844.8,47291820000.0
sh688256,寒武纪,2021-04-29,117.5,120.47,116.02,116.25,118.2,829610.0,97531822.0,3835722690.0,46511625000.0
sh688256,寒武纪,2021-04-30,116.75,116.75,111.11,111.69,116.25,1394523.0,157212291.0,3685263374.16,44687169000.0
sh688256,寒武纪,2021-05-06,112.39,112.39,109.5,110.74,111.69,866877.0,95710486.0,3653917683.36,44307074000.0
sh688256,寒武纪,2021-05-07,110.83,111.48,106.66,106.71,110.74,806821.0,87517301.0,3520945963.44,42694671000.0
sh688256,寒武纪,2021-05-10,106.8,108.3,104.65,105.3,106.71,725846.0,77020382.0,3474422359.2000003,42130530000.0
sh688256,寒武纪,2021-05-11,105.81,113.0,105.48,111.02,105.3,1083472.0,119885636.0,3663156413.28,44419102000.0
sh688256,寒武纪,2021-05-12,110.77,111.81,107.84,109.81,111.02,542431.0,59294772.0,3623231901.84,43934981000.0
sh688256,寒武纪,2021-05-13,109.66,120.42,109.0,114.75,109.81,1745216.0,203368440.0,3786229494.0,45911475000.0
sh688256,寒武纪,2021-05-14,113.0,114.5,112.3,114.05,114.75,830514.0,94150565.0,3763132669.2,45631405000.0
sh688256,寒武纪,2021-05-17,113.56,115.9,112.22,112.26,114.05,725676.0,82320302.0,3704070788.64,44915226000.0
sh688256,寒武纪,2021-05-18,114.5,116.19,113.0,114.17,112.26,689561.0,79073376.0,3767092124.88,45679417000.0
sh688256,寒武纪,2021-05-19,113.17,114.5,112.0,112.66,114.17,439048.0,49627434.0,3717268974.24,45075266000.0
sh688256,寒武纪,2021-05-20,113.0,116.39,112.69,113.37,112.66,529786.0,60636568.0,3740695753.68,45359337000.0
sh688256,寒武纪,2021-05-21,113.36,114.46,112.43,112.84,113.37,426958.0,48341061.0,3723208157.76,45147284000.0
sh688256,寒武纪,2021-05-24,112.08,113.02,110.05,112.49,112.84,579324.0,64585333.0,3711659745.36,45007249000.0
sh688256,寒武纪,2021-05-25,112.0,114.68,112.0,114.07,112.49,689305.0,78344162.0,3763792578.48,45639407000.0
sh688256,寒武纪,2021-05-26,114.43,116.0,114.05,114.22,114.07,624648.0,71865066.0,3768741898.08,45699422000.0
sh688256,寒武纪,2021-05-27,114.0,119.39,113.41,118.29,114.22,1306466.0,153616070.0,3903033436.56,47327829000.0
sh688256,寒武纪,2021-05-28,117.7,117.7,115.04,115.35,118.29,865427.0,100618879.0,3806026772.4,46151535000.0
sh688256,寒武纪,2021-05-31,115.88,118.86,115.8,118.65,115.35,877705.0,103292964.0,3914911803.6,47471865000.0
sh688256,寒武纪,2021-06-01,119.58,127.71,119.58,124.6,118.65,2200445.0,275314463.0,4111234814.4,49852460000.0
sh688256,寒武纪,2021-06-02,122.8,125.46,121.81,123.25,124.6,1084944.0,133673158.0,4066690938.0,49312325000.0
sh688256,寒武纪,2021-06-03,124.25,124.59,121.0,122.1,123.25,759700.0,93199835.0,4028746154.4,48852210000.0
sh688256,寒武纪,2021-06-04,121.79,123.66,119.21,119.77,122.1,961428.0,116290237.0,3951866723.28,47919977000.0
sh688256,寒武纪,2021-06-07,121.0,125.76,120.5,121.14,119.77,1054954.0,129363986.0,3997070508.96,48468114000.0
sh688256,寒武纪,2021-06-08,120.7,120.95,116.7,117.36,121.14,1055117.0,125057108.0,3872347655.04,46955736000.0
sh688256,寒武纪,2021-06-09,118.0,119.72,117.03,117.25,117.36,729650.0,86072962.0,3868718154.0,46911725000.0
sh688256,寒武纪,2021-06-10,118.01,122.0,116.78,121.26,117.25,1197269.0,143098901.0,4001029964.64,48516126000.0
sh688256,寒武纪,2021-06-11,121.81,121.88,116.93,117.11,121.26,1107231.0,130870575.0,3864098789.04,46855711000.0
sh688256,寒武纪,2021-06-15,117.0,121.38,115.99,119.25,117.11,1162786.0,138567406.0,3934709082.0,47711925000.0
sh688256,寒武纪,2021-06-16,119.2,123.38,117.88,118.7,119.25,1108423.0,133610014.0,3916561576.8,47491870000.0
sh688256,寒武纪,2021-06-17,118.71,127.99,117.7,125.5,118.7,2301945.0,283860953.0,4140930732.0,50212550000.0
sh688256,寒武纪,2021-06-18,124.32,126.5,123.11,123.83,125.5,1316327.0,163712554.0,4085828307.12,49544383000.0
sh688256,寒武纪,2021-06-21,124.0,128.55,123.0,126.8,123.83,1358920.0,171698408.0,4183824835.2,50732680000.0
sh688256,寒武纪,2021-06-22,127.01,128.5,123.8,124.11,126.8,1187087.0,148764907.0,4095067037.04,49656411000.0
sh688256,寒武纪,2021-06-23,125.26,133.87,125.0,131.0,124.11,2590508.0,340237506.0,4322405784.0,52413100000.0
sh688256,寒武纪,2021-06-24,129.36,138.88,129.2,135.75,131.0,2590174.0,349346218.0,4479134238.0,54313575000.0
sh688256,寒武纪,2021-06-25,135.77,137.18,131.81,134.8,135.75,1682590.0,225925708.0,4447788547.2,53933480000.0
sh688256,寒武纪,2021-06-28,133.5,136.78,132.36,134.12,134.8,1388191.0,186610223.0,4425351631.68,53661412000.0
sh688256,寒武纪,2021-06-29,135.03,139.3,132.53,135.3,134.12,1786996.0,244405945.0,4464286279.2,54133530000.0
sh688256,寒武纪,2021-06-30,135.7,139.95,133.8,138.2,135.3,1913760.0,263715254.0,4559973124.8,55293820000.0
sh688256,寒武纪,2021-07-01,137.15,138.2,133.11,133.6,138.2,1703862.0,231268420.0,4408193990.4,53453360000.0
sh688256,寒武纪,2021-07-02,132.82,134.39,127.2,127.42,133.6,1433784.0,185357738.0,4204282022.88,50980742000.0
sh688256,寒武纪,2021-07-05,128.08,134.78,128.08,134.2,127.42,1694981.0,224800591.0,4427991268.8,53693420000.0
sh688256,寒武纪,2021-07-06,134.2,135.88,126.66,128.48,134.2,1749593.0,227716415.0,4239257214.72,51404848000.0
sh688256,寒武纪,2021-07-07,127.43,131.49,127.18,131.3,128.48,924795.0,120028335.0,4332304423.2,52533130000.0
sh688256,寒武纪,2021-07-08,132.18,134.2,129.7,132.45,131.3,1259481.0,166583970.0,4370249206.8,52993245000.0
sh688256,寒武纪,2021-07-09,133.94,138.5,133.39,134.39,132.45,2058838.0,281001411.0,4434260406.96,53769439000.0
sh688256,寒武纪,2021-07-12,134.01,134.01,129.0,131.81,134.39,1573532.0,206660340.0,4349132109.84,52737181000.0
sh688256,寒武纪,2021-07-13,131.8,132.68,126.51,126.61,131.81,1645690.0,211046170.0,4177555697.04,50656661000.0
sh688256,寒武纪,2021-07-14,126.65,127.1,121.19,121.2,126.61,1443599.0,177511108.0,3999050236.8,48492120000.0
sh688256,寒武纪,2021-07-15,121.0,121.56,117.82,119.0,121.2,937024.0,111578281.0,3926460216.0,47611900000.0
sh688256,寒武纪,2021-07-16,121.66,123.99,120.25,120.62,119.0,966367.0,118088688.0,3979912867.68,48260062000.0
sh688256,寒武纪,2021-07-19,122.59,122.61,116.56,116.8,120.62,1002147.0,118561059.0,3853870195.2,46731680000.0
sh688256,寒武纪,2021-07-20,112.0,113.0,106.6,108.32,116.8,4089074.0,448049209.0,26025829218.4,43338832000.0
sh688256,寒武纪,2021-07-21,108.91,109.08,107.28,107.46,108.32,3350580.0,362095761.0,25819198742.7,42994746000.0
sh688256,寒武纪,2021-07-22,108.17,111.2,105.38,110.92,107.46,4776462.0,518932794.0,26650526005.4,44379092000.0
sh688256,寒武纪,2021-07-23,106.6,107.01,101.12,102.27,110.92,5017008.0,519392368.0,24572207848.65,40918227000.0
sh688256,寒武纪,2021-07-26,100.99,103.64,97.0,102.41,102.27,3797106.0,381138358.0,24605845367.95,40974241000.0
sh688256,寒武纪,2021-07-27,102.0,119.6,101.02,108.8,102.41,9868443.0,1091023568.0,26141157856.0,43530880000.0
sh688256,寒武纪,2021-07-28,106.65,107.98,99.9,100.63,108.8,4843642.0,498055031.0,24178168336.85,40262063000.0
sh688256,寒武纪,2021-07-29,102.88,105.88,100.18,102.47,100.63,4410379.0,455158379.0,24620261447.65,40998247000.0
sh688256,寒武纪,2021-07-30,98.0,104.02,97.5,100.14,102.47,4006429.0,403162987.0,24060437019.3,40066014000.0
sh688256,寒武纪,2021-08-02,99.87,106.66,98.15,106.31,100.14,4381034.0,454737287.0,25542890548.45,42534631000.0
sh688256,寒武纪,2021-08-03,106.12,107.86,102.42,103.3,106.31,3031671.0,316578673.0,24819683883.5,41330330000.0
sh688256,寒武纪,2021-08-04,102.99,106.21,102.97,104.3,103.3,2491165.0,261299406.0,25059951878.5,41730430000.0
sh688256,寒武纪,2021-08-05,103.0,118.97,100.79,112.38,104.3,7893270.0,872776456.0,27001317278.1,44963238000.0
sh688256,寒武纪,2021-08-06,112.8,116.55,107.72,108.89,112.38,4513163.0,497752422.0,26162781975.55,43566889000.0
sh688256,寒武纪,2021-08-09,105.86,106.88,104.0,105.34,108.89,3056465.0,321967662.0,25309830593.3,42146534000.0
sh688256,寒武纪,2021-08-10,105.33,106.68,102.9,104.44,105.34,2945874.0,307603471.0,25093589397.800003,41786444000.0
sh688256,寒武纪,2021-08-11,104.0,104.9,102.56,103.65,104.44,1989887.0,205951403.0,24903777681.75,41470365000.0
sh688256,寒武纪,2021-08-12,102.2,106.31,101.91,103.65,103.65,2833638.0,295726486.0,24903777681.75,41470365000.0
sh688256,寒武纪,2021-08-13,103.0,103.0,99.5,99.71,103.65,3410618.0,343214774.0,23957121781.45,39893971000.0
sh688256,寒武纪,2021-08-16,99.35,101.78,98.3,99.75,99.71,1734329.0,173306556.0,23966732501.25,39909975000.0
sh688256,寒武纪,2021-08-17,99.75,102.32,98.8,98.8,99.75,2191958.0,219552442.0,23738477906.0,39529880000.0
sh688256,寒武纪,2021-08-18,98.39,99.53,97.81,98.16,98.8,1546885.0,152267417.0,23584706389.2,39273816000.0
sh688256,寒武纪,2021-08-19,97.98,100.5,97.85,98.61,98.16,1450820.0,143568102.0,23692826986.95,39453861000.0
sh688256,寒武纪,2021-08-20,99.47,101.18,98.5,99.9,98.61,2119301.0,211536825.0,24002772700.5,39969990000.0
sh688256,寒武纪,2021-08-23,100.05,100.88,98.33,100.48,99.9,2074689.0,207301010.0,24142128137.6,40202048000.0
sh688256,寒武纪,2021-08-24,100.9,100.9,98.58,98.7,100.48,2392136.0,237314636.0,23714451106.5,39489870000.0
sh688256,寒武纪,2021-08-25,99.5,99.53,97.6,98.25,98.7,1526154.0,150285797.0,23606330508.75,39309825000.0
sh688256,寒武纪,2021-08-26,98.2,98.88,91.6,91.6,98.25,4150295.0,392202979.0,22008548342.0,36649160000.0
sh688256,寒武纪,2021-08-27,91.41,92.5,90.8,91.41,91.6,1431774.0,131028574.0,21962897422.95,36573141000.0
sh688256,寒武纪,2021-08-30,91.28,94.78,91.02,92.86,91.41,1722145.0,160415125.0,22311286015.7,37153286000.0
sh688256,寒武纪,2021-08-31,92.06,92.75,87.29,88.66,92.86,2368733.0,210334574.0,21302160436.7,35472866000.0
sh688256,寒武纪,2021-09-01,88.66,89.82,86.89,89.6,88.66,1622639.0,143529623.0,21528012352.0,35848960000.0
sh688256,寒武纪,2021-09-02,89.26,89.85,87.63,88.18,89.6,1262185.0,111536072.0,21186831799.1,35280818000.0
sh688256,寒武纪,2021-09-03,88.4,94.35,88.19,91.41,88.18,2077652.0,189801847.0,21962897422.95,36573141000.0
sh688256,寒武纪,2021-09-06,90.89,93.22,90.01,91.6,91.41,1711109.0,157089393.0,22008548342.0,36649160000.0
sh688256,寒武纪,2021-09-07,91.32,92.3,90.04,90.64,91.6,1453677.0,131912025.0,21777891066.800003,36265064000.0
sh688256,寒武纪,2021-09-08,90.65,92.96,90.48,92.61,90.64,1723207.0,158473096.0,22251219016.95,37053261000.0
sh688256,寒武纪,2021-09-09,92.55,92.55,90.18,90.3,92.61,1406485.0,127866797.0,21696199948.5,36129030000.0
sh688256,寒武纪,2021-09-10,90.3,92.69,89.51,91.74,90.3,2027023.0,185152144.0,22042185861.300003,36705174000.0
sh688256,寒武纪,2021-09-13,91.5,91.5,89.35,89.62,91.74,1509806.0,135913165.0,21532817711.9,35856962000.0
sh688256,寒武纪,2021-09-14,89.6,90.36,88.36,88.5,89.62,1311831.0,117231600.0,21263717557.5,35408850000.0
sh688256,寒武纪,2021-09-15,88.31,89.03,85.81,86.16,88.5,1888885.0,163894407.0,20701490449.2,34472616000.0
sh688256,寒武纪,2021-09-16,86.2,86.88,85.02,85.06,86.16,1285868.0,110162934.0,20437195654.7,34032506000.0
sh688256,寒武纪,2021-09-17,85.8,86.14,84.63,85.88,85.06,1202397.0,102704148.0,20634215410.6,34360588000.0
sh688256,寒武纪,2021-09-22,84.77,84.92,82.35,82.83,85.88,1757517.0,146705769.0,19901398025.85,33140283000.0
sh688256,寒武纪,2021-09-23,82.68,84.45,82.36,83.4,82.83,1136970.0,95224454.0,20038350783.0,33368340000.0
sh688256,寒武纪,2021-09-24,83.45,84.3,81.87,81.99,83.4,1224907.0,101552249.0,19699572910.05,32804199000.0
sh688256,寒武纪,2021-09-27,82.64,83.5,79.3,79.71,81.99,1779415.0,143727698.0,19151761881.45,31891971000.0
sh688256,寒武纪,2021-09-28,79.91,81.75,78.82,80.13,79.71,1179351.0,94785501.0,19252674439.35,32060013000.0
sh688256,寒武纪,2021-09-29,79.52,80.0,77.88,78.15,80.13,1495766.0,117934274.0,18776943809.25,31267815000.0
sh688256,寒武纪,2021-09-30,78.79,80.6,78.19,79.62,78.15,1138408.0,90722722.0,19130137761.9,31855962000.0
sh688256,寒武纪,2021-10-08,79.5,82.77,79.5,81.47,79.62,1176755.0,95694024.0,19574633552.65,32596147000.0
sh688256,寒武纪,2021-10-11,81.99,82.37,81.21,82.0,81.47,889807.0,72830852.0,19701975590.0,32808200000.0
sh688256,寒武纪,2021-10-12,81.1,81.81,78.79,79.71,82.0,1274026.0,101726011.0,19151761881.45,31891971000.0
sh688256,寒武纪,2021-10-13,79.9,82.13,79.5,80.35,79.71,1558030.0,125525307.0,19305533398.25,32148035000.0
sh688256,寒武纪,2021-10-14,79.65,80.2,79.03,79.13,80.35,1146078.0,90896322.0,19012406444.35,31659913000.0
sh688256,寒武纪,2021-10-15,79.14,80.7,78.54,79.75,79.13,1340769.0,106842755.0,19161372601.25,31907975000.0
sh688256,寒武纪,2021-10-18,79.75,79.75,76.5,77.25,79.75,2012742.0,155715190.0,18560702613.75,30907725000.0
sh688256,寒武纪,2021-10-19,77.18,77.68,76.31,76.95,77.25,1319550.0,101624684.0,18488622215.25,30787695000.0
sh688256,寒武纪,2021-10-20,77.4,78.75,77.11,77.43,76.95,1634745.0,127425723.0,18603950852.85,30979743000.0
sh688256,寒武纪,2021-10-21,77.3,77.47,75.51,75.61,77.43,1829592.0,139540423.0,18166663101.95,30251561000.0
sh688256,寒武纪,2021-10-22,76.46,76.93,75.61,75.78,75.61,1623772.0,123859898.0,18207508661.1,30319578000.0
sh688256,寒武纪,2021-10-25,75.45,76.23,73.88,76.1,75.78,1764031.0,132053203.0,18284394419.5,30447610000.0
sh688256,寒武纪,2021-10-26,76.0,81.18,75.72,79.02,76.1,3989487.0,317375717.0,18985976964.9,31615902000.0
sh688256,寒武纪-U,2021-10-27,78.2,79.59,74.35,74.97,79.02,2654103.0,201839320.0,18012891585.15,29995497000.0
sh688256,寒武纪,2021-10-28,74.79,76.33,73.9,74.33,74.97,1374779.0,103186038.0,17859120068.35,29739433000.0
sh688256,寒武纪,2021-10-29,74.42,77.89,74.34,76.61,74.33,1938323.0,148050389.0,18406931096.95,30651661000.0
sh688256,寒武纪,2021-11-01,76.0,80.2,74.87,79.88,76.61,2536330.0,198817919.0,19192607440.6,31959988000.0
sh688256,寒武纪,2021-11-02,79.86,81.0,78.15,78.75,79.88,1944040.0,154713774.0,18921104606.25,31507875000.0
sh688256,寒武纪,2021-11-03,78.61,80.48,78.21,78.81,78.75,1406502.0,111343666.0,18935520685.95,31531881000.0
sh688256,寒武纪,2021-11-04,83.0,86.88,81.7,84.38,78.81,5233719.0,444335843.0,20273813418.1,33760438000.0
sh688256,寒武纪,2021-11-05,85.89,90.9,84.59,85.1,84.38,7834570.0,685203546.0,20446806374.5,34048510000.0
sh688256,寒武纪,2021-11-08,83.98,84.67,81.63,81.89,85.1,3303032.0,272172512.0,19675546110.55,32764189000.0
sh688256,寒武纪,2021-11-09,81.5,86.5,81.35,85.0,81.89,3101708.0,262039249.0,20422779575.0,34008500000.0
sh688256,寒武纪,2021-11-10,84.51,86.0,82.97,83.95,85.0,2251433.0,189658979.0,20170498180.25,33588395000.0
sh688256,寒武纪,2021-11-11,83.98,85.65,82.77,84.22,83.95,2745878.0,231121307.0,20235370538.9,33696422000.0
sh688256,寒武纪,2021-11-12,85.5,88.7,84.5,85.67,84.22,3500745.0,301867157.0,20583759131.65,34276567000.0
sh688256,寒武纪,2021-11-15,85.68,88.13,85.56,86.4,85.67,2503711.0,217359712.0,20759154768.0,34568640000.0
sh688256,寒武纪,2021-11-16,86.1,86.7,82.85,82.96,86.4,2334553.0,196503655.0,19932632865.2,33192296000.0
sh688256,寒武纪,2021-11-17,82.7,84.09,82.62,83.02,82.96,1437806.0,119733616.0,19947048944.9,33216302000.0
sh688256,寒武纪,2021-11-18,83.98,85.77,82.8,83.2,83.02,2249203.0,188424638.0,19990297184.0,33288320000.0
sh688256,寒武纪,2021-11-19,83.35,84.74,82.5,83.75,83.2,1785711.0,148973305.0,20122444581.25,33508375000.0
sh688256,寒武纪,2021-11-22,83.61,86.83,83.02,86.67,83.75,2933463.0,250700792.0,20824027126.65,34676667000.0
sh688256,寒武纪,2021-11-23,85.99,87.27,85.5,85.98,86.67,2077620.0,179110726.0,20658242210.1,34400598000.0
sh688256,寒武纪,2021-11-24,85.7,95.81,85.41,95.54,85.98,9747261.0,896049910.0,22955204242.3,38225554000.0
sh688256,寒武纪,2021-11-25,95.0,103.58,94.1,100.94,95.54,11396853.0,1142696704.0,24252651415.300003,40386094000.0
sh688256,寒武纪,2021-11-26,99.49,102.0,97.55,97.58,100.94,5393858.0,533663459.0,23445350952.1,39041758000.0
sh688256,寒武纪,2021-11-29,96.61,96.8,93.66,95.6,97.58,4278274.0,407775966.0,22969620321.999996,38249560000.0
sh688256,寒武纪,2021-11-30,96.65,100.5,96.6,96.6,95.6,5673424.0,556422640.0,23209888317.0,38649660000.0
sh688256,寒武纪,2021-12-01,98.33,99.1,94.49,94.8,96.6,4377410.0,420481366.0,22777405926.0,37929480000.0
sh688256,寒武纪,2021-12-02,94.46,95.58,90.8,90.99,94.8,3801334.0,351487698.0,21861984865.05,36405099000.0
sh688256,寒武纪,2021-12-03,90.97,95.97,90.61,94.03,90.99,3766481.0,350494523.0,22592399569.850002,37621403000.0
sh688256,寒武纪,2021-12-06,93.65,93.95,91.02,91.2,94.03,2235704.0,206035175.0,21912441144.0,36489120000.0
sh688256,寒武纪,2021-12-07,91.2,92.4,89.4,91.78,91.2,2516691.0,227778325.0,22051796581.100002,36721178000.0
sh688256,寒武纪,2021-12-08,92.26,97.1,92.26,97.0,91.78,4110122.0,390187954.0,23305995515.0,38809700000.0
sh688256,寒武纪,2021-12-09,96.34,98.25,95.49,97.01,97.0,3563157.0,345953398.0,23308398194.95,38813701000.0
sh688256,寒武纪,2021-12-10,97.0,102.68,96.5,102.0,97.01,7757066.0,780317453.0,24507335490.0,40810200000.0
sh688256,寒武纪,2021-12-13,102.0,106.7,101.01,105.87,102.0,6801923.0,712656982.0,25437172630.65,42358587000.0
sh688256,寒武纪,2021-12-14,105.87,105.97,98.82,98.9,105.87,5595836.0,565598396.0,23762504705.500004,39569890000.0
sh688256,寒武纪,2021-12-15,99.5,100.0,96.28,96.5,98.9,3333211.0,325383010.0,23185861517.500004,38609650000.0
sh688256,寒武纪,2021-12-16,97.88,98.46,96.11,97.0,96.5,2559880.0,248993884.0,23305995515.0,38809700000.0
sh688256,寒武纪,2021-12-17,96.6,96.8,93.56,93.76,97.0,2906074.0,274431060.0,22527527211.199997,37513376000.0
sh688256,寒武纪,2021-12-20,93.0,94.7,89.35,89.68,93.76,3729491.0,339268779.0,21547233791.6,35880968000.0
sh688256,寒武纪,2021-12-21,90.1,91.43,89.7,91.0,89.68,1855193.0,168302682.0,21864387544.999996,36409100000.0
sh688256,寒武纪,2021-12-22,91.1,91.35,90.01,90.71,91.0,1803377.0,163895743.0,21794709826.449997,36293071000.0
sh688256,寒武纪,2021-12-23,90.02,90.69,88.5,88.89,90.71,2058715.0,183435726.0,21357422075.550003,35564889000.0
sh688256,寒武纪,2021-12-24,89.2,91.7,88.3,91.06,88.89,2341013.0,210847074.0,21878803624.7,36433106000.0
sh688256,寒武纪,2021-12-27,90.77,92.22,89.45,91.39,91.06,1595151.0,144945821.0,21958092063.05,36565139000.0
sh688256,寒武纪,2021-12-28,91.49,92.65,89.99,92.1,91.39,1545364.0,141919147.0,22128682339.499996,36849210000.0
sh688256,寒武纪,2021-12-29,91.1,91.68,89.82,89.97,92.1,1159302.0,104560285.0,21616911510.149998,35996997000.0
sh688256,寒武纪,2021-12-30,89.88,92.5,89.58,92.0,89.97,2128201.0,193792284.0,22104655540.0,36809200000.0
sh688256,寒武纪,2021-12-31,91.57,96.6,91.57,95.1,92.0,2856528.0,270323768.0,22849486324.5,38049510000.0
sh688256,寒武纪,2022-01-04,102.0,105.5,98.15,98.58,95.1,6934493.0,704829803.0,23685618947.100002,39441858000.0
sh688256,寒武纪,2022-01-05,97.0,99.44,95.13,97.3,98.58,2937530.0,285071080.0,23378075913.5,38929730000.0
sh688256,寒武纪,2022-01-06,96.95,96.95,93.6,94.3,97.3,2175079.0,206732817.0,22657271928.500004,37729430000.0
sh688256,寒武纪,2022-01-07,95.57,97.38,90.9,91.06,94.3,3039483.0,284794257.0,21878803624.7,36433106000.0
sh688256,寒武纪,2022-01-10,90.98,92.15,89.01,91.24,91.06,1549395.0,140573238.0,21922051863.8,36505124000.0
sh688256,寒武纪,2022-01-11,90.06,92.45,90.06,91.4,91.24,1251297.0,114452941.0,21960494743.0,36569140000.0
sh688256,寒武纪,2022-01-12,91.43,92.5,90.82,92.18,91.4,1017151.0,93253516.0,22147903779.1,36881218000.0
sh688256,寒武纪,2022-01-13,92.78,95.66,91.99,93.1,92.18,2088099.0,196688768.0,22368950334.5,37249310000.0
sh688256,寒武纪,2022-01-14,92.0,94.46,89.86,90.55,93.1,2264666.0,207970635.0,21756266947.25,36229055000.0
