数据由邢不行整理
股票代码,股票名称,交易日期,开盘价,最高价,最低价,收盘价,前收盘价,成交量,成交额,流通市值,总市值
sh688106,N金宏,2020-06-16,40.11,45.0,38.51,38.93,15.48,71137880.0,2909489133.0,3965265369.7,18855099262.0
sh688106,金宏气体,2020-06-17,37.86,40.67,37.24,38.81,38.93,40356497.0,1581470722.0,3953042614.9,18796979254.0
sh688106,金宏气体,2020-06-18,38.22,40.0,36.36,38.8,38.81,37141747.0,1420304752.0,3952024052.0,18792135920.0
sh688106,金宏气体,2020-06-19,38.13,39.5,37.5,37.76,38.8,23159319.0,887209649.0,3846093510.4,18288429184.0
sh688106,金宏气体,2020-06-22,38.1,42.15,38.1,40.01,37.76,37225536.0,1499512982.0,4075270162.9,19378179334.0
sh688106,金宏气体,2020-06-23,42.0,48.01,41.5,48.01,40.01,45504485.0,2048788705.0,4890120482.9,23252846534.0
sh688106,金宏气体,2020-06-24,48.3,52.9,46.5,47.56,48.01,41959886.0,2075706802.0,4844285152.4,23034896504.0
sh688106,金宏气体,2020-06-29,51.45,53.8,50.01,50.4,47.56,28083539.0,1440462122.0,5133557016.0,24410403360.0
sh688106,金宏气体,2020-06-30,51.03,52.9,50.0,51.98,50.4,23215140.0,1194050215.0,5294489954.200001,25175650132.0
sh688106,金宏气体,2020-07-01,51.7,55.49,51.0,53.37,51.98,24793402.0,1313248179.0,5436070197.3,25848873558.0
sh688106,金宏气体,2020-07-02,52.11,54.39,51.0,51.29,53.37,22304718.0,1172268516.0,5224209114.1,24841460086.0
sh688106,金宏气体,2020-07-03,50.1,51.1,47.0,49.17,51.29,27781023.0,1359197427.0,5008273779.3,23814673278.0
sh688106,金宏气体,2020-07-06,49.9,56.99,48.5,55.81,49.17,34378414.0,1826451003.0,5684599544.900001,27030647054.0
sh688106,金宏气体,2020-07-07,56.3,59.4,54.44,54.64,55.81,30955916.0,1755354145.0,5565427685.6,26463976976.0
sh688106,金宏气体,2020-07-08,54.0,55.35,52.95,54.96,54.64,19177547.0,1038434546.0,5598021698.4,26618963664.0
sh688106,金宏气体,2020-07-09,55.89,58.76,54.3,56.45,54.96,20975077.0,1179921736.0,5749787570.5,27340620430.0
sh688106,金宏气体,2020-07-10,55.8,56.88,53.59,54.13,56.45,17617447.0,965847835.0,5513480977.7,26216966942.0
sh688106,金宏气体,2020-07-13,54.1,56.17,53.53,55.87,54.13,18425982.0,1014588277.0,5690710922.299999,27059707058.0
sh688106,金宏气体,2020-07-14,55.18,55.35,50.5,53.72,55.87,22980281.0,1221428201.0,5471719898.8,26018390248.0
sh688106,金宏气体,2020-07-15,53.01,53.41,47.25,47.5,53.72,17382418.0,866633258.0,4838173775.0,23005836500.0
sh688106,金宏气体,2020-07-16,47.0,47.0,40.5,41.97,47.5,16603937.0,726718108.0,4274908491.3,20327472798.0
sh688106,金宏气体,2020-07-17,42.23,42.88,40.1,40.69,41.97,10665724.0,442954798.0,4144532440.1,19707526046.0
sh688106,金宏气体,2020-07-20,41.28,41.47,38.66,41.19,40.69,11105438.0,445836677.0,4195460585.1,19949692746.0
sh688106,金宏气体,2020-07-21,40.89,42.2,39.79,40.91,41.19,12278925.0,502362784.0,4166940823.9,19814079394.0
sh688106,金宏气体,2020-07-22,40.44,44.38,39.6,43.45,40.91,15489280.0,656271303.0,4425655800.5,21044286230.0
sh688106,金宏气体,2020-07-23,42.6,43.34,41.2,42.16,43.45,9413922.0,398013323.0,4294261186.4,20419496144.0
sh688106,金宏气体,2020-07-24,41.05,41.95,38.09,38.11,42.16,9824071.0,391576179.0,3881743211.9,18457945874.0
sh688106,金宏气体,2020-07-27,38.91,39.29,37.13,37.58,38.11,5666678.0,216066613.0,3827759378.2,18201249172.0
sh688106,金宏气体,2020-07-28,38.3,38.79,37.88,38.48,37.58,5065277.0,194266317.0,3919430039.2,18637149232.0
sh688106,金宏气体,2020-07-29,38.5,40.83,38.2,40.47,38.48,7854084.0,312259457.0,4122124056.3,19600972698.0
sh688106,金宏气体,2020-07-30,40.4,42.29,39.56,41.17,40.47,9593702.0,391097443.0,4193423459.3,19940006078.0
sh688106,金宏气体,2020-07-31,40.6,43.21,40.4,41.81,41.17,9418076.0,394936340.0,4258611484.9,20249979454.0
sh688106,金宏气体,2020-08-03,42.83,43.62,41.5,42.15,41.81,10870816.0,462092544.0,4293242623.5,20414652810.0
sh688106,金宏气体,2020-08-04,42.17,42.48,40.3,40.61,42.15,7548352.0,310031566.0,4136383936.9,19668779374.0
sh688106,金宏气体,2020-08-05,42.2,42.42,40.38,40.51,40.61,6980129.0,286581129.0,4126198307.9,19620346034.0
sh688106,金宏气体,2020-08-06,40.2,40.4,38.9,39.33,40.51,7111155.0,281665495.0,4006007885.7,19048832622.0
sh688106,金宏气体,2020-08-07,39.47,39.75,37.88,38.15,39.33,5797827.0,223866861.0,3885817463.5,18477319210.0
sh688106,金宏气体,2020-08-10,38.16,40.99,37.87,39.99,38.15,8432615.0,336350679.0,4073233037.1,19368492666.0
sh688106,金宏气体,2020-08-11,39.91,46.38,39.0,44.0,39.99,23890670.0,1033853791.0,4481676760.0,21310669600.0
sh688106,金宏气体,2020-08-12,43.32,44.88,41.55,42.89,44.0,14834041.0,640957506.0,4368616278.099999,20773059526.0
sh688106,金宏气体,2020-08-13,43.5,43.77,40.55,40.69,42.89,11480834.0,475759571.0,4144532440.1,19707526046.0
sh688106,金宏气体,2020-08-14,40.29,40.99,39.08,40.04,40.69,8119513.0,323497516.0,4078325851.6,19392709336.0
sh688106,金宏气体,2020-08-17,40.89,40.89,39.7,40.6,40.04,5390371.0,217271451.0,4135365374.0,19663936040.0
sh688106,金宏气体,2020-08-18,40.99,41.9,40.3,40.75,40.6,5501501.0,225030327.0,4150643817.5,19736586050.0
sh688106,金宏气体,2020-08-19,41.0,41.14,38.57,38.74,40.75,6667056.0,262883852.0,3945912674.6,18763075916.0
sh688106,金宏气体,2020-08-20,38.31,39.88,38.11,38.9,38.74,4875080.0,190388449.0,3962209681.0,18840569260.0
sh688106,金宏气体,2020-08-21,39.3,39.6,38.51,38.68,38.9,3529538.0,137332068.0,3939801297.2,18734015912.0
sh688106,金宏气体,2020-08-24,39.19,40.41,38.39,39.78,38.68,5320145.0,211196209.0,4051843216.2,19266782652.0
sh688106,金宏气体,2020-08-25,39.79,40.23,38.66,38.88,39.78,4280318.0,167692866.0,3960172555.2,18830882592.0
sh688106,金宏气体,2020-08-26,38.66,39.22,35.88,36.0,38.88,8863226.0,330097024.0,3805966440.0,17436002400.0
sh688106,金宏气体,2020-08-27,36.0,38.36,35.09,38.2,36.0,8088142.0,298972324.0,4038553278.000001,18501535880.0
sh688106,金宏气体,2020-08-28,38.3,39.99,37.87,38.99,38.2,7606574.0,297687821.0,4122073097.1,18884159266.0
sh688106,金宏气体,2020-08-31,38.99,39.68,38.32,38.98,38.99,5389896.0,210969150.0,4121015884.2,18879315932.0
sh688106,金宏气体,2020-09-01,39.0,39.38,38.61,38.76,38.98,3257140.0,126788372.0,4097757200.4,18772762584.0
sh688106,金宏气体,2020-09-02,39.03,39.1,37.32,37.52,38.76,4910930.0,186427569.0,3966662800.8,18172189168.0
sh688106,金宏气体,2020-09-03,37.54,38.27,36.8,37.04,37.52,4545243.0,170125320.0,3915916581.6,17939709136.0
sh688106,金宏气体,2020-09-04,36.5,38.58,36.48,37.65,37.04,5048315.0,190677825.0,3980406568.500001,18235152510.0
sh688106,金宏气体,2020-09-07,37.19,38.85,36.5,37.8,37.65,8023538.0,302399567.0,3996264762.0,18307802520.0
sh688106,金宏气体,2020-09-08,37.86,38.42,37.3,37.3,37.8,3766953.0,142368245.0,3943404117.0,18065635820.0
sh688106,金宏气体,2020-09-09,36.91,37.04,35.1,35.13,37.3,5886228.0,211408824.0,3713988917.7,17014632342.0
sh688106,金宏气体,2020-09-10,35.5,36.23,33.92,34.0,35.13,4158071.0,145933030.0,3594523860.0,16467335600.0
sh688106,金宏气体,2020-09-11,34.01,34.7,33.5,34.49,34.0,3222773.0,110174858.0,3646327292.1,16704658966.0
sh688106,金宏气体,2020-09-14,35.0,35.75,34.8,35.05,34.49,3063711.0,108028545.0,3705531214.5,16975885670.0
sh688106,金宏气体,2020-09-15,35.28,36.1,34.7,35.52,35.05,3364192.0,119514194.0,3755220220.8,17203522368.0
sh688106,金宏气体,2020-09-16,35.38,35.81,34.51,34.91,35.52,3066594.0,107643531.0,3690730233.9,16908078994.0
sh688106,金宏气体,2020-09-17,34.75,36.87,34.5,36.19,34.91,6244779.0,224970560.0,3826053485.1,17528025746.0
sh688106,金宏气体,2020-09-18,36.21,37.2,36.06,36.42,36.19,3838522.0,140145307.0,3850369381.8,17639422428.0
sh688106,金宏气体,2020-09-21,36.42,36.79,35.75,35.9,36.42,2793140.0,100956410.0,3795394311.0,17387569060.0
sh688106,金宏气体,2020-09-22,35.3,35.86,34.88,35.1,35.9,2367079.0,83622716.0,3710817279.0,17000102340.0
sh688106,金宏气体,2020-09-23,35.17,36.0,35.17,35.65,35.1,2300941.0,81981680.0,3768963988.5,17266485710.0
sh688106,金宏气体,2020-09-24,35.24,35.64,34.56,34.62,35.65,2431348.0,85199294.0,3660071059.8,16767622308.0
sh688106,金宏气体,2020-09-25,34.84,35.1,33.82,34.04,34.62,2002395.0,68617466.0,3598752711.6,16486708936.0
sh688106,金宏气体,2020-09-28,34.0,34.19,32.7,32.73,34.04,2360049.0,78952671.0,3460257821.7000003,15852232182.0
sh688106,金宏气体,2020-09-29,33.15,33.78,32.4,33.32,32.73,4499887.0,148559408.0,3522633382.8,16137988888.0
sh688106,金宏气体,2020-09-30,33.42,33.7,32.07,32.16,33.32,4180176.0,136561851.0,3399996686.4,15576162144.0
sh688106,金宏气体,2020-10-09,32.68,33.79,32.67,33.29,32.16,3286743.0,109099398.0,3519461744.1,16123458886.0
sh688106,金宏气体,2020-10-12,33.75,34.79,33.53,34.53,33.29,3679122.0,126167449.0,3650556143.7,16724032302.000002
sh688106,金宏气体,2020-10-13,34.5,34.74,34.04,34.18,34.53,2523969.0,86339505.0,3613553692.2,16554515612.000002
sh688106,金宏气体,2020-10-14,34.2,34.22,33.62,33.65,34.18,2122030.0,71761093.0,3557521408.5000005,16297818910.0
sh688106,金宏气体,2020-10-15,33.6,34.21,33.11,33.27,33.65,2344959.0,79079243.0,3517347318.3,16113772218.0
sh688106,金宏气体,2020-10-16,33.53,33.8,32.71,32.9,33.27,1848158.0,61055596.0,3478230441.0,15934568860.0
sh688106,金宏气体,2020-10-19,33.0,33.98,32.9,33.27,32.9,2220524.0,73998085.0,3517347318.3,16113772218.0
sh688106,金宏气体,2020-10-20,33.38,33.38,32.4,33.15,33.27,2289141.0,75087564.0,3504660763.5,16055652209.999998
sh688106,金宏气体,2020-10-21,33.3,33.66,32.5,32.54,33.15,2362846.0,77914083.0,3440170776.6,15760208836.0
sh688106,金宏气体,2020-10-22,32.41,32.74,32.11,32.13,32.54,2145564.0,69432819.0,3396825047.7,15561632142.0
sh688106,金宏气体,2020-10-23,32.07,32.4,31.28,31.28,32.13,2580618.0,82052807.0,3306961951.2,15149948751.999998
sh688106,金宏气体,2020-10-26,31.09,31.58,30.38,31.09,31.28,1889087.0,58629640.0,3286874906.1,15057925406.0
sh688106,金宏气体,2020-10-27,30.91,31.39,30.7,31.0,31.09,1482249.0,45887959.0,3277359990.0,15014335400.0
sh688106,金宏气体,2020-10-28,31.03,31.17,30.51,30.72,31.0,1725692.0,53201687.0,3247758028.8,14878722048.0
sh688106,金宏气体,2020-10-29,30.4,30.42,29.58,30.13,30.72,3352953.0,100790403.0,3185382467.7000003,14592965342.000002
sh688106,金宏气体,2020-10-30,30.19,30.84,29.3,29.3,30.13,5337897.0,161199784.0,3097633797.0,14190968620.0
sh688106,金宏气体,2020-11-02,29.29,29.39,27.94,28.36,29.3,4689340.0,133375135.0,2998255784.4,13735695223.999998
sh688106,金宏气体,2020-11-03,28.3,29.88,28.3,29.58,28.36,3498457.0,102514643.0,3127235758.2000003,14326581972.0
sh688106,金宏气体,2020-11-04,29.7,29.95,29.13,29.22,29.58,2323019.0,68369507.0,3089176093.8,14152221948.0
sh688106,金宏气体,2020-11-05,30.09,30.21,29.08,29.41,29.22,2460392.0,72420810.0,3109263138.9,14244245294.000002
sh688106,金宏气体,2020-11-06,29.52,29.95,29.07,29.2,29.41,3090208.0,91003701.0,3087061668.0,14142535280.0
sh688106,金宏气体,2020-11-09,29.68,31.31,29.42,31.01,29.2,6037955.0,185256460.0,3278417202.9,15019178734.0
sh688106,金宏气体,2020-11-10,31.21,31.92,30.68,31.1,31.01,4663949.0,146100879.0,3287932119.0,15062768740.0
sh688106,金宏气体,2020-11-11,31.0,31.39,30.22,30.27,31.1,3179780.0,97568678.0,3200183448.3,14660772018.0
sh688106,金宏气体,2020-11-12,30.6,30.87,29.78,30.09,30.27,2283331.0,69198185.0,3181153616.1000004,14573592006.000002
sh688106,金宏气体,2020-11-13,29.9,30.46,29.71,30.24,30.09,1867778.0,56346019.0,3197011809.6000004,14646242016.0
sh688106,金宏气体,2020-11-16,30.25,30.6,29.99,30.06,30.24,1846371.0,55879136.0,3177981977.4,14559062004.0
sh688106,金宏气体,2020-11-17,30.03,30.05,28.78,29.27,30.06,3161025.0,92060373.0,3094462158.3,14176438618.0
sh688106,金宏气体,2020-11-18,29.2,29.49,28.8,29.01,29.27,1864081.0,54206369.0,3066974622.9,14050511934.0
sh688106,金宏气体,2020-11-19,29.13,29.27,28.85,28.99,29.01,1504890.0,43700340.0,3064860197.1000004,14040825266.0
sh688106,金宏气体,2020-11-20,29.0,29.11,28.66,28.92,28.99,1718342.0,49605731.0,3057459706.8,14006921928.0
sh688106,金宏气体,2020-11-23,29.09,29.22,28.81,28.93,28.92,1997046.0,57854562.0,3058516919.7,14011765262.0
sh688106,金宏气体,2020-11-24,29.15,29.48,28.9,28.92,28.93,2078618.0,60541689.0,3057459706.8,14006921928.0
sh688106,金宏气体,2020-11-25,28.93,29.08,28.18,28.3,28.92,2726116.0,77711583.0,2991912506.9999995,13706635220.000002
sh688106,金宏气体,2020-11-26,28.21,28.46,27.8,27.89,28.3,1913293.0,53709709.0,2948566778.1000004,13508058526.000002
sh688106,金宏气体,2020-11-27,27.95,29.19,27.95,28.4,27.89,3262062.0,93230495.0,3002484636.0,13755068560.0
sh688106,金宏气体,2020-11-30,28.55,28.99,28.01,28.35,28.4,2109935.0,59965650.0,2997198571.5,13730851890.0
sh688106,金宏气体,2020-12-01,28.5,28.78,28.18,28.58,28.35,1917809.0,54674404.0,3021514468.2000003,13842248572.0
sh688106,金宏气体,2020-12-02,28.76,30.36,28.5,29.77,28.58,5942201.0,176353610.0,3147322803.3,14418605318.0
sh688106,金宏气体,2020-12-03,29.67,30.12,29.32,29.5,29.77,2843088.0,84192187.0,3118778055.0,14287835300.0
sh688106,金宏气体,2020-12-04,29.3,29.88,29.12,29.7,29.5,2350081.0,69599155.0,3139922313.0,14384701980.0
sh688106,金宏气体,2020-12-07,30.33,30.9,29.6,29.96,29.7,2951353.0,88622262.0,3167409848.4,14510628664.0
sh688106,金宏气体,2020-12-08,30.28,30.29,28.56,28.69,29.96,4009112.0,117030297.0,3033143810.1,13895525245.999998
sh688106,金宏气体,2020-12-09,28.56,29.5,28.3,28.32,28.69,2925960.0,84742507.0,2994026932.8,13716321887.999998
sh688106,金宏气体,2020-12-10,28.29,30.48,28.1,29.86,28.32,6769745.0,201292178.0,3156837719.4,14462195324.0
sh688106,金宏气体,2020-12-11,30.41,30.63,29.26,29.96,29.86,5550653.0,166309013.0,3167409848.4,14510628664.0
sh688106,金宏气体,2020-12-14,30.0,30.0,28.6,29.07,29.96,3546607.0,103081769.0,3073317900.3,14079571938.0
sh688106,金宏气体,2020-12-15,28.9,29.31,28.41,28.5,29.07,2837197.0,81426088.0,3013056765.0,13803501900.0
sh688106,金宏气体,2020-12-16,28.5,28.5,26.71,26.77,28.5,6713663.0,182973672.0,2983256590.07,12965605118.0
sh688106,金宏气体,2020-12-17,26.78,27.28,25.88,26.93,26.77,4262148.0,112659347.0,3000396497.57,13043098462.0
sh688106,金宏气体,2020-12-18,27.12,27.76,26.3,26.73,26.93,3055146.0,82359034.0,2978113567.77,12946231782.0
sh688106,金宏气体,2020-12-21,27.54,29.98,27.05,29.49,26.73,9763733.0,281136554.0,3285617999.01,14282991966.0
sh688106,金宏气体,2020-12-22,29.49,30.0,28.4,28.6,29.49,6633818.0,194464141.0,3186458961.4,13851935240.0
sh688106,金宏气体,2020-12-23,28.51,29.16,28.18,29.01,28.6,4598832.0,131866010.0,3232138967.49,14050511934.0
sh688106,金宏气体,2020-12-24,28.84,29.48,27.8,27.9,29.01,4078083.0,116737023.0,3108468707.1,13512901860.0
sh688106,金宏气体,2020-12-25,28.0,28.37,27.36,27.66,27.9,3451695.0,95537751.0,3081729191.34,13396661844.0
sh688106,金宏气体,2020-12-28,27.75,27.85,26.0,26.17,27.66,4390894.0,116478198.0,2915721364.33,12675005078.0
sh688106,金宏气体,2020-12-29,26.3,29.87,26.2,28.96,26.17,9156958.0,262298227.0,3226568235.0400004,14026295264.0
sh688106,金宏气体,2020-12-30,28.95,29.5,28.38,29.05,28.96,5515333.0,159123197.0,3236595553.45,14069885270.0
sh688106,金宏气体,2020-12-31,29.05,31.29,29.05,30.4,29.05,8653618.0,264470101.0,3387005329.6,14723735360.0
sh688106,金宏气体,2021-01-04,30.8,31.39,29.95,30.53,30.4,7046405.0,216901340.0,3401489233.9700003,14786698702.0
sh688106,金宏气体,2021-01-05,30.4,31.99,30.2,31.72,30.53,7752677.0,244169406.0,3534072666.28,15363055448.0
sh688106,金宏气体,2021-01-06,31.3,31.7,30.55,30.98,31.72,5892728.0,182857816.0,3451625826.02,15004648732.0
sh688106,金宏气体,2021-01-07,30.9,30.9,29.2,29.43,30.98,6287364.0,187228137.0,3278933120.07,14253931961.999998
sh688106,金宏气体,2021-01-08,29.41,30.15,28.91,29.85,29.43,3778767.0,112026271.0,3325727272.65,14457351990.0
sh688106,金宏气体,2021-01-11,29.85,30.8,28.96,29.35,29.85,4662539.0,139123123.0,3270019948.15,14215185290.000002
sh688106,金宏气体,2021-01-12,29.01,29.4,28.18,28.58,29.35,3922286.0,112024774.0,3184230668.42,13842248572.0
sh688106,金宏气体,2021-01-13,28.6,28.8,27.21,27.42,28.58,3903346.0,108283105.0,3054989675.58,13280421828.0
sh688106,金宏气体,2021-01-14,27.63,30.69,27.54,30.1,27.42,8258548.0,243455429.0,3353580934.9,14578435340.0
sh688106,金宏气体,2021-01-15,30.35,31.09,29.79,30.08,30.1,6303574.0,191617165.0,3351352641.92,14568748672.0
sh688106,金宏气体,2021-01-18,30.55,31.38,30.0,30.98,30.08,6058410.0,186971779.0,3451625826.02,15004648732.0
sh688106,金宏气体,2021-01-19,31.0,31.77,29.87,30.06,30.98,5219855.0,160572636.0,3349124348.94,14559062004.0
sh688106,金宏气体,2021-01-20,30.39,30.75,29.81,30.41,30.06,2968546.0,89633221.0,3388119476.09,14728578694.0
sh688106,金宏气体,2021-01-21,30.5,30.68,29.83,30.17,30.41,4368168.0,132162224.0,3361379960.33,14612338677.999998
sh688106,金宏气体,2021-01-22,29.99,30.17,28.76,28.9,30.17,5425225.0,158073972.0,3219883356.1,13997235260.0
sh688106,金宏气体,2021-01-25,28.46,29.55,27.94,28.85,28.9,2950861.0,85226646.0,3214312623.65,13973018590.0
sh688106,金宏气体,2021-01-26,28.68,29.45,28.51,28.88,28.85,2324669.0,67275572.0,3217655063.12,13987548592.0
sh688106,金宏气体,2021-01-27,28.99,29.16,27.87,28.15,28.88,3012766.0,84820328.0,3136322369.35,13633985210.0
sh688106,金宏气体,2021-01-28,27.85,28.35,27.41,27.5,28.15,2271591.0,63115611.0,3063902847.5,13319168500.0
sh688106,金宏气体,2021-01-29,27.6,27.92,26.39,26.94,27.5,2939372.0,78935612.0,3001510644.0600004,13047941796.0
sh688106,金宏气体,2021-02-01,26.88,27.65,26.6,27.27,26.94,1888245.0,51483002.0,3038277478.23,13207771817.999998
sh688106,金宏气体,2021-02-02,27.29,27.29,26.58,26.76,27.27,2038361.0,54639998.0,2981456007.24,12960761784.0
sh688106,金宏气体,2021-02-03,26.79,26.79,25.2,25.33,26.76,3921007.0,101711635.0,2822133059.17,12268165022.0
sh688106,金宏气体,2021-02-04,25.01,25.33,23.5,24.66,25.33,4645711.0,113170243.0,2747485244.34,11943661643.999998
sh688106,金宏气体,2021-02-05,24.86,25.11,23.5,23.61,24.66,2583877.0,62427979.0,2630499862.8900003,11435111574.0
sh688106,金宏气体,2021-02-08,23.8,24.08,23.26,23.5,23.61,2015631.0,47717853.0,2618244251.5,11381834900.0
sh688106,金宏气体,2021-02-09,23.87,24.08,23.41,23.81,23.5,1891570.0,45091241.0,2652782792.69,11531978254.0
sh688106,金宏气体,2021-02-10,24.23,24.25,23.6,23.6,23.81,2049496.0,48793271.0,2629385716.4,11430268240.0
sh688106,金宏气体,2021-02-18,24.36,25.36,24.3,24.88,23.6,3809998.0,95110343.0,2771996467.1200004,12050214992.0
sh688106,金宏气体,2021-02-19,24.75,25.3,24.68,25.12,24.88,2147726.0,53721207.0,2798735982.88,12166455008.0
sh688106,金宏气体,2021-02-22,25.33,25.69,24.9,25.0,25.12,3068125.0,77679559.0,2785366225.0,12108335000.0
sh688106,金宏气体,2021-02-23,25.0,25.28,24.43,24.77,25.0,1819050.0,45059367.0,2759740855.73,11996938318.0
sh688106,金宏气体,2021-02-24,24.78,25.3,24.52,24.78,24.77,2009341.0,50030834.0,2760855002.22,12001781652.0
sh688106,金宏气体,2021-02-25,24.9,25.04,23.87,23.91,24.78,2700696.0,65405475.0,2663924257.59,11580411594.0
sh688106,金宏气体,2021-02-26,23.54,24.28,23.52,23.91,23.91,1625190.0,39035427.0,2663924257.59,11580411594.0
sh688106,金宏气体,2021-03-01,24.3,25.0,23.9,24.75,23.91,1934787.0,47341375.0,2757512562.75,11987251650.0
sh688106,金宏气体,2021-03-02,25.15,25.44,24.5,25.16,24.75,2423230.0,60432160.0,2803192568.84,12185828344.0
sh688106,金宏气体,2021-03-03,25.61,26.74,25.61,26.11,25.16,5143794.0,134977617.0,2909036485.3900003,12645945074.0
sh688106,金宏气体,2021-03-04,26.0,26.68,25.61,25.93,26.11,3234571.0,84257489.0,2888981848.57,12558765062.0
sh688106,金宏气体,2021-03-05,25.91,26.15,25.43,25.67,25.93,2343848.0,60463120.0,2860014039.8300004,12432838378.000002
sh688106,金宏气体,2021-03-08,25.9,25.95,24.83,24.86,25.67,2556738.0,64530279.0,2769768174.14,12040528324.0
sh688106,金宏气体,2021-03-09,24.61,24.85,23.65,23.81,24.86,2249163.0,54312040.0,2652782792.69,11531978254.0
sh688106,金宏气体,2021-03-10,24.05,25.47,23.65,24.99,23.81,3648817.0,90098604.0,2784252078.51,12103491666.000002
sh688106,金宏气体,2021-03-11,25.0,26.08,24.86,25.51,24.99,4179321.0,106329513.0,2842187695.99,12355345034.0
sh688106,金宏气体,2021-03-12,26.2,26.64,25.76,25.76,25.51,5608446.0,147220328.0,2870041358.24,12476428384.0
sh688106,金宏气体,2021-03-15,25.6,25.6,24.5,24.62,25.76,2909106.0,72943193.0,2743028658.38,11924288308.000002
sh688106,金宏气体,2021-03-16,24.6,24.98,24.14,24.44,24.62,2216189.0,54131357.0,2722974021.5600004,11837108296.0
sh688106,金宏气体,2021-03-17,24.54,24.69,24.25,24.47,24.44,1410224.0,34586435.0,2726316461.03,11851638298.0
sh688106,金宏气体,2021-03-18,24.55,24.84,24.08,24.12,24.47,1778322.0,43332963.0,2687321333.88,11682121608.0
sh688106,金宏气体,2021-03-19,23.9,24.47,23.81,24.0,24.12,2147496.0,51960143.0,2673951576.0,11624001600.0
sh688106,金宏气体,2021-03-22,24.28,24.77,24.11,24.4,24.0,1842463.0,45031253.0,2624211435.6,11817734960.0
sh688106,金宏气体,2021-03-23,24.87,25.59,24.61,24.69,24.4,3536938.0,89000682.0,2655400833.81,11958191646.0
sh688106,金宏气体,2021-03-24,24.89,24.99,24.19,24.29,24.69,2272066.0,55466665.0,2612380974.21,11764458285.999998
sh688106,金宏气体,2021-03-25,24.24,24.59,24.09,24.31,24.29,1466386.0,35695978.0,2614531967.19,11774144953.999998
sh688106,金宏气体,2021-03-26,25.16,25.5,24.78,25.21,24.31,3641745.0,91707916.0,2711326651.2899995,12210045014.0
sh688106,金宏气体,2021-03-29,25.48,26.05,25.27,25.3,25.21,3096798.0,79377893.0,2721006119.7000003,12253635020.0
sh688106,金宏气体,2021-03-30,25.08,25.46,24.85,24.91,25.3,2283242.0,57301797.0,2679061756.59,12064744994.0
sh688106,金宏气体,2021-03-31,25.0,25.58,24.65,25.31,24.91,2167118.0,54543894.0,2722081616.19,12258478354.0
sh688106,金宏气体,2021-04-01,25.3,25.88,25.11,25.6,25.31,2904597.0,74507330.0,2753271014.4,12398935040.0
sh688106,金宏气体,2021-04-02,25.85,26.37,25.61,25.64,25.6,3399888.0,88123172.0,2757573000.36,12418308376.0
sh688106,金宏气体,2021-04-06,25.5,27.88,25.5,27.06,25.64,5837468.0,157024810.0,2910293501.94,13106061804.0
sh688106,金宏气体,2021-04-07,26.94,27.38,26.63,26.78,27.06,3927319.0,105633857.0,2880179600.2200003,12970448452.000002
sh688106,金宏气体,2021-04-08,26.92,27.59,26.78,26.8,26.78,3531143.0,95803760.0,2882330593.2,12980135120.000002
sh688106,金宏气体,2021-04-09,26.9,27.98,26.9,27.81,26.8,5703243.0,157747871.0,2990955738.69,13469311854.0
sh688106,金宏气体,2021-04-12,27.73,27.73,26.3,26.45,27.81,4225306.0,113933444.0,2844688216.05,12810618430.000002
sh688106,金宏气体,2021-04-13,26.45,26.85,26.25,26.33,26.45,1888668.0,50085087.0,2831782258.17,12752498422.0
sh688106,金宏气体,2021-04-14,26.27,26.5,26.01,26.31,26.33,1964279.0,51559930.0,2829631265.19,12742811754.0
sh688106,金宏气体,2021-04-15,26.45,26.98,25.71,26.8,26.31,3030745.0,79616202.0,2882330593.2,12980135120.000002
sh688106,金宏气体,2021-04-16,26.6,27.07,26.59,26.8,26.8,2114132.0,56680364.0,2882330593.2,12980135120.000002
sh688106,金宏气体,2021-04-19,26.92,27.5,26.83,27.2,26.8,2909782.0,79189087.0,2925350452.8,13173868480.0
sh688106,金宏气体,2021-04-20,27.0,27.96,26.91,27.24,27.2,3705531.0,102218788.0,2929652438.76,13193241816.0
sh688106,金宏气体,2021-04-21,27.2,27.2,26.46,26.6,27.24,2637045.0,70513138.0,2860820663.4,12883268440.0
sh688106,金宏气体,2021-04-22,27.0,28.11,26.8,27.34,26.6,4521460.0,125018079.0,2940407403.66,13241675156.0
sh688106,金宏气体,2021-04-23,27.25,27.44,26.6,26.77,27.34,2713291.0,72892514.0,2879104103.73,12965605118.0
sh688106,金宏气体,2021-04-26,27.1,27.88,27.01,27.1,26.77,3433764.0,94131331.0,2914595487.9,13125435140.0
sh688106,XD金宏气,2021-04-27,26.79,26.81,25.8,26.08,26.85,3229908.0,84447736.0,2804894845.92,12631415072.000002
sh688106,金宏气体,2021-04-28,26.27,26.6,25.6,26.2,26.08,1872971.0,49091919.0,2817800803.8,12689535080.0
sh688106,金宏气体,2021-04-29,25.99,26.7,25.76,25.82,26.2,1512819.0,39529960.0,2776931937.1800003,12505488388.0
sh688106,金宏气体,2021-04-30,26.0,26.0,24.83,24.9,25.82,2768974.0,70183351.0,2677986260.1,12059901660.0
sh688106,金宏气体,2021-05-06,24.97,25.37,24.77,24.83,24.9,1412609.0,35345507.0,2670457784.67,12025998322.0
sh688106,金宏气体,2021-05-07,24.9,24.99,24.07,24.19,24.83,2529321.0,61679141.0,2601626009.31,11716024946.0
sh688106,金宏气体,2021-05-10,24.39,24.4,23.91,24.18,24.19,1664251.0,40020238.0,2600550512.82,11711181612.0
sh688106,金宏气体,2021-05-11,24.05,24.34,23.92,24.22,24.18,1477791.0,35666567.0,2604852498.78,11730554948.0
sh688106,金宏气体,2021-05-12,24.22,24.5,24.07,24.47,24.22,1447696.0,35154941.0,2631739911.03,11851638298.0
sh688106,金宏气体,2021-05-13,24.4,25.27,24.28,24.68,24.47,2135926.0,53028572.0,2654325337.32,11953348311.999998
sh688106,金宏气体,2021-05-14,24.88,24.99,24.61,24.71,24.68,1544449.0,38238073.0,2657551826.79,11967878314.0
sh688106,金宏气体,2021-05-17,24.86,24.9,24.23,24.33,24.71,1715268.0,42230623.0,2616682960.17,11783831621.999998
sh688106,金宏气体,2021-05-18,24.35,24.37,23.91,24.25,24.33,1647163.0,39801885.0,2608078988.25,11745084950.000002
sh688106,金宏气体,2021-05-19,24.28,24.83,24.23,24.41,24.25,1707554.0,41805446.0,2625286932.09,11822578294.0
sh688106,金宏气体,2021-05-20,24.31,24.66,23.98,24.1,24.41,1581747.0,38176059.0,2591946540.9,11672434940.0
sh688106,金宏气体,2021-05-21,24.26,24.31,23.52,23.55,24.1,1955511.0,46589415.0,2532794233.95,11406051569.999998
sh688106,金宏气体,2021-05-24,23.56,23.81,23.39,23.75,23.55,1548304.0,36547352.0,2554304163.75,11502918250.0
sh688106,金宏气体,2021-05-25,23.82,24.2,23.66,24.06,23.75,1683671.0,40415256.0,2587644554.94,11653061604.0
sh688106,金宏气体,2021-05-26,24.07,24.29,23.92,24.0,24.06,1465363.0,35256691.0,2581191576.0,11624001600.0
sh688106,金宏气体,2021-05-27,24.0,25.17,23.95,24.99,24.0,4213104.0,104464776.0,2687665728.51,12103491666.000002
sh688106,金宏气体,2021-05-28,24.75,25.13,24.41,24.57,24.99,2365487.0,58581209.0,2642494875.93,11900071638.0
sh688106,金宏气体,2021-05-31,24.71,26.63,24.4,26.34,24.57,6836279.0,174953628.0,2832857754.6600003,12757341756.0
sh688106,金宏气体,2021-06-01,26.22,27.06,25.95,26.54,26.34,5400719.0,144028901.0,2854367684.46,12854208436.0
sh688106,金宏气体,2021-06-02,26.78,27.13,26.3,26.7,26.54,5322418.0,142516390.0,2871575628.3,12931701780.0
sh688106,金宏气体,2021-06-03,26.7,26.79,25.96,25.96,26.7,3428768.0,90128722.0,2791988888.04,12573295064.0
sh688106,金宏气体,2021-06-04,25.76,26.24,25.71,25.75,25.96,2376985.0,61599181.0,2769403461.75,12471585049.999998
sh688106,金宏气体,2021-06-07,26.05,26.91,26.05,26.25,25.75,3359395.0,88926913.0,2823178286.25,12713751750.0
sh688106,金宏气体,2021-06-08,26.25,26.25,25.29,25.54,26.25,3608055.0,92185921.0,2746818035.46,12369875036.0
sh688106,金宏气体,2021-06-09,25.4,25.78,25.12,25.31,25.54,1819674.0,46183507.0,2722081616.19,12258478354.0
sh688106,金宏气体,2021-06-10,25.36,26.1,25.1,25.68,25.31,3303645.0,84483382.0,2761874986.32,12437681712.0
sh688106,金宏气体,2021-06-11,25.68,25.83,24.08,24.21,25.68,4432808.0,110002115.0,2603777002.29,11725711614.000002
sh688106,金宏气体,2021-06-15,24.21,24.74,23.82,24.28,24.21,2566449.0,62572952.0,2611305477.72,11759614952.0
sh688106,金宏气体,2021-06-16,23.02,24.98,23.0,23.94,24.28,6919710.0,165515574.0,6198442624.08,11594941595.999998
sh688106,金宏气体,2021-06-17,23.88,26.01,23.86,25.4,23.94,8616572.0,213833890.0,6576459592.799999,12302068359.999998
sh688106,金宏气体,2021-06-18,25.77,25.9,24.89,25.48,25.4,7024045.0,179111957.0,6597172851.360001,12340815032.0
sh688106,金宏气体,2021-06-21,25.03,26.34,25.02,25.96,25.48,8956566.0,230126356.0,6721452402.719999,12573295064.0
sh688106,金宏气体,2021-06-22,25.7,25.99,25.33,25.48,25.96,5426321.0,139155166.0,6597172851.360001,12340815032.0
sh688106,金宏气体,2021-06-23,25.66,26.9,25.6,26.16,25.48,11555321.0,303604077.0,6773235549.12,12670161743.999998
sh688106,金宏气体,2021-06-24,26.16,26.5,25.8,26.02,26.16,6295780.0,164600114.0,6736987346.64,12602355068.0
sh688106,金宏气体,2021-06-25,26.2,26.56,25.6,26.29,26.02,5930387.0,154649950.0,6806894594.280001,12733125086.0
sh688106,金宏气体,2021-06-28,26.28,26.77,26.11,26.34,26.29,6833599.0,181125372.0,6819840380.88,12757341756.0
sh688106,金宏气体,2021-06-29,26.38,26.73,25.7,25.76,26.34,7280266.0,190061321.0,6669669256.32,12476428384.0
sh688106,金宏气体,2021-06-30,25.88,27.1,25.8,27.03,25.76,12931015.0,346136085.0,6998492235.96,13091531802.0
sh688106,金宏气体,2021-07-01,27.1,27.26,26.57,26.86,27.03,8523760.0,229304145.0,6954476561.52,13009195123.999998
sh688106,金宏气体,2021-07-02,26.71,26.71,25.62,26.0,26.86,6065354.0,158356552.0,6731809031.999999,12592668400.0
sh688106,金宏气体,2021-07-05,24.67,25.82,24.15,25.48,26.0,8598594.0,216009378.0,6597172851.360001,12340815032.0
sh688106,金宏气体,2021-07-06,25.48,26.46,24.99,25.72,25.48,6943295.0,179405501.0,6659312627.04,12457055048.0
sh688106,金宏气体,2021-07-07,25.49,27.39,25.35,27.05,25.72,12525308.0,334009925.0,7003670550.6,13101218470.0
sh688106,金宏气体,2021-07-08,27.45,28.45,27.03,27.48,27.05,15793345.0,438388684.0,7115004315.36,13309481832.0
sh688106,金宏气体,2021-07-09,27.6,28.17,27.28,27.48,27.48,10374562.0,287954607.0,7115004315.36,13309481832.0
sh688106,金宏气体,2021-07-12,27.87,29.58,27.62,29.11,27.48,17202417.0,495217899.0,7537036958.52,14098945274.0
sh688106,金宏气体,2021-07-13,28.87,29.75,28.65,29.18,29.11,10699328.0,311679403.0,7555161059.759999,14132848612.0
sh688106,金宏气体,2021-07-14,29.18,29.56,28.73,28.84,29.18,7691645.0,223769290.0,7467129710.88,13968175256.0
sh688106,金宏气体,2021-07-15,28.8,29.27,27.92,28.6,28.84,7491984.0,213490368.0,7404989935.2,13851935240.0
sh688106,金宏气体,2021-07-16,28.74,29.58,28.06,28.2,28.6,6921740.0,199407648.0,7301423642.400001,13658201880.0
sh688106,金宏气体,2021-07-19,28.69,29.19,28.2,28.55,28.2,4838996.0,138664203.0,7392044148.6,13827718570.0
sh688106,金宏气体,2021-07-20,28.26,29.23,27.58,29.1,28.55,8373633.0,239273795.0,7534447801.2,14094101939.999998
sh688106,金宏气体,2021-07-21,29.08,29.98,28.9,29.6,29.1,10179536.0,301284706.0,7663905667.2,14336268640.0
sh688106,金宏气体,2021-07-22,29.7,31.6,29.6,31.14,29.6,17543694.0,541934210.0,8062635894.48,15082142076.0
sh688106,金宏气体,2021-07-23,31.3,32.2,29.95,30.01,31.14,13162896.0,406807660.0,7770061117.320001,14534845334.0
sh688106,金宏气体,2021-07-26,30.09,31.28,29.78,30.7,30.01,11871037.0,363395270.0,7948712972.4,14869035380.0
sh688106,金宏气体,2021-07-27,30.2,32.3,29.91,30.0,30.7,21290456.0,666555223.0,7767471960.0,14530002000.0
sh688106,金宏气体,2021-07-28,29.67,30.3,28.0,28.65,30.0,15581624.0,452562845.0,7417935721.8,13876151910.000002
sh688106,金宏气体,2021-07-29,29.13,30.87,29.04,30.19,28.65,13824219.0,415809673.0,7816665949.08,14622025345.999998
sh688106,金宏气体,2021-07-30,30.19,31.92,30.19,31.28,30.19,17129911.0,534646383.0,8098884096.96,15149948751.999998
sh688106,金宏气体,2021-08-02,34.0,34.9,31.66,32.94,31.28,21317319.0,699901207.0,8528684212.080001,15953942196.0
sh688106,金宏气体,2021-08-03,32.0,33.55,31.0,31.2,32.94,14249460.0,459907043.0,8078170838.4,15111202080.000002
sh688106,金宏气体,2021-08-04,31.2,32.75,31.01,31.98,31.2,9385630.0,301056937.0,8280125109.360001,15488982132.000002
sh688106,金宏气体,2021-08-05,31.66,32.13,30.52,30.72,31.98,10781591.0,334958893.0,7953891287.04,14878722048.0
sh688106,金宏气体,2021-08-06,30.7,32.15,30.59,31.28,30.72,9827765.0,308356499.0,8098884096.96,15149948751.999998
sh688106,金宏气体,2021-08-09,31.72,32.8,31.28,32.39,31.28,12754075.0,409053599.0,8386280559.48,15687558825.999998
sh688106,金宏气体,2021-08-10,32.76,33.5,32.1,32.59,32.39,11375920.0,371457569.0,8438063705.88,15784425506.0
sh688106,金宏气体,2021-08-11,33.02,33.05,31.81,32.27,32.59,7555385.0,244290697.0,8355210671.64,15629438818.0
sh688106,金宏气体,2021-08-12,32.3,33.7,32.23,33.11,32.27,11201421.0,370894838.0,8572699886.519999,16036278873.999998
sh688106,金宏气体,2021-08-13,32.98,35.05,32.8,34.78,33.11,15390952.0,530060578.0,9005089158.96,16845115652.0
sh688106,金宏气体,2021-08-16,34.6,35.15,33.6,34.5,34.78,9559552.0,328537844.0,8932592754.0,16709502300.0
sh688106,金宏气体,2021-08-17,34.99,35.17,31.48,32.14,34.5,13890275.0,462560694.0,8321551626.48,15566475476.0
sh688106,金宏气体,2021-08-18,31.74,33.77,31.74,32.42,32.14,8225539.0,269588570.0,8394048031.44,15702088828.0
sh688106,金宏气体,2021-08-19,32.2,32.42,30.1,30.99,32.42,11663503.0,361477911.0,8023798534.679999,15009492066.0
sh688106,金宏气体,2021-08-20,30.81,32.1,30.28,30.81,30.99,6990239.0,215942412.0,7977193702.92,14922312054.0
sh688106,金宏气体,2021-08-23,31.14,31.9,30.78,31.66,30.81,5717040.0,180080898.0,8197272075.12,15333995444.0
sh688106,金宏气体,2021-08-24,31.9,33.15,31.76,32.19,31.66,6516627.0,211875874.0,8334497413.080001,15590692146.0
sh688106,金宏气体,2021-08-25,31.99,32.28,30.9,31.61,32.19,6112775.0,192394941.0,8184326288.519999,15309778774.000002
sh688106,金宏气体,2021-08-26,29.98,29.98,27.4,27.68,31.61,19393355.0,552005643.0,7173389141.76,13406348512.0
sh688106,金宏气体,2021-08-27,28.0,28.39,27.5,28.24,27.68,7188202.0,201100250.0,7318515511.679999,13677575216.0
sh688106,金宏气体,2021-08-30,27.96,28.57,27.56,27.6,28.24,6806943.0,191462164.0,7152656803.200001,13367601839.999998
sh688106,金宏气体,2021-08-31,27.41,27.49,26.37,27.41,27.6,7976483.0,215045405.0,7103417499.12,13275578494.0
sh688106,金宏气体,2021-09-01,27.28,27.44,26.1,26.62,27.41,7495950.0,199727187.0,6898685655.839999,12892955108.0
sh688106,金宏气体,2021-09-02,26.62,27.15,26.23,27.1,26.62,7109320.0,190202783.0,7023079687.2,13125435140.0
sh688106,金宏气体,2021-09-03,26.97,27.94,26.07,26.24,27.1,8446144.0,228041460.0,6800207047.68,12708908416.0
sh688106,金宏气体,2021-09-06,26.21,26.47,25.78,26.38,26.24,4857085.0,127400183.0,6836488640.16,12776715092.0
sh688106,金宏气体,2021-09-07,26.57,27.17,26.39,27.15,26.38,5261473.0,141142885.0,7036037398.8,13149651810.000002
sh688106,金宏气体,2021-09-08,27.17,27.5,26.99,27.26,27.15,4357538.0,118604426.0,7064544364.32,13202928484.0
sh688106,金宏气体,2021-09-09,27.14,27.5,26.49,26.95,27.26,7143113.0,192956805.0,6984206552.4,13052785130.0
sh688106,金宏气体,2021-09-10,26.89,28.5,26.76,28.12,26.95,8352627.0,231479906.0,7287417003.839999,13619455208.0
sh688106,金宏气体,2021-09-13,28.17,28.67,27.76,28.17,28.12,4493377.0,126451865.0,7300374715.44,13643671878.0
sh688106,金宏气体,2021-09-14,28.43,28.43,27.41,27.53,28.17,4308741.0,120060495.0,7134516006.96,13333698502.0
sh688106,金宏气体,2021-09-15,27.55,28.0,27.46,27.68,27.53,3090717.0,85491569.0,7173389141.76,13406348512.0
sh688106,金宏气体,2021-09-16,27.81,27.81,26.4,26.63,27.68,4108553.0,110788434.0,6901277198.16,12897798442.0
sh688106,金宏气体,2021-09-17,26.63,26.94,26.1,26.75,26.63,3782145.0,100245430.0,6932375706.0,12955918450.0
sh688106,金宏气体,2021-09-22,26.5,26.79,26.15,26.39,26.75,2987859.0,78990288.0,6839080182.48,12781558426.0
sh688106,金宏气体,2021-09-23,26.58,27.35,26.58,26.86,26.39,3794666.0,102316880.0,6960882671.52,13009195123.999998
sh688106,金宏气体,2021-09-24,26.86,26.86,26.15,26.3,26.86,3308482.0,87342621.0,6815756301.599999,12737968420.0
sh688106,金宏气体,2021-09-27,26.17,26.44,24.0,24.94,26.3,7510066.0,188382017.0,6463306546.08,12079274996.0
sh688106,金宏气体,2021-09-28,24.94,24.98,24.22,24.26,24.94,3468810.0,84830227.0,6287081668.32,11749928284.0
sh688106,金宏气体,2021-09-29,24.19,24.93,24.08,24.8,24.26,3805891.0,93152961.0,6427024953.599999,12011468320.0
sh688106,金宏气体,2021-09-30,24.7,25.3,24.59,24.91,24.8,2983576.0,74620317.0,6455531919.12,12064744994.0
sh688106,金宏气体,2021-10-08,25.28,25.46,24.83,25.03,24.91,1623225.0,40695749.0,6486630426.96,12122865001.999998
sh688106,金宏气体,2021-10-11,25.06,25.06,24.43,24.55,25.03,1994881.0,49109655.0,6362236395.6,11890384970.0
sh688106,金宏气体,2021-10-12,24.72,24.97,23.9,24.14,24.55,3026881.0,73922564.0,6255983160.4800005,11691808276.0
sh688106,金宏气体,2021-10-13,24.01,24.38,23.56,24.01,24.14,3044050.0,72671653.0,6222293110.32,11628844934.0
sh688106,金宏气体,2021-10-14,24.03,24.03,23.65,23.84,24.01,2850614.0,67838335.0,6178236890.88,11546508256.000002
sh688106,金宏气体,2021-10-15,23.88,23.88,22.66,22.75,23.84,7329230.0,169278425.0,5895758778.0,11018584850.000002
sh688106,金宏气体,2021-10-18,22.61,22.78,22.08,22.29,22.75,5919691.0,132257002.0,5776547831.28,10795791486.0
sh688106,金宏气体,2021-10-19,22.44,22.52,22.25,22.33,22.29,3111682.0,69630970.0,5786914000.559999,10815164822.0
sh688106,金宏气体,2021-10-20,22.5,22.58,22.03,22.22,22.33,2245225.0,49881782.0,5758407035.04,10761888148.0
sh688106,金宏气体,2021-10-21,22.2,22.39,21.72,21.84,22.22,3482700.0,76326354.0,5659928426.879999,10577841456.0
sh688106,金宏气体,2021-10-22,22.04,22.6,21.8,22.45,21.84,4246142.0,95014032.0,5818012508.4,10873284830.0
sh688106,金宏气体,2021-10-25,22.3,22.97,22.15,22.86,22.45,3805826.0,85911837.0,5924265743.52,11071861524.0
sh688106,金宏气体,2021-10-26,22.93,23.26,22.55,22.92,22.86,3689316.0,84389252.0,5939814997.440001,11100921528.0
sh688106,金宏气体,2021-10-27,22.91,22.93,22.2,22.44,22.92,2605888.0,58600885.0,5614897126.08,10868441496.0
sh688106,金宏气体,2021-10-28,22.44,22.53,21.05,21.19,22.44,3783700.0,81560775.0,5491478176.08,10263024746.0
sh688106,金宏气体,2021-10-29,21.1,21.83,21.09,21.68,21.19,3129276.0,67474222.0,5618463749.76,10500348112.000002
sh688106,金宏气体,2021-11-01,22.02,23.1,21.68,22.89,21.68,4061138.0,92030131.0,5932040370.4800005,11086391526.0
sh688106,金宏气体,2021-11-02,22.78,23.54,22.76,23.36,22.89,5422393.0,125958824.0,6053842859.52,11314028224.0
sh688106,金宏气体,2021-11-03,23.47,23.52,22.92,23.44,23.36,2433067.0,56480215.0,6074575198.08,11352774896.0
sh688106,金宏气体,2021-11-04,23.4,24.0,23.19,23.95,23.44,3608955.0,85426192.0,6206743856.4,11599784930.0
sh688106,金宏气体,2021-11-05,23.96,24.3,23.8,24.03,23.95,2876525.0,69239969.0,6227476194.96,11638531602.0
sh688106,金宏气体,2021-11-08,24.28,24.82,24.03,24.68,24.03,2915244.0,71394961.0,6395926445.76,11953348311.999998
sh688106,金宏气体,2021-11-09,24.75,25.15,24.51,24.99,24.68,2599397.0,64866546.0,6476264257.679999,12103491666.000002
sh688106,金宏气体,2021-11-10,24.98,25.54,24.77,25.42,24.99,3337482.0,83965489.0,6587700577.44,12311755027.999998
sh688106,金宏气体,2021-11-11,25.3,26.35,25.15,25.84,25.42,5517314.0,142756510.0,6696545354.88,12515175056.0
sh688106,金宏气体,2021-11-12,25.72,26.05,25.56,25.84,25.84,3779708.0,97652928.0,6696545354.88,12515175056.0
sh688106,金宏气体,2021-11-15,25.94,26.16,25.32,25.45,25.84,3745310.0,96066788.0,6595475204.4,12326285030.0
sh688106,金宏气体,2021-11-16,25.5,26.26,24.85,26.01,25.45,4820133.0,123142863.0,6740601574.320001,12597511734.0
sh688106,金宏气体,2021-11-17,25.94,26.2,25.5,26.08,26.01,2754882.0,71398679.0,6758742370.56,12631415072.000002
sh688106,金宏气体,2021-11-18,26.21,26.76,25.67,25.91,26.08,4037220.0,105366778.0,6714686151.12,12549078394.0
sh688106,金宏气体,2021-11-19,25.93,26.42,25.63,26.06,25.91,3767439.0,98001692.0,6753559285.92,12621728404.000002
sh688106,金宏气体,2021-11-22,27.7,28.75,27.6,28.0,26.06,10152205.0,284674355.0,7256318496.0,13561335200.0
sh688106,金宏气体,2021-11-23,28.58,28.97,27.69,27.95,28.0,8583685.0,243524232.0,7243360784.4,13537118529.999998
sh688106,金宏气体,2021-11-24,28.08,28.13,27.59,27.63,27.95,4197951.0,116769808.0,7160431430.160001,13382131842.0
sh688106,金宏气体,2021-11-25,27.18,28.25,27.1,27.28,27.63,4142895.0,113982795.0,7069727448.96,13212615152.0
sh688106,金宏气体,2021-11-26,27.65,27.65,26.85,27.01,27.28,2990808.0,80926847.0,6999755806.32,13081845134.0
sh688106,金宏气体,2021-11-29,26.1,27.8,26.1,27.59,27.01,5097040.0,138046146.0,7150065260.88,13362758506.0
sh688106,金宏气体,2021-11-30,27.58,28.65,27.41,28.45,27.59,7367124.0,208190896.0,7372937900.4,13779285230.0
sh688106,金宏气体,2021-12-01,28.53,29.23,28.21,29.19,28.45,5670926.0,163806253.0,7564712032.080001,14137691946.0
sh688106,金宏气体,2021-12-02,29.0,29.0,28.1,28.13,29.19,3821766.0,108651109.0,7290008546.16,13624298542.0
sh688106,金宏气体,2021-12-03,28.13,28.68,27.86,28.0,28.13,2938460.0,82816552.0,7256318496.0,13561335200.0
sh688106,金宏气体,2021-12-06,28.3,28.88,28.0,28.19,28.0,4411858.0,125408767.0,7305557800.08,13653358546.0
sh688106,金宏气体,2021-12-07,28.79,29.2,27.91,27.97,28.19,5220593.0,149577083.0,7248543869.04,13546805197.999998
sh688106,金宏气体,2021-12-08,28.34,28.48,27.35,28.08,27.97,3598846.0,100711735.0,7277050834.559999,13600081872.0
sh688106,金宏气体,2021-12-09,28.08,28.1,27.2,27.23,28.08,4011157.0,110232083.0,7056769737.360001,13188398481.999998
sh688106,金宏气体,2021-12-10,27.07,27.62,26.79,27.5,27.23,3149376.0,85720327.0,7126741380.0,13319168500.0
sh688106,金宏气体,2021-12-13,27.22,27.48,26.88,27.3,27.5,3224652.0,87371784.0,7074910533.6,13222301820.0
sh688106,金宏气体,2021-12-14,27.18,28.18,27.1,27.8,27.3,3286911.0,91308141.0,7204487649.599999,13464468520.0
sh688106,金宏气体,2021-12-15,27.69,28.02,26.89,27.0,27.8,3508906.0,96185821.0,6997164264.0,13077001800.0
sh688106,金宏气体,2021-12-16,27.3,27.8,26.77,27.4,27.0,3486476.0,94986582.0,7100825956.8,13270735160.0
sh688106,金宏气体,2021-12-17,27.45,27.8,26.99,27.11,27.4,2816597.0,77149271.0,7025671229.52,13130278474.0
sh688106,金宏气体,2021-12-20,27.01,27.15,25.93,26.3,27.11,4269820.0,112356187.0,6815756301.599999,12737968420.0
sh688106,金宏气体,2021-12-21,26.16,27.22,26.15,27.11,26.3,3343828.0,89605833.0,7025671229.52,13130278474.0
sh688106,金宏气体,2021-12-22,27.28,28.09,26.91,27.58,27.11,3409474.0,93804713.0,7147473718.56,13357915171.999998
sh688106,金宏气体,2021-12-23,28.14,28.15,27.13,27.3,27.58,2402862.0,65845489.0,7074910533.6,13222301820.0
sh688106,金宏气体,2021-12-24,27.3,27.6,26.33,26.39,27.3,2249241.0,60437271.0,6839080182.48,12781558426.0
sh688106,金宏气体,2021-12-27,26.27,27.9,26.27,27.51,26.39,3189022.0,87387100.0,7129332922.320001,13324011834.0
sh688106,金宏气体,2021-12-28,27.6,27.8,27.13,27.64,27.51,2494874.0,68574869.0,7163022972.4800005,13386975176.0
sh688106,金宏气体,2021-12-29,27.63,28.25,27.2,27.9,27.64,3278098.0,91205631.0,7230403072.799999,13512901860.0
sh688106,金宏气体,2021-12-30,27.9,28.09,27.63,27.7,27.9,2380688.0,66302303.0,7178572226.400001,13416035180.0
sh688106,金宏气体,2021-12-31,27.69,27.93,27.41,27.81,27.7,2194429.0,60828668.0,7207079191.919999,13469311854.0
sh688106,金宏气体,2022-01-04,28.1,28.68,27.46,28.54,27.81,4326577.0,122023161.0,7396261781.28,13822875236.0
sh688106,金宏气体,2022-01-05,28.43,28.43,27.01,27.53,28.54,5613214.0,155134566.0,7134516006.96,13333698502.0
sh688106,金宏气体,2022-01-06,27.43,27.57,26.6,26.73,27.53,3816612.0,103197543.0,6927192621.36,12946231782.0
sh688106,金宏气体,2022-01-07,26.21,26.7,25.37,25.84,26.73,5361177.0,139292489.0,6696545354.88,12515175056.0
sh688106,金宏气体,2022-01-10,26.18,27.3,25.71,26.85,25.84,3538490.0,94828925.0,6958291129.2,13004351790.0
sh688106,金宏气体,2022-01-11,27.0,27.06,26.55,26.73,26.85,2503288.0,67109968.0,6927192621.36,12946231782.0
sh688106,金宏气体,2022-01-12,26.67,27.5,26.65,26.85,26.73,2137894.0,57943003.0,6958291129.2,13004351790.0
sh688106,金宏气体,2022-01-13,27.17,27.7,26.56,26.8,26.85,3693134.0,100488045.0,6945333417.599999,12980135120.000002
sh688106,金宏气体,2022-01-14,26.65,27.35,26.65,27.07,26.8,2452639.0,66411150.0,7015305060.24,13110905138.0
