数据由邢不行整理
股票代码,股票名称,交易日期,开盘价,最高价,最低价,收盘价,前收盘价,成交量,成交额,流通市值,总市值
sh688067,N爱威,2021-06-16,38.24,45.5,37.6,38.3,14.71,9843088.0,390926160.0,530086209.3,2604400000.0
sh688067,爱威科技,2021-06-17,35.78,35.78,31.16,31.4,38.3,6604921.0,215096415.0,434587649.4,2135200000.0
sh688067,爱威科技,2021-06-18,30.96,32.38,30.6,30.9,31.4,3184695.0,100119756.0,427667463.9,2101200000.0
sh688067,爱威科技,2021-06-21,31.2,32.69,30.72,32.02,30.9,2834667.0,90424819.0,443168679.42,2177360000.0
sh688067,爱威科技,2021-06-22,32.7,33.07,31.61,31.61,32.02,2929514.0,94192251.0,437494127.31,2149480000.0
sh688067,爱威科技,2021-06-23,31.3,32.6,31.15,32.04,31.61,2113169.0,67219380.0,443445486.84,2178720000.0
sh688067,爱威科技,2021-06-24,32.0,32.1,30.76,30.85,32.04,2236231.0,69830897.0,426975445.35,2097800000.0
sh688067,爱威科技,2021-06-25,31.06,31.36,30.3,31.03,30.85,1533400.0,47228325.0,429466712.13,2110040000.0
sh688067,爱威科技,2021-06-28,31.52,32.3,31.11,31.86,31.03,2071849.0,65885306.0,440954220.06,2166480000.0
sh688067,爱威科技,2021-06-29,31.89,32.82,31.6,32.2,31.86,2261513.0,73176803.0,445659946.2,2189600000.0
sh688067,爱威科技,2021-06-30,32.42,32.44,31.0,31.39,32.2,1885287.0,59449793.0,434449245.69,2134520000.0
sh688067,爱威科技,2021-07-01,31.1,32.08,31.1,31.62,31.39,1471437.0,46789044.0,437632531.02,2150160000.0
sh688067,爱威科技,2021-07-02,31.8,31.8,31.05,31.37,31.62,1025829.0,32185571.0,434172438.27,2133160000.0
sh688067,爱威科技,2021-07-05,31.6,32.5,31.05,32.1,31.37,1726736.0,54848160.0,444275909.1,2182800000.0
sh688067,爱威科技,2021-07-06,32.3,34.43,32.12,33.74,32.1,2884915.0,96535428.0,466974117.54,2294320000.0
sh688067,爱威科技,2021-07-07,33.16,34.1,32.86,33.9,33.74,1615040.0,54050916.0,469188576.9,2305200000.0
sh688067,爱威科技,2021-07-08,33.9,34.91,33.1,33.48,33.9,1988997.0,67446050.0,463375621.08,2276640000.0
sh688067,爱威科技,2021-07-09,33.45,34.78,33.1,33.8,33.48,1319323.0,44486411.0,467804539.8,2298400000.0
sh688067,爱威科技,2021-07-12,33.96,34.15,33.0,33.03,33.8,1577200.0,52753050.0,457147454.13,2246040000.0
sh688067,爱威科技,2021-07-13,33.0,33.41,32.39,32.59,33.03,1418133.0,46577905.0,451057690.89,2216120000.0
sh688067,爱威科技,2021-07-14,32.52,33.15,32.28,32.56,32.59,793612.0,25967194.0,450642479.76,2214080000.0
sh688067,爱威科技,2021-07-15,32.65,32.89,31.61,31.74,32.56,877770.0,28136288.0,439293375.54,2158320000.0
sh688067,爱威科技,2021-07-16,31.8,32.19,31.27,31.27,31.74,837776.0,26462719.0,432788401.17,2126360000.0
sh688067,爱威科技,2021-07-19,31.26,31.6,31.0,31.37,31.27,582764.0,18223228.0,434172438.27,2133160000.0
sh688067,爱威科技,2021-07-20,31.21,31.45,31.11,31.36,31.37,534500.0,16720826.0,434034034.56,2132480000.0
sh688067,爱威科技,2021-07-21,31.46,31.9,31.32,31.32,31.36,581192.0,18317087.0,433480419.72,2129760000.0
sh688067,爱威科技,2021-07-22,31.43,31.47,30.44,30.63,31.32,1174680.0,36159462.0,423930563.73,2082840000.0
sh688067,爱威科技,2021-07-23,30.64,30.88,29.81,29.88,30.63,745080.0,22553912.0,413550285.48,2031840000.0
sh688067,爱威科技,2021-07-26,29.78,29.91,28.68,28.81,29.88,833284.0,24199921.0,398741088.51,1959080000.0
sh688067,爱威科技,2021-07-27,29.02,29.37,28.79,28.83,28.81,539695.0,15656646.0,399017895.93,1960440000.0
sh688067,爱威科技,2021-07-28,28.83,28.83,27.4,27.93,28.83,692064.0,19313142.0,386561562.03,1899240000.0
sh688067,爱威科技,2021-07-29,28.25,29.06,28.12,28.8,27.93,587027.0,16821778.0,398602684.8,1958400000.0
sh688067,爱威科技,2021-07-30,28.67,29.6,28.21,29.34,28.8,597474.0,17266191.0,406076485.14,1995120000.0
sh688067,爱威科技,2021-08-02,29.4,29.74,29.0,29.49,29.34,549186.0,16128428.0,408152540.79,2005320000.0
sh688067,爱威科技,2021-08-03,29.4,30.27,29.36,29.73,29.49,693798.0,20723663.0,411474229.83,2021640000.0
sh688067,爱威科技,2021-08-04,29.52,29.65,29.11,29.48,29.73,618775.0,18147507.0,408014137.08,2004640000.0
sh688067,爱威科技,2021-08-05,29.26,30.08,29.26,29.81,29.48,633203.0,18830349.0,412581459.51,2027080000.0
sh688067,爱威科技,2021-08-06,29.81,29.81,28.82,29.27,29.81,615262.0,17905905.0,405107659.17,1990360000.0
sh688067,爱威科技,2021-08-09,29.27,29.66,28.74,29.6,29.27,493015.0,14463773.0,409674981.6,2012800000.0
sh688067,爱威科技,2021-08-10,29.65,30.3,29.53,30.06,29.6,521004.0,15646843.0,416041552.2600001,2044080000.0
sh688067,爱威科技,2021-08-11,29.94,31.15,29.81,30.85,30.06,927417.0,28563347.0,426975445.35,2097800000.0
sh688067,爱威科技,2021-08-12,30.59,31.5,30.59,30.85,30.85,521582.0,16148716.0,426975445.35,2097800000.0
sh688067,爱威科技,2021-08-13,30.76,31.85,30.76,31.18,30.85,1034677.0,32380089.0,431542767.78,2120240000.0
sh688067,爱威科技,2021-08-16,31.18,31.62,31.01,31.4,31.18,718347.0,22480314.0,434587649.4,2135200000.0
sh688067,爱威科技,2021-08-17,31.4,31.55,30.0,30.36,31.4,692567.0,21254622.0,420193663.56,2064480000.0
sh688067,爱威科技,2021-08-18,30.58,30.65,30.01,30.43,30.36,495500.0,15020546.0,421162489.53,2069240000.0
sh688067,爱威科技,2021-08-19,30.45,30.48,30.11,30.16,30.43,378895.0,11461846.0,417425589.36,2050880000.0
sh688067,爱威科技,2021-08-20,30.01,30.01,28.91,29.1,30.16,531211.0,15562069.0,402754796.1,1978800000.0
sh688067,爱威科技,2021-08-23,29.13,29.88,29.13,29.59,29.1,465588.0,13777888.0,409536577.89,2012120000.0
sh688067,爱威科技,2021-08-24,29.77,30.5,29.61,30.19,29.59,424242.0,12807223.0,417840800.49,2052920000.0
sh688067,爱威科技,2021-08-25,30.51,31.1,30.33,30.67,30.19,582204.0,17881062.0,424484178.57,2085560000.0
sh688067,爱威科技,2021-08-26,30.96,31.01,29.93,30.1,30.67,532657.0,16088279.0,416595167.1,2046800000.0
sh688067,爱威科技,2021-08-27,30.0,30.1,28.77,29.0,30.1,961022.0,27980505.0,401370759.00000006,1972000000.0
sh688067,爱威科技,2021-08-30,29.01,29.1,28.36,28.5,29.0,609748.0,17488912.0,394450573.5,1938000000.0
sh688067,爱威科技,2021-08-31,28.85,29.16,28.4,28.63,28.5,437538.0,12602564.0,396249821.73,1946840000.0
sh688067,爱威科技,2021-09-01,28.85,28.85,28.1,28.64,28.63,463366.0,13174809.0,396388225.44,1947520000.0
sh688067,爱威科技,2021-09-02,28.61,29.18,28.5,29.01,28.64,507385.0,14664576.0,401509162.71,1972680000.0
sh688067,爱威科技,2021-09-03,29.19,29.72,29.01,29.47,29.01,560781.0,16465312.0,407875733.37,2003960000.0
sh688067,爱威科技,2021-09-06,29.39,30.0,29.39,29.85,29.47,430220.0,12754119.0,413135074.35,2029800000.0
sh688067,爱威科技,2021-09-07,29.8,29.97,29.5,29.52,29.85,380113.0,11262137.0,408567751.92,2007360000.0
sh688067,爱威科技,2021-09-08,29.55,29.73,29.39,29.57,29.52,353481.0,10437929.0,409259770.47,2010760000.0
sh688067,爱威科技,2021-09-09,29.62,29.62,29.3,29.31,29.57,351767.0,10346792.0,405661274.01,1993080000.0
sh688067,爱威科技,2021-09-10,29.52,29.52,29.11,29.2,29.31,293924.0,8599449.0,404138833.2,1985600000.0
sh688067,爱威科技,2021-09-13,29.03,29.29,29.03,29.05,29.2,275453.0,8022452.0,402062777.55,1975400000.0
sh688067,爱威科技,2021-09-14,28.96,29.11,28.6,28.88,29.05,399691.0,11535617.0,399709914.48,1963840000.0
sh688067,爱威科技,2021-09-15,28.88,28.96,28.51,28.75,28.88,207960.0,5991725.0,397910666.25,1955000000.0
sh688067,爱威科技,2021-09-16,28.6,28.89,28.32,28.34,28.75,328738.0,9388279.0,392236114.14,1927120000.0
sh688067,爱威科技,2021-09-17,28.45,28.86,28.22,28.74,28.34,250341.0,7137463.0,397772262.54,1954320000.0
sh688067,爱威科技,2021-09-22,28.5,28.77,28.28,28.45,28.74,189348.0,5391590.0,393758554.9500001,1934600000.0
sh688067,爱威科技,2021-09-23,28.52,28.88,28.52,28.86,28.45,167218.0,4795780.0,399433107.06,1962480000.0
sh688067,爱威科技,2021-09-24,28.86,28.86,28.31,28.32,28.86,234542.0,6680768.0,391959306.72,1925760000.0
sh688067,爱威科技,2021-09-27,28.33,28.54,27.68,27.86,28.32,269045.0,7545006.0,385592736.06,1894480000.0
sh688067,爱威科技,2021-09-28,27.72,27.93,27.6,27.85,27.86,119837.0,3328221.0,385454332.35,1893800000.0
sh688067,爱威科技,2021-09-29,27.61,27.9,27.03,27.3,27.85,177190.0,4853426.0,377842128.3,1856400000.0
sh688067,爱威科技,2021-09-30,27.69,28.2,27.65,27.76,27.3,167869.0,4667131.0,384208698.96,1887680000.0
sh688067,爱威科技,2021-10-08,27.76,28.07,27.76,27.86,27.76,181631.0,5070792.0,385592736.06,1894480000.0
sh688067,爱威科技,2021-10-11,28.18,28.18,27.72,27.9,27.86,146133.0,4081042.0,386146350.9,1897200000.0
sh688067,爱威科技,2021-10-12,27.86,27.92,27.23,27.4,27.9,129185.0,3553320.0,379226165.4,1863200000.0
sh688067,爱威科技,2021-10-13,27.72,27.83,27.38,27.7,27.4,134622.0,3717070.0,383378276.7,1883600000.0
sh688067,爱威科技,2021-10-14,27.65,27.76,27.54,27.67,27.7,200600.0,5545093.0,382963065.57000005,1881560000.0
sh688067,爱威科技,2021-10-15,27.8,27.8,27.3,27.39,27.67,173923.0,4772199.0,379087761.69,1862520000.0
sh688067,爱威科技,2021-10-18,27.5,27.5,27.0,27.17,27.39,151916.0,4120929.0,376042880.07000005,1847560000.0
sh688067,爱威科技,2021-10-19,27.32,27.32,26.8,26.8,27.17,347396.0,9365430.0,370921942.8,1822400000.0
sh688067,爱威科技,2021-10-20,26.81,26.86,26.48,26.53,26.8,273945.0,7290021.0,367185042.63000005,1804040000.0
sh688067,爱威科技,2021-10-21,26.54,26.67,25.96,26.01,26.53,270339.0,7074392.0,359988049.71,1768680000.0
sh688067,爱威科技,2021-10-22,26.01,26.29,25.36,25.53,26.01,262842.0,6753990.0,353344671.63,1736040000.0
sh688067,爱威科技,2021-10-25,25.53,25.77,25.38,25.74,25.53,141741.0,3632812.0,356251149.54,1750320000.0
sh688067,爱威科技,2021-10-26,25.51,26.38,25.5,25.88,25.74,177588.0,4615860.0,358188801.48,1759840000.0
sh688067,爱威科技,2021-10-27,25.53,26.17,24.9,24.97,25.88,209552.0,5282730.0,345594063.87,1697960000.0
sh688067,爱威科技,2021-10-28,24.91,24.91,23.83,23.92,24.97,253986.0,6129463.0,331061674.32,1626560000.0
sh688067,爱威科技,2021-10-29,23.92,24.44,23.89,24.28,23.92,202689.0,4905054.0,336044207.88000005,1651040000.0
sh688067,爱威科技,2021-11-01,24.37,24.71,24.2,24.55,24.28,140328.0,3435609.0,339781108.04999995,1669400000.0
sh688067,爱威科技,2021-11-02,24.56,25.07,24.17,24.4,24.55,245140.0,6038199.0,337705052.4,1659200000.0
sh688067,爱威科技,2021-11-03,24.4,24.72,24.24,24.47,24.4,184436.0,4500911.0,338673878.37,1663960000.0
sh688067,爱威科技,2021-11-04,24.47,25.27,24.33,25.15,24.47,403787.0,10065217.0,348085330.65000004,1710200000.0
sh688067,爱威科技,2021-11-05,24.93,25.38,24.93,25.15,25.15,193261.0,4857064.0,348085330.65000004,1710200000.0
sh688067,爱威科技,2021-11-08,25.68,25.68,24.94,25.1,25.15,141086.0,3541362.0,347393312.1,1706800000.0
sh688067,爱威科技,2021-11-09,25.01,25.57,25.01,25.4,25.1,170377.0,4310990.0,351545423.4,1727200000.0
sh688067,爱威科技,2021-11-10,25.47,25.75,25.21,25.69,25.4,355076.0,9034335.0,355559130.98999995,1746920000.0
sh688067,爱威科技,2021-11-11,25.69,26.58,25.53,26.24,25.69,425783.0,11142027.0,363171335.04,1784320000.0
sh688067,爱威科技,2021-11-12,26.2,26.67,26.01,26.55,26.24,212394.0,5595273.0,367461850.05,1805400000.0
sh688067,爱威科技,2021-11-15,26.3,27.25,26.3,27.06,26.55,480633.0,13009082.0,374520439.26,1840080000.0
sh688067,爱威科技,2021-11-16,27.18,27.18,26.55,26.58,27.06,296613.0,7936156.0,367877061.18,1807440000.0
sh688067,爱威科技,2021-11-17,26.56,27.19,26.48,26.91,26.58,243742.0,6553218.0,372444383.61,1829880000.0
sh688067,爱威科技,2021-11-18,26.75,27.08,26.33,26.4,26.91,319049.0,8490739.0,365385794.4,1795200000.0
sh688067,爱威科技,2021-11-19,26.45,27.26,26.4,27.04,26.4,276667.0,7440088.0,374243631.84,1838720000.0
sh688067,爱威科技,2021-11-22,26.83,27.25,26.81,27.02,27.04,176847.0,4779512.0,373966824.41999996,1837360000.0
sh688067,爱威科技,2021-11-23,27.0,27.47,26.98,27.31,27.02,297426.0,8096699.0,377980532.01000005,1857080000.0
sh688067,爱威科技,2021-11-24,27.5,27.86,27.22,27.74,27.31,442409.0,12184813.0,383931891.54,1886320000.0
sh688067,爱威科技,2021-11-25,27.75,28.5,27.58,28.08,27.74,389926.0,10962018.0,388637617.67999995,1909440000.0
sh688067,爱威科技,2021-11-26,28.08,28.08,27.35,27.39,28.08,360568.0,9938181.0,379087761.69,1862520000.0
sh688067,爱威科技,2021-11-29,26.92,27.75,26.59,27.36,27.39,313971.0,8605208.0,378672550.56,1860480000.0
sh688067,爱威科技,2021-11-30,27.55,27.84,27.15,27.84,27.36,278981.0,7670524.0,385315928.64,1893120000.0
sh688067,爱威科技,2021-12-01,27.71,28.12,27.53,27.98,27.84,312679.0,8719178.0,387253580.58,1902640000.0
sh688067,爱威科技,2021-12-02,28.0,28.19,27.43,27.43,27.98,313923.0,8720213.0,379641376.53,1865240000.0
sh688067,爱威科技,2021-12-03,27.45,27.67,27.2,27.33,27.43,263739.0,7214934.0,378257339.43,1858440000.0
sh688067,爱威科技,2021-12-06,27.2,27.21,26.24,26.25,27.33,444741.0,11879537.0,363309738.75000006,1785000000.0
sh688067,爱威科技,2021-12-07,26.92,26.92,25.79,25.93,26.25,156250.0,4078867.0,358880820.03000003,1763240000.0
sh688067,爱威科技,2021-12-08,26.27,26.43,25.8,26.04,25.93,144075.0,3754854.0,360403260.84,1770720000.0
sh688067,爱威科技,2021-12-09,26.04,26.26,25.77,26.04,26.04,174899.0,4555802.0,360403260.84,1770720000.0
sh688067,爱威科技,2021-12-10,26.04,26.47,25.83,26.4,26.04,180405.0,4731787.0,365385794.40000004,1795200000.0
sh688067,爱威科技,2021-12-13,26.4,26.55,25.86,26.0,26.4,213342.0,5604283.0,359849646.0,1768000000.0
sh688067,爱威科技,2021-12-14,25.99,26.78,25.78,26.53,26.0,257927.0,6844720.0,367185042.63000005,1804040000.0
sh688067,爱威科技,2021-12-15,26.53,26.75,26.33,26.44,26.53,256425.0,6799265.0,365939409.24,1797920000.0
sh688067,爱威科技,2021-12-16,26.28,26.55,26.11,26.54,26.44,407742.0,10732964.0,383503000.0,1804720000.0
sh688067,爱威科技,2021-12-17,26.48,27.19,26.21,26.83,26.54,445888.0,11931530.0,387693500.0,1824440000.0
sh688067,爱威科技,2021-12-20,26.83,27.29,26.53,26.99,26.83,511303.0,13798622.0,390005500.0,1835320000.0
sh688067,爱威科技,2021-12-21,26.99,27.27,26.86,27.17,26.99,369289.0,9996197.0,392606500.0,1847560000.0
sh688067,爱威科技,2021-12-22,27.17,27.97,27.05,27.95,27.17,640921.0,17735273.0,403877500.0,1900600000.0
sh688067,爱威科技,2021-12-23,27.92,27.92,27.11,27.43,27.95,578820.0,15838996.0,396363500.0,1865240000.0
sh688067,爱威科技,2021-12-24,27.41,27.41,26.7,27.01,27.43,399895.0,10781529.0,390294500.0,1836680000.0
sh688067,爱威科技,2021-12-27,26.82,27.39,26.8,27.11,27.01,273351.0,7426751.0,391739500.0,1843480000.0
sh688067,爱威科技,2021-12-28,27.48,27.67,27.12,27.28,27.11,252145.0,6897754.0,394196000.0,1855040000.0
sh688067,爱威科技,2021-12-29,27.12,27.6,27.02,27.21,27.28,213041.0,5825796.0,393184500.0,1850280000.0
sh688067,爱威科技,2021-12-30,27.43,28.1,27.08,27.8,27.21,678154.0,18830363.0,401710000.0,1890400000.0
sh688067,爱威科技,2021-12-31,28.0,28.15,27.68,27.81,27.8,428994.0,11954979.0,401854500.0,1891080000.0
sh688067,爱威科技,2022-01-04,27.81,28.18,27.66,28.13,27.81,558717.0,15643072.0,406478500.0,1912840000.0
sh688067,爱威科技,2022-01-05,28.18,28.21,27.32,27.55,28.13,426212.0,11751929.0,398097500.0,1873400000.0
sh688067,爱威科技,2022-01-06,27.42,28.54,27.35,28.41,27.55,812118.0,22897711.0,410524500.0,1931880000.0
sh688067,爱威科技,2022-01-07,28.38,28.7,28.03,28.08,28.41,626391.0,17752167.0,405756000.0,1909440000.0
sh688067,爱威科技,2022-01-10,28.38,28.91,27.71,28.49,28.08,742919.0,21181721.0,411680500.0,1937320000.0
sh688067,爱威科技,2022-01-11,28.6,30.25,28.37,30.13,28.49,1808872.0,53406803.0,435378500.0,2048840000.0
sh688067,爱威科技,2022-01-12,30.34,32.77,30.34,30.9,30.13,2945147.0,92796607.0,446505000.0,2101200000.0
sh688067,爱威科技,2022-01-13,30.21,31.56,30.02,30.22,30.9,1561047.0,47854399.0,436679000.0,2054960000.0
sh688067,爱威科技,2022-01-14,30.3,31.55,30.06,30.73,30.22,1348519.0,41728112.0,444048500.0,2089640000.0
