数据由邢不行整理
股票代码,股票名称,交易日期,开盘价,最高价,最低价,收盘价,前收盘价,成交量,成交额,流通市值,总市值
sh688185,N康希诺,2020-08-13,470.0,477.0,374.4,393.11,209.71,15747230.0,6442658051.0,8903448540.06,97275029795.89
sh688185,康希诺,2020-08-14,376.5,385.0,343.55,349.6,393.11,8572341.0,3091017596.0,7918001601.599999,86508484690.40001
sh688185,康希诺,2020-08-17,359.8,379.35,356.02,364.73,349.6,6525162.0,2411490160.0,8260677128.58,90252401662.27
sh688185,康希诺,2020-08-18,364.73,378.88,346.8,374.3,364.73,6698564.0,2430837163.0,8477425627.8,92620497195.7
sh688185,康希诺,2020-08-19,366.0,366.4,351.0,351.0,374.3,3531597.0,1259196637.0,7949709846.0,86854914549.0
sh688185,康希诺,2020-08-20,345.0,358.51,340.5,346.33,351.0,2340069.0,817978366.0,7843940202.18,85699323520.67
sh688185,康希诺,2020-08-21,351.15,357.36,346.01,349.03,346.33,2123822.0,748773573.0,7905091816.379999,86367438247.97
sh688185,康希诺,2020-08-24,339.61,339.61,303.0,308.39,349.03,4279872.0,1350669024.0,6984646778.94,76311074352.61
sh688185,康希诺,2020-08-25,300.0,305.0,285.54,285.88,308.39,3752363.0,1098057901.0,6474823506.4800005,70740977126.12001
sh688185,康希诺,2020-08-26,281.03,292.9,276.36,279.6,285.88,2228125.0,634585171.0,6332589381.6,69186991760.40001
sh688185,康希诺,2020-08-27,278.51,281.87,264.77,270.0,279.6,2543551.0,687025257.0,6115161420.0,66811472730.0
sh688185,康希诺,2020-08-28,271.0,273.0,256.43,261.7,270.0,3382452.0,885340435.0,5927176828.2,64757638568.3
sh688185,康希诺,2020-08-31,259.04,264.18,249.5,255.58,261.7,3426305.0,872922767.0,5788566502.679999,63243245186.42
sh688185,康希诺,2020-09-01,254.7,265.88,253.51,259.0,255.58,1871468.0,487737594.0,5866025214.0,64089523841.0
sh688185,康希诺,2020-09-02,257.5,268.0,249.23,263.53,259.0,3015471.0,780388299.0,5968624033.379999,65210471883.46999
sh688185,康希诺,2020-09-03,260.0,292.0,257.0,283.99,263.53,4132819.0,1157409352.0,6432017376.540001,70273296817.01
sh688185,康希诺,2020-09-04,276.0,289.98,276.0,285.65,283.99,2259472.0,645047370.0,6469614294.9,70684063649.35
sh688185,康希诺,2020-09-07,283.0,288.0,264.48,279.05,285.65,2901488.0,802119911.0,6320132571.3,69050894315.95
sh688185,康希诺,2020-09-08,279.5,307.27,278.24,296.25,279.05,3202797.0,948323906.0,6709691002.5,73307032578.75
sh688185,康希诺,2020-09-09,289.79,321.0,285.29,306.5,296.25,3624922.0,1107955566.0,6941840649.0,75843394043.5
sh688185,康希诺,2020-09-10,306.0,322.2,296.0,300.0,306.5,2690585.0,829552753.0,6794623800.0,74234969700.0
sh688185,康希诺,2020-09-11,300.0,319.8,295.03,317.14,300.0,2481736.0,774412105.0,7182823306.44,78476260968.86
sh688185,康希诺,2020-09-14,318.03,330.99,310.4,317.8,317.14,2392744.0,765092256.0,7197771478.799999,78639577902.2
sh688185,康希诺,2020-09-15,318.49,319.0,301.07,307.0,317.8,1964261.0,606144113.0,6953165022.0,75967118993.0
sh688185,康希诺,2020-09-16,304.3,315.0,302.12,303.54,307.0,1303819.0,400713994.0,6874800360.84,75110942342.45999
sh688185,康希诺,2020-09-17,299.66,299.66,281.0,285.04,303.54,2530563.0,732316150.0,6455798559.84,70533119210.95999
sh688185,康希诺,2020-09-18,286.0,293.39,283.01,291.9,285.04,1386766.0,400619968.0,6611168957.4,72230625518.1
sh688185,康希诺,2020-09-21,289.02,298.94,283.25,292.4,291.9,1553661.0,451130142.0,6622493330.400001,72354350467.6
sh688185,康希诺,2020-09-22,286.17,317.0,286.13,307.5,292.4,2669149.0,820790266.0,6964489395.0,76090843942.5
sh688185,康希诺,2020-09-23,313.8,358.71,306.12,352.51,307.5,5129710.0,1726005100.0,7983909452.46,87228563896.49
sh688185,康希诺,2020-09-24,343.0,361.98,337.5,339.89,352.51,3447646.0,1201006440.0,7698082277.94,84105746171.11
sh688185,康希诺,2020-09-25,344.98,371.0,341.5,349.0,339.89,3474991.0,1236426349.0,7904412354.0,86360014751.0
sh688185,康希诺,2020-09-28,355.99,362.0,340.32,348.74,349.0,2165341.0,757930159.0,7898523680.040001,86295677777.26
sh688185,康希诺,2020-09-29,343.2,345.99,326.66,329.45,348.74,2397303.0,799767588.0,7461629369.700001,81522369225.55
sh688185,康希诺,2020-09-30,332.01,345.9,329.0,345.0,329.45,1789360.0,602835415.0,7813817370.0,85370215155.0
sh688185,康希诺,2020-10-09,348.02,359.0,338.6,354.5,345.0,2244010.0,783807213.0,8028980457.0,87720989195.5
sh688185,康希诺,2020-10-12,355.04,359.88,346.68,352.97,354.5,2293374.0,806904077.0,7994327875.62,87342390850.03
sh688185,康希诺,2020-10-13,353.0,366.66,350.17,352.96,352.97,2508087.0,901444443.0,7994101388.16,87339916351.04001
sh688185,康希诺,2020-10-14,350.1,356.5,338.82,340.0,352.96,2273648.0,787266403.0,7700573639.999999,84132965660.0
sh688185,康希诺,2020-10-15,361.5,389.18,351.5,370.01,340.0,4308506.0,1609306083.0,8380262507.46,91558937128.99
sh688185,康希诺,2020-10-16,367.0,396.78,366.0,395.62,370.01,3978123.0,1524957720.0,8960296892.52,97896129042.38
sh688185,康希诺,2020-10-19,402.0,425.8,387.97,415.4,395.62,3896474.0,1581161462.0,9408289088.4,102790688044.6
sh688185,康希诺,2020-10-20,408.88,419.04,398.88,405.1,415.4,2581725.0,1050810657.0,9175007004.6,100241954084.9
sh688185,康希诺,2020-10-21,409.4,462.0,409.38,433.98,405.1,3793823.0,1667133847.0,9829102789.08,107388307168.02
sh688185,康希诺,2020-10-22,425.99,447.99,420.23,430.5,433.98,2488704.0,1071265782.0,9750285153.0,106527181519.5
sh688185,康希诺,2020-10-23,428.39,431.9,377.02,392.0,430.5,3871426.0,1550718318.0,8878308432.0,97000360408.0
sh688185,康希诺,2020-10-26,392.0,408.8,385.0,402.48,392.0,1830870.0,734622159.0,9115667290.08,99593635349.52
sh688185,康希诺,2020-10-27,400.68,405.0,391.02,392.51,402.48,1586817.0,629510799.0,8889859292.460001,97126559856.49
sh688185,康希诺,2020-10-28,385.0,394.48,365.45,374.1,392.51,2541105.0,955120185.0,8472895878.599999,92571007215.9
sh688185,康希诺,2020-10-29,379.99,404.48,378.0,400.62,374.1,2577824.0,1015938204.0,9073540622.52,99133378537.38
sh688185,康希诺,2020-10-30,400.0,403.9,388.2,397.1,400.62,1754670.0,694833943.0,8993817036.6,98262354892.9
sh688185,康希诺,2020-11-02,398.0,401.0,368.89,385.48,397.1,2116519.0,808630040.0,8730638608.08,95386987066.52
sh688185,康希诺,2020-11-03,380.03,397.23,375.79,388.5,385.48,1470707.0,569915930.0,8799037821.0,96134285761.5
sh688185,康希诺,2020-11-04,383.61,392.4,379.0,389.0,388.5,1235902.0,477110010.0,8810362194.0,96258010711.0
sh688185,康希诺,2020-11-05,395.0,405.0,389.01,398.6,389.0,1549510.0,616959687.0,9027790155.6,98633529741.4
sh688185,康希诺,2020-11-06,400.0,403.0,373.68,380.0,398.6,1807931.0,691235119.0,8606523480.0,94030961620.0
sh688185,康希诺,2020-11-09,386.0,402.59,385.0,401.6,380.0,2049015.0,808573979.0,9095736393.6,99375879438.4
sh688185,康希诺,2020-11-10,416.0,429.88,387.83,391.0,401.6,2966376.0,1211640228.0,8855659686.0,96752910508.99998
sh688185,康希诺,2020-11-11,383.0,388.66,365.0,368.0,391.0,2367161.0,886534374.0,8334738528.0,91061562832.0
sh688185,康希诺,2020-11-12,366.66,374.92,366.02,366.17,368.0,1064810.0,393972900.0,8293291322.820001,90608729516.83
sh688185,康希诺,2020-11-13,361.93,393.27,351.02,391.99,366.17,2045056.0,763883561.0,8878081944.539999,96997885909.01
sh688185,康希诺,2020-11-16,385.6,394.75,381.01,387.0,391.99,1174338.0,455440289.0,8765064702.0,95763110913.0
sh688185,康希诺,2020-11-17,380.01,380.9,371.0,373.98,387.0,1248079.0,467010582.0,8470178029.08,92541313228.02
sh688185,康希诺,2020-11-18,369.01,391.18,368.18,378.0,373.98,1440317.0,548244185.0,8561225988.0,93536061822.0
sh688185,康希诺,2020-11-19,373.15,383.33,371.6,372.52,378.0,937807.0,350616399.0,8437110859.919999,92180036375.48
sh688185,康希诺,2020-11-20,372.52,388.0,369.03,378.8,372.52,1296702.0,490348638.0,8579344984.799999,93734021741.2
sh688185,康希诺,2020-11-23,377.5,393.98,377.5,388.7,378.8,1443125.0,560090199.0,8803567570.2,96183775741.3
sh688185,康希诺,2020-11-24,383.5,386.67,369.0,372.68,388.7,1463904.0,550000310.0,8440734659.280001,92219628359.32
sh688185,康希诺,2020-11-25,369.03,383.99,362.7,375.34,372.68,1645362.0,612666594.0,8500980323.639999,92877845090.66
sh688185,康希诺,2020-11-26,375.77,382.0,371.8,375.0,375.34,805273.0,302705790.0,8493279750.0,92793712125.0
sh688185,康希诺,2020-11-27,374.98,378.82,371.0,374.21,375.0,621978.0,233223228.0,8475387240.66,92598226704.79
sh688185,康希诺,2020-11-30,377.8,381.0,373.0,376.43,374.21,925024.0,349014805.0,8525667456.780001,93147565480.57
sh688185,康希诺,2020-12-01,380.0,388.96,378.11,384.39,376.43,1294812.0,499304054.0,8705951474.94,95117266676.61
sh688185,康希诺,2020-12-02,385.1,387.9,374.0,376.2,384.39,1157352.0,438686973.0,8520458245.2,93090652003.8
sh688185,康希诺,2020-12-03,374.2,384.91,374.2,380.58,376.2,1030541.0,393244442.0,8619659752.68,94174482561.42
sh688185,康希诺,2020-12-04,378.08,411.55,375.18,401.82,380.58,2044393.0,803659476.0,9100719117.72,99430318416.18
sh688185,康希诺,2020-12-07,393.06,410.58,393.06,396.5,401.82,1451209.0,583328885.0,8980227789.0,98113884953.5
sh688185,康希诺,2020-12-08,399.26,402.0,389.05,389.6,396.5,913663.0,358475741.0,8823951441.6,96406480650.4
sh688185,康希诺,2020-12-09,400.0,401.82,391.01,398.0,389.6,1390787.0,550683565.0,9014200908.0,98485059802.0
sh688185,康希诺,2020-12-10,396.0,451.11,393.0,438.28,398.0,3112050.0,1299315622.0,9926492396.88,108452341733.72
sh688185,康希诺,2020-12-11,429.0,436.0,420.11,431.95,438.28,2222599.0,953353613.0,9783125834.7,106885983873.05
sh688185,康希诺,2020-12-14,428.2,431.0,416.0,416.4,431.95,1423603.0,597068468.0,9430937834.4,103038137943.6
sh688185,康希诺,2020-12-15,410.0,410.0,390.24,390.82,416.4,2245323.0,893406566.0,8851582911.72,96708369527.18
sh688185,康希诺,2020-12-16,388.01,402.5,388.01,397.8,390.82,1264751.0,501519465.0,9009671158.8,98435569822.2
sh688185,康希诺,2020-12-17,408.68,416.95,403.0,408.2,397.8,1521739.0,625949674.0,9245218117.2,101009048771.8
sh688185,康希诺,2020-12-18,409.98,415.46,401.3,410.61,408.2,1161574.0,474501556.0,9299801595.06,101605403028.39
sh688185,康希诺,2020-12-21,411.0,425.0,407.2,415.02,410.61,1397294.0,581667401.0,9399682564.92,102696657082.98
sh688185,康希诺,2020-12-22,415.08,430.31,414.28,417.4,415.02,1788460.0,754156988.0,9453586580.4,103285587842.6
sh688185,康希诺,2020-12-23,416.0,418.86,401.0,410.81,417.4,1477683.0,603718315.0,9304331344.26,101654893008.19
sh688185,康希诺,2020-12-24,410.5,417.0,402.0,408.02,410.81,1425091.0,583087907.0,9241141342.92,100964507789.98
sh688185,康希诺,2020-12-25,403.9,412.0,397.8,407.2,408.02,1031473.0,417548831.0,9222569371.2,100761598872.8
sh688185,康希诺,2020-12-28,407.0,410.0,371.4,375.3,407.2,1999109.0,778228158.0,8500074373.8,92867947094.7
sh688185,康希诺,2020-12-29,368.01,371.0,334.94,334.94,375.3,2914468.0,1018929725.0,7585970985.240001,82880869171.06
sh688185,康希诺,2020-12-30,330.81,357.99,330.8,351.23,334.94,1574818.0,546890329.0,7954919057.58,86911828025.77
sh688185,康希诺,2020-12-31,350.69,383.59,350.0,374.11,351.23,2183514.0,808063466.0,8473122366.059999,92573481714.89
sh688185,康希诺,2021-01-04,371.88,377.77,353.63,365.55,374.11,1621637.0,589397152.0,8279249100.3,90455310579.45
sh688185,康希诺,2021-01-05,360.01,364.87,353.8,361.0,365.55,1182310.0,424772742.0,8176197306.0,89329413539.0
sh688185,康希诺,2021-01-06,363.6,372.0,357.0,369.0,361.0,1150754.0,420404943.0,8357387274.0,91309012731.0
sh688185,康希诺,2021-01-07,365.1,389.88,358.05,379.0,369.0,1926931.0,729426499.0,8583874734.0,93783511721.0
sh688185,康希诺,2021-01-08,372.5,395.0,372.5,385.55,379.0,1228465.0,476263389.0,8732224020.3,95404308559.45
sh688185,康希诺,2021-01-11,379.0,385.0,358.08,360.0,385.55,1259198.0,466027544.0,8153548560.0,89081963640.0
sh688185,康希诺,2021-01-12,361.0,377.57,361.0,372.19,360.0,1094098.0,406841649.0,8429636773.74,92098377908.81
sh688185,康希诺,2021-01-13,376.5,379.0,358.0,363.35,372.19,1075650.0,394419207.0,8229421859.1,89910920801.65001
sh688185,康希诺,2021-01-14,359.0,368.9,350.35,363.16,363.35,1053195.0,378649163.0,8225118597.36,89863905320.84
sh688185,康希诺,2021-01-15,372.0,378.0,367.01,369.16,363.16,1142780.0,426068052.0,8361011073.36,91348604714.84
sh688185,康希诺,2021-01-18,368.0,377.0,363.67,369.2,369.16,867927.0,322514706.0,8361917023.200001,91358502710.8
sh688185,康希诺,2021-01-19,371.0,375.0,358.5,360.01,369.2,852179.0,311418493.0,8153775047.46,89084438138.98999
sh688185,康希诺,2021-01-20,363.33,372.35,363.33,370.06,360.01,990328.0,365267385.0,8381394944.759999,91571309623.94
sh688185,康希诺,2021-01-21,375.0,379.5,371.0,376.12,370.06,974021.0,366196872.0,8518646345.519999,93070856011.88
sh688185,康希诺,2021-01-22,374.9,389.03,371.0,384.89,376.12,1291551.0,490413978.0,8717275847.94,95240991626.11
sh688185,康希诺,2021-01-25,385.5,404.0,385.5,399.86,384.89,1719319.0,686014478.0,9056327575.56,98945316614.14
sh688185,康希诺,2021-01-26,395.01,409.8,395.01,397.8,399.86,1357673.0,545831757.0,9009671158.8,98435569822.2
sh688185,康希诺,2021-01-27,398.0,401.92,374.0,375.82,397.8,1504769.0,573844883.0,8511851721.72,92996621042.18
sh688185,康希诺,2021-01-28,367.0,374.88,358.5,358.8,375.82,1060355.0,387044104.0,8126370064.8,88785023761.2
sh688185,康希诺,2021-01-29,361.0,367.0,355.71,359.73,358.8,822094.0,296940224.0,8147433398.580001,89015152167.27
sh688185,康希诺,2021-02-01,375.0,409.8,373.0,390.51,359.73,2263677.0,882113167.0,8844561800.460001,96631660058.49
sh688185,康希诺,2021-02-02,387.51,395.5,373.16,376.9,390.51,1391963.0,529186032.0,8536312367.4,93263866933.1
sh688185,康希诺,2021-02-03,370.85,386.0,370.51,376.0,376.9,1036653.0,393163361.0,8515928496.0,93041162024.00002
sh688185,康希诺,2021-02-04,376.0,385.0,371.18,381.03,376.0,1051863.0,398654849.0,8629851688.380001,94285835015.97
sh688185,康希诺,2021-02-05,383.0,407.44,383.0,400.99,381.03,2194201.0,875605779.0,9081920658.54,99224935000.01
sh688185,康希诺,2021-02-08,408.9,428.05,405.0,416.9,400.99,1851124.0,776767684.0,9442262207.4,103161862893.1
sh688185,康希诺,2021-02-09,445.0,466.98,427.0,450.0,416.9,3445050.0,1541001870.0,10191935700.0,111352454550.0
sh688185,康希诺,2021-02-10,449.43,540.0,445.23,540.0,450.0,3765937.0,1878440528.0,12230322840.0,133622945460.0
sh688185,康希诺,2021-02-18,575.0,577.0,485.0,502.0,540.0,4573987.0,2437333902.0,12059506342.0,124219849298.0
sh688185,康希诺,2021-02-19,501.0,502.0,476.88,490.0,502.0,2084677.0,1015103194.0,11771231290.0,121250450510.00002
sh688185,康希诺,2021-02-22,485.0,487.85,440.0,444.0,490.0,2681800.0,1228656712.0,10666176924.0,109867755156.0
sh688185,康希诺,2021-02-23,435.0,472.0,428.88,461.0,444.0,2245207.0,1024598057.0,11074566580.999998,114074403439.0
sh688185,康希诺,2021-02-24,455.0,515.0,438.0,469.6,461.0,3364869.0,1586992519.0,11281163701.599998,116202472570.4
sh688185,康希诺,2021-02-25,474.65,510.5,474.61,495.06,469.6,2586301.0,1286291363.0,11892787270.259998,122502546998.94
sh688185,康希诺,2021-02-26,495.65,517.79,471.83,485.0,495.06,2519242.0,1248215939.0,11651116685.0,120013201015.00002
sh688185,康希诺,2021-03-01,505.0,525.0,496.24,499.07,485.0,1758338.0,893921829.0,11989119183.47,123494821093.93
sh688185,康希诺,2021-03-02,493.0,504.99,461.01,471.53,499.07,1636238.0,780999851.0,11327527939.13,116680050875.47
sh688185,康希诺,2021-03-03,472.0,483.0,467.06,476.88,471.53,945373.0,450338999.0,11456050566.48,118003907835.12
sh688185,康希诺,2021-03-04,461.03,471.99,447.88,450.87,476.88,1320758.0,604993286.0,10831214391.27,111567735962.13
sh688185,康希诺,2021-03-05,443.0,459.98,431.6,450.9,450.87,1191193.0,530505536.0,10831935078.9,111575159459.1
sh688185,康希诺,2021-03-08,456.01,463.85,390.0,390.9,450.9,2651009.0,1112478600.0,9390559818.9,96728165519.1
sh688185,康希诺,2021-03-09,392.0,397.5,369.05,375.0,390.9,1648145.0,629228672.0,9008595375.0,92793712125.0
sh688185,康希诺,2021-03-10,389.0,395.0,383.0,388.0,375.0,1176577.0,458208527.0,9320893348.0,96010560812.0
sh688185,康希诺,2021-03-11,387.59,403.0,385.6,395.8,388.0,957257.0,378326373.0,9508272131.8,97940670024.2
sh688185,康希诺,2021-03-12,399.88,408.86,393.37,405.88,395.8,1194767.0,481081540.0,9750423175.48,100434965006.12
sh688185,康希诺,2021-03-15,406.96,415.49,395.0,403.18,405.88,1034688.0,420410622.0,9685561288.78,99766850278.82
sh688185,康希诺,2021-03-16,407.8,414.93,393.08,399.82,403.18,832857.0,336122979.0,9604844274.22,98935418618.18
sh688185,康希诺,2021-03-17,399.0,401.99,387.98,393.09,399.82,661265.0,259911188.0,9443170015.89,97270080797.91
sh688185,康希诺,2021-03-18,393.1,399.79,390.88,394.0,393.09,726861.0,286788268.0,9465030874.0,97495260206.0
sh688185,康希诺,2021-03-19,385.8,388.0,371.6,376.04,394.0,1264080.0,476650855.0,9033579212.84,93051060019.96
sh688185,康希诺,2021-03-22,383.01,389.1,376.73,388.48,376.04,946984.0,362688436.0,9332424350.08,96129336763.52
sh688185,康希诺,2021-03-23,390.0,413.82,390.0,399.51,388.48,1132314.0,455342978.0,9597397168.71,98858709149.49
sh688185,康希诺,2021-03-24,399.49,399.49,372.88,378.97,399.51,1093666.0,418656462.0,9103966371.37,93776088224.03
sh688185,康希诺,2021-03-25,375.0,377.55,360.11,371.3,378.97,1019880.0,375151452.0,8919710567.3,91878147498.7
sh688185,康希诺,2021-03-26,368.3,384.5,368.3,377.32,371.3,726743.0,275111816.0,9064328551.72,93367795890.68
sh688185,康希诺,2021-03-29,382.0,383.0,370.51,373.4,377.32,770762.0,290651905.0,8970158701.4,92397792286.6
sh688185,康希诺,2021-03-30,372.78,382.0,372.0,372.72,373.4,765143.0,287553881.0,8953823115.12,92229526355.28
sh688185,康希诺,2021-03-31,373.0,378.05,366.06,368.0,372.72,716906.0,265450460.0,8840434928.0,91061562832.0
sh688185,康希诺,2021-04-01,371.0,394.98,371.0,392.91,368.0,1207220.0,460249448.0,9438845890.11,97225539816.09
sh688185,康希诺,2021-04-02,391.9,414.98,389.0,408.48,392.91,1322364.0,535698427.0,9812882770.08,101078334743.52
sh688185,康希诺,2021-04-06,413.99,415.99,401.1,405.03,408.48,638133.0,259505431.0,9730003692.63,100224632591.97
sh688185,康希诺,2021-04-07,400.0,413.77,400.0,408.98,405.03,798784.0,327233168.0,9824894230.58,101202059693.02
sh688185,康希诺,2021-04-08,406.0,415.0,404.98,412.45,408.98,708262.0,290681668.0,9908253766.45,102060710842.55
sh688185,康希诺,2021-04-09,415.0,417.45,405.08,408.99,412.45,560143.0,230100108.0,9825134459.79,101204534192.01
sh688185,康希诺,2021-04-12,403.0,406.0,373.5,373.5,408.99,1152138.0,445261931.0,8972560993.5,92422537276.5
sh688185,康希诺,2021-04-13,371.38,386.5,371.0,380.1,373.5,775156.0,295555207.0,9131112272.1,94055706609.9
sh688185,康希诺,2021-04-14,377.0,382.88,328.0,356.2,380.1,2853205.0,998913910.0,8556964460.200001,88141654023.8
sh688185,康希诺,2021-04-15,351.0,353.43,343.94,345.9,356.2,914295.0,317631061.0,8309528373.9,85592920064.1
sh688185,康希诺,2021-04-16,345.88,352.36,338.68,348.33,345.9,804963.0,278184539.0,8367904071.929999,86194223318.67
sh688185,康希诺,2021-04-19,345.07,375.23,344.7,372.0,348.33,1300501.0,473884553.0,8936526612.0,92051362427.99998
sh688185,康希诺,2021-04-20,371.76,394.57,371.0,384.98,372.0,1248550.0,481116878.0,9248344126.58,95263262117.02
sh688185,康希诺,2021-04-21,381.8,397.41,381.05,393.8,384.98,1018351.0,397718774.0,9460226289.8,97445770226.2
sh688185,康希诺,2021-04-22,394.03,447.98,391.08,433.61,393.8,2120445.0,890562403.0,10416578774.81,107296750705.39
sh688185,康希诺,2021-04-23,433.0,463.77,428.82,448.3,433.61,2052653.0,922389566.0,10769475484.3,110931789721.7
sh688185,康希诺,2021-04-26,457.0,500.0,457.0,483.41,448.3,2283941.0,1106752198.0,11612920240.61,119619755675.59
sh688185,康希诺,2021-04-27,477.0,495.0,470.0,485.99,483.41,1494026.0,724373168.0,11674899376.79,120258176415.01
sh688185,康希诺,2021-04-28,484.98,509.88,470.13,507.59,485.99,1819675.0,898810536.0,12193794470.39,125603094233.41
sh688185,康希诺,2021-04-29,505.0,513.0,462.0,483.3,507.59,2151421.0,1045788690.0,11610277719.3,119592536186.7
sh688185,康希诺,2021-04-30,481.82,529.95,481.82,522.34,483.3,2144867.0,1100423211.0,12548132555.14,129252980243.66
sh688185,康希诺,2021-05-06,456.07,476.07,434.0,447.22,522.34,3182735.0,1443464375.0,10743530729.62,110664543830.78
sh688185,康希诺,2021-05-07,462.07,469.49,435.01,442.73,447.22,1547294.0,703544302.0,10635667814.33,109553493784.27
sh688185,康希诺,2021-05-10,472.02,489.88,472.02,480.5,442.73,1675051.0,805037972.0,11543013540.5,118899676469.50002
sh688185,康希诺,2021-05-11,482.77,491.05,468.0,480.2,480.5,1158190.0,554319852.0,11535806664.2,118825441499.8
sh688185,康希诺,2021-05-12,479.05,488.09,472.34,487.03,480.2,831158.0,400867697.0,11699883214.63,120515524309.97
sh688185,康希诺,2021-05-13,482.03,510.0,478.0,494.08,487.03,1117401.0,554891785.0,11869244807.68,122260046097.92
sh688185,康希诺,2021-05-14,495.0,532.3,495.0,517.9,494.08,1390573.0,723760910.0,12441470785.9,128154302692.1
sh688185,康希诺,2021-05-17,535.0,545.0,524.73,529.01,517.9,1225088.0,655851541.0,12708365438.21,130903471069.99
sh688185,康希诺,2021-05-18,540.0,540.0,498.98,499.4,529.01,1263322.0,643774470.0,11997046747.4,123576479560.6
sh688185,康希诺,2021-05-19,497.83,576.94,496.89,562.0,499.4,2212001.0,1187499087.0,13500881602.0,139066843238.0
sh688185,康希诺,2021-05-20,559.0,574.44,545.13,566.0,562.0,1545786.0,867807577.0,13596973285.999998,140056642834.0
sh688185,康希诺,2021-05-21,569.0,599.39,569.0,593.0,566.0,2108977.0,1245229647.0,14245592153.0,146737790107.0
sh688185,康希诺,2021-05-24,604.5,605.0,534.0,560.8,593.0,2294504.0,1277882552.0,13472054096.8,138769903359.2
sh688185,康希诺,2021-05-25,585.03,599.8,570.0,573.44,560.8,1710003.0,998108957.0,13775703818.24,141897670082.56
sh688185,康希诺,2021-05-26,564.0,582.0,547.57,566.99,573.44,1606155.0,905946396.0,13620755977.79,140301618234.01
sh688185,康希诺,2021-05-27,568.0,580.0,555.03,580.0,566.99,1564001.0,887892456.0,13933294180.0,143520941420.0
sh688185,康希诺,2021-05-28,574.88,584.99,562.0,568.98,580.0,1251487.0,717698115.0,13668561590.58,140794043533.02
sh688185,康希诺,2021-05-31,577.0,598.0,572.0,584.01,568.98,1669244.0,976080826.0,14029626093.21,144513215514.99
sh688185,康希诺,2021-06-01,589.98,589.98,550.0,578.0,584.01,1429151.0,815782354.0,13885248338.0,143026041622.0
sh688185,康希诺,2021-06-02,576.01,583.01,555.0,560.0,578.0,1278197.0,722160687.0,13452835759.999998,138571943440.0
sh688185,康希诺,2021-06-03,560.68,568.99,546.0,549.26,560.0,979859.0,546348302.0,13194829588.46,135914331524.74
sh688185,康希诺,2021-06-04,567.87,584.0,563.0,566.0,549.26,1469453.0,840782768.0,13596973285.999998,140056642834.0
sh688185,康希诺,2021-06-07,578.49,628.0,556.0,620.7,566.0,2201706.0,1314126780.0,14911027064.7,153592152309.30002
sh688185,康希诺,2021-06-08,618.0,649.1,615.0,629.05,620.7,1769786.0,1116312617.0,15111618455.05,155658358965.94998
sh688185,康希诺,2021-06-09,629.4,629.4,599.0,618.2,629.05,1402857.0,862925159.0,14850969762.2,152973527561.8
sh688185,康希诺,2021-06-10,621.26,627.99,613.0,618.89,618.2,984731.0,611725586.0,14867545577.69,153144267992.11
sh688185,康希诺,2021-06-11,616.2,669.98,610.33,657.0,618.89,1975122.0,1282825879.0,15783059097.0,162574583643.0
sh688185,康希诺,2021-06-15,660.0,678.8,645.01,672.0,657.0,1633421.0,1087466022.0,16143402912.0,166286332128.0
sh688185,康希诺,2021-06-16,667.53,683.58,653.0,676.64,672.0,1140313.0,767969704.0,16254869265.44,167434499659.36
sh688185,康希诺,2021-06-17,668.57,690.28,645.01,680.58,676.64,1416721.0,952204138.0,16349519574.18,168409452261.42
sh688185,康希诺,2021-06-18,674.95,693.0,671.21,677.2,680.58,1023292.0,697458838.0,16268322101.2,167573071602.80002
sh688185,康希诺,2021-06-21,676.0,695.0,668.0,686.06,677.2,923088.0,631451703.0,16481165181.26,169765477707.94
sh688185,康希诺,2021-06-22,684.76,688.77,668.02,678.05,686.06,970642.0,655871294.0,16288741584.05,167783404016.94998
sh688185,康希诺,2021-06-23,692.99,798.0,682.33,757.0,678.05,2171335.0,1616536997.0,18185351197.0,187319573543.0
sh688185,康希诺,2021-06-24,749.62,759.0,740.0,748.69,757.0,877814.0,657459068.0,17985720723.49,185263264882.31
sh688185,康希诺,2021-06-25,749.17,760.0,736.0,757.31,748.69,942221.0,708957110.0,18192798302.51,187396283011.69
sh688185,康希诺,2021-06-28,741.51,774.66,740.0,765.01,757.31,1034481.0,784600024.0,18377774794.21,189301647233.99
sh688185,康希诺,2021-06-29,762.13,782.0,755.0,768.0,765.01,740735.0,569270350.0,18449603328.0,190041522432.0
sh688185,康希诺,2021-06-30,765.0,787.0,762.0,777.77,768.0,698809.0,542638133.0,18684307266.17,192459107945.23
sh688185,康希诺,2021-07-01,777.79,793.34,700.0,742.0,777.77,1646411.0,1234465584.0,17825007382.0,183607825058.0
sh688185,康希诺,2021-07-02,725.0,745.08,717.85,718.33,742.0,1012199.0,738183122.0,17256384841.93,177750685948.66998
sh688185,康希诺,2021-07-05,722.16,743.99,711.08,736.0,718.33,824208.0,602354169.0,17680869856.0,182123125664.0
sh688185,康希诺,2021-07-06,732.18,744.8,671.68,686.08,736.0,1733080.0,1210681411.0,16481645639.68,169770426705.91998
sh688185,康希诺,2021-07-07,680.01,724.0,678.0,717.89,686.08,1082870.0,762228585.0,17245814756.690002,177641807993.11002
sh688185,康希诺,2021-07-08,720.0,726.51,689.26,697.12,717.89,815659.0,572205729.0,16746858687.52,172502273590.88
sh688185,康希诺,2021-07-09,698.72,718.0,672.0,709.0,697.12,1060254.0,736097647.0,17032250989.000002,175441978391.0
sh688185,康希诺,2021-07-12,713.0,719.0,685.01,698.0,709.0,771724.0,541985638.0,16767998858.0,172720029502.0
sh688185,康希诺,2021-07-13,697.47,709.04,651.0,671.29,698.0,1040877.0,703122791.0,16126346638.09,166110642699.71
sh688185,康希诺,2021-07-14,660.0,700.67,660.0,673.38,671.29,826752.0,563711464.0,16176554542.98,166627812988.62
sh688185,康希诺,2021-07-15,674.97,677.0,621.57,631.99,673.38,1561033.0,1000334348.0,15182245842.79,156385861669.01
sh688185,康希诺,2021-07-16,632.39,637.88,597.1,598.88,631.99,1535242.0,939954247.0,14386846928.48,148192795513.12
sh688185,康希诺,2021-07-19,638.15,643.0,588.88,611.0,598.88,1655573.0,1018238273.0,14678004731.0,151191888289.0
sh688185,康希诺,2021-07-20,619.34,639.88,615.03,622.9,611.0,1058834.0,664735182.0,14963877490.9,154136542087.1
sh688185,康希诺,2021-07-21,625.0,633.33,616.01,627.14,622.9,1016438.0,637620050.0,15065734675.94,155185729658.86002
sh688185,康希诺,2021-07-22,620.0,628.77,588.88,594.91,627.14,1203978.0,727475200.0,14291475932.11,147210419414.09
sh688185,康希诺,2021-07-23,586.7,598.0,559.43,571.4,594.91,1084304.0,618159485.0,13726697059.4,141392872288.6
sh688185,康希诺,2021-07-26,565.64,569.0,511.22,527.0,571.4,1813957.0,963435435.0,12660079367.0,130406096773.0
sh688185,康希诺,2021-07-27,524.24,535.62,505.0,512.0,527.0,949653.0,499153174.0,12299735552.0,126694348288.0
sh688185,康希诺,2021-07-28,521.58,587.0,515.35,581.21,512.0,1881992.0,1040935678.0,13962361914.41,143820355797.78998
sh688185,康希诺,2021-07-29,594.8,625.0,594.8,600.01,581.21,1861119.0,1134032061.0,14413992829.21,148472413898.99
sh688185,康希诺,2021-07-30,601.03,620.0,558.88,609.0,600.01,1807312.0,1067042895.0,14629958888.999998,150696988491.0
sh688185,康希诺,2021-08-02,624.02,636.66,592.99,602.0,609.0,1735740.0,1063394354.0,14461798442.0,148964839198.0
sh688185,康希诺,2021-08-03,596.0,701.99,590.0,690.0,602.0,2967982.0,1949276008.0,16575815490.000002,170740430310.0
sh688185,康希诺,2021-08-04,678.08,688.88,651.0,681.02,690.0,1729555.0,1161138732.0,16360089659.42,168518330216.98
sh688185,康希诺,2021-08-05,681.02,697.94,666.5,674.0,681.02,1280437.0,869483264.0,16191448754.0,166781231926.0
sh688185,康希诺,2021-08-06,682.0,682.0,583.0,623.0,674.0,2235710.0,1396065707.0,14966279783.0,154161287077.0
sh688185,康希诺,2021-08-09,609.99,609.99,572.02,574.0,623.0,1398003.0,813245589.0,13789156654.0,142036242026.0
sh688185,康希诺,2021-08-10,579.68,590.0,562.95,581.49,574.0,1191251.0,685271285.0,13969088332.29,143889641769.51
sh688185,康希诺,2021-08-11,574.0,574.0,538.0,539.04,581.49,1442776.0,786068132.0,12949315335.84,133385393556.96
sh688185,康希诺,2021-08-12,528.47,543.95,523.0,530.0,539.04,1087893.0,581530493.0,12732148130.0,131148446470.0
sh688185,康希诺,2021-08-13,530.0,534.94,460.13,476.4,530.0,4023939.0,1960540837.0,31831479214.8,117885131883.6
sh688185,康希诺,2021-08-16,457.0,457.0,426.12,428.89,476.4,3086191.0,1349274853.0,28657017465.23,106128787182.11
sh688185,康希诺,2021-08-17,420.0,427.99,402.0,403.0,428.89,2687927.0,1115246064.0,26927132921.000004,99722309297.0
sh688185,康希诺,2021-08-18,408.98,412.01,398.0,400.53,403.0,1961399.0,789175789.0,26762095654.71,99111108046.47
sh688185,康希诺,2021-08-19,398.98,407.98,391.2,400.88,400.53,1745599.0,698874638.0,26785481502.16,99197715511.12
sh688185,康希诺,2021-08-20,396.9,399.99,378.01,390.0,400.88,2151437.0,831014291.0,26058515730.0,96505460610.0
sh688185,康希诺,2021-08-23,405.59,420.0,396.6,412.7,390.0,3732997.0,1537311735.0,27575254978.9,102122573317.3
sh688185,康希诺,2021-08-24,417.54,425.01,406.17,410.68,412.7,2390379.0,989267287.0,27440285230.76,101622724521.32
sh688185,康希诺,2021-08-25,410.28,414.97,405.6,407.49,410.68,1492701.0,609708013.0,27227139935.43,100833359343.51
sh688185,康希诺,2021-08-26,410.0,410.0,391.0,396.77,407.49,1656540.0,660184959.0,26510864836.39,98180696426.23
sh688185,康希诺,2021-08-27,394.28,415.0,393.48,412.5,396.77,1775622.0,726032009.0,27561891637.5,102073083337.5
sh688185,康希诺,2021-08-30,408.0,411.0,392.99,398.55,412.5,1969651.0,792632617.0,26629798574.85,98621157246.45
sh688185,康希诺,2021-08-31,403.87,406.6,374.77,385.23,398.55,2102074.0,812486764.0,25739800037.61,95325124591.77
sh688185,康希诺,2021-09-01,390.0,398.76,368.0,390.99,385.23,2490121.0,951057640.0,26124664269.93,96750436010.01
sh688185,康希诺,2021-09-02,389.0,392.0,370.98,371.69,390.99,1856810.0,699219933.0,24835101824.83,91974652959.31
sh688185,康希诺,2021-09-03,376.58,379.5,365.58,369.01,371.69,1330610.0,494700570.0,24656033050.07,91311487229.99
sh688185,康希诺,2021-09-06,369.01,383.0,361.0,374.55,369.01,2023459.0,758941472.0,25026197606.85,92682359670.45
sh688185,康希诺,2021-09-07,375.0,383.0,366.08,381.5,374.55,1969486.0,735193409.0,25490573720.5,94402136468.49998
sh688185,康希诺,2021-09-08,380.0,380.0,369.17,370.18,381.5,1841709.0,687481718.0,24734208597.26,91601003611.82
sh688185,康希诺,2021-09-09,372.0,374.8,366.66,369.69,370.18,998732.0,369380905.0,24701468410.83,91479753161.31
sh688185,康希诺,2021-09-10,370.01,373.16,361.0,370.62,369.69,1194668.0,440628467.0,24763607948.34,91709881567.38
sh688185,康希诺,2021-09-13,371.0,379.6,362.43,362.85,370.62,1582558.0,586818582.0,24244442134.95,89787195852.15001
sh688185,康希诺,2021-09-14,360.95,365.55,351.0,351.5,362.85,1830634.0,654125379.0,23486072510.5,86978639498.5
sh688185,康希诺,2021-09-15,351.49,352.42,340.0,341.9,351.5,1797385.0,618924716.0,22844632123.3,84603120468.09999
sh688185,康希诺,2021-09-16,343.81,346.57,331.5,332.25,341.9,1632755.0,552991697.0,22199850900.75,82215228942.75
sh688185,康希诺,2021-09-17,336.49,357.0,331.0,351.99,332.25,2207699.0,758837004.0,23518812696.93,87099889949.01
sh688185,康希诺,2021-09-22,346.94,351.99,343.2,343.58,351.99,1153743.0,399422861.0,22956884191.06,85018836298.42
sh688185,康希诺,2021-09-23,348.0,349.08,342.26,343.6,343.58,1073578.0,371072715.0,22958220525.2,85023785296.40001
sh688185,康希诺,2021-09-24,339.0,339.99,331.5,332.5,343.6,1666471.0,557706313.0,22216555077.5,82277091417.5
sh688185,康希诺,2021-09-27,332.0,354.97,330.49,348.66,332.5,2023330.0,702732278.0,23296313062.62,86275881785.34
sh688185,康希诺,2021-09-28,344.5,348.58,335.25,336.8,348.66,1169595.0,397910637.0,22503866917.6,83341125983.2
sh688185,康希诺,2021-09-29,335.36,339.99,314.0,317.0,336.8,1895824.0,610889217.0,21180896119.0,78441617983.0
sh688185,康希诺,2021-09-30,320.07,344.94,319.9,338.79,317.0,1860967.0,619469516.0,22636832164.53,83833551282.20999
sh688185,康希诺,2021-10-08,306.08,315.0,301.22,306.05,338.79,2605295.0,801282505.0,20449253177.35,75732041588.95
sh688185,康希诺,2021-10-11,307.05,313.8,297.5,298.88,306.05,1948685.0,591688084.0,19970177388.16,73957825813.12
sh688185,康希诺,2021-10-12,298.46,302.6,287.1,291.8,298.88,1379615.0,405790147.0,19497115102.6,72205880528.2
sh688185,康希诺,2021-10-13,295.7,301.38,289.46,298.7,291.8,1520465.0,449076982.0,19958150380.9,73913284831.3
sh688185,康希诺,2021-10-14,299.99,304.8,297.22,297.98,298.7,1158317.0,348059706.0,19910042351.86,73735120904.01999
sh688185,康希诺,2021-10-15,299.5,302.99,293.02,297.09,297.98,1147042.0,342806334.0,19850575482.63,73514890493.90999
sh688185,康希诺,2021-10-18,303.0,314.98,301.01,308.02,297.09,2084949.0,640562635.0,20580882090.14,76219517889.98
sh688185,康希诺,2021-10-19,309.04,323.49,302.47,317.51,308.02,2532616.0,795220066.0,21214972639.57,78567817431.49
sh688185,康希诺,2021-10-20,319.96,324.91,307.09,308.07,317.51,1710515.0,534712694.0,20584222925.49,76231890384.93
sh688185,康希诺,2021-10-21,309.0,314.0,303.0,304.07,308.07,1169921.0,359136339.0,20316956097.49,75242090788.93001
sh688185,康希诺,2021-10-22,308.0,309.46,301.5,304.16,304.07,1207627.0,369510992.0,20322969601.12,75264361279.84
sh688185,康希诺,2021-10-25,308.5,313.66,306.1,309.29,304.16,1175414.0,362886031.0,20665739308.03,76533779261.71
sh688185,康希诺,2021-10-26,309.0,311.4,298.58,299.9,309.29,1522924.0,462627417.0,20038330429.3,74210224710.1
sh688185,康希诺-U,2021-10-27,299.76,304.89,291.8,293.54,299.9,1055841.0,313611343.0,19613376172.78,56938902863.025
sh688185,康希诺,2021-10-28,291.0,319.88,290.01,316.26,293.54,2768287.0,849490615.0,21131451755.82,78258505057.73999
sh688185,康希诺,2021-10-29,299.0,299.0,272.58,273.9,316.26,4296251.0,1203056097.0,18301096047.3,67776527336.100006
sh688185,康希诺,2021-11-01,274.0,277.55,270.25,271.76,273.9,1656628.0,452202019.0,18158108294.32,67246984552.24
sh688185,康希诺,2021-11-02,271.5,274.0,261.61,262.5,271.76,1586170.0,424443648.0,17539385587.5,64955598487.5
sh688185,康希诺,2021-11-03,268.0,279.99,265.0,274.7,262.5,2837787.0,776356510.0,18354549412.9,67974487255.3
sh688185,康希诺,2021-11-04,275.81,277.51,272.0,275.93,274.7,1660271.0,456431503.0,18436733962.51,68278850631.07
sh688185,康希诺,2021-11-05,271.67,273.79,265.64,265.9,275.93,1843141.0,494787975.0,17766562391.3,65796928144.1
sh688185,康希诺,2021-11-08,249.6,254.44,238.6,238.67,265.9,3440177.0,832732378.0,15947143459.69,59058867394.33
sh688185,康希诺,2021-11-09,242.01,242.98,236.5,239.39,238.67,1696455.0,406730673.0,15995251488.73,59237031321.61
sh688185,康希诺,2021-11-10,241.1,253.99,235.71,245.81,239.39,2534441.0,620453062.0,16424214747.67,60825659673.19
sh688185,康希诺,2021-11-11,241.1,252.88,240.99,249.9,245.81,1859226.0,462716903.0,16697495079.3,61837729760.100006
sh688185,康希诺,2021-11-12,249.9,253.99,248.0,248.3,249.9,1199677.0,299600850.0,16590588348.099998,61441809921.700005
sh688185,康希诺,2021-11-15,260.59,285.29,258.53,272.8,248.3,4192400.0,1144975319.0,18227597669.6,67504332447.2
sh688185,康希诺,2021-11-16,275.3,294.81,273.5,289.42,272.8,4024513.0,1148419258.0,19338091339.94,71616949768.58
sh688185,康希诺,2021-11-17,283.61,288.13,276.67,280.06,289.42,2498156.0,701679268.0,18712686962.42,69300818713.94
sh688185,康希诺,2021-11-18,282.0,285.49,270.78,270.78,280.06,2124933.0,587481894.0,18092627921.46,67004483651.22
sh688185,康希诺,2021-11-19,271.77,274.8,268.0,269.42,270.78,1344598.0,363648975.0,18001757199.94,66667951788.58
sh688185,康希诺,2021-11-22,273.38,274.44,264.59,267.15,269.42,1685169.0,451400834.0,17850083275.05,66106240517.85
sh688185,康希诺,2021-11-23,269.0,270.9,265.0,268.17,267.15,1339287.0,358145266.0,17918236316.190002,66358639414.83
sh688185,康希诺,2021-11-24,267.0,267.77,260.34,263.2,268.17,1581797.0,417252311.0,17586157282.4,65128813416.799995
sh688185,康希诺,2021-11-25,264.2,273.15,261.82,269.0,263.2,1912155.0,513016650.0,17973694183.0,66564022831.0
sh688185,康希诺,2021-11-26,273.61,276.66,265.1,265.83,269.0,1879973.0,505943408.0,17761885221.81,65779606651.170006
sh688185,康希诺,2021-11-29,290.01,299.1,278.36,279.9,265.83,8017248.0,2326902289.0,18701996289.3,69261226730.1
sh688185,康希诺,2021-11-30,280.0,287.77,267.36,280.0,279.9,6661548.0,1834373731.0,18708677960.0,69285971720.0
sh688185,康希诺,2021-12-01,272.05,273.9,268.0,268.56,280.0,3307643.0,895128890.0,17944294831.920002,66455144875.44
sh688185,康希诺,2021-12-02,264.1,264.5,257.6,257.83,268.56,2559754.0,668339314.0,17227351565.81,63800007459.17
sh688185,康希诺,2021-12-03,258.3,260.49,251.2,260.09,257.83,1904292.0,487529888.0,17378357323.63,64359244230.909996
sh688185,康希诺,2021-12-06,254.0,256.0,250.8,250.8,260.09,1868698.0,472193515.0,16757630115.6,62060434669.2
sh688185,康希诺,2021-12-07,247.8,253.99,246.68,249.54,250.8,1364789.0,341882078.0,16673441064.78,61748647796.46
sh688185,康希诺,2021-12-08,251.64,256.52,250.5,256.18,249.54,1517087.0,385392733.0,17117103999.26,63391715125.82
sh688185,康希诺,2021-12-09,256.83,272.0,254.88,267.45,256.18,2674116.0,710731392.0,17870128287.15,66180475487.55
sh688185,康希诺,2021-12-10,266.5,278.23,263.01,275.0,267.45,3926995.0,1074159129.0,18374594425.0,68048722225.0
sh688185,康希诺,2021-12-13,276.66,278.94,272.76,276.99,275.0,2600329.0,717575757.0,18507559671.93,68541147524.01
sh688185,康希诺,2021-12-14,277.0,288.2,277.0,282.29,276.99,2901030.0,825549162.0,18861688219.03,69852631988.70999
sh688185,康希诺,2021-12-15,291.61,327.77,286.48,312.7,282.29,7064576.0,2188171672.0,20893584278.899998,77377583417.3
sh688185,康希诺,2021-12-16,310.0,315.0,296.97,298.7,312.7,4220066.0,1278603017.0,19958150380.899998,73913284831.3
sh688185,康希诺,2021-12-17,298.0,325.25,298.0,318.81,298.7,4834380.0,1513984615.0,21301834358.67,78889502300.19
sh688185,康希诺,2021-12-20,325.99,338.5,321.14,322.78,318.81,4343841.0,1428748327.0,21567096685.46,79871878399.22
sh688185,康希诺,2021-12-21,319.5,323.88,305.2,316.5,322.78,2982987.0,935740076.0,21147487765.5,78317893033.5
sh688185,康希诺,2021-12-22,316.5,320.66,309.0,310.01,316.5,2033299.0,637727774.0,20713847337.07,76711943188.99
sh688185,康希诺,2021-12-23,307.1,309.0,299.0,302.16,310.01,2177906.0,660356387.0,20189336187.12,74769461481.84
sh688185,康希诺,2021-12-24,307.0,318.33,304.11,312.16,302.16,2466839.0,772224913.0,20857503257.12,77243960471.84
sh688185,康希诺,2021-12-27,315.0,320.0,301.7,303.5,312.16,1895817.0,583219236.0,20278870574.5,75101044346.5
sh688185,康希诺,2021-12-28,300.0,307.96,291.5,301.76,303.5,2151429.0,641486459.0,20162609504.32,74670481522.23999
sh688185,康希诺,2021-12-29,301.6,310.11,296.02,302.8,301.76,2080141.0,630228472.0,20232098879.6,74927829417.2
sh688185,康希诺,2021-12-30,303.0,307.88,301.51,303.88,302.8,1762475.0,535973553.0,20304260923.16,75195075308.12
sh688185,康希诺,2021-12-31,306.0,309.0,296.9,299.55,303.88,1923816.0,581791124.0,20014944581.850002,74123617245.45
sh688185,康希诺,2022-01-04,293.98,294.0,278.0,278.0,299.55,2894813.0,822446430.0,18575044546.0,68791071922.0
sh688185,康希诺,2022-01-05,274.16,281.6,269.25,280.29,278.0,2219929.0,610751748.0,18728054805.030003,69357732190.70999
sh688185,康希诺,2022-01-06,274.77,288.85,274.02,286.0,280.29,2070188.0,584320061.0,19109578202.0,70770671114.0
sh688185,康希诺,2022-01-07,287.76,298.5,286.3,292.91,286.0,2485516.0,731721892.0,19571281647.37,72480549916.09
sh688185,康希诺,2022-01-10,297.0,314.98,294.0,310.5,292.91,2849057.0,877281414.0,20746587523.5,76833193639.5
sh688185,康希诺,2022-01-11,300.41,303.0,294.09,303.0,310.5,2564630.0,762890233.0,20245462221.0,74977319397.0
sh688185,康希诺,2022-01-12,297.25,306.8,294.5,301.73,303.0,1937643.0,582443977.0,20160605003.11,74663058025.27
sh688185,康希诺,2022-01-13,300.0,300.0,288.21,288.21,301.73,1972268.0,576037454.0,19257243124.47,71317535390.79001
sh688185,康希诺,2022-01-14,286.73,305.55,281.39,303.32,288.21,2963585.0,880458104.0,20266843567.24,75056503364.68
