数据由邢不行整理
股票代码,股票名称,交易日期,开盘价,最高价,最低价,收盘价,前收盘价,成交量,成交额,流通市值,总市值
sh688551,N科威尔,2020-09-10,51.02,66.31,50.01,50.5,37.94,12779940.0,681621299.0,918972538.0,4040000000.0
sh688551,科威尔,2020-09-11,44.99,49.8,41.11,45.85,50.5,7814858.0,343979764.0,834354274.6,3668000000.0
sh688551,科威尔,2020-09-14,47.0,49.7,44.42,46.73,45.85,6252693.0,291152997.0,850368053.4799999,3738400000.0
sh688551,科威尔,2020-09-15,45.82,47.0,43.5,44.32,46.73,4721622.0,212311868.0,806512136.3199999,3545600000.0
sh688551,科威尔,2020-09-16,45.0,46.56,44.3,44.83,44.32,3761673.0,169977206.0,815792849.08,3586400000.0
sh688551,科威尔,2020-09-17,44.83,52.39,44.04,47.62,44.83,7186645.0,341909814.0,866563807.12,3809600000.0
sh688551,科威尔,2020-09-18,47.63,49.29,46.26,46.85,47.62,4786402.0,227654520.0,852551750.5999999,3748000000.0
sh688551,科威尔,2020-09-21,47.0,47.34,44.08,44.44,46.85,3737073.0,169004350.0,808695833.4399999,3555200000.0
sh688551,科威尔,2020-09-22,43.7,44.3,42.66,43.8,44.44,3368701.0,146468164.0,797049448.8,3504000000.0
sh688551,科威尔,2020-09-23,43.85,44.98,43.7,44.44,43.8,2211423.0,97959737.0,808695833.4399999,3555200000.0
sh688551,科威尔,2020-09-24,44.3,44.3,42.21,42.58,44.44,2260539.0,97533322.0,774848528.0799999,3406400000.0
sh688551,科威尔,2020-09-25,42.81,42.88,40.33,40.62,42.58,2185699.0,90658618.0,739181475.12,3249600000.0
sh688551,科威尔,2020-09-28,40.6,40.8,38.85,39.04,40.62,1565791.0,61938366.0,710429463.04,3123200000.0
sh688551,科威尔,2020-09-29,39.12,39.88,38.75,38.9,39.04,1364243.0,53616906.0,707881816.4,3112000000.0
sh688551,科威尔,2020-09-30,38.91,39.4,38.55,38.55,38.9,1117637.0,43533597.0,701512699.8,3084000000.0
sh688551,科威尔,2020-10-09,39.0,40.35,39.0,40.09,38.55,1504143.0,60016092.0,729536812.84,3207200000.0
sh688551,科威尔,2020-10-12,40.55,41.66,40.15,41.02,40.09,1589906.0,65341854.0,746460465.52,3281600000.0
sh688551,科威尔,2020-10-13,41.03,41.99,40.9,41.28,41.02,1493120.0,61863460.0,751191809.28,3302400000.0
sh688551,科威尔,2020-10-14,41.24,41.24,40.12,40.74,41.28,1525154.0,61882029.0,741365172.24,3259200000.0
sh688551,科威尔,2020-10-15,40.89,43.16,40.86,41.8,40.74,2562675.0,108034527.0,760654496.8000001,3344000000.0
sh688551,科威尔,2020-10-16,41.79,41.79,39.8,39.95,41.8,2396073.0,96450725.0,726989166.2,3196000000.0
sh688551,科威尔,2020-10-19,40.49,40.67,39.16,39.21,39.95,1194696.0,47495357.0,713523033.96,3136800000.0
sh688551,科威尔,2020-10-20,39.05,40.39,38.9,40.24,39.21,1202468.0,47594150.0,732266434.2399999,3219200000.0
sh688551,科威尔,2020-10-21,40.44,41.14,39.68,39.85,40.24,1324689.0,53350847.0,725169418.6,3188000000.0
sh688551,科威尔,2020-10-22,39.6,40.62,39.06,40.05,39.85,1159432.0,46243556.0,728808913.8,3204000000.0
sh688551,科威尔,2020-10-23,40.3,40.5,38.62,38.85,40.05,1614756.0,63546692.0,706971942.6,3108000000.0
sh688551,科威尔,2020-10-26,38.1,39.12,38.1,39.09,38.85,1081866.0,41859067.0,711339336.84,3127200000.0
sh688551,科威尔,2020-10-27,39.11,42.21,38.83,40.85,39.09,3218015.0,131725285.0,743366894.5999999,3268000000.0
sh688551,科威尔,2020-10-28,40.7,42.19,39.86,41.61,40.85,2659696.0,109351751.0,757196976.36,3328800000.0
sh688551,科威尔,2020-10-29,40.85,41.52,40.21,40.32,41.61,1969134.0,80135317.0,733722232.32,3225600000.0
sh688551,科威尔,2020-10-30,40.12,41.49,39.3,39.3,40.32,2051212.0,82839117.0,715160806.8,3144000000.0
sh688551,科威尔,2020-11-02,39.8,41.01,38.34,40.9,39.3,2121815.0,84298570.0,744276768.4,3272000000.0
sh688551,科威尔,2020-11-03,41.25,42.83,40.8,42.16,40.9,3013542.0,125864481.0,767205588.1600001,3372800000.0
sh688551,科威尔,2020-11-04,42.01,42.6,40.88,41.16,42.16,1998207.0,83356874.0,749008112.16,3292800000.0
sh688551,科威尔,2020-11-05,42.0,43.82,41.58,43.06,41.16,3289645.0,140513792.0,783583316.56,3444800000.0
sh688551,科威尔,2020-11-06,43.65,43.8,42.09,42.77,43.06,2276191.0,97277914.0,778306048.52,3421600000.0
sh688551,科威尔,2020-11-09,42.98,43.9,42.38,43.6,42.77,2554268.0,110445037.0,793409953.6,3488000000.0
sh688551,科威尔,2020-11-10,43.4,43.4,41.8,41.96,43.6,2044949.0,86772891.0,763566092.9599999,3356800000.0
sh688551,科威尔,2020-11-11,41.8,42.35,40.5,40.53,41.96,1758129.0,72457355.0,737543702.28,3242400000.0
sh688551,科威尔,2020-11-12,40.86,41.24,39.93,40.09,40.53,1113409.0,45116365.0,729536812.84,3207200000.0
sh688551,科威尔,2020-11-13,40.58,41.76,40.23,40.77,40.09,1325976.0,54298636.0,741911096.52,3261600000.0
sh688551,科威尔,2020-11-16,41.0,41.46,40.4,40.75,40.77,1093278.0,44632449.0,741547147.0,3260000000.0
sh688551,科威尔,2020-11-17,40.88,40.88,39.49,39.98,40.75,1302276.0,52112276.0,727535090.48,3198400000.0
sh688551,科威尔,2020-11-18,39.85,42.85,39.85,42.85,39.98,2770194.0,115228731.0,779761846.6,3428000000.0
sh688551,科威尔,2020-11-19,43.15,45.39,42.01,42.19,42.85,3229487.0,139726594.0,767751512.4399999,3375200000.0
sh688551,科威尔,2020-11-20,42.24,44.2,41.71,43.8,42.19,2892114.0,124376005.0,797049448.8,3504000000.0
sh688551,科威尔,2020-11-23,43.9,43.9,42.5,43.23,43.8,1896947.0,81509855.0,786676887.48,3458400000.0
sh688551,科威尔,2020-11-24,43.41,44.9,43.12,43.63,43.23,2250338.0,98725042.0,793955877.88,3490400000.0
sh688551,科威尔,2020-11-25,44.5,45.58,43.5,43.75,43.63,2933813.0,130468651.0,796139575.0,3500000000.0
sh688551,科威尔,2020-11-26,43.57,43.58,41.6,41.85,43.75,2203404.0,93543544.0,761564370.6,3348000000.0
sh688551,科威尔,2020-11-27,42.0,43.74,41.56,42.24,41.85,1869629.0,79889993.0,768661386.24,3379200000.0
sh688551,科威尔,2020-11-30,42.24,42.73,40.8,41.25,42.24,1781425.0,73482737.0,750645885.0,3300000000.0
sh688551,科威尔,2020-12-01,41.19,41.45,40.88,41.24,41.25,1019447.0,41996467.0,750463910.24,3299200000.0
sh688551,科威尔,2020-12-02,41.31,41.35,40.41,40.9,41.24,1166841.0,47733843.0,744276768.4,3272000000.0
sh688551,科威尔,2020-12-03,40.93,41.13,40.6,40.7,40.9,781159.0,31860704.0,740637273.2,3256000000.0
sh688551,科威尔,2020-12-04,40.68,40.77,40.03,40.15,40.7,914871.0,36880624.0,730628661.4,3212000000.0
sh688551,科威尔,2020-12-07,40.52,40.94,39.89,40.25,40.15,800681.0,32329910.0,732448409.0,3220000000.0
sh688551,科威尔,2020-12-08,40.68,41.96,40.28,41.6,40.25,1671859.0,68963837.0,757015001.5999999,3328000000.0
sh688551,科威尔,2020-12-09,41.52,41.87,39.39,39.58,41.6,1234989.0,50423416.0,720256100.08,3166400000.0
sh688551,科威尔,2020-12-10,39.58,40.16,39.25,39.67,39.58,800808.0,31813522.0,721893872.92,3173600000.0
sh688551,科威尔,2020-12-11,39.9,40.38,38.7,39.13,39.67,1086786.0,42898965.0,712067235.8799999,3130400000.0
sh688551,科威尔,2020-12-14,39.48,39.49,38.47,38.92,39.13,653722.0,25348748.0,708245765.92,3113600000.0
sh688551,科威尔,2020-12-15,38.8,39.2,38.26,38.99,38.92,796738.0,30796444.0,709519589.24,3119200000.0
sh688551,科威尔,2020-12-16,38.99,38.99,37.37,37.68,38.99,911936.0,34741861.0,685680895.68,3014400000.0
sh688551,科威尔,2020-12-17,37.48,38.12,36.5,38.01,37.68,1084357.0,40463668.0,691686062.7600001,3040800000.0
sh688551,科威尔,2020-12-18,38.01,38.18,37.21,37.23,38.01,673729.0,25400412.0,677492031.48,2978400000.0
sh688551,科威尔,2020-12-21,37.21,38.6,36.7,38.5,37.23,779739.0,29286398.0,700602826.0,3080000000.0
sh688551,科威尔,2020-12-22,38.02,38.58,36.9,37.12,38.5,782775.0,29422770.0,675490309.12,2969600000.0
sh688551,科威尔,2020-12-23,36.82,37.49,36.68,37.04,37.12,683738.0,25334421.0,674034511.0400001,2963200000.0
sh688551,科威尔,2020-12-24,36.85,36.85,34.55,34.69,37.04,1445739.0,51149352.0,631270442.4399999,2775200000.0
sh688551,科威尔,2020-12-25,34.55,35.31,34.55,34.74,34.69,635153.0,22184407.0,632180316.24,2779200000.0
sh688551,科威尔,2020-12-28,35.24,35.46,34.43,34.57,34.74,645902.0,22540239.0,629086745.3199999,2765600000.0
sh688551,科威尔,2020-12-29,34.02,35.09,34.02,34.26,34.57,505535.0,17450003.0,623445527.76,2740800000.0
sh688551,科威尔,2020-12-30,34.2,34.4,33.84,34.26,34.26,576466.0,19685064.0,623445527.76,2740800000.0
sh688551,科威尔,2020-12-31,34.47,35.21,34.0,34.79,34.26,687079.0,23833364.0,633090190.04,2783200000.0
sh688551,科威尔,2021-01-04,34.76,35.45,34.57,35.23,34.79,861323.0,30232838.0,641097079.48,2818400000.0
sh688551,科威尔,2021-01-05,35.1,35.35,34.6,34.8,35.23,764106.0,26621341.0,633272164.8000001,2784000000.0
sh688551,科威尔,2021-01-06,34.6,34.8,32.99,33.23,34.8,1032835.0,34623100.0,604702127.48,2658400000.0
sh688551,科威尔,2021-01-07,33.1,33.2,31.09,31.31,33.23,1116884.0,35416688.0,569762973.5600001,2504800000.0
sh688551,科威尔,2021-01-08,31.26,31.84,30.59,31.38,31.31,442179.0,13838760.0,571036796.88,2510400000.0
sh688551,科威尔,2021-01-11,31.38,31.71,29.82,30.0,31.38,728181.0,22152555.0,545924280.0,2400000000.0
sh688551,科威尔,2021-01-12,30.49,30.49,29.78,29.9,30.0,476389.0,14291522.0,544104532.4,2392000000.0
sh688551,科威尔,2021-01-13,30.12,30.12,28.7,28.85,29.9,694741.0,20209710.0,524997182.6,2308000000.0
sh688551,科威尔,2021-01-14,28.86,30.18,28.28,29.58,28.85,815478.0,24036471.0,538281340.08,2366400000.0
sh688551,科威尔,2021-01-15,29.58,31.15,29.32,30.65,29.58,854111.0,26022724.0,557752639.4,2452000000.0
sh688551,科威尔,2021-01-18,30.6,31.5,30.4,31.13,30.65,671386.0,20783804.0,566487427.88,2490400000.0
sh688551,科威尔,2021-01-19,31.41,32.13,31.06,31.18,31.13,668311.0,21073665.0,567397301.6800001,2494400000.0
sh688551,科威尔,2021-01-20,31.35,31.8,31.06,31.24,31.18,486867.0,15296274.0,568489150.24,2499200000.0
sh688551,科威尔,2021-01-21,31.27,31.76,30.67,31.2,31.24,495470.0,15412777.0,567761251.1999999,2496000000.0
sh688551,科威尔,2021-01-22,31.16,31.2,30.0,30.02,31.2,567997.0,17213365.0,546288229.52,2401600000.0
sh688551,科威尔,2021-01-25,29.91,29.92,28.75,28.9,30.02,601756.0,17469740.0,525907056.4,2312000000.0
sh688551,科威尔,2021-01-26,28.9,29.76,28.9,29.02,28.9,438100.0,12844593.0,528090753.52,2321600000.0
sh688551,科威尔,2021-01-27,29.35,29.5,28.79,29.18,29.02,448486.0,13091853.0,531002349.68,2334400000.0
sh688551,科威尔,2021-01-28,29.19,29.49,28.89,28.89,29.18,297754.0,8703312.0,525725081.64,2311200000.0
sh688551,科威尔,2021-01-29,29.25,29.25,27.74,28.03,28.89,619551.0,17489267.0,510075252.28,2242400000.0
sh688551,科威尔,2021-02-01,28.03,28.6,27.76,28.4,28.03,417691.0,11786341.0,516808318.4,2272000000.0
sh688551,科威尔,2021-02-02,28.42,28.72,28.14,28.42,28.4,319514.0,9082419.0,517172267.92,2273600000.0
sh688551,科威尔,2021-02-03,28.42,28.42,27.21,27.55,28.42,523268.0,14466260.0,501340463.8,2204000000.0
sh688551,科威尔,2021-02-04,27.57,27.57,26.0,26.22,27.55,527934.0,14025323.0,477137820.72,2097600000.0
sh688551,科威尔,2021-02-05,26.24,27.12,25.83,26.11,26.22,348181.0,9204984.0,475136098.36,2088800000.0
sh688551,科威尔,2021-02-08,26.47,26.47,25.33,25.38,26.11,439452.0,11273887.0,461851940.88,2030400000.0
sh688551,科威尔,2021-02-09,25.41,25.98,25.4,25.63,25.38,392065.0,10055002.0,466401309.88,2050400000.0
sh688551,科威尔,2021-02-10,25.77,26.7,25.63,26.32,25.63,477844.0,12541069.0,478957568.32,2105600000.0
sh688551,科威尔,2021-02-18,26.7,27.27,26.35,27.0,26.32,380810.0,10280405.0,491331852.0,2160000000.0
sh688551,科威尔,2021-02-19,27.0,28.37,26.92,28.03,27.0,472605.0,13149106.0,510075252.28,2242400000.0
sh688551,科威尔,2021-02-22,28.12,28.94,28.0,28.57,28.03,533849.0,15267195.0,519901889.32,2285600000.0
sh688551,科威尔,2021-02-23,28.5,28.9,27.97,28.16,28.57,328013.0,9269037.0,512440924.16,2252800000.0
sh688551,科威尔,2021-02-24,28.65,28.65,28.02,28.15,28.16,355691.0,10058387.0,512258949.4,2252000000.0
sh688551,科威尔,2021-02-25,28.71,28.78,27.9,27.9,28.15,276349.0,7779674.0,507709580.4,2232000000.0
sh688551,科威尔,2021-02-26,27.6,28.19,27.52,27.9,27.9,284624.0,7948626.0,507709580.4,2232000000.0
sh688551,科威尔,2021-03-01,28.1,28.8,28.1,28.79,27.9,356333.0,10174229.0,523905334.04,2303200000.0
sh688551,科威尔,2021-03-02,29.06,29.09,28.36,28.57,28.79,344080.0,9860944.0,519901889.32,2285600000.0
sh688551,科威尔,2021-03-03,28.89,29.34,28.66,29.28,28.57,547719.0,15901215.0,532822097.28,2342400000.0
sh688551,科威尔,2021-03-04,29.27,30.04,29.1,29.8,29.28,669624.0,19843545.0,542284784.8,2384000000.0
sh688551,科威尔,2021-03-05,29.61,30.5,29.5,30.2,29.8,442790.0,13384049.0,549563775.2,2416000000.0
sh688551,科威尔,2021-03-08,30.25,30.48,28.99,29.03,30.2,616698.0,18347860.0,528272728.28,2322400000.0
sh688551,科威尔,2021-03-09,29.24,29.25,27.74,27.98,29.03,610147.0,17293263.0,509165378.48,2238400000.0
sh688551,科威尔,2021-03-10,27.58,27.98,26.8,27.07,27.98,756949.0,20714306.0,514330000.0,2165600000.0
sh688551,科威尔,2021-03-11,27.43,27.8,26.88,27.54,27.07,407166.0,11195366.0,523260000.0,2203200000.0
sh688551,科威尔,2021-03-12,27.73,27.73,27.0,27.22,27.54,462692.0,12588687.0,517180000.0,2177600000.0
sh688551,科威尔,2021-03-15,27.32,27.32,26.59,26.84,27.22,391771.0,10523833.0,517824120.0,2147200000.0
sh688551,科威尔,2021-03-16,27.0,27.46,26.98,27.38,26.84,341114.0,9307873.0,528242340.0,2190400000.0
sh688551,科威尔,2021-03-17,27.41,28.1,27.22,28.0,27.38,337480.0,9377091.0,540204000.0,2240000000.0
sh688551,科威尔,2021-03-18,28.1,28.14,27.53,27.61,28.0,276098.0,7685550.0,532679730.0,2208800000.0
sh688551,科威尔,2021-03-19,27.58,28.06,27.46,27.74,27.61,295161.0,8182516.0,535187820.0,2219200000.0
sh688551,科威尔,2021-03-22,27.82,28.23,27.59,28.19,27.74,344893.0,9643101.0,543869670.0,2255200000.0
sh688551,科威尔,2021-03-23,28.0,28.49,27.58,27.73,28.19,381042.0,10601069.0,534994890.0,2218400000.0
sh688551,科威尔,2021-03-24,27.64,27.84,27.41,27.62,27.73,186600.0,5150978.0,532872660.00000006,2209600000.0
sh688551,科威尔,2021-03-25,27.51,27.54,26.62,26.98,27.62,397407.0,10758728.0,520525140.0,2158400000.0
sh688551,科威尔,2021-03-26,26.98,27.2,26.81,27.05,26.98,218911.0,5913656.0,521875650.0,2164000000.0
sh688551,科威尔,2021-03-29,27.2,27.38,26.77,26.83,27.05,253553.0,6851747.0,517631190.0,2146400000.0
sh688551,科威尔,2021-03-30,27.06,27.06,26.08,26.16,26.83,321079.0,8467663.0,504704880.0,2092800000.0
sh688551,科威尔,2021-03-31,26.38,26.5,26.0,26.49,26.16,300600.0,7874212.0,511071570.0,2119200000.0
sh688551,科威尔,2021-04-01,26.57,26.62,26.09,26.25,26.49,227672.0,5979269.0,506441250.0,2100000000.0
sh688551,科威尔,2021-04-02,26.5,26.61,26.06,26.46,26.25,316757.0,8365554.0,510492780.0,2116800000.0
sh688551,科威尔,2021-04-06,26.57,27.75,26.57,27.52,26.46,677204.0,18559344.0,530943360.0,2201600000.0
sh688551,科威尔,2021-04-07,27.3,27.75,27.16,27.44,27.52,474245.0,13002605.0,529399920.0,2195200000.0
sh688551,科威尔,2021-04-08,27.59,27.59,27.27,27.3,27.44,315439.0,8635111.0,526698900.0,2184000000.0
sh688551,科威尔,2021-04-09,27.43,27.95,27.28,27.61,27.3,365076.0,10068950.0,532679730.0,2208800000.0
sh688551,科威尔,2021-04-12,27.66,27.66,26.85,26.9,27.61,421714.0,11450327.0,518981700.0,2152000000.0
sh688551,科威尔,2021-04-13,27.38,27.38,26.25,26.29,26.9,300534.0,7974196.0,507212970.0,2103200000.0
sh688551,科威尔,2021-04-14,26.49,26.59,26.2,26.44,26.29,163719.0,4322648.0,510106920.0,2115200000.0
sh688551,科威尔,2021-04-15,26.31,26.56,26.12,26.39,26.44,223696.0,5890655.0,509142270.0,2111200000.0
sh688551,科威尔,2021-04-16,26.4,27.18,26.4,27.15,26.39,383511.0,10317020.0,523804950.0,2172000000.0
sh688551,科威尔,2021-04-19,27.18,31.36,27.16,29.84,27.15,2046824.0,60501644.0,575703120.0,2387200000.0
sh688551,科威尔,2021-04-20,29.59,29.74,28.28,28.29,29.84,1563531.0,45047274.0,545798970.0,2263200000.0
sh688551,科威尔,2021-04-21,28.44,28.49,27.94,27.94,28.29,757170.0,21394143.0,539046420.0,2235200000.0
sh688551,科威尔,2021-04-22,28.0,28.62,27.91,28.05,27.94,508765.0,14322266.0,541168650.0,2244000000.0
sh688551,科威尔,2021-04-23,28.0,28.25,27.69,27.72,28.05,473011.0,13167735.0,534801960.00000006,2217600000.0
sh688551,科威尔,2021-04-26,28.16,28.98,28.16,28.36,27.72,1100219.0,31408932.0,547149480.0,2268800000.0
sh688551,科威尔,2021-04-27,28.19,28.48,27.45,27.64,28.36,666596.0,18494376.0,533258520.0,2211200000.0
sh688551,科威尔,2021-04-28,27.64,28.19,27.58,28.19,27.64,562795.0,15681995.0,543869670.0,2255200000.0
sh688551,科威尔,2021-04-29,28.08,29.04,27.73,28.9,28.19,1134922.0,32495591.0,557567700.0,2312000000.0
sh688551,科威尔,2021-04-30,28.9,28.9,28.0,28.03,28.9,933872.0,26389526.0,540782790.0,2242400000.0
sh688551,科威尔,2021-05-06,28.12,28.56,27.66,28.29,28.03,496383.0,13940123.0,545798970.0,2263200000.0
sh688551,科威尔,2021-05-07,28.36,28.37,27.42,27.51,28.29,623134.0,17400728.0,530750430.0,2200800000.0
sh688551,科威尔,2021-05-10,27.53,28.0,26.7,26.76,27.51,695655.0,18941451.0,516280680.0,2140800000.0
sh688551,科威尔,2021-05-11,26.76,27.36,26.53,27.17,26.76,472273.0,12746750.0,524190810.0,2173600000.0
sh688551,XD科威尔,2021-05-12,27.3,27.3,26.73,26.97,26.97,368803.0,9934018.0,520332210.0,2157600000.0
sh688551,科威尔,2021-05-13,26.97,27.72,26.93,27.03,26.97,585755.0,16012557.0,521489790.0,2162400000.0
sh688551,科威尔,2021-05-14,27.19,28.33,27.03,28.21,27.03,1084845.0,30143767.0,544255530.0,2256800000.0
sh688551,科威尔,2021-05-17,28.18,28.63,27.69,28.44,28.21,1007152.0,28431290.0,548692920.0,2275200000.0
sh688551,科威尔,2021-05-18,28.44,28.8,28.03,28.45,28.44,906412.0,25872761.0,548885850.0,2276000000.0
sh688551,科威尔,2021-05-19,28.7,30.99,28.11,30.24,28.45,2179974.0,64839178.0,583420320.0,2419200000.0
sh688551,科威尔,2021-05-20,30.05,33.26,29.99,32.9,30.24,3357788.0,106623810.0,634739700.0,2632000000.0
sh688551,科威尔,2021-05-21,32.5,33.72,31.53,32.67,32.9,2453477.0,79435966.0,630302310.0,2613600000.0
sh688551,科威尔,2021-05-24,32.6,37.5,32.3,34.89,32.67,4033005.0,143869265.0,673132770.0,2791200000.0
sh688551,科威尔,2021-05-25,35.3,35.5,33.76,35.33,34.89,2186073.0,75634177.0,681621690.0,2826400000.0
sh688551,科威尔,2021-05-26,34.97,35.4,33.6,34.53,35.33,1979940.0,67912349.0,666187290.0000001,2762400000.0
sh688551,科威尔,2021-05-27,34.1,36.95,34.1,35.3,34.53,2280945.0,81189995.0,681042899.9999999,2824000000.0
sh688551,科威尔,2021-05-28,35.86,37.58,35.06,36.74,35.3,1986167.0,72862242.0,708824820.0,2939200000.0
sh688551,科威尔,2021-05-31,36.89,41.88,36.06,40.85,36.74,3474815.0,137849923.0,788119050.0,3268000000.0
sh688551,科威尔,2021-06-01,41.16,41.85,39.1,39.36,40.85,2135823.0,85660475.0,759372480.0000001,3148800000.0
sh688551,科威尔,2021-06-02,39.41,40.83,38.15,38.79,39.36,2014294.0,79264086.0,748375470.0,3103200000.0
sh688551,科威尔,2021-06-03,38.79,39.67,37.7,38.05,38.79,1259066.0,48625086.0,734098650.0,3044000000.0
sh688551,科威尔,2021-06-04,37.68,40.0,37.23,39.21,38.05,1221543.0,47782416.0,756478530.0,3136800000.0
sh688551,科威尔,2021-06-07,39.21,41.9,38.38,40.8,39.21,1495897.0,61354089.0,787154400.0,3264000000.0
sh688551,科威尔,2021-06-08,40.7,42.45,37.74,38.5,40.8,1631602.0,65360024.0,742780500.0,3080000000.0
sh688551,科威尔,2021-06-09,39.31,39.6,37.78,38.03,38.5,1136717.0,43531398.0,733712790.0,3042400000.0
sh688551,科威尔,2021-06-10,37.56,39.41,37.33,38.1,38.03,1108860.0,42410040.0,735063300.0,3048000000.0
sh688551,科威尔,2021-06-11,38.1,39.2,37.0,37.09,38.1,921470.0,34891655.0,715577369.9999999,2967200000.0
sh688551,科威尔,2021-06-15,37.07,39.97,36.6,38.79,37.09,1114679.0,43249071.0,748375470.0,3103200000.0
sh688551,科威尔,2021-06-16,38.97,40.48,38.0,38.4,38.79,827598.0,32557229.0,740851200.0,3072000000.0
sh688551,科威尔,2021-06-17,38.39,39.35,37.55,38.36,38.4,833896.0,31907914.0,740079480.0,3068800000.0
sh688551,科威尔,2021-06-18,38.29,38.83,35.11,36.0,38.36,2130071.0,77807477.0,694548000.0,2880000000.0
sh688551,科威尔,2021-06-21,36.0,37.64,34.5,36.1,36.0,2026516.0,73495355.0,696477300.0,2888000000.0
sh688551,科威尔,2021-06-22,36.0,43.32,36.0,43.16,36.1,3709746.0,151723679.0,832685880.0,3452800000.0
sh688551,科威尔,2021-06-23,42.69,50.88,40.8,45.2,43.16,6048976.0,274612448.0,872043600.0,3616000000.0
sh688551,科威尔,2021-06-24,47.2,53.2,46.6,52.3,45.2,5271770.0,258678888.0,1009023900.0,4184000000.0
sh688551,科威尔,2021-06-25,52.3,52.36,48.81,50.45,52.3,3140802.0,156924570.0,973331850.0,4036000000.0
sh688551,科威尔,2021-06-28,49.63,55.34,49.6,50.99,50.45,2652402.0,139064421.0,983750070.0,4079200000.0
sh688551,科威尔,2021-06-29,51.55,53.4,50.65,52.19,50.99,1923146.0,100452272.0,1006901670.0,4175200000.0
sh688551,科威尔,2021-06-30,51.44,53.58,48.85,50.08,52.19,3095802.0,156977708.0,966193440.0,4006400000.0
sh688551,科威尔,2021-07-01,50.8,50.8,46.52,47.46,50.08,1838307.0,89054189.0,915645780.0,3796800000.0
sh688551,科威尔,2021-07-02,46.76,47.93,46.21,46.49,47.46,1116618.0,52326330.0,896931570.0000001,3719200000.0
sh688551,科威尔,2021-07-05,46.48,48.49,45.41,47.75,46.49,1594599.0,75038235.0,921240750.0,3820000000.0
sh688551,科威尔,2021-07-06,47.7,50.25,46.68,48.02,47.75,1775074.0,86058536.0,926449860.0,3841600000.0
sh688551,科威尔,2021-07-07,48.01,48.18,46.75,48.15,48.02,1111981.0,52742272.0,928957950.0,3852000000.0
sh688551,科威尔,2021-07-08,48.7,49.46,46.67,48.5,48.15,1630460.0,78130206.0,935710500.0,3880000000.0
sh688551,科威尔,2021-07-09,48.0,50.5,46.75,47.3,48.5,1273379.0,61000108.0,912558900.0,3784000000.0
sh688551,科威尔,2021-07-12,47.36,51.5,47.25,50.0,47.3,3133304.0,154639114.0,964650000.0,4000000000.0
sh688551,科威尔,2021-07-13,49.86,54.92,49.45,53.43,50.0,2711894.0,142583921.0,1030824990.0,4274400000.0
sh688551,科威尔,2021-07-14,51.72,52.01,47.64,48.02,53.43,2229471.0,111158233.0,926449860.0,3841600000.0
sh688551,科威尔,2021-07-15,48.25,50.5,47.5,49.07,48.02,1225166.0,59961097.0,946707510.0,3925600000.0
sh688551,科威尔,2021-07-16,49.8,51.25,48.67,50.0,49.07,1343506.0,67143547.0,964650000.0,4000000000.0
sh688551,科威尔,2021-07-19,50.3,52.87,48.02,51.7,50.0,1509108.0,77271943.0,997448100.0,4136000000.0
sh688551,科威尔,2021-07-20,51.82,61.13,50.5,60.52,51.7,2992990.0,169354027.0,1167612360.0,4841600000.0
sh688551,科威尔,2021-07-21,61.72,62.35,58.5,59.75,60.52,2455204.0,147411101.0,1152756750.0,4780000000.0
sh688551,科威尔,2021-07-22,62.13,71.7,59.99,71.7,59.75,3549483.0,238138459.0,1383308100.0,5736000000.0
sh688551,科威尔,2021-07-23,73.24,75.11,69.58,72.38,71.7,2894041.0,209891833.0,1396427340.0,5790400000.0
sh688551,科威尔,2021-07-26,71.0,72.62,63.6,67.12,72.38,2784528.0,190666402.0,1294946160.0,5369600000.0
sh688551,科威尔,2021-07-27,68.47,70.96,62.41,63.5,67.12,2332290.0,155389304.0,1225105500.0,5080000000.0
sh688551,科威尔,2021-07-28,65.06,65.06,56.0,59.92,63.5,1466316.0,88305394.0,1156036560.0,4793600000.0
sh688551,科威尔,2021-07-29,60.79,70.0,60.79,67.53,59.92,1811990.0,117344279.0,1302856290.0,5402400000.0
sh688551,科威尔,2021-07-30,68.5,77.65,67.01,74.78,67.53,2422266.0,178205331.0,1442730540.0,5982400000.0
sh688551,科威尔,2021-08-02,75.31,79.49,72.51,74.35,74.78,2099117.0,158041099.0,1434434549.9999998,5948000000.0
sh688551,科威尔,2021-08-03,74.33,76.77,65.38,65.64,74.35,2020119.0,141071112.0,1266392520.0,5251200000.0
sh688551,科威尔,2021-08-04,70.0,72.98,66.79,71.19,65.64,1322644.0,92818844.0,1373468670.0,5695200000.0
sh688551,科威尔,2021-08-05,72.2,72.2,66.99,67.88,71.19,1192032.0,82452666.0,1309608840.0,5430400000.0
sh688551,科威尔,2021-08-06,71.0,71.0,66.02,67.0,67.88,1048634.0,70635240.0,1292631000.0,5360000000.0
sh688551,科威尔,2021-08-09,66.1,67.68,63.51,66.68,67.0,1310048.0,85802795.0,1286457240.0,5334400000.0
sh688551,科威尔,2021-08-10,68.12,70.41,65.07,68.0,66.68,1124983.0,76327593.0,1311924000.0,5440000000.0
sh688551,科威尔,2021-08-11,67.45,71.77,65.43,71.11,68.0,1563430.0,107485447.0,1371925229.9999998,5688800000.0
sh688551,科威尔,2021-08-12,71.4,73.76,68.51,71.38,71.11,1416210.0,100447396.0,1377134340.0,5710400000.0
sh688551,科威尔,2021-08-13,70.0,70.99,67.7,68.08,71.38,1014516.0,69881620.0,1313467440.0,5446400000.0
sh688551,科威尔,2021-08-16,67.5,67.64,60.8,61.05,68.08,1714780.0,107927816.0,1177837650.0,4884000000.0
sh688551,科威尔,2021-08-17,61.37,66.38,60.6,61.31,61.05,1758422.0,111823852.0,1182853830.0,4904800000.0
sh688551,科威尔,2021-08-18,61.5,64.76,60.5,61.79,61.31,900131.0,56616072.0,1192114470.0,4943200000.0
sh688551,科威尔,2021-08-19,60.55,63.5,60.0,61.89,61.79,807390.0,49861809.0,1194043770.0,4951200000.0
sh688551,科威尔,2021-08-20,62.82,62.82,59.0,60.58,61.89,913792.0,55350725.0,1168769940.0,4846400000.0
sh688551,科威尔,2021-08-23,63.99,71.67,60.72,68.6,60.58,1786741.0,119415917.0,1323499800.0,5488000000.0
sh688551,科威尔,2021-08-24,67.41,68.58,59.52,60.1,68.6,2623647.0,162852111.0,1180237790.0,4808000000.0
sh688551,科威尔,2021-08-25,58.02,60.5,56.05,58.98,60.1,2063095.0,118956567.0,1158243342.0,4718400000.0
sh688551,科威尔,2021-08-26,60.2,68.66,59.86,63.58,58.98,2516518.0,161165012.0,1248577682.0,5086400000.0
sh688551,科威尔,2021-08-27,65.22,65.5,58.58,61.38,63.58,1419880.0,86377567.0,1205374302.0,4910400000.0
sh688551,科威尔,2021-08-30,60.5,61.37,58.5,59.88,61.38,1191738.0,71250158.0,1175917452.0,4790400000.0
sh688551,科威尔,2021-08-31,60.78,61.0,57.43,57.98,59.88,683604.0,39896386.0,1138605442.0,4638400000.0
sh688551,科威尔,2021-09-01,56.4,58.99,52.85,54.39,57.98,1445653.0,78913146.0,1068105381.0,4351200000.0
sh688551,科威尔,2021-09-02,53.64,59.1,53.64,56.75,54.39,1498809.0,86234661.0,1114450825.0,4540000000.0
sh688551,科威尔,2021-09-03,58.0,60.49,55.02,57.0,56.75,1118135.0,65574216.0,1119360300.0,4560000000.0
sh688551,科威尔,2021-09-06,57.02,57.5,52.31,55.51,57.0,795909.0,44031866.0,1090099829.0,4440800000.0
sh688551,科威尔,2021-09-07,57.86,59.81,55.12,57.73,55.51,973118.0,56781156.0,1133695967.0,4618400000.0
sh688551,科威尔,2021-09-08,58.77,59.0,55.2,57.58,57.73,963767.0,54733685.0,1130750282.0,4606400000.0
sh688551,科威尔,2021-09-09,57.65,57.65,55.2,56.38,57.58,532995.0,29955605.0,1107184802.0,4510400000.0
sh688551,科威尔,2021-09-10,55.45,57.96,55.19,56.33,56.38,424063.0,23888642.0,1419679357.0,4506400000.0
sh688551,科威尔,2021-09-13,56.44,57.86,54.3,57.3,56.33,584285.0,32689611.0,1444126170.0,4584000000.0
sh688551,科威尔,2021-09-14,57.0,58.3,54.9,54.95,57.3,750622.0,41557969.0,1384899355.0,4396000000.0
sh688551,科威尔,2021-09-15,53.5,55.0,53.28,53.99,54.95,400928.0,21684915.0,1360704571.0,4319200000.0
sh688551,科威尔,2021-09-16,56.5,56.74,50.5,51.0,53.99,850348.0,44416632.0,1285347900.0,4080000000.0
sh688551,科威尔,2021-09-17,51.06,54.47,50.1,54.0,51.0,787445.0,41721713.0,1360956600.0,4320000000.0
sh688551,科威尔,2021-09-22,52.66,53.88,51.04,52.25,54.0,817794.0,42805137.0,1316851525.0,4180000000.0
sh688551,科威尔,2021-09-23,52.58,53.66,51.56,52.77,52.25,561078.0,29464892.0,1329957033.0,4221600000.0
sh688551,科威尔,2021-09-24,53.2,54.0,50.5,51.4,52.77,382549.0,19796069.0,1295429060.0,4112000000.0
sh688551,科威尔,2021-09-27,51.56,51.56,47.01,47.86,51.4,937361.0,45509682.0,1206210794.0,3828800000.0
sh688551,科威尔,2021-09-28,47.86,49.99,47.68,48.52,47.86,488138.0,23764658.0,1222844708.0,3881600000.0
sh688551,科威尔,2021-09-29,52.41,52.41,46.37,48.0,48.52,598073.0,28802965.0,1209739200.0,3840000000.0
sh688551,科威尔,2021-09-30,47.27,47.48,44.57,47.47,48.0,896944.0,41471257.0,1196381663.0,3797600000.0
sh688551,科威尔,2021-10-08,47.98,47.98,45.21,47.0,47.47,543846.0,25103899.0,1184536300.0,3760000000.0
sh688551,科威尔,2021-10-11,46.8,47.02,45.8,46.9,47.0,252979.0,11750967.0,1182016010.0,3752000000.0
sh688551,科威尔,2021-10-12,47.0,47.34,44.11,46.82,46.9,711134.0,32402017.0,1179999778.0,3745600000.0
sh688551,科威尔,2021-10-13,46.97,48.0,44.5,47.0,46.82,388785.0,18167307.0,1184536300.0,3760000000.0
sh688551,科威尔,2021-10-14,47.87,51.59,46.0,50.6,47.0,882451.0,42873494.0,1275266740.0,4048000000.0
sh688551,科威尔,2021-10-15,50.5,51.25,48.34,50.65,50.6,698444.0,34710103.0,1276526885.0,4052000000.0
sh688551,科威尔,2021-10-18,50.29,51.21,49.03,49.9,50.65,567947.0,28373491.0,1257624710.0,3992000000.0
sh688551,科威尔,2021-10-19,50.99,53.5,49.25,52.72,49.9,803366.0,41483683.0,1328696888.0,4217600000.0
sh688551,科威尔,2021-10-20,52.38,53.79,51.6,53.23,52.72,745496.0,39578198.0,1341550367.0,4258400000.0
sh688551,科威尔,2021-10-21,52.99,56.8,52.12,55.21,53.23,990072.0,54251320.0,1391452109.0,4416800000.0
sh688551,科威尔,2021-10-22,54.31,55.87,51.0,52.49,55.21,777332.0,40873593.0,1322900221.0,4199200000.0
sh688551,科威尔,2021-10-25,52.98,57.16,51.6,55.33,52.49,1139348.0,62053313.0,1394476457.0,4426400000.0
sh688551,科威尔,2021-10-26,54.51,55.39,52.59,54.15,55.33,744256.0,39958417.0,1364737035.0,4332000000.0
sh688551,科威尔,2021-10-27,54.07,54.56,52.51,52.75,54.15,370434.0,19665866.0,1194325937.5,4220000000.0
sh688551,科威尔,2021-10-28,53.1,53.38,49.24,50.9,52.75,596688.0,30390577.0,1282827610.0,4072000000.0
sh688551,科威尔,2021-10-29,50.72,52.99,48.99,52.75,50.9,570700.0,29092561.0,1329452974.9999998,4220000000.0
sh688551,科威尔,2021-11-01,52.18,55.5,52.18,54.86,52.75,689015.0,37332468.0,1382631093.9999998,4388800000.0
sh688551,科威尔,2021-11-02,54.86,62.8,54.02,60.95,54.86,1681364.0,99550560.0,1536116755.0000002,4876000000.0
sh688551,科威尔,2021-11-03,61.18,65.94,60.58,63.72,60.95,1638174.0,103619992.0,1605928788.0,5097600000.0
sh688551,科威尔,2021-11-04,63.25,64.98,61.8,63.84,63.72,797425.0,50527321.0,1608953136.0,5107200000.0
sh688551,科威尔,2021-11-05,64.19,68.98,62.61,65.9,63.84,1669401.0,110377139.0,1660871110.0,5272000000.0
sh688551,科威尔,2021-11-08,66.34,66.66,63.8,66.18,65.9,775387.0,50767554.0,1667927922.0,5294400000.0
sh688551,科威尔,2021-11-09,66.11,71.65,66.0,70.8,66.18,1334630.0,93376431.0,1784365320.0,5664000000.0
sh688551,科威尔,2021-11-10,70.0,70.75,68.01,70.33,70.8,662147.0,46089880.0,1772519957.0,5626400000.0
sh688551,科威尔,2021-11-11,70.0,74.48,69.14,71.51,70.33,932754.0,67313458.0,1802259379.0,5720800000.0
sh688551,科威尔,2021-11-12,70.5,73.5,67.67,68.79,71.51,1203400.0,83723004.0,1733707490.9999998,5503200000.0
sh688551,科威尔,2021-11-15,69.9,71.49,66.8,69.57,68.79,1007380.0,69360587.0,1753365753.0,5565600000.0
sh688551,科威尔,2021-11-16,68.59,69.39,63.25,63.91,69.57,1769823.0,115815341.0,1610717339.0,5112800000.0
sh688551,科威尔,2021-11-17,62.63,66.95,62.63,65.77,63.91,1175613.0,77212260.0,1657594733.0000002,5261600000.0
sh688551,科威尔,2021-11-18,65.56,69.87,65.56,66.75,65.77,1276310.0,85721567.0,1682293575.0000002,5340000000.0
sh688551,科威尔,2021-11-19,66.62,71.98,66.0,70.01,66.75,1217402.0,85459693.0,1764455029.0,5600800000.0
sh688551,科威尔,2021-11-22,69.9,72.58,68.35,70.03,70.01,1099930.0,77057829.0,1764959087.0,5602400000.0
sh688551,科威尔,2021-11-23,70.3,74.8,70.3,72.0,70.03,1171670.0,85153386.0,1814608800.0,5760000000.0
sh688551,科威尔,2021-11-24,71.73,71.79,69.01,69.7,72.0,800562.0,55845257.0,1756642130.0,5576000000.0
sh688551,科威尔,2021-11-25,69.96,72.88,69.68,70.3,69.7,837718.0,59861187.0,1771763869.9999998,5624000000.0
sh688551,科威尔,2021-11-26,71.16,72.66,69.85,71.58,70.3,639832.0,45598523.0,1804023581.9999998,5726400000.0
sh688551,科威尔,2021-11-29,71.42,72.95,70.0,71.4,71.58,665569.0,47375851.0,1799487060.0,5712000000.0
sh688551,科威尔,2021-11-30,72.85,78.14,71.62,73.89,71.4,1865942.0,139451482.0,1862242281.0,5911200000.0
sh688551,科威尔,2021-12-01,74.2,75.88,71.15,73.59,73.89,993385.0,73202818.0,1854681411.0,5887200000.0
sh688551,科威尔,2021-12-02,72.8,74.0,69.96,71.77,73.59,964565.0,68951053.0,1808812133.0,5741600000.0
sh688551,科威尔,2021-12-03,71.77,73.66,68.62,72.88,71.77,1180511.0,84661951.0,1836787352.0,5830400000.0
sh688551,科威尔,2021-12-06,71.42,72.45,68.5,69.1,72.88,853711.0,59957611.0,1741520390.0,5528000000.0
sh688551,科威尔,2021-12-07,69.58,69.89,62.66,64.92,69.1,1530269.0,100124629.0,1636172268.0,5193600000.0
sh688551,科威尔,2021-12-08,64.39,66.65,63.0,63.81,64.92,1091639.0,70361591.0,1608197049.0,5104800000.0
sh688551,科威尔,2021-12-09,63.5,64.49,62.5,64.41,63.81,560867.0,35735351.0,1623318789.0,5152800000.0
sh688551,科威尔,2021-12-10,65.02,65.02,63.05,63.28,64.41,542579.0,34726312.0,1594839512.0,5062400000.0
sh688551,科威尔,2021-12-13,64.79,66.64,61.3,63.66,63.28,633593.0,39888640.0,1604416614.0,5092800000.0
sh688551,科威尔,2021-12-14,63.99,64.63,61.6,64.19,63.66,560311.0,35241977.0,1617774151.0000002,5135200000.0
sh688551,科威尔,2021-12-15,64.22,65.37,62.3,63.05,64.19,402956.0,25659545.0,1589042845.0,5044000000.0
sh688551,科威尔,2021-12-16,62.6,65.11,62.32,64.6,63.05,550825.0,35173989.0,1628107340.0,5168000000.0
sh688551,科威尔,2021-12-17,63.81,64.53,60.38,60.58,64.6,903021.0,55426888.0,1526791681.9999998,4846400000.0
sh688551,科威尔,2021-12-20,61.5,62.33,59.33,60.4,60.58,471584.0,28529676.0,1522255160.0,4832000000.0
sh688551,科威尔,2021-12-21,60.4,60.4,57.65,58.4,60.4,721628.0,42336793.0,1471849359.9999998,4672000000.0
sh688551,科威尔,2021-12-22,57.6,58.63,55.35,55.98,58.4,1552673.0,87481050.0,1410858342.0000002,4478400000.0
sh688551,科威尔,2021-12-23,56.35,56.56,55.03,55.87,55.98,887812.0,49478510.0,1408086023.0,4469600000.0
sh688551,科威尔,2021-12-24,55.87,56.17,53.75,54.72,55.87,673492.0,36717250.0,1379102688.0,4377600000.0
sh688551,科威尔,2021-12-27,53.75,55.29,53.05,53.57,54.72,669164.0,35989806.0,1350119353.0,4285600000.0
sh688551,科威尔,2021-12-28,54.27,58.38,53.44,58.19,53.57,1446496.0,81779663.0,1466556751.0,4655200000.0
sh688551,科威尔,2021-12-29,58.15,59.28,56.28,58.64,58.19,1190040.0,69021019.0,1477898056.0,4691200000.0
sh688551,科威尔,2021-12-30,58.95,58.95,57.02,58.55,58.64,586286.0,34139366.0,1475629794.9999998,4684000000.0
sh688551,科威尔,2021-12-31,59.09,59.09,57.5,57.89,58.55,394862.0,22898115.0,1458995881.0,4631200000.0
sh688551,科威尔,2022-01-04,57.65,58.15,56.0,56.73,57.89,530363.0,30111609.0,1429760517.0,4538400000.0
sh688551,科威尔,2022-01-05,57.69,57.86,54.5,55.2,56.73,399058.0,22090205.0,1391200080.0,4416000000.0
sh688551,科威尔,2022-01-06,55.17,55.85,54.6,55.13,55.2,376659.0,20857131.0,1389435877.0,4410400000.0
sh688551,科威尔,2022-01-07,55.13,56.5,54.44,55.54,55.13,503968.0,27972681.0,1399769065.9999998,4443200000.0
sh688551,科威尔,2022-01-10,55.0,55.72,51.2,55.5,55.54,748951.0,40274749.0,1398760950.0,4440000000.0
sh688551,科威尔,2022-01-11,55.55,58.0,52.9,53.68,55.5,476766.0,25877499.0,1352891672.0,4294400000.0
sh688551,科威尔,2022-01-12,53.53,54.76,52.58,54.5,53.68,479173.0,25659834.0,1373558050.0,4360000000.0
sh688551,科威尔,2022-01-13,55.5,55.5,52.27,52.49,54.5,507194.0,27138353.0,1322900221.0,4199200000.0
sh688551,科威尔,2022-01-14,52.2,54.69,51.56,54.48,52.49,671132.0,36033445.0,1373053992.0000002,4358400000.0
