数据由邢不行整理
股票代码,股票名称,交易日期,开盘价,最高价,最低价,收盘价,前收盘价,成交量,成交额,流通市值,总市值
sh688513,N苑东,2020-09-02,78.0,88.0,74.6,74.72,44.36,17928815.0,1428405311.0,1849684857.76,8973124800.0
sh688513,苑东生物,2020-09-03,71.1,79.44,70.12,73.3,74.72,10138729.0,765733424.0,1814532923.9,8802597000.0
sh688513,苑东生物,2020-09-04,72.0,72.0,65.28,65.37,73.3,8494163.0,577098673.0,1618226701.71,7850283300.0
sh688513,苑东生物,2020-09-07,64.51,65.99,59.58,59.73,65.37,6034315.0,376869659.0,1478609161.59,7172975699.999999
sh688513,苑东生物,2020-09-08,59.7,61.1,55.38,56.5,59.73,5131143.0,297213680.0,1398650889.5,6785085000.0
sh688513,苑东生物,2020-09-09,56.0,56.89,52.2,52.2,56.5,4115266.0,223853269.0,1292204892.6,6268698000.0
sh688513,苑东生物,2020-09-10,52.5,52.84,49.61,50.18,52.2,3063283.0,156614317.0,1242200028.94,6026116200.0
sh688513,苑东生物,2020-09-11,49.74,52.47,49.51,51.27,50.18,2775367.0,142314540.0,1269182851.41,6157014300.000001
sh688513,苑东生物,2020-09-14,52.1,52.51,51.28,51.73,51.27,1893534.0,98248287.0,1280570097.59,6212255699.999999
sh688513,苑东生物,2020-09-15,51.11,54.24,51.11,53.1,51.73,2750837.0,145768205.0,1314484287.3000002,6376779000.0
sh688513,苑东生物,2020-09-16,52.99,54.77,52.5,54.31,53.1,2261922.0,121604709.0,1344437695.73,6522087900.0
sh688513,苑东生物,2020-09-17,53.93,59.3,53.6,57.15,54.31,4760626.0,271099622.0,1414741563.45,6863143500.0
sh688513,苑东生物,2020-09-18,56.16,57.0,55.42,56.19,57.15,2154346.0,120781815.0,1390976875.77,6747857100.0
sh688513,苑东生物,2020-09-21,55.92,56.49,54.55,55.0,56.19,1633346.0,89969779.0,1361518565.0,6604950000.0
sh688513,苑东生物,2020-09-22,54.58,57.68,54.58,55.47,55.0,1936578.0,108517500.0,1373153360.01,6661392300.0
sh688513,苑东生物,2020-09-23,55.3,57.2,55.3,56.7,55.47,2126516.0,120317137.0,1403601866.1,6809103000.0
sh688513,苑东生物,2020-09-24,56.5,56.5,54.63,55.07,56.7,1520559.0,83994842.0,1363251406.81,6613356300.0
sh688513,苑东生物,2020-09-25,55.4,56.36,54.22,54.48,55.07,1174853.0,64842392.0,1348646025.8400002,6542503199.999999
sh688513,苑东生物,2020-09-28,54.39,54.43,51.0,51.2,54.48,1702625.0,88586476.0,1267450009.6,6148608000.0
sh688513,苑东生物,2020-09-29,52.0,52.18,50.86,51.62,51.2,849472.0,43853273.0,1277847060.46,6199045800.0
sh688513,苑东生物,2020-09-30,52.0,52.16,51.33,51.6,51.62,930665.0,48078823.0,1277351962.8,6196644000.0
sh688513,苑东生物,2020-10-09,52.6,53.17,52.19,53.0,51.6,1182149.0,62348421.0,1312008799.0,6364770000.0
sh688513,苑东生物,2020-10-12,53.0,55.12,52.9,55.03,53.0,1534035.0,83225744.0,1362261211.4900002,6608552700.0
sh688513,苑东生物,2020-10-13,55.14,55.98,54.49,55.68,55.03,1339979.0,74191351.0,1378351885.44,6686611200.0
sh688513,苑东生物,2020-10-14,55.5,58.66,55.06,56.58,55.68,2467044.0,140081476.0,1400631280.14,6794692200.0
sh688513,苑东生物,2020-10-15,56.34,56.34,54.58,54.72,56.58,1474380.0,81203179.0,1354587197.7600002,6571324800.0
sh688513,苑东生物,2020-10-16,54.83,55.72,54.28,55.56,54.72,1153712.0,63268945.0,1375381299.4799998,6672200400.0
sh688513,苑东生物,2020-10-19,55.57,57.0,55.05,55.34,55.56,1191106.0,66709370.0,1369935225.22,6645780600.000001
sh688513,苑东生物,2020-10-20,55.55,56.88,55.0,56.22,55.34,1275918.0,71633027.0,1391719522.26,6751459800.0
sh688513,苑东生物,2020-10-21,56.52,57.14,55.42,56.36,56.22,1336051.0,75130256.0,1395185205.88,6768272400.0
sh688513,苑东生物,2020-10-22,55.98,56.23,54.3,54.8,56.36,1379462.0,75717059.0,1356567588.4,6580932000.0
sh688513,苑东生物,2020-10-23,54.8,55.47,52.5,52.84,54.8,1338186.0,71935665.0,1308048017.72,6345555600.000001
sh688513,苑东生物,2020-10-26,52.84,53.95,52.51,53.8,52.84,732259.0,39118649.0,1331812705.4,6460842000.0
sh688513,苑东生物,2020-10-27,54.14,55.28,54.14,54.47,53.8,1082721.0,59288885.0,1348398477.01,6541302300.0
sh688513,苑东生物,2020-10-28,54.61,54.8,53.8,54.5,54.47,767954.0,41772241.0,1349141123.5,6544905000.0
sh688513,苑东生物,2020-10-29,54.39,54.39,53.5,53.73,54.5,907573.0,48828786.0,1330079863.59,6452435699.999999
sh688513,苑东生物,2020-10-30,54.25,54.27,52.11,52.16,53.73,1021937.0,54330789.0,1291214697.28,6263894399.999999
sh688513,苑东生物,2020-11-02,52.05,52.1,49.8,51.27,52.16,1378432.0,70096937.0,1269182851.41,6157014300.000001
sh688513,苑东生物,2020-11-03,51.2,52.91,51.03,52.78,51.27,806444.0,42131380.0,1306562724.74,6338350200.0
sh688513,苑东生物,2020-11-04,52.81,53.36,52.4,52.95,52.78,542050.0,28629529.0,1310771054.85,6358765500.0
sh688513,苑东生物,2020-11-05,53.73,53.99,52.82,53.5,52.95,682980.0,36412479.0,1324386240.5000002,6424815000.0
sh688513,苑东生物,2020-11-06,53.86,54.95,53.4,54.01,53.5,1079438.0,58517432.0,1337011230.8300002,6486060900.0
sh688513,苑东生物,2020-11-09,54.48,55.38,53.76,55.12,54.01,1550644.0,84888124.0,1364489150.96,6619360800.0
sh688513,苑东生物,2020-11-10,55.59,56.65,55.11,56.07,55.12,1882506.0,105656549.0,1388006289.81,6733446300.0
sh688513,苑东生物,2020-11-11,55.85,56.13,54.45,54.79,56.07,1112430.0,61228361.0,1356320039.5700002,6579731100.0
sh688513,苑东生物,2020-11-12,54.99,55.24,53.85,54.01,54.79,701235.0,38190910.0,1337011230.8300002,6486060900.0
sh688513,苑东生物,2020-11-13,54.01,54.89,53.52,54.89,54.01,612179.0,33147860.0,1358795527.87,6591740100.0
sh688513,苑东生物,2020-11-16,55.18,55.68,54.78,55.27,54.89,781431.0,43107219.0,1368202383.4099998,6637374300.000001
sh688513,苑东生物,2020-11-17,55.08,55.45,53.42,53.62,55.27,819777.0,44332347.0,1327356826.46,6439225800.0
sh688513,苑东生物,2020-11-18,53.7,54.57,53.61,54.48,53.62,578952.0,31411391.0,1348646025.8400002,6542503199.999999
sh688513,苑东生物,2020-11-19,54.2,57.81,54.02,56.85,54.48,2290157.0,129962617.0,1407315098.5500002,6827116500.0
sh688513,苑东生物,2020-11-20,57.0,57.47,56.03,57.1,56.85,1372970.0,77942681.0,1413503819.3,6857139000.0
sh688513,苑东生物,2020-11-23,56.9,60.8,56.88,58.67,57.1,2848813.0,169260780.0,1452368985.61,7045680300.0
sh688513,苑东生物,2020-11-24,58.06,59.3,57.73,58.25,58.67,1318188.0,76897574.0,1441971934.75,6995242500.0
sh688513,苑东生物,2020-11-25,58.42,58.58,55.86,56.13,58.25,1445289.0,81659159.0,1389491582.79,6740651700.0
sh688513,苑东生物,2020-11-26,56.13,56.49,54.67,55.0,56.13,890875.0,49120347.0,1361518565.0,6604950000.0
sh688513,苑东生物,2020-11-27,55.01,55.27,52.88,53.6,55.0,1215699.0,65610096.0,1326861728.8,6436824000.0
sh688513,苑东生物,2020-11-30,53.38,54.09,52.71,53.48,53.6,617284.0,33037731.0,1323891142.8400002,6422413199.999999
sh688513,苑东生物,2020-12-01,53.49,54.16,53.49,54.05,53.48,553155.0,29842337.0,1338001426.15,6490864500.0
sh688513,苑东生物,2020-12-02,54.27,54.43,53.62,54.08,54.05,603275.0,32546397.0,1338744072.64,6494467200.0
sh688513,苑东生物,2020-12-03,54.01,54.32,53.52,53.94,54.08,532614.0,28724200.0,1335278389.02,6477654600.0
sh688513,苑东生物,2020-12-04,53.67,54.04,53.6,53.96,53.94,481656.0,25904273.0,1335773486.6799998,6480056400.0
sh688513,苑东生物,2020-12-07,53.9,54.63,53.82,53.98,53.96,513088.0,27819061.0,1336268584.34,6482458199.999999
sh688513,苑东生物,2020-12-08,54.3,54.3,53.07,53.07,53.98,568533.0,30440228.0,1313741640.81,6373176300.0
sh688513,苑东生物,2020-12-09,53.07,53.29,51.84,52.25,53.07,599794.0,31397684.0,1293442636.75,6274702500.0
sh688513,苑东生物,2020-12-10,52.23,52.99,52.02,52.41,52.25,364401.0,19119549.0,1297403418.03,6293916899.999999
sh688513,苑东生物,2020-12-11,52.51,52.51,50.61,50.99,52.41,761209.0,39013307.0,1262251484.17,6123389100.0
sh688513,苑东生物,2020-12-14,51.0,51.47,50.72,51.12,50.99,330024.0,16866757.0,1265469618.96,6139000800.0
sh688513,苑东生物,2020-12-15,51.0,52.23,51.0,52.12,51.12,384595.0,19846781.0,1290224501.96,6259090800.0
sh688513,苑东生物,2020-12-16,51.91,52.24,51.0,51.02,52.12,405809.0,20845784.0,1262994130.6599998,6126991800.000001
sh688513,苑东生物,2020-12-17,51.17,52.44,51.15,52.37,51.02,597099.0,30930003.0,1296413222.71,6289113300.0
sh688513,苑东生物,2020-12-18,52.59,53.44,52.25,52.5,52.37,590673.0,31177187.0,1299631357.5,6304725000.0
sh688513,苑东生物,2020-12-21,52.77,52.98,51.5,51.82,52.5,550037.0,28553579.0,1282798037.06,6223063800.0
sh688513,苑东生物,2020-12-22,51.8,52.27,49.84,50.35,51.82,810478.0,41644865.0,1246408359.05,6046531500.0
sh688513,苑东生物,2020-12-23,50.35,51.3,49.18,49.4,50.35,882141.0,43886399.0,1222891220.2,5932446000.0
sh688513,苑东生物,2020-12-24,49.4,49.4,47.02,47.25,49.4,987635.0,47155543.0,1169668221.75,5674252500.0
sh688513,苑东生物,2020-12-25,47.02,47.54,46.76,47.4,47.25,362700.0,17123210.0,1173381454.2,5692266000.0
sh688513,苑东生物,2020-12-28,47.5,47.5,46.35,46.55,47.4,448338.0,20947343.0,1152339803.65,5590189500.0
sh688513,苑东生物,2020-12-29,46.5,47.39,46.35,46.96,46.55,299063.0,14047268.0,1162489305.68,5639426400.0
sh688513,苑东生物,2020-12-30,46.71,47.0,46.54,46.95,46.96,323012.0,15126717.0,1162241756.85,5638225500.0
sh688513,苑东生物,2020-12-31,46.92,47.7,46.82,47.59,46.95,312237.0,14787530.0,1178084881.97,5715083100.000001
sh688513,苑东生物,2021-01-04,47.42,48.79,47.42,48.59,47.59,482717.0,23259915.0,1202839764.97,5835173100.000001
sh688513,苑东生物,2021-01-05,48.69,49.05,48.11,48.5,48.59,445787.0,21663861.0,1200611825.5,5824365000.0
sh688513,苑东生物,2021-01-06,48.47,48.69,46.62,46.98,48.5,680347.0,32304531.0,1162984403.34,5641828199.999999
sh688513,苑东生物,2021-01-07,46.75,47.15,44.44,44.65,46.98,1027607.0,46639426.0,1105305525.95,5362018500.0
sh688513,苑东生物,2021-01-08,44.65,45.66,44.01,45.41,44.65,525430.0,23689324.0,1124119237.03,5453286899.999999
sh688513,苑东生物,2021-01-11,47.21,48.46,47.11,47.42,45.41,1065699.0,50856339.0,1173876551.86,5694667800.0
sh688513,苑东生物,2021-01-12,46.62,47.4,46.51,47.28,47.42,407520.0,19119843.0,1170410868.24,5677855200.0
sh688513,苑东生物,2021-01-13,47.1,47.58,46.5,46.79,47.28,365443.0,17153180.0,1158280975.57,5619011100.0
sh688513,苑东生物,2021-01-14,46.81,48.46,45.92,48.16,46.79,616900.0,29409962.0,1192195165.28,5783534399.999999
sh688513,苑东生物,2021-01-15,48.27,50.03,48.02,49.17,48.16,827100.0,40782488.0,1217197597.11,5904825300.0
sh688513,苑东生物,2021-01-18,49.16,49.45,48.06,48.33,49.17,477558.0,23233739.0,1196403495.39,5803949700.0
sh688513,苑东生物,2021-01-19,48.33,49.3,48.18,48.45,48.33,384466.0,18761335.0,1199374081.35,5818360500.0
sh688513,苑东生物,2021-01-20,48.52,48.99,48.22,48.61,48.45,327654.0,15895526.0,1203334862.63,5837574900.0
sh688513,苑东生物,2021-01-21,48.74,49.78,48.73,48.92,48.61,429346.0,21133794.0,1211008876.36,5874802800.0
sh688513,苑东生物,2021-01-22,49.3,49.3,48.25,48.79,48.92,488760.0,23745664.0,1207790741.57,5859191100.0
sh688513,苑东生物,2021-01-25,48.88,48.88,47.07,47.25,48.79,518900.0,24747276.0,1169668221.75,5674252500.0
sh688513,苑东生物,2021-01-26,47.28,47.39,46.88,46.98,47.25,292581.0,13784712.0,1162984403.34,5641828199.999999
sh688513,苑东生物,2021-01-27,47.4,47.79,46.8,47.41,46.98,262880.0,12460928.0,1173629003.03,5693466899.999999
sh688513,苑东生物,2021-01-28,47.0,47.6,46.01,46.45,47.41,350090.0,16344663.0,1149864315.35,5578180500.0
sh688513,苑东生物,2021-01-29,46.98,46.98,45.51,45.9,46.45,294840.0,13576483.0,1136249129.7,5512131000.0
sh688513,苑东生物,2021-02-01,45.63,46.52,45.63,46.43,45.9,253937.0,11712823.0,1149369217.6899998,5575778700.0
sh688513,苑东生物,2021-02-02,46.77,47.38,46.23,46.78,46.43,298330.0,13982089.0,1158033426.74,5617810200.0
sh688513,苑东生物,2021-02-03,46.77,46.89,45.3,45.6,46.78,323930.0,14874902.0,1128822664.8,5476104000.0
sh688513,苑东生物,2021-02-04,45.58,46.1,44.21,45.94,45.6,431288.0,19402795.0,1137239325.02,5516934600.0
sh688513,苑东生物,2021-02-05,46.0,46.95,45.94,46.33,45.94,336338.0,15638557.0,1146893729.39,5563769700.0
sh688513,苑东生物,2021-02-08,46.5,47.19,46.23,46.88,46.33,232144.0,10856406.0,1160508915.04,5629819200.0
sh688513,苑东生物,2021-02-09,46.99,47.09,46.68,47.08,46.88,228753.0,10732176.0,1165459891.64,5653837200.0
sh688513,苑东生物,2021-02-10,47.3,47.34,46.82,46.9,47.08,291822.0,13721112.0,1161004012.7,5632221000.0
sh688513,苑东生物,2021-02-18,47.3,48.05,47.11,47.85,46.9,467644.0,22274704.0,1184521151.55,5746306500.0
sh688513,苑东生物,2021-02-19,48.02,48.1,47.62,47.99,47.85,361635.0,17330212.0,1187986835.17,5763119100.0
sh688513,苑东生物,2021-02-22,47.99,48.9,47.82,47.98,47.99,571112.0,27612373.0,1187739286.34,5761918199.999999
sh688513,苑东生物,2021-02-23,47.92,48.15,47.3,47.5,47.98,314255.0,14937128.0,1175856942.5,5704275000.0
sh688513,苑东生物,2021-02-24,47.7,47.92,47.0,47.26,47.5,315297.0,14954865.0,1169915770.58,5675453400.0
sh688513,苑东生物,2021-02-25,47.55,47.7,46.28,46.28,47.26,385332.0,18018863.0,1145655985.24,5557765200.0
sh688513,苑东生物,2021-02-26,45.73,46.76,45.72,46.58,46.28,232992.0,10776966.0,1153082450.14,5593792200.0
sh688513,苑东生物,2021-03-01,46.88,47.3,46.52,47.26,46.58,338124.0,15934313.0,1169915770.58,5675453400.0
sh688513,苑东生物,2021-03-02,47.0,47.0,45.78,45.9,47.26,861977.0,39823887.0,1187772660.0,5512131000.0
sh688513,苑东生物,2021-03-03,45.58,46.19,45.58,46.16,45.9,346666.0,15938355.0,1194500784.0,5543354399.999999
sh688513,苑东生物,2021-03-04,46.15,46.34,45.43,45.44,46.16,422848.0,19357720.0,1175869056.0,5456889600.0
sh688513,苑东生物,2021-03-05,45.45,46.0,45.28,45.87,45.44,236044.0,10782893.0,1186996338.0,5508528300.0
sh688513,苑东生物,2021-03-08,45.98,46.4,45.44,45.45,45.87,413925.0,19018197.0,1176127830.0,5458090500.0
sh688513,苑东生物,2021-03-09,45.51,45.85,44.64,45.01,45.45,375579.0,16978644.0,1164741774.0,5405250900.0
sh688513,苑东生物,2021-03-10,45.4,45.54,44.36,44.8,45.01,296013.0,13250683.0,1159307520.0,5380032000.0
sh688513,苑东生物,2021-03-11,44.77,45.21,44.62,44.89,44.8,218708.0,9825459.0,1161636486.0,5390840100.0
sh688513,苑东生物,2021-03-12,44.97,45.22,44.22,44.35,44.89,390043.0,17341006.0,1147662690.0,5325991500.0
sh688513,苑东生物,2021-03-15,44.43,44.43,43.9,44.14,44.35,317556.0,13999258.0,1142228436.0,5300772600.0
sh688513,苑东生物,2021-03-16,44.35,44.7,44.13,44.48,44.14,225963.0,10034413.0,1151026752.0,5341603199.999999
sh688513,苑东生物,2021-03-17,44.45,44.68,44.26,44.52,44.48,301749.0,13408758.0,1152061848.0,5346406800.000001
sh688513,苑东生物,2021-03-18,44.69,45.4,44.58,45.25,44.52,304316.0,13693842.0,1170952350.0,5434072500.0
sh688513,苑东生物,2021-03-19,45.11,45.75,45.03,45.26,45.25,354670.0,16111655.0,1171211124.0,5435273400.0
sh688513,苑东生物,2021-03-22,45.29,45.92,45.23,45.85,45.26,282324.0,12885506.0,1186478790.0,5506126500.0
sh688513,苑东生物,2021-03-23,45.87,45.93,45.09,45.25,45.85,292541.0,13266028.0,1170952350.0,5434072500.0
sh688513,苑东生物,2021-03-24,45.25,45.9,45.18,45.65,45.25,235287.0,10690869.0,1181303310.0,5482108500.0
sh688513,苑东生物,2021-03-25,45.53,45.85,45.0,45.23,45.65,216818.0,9839195.0,1170434802.0,5431670699.999999
sh688513,苑东生物,2021-03-26,45.23,46.06,45.23,45.98,45.23,321272.0,14722297.0,1189842852.0,5521738199.999999
sh688513,苑东生物,2021-03-29,46.18,46.54,45.92,46.07,45.98,420216.0,19439480.0,1192171818.0,5532546300.0
sh688513,苑东生物,2021-03-30,45.23,45.91,44.05,44.18,46.07,789815.0,35072841.0,1146121978.0,5305576200.0
sh688513,苑东生物,2021-03-31,44.29,44.34,44.0,44.28,44.18,180225.0,7968452.0,1148716188.0,5317585200.0
sh688513,苑东生物,2021-04-01,44.21,45.1,44.05,44.7,44.28,348458.0,15591058.0,1159611870.0,5368023000.0
sh688513,苑东生物,2021-04-02,45.1,45.1,44.42,44.43,44.7,292945.0,13033933.0,1152607503.0,5335598700.0
sh688513,苑东生物,2021-04-06,44.26,44.41,43.91,44.24,44.43,315030.0,13888403.0,1147678504.0,5312781600.0
sh688513,苑东生物,2021-04-07,44.38,44.4,43.98,44.33,44.24,232099.0,10244689.0,1150013293.0,5323589700.0
sh688513,苑东生物,2021-04-08,44.39,44.76,44.17,44.55,44.33,384239.0,17088296.0,1155720555.0,5350009500.0
sh688513,苑东生物,2021-04-09,44.55,44.55,44.16,44.4,44.55,265733.0,11763835.0,1151829240.0,5331996000.0
sh688513,苑东生物,2021-04-12,44.53,44.53,43.84,43.94,44.4,334691.0,14735404.0,1139895874.0,5276754600.0
sh688513,苑东生物,2021-04-13,43.98,43.98,43.37,43.4,43.94,268621.0,11685642.0,1125887140.0,5211906000.0
sh688513,苑东生物,2021-04-14,43.39,43.39,42.08,42.62,43.4,476313.0,20272880.0,1105652302.0,5118235800.0
sh688513,苑东生物,2021-04-15,42.6,43.39,42.32,43.25,42.62,317800.0,13623577.0,1121995825.0,5193892500.0
sh688513,苑东生物,2021-04-16,43.69,45.42,43.33,44.76,43.25,758082.0,33796393.0,1161168396.0,5375228400.0
sh688513,苑东生物,2021-04-19,44.47,45.53,44.47,45.47,44.76,595266.0,26878365.0,1179587287.0,5460492300.0
sh688513,苑东生物,2021-04-20,45.3,45.89,44.71,44.81,45.47,484078.0,21873096.0,1162465501.0,5381232900.0
sh688513,苑东生物,2021-04-21,44.79,45.38,44.73,44.73,44.81,412889.0,18563753.0,1160390133.0,5371625699.999999
sh688513,苑东生物,2021-04-22,45.09,45.1,44.65,44.82,44.73,208222.0,9334554.0,1162724922.0,5382433800.0
sh688513,苑东生物,2021-04-23,44.82,44.82,44.0,44.15,44.82,374046.0,16559424.0,1145343715.0,5301973500.0
sh688513,苑东生物,2021-04-26,44.69,45.98,44.69,45.5,44.15,841180.0,38306455.0,1180365550.0,5464095000.0
sh688513,苑东生物,2021-04-27,45.33,45.33,44.0,44.89,45.5,538862.0,24191808.0,1164540869.0,5390840100.0
sh688513,苑东生物,2021-04-28,44.85,44.95,44.06,44.37,44.89,379225.0,16814291.0,1151050977.0,5328393300.0
sh688513,苑东生物,2021-04-29,44.3,44.5,43.3,43.33,44.37,480252.0,21054168.0,1124071193.0,5203499700.0
sh688513,苑东生物,2021-04-30,43.34,43.7,42.76,43.4,43.33,434255.0,18765694.0,1125887140.0,5211906000.0
sh688513,苑东生物,2021-05-06,43.07,43.6,42.9,43.19,43.4,255543.0,11042033.0,1120439299.0,5186687100.0
sh688513,苑东生物,2021-05-07,43.13,43.39,42.26,42.31,43.19,511831.0,21801137.0,1097610251.0,5081007900.0
sh688513,苑东生物,2021-05-10,42.32,42.49,42.09,42.4,42.31,213892.0,9030838.0,1099945040.0,5091816000.0
sh688513,苑东生物,2021-05-11,42.32,42.85,41.85,42.71,42.4,245475.0,10417983.0,1107987091.0,5129043900.0
sh688513,苑东生物,2021-05-12,42.71,43.0,42.23,42.85,42.71,232194.0,9913898.0,1111618985.0,5145856500.0
sh688513,苑东生物,2021-05-13,43.5,45.16,43.5,44.92,42.85,1101239.0,49208244.0,1165319132.0,5394442800.0
sh688513,苑东生物,2021-05-14,44.7,44.74,44.12,44.43,44.92,608373.0,27048006.0,1152607503.0,5335598700.0
sh688513,XD苑东生,2021-05-17,44.3,44.45,43.66,43.66,44.13,461376.0,20314802.0,1132632086.0,5243129399.999999
sh688513,苑东生物,2021-05-18,43.89,46.67,43.18,45.6,43.66,950227.0,42945581.0,1182959760.0,5476104000.0
sh688513,苑东生物,2021-05-19,45.26,45.93,44.88,44.89,45.6,533240.0,24084446.0,1164540869.0,5390840100.0
sh688513,苑东生物,2021-05-20,44.91,45.45,44.43,45.1,44.89,508489.0,22824632.0,1169988710.0,5416059000.0
sh688513,苑东生物,2021-05-21,45.15,46.22,44.8,45.7,45.1,730615.0,33360278.0,1185553970.0,5488113000.0
sh688513,苑东生物,2021-05-24,45.9,46.38,44.86,46.27,45.7,895364.0,40908855.0,1200340967.0,5556564300.000001
sh688513,苑东生物,2021-05-25,46.11,46.7,45.85,46.59,46.27,764332.0,35367488.0,1208642439.0,5594993100.000001
sh688513,苑东生物,2021-05-26,46.2,48.88,46.16,48.3,46.59,1650096.0,79238465.0,1253003430.0,5800347000.0
sh688513,苑东生物,2021-05-27,48.1,48.37,47.4,47.95,48.3,670616.0,32084121.0,1243923695.0,5758315500.0
sh688513,苑东生物,2021-05-28,47.9,47.9,46.88,47.5,47.95,725586.0,34413020.0,1232249750.0,5704275000.0
sh688513,苑东生物,2021-05-31,47.41,48.45,46.8,48.18,47.5,778930.0,37227183.0,1249890378.0,5785936200.0
sh688513,苑东生物,2021-06-01,48.32,48.55,47.37,47.47,48.18,699835.0,33404968.0,1231471487.0,5700672300.0
sh688513,苑东生物,2021-06-02,47.47,48.6,47.0,48.56,47.47,1064666.0,50918568.0,1259748376.0,5831570400.0
sh688513,苑东生物,2021-06-03,48.15,49.2,47.8,47.83,48.56,822298.0,39680695.0,1240810643.0,5743904700.0
sh688513,苑东生物,2021-06-04,47.94,48.53,47.64,47.81,47.83,707806.0,33997953.0,1240291801.0,5741502900.0
sh688513,苑东生物,2021-06-07,47.61,48.41,47.4,48.3,47.81,1110489.0,53418641.0,1253003430.0,5800347000.0
sh688513,苑东生物,2021-06-08,48.2,48.32,46.84,47.0,48.3,533612.0,25330751.0,1219278700.0,5644230000.0
sh688513,苑东生物,2021-06-09,46.89,47.27,45.88,45.92,47.0,661460.0,30784969.0,1191261232.0,5514532800.0
sh688513,苑东生物,2021-06-10,46.07,46.08,45.5,45.7,45.92,659634.0,30137188.0,1185553970.0,5488113000.0
sh688513,苑东生物,2021-06-11,45.7,46.4,45.53,45.68,45.7,530521.0,24395943.0,1185035128.0,5485711200.0
sh688513,苑东生物,2021-06-15,45.65,45.67,44.41,44.64,45.68,646249.0,29046667.0,1158055344.0,5360817600.0
sh688513,苑东生物,2021-06-16,44.64,44.97,44.03,44.11,44.64,316089.0,14025243.0,1144306031.0,5297169900.0
sh688513,苑东生物,2021-06-17,44.19,44.55,44.06,44.4,44.11,239332.0,10592168.0,1151829240.0,5331996000.0
sh688513,苑东生物,2021-06-18,44.58,44.75,44.22,44.71,44.4,347293.0,15453475.0,1159871291.0,5369223900.0
sh688513,苑东生物,2021-06-21,44.72,45.39,44.62,45.14,44.71,383803.0,17337730.0,1171026394.0,5420862600.0
sh688513,苑东生物,2021-06-22,45.15,46.85,44.87,46.2,45.14,1031660.0,47465170.0,1198525020.0,5548158000.0
sh688513,苑东生物,2021-06-23,46.15,46.51,45.86,46.3,46.2,346051.0,15983609.0,1201119230.0,5560167000.0
sh688513,苑东生物,2021-06-24,46.92,46.92,45.65,45.9,46.3,431578.0,19894766.0,1190742390.0,5512131000.0
sh688513,苑东生物,2021-06-25,45.7,46.1,45.5,45.7,45.9,344948.0,15785433.0,1185553970.0,5488113000.0
sh688513,苑东生物,2021-06-28,45.31,46.08,45.31,45.75,45.7,471721.0,21599292.0,1186851075.0,5494117500.0
sh688513,苑东生物,2021-06-29,45.77,45.77,44.68,44.7,45.75,404274.0,18249419.0,1159611870.0,5368023000.0
sh688513,苑东生物,2021-06-30,44.71,45.33,44.5,45.05,44.7,373084.0,16760654.0,1168691605.0,5410054500.0
sh688513,苑东生物,2021-07-01,45.2,46.13,44.61,45.44,45.05,549094.0,25053493.0,1178809024.0,5456889600.0
sh688513,苑东生物,2021-07-02,45.29,46.47,45.21,46.3,45.44,738188.0,34032233.0,1201119230.0,5560167000.0
sh688513,苑东生物,2021-07-05,46.38,47.1,45.83,46.33,46.3,611407.0,28397477.0,1201897493.0,5563769700.0
sh688513,苑东生物,2021-07-06,46.17,46.55,44.78,45.11,46.33,757804.0,34462617.0,1170248131.0,5417259900.0
sh688513,苑东生物,2021-07-07,44.75,45.55,44.75,45.36,45.11,340231.0,15403375.0,1176733656.0,5447282400.0
sh688513,苑东生物,2021-07-08,45.29,45.29,44.5,44.6,45.36,534282.0,23933218.0,1157017660.0,5356014000.0
sh688513,苑东生物,2021-07-09,44.5,45.0,44.38,44.9,44.6,293543.0,13101407.0,1164800290.0,5392041000.0
sh688513,苑东生物,2021-07-12,44.9,45.4,44.74,45.38,44.9,357516.0,16164766.0,1177252498.0,5449684200.0
sh688513,苑东生物,2021-07-13,45.38,45.85,45.33,45.4,45.38,319092.0,14539673.0,1177771340.0,5452086000.0
sh688513,苑东生物,2021-07-14,45.31,46.0,45.23,45.87,45.4,467751.0,21371344.0,1189964127.0,5508528300.0
sh688513,苑东生物,2021-07-15,45.74,45.98,44.51,44.9,45.87,443835.0,19965776.0,1164800290.0,5392041000.0
sh688513,苑东生物,2021-07-16,44.96,45.22,44.71,45.0,44.9,273237.0,12279416.0,1167394500.0,5404050000.0
sh688513,苑东生物,2021-07-19,44.8,45.3,44.38,45.1,45.0,364093.0,16315154.0,1169988710.0,5416059000.0
sh688513,苑东生物,2021-07-20,44.98,45.83,44.98,45.72,45.1,430540.0,19647939.0,1186072812.0,5490514800.0
sh688513,苑东生物,2021-07-21,45.9,46.1,45.39,45.52,45.72,555016.0,25379357.0,1180884392.0,5466496800.000001
sh688513,苑东生物,2021-07-22,45.52,47.77,45.28,47.29,45.52,1115006.0,52214086.0,1226801909.0,5679056100.0
sh688513,苑东生物,2021-07-23,47.02,47.4,46.3,46.52,47.29,671134.0,31374921.0,1206826492.0,5586586800.000001
sh688513,苑东生物,2021-07-26,46.52,47.39,46.03,46.45,46.52,699969.0,32684536.0,1205010545.0,5578180500.0
sh688513,苑东生物,2021-07-27,46.3,47.08,46.11,46.19,46.45,532447.0,24794822.0,1198265599.0,5546957100.0
sh688513,苑东生物,2021-07-28,46.2,46.21,43.6,44.31,46.19,664510.0,29594725.0,1149494451.0,5321187900.0
sh688513,苑东生物,2021-07-29,44.65,45.23,44.65,45.12,44.31,335488.0,15088706.0,1170507552.0,5418460800.0
sh688513,苑东生物,2021-07-30,45.79,48.85,45.45,47.88,45.12,1555217.0,73877898.0,1291768884.0,5749909200.0
sh688513,苑东生物,2021-08-02,48.45,48.54,47.35,47.99,47.88,780521.0,37338013.0,1294736607.0,5763119100.0
sh688513,苑东生物,2021-08-03,47.7,50.45,47.69,49.3,47.99,1453829.0,71761444.0,1330079490.0,5920437000.0
sh688513,苑东生物,2021-08-04,49.46,50.37,48.92,49.77,49.3,944317.0,46756311.0,1342759761.0,5976879300.000001
sh688513,苑东生物,2021-08-05,49.77,50.24,48.87,48.87,49.77,925934.0,45706601.0,1318478391.0000002,5868798300.0
sh688513,苑东生物,2021-08-06,48.84,49.01,47.36,47.72,48.87,927456.0,44326829.0,1287452196.0,5730694800.0
sh688513,苑东生物,2021-08-09,47.83,48.11,47.54,48.0,47.72,409750.0,19607898.0,1295006400.0,5764320000.0
sh688513,苑东生物,2021-08-10,47.96,48.19,47.23,48.09,48.0,663793.0,31695043.0,1297434537.0,5775128100.000001
sh688513,苑东生物,2021-08-11,48.2,48.29,46.97,47.25,48.09,604839.0,28628077.0,1274771925.0,5674252500.0
sh688513,苑东生物,2021-08-12,47.18,47.78,47.12,47.57,47.25,361762.0,17173145.0,1283405301.0,5712681300.0
sh688513,苑东生物,2021-08-13,47.7,48.1,47.13,47.99,47.57,437270.0,20872041.0,1294736607.0,5763119100.0
sh688513,苑东生物,2021-08-16,48.0,48.36,47.51,48.33,47.99,562615.0,27031550.0,1303909569.0,5803949700.0
sh688513,苑东生物,2021-08-17,48.13,48.33,46.77,46.83,48.33,712664.0,33751922.0,1263440619.0,5623814700.0
sh688513,苑东生物,2021-08-18,46.86,47.56,46.36,46.66,46.83,637480.0,29867172.0,1258854138.0,5603399399.999999
sh688513,苑东生物,2021-08-19,47.23,49.31,47.09,48.4,46.66,1306160.0,63550645.0,1305798120.0,5812356000.0
sh688513,苑东生物,2021-08-20,48.3,48.64,46.91,47.18,48.4,882147.0,41979026.0,1272883374.0,5665846200.0
sh688513,苑东生物,2021-08-23,47.35,47.86,46.64,47.85,47.18,587648.0,27852970.0,1290959505.0,5746306500.0
sh688513,苑东生物,2021-08-24,47.85,48.99,47.7,48.87,47.85,828028.0,40225927.0,1318478391.0000002,5868798300.0
sh688513,苑东生物,2021-08-25,48.49,50.62,48.49,49.65,48.87,1304090.0,65017588.0,1339522245.0,5962468500.0
sh688513,苑东生物,2021-08-26,49.6,49.6,48.1,48.38,49.65,766941.0,37357253.0,1305258534.0,5809954200.0
sh688513,苑东生物,2021-08-27,48.03,48.35,47.01,47.14,48.38,637030.0,30239783.0,1271804202.0,5661042600.0
sh688513,苑东生物,2021-08-30,47.12,47.37,46.76,46.85,47.14,445870.0,20970063.0,1263980205.0,5626216500.0
sh688513,苑东生物,2021-08-31,46.85,47.78,46.6,47.46,46.85,432551.0,20411523.0,1280437578.0,5699471400.0
sh688513,苑东生物,2021-09-01,47.46,47.47,46.5,47.19,47.46,466742.0,21899571.0,1273153167.0,5667047100.0
sh688513,苑东生物,2021-09-02,47.08,47.14,46.13,46.16,47.19,715775.0,33275036.0,2801371928.0,5543354399.999999
sh688513,苑东生物,2021-09-03,46.07,46.6,45.88,46.0,46.16,799396.0,36982062.0,2791661800.0,5524140000.0
sh688513,苑东生物,2021-09-06,46.44,46.57,45.8,46.52,46.0,1097677.0,50727300.0,2823219716.0,5586586800.000001
sh688513,苑东生物,2021-09-07,46.6,46.93,46.32,46.5,46.52,659693.0,30690588.0,2822005949.9999995,5584185000.0
sh688513,苑东生物,2021-09-08,46.49,46.65,46.16,46.28,46.5,536796.0,24903716.0,2808654524.0,5557765200.0
sh688513,苑东生物,2021-09-09,46.27,46.27,45.31,45.5,46.28,739766.0,33867048.0,2761317650.0,5464095000.0
sh688513,苑东生物,2021-09-10,45.5,45.76,45.4,45.67,45.5,377326.0,17197679.0,2771634661.0,5484510300.0
sh688513,苑东生物,2021-09-13,45.55,45.75,44.69,44.8,45.67,798314.0,35992775.0,2718835839.9999995,5380032000.0
sh688513,苑东生物,2021-09-14,44.98,45.0,44.31,44.55,44.8,533937.0,23848986.0,2703663765.0,5350009500.0
sh688513,苑东生物,2021-09-15,44.59,44.79,44.3,44.7,44.55,343533.0,15305513.0,2712767010.0,5368023000.0
sh688513,苑东生物,2021-09-16,44.61,45.15,44.4,44.66,44.7,474394.0,21265445.0,2710339478.0,5363219399.999999
sh688513,苑东生物,2021-09-17,44.66,45.63,44.65,45.56,44.66,569862.0,25808724.0,2764958948.0,5471300400.0
sh688513,苑东生物,2021-09-22,45.51,46.0,45.27,45.93,45.56,475124.0,21698747.0,2787413619.0,5515733700.0
sh688513,苑东生物,2021-09-23,45.93,46.08,45.41,45.41,45.93,460949.0,21055094.0,2755855703.0,5453286899.999999
sh688513,苑东生物,2021-09-24,45.54,45.69,44.82,44.96,45.41,474050.0,21429434.0,2728545968.0,5399246400.0
sh688513,苑东生物,2021-09-27,44.73,45.58,44.7,44.92,44.96,365056.0,16452118.0,2726118436.0,5394442800.0
sh688513,苑东生物,2021-09-28,44.81,45.0,44.56,44.8,44.92,207668.0,9295704.0,2718835839.9999995,5380032000.0
sh688513,苑东生物,2021-09-29,44.78,44.78,43.6,43.85,44.8,508829.0,22406796.0,2661181954.9999995,5265946500.0
sh688513,苑东生物,2021-09-30,43.99,44.25,43.8,44.08,43.85,234821.0,10339263.0,2675140263.9999995,5293567200.0
sh688513,苑东生物,2021-10-08,44.31,45.59,44.31,45.26,44.08,426826.0,19277820.0,2746752457.9999995,5435273400.0
sh688513,苑东生物,2021-10-11,45.01,45.55,44.85,45.0,45.26,298065.0,13446126.0,2730973500.0,5404050000.0
sh688513,苑东生物,2021-10-12,44.82,44.89,43.88,43.95,45.0,344550.0,15237821.0,2667250785.0,5277955500.0
sh688513,苑东生物,2021-10-13,44.12,45.45,43.9,45.09,43.95,442180.0,19706813.0,2736435447.0000005,5414858100.000001
sh688513,苑东生物,2021-10-14,45.17,45.5,44.85,45.08,45.09,312338.0,14132568.0,2735828564.0,5413657200.0
sh688513,苑东生物,2021-10-15,45.3,45.3,44.62,45.2,45.08,263869.0,11845202.0,2743111160.0,5428068000.0
sh688513,苑东生物,2021-10-18,45.29,45.3,44.67,45.0,45.2,239325.0,10762627.0,2730973500.0,5404050000.0
sh688513,苑东生物,2021-10-19,44.81,45.3,44.81,45.0,45.0,262646.0,11809990.0,2730973500.0,5404050000.0
sh688513,苑东生物,2021-10-20,45.09,45.6,44.84,45.58,45.0,413598.0,18758240.0,2766172714.0000005,5473702200.0
sh688513,苑东生物,2021-10-21,45.58,46.16,45.26,46.08,45.58,557098.0,25457683.0,2796516864.0,5533747200.0
sh688513,苑东生物,2021-10-22,46.45,46.45,45.21,45.41,46.08,692713.0,31558578.0,2755855703.0,5453286899.999999
sh688513,苑东生物,2021-10-25,45.3,46.01,45.05,45.11,45.41,331585.0,15011405.0,2737649213.0,5417259900.0
sh688513,苑东生物,2021-10-26,45.05,45.28,44.66,44.94,45.11,330927.0,14869113.0,2727332202.0,5396844600.0
sh688513,苑东生物,2021-10-27,45.03,45.03,43.98,44.26,44.94,423141.0,18773542.0,2637294064.0,5315183400.0
sh688513,苑东生物,2021-10-28,44.0,44.42,43.66,43.91,44.26,305133.0,13397563.0,2664823253.0000005,5273151899.999999
sh688513,苑东生物,2021-10-29,44.1,44.43,43.89,44.39,43.91,232804.0,10302995.0,2693953637.0,5330795100.0
sh688513,苑东生物,2021-11-01,44.18,45.35,43.96,45.14,44.39,386311.0,17281097.0,2739469862.0,5420862600.0
sh688513,苑东生物,2021-11-02,45.1,45.18,44.03,44.28,45.14,310762.0,13840494.0,2687277924.0,5317585200.0
sh688513,苑东生物,2021-11-03,44.5,45.58,44.31,45.28,44.28,371818.0,16807959.0,2747966224.0,5437675200.0
sh688513,苑东生物,2021-11-04,45.43,45.5,45.0,45.3,45.28,347927.0,15732536.0,2749179990.0,5440077000.0
sh688513,苑东生物,2021-11-05,45.11,45.5,44.9,44.98,45.3,342111.0,15452642.0,2729759734.0,5401648199.999999
sh688513,苑东生物,2021-11-08,44.98,45.37,44.64,45.21,44.98,385821.0,17392500.0,2743718043.0,5429268900.0
sh688513,苑东生物,2021-11-09,45.01,45.52,44.8,45.29,45.21,484912.0,21969165.0,2748573106.9999995,5438876100.0
sh688513,苑东生物,2021-11-10,46.01,46.8,45.31,45.95,45.29,1097528.0,50496710.0,2788627385.0,5518135500.0
sh688513,苑东生物,2021-11-11,45.98,46.2,45.49,45.79,45.95,838619.0,38371553.0,2778917257.0,5498921100.0
sh688513,苑东生物,2021-11-12,45.77,45.9,45.52,45.7,45.79,630316.0,28798818.0,2773455310.0,5488113000.0
sh688513,苑东生物,2021-11-15,45.78,47.28,45.72,46.0,45.7,1946077.0,90194881.0,2791661800.0,5524140000.0
sh688513,苑东生物,2021-11-16,46.12,46.42,45.67,45.9,46.0,1054982.0,48563717.0,2785592970.0,5512131000.0
sh688513,苑东生物,2021-11-17,45.81,46.18,45.33,45.61,45.9,1313679.0,59985693.0,2767993363.0000005,5477304900.0
sh688513,苑东生物,2021-11-18,45.58,45.75,44.83,44.87,45.61,947777.0,42801724.0,2723084021.0,5388438300.0
sh688513,苑东生物,2021-11-19,44.78,44.97,44.48,44.88,44.87,605001.0,27040306.0,2723690904.0,5389639200.0
sh688513,苑东生物,2021-11-22,44.87,45.18,44.49,45.04,44.88,727325.0,32557800.0,2733401032.0,5408853600.0
sh688513,苑东生物,2021-11-23,44.98,45.27,44.77,45.07,45.04,585209.0,26325457.0,2735221681.0,5412456300.0
sh688513,苑东生物,2021-11-24,44.99,45.35,44.72,45.14,45.07,711115.0,32075268.0,2739469862.0,5420862600.0
sh688513,苑东生物,2021-11-25,45.18,47.23,45.14,47.1,45.14,2277984.0,105648001.0,2858418930.0,5656239000.0
sh688513,苑东生物,2021-11-26,46.89,47.98,46.81,47.19,47.1,1953081.0,92483768.0,2863880876.9999995,5667047100.0
sh688513,苑东生物,2021-11-29,47.37,47.85,46.77,47.7,47.19,1369589.0,64791460.0,2894831910.0,5728293000.0
sh688513,苑东生物,2021-11-30,47.69,47.96,47.11,47.56,47.7,945140.0,44823748.0,2886335548.0,5711480400.0
sh688513,苑东生物,2021-12-01,47.48,47.7,46.9,47.19,47.56,896915.0,42348687.0,2863880876.9999995,5667047100.0
sh688513,苑东生物,2021-12-02,46.91,47.36,46.62,46.73,47.19,770507.0,36154507.0,2835964258.9999995,5611805699.999999
sh688513,苑东生物,2021-12-03,46.74,47.36,46.62,46.89,46.73,928462.0,43579959.0,2845674387.0,5631020100.0
sh688513,苑东生物,2021-12-06,47.01,47.01,45.55,45.58,46.89,1146590.0,52733157.0,2766172714.0000005,5473702200.0
sh688513,苑东生物,2021-12-07,45.6,45.9,44.85,44.96,45.58,1045605.0,47170291.0,2728545968.0,5399246400.0
sh688513,苑东生物,2021-12-08,45.04,45.49,44.83,45.39,44.96,648807.0,29313088.0,2754641937.0,5450885100.0
sh688513,苑东生物,2021-12-09,45.39,45.6,45.1,45.48,45.39,637476.0,28937425.0,2760103884.0,5461693199.999999
sh688513,苑东生物,2021-12-10,45.66,45.66,45.39,45.57,45.48,513749.0,23379369.0,2765565831.0,5472501300.0
sh688513,苑东生物,2021-12-13,45.68,45.81,45.45,45.47,45.57,582645.0,26557950.0,2759497001.0,5460492300.0
sh688513,苑东生物,2021-12-14,45.45,45.9,45.41,45.6,45.47,541094.0,24693955.0,2767386480.0,5476104000.0
sh688513,苑东生物,2021-12-15,45.51,45.71,45.1,45.28,45.6,524741.0,23857819.0,2747966224.0,5437675200.0
sh688513,苑东生物,2021-12-16,45.28,45.39,45.06,45.21,45.28,536634.0,24264790.0,2743718043.0,5429268900.0
sh688513,苑东生物,2021-12-17,45.28,45.64,44.99,45.13,45.21,567804.0,25657702.0,2738862979.0,5419661700.0
sh688513,苑东生物,2021-12-20,45.2,45.57,45.01,45.07,45.13,521975.0,23605613.0,2735221681.0,5412456300.0
sh688513,苑东生物,2021-12-21,45.06,45.31,45.05,45.2,45.07,415373.0,18764511.0,2743111160.0,5428068000.0
sh688513,苑东生物,2021-12-22,45.35,45.79,45.26,45.5,45.2,506008.0,23005172.0,2761317650.0,5464095000.0
sh688513,苑东生物,2021-12-23,45.39,45.58,45.16,45.2,45.5,395130.0,17875289.0,2743111160.0,5428068000.0
sh688513,苑东生物,2021-12-24,45.2,45.2,44.62,44.82,45.2,670505.0,30041484.0,2720049606.0,5382433800.0
sh688513,苑东生物,2021-12-27,44.82,45.65,44.77,45.37,44.82,521957.0,23585408.0,2753428171.0,5448483300.0
sh688513,苑东生物,2021-12-28,45.3,45.58,45.0,45.22,45.37,526767.0,23823233.0,2744324926.0,5430469800.0
sh688513,苑东生物,2021-12-29,45.29,46.44,45.13,45.88,45.22,1384448.0,63604882.0,2784379204.0,5509729200.0
sh688513,苑东生物,2021-12-30,45.89,46.2,45.63,46.18,45.88,785814.0,36151183.0,2802585694.0,5545756200.0
sh688513,苑东生物,2021-12-31,46.28,46.87,46.25,46.4,46.18,852942.0,39711366.0,2815937120.0,5572176000.0
sh688513,苑东生物,2022-01-04,46.38,47.2,46.31,46.65,46.4,1476913.0,69196627.0,2831109195.0,5602198500.0
sh688513,苑东生物,2022-01-05,46.37,46.76,45.8,45.89,46.65,1058934.0,48844016.0,2784986087.0,5510930100.0
sh688513,苑东生物,2022-01-06,45.95,46.95,45.88,46.9,45.89,1118984.0,51899494.0,2846281270.0,5632221000.0
sh688513,苑东生物,2022-01-07,47.5,49.75,47.26,47.32,46.9,2145694.0,103190277.0,2871770356.0,5682658800.0
sh688513,苑东生物,2022-01-10,47.73,49.26,47.73,48.83,47.32,1901396.0,92470642.0,2963409689.0,5863994700.0
sh688513,苑东生物,2022-01-11,49.35,56.44,49.3,54.89,48.83,6074717.0,325162539.0,3331180787.0,6591740100.0
sh688513,苑东生物,2022-01-12,54.7,56.23,53.0,55.56,54.89,3642813.0,200851657.0,3371841948.0,6672200400.0
sh688513,苑东生物,2022-01-13,55.56,58.01,55.0,55.97,55.56,3520783.0,198803532.0,3396724151.0,6721437300.0
sh688513,苑东生物,2022-01-14,56.0,56.87,54.5,55.46,55.97,2624473.0,145328105.0,3365773118.0000005,6660191400.0
