数据由邢不行整理
股票代码,股票名称,交易日期,开盘价,最高价,最低价,收盘价,前收盘价,成交量,成交额,流通市值,总市值
sh688369,N致远,2019-10-31,75.0,85.0,72.77,76.9,49.39,13534557.0,1048407325.0,1357952568.9,5920498932.7
sh688369,致远互联,2019-11-01,74.53,79.88,70.18,72.46,76.9,8036319.0,599805239.0,1279548025.26,5578665184.18
sh688369,致远互联,2019-11-04,73.5,73.99,70.39,71.15,72.46,5110510.0,369288433.0,1256415153.15,5477808830.45
sh688369,致远互联,2019-11-05,70.0,70.02,64.12,64.61,71.15,5557235.0,370042041.0,1140927379.41,4974296957.63
sh688369,致远互联,2019-11-06,64.1,66.33,63.5,64.0,64.61,2663678.0,172052487.0,1130155584.0,4927333312.0
sh688369,致远互联,2019-11-07,64.1,69.36,64.05,66.9,64.0,4537842.0,302803864.0,1181365758.9,5150603102.7
sh688369,致远互联,2019-11-08,66.28,69.98,65.7,65.9,66.9,3716097.0,251171090.0,1163707077.9,5073613519.7
sh688369,致远互联,2019-11-11,65.91,68.25,64.65,65.3,65.9,2833623.0,187847896.0,1153111869.3,5027419769.9
sh688369,致远互联,2019-11-12,66.06,67.5,62.26,62.88,65.3,3196188.0,208542153.0,1110377861.28,4841104979.04
sh688369,致远互联,2019-11-13,63.5,66.2,62.71,66.2,62.88,3002656.0,193972019.0,1169004682.2,5096710394.6
sh688369,致远互联,2019-11-14,66.5,66.8,64.64,64.8,66.2,3006247.0,197514841.0,1144282528.8,4988924978.4
sh688369,致远互联,2019-11-15,63.94,64.04,61.59,61.7,64.8,2764340.0,173296821.0,1089540617.7,4750257271.1
sh688369,致远互联,2019-11-18,62.56,62.94,61.18,62.11,61.7,1815184.0,112352428.0,1096780676.91,4781823000.13
sh688369,致远互联,2019-11-19,62.3,63.36,61.61,63.23,62.11,1790948.0,111912175.0,1116558399.63,4868051333.09
sh688369,致远互联,2019-11-20,63.0,63.3,60.3,60.95,63.23,2227161.0,137500652.0,1076296606.95,4692515083.85
sh688369,致远互联,2019-11-21,60.1,60.77,59.6,60.0,60.95,1565788.0,93939664.0,1059520860.0,4619374980.0
sh688369,致远互联,2019-11-22,60.01,60.68,56.89,57.44,60.0,2101082.0,122818195.0,1014314636.64,4422281647.52
sh688369,致远互联,2019-11-25,57.44,57.5,54.63,55.01,57.44,1868504.0,103846852.0,971404041.81,4235196960.83
sh688369,致远互联,2019-11-26,55.12,55.66,54.32,54.62,55.01,1137552.0,62480932.0,964517156.22,4205171023.46
sh688369,致远互联,2019-11-27,54.98,55.38,54.49,55.2,54.62,940977.0,51748989.0,974759191.2,4249824981.6
sh688369,致远互联,2019-11-28,55.19,58.74,54.92,56.41,55.2,2514221.0,144277600.0,996126195.21,4342982377.03
sh688369,致远互联,2019-11-29,56.48,56.75,55.82,56.52,56.41,1271548.0,71609625.0,998068650.12,4351451231.16
sh688369,致远互联,2019-12-02,56.7,56.95,55.91,56.36,56.52,874793.0,49343145.0,995243261.16,4339132897.88
sh688369,致远互联,2019-12-03,56.1,56.1,53.74,54.69,56.36,1351081.0,74043152.0,965753263.89,4210560294.27
sh688369,致远互联,2019-12-04,54.2,55.27,54.09,54.57,54.69,677795.0,37118178.0,963634222.17,4201321544.31
sh688369,致远互联,2019-12-05,54.8,55.24,54.35,54.91,54.57,787899.0,43154088.0,969638173.71,4227498002.53
sh688369,致远互联,2019-12-06,54.98,55.9,54.51,54.61,54.91,674483.0,37134955.0,964340569.41,4204401127.63
sh688369,致远互联,2019-12-09,55.1,56.6,54.8,56.6,54.61,1397142.0,77836564.0,999481344.6,4357610397.8
sh688369,致远互联,2019-12-10,57.0,60.4,56.28,58.74,56.6,2980918.0,174760765.0,1037270921.94,4522368105.42
sh688369,致远互联,2019-12-11,58.0,58.85,56.73,56.8,58.74,1677005.0,96318964.0,1003013080.8,4373008314.4
sh688369,致远互联,2019-12-12,57.38,60.8,57.37,58.48,56.8,2793577.0,165505939.0,1032679664.88,4502350813.84
sh688369,致远互联,2019-12-13,58.8,58.95,57.56,58.7,58.48,1391447.0,80899889.0,1036564574.7,4519288522.1
sh688369,致远互联,2019-12-16,58.58,59.8,58.18,59.62,58.7,1224386.0,72476791.0,1052810561.22,4590118938.46
sh688369,致远互联,2019-12-17,59.3,60.38,58.9,59.68,59.62,1494611.0,89048678.0,1053870082.08,4594738313.44
sh688369,致远互联,2019-12-18,60.19,63.05,60.19,62.7,59.68,2777979.0,170897497.0,1107199298.7,4827246854.1
sh688369,致远互联,2019-12-19,62.3,62.3,60.5,61.43,62.7,1509878.0,92645919.0,1084772773.83,4729470083.69
sh688369,致远互联,2019-12-20,61.5,62.68,60.87,60.95,61.43,1412147.0,86937773.0,1076296606.95,4692515083.85
sh688369,致远互联,2019-12-23,60.9,60.9,57.6,57.7,60.95,1636339.0,96062914.0,1018905893.7,4442298939.1
sh688369,致远互联,2019-12-24,58.0,58.8,57.92,58.75,57.7,844328.0,49312033.0,1037447508.75,4523138001.25
sh688369,致远互联,2019-12-25,58.37,60.28,58.26,59.3,58.75,1218961.0,72432713.0,1047159783.3,4565482271.9
sh688369,致远互联,2019-12-26,59.45,60.18,58.77,59.48,59.3,1065810.0,63483186.0,1050338345.88,4579340396.84
sh688369,致远互联,2019-12-27,59.45,61.39,59.42,59.5,59.48,1651047.0,100246257.0,1050691519.5,4580880188.5
sh688369,致远互联,2019-12-30,59.0,59.13,57.57,58.6,59.5,1131805.0,66002453.0,1034798706.6,4511589563.8
sh688369,致远互联,2019-12-31,58.8,59.0,58.22,58.76,58.6,921984.0,54068178.0,1037624095.56,4523907897.08
sh688369,致远互联,2020-01-02,58.99,60.32,58.84,59.95,58.76,1258048.0,74958219.0,1058637925.95,4615525500.85
sh688369,致远互联,2020-01-03,60.13,61.2,60.02,61.07,59.95,1227913.0,74379730.0,1078415648.67,4701753833.81
sh688369,致远互联,2020-01-06,60.55,61.87,60.13,60.13,61.07,1481512.0,90498999.0,1061816488.53,4629383625.79
sh688369,致远互联,2020-01-07,60.5,63.5,60.31,63.22,60.13,2178810.0,134790329.0,1116381812.82,4867281437.26
sh688369,致远互联,2020-01-08,61.99,63.5,61.87,62.15,63.22,1939792.0,121150682.0,1097487024.15,4784902583.45
sh688369,致远互联,2020-01-09,63.98,66.0,63.0,64.59,62.15,2417419.0,156489710.0,1140574205.79,4972757165.97
sh688369,致远互联,2020-01-10,66.99,67.38,64.3,64.34,64.59,2443231.0,160856794.0,1136159535.54,4953509770.22
sh688369,致远互联,2020-01-13,63.99,64.88,62.3,64.72,64.34,2288206.0,144903801.0,1142869834.32,4982765811.76
sh688369,致远互联,2020-01-14,65.01,66.0,64.01,64.59,64.72,1974708.0,128036977.0,1140574205.79,4972757165.97
sh688369,致远互联,2020-01-15,64.79,64.83,62.91,64.0,64.59,1500313.0,95721783.0,1130155584.0,4927333312.0
sh688369,致远互联,2020-01-16,64.0,66.0,63.51,65.71,64.0,2208797.0,143265783.0,1160351928.51,5058985498.93
sh688369,致远互联,2020-01-17,66.31,70.35,66.03,69.08,65.71,4205580.0,288280614.0,1219861683.48,5318440393.64
sh688369,致远互联,2020-01-20,69.18,70.99,66.22,69.78,69.08,3128487.0,215309064.0,1232222760.18,5372333101.74
sh688369,致远互联,2020-01-21,69.9,71.42,67.3,67.3,69.78,2267519.0,156927570.0,1188429231.3,5181398935.9
sh688369,致远互联,2020-01-22,67.3,68.85,65.0,68.2,67.3,2797754.0,186953409.0,1204322044.2,5250689560.6
sh688369,致远互联,2020-01-23,68.18,69.5,62.8,64.0,68.2,2754478.0,181347787.0,1130155584.0,4927333312.0
sh688369,致远互联,2020-02-03,58.6,68.2,58.6,66.31,64.0,5778973.0,368695043.0,1170947137.11,5105179248.73
sh688369,致远互联,2020-02-04,67.0,79.57,64.2,79.57,66.31,6198850.0,449610231.0,1405101247.17,6126061119.31
sh688369,致远互联,2020-02-05,86.11,94.48,84.42,90.85,79.57,8970702.0,790943033.0,1604291168.85,6994503615.55
sh688369,致远互联,2020-02-06,92.0,96.88,87.5,94.51,90.85,7491888.0,690729859.0,1668921941.31,7276285489.33
sh688369,致远互联,2020-02-07,95.0,98.29,90.1,94.51,94.51,6395980.0,600507626.0,1668921941.31,7276285489.33
sh688369,致远互联,2020-02-10,95.0,96.88,81.5,86.71,94.51,6558236.0,579431121.0,1531184229.51,6675766741.93
sh688369,致远互联,2020-02-11,86.68,86.68,79.4,80.3,86.71,4388764.0,359396811.0,1417992084.3,6182263514.9
sh688369,致远互联,2020-02-12,80.36,85.86,79.68,83.4,80.3,5458812.0,452466048.0,1472733995.4,6420931222.2
sh688369,致远互联,2020-02-13,85.0,85.0,79.0,81.68,83.4,4553039.0,373911304.0,1442361064.08,6288509139.44
sh688369,致远互联,2020-02-14,80.21,84.68,79.3,80.51,81.68,3514810.0,287950579.0,1421700407.31,6198431327.33
sh688369,致远互联,2020-02-17,80.98,83.72,80.22,82.1,80.51,3039197.0,250257239.0,1449777710.1,6320844764.3
sh688369,致远互联,2020-02-18,81.33,85.68,81.32,84.77,82.1,3799552.0,316589695.0,1496926388.37,6526406950.91
sh688369,致远互联,2020-02-19,83.21,84.2,79.8,79.8,84.77,3493887.0,284660548.0,1409162743.8,6143768723.4
sh688369,致远互联,2020-02-20,79.51,80.96,73.37,75.47,79.8,3508068.0,268367579.0,1332700655.07,5810403829.01
sh688369,致远互联,2020-02-21,75.4,79.71,75.4,76.9,75.47,2725555.0,211856832.0,1357952568.9,5920498932.7
sh688369,致远互联,2020-02-24,76.8,79.6,76.4,77.87,76.9,2277308.0,178154247.0,1375081489.47,5995178828.21
sh688369,致远互联,2020-02-25,75.52,79.12,73.68,79.0,77.87,2933779.0,226773008.0,1395035799.0,6082177057.0
sh688369,致远互联,2020-02-26,77.8,82.3,75.58,76.09,79.0,2727429.0,214581332.0,1343649037.29,5858137370.47
sh688369,致远互联,2020-02-27,78.54,83.83,76.16,81.33,76.09,4296780.0,346464735.0,1436180525.73,6261562785.39
sh688369,致远互联,2020-02-28,77.0,82.99,75.66,77.11,81.33,4069640.0,324427580.0,1361660891.91,5936666745.13
sh688369,致远互联,2020-03-02,79.0,80.49,74.03,79.75,77.11,3014403.0,233527193.0,1408279809.75,6139919244.25
sh688369,致远互联,2020-03-03,81.2,86.45,79.77,81.79,79.75,4002670.0,334054386.0,1444303518.99,6296977993.57
sh688369,致远互联,2020-03-04,80.11,83.0,78.12,81.44,81.79,2488757.0,200599417.0,1438122980.64,6270031639.52
sh688369,致远互联,2020-03-05,82.9,83.9,78.52,79.31,81.44,2564829.0,206238175.0,1400509990.11,6106043827.73
sh688369,致远互联,2020-03-06,77.01,77.88,75.08,75.68,79.31,2291165.0,174842310.0,1336408978.08,5826571641.44
sh688369,致远互联,2020-03-09,75.03,75.79,70.1,70.15,75.68,2038043.0,148106354.0,1238756472.15,5400819247.45
sh688369,致远互联,2020-03-10,70.15,73.26,69.11,73.08,70.15,1713522.0,122950075.0,1290496407.48,5626398725.64
sh688369,致远互联,2020-03-11,73.5,74.3,71.9,72.0,73.08,1630552.0,119048912.0,1271425032.0,5543249976.0
sh688369,致远互联,2020-03-12,70.98,71.9,69.2,70.52,72.0,1239478.0,87304009.0,1245290184.12,5429305393.16
sh688369,致远互联,2020-03-13,67.5,70.95,66.1,70.57,70.52,1536522.0,106297521.0,1246173118.17,5433154872.31
sh688369,致远互联,2020-03-16,72.01,75.5,68.23,68.88,70.57,2114223.0,154050658.0,1216329947.28,5303042477.04
sh688369,致远互联,2020-03-17,70.0,71.96,67.12,70.52,68.88,1349894.0,93752768.0,1245290184.12,5429305393.16
sh688369,致远互联,2020-03-18,70.6,73.26,68.55,68.66,70.52,1397732.0,99670326.0,1212445037.46,5286104768.78
sh688369,致远互联,2020-03-19,68.18,70.3,68.17,69.99,68.66,1214783.0,84214626.0,1235931083.19,5388500914.17
sh688369,致远互联,2020-03-20,70.43,71.5,68.61,70.26,69.99,919183.0,64292194.0,1240698927.06,5409288101.58
sh688369,致远互联,2020-03-23,69.0,69.01,63.45,63.67,70.26,1293671.0,85666729.0,1124328219.27,4901926749.61
sh688369,致远互联,2020-03-24,65.44,65.85,62.03,64.94,63.67,1085924.0,70027214.0,1146754744.14,4999703520.02
sh688369,致远互联,2020-03-25,66.66,67.49,65.73,66.7,64.94,900372.0,60013704.0,1177834022.7,5135205186.1
sh688369,致远互联,2020-03-26,66.03,66.69,64.13,65.16,66.7,707305.0,46290403.0,1150639653.96,5016641228.28
sh688369,致远互联,2020-03-27,65.5,66.29,63.0,63.2,65.16,683221.0,44144545.0,1116028639.2,4865741645.6
sh688369,致远互联,2020-03-30,62.6,62.6,58.21,59.71,63.2,1104771.0,65945761.0,1054399842.51,4597048000.93
sh688369,致远互联,2020-03-31,60.65,61.2,59.55,59.93,59.71,506933.0,30622460.0,1058284752.33,4613985709.19
sh688369,致远互联,2020-04-01,60.11,62.1,60.11,60.57,59.93,741805.0,45481516.0,1069586308.17,4663259042.31
sh688369,致远互联,2020-04-02,60.0,63.5,59.9,63.38,60.57,754236.0,46851507.0,1119207201.78,4879599770.54
sh688369,致远互联,2020-04-03,63.27,63.86,61.7,62.41,63.38,454912.0,28536327.0,1102078281.21,4804919875.03
sh688369,致远互联,2020-04-07,63.72,64.63,63.61,64.57,62.41,512746.0,32912018.0,1140221032.17,4971217374.31
sh688369,致远互联,2020-04-08,63.81,65.83,63.35,65.33,64.57,542160.0,35342631.0,1153641629.73,5029729457.39
sh688369,致远互联,2020-04-09,65.17,68.33,64.66,67.9,65.33,902781.0,59911509.0,1199024439.9,5227592685.7
sh688369,致远互联,2020-04-10,69.0,69.37,64.4,64.4,67.9,977113.0,65151503.0,1137219056.4,4958129145.2
sh688369,致远互联,2020-04-13,63.39,63.9,62.0,62.48,64.4,454952.0,28590232.0,1103314388.88,4810309145.84
sh688369,致远互联,2020-04-14,62.93,63.97,62.65,63.89,62.48,311194.0,19757400.0,1128213129.09,4918864457.87
sh688369,致远互联,2020-04-15,63.0,65.49,63.0,64.18,63.89,426656.0,27574942.0,1133334146.58,4941191436.94
sh688369,致远互联,2020-04-16,63.99,65.3,63.37,64.77,64.18,417538.0,27032221.0,1143752768.37,4986615290.91
sh688369,致远互联,2020-04-17,65.79,66.27,64.0,64.77,64.77,651325.0,42603350.0,1143752768.37,4986615290.91
sh688369,致远互联,2020-04-20,64.24,65.38,63.52,65.12,64.77,610054.0,39258317.0,1149933306.72,5013561644.96
sh688369,致远互联,2020-04-21,64.37,64.7,63.5,63.85,65.12,545411.0,34925824.0,1127506781.85,4915784874.55
sh688369,致远互联,2020-04-22,63.33,65.3,62.68,65.19,63.85,709775.0,45566039.0,1151169414.39,5018950915.77
sh688369,致远互联,2020-04-23,65.25,68.16,64.9,66.88,65.19,1195651.0,80119908.0,1181012585.28,5149063311.04
sh688369,致远互联,2020-04-24,66.7,68.83,66.35,67.21,66.88,969288.0,65427474.0,1186839950.01,5174469873.43
sh688369,致远互联,2020-04-27,66.37,67.28,65.44,66.45,67.21,707362.0,46867762.0,1173419352.45,5115957790.35
sh688369,致远互联,2020-04-28,64.7,65.4,59.0,60.2,66.45,1580045.0,96862850.0,1063052596.2,4634772896.6
sh688369,致远互联,2020-04-29,60.27,60.27,58.52,59.2,60.2,971810.0,57509016.0,1045393915.2,4557783313.6
sh688369,致远互联,2020-04-30,59.22,63.0,59.22,62.47,59.2,997155.0,61418767.0,1103137802.07,4809539250.01
sh688369,致远互联,2020-05-06,61.6,67.38,61.4,66.99,62.47,1754332.0,112811033.0,1235303638.8,5157532165.17
sh688369,致远互联,2020-05-07,66.96,67.8,65.7,67.35,66.99,1114086.0,74462856.0,1241942082.0,5185248415.05
sh688369,致远互联,2020-05-08,67.8,70.0,67.1,68.25,67.35,1269847.0,86961934.0,1258538190.0,5254539039.75
sh688369,致远互联,2020-05-11,68.5,68.61,66.4,67.09,68.25,893965.0,60322067.0,1237147650.8,5165231123.47
sh688369,致远互联,2020-05-12,66.5,66.95,65.29,66.19,67.09,831898.0,54945590.0,1220551542.8,5095940498.77
sh688369,致远互联,2020-05-13,65.99,67.78,65.43,66.66,66.19,932765.0,62083590.0,1229218399.2,5132125602.78
sh688369,致远互联,2020-05-14,66.21,67.49,66.21,66.98,66.66,932552.0,62389525.0,1235119237.6,5156762269.34
sh688369,致远互联,2020-05-15,67.3,68.8,66.66,67.15,66.98,1167187.0,79009552.0,1238254058.0,5169850498.45
sh688369,致远互联,2020-05-18,67.3,67.74,64.8,65.2,67.15,1084604.0,71939631.0,1202295824.0,5019720811.6
sh688369,致远互联,2020-05-19,65.42,66.72,65.42,66.41,65.2,692628.0,45864390.0,1224608369.2,5112878207.03
sh688369,致远互联,2020-05-20,66.85,68.88,65.7,67.1,66.41,1282093.0,86638927.0,1237332052.0,5166001019.3
sh688369,致远互联,2020-05-21,67.26,69.18,65.88,66.62,67.1,1132421.0,76587932.0,1228480794.4,5129046019.46
sh688369,致远互联,2020-05-22,67.37,69.76,67.37,68.51,66.62,2098872.0,143641704.0,1263332621.2,5274556331.33
sh688369,致远互联,2020-05-25,68.59,68.91,62.62,63.05,68.51,1843853.0,119341186.0,1162649566.0,4854193208.15
sh688369,致远互联,2020-05-26,63.11,65.0,63.11,65.0,63.05,831058.0,53454078.0,1198607800.0,5004322895.0
sh688369,致远互联,2020-05-27,65.0,65.36,63.53,64.01,65.0,671999.0,43163250.0,1180352081.2,4928103207.83
sh688369,致远互联,2020-05-28,63.71,64.26,61.31,62.9,64.01,835450.0,52385584.0,1159883548.0,4842644770.7
sh688369,致远互联,2020-05-29,62.3,64.16,62.3,63.72,62.9,608590.0,38692966.0,1175004446.4,4905776228.76
sh688369,致远互联,2020-06-01,64.5,67.39,64.05,67.08,63.72,1363701.0,90274742.0,1236963249.6,5164461227.64
sh688369,致远互联,2020-06-02,67.97,68.78,66.8,67.97,67.08,1275320.0,86612696.0,1253374956.4,5232981956.51
sh688369,致远互联,2020-06-03,68.45,69.3,67.3,67.54,67.97,1117052.0,76402319.0,1245445704.8,5199876435.82
sh688369,致远互联,2020-06-04,67.61,71.88,67.12,70.92,67.54,1855014.0,129695036.0,1307773310.4,5460101226.36
sh688369,致远互联,2020-06-05,70.95,71.78,69.66,70.28,70.92,1350721.0,95343119.0,1295971633.6,5410827893.24
sh688369,致远互联,2020-06-08,70.9,71.88,69.63,70.51,70.28,1197257.0,84701430.0,1300212861.2,5428535497.33
sh688369,致远互联,2020-06-09,70.58,71.27,68.43,68.95,70.51,1058380.0,73384290.0,1271446274.0,5308431747.85
sh688369,致远互联,2020-06-10,68.55,69.49,67.85,68.35,68.95,739959.0,50781755.0,1260382202.0,5262237998.05
sh688369,XD致远互,2020-06-11,68.0,70.45,67.41,68.39,67.95,941378.0,64972961.0,1261119806.8,5265317581.37
sh688369,致远互联,2020-06-12,67.0,67.96,66.66,67.4,68.39,663632.0,44576409.0,1242864088.0,5189097894.2
sh688369,致远互联,2020-06-15,67.04,68.69,66.64,67.17,67.4,707937.0,47890736.0,1238622860.4,5171390290.11
sh688369,致远互联,2020-06-16,67.88,70.16,67.72,70.1,67.17,1089861.0,75075348.0,1292652412.0,5396969768.3
sh688369,致远互联,2020-06-17,71.06,74.75,69.68,72.62,70.1,2151758.0,155076849.0,1339121514.4,5590983517.46
sh688369,致远互联,2020-06-18,71.8,72.57,69.51,70.59,72.62,1491681.0,105515036.0,1301688070.8,5434694663.97
sh688369,致远互联,2020-06-19,70.0,70.48,69.18,70.15,70.59,801793.0,56057424.0,1293574418.0,5400819247.45
sh688369,致远互联,2020-06-22,70.79,73.4,70.79,72.24,70.15,1471012.0,106588550.0,1332114268.8000002,5561727475.920001
sh688369,致远互联,2020-06-23,72.0,74.68,71.61,74.18,72.24,1332977.0,97937946.0,1367888101.6,5711087266.94
sh688369,致远互联,2020-06-24,74.0,78.48,73.8,77.39,74.18,2320745.0,177524302.0,1427080886.8,5958223828.37
sh688369,致远互联,2020-06-29,76.9,77.87,74.8,75.11,77.39,1540889.0,117156626.0,1385037413.2,5782687579.129999
sh688369,致远互联,2020-06-30,75.31,79.97,75.14,79.0,75.11,1697632.0,131951155.0,1456769480.0,6082177057.000001
sh688369,致远互联,2020-07-01,78.9,80.85,76.5,78.0,79.0,1487971.0,117002852.0,1438329359.9999998,6005187474.0
sh688369,致远互联,2020-07-02,78.33,78.65,75.55,76.28,78.0,1304977.0,99943399.0,1406612353.6,5872765391.24
sh688369,致远互联,2020-07-03,76.01,76.44,74.73,76.03,76.28,824323.0,62259474.0,1402002323.6,5853517995.49
sh688369,致远互联,2020-07-06,76.06,81.3,76.06,80.61,76.03,1624913.0,128045831.0,1486458073.1999998,6206130285.63
sh688369,致远互联,2020-07-07,79.85,84.2,79.0,82.53,80.61,1577003.0,129193895.0,1521863103.6,6353950284.99
sh688369,致远互联,2020-07-08,82.45,83.36,80.79,82.5,82.53,974141.0,79872150.0,1521309900.0,6351640597.5
sh688369,致远互联,2020-07-09,82.56,86.36,81.4,84.72,82.5,1642587.0,137556410.0,1562246966.4,6522557471.76
sh688369,致远互联,2020-07-10,84.0,86.8,82.71,83.42,84.72,1346572.0,113927049.0,1538274810.4,6422471013.860001
sh688369,致远互联,2020-07-13,82.72,85.1,82.0,84.11,83.42,1305199.0,109765204.0,1550998493.2,6475593826.13
sh688369,致远互联,2020-07-14,84.11,89.82,83.23,89.12,84.11,1903257.0,162724379.0,1643383494.4,6861311636.96
sh688369,致远互联,2020-07-15,88.5,88.5,79.0,79.0,89.12,2034592.0,167853734.0,1456769480.0,6082177057.000001
sh688369,致远互联,2020-07-16,79.05,81.37,75.88,76.6,79.0,1574009.0,123955725.0,1412513192.0,5897402057.799999
sh688369,致远互联,2020-07-17,76.3,79.97,74.4,77.14,76.6,874524.0,66971675.0,1422470856.8,5938976432.620001
sh688369,致远互联,2020-07-20,77.11,79.23,75.65,79.19,77.14,851326.0,65765138.0,1460273102.8,6096805077.77
sh688369,致远互联,2020-07-21,78.7,79.48,76.52,78.24,79.19,782082.0,60907067.0,1442754988.8,6023664973.92
sh688369,致远互联,2020-07-22,78.5,79.82,77.53,79.0,78.24,968654.0,76551403.0,1456769480.0,6082177057.000001
sh688369,致远互联,2020-07-23,78.5,79.78,74.27,75.03,79.0,1186798.0,90098265.0,1383562203.6,5776528412.490001
sh688369,致远互联,2020-07-24,74.0,74.25,67.92,68.19,75.03,1281921.0,91019897.0,1257431782.8,5249919664.77
sh688369,致远互联,2020-07-27,69.55,70.35,68.42,69.6,68.19,657886.0,45606054.0,1283432352.0,5358474976.8
sh688369,致远互联,2020-07-28,70.05,70.98,69.55,70.22,69.6,430442.0,30195125.0,1294865226.4,5406208518.26
sh688369,致远互联,2020-07-29,69.87,73.33,69.31,72.98,70.22,624766.0,44702549.0,1345759957.6,5618699767.34
sh688369,致远互联,2020-07-30,72.62,73.58,70.16,70.5,72.98,722975.0,52013561.0,1300028460.0,5427765601.5
sh688369,致远互联,2020-07-31,70.5,72.38,69.71,71.23,70.5,624548.0,44349558.0,1313489747.6,5483967997.09
sh688369,致远互联,2020-08-03,71.23,74.18,71.2,73.97,71.23,758457.0,55474138.0,1364015676.4,5694919454.51
sh688369,致远互联,2020-08-04,74.08,76.77,73.52,74.39,73.97,932226.0,70303985.0,1371760526.8,5727255079.37
sh688369,致远互联,2020-08-05,75.88,75.9,73.67,75.29,74.39,469117.0,35115166.0,1388356634.8,5796545704.070001
sh688369,致远互联,2020-08-06,75.27,76.29,72.99,76.2,75.29,624396.0,46833773.0,1405137144.0,5866606224.599999
sh688369,致远互联,2020-08-07,76.2,76.85,74.38,75.91,76.2,738724.0,56118048.0,1399789509.2,5844279245.53
sh688369,致远互联,2020-08-10,76.04,77.52,75.16,75.95,75.91,610938.0,46772780.0,1400527114.0,5847358828.849999
sh688369,致远互联,2020-08-11,75.51,75.53,71.45,71.45,75.95,769276.0,56382830.0,1317546574.0,5500905705.349999
sh688369,致远互联,2020-08-12,71.45,72.72,69.2,72.3,71.45,530468.0,37638251.0,1333220676.0,5566346850.900001
sh688369,致远互联,2020-08-13,72.36,73.02,71.72,72.61,72.3,213079.0,15452507.0,1338937113.2,5590213621.63
sh688369,致远互联,2020-08-14,72.61,73.54,71.35,73.05,72.61,275283.0,19965950.0,1347050766.0,5624089038.15
sh688369,致远互联,2020-08-17,72.62,74.46,71.53,73.75,73.05,291046.0,21452288.0,1359958850.0,5677981746.25
sh688369,致远互联,2020-08-18,73.75,74.53,73.08,74.2,73.75,409249.0,30231544.0,1368256904.0,5712627058.599999
sh688369,致远互联,2020-08-19,74.12,74.6,72.4,72.81,74.2,380725.0,27834493.0,1342625137.1999998,5605611538.2300005
sh688369,致远互联,2020-08-20,72.0,72.98,71.23,72.25,72.81,333499.0,24090543.0,1332298670.0,5562497371.75
sh688369,致远互联,2020-08-21,72.93,77.02,72.32,76.33,72.25,824289.0,62095704.0,1407534359.6,5876614870.39
sh688369,致远互联,2020-08-24,76.37,78.5,75.68,76.14,76.33,489542.0,37366209.0,1404030736.8,5861986849.62
sh688369,致远互联,2020-08-25,75.92,79.53,75.92,79.35,76.14,810308.0,63246149.0,1463223522.0,6109123411.05
sh688369,致远互联,2020-08-26,79.25,82.62,76.06,77.0,79.35,881600.0,69984367.0,1419889240.0,5928197891.000001
sh688369,致远互联,2020-08-27,80.3,82.13,78.11,78.52,77.0,955645.0,76098468.0,1447918222.4,6045222057.160001
sh688369,致远互联,2020-08-28,78.55,80.3,76.58,79.71,78.52,615426.0,48396274.0,1469861965.2,6136839660.93
sh688369,致远互联,2020-08-31,78.8,81.8,78.31,79.0,79.71,528463.0,42115660.0,1456769480.0,6082177057.000001
sh688369,致远互联,2020-09-01,79.0,82.0,78.21,80.65,79.0,549621.0,44126628.0,1487195678.0,6209209868.95
sh688369,致远互联,2020-09-02,81.45,84.2,79.89,83.76,80.65,723792.0,59249651.0,1544544451.1999998,6448647472.080001
sh688369,致远互联,2020-09-03,83.27,83.88,79.0,79.17,83.76,731594.0,59503424.0,1459904300.4,6095265286.110001
sh688369,致远互联,2020-09-04,76.52,79.25,76.52,77.2,79.17,723291.0,56173379.0,1423577264.0000002,5943595807.6
sh688369,致远互联,2020-09-07,77.3,78.5,75.56,76.02,77.2,598937.0,46027076.0,1401817922.4,5852748099.66
sh688369,致远互联,2020-09-08,75.96,76.68,73.55,75.66,76.02,453943.0,34096125.0,1395179479.2,5825031849.78
sh688369,致远互联,2020-09-09,75.21,75.21,71.32,73.16,75.66,492108.0,36002528.0,1349079179.2,5632557892.28
sh688369,致远互联,2020-09-10,73.14,74.3,70.53,70.67,73.16,413438.0,29884805.0,1303163280.4,5440853830.610001
sh688369,致远互联,2020-09-11,71.0,72.43,70.25,71.69,70.67,276855.0,19752874.0,1321972202.8000002,5519383205.27
sh688369,致远互联,2020-09-14,72.66,73.89,72.13,73.51,71.69,261254.0,19120894.0,1355533221.2,5659504246.330001
sh688369,致远互联,2020-09-15,73.51,74.34,73.06,74.16,73.51,196233.0,14472151.0,1367519299.2,5709547475.280001
sh688369,致远互联,2020-09-16,73.85,74.09,72.25,73.1,74.16,234809.0,17169099.0,1347972772.0,5627938517.3
sh688369,致远互联,2020-09-17,72.82,76.31,72.5,76.31,73.1,452187.0,33876761.0,1407165557.2,5875075078.73
sh688369,致远互联,2020-09-18,76.0,77.59,75.62,77.55,76.31,365969.0,28125718.0,1430031306.0,5970542161.65
sh688369,致远互联,2020-09-21,77.44,79.1,76.7,78.96,77.55,372511.0,29019597.0,1456031875.2,6079097473.679999
sh688369,致远互联,2020-09-22,78.0,79.3,76.81,77.67,78.96,740858.0,57739936.0,1432244120.4,5979780911.61
sh688369,致远互联,2020-09-23,78.11,81.94,77.41,81.66,77.67,808914.0,65028420.0,1505820199.1999998,6286969347.78
sh688369,致远互联,2020-09-24,81.03,82.18,80.27,80.9,81.66,477905.0,38739184.0,1491805707.9999998,6228457264.7
sh688369,致远互联,2020-09-25,80.95,82.87,79.08,80.65,80.9,535240.0,43351986.0,1487195678.0,6209209868.95
sh688369,致远互联,2020-09-28,81.27,81.52,77.68,78.06,80.65,364901.0,28756249.0,1439435767.2,6009806848.98
sh688369,致远互联,2020-09-29,79.62,81.79,78.29,80.55,78.06,557718.0,44913278.0,1485351666.0,6201510910.650001
sh688369,致远互联,2020-09-30,80.55,82.79,80.23,81.87,80.55,561019.0,45871614.0,1509692624.4,6303137160.209999
sh688369,致远互联,2020-10-09,81.0,83.88,81.0,83.12,81.87,732045.0,60895739.0,1532742774.4,6399374138.96
sh688369,致远互联,2020-10-12,83.68,84.2,82.34,83.01,83.12,635193.0,52766991.0,1530714361.2,6390905284.83
sh688369,致远互联,2020-10-13,82.5,83.9,82.2,82.96,83.01,402917.0,33428926.0,1529792355.1999998,6387055805.679999
sh688369,致远互联,2020-10-14,81.3,82.72,79.81,80.12,82.96,628779.0,50912236.0,1477422414.4,6168405389.96
sh688369,致远互联,2020-10-15,80.7,80.96,79.02,79.5,80.12,250075.0,19993955.0,1465989540.0,6120671848.5
sh688369,致远互联,2020-10-16,79.29,80.16,78.73,79.7,79.5,291420.0,23153830.0,1469677564.0000002,6136069765.099999
sh688369,致远互联,2020-10-19,79.97,79.98,75.28,75.75,79.7,442306.0,34171481.0,1396839090.0000002,5831960912.25
sh688369,致远互联,2020-10-20,75.28,76.7,74.53,76.41,75.75,374039.0,28268596.0,1409009569.2,5882774037.030001
sh688369,致远互联,2020-10-21,76.01,77.37,75.2,76.49,76.41,221145.0,16840772.0,1410484778.8,5888933203.669999
sh688369,致远互联,2020-10-22,75.0,76.97,74.98,75.78,76.49,173194.0,13158914.0,1397392293.6,5834270599.74
sh688369,致远互联,2020-10-23,75.76,76.43,74.12,74.16,75.78,209393.0,15780499.0,1367519299.2,5709547475.280001
sh688369,致远互联,2020-10-26,74.2,76.38,74.2,75.15,74.16,265974.0,20066320.0,1385775018.0,5785767162.45
sh688369,致远互联,2020-10-27,74.72,76.64,74.23,76.13,75.15,158391.0,11994015.0,1403846335.6,5861216953.79
sh688369,致远互联,2020-10-28,76.32,79.49,75.25,79.29,76.13,365649.0,28379137.0,1462117114.8,6104504036.07
sh688369,致远互联,2020-10-29,77.68,81.04,75.06,75.5,79.29,1008215.0,77859390.0,1392229060.0,5812713516.5
sh688369,致远互联,2020-10-30,75.0,76.25,73.18,73.32,75.5,571009.0,42564142.0,1352029598.4,5644876225.56
sh688369,致远互联,2020-11-02,72.53,74.3,69.18,69.5,73.32,1334762.0,94417268.0,4056694358.5,5350776018.5
sh688369,致远互联,2020-11-03,67.0,69.4,67.0,68.4,69.5,934121.0,63935658.0,3992487685.2,5266087477.2
sh688369,致远互联,2020-11-04,68.79,68.89,67.9,68.53,68.4,427555.0,29283837.0,4000075746.59,5276096122.990001
sh688369,致远互联,2020-11-05,69.1,70.99,68.27,68.5,68.53,766995.0,53004841.0,3998324655.5,5273786435.5
sh688369,致远互联,2020-11-06,68.9,70.5,68.52,69.22,68.5,704478.0,48956228.0,4040350841.66,5329218935.259999
sh688369,致远互联,2020-11-09,69.22,70.35,68.51,70.05,69.22,1064656.0,74446397.0,4088797695.15,5393120289.150001
sh688369,致远互联,2020-11-10,70.05,70.17,68.42,68.72,70.05,754499.0,52133695.0,4011165990.16,5290724143.759999
sh688369,致远互联,2020-11-11,68.31,68.71,67.03,67.6,68.72,488009.0,32999988.0,3945791922.8,5204495810.8
sh688369,致远互联,2020-11-12,67.6,68.29,67.32,68.06,67.6,347367.0,23592484.0,3972641986.18,5239911018.98
sh688369,致远互联,2020-11-13,68.03,69.51,67.39,69.39,68.06,629324.0,43247781.0,4050273691.17,5342307164.37
sh688369,致远互联,2020-11-16,70.9,70.9,68.85,70.06,69.39,734574.0,51299833.0,4089381392.18,5393890184.98
sh688369,致远互联,2020-11-17,69.98,70.28,69.1,69.93,70.06,521625.0,36299565.0,4081793330.79,5383881539.19
sh688369,致远互联,2020-11-18,69.45,71.01,69.45,70.12,69.93,717375.0,50493003.0,4092883574.36,5398509559.96
sh688369,致远互联,2020-11-19,70.31,70.33,69.12,69.7,70.12,450350.0,31406061.0,4068368299.1,5366173935.099999
sh688369,致远互联,2020-11-20,69.5,70.41,69.0,69.82,69.7,384538.0,26761781.0,4075372663.46,5375412685.06
sh688369,致远互联,2020-11-23,69.7,70.28,68.83,69.53,69.82,550328.0,38297971.0,4058445449.59,5353085705.99
sh688369,致远互联,2020-11-24,69.53,69.97,69.21,69.79,69.53,301895.0,21036934.0,4073621572.37,5373102997.57
sh688369,致远互联,2020-11-25,69.8,70.86,69.31,69.31,69.79,390649.0,27325877.0,4045604114.93,5336147997.73
sh688369,致远互联,2020-11-26,69.4,69.46,68.25,68.25,69.31,325632.0,22375237.0,3983732229.75,5254539039.75
sh688369,致远互联,2020-11-27,68.55,70.01,68.27,69.45,68.25,386659.0,26794878.0,4053775873.35,5346926539.349999
sh688369,致远互联,2020-11-30,69.03,70.23,69.03,69.63,69.45,249101.0,17379905.0,4064282419.89,5360784664.29
sh688369,致远互联,2020-12-01,69.64,69.99,68.5,69.5,69.63,490678.0,33979814.0,4056694358.5,5350776018.5
sh688369,致远互联,2020-12-02,69.88,69.88,69.06,69.07,69.5,462770.0,32131832.0,4031595386.21,5317670497.81
sh688369,致远互联,2020-12-03,69.07,70.9,68.35,70.05,69.07,969240.0,67583508.0,4088797695.15,5393120289.150001
sh688369,致远互联,2020-12-04,69.65,70.22,69.18,69.8,70.05,406330.0,28350388.0,4074205269.4,5373872893.400001
sh688369,致远互联,2020-12-07,70.19,72.3,69.63,71.69,69.8,995856.0,70972185.0,4184524008.07,5519383205.27
sh688369,致远互联,2020-12-08,71.38,75.99,71.38,74.52,71.69,1538060.0,114411735.0,4349710267.56,5737263725.16
sh688369,致远互联,2020-12-09,74.59,75.66,72.03,72.59,74.52,958714.0,70621154.0,4237056740.77,5588673829.97
sh688369,致远互联,2020-12-10,72.4,73.6,70.01,70.43,72.59,861382.0,62088150.0,4110978182.29,5422376330.69
sh688369,致远互联,2020-12-11,70.42,71.48,67.95,68.8,70.43,1100081.0,76443851.0,4015835566.4,5296883310.4
sh688369,致远互联,2020-12-14,68.79,70.51,68.04,69.47,68.8,577415.0,40191754.0,4054943267.41,5348466331.01
sh688369,致远互联,2020-12-15,69.5,70.4,69.0,69.81,69.47,449343.0,31297995.0,4074788966.43,5374642789.23
sh688369,致远互联,2020-12-16,70.0,70.67,68.61,68.99,69.81,394991.0,27375272.0,4026925809.97,5311511331.17
sh688369,致远互联,2020-12-17,69.34,69.62,68.53,69.4,68.99,439764.0,30358586.0,4050857388.2,5343077060.200001
sh688369,致远互联,2020-12-18,68.91,70.12,68.76,69.89,69.4,326144.0,22631450.0,4079458542.67,5380801955.87
sh688369,致远互联,2020-12-21,71.38,71.5,69.67,70.29,69.89,349406.0,24582580.0,4102806423.87,5411597789.07
sh688369,致远互联,2020-12-22,70.2,70.5,68.7,69.05,70.29,411090.0,28484530.0,4030427992.15,5316130706.15
sh688369,致远互联,2020-12-23,68.5,72.92,68.5,71.42,69.05,795875.0,56582806.0,4168764188.26,5498596017.86
sh688369,致远互联,2020-12-24,72.17,72.5,70.06,71.12,71.42,403518.0,28712186.0,4151253277.36,5475499142.96
sh688369,致远互联,2020-12-25,70.89,75.84,70.89,75.62,71.12,1090202.0,81015395.0,4413916940.86,5821952266.460001
sh688369,致远互联,2020-12-28,76.0,78.45,74.67,75.4,75.62,950972.0,72342553.0,4401075606.2,5805014558.200001
sh688369,致远互联,2020-12-29,74.56,76.95,73.0,76.8,75.4,1040507.0,78015528.0,4482793190.4,5912799974.4
sh688369,致远互联,2020-12-30,77.0,77.77,76.08,76.79,76.8,640578.0,49247141.0,4482209493.37,5912030078.57
sh688369,致远互联,2020-12-31,77.35,77.47,75.94,76.8,76.79,563335.0,43200055.0,4482793190.4,5912799974.4
sh688369,致远互联,2021-01-04,76.5,79.38,75.88,78.48,76.8,871168.0,67562435.0,4580854291.44,6042142473.84
sh688369,致远互联,2021-01-05,77.76,78.28,75.12,75.52,78.48,1026206.0,78467383.0,4408079970.559999,5814253308.16
sh688369,致远互联,2021-01-06,75.8,76.25,73.05,73.93,75.52,776199.0,57558344.0,4315272142.79,5691839871.190001
sh688369,致远互联,2021-01-07,73.35,74.42,69.92,70.66,73.93,1008861.0,72784953.0,4124403213.98,5440083934.78
sh688369,致远互联,2021-01-08,70.17,73.0,69.24,71.4,70.66,499129.0,35669655.0,4167596794.2,5497056226.200001
sh688369,致远互联,2021-01-11,70.89,71.18,68.7,68.9,71.4,1142721.0,79650861.0,4021672536.7,5304582268.7
sh688369,致远互联,2021-01-12,68.67,69.02,62.02,63.45,68.9,1682059.0,109234491.0,3703557655.35,4884989041.35
sh688369,致远互联,2021-01-13,63.0,63.98,61.05,61.4,63.45,825070.0,51193848.0,3583899764.2000003,4727160396.2
sh688369,致远互联,2021-01-14,61.28,64.46,61.0,61.99,61.4,710908.0,44540178.0,3618337888.97,4772584250.17
sh688369,致远互联,2021-01-15,62.63,65.7,61.6,65.14,61.99,805704.0,51090163.0,3802202453.42,5015101436.62
sh688369,致远互联,2021-01-18,64.5,65.0,63.51,64.25,65.14,578400.0,37052731.0,3750253417.75,4946580707.75
sh688369,致远互联,2021-01-19,64.2,64.49,62.48,62.63,64.25,603419.0,38185954.0,3655694498.89,4821857583.29
sh688369,致远互联,2021-01-20,62.05,62.58,61.01,61.66,62.63,700155.0,43080280.0,3599075886.98,4747177687.780001
sh688369,致远互联,2021-01-21,61.88,63.46,61.57,62.55,61.66,578266.0,36189820.0,3651024922.65,4815698416.650001
sh688369,致远互联,2021-01-22,63.0,63.0,60.8,62.5,62.55,654054.0,40415708.0,3648106437.5,4811848937.5
sh688369,致远互联,2021-01-25,62.5,63.25,58.88,61.23,62.5,1153163.0,70247329.0,3573976914.69,4714072167.09
sh688369,致远互联,2021-01-26,61.1,61.95,60.33,61.56,61.23,359850.0,22001170.0,3593238916.6800003,4739478729.48
sh688369,致远互联,2021-01-27,61.56,63.0,60.5,62.01,61.56,489167.0,30318654.0,3619505283.03,4774124041.83
sh688369,致远互联,2021-01-28,61.62,63.34,61.1,62.0,62.01,411861.0,25632358.0,3618921586.000001,4773354146.0
sh688369,致远互联,2021-01-29,62.2,62.47,59.96,60.51,62.0,564684.0,34282782.0,3531950728.53,4658639667.33
sh688369,致远互联,2021-02-01,59.93,61.16,59.36,60.82,60.51,259534.0,15721024.0,3550045336.46,4682506438.06
sh688369,致远互联,2021-02-02,60.0,60.9,59.88,60.08,60.82,277911.0,16768758.0,3506851756.24,4625534146.639999
sh688369,致远互联,2021-02-03,59.98,60.24,57.68,58.45,60.08,483292.0,28417175.0,3411709140.3500004,4500041126.35
sh688369,致远互联,2021-02-04,57.9,58.89,55.3,55.8,58.45,582975.0,32823397.0,3257029427.4,4296018731.4
sh688369,致远互联,2021-02-05,55.35,56.73,54.24,54.32,55.8,348765.0,19278379.0,3170642266.96,4182074148.56
sh688369,致远互联,2021-02-08,55.03,57.88,54.11,56.01,54.32,387633.0,21833594.0,3269287065.03,4312186543.83
sh688369,致远互联,2021-02-09,56.0,57.91,55.51,56.98,56.01,318616.0,18150481.0,3325905676.94,4386866439.34
sh688369,致远互联,2021-02-10,56.95,57.67,56.56,57.25,56.98,220402.0,12562463.0,3341665496.75,4407653626.75
sh688369,致远互联,2021-02-18,58.16,59.1,56.7,58.15,57.25,465659.0,27064146.0,3394198229.4500003,4476944251.45
sh688369,致远互联,2021-02-19,57.88,63.3,57.52,61.39,58.15,696238.0,42450433.0,3583316067.17,4726390500.37
sh688369,致远互联,2021-02-22,61.13,62.38,60.66,60.96,61.39,358871.0,21990836.0,3558217094.88,4693284979.68
sh688369,致远互联,2021-02-23,60.67,61.48,59.67,60.04,60.96,294812.0,17712941.0,3504516968.12,4622454563.32
sh688369,致远互联,2021-02-24,60.5,62.45,59.74,60.14,60.04,410991.0,25060159.0,3510353938.42,4630153521.62
sh688369,致远互联,2021-02-25,58.94,59.97,56.55,58.8,60.14,781898.0,45562442.0,3432138536.4,4526987480.4
sh688369,致远互联,2021-02-26,57.64,59.3,57.52,57.69,58.8,370081.0,21527937.0,3367348166.07,4441529043.27
sh688369,致远互联,2021-03-01,57.8,59.39,57.05,58.4,57.69,608813.0,35450211.0,3408790655.2,4496191647.2
sh688369,致远互联,2021-03-02,58.88,58.97,56.82,57.38,58.4,491138.0,28255446.0,3349253558.14,4417662272.54
sh688369,致远互联,2021-03-03,57.56,57.9,56.5,57.5,57.38,526104.0,29983253.0,3356257922.5,4426901022.5
sh688369,致远互联,2021-03-04,57.01,57.45,55.17,55.92,57.5,494015.0,27762875.0,3264033791.76,4305257481.36
sh688369,致远互联,2021-03-05,56.0,56.47,55.32,56.25,55.92,462974.0,25918935.0,3283295793.7499995,4330664043.75
sh688369,致远互联,2021-03-08,56.44,56.76,54.31,54.62,56.25,621394.0,34501325.0,3188153177.86,4205171023.460001
sh688369,致远互联,2021-03-09,54.62,54.94,50.82,51.1,54.62,685113.0,35932768.0,2982691823.3,3934167691.3
sh688369,致远互联,2021-03-10,51.8,51.8,49.92,51.13,51.1,836612.0,42388063.0,2984442914.39,3936477378.79
sh688369,致远互联,2021-03-11,51.2,55.55,50.38,55.36,51.13,1121301.0,59954249.0,3231346758.0800004,4262143314.88
sh688369,致远互联,2021-03-12,55.38,55.88,53.1,55.81,55.36,706027.0,38514657.0,3257613124.43,4296788627.23
sh688369,致远互联,2021-03-15,55.3,57.3,54.5,56.49,55.81,532392.0,29622675.0,3297304522.4700003,4349141543.67
sh688369,致远互联,2021-03-16,56.33,57.98,55.93,57.6,56.49,487700.0,27856390.0,3362094892.8,4434599980.8
sh688369,致远互联,2021-03-17,58.6,58.99,56.81,57.6,57.6,246954.0,14177529.0,3362094892.8,4434599980.8
sh688369,致远互联,2021-03-18,57.51,57.8,56.32,57.67,57.6,457246.0,26059695.0,3366180772.01,4439989251.61
sh688369,致远互联,2021-03-19,57.0,58.64,56.65,58.25,57.67,298636.0,17350333.0,3400035199.75,4484643209.75
sh688369,致远互联,2021-03-22,58.1,60.29,58.1,60.19,58.25,574741.0,34127113.0,3513272423.57,4634003000.77
sh688369,致远互联,2021-03-23,59.85,60.72,59.25,59.3,60.19,328422.0,19572900.0,3461323387.9,4565482271.9
sh688369,致远互联,2021-03-24,58.67,59.58,58.08,58.85,59.3,255616.0,14975083.0,3435057021.55,4530836959.55
sh688369,致远互联,2021-03-25,57.7,59.8,57.7,59.21,58.85,242898.0,14339086.0,3456070114.63,4558553209.43
sh688369,致远互联,2021-03-26,59.2,60.25,58.41,60.2,59.21,258035.0,15384740.0,3513856120.6,4634772896.6
sh688369,致远互联,2021-03-29,59.99,60.32,59.59,59.6,60.2,246682.0,14768684.0,3478834298.8,4588579146.8
sh688369,致远互联,2021-03-30,60.09,60.15,59.13,59.28,59.6,203764.0,12143895.0,3460155993.84,4563942480.24
sh688369,致远互联,2021-03-31,59.0,60.0,57.81,59.3,59.28,386298.0,22700779.0,3461323387.9,4565482271.9
sh688369,致远互联,2021-04-01,59.22,60.42,57.58,59.89,59.3,408837.0,24137354.0,3495761512.67,4610906125.87
sh688369,致远互联,2021-04-02,59.15,60.98,58.86,60.58,59.89,270958.0,16379679.0,3536036607.74,4664028938.14
sh688369,致远互联,2021-04-06,60.58,61.36,60.31,60.7,60.58,125919.0,7655159.0,3543040972.1,4673267688.099999
sh688369,致远互联,2021-04-07,61.66,61.77,60.02,60.79,60.7,292048.0,17660808.0,3548294245.3700004,4680196750.57
sh688369,致远互联,2021-04-08,60.59,61.24,60.09,60.79,60.79,158542.0,9635828.0,3548294245.3700004,4680196750.57
sh688369,致远互联,2021-04-09,60.2,60.95,59.72,60.77,60.79,243230.0,14685767.0,3547126851.31,4678656958.91
sh688369,致远互联,2021-04-12,60.43,60.6,59.26,60.36,60.77,215604.0,12950279.0,3523195273.0800004,4647091229.88
sh688369,致远互联,2021-04-13,59.63,60.6,58.66,59.39,60.36,218005.0,12994418.0,3466576661.17,4572411334.37
sh688369,致远互联,2021-04-14,59.39,59.59,58.71,58.88,59.39,220567.0,13053384.0,3436808112.6400003,4533146647.04
sh688369,致远互联,2021-04-15,58.15,59.21,57.09,58.96,58.88,468846.0,27303586.0,3441477688.88,4539305813.68
sh688369,致远互联,2021-04-16,58.33,59.16,57.6,58.78,58.96,519703.0,30421909.0,3430971142.34,4525447688.74
sh688369,致远互联,2021-04-19,58.78,60.57,57.75,59.0,58.78,614068.0,36140990.0,3443812477.0,4542385397.0
sh688369,致远互联,2021-04-20,58.78,59.33,57.84,58.14,59.0,428265.0,25008688.0,3393614532.42,4476174355.62
sh688369,致远互联,2021-04-21,57.99,59.56,55.89,59.05,58.14,832155.0,47813651.0,3446730962.15,4546234876.15
sh688369,致远互联,2021-04-22,59.0,60.7,58.35,58.68,59.05,326615.0,19483750.0,3425134172.04,4517748730.440001
sh688369,致远互联,2021-04-23,58.68,58.68,56.8,57.2,58.68,269846.0,15532830.0,3338747011.6,4403804147.6
sh688369,致远互联,2021-04-26,57.56,59.87,56.54,58.07,57.2,345652.0,20147140.0,3389528653.21,4470785084.81
sh688369,致远互联,2021-04-27,57.73,58.77,56.74,57.28,58.07,157941.0,9049709.0,3343416587.84,4409963314.24
sh688369,致远互联,2021-04-28,56.61,56.94,54.92,55.9,57.28,455804.0,25501565.0,3262866397.7000003,4303717689.7
sh688369,致远互联,2021-04-29,56.29,56.48,55.0,55.55,55.9,205432.0,11470588.0,3242437001.65,4276771335.65
sh688369,致远互联,2021-04-30,55.43,56.41,55.41,56.2,55.55,197682.0,11071051.0,3280377308.6,4326814564.6
sh688369,致远互联,2021-05-06,56.93,59.07,56.21,58.25,56.2,324041.0,18579191.0,3400035199.75,4484643209.75
sh688369,致远互联,2021-05-07,58.0,58.31,56.7,56.77,58.25,147672.0,8481037.0,3313648039.31,4370698626.91
sh688369,致远互联,2021-05-10,57.07,57.07,54.92,55.59,56.77,320127.0,17791955.0,3244771789.77,4279850918.97
sh688369,致远互联,2021-05-11,55.9,58.59,55.06,57.99,55.59,439278.0,25233075.0,3384859076.9700003,4464625918.17
sh688369,致远互联,2021-05-12,57.2,59.88,57.12,59.67,57.99,414908.0,24437591.0,3482920178.01,4593968417.61
sh688369,致远互联,2021-05-13,59.02,59.44,57.78,58.0,59.67,382175.0,22379609.0,3385442774.0,4465395814.0
sh688369,致远互联,2021-05-14,58.67,58.88,57.71,58.39,58.0,218938.0,12727146.0,3408206958.17,4495421751.37
sh688369,致远互联,2021-05-17,57.38,58.44,57.38,57.63,58.39,167468.0,9660749.0,3363845983.89,4436909668.29
sh688369,致远互联,2021-05-18,58.08,58.34,57.5,58.03,57.63,222692.0,12914374.0,3387193865.09,4467705501.49
sh688369,致远互联,2021-05-19,57.77,58.32,56.4,56.48,58.03,482843.0,27602722.0,3296720825.44,4348371647.84
sh688369,致远互联,2021-05-20,56.55,56.71,55.66,55.9,56.48,400971.0,22503943.0,3262866397.7000003,4303717689.7
sh688369,致远互联,2021-05-21,56.02,57.93,55.58,57.07,55.9,299273.0,17066373.0,3331158950.21,4393795501.81
sh688369,致远互联,2021-05-24,56.8,59.0,56.5,58.5,57.07,444202.0,25893763.0,3414627625.5,4503890605.5
sh688369,致远互联,2021-05-25,58.09,59.28,57.95,58.67,58.5,253781.0,14860355.0,3424550475.01,4516978834.61
sh688369,致远互联,2021-05-26,58.97,59.24,58.0,58.13,58.67,256290.0,14981510.0,3393030835.3900003,4475404459.79
sh688369,致远互联,2021-05-27,58.15,59.99,57.88,59.67,58.13,578269.0,34347431.0,3482920178.01,4593968417.61
sh688369,致远互联,2021-05-28,59.2,60.28,59.0,59.42,59.67,310959.0,18550127.0,3468327752.26,4574721021.86
sh688369,致远互联,2021-05-31,59.35,60.99,59.16,59.9,59.42,410474.0,24694556.0,3496345209.7000003,4611676021.7
sh688369,致远互联,2021-06-01,60.2,61.7,59.56,61.06,59.9,584733.0,35689122.0,3564054065.18,4700983937.9800005
sh688369,致远互联,2021-06-02,61.25,63.18,61.0,61.36,61.06,697796.0,43319918.0,3581564976.08,4724080812.88
sh688369,致远互联,2021-06-03,61.5,62.56,60.5,60.55,61.36,309347.0,18951627.0,3534285516.65,4661719250.650001
sh688369,致远互联,2021-06-04,60.5,61.27,59.9,60.93,60.55,199360.0,12102204.0,3556466003.79,4690975292.190001
sh688369,致远互联,2021-06-07,60.98,62.4,60.82,61.52,60.93,285259.0,17567519.0,3590904128.56,4736399146.16
sh688369,XD致远互,2021-06-08,61.61,62.49,60.46,62.39,61.07,592457.0,36688806.0,3641685770.17,4803380083.37
sh688369,致远互联,2021-06-09,62.4,64.2,61.88,62.55,62.39,530742.0,33529225.0,3651024922.65,4815698416.650001
sh688369,致远互联,2021-06-10,62.5,69.47,61.61,68.59,62.55,1542690.0,102743942.0,4003577928.77,5280715497.97
sh688369,致远互联,2021-06-11,71.0,73.8,68.59,69.69,68.59,1952978.0,139694149.0,4067784602.07,5365404039.27
sh688369,致远互联,2021-06-15,68.5,70.78,65.3,66.0,69.69,998502.0,67206066.0,3852400398.000001,5081312478.0
sh688369,致远互联,2021-06-16,65.58,66.5,63.8,64.07,66.0,674062.0,43736882.0,3739746871.21,4932722582.81
sh688369,致远互联,2021-06-17,64.7,66.13,64.02,65.8,64.07,571470.0,37301895.0,3840726457.4,5065914561.400001
sh688369,致远互联,2021-06-18,65.1,66.0,63.35,64.29,65.8,583151.0,37379033.0,3752588205.87,4949660291.07
sh688369,致远互联,2021-06-21,64.94,65.98,64.0,65.56,64.29,507622.0,33201837.0,3826717728.68,5047437061.4800005
sh688369,致远互联,2021-06-22,65.99,66.0,63.01,63.42,65.56,480093.0,30696769.0,3701806564.26,4882679353.860001
sh688369,致远互联,2021-06-23,63.7,64.48,62.61,64.0,63.42,341402.0,21652141.0,3735660992.0,4927333312.0
sh688369,致远互联,2021-06-24,63.88,63.88,62.31,63.03,64.0,329284.0,20713326.0,3679042380.09,4852653416.49
sh688369,致远互联,2021-06-25,62.76,63.52,61.38,62.59,63.03,334376.0,20766038.0,3653359710.770001,4818777999.97
sh688369,致远互联,2021-06-28,62.11,63.36,61.14,63.0,62.59,388776.0,24118620.0,3677291289.0,4850343729.0
sh688369,致远互联,2021-06-29,62.84,63.59,61.6,63.05,63.0,368891.0,23099192.0,3680209774.15,4854193208.15
sh688369,致远互联,2021-06-30,63.05,64.66,63.04,63.9,63.05,292880.0,18764077.0,3729824021.7,4919634353.7
sh688369,致远互联,2021-07-01,64.0,64.73,62.47,62.98,63.9,291918.0,18583064.0,3676123894.94,4848803937.34
sh688369,致远互联,2021-07-02,62.15,63.44,62.11,63.1,62.98,130961.0,8222195.0,3683128259.3,4858042687.3
sh688369,致远互联,2021-07-05,63.91,64.97,62.73,63.62,63.1,283818.0,18198221.0,3713480504.86,4898077270.46
sh688369,致远互联,2021-07-06,63.11,65.87,62.57,65.46,63.62,845955.0,54551574.0,3820880758.38,5039738103.179999
sh688369,致远互联,2021-07-07,64.92,67.5,63.79,66.84,65.46,812292.0,53679789.0,3901430948.52,5145983727.719999
sh688369,致远互联,2021-07-08,67.23,69.78,66.43,68.65,66.84,821036.0,56056010.0,4007080110.95,5285334872.95
sh688369,致远互联,2021-07-09,68.3,69.19,66.62,68.63,68.65,833198.0,56595597.0,4005912716.89,5283795081.29
sh688369,致远互联,2021-07-12,68.02,69.88,68.02,69.39,68.63,722156.0,49964366.0,4050273691.17,5342307164.37
sh688369,致远互联,2021-07-13,69.02,70.5,68.11,68.68,69.39,492115.0,33833318.0,4008831202.04,5287644560.44
sh688369,致远互联,2021-07-14,67.38,68.45,67.0,67.77,68.68,426059.0,28857892.0,3955714772.31,5217584039.91
sh688369,致远互联,2021-07-15,68.3,68.3,65.53,66.99,67.77,409208.0,27244888.0,3910186403.97,5157532165.17
sh688369,致远互联,2021-07-16,69.69,69.96,66.02,67.35,66.99,390482.0,26649444.0,3931199497.05,5185248415.05
sh688369,致远互联,2021-07-19,67.7,67.7,65.3,65.63,67.35,435294.0,28709738.0,3830803607.89,5052826332.29
sh688369,致远互联,2021-07-20,66.43,69.18,64.0,68.35,65.63,546854.0,36544354.0,3989569200.05,5262237998.049999
sh688369,致远互联,2021-07-21,68.2,69.3,67.41,67.56,68.35,372589.0,25303939.0,3943457134.68,5201416227.4800005
sh688369,致远互联,2021-07-22,67.58,69.58,65.5,69.0,67.56,583719.0,39567745.0,4027509507.0,5312281226.999999
sh688369,致远互联,2021-07-23,68.85,68.87,66.55,66.55,69.0,346969.0,23357585.0,3884503734.65,5123656748.65
sh688369,致远互联,2021-07-26,67.48,67.57,63.25,63.56,66.55,353257.0,22898757.0,3709978322.68,4893457895.48
sh688369,致远互联,2021-07-27,64.6,65.2,63.33,63.33,63.56,379602.0,24333273.0,3696553290.99,4875750291.39
sh688369,致远互联,2021-07-28,63.68,63.78,57.0,58.56,63.33,644370.0,38811293.0,3418129807.6800003,4508509980.48
sh688369,致远互联,2021-07-29,59.0,60.68,57.61,58.49,58.56,816862.0,48310005.0,3414043928.47,4503120709.67
sh688369,致远互联,2021-07-30,58.32,58.8,56.2,58.0,58.49,772888.0,44470734.0,3385442774.0,4465395814.0
sh688369,致远互联,2021-08-02,57.91,60.39,56.98,60.2,58.0,467065.0,27842232.0,3513856120.6,4634772896.6
sh688369,致远互联,2021-08-03,60.34,61.5,59.17,59.97,60.2,287105.0,17332530.0,3500431088.91,4617065292.51
sh688369,致远互联,2021-08-04,59.1,60.45,58.4,59.96,59.97,297251.0,17683934.0,3499847391.88,4616295396.68
sh688369,致远互联,2021-08-05,59.96,63.93,59.6,63.15,59.96,689891.0,42784967.0,3686046744.45,4861892166.45
sh688369,致远互联,2021-08-06,62.12,67.85,62.12,67.2,63.15,1225959.0,81185023.0,3922444041.6,5173699977.6
sh688369,致远互联,2021-08-09,73.0,80.64,73.0,78.0,67.2,6034451.0,476064053.0,4552836834.0,6005187474.0
sh688369,致远互联,2021-08-10,77.9,78.82,74.0,75.6,78.0,4675199.0,360393072.0,4412749546.8,5820412474.8
sh688369,致远互联,2021-08-11,76.77,80.0,74.56,74.85,75.6,3271183.0,252565002.0,4368972269.55,5762670287.55
sh688369,致远互联,2021-08-12,75.9,76.99,72.5,73.6,74.85,2025078.0,150202920.0,4296010140.8,5666433308.8
sh688369,致远互联,2021-08-13,73.88,75.0,69.31,71.0,73.6,2195428.0,156739017.0,4144248913.0,5466260392.999999
sh688369,致远互联,2021-08-16,71.0,72.98,70.0,71.55,71.0,921303.0,65843838.0,4176352249.65,5508604663.65
sh688369,致远互联,2021-08-17,72.38,73.05,70.82,71.2,71.55,1152005.0,82928953.0,4155922853.6,5481658309.6
sh688369,致远互联,2021-08-18,70.52,72.35,68.32,71.2,71.2,1071586.0,75310035.0,4155922853.6,5481658309.6
sh688369,致远互联,2021-08-19,70.12,73.0,70.12,72.07,71.2,557943.0,39926496.0,4206704495.21,5548639246.809999
sh688369,致远互联,2021-08-20,71.55,71.86,69.13,70.83,72.07,630458.0,44349270.0,4134326063.49,5453172163.889999
sh688369,致远互联,2021-08-23,71.0,73.4,70.45,72.82,70.83,887650.0,64261922.0,4250481772.46,5606381434.059999
sh688369,致远互联,2021-08-24,73.45,76.86,72.82,75.08,72.82,1564884.0,117838202.0,4382397301.24,5780377891.639999
sh688369,致远互联,2021-08-25,74.9,79.44,73.6,75.6,75.08,1706380.0,130929070.0,4412749546.8,5820412474.8
sh688369,致远互联,2021-08-26,75.98,76.04,70.93,71.6,75.6,1205815.0,88086548.0,4179270734.8,5512454142.8
sh688369,致远互联,2021-08-27,70.9,72.88,69.71,71.83,71.6,702912.0,50007475.0,4192695766.49,5530161746.89
sh688369,致远互联,2021-08-30,72.83,74.69,72.32,73.88,71.83,1070513.0,78823677.0,4312353657.64,5687990392.04
sh688369,致远互联,2021-08-31,73.88,74.46,70.61,71.43,73.88,630827.0,45402966.0,4169347885.29,5499365913.690001
sh688369,致远互联,2021-09-01,72.36,72.7,70.07,71.76,71.43,793314.0,56886436.0,4188609887.28,5524772476.08
sh688369,致远互联,2021-09-02,71.0,72.06,70.09,71.04,71.76,386630.0,27474680.0,4146583701.12,5469339976.32
sh688369,致远互联,2021-09-03,70.53,72.0,69.0,69.95,71.04,644915.0,45118960.0,4082960724.85,5385421330.849999
sh688369,致远互联,2021-09-06,69.95,71.48,68.11,69.86,69.95,670581.0,46488458.0,4077707451.58,5378492268.38
sh688369,致远互联,2021-09-07,69.86,71.86,69.67,71.35,69.86,657108.0,46532763.0,4164678309.05,5493206747.05
sh688369,致远互联,2021-09-08,71.31,71.66,69.0,70.08,71.35,474015.0,33419292.0,4090548786.24,5395429976.64
sh688369,致远互联,2021-09-09,70.0,70.24,68.28,68.4,70.08,465145.0,32091138.0,3992487685.2,5266087477.2
sh688369,致远互联,2021-09-10,68.02,69.11,67.03,67.72,68.4,636374.0,43143594.0,3952796287.16,5213734560.76
sh688369,致远互联,2021-09-13,68.64,68.99,65.11,65.49,67.72,764982.0,50390385.0,3822631849.47,5042047790.67
sh688369,致远互联,2021-09-14,65.11,67.69,65.09,66.0,65.49,515070.0,34332882.0,3852400398.000001,5081312478.0
sh688369,致远互联,2021-09-15,65.9,66.88,65.36,66.08,66.0,409961.0,27087068.0,3857069974.24,5087471644.639999
sh688369,致远互联,2021-09-16,65.9,66.63,63.91,64.07,66.08,443991.0,28781933.0,3739746871.21,4932722582.81
sh688369,致远互联,2021-09-17,64.28,64.66,62.8,64.0,64.07,265434.0,16894079.0,3735660992.0,4927333312.0
sh688369,致远互联,2021-09-22,64.18,64.96,62.71,62.98,64.0,327427.0,20762252.0,3676123894.94,4848803937.34
sh688369,致远互联,2021-09-23,62.96,63.85,62.78,62.97,62.98,379137.0,23973254.0,3675540197.91,4848034041.51
sh688369,致远互联,2021-09-24,63.48,64.2,62.29,63.73,62.97,327734.0,20795840.0,3719901172.19,4906546124.59
sh688369,致远互联,2021-09-27,64.69,64.97,62.33,63.15,63.73,473011.0,30097850.0,3686046744.45,4861892166.45
sh688369,致远互联,2021-09-28,63.0,64.38,62.31,63.89,63.15,293867.0,18694607.0,3729240324.67,4918864457.87
sh688369,致远互联,2021-09-29,63.67,64.21,61.68,62.61,63.89,403307.0,25350612.0,3654527104.83,4820317791.63
sh688369,致远互联,2021-09-30,62.43,64.31,61.86,63.35,62.61,221352.0,14045490.0,3697720685.05,4877290083.05
sh688369,致远互联,2021-10-08,62.0,63.88,61.86,62.48,63.35,338764.0,21253315.0,3646939043.44,4810309145.84
sh688369,致远互联,2021-10-11,62.48,63.89,62.04,62.67,62.48,205101.0,12888748.0,3658029287.01,4824937166.61
sh688369,致远互联,2021-10-12,62.3,62.33,60.32,61.12,62.67,275628.0,16855393.0,3567556247.36,4705603312.96
sh688369,致远互联,2021-10-13,61.51,61.89,60.68,61.36,61.12,118069.0,7223423.0,3581564976.08,4724080812.88
sh688369,致远互联,2021-10-14,61.82,61.82,60.88,61.51,61.36,179117.0,10957550.0,3590320431.53,4735629250.33
sh688369,致远互联,2021-10-15,61.52,62.9,60.91,61.81,61.51,180118.0,11178420.0,3607831342.43,4758726125.23
sh688369,致远互联,2021-10-18,60.19,62.31,59.49,61.74,61.81,343818.0,20830013.0,3603745463.22,4753336854.42
sh688369,致远互联,2021-10-19,61.7,64.99,61.02,62.0,61.74,721775.0,45668050.0,3618921586.000001,4773354146.0
sh688369,致远互联,2021-10-20,62.13,63.65,62.0,62.0,62.0,366706.0,23025567.0,3618921586.000001,4773354146.0
sh688369,致远互联,2021-10-21,61.11,63.19,61.11,61.96,62.0,173306.0,10780161.0,3616586797.88,4770274562.68
sh688369,致远互联,2021-10-22,62.43,62.43,60.63,61.07,61.96,222488.0,13619766.0,3564637762.21,4701753833.81
sh688369,致远互联,2021-10-25,61.31,61.31,58.88,59.45,61.07,388823.0,23231669.0,3470078843.35,4577030709.35
sh688369,致远互联,2021-10-26,59.96,60.77,58.82,59.54,59.45,207412.0,12431812.0,3475332116.62,4583959771.82
sh688369,致远互联,2021-10-27,59.32,60.11,58.02,58.5,59.54,299104.0,17534137.0,3414627625.5,4503890605.5
sh688369,致远互联,2021-10-28,57.85,58.04,55.76,55.82,58.5,516973.0,29160524.0,3258196821.46,4297558523.06
sh688369,致远互联,2021-10-29,55.22,57.34,55.22,56.99,55.82,310835.0,17626625.0,3326489373.97,4387636335.17
sh688369,致远互联,2021-11-01,58.13,60.97,57.42,59.27,56.99,383752.0,22855243.0,3507573884.4100003,4563172584.41
sh688369,致远互联,2021-11-02,58.78,60.4,58.78,59.3,59.27,332833.0,19861283.0,3509349271.9,4565482271.9
sh688369,致远互联,2021-11-03,59.11,59.98,57.02,57.57,59.3,406788.0,23562265.0,3406968593.31,4432290293.31
sh688369,致远互联,2021-11-04,57.64,59.78,57.58,59.22,57.57,282662.0,16638078.0,3504614905.26,4559323105.26
sh688369,致远互联,2021-11-05,59.11,60.37,58.58,59.87,59.22,272485.0,16240198.0,3543081634.21,4609366334.21
sh688369,致远互联,2021-11-08,60.56,60.56,58.42,59.43,59.87,297538.0,17637524.0,3517042617.69,4575490917.69
sh688369,致远互联,2021-11-09,59.71,59.71,58.5,59.6,59.43,209699.0,12458627.0,3527103146.8,4588579146.8
sh688369,致远互联,2021-11-10,59.59,59.75,58.5,59.6,59.6,253435.0,15000760.0,3527103146.8,4588579146.8
sh688369,致远互联,2021-11-11,59.87,61.26,59.07,61.14,59.6,433515.0,26207130.0,3618239704.62,4707143104.62
sh688369,致远互联,2021-11-12,60.45,60.87,59.25,59.86,61.14,534249.0,31936235.0,3542489838.38,4608596438.38
sh688369,致远互联,2021-11-15,59.86,61.8,59.86,60.9,59.86,765625.0,46472883.0,3604036604.7,4688665604.7
sh688369,致远互联,2021-11-16,60.8,61.4,60.18,60.91,60.9,439480.0,26800893.0,3604628400.53,4689435500.53
sh688369,致远互联,2021-11-17,60.55,61.6,60.53,61.55,60.91,403280.0,24684440.0,3642503333.65,4738708833.650001
sh688369,致远互联,2021-11-18,61.8,62.85,60.58,60.66,61.55,371051.0,22814739.0,3589833504.78,4670188104.780001
sh688369,致远互联,2021-11-19,60.33,61.48,60.33,61.11,60.66,429762.0,26231351.0,3616464317.13,4704833417.13
sh688369,致远互联,2021-11-22,61.16,62.0,60.11,60.82,61.11,521479.0,31730531.0,3599302238.0600004,4682506438.06
sh688369,致远互联,2021-11-23,60.62,61.58,60.21,61.04,60.82,441786.0,26843911.0,3612321746.3199997,4699444146.320001
sh688369,致远互联,2021-11-24,60.99,61.3,60.41,60.65,61.04,324850.0,19749171.0,3589241708.95,4669418208.95
sh688369,致远互联,2021-11-25,60.92,61.56,60.6,60.66,60.65,377229.0,23012221.0,3589833504.78,4670188104.780001
sh688369,致远互联,2021-11-26,60.99,60.99,58.88,59.38,60.66,514500.0,30594531.0,3514083638.54,4571641438.54
sh688369,致远互联,2021-11-29,58.5,59.65,58.5,58.83,59.38,376243.0,22208689.0,3481534867.89,4529297167.89
sh688369,致远互联,2021-11-30,59.0,60.45,59.0,59.91,58.83,532829.0,31915421.0,3545448817.53,4612445917.53
sh688369,致远互联,2021-12-01,60.35,66.37,60.0,63.89,59.91,2303038.0,148404119.0,3780983557.87,4918864457.87
sh688369,致远互联,2021-12-02,64.2,64.2,62.07,62.61,63.89,917028.0,57774278.0,3705233691.63,4820317791.63
sh688369,致远互联,2021-12-03,62.63,63.59,61.23,61.85,62.61,701333.0,43440985.0,3660257208.55,4761805708.55
sh688369,致远互联,2021-12-06,61.71,61.79,59.85,60.78,61.85,950635.0,57620092.0,3596935054.7400002,4679426854.74
sh688369,致远互联,2021-12-07,61.3,61.3,59.04,59.55,60.78,502092.0,29892568.0,3524144167.6499996,4584729667.650001
sh688369,致远互联,2021-12-08,60.0,63.5,59.37,62.9,59.55,1197242.0,74631737.0,3722395770.7,4842644770.7
sh688369,致远互联,2021-12-09,63.76,67.56,62.9,66.85,62.9,2035340.0,135548802.0,3956155123.55,5146753623.55
sh688369,致远互联,2021-12-10,67.8,67.8,63.76,64.21,66.85,1316023.0,85652039.0,3799921024.4300003,4943501124.43
sh688369,致远互联,2021-12-13,64.99,66.29,63.9,65.08,64.21,928669.0,60526380.0,3851407261.64,5010482061.639999
sh688369,致远互联,2021-12-14,65.08,68.54,64.51,67.6,65.08,1058071.0,70925580.0,4000539810.8,5204495810.8
sh688369,致远互联,2021-12-15,67.15,68.39,65.7,66.15,67.6,837318.0,55822964.0,3914729415.4500003,5092860915.45
sh688369,致远互联,2021-12-16,66.0,67.28,65.84,66.58,66.15,395060.0,26323171.0,3940176636.1400003,5125966436.14
sh688369,致远互联,2021-12-17,66.58,68.38,65.0,67.66,66.58,1031196.0,69209160.0,4004090585.7799997,5209115185.78
sh688369,致远互联,2021-12-20,67.1,69.27,65.9,66.31,67.66,820788.0,55711340.0,3924198148.73,5105179248.7300005
sh688369,致远互联,2021-12-21,66.32,69.23,66.01,68.61,66.31,677184.0,46049137.0,4060311189.63,5282255289.63
sh688369,致远互联,2021-12-22,68.88,68.94,66.68,67.68,68.61,370003.0,25101245.0,4005274177.4399996,5210654977.44
sh688369,致远互联,2021-12-23,68.08,68.08,66.07,66.41,67.68,538611.0,36033561.0,3930116107.0299997,5112878207.03
sh688369,致远互联,2021-12-24,67.2,68.16,65.12,65.47,66.41,439362.0,29088387.0,3874487299.0099998,5040507999.01
sh688369,致远互联,2021-12-27,65.2,66.48,64.22,64.58,65.47,328150.0,21331106.0,3821817470.1400003,4971987270.14
sh688369,致远互联,2021-12-28,64.58,68.92,64.58,68.45,64.58,660727.0,44746485.0,4050842456.35,5269936956.35
sh688369,致远互联,2021-12-29,68.9,68.9,65.08,65.08,68.45,1165511.0,76957873.0,3851407261.64,5010482061.639999
sh688369,致远互联,2021-12-30,65.39,70.2,65.15,69.42,65.08,1530658.0,104258906.0,4108246651.86,5344616851.86
sh688369,致远互联,2021-12-31,69.42,72.93,69.0,71.15,69.42,1345127.0,96338057.0,4210627330.45,5477808830.45
sh688369,致远互联,2022-01-04,71.0,74.97,70.71,73.59,71.15,1455374.0,106714869.0,4355025512.97,5665663412.969999
sh688369,致远互联,2022-01-05,73.5,76.68,72.77,74.61,73.59,1697505.0,128137790.0,4415388687.63,5744192787.63
sh688369,致远互联,2022-01-06,74.25,76.0,73.0,75.35,74.61,1144663.0,85703836.0,4459181579.049999,5801165079.05
sh688369,致远互联,2022-01-07,76.65,76.75,71.6,72.8,75.35,1604003.0,117597814.0,4308273642.400001,5604841642.4
sh688369,致远互联,2022-01-10,71.72,78.02,71.72,77.1,72.8,2113065.0,161812659.0,4562745849.3,5935896849.3
sh688369,致远互联,2022-01-11,77.1,77.7,73.37,74.43,77.1,853107.0,64040406.0,4404736362.690001,5730334662.69
sh688369,致远互联,2022-01-12,75.68,75.68,71.8,72.67,74.43,1219230.0,88413153.0,4300580296.61,5594832996.610001
sh688369,致远互联,2022-01-13,73.54,73.98,70.53,70.9,72.67,654777.0,47325027.0,4195832434.7,5458561434.7
sh688369,致远互联,2022-01-14,70.89,74.29,70.83,72.76,70.9,503169.0,36714868.0,4305906459.08,5601762059.08
