数据由邢不行整理
股票代码,股票名称,交易日期,开盘价,最高价,最低价,收盘价,前收盘价,成交量,成交额,流通市值,总市值
sz002985,N北摩,2020-04-29,27.04,32.44,27.04,32.44,22.53,116566.0,3771047.0,1217797600.0,4871190400.0
sz002985,北摩高科,2020-04-30,35.68,35.68,35.68,35.68,32.44,72848.0,2599216.0,1339427200.0,5357708800.0
sz002985,北摩高科,2020-05-06,39.25,39.25,39.25,39.25,35.68,47018.0,1845456.0,1473445000.0,5893780000.0
sz002985,北摩高科,2020-05-07,43.18,43.18,43.18,43.18,39.25,76383.0,3298217.0,1620977200.0,6483908800.0
sz002985,北摩高科,2020-05-08,47.5,47.5,47.5,47.5,43.18,267431.0,12702972.0,1783150000.0,7132600000.0
sz002985,北摩高科,2020-05-11,52.25,52.25,52.25,52.25,47.5,222079.0,11603627.0,1961465000.0,7845860000.0
sz002985,北摩高科,2020-05-12,57.48,57.48,57.48,57.48,52.25,613840.0,35283523.0,2157799200.0,8631196800.0
sz002985,北摩高科,2020-05-13,63.23,63.23,63.23,63.23,57.48,199820.0,12634618.0,2373654200.0,9494616800.0
sz002985,北摩高科,2020-05-14,69.55,69.55,69.55,69.55,63.23,523132.0,36383830.0,2610907000.0,10443628000.0
sz002985,北摩高科,2020-05-15,76.51,76.51,76.51,76.51,69.55,187444.0,14341340.0,2872185400.0,11488741600.0
sz002985,北摩高科,2020-05-18,84.16,84.16,84.16,84.16,76.51,230537.0,19401993.0,3159366400.0,12637465600.0
sz002985,北摩高科,2020-05-19,87.01,92.58,85.25,92.58,84.16,24898558.0,2216623472.0,3475453200.0,13901812800.0
sz002985,北摩高科,2020-05-20,95.99,101.84,95.28,101.84,92.58,22005144.0,2159035349.0,3823073600.0,15292294400.0
sz002985,北摩高科,2020-05-21,97.5,99.36,95.58,97.26,101.84,13248790.0,1292899841.0,3651140400.0,14604561600.0
sz002985,北摩高科,2020-05-22,100.44,104.98,97.0,98.27,97.26,15534420.0,1565708553.0,3689055800.0,14756223200.0
sz002985,北摩高科,2020-05-25,99.7,101.5,93.01,98.25,98.27,12536415.0,1215538666.0,3688305000.0,14753220000.0
sz002985,北摩高科,2020-05-26,96.21,102.33,94.31,101.5,98.25,12884738.0,1271782118.0,3810310000.0,15241240000.0
sz002985,北摩高科,2020-05-27,109.0,111.65,107.53,111.65,101.5,16343023.0,1808578790.0,4191341000.0,16765364000.0
sz002985,北摩高科,2020-05-28,108.22,109.66,105.01,108.75,111.65,10766449.0,1156316852.0,4082475000.0,16329900000.0
sz002985,北摩高科,2020-05-29,106.98,109.05,102.5,102.66,108.75,9990081.0,1054741509.0,3853856400.0,15415425600.0
sz002985,北摩高科,2020-06-01,102.68,106.58,101.53,104.15,102.66,9068652.0,944245308.0,3909791000.0,15639164000.0
sz002985,北摩高科,2020-06-02,103.06,109.36,100.08,100.79,104.15,10576859.0,1108873553.0,3783656600.0,15134626400.0
sz002985,北摩高科,2020-06-03,99.0,99.1,95.65,96.04,100.79,8972647.0,871891193.0,3605341600.0,14421366400.0
sz002985,北摩高科,2020-06-04,96.5,97.85,95.0,97.29,96.04,5511314.0,533101259.0,3652266600.0,14609066400.0
sz002985,北摩高科,2020-06-05,96.32,96.9,93.03,94.4,97.29,6074180.0,575253080.0,3543776000.0,14175104000.0
sz002985,北摩高科,2020-06-08,94.8,99.0,94.17,98.0,94.4,6397448.0,619111702.0,3678920000.0,14715680000.0
sz002985,北摩高科,2020-06-09,97.59,98.17,95.11,96.99,98.0,4688606.0,452050978.0,3641004600.0,14564018400.0
sz002985,北摩高科,2020-06-10,97.3,102.7,96.93,101.5,96.99,7823136.0,788227661.0,3810310000.0,15241240000.0
sz002985,北摩高科,2020-06-11,98.2,100.44,97.2,100.0,100.5,5763177.0,568937100.0,3754000000.0,15016000000.0
sz002985,北摩高科,2020-06-12,97.7,105.66,97.38,103.86,100.0,6469622.0,664954403.0,3898904400.0,15595617600.0
sz002985,北摩高科,2020-06-15,101.61,105.99,99.0,99.5,103.86,5725317.0,588487781.0,3735230000.0,14940920000.0
sz002985,北摩高科,2020-06-16,100.13,101.46,96.0,98.58,99.5,4475960.0,439097173.0,3700693200.0,14802772800.0
sz002985,北摩高科,2020-06-17,100.55,103.57,100.55,102.47,98.58,6469724.0,660570427.0,3846723800.0,15386895200.0
sz002985,北摩高科,2020-06-18,99.0,99.4,95.85,95.93,102.47,6686852.0,648525799.0,3601212199.999999,14404848799.999996
sz002985,北摩高科,2020-06-19,95.01,98.57,95.01,97.0,95.93,3773087.0,366336689.0,3641380000.0,14565520000.0
sz002985,北摩高科,2020-06-22,97.99,106.18,97.5,103.88,97.0,6541296.0,673926572.0,3899655200.0,15598620800.0
sz002985,北摩高科,2020-06-23,104.01,114.08,102.47,110.49,103.88,6340822.0,687990724.0,4147794600.0,16591178400.0
sz002985,北摩高科,2020-06-24,112.01,112.06,107.11,108.01,110.49,3935758.0,431159759.0,4054695400.0,16218781600.0
sz002985,北摩高科,2020-06-29,111.28,115.13,108.2,113.15,108.01,4451300.0,501489590.0,4247651000.0,16990604000.0
sz002985,北摩高科,2020-06-30,114.0,124.47,112.5,124.47,113.15,5994539.0,719870786.0,4672603800.0,18690415200.0
sz002985,北摩高科,2020-07-01,128.0,130.7,124.01,128.6,124.47,5290503.0,674714157.0,4827644000.0,19310576000.0
sz002985,北摩高科,2020-07-02,127.14,135.55,124.65,125.94,128.6,5411923.0,706738296.0,4727787600.0,18911150400.0
sz002985,北摩高科,2020-07-03,125.0,134.93,124.48,132.55,125.94,4300468.0,556704957.0,4975927000.0,19903708000.0
sz002985,北摩高科,2020-07-06,131.6,137.9,129.48,132.62,132.55,4528339.0,601577346.0,4978554800.0,19914219200.0
sz002985,北摩高科,2020-07-07,139.0,145.88,138.5,139.0,132.62,6728937.0,958993184.0,5218060000.0,20872240000.0
sz002985,北摩高科,2020-07-08,136.09,151.88,135.55,149.35,139.0,5019785.0,722520286.0,5606599000.0,22426396000.0
sz002985,北摩高科,2020-07-09,148.68,153.5,145.8,152.0,149.35,5118328.0,762131930.0,5706080000.0,22824320000.0
sz002985,北摩高科,2020-07-10,149.04,152.8,148.0,149.5,152.0,2575827.0,385981009.0,5612230000.0,22448920000.0
sz002985,北摩高科,2020-07-13,152.0,157.82,150.0,156.82,149.5,3266971.0,504031025.0,5887022800.0,23548091200.0
sz002985,北摩高科,2020-07-14,156.0,161.99,147.2,151.66,156.82,3888088.0,603048707.0,5693316400.0,22773265600.0
sz002985,北摩高科,2020-07-15,149.6,155.88,148.01,150.0,151.66,3009609.0,455763244.0,5631000000.0,22524000000.0
sz002985,北摩高科,2020-07-16,149.06,155.0,143.81,146.76,150.0,3029250.0,454242398.0,5509370400.0,22037481600.0
sz002985,北摩高科,2020-07-17,147.25,152.6,145.0,152.0,146.76,3247242.0,486442704.0,5706080000.0,22824320000.0
sz002985,北摩高科,2020-07-20,155.3,162.0,152.61,154.36,152.0,3643640.0,571306907.0,5794674399.999999,23178697600.0
sz002985,北摩高科,2020-07-21,152.63,154.58,145.3,145.95,154.36,4199039.0,622399326.0,5478963000.0,21915852000.0
sz002985,北摩高科,2020-07-22,143.0,150.69,142.3,148.92,145.95,2508747.0,371310090.0,5590456800.000001,22361827200.000004
sz002985,北摩高科,2020-07-23,149.96,155.0,148.31,150.3,148.92,2762204.0,419592165.0,5642262000.0,22569048000.0
sz002985,北摩高科,2020-07-24,148.5,158.0,146.46,147.96,150.3,3656527.0,557761841.0,5554418400.0,22217673600.0
sz002985,北摩高科,2020-07-27,147.0,155.99,143.98,155.25,147.96,3111615.0,471130987.0,5828085000.0,23312340000.0
sz002985,北摩高科,2020-07-28,156.9,164.5,154.0,158.7,155.25,3602405.0,574715229.0,5957598000.0,23830392000.0
sz002985,北摩高科,2020-07-29,160.0,162.7,156.0,162.01,158.7,2649344.0,423055805.0,6081855400.0,24327421600.0
sz002985,北摩高科,2020-07-30,163.0,166.66,159.0,160.03,162.01,2405875.0,389537321.0,6007526200.0,24030104800.0
sz002985,北摩高科,2020-07-31,158.0,160.2,155.5,160.2,160.03,2331036.0,368403962.0,6013908000.0,24055632000.0
sz002985,北摩高科,2020-08-03,161.65,176.22,159.0,176.22,160.2,4139889.0,701057611.0,6615298800.0,26461195200.0
sz002985,北摩高科,2020-08-04,178.03,184.98,174.8,178.89,176.22,3581598.0,642646770.0,6715530600.000001,26862122400.000004
sz002985,北摩高科,2020-08-05,175.51,196.78,175.51,196.78,178.89,2695358.0,513103967.0,7387121200.0,29548484800.0
sz002985,北摩高科,2020-08-06,200.01,216.46,200.01,216.46,196.78,4010990.0,845375030.0,8125908400.0,32503633600.0
sz002985,北摩高科,2020-08-07,220.0,238.11,209.0,238.11,216.46,3799429.0,877530740.0,8938649400.0,35754597600.0
sz002985,北摩高科,2020-08-10,238.15,258.68,214.3,214.3,238.11,5892759.0,1345900805.0,8044822000.0,32179288000.0
sz002985,北摩高科,2020-08-11,207.0,228.37,203.59,210.73,214.3,4224140.0,901065384.0,7910804200.0,31643216800.0
sz002985,北摩高科,2020-08-12,206.0,208.99,190.08,194.92,210.73,3859085.0,767461997.0,7317296800.000001,29269187200.000004
sz002985,北摩高科,2020-08-13,198.88,214.25,196.1,211.69,194.92,3212275.0,660872946.0,7946842600.0,31787370400.0
sz002985,北摩高科,2020-08-14,210.0,226.2,208.52,217.99,211.69,3060144.0,669937964.0,8183344600.0,32733378400.0
sz002985,北摩高科,2020-08-17,221.01,223.29,208.01,222.0,217.99,2400706.0,521754680.0,8333880000.0,33335520000.0
sz002985,北摩高科,2020-08-18,220.0,225.58,214.0,219.0,222.0,1728423.0,378248606.0,8221260000.0,32885040000.0
sz002985,北摩高科,2020-08-19,217.1,218.78,204.0,204.9,219.0,2140217.0,447529128.0,7691946000.0,30767784000.0
sz002985,北摩高科,2020-08-20,201.9,205.9,197.14,200.0,204.9,1320310.0,265617909.0,7508000000.0,30032000000.0
sz002985,北摩高科,2020-08-21,204.0,209.7,197.55,200.1,200.0,1693971.0,343079872.0,7511754000.0,30047016000.0
sz002985,北摩高科,2020-08-24,200.01,207.0,198.5,202.39,200.1,1209897.0,243946184.0,7597720600.000001,30390882400.000004
sz002985,北摩高科,2020-08-25,202.29,207.7,192.55,193.8,202.39,2177511.0,435496671.0,7275252000.0,29101008000.0
sz002985,北摩高科,2020-08-26,192.8,197.26,185.0,190.88,193.8,2187319.0,415276241.0,7165635200.0,28662540800.0
sz002985,北摩高科,2020-08-27,189.83,201.95,188.11,200.0,190.88,1651206.0,323121217.0,7508000000.0,30032000000.0
sz002985,北摩高科,2020-08-28,199.0,206.8,199.0,200.94,200.0,1575481.0,318209845.0,7543287600.0,30173150400.0
sz002985,北摩高科,2020-08-31,201.05,204.87,197.1,198.22,200.94,1293661.0,258088589.0,7441178800.0,29764715200.0
sz002985,北摩高科,2020-09-01,198.5,205.89,198.5,204.9,198.22,1862062.0,378670789.0,7691946000.0,30767784000.0
sz002985,北摩高科,2020-09-02,208.12,215.33,204.44,205.19,204.9,1708082.0,356113277.0,7702832600.0,30811330400.0
sz002985,北摩高科,2020-09-03,202.62,204.69,195.48,197.5,205.19,1414373.0,279685392.0,7414150000.0,29656600000.0
sz002985,北摩高科,2020-09-04,190.33,195.01,190.25,194.3,197.5,824973.0,158706063.0,7294022000.0,29176088000.0
sz002985,北摩高科,2020-09-07,195.56,196.48,174.87,174.87,194.3,2526264.0,458019699.0,6564619800.0,26258479200.0
sz002985,北摩高科,2020-09-08,171.96,172.45,157.88,160.0,174.87,3039692.0,494226412.0,6006400000.0,24025600000.0
sz002985,北摩高科,2020-09-09,159.0,163.0,153.76,158.21,160.0,2345034.0,372817832.0,5939203400.0,23756813600.0
sz002985,北摩高科,2020-09-10,159.11,161.35,150.09,150.11,158.21,2041272.0,314930751.0,5635129399.999999,22540517600.0
sz002985,北摩高科,2020-09-11,150.11,154.0,150.0,153.08,150.11,1229395.0,186934397.0,5746623199.999999,22986492800.0
sz002985,北摩高科,2020-09-14,155.0,155.0,147.12,149.45,153.08,1570213.0,234964735.0,5610353000.0,22441412000.0
sz002985,北摩高科,2020-09-15,148.5,158.01,148.5,154.7,149.45,2161638.0,333298063.0,5807438000.0,23229752000.0
sz002985,北摩高科,2020-09-16,153.49,154.75,147.8,149.0,154.7,1373900.0,206437093.0,5593460000.0,22373840000.0
sz002985,北摩高科,2020-09-17,149.0,163.9,148.5,159.03,149.0,2536500.0,394621963.0,5969986200.0,23879944800.0
sz002985,北摩高科,2020-09-18,159.03,169.33,158.04,165.95,159.03,2180813.0,359990714.0,6229763000.0,24919052000.0
sz002985,北摩高科,2020-09-21,165.19,173.3,163.2,167.0,165.95,1820604.0,308733156.0,6269180000.0,25076720000.0
sz002985,北摩高科,2020-09-22,164.0,168.9,160.0,163.28,167.0,1194117.0,195228076.0,6129531200.0,24518124800.0
sz002985,北摩高科,2020-09-23,164.47,166.64,160.01,165.5,163.28,1463681.0,238857968.0,6212870000.0,24851480000.0
sz002985,北摩高科,2020-09-24,164.13,165.48,156.51,157.08,165.5,1347180.0,215379926.0,5896783199.999999,23587132800.0
sz002985,北摩高科,2020-09-25,158.0,160.98,156.81,157.11,157.08,1015255.0,161033399.0,5897909399.999999,23591637600.0
sz002985,北摩高科,2020-09-28,159.0,159.0,153.01,156.29,157.11,996723.0,155838882.0,5867126600.0,23468506400.0
sz002985,北摩高科,2020-09-29,157.6,161.98,157.59,158.48,156.29,1111822.0,176995170.0,5949339200.0,23797356800.0
sz002985,北摩高科,2020-09-30,160.22,160.8,157.0,158.61,158.48,1096523.0,174125722.0,5954219399.999999,23816877600.0
sz002985,北摩高科,2020-10-09,161.63,162.6,158.05,161.4,158.61,1120400.0,180343337.0,6058956000.0,24235824000.0
sz002985,北摩高科,2020-10-12,163.7,167.0,160.6,164.06,161.4,2550324.0,413727009.0,6158812400.0,24635249600.0
sz002985,北摩高科,2020-10-13,164.08,164.08,156.0,160.9,164.06,2324452.0,368819501.0,6040186000.0,24160744000.0
sz002985,北摩高科,2020-10-14,159.96,161.35,157.24,158.88,160.9,1291603.0,205344393.0,5964355200.0,23857420800.0
sz002985,北摩高科,2020-10-15,158.0,160.46,155.1,160.3,158.88,1634509.0,258483166.0,6017662000.0,24070648000.0
sz002985,北摩高科,2020-10-16,160.0,172.0,159.75,168.9,160.3,2793713.0,467265018.0,6340506000.0,25362024000.0
sz002985,北摩高科,2020-10-19,172.8,173.0,160.3,163.53,168.9,2002824.0,331366973.0,6138916200.0,24555664800.0
sz002985,北摩高科,2020-10-20,164.0,167.0,151.5,154.9,163.53,2684434.0,418217182.0,5814946000.0,23259784000.0
sz002985,北摩高科,2020-10-21,152.97,153.8,149.24,152.0,154.9,1289405.0,195122457.0,5706080000.0,22824320000.0
sz002985,北摩高科,2020-10-22,151.94,151.94,148.0,149.01,152.0,792400.0,118174326.0,5593835400.0,22375341600.0
sz002985,北摩高科,2020-10-23,148.93,150.93,142.32,142.91,149.01,1537455.0,223893597.0,5364841400.0,21459365600.0
sz002985,北摩高科,2020-10-26,142.91,145.86,135.8,143.99,142.91,1403943.0,199063403.0,5405384600.0,21621538400.0
sz002985,北摩高科,2020-10-27,144.07,146.37,142.66,144.62,143.99,743896.0,107546306.0,5429034800.0,21716139200.0
sz002985,北摩高科,2020-10-28,143.8,145.4,140.68,142.0,144.62,985443.0,140365535.0,5330680000.0,21322720000.0
sz002985,北摩高科,2020-10-29,139.94,144.0,138.05,142.3,142.0,1077845.0,151926352.0,5341942000.0,21367768000.0
sz002985,北摩高科,2020-10-30,142.78,146.0,140.91,141.12,142.3,1073806.0,154279032.0,5297644800.0,21190579200.0
sz002985,北摩高科,2020-11-02,140.96,142.88,137.05,142.48,141.12,925607.0,130578760.0,5348699200.0,21394796800.0
sz002985,北摩高科,2020-11-03,143.15,146.81,142.33,146.43,142.48,1019090.0,147832505.0,5496982200.0,21987928800.0
sz002985,北摩高科,2020-11-04,146.6,152.48,144.5,151.09,146.43,1681861.0,250535026.0,5671918600.0,22687674400.0
sz002985,北摩高科,2020-11-05,150.2,151.1,147.0,147.91,151.09,1175851.0,174525538.0,5552541400.0,22210165600.0
sz002985,北摩高科,2020-11-06,147.14,147.91,141.6,141.88,147.91,1082996.0,155645461.0,5326175200.0,21304700800.0
sz002985,北摩高科,2020-11-09,141.5,148.0,141.0,148.0,141.88,1171926.0,169944056.0,5555920000.0,22223680000.0
sz002985,北摩高科,2020-11-10,148.77,151.9,145.41,146.83,148.0,976325.0,144241419.0,5511998199.999999,22047992800.0
sz002985,北摩高科,2020-11-11,145.76,149.5,142.88,143.95,146.83,967498.0,140643618.0,5403883000.0,21615532000.0
sz002985,北摩高科,2020-11-12,143.9,145.0,141.2,141.97,143.95,611143.0,86898758.0,5329553800.0,21318215200.0
sz002985,北摩高科,2020-11-13,141.97,154.96,139.1,154.22,141.97,2194368.0,324918592.0,5789418800.0,23157675200.0
sz002985,北摩高科,2020-11-16,152.4,162.7,152.4,161.67,154.22,2260079.0,360404620.0,6069091800.000001,24276367200.000004
sz002985,北摩高科,2020-11-17,161.6,162.59,154.0,155.28,161.67,1542914.0,243634604.0,5829211200.0,23316844800.0
sz002985,北摩高科,2020-11-18,153.49,158.28,153.39,156.19,155.28,868679.0,136113320.0,5863372600.0,23453490400.0
sz002985,北摩高科,2020-11-19,154.0,160.99,152.51,159.0,156.19,1525950.0,240038602.0,5968860000.0,23875440000.0
sz002985,北摩高科,2020-11-20,158.0,162.0,153.81,155.56,159.0,1392589.0,218778113.0,5839722400.0,23358889600.0
sz002985,北摩高科,2020-11-23,155.38,156.93,153.0,154.22,155.56,1030323.0,159846453.0,5789418800.0,23157675200.0
sz002985,北摩高科,2020-11-24,153.8,156.36,153.3,154.93,154.22,744521.0,115320410.0,5816072200.0,23264288800.0
sz002985,北摩高科,2020-11-25,153.52,154.93,146.1,146.34,154.93,1325700.0,197930503.0,5493603600.0,21974414400.0
sz002985,北摩高科,2020-11-26,145.78,149.5,145.78,146.82,146.34,810091.0,119448381.0,5511622800.0,22046491200.0
sz002985,北摩高科,2020-11-27,146.0,149.5,143.01,147.09,146.82,693865.0,101804069.0,5521758600.0,22087034400.0
sz002985,北摩高科,2020-11-30,146.0,148.51,144.8,145.02,147.09,1000531.0,146121378.0,5444050800.0,21776203200.0
sz002985,北摩高科,2020-12-01,145.02,153.58,144.19,149.11,145.02,1314191.0,195018727.0,5597589399.999999,22390357600.0
sz002985,北摩高科,2020-12-02,148.1,148.87,145.59,146.17,149.11,1006222.0,147462610.0,5487221800.000001,21948887200.000004
sz002985,北摩高科,2020-12-03,146.31,150.22,144.8,148.87,146.17,1225321.0,181337298.0,5588579800.0,22354319200.0
sz002985,北摩高科,2020-12-04,148.2,157.53,146.73,156.19,148.87,1567235.0,240329486.0,5863372600.0,23453490400.0
sz002985,北摩高科,2020-12-07,156.0,158.96,155.0,156.86,156.19,1026297.0,160735264.0,5888524399.999999,23554097600.0
sz002985,北摩高科,2020-12-08,156.86,161.88,155.1,158.86,156.86,1075385.0,170757931.0,5963604399.999999,23854417600.0
sz002985,北摩高科,2020-12-09,158.44,160.0,155.56,156.36,158.86,864189.0,136337025.0,5869754399.999999,23479017600.0
sz002985,北摩高科,2020-12-10,155.0,172.0,154.0,172.0,156.36,2638437.0,436441153.0,6456880000.0,25827520000.0
sz002985,北摩高科,2020-12-11,175.2,178.0,169.29,171.44,172.0,2551187.0,443301575.0,6435857600.0,25743430400.0
sz002985,北摩高科,2020-12-14,171.16,182.65,170.0,178.25,171.44,1832484.0,324616220.0,6691505000.0,26766020000.0
sz002985,北摩高科,2020-12-15,178.4,180.98,172.48,174.95,178.25,1455499.0,256829138.0,6567623000.0,26270492000.0
sz002985,北摩高科,2020-12-16,175.5,176.87,171.73,174.82,174.95,1050642.0,183409494.0,6562742800.0,26250971200.0
sz002985,北摩高科,2020-12-17,173.66,175.8,164.0,171.0,174.82,1967746.0,331851485.0,6419340000.0,25677360000.0
sz002985,北摩高科,2020-12-18,170.51,172.87,166.36,166.36,171.0,1171700.0,199518714.0,6245154399.999999,24980617600.0
sz002985,北摩高科,2020-12-21,167.37,183.0,167.37,178.8,166.36,2339683.0,417119655.0,6712152000.0,26848608000.0
sz002985,北摩高科,2020-12-22,179.15,183.59,174.38,177.64,178.8,1558710.0,277977800.0,6668605600.000001,26674422400.000004
sz002985,北摩高科,2020-12-23,175.46,187.59,175.46,187.02,177.64,2081259.0,382252990.0,7020730800.0,28082923200.0
sz002985,北摩高科,2020-12-24,188.2,198.8,183.0,183.8,187.02,3521228.0,675701712.0,6899852000.0,27599408000.0
sz002985,北摩高科,2020-12-25,185.0,188.65,180.15,187.89,183.8,1508719.0,279912943.0,7053390600.000001,28213562400.000004
sz002985,北摩高科,2020-12-28,187.77,193.5,183.5,187.18,187.89,1470202.0,276595853.0,7026737200.0,28106948800.0
sz002985,北摩高科,2020-12-29,185.0,190.0,180.2,182.75,187.18,1315449.0,242576027.0,6860435000.0,27441740000.0
sz002985,北摩高科,2020-12-30,180.99,193.28,180.3,189.59,182.75,1320971.0,247754404.0,7117208600.0,28468834400.0
sz002985,北摩高科,2020-12-31,190.02,194.5,186.02,193.3,189.59,1489081.0,284386274.0,7256482000.0,29025928000.0
sz002985,北摩高科,2021-01-04,194.0,208.0,194.0,205.78,193.3,1794267.0,360432467.0,7724981200.0,30899924800.0
sz002985,北摩高科,2021-01-05,201.24,212.18,201.0,207.53,205.78,1502919.0,310305144.0,7790676200.0,31162704800.0
sz002985,北摩高科,2021-01-06,207.53,213.5,206.0,211.0,207.53,1346140.0,283135124.0,7920940000.0,31683760000.0
sz002985,北摩高科,2021-01-07,208.88,219.65,207.72,218.59,211.0,1247273.0,269867742.0,8205868600.0,32823474400.0
sz002985,北摩高科,2021-01-08,219.65,219.88,201.22,202.98,218.59,2091993.0,434236698.0,7619869200.0,30479476800.0
sz002985,北摩高科,2021-01-11,205.13,208.37,190.0,192.7,202.98,1831982.0,363370231.0,7233958000.0,28935832000.0
sz002985,北摩高科,2021-01-12,192.7,198.0,191.0,195.76,192.7,1371500.0,267913083.0,7348830400.0,29395321600.0
sz002985,北摩高科,2021-01-13,195.85,196.03,180.88,183.39,195.76,1921987.0,357715042.0,6884460600.000001,27537842400.000004
sz002985,北摩高科,2021-01-14,181.51,183.37,172.0,174.65,183.39,1960913.0,344791221.0,6556361000.0,26225444000.0
sz002985,北摩高科,2021-01-15,174.59,181.11,172.0,176.0,174.65,1274828.0,225089359.0,6607040000.0,26428160000.0
sz002985,北摩高科,2021-01-18,178.99,191.0,177.97,188.03,176.0,1609703.0,299224298.0,7058646200.0,28234584800.0
sz002985,北摩高科,2021-01-19,185.2,188.89,180.0,180.8,188.03,1169760.0,214078487.0,6787232000.0,27148928000.0
sz002985,北摩高科,2021-01-20,180.75,186.28,176.44,183.96,180.8,889363.0,162830916.0,6905858400.0,27623433600.0
sz002985,北摩高科,2021-01-21,182.98,185.0,181.01,182.0,183.96,839782.0,153450930.0,6832280000.0,27329120000.0
sz002985,北摩高科,2021-01-22,181.72,183.23,177.2,179.38,182.0,1055623.0,189203528.0,6733925200.0,26935700800.0
sz002985,北摩高科,2021-01-25,180.04,186.0,176.8,178.29,179.38,1658828.0,300095528.0,6693006600.0,26772026400.0
sz002985,北摩高科,2021-01-26,176.75,177.06,164.12,167.5,178.29,2339075.0,394778682.0,6287950000.0,25151800000.0
sz002985,北摩高科,2021-01-27,166.09,172.58,165.35,171.55,167.5,1429116.0,241640663.0,6439987000.0,25759948000.0
sz002985,北摩高科,2021-01-28,169.75,174.37,166.5,167.41,171.55,888732.0,150586990.0,6284571400.0,25138285600.0
sz002985,北摩高科,2021-01-29,168.01,171.48,158.05,163.18,167.41,1318961.0,216123182.0,6125777200.0,24503108800.0
sz002985,北摩高科,2021-02-01,162.05,167.2,160.84,161.2,163.18,837300.0,136654840.0,6051448000.0,24205792000.0
sz002985,北摩高科,2021-02-02,161.2,165.48,159.1,163.11,161.2,880864.0,143571995.0,6123149399.999999,24492597600.0
sz002985,北摩高科,2021-02-03,163.12,163.72,156.68,158.9,163.11,956494.0,153148680.0,5965106000.0,23860424000.0
sz002985,北摩高科,2021-02-04,157.58,160.7,152.0,153.28,158.9,1268430.0,196244251.0,5754131200.0,23016524800.0
sz002985,北摩高科,2021-02-05,156.0,156.4,150.0,150.0,153.28,1192657.0,181605250.0,5631000000.0,22524000000.0
sz002985,北摩高科,2021-02-08,149.24,150.98,144.11,147.8,150.0,1518443.0,224795288.0,5548412000.0,22193648000.0
sz002985,北摩高科,2021-02-09,150.61,160.76,148.49,160.25,147.8,1323487.0,207189817.0,6015785000.0,24063140000.0
sz002985,北摩高科,2021-02-10,160.51,164.44,157.01,163.0,160.25,1004200.0,161692929.0,6119020000.0,24476080000.0
sz002985,北摩高科,2021-02-18,163.01,170.0,158.01,158.89,163.0,1079700.0,173728606.0,5964730600.000001,23858922400.000004
sz002985,北摩高科,2021-02-19,161.0,166.87,160.44,165.87,158.89,1253064.0,205992422.0,6226759800.0,24907039200.0
sz002985,北摩高科,2021-02-22,166.91,167.8,153.02,153.23,165.87,2186775.0,346825949.0,5752254200.0,23009016800.0
sz002985,北摩高科,2021-02-23,151.99,163.9,149.03,161.43,153.23,1661200.0,262262571.0,6060082200.0,24240328800.0
sz002985,北摩高科,2021-02-24,160.79,163.57,158.22,159.93,161.43,1015207.0,162638266.0,6003772200.0,24015088800.0
sz002985,北摩高科,2021-02-25,161.7,163.3,157.8,158.17,159.93,1022326.0,164047724.0,5937701800.000001,23750807200.000004
sz002985,北摩高科,2021-02-26,154.0,158.48,153.0,153.98,158.17,806503.0,124990118.0,5780409200.0,23121636800.0
sz002985,北摩高科,2021-03-01,154.01,157.62,153.3,155.29,153.98,727831.0,112792227.0,5829586600.0,23318346400.0
sz002985,北摩高科,2021-03-02,155.29,156.87,152.1,153.99,155.29,689310.0,106380744.0,5780784600.0,23123138400.0
sz002985,北摩高科,2021-03-03,153.68,154.6,151.2,154.31,153.99,745470.0,113899501.0,5792797400.0,23171189600.0
sz002985,北摩高科,2021-03-04,152.99,155.87,150.68,151.31,154.31,856604.0,130749361.0,5680177400.0,22720709600.0
sz002985,北摩高科,2021-03-05,150.24,153.28,146.0,150.91,151.31,717600.0,107653158.0,5665161400.0,22660645600.0
sz002985,北摩高科,2021-03-08,150.91,151.5,139.16,139.32,150.91,1536761.0,221173689.0,5230072800.0,20920291200.0
sz002985,北摩高科,2021-03-09,139.16,140.58,131.5,132.13,139.32,1167056.0,158503225.0,4960160200.0,19840640800.0
sz002985,北摩高科,2021-03-10,134.01,135.91,132.62,133.2,132.13,652410.0,87510511.0,5000328000.0,20001312000.0
sz002985,北摩高科,2021-03-11,132.31,135.61,130.33,134.3,133.2,542011.0,72421233.0,5041622000.0,20166488000.0
sz002985,北摩高科,2021-03-12,135.0,135.3,130.01,134.48,134.3,759351.0,100694251.0,5048379200.0,20193516800.0
sz002985,北摩高科,2021-03-15,134.0,135.7,132.23,134.0,134.48,497282.0,66580052.0,5030360000.0,20121440000.0
sz002985,北摩高科,2021-03-16,134.7,136.48,134.12,135.44,134.0,566412.0,76666454.0,5084417600.0,20337670400.0
sz002985,北摩高科,2021-03-17,135.9,140.44,133.3,139.93,135.44,851893.0,117221530.0,5252972200.0,21011888800.0
sz002985,北摩高科,2021-03-18,148.0,149.94,140.47,140.6,139.93,1945669.0,281693785.0,5278124000.0,21112496000.0
sz002985,北摩高科,2021-03-19,140.62,150.89,139.02,148.72,140.6,2516510.0,368068650.0,5582948800.0,22331795200.0
sz002985,北摩高科,2021-03-22,148.0,153.0,144.0,147.6,148.72,1707022.0,253061330.0,5540904000.0,22163616000.0
sz002985,北摩高科,2021-03-23,145.78,147.95,141.51,144.52,147.6,1417004.0,204226384.0,5425280800.0,21701123200.0
sz002985,北摩高科,2021-03-24,143.28,145.45,139.85,140.15,144.52,808094.0,114810196.0,5261231000.0,21044924000.0
sz002985,北摩高科,2021-03-25,137.98,139.48,136.07,137.0,140.15,729348.0,100429076.0,5142980000.0,20571920000.0
sz002985,北摩高科,2021-03-26,138.0,140.46,136.67,139.52,137.0,789931.0,109658082.0,5237580800.0,20950323200.0
sz002985,北摩高科,2021-03-29,139.8,148.55,138.05,145.24,139.52,1639615.0,237125173.0,5452309600.0,21809238400.0
sz002985,北摩高科,2021-03-30,145.24,149.95,144.51,148.43,145.24,1467166.0,217576090.0,5572062200.0,22288248800.0
sz002985,北摩高科,2021-03-31,145.7,149.84,145.7,147.55,148.43,1092976.0,161702635.0,5539027000.0,22156108000.0
sz002985,北摩高科,2021-04-01,147.58,148.88,145.6,146.66,147.55,598738.0,88144099.0,5505616400.0,22022465600.0
sz002985,北摩高科,2021-04-02,147.29,149.32,145.43,146.8,146.66,575197.0,84465793.0,5510872000.0,22043488000.0
sz002985,北摩高科,2021-04-06,146.81,148.24,145.08,145.87,146.8,643002.0,94034054.0,5475959800.0,21903839200.0
sz002985,北摩高科,2021-04-07,147.86,149.8,144.52,145.0,145.87,773979.0,113122216.0,5443300000.0,21773200000.0
sz002985,北摩高科,2021-04-08,144.27,152.98,142.0,150.49,145.0,1692739.0,251853822.0,5649394600.0,22597578400.0
sz002985,北摩高科,2021-04-09,148.78,152.31,147.34,150.66,150.49,1047575.0,156553425.0,5655776400.0,22623105600.0
sz002985,北摩高科,2021-04-12,151.09,151.12,144.16,144.64,150.66,991674.0,144990321.0,5429785600.000001,21719142400.000004
sz002985,北摩高科,2021-04-13,143.64,146.03,143.05,145.1,144.64,529280.0,76615677.0,5447054000.0,21788216000.0
sz002985,北摩高科,2021-04-14,145.09,146.28,143.24,145.72,145.1,544619.0,79070599.0,5470328800.0,21881315200.0
sz002985,北摩高科,2021-04-15,144.2,145.04,142.72,143.39,145.72,465100.0,66827699.0,5382860600.000001,21531442400.000004
sz002985,北摩高科,2021-04-16,143.0,143.48,136.59,138.8,143.39,1097523.0,152075392.0,5210552000.0,20842208000.0
sz002985,北摩高科,2021-04-19,137.76,140.28,135.89,139.43,138.8,719951.0,99711650.0,5234202200.0,20936808800.0
sz002985,北摩高科,2021-04-20,139.9,140.66,137.12,137.4,139.43,1211700.0,167806101.0,5157996000.0,20631984000.0
sz002985,北摩高科,2021-04-21,137.45,139.77,134.5,138.57,137.4,833710.0,114613268.0,5201917800.0,20807671200.0
sz002985,北摩高科,2021-04-22,139.29,139.29,137.8,138.38,138.57,478186.0,66253207.0,5194785200.0,20779140800.0
sz002985,北摩高科,2021-04-23,138.5,139.81,136.78,139.6,138.38,534610.0,74162097.0,5240584000.0,20962336000.0
sz002985,北摩高科,2021-04-26,139.6,142.88,138.0,138.15,139.6,927007.0,130299535.0,5186151000.0,20744604000.0
sz002985,北摩高科,2021-04-27,139.0,145.4,138.96,145.1,138.15,1762157.0,252143799.0,5447054000.0,21788216000.0
sz002985,北摩高科,2021-04-28,145.1,151.13,143.2,148.4,145.1,1233630.0,182397662.0,5570936000.0,22283744000.0
sz002985,北摩高科,2021-04-29,150.38,151.0,145.4,146.12,148.4,1045608.0,153904655.0,14245507368.56,21941379200.0
sz002985,北摩高科,2021-04-30,146.0,149.79,144.31,149.2,146.12,1179910.0,173134648.0,11507967430.8,22403872000.0
sz002985,北摩高科,2021-05-06,149.19,154.0,148.75,151.73,149.2,1492340.0,226473304.0,11703109237.77,22783776800.0
sz002985,北摩高科,2021-05-07,151.26,151.98,144.45,145.05,151.73,1300048.0,190255992.0,11187873162.45,21780708000.0
sz002985,北摩高科,2021-05-10,144.5,146.49,141.0,141.16,145.05,1059954.0,151025641.0,10887832992.84,21196585600.0
sz002985,北摩高科,2021-05-11,139.48,142.35,138.57,141.22,141.16,936805.0,131281738.0,10892460861.78,21205595200.0
sz002985,北摩高科,2021-05-12,140.95,145.38,139.18,144.8,141.22,999260.0,142595139.0,11168590375.2,21743168000.0
sz002985,北摩高科,2021-05-13,146.63,146.63,142.51,144.98,144.8,697233.0,101043387.0,11182473982.02,21770196800.0
sz002985,北摩高科,2021-05-14,86.5,93.62,84.7,93.61,85.11,5986177.0,554143153.0,12274419817.55,23896011920.0
sz002985,北摩高科,2021-05-17,93.63,94.54,89.88,92.56,93.61,5629433.0,522135731.0,12136740714.8,23627976320.000004
sz002985,北摩高科,2021-05-18,90.51,93.65,83.3,83.3,92.56,6407652.0,560454695.0,10922542151.5,21264157600.0
sz002985,北摩高科,2021-05-19,80.01,85.99,77.16,84.57,83.3,5409742.0,445017037.0,11089068304.349998,21588353040.0
sz002985,北摩高科,2021-05-20,83.58,86.86,82.6,86.12,84.57,3461778.0,294409699.0,11292308884.6,21984024640.0
sz002985,北摩高科,2021-05-21,86.12,87.56,84.36,86.24,86.12,2479096.0,212773299.0,11308043639.2,22014657280.0
sz002985,北摩高科,2021-05-24,86.35,92.89,86.34,92.24,86.24,4029127.0,365687888.0,12094781369.2,23546289280.0
sz002985,北摩高科,2021-05-25,91.35,93.47,90.32,91.8,92.24,2869897.0,263501851.0,12037087268.999998,23433969600.0
sz002985,北摩高科,2021-05-26,91.8,93.77,90.08,90.58,91.8,2315764.0,211860801.0,11877117263.9,23122537760.0
sz002985,北摩高科,2021-05-27,91.5,91.85,90.01,90.37,90.58,1984766.0,179963088.0,11849581443.35,23068930640.0
sz002985,北摩高科,2021-05-28,89.92,92.19,89.5,90.9,90.37,2114129.0,191773871.0,11919076609.5,23204224800.0
sz002985,北摩高科,2021-05-31,91.18,98.6,91.15,97.9,90.9,5050554.0,480924798.0,12836937294.5,24991128800.0
sz002985,北摩高科,2021-06-01,97.5,100.77,96.95,97.35,97.9,3794357.0,373980691.0,12764819669.25,24850729200.0
sz002985,北摩高科,2021-06-02,98.43,99.49,96.08,97.05,97.35,2739389.0,267904385.0,12725482782.75,24774147600.0
sz002985,北摩高科,2021-06-03,96.82,97.5,94.51,95.77,97.05,2666403.0,255820720.0,12557645400.35,24447399440.0
sz002985,北摩高科,2021-06-04,95.0,96.95,93.88,94.37,95.77,2684569.0,255134831.0,12374073263.35,24090018640.0
sz002985,北摩高科,2021-06-07,95.56,98.28,92.48,95.2,94.37,3989772.0,379204410.0,12482905316.000002,24301894400.0
sz002985,北摩高科,2021-06-08,94.99,96.66,93.88,96.64,95.2,3619027.0,346079289.0,12671722371.2,24669486080.0
sz002985,北摩高科,2021-06-09,98.98,98.98,95.88,96.4,96.64,3303527.0,320750252.0,12640252862.0,24608220800.0
sz002985,北摩高科,2021-06-10,95.0,96.88,93.31,96.24,96.4,2869173.0,274260357.0,12619273189.2,24567377280.0
sz002985,北摩高科,2021-06-11,95.66,98.77,93.18,94.51,96.24,4089164.0,394115975.0,12392430477.05,24125756720.0
sz002985,北摩高科,2021-06-15,95.03,98.19,93.63,97.2,94.51,2905520.0,280255969.0,12745151225.999998,24812438400.0
sz002985,北摩高科,2021-06-16,96.86,98.37,94.51,95.27,97.2,2084213.0,200659267.0,12492083922.85,24319763440.0
sz002985,北摩高科,2021-06-17,95.88,97.85,94.5,96.3,95.27,1787079.0,171558461.0,12627140566.5,24582693600.0
sz002985,北摩高科,2021-06-18,96.32,101.0,96.3,100.03,96.3,4123811.0,408508408.0,13116229188.65,25534858160.0
sz002985,北摩高科,2021-06-21,100.82,108.43,99.65,105.65,100.03,5818150.0,603587937.0,13853140195.75,26969486800.0
sz002985,北摩高科,2021-06-22,105.0,107.2,103.06,104.63,105.65,2919944.0,305417750.0,13719394781.65,26709109360.000004
sz002985,北摩高科,2021-06-23,104.63,105.37,99.66,102.06,104.63,4029779.0,409783839.0,13382408787.3,26053060320.0
sz002985,北摩高科,2021-06-24,101.01,103.47,97.3,98.05,102.06,3591540.0,360577868.0,12856605737.75,25029419600.0
sz002985,北摩高科,2021-06-25,98.37,100.01,95.3,99.91,98.05,2841375.0,277192052.0,13100494434.05,25504225520.0
sz002985,北摩高科,2021-06-28,99.91,102.35,99.0,100.15,99.91,2767236.0,278906051.0,13131963943.25,25565490800.0
sz002985,北摩高科,2021-06-29,99.86,101.65,96.8,97.26,100.15,2587566.0,255088208.0,12753018603.3,24827754720.0
sz002985,北摩高科,2021-06-30,96.8,99.28,95.75,97.5,97.26,2475634.0,240069705.0,12784488112.5,24889020000.0
sz002985,北摩高科,2021-07-01,98.0,98.5,93.0,93.51,97.5,2675828.0,253387264.0,12261307522.05,23870484720.0
sz002985,北摩高科,2021-07-02,95.51,95.66,88.6,90.34,93.51,3765318.0,345301771.0,11845647754.7,23061272480.0
sz002985,北摩高科,2021-07-05,90.0,94.79,89.08,94.06,90.34,2975101.0,274414553.0,12333425147.3,24010884320.0
sz002985,北摩高科,2021-07-06,93.73,96.29,93.3,95.89,94.06,2239542.0,213005341.0,12573380154.95,24478032080.0
sz002985,北摩高科,2021-07-07,95.4,98.67,94.88,96.38,95.89,2832629.0,274609268.0,12637630402.9,24603115360.0
sz002985,北摩高科,2021-07-08,96.01,102.66,96.01,101.67,96.38,5690630.0,574913719.0,13331270834.85,25953504240.0
sz002985,北摩高科,2021-07-09,101.7,102.0,98.71,99.5,101.67,2820358.0,281490923.0,13046734022.5,25399564000.0
sz002985,北摩高科,2021-07-12,100.5,100.89,92.9,96.2,99.5,4568427.0,435569072.0,12614028271.000002,24557166400.0
sz002985,北摩高科,2021-07-13,96.3,97.24,94.35,97.03,96.2,2865810.0,274562825.0,12722860323.650002,24769042160.0
sz002985,北摩高科,2021-07-14,96.1,96.49,93.88,94.1,97.03,2403487.0,227355577.0,12338670065.5,24021095200.0
sz002985,北摩高科,2021-07-15,94.17,94.7,92.53,93.9,94.1,1887396.0,176491195.0,12312445474.5,23970040800.0
sz002985,北摩高科,2021-07-16,93.36,97.81,93.36,95.9,93.9,3979750.0,382178388.0,12574691384.5,24480584800.0
sz002985,北摩高科,2021-07-19,96.78,96.79,94.01,95.3,95.9,2463190.0,234386607.0,12496017611.5,24327421600.0
sz002985,北摩高科,2021-07-20,94.5,99.8,94.1,99.47,95.3,3762659.0,368331108.0,13042800333.85,25391905840.0
sz002985,北摩高科,2021-07-21,100.66,101.38,98.52,100.48,99.47,3894112.0,389206856.0,13175234518.4,25649730560.0
sz002985,北摩高科,2021-07-22,99.9,102.98,98.4,102.02,100.48,4337188.0,437069275.0,13377163869.099998,26042849440.0
sz002985,北摩高科,2021-07-23,104.73,112.22,104.3,112.22,102.02,10254679.0,1126504048.0,14714618010.1,28646623840.0
sz002985,北摩高科,2021-07-26,113.0,123.38,112.85,118.01,112.22,10610543.0,1263135623.0,15473819919.55,30124648720.0
sz002985,北摩高科,2021-07-27,118.01,120.0,113.5,114.08,118.01,6217069.0,725122541.0,14958506706.4,29121429760.0
sz002985,北摩高科,2021-07-28,112.2,114.31,104.0,109.8,114.08,4764211.0,518391456.0,14397300459.0,28028865600.0
sz002985,北摩高科,2021-07-29,111.68,116.89,110.0,113.5,109.8,5110563.0,580256206.0,14882455392.5,28973372000.0
sz002985,北摩高科,2021-07-30,113.37,120.0,110.52,118.06,113.5,4905671.0,566205643.0,15480376067.3,30137412320.0
sz002985,北摩高科,2021-08-02,120.2,129.0,117.8,119.27,118.06,6275101.0,764127034.0,15639034842.85,30446291440.0
sz002985,北摩高科,2021-08-03,120.63,122.99,116.01,116.24,119.27,4680329.0,556745780.0,15241732289.2,29672817280.0
sz002985,北摩高科,2021-08-04,116.41,120.7,115.1,119.96,116.24,4477276.0,528923462.0,15729509681.8,30622429120.0
sz002985,北摩高科,2021-08-05,119.95,126.26,119.8,123.56,119.96,5191364.0,643617556.0,16201552319.8,31541408320.0
sz002985,北摩高科,2021-08-06,124.0,127.8,121.21,125.15,123.56,4331881.0,542162373.0,16410037818.25,31947290800.0
sz002985,北摩高科,2021-08-09,125.15,129.0,122.35,125.81,125.15,3548573.0,446675097.0,16496578968.55,32115770320.0
sz002985,北摩高科,2021-08-10,125.22,135.0,124.7,132.4,125.81,4951056.0,653773947.0,17360679242.0,33798012800.0
sz002985,北摩高科,2021-08-11,132.18,135.3,129.27,133.19,132.4,3749391.0,492708776.0,17464266376.45,33999677680.0
sz002985,北摩高科,2021-08-12,131.51,133.51,124.5,125.56,133.19,4328835.0,551947793.0,16463798229.8,32051952320.0
sz002985,北摩高科,2021-08-13,124.0,131.16,123.01,127.77,125.56,3255050.0,416671364.0,16753579960.35,32616103440.0
sz002985,北摩高科,2021-08-16,127.02,127.8,123.49,125.16,127.77,2390585.0,300039909.0,16411349047.8,31949843520.0
sz002985,北摩高科,2021-08-17,125.08,126.66,119.51,120.59,125.16,3523180.0,430727016.0,15812117143.45,30783250480.0
sz002985,北摩高科,2021-08-18,120.59,126.8,120.0,124.25,120.59,3248701.0,403946464.0,16292027158.75,31717546000.0
sz002985,北摩高科,2021-08-19,123.85,128.2,121.71,127.15,124.25,2822712.0,355596130.0,16672283728.25,32457834800.0
sz002985,北摩高科,2021-08-20,127.94,130.61,124.42,127.29,127.15,2604183.0,332315500.0,16690640941.95,32493572880.0
sz002985,北摩高科,2021-08-23,129.84,134.0,126.2,132.5,127.29,3966003.0,519061526.0,17373791537.5,33823540000.0
sz002985,北摩高科,2021-08-24,128.64,129.58,123.36,126.14,132.5,6374951.0,801713668.0,16539849543.7,32200010080.0
sz002985,北摩高科,2021-08-25,126.57,127.5,123.5,125.08,126.14,2967962.0,370184537.0,16400859211.4,31929421760.0
sz002985,北摩高科,2021-08-26,124.06,129.5,123.5,123.51,125.08,2624862.0,331015164.0,16194996172.05,31528644720.0
sz002985,北摩高科,2021-08-27,123.33,124.85,119.68,120.8,123.51,4210729.0,509053239.0,15839652964.000002,30836857600.0
sz002985,北摩高科,2021-08-30,120.81,128.78,120.75,126.9,120.8,3895089.0,491246783.0,16639502989.5,32394016800.0
sz002985,北摩高科,2021-08-31,127.51,128.18,122.51,123.95,126.9,2730451.0,341323220.0,16252690272.25,31640964400.0
sz002985,北摩高科,2021-09-01,123.38,123.67,111.56,111.6,123.95,6318864.0,718002106.0,14633321778.0,28488355200.0
sz002985,北摩高科,2021-09-02,111.15,115.96,110.6,112.14,111.6,3084626.0,348475825.0,14704128173.7,28626202080.0
sz002985,北摩高科,2021-09-03,112.16,112.66,106.66,109.0,112.14,3167680.0,346552587.0,14292402095.000002,27824648000.0
sz002985,北摩高科,2021-09-06,107.59,111.28,106.29,110.94,109.0,2032421.0,222061101.0,14546780627.7,28319875680.0
sz002985,北摩高科,2021-09-07,111.0,113.78,109.22,112.96,110.94,2065505.0,230996409.0,14811648996.8,28835525120.0
sz002985,北摩高科,2021-09-08,112.25,117.64,112.0,115.49,112.96,2832296.0,326702487.0,15143390072.95,29481363280.000004
sz002985,北摩高科,2021-09-09,114.33,115.99,112.66,115.0,115.49,1701413.0,194398291.0,15079139825.0,29356280000.0
sz002985,北摩高科,2021-09-10,114.99,114.99,110.32,112.54,115.0,2039386.0,228260693.0,14756577355.7,28728310880.0
sz002985,北摩高科,2021-09-13,112.49,112.49,108.67,109.95,112.54,2219866.0,244169315.0,14416968902.25,28067156400.0
sz002985,北摩高科,2021-09-14,110.13,112.4,107.6,107.71,109.95,1521280.0,166959157.0,14123253483.05,27495347120.0
sz002985,北摩高科,2021-09-15,107.92,112.36,106.86,111.31,107.71,2370700.0,261965606.0,14595296121.05,28414326320.000004
sz002985,北摩高科,2021-09-16,111.88,112.05,108.43,108.88,111.31,1720296.0,189166179.0,14276667340.4,27794015360.0
sz002985,北摩高科,2021-09-17,108.31,109.48,105.0,107.88,108.88,1452743.0,155680224.0,14145544385.4,27538743360.0
sz002985,北摩高科,2021-09-22,106.0,109.85,104.5,109.02,107.88,1808881.0,194837106.0,14295024554.099998,27829753440.0
sz002985,北摩高科,2021-09-23,108.11,111.49,107.17,110.15,109.02,1718498.0,187856134.0,14443193493.25,28118210800.0
sz002985,北摩高科,2021-09-24,109.33,112.55,108.3,108.96,110.15,1608917.0,176894973.0,14287157176.8,27814437120.0
sz002985,北摩高科,2021-09-27,109.8,110.7,104.61,106.77,108.96,1912758.0,204700528.0,13999997905.349998,27255391440.0
sz002985,北摩高科,2021-09-28,106.21,109.6,105.0,106.57,106.77,1371309.0,147819885.0,13973773314.35,27204337040.0
sz002985,北摩高科,2021-09-29,106.17,106.7,101.51,102.83,106.57,1986430.0,205634858.0,13483373462.650002,26249619760.0
sz002985,北摩高科,2021-09-30,103.88,106.96,102.81,106.3,102.83,1285085.0,135182455.0,13938370116.5,27135413600.0
sz002985,北摩高科,2021-10-08,106.75,106.96,99.1,99.5,106.3,2988012.0,303781086.0,13046734022.5,25399564000.0
sz002985,北摩高科,2021-10-11,102.21,105.0,99.99,103.6,99.5,2543882.0,263117225.0,13584338137.999998,26446179200.0
sz002985,北摩高科,2021-10-12,103.6,105.2,99.7,101.07,103.6,1869682.0,190970730.0,13252597061.85,25800341040.0
sz002985,北摩高科,2021-10-13,101.08,103.91,98.51,103.07,101.07,1668210.0,168802596.0,13514842971.85,26310885040.0
sz002985,北摩高科,2021-10-14,103.9,106.8,103.07,104.59,103.07,1701999.0,179220900.0,13714149863.45,26698898480.000004
sz002985,北摩高科,2021-10-15,104.59,106.99,103.7,105.59,104.59,1249739.0,132072497.0,13845272818.45,26954170480.0
sz002985,北摩高科,2021-10-18,104.95,109.47,104.95,106.5,105.59,1742795.0,186388240.0,13964594707.5,27186468000.0
sz002985,北摩高科,2021-10-19,106.12,108.44,105.11,105.92,106.5,1438169.0,153032429.0,13888543393.6,27038410240.000004
sz002985,北摩高科,2021-10-20,106.57,108.84,105.2,106.4,105.92,1856794.0,199047685.0,13951482412.0,27160940800.0
sz002985,北摩高科,2021-10-21,106.0,107.4,105.26,105.85,106.4,1589491.0,168579996.0,13879364786.749998,27020541200.0
sz002985,北摩高科,2021-10-22,105.1,107.0,104.34,106.69,105.85,1345137.0,142530682.0,13989508068.95,27234969680.0
sz002985,北摩高科,2021-10-25,106.69,108.2,102.76,106.6,106.69,2446226.0,256628848.0,13977707003.0,27211995200.0
sz002985,北摩高科,2021-10-26,105.51,107.32,104.2,105.08,106.6,1491385.0,157425172.0,13778400111.400002,26823981760.0
sz002985,北摩高科,2021-10-27,105.7,107.5,104.58,105.7,105.08,1817948.0,192581694.0,13859696343.5,26982250400.0
sz002985,北摩高科,2021-10-28,104.4,107.29,101.03,106.54,105.7,2948673.0,309633128.0,13969839625.7,27196678880.0
sz002985,北摩高科,2021-10-29,106.0,111.08,104.27,110.3,106.54,3407171.0,370614423.0,14462861936.5,28156501600.0
sz002985,北摩高科,2021-11-01,111.77,113.0,108.05,108.31,110.3,3329390.0,365726623.0,14201927256.05,27648510320.0
sz002985,北摩高科,2021-11-02,108.97,112.96,108.52,111.78,108.31,3151504.0,351447030.0,14656923909.9,28534304160.000004
sz002985,北摩高科,2021-11-03,110.0,111.5,108.09,110.58,111.78,2408199.0,263948510.0,14499576363.900002,28227977760.0
sz002985,北摩高科,2021-11-04,110.7,114.5,110.3,114.0,110.58,3029797.0,341974400.0,14948016870.0,29101008000.0
sz002985,北摩高科,2021-11-05,113.36,116.98,112.16,114.41,114.0,2735061.0,313557353.0,15001777281.55,29205669520.0
sz002985,北摩高科,2021-11-08,114.1,115.49,111.11,115.34,114.41,2861051.0,325910373.0,15123721629.7,29443072480.0
sz002985,北摩高科,2021-11-09,115.7,119.55,115.04,117.37,115.34,2931899.0,345131860.0,15389901228.35,29961274640.0
sz002985,北摩高科,2021-11-10,117.88,120.5,116.72,119.58,117.37,3218596.0,384268015.0,15679682958.9,30525425760.0
sz002985,北摩高科,2021-11-11,119.0,119.66,117.04,117.35,119.58,2188531.0,258835898.0,15387278769.25,29956169200.0
sz002985,北摩高科,2021-11-12,117.42,120.5,117.42,118.58,117.35,2547393.0,303710220.0,15548560003.9,30270153760.0
sz002985,北摩高科,2021-11-15,118.02,119.51,113.81,114.33,118.58,3378274.0,390554298.0,14991287445.15,29185247760.0
sz002985,北摩高科,2021-11-16,114.9,115.41,109.3,109.6,114.33,3434478.0,385286322.0,14371075868.0,27977811200.0
sz002985,北摩高科,2021-11-17,109.6,112.72,108.6,112.09,109.6,1938402.0,215445466.0,14697572025.95,28613438480.000004
sz002985,北摩高科,2021-11-18,113.37,113.73,109.5,112.75,112.09,2137845.0,239038150.0,14784113176.25,28781918000.0
sz002985,北摩高科,2021-11-19,113.0,117.61,111.65,116.25,112.75,3119730.0,359903877.0,15243043518.75,29675370000.0
sz002985,北摩高科,2021-11-22,115.96,119.42,115.06,116.82,116.25,2674630.0,311775785.0,15317783603.099998,29820875040.0
sz002985,北摩高科,2021-11-23,116.84,117.26,113.3,115.18,116.82,2435369.0,280543540.0,15102741956.9,29402228960.0
sz002985,北摩高科,2021-11-24,114.5,115.89,112.03,112.41,115.18,2204403.0,249969350.0,14739531371.55,28695125520.0
sz002985,北摩高科,2021-11-25,112.68,113.6,109.5,109.8,112.41,1734210.0,192563036.0,14397300459.0,28028865600.0
sz002985,北摩高科,2021-11-26,109.8,112.88,109.2,112.56,109.8,1945750.0,217222364.0,14759199814.800001,28733416320.000004
sz002985,北摩高科,2021-11-29,110.88,123.82,110.1,123.82,112.56,8129586.0,987168062.0,16235644288.1,31607779040.0
sz002985,北摩高科,2021-11-30,127.98,128.5,124.28,125.91,123.82,7441440.0,940781200.0,16509691264.05,32141297520.0
sz002985,北摩高科,2021-12-01,125.91,126.96,116.78,117.17,125.91,5515089.0,660988804.0,15363676637.35,29910220240.000004
sz002985,北摩高科,2021-12-02,118.02,118.02,112.02,113.52,117.17,4413917.0,504142923.0,14885077851.6,28978477440.0
sz002985,北摩高科,2021-12-03,114.29,115.77,112.53,115.3,113.52,3002405.0,343833707.0,15118476711.5,29432861600.0
sz002985,北摩高科,2021-12-06,114.8,116.66,112.0,113.53,115.3,2430214.0,278197799.0,14886389081.15,28981030160.0
sz002985,北摩高科,2021-12-07,114.62,114.88,110.6,111.87,113.53,2570143.0,287148852.0,14668724975.85,28557278640.0
sz002985,北摩高科,2021-12-08,110.9,113.04,110.9,112.81,111.87,2292200.0,257357438.0,14791980553.550001,28797234320.0
sz002985,北摩高科,2021-12-09,114.56,114.94,111.38,112.11,112.81,2481902.0,279265007.0,14700194485.05,28618543920.0
sz002985,北摩高科,2021-12-10,111.11,116.48,110.83,113.7,112.11,4630835.0,530772241.0,14908679983.5,29024426400.0
sz002985,北摩高科,2021-12-13,114.63,116.3,113.51,115.39,113.7,2552421.0,293128743.0,15130277777.45,29455836080.0
sz002985,北摩高科,2021-12-14,115.0,116.79,114.28,115.77,115.39,2048535.0,236777457.0,15180104500.35,29552839440.0
sz002985,北摩高科,2021-12-15,116.23,116.49,113.32,113.83,115.77,1545127.0,176332417.0,14925725967.65,29057611760.0
sz002985,北摩高科,2021-12-16,113.9,114.99,112.0,112.98,113.83,1440915.0,163170770.0,14814271455.900002,28840630560.0
sz002985,北摩高科,2021-12-17,112.4,113.8,109.58,110.5,112.98,2102066.0,233079493.0,14489086527.499998,28207556000.0
sz002985,北摩高科,2021-12-20,109.0,111.4,106.88,107.0,110.5,2297495.0,249127236.0,14030156185.000002,27314104000.0
sz002985,北摩高科,2021-12-21,107.13,108.31,105.25,107.3,107.0,1830482.0,195450627.0,14069493071.5,27390685600.0
sz002985,北摩高科,2021-12-22,106.41,111.28,106.41,109.48,107.3,1741917.0,190250272.0,14355341113.400002,27947178560.0
sz002985,北摩高科,2021-12-23,109.54,113.22,108.57,110.98,109.48,1823940.0,202924805.0,14552025545.900002,28330086560.0
sz002985,北摩高科,2021-12-24,110.48,112.67,110.48,112.0,110.98,1333185.0,149122746.0,14685770959.999998,28590464000.0
sz002985,北摩高科,2021-12-27,111.82,112.61,110.5,112.26,112.0,1152931.0,128754000.0,14719862928.3,28656834720.0
sz002985,北摩高科,2021-12-28,112.38,119.36,112.28,115.02,112.26,3515153.0,410251904.0,15081762284.1,29361385440.000004
sz002985,北摩高科,2021-12-29,115.7,121.7,115.44,118.82,115.02,3732668.0,444511923.0,15580029513.099998,30331419040.0
sz002985,北摩高科,2021-12-30,118.79,120.36,117.52,119.52,118.82,3420681.0,407569225.0,15671815581.6,30510109440.0
sz002985,北摩高科,2021-12-31,120.43,122.34,119.21,120.46,119.52,2793447.0,337653910.0,15795071159.300001,30750065120.0
sz002985,北摩高科,2022-01-04,128.0,132.51,124.1,126.0,120.46,7612896.0,981298014.0,16521492330.0,32164272000.0
sz002985,北摩高科,2022-01-05,126.0,127.9,118.6,119.93,126.0,3694340.0,447414611.0,15725575993.15,30614770960.0
sz002985,北摩高科,2022-01-06,118.61,126.49,117.9,123.18,119.93,4233688.0,519655969.0,16151725596.9,31444404960.0
sz002985,北摩高科,2022-01-07,123.82,123.85,117.06,117.4,123.18,2769313.0,328580607.0,15393834916.999998,29968932799.999996
sz002985,北摩高科,2022-01-10,118.9,118.97,113.81,114.71,117.4,2171100.0,250551563.0,15041114168.050001,29282251120.000004
sz002985,北摩高科,2022-01-11,115.28,116.0,112.43,115.0,114.71,2513580.0,286112979.0,15079139825.0,29356280000.0
sz002985,北摩高科,2022-01-12,114.82,116.24,113.8,114.46,115.0,2735324.0,313927656.0,15008333429.300001,29218433120.0
sz002985,北摩高科,2022-01-13,114.94,115.48,110.02,110.65,114.46,2359786.0,262475281.0,14508754970.75,28245846800.0
sz002985,北摩高科,2022-01-14,110.0,112.15,105.69,106.39,110.65,5304064.0,575372096.0,13950171182.45,27158388080.000004
