数据由邢不行整理
股票代码,股票名称,交易日期,开盘价,最高价,最低价,收盘价,前收盘价,成交量,成交额,流通市值,总市值
sz003016,N欣贺,2020-10-26,10.79,12.95,10.79,12.95,8.99,755284.0,9741989.0,1381333765.0000002,5525333765.0
sz003016,欣贺股份,2020-10-27,14.25,14.25,12.95,12.96,12.95,47352022.0,631784287.0,1382400431.9999998,5529600432.0
sz003016,欣贺股份,2020-10-28,12.1,12.34,11.66,11.67,12.96,31257515.0,368463370.0,1244800389.0,4979200389.0
sz003016,欣贺股份,2020-10-29,11.21,11.31,10.88,10.99,11.67,21254628.0,235581911.0,1172267033.0,4689067033.0
sz003016,欣贺股份,2020-10-30,11.01,11.25,10.66,10.78,10.99,14852211.0,163429650.0,1149867026.0,4599467026.0
sz003016,欣贺股份,2020-11-02,10.78,10.95,10.39,10.55,10.78,13447258.0,141966177.0,1125333685.0,4501333685.0
sz003016,欣贺股份,2020-11-03,10.5,11.3,10.41,11.05,10.55,17289069.0,187951736.0,1178667035.0,4714667035.0
sz003016,欣贺股份,2020-11-04,10.91,11.03,10.65,10.8,11.05,11787346.0,127334983.0,1152000360.0,4608000360.0
sz003016,欣贺股份,2020-11-05,10.84,10.96,10.73,10.88,10.8,10475854.0,113471802.0,1160533696.0,4642133696.0
sz003016,欣贺股份,2020-11-06,10.88,10.9,10.6,10.66,10.88,8689158.0,92845410.0,1137067022.0,4548267022.0
sz003016,欣贺股份,2020-11-09,10.75,11.15,10.71,11.08,10.66,16214301.0,177775350.0,1181867036.0,4727467036.0
sz003016,欣贺股份,2020-11-10,11.09,11.3,11.03,11.16,11.08,16368210.0,183043151.0,1190400372.0,4761600372.0
sz003016,欣贺股份,2020-11-11,11.1,11.47,10.95,11.43,11.16,17520669.0,196771068.0,1219200381.0,4876800381.0
sz003016,欣贺股份,2020-11-12,11.48,11.48,11.04,11.11,11.43,11923594.0,133235023.0,1185067037.0,4740267037.0
sz003016,欣贺股份,2020-11-13,11.05,11.07,10.85,10.91,11.11,6718704.0,73389676.0,1163733697.0,4654933697.0
sz003016,欣贺股份,2020-11-16,10.99,11.1,10.82,11.08,10.91,7206183.0,79418798.4,1181867036.0,4727467036.0
sz003016,欣贺股份,2020-11-17,11.02,11.08,10.89,10.94,11.08,6687578.0,73218759.12,1166933698.0,4667733698.0
sz003016,欣贺股份,2020-11-18,10.96,11.15,10.93,11.09,10.94,8437591.0,93239687.0,1182933703.0,4731733703.0
sz003016,欣贺股份,2020-11-19,11.03,11.2,10.93,11.09,11.09,8029166.0,88617440.0,1182933703.0,4731733703.0
sz003016,欣贺股份,2020-11-20,11.04,11.06,10.85,10.92,11.09,7162568.0,78301597.0,1164800364.0,4659200364.0
sz003016,欣贺股份,2020-11-23,10.93,10.96,10.77,10.83,10.92,7027962.0,76112141.0,1155200361.0,4620800361.0
sz003016,欣贺股份,2020-11-24,10.81,10.9,10.78,10.88,10.83,5278400.0,57212021.0,1160533696.0,4642133696.0
sz003016,欣贺股份,2020-11-25,10.89,11.33,10.86,11.15,10.88,16330473.0,181939767.0,1189333705.0,4757333705.0
sz003016,欣贺股份,2020-11-26,11.18,11.18,10.9,10.98,11.15,8675043.0,95502960.0,1171200366.0,4684800366.0
sz003016,欣贺股份,2020-11-27,10.94,10.97,10.7,10.78,10.98,8324743.0,89915145.0,1149867026.0,4599467026.0
sz003016,欣贺股份,2020-11-30,10.78,10.89,10.74,10.78,10.78,5356465.0,57915116.0,1149867026.0,4599467026.0
sz003016,欣贺股份,2020-12-01,10.71,10.84,10.71,10.82,10.78,5717064.0,61592350.0,1154133694.0,4616533694.0
sz003016,欣贺股份,2020-12-02,10.83,11.0,10.73,10.93,10.82,7791137.0,84637892.0,1165867031.0,4663467031.0
sz003016,欣贺股份,2020-12-03,10.87,10.89,10.76,10.78,10.93,5656842.0,61132244.0,1149867026.0,4599467026.0
sz003016,欣贺股份,2020-12-04,10.77,10.84,10.73,10.78,10.78,3966748.0,42703661.0,1149867026.0,4599467026.0
sz003016,欣贺股份,2020-12-07,10.79,10.8,10.69,10.71,10.78,4031036.0,43176730.0,1142400357.0,4569600357.0
sz003016,欣贺股份,2020-12-08,10.66,10.71,10.57,10.59,10.71,5187630.0,55101564.0,1129600353.0,4518400353.0
sz003016,欣贺股份,2020-12-09,10.58,10.65,10.42,10.45,10.59,4305125.0,45356674.0,1114667015.0,4458667015.0
sz003016,欣贺股份,2020-12-10,10.4,10.64,10.38,10.5,10.45,4039846.0,42418691.0,1120000350.0,4480000350.0
sz003016,欣贺股份,2020-12-11,10.75,10.85,10.46,10.66,10.5,5821140.0,61742454.0,1137067022.0,4548267022.0
sz003016,欣贺股份,2020-12-14,10.6,10.84,10.6,10.81,10.66,8862410.0,95631623.0,1153067027.0,4612267027.0
sz003016,欣贺股份,2020-12-15,10.71,10.84,10.48,10.51,10.81,6943617.0,73720290.0,1121067017.0,4484267017.0
sz003016,欣贺股份,2020-12-16,10.52,10.58,10.38,10.38,10.51,4750450.0,49553587.0,1107200346.0,4428800346.0
sz003016,欣贺股份,2020-12-17,10.38,10.38,10.04,10.27,10.38,5374096.0,54750830.0,1095467009.0,4381867009.0
sz003016,欣贺股份,2020-12-18,10.21,10.26,10.07,10.11,10.27,3937337.0,39964041.0,1078400337.0,4313600337.0
sz003016,欣贺股份,2020-12-21,10.11,10.18,10.06,10.13,10.11,2932315.0,29689136.0,1080533671.0,4322133671.0
sz003016,欣贺股份,2020-12-22,10.07,10.09,9.81,9.82,10.13,5224045.0,52038539.0,1047466994.0,4189866994.0
sz003016,欣贺股份,2020-12-23,9.85,9.88,9.54,9.66,9.82,5016349.0,48477705.0,1030400322.0,4121600322.0
sz003016,欣贺股份,2020-12-24,9.64,9.64,9.24,9.3,9.66,5240720.0,49261462.0,992000310.0,3968000310.0
sz003016,欣贺股份,2020-12-25,9.26,9.55,9.26,9.4,9.3,3465716.0,32611264.0,1002666980.0,4010666980.0
sz003016,欣贺股份,2020-12-28,9.35,9.37,9.13,9.13,9.4,3199761.0,29452195.0,973866971.0,3895466971.0
sz003016,欣贺股份,2020-12-29,9.16,9.33,9.13,9.22,9.13,2470492.0,22816101.0,983466974.0,3933866974.0
sz003016,欣贺股份,2020-12-30,9.2,9.32,9.19,9.29,9.22,2522630.0,23388588.0,990933643.0,3963733643.0
sz003016,欣贺股份,2020-12-31,9.31,9.41,9.27,9.39,9.29,2568806.0,24032093.0,1001600313.0,4006400313.0
sz003016,欣贺股份,2021-01-04,9.57,9.83,9.49,9.7,9.39,5398168.0,52387331.0,1034666990.0,4138666990.0
sz003016,欣贺股份,2021-01-05,9.66,9.69,9.52,9.61,9.7,3672459.0,35172108.0,1025066987.0,4100266987.0
sz003016,欣贺股份,2021-01-06,9.63,9.66,9.39,9.41,9.61,2825939.0,26730095.0,1003733647.0,4014933647.0
sz003016,欣贺股份,2021-01-07,9.35,9.41,9.08,9.12,9.41,3957915.0,36338705.0,972800304.0,3891200304.0
sz003016,欣贺股份,2021-01-08,9.14,9.21,9.0,9.18,9.12,2426044.0,22119881.0,979200306.0,3916800306.0
sz003016,欣贺股份,2021-01-11,9.18,9.19,8.9,8.9,9.18,3333610.0,30028480.0,949333630.0,3797333630.0
sz003016,欣贺股份,2021-01-12,8.9,9.01,8.81,8.91,8.9,2188335.0,19509746.0,950400297.0,3801600297.0
sz003016,欣贺股份,2021-01-13,9.05,9.07,8.86,8.95,8.91,2392468.0,21418759.0,954666965.0,3818666965.0
sz003016,欣贺股份,2021-01-14,8.88,9.04,8.86,9.01,8.95,2257393.0,20271749.0,961066967.0,3844266967.0
sz003016,欣贺股份,2021-01-15,8.95,9.31,8.95,9.22,9.01,3983934.0,36535611.0,983466974.0,3933866974.0
sz003016,欣贺股份,2021-01-18,9.17,9.29,9.16,9.19,9.22,2810916.0,25834685.0,980266973.0,3921066973.0
sz003016,欣贺股份,2021-01-19,9.19,9.3,9.11,9.28,9.19,3697064.0,34116935.0,989866976.0,3959466976.0
sz003016,欣贺股份,2021-01-20,9.28,9.8,9.23,9.55,9.28,7039479.0,67246590.0,1018666985.0,4074666985.0
sz003016,欣贺股份,2021-01-21,9.5,9.76,9.41,9.56,9.55,5006131.0,48244784.0,1019733652.0,4078933652.0
sz003016,欣贺股份,2021-01-22,9.55,9.76,9.55,9.76,9.56,8707999.0,84435858.0,1041066992.0,4164266992.0
sz003016,欣贺股份,2021-01-25,9.72,9.81,9.35,9.4,9.76,8686412.0,83901546.0,1002666980.0,4010666980.0
sz003016,欣贺股份,2021-01-26,9.31,9.46,9.06,9.42,9.4,3883089.0,36296822.0,1004800314.0,4019200314.0
sz003016,欣贺股份,2021-01-27,9.22,9.42,9.22,9.34,9.42,2728850.0,25442395.0,996266978.0,3985066978.0
sz003016,欣贺股份,2021-01-28,9.35,9.81,9.28,9.55,9.34,7002993.0,66957285.0,1018666985.0,4074666985.0
sz003016,欣贺股份,2021-01-29,9.41,9.49,9.12,9.17,9.55,3706514.0,34488347.0,978133639.0,3912533639.0
sz003016,欣贺股份,2021-02-01,9.2,9.64,9.13,9.59,9.17,6303667.0,59620374.0,1022933653.0,4091733653.0
sz003016,欣贺股份,2021-02-02,9.54,9.75,9.46,9.64,9.59,8691920.0,83864084.0,1028266988.0,4113066988.0
sz003016,欣贺股份,2021-02-03,9.7,9.83,9.45,9.47,9.64,5274700.0,50829477.0,1010133649.0,4040533649.0
sz003016,欣贺股份,2021-02-04,9.69,9.69,8.81,8.91,9.47,10552675.0,96055033.0,950400297.0,3801600297.0
sz003016,欣贺股份,2021-02-05,8.92,8.97,8.62,8.65,8.91,4866652.0,42785478.0,922666955.0,3690666955.0
sz003016,欣贺股份,2021-02-08,8.66,8.85,8.58,8.61,8.65,2471566.0,21499937.0,918400287.0,3673600287.000001
sz003016,欣贺股份,2021-02-09,8.66,8.67,8.5,8.62,8.61,2834802.0,24302611.0,919466954.0,3677866954.000001
sz003016,欣贺股份,2021-02-10,8.66,8.66,8.55,8.59,8.62,2395800.0,20576613.0,916266953.0,3665066953.0
sz003016,欣贺股份,2021-02-18,8.7,8.85,8.63,8.85,8.59,3628508.0,31793136.0,944000295.0,3776000295.0
sz003016,欣贺股份,2021-02-19,8.84,9.07,8.77,9.06,8.85,3122331.0,27985638.0,966400302.0,3865600302.0
sz003016,欣贺股份,2021-02-22,9.07,9.25,9.01,9.06,9.06,4218094.0,38498492.0,966400302.0,3865600302.0
sz003016,欣贺股份,2021-02-23,9.03,9.12,8.93,8.98,9.06,2789193.0,25098676.0,957866966.0,3831466966.000001
sz003016,欣贺股份,2021-02-24,8.94,9.04,8.86,8.93,8.98,2572044.0,22991571.0,952533631.0,3810133631.0
sz003016,欣贺股份,2021-02-25,8.95,9.04,8.88,8.91,8.93,2330662.0,20844468.0,950400297.0,3801600297.0
sz003016,欣贺股份,2021-02-26,8.89,8.9,8.75,8.83,8.91,1621666.0,14348907.0,941866961.0,3767466961.0
sz003016,欣贺股份,2021-03-01,8.85,8.96,8.84,8.96,8.83,1843459.0,16454009.0,955733632.0,3822933632.0
sz003016,欣贺股份,2021-03-02,8.98,8.98,8.82,8.84,8.96,1949633.0,17327184.0,942933628.0,3771733628.0
sz003016,欣贺股份,2021-03-03,8.84,8.91,8.8,8.87,8.84,1935575.0,17137761.0,946133629.0,3784533629.0
sz003016,欣贺股份,2021-03-04,8.89,8.92,8.82,8.82,8.87,2446779.0,21688913.0,940800294.0,3763200294.0
sz003016,欣贺股份,2021-03-05,8.8,8.91,8.77,8.88,8.82,1937726.0,17154926.0,947200296.0,3788800296.0
sz003016,欣贺股份,2021-03-08,8.9,8.95,8.8,8.83,8.88,2442703.0,21711434.0,941866961.0,3767466961.0
sz003016,欣贺股份,2021-03-09,8.81,8.83,8.53,8.65,8.83,3441298.0,29862447.0,922666955.0,3690666955.0
sz003016,欣贺股份,2021-03-10,8.68,8.69,8.55,8.56,8.65,1814328.0,15607871.0,913066952.0,3652266952.0
sz003016,欣贺股份,2021-03-11,8.58,8.66,8.55,8.63,8.56,1989070.0,17140968.0,920533621.0,3682133621.000001
sz003016,欣贺股份,2021-03-12,8.68,8.68,8.56,8.6,8.63,1824803.0,15680537.0,917333620.0,3669333620.0
sz003016,欣贺股份,2021-03-15,8.6,8.79,8.57,8.68,8.6,2652788.0,23067113.0,925866956.0,3703466956.0
sz003016,欣贺股份,2021-03-16,8.65,8.77,8.64,8.76,8.68,1862790.0,16211978.0,934400292.0,3737600292.0
sz003016,欣贺股份,2021-03-17,8.8,8.85,8.75,8.81,8.76,2344729.0,20633999.0,939733627.0,3758933627.0
sz003016,欣贺股份,2021-03-18,9.69,9.69,9.69,9.69,8.81,3503005.0,33944118.0,1033600323.0,4134400323.0
sz003016,欣贺股份,2021-03-19,10.66,10.66,10.66,10.66,9.69,11353241.0,121025549.0,1137067022.0,4548267022.0
sz003016,欣贺股份,2021-03-22,11.68,11.73,11.03,11.73,10.66,45805002.0,527170483.0,1251200391.0,5004800391.0
sz003016,欣贺股份,2021-03-23,11.3,11.44,10.56,10.56,11.73,40811175.0,447357183.0,1126400352.0,4505600352.0
sz003016,欣贺股份,2021-03-24,10.28,10.6,9.88,10.27,10.56,28506958.0,290956082.0,1095467009.0,4381867009.0
sz003016,欣贺股份,2021-03-25,11.3,11.3,10.59,10.64,10.27,49230049.0,551276200.0,1134933688.0,4539733688.0
sz003016,欣贺股份,2021-03-26,10.83,11.1,9.95,10.6,10.64,39272013.0,416830032.0,1130667020.0,4522667020.0
sz003016,欣贺股份,2021-03-29,10.88,11.66,10.33,11.19,10.6,50940316.0,573290144.0,1193600373.0,4774400373.0
sz003016,欣贺股份,2021-03-30,10.97,12.31,10.95,11.01,11.19,52045870.0,601887261.0,1174400367.0,4697600367.0
sz003016,欣贺股份,2021-03-31,10.51,12.11,10.51,12.11,11.01,30103008.0,350160156.0,1291733737.0,5166933737.0
sz003016,欣贺股份,2021-04-01,13.0,13.0,11.4,11.48,12.11,55473121.0,677594551.0,1224533716.0,4898133716.0
sz003016,欣贺股份,2021-04-02,11.28,11.93,11.08,11.7,11.48,34348807.0,396427008.0,1248000390.0,4992000390.0
sz003016,欣贺股份,2021-04-06,11.4,11.48,11.09,11.21,11.7,24356514.0,273860018.0,1195733707.0,4782933707.0
sz003016,欣贺股份,2021-04-07,11.4,12.33,11.26,12.33,11.21,39365952.0,472245234.0,1315200411.0,5260800411.0
sz003016,欣贺股份,2021-04-08,12.05,13.56,11.5,12.35,12.33,59400579.0,750447902.0,1317333745.0,5269333745.0
sz003016,欣贺股份,2021-04-09,12.36,13.1,12.0,12.42,12.35,40431499.0,504840510.0,1324800413.9999998,5299200414.0
sz003016,欣贺股份,2021-04-12,12.2,12.75,11.7,12.64,12.42,31524536.0,385167192.0,1348267088.0,5393067088.0
sz003016,欣贺股份,2021-04-13,12.35,12.52,11.38,11.38,12.64,27470682.0,324373371.0,1213867046.0,4855467046.0
sz003016,欣贺股份,2021-04-14,11.0,11.11,10.72,10.79,11.38,19411271.0,211590344.0,1150933693.0,4603733693.0
sz003016,欣贺股份,2021-04-15,10.74,10.97,10.34,10.42,10.79,16545281.0,174845972.0,1111467014.0,4445867014.0
sz003016,欣贺股份,2021-04-16,10.35,10.55,10.25,10.43,10.42,11050649.0,114952783.0,1112533681.0,4450133681.0
sz003016,欣贺股份,2021-04-19,10.42,10.56,10.28,10.45,10.43,10676644.0,111517575.0,1114667015.0,4458667015.0
sz003016,欣贺股份,2021-04-20,10.45,10.55,10.15,10.17,10.45,13399988.0,138158462.0,1084800339.0,4339200339.0
sz003016,欣贺股份,2021-04-21,10.09,10.23,10.04,10.16,10.17,7934420.0,80347889.0,1083733672.0,4334933672.0
sz003016,欣贺股份,2021-04-22,10.18,10.24,10.04,10.07,10.16,6629753.0,66997696.0,1074133669.0,4296533669.0
sz003016,欣贺股份,2021-04-23,10.04,10.15,9.92,10.04,10.07,9472333.0,94850149.0,1070933668.0,4283733668.0
sz003016,欣贺股份,2021-04-26,10.05,10.52,10.01,10.28,10.04,12209012.0,125122990.0,1096533676.0,4386133676.0
sz003016,欣贺股份,2021-04-27,10.35,10.62,10.15,10.48,10.28,15774925.0,164406432.0,1117867016.0,4471467016.0
sz003016,欣贺股份,2021-04-28,10.32,10.49,10.06,10.17,10.48,11670687.0,119163716.0,1084800339.0,4339200339.0
sz003016,欣贺股份,2021-04-29,10.17,10.34,10.08,10.08,10.17,8473494.0,86309114.0,1075200336.0,4300800336.0
sz003016,欣贺股份,2021-04-30,10.06,10.17,9.4,9.44,10.08,14457240.0,139976704.0,1006933648.0,4027733648.0
sz003016,欣贺股份,2021-05-06,9.5,9.95,9.45,9.83,9.44,12153127.0,118958604.0,1048533661.0,4194133661.0
sz003016,欣贺股份,2021-05-07,9.83,9.98,9.63,9.79,9.83,7332813.0,71895104.0,1044266993.0,4177066993.0
sz003016,欣贺股份,2021-05-10,9.8,9.83,9.66,9.75,9.79,4823751.0,46847086.0,1040000325.0,4160000325.0
sz003016,欣贺股份,2021-05-11,9.69,9.88,9.55,9.79,9.75,4781344.0,46514275.0,1044266993.0,4177066993.0
sz003016,欣贺股份,2021-05-12,9.76,10.11,9.7,10.01,9.79,6927344.0,68725908.0,1067733667.0,4270933667.0
sz003016,欣贺股份,2021-05-13,9.95,10.23,9.82,10.02,10.01,7782170.0,78009861.0,1068800334.0,4275200334.0
sz003016,欣贺股份,2021-05-14,10.05,10.14,9.92,10.12,10.02,7247122.0,72849083.0,1079467004.0,4317867004.0
sz003016,欣贺股份,2021-05-17,10.11,10.11,9.61,10.03,10.12,8348700.0,83176256.0,1069867001.0,4279467001.0
sz003016,欣贺股份,2021-05-18,10.09,10.12,9.87,9.92,10.03,4415044.0,43813548.0,1058133664.0,4232533664.0
sz003016,欣贺股份,2021-05-19,9.98,10.38,9.82,10.3,9.92,11792324.0,119868036.0,1098667010.0,4394667010.0
sz003016,欣贺股份,2021-05-20,10.35,11.0,10.27,10.87,10.3,22876820.0,245711116.0,1159467029.0,4637867029.0
sz003016,欣贺股份,2021-05-21,10.89,11.96,10.85,11.96,10.87,27032398.0,316027397.0,1275733732.0,5102933732.0
sz003016,欣贺股份,2021-05-24,12.11,12.42,11.22,11.9,11.96,29384087.0,349652060.0,1269333730.0,5136857530.0
sz003016,欣贺股份,2021-05-25,12.01,12.19,11.46,11.6,11.9,19344138.0,226298531.0,1237333720.0,5007356920.0
sz003016,欣贺股份,2021-05-26,11.45,11.66,11.28,11.63,11.6,14647098.0,168382367.0,1240533721.0,5020306981.0
sz003016,欣贺股份,2021-05-27,11.49,11.7,11.34,11.63,11.63,10468088.0,120553191.0,1240533721.0,5020306981.0
sz003016,欣贺股份,2021-05-28,11.45,12.63,11.42,12.42,11.63,19045868.0,230671030.0,1324800413.9999998,5361325254.0
sz003016,欣贺股份,2021-05-31,12.39,12.59,12.15,12.38,12.42,10804220.0,133421207.0,1320533746.0,5344058506.0
sz003016,欣贺股份,2021-06-01,12.44,12.51,12.1,12.18,12.38,6288181.0,76799382.0,1299200406.0,5257724766.000001
sz003016,欣贺股份,2021-06-02,12.28,12.83,11.89,12.19,12.18,13169789.0,163617949.0,1300267073.0,5262041453.0
sz003016,欣贺股份,2021-06-03,12.02,12.62,12.0,12.2,12.19,9856239.0,121395718.0,1301333740.0,5266358140.0
sz003016,欣贺股份,2021-06-04,12.11,12.34,11.76,12.1,12.2,8951409.0,107824659.0,1290667070.0,5223191270.0
sz003016,欣贺股份,2021-06-07,12.33,12.55,12.1,12.43,12.1,10361281.0,128306222.0,1325867081.0,5365641941.0
sz003016,欣贺股份,2021-06-08,12.5,12.65,12.35,12.47,12.43,7807313.0,97431009.0,1330133749.0,5382908689.0
sz003016,欣贺股份,2021-06-09,12.58,13.72,12.58,13.72,12.47,18237497.0,242320352.0,1463467124.0,5922494564.0
sz003016,欣贺股份,2021-06-10,14.0,15.09,13.82,15.09,13.72,36869114.0,540935961.0,1609600503.0,6513880683.0
sz003016,欣贺股份,2021-06-11,15.04,15.7,13.58,13.58,15.09,26784642.0,379225658.0,1448533786.0,5862060946.0
sz003016,欣贺股份,2021-06-15,13.57,13.7,12.48,12.95,13.58,20567447.0,265036063.0,1381333765.0000002,5590109665.0
sz003016,欣贺股份,2021-06-16,12.95,12.96,12.41,12.5,12.95,10802509.0,136665923.0,1333333750.0,5395858750.0
sz003016,欣贺股份,2021-06-17,12.42,12.66,12.23,12.52,12.5,9740868.0,121286693.0,1335467084.0,5404492124.0
sz003016,欣贺股份,2021-06-18,12.65,12.71,12.32,12.58,12.52,7290788.0,91631583.0,1341867086.0000002,5430392246.0
sz003016,欣贺股份,2021-06-21,12.35,12.72,12.15,12.38,12.58,6768751.0,84084270.0,1320533746.0,5344058506.0
sz003016,欣贺股份,2021-06-22,12.46,12.84,12.31,12.73,12.38,9687053.0,122572607.0,1357867091.0,5495142550.999999
sz003016,欣贺股份,2021-06-23,12.8,13.47,12.42,13.22,12.73,10177505.0,131729297.0,1410133774.0,5706660214.0
sz003016,欣贺股份,2021-06-24,13.1,14.54,12.89,14.54,13.22,14602199.0,205369256.0,1550933818.0,6276462898.0
sz003016,欣贺股份,2021-06-25,14.5,15.06,13.95,14.75,14.54,13720209.0,198418246.0,1573333825.0,6367113325.0
sz003016,欣贺股份,2021-06-28,14.74,15.51,14.74,15.04,14.75,11299535.0,169970323.0,1604267168.0,6492297248.0
sz003016,欣贺股份,2021-06-29,15.42,16.54,15.21,16.12,15.04,27395988.0,445028778.0,1719467204.0,6958499444.0
sz003016,欣贺股份,2021-06-30,15.42,16.28,14.72,16.01,16.12,23257086.0,361325117.0,1707733867.0,6911015887.0
sz003016,欣贺股份,2021-07-01,15.22,16.72,15.15,16.0,15.61,16915240.0,272778437.0,1706667200.0,6906699200.0
sz003016,欣贺股份,2021-07-02,15.82,16.49,15.82,16.46,16.0,9908874.0,161223158.0,1755733881.9999998,7105266801.999999
sz003016,欣贺股份,2021-07-05,16.95,18.11,16.68,18.11,16.46,16736753.0,299456250.0,1931733937.0,7817520157.0
sz003016,欣贺股份,2021-07-06,18.06,18.69,17.0,17.5,18.11,16135430.0,290144199.0,1866667250.0,7554202250.0
sz003016,欣贺股份,2021-07-07,17.88,18.08,16.95,17.23,17.5,9549827.0,165320946.0,1837867241.0,7437651701.0
sz003016,欣贺股份,2021-07-08,17.38,18.4,17.0,17.36,17.23,7601788.0,134747908.0,1851733912.0,7493768632.0
sz003016,欣贺股份,2021-07-09,17.67,17.83,16.9,17.08,17.36,7531180.0,128936378.0,1821867236.0,7372901396.0
sz003016,欣贺股份,2021-07-12,17.33,18.4,17.33,17.96,17.08,9473323.0,169977321.0,1915733932.0,7752769852.0
sz003016,欣贺股份,2021-07-13,18.12,18.4,16.5,17.77,17.96,10893662.0,190630589.0,1895467259.0,7670752799.0
sz003016,欣贺股份,2021-07-14,17.69,18.2,17.3,17.3,17.77,6362144.0,112939224.0,1845333910.0,7467868510.0
sz003016,欣贺股份,2021-07-15,17.05,17.4,16.27,16.33,17.3,10841135.0,180600763.0,1741867211.0,7049149871.0
sz003016,欣贺股份,2021-07-16,16.26,16.66,15.89,16.03,16.33,8313532.0,134814060.0,1709867201.0,6919649261.0
sz003016,欣贺股份,2021-07-19,16.2,16.26,15.43,15.67,16.03,6498741.0,102058532.0,1671467189.0,6764248529.000001
sz003016,欣贺股份,2021-07-20,15.68,15.7,14.87,15.0,15.67,6799800.0,103166092.0,1600000500.0,6475030500.0
sz003016,欣贺股份,2021-07-21,15.03,15.4,14.81,15.01,15.0,6077470.0,91537223.0,1601067167.0,6479347187.0
sz003016,欣贺股份,2021-07-22,14.99,15.08,14.7,14.76,15.01,4355144.0,64617525.0,1574400492.0,6371430012.000001
sz003016,欣贺股份,2021-07-23,14.77,14.89,13.8,13.94,14.76,6524700.0,92595196.0,1486933798.0,6017461678.000001
sz003016,欣贺股份,2021-07-26,14.31,14.36,13.19,13.28,13.94,7893000.0,108258533.0,1416533776.0,5732560336.0
sz003016,欣贺股份,2021-07-27,13.28,13.5,12.9,12.99,13.28,6728394.0,88986369.0,1385600433.0,5607376413.0
sz003016,欣贺股份,2021-07-28,12.75,13.14,12.17,12.59,12.99,10778445.0,135308222.0,1342933753.0000002,5434708933.0
sz003016,欣贺股份,2021-07-29,12.79,13.26,12.68,12.82,12.59,8255670.0,106819939.0,1367467094.0,5533992733.999999
sz003016,欣贺股份,2021-07-30,12.7,13.41,12.6,12.81,12.82,5660400.0,72853630.0,1366400427.0,5529676047.0
sz003016,欣贺股份,2021-08-02,12.7,12.75,12.36,12.65,12.81,6877700.0,86204537.0,1349333755.0,5460609055.0
sz003016,欣贺股份,2021-08-03,12.59,13.78,12.57,13.4,12.65,16038764.0,213823813.0,1429333780.0,5784360580.0
sz003016,欣贺股份,2021-08-04,14.6,14.74,14.06,14.74,13.4,4908837.0,71988845.0,1572267158.0,6362796638.0
sz003016,欣贺股份,2021-08-05,15.55,16.09,14.81,15.03,14.74,28078846.0,432472517.0,1603200501.0,6487980561.0
sz003016,欣贺股份,2021-08-06,15.11,16.25,14.29,16.0,15.03,16405983.0,253630929.0,1706667200.0,6906699200.0
sz003016,欣贺股份,2021-08-09,15.75,16.03,14.85,15.58,16.0,10630929.0,163503050.0,1661867186.0,6725398345.999999
sz003016,欣贺股份,2021-08-10,15.45,16.02,15.4,15.79,15.58,7483000.0,117279691.0,1684267193.0,6816048773.000001
sz003016,欣贺股份,2021-08-11,16.0,16.14,15.35,15.4,15.79,6612086.0,103220945.0,1642667180.0,6647697979.999999
sz003016,欣贺股份,2021-08-12,15.42,15.59,14.91,14.94,15.4,6638244.0,101035376.0,1593600498.0,6449130378.000001
sz003016,欣贺股份,2021-08-13,15.25,15.34,14.54,14.59,14.94,5875200.0,86636432.0,1556267153.0,6298046333.0
sz003016,欣贺股份,2021-08-16,14.55,15.15,14.3,14.96,14.59,6696544.0,98631257.0,1595733832.0,6457763752.0
sz003016,欣贺股份,2021-08-17,14.96,15.23,14.28,14.33,14.96,5647644.0,82473476.0,1528533811.0,6185812471.0
sz003016,欣贺股份,2021-08-18,14.16,14.38,13.78,14.15,14.33,5061406.0,71110124.0,1509333805.0,6108112105.0
sz003016,欣贺股份,2021-08-19,14.2,14.54,13.78,14.25,14.15,4695977.0,66549731.0,1520000474.9999998,6151278975.0
sz003016,欣贺股份,2021-08-20,14.36,14.39,13.5,13.98,14.25,4566598.0,63191310.0,1491200466.0,6034728426.0
sz003016,欣贺股份,2021-08-23,13.99,15.27,13.85,15.02,13.98,8090840.0,119619810.0,1602133834.0,6483663874.0
sz003016,欣贺股份,2021-08-24,14.99,15.48,14.52,14.99,15.02,5945860.0,88800328.0,1598933832.9999998,6470713813.0
sz003016,欣贺股份,2021-08-25,14.96,15.17,14.7,14.86,14.99,3196215.0,47557574.0,1585067162.0,6414596882.0
sz003016,欣贺股份,2021-08-26,14.83,14.89,14.43,14.46,14.86,2875909.0,42053932.0,1542400482.0,6241929402.0
sz003016,欣贺股份,2021-08-27,14.35,14.56,14.0,14.1,14.46,3680851.0,52171020.0,1504000470.0,6086528670.0
sz003016,欣贺股份,2021-08-30,14.13,14.22,13.6,14.09,14.1,5292071.0,73171986.0,1502933803.0,6082211983.0
sz003016,欣贺股份,2021-08-31,14.02,14.15,13.71,13.78,14.09,3530085.0,49031008.0,1469867126.0,5948394686.0
sz003016,欣贺股份,2021-09-01,13.8,14.85,13.8,14.04,13.78,8019984.0,115222959.0,1497600468.0,6060628548.0
sz003016,欣贺股份,2021-09-02,13.84,14.29,13.83,14.12,14.04,3301495.0,46385293.0,1506133804.0,6095162044.0
sz003016,欣贺股份,2021-09-03,14.08,14.2,13.76,13.79,14.12,3837494.0,53269171.0,1470933793.0,5952711372.999999
sz003016,欣贺股份,2021-09-06,13.8,14.26,13.71,14.1,13.79,2941034.0,41219718.0,1504000470.0,6086528670.0
sz003016,欣贺股份,2021-09-07,14.04,14.2,13.91,14.03,14.1,2032484.0,28461924.0,1496533801.0,6056311861.000001
sz003016,欣贺股份,2021-09-08,14.0,14.12,13.82,14.05,14.03,2944720.0,41122577.0,1498667135.0000002,6064945235.0
sz003016,欣贺股份,2021-09-09,13.85,14.16,13.85,13.91,14.05,2280361.0,31896161.0,1483733797.0,6004511617.000001
sz003016,欣贺股份,2021-09-10,13.99,13.99,13.53,13.62,13.91,3642012.0,49887419.0,1452800454.0,5879327694.0
sz003016,欣贺股份,2021-09-13,13.6,13.69,12.76,13.37,13.62,6574178.0,86265752.0,1426133779.0,5771410519.0
sz003016,欣贺股份,2021-09-14,13.41,13.41,12.89,13.02,13.37,3783477.0,49598114.0,1388800434.0,5620326474.0
sz003016,欣贺股份,2021-09-15,13.03,13.09,12.71,12.86,13.02,3576244.0,45942048.0,1371733762.0,5551259482.0
sz003016,欣贺股份,2021-09-16,12.86,13.09,12.4,12.48,12.86,3402282.0,43169282.0,1331200416.0,5387225376.0
sz003016,欣贺股份,2021-09-17,12.45,12.8,12.28,12.61,12.48,3018600.0,37828640.0,1345067087.0,5443342307.0
sz003016,欣贺股份,2021-09-22,12.5,12.5,12.24,12.27,12.61,3266735.0,40238298.0,1308800409.0,5296574949.000001
sz003016,欣贺股份,2021-09-23,12.36,12.6,12.32,12.44,12.27,2566605.0,31873323.0,1326933748.0,5369958628.0
sz003016,欣贺股份,2021-09-24,12.39,12.48,12.18,12.24,12.44,2095807.0,25731032.0,1305600408.0,5283624888.000001
sz003016,欣贺股份,2021-09-27,12.2,12.2,11.68,11.79,12.24,3648409.0,43155405.0,1257600393.0,5089373973.0
sz003016,欣贺股份,2021-09-28,11.89,11.89,11.53,11.79,11.79,2437747.0,28520621.0,1257600393.0,5089373973.0
sz003016,欣贺股份,2021-09-29,11.74,11.81,11.48,11.67,11.79,2790601.0,32492333.0,1244800389.0,5037573729.0
sz003016,欣贺股份,2021-09-30,11.76,11.84,11.57,11.77,11.67,2226969.0,26115193.0,1255467059.0,5080740599.0
sz003016,欣贺股份,2021-10-08,11.77,12.07,11.75,11.97,11.77,2926339.0,34937987.0,1276800399.0,5167074339.0
sz003016,欣贺股份,2021-10-11,12.0,12.26,11.63,11.66,11.97,3929439.0,46513626.0,1243733722.0,5033257042.0
sz003016,欣贺股份,2021-10-12,11.64,11.8,11.11,11.34,11.66,4121576.0,46879123.0,1209600378.0,4895123058.0
sz003016,欣贺股份,2021-10-13,11.35,11.59,11.23,11.51,11.34,3170595.0,36325613.0,1227733717.0,4968506737.0
sz003016,欣贺股份,2021-10-14,11.52,11.96,11.28,11.84,11.51,4223184.0,49086296.0,1262933728.0,5110957408.0
sz003016,欣贺股份,2021-10-15,11.52,11.84,11.37,11.46,11.84,3518068.0,40493912.0,1222400382.0,4946923302.0
sz003016,欣贺股份,2021-10-18,11.28,11.57,11.22,11.39,11.46,1816154.0,20636789.0,1214933713.0,4915909193.0
sz003016,欣贺股份,2021-10-19,11.38,11.48,11.26,11.32,11.39,3185270.0,36124786.0,1207467044.0,4885697284.0
sz003016,欣贺股份,2021-10-20,11.34,11.34,10.97,11.06,11.32,2978141.0,32933740.0,1179733702.0,4773481622.0
sz003016,欣贺股份,2021-10-21,11.06,11.1,10.97,10.97,11.06,2444444.0,26928437.0,1170133699.0,4734637739.0
sz003016,欣贺股份,2021-10-22,11.12,11.22,10.35,10.4,10.97,6512098.0,69496339.0,1109333680.0,4488626480.0
sz003016,欣贺股份,2021-10-25,10.3,10.75,10.15,10.69,10.4,4817637.0,51131682.0,1140267023.0,4613790103.0
sz003016,欣贺股份,2021-10-26,10.71,10.81,10.36,10.42,10.69,3686541.0,38877883.0,1111467014.0,4497258454.0
sz003016,欣贺股份,2021-10-27,10.46,10.48,10.0,10.12,10.42,4042102.0,40977539.0,1473418364.0,4367778844.0
sz003016,欣贺股份,2021-10-28,9.87,10.2,9.8,9.89,10.12,6471429.0,64601907.0,1439931583.0,4268511143.0
sz003016,欣贺股份,2021-10-29,10.13,10.13,9.86,9.99,9.89,3575453.0,35579578.0,1454491053.0,4311671013.0
sz003016,欣贺股份,2021-11-01,10.0,10.42,9.94,10.37,9.99,5358442.0,54977532.0,1509817039.0,4475678519.0
sz003016,欣贺股份,2021-11-02,10.37,10.53,9.93,10.12,10.37,5763418.0,58677219.0,1473418364.0,4367778844.0
sz003016,欣贺股份,2021-11-03,10.08,10.3,10.03,10.16,10.12,2565213.0,26011247.0,1479242152.0,4385042792.0
sz003016,欣贺股份,2021-11-04,10.17,10.22,10.03,10.19,10.16,2419552.0,24422366.0,1483609993.0,4397990753.0
sz003016,欣贺股份,2021-11-05,10.15,10.23,9.93,10.02,10.19,4142505.0,41659533.0,1458858893.9999998,4324618974.0
sz003016,欣贺股份,2021-11-08,10.04,10.3,9.91,10.25,10.02,4645121.0,47181959.0,1492345675.0,4423886675.0
sz003016,欣贺股份,2021-11-09,10.21,10.46,10.18,10.33,10.25,3449381.0,35633101.0,1503993250.9999998,4458414571.0
sz003016,欣贺股份,2021-11-10,10.3,10.39,10.08,10.38,10.33,3424400.0,34968591.0,1511272986.0,4479994506.0
sz003016,欣贺股份,2021-11-11,10.33,10.47,10.18,10.42,10.38,4934575.0,51047229.0,1517096773.9999998,4497258454.0
sz003016,欣贺股份,2021-11-12,10.4,10.63,10.32,10.54,10.42,5156800.0,54118236.0,1534568138.0,4549050298.0
sz003016,欣贺股份,2021-11-15,10.58,11.28,10.55,11.03,10.54,9644100.0,105645641.0,1605909541.0,4760533661.0
sz003016,欣贺股份,2021-11-16,11.02,11.77,11.0,11.65,11.03,13209635.0,151841544.0,1696178255.0,5028124855.0
sz003016,欣贺股份,2021-11-17,11.65,11.65,11.15,11.28,11.65,9945572.0,112446887.0,1642308216.0,4868433336.0
sz003016,欣贺股份,2021-11-18,11.19,11.48,11.0,11.12,11.28,8586931.0,96200088.0,1619013064.0,4799377544.0
sz003016,欣贺股份,2021-11-19,11.08,11.09,10.83,11.01,11.12,5504868.0,60238113.0,1602997647.0,4751901687.0
sz003016,欣贺股份,2021-11-22,11.01,11.05,10.78,10.85,11.01,6056642.0,65834030.0,1579702495.0,4682845895.0
sz003016,欣贺股份,2021-11-23,10.8,11.04,10.75,10.83,10.85,5546642.0,60232713.0,1576790601.0,4674213921.0
sz003016,欣贺股份,2021-11-24,10.86,11.44,10.78,11.4,10.83,10883933.0,122014681.0,1659779580.0000002,4920225180.0
sz003016,欣贺股份,2021-11-25,11.35,11.55,11.02,11.08,11.4,8706311.0,96774083.0,1613189276.0,4782113596.0
sz003016,欣贺股份,2021-11-26,11.06,11.08,10.84,10.92,11.08,4499900.0,49200605.0,1589894124.0,4713057804.0
sz003016,欣贺股份,2021-11-29,10.76,10.9,10.65,10.72,10.92,3928968.0,42229821.0,1560775184.0,4626738064.0
sz003016,欣贺股份,2021-11-30,10.75,11.07,10.7,10.76,10.72,4073386.0,44237104.0,1566598972.0,4644002012.0
sz003016,欣贺股份,2021-12-01,10.77,11.04,10.66,10.99,10.76,6404393.0,69533437.0,1600085753.0,4743269713.0
sz003016,欣贺股份,2021-12-02,10.95,10.95,10.72,10.73,10.99,3726967.0,40295440.0,1562231130.9999998,4631054051.0
sz003016,欣贺股份,2021-12-03,10.73,10.85,10.65,10.7,10.73,2745973.0,29384515.0,1557863290.0,4618106090.0
sz003016,欣贺股份,2021-12-06,10.66,10.7,10.15,10.2,10.7,9380363.0,96657002.0,1485065940.0,4402306740.0
sz003016,欣贺股份,2021-12-07,10.3,10.3,10.14,10.24,10.2,2699900.0,27581662.0,1490889728.0,4419570688.0
sz003016,欣贺股份,2021-12-08,10.24,10.35,10.21,10.34,10.24,2487094.0,25567858.0,1505449198.0,4462730558.0
sz003016,欣贺股份,2021-12-09,10.35,10.52,10.22,10.42,10.34,3755552.0,39152562.0,1517096773.9999998,4497258454.0
sz003016,欣贺股份,2021-12-10,10.43,10.68,10.4,10.58,10.42,4072100.0,43092809.0,1540391926.0,4566314246.0
sz003016,欣贺股份,2021-12-13,10.57,10.79,10.5,10.64,10.58,4033790.0,42960957.0,1549127608.0,4592210168.0
sz003016,欣贺股份,2021-12-14,10.61,10.64,10.48,10.57,10.64,2959944.0,31206402.0,1538935979.0,4561998259.0
sz003016,欣贺股份,2021-12-15,10.57,10.65,10.47,10.5,10.57,2539700.0,26860737.0,1528744350.0,4531786350.0
sz003016,欣贺股份,2021-12-16,10.48,10.6,10.48,10.57,10.5,2598348.0,27382090.0,1538935979.0,4561998259.0
sz003016,欣贺股份,2021-12-17,10.55,10.59,10.46,10.47,10.57,2125300.0,22340633.0,1524376509.0,4518838389.0
sz003016,欣贺股份,2021-12-20,10.45,10.53,10.4,10.5,10.47,1780700.0,18647198.0,1528744350.0,4531786350.0
sz003016,欣贺股份,2021-12-21,10.51,10.69,10.46,10.66,10.5,3675288.0,39000080.0,1552039502.0,4600842142.0
sz003016,欣贺股份,2021-12-22,10.71,11.1,10.7,10.85,10.66,5214442.0,56640735.0,1579702495.0,4682845895.0
sz003016,欣贺股份,2021-12-23,10.85,10.85,10.58,10.6,10.85,3752900.0,40043884.0,1543303820.0000002,4574946220.0
sz003016,欣贺股份,2021-12-24,10.62,10.67,10.38,10.38,10.6,2847208.0,29809194.0,1511272986.0,4479994506.0
sz003016,欣贺股份,2021-12-27,10.39,10.6,10.32,10.53,10.38,2745861.0,28782228.0,1533112190.9999998,4544734311.0
sz003016,欣贺股份,2021-12-28,10.5,10.53,10.34,10.39,10.53,4064312.0,42309681.0,1512728933.0,4484310493.0
sz003016,欣贺股份,2021-12-29,10.33,10.42,10.21,10.34,10.39,2639400.0,27219399.0,1505449198.0,4462730558.0
sz003016,欣贺股份,2021-12-30,10.34,10.58,10.31,10.47,10.34,3527600.0,36779142.0,1524376509.0,4518838389.0
sz003016,欣贺股份,2021-12-31,10.49,10.49,10.37,10.42,10.47,3168500.0,33002951.0,1517096773.9999998,4497258454.0
sz003016,欣贺股份,2022-01-04,10.44,10.8,10.4,10.8,10.42,6360712.0,67828751.0,1572422760.0000002,4669477070.4
sz003016,欣贺股份,2022-01-05,10.88,10.93,10.65,10.81,10.8,4723544.0,50947442.0,1573878707.0,4673800660.28
sz003016,欣贺股份,2022-01-06,10.86,11.17,10.8,11.12,10.81,7416629.0,81643278.0,1619013064.0,4807831946.56
sz003016,欣贺股份,2022-01-07,11.18,11.28,10.85,10.87,11.12,6960697.0,77121309.0,1582614389.0,4699742199.559999
sz003016,欣贺股份,2022-01-10,10.8,11.01,10.6,10.95,10.87,3211724.0,34997087.0,1594261965.0,4734330918.599999
sz003016,欣贺股份,2022-01-11,10.99,11.15,10.91,11.01,10.95,4777663.0,52683183.0,1602997647.0,4760272457.88
sz003016,欣贺股份,2022-01-12,11.04,11.13,10.92,10.97,11.01,3507400.0,38606057.0,1597173859.0,4742978098.36
sz003016,欣贺股份,2022-01-13,11.04,11.08,10.9,10.93,10.97,2897444.0,31815399.0,1591350070.9999998,4725683738.84
sz003016,欣贺股份,2022-01-14,10.86,10.94,10.7,10.71,10.93,2822977.0,30494604.0,1559319237.0000002,4630564761.48
