数据由邢不行整理
股票代码,股票名称,交易日期,开盘价,最高价,最低价,收盘价,前收盘价,成交量,成交额,流通市值,总市值
sz002981,N朝阳,2020-04-17,20.78,24.94,20.78,24.94,17.32,77986.0,1937284.0,598560000.0,2394240000.0
sz002981,朝阳科技,2020-04-20,27.43,27.43,27.43,27.43,24.94,26160.0,717568.0,658320000.0,2633280000.0
sz002981,朝阳科技,2020-04-21,30.17,30.17,30.17,30.17,27.43,43709.0,1318700.0,724080000.0,2896320000.0
sz002981,朝阳科技,2020-04-22,33.19,33.19,33.19,33.19,30.17,108883.0,3613826.0,796560000.0,3186240000.0
sz002981,朝阳科技,2020-04-23,36.51,36.51,36.51,36.51,33.19,71904.0,2625215.0,876240000.0,3504960000.0
sz002981,朝阳科技,2020-04-24,40.16,40.16,37.54,37.94,36.51,15216634.0,585898909.0,910560000.0,3642240000.0
sz002981,朝阳科技,2020-04-27,36.24,36.49,34.15,34.15,37.94,9401647.0,327294860.0,819600000.0,3278400000.0
sz002981,朝阳科技,2020-04-28,32.7,33.88,30.74,33.53,34.15,9637624.0,309956258.0,804720000.0,3218880000.0
sz002981,朝阳科技,2020-04-29,32.99,36.35,32.56,34.8,33.53,9867017.0,339756191.0,835200000.0,3340800000.0
sz002981,朝阳科技,2020-04-30,34.3,36.26,33.0,34.59,34.8,10010012.0,347485881.0,830160000.0,3320640000.0
sz002981,朝阳科技,2020-05-06,33.8,36.0,32.86,35.74,34.59,8159685.0,279169211.0,857760000.0,3431040000.0
sz002981,朝阳科技,2020-05-07,35.05,39.31,34.81,38.38,35.74,13075356.0,486592391.0,921120000.0,3684480000.0
sz002981,朝阳科技,2020-05-08,36.65,41.87,36.11,40.5,38.38,13415735.0,513589183.0,972000000.0,3888000000.0
sz002981,朝阳科技,2020-05-11,39.31,44.55,39.3,42.51,40.5,15779309.0,676755330.0,1020240000.0,4080960000.0
sz002981,朝阳科技,2020-05-12,41.05,41.85,39.05,40.9,42.51,11679392.0,472804963.0,981600000.0,3926400000.0
sz002981,朝阳科技,2020-05-13,39.71,40.77,38.4,39.2,40.9,9232862.0,364179063.0,940800000.0,3763200000.0
sz002981,朝阳科技,2020-05-14,38.88,40.5,38.67,39.26,39.2,7722192.0,306221571.0,942240000.0,3768960000.0
sz002981,朝阳科技,2020-05-15,38.88,39.78,38.51,38.96,39.26,6210290.0,242733567.0,935040000.0,3740160000.0
sz002981,朝阳科技,2020-05-18,38.55,38.74,35.06,35.06,38.96,7158291.0,259478376.0,841440000.0,3365760000.0
sz002981,朝阳科技,2020-05-19,35.17,36.5,34.6,36.22,35.06,5928401.0,211835457.0,869280000.0,3477120000.0
sz002981,朝阳科技,2020-05-20,36.09,39.84,35.44,39.84,36.22,7666879.0,289278604.0,956160000.0,3824640000.0
sz002981,朝阳科技,2020-05-21,42.2,43.82,41.12,43.82,39.84,9281502.0,398487263.0,1051680000.0,4206720000.0
sz002981,朝阳科技,2020-05-22,45.0,48.2,42.21,44.42,43.82,18765668.0,865455899.0,1066080000.0,4264320000.0
sz002981,朝阳科技,2020-05-25,39.98,40.04,39.98,39.98,44.42,2761700.0,110413400.0,959520000.0,3838080000.0
sz002981,朝阳科技,2020-05-26,36.7,40.87,36.6,39.0,39.98,12334443.0,475502908.0,936000000.0,3744000000.0
sz002981,朝阳科技,2020-05-27,38.62,42.89,38.01,41.86,39.0,12325121.0,493301209.0,1004640000.0,4018560000.0
sz002981,朝阳科技,2020-05-28,40.59,41.28,38.0,38.76,41.86,8884772.0,353678905.0,930240000.0,3720960000.0
sz002981,朝阳科技,2020-05-29,38.28,40.3,38.2,38.5,38.76,6902750.0,270875331.0,924000000.0,3696000000.0
sz002981,朝阳科技,2020-06-01,39.05,41.59,38.36,40.86,38.5,8461585.0,341134845.0,980640000.0,3922560000.0
sz002981,朝阳科技,2020-06-02,40.31,44.95,40.31,44.95,40.86,8761315.0,369417085.0,1078800000.0,4315200000.0
sz002981,朝阳科技,2020-06-03,44.96,47.07,42.88,43.63,44.95,13543257.0,603568710.0,1047120000.0,4188480000.0
sz002981,朝阳科技,2020-06-04,43.63,44.44,41.88,42.34,43.63,7639226.0,328469919.0,1016160000.0,4064640000.0
sz002981,朝阳科技,2020-06-05,42.89,46.57,42.11,46.57,42.34,11243264.0,502434516.0,1117680000.0,4470720000.0
sz002981,朝阳科技,2020-06-08,46.99,51.23,45.98,45.99,46.57,15787265.0,771995894.0,1103760000.0,4415040000.0
sz002981,朝阳科技,2020-06-09,44.29,47.49,43.0,47.49,45.99,11255171.0,502509131.0,1139760000.0,4559040000.0
sz002981,朝阳科技,2020-06-10,49.01,51.17,47.42,47.42,47.49,13062487.0,643192236.0,1138080000.0,4552320000.0
sz002981,朝阳科技,2020-06-11,46.32,52.08,46.32,50.63,47.42,12441698.0,609956209.0,1215120000.0,4860480000.0
sz002981,朝阳科技,2020-06-12,49.19,55.08,48.58,53.69,50.63,12794072.0,659710351.0,1288560000.0,5154240000.0
sz002981,朝阳科技,2020-06-15,52.01,53.56,50.82,51.42,53.69,10141815.0,529607401.0,1234080000.0,4936320000.0
sz002981,朝阳科技,2020-06-16,50.7,52.85,50.18,51.32,51.42,7174280.0,367723333.0,1231680000.0,4926720000.0
sz002981,朝阳科技,2020-06-17,50.4,50.51,48.51,48.95,51.32,7194984.0,355009385.0,1174800000.0,4699200000.0
sz002981,朝阳科技,2020-06-18,48.0,50.3,47.0,49.4,48.95,7234540.0,354307212.0,1185600000.0,4742400000.0
sz002981,朝阳科技,2020-06-19,48.55,51.91,48.5,49.56,49.4,8015002.0,404486849.0,1189440000.0,4757760000.0
sz002981,朝阳科技,2020-06-22,48.91,49.78,47.35,48.58,49.56,6317500.0,306764090.0,1165920000.0,4663680000.0
sz002981,朝阳科技,2020-06-23,49.5,51.0,49.35,49.85,48.58,7924323.0,397599428.0,1196400000.0,4785600000.0
sz002981,朝阳科技,2020-06-24,48.24,48.89,47.8,48.62,49.85,5593311.0,270190511.0,1166880000.0,4667520000.0
sz002981,朝阳科技,2020-06-29,48.34,49.8,47.66,49.35,48.62,4865154.0,237712538.0,1184400000.0,4737600000.0
sz002981,朝阳科技,2020-06-30,50.0,51.5,49.55,49.69,49.35,6424951.0,323474911.0,1192560000.0,4770240000.0
sz002981,朝阳科技,2020-07-01,49.0,52.66,48.7,52.57,49.69,8422363.0,426375035.0,1261680000.0,5046720000.0
sz002981,朝阳科技,2020-07-02,51.76,52.3,50.91,51.2,52.57,5875940.0,302307163.0,1228800000.0,4915200000.0
sz002981,朝阳科技,2020-07-03,51.06,51.88,49.5,50.14,51.2,5129261.0,258417300.0,1203360000.0,4813440000.0
sz002981,朝阳科技,2020-07-06,49.87,52.05,49.5,51.73,50.14,6572371.0,335952655.0,1241520000.0,4966080000.0
sz002981,朝阳科技,2020-07-07,51.81,55.96,50.7,53.76,51.73,10352130.0,549140373.0,1290240000.0,5160960000.0
sz002981,朝阳科技,2020-07-08,53.0,54.54,52.01,53.99,53.76,7458734.0,398827802.0,1295760000.0,5183040000.0
sz002981,朝阳科技,2020-07-09,54.27,56.5,53.68,55.66,53.99,7551357.0,417203090.0,1335840000.0,5343360000.0
sz002981,朝阳科技,2020-07-10,55.28,56.3,53.56,53.73,55.56,6124353.0,335060174.0,1289520000.0,5158080000.0
sz002981,朝阳科技,2020-07-13,53.08,54.38,53.08,53.77,53.73,5226520.0,280236532.0,1290480000.0,5161920000.0
sz002981,朝阳科技,2020-07-14,53.83,54.15,50.01,51.0,53.77,5214464.0,269824008.0,1224000000.0,4896000000.0
sz002981,朝阳科技,2020-07-15,49.84,50.38,46.11,46.69,51.0,5877860.0,280419153.0,1120560000.0,4482240000.0
sz002981,朝阳科技,2020-07-16,46.7,47.18,42.34,42.96,46.69,3628013.0,163582060.0,1031040000.0,4124160000.0
sz002981,朝阳科技,2020-07-17,42.53,43.59,41.61,42.36,42.96,2785320.0,118811067.0,1016640000.0,4066560000.0
sz002981,朝阳科技,2020-07-20,42.45,43.95,42.22,43.86,42.36,2431539.0,104854131.0,1052640000.0,4210560000.0
sz002981,朝阳科技,2020-07-21,43.95,44.7,43.3,44.22,43.86,2170299.0,95706207.0,1061280000.0,4245120000.0
sz002981,朝阳科技,2020-07-22,44.03,44.6,43.57,43.91,44.22,2266114.0,99928851.0,1053840000.0,4215360000.0
sz002981,朝阳科技,2020-07-23,43.3,43.3,41.12,42.3,43.91,2748960.0,115774530.0,1015200000.0,4060800000.0
sz002981,朝阳科技,2020-07-24,42.0,42.5,39.03,39.03,42.3,2813000.0,114228110.0,936720000.0,3746880000.0
sz002981,朝阳科技,2020-07-27,39.7,40.19,38.28,39.8,39.03,1784250.0,70095017.0,955200000.0,3820800000.0
sz002981,朝阳科技,2020-07-28,40.0,40.66,39.3,40.39,39.8,1711400.0,68930718.0,969360000.0,3877440000.0
sz002981,朝阳科技,2020-07-29,40.0,41.41,39.8,41.28,40.39,2215610.0,90499791.0,990720000.0,3962880000.0
sz002981,朝阳科技,2020-07-30,41.28,41.45,40.0,40.34,41.28,2093300.0,84830934.0,968160000.0,3872640000.0
sz002981,朝阳科技,2020-07-31,40.34,41.58,40.21,40.81,40.34,2358460.0,96814186.0,979440000.0,3917760000.0
sz002981,朝阳科技,2020-08-03,41.54,42.95,41.05,42.42,40.81,3022067.0,126671564.0,1018080000.0,4072320000.0
sz002981,朝阳科技,2020-08-04,42.88,42.88,41.7,41.81,42.42,2345328.0,98474998.0,1003440000.0,4013760000.0
sz002981,朝阳科技,2020-08-05,41.71,42.25,41.65,41.87,41.81,1666908.0,69834352.0,1004880000.0,4019520000.0
sz002981,朝阳科技,2020-08-06,41.55,41.85,40.46,40.75,41.87,1963020.0,80335898.0,978000000.0,3912000000.0
sz002981,朝阳科技,2020-08-07,40.32,40.74,38.62,39.43,40.75,1851982.0,73263475.0,946320000.0,3785280000.0
sz002981,朝阳科技,2020-08-10,39.2,40.49,39.0,39.78,39.43,1282453.0,51210842.0,954720000.0,3818880000.0
sz002981,朝阳科技,2020-08-11,39.78,40.3,39.48,39.48,39.78,1381916.0,55224477.0,947520000.0,3790080000.0
sz002981,朝阳科技,2020-08-12,39.61,39.89,37.51,38.26,39.48,1574466.0,60066595.0,918240000.0,3672960000.0
sz002981,朝阳科技,2020-08-13,38.44,39.3,38.3,38.31,38.26,1149663.0,44452987.0,919440000.0,3677760000.0
sz002981,朝阳科技,2020-08-14,38.27,38.44,37.33,38.08,38.31,1319062.0,49916391.0,913920000.0,3655680000.0
sz002981,朝阳科技,2020-08-17,37.99,38.96,37.91,38.96,38.08,1287465.0,49479750.0,935040000.0,3740160000.0
sz002981,朝阳科技,2020-08-18,38.96,40.05,38.65,39.64,38.96,1793076.0,70532713.0,951360000.0,3805440000.0
sz002981,朝阳科技,2020-08-19,39.19,39.59,38.51,38.53,39.64,1258252.0,48916943.0,924720000.0,3698880000.0
sz002981,朝阳科技,2020-08-20,38.4,39.28,37.6,38.9,38.53,1427910.0,54853889.0,933600000.0,3734400000.0
sz002981,朝阳科技,2020-08-21,38.91,40.77,38.7,39.76,38.9,2519529.0,100838175.0,954240000.0,3816960000.0
sz002981,朝阳科技,2020-08-24,39.9,39.9,37.61,39.35,39.76,1809320.0,70292711.0,944400000.0,3777600000.0
sz002981,朝阳科技,2020-08-25,39.23,39.99,38.71,38.82,39.35,1518972.0,59337585.0,931680000.0,3726720000.0
sz002981,朝阳科技,2020-08-26,38.48,38.51,37.38,37.45,38.82,1624930.0,61472330.0,898800000.0,3595200000.0
sz002981,朝阳科技,2020-08-27,37.09,37.91,37.0,37.48,37.45,917360.0,34275488.0,899520000.0,3598080000.0
sz002981,朝阳科技,2020-08-28,37.6,37.6,37.07,37.39,37.48,904620.0,33774596.0,897360000.0,3589440000.0
sz002981,朝阳科技,2020-08-31,37.43,38.11,37.43,37.48,37.39,1073392.0,40563042.0,899520000.0,3598080000.0
sz002981,朝阳科技,2020-09-01,37.53,38.2,37.07,38.0,37.48,1073172.0,40454274.0,912000000.0,3648000000.0
sz002981,朝阳科技,2020-09-02,38.0,39.5,37.88,39.02,38.0,2490024.0,96768890.0,936480000.0,3745920000.0
sz002981,朝阳科技,2020-09-03,39.31,42.0,39.11,39.42,39.02,2628420.0,105505228.0,946080000.0,3784320000.0
sz002981,朝阳科技,2020-09-04,38.87,40.17,38.15,40.03,39.42,1879560.0,74473420.0,960720000.0,3842880000.0
sz002981,朝阳科技,2020-09-07,40.04,40.65,38.88,39.01,40.03,1650500.0,65415954.0,936240000.0,3744960000.0
sz002981,朝阳科技,2020-09-08,38.83,39.01,38.0,38.23,39.01,1168709.0,44774373.0,917520000.0,3670080000.0
sz002981,朝阳科技,2020-09-09,37.77,37.77,35.65,35.76,38.23,1823609.0,66796030.0,858240000.0,3432960000.0
sz002981,朝阳科技,2020-09-10,36.0,36.2,33.6,33.6,35.76,1303900.0,45160746.0,806400000.0,3225600000.0
sz002981,朝阳科技,2020-09-11,33.7,34.34,32.23,34.28,33.6,982610.0,33015759.0,822720000.0,3290880000.0
sz002981,朝阳科技,2020-09-14,34.35,35.79,34.3,35.24,34.28,901520.0,31620818.0,845760000.0,3383040000.0
sz002981,朝阳科技,2020-09-15,35.09,35.29,34.59,34.87,35.24,741930.0,25887762.0,836880000.0,3347520000.0
sz002981,朝阳科技,2020-09-16,34.98,35.0,34.25,34.25,34.87,620200.0,21388090.0,822000000.0,3288000000.0
sz002981,朝阳科技,2020-09-17,34.02,35.34,34.02,34.97,34.25,919790.0,32136671.0,839280000.0,3357120000.0
sz002981,朝阳科技,2020-09-18,34.95,35.3,34.7,35.21,34.97,671190.0,23511296.0,845040000.0,3380160000.0
sz002981,朝阳科技,2020-09-21,35.17,35.6,34.81,34.82,35.21,669400.0,23513631.0,835680000.0,3342720000.0
sz002981,朝阳科技,2020-09-22,34.61,34.61,33.61,34.05,34.82,598510.0,20440487.0,817200000.0,3268800000.0
sz002981,朝阳科技,2020-09-23,34.13,35.5,34.13,34.73,34.05,760090.0,26565487.0,833520000.0,3334080000.0
sz002981,朝阳科技,2020-09-24,34.26,34.73,33.78,33.86,34.73,595120.0,20290238.0,812640000.0,3250560000.0
sz002981,朝阳科技,2020-09-25,33.92,37.25,33.82,37.25,33.86,2336012.0,83892786.0,894000000.0,3576000000.0
sz002981,朝阳科技,2020-09-28,37.81,38.3,35.22,35.77,37.25,3222522.0,118615343.0,858480000.0,3433920000.0
sz002981,朝阳科技,2020-09-29,35.77,35.77,34.86,35.04,35.77,1493945.0,52618081.0,840960000.0,3363840000.0
sz002981,朝阳科技,2020-09-30,35.01,35.01,34.0,34.0,35.04,1231625.0,42219230.0,816000000.0,3264000000.0
sz002981,朝阳科技,2020-10-09,34.47,35.64,34.47,35.31,34.0,1309220.0,45920028.0,847440000.0,3389760000.0
sz002981,朝阳科技,2020-10-12,35.51,37.14,35.51,36.57,35.31,1712820.0,62138275.0,877680000.0,3510720000.0
sz002981,朝阳科技,2020-10-13,36.89,36.9,36.0,36.26,36.57,944490.0,34196166.0,870240000.0,3480960000.0
sz002981,朝阳科技,2020-10-14,35.99,36.38,35.68,35.7,36.26,934800.0,33533572.0,856800000.0,3427200000.0
sz002981,朝阳科技,2020-10-15,35.5,36.22,35.3,35.48,35.7,682700.0,24395018.0,851520000.0,3406080000.0
sz002981,朝阳科技,2020-10-16,35.48,35.76,34.57,35.45,35.48,720390.0,25320754.0,850800000.0,3403200000.0
sz002981,朝阳科技,2020-10-19,35.72,36.75,35.6,36.65,35.45,1718790.0,62373243.0,879600000.0,3518400000.0
sz002981,朝阳科技,2020-10-20,36.46,36.46,35.71,36.28,36.65,1015790.0,36613561.0,870720000.0,3482880000.0
sz002981,朝阳科技,2020-10-21,36.01,36.34,35.46,35.78,36.28,750300.0,26871152.0,858720000.0,3434880000.0
sz002981,朝阳科技,2020-10-22,36.0,36.0,35.1,35.74,35.78,559000.0,19890341.0,857760000.0,3431040000.0
sz002981,朝阳科技,2020-10-23,35.75,36.05,34.5,34.51,35.74,850700.0,29980203.0,828240000.0,3312960000.0
sz002981,朝阳科技,2020-10-26,34.53,34.86,33.85,34.42,34.51,479140.0,16475486.0,826080000.0,3304320000.0
sz002981,朝阳科技,2020-10-27,34.44,34.99,33.3,33.65,34.42,787890.0,26685785.0,807600000.0,3230400000.0
sz002981,朝阳科技,2020-10-28,33.72,33.95,32.66,33.2,33.65,758080.0,25158810.0,796800000.0,3187200000.0
sz002981,朝阳科技,2020-10-29,32.42,33.0,32.2,32.73,33.2,651590.0,21325794.0,785520000.0,3142080000.0
sz002981,朝阳科技,2020-10-30,32.61,32.95,31.19,31.28,32.73,1042244.0,33418053.0,750720000.0,3002880000.0
sz002981,朝阳科技,2020-11-02,31.3,31.43,30.58,30.66,31.28,807020.0,24903813.0,735840000.0,2943360000.0
sz002981,朝阳科技,2020-11-03,30.99,32.0,30.67,31.88,30.66,868674.0,27439538.0,765120000.0,3060480000.0
sz002981,朝阳科技,2020-11-04,32.02,32.8,31.92,32.28,31.88,847980.0,27448054.0,774720000.0,3098880000.0
sz002981,朝阳科技,2020-11-05,32.73,32.78,32.16,32.5,32.28,661000.0,21438092.0,780000000.0,3120000000.0
sz002981,朝阳科技,2020-11-06,32.63,32.65,31.89,32.4,32.5,585490.0,18907990.0,777600000.0,3110400000.0
sz002981,朝阳科技,2020-11-09,32.55,33.48,32.54,33.48,32.4,948210.0,31491882.0,803520000.0,3214080000.0
sz002981,朝阳科技,2020-11-10,33.13,33.8,33.01,33.08,33.48,793592.0,26443945.0,793920000.0,3175680000.0
sz002981,朝阳科技,2020-11-11,33.36,33.36,32.65,32.68,33.08,565300.0,18597851.0,784320000.0,3137280000.0
sz002981,朝阳科技,2020-11-12,32.66,33.05,31.91,32.1,32.68,560200.0,18101503.0,770400000.0,3081600000.0
sz002981,朝阳科技,2020-11-13,31.99,32.2,31.56,31.91,32.1,385130.0,12307764.0,765840000.0,3063360000.0
sz002981,朝阳科技,2020-11-16,31.91,32.28,31.51,32.1,31.91,451272.0,14425404.0,770400000.0,3081600000.0
sz002981,朝阳科技,2020-11-17,32.1,32.23,31.16,31.75,32.1,628000.0,19807390.0,762000000.0,3048000000.0
sz002981,朝阳科技,2020-11-18,31.58,32.18,31.36,31.75,31.75,476200.0,15112068.0,762000000.0,3048000000.0
sz002981,朝阳科技,2020-11-19,31.8,32.32,31.62,32.3,31.75,606000.0,19462358.0,775200000.0,3100800000.0
sz002981,朝阳科技,2020-11-20,32.33,32.92,32.33,32.63,32.3,761700.0,24855295.0,783120000.0,3132480000.0
sz002981,朝阳科技,2020-11-23,32.74,32.75,31.82,32.14,32.63,603990.0,19373290.0,771360000.0,3085440000.0
sz002981,朝阳科技,2020-11-24,32.0,32.48,31.8,32.15,32.14,418180.0,13449612.0,771600000.0,3086400000.0
sz002981,朝阳科技,2020-11-25,32.13,32.38,31.46,31.55,32.15,486600.0,15442738.0,757200000.0,3028800000.0
sz002981,朝阳科技,2020-11-26,31.6,32.0,31.0,31.96,31.55,602200.0,18917576.0,767040000.0,3068160000.0
sz002981,朝阳科技,2020-11-27,31.89,35.16,31.17,31.98,31.96,852210.0,27214193.0,767520000.0,3070080000.0
sz002981,朝阳科技,2020-11-30,31.98,33.5,31.86,32.8,31.98,1596800.0,52394761.0,787200000.0,3148800000.0
sz002981,朝阳科技,2020-12-01,32.8,33.38,32.4,33.03,32.8,1085219.0,35827363.0,792720000.0,3170880000.0
sz002981,朝阳科技,2020-12-02,33.06,33.25,32.54,32.83,33.03,833380.0,27349514.0,787920000.0,3151680000.0
sz002981,朝阳科技,2020-12-03,32.84,33.32,32.61,33.01,32.83,750174.0,24718682.0,792240000.0,3168960000.0
sz002981,朝阳科技,2020-12-04,33.07,33.18,32.51,32.74,33.01,586658.0,19233499.0,785760000.0,3143040000.0
sz002981,朝阳科技,2020-12-07,32.74,32.94,32.33,32.36,32.74,434100.0,14140240.0,776640000.0,3106560000.0
sz002981,朝阳科技,2020-12-08,32.36,32.51,31.76,31.8,32.36,587300.0,18791728.0,763200000.0,3052800000.0
sz002981,朝阳科技,2020-12-09,32.05,34.98,31.85,34.98,31.8,3359793.0,115378849.0,839520000.0,3358080000.0
sz002981,朝阳科技,2020-12-10,34.56,35.95,33.8,34.35,34.98,4796854.0,165801195.0,824400000.0,3297600000.0
sz002981,朝阳科技,2020-12-11,33.76,33.98,32.78,33.25,34.35,2645561.0,87908885.0,798000000.0,3192000000.0
sz002981,朝阳科技,2020-12-14,33.45,34.68,32.71,34.38,33.25,2797500.0,94452847.0,825120000.0,3300480000.0
sz002981,朝阳科技,2020-12-15,33.48,34.34,33.0,34.19,34.38,2110700.0,71041214.0,820560000.0,3282240000.0
sz002981,朝阳科技,2020-12-16,33.85,35.38,33.61,34.92,34.19,3142322.0,109352312.0,838080000.0,3352320000.0
sz002981,朝阳科技,2020-12-17,34.51,34.86,33.68,34.85,34.92,2010100.0,68910861.0,836400000.0,3345600000.0
sz002981,朝阳科技,2020-12-18,34.94,35.78,33.89,33.9,34.85,1908300.0,66049431.0,813600000.0,3254400000.0
sz002981,朝阳科技,2020-12-21,33.5,33.5,32.9,33.39,33.9,1585463.0,52547963.0,801360000.0,3205440000.0
sz002981,朝阳科技,2020-12-22,33.0,33.15,31.5,31.64,33.39,1716172.0,55369906.0,759360000.0,3037440000.0
sz002981,朝阳科技,2020-12-23,31.65,31.65,30.4,30.71,31.64,1518642.0,46810004.0,737040000.0,2948160000.0
sz002981,朝阳科技,2020-12-24,30.41,30.94,28.5,28.74,30.71,1784625.0,52367438.0,689760000.0,2759040000.0
sz002981,朝阳科技,2020-12-25,28.25,29.1,28.23,28.52,28.74,867320.0,24813449.0,684480000.0,2737920000.0
sz002981,朝阳科技,2020-12-28,28.4,28.5,26.97,27.07,28.52,1280120.0,35120129.0,649680000.0,2598720000.0
sz002981,朝阳科技,2020-12-29,27.27,27.68,26.95,27.26,27.07,690120.0,18854132.0,654240000.0,2616960000.0
sz002981,朝阳科技,2020-12-30,26.86,27.5,26.8,27.15,27.26,519920.0,14136395.0,651600000.0,2606400000.0
sz002981,朝阳科技,2020-12-31,27.15,28.42,27.15,27.9,27.15,802290.0,22371276.0,669600000.0,2678400000.0
sz002981,朝阳科技,2021-01-04,27.81,28.41,27.72,28.01,27.9,640070.0,17958013.0,672240000.0,2688960000.0
sz002981,朝阳科技,2021-01-05,28.09,28.29,27.8,28.08,28.01,555100.0,15567994.0,673920000.0,2695680000.0
sz002981,朝阳科技,2021-01-06,27.98,28.23,27.2,27.21,28.08,711300.0,19624441.0,653040000.0,2612160000.0
sz002981,朝阳科技,2021-01-07,27.03,27.36,25.6,25.63,27.21,1229780.0,32120859.0,615120000.0,2460480000.0
sz002981,朝阳科技,2021-01-08,25.65,26.2,24.85,26.05,25.63,748700.0,19231777.0,625200000.0,2500800000.0
sz002981,朝阳科技,2021-01-11,26.17,26.4,25.01,25.33,26.05,770280.0,19694121.0,607920000.0,2431680000.0
sz002981,朝阳科技,2021-01-12,25.33,25.91,25.09,25.22,25.33,505810.0,12834035.0,605280000.0,2421120000.0
sz002981,朝阳科技,2021-01-13,25.33,25.45,24.0,24.06,25.22,1049050.0,25527891.0,577440000.0,2309760000.0
sz002981,朝阳科技,2021-01-14,24.06,24.88,23.03,24.55,24.06,895799.0,21677439.0,589200000.0,2356800000.0
sz002981,朝阳科技,2021-01-15,24.43,25.47,24.2,25.28,24.55,769509.0,19287804.0,606720000.0,2426880000.0
sz002981,朝阳科技,2021-01-18,25.28,25.63,25.01,25.33,25.28,521500.0,13212705.0,607920000.0,2431680000.0
sz002981,朝阳科技,2021-01-19,25.3,25.97,25.02,25.74,25.33,608490.0,15586036.0,617760000.0,2471040000.0
sz002981,朝阳科技,2021-01-20,25.74,26.55,25.48,26.24,25.74,869010.0,22612378.0,629760000.0,2519040000.0
sz002981,朝阳科技,2021-01-21,26.23,26.5,25.69,25.79,26.24,677800.0,17548130.0,618960000.0,2475840000.0
sz002981,朝阳科技,2021-01-22,25.49,26.03,25.34,25.65,25.79,555500.0,14221096.0,615600000.0,2462400000.0
sz002981,朝阳科技,2021-01-25,25.34,25.79,25.03,25.08,25.65,574400.0,14582063.0,601920000.0,2407680000.0
sz002981,朝阳科技,2021-01-26,25.09,25.79,24.79,25.35,25.08,551120.0,14026520.0,608400000.0,2433600000.0
sz002981,朝阳科技,2021-01-27,25.35,25.48,24.53,24.68,25.35,509600.0,12702006.0,592320000.0,2369280000.0
sz002981,朝阳科技,2021-01-28,24.35,25.29,24.27,24.35,24.68,596700.0,14799861.0,584400000.0,2337600000.0
sz002981,朝阳科技,2021-01-29,24.93,25.39,24.25,24.81,24.35,660200.0,16291843.0,595440000.0,2381760000.0
sz002981,朝阳科技,2021-02-01,24.37,25.28,23.8,25.06,24.81,751320.0,18459611.0,601440000.0,2405760000.0
sz002981,朝阳科技,2021-02-02,25.0,25.13,24.61,24.7,25.06,453900.0,11263887.0,592800000.0,2371200000.0
sz002981,朝阳科技,2021-02-03,24.44,24.81,23.9,23.9,24.7,476260.0,11512632.0,573600000.0,2294400000.0
sz002981,朝阳科技,2021-02-04,23.8,24.02,22.6,23.03,23.9,611050.0,14179400.0,552720000.0,2210880000.0
sz002981,朝阳科技,2021-02-05,23.02,23.55,22.41,22.67,23.03,463830.0,10664376.0,544080000.0,2176320000.0
sz002981,朝阳科技,2021-02-08,22.75,22.98,22.23,22.3,22.67,460300.0,10375741.0,535200000.0,2140800000.0
sz002981,朝阳科技,2021-02-09,22.6,22.98,22.07,22.98,22.3,523630.0,11844960.0,551520000.0,2206080000.0
sz002981,朝阳科技,2021-02-10,22.96,23.98,22.49,23.33,22.98,584120.0,13645730.0,559920000.0,2239680000.0
sz002981,朝阳科技,2021-02-18,23.35,24.28,23.35,24.0,23.33,587990.0,14096313.0,576000000.0,2304000000.0
sz002981,朝阳科技,2021-02-19,24.0,24.46,23.77,24.46,24.0,496590.0,12052225.0,587040000.0,2348160000.0
sz002981,朝阳科技,2021-02-22,24.45,25.25,24.3,24.48,24.46,794709.0,19749986.0,587520000.0,2350080000.0
sz002981,朝阳科技,2021-02-23,24.5,24.86,24.06,24.31,24.48,507299.0,12387528.0,583440000.0,2333760000.0
sz002981,朝阳科技,2021-02-24,24.31,24.9,24.24,24.43,24.31,456590.0,11236276.0,586320000.0,2345280000.0
sz002981,朝阳科技,2021-02-25,24.43,24.75,23.8,23.85,24.43,521490.0,12597039.0,572400000.0,2289600000.0
sz002981,朝阳科技,2021-02-26,23.86,26.24,23.86,26.24,23.85,1449000.0,37314684.0,629760000.0,2519040000.0
sz002981,朝阳科技,2021-03-01,27.19,27.3,26.05,26.12,26.24,3141660.0,83279199.0,626880000.0,2507520000.0
sz002981,朝阳科技,2021-03-02,25.47,26.95,25.47,26.95,26.12,2359060.0,62110003.0,646800000.0,2587200000.0
sz002981,朝阳科技,2021-03-03,26.34,26.64,26.08,26.55,26.95,1595510.0,42123214.0,637200000.0,2548800000.0
sz002981,朝阳科技,2021-03-04,26.36,26.5,25.65,25.88,26.55,1069340.0,27709033.0,621120000.0,2484480000.0
sz002981,朝阳科技,2021-03-05,25.56,26.17,25.56,25.77,25.88,717220.0,18522581.0,618480000.0,2473920000.0
sz002981,朝阳科技,2021-03-08,25.8,26.2,25.62,26.14,25.77,1065040.0,27720613.0,627360000.0,2509440000.0
sz002981,朝阳科技,2021-03-09,25.8,25.96,24.17,24.91,26.14,940500.0,23533161.0,597840000.0,2391360000.0
sz002981,朝阳科技,2021-03-10,25.05,25.16,23.9,23.93,24.91,881520.0,21340860.0,574320000.0,2297280000.0
sz002981,朝阳科技,2021-03-11,24.1,24.55,23.82,24.23,23.93,518340.0,12514874.0,581520000.0,2326080000.0
sz002981,朝阳科技,2021-03-12,24.23,24.25,23.61,23.76,24.23,641120.0,15314873.0,570240000.0,2280960000.0
sz002981,朝阳科技,2021-03-15,24.0,24.1,23.53,23.95,23.76,523000.0,12470673.0,574800000.0,2299200000.0
sz002981,朝阳科技,2021-03-16,23.96,24.43,23.95,24.34,23.95,448560.0,10867873.0,584160000.0,2336640000.0
sz002981,朝阳科技,2021-03-17,24.34,25.15,24.23,25.03,24.34,810640.0,19995491.0,600720000.0,2402880000.0
sz002981,朝阳科技,2021-03-18,24.99,25.17,24.52,24.88,25.03,643100.0,15948464.0,597120000.0,2388480000.0
sz002981,朝阳科技,2021-03-19,24.69,27.16,24.55,26.19,24.88,1659800.0,42981288.0,628560000.0,2514240000.0
sz002981,朝阳科技,2021-03-22,25.95,26.15,25.61,25.99,26.19,1111720.0,28775781.0,623760000.0,2495040000.0
sz002981,朝阳科技,2021-03-23,26.0,26.39,25.17,25.28,25.99,900900.0,23085024.0,606720000.0,2426880000.0
sz002981,朝阳科技,2021-03-24,25.03,27.0,25.01,26.3,25.28,1537900.0,40137788.0,631200000.0,2524800000.0
sz002981,朝阳科技,2021-03-25,26.28,26.44,25.81,26.4,26.3,895600.0,23356006.0,633600000.0,2534400000.0
sz002981,朝阳科技,2021-03-26,26.35,26.7,26.03,26.15,26.4,767906.0,20116833.0,627600000.0,2510400000.0
sz002981,朝阳科技,2021-03-29,26.15,26.22,25.62,25.68,26.15,603300.0,15594844.0,616320000.0,2465280000.0
sz002981,朝阳科技,2021-03-30,25.89,26.21,25.64,25.7,25.68,614300.0,15932128.0,616800000.0,2467200000.0
sz002981,朝阳科技,2021-03-31,25.7,28.27,25.7,26.95,25.7,3298090.0,90997160.0,646800000.0,2587200000.0
sz002981,朝阳科技,2021-04-01,26.2,27.48,26.13,27.15,26.95,2618496.0,70007779.0,651600000.0,2606400000.0
sz002981,朝阳科技,2021-04-02,27.08,29.28,26.59,28.32,27.15,3559900.0,99109189.0,679680000.0,2718720000.0
sz002981,朝阳科技,2021-04-06,27.91,28.3,27.57,27.94,28.32,2120100.0,58970207.0,670560000.0,2682240000.0
sz002981,朝阳科技,2021-04-07,27.63,28.69,27.63,28.09,27.94,1592880.0,44663863.0,674160000.0,2696640000.0
sz002981,朝阳科技,2021-04-08,27.95,28.31,27.0,27.21,28.09,1523000.0,41953899.0,653040000.0,2612160000.0
sz002981,朝阳科技,2021-04-09,27.02,27.63,27.02,27.32,27.21,851220.0,23244088.0,655680000.0,2622720000.0
sz002981,朝阳科技,2021-04-12,27.33,27.47,26.36,26.6,27.32,951600.0,25353766.0,638400000.0,2553600000.0
sz002981,朝阳科技,2021-04-13,26.75,28.27,26.75,27.95,26.6,2384680.0,65820897.0,670800000.0,2683200000.0
sz002981,朝阳科技,2021-04-14,27.6,27.82,27.12,27.66,27.95,1412000.0,38788409.0,663840000.0,2655360000.0
sz002981,朝阳科技,2021-04-15,27.67,27.86,26.89,27.18,27.66,990800.0,26952528.0,652320000.0,2609280000.0
sz002981,朝阳科技,2021-04-16,27.19,27.54,26.91,27.39,27.18,925120.0,25240153.0,657360000.0,2629440000.0
sz002981,朝阳科技,2021-04-19,27.39,28.17,27.21,27.9,27.39,1243610.0,34568560.0,669600000.0,2678400000.0
sz002981,朝阳科技,2021-04-20,27.6,27.95,27.11,27.27,27.9,948900.0,26090832.0,654480000.0,2617920000.0
sz002981,朝阳科技,2021-04-21,27.06,27.22,26.39,26.4,27.27,1005120.0,26827963.0,633600000.0,2534400000.0
sz002981,朝阳科技,2021-04-22,26.79,26.93,26.4,26.84,26.4,654403.0,17442372.0,644160000.0,2576640000.0
sz002981,朝阳科技,2021-04-23,26.84,27.2,25.7,25.97,26.84,787800.0,20653679.0,623280000.0,2493120000.0
sz002981,朝阳科技,2021-04-26,25.81,25.81,24.64,24.68,25.97,1249910.0,31302818.0,592320000.0,2369280000.0
sz002981,朝阳科技,2021-04-27,24.67,25.49,24.25,25.03,24.68,877481.0,21849279.0,600720000.0,2402880000.0
sz002981,朝阳科技,2021-04-28,25.05,25.19,24.71,24.95,25.03,363000.0,9045207.0,598800000.0,2395200000.0
sz002981,朝阳科技,2021-04-29,25.11,25.24,24.56,24.56,24.95,478500.0,11941207.0,589440000.0,2357760000.0
sz002981,朝阳科技,2021-04-30,24.56,24.85,24.38,24.68,24.56,356500.0,8761062.0,592320000.0,2369280000.0
sz002981,朝阳科技,2021-05-06,24.6,25.1,24.5,25.03,24.68,380490.0,9504004.0,600720000.0,2402880000.0
sz002981,朝阳科技,2021-05-07,25.1,25.11,23.87,24.03,25.03,674600.0,16489139.0,576720000.0,2306880000.0
sz002981,朝阳科技,2021-05-10,24.01,24.4,22.5,24.0,24.03,597400.0,14229048.0,576000000.0,2304000000.0
sz002981,朝阳科技,2021-05-11,24.18,24.47,24.0,24.3,24.0,372400.0,9020288.0,583200000.0,2332800000.0
sz002981,朝阳科技,2021-05-12,24.3,24.55,24.03,24.45,24.3,299400.0,7287867.0,586800000.0,2347200000.0
sz002981,朝阳科技,2021-05-13,24.45,24.86,24.11,24.61,24.45,368112.0,9070015.0,590640000.0,2362560000.0
sz002981,朝阳科技,2021-05-14,24.83,24.83,24.31,24.56,24.61,411140.0,10113202.0,589440000.0,2357760000.0
sz002981,朝阳科技,2021-05-17,24.72,24.72,23.96,24.06,24.56,470520.0,11332763.0,577440000.0,2309760000.0
sz002981,朝阳科技,2021-05-18,24.06,24.29,24.06,24.25,24.06,267500.0,6461891.0,582000000.0,2328000000.0
sz002981,朝阳科技,2021-05-19,24.19,24.33,23.78,24.15,24.25,341900.0,8253652.0,579600000.0,2318400000.0
sz002981,朝阳科技,2021-05-20,24.04,24.15,23.55,23.8,24.15,430400.0,10233967.0,571200000.0,2284800000.0
sz002981,朝阳科技,2021-05-21,23.81,24.96,23.7,23.73,23.8,313740.0,7518878.0,569520000.0,2278080000.0
sz002981,朝阳科技,2021-05-24,24.0,24.0,23.63,23.78,23.73,242200.0,5756710.0,570720000.0,2282880000.0
sz002981,朝阳科技,2021-05-25,23.95,23.95,23.65,23.88,23.78,377700.0,8996322.0,573120000.0,2292480000.0
sz002981,朝阳科技,2021-05-26,23.87,24.12,23.79,24.03,23.88,334100.0,8018899.0,576720000.0,2306880000.0
sz002981,朝阳科技,2021-05-27,24.0,24.7,24.0,24.53,24.03,486200.0,11898313.0,588720000.0,2354880000.0
sz002981,朝阳科技,2021-05-28,24.29,24.69,24.08,24.2,24.53,347000.0,8448448.0,580800000.0,2323200000.0
sz002981,朝阳科技,2021-05-31,24.01,24.46,24.01,24.39,24.2,364129.0,8860579.0,585360000.0,2341440000.0
sz002981,朝阳科技,2021-06-01,24.39,24.85,24.2,24.64,24.39,420100.0,10324119.0,591360000.0,2365440000.0
sz002981,朝阳科技,2021-06-02,24.63,25.04,24.53,24.65,24.64,542809.0,13456195.0,591600000.0,2366400000.0
sz002981,朝阳科技,2021-06-03,24.65,24.95,24.55,24.84,24.65,378181.0,9382130.0,596160000.0,2384640000.0
sz002981,朝阳科技,2021-06-04,26.12,26.12,25.01,25.15,24.84,1301921.0,33239038.0,603600000.0,2414400000.0
sz002981,朝阳科技,2021-06-07,25.15,25.37,24.68,24.97,25.15,688600.0,17247590.0,599280000.0,2397120000.0
sz002981,朝阳科技,2021-06-08,24.97,25.52,24.73,25.38,24.97,762420.0,19276198.0,609120000.0,2436480000.0
sz002981,朝阳科技,2021-06-09,25.4,25.5,25.01,25.11,25.38,488600.0,12327888.0,602640000.0,2410560000.0
sz002981,朝阳科技,2021-06-10,25.11,25.41,24.51,25.18,25.11,493700.0,12355987.0,604320000.0,2417280000.0
sz002981,朝阳科技,2021-06-11,24.95,25.49,24.81,24.96,25.18,515600.0,12942147.0,599040000.0,2396160000.0
sz002981,朝阳科技,2021-06-15,25.24,25.24,24.62,24.78,24.96,341700.0,8477131.0,594720000.0,2378880000.0
sz002981,朝阳科技,2021-06-16,24.94,25.87,24.91,24.95,24.78,580320.0,14647512.0,598800000.0,2395200000.0
sz002981,朝阳科技,2021-06-17,24.61,25.66,24.61,25.49,24.95,708400.0,17956532.0,611760000.0,2447040000.0
sz002981,朝阳科技,2021-06-18,25.25,25.79,25.23,25.36,25.49,669300.0,17017007.0,608640000.0,2434560000.0
sz002981,朝阳科技,2021-06-21,25.13,25.73,25.05,25.73,25.36,706521.0,17957675.0,617520000.0,2470080000.0
sz002981,朝阳科技,2021-06-22,25.74,25.85,25.41,25.64,25.73,547600.0,14008108.0,615360000.0,2461440000.0
sz002981,朝阳科技,2021-06-23,25.7,26.17,25.36,26.12,25.64,977490.0,25234927.0,626880000.0,2507520000.0
sz002981,朝阳科技,2021-06-24,26.08,26.08,25.73,25.86,26.12,523500.0,13543058.0,620640000.0,2482560000.0
sz002981,朝阳科技,2021-06-25,25.7,25.7,25.25,25.5,25.86,492030.0,12524936.0,612000000.0,2448000000.0
sz002981,朝阳科技,2021-06-28,25.5,26.06,25.4,25.98,25.5,587850.0,15172936.0,623520000.0,2494080000.0
sz002981,朝阳科技,2021-06-29,25.9,25.9,24.89,25.08,25.93,600700.0,15234354.0,601920000.0,2407680000.0
sz002981,朝阳科技,2021-06-30,25.07,25.4,25.01,25.08,25.08,397790.0,10019960.0,601920000.0,2407680000.0
sz002981,朝阳科技,2021-07-01,25.39,25.39,24.55,24.6,25.08,440200.0,10977227.0,590400000.0,2361600000.0
sz002981,朝阳科技,2021-07-02,24.58,24.8,24.12,24.24,24.6,458900.0,11212209.0,581760000.0,2327040000.0
sz002981,朝阳科技,2021-07-05,24.23,24.6,24.1,24.51,24.24,327000.0,7964515.0,588240000.0,2352960000.0
sz002981,朝阳科技,2021-07-06,24.69,24.9,24.52,24.87,24.51,321000.0,7959233.0,596880000.0,2387520000.0
sz002981,朝阳科技,2021-07-07,24.58,25.1,24.58,25.08,24.87,317800.0,7934475.0,601920000.0,2407680000.0
sz002981,朝阳科技,2021-07-08,25.28,25.28,24.76,24.9,25.08,305500.0,7614311.0,597600000.0,2390400000.0
sz002981,朝阳科技,2021-07-09,24.8,25.02,24.5,24.64,24.9,273430.0,6747433.0,591360000.0,2365440000.0
sz002981,朝阳科技,2021-07-12,24.98,25.17,24.65,25.1,24.64,382600.0,9555065.0,602400000.0,2409600000.0
sz002981,朝阳科技,2021-07-13,25.21,25.21,24.7,24.87,25.1,339000.0,8448137.0,596880000.0,2387520000.0
sz002981,朝阳科技,2021-07-14,24.96,24.96,24.4,24.4,24.87,355200.0,8733443.0,585600000.0,2342400000.0
sz002981,朝阳科技,2021-07-15,24.32,24.32,23.24,23.39,24.4,769800.0,18199886.0,561360000.0,2245440000.0
sz002981,朝阳科技,2021-07-16,23.0,23.42,22.9,23.17,23.39,412000.0,9558659.0,556080000.0,2224320000.0
sz002981,朝阳科技,2021-07-19,23.42,23.42,22.9,22.99,23.17,367300.0,8439899.0,551760000.0,2207040000.0
sz002981,朝阳科技,2021-07-20,23.15,23.15,22.78,22.93,22.99,238500.0,5467348.0,550320000.0,2201280000.0
sz002981,朝阳科技,2021-07-21,23.0,23.37,23.0,23.16,22.93,253600.0,5889534.0,555840000.0,2223360000.0
sz002981,朝阳科技,2021-07-22,23.5,23.5,22.92,23.07,23.16,231300.0,5336997.0,553680000.0,2214720000.0
sz002981,朝阳科技,2021-07-23,23.12,23.24,22.55,22.61,23.07,434300.0,9873046.0,542640000.0,2170560000.0
sz002981,朝阳科技,2021-07-26,22.62,22.76,21.75,22.23,22.61,385700.0,8544615.0,533520000.0,2134080000.0
sz002981,朝阳科技,2021-07-27,22.23,22.39,21.72,21.75,22.23,375300.0,8250328.0,522000000.0,2088000000.0
sz002981,朝阳科技,2021-07-28,21.75,21.75,20.0,20.78,21.75,435300.0,9078893.0,498720000.0,1994880000.0
sz002981,朝阳科技,2021-07-29,21.0,21.5,20.91,21.44,20.78,394730.0,8401316.0,514560000.0,2058240000.0
sz002981,朝阳科技,2021-07-30,21.44,21.6,21.18,21.44,21.44,238000.0,5094786.0,514560000.0,2058240000.0
sz002981,朝阳科技,2021-08-02,21.09,21.95,21.09,21.92,21.44,355500.0,7724982.0,526080000.0,2104320000.0
sz002981,朝阳科技,2021-08-03,21.92,22.42,21.83,22.04,21.92,318600.0,7036036.0,528960000.0,2115840000.0
sz002981,朝阳科技,2021-08-04,21.91,22.27,21.62,21.7,22.04,497490.0,10820643.0,520800000.0,2083200000.0
sz002981,朝阳科技,2021-08-05,21.72,21.88,21.45,21.48,21.7,373600.0,8079734.0,515520000.0,2062080000.0
sz002981,朝阳科技,2021-08-06,21.68,21.79,21.33,21.52,21.48,207900.0,4468987.0,516480000.0,2065920000.0
sz002981,朝阳科技,2021-08-09,21.55,22.88,21.52,21.98,21.52,335190.0,7344633.0,527520000.0,2110080000.0
sz002981,朝阳科技,2021-08-10,21.98,22.3,21.71,22.29,21.98,421200.0,9322488.0,534960000.0,2139840000.0
sz002981,朝阳科技,2021-08-11,22.16,22.87,22.16,22.54,22.29,501900.0,11334878.0,540960000.0,2163840000.0
sz002981,朝阳科技,2021-08-12,22.84,22.84,22.0,22.57,22.54,388720.0,8780816.0,541680000.0,2166720000.0
sz002981,朝阳科技,2021-08-13,22.59,22.72,22.08,22.34,22.57,461200.0,10287705.0,536160000.0,2144640000.0
sz002981,朝阳科技,2021-08-16,22.4,22.59,22.1,22.5,22.34,346700.0,7759904.0,540000000.0,2160000000.0
sz002981,朝阳科技,2021-08-17,22.68,22.68,21.8,21.81,22.5,340020.0,7520399.0,523440000.0,2093760000.0
sz002981,朝阳科技,2021-08-18,21.78,21.99,21.6,21.97,21.81,223800.0,4886409.0,527280000.0,2109120000.0
sz002981,朝阳科技,2021-08-19,21.73,22.04,21.69,21.72,21.97,233000.0,5079206.0,521280000.0,2085120000.0
sz002981,朝阳科技,2021-08-20,21.85,22.1,21.15,21.34,21.72,367400.0,7870104.0,512160000.0,2048640000.0
sz002981,朝阳科技,2021-08-23,21.56,23.13,21.16,22.82,21.34,1299350.0,29375192.0,547680000.0,2190720000.0
sz002981,朝阳科技,2021-08-24,22.65,22.89,22.42,22.44,22.82,541690.0,12254362.0,538560000.0,2154240000.0
sz002981,朝阳科技,2021-08-25,22.56,22.85,22.17,22.56,22.44,333400.0,7481709.0,541440000.0,2165760000.0
sz002981,朝阳科技,2021-08-26,22.56,22.62,22.05,22.11,22.56,377300.0,8384262.0,530640000.0,2122560000.0
sz002981,朝阳科技,2021-08-27,22.11,22.34,21.61,22.21,22.11,488550.0,10742246.0,533040000.0,2132160000.0
sz002981,朝阳科技,2021-08-30,21.38,23.0,21.38,21.84,22.21,611890.0,13505626.0,524160000.0,2096640000.0
sz002981,朝阳科技,2021-08-31,21.76,22.1,21.31,21.39,21.84,541400.0,11665825.0,513360000.0,2053440000.0
sz002981,朝阳科技,2021-09-01,21.66,21.7,20.81,21.63,21.39,608400.0,12939459.0,519120000.0,2076480000.0
sz002981,朝阳科技,2021-09-02,21.61,21.85,21.22,21.61,21.63,420700.0,9036060.0,518640000.0,2074560000.0
sz002981,朝阳科技,2021-09-03,21.61,22.49,21.6,22.07,21.61,760200.0,16681282.0,529680000.0,2118720000.0
sz002981,朝阳科技,2021-09-06,22.06,22.27,21.71,22.15,22.07,523660.0,11521437.0,531600000.0,2126400000.0
sz002981,朝阳科技,2021-09-07,22.15,22.39,21.96,22.25,22.15,355200.0,7897813.0,534000000.0,2136000000.0
sz002981,朝阳科技,2021-09-08,22.26,22.6,22.15,22.4,22.25,387500.0,8673768.0,537600000.0,2150400000.0
sz002981,朝阳科技,2021-09-09,22.34,22.85,22.05,22.46,22.4,668280.0,14960279.0,539040000.0,2156160000.0
sz002981,朝阳科技,2021-09-10,22.46,22.6,22.04,22.11,22.46,428900.0,9529101.0,530640000.0,2122560000.0
sz002981,朝阳科技,2021-09-13,22.33,22.33,21.86,22.21,22.11,509810.0,11268998.0,533040000.0,2132160000.0
sz002981,朝阳科技,2021-09-14,22.21,22.57,22.06,22.48,22.21,673620.0,15064967.0,539520000.0,2158080000.0
sz002981,朝阳科技,2021-09-15,22.34,22.34,21.94,22.2,22.48,555800.0,12291674.0,532800000.0,2131200000.0
sz002981,朝阳科技,2021-09-16,22.3,22.59,21.8,22.02,22.2,737200.0,16398321.0,528480000.0,2113920000.0
sz002981,朝阳科技,2021-09-17,22.01,22.01,21.25,21.68,22.02,652820.0,14065325.0,520320000.0,2081280000.0
sz002981,朝阳科技,2021-09-22,21.98,23.5,21.97,22.04,21.68,956190.0,21391945.0,528960000.0,2115840000.0
sz002981,朝阳科技,2021-09-23,22.22,22.88,22.22,22.35,22.04,882090.0,19822593.0,536400000.0,2145600000.0
sz002981,朝阳科技,2021-09-24,22.11,22.26,21.82,21.82,22.35,595600.0,13108287.0,523680000.0,2094720000.0
sz002981,朝阳科技,2021-09-27,22.0,22.0,21.38,21.42,21.82,437580.0,9436928.0,514080000.0,2056320000.0
sz002981,朝阳科技,2021-09-28,21.42,21.48,21.11,21.14,21.42,276400.0,5873899.0,507360000.0,2029440000.0
sz002981,朝阳科技,2021-09-29,21.25,21.44,20.82,20.91,21.14,357200.0,7538737.0,501840000.0,2007360000.0
sz002981,朝阳科技,2021-09-30,21.07,21.25,20.83,21.18,20.91,164100.0,3463264.0,508320000.0,2033280000.0
sz002981,朝阳科技,2021-10-08,21.34,21.6,21.18,21.52,21.18,226700.0,4862790.0,516480000.0,2065920000.0
sz002981,朝阳科技,2021-10-11,21.53,21.71,21.33,21.61,21.52,180700.0,3885116.0,518640000.0,2074560000.0
sz002981,朝阳科技,2021-10-12,21.55,21.6,21.05,21.28,21.61,183600.0,3904047.0,510720000.0,2042880000.0
sz002981,朝阳科技,2021-10-13,21.13,21.5,21.13,21.48,21.28,181200.0,3875555.0,515520000.0,2062080000.0
sz002981,朝阳科技,2021-10-14,21.32,21.64,21.32,21.49,21.48,201100.0,4324854.0,515760000.0,2063040000.0
sz002981,朝阳科技,2021-10-15,21.39,21.49,21.0,21.23,21.49,196300.0,4181079.0,509520000.0,2038080000.0
sz002981,朝阳科技,2021-10-18,21.23,21.38,21.06,21.28,21.23,161600.0,3425161.0,510720000.0,2042880000.0
sz002981,朝阳科技,2021-10-19,21.35,21.36,21.11,21.2,21.28,196600.0,4177928.0,508800000.0,2035200000.0
sz002981,朝阳科技,2021-10-20,21.2,21.3,20.65,20.8,21.2,266000.0,5569147.0,499200000.0,1996800000.0
sz002981,朝阳科技,2021-10-21,20.8,20.88,20.25,20.26,20.8,347400.0,7111143.0,486240000.0,1944960000.0
sz002981,朝阳科技,2021-10-22,20.88,21.19,20.36,21.0,20.26,578200.0,12046895.0,504000000.0,2016000000.0
sz002981,朝阳科技,2021-10-25,20.88,22.06,20.8,21.42,21.0,1022100.0,22137558.0,514080000.0,2056320000.0
sz002981,朝阳科技,2021-10-26,21.35,22.44,21.01,22.37,21.42,1396800.0,30763574.0,536880000.0,2147520000.0
sz002981,朝阳科技,2021-10-27,22.3,22.36,21.79,22.02,22.37,948280.0,20815161.0,528480000.0,2113920000.0
sz002981,朝阳科技,2021-10-28,22.0,22.42,21.65,21.89,22.02,940200.0,20804758.0,525360000.0,2101440000.0
sz002981,朝阳科技,2021-10-29,21.85,21.9,21.35,21.56,21.89,540800.0,11621854.0,517440000.0,2069760000.0
sz002981,朝阳科技,2021-11-01,21.68,22.95,21.35,22.76,21.56,2226000.0,49643852.0,546240000.0,2184960000.0
sz002981,朝阳科技,2021-11-02,22.7,22.7,21.83,22.25,22.76,1697000.0,37710351.0,534000000.0,2136000000.0
sz002981,朝阳科技,2021-11-03,22.39,22.89,21.91,22.3,22.25,1322600.0,29599899.0,535200000.0,2140800000.0
sz002981,朝阳科技,2021-11-04,22.38,22.38,22.02,22.31,22.3,921400.0,20444774.0,535440000.0,2141760000.0
sz002981,朝阳科技,2021-11-05,22.22,22.71,22.13,22.71,22.31,1363900.0,30665722.0,545040000.0,2180160000.0
sz002981,朝阳科技,2021-11-08,22.64,23.16,22.42,22.95,22.71,1622100.0,37047167.0,550800000.0,2203200000.0
sz002981,朝阳科技,2021-11-09,22.83,22.98,22.5,22.77,22.95,902600.0,20514506.0,546480000.0,2185920000.0
sz002981,朝阳科技,2021-11-10,22.8,22.97,22.43,22.97,22.77,744500.0,16882995.0,551280000.0,2205120000.0
sz002981,朝阳科技,2021-11-11,23.0,23.35,22.67,22.85,22.97,1044700.0,24029343.0,548400000.0,2193600000.0
sz002981,朝阳科技,2021-11-12,22.85,23.87,22.5,22.98,22.85,1709800.0,39554689.0,551520000.0,2206080000.0
sz002981,朝阳科技,2021-11-15,22.98,23.51,22.62,22.81,22.98,1619700.0,37207458.0,547440000.0,2189760000.0
sz002981,朝阳科技,2021-11-16,22.72,22.87,22.17,22.17,22.81,937120.0,21028764.0,532080000.0,2128320000.0
sz002981,朝阳科技,2021-11-17,22.14,22.68,22.14,22.47,22.17,453800.0,10174787.0,539280000.0,2157120000.0
sz002981,朝阳科技,2021-11-18,22.48,22.96,22.22,22.25,22.47,641000.0,14462590.0,534000000.0,2136000000.0
sz002981,朝阳科技,2021-11-19,22.1,23.35,22.1,23.21,22.25,1670900.0,38361355.0,557040000.0,2228160000.0
sz002981,朝阳科技,2021-11-22,23.34,23.9,23.25,23.4,23.21,1295000.0,30516759.0,561600000.0,2246400000.0
sz002981,朝阳科技,2021-11-23,23.35,24.34,23.35,23.9,23.4,1372600.0,32923038.0,573600000.0,2294400000.0
sz002981,朝阳科技,2021-11-24,23.9,24.35,23.61,23.96,23.9,1105600.0,26612285.0,575040000.0,2300160000.0
sz002981,朝阳科技,2021-11-25,23.85,24.33,23.8,23.97,23.96,714750.0,17202668.0,575280000.0,2301120000.0
sz002981,朝阳科技,2021-11-26,23.7,24.15,23.52,23.93,23.97,657700.0,15687590.0,574320000.0,2297280000.0
sz002981,朝阳科技,2021-11-29,23.72,23.75,23.34,23.36,23.93,674200.0,15866644.0,560640000.0,2242560000.0
sz002981,朝阳科技,2021-11-30,23.54,23.95,23.25,23.58,23.36,666230.0,15756441.0,565920000.0,2263680000.0
sz002981,朝阳科技,2021-12-01,23.43,23.9,23.43,23.84,23.58,520642.0,12379949.0,572160000.0,2288640000.0
sz002981,朝阳科技,2021-12-02,23.9,23.93,23.23,23.44,23.84,626200.0,14681342.0,562560000.0,2250240000.0
sz002981,朝阳科技,2021-12-03,23.45,23.73,23.06,23.16,23.44,424600.0,9860513.0,555840000.0,2223360000.0
sz002981,朝阳科技,2021-12-06,23.16,23.16,21.95,21.97,23.16,1164600.0,25969721.0,527280000.0,2109120000.0
sz002981,朝阳科技,2021-12-07,22.02,22.25,21.55,21.7,21.97,600700.0,13068931.0,520800000.0,2083200000.0
sz002981,朝阳科技,2021-12-08,21.8,21.85,21.42,21.84,21.7,452100.0,9835405.0,524160000.0,2096640000.0
sz002981,朝阳科技,2021-12-09,21.97,22.18,21.74,22.0,21.84,535400.0,11760469.0,528000000.0,2112000000.0
sz002981,朝阳科技,2021-12-10,21.99,22.3,21.81,22.16,22.0,412052.0,9116350.0,531840000.0,2127360000.0
sz002981,朝阳科技,2021-12-13,22.19,22.35,21.82,21.97,22.16,553100.0,12184197.0,527280000.0,2109120000.0
sz002981,朝阳科技,2021-12-14,21.97,22.25,21.77,22.25,21.97,466400.0,10309490.0,534000000.0,2136000000.0
sz002981,朝阳科技,2021-12-15,22.24,22.42,22.17,22.41,22.25,574500.0,12813773.0,537840000.0,2151360000.0
sz002981,朝阳科技,2021-12-16,22.88,22.88,22.37,22.68,22.41,866200.0,19578900.0,544320000.0,2177280000.0
sz002981,朝阳科技,2021-12-17,22.59,22.59,21.9,22.17,22.68,696000.0,15468205.0,532080000.0,2128320000.0
sz002981,朝阳科技,2021-12-20,22.25,22.55,21.91,21.96,22.17,414600.0,9207418.0,527040000.0,2108160000.0
sz002981,朝阳科技,2021-12-21,21.96,22.61,21.96,22.47,21.96,614500.0,13752066.0,539280000.0,2157120000.0
sz002981,朝阳科技,2021-12-22,22.46,22.79,22.35,22.54,22.47,621300.0,14027012.0,540960000.0,2163840000.0
sz002981,朝阳科技,2021-12-23,22.54,22.72,22.25,22.27,22.54,490000.0,10985410.0,534480000.0,2137920000.0
sz002981,朝阳科技,2021-12-24,22.41,22.45,21.61,21.66,22.27,589600.0,12898904.0,519840000.0,2079360000.0
sz002981,朝阳科技,2021-12-27,21.65,21.86,21.23,21.8,21.66,489190.0,10565406.0,523200000.0,2092800000.0
sz002981,朝阳科技,2021-12-28,21.8,22.1,21.62,21.96,21.8,374614.0,8206398.0,527040000.0,2108160000.0
sz002981,朝阳科技,2021-12-29,21.81,22.0,21.6,21.82,21.96,352200.0,7664782.0,523680000.0,2094720000.0
sz002981,朝阳科技,2021-12-30,21.83,22.07,21.75,21.92,21.82,323100.0,7096791.0,526080000.0,2104320000.0
sz002981,朝阳科技,2021-12-31,21.91,22.09,21.81,21.93,21.92,285700.0,6280273.0,526320000.0,2105280000.0
sz002981,朝阳科技,2022-01-04,21.91,22.6,21.91,22.35,21.93,731600.0,16352721.0,536400000.0,2145600000.0
sz002981,朝阳科技,2022-01-05,22.35,22.55,22.16,22.3,22.35,656190.0,14633312.0,535200000.0,2140800000.0
sz002981,朝阳科技,2022-01-06,22.2,23.24,22.2,22.98,22.3,1322070.0,30224531.0,551520000.0,2206080000.0
sz002981,朝阳科技,2022-01-07,22.99,23.07,22.55,22.57,22.98,675704.0,15362522.0,541680000.0,2166720000.0
sz002981,朝阳科技,2022-01-10,22.44,23.23,22.44,22.73,22.57,534800.0,12151163.0,545520000.0,2182080000.0
sz002981,朝阳科技,2022-01-11,23.45,23.7,22.58,22.76,22.73,754800.0,17336430.0,546240000.0,2184960000.0
sz002981,朝阳科技,2022-01-12,22.68,23.47,22.61,23.22,22.76,1097500.0,25394593.0,557280000.0,2229120000.0
sz002981,朝阳科技,2022-01-13,23.27,23.44,23.01,23.11,23.22,584520.0,13511641.0,554640000.0,2218560000.0
sz002981,朝阳科技,2022-01-14,22.9,23.29,22.9,23.25,23.11,609820.0,14155305.0,558000000.0,2232000000.0
