数据由邢不行整理
股票代码,股票名称,交易日期,开盘价,最高价,最低价,收盘价,前收盘价,成交量,成交额,流通市值,总市值
sz002983,N芯瑞达,2020-04-28,15.56,18.68,15.56,18.68,12.97,136042.0,2536740.0,661645600.0,2646582400.0
sz002983,芯瑞达,2020-04-29,20.55,20.55,20.55,20.55,18.68,34100.0,700755.0,727881000.0,2911524000.0
sz002983,芯瑞达,2020-04-30,22.61,22.61,22.61,22.61,20.55,79468.0,1796771.0,800846200.0,3203384800.0
sz002983,芯瑞达,2020-05-06,24.87,24.87,24.87,24.87,22.61,110931.0,2758853.0,880895400.0,3523581600.0
sz002983,芯瑞达,2020-05-07,27.36,27.36,27.36,27.36,24.87,99700.0,2727792.0,969091200.0,3876364800.0
sz002983,芯瑞达,2020-05-08,30.1,30.1,30.1,30.1,27.36,156003.0,4695690.0,1066142000.0,4264568000.0
sz002983,芯瑞达,2020-05-11,33.11,33.11,33.11,33.11,30.1,387240.0,12821516.0,1172756200.0,4691024800.0
sz002983,芯瑞达,2020-05-12,36.42,36.42,36.42,36.42,33.11,387214.0,14102333.0,1289996400.0,5159985600.0
sz002983,芯瑞达,2020-05-13,40.06,40.06,40.06,40.06,36.42,378591.0,15166355.0,1418925200.0,5675700800.0
sz002983,芯瑞达,2020-05-14,44.07,44.07,44.07,44.07,40.06,7225874.0,318444267.0,1560959400.0,6243837600.0
sz002983,芯瑞达,2020-05-15,48.0,48.48,46.99,48.48,44.07,13737073.0,659094864.0,1717161600.0,6868646400.0
sz002983,芯瑞达,2020-05-18,52.9,53.33,48.21,48.89,48.48,26078633.0,1329077628.0,1731683800.0,6926735200.0
sz002983,芯瑞达,2020-05-19,45.13,53.78,45.13,52.4,48.89,22967549.0,1142926131.0,1856008000.0,7424032000.0
sz002983,芯瑞达,2020-05-20,50.31,52.18,48.8,49.38,52.4,16123203.0,807135503.0,1749039600.0,6996158400.0
sz002983,芯瑞达,2020-05-21,48.89,53.3,46.88,51.48,49.38,17917624.0,900627602.0,1823421600.0,7293686400.0
sz002983,芯瑞达,2020-05-22,50.2,50.6,47.45,47.89,51.48,11095851.0,545032683.0,1696263800.0,6785055200.0
sz002983,芯瑞达,2020-05-25,47.16,47.86,43.1,43.1,47.89,11460128.0,507485583.0,1526602000.0,6106408000.0
sz002983,芯瑞达,2020-05-26,42.28,44.3,41.52,43.26,43.1,8284332.0,357549896.0,1532269200.0,6129076800.0
sz002983,芯瑞达,2020-05-27,42.91,45.5,42.91,44.9,43.26,10917134.0,484958551.0,1590358000.0,6361432000.0
sz002983,芯瑞达,2020-05-28,43.88,44.3,40.61,40.86,44.9,9944894.0,417566189.0,1447261200.0,5789044800.0
sz002983,芯瑞达,2020-05-29,40.86,42.46,40.1,41.51,40.86,7275462.0,300519591.0,1470284200.0,5881136800.0
sz002983,芯瑞达,2020-06-01,41.5,43.38,41.49,42.56,41.51,7980009.0,339223433.0,1507475200.0,6029900800.0
sz002983,芯瑞达,2020-06-02,42.18,46.82,41.91,46.82,42.56,10549736.0,471011643.0,1658364400.0,6633457600.0
sz002983,芯瑞达,2020-06-03,49.48,50.5,46.83,47.25,46.82,17554971.0,850256781.0,1673595000.0,6694380000.0
sz002983,芯瑞达,2020-06-04,46.01,46.8,44.3,44.73,47.25,11157838.0,506884585.0,1584336600.0,6337346400.0
sz002983,芯瑞达,2020-06-05,44.31,44.58,42.91,43.49,44.73,7445488.0,324306943.0,1540415800.0,6161663200.0
sz002983,芯瑞达,2020-06-08,44.0,47.84,44.0,46.73,43.49,12580441.0,583932912.0,1655176600.0,6620706400.0
sz002983,芯瑞达,2020-06-09,45.0,45.4,43.6,45.01,46.73,8909896.0,396969314.0,1594254200.0,6377016800.0
sz002983,芯瑞达,2020-06-10,44.41,46.82,43.58,45.99,45.01,9607349.0,438247469.0,1628965800.0,6515863200.0
sz002983,芯瑞达,2020-06-11,45.9,49.0,45.39,47.74,45.99,12451132.0,583281692.0,1690950800.0,6763803200.0
sz002983,芯瑞达,2020-06-12,45.9,49.49,45.35,49.0,47.74,12964453.0,621498050.0,1735580000.0,6942320000.0
sz002983,芯瑞达,2020-06-15,48.1,49.96,46.5,46.75,49.0,10422369.0,501189998.0,1655885000.0,6623540000.0
sz002983,芯瑞达,2020-06-16,47.0,48.49,46.06,47.11,46.75,7960056.0,376243939.0,1668636200.0,6674544800.0
sz002983,芯瑞达,2020-06-17,46.59,46.96,44.48,45.25,47.11,8009408.0,362437010.0,1602755000.0,6411020000.0
sz002983,芯瑞达,2020-06-18,44.9,45.83,44.1,45.1,45.25,4668572.0,211732231.0,1597442000.0,6389768000.0
sz002983,芯瑞达,2020-06-19,44.55,44.96,43.88,44.26,45.1,4767585.0,211467603.0,1567689200.0000002,6270756800.000001
sz002983,芯瑞达,2020-06-22,44.5,45.97,44.5,45.32,44.26,5477601.0,248474386.0,1605234400.0,6420937600.0
sz002983,芯瑞达,2020-06-23,45.88,47.9,45.34,46.75,45.32,8611657.0,404472231.0,1655885000.0,6623540000.0
sz002983,芯瑞达,2020-06-24,45.72,45.9,44.16,45.16,46.75,6702592.0,301732556.0,1599567200.0,6398268800.0
sz002983,芯瑞达,2020-06-29,44.97,44.99,44.2,44.66,45.16,3920557.0,174534830.0,1581857200.0,6327428800.0
sz002983,芯瑞达,2020-06-30,45.0,49.13,44.95,47.81,44.66,11423986.0,542482015.0,1693430200.0,6773720800.0
sz002983,芯瑞达,2020-07-01,48.19,52.5,47.22,50.92,47.81,15734064.0,775005106.0,1803586400.0,7214345600.000002
sz002983,芯瑞达,2020-07-02,50.23,51.23,48.87,51.19,50.92,10792124.0,539566838.0,1813149800.0,7252599200.0
sz002983,芯瑞达,2020-07-03,50.88,54.0,49.52,49.7,51.19,11608232.0,598147506.0,1760374000.0,7041496000.0
sz002983,芯瑞达,2020-07-06,49.05,54.0,48.25,53.11,49.7,13951484.0,716375207.0,1881156200.0,7524624800.0
sz002983,芯瑞达,2020-07-07,52.89,57.35,52.43,53.68,53.11,14747132.0,809526716.0,1901345600.0,7605382400.0
sz002983,芯瑞达,2020-07-08,52.5,55.1,51.81,54.25,53.68,10653626.0,568810694.0,1921535000.0,7686140000.0
sz002983,芯瑞达,2020-07-09,54.36,59.68,53.93,59.68,54.25,13995712.0,790797642.0,2113865600.0,8455462400.0
sz002983,芯瑞达,2020-07-10,62.0,65.5,60.0,60.87,59.68,14718165.0,914259038.0,2156015400.0,8624061600.0
sz002983,芯瑞达,2020-07-13,59.01,61.9,59.01,61.18,60.87,10126286.0,613604025.0,2166995600.0,8667982400.0
sz002983,芯瑞达,2020-07-14,60.8,60.8,55.5,56.77,61.18,10175551.0,588328398.0,2010793400.0,8043173600.0
sz002983,芯瑞达,2020-07-15,56.49,56.99,52.5,53.64,56.77,6775153.0,367769008.0,1899928800.0,7599715200.0
sz002983,芯瑞达,2020-07-16,54.0,54.85,49.66,49.99,53.64,5705908.0,302692674.0,1770645799.9999998,7082583199.999999
sz002983,芯瑞达,2020-07-17,50.01,51.3,49.32,50.64,49.99,3732590.0,188324264.0,1793668800.0,7174675200.0
sz002983,芯瑞达,2020-07-20,51.0,52.51,49.82,52.49,50.64,3945150.0,202224375.0,1859195800.0,7436783199.999999
sz002983,芯瑞达,2020-07-21,52.02,55.47,51.51,54.6,52.49,6327065.0,340422416.0,1933932000.0,7735728000.0
sz002983,芯瑞达,2020-07-22,53.66,54.47,53.06,53.54,54.6,4968475.0,266918803.0,1896386800.0,7585547200.0
sz002983,芯瑞达,2020-07-23,52.43,52.78,49.5,51.36,53.54,4654708.0,238680261.0,1819171200.0,7276684800.0
sz002983,芯瑞达,2020-07-24,51.0,51.35,46.26,46.36,51.36,4810613.0,233796717.0,1642071200.0,6568284800.0
sz002983,芯瑞达,2020-07-27,46.57,47.0,44.18,45.05,46.36,3042033.0,138770097.0,1595671000.0,6382684000.0
sz002983,芯瑞达,2020-07-28,45.35,46.98,45.35,46.94,45.05,3057245.0,141363737.0,1662614800.0,6650459200.0
sz002983,芯瑞达,2020-07-29,46.48,48.88,46.21,48.51,46.94,3440420.0,164143360.0,1718224200.0000002,6872896800.000001
sz002983,芯瑞达,2020-07-30,48.55,48.89,47.08,47.32,48.51,3144927.0,149766730.0,1676074400.0,6704297600.0
sz002983,芯瑞达,2020-07-31,47.35,48.68,46.68,47.87,47.32,3003204.0,143890023.0,1695555400.0,6782221600.0
sz002983,芯瑞达,2020-08-03,48.38,49.65,47.38,49.31,47.87,3972191.0,193832109.0,1746560200.0,6986240800.0
sz002983,芯瑞达,2020-08-04,49.18,49.3,47.57,48.08,49.31,3728620.0,179763103.0,1702993599.9999998,6811974399.999999
sz002983,芯瑞达,2020-08-05,49.0,49.68,48.23,48.58,48.08,3301119.0,161137574.0,1720703599.9999998,6882814399.999999
sz002983,芯瑞达,2020-08-06,48.59,48.6,46.52,47.21,48.58,3361965.0,158847579.0,1672178200.0,6688712800.0
sz002983,芯瑞达,2020-08-07,47.0,47.57,44.62,45.43,47.21,3095231.0,141793154.0,1609130600.0,6436522400.0
sz002983,芯瑞达,2020-08-10,45.31,46.5,44.84,46.2,45.43,1840677.0,84083328.0,1636404000.0,6545616000.0
sz002983,芯瑞达,2020-08-11,46.23,46.58,44.88,44.98,46.2,2032797.0,92607451.0,1593191600.0,6372766400.0
sz002983,芯瑞达,2020-08-12,44.62,44.9,42.5,43.38,44.98,2684881.0,116206697.0,1536519600.0,6146078400.0
sz002983,芯瑞达,2020-08-13,43.62,44.26,43.03,43.9,43.38,1581596.0,69136003.0,1554938000.0,6219752000.0
sz002983,芯瑞达,2020-08-14,43.92,44.2,42.9,44.11,43.9,1626464.0,71082760.0,1562376200.0,6249504800.0
sz002983,芯瑞达,2020-08-17,44.07,45.38,43.37,45.1,44.11,2243736.0,100114170.0,1597442000.0,6389768000.0
sz002983,芯瑞达,2020-08-18,44.97,45.5,44.4,45.18,45.1,1883199.0,84634475.0,1600275600.0,6401102400.0
sz002983,芯瑞达,2020-08-19,45.01,45.05,43.21,43.42,45.18,1923184.0,84683524.0,1537936400.0000002,6151745600.000001
sz002983,芯瑞达,2020-08-20,42.8,44.43,42.65,43.4,43.42,1247671.0,54297991.0,1537228000.0,6148912000.0
sz002983,芯瑞达,2020-08-21,43.66,44.1,43.01,43.1,43.4,1172279.0,50997910.0,1526602000.0,6106408000.0
sz002983,芯瑞达,2020-08-24,43.42,43.67,42.02,43.3,43.1,1529619.0,65591026.0,1533686000.0,6134744000.0
sz002983,芯瑞达,2020-08-25,43.25,43.69,42.9,43.1,43.3,1448770.0,62680830.0,1526602000.0,6106408000.0
sz002983,芯瑞达,2020-08-26,43.2,43.2,40.66,40.72,43.1,2767770.0,115190051.0,1442302400.0,5769209600.0
sz002983,芯瑞达,2020-08-27,40.72,41.6,39.45,41.08,40.72,2075330.0,84205737.0,1455053599.9999998,5820214399.999999
sz002983,芯瑞达,2020-08-28,41.04,41.24,40.38,41.17,41.08,1402114.0,57233591.0,1458241400.0000002,5832965600.000001
sz002983,芯瑞达,2020-08-31,41.17,41.78,41.01,41.03,41.17,1444895.0,59820644.0,1453282600.0,5813130400.0
sz002983,芯瑞达,2020-09-01,41.28,41.31,40.58,41.19,41.03,1046725.0,42925995.0,1458949800.0,5835799200.0
sz002983,芯瑞达,2020-09-02,41.2,41.2,40.31,40.69,41.19,1435700.0,58468733.0,1441239800.0,5764959200.0
sz002983,芯瑞达,2020-09-03,40.5,40.56,39.5,39.7,40.69,1792300.0,71447410.0,1406174000.0,5624696000.0
sz002983,芯瑞达,2020-09-04,38.88,41.1,38.5,40.24,39.7,1689380.0,67586845.0,1425300799.9999998,5701203199.999999
sz002983,芯瑞达,2020-09-07,40.24,40.93,39.84,39.91,40.24,1503680.0,60796993.0,1413612200.0,5654448800.0
sz002983,芯瑞达,2020-09-08,39.66,40.18,39.08,39.43,39.91,1253960.0,49732140.0,1396610600.0,5586442400.0
sz002983,芯瑞达,2020-09-09,39.01,39.01,36.7,36.8,39.43,2287115.0,85727536.0,1303456000.0,5213824000.0
sz002983,芯瑞达,2020-09-10,37.25,37.29,35.0,35.19,36.8,1584041.0,57134103.0,1246429800.0,4985719200.0
sz002983,芯瑞达,2020-09-11,35.0,35.99,34.69,35.98,35.19,1229348.0,43459138.0,1274411600.0,5097646400.0
sz002983,芯瑞达,2020-09-14,36.0,36.86,36.0,36.53,35.98,1100068.0,40134027.0,1293892600.0,5175570400.0
sz002983,芯瑞达,2020-09-15,36.32,36.7,36.01,36.51,36.53,896000.0,32640860.0,1293184200.0,5172736800.0
sz002983,芯瑞达,2020-09-16,36.5,36.54,35.97,36.1,36.51,817208.0,29587167.0,1278662000.0,5114648000.0
sz002983,芯瑞达,2020-09-17,36.13,38.48,36.0,38.2,36.1,2952010.0,110610628.0,1353044000.0,5412176000.0
sz002983,芯瑞达,2020-09-18,38.02,39.01,37.41,38.52,38.2,1982818.0,76066307.0,1364378400.0,5457513600.0
sz002983,芯瑞达,2020-09-21,38.52,39.02,38.28,38.42,38.52,1130220.0,43601240.0,1360836400.0000002,5443345600.000001
sz002983,芯瑞达,2020-09-22,37.88,38.75,37.31,37.51,38.42,872460.0,33009250.0,1328604200.0000002,5314416800.000001
sz002983,芯瑞达,2020-09-23,37.57,38.57,37.57,37.99,37.51,830700.0,31592223.0,1345605799.9999998,5382423199.999999
sz002983,芯瑞达,2020-09-24,37.6,37.88,36.9,36.91,37.99,876660.0,32664566.0,1307352200.0,5229408800.0
sz002983,芯瑞达,2020-09-25,36.91,37.56,36.33,36.95,36.91,901660.0,33203185.0,1308769000.0,5235076000.0
sz002983,芯瑞达,2020-09-28,37.6,37.6,35.5,35.53,36.95,835631.0,30103982.0,1258472600.0,5033890400.0
sz002983,芯瑞达,2020-09-29,35.8,36.87,35.53,36.26,35.53,969149.0,35186255.0,1284329200.0,5137316800.0
sz002983,芯瑞达,2020-09-30,36.64,36.98,35.88,36.25,36.26,619100.0,22502838.0,1283975000.0,5135900000.0
sz002983,芯瑞达,2020-10-09,36.31,37.87,36.31,37.6,36.25,1018100.0,38112771.0,1331792000.0,5327168000.0
sz002983,芯瑞达,2020-10-12,38.0,39.0,37.64,38.97,37.6,1650260.0,63387419.0,1380317400.0,5521269600.0
sz002983,芯瑞达,2020-10-13,38.88,38.88,38.19,38.53,38.97,1030417.0,39563703.0,1364732600.0,5458930400.0
sz002983,芯瑞达,2020-10-14,38.63,39.3,38.2,38.76,38.53,1487979.0,57737603.0,1372879200.0000002,5491516800.000001
sz002983,芯瑞达,2020-10-15,38.97,38.97,37.77,37.77,38.76,1173200.0,44665251.0,1337813400.0,5351253600.0
sz002983,芯瑞达,2020-10-16,38.06,38.06,37.14,37.39,37.77,766060.0,28718227.0,1324353800.0,5297415200.0
sz002983,芯瑞达,2020-10-19,37.93,38.1,37.25,37.39,37.39,600000.0,22645407.0,1324353800.0,5297415200.0
sz002983,芯瑞达,2020-10-20,37.3,37.77,36.66,37.75,37.39,774000.0,28730508.0,1337105000.0,5348420000.0
sz002983,芯瑞达,2020-10-21,37.73,37.8,36.7,37.0,37.75,747920.0,27753865.0,1310540000.0,5242160000.0
sz002983,芯瑞达,2020-10-22,37.31,38.26,36.5,37.94,37.0,1209497.0,45462058.0,1343834800.0,5375339200.0
sz002983,芯瑞达,2020-10-23,38.4,38.8,37.14,37.16,37.94,1358100.0,51602986.0,1316207200.0,5264828800.0
sz002983,芯瑞达,2020-10-26,36.52,36.96,35.88,36.41,37.16,903320.0,32879505.0,1289642200.0,5158568800.0
sz002983,芯瑞达,2020-10-27,36.54,36.99,36.15,36.43,36.41,649857.0,23747833.0,1290350600.0,5161402400.0
sz002983,芯瑞达,2020-10-28,36.43,36.63,35.68,35.95,36.43,910820.0,32722172.0,1273349000.0,5093396000.0
sz002983,芯瑞达,2020-10-29,35.49,35.6,34.86,35.11,35.95,982160.0,34570978.0,1243596200.0,4974384800.0
sz002983,芯瑞达,2020-10-30,35.42,35.55,33.57,33.72,35.11,1349300.0,46619864.0,1194362400.0,4777449600.0
sz002983,芯瑞达,2020-11-02,34.0,36.25,32.66,35.24,33.72,2225360.0,76189473.0,1248200800.0,4992803200.0
sz002983,芯瑞达,2020-11-03,35.2,35.67,34.65,35.44,35.24,1286720.0,45488279.0,1255284800.0,5021139200.0
sz002983,芯瑞达,2020-11-04,35.55,35.78,35.05,35.28,35.44,853620.0,30129249.0,1249617600.0,4998470400.0
sz002983,芯瑞达,2020-11-05,35.45,36.38,35.45,35.9,35.28,1346100.0,48270970.0,1271578000.0,5086312000.0
sz002983,芯瑞达,2020-11-06,36.0,37.3,35.43,36.76,35.9,2052860.0,74587559.0,1302039200.0,5208156800.0
sz002983,芯瑞达,2020-11-09,37.2,38.67,37.2,38.38,36.76,2936412.0,112002466.0,1359419600.0,5437678400.0
sz002983,芯瑞达,2020-11-10,38.49,38.49,37.03,37.21,38.38,2256569.0,84876962.0,1317978200.0,5271912800.0
sz002983,芯瑞达,2020-11-11,37.75,37.99,35.98,36.01,37.21,1444895.0,52813477.0,1275474200.0,5101896800.0
sz002983,芯瑞达,2020-11-12,33.76,36.24,33.76,35.74,36.01,1394655.0,49515369.0,1265910800.0,5063643200.0
sz002983,芯瑞达,2020-11-13,35.5,35.65,35.02,35.03,35.74,920508.0,32441609.0,1240762600.0,4963050400.0
sz002983,芯瑞达,2020-11-16,35.28,35.29,34.35,34.7,35.03,817140.0,28349357.0,1229074000.0,4916296000.0
sz002983,芯瑞达,2020-11-17,34.72,34.8,33.5,34.14,34.7,1129540.0,38342817.0,1209238800.0,4836955200.0
sz002983,芯瑞达,2020-11-18,34.2,34.65,33.9,34.29,34.14,716320.0,24628979.0,1214551800.0,4858207200.0
sz002983,芯瑞达,2020-11-19,34.3,34.94,34.03,34.9,34.29,914195.0,31712367.0,1236158000.0,4944632000.0
sz002983,芯瑞达,2020-11-20,34.7,35.07,34.65,34.84,34.9,679420.0,23652709.0,1234032800.0,4936131200.0
sz002983,芯瑞达,2020-11-23,34.77,34.8,34.09,34.5,34.84,822660.0,28259563.0,1221990000.0,4887960000.0
sz002983,芯瑞达,2020-11-24,34.49,35.06,34.35,34.7,34.5,896503.0,31168104.0,1229074000.0,4916296000.0
sz002983,芯瑞达,2020-11-25,34.7,34.98,34.01,34.02,34.7,863677.0,29576679.0,1204988400.0,4819953600.0
sz002983,芯瑞达,2020-11-26,34.0,34.14,33.32,33.4,34.02,807360.0,27163087.0,1183028000.0,4732112000.0
sz002983,芯瑞达,2020-11-27,33.42,33.68,33.02,33.28,33.4,568877.0,18928598.0,1178777600.0,4715110400.0
sz002983,芯瑞达,2020-11-30,33.29,33.88,33.09,33.51,33.28,658660.0,22074531.0,1186924200.0,4747696800.0
sz002983,芯瑞达,2020-12-01,33.51,33.89,33.36,33.8,33.51,687740.0,23165775.0,1197196000.0,4788784000.0
sz002983,芯瑞达,2020-12-02,33.8,35.29,33.71,35.2,33.8,2122766.0,73802233.0,1246784000.0,4987136000.0
sz002983,芯瑞达,2020-12-03,35.56,36.2,34.48,34.49,35.2,1919670.0,67504838.0,1221635800.0,4886543200.0
sz002983,芯瑞达,2020-12-04,34.21,34.71,34.06,34.67,34.49,974550.0,33514670.0,1228011400.0,4912045600.0
sz002983,芯瑞达,2020-12-07,34.75,35.59,34.5,34.9,34.67,1129620.0,39708896.0,1236158000.0,4944632000.0
sz002983,芯瑞达,2020-12-08,35.05,35.26,34.41,34.5,34.9,850686.0,29482421.0,1221990000.0,4887960000.0
sz002983,芯瑞达,2020-12-09,34.49,36.44,33.75,35.0,34.5,2351923.0,82600473.0,1239700000.0,4958800000.0
sz002983,芯瑞达,2020-12-10,34.8,37.59,34.6,37.3,35.0,5140881.0,187354728.0,1321166000.0,5284664000.0
sz002983,芯瑞达,2020-12-11,36.75,37.48,36.31,37.2,37.3,3495720.0,128747821.0,1317624000.0,5270496000.0
sz002983,芯瑞达,2020-12-14,37.14,37.3,36.35,37.09,37.2,2208740.0,81275919.0,1313727800.0,5254911200.0
sz002983,芯瑞达,2020-12-15,36.8,38.47,36.61,37.93,37.09,3167980.0,119354224.0,1343480600.0,5373922400.0
sz002983,芯瑞达,2020-12-16,37.4,37.88,35.95,36.31,37.93,2406695.0,88341131.0,1286100200.0,5144400800.0
sz002983,芯瑞达,2020-12-17,35.99,35.99,33.88,35.01,36.31,2394465.0,83360541.0,1240054200.0,4960216800.0
sz002983,芯瑞达,2020-12-18,35.01,35.35,34.21,34.36,35.01,1408870.0,48771403.0,1217031200.0,4868124800.0
sz002983,芯瑞达,2020-12-21,34.5,34.73,33.8,34.46,34.36,1149600.0,39521641.0,1220573200.0,4882292800.0
sz002983,芯瑞达,2020-12-22,34.3,34.46,33.03,33.13,34.46,1635499.0,54946801.0,1173464600.0,4693858400.0
sz002983,芯瑞达,2020-12-23,33.13,33.65,32.79,33.36,33.13,1188900.0,39453746.0,1181611200.0,4726444800.0
sz002983,芯瑞达,2020-12-24,33.36,33.36,31.18,31.45,33.36,1727227.0,55594856.0,1113959000.0,4455836000.0
sz002983,芯瑞达,2020-12-25,31.36,31.36,30.37,30.73,31.45,1131220.0,34853912.0,1088456600.0,4353826400.0
sz002983,芯瑞达,2020-12-28,30.33,30.82,29.8,29.8,30.73,995705.0,30028048.0,1055516000.0,4222064000.0
sz002983,芯瑞达,2020-12-29,29.79,30.58,29.57,30.16,29.8,755000.0,22799650.0,1068267200.0,4273068800.0
sz002983,芯瑞达,2020-12-30,30.16,30.43,29.9,30.18,30.16,702420.0,21201281.0,1068975600.0,4275902400.0
sz002983,芯瑞达,2020-12-31,30.3,30.79,30.11,30.77,30.18,877925.0,26873562.0,1089873400.0,4359493600.0
sz002983,芯瑞达,2021-01-04,30.7,31.69,30.7,31.43,30.77,1120320.0,35113395.0,1113250600.0,4453002400.0
sz002983,芯瑞达,2021-01-05,31.01,31.77,30.99,31.55,31.43,887365.0,27891337.0,1117501000.0,4470004000.0
sz002983,芯瑞达,2021-01-06,31.7,31.78,30.32,30.36,31.55,1086700.0,33537977.0,1075351200.0,4301404800.0
sz002983,芯瑞达,2021-01-07,30.34,30.34,28.12,28.26,30.36,1810708.0,52391632.0,1000969200.0,4003876800.0
sz002983,芯瑞达,2021-01-08,28.3,28.89,27.05,28.38,28.26,979076.0,27597782.0,1005219600.0,4020878400.000001
sz002983,芯瑞达,2021-01-11,28.4,29.29,28.2,28.5,28.38,968734.0,27854391.0,1009470000.0,4037880000.0
sz002983,芯瑞达,2021-01-12,28.5,28.5,27.3,27.68,28.5,1088620.0,30317805.0,980425600.0,3921702400.0
sz002983,芯瑞达,2021-01-13,27.41,27.99,26.32,26.39,27.68,1704819.0,45690005.0,934733800.0,3738935200.0
sz002983,芯瑞达,2021-01-14,26.38,27.49,26.17,27.18,26.39,1242818.0,33530837.0,962715600.0,3850862400.0
sz002983,芯瑞达,2021-01-15,27.2,28.2,26.9,27.74,27.18,1298680.0,35986824.0,982550800.0,3930203200.0
sz002983,芯瑞达,2021-01-18,27.5,28.47,27.15,28.31,27.74,1094070.0,30752071.0,1002740200.0,4010960800.0
sz002983,芯瑞达,2021-01-19,28.27,28.47,27.82,27.99,28.31,932794.0,26270684.0,991405800.0,3965623200.0
sz002983,芯瑞达,2021-01-20,27.99,28.38,27.99,28.28,27.99,719000.0,20283777.0,1001677600.0,4006710400.0
sz002983,芯瑞达,2021-01-21,28.41,28.55,27.74,28.2,28.28,989360.0,27908589.0,998844000.0,3995376000.0
sz002983,芯瑞达,2021-01-22,28.12,28.12,27.15,27.2,28.2,876814.0,24106218.0,963424000.0,3853696000.0
sz002983,芯瑞达,2021-01-25,27.2,27.33,26.35,26.64,27.2,727290.0,19385903.0,943588800.0,3774355200.0
sz002983,芯瑞达,2021-01-26,26.6,27.05,26.22,26.41,26.64,616600.0,16413528.0,935442200.0,3741768800.0
sz002983,芯瑞达,2021-01-27,26.4,27.5,26.4,27.02,26.41,882594.0,23780009.0,957048400.0,3828193600.0
sz002983,芯瑞达,2021-01-28,26.96,27.37,26.46,26.66,27.02,804100.0,21709881.0,944297200.0,3777188800.0
sz002983,芯瑞达,2021-01-29,26.78,26.97,24.83,25.2,26.66,1282400.0,32875476.0,892584000.0,3570336000.0
sz002983,芯瑞达,2021-02-01,25.19,26.0,25.05,25.67,25.2,830900.0,21153566.0,909231400.0,3636925600.0
sz002983,芯瑞达,2021-02-02,25.69,25.98,25.51,25.74,25.67,595000.0,15303835.0,911710800.0,3646843200.0
sz002983,芯瑞达,2021-02-03,25.75,25.75,24.51,24.63,25.74,881160.0,21999792.0,872394600.0000001,3489578400.0000005
sz002983,芯瑞达,2021-02-04,24.4,24.85,23.21,23.63,24.63,1000905.0,23754871.0,836974600.0000001,3347898400.0000005
sz002983,芯瑞达,2021-02-05,23.63,24.18,23.41,23.42,23.63,605060.0,14345913.0,829536400.0,3318145600.0
sz002983,芯瑞达,2021-02-08,23.44,23.84,23.0,23.04,23.42,620594.0,14489124.0,816076799.9999999,3264307199.9999995
sz002983,芯瑞达,2021-02-09,23.04,23.6,22.97,23.53,23.04,606820.0,14203268.0,833432600.0,3333730400.0
sz002983,芯瑞达,2021-02-10,23.4,24.12,23.4,23.98,23.53,673860.0,16102421.0,849371600.0,3397486400.0
sz002983,芯瑞达,2021-02-18,24.24,24.97,24.03,24.77,23.98,882280.0,21772054.0,877353400.0,3509413600.0
sz002983,芯瑞达,2021-02-19,24.77,25.18,24.51,25.12,24.77,898500.0,22385243.0,889750399.9999999,3559001599.9999995
sz002983,芯瑞达,2021-02-22,24.9,25.97,24.9,25.1,25.12,1473367.0,37558656.0,889042000.0,3556168000.0
sz002983,芯瑞达,2021-02-23,24.86,25.47,24.5,25.02,25.1,878460.0,21903688.0,886208400.0,3544833600.0
sz002983,芯瑞达,2021-02-24,24.85,25.57,24.62,25.39,25.02,1080100.0,27357295.0,899313800.0,3597255200.0
sz002983,芯瑞达,2021-02-25,25.39,25.45,24.48,24.55,25.39,1011700.0,25095724.0,869561000.0,3478244000.0
sz002983,芯瑞达,2021-02-26,24.2,25.2,24.19,24.85,24.55,902700.0,22437068.0,880187000.0,3520748000.0
sz002983,芯瑞达,2021-03-01,24.85,25.88,24.85,25.71,24.85,1304600.0,33356170.0,910648200.0,3642592800.000001
sz002983,芯瑞达,2021-03-02,25.84,26.0,25.37,25.77,25.71,1064300.0,27311612.0,912773400.0,3651093600.0
sz002983,芯瑞达,2021-03-03,25.8,26.01,25.56,25.79,25.77,839000.0,21636066.0,913481800.0,3653927200.0
sz002983,芯瑞达,2021-03-04,25.61,25.98,25.38,25.38,25.79,780580.0,20046557.0,898959600.0000001,3595838400.0000005
sz002983,芯瑞达,2021-03-05,25.34,25.82,25.11,25.8,25.38,727800.0,18671715.0,913836000.0,3655344000.0
sz002983,芯瑞达,2021-03-08,25.97,26.54,25.84,25.84,25.8,1390320.0,36419122.0,915252800.0,3661011200.0
sz002983,芯瑞达,2021-03-09,25.84,26.05,24.01,24.39,25.84,1271500.0,31473342.0,863893800.0,3455575200.0
sz002983,芯瑞达,2021-03-10,24.35,24.7,23.49,23.6,24.39,968800.0,23235816.0,835912000.0,3343648000.0
sz002983,芯瑞达,2021-03-11,23.6,24.85,23.3,24.31,23.6,819300.0,19673942.0,861060200.0,3444240800.0
sz002983,芯瑞达,2021-03-12,24.44,24.6,23.7,23.76,24.31,665900.0,15971075.0,841579200.0,3366316800.0
sz002983,芯瑞达,2021-03-15,23.76,23.76,23.2,23.43,23.76,527400.0,12349534.0,829890600.0,3319562400.0
sz002983,芯瑞达,2021-03-16,23.49,23.94,23.39,23.65,23.43,553200.0,13064788.0,837683000.0,3350732000.0
sz002983,芯瑞达,2021-03-17,23.53,25.74,23.5,25.15,23.65,2015400.0,49726939.0,890813000.0,3563252000.0
sz002983,芯瑞达,2021-03-18,25.02,27.67,24.89,27.05,25.15,3567760.0,93516679.0,958111000.0,3832444000.0
sz002983,芯瑞达,2021-03-19,26.4,26.95,26.11,26.5,27.05,2514040.0,66608595.0,938630000.0,3754520000.0
sz002983,芯瑞达,2021-03-22,26.51,29.15,26.29,29.15,26.5,5224608.0,146134405.0,1032493000.0,4129972000.0
sz002983,芯瑞达,2021-03-23,29.8,30.45,28.56,30.11,29.15,6381072.0,188645870.0,1066496200.0,4265984800.0
sz002983,芯瑞达,2021-03-24,29.43,29.97,28.3,28.9,30.11,2775110.0,80407257.0,1023638000.0,4094552000.0
sz002983,芯瑞达,2021-03-25,28.69,28.69,26.92,27.25,28.9,3489666.0,96166275.0,965195000.0,3860780000.0
sz002983,芯瑞达,2021-03-26,27.42,27.79,27.02,27.53,27.25,3239273.0,88723098.0,975112600.0,3900450400.0
sz002983,芯瑞达,2021-03-29,27.7,27.95,27.03,27.26,27.53,2116196.0,58017678.0,965549200.0,3862196800.0
sz002983,芯瑞达,2021-03-30,26.78,27.19,26.43,27.16,27.26,1883820.0,50409650.0,962007200.0,3848028800.0
sz002983,芯瑞达,2021-03-31,27.63,28.61,26.96,27.0,27.16,2797590.0,77399169.0,956340000.0,3825360000.0
sz002983,芯瑞达,2021-04-01,26.6,28.49,26.22,28.0,27.0,3302009.0,91095969.0,991760000.0,3967040000.0
sz002983,芯瑞达,2021-04-02,28.0,30.56,27.68,29.97,28.0,5442757.0,159451326.0,1061537400.0,4246149600.0
sz002983,芯瑞达,2021-04-06,29.9,29.9,28.61,28.96,29.97,3652877.0,106279514.0,1025763200.0,4103052800.000001
sz002983,芯瑞达,2021-04-07,28.69,29.44,28.2,29.41,28.96,2865454.0,82376489.0,1041702200.0,4166808800.0
sz002983,芯瑞达,2021-04-08,29.25,29.25,28.15,28.21,29.41,2407500.0,69108792.0,999198200.0,3996792800.000001
sz002983,芯瑞达,2021-04-09,28.02,28.4,27.8,28.29,28.21,1427960.0,40087886.0,1002031800.0,4008127200.0
sz002983,芯瑞达,2021-04-12,28.28,29.16,28.07,28.5,28.29,2263339.0,65040227.0,1009470000.0,4037880000.0
sz002983,芯瑞达,2021-04-13,28.5,30.49,28.38,30.29,28.5,4735678.0,140584152.0,1072871800.0,4291487200.0
sz002983,芯瑞达,2021-04-14,29.8,32.5,29.21,31.19,30.29,5793918.0,178552447.0,1104749800.0,4418999200.0
sz002983,芯瑞达,2021-04-15,30.9,32.3,30.32,30.71,31.19,3906755.0,121806641.0,1087748200.0,4350992800.0
sz002983,芯瑞达,2021-04-16,30.63,32.9,29.9,31.85,30.71,4618459.0,143547620.0,1128127000.0,4512508000.0
sz002983,芯瑞达,2021-04-19,31.32,32.49,31.25,31.99,31.85,4039056.0,128656671.0,1133085800.0,4532343200.0
sz002983,芯瑞达,2021-04-20,31.97,31.97,30.45,30.72,31.99,3401019.0,105268823.0,1088102400.0,4352409600.0
sz002983,芯瑞达,2021-04-21,30.4,31.19,30.33,30.99,30.72,1996926.0,61524811.0,1097665800.0,4390663200.0
sz002983,芯瑞达,2021-04-22,30.99,31.29,30.58,30.63,30.99,1894977.0,58519431.0,1084914600.0,4339658400.0
sz002983,芯瑞达,2021-04-23,30.38,30.87,28.64,29.75,30.63,3010460.0,88834797.0,1053745000.0,4214980000.0
sz002983,芯瑞达,2021-04-26,29.42,29.65,28.69,28.72,29.75,1915320.0,55635986.0,1017262400.0,4069049600.0
sz002983,芯瑞达,2021-04-27,28.58,28.58,26.88,26.92,28.72,2313325.0,63202761.0,953506400.0,3814025600.0
sz002983,芯瑞达,2021-04-28,26.8,27.45,26.78,27.13,26.92,1144600.0,30981712.0,960944600.0,3843778400.000001
sz002983,芯瑞达,2021-04-29,27.01,27.79,26.05,27.28,27.13,1298577.0,35625154.0,966257600.0,3865030400.0
sz002983,芯瑞达,2021-04-30,27.19,27.5,26.35,27.13,27.28,1062600.0,28648884.0,1096982179.18,3843778400.000001
sz002983,芯瑞达,2021-05-06,27.09,27.76,26.72,27.44,27.13,910260.0,24935889.0,1088936807.84,3887699200.0
sz002983,芯瑞达,2021-05-07,27.45,27.68,26.4,26.41,27.44,1200800.0,32286459.0,1048061993.26,3741768800.0
sz002983,芯瑞达,2021-05-10,26.42,26.42,24.96,25.1,26.41,1464760.0,37114892.0,996075578.6,3556168000.0
sz002983,芯瑞达,2021-05-11,25.07,25.4,24.82,25.32,25.1,731320.0,18422227.0,1004806121.52,3587337600.0
sz002983,芯瑞达,2021-05-12,25.36,26.43,25.36,26.34,25.32,1244078.0,32280289.0,1045284093.24,3731851200.0
sz002983,芯瑞达,2021-05-13,26.34,26.86,26.05,26.38,26.34,1088900.0,28950813.0,1046871464.68,3737518400.000001
sz002983,芯瑞达,2021-05-14,26.34,26.58,26.0,26.18,26.38,1088000.0,28562095.0,1038934607.48,3709182400.0
sz002983,芯瑞达,2021-05-17,26.02,26.35,25.7,25.8,26.18,970060.0,25087436.0,1023854578.8,3655344000.0
sz002983,芯瑞达,2021-05-18,25.8,26.18,25.42,25.9,25.8,767900.0,19844604.0,1027823007.4,3669512000.0
sz002983,芯瑞达,2021-05-19,25.8,26.79,25.8,26.55,25.9,1102838.0,29032416.0,1053617793.3,3761604000.0
sz002983,芯瑞达,2021-05-20,26.69,26.69,26.1,26.45,26.55,794660.0,20895057.0,1049649364.7,3747436000.0
sz002983,芯瑞达,2021-05-21,26.38,26.49,26.1,26.13,26.45,643760.0,16887181.0,1036950393.18,3702098400.000001
sz002983,芯瑞达,2021-05-24,26.15,26.65,25.5,26.53,26.13,782660.0,20588175.0,1052824107.58,3758770400.0
sz002983,芯瑞达,2021-05-25,26.76,26.76,26.23,26.56,26.53,878200.0,23247215.0,1054014636.16,3763020800.0
sz002983,芯瑞达,2021-05-26,26.53,26.64,26.31,26.58,26.56,907106.0,24059803.0,1054808321.88,3765854400.0
sz002983,芯瑞达,2021-05-27,26.58,27.99,26.58,27.75,26.58,2382103.0,65497102.0,1101238936.5,3931620000.0
sz002983,芯瑞达,2021-05-28,27.78,27.79,27.0,27.35,27.75,1455860.0,39743571.0,1085365222.1,3874948000.0
sz002983,芯瑞达,2021-05-31,27.35,27.65,27.05,27.6,27.35,921500.0,25321273.0,1095286293.6,3910368000.0
sz002983,芯瑞达,2021-06-01,27.6,28.27,27.4,28.05,27.6,1356385.0,37971603.0,1113144222.3,3974124000.0
sz002983,芯瑞达,2021-06-02,28.06,29.0,27.68,28.99,28.05,2636420.0,75089693.0,1150447451.14,4107303200.0
sz002983,芯瑞达,2021-06-03,29.15,29.15,28.26,28.31,28.99,1685320.0,48293122.0,1123462136.6599998,4010960800.0
sz002983,芯瑞达,2021-06-04,28.32,28.6,27.7,28.0,28.31,1346020.0,37654721.0,1111160008.0,3967040000.0
sz002983,芯瑞达,2021-06-07,28.17,28.98,28.17,28.88,28.0,1422800.0,40718288.0,1146082179.68,4091718400.000001
sz002983,芯瑞达,2021-06-08,28.87,28.87,28.16,28.28,28.88,1094600.0,31122058.0,1122271608.08,4006710400.0
sz002983,芯瑞达,2021-06-09,28.5,28.75,27.81,27.89,28.28,1025010.0,28938447.0,1106794736.54,3951455200.0
sz002983,芯瑞达,2021-06-10,27.77,28.65,27.67,28.38,27.89,1164010.0,32905769.0,1126240036.68,4020878400.000001
sz002983,芯瑞达,2021-06-11,28.58,28.58,27.15,27.34,28.38,1340410.0,37224867.0,1084968379.24,3873531200.0
sz002983,芯瑞达,2021-06-15,27.39,29.98,27.15,29.7,27.34,3984839.0,115450521.0,1178623294.2,4207896000.0
sz002983,芯瑞达,2021-06-16,29.5,31.0,29.11,30.35,29.7,5068068.0,152996492.0,1204418080.1,4299988000.0
sz002983,芯瑞达,2021-06-17,30.3,31.0,29.87,30.8,30.35,4082256.0,124325528.0,1222276008.8,4363744000.0
sz002983,芯瑞达,2021-06-18,30.7,30.7,29.66,30.07,30.8,2620007.0,78725288.0,1193306480.02,4260317600.0
sz002983,芯瑞达,2021-06-21,30.4,30.4,29.51,30.12,30.07,1971810.0,59036337.0,1195290694.32,4267401600.0
sz002983,芯瑞达,2021-06-22,30.0,30.04,29.27,29.93,30.12,1950220.0,57730906.0,1187750679.98,4240482400.0
sz002983,芯瑞达,2021-06-23,29.9,31.49,29.72,31.39,29.93,3867861.0,119786254.0,1245689737.54,4447335200.0
sz002983,芯瑞达,2021-06-24,31.01,31.25,30.5,30.88,31.39,1968102.0,60623182.0,1225450751.68,4375078400.0
sz002983,芯瑞达,2021-06-25,30.62,31.06,30.1,30.66,30.88,1621598.0,49466786.0,1216720208.76,4343908800.0
sz002983,芯瑞达,2021-06-28,30.64,31.28,30.1,31.1,30.66,2106774.0,65136798.0,1234181294.6,4406248000.0
sz002983,芯瑞达,2021-06-29,30.9,31.3,29.63,29.73,31.1,2016100.0,61220870.0,1179813822.78,4212146400.0
sz002983,芯瑞达,2021-06-30,29.71,31.6,29.68,30.54,29.73,2427578.0,74649968.0,1211958094.44,4326907200.0
sz002983,芯瑞达,2021-07-01,30.55,30.68,29.04,29.07,30.54,1957852.0,58287353.0,1153622194.02,4118637600.0
sz002983,芯瑞达,2021-07-02,29.1,30.19,28.88,29.0,29.07,1481698.0,43462551.0,1150844294.0,4108720000.0
sz002983,芯瑞达,2021-07-05,29.06,29.77,29.06,29.7,29.0,975517.0,28764271.0,1178623294.2,4207896000.0
sz002983,芯瑞达,2021-07-06,29.6,29.98,29.22,29.81,29.7,1164911.0,34505367.0,1182988565.66,4223480800.0
sz002983,芯瑞达,2021-07-07,29.7,30.56,29.32,30.42,29.81,1376154.0,41413236.0,1207195980.12,4309905600.0
sz002983,芯瑞达,2021-07-08,30.51,30.67,30.15,30.36,30.42,1551000.0,47107214.0,1204814922.96,4301404800.0
sz002983,芯瑞达,2021-07-09,23.0,23.09,22.08,22.5,23.12,2042644.0,45733381.0,1160765370.0,4144140000.0
sz002983,芯瑞达,2021-07-12,22.5,23.65,22.15,23.39,22.5,2931902.0,67392650.0,1206680089.08,4308063760.0
sz002983,芯瑞达,2021-07-13,23.55,23.89,23.05,23.19,23.39,2126112.0,49652795.0,1196362174.68,4271226960.0
sz002983,芯瑞达,2021-07-14,23.15,23.52,22.8,22.98,23.19,1699795.0,39239036.0,1185528364.56,4232548320.0
sz002983,芯瑞达,2021-07-15,22.68,22.89,21.6,21.9,22.98,2207428.0,48691985.0,1129811626.8,4033629600.0
sz002983,芯瑞达,2021-07-16,21.65,22.26,21.62,21.68,21.9,1379820.0,30217708.0,1118461920.96,3993109120.0
sz002983,芯瑞达,2021-07-19,21.84,22.01,21.21,21.3,21.68,1072848.0,23020531.0,1098857883.6,3923119200.0
sz002983,芯瑞达,2021-07-20,21.2,22.3,21.02,22.05,21.3,1353906.0,29149544.0,1137550062.6,4061257200.0
sz002983,芯瑞达,2021-07-21,22.33,23.81,22.03,23.53,22.05,4808939.0,111419484.0,1213902629.16,4333849520.0
sz002983,芯瑞达,2021-07-22,23.54,24.44,23.33,24.21,23.53,5680889.0,136553600.0,1248983538.12,4459094640.0
sz002983,芯瑞达,2021-07-23,24.21,24.9,23.91,24.25,24.21,4773241.0,116426904.0,1251047121.0,4466462000.0
sz002983,芯瑞达,2021-07-26,24.27,25.57,24.27,25.29,24.25,7125690.0,179026848.0,1304700275.88,4658013360.0
sz002983,芯瑞达,2021-07-27,25.98,27.82,25.2,25.23,25.29,9992103.0,266702032.0,1301604901.56,4646962320.0
sz002983,芯瑞达,2021-07-28,24.0,26.65,23.22,25.8,25.23,8319511.0,207631937.0,1331010957.6,4751947200.0
sz002983,芯瑞达,2021-07-29,25.91,26.85,25.17,26.85,25.8,7813138.0,203882628.0,1385180008.1999998,4945340400.0
sz002983,芯瑞达,2021-07-30,26.92,26.92,26.0,26.33,26.85,5545236.0,145631413.0,1358353430.76,4849564720.0
sz002983,芯瑞达,2021-08-02,26.0,26.01,25.07,25.41,26.33,4554970.0,115395569.0,1310891024.52,4680115440.0
sz002983,芯瑞达,2021-08-03,25.16,25.37,24.18,24.34,25.41,3859542.0,95577118.0,1255690182.48,4483038560.0
sz002983,芯瑞达,2021-08-04,24.08,25.25,24.08,25.12,24.34,3092038.0,77193512.0,1295930048.64,4626702080.0
sz002983,芯瑞达,2021-08-05,25.12,25.12,24.35,24.49,25.12,2296032.0,56438676.0,1263428618.28,4510666160.0
sz002983,芯瑞达,2021-08-06,24.25,24.73,24.2,24.55,24.49,2080877.0,50840556.0,1266523992.6,4521717200.0
sz002983,芯瑞达,2021-08-09,24.49,24.49,23.58,24.08,24.55,2260154.0,54073230.0,1242276893.76,4435150720.0
sz002983,芯瑞达,2021-08-10,24.12,26.49,24.09,26.49,24.08,5603224.0,144879836.0,1366607762.28,4879034160.0
sz002983,芯瑞达,2021-08-11,27.25,27.25,25.8,26.13,26.49,7171911.0,188601223.0,1348035516.36,4812727920.0
sz002983,芯瑞达,2021-08-12,26.47,26.92,25.85,26.16,26.13,4477475.0,118145856.0,1349583203.52,4818253440.0
sz002983,芯瑞达,2021-08-13,26.43,26.5,25.36,25.48,26.16,3284317.0,84647146.0,1314502294.56,4693008320.0
sz002983,芯瑞达,2021-08-16,25.99,26.18,25.3,25.73,25.48,2701130.0,69616165.0,1327399687.56,4739054320.0
sz002983,芯瑞达,2021-08-17,25.25,25.25,23.16,23.16,25.73,6343348.0,150306984.0,1194814487.52,4265701440.0
sz002983,芯瑞达,2021-08-18,22.85,22.95,22.43,22.7,23.16,2775276.0,62877078.0,1171083284.4,4180976800.0
sz002983,芯瑞达,2021-08-19,22.67,23.2,22.48,22.87,22.7,2144500.0,49020200.0,1179853511.64,4212288080.0
sz002983,芯瑞达,2021-08-20,22.76,22.76,22.03,22.33,22.87,1795654.0,40056845.0,1151995142.76,4112828720.0
sz002983,芯瑞达,2021-08-23,22.32,23.1,22.25,22.89,22.33,1806440.0,41166873.0,1180885303.08,4215971760.0
sz002983,芯瑞达,2021-08-24,22.92,23.54,22.9,23.34,22.89,2166740.0,50508079.0,1204100610.48,4298854560.0
sz002983,芯瑞达,2021-08-25,23.09,23.49,22.9,23.03,23.34,1755170.0,40470368.0,1188107843.16,4241757520.0
sz002983,芯瑞达,2021-08-26,23.03,23.28,22.35,22.49,23.03,1826550.0,41397350.0,1160249474.28,4142298160.0
sz002983,芯瑞达,2021-08-27,22.48,22.95,22.06,22.43,22.49,1602580.0,35968274.0,1157154099.96,4131247120.0
sz002983,芯瑞达,2021-08-30,22.53,22.69,22.11,22.69,22.43,1605529.0,36066516.0,1170567388.68,4179134960.0
sz002983,芯瑞达,2021-08-31,22.51,22.7,22.02,22.22,22.69,1305850.0,29094564.0,1146320289.8400002,4092568480.0
sz002983,芯瑞达,2021-09-01,22.2,22.2,21.11,21.61,22.22,1884470.0,40526178.0,1114850650.92,3980216240.0
sz002983,芯瑞达,2021-09-02,21.6,21.85,21.31,21.69,21.61,971635.0,20996787.0,1118977816.68,3994950960.0
sz002983,芯瑞达,2021-09-03,21.78,22.66,21.7,22.43,21.69,1971352.0,43852974.0,1157154099.96,4131247120.0
sz002983,芯瑞达,2021-09-06,22.43,22.93,22.26,22.82,22.43,1761393.0,40030014.0,1177274033.04,4203078880.0
sz002983,芯瑞达,2021-09-07,22.82,22.9,22.28,22.52,22.82,1920721.0,43179659.0,1161797161.44,4147823680.0
sz002983,芯瑞达,2021-09-08,22.55,22.55,22.25,22.37,22.52,1264402.0,28251900.0,1154058725.64,4120196080.0
sz002983,芯瑞达,2021-09-09,22.43,22.59,22.2,22.47,22.37,1142140.0,25550289.0,1159217682.8400002,4138614480.0
sz002983,芯瑞达,2021-09-10,22.4,22.66,22.26,22.5,22.47,1326501.0,29804544.0,1160765370.0,4144140000.0
sz002983,芯瑞达,2021-09-13,22.34,22.5,21.9,21.96,22.5,1377241.0,30467588.0,1132907001.12,4044680640.0
sz002983,芯瑞达,2021-09-14,22.0,22.27,21.8,21.81,21.96,918550.0,20235041.0,1125168565.3200002,4017053040.0
sz002983,芯瑞达,2021-09-15,21.81,22.17,21.65,21.72,21.81,785370.0,17047955.0,1120525503.84,4000476480.0
sz002983,芯瑞达,2021-09-16,21.81,21.9,21.25,21.29,21.72,1021711.0,21942440.0,1098341987.88,3921277360.0
sz002983,芯瑞达,2021-09-17,21.25,21.33,20.7,21.1,21.29,1025118.0,21538389.0,1088539969.2,3886282400.0
sz002983,芯瑞达,2021-09-22,20.94,21.28,20.86,20.99,21.1,455840.0,9568660.0,1082865116.28,3866022160.0
sz002983,芯瑞达,2021-09-23,21.05,21.3,21.03,21.13,20.99,634328.0,13433952.0,1090087656.36,3891807920.0
sz002983,芯瑞达,2021-09-24,21.18,21.18,20.72,20.77,21.13,605760.0,12655697.0,1071515410.44,3825501680.0
sz002983,芯瑞达,2021-09-27,20.88,20.99,20.05,20.19,20.77,776010.0,15789300.0,1041593458.68,3718674960.0
sz002983,芯瑞达,2021-09-28,20.19,20.34,20.09,20.11,20.19,483470.0,9747915.0,1037466292.92,3703940240.0
sz002983,芯瑞达,2021-09-29,20.08,20.08,19.28,19.3,20.11,768370.0,14973829.0,995678739.6,3554751200.0
sz002983,芯瑞达,2021-09-30,19.45,19.6,19.31,19.48,19.3,422590.0,8227526.0,1004964862.56,3587904319.9999995
sz002983,芯瑞达,2021-10-08,19.86,20.32,19.57,20.17,19.48,700204.0,14053428.0,1040561667.24,3714991280.000001
sz002983,芯瑞达,2021-10-11,20.16,20.3,20.01,20.18,20.17,466390.0,9413987.0,1041077562.96,3716833120.0
sz002983,芯瑞达,2021-10-12,20.02,20.25,19.65,19.8,20.18,567813.0,11251015.0,1021473525.6,3646843200.0
sz002983,芯瑞达,2021-10-13,19.99,20.77,19.79,20.39,19.8,737850.0,14958836.0,1051911373.08,3755511760.0
sz002983,芯瑞达,2021-10-14,20.22,20.36,20.08,20.36,20.39,483630.0,9788851.0,1050363685.92,3749986240.0
sz002983,芯瑞达,2021-10-15,20.35,20.7,20.13,20.43,20.36,647100.0,13288921.0,1053974955.96,3762879120.0
sz002983,芯瑞达,2021-10-18,20.44,20.6,20.22,20.43,20.43,382080.0,7775224.0,1053974955.96,3762879120.0
sz002983,芯瑞达,2021-10-19,20.6,20.6,20.31,20.34,20.43,371820.0,7585863.0,1049331894.48,3746302560.0
sz002983,芯瑞达,2021-10-20,20.31,20.47,20.15,20.18,20.34,546620.0,11094081.0,1041077562.96,3716833120.0
sz002983,芯瑞达,2021-10-21,20.18,20.28,19.92,20.02,20.18,642620.0,12866822.0,1032823231.44,3687363680.0
sz002983,芯瑞达,2021-10-22,20.03,20.82,20.0,20.72,20.02,1391415.0,28678930.0,1068935931.84,3816292480.0
sz002983,芯瑞达,2021-10-25,20.85,20.85,20.42,20.64,20.72,723300.0,14869027.0,1064808766.08,3801557760.0
sz002983,芯瑞达,2021-10-26,20.6,20.64,20.42,20.58,20.64,528040.0,10834293.0,1061713391.76,3790506720.0
sz002983,芯瑞达,2021-10-27,20.6,20.6,20.06,20.14,20.58,513850.0,10391902.0,1039013980.08,3709465760.0
sz002983,芯瑞达,2021-10-28,19.75,20.12,19.6,19.6,20.14,496100.0,9793420.0,1011155611.2,3610006400.0
sz002983,芯瑞达,2021-10-29,19.65,20.37,19.65,20.1,19.6,534758.0,10737619.0,1036950397.2,3702098400.000001
sz002983,芯瑞达,2021-11-01,20.15,20.66,20.08,20.46,20.1,650130.0,13276325.0,1055522643.12,3768404640.0
sz002983,芯瑞达,2021-11-02,20.68,20.76,20.06,20.19,20.46,829520.0,16949812.0,1041593458.68,3718674960.0
sz002983,芯瑞达,2021-11-03,20.19,20.56,20.12,20.32,20.19,540420.0,10983060.0,1048300103.04,3742618880.0
sz002983,芯瑞达,2021-11-04,20.3,20.7,20.3,20.7,20.32,939370.0,19337726.0,1067904140.4,3812608800.0
sz002983,芯瑞达,2021-11-05,20.7,21.37,20.7,21.08,20.7,1515998.0,31963264.0,1087508177.76,3882598720.0
sz002983,芯瑞达,2021-11-08,21.09,21.33,20.65,20.85,21.08,833980.0,17349609.0,1075642576.2,3840236400.0
sz002983,芯瑞达,2021-11-09,20.75,21.18,20.71,21.08,20.85,920781.0,19315480.0,1087508177.76,3882598720.0
sz002983,芯瑞达,2021-11-10,21.05,21.52,20.96,21.51,21.08,1334573.0,28426719.0,1109691693.72,3961797840.0
sz002983,芯瑞达,2021-11-11,21.43,21.64,21.29,21.42,21.51,1272810.0,27307158.0,1105048632.24,3945221280.000001
sz002983,芯瑞达,2021-11-12,21.42,21.56,21.26,21.56,21.42,954090.0,20450229.0,1112271172.32,3971007040.000001
sz002983,芯瑞达,2021-11-15,21.7,21.97,21.4,21.74,21.56,1388646.0,30113332.0,1121557295.28,4004160160.0
sz002983,芯瑞达,2021-11-16,21.74,21.85,21.26,21.35,21.74,1198324.0,25743584.0,1101437362.2,3932328400.000001
sz002983,芯瑞达,2021-11-17,21.18,21.62,21.17,21.61,21.35,959547.0,20610977.0,1114850650.92,3980216240.0
sz002983,芯瑞达,2021-11-18,21.62,21.67,21.2,21.36,21.61,996720.0,21289747.0,1101953257.92,3934170240.0
sz002983,芯瑞达,2021-11-19,21.36,21.64,21.24,21.56,21.36,845310.0,18169656.0,1112271172.32,3971007040.000001
sz002983,芯瑞达,2021-11-22,21.6,22.23,21.5,22.15,21.56,1867376.0,41110004.0,1142709019.8,4079675600.0
sz002983,芯瑞达,2021-11-23,22.14,22.23,21.85,22.03,22.15,1108864.0,24362575.0,1136518271.16,4057573520.0
sz002983,芯瑞达,2021-11-24,21.95,22.4,21.78,22.22,22.03,1369120.0,30344089.0,1146320289.8400002,4092568480.0
sz002983,芯瑞达,2021-11-25,22.22,22.49,22.03,22.39,22.22,1528075.0,34135194.0,1155090517.08,4123879760.0000005
sz002983,芯瑞达,2021-11-26,22.4,22.44,21.83,22.18,22.39,1519500.0,33511433.0,1144256706.96,4085201120.0
sz002983,芯瑞达,2021-11-29,22.0,22.19,21.63,22.06,22.18,898590.0,19700569.0,1138065958.3200002,4063099040.0
sz002983,芯瑞达,2021-11-30,22.05,22.68,21.91,22.48,22.06,1503550.0,33667019.0,1159733578.56,4140456320.0
sz002983,芯瑞达,2021-12-01,22.4,22.87,22.27,22.73,22.48,1617771.0,36672592.0,1172630971.56,4186502320.0
sz002983,芯瑞达,2021-12-02,22.8,22.8,22.17,22.2,22.73,1418760.0,31707927.0,1145288498.3999999,4088884800.0
sz002983,芯瑞达,2021-12-03,22.18,22.45,22.15,22.28,22.2,683200.0,15230550.0,1149415664.16,4103619520.0
sz002983,芯瑞达,2021-12-06,22.2,22.2,21.24,21.24,22.28,1419090.0,30537105.0,1095762509.28,3912068160.0
sz002983,芯瑞达,2021-12-07,21.33,21.48,20.7,20.82,21.24,1082530.0,22707554.0,1074094889.04,3834710880.0
sz002983,芯瑞达,2021-12-08,20.9,21.16,20.86,20.97,20.82,669390.0,14066788.0,1081833324.84,3862338480.0
sz002983,芯瑞达,2021-12-09,20.95,23.07,20.9,23.07,20.97,2861139.0,64457730.0,1190171426.04,4249124880.0
sz002983,芯瑞达,2021-12-10,23.79,25.25,23.3,23.31,23.07,10229239.0,245641739.0,1202552923.32,4293329040.0
sz002983,芯瑞达,2021-12-13,23.36,24.66,23.27,23.97,23.31,6699876.0,159768391.0,1236602040.84,4414890480.0
sz002983,芯瑞达,2021-12-14,23.7,24.4,23.17,23.87,23.97,5482758.0,130643250.0,1231443083.6399999,4396472080.0
sz002983,芯瑞达,2021-12-15,24.08,24.14,23.31,23.42,23.87,3190590.0,75080819.0,1208227776.24,4313589280.0
sz002983,芯瑞达,2021-12-16,23.59,23.66,23.13,23.41,23.42,2566222.0,59862798.0,1207711880.52,4311747440.0
sz002983,芯瑞达,2021-12-17,23.41,23.5,22.83,22.98,23.41,2247000.0,51803506.0,1185528364.56,4232548320.0
sz002983,芯瑞达,2021-12-20,22.92,23.2,22.66,22.68,22.98,1630048.0,37341780.0,1170051492.96,4177293120.0
sz002983,芯瑞达,2021-12-21,22.68,23.05,22.61,23.01,22.68,1398780.0,32005754.0,1187076051.72,4238073840.0
sz002983,芯瑞达,2021-12-22,23.01,23.45,22.83,23.28,23.01,2178250.0,50536945.0,1201005236.16,4287803520.0
sz002983,芯瑞达,2021-12-23,23.28,23.3,22.38,22.4,23.28,2079430.0,47329106.0,1155606412.8,4125721599.9999995
sz002983,芯瑞达,2021-12-24,22.53,22.77,21.82,21.97,22.4,1604410.0,35682164.0,1133422896.84,4046522480.0
sz002983,芯瑞达,2021-12-27,21.95,22.24,21.7,22.19,21.97,957808.0,21106915.0,1144772602.68,4087042959.9999995
sz002983,芯瑞达,2021-12-28,22.25,22.49,22.07,22.34,22.19,792148.0,17648188.0,1152511038.48,4114670560.0
sz002983,芯瑞达,2021-12-29,22.25,22.26,21.91,22.08,22.34,818305.0,18043934.0,1139097749.76,4066782720.0
sz002983,芯瑞达,2021-12-30,22.05,23.08,22.0,22.8,22.08,2051878.0,46664279.0,1176242241.6,4199395200.0
sz002983,芯瑞达,2021-12-31,22.79,22.9,22.59,22.66,22.8,1076850.0,24458418.0,1169019701.52,4173609440.0
sz002983,芯瑞达,2022-01-04,22.66,23.0,22.31,22.98,22.66,1326930.0,30148816.0,1185528364.56,4232548320.0
sz002983,芯瑞达,2022-01-05,22.95,22.98,22.1,22.37,22.98,1455140.0,32607963.0,1154058725.64,4120196080.0
sz002983,芯瑞达,2022-01-06,22.33,22.7,22.22,22.55,22.37,741480.0,16692073.0,1163344848.6,4153349200.0
sz002983,芯瑞达,2022-01-07,22.5,23.45,22.26,22.81,22.55,2417620.0,55298866.0,1176758137.32,4201237040.0000005
sz002983,芯瑞达,2022-01-10,22.72,23.22,22.13,23.15,22.81,2558778.0,58533866.0,1194298591.8,4263859600.0
sz002983,芯瑞达,2022-01-11,23.03,23.39,22.88,23.04,23.15,2066740.0,47857550.0,1188623738.88,4243599360.0
sz002983,芯瑞达,2022-01-12,23.0,23.44,23.0,23.26,23.04,1783560.0,41507212.0,1199973444.72,4284119840.0
sz002983,芯瑞达,2022-01-13,23.26,23.44,23.01,23.11,23.26,1778820.0,41336319.0,1192235008.92,4256492240.0
sz002983,芯瑞达,2022-01-14,23.0,23.24,22.69,22.81,23.11,1315469.0,30170762.0,1176758137.32,4201237040.0000005
