数据由邢不行整理
股票代码,股票名称,交易日期,开盘价,最高价,最低价,收盘价,前收盘价,成交量,成交额,流通市值,总市值
sz002989,中天精装,2020-06-10,29.42,35.31,29.42,35.31,24.52,112109.0,3942081.0,1336483500.0,5345934000.0
sz002989,中天精装,2020-06-11,38.84,38.84,38.84,38.84,35.31,47777.0,1855659.0,1470094000.0,5880376000.0
sz002989,中天精装,2020-06-12,42.72,42.72,42.72,42.72,38.84,318616.0,13611276.0,1616952000.0,6467808000.0
sz002989,中天精装,2020-06-15,46.99,46.99,45.52,46.99,42.72,5576587.0,261866513.0,1778571500.0,7114286000.0
sz002989,中天精装,2020-06-16,51.59,51.69,47.85,51.69,46.99,15300844.0,766257298.0,1956466500.0,7825866000.0
sz002989,中天精装,2020-06-17,56.86,56.86,56.86,56.86,51.69,652982.0,37128557.0,2152151000.0,8608604000.0
sz002989,中天精装,2020-06-18,57.5,60.69,56.66,57.96,56.86,21402467.0,1249055348.0,2193786000.0,8775144000.0
sz002989,中天精装,2020-06-19,58.11,63.76,54.5,62.35,57.96,21084617.0,1254461483.0,2359947500.0,9439790000.0
sz002989,中天精装,2020-06-22,60.35,60.97,58.0,59.2,62.35,13661287.0,812412191.0,2240720000.0,8962880000.0
sz002989,中天精装,2020-06-23,57.55,57.88,55.2,55.49,59.2,11703441.0,659223723.0,2100296500.0,8401186000.0
sz002989,中天精装,2020-06-24,56.12,56.58,54.09,54.3,55.49,7669734.0,425780849.0,2055255000.0,8221020000.0
sz002989,中天精装,2020-06-29,55.1,56.28,54.25,56.25,54.3,7588529.0,420404646.0,2129062500.0,8516250000.0
sz002989,中天精装,2020-06-30,56.0,56.65,55.3,56.18,56.25,6730156.0,376508979.0,2126413000.0,8505652000.0
sz002989,中天精装,2020-07-01,56.4,59.24,55.5,56.71,56.18,8169697.0,464974796.0,2146473500.0,8585894000.0
sz002989,中天精装,2020-07-02,57.11,59.5,56.16,56.3,56.71,9272330.0,534832023.0,2130955000.0,8523820000.0
sz002989,中天精装,2020-07-03,55.1,55.33,51.72,52.01,56.3,11048391.0,589039358.0,1968578500.0,7874314000.0
sz002989,中天精装,2020-07-06,51.49,53.48,50.88,52.94,52.01,7921544.0,412646801.0,2003779000.0,8015116000.0
sz002989,中天精装,2020-07-07,52.61,53.78,52.0,53.51,52.94,9321818.0,492500702.0,2025353500.0,8101414000.0
sz002989,中天精装,2020-07-08,53.0,54.57,51.91,53.7,53.51,9174691.0,487486852.0,2032545000.0,8130180000.0
sz002989,中天精装,2020-07-09,53.5,58.0,53.44,57.0,53.7,12219894.0,677650180.0,2157450000.0,8629800000.0
sz002989,中天精装,2020-07-10,56.0,59.0,54.91,57.22,57.0,12319882.0,702167402.0,2165777000.0,8663108000.0
sz002989,中天精装,2020-07-13,57.0,59.2,56.3,59.19,57.22,9705749.0,559528875.0,2240341500.0,8961366000.0
sz002989,中天精装,2020-07-14,59.28,60.83,55.89,57.1,59.19,8504727.0,494321349.0,2161235000.0,8644940000.0
sz002989,中天精装,2020-07-15,56.99,59.59,56.2,57.81,57.1,10296265.0,602085949.0,2188108500.0,8752434000.0
sz002989,中天精装,2020-07-16,55.0,55.0,52.03,52.03,57.81,6312869.0,330514860.0,1969335500.0,7877342000.0
sz002989,中天精装,2020-07-17,48.2,50.56,48.2,48.51,52.03,6576258.0,323425281.0,1836103500.0,7344414000.0
sz002989,中天精装,2020-07-20,49.1,51.97,48.75,50.71,48.51,4716713.0,237738803.0,1919373500.0,7677494000.0
sz002989,中天精装,2020-07-21,51.81,53.38,50.87,51.6,50.71,5113194.0,266594555.0,1953060000.0,7812240000.0
sz002989,中天精装,2020-07-22,50.81,52.5,50.81,51.13,51.6,4009031.0,205878736.0,1935270500.0,7741082000.0
sz002989,中天精装,2020-07-23,50.91,51.65,49.02,50.15,51.13,3114257.0,156905426.0,1898177500.0,7592710000.0
sz002989,中天精装,2020-07-24,49.66,50.79,47.8,47.99,50.15,3524028.0,172878680.0,1816421500.0,7265686000.0
sz002989,中天精装,2020-07-27,48.43,49.3,48.0,48.84,47.99,2245016.0,109189051.0,1848594000.0,7394376000.0
sz002989,中天精装,2020-07-28,49.39,49.39,48.28,48.59,48.84,1840512.0,89849468.0,1839131500.0,7356526000.0
sz002989,中天精装,2020-07-29,48.6,50.0,48.44,49.91,48.59,2924240.0,144365106.0,1889093500.0,7556374000.0
sz002989,中天精装,2020-07-30,49.9,50.0,48.59,48.95,49.91,2222836.0,109457371.0,1852757500.0,7411030000.0
sz002989,中天精装,2020-07-31,49.23,50.5,48.9,49.33,48.95,2332512.0,115606782.0,1867140500.0,7468562000.0
sz002989,中天精装,2020-08-03,49.88,51.47,49.06,50.86,49.33,3478924.0,174940609.0,1925051000.0,7700204000.0
sz002989,中天精装,2020-08-04,51.31,52.53,50.68,52.0,50.86,4685174.0,241957578.0,1968200000.0,7872800000.0
sz002989,中天精装,2020-08-05,51.99,52.38,50.5,52.04,52.0,3537169.0,182041577.0,1969714000.0,7878856000.0
sz002989,中天精装,2020-08-06,52.2,55.5,52.2,53.38,52.04,5858279.0,316585078.0,2020433000.0,8081732000.0
sz002989,中天精装,2020-08-07,52.5,53.0,49.5,50.73,53.38,4194455.0,214155500.0,1920130500.0,7680522000.0
sz002989,中天精装,2020-08-10,49.99,54.99,49.3,53.4,50.73,4950687.0,260004982.0,2021190000.0,8084760000.0
sz002989,中天精装,2020-08-11,53.54,56.8,51.12,51.3,53.4,5297605.0,285578679.0,1941705000.0,7766820000.0
sz002989,中天精装,2020-08-12,50.0,51.98,49.51,50.68,51.3,2656564.0,133606533.0,1918238000.0,7672952000.0
sz002989,中天精装,2020-08-13,51.1,52.14,49.6,49.62,50.68,2058481.0,103109846.0,1878117000.0,7512468000.0
sz002989,中天精装,2020-08-14,49.11,51.0,49.11,50.92,49.62,1975854.0,99255386.0,1927322000.0,7709288000.0
sz002989,中天精装,2020-08-17,50.9,52.0,50.62,52.0,50.92,2237062.0,114699809.0,1968200000.0,7872800000.0
sz002989,中天精装,2020-08-18,52.0,52.41,50.88,51.26,52.0,2678697.0,138135914.0,1940191000.0,7760764000.0
sz002989,中天精装,2020-08-19,50.67,51.97,50.0,50.85,51.26,1826749.0,93179767.0,1924672500.0,7698690000.0
sz002989,中天精装,2020-08-20,50.25,51.77,49.9,50.91,50.85,1572967.0,80320456.0,1926943500.0,7707774000.0
sz002989,中天精装,2020-08-21,50.88,55.94,50.56,54.77,50.91,7026951.0,379541965.0,2073044500.0,8292178000.0
sz002989,中天精装,2020-08-24,54.01,58.58,53.51,57.78,54.77,5472591.0,310366524.0,2186973000.0,8747892000.0
sz002989,中天精装,2020-08-25,57.0,58.88,56.03,57.47,57.78,3936833.0,227166888.0,2175239500.0,8700958000.0
sz002989,中天精装,2020-08-26,57.37,58.19,54.0,56.82,57.47,3333648.0,186931929.0,2150637000.0,8602548000.0
sz002989,中天精装,2020-08-27,56.25,57.39,55.0,56.3,56.82,1819167.0,102186761.0,2130955000.0,8523820000.0
sz002989,中天精装,2020-08-28,56.89,57.57,55.2,56.16,56.3,1890878.0,106261213.0,2125656000.0,8502624000.0
sz002989,中天精装,2020-08-31,56.5,58.62,56.03,58.0,56.16,2664234.0,153860611.0,2195300000.0,8781200000.0
sz002989,中天精装,2020-09-01,58.5,59.35,57.36,59.0,58.0,2874283.0,168316597.0,2233150000.0,8932600000.0
sz002989,中天精装,2020-09-02,59.0,59.5,57.71,58.31,59.0,2361205.0,138061487.0,2207033500.0,8828134000.0
sz002989,中天精装,2020-09-03,58.88,58.88,55.61,56.2,58.31,2029158.0,115586414.0,2127170000.0,8508680000.0
sz002989,中天精装,2020-09-04,54.97,58.2,54.54,57.98,56.2,1604384.0,91388444.0,2194543000.0,8778172000.0
sz002989,中天精装,2020-09-07,58.08,60.25,57.7,59.04,57.98,2630007.0,155881202.0,2234664000.0,8938656000.0
sz002989,中天精装,2020-09-08,59.04,61.83,58.92,61.01,59.04,2867262.0,174327573.0,2309228500.0,9236914000.0
sz002989,中天精装,2020-09-09,61.01,62.6,57.41,57.41,61.01,2686771.0,162599628.0,2172968500.0,8691874000.0
sz002989,中天精装,2020-09-10,58.03,63.15,57.7,61.29,57.41,3864789.0,237084847.0,2319826500.0,9279306000.0
sz002989,中天精装,2020-09-11,61.41,65.88,59.01,61.04,61.29,4364973.0,271865755.0,2310364000.0,9241456000.0
sz002989,中天精装,2020-09-14,62.98,63.0,58.0,60.68,61.04,3124562.0,189794345.0,2296738000.0,9186952000.0
sz002989,中天精装,2020-09-15,60.0,62.44,59.44,60.01,60.68,2320542.0,140873270.0,2271378500.0,9085514000.0
sz002989,中天精装,2020-09-16,59.61,61.2,59.06,60.0,60.01,1489440.0,89437896.0,2271000000.0,9084000000.0
sz002989,中天精装,2020-09-17,58.52,61.17,58.1,60.25,59.6,1926200.0,115062927.0,2280462500.0,9121850000.0
sz002989,中天精装,2020-09-18,60.65,61.8,60.0,61.52,60.25,1202362.0,73227188.0,2328532000.0,9314128000.0
sz002989,中天精装,2020-09-21,61.03,64.58,60.67,63.86,61.52,1730618.0,108589467.0,2417101000.0,9668404000.0
sz002989,中天精装,2020-09-22,63.57,64.9,62.01,62.36,63.86,1230951.0,78120594.0,2360326000.0,9441304000.0
sz002989,中天精装,2020-09-23,62.4,62.93,61.88,62.76,62.36,778529.0,48497266.0,2375466000.0,9501864000.0
sz002989,中天精装,2020-09-24,62.55,63.21,60.97,60.97,62.76,764228.0,47288223.0,2307714500.0,9230858000.0
sz002989,中天精装,2020-09-25,60.85,61.7,59.86,59.86,60.97,1230515.0,74460002.0,2265701000.0,9062804000.0
sz002989,中天精装,2020-09-28,59.85,59.87,58.2,58.22,59.86,983519.0,57951044.0,2203627000.0,8814508000.0
sz002989,中天精装,2020-09-29,58.66,59.19,56.64,56.94,58.22,949700.0,54691520.0,2155179000.0,8620716000.0
sz002989,中天精装,2020-09-30,57.01,58.87,56.43,58.2,56.94,1063712.0,60814760.0,2202870000.0,8811480000.0
sz002989,中天精装,2020-10-09,58.5,59.84,58.5,59.15,58.2,758251.0,44742106.0,2238827500.0,8955310000.0
sz002989,中天精装,2020-10-12,60.0,61.7,60.0,60.48,59.15,962580.0,58528907.0,2289168000.0,9156672000.0
sz002989,中天精装,2020-10-13,60.54,60.95,59.6,60.58,60.48,633716.0,38125502.0,2292953000.0,9171812000.0
sz002989,中天精装,2020-10-14,60.5,60.87,59.19,60.19,60.58,678760.0,40680292.0,2278191500.0,9112766000.0
sz002989,中天精装,2020-10-15,60.01,61.39,59.7,59.83,60.19,741900.0,44756715.0,2264565500.0,9058262000.0
sz002989,中天精装,2020-10-16,60.18,60.8,57.99,58.7,59.83,614278.0,36536081.0,2221795000.0,8887180000.0
sz002989,中天精装,2020-10-19,59.0,59.45,57.02,57.4,58.7,598700.0,34740659.0,2172590000.0,8690360000.0
sz002989,中天精装,2020-10-20,57.39,58.24,56.01,57.96,57.4,571817.0,32684930.0,2193786000.0,8775144000.0
sz002989,中天精装,2020-10-21,57.51,58.11,56.63,56.67,57.96,406900.0,23257415.0,2144959500.0,8579838000.0
sz002989,中天精装,2020-10-22,56.39,56.96,54.2,55.0,56.67,747028.0,41498233.0,2081750000.0,8327000000.0
sz002989,中天精装,2020-10-23,54.79,55.78,53.54,54.44,55.0,745000.0,40935666.0,2060554000.0,8242216000.0
sz002989,中天精装,2020-10-26,54.1,55.0,53.7,54.37,54.44,439312.0,23879077.0,2057904500.0,8231618000.0
sz002989,中天精装,2020-10-27,54.37,55.5,53.71,55.29,54.37,440380.0,24011360.0,2092726500.0,8370906000.0
sz002989,中天精装,2020-10-28,54.99,55.59,49.99,50.8,55.29,2734844.0,140900128.0,1922780000.0,7691120000.0
sz002989,中天精装,2020-10-29,50.0,50.4,48.5,49.7,50.8,1811530.0,89863892.0,1881145000.0,7524580000.0
sz002989,中天精装,2020-10-30,49.73,52.0,48.1,48.11,49.7,1992720.0,99668826.0,1820963500.0,7283854000.0
sz002989,中天精装,2020-11-02,48.26,48.84,46.53,46.53,48.11,1292800.0,61558801.0,1761160500.0,7044642000.0
sz002989,中天精装,2020-11-03,46.8,47.56,46.69,47.0,46.53,1296280.0,60948963.0,1778950000.0,7115800000.0
sz002989,中天精装,2020-11-04,47.07,47.5,45.63,46.95,47.0,1164856.0,54239323.0,1777057500.0,7108230000.0
sz002989,中天精装,2020-11-05,47.01,47.47,46.53,47.29,46.95,1094800.0,51619511.0,1789926500.0,7159706000.0
sz002989,中天精装,2020-11-06,47.54,47.54,45.8,46.6,47.29,1132000.0,52564687.0,1763810000.0,7055240000.0
sz002989,中天精装,2020-11-09,46.63,47.17,46.45,47.1,46.6,1323517.0,62045619.0,1782735000.0,7130940000.0
sz002989,中天精装,2020-11-10,46.99,47.98,46.39,46.52,47.1,1382799.0,64895315.0,1760782000.0,7043128000.0
sz002989,中天精装,2020-11-11,46.52,46.52,44.91,45.0,46.52,1319780.0,59960047.0,1703250000.0,6813000000.0
sz002989,中天精装,2020-11-12,45.04,45.7,44.44,44.92,45.0,1106274.0,49658186.0,1700222000.0,6800888000.0
sz002989,中天精装,2020-11-13,44.66,45.93,43.0,45.89,44.92,836060.0,37809748.0,1736936500.0,6947746000.0
sz002989,中天精装,2020-11-16,45.9,45.9,44.49,45.16,45.89,1173251.0,52857215.0,1709306000.0,6837224000.0
sz002989,中天精装,2020-11-17,45.26,45.26,44.19,44.49,45.16,751812.0,33425713.0,1683946500.0,6735786000.0
sz002989,中天精装,2020-11-18,44.48,44.88,42.8,43.47,44.49,854180.0,37480240.0,1645339500.0,6581358000.0
sz002989,中天精装,2020-11-19,43.18,43.68,42.51,43.5,43.47,795474.0,34379216.0,1646475000.0,6585900000.0
sz002989,中天精装,2020-11-20,43.51,44.35,43.51,44.18,43.5,707662.0,31134489.0,1672213000.0,6688852000.0
sz002989,中天精装,2020-11-23,44.37,44.39,43.7,43.96,44.18,538900.0,23728828.0,1663886000.0,6655544000.0
sz002989,中天精装,2020-11-24,44.1,44.1,43.54,43.97,43.96,525680.0,22968516.0,1664264500.0,6657058000.0
sz002989,中天精装,2020-11-25,43.95,46.08,43.8,45.38,43.97,1748868.0,79188409.0,1717633000.0,6870532000.0
sz002989,中天精装,2020-11-26,44.69,45.26,42.8,43.63,45.38,1019908.0,44927522.0,1651395500.0,6605582000.0
sz002989,中天精装,2020-11-27,43.63,43.98,43.15,43.46,43.63,530044.0,23017601.0,1644961000.0,6579844000.0
sz002989,中天精装,2020-11-30,43.31,43.64,43.1,43.2,43.46,550733.0,23888154.0,1635120000.0,6540480000.0
sz002989,中天精装,2020-12-01,43.2,43.57,42.8,43.4,43.2,551283.0,23795740.0,1642690000.0,6570760000.0
sz002989,中天精装,2020-12-02,43.4,43.7,43.11,43.13,43.4,1110380.0,48162769.0,1632470500.0,6529882000.0
sz002989,中天精装,2020-12-03,42.51,42.95,42.05,42.33,43.13,825564.0,34953667.0,1602190500.0,6408762000.0
sz002989,中天精装,2020-12-04,42.31,43.83,42.06,42.5,42.33,1180451.0,50489225.0,1608625000.0,6434500000.0
sz002989,中天精装,2020-12-07,42.5,42.75,41.63,41.64,42.5,1241100.0,52225670.0,1576074000.0,6304296000.0
sz002989,中天精装,2020-12-08,41.43,42.17,41.37,41.6,41.64,847100.0,35248622.0,1574560000.0,6298240000.0
sz002989,中天精装,2020-12-09,41.6,41.6,40.31,40.58,41.6,1255825.0,51274132.0,1535953000.0,6143812000.0
sz002989,中天精装,2020-12-10,40.58,41.57,40.16,40.62,40.58,1011300.0,41245551.0,1537467000.0,6149868000.0
sz002989,中天精装,2020-12-11,40.54,40.55,38.15,39.17,40.62,1553268.0,60691107.0,1482584500.0,5930338000.0
sz002989,中天精装,2020-12-14,39.07,39.53,38.71,39.0,39.17,1116039.0,43641167.0,1476150000.0,5904600000.0
sz002989,中天精装,2020-12-15,39.0,39.76,38.63,39.35,39.0,1180178.0,46373003.0,1489397500.0,5957590000.0
sz002989,中天精装,2020-12-16,39.29,39.57,38.3,38.6,39.35,1053871.0,40825117.0,1461010000.0,5844040000.0
sz002989,中天精装,2020-12-17,38.44,39.0,38.05,38.84,38.6,611636.0,23582448.0,1470094000.0,5880376000.0
sz002989,中天精装,2020-12-18,38.82,39.17,37.66,37.8,38.84,1013634.0,38781428.0,1430730000.0,5722920000.0
sz002989,中天精装,2020-12-21,37.83,38.08,37.52,37.72,37.8,517000.0,19535239.0,1427702000.0,5710808000.0
sz002989,中天精装,2020-12-22,37.5,38.43,36.91,37.2,37.72,990500.0,37169465.0,1408020000.0,5632080000.0
sz002989,中天精装,2020-12-23,37.16,37.6,36.32,37.26,37.2,1049500.0,38897653.0,1410291000.0,5641164000.0
sz002989,中天精装,2020-12-24,37.29,37.29,35.8,35.92,37.26,798400.0,29055051.0,1359572000.0,5438288000.0
sz002989,中天精装,2020-12-25,35.58,36.49,34.21,35.72,35.92,863983.0,30916159.0,1352002000.0,5408008000.0
sz002989,中天精装,2020-12-28,35.74,35.8,34.43,34.74,35.72,784334.0,27446114.0,1314909000.0,5259636000.0
sz002989,中天精装,2020-12-29,35.35,36.39,34.99,36.14,34.74,1272039.0,45721224.0,1367899000.0,5471596000.0
sz002989,中天精装,2020-12-30,36.06,37.1,35.72,37.05,36.14,1308202.0,47785682.0,1402342500.0,5609370000.0
sz002989,中天精装,2020-12-31,36.8,37.6,36.8,37.1,37.05,821591.0,30536063.0,1404235000.0,5616940000.0
sz002989,中天精装,2021-01-04,37.2,37.66,36.76,37.2,37.1,864022.0,32065870.0,1408020000.0,5632080000.0
sz002989,中天精装,2021-01-05,36.97,37.06,36.1,36.41,37.2,1161674.0,42423733.0,1378118500.0,5512474000.0
sz002989,中天精装,2021-01-06,36.41,36.56,35.49,35.71,36.41,955934.0,34281420.0,1351623500.0,5406494000.0
sz002989,中天精装,2021-01-07,35.63,35.72,33.68,33.88,35.71,1465900.0,50443241.0,1282358000.0,5129432000.0
sz002989,中天精装,2021-01-08,33.88,34.94,32.9,33.51,33.88,1091200.0,36892923.0,1268353500.0,5073414000.0
sz002989,中天精装,2021-01-11,33.51,33.93,32.81,32.97,33.51,1297289.0,42854544.0,1247914500.0,4991658000.0
sz002989,中天精装,2021-01-12,32.95,34.28,31.01,33.18,32.97,1064780.0,35342679.0,1255863000.0,5023452000.0
sz002989,中天精装,2021-01-13,33.2,33.2,31.3,31.5,33.18,1282580.0,40999921.0,1192275000.0,4769100000.0
sz002989,中天精装,2021-01-14,31.81,34.65,31.81,34.65,31.5,1868761.0,63557118.0,1311502500.0,5246010000.0
sz002989,中天精装,2021-01-15,36.31,38.11,34.8,35.3,34.65,4313839.0,155939298.0,1336105000.0,5344420000.0
sz002989,中天精装,2021-01-18,34.6,35.78,34.51,35.33,35.3,2437914.0,85470559.0,1337240500.0,5348962000.0
sz002989,中天精装,2021-01-19,34.85,36.58,34.2,35.66,35.33,2766934.0,97725342.0,1349731000.0,5398924000.0
sz002989,中天精装,2021-01-20,35.68,36.47,34.85,34.9,35.66,1620568.0,57149145.0,1320965000.0,5283860000.0
sz002989,中天精装,2021-01-21,34.6,34.8,33.76,34.32,34.9,1401402.0,48068810.0,1299012000.0,5196048000.0
sz002989,中天精装,2021-01-22,34.6,35.8,34.0,34.95,34.32,1464872.0,51112577.0,1322857500.0,5291430000.0
sz002989,中天精装,2021-01-25,34.9,35.75,34.2,35.25,34.95,1405538.0,49115232.0,1334212500.0,5336850000.0
sz002989,中天精装,2021-01-26,35.0,38.05,34.7,36.29,35.25,3132880.0,114466078.0,1373576500.0,5494306000.0
sz002989,中天精装,2021-01-27,36.59,39.79,36.2,39.33,36.29,4216552.0,160953679.0,1488640500.0,5954562000.0
sz002989,中天精装,2021-01-28,38.9,43.26,38.3,43.26,39.33,4960712.0,203714299.0,1637391000.0,6549564000.0
sz002989,中天精装,2021-01-29,44.0,44.0,39.66,41.17,43.26,5157982.0,214045444.0,1558284500.0,6233138000.0
sz002989,中天精装,2021-02-01,40.37,42.4,39.9,41.84,41.17,3578674.0,147062455.0,1583644000.0,6334576000.0
sz002989,中天精装,2021-02-02,41.03,41.75,40.2,40.5,41.84,2321090.0,94776419.0,1532925000.0,6131700000.0
sz002989,中天精装,2021-02-03,40.37,40.37,38.88,39.44,40.5,1883340.0,74404989.0,1492804000.0,5971216000.0
sz002989,中天精装,2021-02-04,39.44,42.5,39.11,41.66,39.44,4584771.0,188136388.0,1576831000.0,6307324000.0
sz002989,中天精装,2021-02-05,41.7,43.86,39.89,42.76,41.66,5013190.0,209528782.0,1618466000.0,6473864000.0
sz002989,中天精装,2021-02-08,41.87,43.45,40.66,41.82,42.76,2528266.0,105737317.0,1582887000.0,6331548000.0
sz002989,中天精装,2021-02-09,41.8,42.75,40.5,41.0,41.82,2277032.0,93972285.0,1551850000.0,6207400000.0
sz002989,中天精装,2021-02-10,40.52,40.87,39.64,40.14,41.0,1985238.0,79378561.0,1519299000.0,6077196000.0
sz002989,中天精装,2021-02-18,40.65,42.38,40.21,42.36,40.14,2169115.0,90263105.0,1603326000.0,6413304000.0
sz002989,中天精装,2021-02-19,42.3,43.0,41.5,42.97,42.36,1726300.0,72892168.0,1626414500.0,6505658000.0
sz002989,中天精装,2021-02-22,42.51,45.99,42.51,44.78,42.97,2646005.0,118393627.0,1694923000.0,6779692000.0
sz002989,中天精装,2021-02-23,44.5,46.71,44.15,44.52,44.78,2744207.0,125005496.0,1685082000.0,6740328000.0
sz002989,中天精装,2021-02-24,44.13,44.96,43.47,44.4,44.52,1478947.0,65235938.0,1680540000.0,6722160000.0
sz002989,中天精装,2021-02-25,43.83,46.3,43.1,45.93,44.4,2424178.0,109514761.0,1738450500.0,6953802000.0
sz002989,中天精装,2021-02-26,44.62,45.86,43.58,43.59,45.93,1549080.0,68841854.0,1649881500.0,6599526000.0
sz002989,中天精装,2021-03-01,43.71,45.3,43.61,44.85,43.59,1165785.0,51984048.0,1697572500.0,6790290000.0
sz002989,中天精装,2021-03-02,44.39,46.95,44.39,46.65,44.85,2244515.0,103670857.0,1765702500.0,7062810000.0
sz002989,中天精装,2021-03-03,46.63,48.69,46.02,48.45,46.65,2259834.0,108611278.0,1833832500.0,7335330000.0
sz002989,中天精装,2021-03-04,47.6,49.0,47.5,47.54,48.45,1651680.0,79536054.0,1799389000.0,7197556000.0
sz002989,中天精装,2021-03-05,46.5,47.89,45.69,47.51,47.54,1670004.0,77879570.0,1798253500.0,7193014000.0
sz002989,中天精装,2021-03-08,47.73,48.41,44.78,45.28,47.51,1666904.0,77572125.0,1713848000.0,6855392000.0
sz002989,中天精装,2021-03-09,45.15,45.15,40.75,41.36,45.28,2332080.0,99543174.0,1565476000.0,6261904000.0
sz002989,中天精装,2021-03-10,42.0,42.44,40.23,41.14,41.36,1159356.0,48101783.0,1557149000.0,6228596000.0
sz002989,中天精装,2021-03-11,41.14,43.25,40.99,42.19,41.14,783504.0,32889752.0,1596891500.0,6387566000.0
sz002989,中天精装,2021-03-12,42.33,43.09,41.0,42.3,42.19,982300.0,41185919.0,1601055000.0,6404220000.0
sz002989,中天精装,2021-03-15,42.08,42.22,39.68,40.03,42.3,1194840.0,48533693.0,1515135500.0,6060542000.0
sz002989,中天精装,2021-03-16,40.0,40.97,39.5,40.61,40.03,874914.0,35245899.0,1537088500.0,6148354000.0
sz002989,中天精装,2021-03-17,40.3,41.2,39.81,40.75,40.61,758100.0,30765885.0,1542387500.0,6169550000.0
sz002989,中天精装,2021-03-18,41.0,42.36,40.4,41.32,40.75,806714.0,33383846.0,1563962000.0,6255848000.0
sz002989,中天精装,2021-03-19,41.0,42.5,40.51,41.9,41.32,863200.0,36120332.0,1585915000.0,6343660000.0
sz002989,中天精装,2021-03-22,41.88,42.47,41.28,42.35,41.9,681914.0,28722311.0,1602947500.0,6411790000.0
sz002989,中天精装,2021-03-23,42.04,42.89,41.39,41.57,42.35,756000.0,31758303.0,1573424500.0,6293698000.0
sz002989,中天精装,2021-03-24,41.31,41.78,40.2,40.23,41.57,621800.0,25292446.0,1522705500.0,6090822000.0
sz002989,中天精装,2021-03-25,40.98,40.98,39.89,40.14,40.23,330300.0,13312491.0,1519299000.0,6077196000.0
sz002989,中天精装,2021-03-26,40.0,42.58,40.0,42.5,40.14,884140.0,36809909.0,1608625000.0,6434500000.0
sz002989,中天精装,2021-03-29,42.4,42.89,41.82,41.96,42.5,514934.0,21751162.0,1588186000.0,6352744000.0
sz002989,中天精装,2021-03-30,41.8,42.15,41.0,41.91,41.96,387400.0,16132611.0,1586293500.0,6345174000.0
sz002989,中天精装,2021-03-31,41.55,42.15,40.55,40.92,41.91,504800.0,20745319.0,1548822000.0,6195288000.0
sz002989,中天精装,2021-04-01,40.91,41.55,40.38,40.93,40.92,303200.0,12348901.0,1549200500.0,6196802000.0
sz002989,中天精装,2021-04-02,40.8,41.25,40.25,40.39,40.93,446540.0,18069275.0,1528761500.0,6115046000.0
sz002989,中天精装,2021-04-06,40.75,41.83,40.1,41.3,40.39,626180.0,25650230.0,1563205000.0,6252820000.0
sz002989,中天精装,2021-04-07,41.05,41.58,40.65,41.43,41.3,371500.0,15250266.0,1568125500.0,6272502000.0
sz002989,中天精装,2021-04-08,41.05,41.29,39.81,39.82,41.43,809100.0,32801394.0,1507187000.0,6028748000.0
sz002989,中天精装,2021-04-09,39.79,39.79,36.82,37.34,39.82,1418781.0,53187662.0,1413319000.0,5653276000.0
sz002989,中天精装,2021-04-12,37.28,37.95,35.51,36.18,37.34,1217600.0,44099763.0,1369413000.0,5477652000.0
sz002989,中天精装,2021-04-13,36.02,36.43,35.52,36.0,36.18,583700.0,21000336.0,1362600000.0,5450400000.0
sz002989,中天精装,2021-04-14,36.0,37.4,35.31,36.8,36.0,925900.0,33840190.0,1392880000.0,5571520000.0
sz002989,中天精装,2021-04-15,36.6,37.17,36.19,36.75,36.8,479200.0,17511283.0,1390987500.0,5563950000.0
sz002989,中天精装,2021-04-16,36.81,37.6,36.5,36.92,36.75,521400.0,19349616.0,1397422000.0,5589688000.0
sz002989,中天精装,2021-04-19,37.02,37.37,36.16,36.45,36.92,838234.0,30802524.0,1379632500.0,5518530000.0
sz002989,中天精装,2021-04-20,36.5,37.08,36.1,36.45,36.45,642948.0,23455857.0,1379632500.0,5518530000.0
sz002989,中天精装,2021-04-21,36.19,36.65,35.31,35.49,36.45,882200.0,31448662.0,1343296500.0,5373186000.0
sz002989,中天精装,2021-04-22,35.79,35.79,34.7,35.09,35.49,969455.0,33925434.0,1328156500.0,5312626000.0
sz002989,中天精装,2021-04-23,35.18,35.22,34.4,34.81,35.09,798985.0,27771426.0,1317558500.0,5270234000.0
sz002989,中天精装,2021-04-26,34.6,35.39,34.21,34.96,34.81,505500.0,17676012.0,1323236000.0,5292944000.0
sz002989,中天精装,2021-04-27,34.96,35.02,33.66,33.87,34.96,709998.0,24173385.0,1281979500.0,5127918000.0
sz002989,中天精装,2021-04-28,34.25,37.26,34.25,37.26,33.87,2323113.0,85006610.0,1410291000.0,5641164000.0
sz002989,中天精装,2021-04-29,37.73,38.75,36.36,36.5,37.26,2773452.0,104282611.0,1381525000.0,5526100000.0
sz002989,中天精装,2021-04-30,36.58,37.48,36.06,36.75,36.5,1737448.0,64026276.0,1390987500.0,5563950000.0
sz002989,中天精装,2021-05-06,36.88,38.5,36.82,37.55,36.75,1844096.0,69493442.0,1421267500.0,5685070000.0
sz002989,中天精装,2021-05-07,37.6,38.33,37.21,37.9,37.55,1454382.0,55179328.0,1434515000.0,5738060000.0
sz002989,中天精装,2021-05-10,38.2,39.1,37.4,39.08,37.9,2552150.0,98306580.0,1479178000.0,5916712000.0
sz002989,中天精装,2021-05-11,39.65,39.76,38.28,38.77,39.08,1966500.0,76402641.0,1467444500.0,5869778000.0
sz002989,中天精装,2021-05-12,38.26,39.94,38.26,39.8,38.77,1890644.0,74503376.0,1506430000.0,6025720000.0
sz002989,中天精装,2021-05-13,39.51,39.52,38.41,38.41,39.8,1402585.0,54508993.0,1453818500.0,5815274000.0
sz002989,中天精装,2021-05-14,38.0,38.82,38.0,38.24,38.41,1136114.0,43578386.0,1447384000.0,5789536000.0
sz002989,中天精装,2021-05-17,38.2,38.4,37.0,37.8,38.24,1434914.0,54137254.0,1430730000.0,5722920000.0
sz002989,中天精装,2021-05-18,37.84,37.98,35.85,35.91,37.8,2559800.0,93563078.0,1359193500.0,5436774000.0
sz002989,中天精装,2021-05-19,35.88,36.04,34.88,35.18,35.91,1413700.0,49885777.0,1331563000.0,5326252000.0
sz002989,中天精装,2021-05-20,35.21,38.38,34.94,37.53,35.18,2143234.0,79279277.0,1420510500.0,5682042000.0
sz002989,中天精装,2021-05-21,37.07,37.65,36.0,36.6,37.53,1113334.0,41060650.0,1385310000.0,5541240000.0
sz002989,中天精装,2021-05-24,36.6,37.6,35.83,37.55,36.6,1262700.0,46481259.0,1421267500.0,5685070000.0
sz002989,中天精装,2021-05-25,37.48,38.13,37.02,37.95,37.55,1117740.0,42124313.0,1436407500.0,5745630000.0
sz002989,中天精装,2021-05-26,38.22,38.36,37.37,37.47,37.95,888534.0,33580031.0,1418239500.0,5672958000.0
sz002989,中天精装,2021-05-27,37.39,37.47,37.03,37.15,37.47,687500.0,25567003.0,1406127500.0,5624510000.0
sz002989,中天精装,2021-05-28,37.17,37.53,36.75,37.16,37.15,747412.0,27708282.0,1406506000.0,5626024000.0
sz002989,中天精装,2021-05-31,36.99,37.0,35.65,36.48,37.16,944997.0,34242562.0,1380768000.0,5523072000.0
sz002989,中天精装,2021-06-01,36.27,36.53,35.88,36.16,36.48,858623.0,30983277.0,1368656000.0,5474624000.0
sz002989,中天精装,2021-06-02,36.16,36.41,35.83,36.0,36.16,729734.0,26313506.0,1362600000.0,5450400000.0
sz002989,中天精装,2021-06-03,36.01,36.73,35.8,36.06,36.0,792134.0,28787681.0,1364871000.0,5459484000.0
sz002989,中天精装,2021-06-04,35.85,35.95,35.16,35.18,36.06,965400.0,34249962.0,1331563000.0,5326252000.0
sz002989,中天精装,2021-06-07,35.19,35.99,34.6,35.4,35.18,771426.0,27167245.0,1339890000.0,5359560000.0
sz002989,中天精装,2021-06-08,35.4,35.4,34.2,34.36,35.4,1114334.0,38686606.0,1300526000.0,5202104000.0
sz002989,中天精装,2021-06-09,34.24,35.23,34.0,34.62,34.36,841480.0,29119848.0,1310367000.0,5241468000.0
sz002989,中天精装,2021-06-10,34.62,36.66,33.84,35.47,34.62,1285588.0,45853103.0,1342539500.0,5370158000.0
sz002989,中天精装,2021-06-11,35.42,35.51,34.66,34.82,35.47,785300.0,27520790.0,1317937000.0,5271748000.0
sz002989,中天精装,2021-06-15,34.89,35.12,33.23,34.12,34.82,860900.0,29608159.0,1291442000.0,5165768000.0
sz002989,中天精装,2021-06-16,34.12,34.79,31.5,33.66,34.12,733900.0,24898599.0,1274031000.0,5096124000.0
sz002989,中天精装,2021-06-17,33.09,33.89,32.43,32.57,33.66,968288.0,31830117.0,1232774500.0,4931098000.0
sz002989,中天精装,2021-06-18,32.57,33.38,32.22,32.79,32.57,586859.0,19285027.0,2503188600.0,4964406000.0
sz002989,中天精装,2021-06-21,32.57,32.75,32.07,32.22,32.79,868105.0,27999666.0,2459674800.0,4878108000.0
sz002989,中天精装,2021-06-22,32.15,32.99,32.15,32.33,32.22,642400.0,20873423.0,2468072200.0,4894762000.0
sz002989,中天精装,2021-06-23,32.35,33.83,32.15,32.88,32.33,1093012.0,35991067.0,2510059200.0,4978032000.0
sz002989,中天精装,2021-06-24,32.62,33.8,32.41,33.18,32.88,924134.0,30818846.0,2532961200.0,5023452000.0
sz002989,中天精装,2021-06-25,33.19,33.32,32.63,33.06,33.18,706434.0,23270678.0,2523800400.0,5005284000.0
sz002989,中天精装,2021-06-28,33.03,33.42,32.03,32.1,33.06,1558000.0,50614820.0,2450514000.0,4859940000.0
sz002989,中天精装,2021-06-29,32.11,33.0,31.51,32.82,32.1,1126600.0,36311159.0,2505478800.0,4968948000.0
sz002989,中天精装,2021-06-30,32.52,33.1,32.2,32.32,32.82,911000.0,29687188.0,2467308800.0,4893248000.0
sz002989,中天精装,2021-07-01,32.55,32.98,31.76,32.7,32.32,1206500.0,39218960.0,2496318000.0,4950780000.0
sz002989,中天精装,2021-07-02,32.07,32.7,31.56,31.99,32.7,990996.0,31642387.0,2442116600.0,4843286000.0
sz002989,中天精装,2021-07-05,31.61,31.79,31.19,31.4,31.59,621900.0,19527299.0,2397076000.0,4753960000.0
sz002989,中天精装,2021-07-06,31.49,31.5,31.19,31.45,31.4,435500.0,13643067.0,2400893000.0,4761530000.0
sz002989,中天精装,2021-07-07,31.5,31.72,31.22,31.57,31.45,442734.0,13953271.0,2410053800.0,4779698000.0
sz002989,中天精装,2021-07-08,31.5,31.52,30.5,30.67,31.57,1137200.0,35045877.0,2341347800.0,4643438000.0
sz002989,中天精装,2021-07-09,30.5,30.73,29.01,29.98,30.67,874600.0,26228662.0,2288673200.0,4538972000.0
sz002989,中天精装,2021-07-12,29.88,30.39,29.4,29.45,29.98,1143300.0,33846623.0,2248213000.0,4458730000.0
sz002989,中天精装,2021-07-13,29.47,30.18,29.16,29.83,29.45,988612.0,29228734.0,2277222200.0,4516262000.0
sz002989,中天精装,2021-07-14,29.89,30.27,29.49,29.51,29.83,915816.0,27351487.0,2252793400.0,4467814000.0
sz002989,中天精装,2021-07-15,29.4,29.4,28.2,29.11,29.51,957100.0,27722073.0,2222257400.0,4407254000.0
sz002989,中天精装,2021-07-16,29.0,29.01,28.26,28.3,29.11,1049126.0,29838111.0,2160422000.0,4284620000.0
sz002989,中天精装,2021-07-19,28.3,28.68,27.21,27.87,28.3,1025934.0,28403192.0,2127595800.0,4219518000.0
sz002989,中天精装,2021-07-20,27.8,27.84,27.3,27.64,27.87,671134.0,18515768.0,2110037600.0,4184696000.0
sz002989,中天精装,2021-07-21,27.89,28.91,27.7,27.84,27.64,1147600.0,32420048.0,2125305600.0,4214976000.0
sz002989,中天精装,2021-07-22,27.65,27.95,27.41,27.55,27.84,971257.0,26714064.0,2103167000.0,4171070000.0
sz002989,中天精装,2021-07-23,27.42,27.42,26.26,26.45,27.55,1384200.0,36997035.0,2019193000.0,4004530000.0
sz002989,中天精装,2021-07-26,26.54,26.54,24.98,25.38,26.45,1412406.0,36017838.0,1937509200.0,3842532000.0
sz002989,中天精装,2021-07-27,25.5,25.88,25.03,25.33,25.38,1087700.0,27772761.0,1933692200.0,3834962000.0
sz002989,中天精装,2021-07-28,25.44,25.58,24.22,24.58,25.33,1136222.0,27977116.0,1876437200.0,3721412000.0
sz002989,中天精装,2021-07-29,24.58,25.14,24.45,24.99,24.58,1048772.0,25992719.0,1907736600.0,3783486000.0
sz002989,中天精装,2021-07-30,24.7,25.49,24.31,25.01,24.99,968367.0,24156836.0,1909263400.0,3786514000.0
sz002989,中天精装,2021-08-02,25.0,25.89,24.57,25.69,25.01,1092000.0,27650288.0,1961174600.0,3889466000.0
sz002989,中天精装,2021-08-03,25.57,26.55,25.5,25.69,25.69,1499694.0,39137753.0,1961174600.0,3889466000.0
sz002989,中天精装,2021-08-04,25.69,25.95,25.38,25.45,25.69,775500.0,19830326.0,1942853000.0,3853130000.0
sz002989,中天精装,2021-08-05,25.38,25.67,24.91,25.22,25.45,817300.0,20652518.0,1925294800.0,3818308000.0
sz002989,中天精装,2021-08-06,25.07,25.22,24.15,24.59,25.22,1174900.0,28769827.0,1877200600.0,3722926000.0
sz002989,中天精装,2021-08-09,24.79,26.5,24.35,26.34,24.59,2046700.0,52685487.0,2010795600.0,3987876000.0
sz002989,中天精装,2021-08-10,26.17,26.72,25.86,26.6,26.34,1232234.0,32573390.0,2030644000.0,4027240000.0
sz002989,中天精装,2021-08-11,26.51,27.56,26.42,26.58,26.6,1370260.0,36859025.0,2029117200.0,4024212000.0
sz002989,中天精装,2021-08-12,26.42,27.1,26.4,26.49,26.58,855199.0,22836830.0,2022246600.0,4010586000.0
sz002989,中天精装,2021-08-13,26.72,26.72,25.65,25.99,26.49,862999.0,22452672.0,1984076600.0,3934886000.0
sz002989,中天精装,2021-08-16,26.99,26.99,25.88,26.38,25.99,796200.0,21034742.0,2013849200.0,3993932000.0
sz002989,中天精装,2021-08-17,26.38,26.6,25.46,25.63,26.38,961734.0,24945529.0,1956594200.0,3880382000.0
sz002989,中天精装,2021-08-18,25.56,26.23,25.4,26.0,25.63,581649.0,15051865.0,1984840000.0,3936400000.0
sz002989,中天精装,2021-08-19,25.98,26.22,25.41,25.48,26.0,560400.0,14393280.0,1945143200.0,3857672000.0
sz002989,中天精装,2021-08-20,25.48,25.49,24.7,24.93,25.48,735834.0,18308087.0,1903156200.0,3774402000.0
sz002989,中天精装,2021-08-23,24.95,26.12,24.95,25.9,24.93,1288700.0,33195307.0,1977206000.0,3921260000.0
sz002989,中天精装,2021-08-24,25.93,26.28,25.58,25.6,25.9,606300.0,15673913.0,1954304000.0,3875840000.0
sz002989,中天精装,2021-08-25,25.85,26.62,25.4,26.51,25.6,1263361.0,33153045.0,2023773400.0,4013614000.0
sz002989,中天精装,2021-08-26,26.07,26.12,24.32,24.63,26.51,2551095.0,63380586.0,1880254200.0,3728982000.0
sz002989,中天精装,2021-08-27,24.55,24.65,23.26,23.3,24.63,1858900.0,44068950.0,1778722000.0,3527620000.0
sz002989,中天精装,2021-08-30,23.31,23.55,22.71,22.92,23.3,1056500.0,24310842.0,1749712800.0,3470088000.0
sz002989,中天精装,2021-08-31,22.9,23.23,22.63,22.73,22.92,808000.0,18464510.0,1735208200.0,3441322000.0
sz002989,中天精装,2021-09-01,22.8,23.44,22.41,23.05,22.73,1192780.0,27294072.0,1759637000.0,3489770000.0
sz002989,中天精装,2021-09-02,23.07,23.44,22.91,23.23,23.05,814800.0,18863726.0,1773378200.0,3517022000.0
sz002989,中天精装,2021-09-03,23.25,23.97,23.22,23.38,23.23,1052100.0,24781508.0,1784829200.0000002,3539732000.0
sz002989,中天精装,2021-09-06,23.58,23.58,23.15,23.46,23.38,1003000.0,23418443.0,1790936400.0000002,3551844000.0
sz002989,中天精装,2021-09-07,23.43,23.58,23.21,23.32,23.46,822564.0,19189073.0,1780248800.0,3530648000.0
sz002989,中天精装,2021-09-08,23.22,23.83,23.22,23.71,23.32,1348094.0,31811233.0,1810021400.0,3589694000.0
sz002989,中天精装,2021-09-09,23.59,23.9,23.46,23.53,23.71,851573.0,20144128.0,1796280200.0,3562442000.0
sz002989,中天精装,2021-09-10,23.5,23.66,22.91,22.96,23.53,1029700.0,23811840.0,1752766400.0000002,3476144000.0
sz002989,中天精装,2021-09-13,22.96,23.35,22.8,23.25,22.96,587773.0,13578283.0,1774905000.0,3520050000.0
sz002989,中天精装,2021-09-14,23.36,23.36,22.71,22.83,23.25,702600.0,16141955.0,1742842200.0,3456462000.0
sz002989,中天精装,2021-09-15,22.78,22.84,22.43,22.56,22.83,611200.0,13798274.0,1722230400.0,3415584000.0
sz002989,中天精装,2021-09-16,22.69,22.94,22.1,22.35,22.56,1137264.0,25541409.0,1706199000.0,3383790000.0
sz002989,中天精装,2021-09-17,22.22,22.33,21.45,21.57,22.35,1063834.0,23131241.0,1646653800.0,3265698000.0
sz002989,中天精装,2021-09-22,21.44,21.49,21.08,21.41,21.57,588300.0,12491847.0,1634439400.0,3241474000.0
sz002989,中天精装,2021-09-23,21.4,22.36,21.4,21.6,21.41,629400.0,13722984.0,1648944000.0,3270240000.0
sz002989,中天精装,2021-09-24,21.67,21.67,21.13,21.16,21.6,597800.0,12762586.0,1615354400.0,3203624000.0
sz002989,中天精装,2021-09-27,21.24,21.34,20.5,20.73,21.16,885800.0,18398311.0,1582528200.0,3138522000.0
sz002989,中天精装,2021-09-28,20.73,21.11,20.56,20.89,20.73,536149.0,11223482.0,1594742600.0,3162746000.0
sz002989,中天精装,2021-09-29,20.8,21.12,20.37,20.37,20.89,809700.0,16817553.0,1555045799.9999998,3084018000.0
sz002989,中天精装,2021-09-30,20.51,21.24,20.47,21.09,20.37,766400.0,15981309.0,1610010600.0,3193026000.0
sz002989,中天精装,2021-10-08,21.09,21.66,20.92,21.49,21.09,1014700.0,21661064.0,1640546600.0,3253586000.0
sz002989,中天精装,2021-10-11,21.66,21.69,21.12,21.39,21.49,607600.0,12945348.0,1632912600.0,3238446000.0
sz002989,中天精装,2021-10-12,21.19,21.43,20.93,21.32,21.39,566000.0,11958558.0,1627568800.0,3227848000.0
sz002989,中天精装,2021-10-13,21.33,21.56,20.93,21.46,21.32,631200.0,13404835.0,1638256400.0000002,3249044000.0
sz002989,中天精装,2021-10-14,21.44,21.77,21.32,21.43,21.46,615368.0,13258668.0,1635966200.0,3244502000.0
sz002989,中天精装,2021-10-15,21.53,21.53,20.99,21.0,21.43,443700.0,9389330.0,1603140000.0,3179400000.0
sz002989,中天精装,2021-10-18,20.82,21.15,20.77,21.07,21.0,301334.0,6300962.0,1608483800.0,3189998000.0
sz002989,中天精装,2021-10-19,21.21,21.32,20.86,21.06,21.07,334700.0,7076248.0,1607720400.0,3188484000.0
sz002989,中天精装,2021-10-20,21.09,21.52,20.78,21.36,21.06,694300.0,14681014.0,1630622400.0,3233904000.0
sz002989,中天精装,2021-10-21,21.32,21.65,21.27,21.4,21.36,590840.0,12669938.0,1633676000.0,3239960000.0
sz002989,中天精装,2021-10-22,21.45,22.21,21.39,21.87,21.4,1327359.0,29054867.0,1669555799.9999998,3311118000.0
sz002989,中天精装,2021-10-25,21.61,21.8,20.67,20.8,21.87,1457100.0,30642154.0,1587872000.0,3149120000.0
sz002989,中天精装,2021-10-26,20.87,20.87,20.18,20.38,20.8,883200.0,17966665.0,1555809200.0000002,3085532000.0
sz002989,中天精装,2021-10-27,20.14,20.53,19.6,19.68,20.38,851056.0,17036304.0,1502371200.0,2979552000.0
sz002989,中天精装,2021-10-28,19.61,19.61,18.95,19.09,19.68,736048.0,14089934.0,1457330600.0,2890226000.0
sz002989,中天精装,2021-10-29,19.09,19.49,18.96,19.19,19.09,562682.0,10786133.0,1464964600.0,2905366000.0
sz002989,中天精装,2021-11-01,19.17,19.99,19.0,19.95,19.19,769634.0,15142098.0,1522983000.0,3020430000.0
sz002989,中天精装,2021-11-02,19.71,20.43,19.49,19.67,19.95,914954.0,18349592.0,1501607800.0,2978038000.0
sz002989,中天精装,2021-11-03,19.77,20.09,19.68,19.97,19.67,371600.0,7386406.0,1524509800.0,3023458000.0
sz002989,中天精装,2021-11-04,20.03,20.22,19.86,19.99,19.97,292700.0,5854427.0,1526036600.0,3026486000.0
sz002989,中天精装,2021-11-05,19.95,20.38,19.83,20.16,19.99,472100.0,9512857.0,1539014400.0,3052224000.0
sz002989,中天精装,2021-11-08,20.15,20.28,19.83,20.0,20.16,505700.0,10136608.0,1526800000.0,3028000000.0
sz002989,中天精装,2021-11-09,20.04,21.0,19.99,20.41,20.0,791834.0,16209350.0,1558099400.0,3090074000.0
sz002989,中天精装,2021-11-10,20.41,20.68,20.14,20.63,20.41,554000.0,11322761.0,1574894200.0000002,3123382000.0
sz002989,中天精装,2021-11-11,20.48,21.69,20.48,21.44,20.63,1278500.0,27133011.0,1636729600.0,3246016000.0
sz002989,中天精装,2021-11-12,21.5,21.5,20.8,20.88,21.44,918600.0,19293692.0,1593979200.0000002,3161232000.0
sz002989,中天精装,2021-11-15,20.89,21.77,20.71,21.5,20.88,1204619.0,25818634.0,1641310000.0,3255100000.0
sz002989,中天精装,2021-11-16,21.5,21.54,21.21,21.27,21.5,494200.0,10530599.0,1623751800.0,3220278000.0
sz002989,中天精装,2021-11-17,21.21,21.35,21.02,21.06,21.27,581800.0,12309386.0,1607720400.0,3188484000.0
sz002989,中天精装,2021-11-18,21.19,21.42,20.93,21.0,21.06,626300.0,13247481.0,1603140000.0,3179400000.0
sz002989,中天精装,2021-11-19,21.07,21.29,20.77,21.12,21.0,574900.0,12121244.0,1612300799.9999998,3197568000.0
sz002989,中天精装,2021-11-22,21.23,21.58,21.06,21.12,21.12,547100.0,11560221.0,1612300799.9999998,3197568000.0
sz002989,中天精装,2021-11-23,21.16,21.67,21.12,21.47,21.12,887600.0,18985158.0,1639019800.0,3250558000.0
sz002989,中天精装,2021-11-24,21.4,22.18,21.37,22.06,21.47,1315080.0,28816113.0,1684060400.0,3339884000.0
sz002989,中天精装,2021-11-25,22.06,22.35,21.9,22.26,22.06,1165814.0,25859535.0,1699328400.0,3370164000.0
sz002989,中天精装,2021-11-26,22.23,22.55,22.03,22.27,22.26,1250900.0,27906883.0,1700091800.0,3371678000.0
sz002989,中天精装,2021-11-29,21.99,22.0,21.62,21.72,22.27,1047900.0,22817629.0,1658104800.0,3288408000.0
sz002989,中天精装,2021-11-30,21.87,22.47,21.83,22.03,21.72,855100.0,18934696.0,1681770200.0,3335342000.0
sz002989,中天精装,2021-12-01,21.99,22.33,21.94,22.27,22.03,661600.0,14696800.0,1700091800.0,3371678000.0
sz002989,中天精装,2021-12-02,22.3,22.96,22.3,22.43,22.27,1280800.0,28956731.0,1712306200.0,3395902000.0
sz002989,中天精装,2021-12-03,22.48,22.7,22.02,22.02,22.43,802300.0,17843677.0,1681006800.0,3333828000.0
sz002989,中天精装,2021-12-06,22.19,22.38,21.6,21.71,22.02,581900.0,12733512.0,1657341400.0000002,3286894000.0
sz002989,中天精装,2021-12-07,22.07,23.88,21.92,23.88,21.71,4094401.0,95165834.0,1822999200.0000002,3615432000.0
sz002989,中天精装,2021-12-08,23.78,24.14,23.19,23.3,23.88,3477980.0,81846290.0,1778722000.0,3527620000.0
sz002989,中天精装,2021-12-09,23.34,24.71,23.3,23.67,23.3,3309700.0,79250912.0,1806967800.0,3583638000.0
sz002989,中天精装,2021-12-10,23.46,23.58,23.2,23.28,23.67,1632052.0,38071452.0,1777195200.0,3524592000.0
sz002989,中天精装,2021-12-13,23.19,23.69,23.0,23.23,23.28,1446116.0,33747891.0,1773378200.0,3517022000.0
sz002989,中天精装,2021-12-14,23.23,23.62,22.98,23.58,23.23,1467068.0,34157141.0,1800097200.0,3570012000.0
sz002989,中天精装,2021-12-15,23.48,23.86,23.3,23.41,23.58,1130116.0,26665868.0,1787119400.0,3544274000.0
sz002989,中天精装,2021-12-16,23.41,24.1,23.2,23.9,23.41,1272900.0,30218013.0,1824526000.0,3618460000.0
sz002989,中天精装,2021-12-17,23.95,23.95,23.36,23.5,23.9,957039.0,22512667.0,1793990000.0,3557900000.0
sz002989,中天精装,2021-12-20,23.63,23.63,23.01,23.22,23.5,778100.0,18074266.0,1772614800.0,3515508000.0
sz002989,中天精装,2021-12-21,23.22,24.25,23.13,24.24,23.22,1782464.0,42583908.0,1850481600.0,3669936000.0
sz002989,中天精装,2021-12-22,24.01,24.53,23.71,23.89,24.24,1472564.0,35389767.0,1823762600.0,3616946000.0
sz002989,中天精装,2021-12-23,24.05,24.17,23.34,23.47,23.89,1288697.0,30581164.0,1791699800.0,3553358000.0
sz002989,中天精装,2021-12-24,23.48,23.66,23.11,23.28,23.47,774300.0,18008654.0,1777195200.0,3524592000.0
sz002989,中天精装,2021-12-27,23.28,23.92,23.13,23.92,23.28,1125089.0,26646561.0,1826052800.0,3621488000.0
sz002989,中天精装,2021-12-28,23.93,24.0,23.53,23.83,23.92,944200.0,22427710.0,1819182200.0,3607862000.0
sz002989,中天精装,2021-12-29,23.89,24.16,23.59,24.16,23.83,1095312.0,26248900.0,1844374400.0,3657824000.0
sz002989,中天精装,2021-12-30,24.14,25.25,24.0,24.92,24.16,2601798.0,64421914.0,1902392800.0,3772888000.0
sz002989,中天精装,2021-12-31,25.0,25.48,24.73,25.29,24.92,2476300.0,62078449.0,1930638599.9999998,3828906000.0
sz002989,中天精装,2022-01-04,25.43,25.58,25.01,25.56,25.29,1914900.0,48522682.0,1951250400.0,3869784000.0
sz002989,中天精装,2022-01-05,25.56,25.56,24.9,25.49,25.56,2069200.0,52203820.0,1945906600.0,3859186000.0
sz002989,中天精装,2022-01-06,25.3,25.51,25.1,25.47,25.49,1196100.0,30323026.0,1944379800.0,3856158000.0
sz002989,中天精装,2022-01-07,25.44,25.79,25.24,25.61,25.47,1309300.0,33465564.0,1955067400.0,3877354000.0
sz002989,中天精装,2022-01-10,25.44,25.55,25.1,25.49,25.61,1191500.0,30186489.0,1945906600.0,3859186000.0
sz002989,中天精装,2022-01-11,25.37,25.95,25.3,25.81,25.49,1553050.0,39909642.0,1970335400.0,3907634000.0
sz002989,中天精装,2022-01-12,25.78,25.9,25.4,25.56,25.81,1143895.0,29255698.0,1951250400.0,3869784000.0
sz002989,中天精装,2022-01-13,25.52,25.73,25.23,25.36,25.56,1011450.0,25790068.0,1935982400.0,3839504000.0
sz002989,中天精装,2022-01-14,25.26,25.5,24.85,24.9,25.36,1208050.0,30418946.0,1900866000.0,3769860000.0
