数据由邢不行整理
股票代码,股票名称,交易日期,开盘价,最高价,最低价,收盘价,前收盘价,成交量,成交额,流通市值,总市值
sz001207,N联科,2021-06-23,17.12,20.55,17.12,20.55,14.27,203148.0,4157360.0,935025000.0,3740100000.0
sz001207,联科科技,2021-06-24,22.61,22.61,22.61,22.61,20.55,45114.0,1020028.0,1028755000.0,4115020000.0
sz001207,联科科技,2021-06-25,24.87,24.87,24.87,24.87,22.61,102868.0,2558327.0,1131585000.0,4526340000.0
sz001207,联科科技,2021-06-28,27.36,27.36,27.36,27.36,24.87,85879.0,2349649.0,1244880000.0,4979520000.0
sz001207,联科科技,2021-06-29,30.1,30.1,30.1,30.1,27.36,268666.0,8086847.0,1369550000.0,5478200000.0
sz001207,联科科技,2021-06-30,33.11,33.11,30.72,33.11,30.1,17690061.0,580218398.0,1506505000.0,6026020000.0
sz001207,联科科技,2021-07-01,32.3,32.3,29.8,29.8,33.11,18986013.0,579449993.0,1355900000.0,5423600000.0
sz001207,联科科技,2021-07-02,27.0,28.28,26.82,26.82,29.8,16499431.0,447139780.0,1220310000.0,4881240000.0
sz001207,联科科技,2021-07-05,25.63,26.24,24.9,25.36,26.82,12783627.0,325635074.0,1153880000.0,4615520000.0
sz001207,联科科技,2021-07-06,25.6,26.58,25.25,26.11,25.36,10557784.0,272722222.0,1188005000.0,4752020000.0
sz001207,联科科技,2021-07-07,25.0,25.69,24.76,25.59,26.11,7705342.0,195430516.0,1164345000.0,4657380000.0
sz001207,联科科技,2021-07-08,25.41,25.43,24.31,24.33,25.59,9140251.0,226867434.0,1107015000.0,4428060000.0
sz001207,联科科技,2021-07-09,24.26,24.87,23.92,24.62,24.33,5316578.0,130615387.0,1120210000.0,4480840000.0
sz001207,联科科技,2021-07-12,24.64,25.5,24.5,24.8,24.62,6307810.0,157908569.0,1128400000.0,4513600000.0
sz001207,联科科技,2021-07-13,24.61,24.61,24.03,24.15,24.8,5646146.0,136502334.0,1098825000.0,4395300000.0
sz001207,联科科技,2021-07-14,24.26,25.4,24.04,25.4,24.15,8269242.0,205041864.0,1155700000.0,4622800000.0
sz001207,联科科技,2021-07-15,25.0,26.9,24.95,25.4,25.4,10775109.0,279868014.0,1155700000.0,4622800000.0
sz001207,联科科技,2021-07-16,24.78,25.0,24.28,24.46,25.4,6815347.0,167500228.0,1112930000.0,4451720000.0
sz001207,联科科技,2021-07-19,24.43,24.43,22.8,23.04,24.46,7263925.0,168911496.0,1048320000.0,4193280000.0
sz001207,联科科技,2021-07-20,23.04,23.58,22.88,23.31,23.04,3611762.0,83781720.0,1060605000.0,4242420000.0
sz001207,联科科技,2021-07-21,23.3,23.51,23.11,23.17,23.31,3217803.0,74721643.0,1054235000.0,4216940000.0
sz001207,联科科技,2021-07-22,23.18,24.35,22.86,23.87,23.17,6118435.0,144294596.0,1086085000.0,4344340000.0
sz001207,联科科技,2021-07-23,23.65,23.78,23.03,23.08,23.87,3830120.0,89306077.0,1050140000.0,4200560000.0
sz001207,联科科技,2021-07-26,22.9,22.9,22.05,22.17,23.08,3773366.0,84489220.0,1008735000.0,4034940000.0
sz001207,联科科技,2021-07-27,22.24,22.45,21.69,21.77,22.17,2838188.0,62885927.0,990535000.0,3962140000.0
sz001207,联科科技,2021-07-28,21.76,21.96,20.52,20.69,21.77,3427860.0,72028195.0,941395000.0,3765580000.0
sz001207,联科科技,2021-07-29,20.9,21.32,20.74,20.9,20.69,2357191.0,49521074.0,950950000.0,3803800000.0
sz001207,联科科技,2021-07-30,20.91,21.34,20.76,21.1,20.9,2324968.0,49179273.0,960050000.0,3840200000.0
sz001207,联科科技,2021-08-02,21.37,21.74,20.9,21.49,21.1,2396013.0,50993439.0,977795000.0,3911180000.0
sz001207,联科科技,2021-08-03,21.3,21.73,21.21,21.52,21.49,2072680.0,44558360.0,979160000.0,3916640000.0
sz001207,联科科技,2021-08-04,21.65,21.65,21.38,21.43,21.52,1987311.0,42646402.0,975065000.0,3900260000.0
sz001207,联科科技,2021-08-05,21.39,21.4,20.71,20.88,21.43,3078280.0,64583683.0,950040000.0,3800160000.0
sz001207,联科科技,2021-08-06,20.83,21.15,20.6,21.05,20.88,2002831.0,41854273.0,957775000.0,3831100000.0
sz001207,联科科技,2021-08-09,21.05,22.08,21.05,22.08,21.05,4593165.0,99920010.0,1004640000.0,4018560000.0
sz001207,联科科技,2021-08-10,21.89,22.34,21.82,22.03,22.08,3442803.0,75942061.0,1002365000.0,4009460000.0
sz001207,联科科技,2021-08-11,21.99,23.98,21.92,23.61,22.03,8740300.0,203665344.0,1074255000.0,4297020000.0
sz001207,联科科技,2021-08-12,23.3,23.4,22.83,23.14,23.61,4557516.0,105067996.0,1052870000.0,4211480000.0
sz001207,联科科技,2021-08-13,23.17,24.48,22.9,24.21,23.14,7364745.0,174946416.0,1101555000.0,4406220000.0
sz001207,联科科技,2021-08-16,24.66,26.63,24.66,26.63,24.21,5942031.0,153719576.0,1211665000.0,4846660000.0
sz001207,联科科技,2021-08-17,26.6,29.29,25.18,29.29,26.63,24392729.0,681784469.0,1332695000.0,5330780000.0
sz001207,联科科技,2021-08-18,30.6,32.22,29.3,32.22,29.29,23440543.0,735302507.0,1466010000.0,5864040000.0
sz001207,联科科技,2021-08-19,29.0,29.0,29.0,29.0,32.22,4233300.0,122765700.0,1319500000.0,5278000000.0
sz001207,联科科技,2021-08-20,26.14,31.9,26.14,30.0,29.0,23437157.0,677991941.0,1365000000.0,5460000000.0
sz001207,联科科技,2021-08-23,29.0,29.35,27.0,27.01,30.0,24279227.0,666396893.0,1228955000.0,4915820000.0
sz001207,联科科技,2021-08-24,26.74,26.85,25.2,25.3,27.01,15528379.0,397234177.0,1151150000.0,4604600000.0
sz001207,联科科技,2021-08-25,24.8,25.86,24.71,25.75,25.3,11130461.0,283270608.0,1171625000.0,4686500000.0
sz001207,联科科技,2021-08-26,25.74,26.9,25.24,25.92,25.75,11413782.0,298963751.0,1179360000.0,4717440000.0
sz001207,联科科技,2021-08-27,25.49,26.48,24.75,26.29,25.92,11285189.0,288674306.0,1196195000.0,4784780000.0
sz001207,联科科技,2021-08-30,26.0,26.85,25.41,25.41,26.29,10151217.0,266403175.0,1156155000.0,4624620000.0
sz001207,联科科技,2021-08-31,25.77,26.59,25.41,26.44,25.41,10209220.0,268374206.0,1203020000.0,4812080000.0
sz001207,联科科技,2021-09-01,26.58,26.58,23.8,23.85,26.44,12603530.0,309941913.0,1085175000.0,4340700000.0
sz001207,联科科技,2021-09-02,23.48,24.26,23.2,24.13,23.85,5649457.0,134487114.0,1097915000.0,4391660000.0
sz001207,联科科技,2021-09-03,24.0,24.52,23.59,24.18,24.13,5271936.0,127163817.0,1100190000.0,4400760000.0
sz001207,联科科技,2021-09-06,24.18,24.28,23.39,23.97,24.18,4460763.0,105914675.0,1090635000.0,4362540000.0
sz001207,联科科技,2021-09-07,24.0,24.22,23.72,24.02,23.97,3767670.0,90415652.0,1092910000.0,4371640000.0
sz001207,联科科技,2021-09-08,23.88,24.31,23.71,24.24,24.02,4190344.0,100995459.0,1102920000.0,4411680000.0
sz001207,联科科技,2021-09-09,24.16,25.47,23.92,25.35,24.24,8973715.0,224086566.0,1153425000.0,4613700000.0
sz001207,联科科技,2021-09-10,25.03,25.35,24.51,24.9,25.35,5630216.0,139601968.0,1132950000.0,4531800000.0
sz001207,联科科技,2021-09-13,24.7,25.2,24.1,24.32,24.9,4170349.0,102019893.0,1106560000.0,4426240000.0
sz001207,联科科技,2021-09-14,24.4,24.4,23.55,23.62,24.32,4147571.0,98556014.0,1074710000.0,4298840000.0
sz001207,联科科技,2021-09-15,23.57,23.97,23.33,23.95,23.62,2583144.0,61433143.0,1089725000.0,4358900000.0
sz001207,联科科技,2021-09-16,23.74,24.62,23.74,24.2,23.95,4477234.0,109051624.0,1101100000.0,4404400000.0
sz001207,联科科技,2021-09-17,23.98,24.15,23.01,23.19,24.2,3602209.0,84522979.0,1055145000.0,4220580000.0
sz001207,联科科技,2021-09-22,23.0,23.64,22.33,23.38,23.19,3181062.0,73060172.0,1063790000.0,4255160000.0
sz001207,联科科技,2021-09-23,23.25,23.61,23.01,23.06,23.38,2214938.0,51343499.0,1049230000.0,4196920000.0
sz001207,联科科技,2021-09-24,23.07,23.11,22.1,22.18,23.06,2868496.0,64550625.0,1009190000.0,4036760000.0
sz001207,联科科技,2021-09-27,22.22,22.32,21.09,21.3,22.18,2603624.0,56088822.0,969150000.0,3876600000.0
sz001207,联科科技,2021-09-28,21.29,21.92,21.24,21.65,21.3,1626052.0,35112185.0,985075000.0,3940300000.0
sz001207,联科科技,2021-09-29,21.6,21.62,20.88,20.97,21.65,1736704.0,36798976.0,954135000.0,3816540000.0
sz001207,联科科技,2021-09-30,20.98,21.48,20.98,21.46,20.97,1212268.0,25858634.0,976430000.0,3905720000.0
sz001207,联科科技,2021-10-08,21.6,22.33,21.6,22.27,21.46,1894972.0,41729688.0,1013285000.0,4053140000.0
sz001207,联科科技,2021-10-11,22.46,22.6,21.95,22.38,22.27,1620946.0,36074756.0,1018290000.0,4073160000.0
sz001207,联科科技,2021-10-12,22.31,22.31,21.71,22.03,22.38,1525752.0,33402061.0,1002365000.0,4009460000.0
sz001207,联科科技,2021-10-13,22.04,22.79,21.86,22.74,22.03,2165541.0,48665509.0,1034670000.0,4138680000.0
sz001207,联科科技,2021-10-14,22.3,22.32,21.93,22.19,22.74,2437764.0,53930090.0,1009645000.0,4038580000.0
sz001207,联科科技,2021-10-15,22.3,22.36,21.62,21.73,22.19,1853348.0,40445593.0,988715000.0,3954860000.0
sz001207,联科科技,2021-10-18,21.7,22.06,21.59,22.0,21.73,1349649.0,29452882.0,1001000000.0,4004000000.0
sz001207,联科科技,2021-10-19,21.98,22.19,21.82,22.18,22.0,1393688.0,30729090.0,1009190000.0,4036760000.0
sz001207,联科科技,2021-10-20,22.25,22.29,21.74,21.87,22.18,1183172.0,25869098.0,995085000.0,3980340000.0
sz001207,联科科技,2021-10-21,21.8,21.89,21.55,21.64,21.87,1227084.0,26642497.0,984620000.0,3938480000.0
sz001207,联科科技,2021-10-22,21.81,21.84,21.5,21.77,21.64,1132656.0,24525356.0,990535000.0,3962140000.0
sz001207,联科科技,2021-10-25,21.5,22.5,21.36,22.07,21.77,2142414.0,46536341.0,1004185000.0,4016740000.0
sz001207,联科科技,2021-10-26,22.09,22.09,21.65,21.66,22.07,1397158.0,30401674.0,985530000.0,3942120000.0
sz001207,联科科技,2021-10-27,21.5,21.91,21.16,21.26,21.66,1186368.0,25400032.0,967330000.0,3869320000.0
sz001207,联科科技,2021-10-28,21.22,21.22,20.64,20.66,21.26,1382756.0,28789354.0,940030000.0,3760120000.0
sz001207,联科科技,2021-10-29,20.68,20.9,20.56,20.9,20.66,966830.0,20071155.0,950950000.0,3803800000.0
sz001207,联科科技,2021-11-01,20.91,21.39,20.61,21.3,20.9,1206420.0,25647852.0,969150000.0,3876600000.0
sz001207,联科科技,2021-11-02,21.3,21.32,20.65,20.95,21.3,1243774.0,26117602.0,953225000.0,3812900000.0
sz001207,联科科技,2021-11-03,21.0,21.0,20.74,20.85,20.95,817348.0,17006664.0,948675000.0,3794700000.0
sz001207,联科科技,2021-11-04,20.85,21.09,20.8,20.95,20.85,824494.0,17231571.0,953225000.0,3812900000.0
sz001207,联科科技,2021-11-05,20.89,22.39,20.85,21.92,20.95,3534270.0,76935677.0,997360000.0,3989440000.0
sz001207,联科科技,2021-11-08,22.0,22.97,21.65,22.83,21.92,4634037.0,104915256.0,1038765000.0,4155060000.0
sz001207,联科科技,2021-11-09,22.75,23.46,22.27,23.46,22.83,5724146.0,131678299.0,1067430000.0,4269720000.0
sz001207,联科科技,2021-11-10,23.46,23.55,22.66,22.8,23.46,3838304.0,88154861.0,1037400000.0,4149600000.0
sz001207,联科科技,2021-11-11,22.8,23.07,22.58,22.7,22.8,2535009.0,57689944.0,1032850000.0,4131400000.0
sz001207,联科科技,2021-11-12,22.61,22.85,22.35,22.7,22.7,1767658.0,40059192.0,1032850000.0,4131400000.0
sz001207,联科科技,2021-11-15,22.71,23.1,22.44,22.94,22.7,2202355.0,50274398.0,1043770000.0,4175080000.0
sz001207,联科科技,2021-11-16,22.94,23.03,22.31,22.32,22.94,1935600.0,43738543.0,1015560000.0,4062240000.0
sz001207,联科科技,2021-11-17,22.25,22.6,22.17,22.56,22.32,1213934.0,27279691.0,1026480000.0,4105920000.0
sz001207,联科科技,2021-11-18,22.55,23.33,22.4,22.79,22.56,2925748.0,67268125.0,1036945000.0,4147780000.0
sz001207,联科科技,2021-11-19,22.78,23.28,22.44,23.24,22.79,3523152.0,80878726.0,1057420000.0,4229680000.0
sz001207,联科科技,2021-11-22,23.28,24.3,23.28,24.17,23.24,4979640.0,119409348.0,1099735000.0,4398940000.0
sz001207,联科科技,2021-11-23,23.71,24.17,23.66,23.91,24.17,2910429.0,69594987.0,1087905000.0,4351620000.0
sz001207,联科科技,2021-11-24,23.83,24.21,23.6,24.0,23.91,2413868.0,57801078.0,1092000000.0,4368000000.0
sz001207,联科科技,2021-11-25,24.05,24.58,23.47,23.56,24.0,3347359.0,80470717.0,1071980000.0,4287920000.0
sz001207,联科科技,2021-11-26,23.74,24.45,23.6,24.35,23.56,4187074.0,101412684.0,1107925000.0,4431700000.0
sz001207,联科科技,2021-11-29,23.92,24.0,23.51,23.89,24.35,2557022.0,60859506.0,1086995000.0,4347980000.0
sz001207,联科科技,2021-11-30,23.89,24.2,23.34,23.55,23.89,2666816.0,63388260.0,1071525000.0,4286100000.0
sz001207,联科科技,2021-12-01,23.5,23.76,23.22,23.63,23.55,1413968.0,33366011.0,1075165000.0,4300660000.0
sz001207,联科科技,2021-12-02,23.55,24.15,23.35,23.66,23.63,2256948.0,53567619.0,1076530000.0,4306120000.0
sz001207,联科科技,2021-12-03,23.67,23.77,22.96,23.07,23.66,2481102.0,57521663.0,1049685000.0,4198740000.0
sz001207,联科科技,2021-12-06,23.06,23.29,22.37,22.38,23.07,2438949.0,55469648.0,1018290000.0,4073160000.0
sz001207,联科科技,2021-12-07,22.38,22.78,22.22,22.48,22.38,1547328.0,34801804.0,1022840000.0,4091360000.0
sz001207,联科科技,2021-12-08,22.48,22.64,22.26,22.6,22.48,976338.0,21931036.0,1028300000.0,4113200000.0
sz001207,联科科技,2021-12-09,22.6,22.6,22.32,22.35,22.6,1494856.0,33490867.0,1016925000.0,4067700000.0
sz001207,联科科技,2021-12-10,22.4,22.5,22.32,22.39,22.35,872024.0,19523243.0,1018745000.0,4074980000.0
sz001207,联科科技,2021-12-13,22.4,22.63,22.2,22.59,22.39,1522298.0,34092017.0,1027845000.0,4111380000.0
sz001207,联科科技,2021-12-14,22.64,22.75,22.52,22.74,22.59,1467542.0,33241408.0,1034670000.0,4138680000.0
sz001207,联科科技,2021-12-15,22.74,23.35,22.7,23.33,22.74,2806423.0,64762795.0,1061515000.0,4246060000.0
sz001207,联科科技,2021-12-16,23.34,23.39,23.0,23.16,23.33,1531044.0,35470742.0,1053780000.0,4215120000.0
sz001207,联科科技,2021-12-17,23.15,23.32,22.67,22.79,23.16,1593150.0,36517619.0,1036945000.0,4147780000.0
sz001207,联科科技,2021-12-20,22.69,22.69,22.1,22.12,22.79,1787828.0,39784089.0,1006460000.0,4025840000.0
sz001207,联科科技,2021-12-21,22.19,22.74,21.82,22.69,22.12,2116208.0,47180935.0,1032395000.0,4129580000.0
sz001207,联科科技,2021-12-22,22.88,23.55,22.52,22.6,22.69,2602809.0,59907004.0,1028300000.0,4113200000.0
sz001207,联科科技,2021-12-23,22.52,22.59,22.13,22.14,22.6,1611046.0,35953478.0,1007370000.0,4029480000.0
sz001207,联科科技,2021-12-24,22.2,22.24,21.5,21.61,22.14,1616439.0,35106178.0,983255000.0,3933020000.0
sz001207,联科科技,2021-12-27,21.62,21.98,21.5,21.89,21.61,733298.0,16005752.0,995995000.0,3983980000.0
sz001207,联科科技,2021-12-28,21.95,22.22,21.8,22.12,21.89,746750.0,16466792.0,1006460000.0,4025840000.0
sz001207,联科科技,2021-12-29,22.12,22.26,21.84,22.25,22.12,969394.0,21446003.0,1012375000.0,4049500000.0
sz001207,联科科技,2021-12-30,22.25,22.4,22.08,22.13,22.25,832400.0,18491974.0,1006915000.0,4027660000.0
sz001207,联科科技,2021-12-31,21.88,22.03,21.82,21.88,22.13,1406062.0,30790859.0,995540000.0,3982160000.0
sz001207,联科科技,2022-01-04,21.88,22.06,21.69,21.97,21.88,1034856.0,22694584.0,999635000.0,3998540000.0
sz001207,联科科技,2022-01-05,21.82,21.96,21.6,21.66,21.97,1169356.0,25385169.0,985530000.0,3942120000.0
sz001207,联科科技,2022-01-06,21.65,22.2,21.55,22.09,21.66,1311716.0,28843091.0,1005095000.0,4020380000.0
sz001207,联科科技,2022-01-07,22.0,22.14,21.6,21.7,22.09,1136782.0,24862923.0,987350000.0,3949400000.0
sz001207,联科科技,2022-01-10,21.79,21.84,21.53,21.77,21.7,624608.0,13563515.0,990535000.0,3962140000.0
sz001207,联科科技,2022-01-11,21.74,22.02,21.74,21.79,21.77,626574.0,13708695.0,991445000.0,3965780000.0
sz001207,联科科技,2022-01-12,21.79,22.22,21.79,22.15,21.79,1487956.0,32848885.0,1007825000.0,4031300000.0
sz001207,联科科技,2022-01-13,22.2,22.28,21.89,21.9,22.15,984700.0,21721350.0,996450000.0,3985800000.0
sz001207,联科科技,2022-01-14,21.92,22.14,21.65,21.73,21.9,913614.0,20000585.0,988715000.0,3954860000.0
