数据由邢不行整理
股票代码,股票名称,交易日期,开盘价,最高价,最低价,收盘价,前收盘价,成交量,成交额,流通市值,总市值
sz002921,N联诚,2017-12-27,13.86,16.63,13.86,16.63,11.55,9269.0,153262.0,332600000.0,1330400000.0
sz002921,联诚精密,2017-12-28,18.29,18.29,18.29,18.29,16.63,4359.0,79726.0,365800000.0,1463200000.0
sz002921,联诚精密,2017-12-29,20.12,20.12,20.12,20.12,18.29,2500.0,50300.0,402400000.0,1609600000.0
sz002921,联诚精密,2018-01-02,22.13,22.13,22.13,22.13,20.12,6500.0,143845.0,442600000.0,1770400000.0
sz002921,联诚精密,2018-01-03,24.34,24.34,24.34,24.34,22.13,8600.0,209324.0,486800000.0,1947200000.0
sz002921,联诚精密,2018-01-04,26.77,26.77,26.77,26.77,24.34,16600.0,444382.0,535400000.0,2141600000.0
sz002921,联诚精密,2018-01-05,29.45,29.45,29.45,29.45,26.77,22200.0,653790.0,589000000.0,2356000000.0
sz002921,联诚精密,2018-01-08,32.4,32.4,32.4,32.4,29.45,79800.0,2585520.0,648000000.0,2592000000.0
sz002921,联诚精密,2018-01-09,35.64,35.64,35.64,35.64,32.4,122462.0,4364545.0,712800000.0,2851200000.0
sz002921,联诚精密,2018-01-10,39.2,39.2,38.98,39.2,35.64,3199484.0,125413831.0,784000000.0,3136000000.0
sz002921,联诚精密,2018-01-11,40.02,42.9,40.02,40.88,39.2,12962486.0,535248367.0,817600000.0,3270400000.0
sz002921,联诚精密,2018-01-12,38.28,40.3,37.07,39.1,40.88,10100407.0,389613158.0,782000000.0,3128000000.0
sz002921,联诚精密,2018-01-15,39.35,42.5,38.28,40.73,39.1,10560220.0,425685342.0,814600000.0,3258400000.0
sz002921,联诚精密,2018-01-16,37.5,41.86,36.66,40.99,40.73,9898473.0,388098737.0,819800000.0,3279200000.0
sz002921,联诚精密,2018-01-17,40.67,44.7,39.15,40.4,40.99,11150369.0,465835883.0,808000000.0,3232000000.0
sz002921,联诚精密,2018-01-18,37.57,41.68,37.0,39.1,40.4,8423637.0,326931889.0,782000000.0,3128000000.0
sz002921,联诚精密,2018-01-19,37.5,39.48,36.1,36.98,39.1,7353218.0,279921592.0,739600000.0,2958400000.0
sz002921,联诚精密,2018-01-22,35.8,35.85,33.28,33.28,36.98,5962341.0,204250533.0,665600000.0,2662400000.0
sz002921,联诚精密,2018-01-23,33.4,33.97,32.52,33.73,33.28,4176718.0,138786315.0,674600000.0,2698400000.0
sz002921,联诚精密,2018-01-24,33.59,34.43,33.37,33.87,33.73,3943805.0,134266125.0,677400000.0,2709600000.0
sz002921,联诚精密,2018-01-25,33.6,35.48,33.12,34.33,33.87,4581962.0,157975324.0,686600000.0,2746400000.0
sz002921,联诚精密,2018-01-26,33.77,34.99,33.2,33.37,34.33,3556016.0,121547465.0,667400000.0,2669600000.0
sz002921,联诚精密,2018-01-29,33.1,35.27,33.1,34.99,33.37,4369380.0,150285917.0,699800000.0,2799200000.0
sz002921,联诚精密,2018-01-30,34.59,35.97,34.41,35.1,34.99,4843893.0,170885264.0,702000000.0,2808000000.0
sz002921,联诚精密,2018-01-31,34.0,34.14,31.6,31.81,35.1,4290693.0,141724153.0,636200000.0,2544800000.0
sz002921,联诚精密,2018-02-01,31.01,33.3,29.01,32.97,31.81,4651475.0,146815992.0,659400000.0,2637600000.0
sz002921,联诚精密,2018-02-02,32.04,33.39,31.08,31.85,32.97,3256777.0,105858694.0,637000000.0,2548000000.0
sz002921,联诚精密,2018-02-05,30.25,32.87,29.01,30.06,31.85,3166157.0,97309634.0,601200000.0,2404800000.0
sz002921,联诚精密,2018-02-06,28.49,29.0,27.05,27.05,30.06,2937046.0,81790640.0,541000000.0,2164000000.0
sz002921,联诚精密,2018-02-07,27.9,27.98,25.53,27.34,27.05,2918017.0,78900585.0,546800000.0,2187200000.0
sz002921,联诚精密,2018-02-08,27.0,27.86,26.66,27.17,27.34,2120481.0,57993318.0,543400000.0,2173600000.0
sz002921,联诚精密,2018-02-09,26.49,26.7,24.88,25.29,27.17,2266245.0,58566577.0,505800000.0,2023200000.0
sz002921,联诚精密,2018-02-12,25.95,27.82,25.66,27.82,25.29,2787197.0,75245414.0,556400000.0,2225600000.0
sz002921,联诚精密,2018-02-13,28.37,28.37,27.0,27.0,27.82,2940083.0,80920668.0,540000000.0,2160000000.0
sz002921,联诚精密,2018-02-14,26.15,27.22,26.0,26.15,27.0,1827000.0,48483112.0,523000000.0,2092000000.0
sz002921,联诚精密,2018-02-22,26.5,27.01,26.3,26.74,26.15,1510484.0,40313662.0,534800000.0,2139200000.0
sz002921,联诚精密,2018-02-23,26.73,27.2,26.55,27.18,26.74,1800604.0,48493847.0,543600000.0,2174400000.0
sz002921,联诚精密,2018-02-26,27.8,28.66,27.66,28.18,27.18,2851900.0,80254078.0,563600000.0,2254400000.0
sz002921,联诚精密,2018-02-27,28.5,28.99,27.85,28.57,28.18,2839077.0,81188533.0,571400000.0,2285600000.0
sz002921,联诚精密,2018-02-28,28.0,31.43,27.27,29.96,28.57,4802124.0,140191975.0,599200000.0,2396800000.0
sz002921,联诚精密,2018-03-01,29.46,31.25,29.07,30.63,29.96,5080198.0,153939617.0,612600000.0,2450400000.0
sz002921,联诚精密,2018-03-02,29.33,30.26,29.33,29.41,30.63,2956119.0,87910817.0,588200000.0,2352800000.0
sz002921,联诚精密,2018-03-05,29.4,30.0,29.12,29.82,29.41,2025700.0,60047593.0,596400000.0,2385600000.0
sz002921,联诚精密,2018-03-06,29.72,30.9,29.51,30.33,29.82,3232708.0,97768576.0,606600000.0,2426400000.0
sz002921,联诚精密,2018-03-07,29.97,30.7,29.6,29.85,30.33,2253130.0,67605237.0,597000000.0,2388000000.0
sz002921,联诚精密,2018-03-08,29.7,31.4,29.65,30.91,29.85,3860046.0,118415155.0,618200000.0,2472800000.0
sz002921,联诚精密,2018-03-09,31.0,32.8,30.95,31.8,30.91,4939713.0,157917977.0,636000000.0,2544000000.0
sz002921,联诚精密,2018-03-12,32.35,32.48,31.47,31.84,31.8,3833761.0,122462595.0,636800000.0,2547200000.0
sz002921,联诚精密,2018-03-13,31.51,32.6,31.38,31.63,31.84,3260281.0,104403714.0,632600000.0,2530400000.0
sz002921,联诚精密,2018-03-14,31.1,32.78,30.31,32.53,31.63,5617867.0,179937837.0,650600000.0,2602400000.0
sz002921,联诚精密,2018-03-15,31.08,31.68,29.28,30.0,32.53,4946378.0,148857837.0,600000000.0,2400000000.0
sz002921,联诚精密,2018-03-16,30.06,33.0,29.76,33.0,30.0,3831505.0,123201919.0,660000000.0,2640000000.0
sz002921,联诚精密,2018-03-19,35.57,36.3,34.5,36.3,33.0,7934798.0,283442764.0,726000000.0,2904000000.0
sz002921,联诚精密,2018-03-20,37.85,39.93,37.12,39.93,36.3,9170151.0,360529370.0,798600000.0,3194400000.0
sz002921,联诚精密,2018-03-21,43.92,43.92,39.71,40.16,39.93,14590213.0,617840047.0,803200000.0,3212800000.0
sz002921,联诚精密,2018-03-22,39.22,40.75,37.82,38.08,40.16,10296547.0,404422045.0,761600000.0,3046400000.0
sz002921,联诚精密,2018-03-23,35.4,37.25,34.27,34.27,38.08,8431862.0,298606185.0,685400000.0,2741600000.0
sz002921,联诚精密,2018-03-26,34.0,36.2,33.61,35.98,34.27,7458805.0,261958141.0,719600000.0,2878400000.0
sz002921,联诚精密,2018-03-27,35.77,37.77,35.17,37.45,35.98,9492268.0,345309707.0,749000000.0,2996000000.0
sz002921,联诚精密,2018-03-28,36.0,36.46,35.01,35.1,37.45,5959196.0,212938561.0,702000000.0,2808000000.0
sz002921,联诚精密,2018-03-29,35.24,36.31,34.44,35.98,35.1,4979626.0,176183196.0,719600000.0,2878400000.0
sz002921,联诚精密,2018-03-30,36.1,36.49,35.46,35.57,35.98,4254043.0,152568722.0,711400000.0,2845600000.0
sz002921,联诚精密,2018-04-02,35.0,37.44,34.92,36.47,35.57,5866348.0,211866415.0,729400000.0,2917600000.0
sz002921,联诚精密,2018-04-03,35.01,35.92,34.43,35.53,36.47,3980134.0,140287982.0,710600000.0,2842400000.0
sz002921,联诚精密,2018-04-04,35.35,38.8,35.35,38.0,35.53,9860354.0,369744315.0,760000000.0,3040000000.0
sz002921,联诚精密,2018-04-09,37.01,39.52,34.5,38.95,38.0,7730446.0,287316493.0,779000000.0,3116000000.0
sz002921,联诚精密,2018-04-10,37.49,38.48,36.11,37.52,38.95,5644019.0,212044745.0,750400000.0,3001600000.0
sz002921,联诚精密,2018-04-11,37.68,40.88,36.75,38.78,37.52,8134473.0,315817964.0,775600000.0,3102400000.0
sz002921,联诚精密,2018-04-12,37.8,42.6,37.8,39.77,38.78,9317224.0,374641978.0,795400000.0,3181600000.0
sz002921,联诚精密,2018-04-13,39.0,39.41,36.83,37.09,39.77,6611254.0,252062982.0,741800000.0,2967200000.0
sz002921,联诚精密,2018-04-16,36.11,36.33,34.32,34.77,37.09,4457182.0,156707981.0,695400000.0,2781600000.0
sz002921,联诚精密,2018-04-17,35.05,35.4,33.45,33.65,34.77,3227991.0,110396279.0,673000000.0,2692000000.0
sz002921,联诚精密,2018-04-18,33.96,34.0,31.31,33.45,33.65,2929229.0,96059671.0,669000000.0,2676000000.0
sz002921,联诚精密,2018-04-19,33.47,33.9,32.6,32.64,33.45,2300404.0,76685025.0,652800000.0,2611200000.0
sz002921,联诚精密,2018-04-20,32.0,32.9,30.21,30.4,32.64,2162000.0,68450849.0,608000000.0,2432000000.0
sz002921,联诚精密,2018-04-23,30.57,31.58,30.08,31.31,30.4,2156718.0,66730579.0,626200000.0,2504800000.0
sz002921,联诚精密,2018-04-24,31.06,32.65,31.06,32.49,31.31,2541300.0,81541602.0,649800000.0,2599200000.0
sz002921,联诚精密,2018-04-25,32.12,32.47,31.66,32.08,32.49,1982320.0,63526603.0,641600000.0,2566400000.0
sz002921,联诚精密,2018-04-26,31.59,32.34,30.8,30.8,32.08,1734604.0,55079750.0,616000000.0,2464000000.0
sz002921,联诚精密,2018-04-27,30.98,31.49,30.7,31.05,30.8,1212112.0,37644502.0,621000000.0,2484000000.0
sz002921,联诚精密,2018-05-02,31.15,31.26,29.2,29.52,31.05,1673712.0,50351360.0,590400000.0,2361600000.0
sz002921,联诚精密,2018-05-03,29.5,30.89,29.5,30.85,29.52,1701100.0,51524236.0,617000000.0,2468000000.0
sz002921,联诚精密,2018-05-04,31.03,32.11,30.71,31.0,30.85,1968400.0,61864643.0,620000000.0,2480000000.0
sz002921,联诚精密,2018-05-07,31.68,32.25,31.28,32.13,31.0,2170004.0,69258639.0,642600000.0,2570400000.0
sz002921,联诚精密,2018-05-08,32.31,32.35,31.61,31.96,32.13,1905600.0,60714274.0,639200000.0,2556800000.0
sz002921,联诚精密,2018-05-09,31.98,33.78,31.73,33.26,31.96,4050104.0,133779829.0,665200000.0,2660800000.0
sz002921,联诚精密,2018-05-10,33.0,33.79,32.75,33.78,33.26,3180500.0,105934542.0,675600000.0,2702400000.0
sz002921,联诚精密,2018-05-11,33.83,33.97,32.5,32.5,33.78,1897400.0,62879057.0,650000000.0,2600000000.0
sz002921,联诚精密,2018-05-14,32.58,32.95,31.25,31.75,32.5,1610200.0,51695503.0,635000000.0,2540000000.0
sz002921,联诚精密,2018-05-15,32.06,33.96,32.0,33.49,31.75,2830600.0,93589515.0,669800000.0,2679200000.0
sz002921,联诚精密,2018-05-16,33.04,33.76,32.82,33.09,33.49,2553000.0,85110103.0,661800000.0,2647200000.0
sz002921,联诚精密,2018-05-17,33.29,34.0,33.06,33.93,33.09,3023304.0,101587369.0,678600000.0,2714400000.0
sz002921,联诚精密,2018-05-18,33.94,34.46,33.3,34.32,33.93,3083404.0,104702203.0,686400000.0,2745600000.0
sz002921,联诚精密,2018-05-21,34.6,36.28,34.33,35.05,34.32,4255716.0,149909163.0,701000000.0,2804000000.0
sz002921,联诚精密,2018-05-22,34.55,35.69,34.3,35.59,35.05,3918358.0,137246900.0,711800000.0,2847200000.0
sz002921,联诚精密,2018-05-23,35.88,37.5,35.2,35.55,35.59,4569209.0,164952788.0,711000000.0,2844000000.0
sz002921,联诚精密,2018-05-24,35.13,35.94,34.82,34.9,35.55,2833445.0,99805625.0,698000000.0,2792000000.0
sz002921,联诚精密,2018-05-25,34.87,38.39,34.87,38.39,34.9,5551118.0,206842631.0,767800000.0,3071200000.0
sz002921,联诚精密,2018-05-28,40.39,41.91,36.5,38.24,38.39,10086713.0,399290244.0,764800000.0,3059200000.0
sz002921,联诚精密,2018-05-29,36.24,40.71,35.6,39.5,38.24,8690272.0,333268197.0,790000000.0,3160000000.0
sz002921,联诚精密,2018-05-30,38.06,43.45,36.51,43.45,39.5,12337872.0,508519896.0,869000000.0,3476000000.0
sz002921,联诚精密,2018-05-31,46.0,47.8,45.8,47.8,43.45,8337754.0,395708734.0,956000000.0,3824000000.0
sz002921,联诚精密,2018-06-01,52.58,52.58,43.02,43.02,47.8,14978591.0,732439202.0,860400000.0,3441600000.0
sz002921,联诚精密,2018-06-04,41.16,41.6,38.72,38.73,43.02,11192377.0,440240075.0,774600000.0,3098400000.0
sz002921,联诚精密,2018-06-05,38.99,39.4,37.73,39.15,38.73,8687562.0,336547169.0,783000000.0,3132000000.0
sz002921,联诚精密,2018-06-06,39.2,41.82,38.51,40.73,39.15,10067816.0,401215375.0,814600000.0,3258400000.0
sz002921,联诚精密,2018-06-07,39.78,39.9,38.48,38.88,40.73,7022511.0,274818972.0,777600000.0,3110400000.0
sz002921,联诚精密,2018-06-08,38.88,39.58,38.01,39.48,38.88,6035405.0,234878393.0,789600000.0,3158400000.0
sz002921,联诚精密,2018-06-11,39.48,39.48,37.8,37.89,39.48,4325900.0,167097018.0,757800000.0,3031200000.0
sz002921,联诚精密,2018-06-12,38.1,38.21,35.68,37.18,37.89,5103938.0,187867458.0,743600000.0,2974400000.0
sz002921,联诚精密,2018-06-13,37.1,37.8,35.81,35.88,37.18,3758994.0,138737215.0,717600000.0,2870400000.0
sz002921,联诚精密,2018-06-14,35.78,36.68,35.7,36.23,35.88,3284990.0,119006989.0,724600000.0,2898400000.0
sz002921,联诚精密,2018-06-15,36.68,36.68,34.0,34.24,36.23,3779304.0,132750707.0,684800000.0,2739200000.0
sz002921,联诚精密,2018-06-19,34.07,34.07,30.82,30.82,34.24,3233800.0,104324054.0,616400000.0,2465600000.0
sz002921,联诚精密,2018-06-20,30.83,33.3,30.68,32.68,30.82,4264753.0,136495455.0,653600000.0,2614400000.0
sz002921,联诚精密,2018-06-21,32.79,34.34,32.07,33.93,32.68,5861442.0,195797201.0,678600000.0,2714400000.0
sz002921,联诚精密,2018-06-22,33.57,34.87,32.62,34.43,33.93,4334243.0,147314734.0,688600000.0,2754400000.0
sz002921,联诚精密,2018-06-25,34.27,35.61,31.0,34.9,34.43,4495021.0,155069657.0,698000000.0,2792000000.0
sz002921,联诚精密,2018-06-26,34.13,36.4,33.8,36.19,34.9,5179408.0,184239934.0,723800000.0,2895200000.0
sz002921,联诚精密,2018-06-27,35.98,36.77,35.45,36.51,36.19,5186522.0,187045450.0,730200000.0,2920800000.0
sz002921,联诚精密,2018-06-28,36.2,36.81,34.51,34.71,36.51,3622800.0,129807437.0,694200000.0,2776800000.0
sz002921,联诚精密,2018-06-29,34.5,36.48,33.5,36.06,34.71,3525846.0,124708050.0,721200000.0,2884800000.0
sz002921,联诚精密,2018-07-02,35.84,37.12,35.62,36.86,36.06,4894392.0,178438664.0,737200000.0,2948800000.0
sz002921,联诚精密,2018-07-03,37.0,37.72,35.85,37.43,36.86,4930409.0,181938031.0,748600000.0,2994400000.0
sz002921,联诚精密,2018-07-04,37.04,37.13,33.75,34.54,37.43,4145445.0,148036414.0,690800000.0,2763200000.0
sz002921,联诚精密,2018-07-05,34.1,37.0,34.1,34.95,34.54,4626620.0,165888302.0,699000000.0,2796000000.0
sz002921,联诚精密,2018-07-06,36.55,38.05,35.44,35.92,34.95,6010412.0,219695062.0,718400000.0,2873600000.0
sz002921,联诚精密,2018-07-09,35.43,39.51,35.43,39.51,35.92,5278807.0,199388527.0,790200000.0,3160800000.0
sz002921,联诚精密,2018-07-10,40.26,42.85,39.55,41.05,39.51,10724110.0,437362945.0,821000000.0,3284000000.0
sz002921,联诚精密,2018-07-11,39.84,40.98,38.62,40.9,41.05,6555812.0,261626691.0,818000000.0,3272000000.0
sz002921,联诚精密,2018-07-12,40.3,41.9,39.74,41.5,40.9,7970153.0,327917262.0,830000000.0,3320000000.0
sz002921,联诚精密,2018-07-13,40.74,40.74,39.1,39.43,41.25,4893000.0,194811276.0,788600000.0,3154400000.0
sz002921,联诚精密,2018-07-16,39.0,39.94,38.38,39.07,39.43,3212401.0,125754008.0,781400000.0,3125600000.0
sz002921,联诚精密,2018-07-17,39.0,39.78,38.7,39.57,39.07,3030904.0,119044073.0,791400000.0,3165600000.0
sz002921,联诚精密,2018-07-18,39.6,39.81,38.1,38.12,39.57,2960604.0,115278332.0,762400000.0,3049600000.0
sz002921,联诚精密,2018-07-19,37.84,38.8,36.04,36.81,38.12,3220907.0,119992355.0,736200000.0,2944800000.0
sz002921,联诚精密,2018-07-20,37.05,38.07,37.05,37.96,36.81,3000700.0,112886233.0,759200000.0,3036800000.0
sz002921,联诚精密,2018-07-23,38.1,38.16,36.5,37.13,37.96,2560515.0,95105252.0,742600000.0,2970400000.0
sz002921,联诚精密,2018-07-24,37.4,39.49,37.2,39.22,37.13,5003525.0,193055851.0,784400000.0,3137600000.0
sz002921,联诚精密,2018-07-25,39.15,39.15,38.01,38.64,39.22,3451709.0,133179847.0,772800000.0,3091200000.0
sz002921,联诚精密,2018-07-26,38.32,38.54,36.66,36.88,38.64,2974500.0,110616226.0,737600000.0,2950400000.0
sz002921,联诚精密,2018-07-27,36.77,37.48,35.15,37.2,36.88,2682822.0,97864292.0,744000000.0,2976000000.0
sz002921,联诚精密,2018-07-30,36.8,37.5,35.3,35.64,37.2,2358916.0,85832901.0,712800000.0,2851200000.0
sz002921,联诚精密,2018-07-31,35.61,36.35,35.13,35.65,35.64,1399700.0,49978551.0,713000000.0,2852000000.0
sz002921,联诚精密,2018-08-01,35.71,36.33,35.21,35.29,35.65,1396300.0,49926640.0,705800000.0,2823200000.0
sz002921,联诚精密,2018-08-02,35.41,35.41,31.78,33.2,35.29,2534301.0,83637644.0,664000000.0,2656000000.0
sz002921,联诚精密,2018-08-03,33.0,33.48,31.31,31.31,33.2,1780100.0,57647032.0,626200000.0,2504800000.0
sz002921,联诚精密,2018-08-06,31.3,31.96,30.71,30.91,31.31,1455000.0,45535215.0,618200000.0,2472800000.0
sz002921,联诚精密,2018-08-07,31.0,32.32,30.72,32.22,30.91,1935701.0,61411244.0,644400000.0,2577600000.0
sz002921,联诚精密,2018-08-08,32.48,32.48,31.01,31.32,32.22,1569501.0,49764503.0,626400000.0,2505600000.0
sz002921,联诚精密,2018-08-09,31.17,32.48,30.5,31.84,31.32,2029200.0,64974520.0,636800000.0,2547200000.0
sz002921,联诚精密,2018-08-10,32.25,32.92,32.04,32.45,31.84,2110500.0,68636951.0,649000000.0,2596000000.0
sz002921,联诚精密,2018-08-13,31.35,33.13,31.35,33.07,32.45,1782500.0,57753038.0,661400000.0,2645600000.0
sz002921,联诚精密,2018-08-14,33.07,33.33,32.7,33.22,33.07,1700700.0,56175285.0,664400000.0,2657600000.0
sz002921,联诚精密,2018-08-15,33.29,33.51,32.65,32.77,33.22,1601500.0,52977791.0,655400000.0,2621600000.0
sz002921,联诚精密,2018-08-16,31.5,32.81,31.45,31.9,32.77,1350100.0,43443781.0,638000000.0,2552000000.0
sz002921,联诚精密,2018-08-17,32.23,33.26,31.71,32.12,31.9,1710500.0,55660141.0,642400000.0,2569600000.0
sz002921,联诚精密,2018-08-20,31.52,31.89,29.2,30.57,32.12,2507800.0,75932557.0,611400000.0,2445600000.0
sz002921,联诚精密,2018-08-21,29.4,30.27,28.79,30.0,30.57,2395000.0,70567887.0,600000000.0,2400000000.0
sz002921,联诚精密,2018-08-22,29.8,29.8,28.34,28.35,30.0,1950500.0,56631840.0,567000000.0,2268000000.0
sz002921,联诚精密,2018-08-23,28.34,29.3,28.3,29.06,28.35,1595000.0,46286038.0,581200000.0,2324800000.0
sz002921,联诚精密,2018-08-24,29.14,31.97,28.77,31.97,29.06,4792216.0,150314558.0,639400000.0,2557600000.0
sz002921,联诚精密,2018-08-27,31.8,33.36,31.23,32.36,31.97,5668000.0,182937082.0,647200000.0,2588800000.0
sz002921,联诚精密,2018-08-28,32.32,35.6,31.86,35.6,32.36,8561516.0,292424265.0,712000000.0,2848000000.0
sz002921,联诚精密,2018-08-29,35.58,36.36,34.0,35.01,35.6,8526216.0,301454298.0,700200000.0,2800800000.0
sz002921,联诚精密,2018-08-30,34.9,35.47,34.13,35.11,35.01,6222216.0,217576195.0,702200000.0,2808800000.0
sz002921,联诚精密,2018-08-31,34.65,35.52,33.8,34.82,35.11,4694504.0,163261289.0,696400000.0,2785600000.0
sz002921,联诚精密,2018-09-03,34.8,35.29,33.52,35.22,34.82,4729940.0,164100454.0,704400000.0,2817600000.0
sz002921,联诚精密,2018-09-04,34.8,36.42,34.19,35.92,35.22,6263839.0,221376239.0,718400000.0,2873600000.0
sz002921,联诚精密,2018-09-05,35.6,35.6,33.9,33.91,35.92,4904219.0,170531484.0,678200000.0,2712800000.0
sz002921,联诚精密,2018-09-06,33.95,35.1,32.53,34.65,33.91,4680916.0,159185136.0,693000000.0,2772000000.0
sz002921,联诚精密,2018-09-07,34.45,38.12,33.51,38.12,34.65,8499983.0,305245225.0,762400000.0,3049600000.0
sz002921,联诚精密,2018-09-10,38.0,38.0,36.2,36.31,38.12,6357752.0,234559741.0,726200000.0,2904800000.0
sz002921,联诚精密,2018-09-11,36.31,37.49,35.75,37.2,36.31,5884255.0,216993777.0,744000000.0,2976000000.0
sz002921,联诚精密,2018-09-12,37.38,37.38,36.31,36.65,37.2,4315311.0,158493732.0,733000000.0,2932000000.0
sz002921,联诚精密,2018-09-13,36.7,40.0,36.15,38.99,36.65,6120347.0,229256255.0,779800000.0,3119200000.0
sz002921,联诚精密,2018-09-14,37.88,37.88,35.09,35.09,38.99,4367648.0,160771395.0,701800000.0,2807200000.0
sz002921,联诚精密,2018-09-17,33.96,33.96,31.58,31.58,35.09,3673025.0,118076872.0,631600000.0,2526400000.0
sz002921,联诚精密,2018-09-18,31.66,31.88,30.2,31.4,31.58,2914361.0,90209350.0,628000000.0,2512000000.0
sz002921,联诚精密,2018-09-19,31.0,31.89,30.79,31.48,31.4,2330152.0,73103547.0,629600000.0,2518400000.0
sz002921,联诚精密,2018-09-20,31.05,31.85,31.05,31.32,31.48,1937300.0,60882630.0,626400000.0,2505600000.0
sz002921,联诚精密,2018-09-21,31.43,33.19,31.3,32.17,31.32,3078016.0,98904629.0,643400000.0,2573600000.0
sz002921,联诚精密,2018-09-25,31.8,32.49,31.6,32.08,32.17,1823316.0,58596117.0,641600000.0,2566400000.0
sz002921,联诚精密,2018-09-26,32.12,32.38,31.6,31.83,32.08,1808616.0,57737939.0,636600000.0,2546400000.0
sz002921,联诚精密,2018-09-27,32.4,33.4,31.03,31.36,31.83,2739216.0,89044791.0,627200000.0,2508800000.0
sz002921,联诚精密,2018-09-28,30.31,31.78,30.3,31.52,31.36,1673916.0,52154193.0,630400000.0,2521600000.0
sz002921,联诚精密,2018-10-08,30.98,32.5,30.5,31.32,31.52,1840800.0,57962017.0,626400000.0,2505600000.0
sz002921,联诚精密,2018-10-09,31.41,33.16,31.41,32.49,31.32,2759816.0,89434357.0,649800000.0,2599200000.0
sz002921,联诚精密,2018-10-10,32.23,32.98,32.0,32.4,32.49,2187416.0,71152684.0,648000000.0,2592000000.0
sz002921,联诚精密,2018-10-11,30.98,31.44,29.16,29.16,32.4,2322100.0,69843950.0,583200000.0,2332800000.0
sz002921,联诚精密,2018-10-12,27.99,28.9,26.26,28.32,29.16,2300400.0,64174650.0,566400000.0,2265600000.0
sz002921,联诚精密,2018-10-15,28.38,29.29,28.32,28.82,28.32,1495100.0,43138702.0,576400000.0,2305600000.0
sz002921,联诚精密,2018-10-16,29.01,29.32,27.7,27.9,28.82,1460500.0,41536370.0,558000000.0,2232000000.0
sz002921,联诚精密,2018-10-17,28.54,28.69,26.4,28.23,27.9,1395100.0,38839269.0,564600000.0,2258400000.0
sz002921,联诚精密,2018-10-18,28.1,28.1,26.26,26.44,28.23,1503950.0,40774529.0,528800000.0,2115200000.0
sz002921,联诚精密,2018-10-19,26.4,27.48,25.71,27.22,26.44,1453500.0,39033861.0,544400000.0,2177600000.0
sz002921,联诚精密,2018-10-22,27.29,28.79,27.29,28.36,27.22,1966928.0,55578920.0,567200000.0,2268800000.0
sz002921,联诚精密,2018-10-23,28.2,29.0,27.8,27.95,28.36,1795800.0,51110276.0,559000000.0,2236000000.0
sz002921,联诚精密,2018-10-24,28.36,28.71,27.9,28.29,27.95,1243799.0,35258292.0,565800000.0,2263200000.0
sz002921,联诚精密,2018-10-25,27.06,27.86,26.3,27.32,28.29,1526600.0,41479718.0,546400000.0,2185600000.0
sz002921,联诚精密,2018-10-26,27.9,27.98,27.28,27.44,27.32,1114128.0,30764785.0,548800000.0,2195200000.0
sz002921,联诚精密,2018-10-29,27.08,27.42,26.66,26.99,27.44,784000.0,21194339.0,539800000.0,2159200000.0
sz002921,联诚精密,2018-10-30,26.9,28.29,26.7,27.97,26.99,1924700.0,53188659.0,559400000.0,2237600000.0
sz002921,联诚精密,2018-10-31,27.86,28.6,27.68,28.49,27.97,2277799.0,64073954.0,569800000.0,2279200000.0
sz002921,联诚精密,2018-11-01,28.3,28.83,28.11,28.18,28.49,2120766.0,60269675.0,563600000.0,2254400000.0
sz002921,联诚精密,2018-11-02,28.6,28.79,28.21,28.68,28.18,2045616.0,58334639.0,573600000.0,2294400000.0
sz002921,联诚精密,2018-11-05,29.0,29.19,28.05,28.47,28.68,2028350.0,58245597.0,569400000.0,2277600000.0
sz002921,联诚精密,2018-11-06,28.1,28.23,27.05,27.55,28.47,1541800.0,42438682.0,551000000.0,2204000000.0
sz002921,联诚精密,2018-11-07,27.75,28.2,27.6,27.61,27.55,1446950.0,40375005.0,552200000.0,2208800000.0
sz002921,联诚精密,2018-11-08,27.76,27.98,27.31,27.5,27.61,1244650.0,34407959.0,550000000.0,2200000000.0
sz002921,联诚精密,2018-11-09,27.18,29.32,27.18,28.54,27.5,2815650.0,80014072.0,570800000.0,2283200000.0
sz002921,联诚精密,2018-11-12,28.3,30.9,28.14,29.85,28.54,4161427.0,123673348.0,597000000.0,2388000000.0
sz002921,联诚精密,2018-11-13,29.01,29.69,28.96,29.64,29.85,3205500.0,94065165.0,592800000.0,2371200000.0
sz002921,联诚精密,2018-11-14,29.4,30.28,29.22,29.68,29.64,2405300.0,71311327.0,593600000.0,2374400000.0
sz002921,联诚精密,2018-11-15,30.3,31.47,29.77,30.86,29.68,4581900.0,140566872.0,617200000.0,2468800000.0
sz002921,联诚精密,2018-11-16,30.31,30.85,30.2,30.48,30.86,3125411.0,95287260.0,609600000.0,2438400000.0
sz002921,联诚精密,2018-11-19,29.88,30.14,29.37,29.9,30.48,2177100.0,64820523.0,598000000.0,2392000000.0
sz002921,联诚精密,2018-11-20,29.9,30.8,29.63,30.7,29.9,3177900.0,96488132.0,614000000.0,2456000000.0
sz002921,联诚精密,2018-11-21,30.1,31.45,30.02,31.41,30.7,3240400.0,99807015.0,628200000.0,2512800000.0
sz002921,联诚精密,2018-11-22,31.5,32.38,30.77,30.77,31.41,3234100.0,101871760.0,615400000.0,2461600000.0
sz002921,联诚精密,2018-11-23,30.8,30.98,28.03,28.28,30.77,2801850.0,82518840.0,565600000.0,2262400000.0
sz002921,联诚精密,2018-11-26,27.64,27.95,26.55,27.19,28.28,2084050.0,56870186.0,543800000.0,2175200000.0
sz002921,联诚精密,2018-11-27,27.2,27.59,26.7,27.25,27.19,1222200.0,33224323.0,545000000.0,2180000000.0
sz002921,联诚精密,2018-11-28,27.25,27.42,26.65,27.33,27.25,1144050.0,31095142.0,546600000.0,2186400000.0
sz002921,联诚精密,2018-11-29,27.75,27.75,26.31,26.45,27.33,1254600.0,34188577.0,529000000.0,2116000000.0
sz002921,联诚精密,2018-11-30,26.45,26.86,25.7,26.64,26.45,1132400.0,29830991.0,532800000.0,2131200000.0
sz002921,联诚精密,2018-12-03,27.14,29.3,27.14,29.3,26.64,2959700.0,84522508.0,586000000.0,2344000000.0
sz002921,联诚精密,2018-12-04,29.6,29.6,28.46,28.95,29.3,3290350.0,95559991.0,579000000.0,2316000000.0
sz002921,联诚精密,2018-12-05,28.1,29.36,28.02,29.2,28.95,2403600.0,69329004.0,584000000.0,2336000000.0
sz002921,联诚精密,2018-12-06,28.88,29.21,28.29,28.3,29.2,1477200.0,42250404.0,566000000.0,2264000000.0
sz002921,联诚精密,2018-12-07,28.3,28.55,28.05,28.26,28.3,739800.0,20943088.0,565200000.0,2260800000.0
sz002921,联诚精密,2018-12-10,28.26,28.5,27.25,27.29,28.26,1104300.0,30539288.0,545800000.0,2183200000.0
sz002921,联诚精密,2018-12-11,27.3,27.84,27.23,27.84,27.29,862300.0,23755245.0,556800000.0,2227200000.0
sz002921,联诚精密,2018-12-12,28.0,28.88,28.0,28.35,27.84,1466950.0,41795326.0,567000000.0,2268000000.0
sz002921,联诚精密,2018-12-13,28.67,28.87,28.24,28.31,28.35,1677600.0,47840178.0,566200000.0,2264800000.0
sz002921,联诚精密,2018-12-14,27.93,28.45,27.2,27.28,28.31,1168051.0,32202643.0,545600000.0,2182400000.0
sz002921,联诚精密,2018-12-17,27.5,27.99,27.02,27.76,27.28,938400.0,25988056.0,555200000.0,2220800000.0
sz002921,联诚精密,2018-12-18,27.5,27.66,26.88,27.28,27.76,983300.0,26723058.0,545600000.0,2182400000.0
sz002921,联诚精密,2018-12-19,27.01,27.35,26.13,26.4,27.28,1171900.0,31246630.0,528000000.0,2112000000.0
sz002921,联诚精密,2018-12-20,26.5,26.7,26.26,26.59,26.4,715900.0,18997900.0,531800000.0,2127200000.0
sz002921,联诚精密,2018-12-21,26.55,26.55,26.0,26.34,26.59,843300.0,22119864.0,526800000.0,2107200000.0
sz002921,联诚精密,2018-12-24,26.32,27.27,26.1,27.22,26.34,1602500.0,43241806.0,544400000.0,2177600000.0
sz002921,联诚精密,2018-12-25,26.65,26.8,25.89,26.73,27.22,1458300.0,38419505.0,534600000.0,2138400000.0
sz002921,联诚精密,2018-12-26,26.62,28.98,26.62,27.19,26.73,2101800.0,57832623.0,543800000.0,2175200000.0
sz002921,联诚精密,2018-12-27,27.0,27.59,26.19,26.38,27.19,1640500.0,44197435.0,1350656000.0,2110400000.0
sz002921,联诚精密,2018-12-28,26.16,26.57,25.84,25.84,26.38,1124300.0,29390236.0,1323008000.0,2067200000.0
sz002921,联诚精密,2019-01-02,25.95,26.27,25.83,25.96,25.84,595300.0,15501916.0,1329152000.0,2076800000.0
sz002921,联诚精密,2019-01-03,25.96,26.18,24.02,24.2,25.96,1127700.0,28413859.0,1239040000.0,1936000000.0
sz002921,联诚精密,2019-01-04,23.94,25.24,23.2,24.86,24.2,918750.0,22544883.0,1272832000.0,1988800000.0
sz002921,联诚精密,2019-01-07,25.38,25.5,25.0,25.27,24.86,856700.0,21667905.0,1293824000.0,2021600000.0
sz002921,联诚精密,2019-01-08,25.61,25.61,24.71,24.75,25.27,788804.0,19689829.0,1267200000.0,1980000000.0
sz002921,联诚精密,2019-01-09,24.78,25.48,24.78,24.9,24.75,941600.0,23686601.0,1274880000.0,1992000000.0
sz002921,联诚精密,2019-01-10,24.98,26.88,24.51,26.7,24.9,1806300.0,45482915.0,1367040000.0,2136000000.0
sz002921,联诚精密,2019-01-11,25.8,26.28,25.51,25.94,26.7,2003920.0,51791805.0,1328128000.0,2075200000.0
sz002921,联诚精密,2019-01-14,25.7,25.9,24.86,24.96,25.94,1074729.0,27057735.0,1277952000.0,1996800000.0
sz002921,联诚精密,2019-01-15,25.2,25.3,24.7,25.11,24.96,600585.0,15034405.0,1285632000.0,2008800000.0
sz002921,联诚精密,2019-01-16,24.8,24.8,22.81,23.6,25.11,2295411.0,53749649.0,1208320000.0,1888000000.0
sz002921,联诚精密,2019-01-17,23.3,23.5,23.01,23.15,23.6,926582.0,21483488.0,1185280000.0,1852000000.0
sz002921,联诚精密,2019-01-18,23.34,23.36,22.59,23.04,23.15,1170800.0,26825641.0,1179648000.0,1843200000.0
sz002921,联诚精密,2019-01-21,23.1,23.22,22.88,23.2,23.04,687899.0,15894793.0,1187840000.0,1856000000.0
sz002921,联诚精密,2019-01-22,23.3,23.34,22.83,22.89,23.2,664900.0,15313384.0,1171968000.0,1831200000.0
sz002921,联诚精密,2019-01-23,23.07,23.97,22.9,23.63,22.89,1742099.0,40926264.0,1209856000.0,1890400000.0
sz002921,联诚精密,2019-01-24,23.6,23.73,23.18,23.53,23.63,898627.0,21017722.0,1204736000.0,1882400000.0
sz002921,联诚精密,2019-01-25,23.5,23.53,22.88,22.9,23.53,614027.0,14274367.0,1172480000.0,1832000000.0
sz002921,联诚精密,2019-01-28,23.01,23.25,22.65,22.67,22.9,596100.0,13671682.0,1160704000.0,1813600000.0
sz002921,联诚精密,2019-01-29,22.6,22.67,20.4,20.92,22.67,1197200.0,25633033.0,1071104000.0,1673600000.0
sz002921,联诚精密,2019-01-30,20.98,22.0,20.96,21.13,20.92,884899.0,18946553.0,1081856000.0,1690400000.0
sz002921,联诚精密,2019-01-31,21.11,21.57,19.92,20.24,21.13,1058499.0,21953420.0,1036288000.0,1619200000.0
sz002921,联诚精密,2019-02-01,20.26,21.12,20.26,21.06,20.24,993245.0,20718230.0,1078272000.0,1684800000.0
sz002921,联诚精密,2019-02-11,21.22,21.8,21.22,21.55,21.06,726900.0,15691118.0,1103360000.0,1724000000.0
sz002921,联诚精密,2019-02-12,21.82,21.9,21.5,21.74,21.55,916445.0,19928140.0,1113088000.0,1739200000.0
sz002921,联诚精密,2019-02-13,21.79,22.18,21.71,22.16,21.74,1086901.0,23916420.0,1134592000.0,1772800000.0
sz002921,联诚精密,2019-02-14,22.2,22.46,21.78,22.25,22.16,1210500.0,26779266.0,1139200000.0,1780000000.0
sz002921,联诚精密,2019-02-15,22.22,22.95,21.91,22.41,22.25,1397600.0,31318298.0,1147392000.0,1792800000.0
sz002921,联诚精密,2019-02-18,22.38,23.12,22.26,23.08,22.41,1743181.0,39650515.0,1181696000.0,1846400000.0
sz002921,联诚精密,2019-02-19,24.07,24.46,23.27,23.74,23.08,4395628.0,105197661.0,1215488000.0,1899200000.0
sz002921,联诚精密,2019-02-20,23.5,23.56,23.0,23.4,23.74,1956001.0,45469082.0,1198080000.0,1872000000.0
sz002921,联诚精密,2019-02-21,23.35,23.55,23.0,23.08,23.4,1661100.0,38587430.0,1181696000.0,1846400000.0
sz002921,联诚精密,2019-02-22,23.23,23.32,22.9,23.31,23.08,1307500.0,30253288.0,1193472000.0,1864800000.0
sz002921,联诚精密,2019-02-25,23.5,24.15,23.3,24.15,23.31,3452539.0,82096509.0,1236480000.0,1932000000.0
sz002921,联诚精密,2019-02-26,24.15,24.32,23.67,24.0,24.15,2907799.0,69789959.0,1228800000.0,1920000000.0
sz002921,联诚精密,2019-02-27,24.01,25.25,23.76,24.49,24.0,3927579.0,95798913.0,1253888000.0,1959200000.0
sz002921,联诚精密,2019-02-28,24.33,24.33,23.9,24.09,24.49,2121811.0,51110431.0,1233408000.0,1927200000.0
sz002921,联诚精密,2019-03-01,24.06,24.24,23.77,23.89,24.09,1394700.0,33378376.0,1223168000.0,1911200000.0
sz002921,联诚精密,2019-03-04,23.89,24.35,23.89,24.17,23.89,2324300.0,56156227.0,1237504000.0,1933600000.0
sz002921,联诚精密,2019-03-05,24.25,24.55,24.05,24.53,24.17,2295505.0,55790306.0,1255936000.0,1962400000.0
sz002921,联诚精密,2019-03-06,24.67,25.24,24.25,25.08,24.53,3545320.0,87746086.0,1284096000.0,2006400000.0
sz002921,联诚精密,2019-03-07,25.1,26.98,24.55,26.23,25.08,5272169.0,134888853.0,1342976000.0,2098400000.0
sz002921,联诚精密,2019-03-08,25.6,25.68,24.03,24.19,26.23,3213250.0,80625390.0,1238528000.0,1935200000.0
sz002921,联诚精密,2019-03-11,24.12,25.14,24.12,25.1,24.19,1913909.0,47306682.0,1285120000.0,2008000000.0
sz002921,联诚精密,2019-03-12,25.45,25.68,25.03,25.39,25.1,2483990.0,62938878.0,1299968000.0,2031200000.0
sz002921,联诚精密,2019-03-13,25.45,25.84,24.52,25.15,25.39,2808098.0,71231262.0,1287680000.0,2012000000.0
sz002921,联诚精密,2019-03-14,25.0,25.0,23.89,24.18,25.15,1569160.0,38141719.0,1238016000.0,1934400000.0
sz002921,联诚精密,2019-03-15,24.17,24.85,24.17,24.52,24.18,1258000.0,30817232.0,1255424000.0,1961600000.0
sz002921,联诚精密,2019-03-18,24.93,25.05,24.62,25.0,24.52,1249580.0,31077162.0,1280000000.0,2000000000.0
sz002921,联诚精密,2019-03-19,25.1,25.39,24.84,25.26,25.0,1727611.0,43292736.0,1293312000.0,2020800000.0
sz002921,联诚精密,2019-03-20,25.15,25.28,24.5,25.03,25.26,1528991.0,37994843.0,1281536000.0,2002400000.0
sz002921,联诚精密,2019-03-21,25.16,25.38,24.88,25.11,25.03,1360280.0,34230013.0,1285632000.0,2008800000.0
sz002921,联诚精密,2019-03-22,25.14,25.55,24.68,25.4,25.11,1841400.0,46235945.0,1300480000.0,2032000000.0
sz002921,联诚精密,2019-03-25,24.85,25.18,24.78,24.88,25.4,1448700.0,36183751.0,1273856000.0,1990400000.0
sz002921,联诚精密,2019-03-26,25.05,25.47,24.33,24.34,24.88,1594300.0,39748051.0,1246208000.0,1947200000.0
sz002921,联诚精密,2019-03-27,24.41,24.76,23.91,24.56,24.34,1150100.0,27893284.0,1257472000.0,1964800000.0
sz002921,联诚精密,2019-03-28,24.31,25.89,24.31,25.72,24.56,3004449.0,75754896.0,1316864000.0,2057600000.0
sz002921,联诚精密,2019-03-29,24.87,24.87,23.15,24.5,25.72,3904949.0,93834195.0,1254400000.0,1960000000.0
sz002921,联诚精密,2019-04-01,24.3,25.5,24.23,25.37,24.5,3451249.0,85909181.0,1298944000.0,2029600000.0
sz002921,联诚精密,2019-04-02,25.28,26.53,25.14,26.05,25.37,5518100.0,143367916.0,1333760000.0,2084000000.0
sz002921,联诚精密,2019-04-03,25.91,26.06,25.55,25.82,26.05,2759349.0,71087708.0,1321984000.0,2065600000.0
sz002921,联诚精密,2019-04-04,25.99,25.99,25.4,25.61,25.82,2164800.0,55492950.0,1311232000.0,2048800000.0
sz002921,联诚精密,2019-04-08,25.77,25.93,25.03,25.39,25.61,1960600.0,50184924.0,1299968000.0,2031200000.0
sz002921,联诚精密,2019-04-09,25.33,25.59,25.17,25.43,25.39,1177600.0,29853593.0,1302016000.0,2034400000.0
sz002921,联诚精密,2019-04-10,25.45,25.45,24.9,25.08,25.43,1505750.0,37798119.0,1284096000.0,2006400000.0
sz002921,联诚精密,2019-04-11,25.08,25.28,24.3,24.38,25.08,1209450.0,30032153.0,1248256000.0,1950400000.0
sz002921,联诚精密,2019-04-12,24.41,24.8,24.31,24.49,24.38,863750.0,21164366.0,1253888000.0,1959200000.0
sz002921,联诚精密,2019-04-15,24.58,24.96,24.18,24.19,24.49,959600.0,23653329.0,1238528000.0,1935200000.0
sz002921,联诚精密,2019-04-16,24.19,24.61,24.01,24.58,24.19,974200.0,23730001.0,1258496000.0,1966400000.0
sz002921,联诚精密,2019-04-17,24.58,25.03,24.48,24.88,24.58,1318400.0,32677392.0,1273856000.0,1990400000.0
sz002921,联诚精密,2019-04-18,24.96,25.0,24.18,24.3,24.88,1152600.0,28211965.0,1244160000.0,1944000000.0
sz002921,联诚精密,2019-04-19,24.3,24.54,24.08,24.44,24.3,679300.0,16511067.0,1251328000.0,1955200000.0
sz002921,联诚精密,2019-04-22,24.5,24.61,23.93,23.97,24.44,847600.0,20556830.0,1227264000.0,1917600000.0
sz002921,联诚精密,2019-04-23,23.99,24.09,23.08,23.14,23.97,1146800.0,26853707.0,1184768000.0,1851200000.0
sz002921,联诚精密,2019-04-24,23.14,23.29,22.74,23.2,23.14,862800.0,19871301.0,1187840000.0,1856000000.0
sz002921,联诚精密,2019-04-25,23.2,23.2,21.52,21.99,23.2,1119600.0,25256370.0,1125888000.0,1759200000.0
sz002921,联诚精密,2019-04-26,22.06,22.29,21.85,21.92,21.99,628000.0,13839861.0,1122304000.0,1753600000.0
sz002921,联诚精密,2019-04-29,22.22,22.35,21.06,21.16,21.92,931000.0,19967092.0,1083392000.0,1692800000.0
sz002921,联诚精密,2019-04-30,21.23,21.64,21.19,21.43,21.16,755600.0,16208034.0,1097216000.0,1714400000.0
sz002921,联诚精密,2019-05-06,21.35,21.35,19.3,19.4,21.43,1204500.0,24261184.0,993280000.0,1552000000.0
sz002921,联诚精密,2019-05-07,19.58,20.09,19.58,19.93,19.4,869000.0,17239962.0,1020416000.0,1594400000.0
sz002921,联诚精密,2019-05-08,19.5,20.77,19.5,20.3,19.93,1036400.0,21009254.0,1039360000.0,1624000000.0
sz002921,联诚精密,2019-05-09,20.29,20.59,19.96,20.0,20.3,589600.0,11910864.0,1024000000.0,1600000000.0
sz002921,联诚精密,2019-05-10,20.17,20.73,19.85,20.64,20.0,1036900.0,21217522.0,1056768000.0,1651200000.0
sz002921,联诚精密,2019-05-13,20.7,20.99,20.34,20.87,20.64,824700.0,17106956.0,1068544000.0,1669600000.0
sz002921,联诚精密,2019-05-14,20.7,20.8,20.4,20.52,20.87,664511.0,13689192.0,1050624000.0,1641600000.0
sz002921,联诚精密,2019-05-15,20.7,20.95,20.59,20.83,20.52,762600.0,15881209.0,1066496000.0,1666400000.0
sz002921,联诚精密,2019-05-16,20.82,21.0,20.75,20.91,20.83,741382.0,15477889.0,1070592000.0,1672800000.0
sz002921,联诚精密,2019-05-17,20.9,21.03,19.87,19.98,20.91,1023289.0,20925175.0,1022976000.0,1598400000.0
sz002921,联诚精密,2019-05-20,20.0,20.38,19.52,20.27,19.98,697318.0,13956700.0,1037824000.0,1621600000.0
sz002921,联诚精密,2019-05-21,20.27,20.71,20.11,20.66,20.27,818559.0,16822559.0,1057792000.0,1652800000.0
sz002921,联诚精密,2019-05-22,20.61,20.8,20.15,20.34,20.66,809680.0,16669019.0,1041408000.0,1627200000.0
sz002921,联诚精密,2019-05-23,20.34,20.44,19.93,20.07,20.34,720507.0,14552051.0,1027584000.0,1605600000.0
sz002921,联诚精密,2019-05-24,20.07,20.4,19.82,20.09,20.07,604978.0,12143719.0,1028608000.0,1607200000.0
sz002921,联诚精密,2019-05-27,20.11,20.65,20.03,20.59,20.09,974008.0,19897111.0,1054208000.0,1647200000.0
sz002921,联诚精密,2019-05-28,20.41,20.8,20.41,20.56,20.59,1038176.0,21433413.0,1052672000.0,1644800000.0
sz002921,联诚精密,2019-05-29,20.56,20.95,20.45,20.68,20.56,807600.0,16716739.0,1058816000.0,1654400000.0
sz002921,联诚精密,2019-05-30,20.9,20.9,20.26,20.55,20.68,1071526.0,21914212.0,1052160000.0,1644000000.0
sz002921,联诚精密,2019-05-31,20.46,21.46,20.46,21.39,20.55,1995355.0,41986768.0,1095168000.0,1711200000.0
sz002921,联诚精密,2019-06-03,21.25,21.28,20.42,20.48,21.39,1846757.0,38320347.0,1048576000.0,1638400000.0
sz002921,联诚精密,2019-06-04,20.34,20.51,19.71,19.86,20.48,1082496.0,21623127.0,1016832000.0,1588800000.0
sz002921,联诚精密,2019-06-05,20.06,20.16,19.81,19.92,19.86,676034.0,13528133.0,1019904000.0,1593600000.0
sz002921,联诚精密,2019-06-06,19.85,20.3,19.51,20.3,19.92,859618.0,17038345.0,1039360000.0,1624000000.0
sz002921,联诚精密,2019-06-10,20.0,20.29,19.97,20.08,20.3,820618.0,16514811.0,1028096000.0,1606400000.0
sz002921,联诚精密,2019-06-11,20.15,20.65,20.01,20.6,20.08,1336034.0,27253203.0,1054720000.0,1648000000.0
sz002921,联诚精密,2019-06-12,20.48,20.6,20.24,20.26,20.6,1219054.0,24837771.0,1037312000.0,1620800000.0
sz002921,联诚精密,2019-06-13,20.27,20.45,20.11,20.43,20.26,762674.0,15493234.0,1046016000.0,1634400000.0
sz002921,联诚精密,2019-06-14,20.52,20.65,19.84,19.86,20.43,931234.0,18767106.0,1016832000.0,1588800000.0
sz002921,联诚精密,2019-06-17,19.86,20.05,19.76,19.96,19.86,503234.0,10024139.0,1021952000.0,1596800000.0
sz002921,联诚精密,2019-06-18,19.96,20.16,19.85,20.09,19.96,483292.0,9671083.0,1028608000.0,1607200000.0
sz002921,联诚精密,2019-06-19,20.31,20.71,20.21,20.35,20.09,1506180.0,30859791.0,1041920000.0,1628000000.0
sz002921,联诚精密,2019-06-20,20.28,21.88,20.06,21.12,20.35,2944529.0,61451365.0,1081344000.0,1689600000.0
sz002921,联诚精密,2019-06-21,21.89,21.9,21.15,21.46,21.12,3007972.0,64445734.0,1098752000.0,1716800000.0
sz002921,联诚精密,2019-06-24,21.65,22.78,21.5,22.55,21.46,4458127.0,98995687.0,1154560000.0,1804000000.0
sz002921,联诚精密,2019-06-25,20.3,21.88,20.3,21.64,22.55,3448979.0,73868067.0,1107968000.0,1731200000.0
sz002921,联诚精密,2019-06-26,21.4,21.64,20.87,20.92,21.64,2209982.0,46715669.0,1071104000.0,1673600000.0
sz002921,联诚精密,2019-06-27,20.79,21.22,20.79,20.91,20.92,1356757.0,28433557.0,1070592000.0,1672800000.0
sz002921,联诚精密,2019-06-28,20.91,20.95,20.35,20.58,20.91,993838.0,20529433.0,1053696000.0,1646400000.0
sz002921,联诚精密,2019-07-01,20.98,21.13,20.79,21.09,20.58,1339947.0,28118085.0,1079808000.0,1687200000.0
sz002921,联诚精密,2019-07-02,21.09,21.44,20.81,21.27,21.09,1308603.0,27766534.0,1089024000.0,1701600000.0
sz002921,联诚精密,2019-07-03,20.8,21.31,20.8,21.18,21.27,844398.0,17852279.0,1084416000.0,1694400000.0
sz002921,联诚精密,2019-07-04,21.19,22.2,21.19,21.79,21.18,2233976.0,48456598.0,1115648000.0,1743200000.0
sz002921,联诚精密,2019-07-05,21.8,22.78,21.35,22.38,21.79,2811058.0,61957789.0,1145856000.0,1790400000.0
sz002921,联诚精密,2019-07-08,22.1,22.1,21.25,21.57,22.38,1705681.0,36945725.0,1104384000.0,1725600000.0
sz002921,联诚精密,2019-07-09,21.57,22.0,21.29,21.97,21.57,1370625.0,29736692.0,1124864000.0,1757600000.0
sz002921,联诚精密,2019-07-10,21.6,22.02,21.19,21.23,21.82,1015616.0,21848646.0,1086976000.0,1698400000.0
sz002921,联诚精密,2019-07-11,21.4,21.69,21.05,21.24,21.23,947457.0,20245519.0,1087488000.0,1699200000.0
sz002921,联诚精密,2019-07-12,21.24,21.43,20.5,20.63,21.24,1382408.0,28604490.0,1056256000.0,1650400000.0
sz002921,联诚精密,2019-07-15,20.59,20.78,20.0,20.67,20.63,983700.0,20079565.0,1058304000.0,1653600000.0
sz002921,联诚精密,2019-07-16,20.65,20.78,20.56,20.71,20.67,589100.0,12180311.0,1060352000.0,1656800000.0
sz002921,联诚精密,2019-07-17,20.7,20.99,20.65,20.85,20.71,872400.0,18206884.0,1067520000.0,1668000000.0
sz002921,联诚精密,2019-07-18,20.85,20.85,20.13,20.13,20.85,798400.0,16253275.0,1030656000.0,1610400000.0
sz002921,联诚精密,2019-07-19,20.13,20.55,20.13,20.16,20.13,566900.0,11530420.0,1032192000.0,1612800000.0
sz002921,联诚精密,2019-07-22,20.35,20.4,19.4,19.5,20.16,779408.0,15407070.0,998400000.0,1560000000.0
sz002921,联诚精密,2019-07-23,19.61,20.09,19.54,20.06,19.5,539000.0,10702008.0,1027072000.0,1604800000.0
sz002921,联诚精密,2019-07-24,20.1,20.48,20.1,20.22,20.06,538808.0,10952877.0,1035264000.0,1617600000.0
sz002921,联诚精密,2019-07-25,20.23,20.55,20.1,20.38,20.22,623300.0,12703623.0,1043456000.0,1630400000.0
sz002921,联诚精密,2019-07-26,20.47,20.5,20.23,20.3,20.38,427200.0,8674635.0,1039360000.0,1624000000.0
sz002921,联诚精密,2019-07-29,20.34,20.38,20.22,20.26,20.3,406200.0,8238675.0,1037312000.0,1620800000.0
sz002921,联诚精密,2019-07-30,20.36,20.66,20.3,20.49,20.26,516400.0,10599477.0,1049088000.0,1639200000.0
sz002921,联诚精密,2019-07-31,20.49,20.75,20.38,20.65,20.49,646100.0,13300693.0,1057280000.0,1652000000.0
sz002921,联诚精密,2019-08-01,20.36,20.74,20.25,20.55,20.65,464900.0,9523004.0,1052160000.0,1644000000.0
sz002921,联诚精密,2019-08-02,20.2,20.35,20.0,20.24,20.55,588900.0,11894951.0,1036288000.0,1619200000.0
sz002921,联诚精密,2019-08-05,20.42,20.95,20.02,20.23,20.24,706345.0,14493229.0,1035776000.0,1618400000.0
sz002921,联诚精密,2019-08-06,20.18,20.45,18.94,19.79,20.23,1116900.0,21859535.0,1013248000.0,1583200000.0
sz002921,联诚精密,2019-08-07,19.81,20.0,19.25,19.37,19.79,694845.0,13576634.0,991744000.0,1549600000.0
sz002921,联诚精密,2019-08-08,19.37,19.58,19.1,19.37,19.37,656200.0,12707442.0,991744000.0,1549600000.0
sz002921,联诚精密,2019-08-09,19.54,19.54,18.61,18.7,19.37,1181300.0,22416951.0,957440000.0,1496000000.0
sz002921,联诚精密,2019-08-12,18.78,18.86,18.28,18.63,18.7,980200.0,18124149.0,953856000.0,1490400000.0
sz002921,联诚精密,2019-08-13,18.5,18.5,18.32,18.43,18.63,594300.0,10938247.0,943616000.0,1474400000.0
sz002921,联诚精密,2019-08-14,18.59,18.78,18.46,18.47,18.43,759500.0,14151464.0,945664000.0,1477600000.0
sz002921,联诚精密,2019-08-15,18.0,18.5,17.77,18.47,18.47,891200.0,16147407.0,945664000.0,1477600000.0
sz002921,联诚精密,2019-08-16,18.49,18.58,18.21,18.45,18.47,666500.0,12320085.0,944640000.0,1476000000.0
sz002921,联诚精密,2019-08-19,18.5,19.09,18.5,19.0,18.45,944300.0,17821335.0,972800000.0,1520000000.0
sz002921,联诚精密,2019-08-20,19.1,19.1,18.9,18.92,19.0,655700.0,12432604.0,968704000.0,1513600000.0
sz002921,联诚精密,2019-08-21,18.92,19.08,18.85,18.96,18.92,538561.0,10231636.0,970752000.0,1516800000.0
sz002921,联诚精密,2019-08-22,19.16,19.16,18.89,18.92,18.96,507516.0,9620930.0,968704000.0,1513600000.0
sz002921,联诚精密,2019-08-23,18.92,19.06,18.7,18.81,18.92,621900.0,11743493.0,963072000.0,1504800000.0
sz002921,联诚精密,2019-08-26,18.28,18.62,17.95,18.41,18.81,734900.0,13495257.0,942592000.0,1472800000.0
sz002921,联诚精密,2019-08-27,18.48,18.91,18.41,18.86,18.41,841200.0,15781979.0,965632000.0,1508800000.0
sz002921,联诚精密,2019-08-28,18.72,18.98,18.72,18.89,18.86,683700.0,12915618.0,967168000.0,1511200000.0
sz002921,联诚精密,2019-08-29,18.89,19.02,18.75,18.79,18.89,498108.0,9385828.0,962048000.0,1503200000.0
sz002921,联诚精密,2019-08-30,18.83,18.92,18.22,18.27,18.79,913400.0,16887975.0,935424000.0,1461600000.0
sz002921,联诚精密,2019-09-02,18.4,18.69,18.27,18.63,18.27,740351.0,13711228.0,953856000.0,1490400000.0
sz002921,联诚精密,2019-09-03,18.65,18.83,18.63,18.73,18.63,494900.0,9265954.0,958976000.0,1498400000.0
sz002921,联诚精密,2019-09-04,18.81,19.1,18.73,18.92,18.73,803145.0,15158396.0,968704000.0,1513600000.0
sz002921,联诚精密,2019-09-05,18.96,19.34,18.91,19.26,18.92,1410345.0,27046483.0,986112000.0,1540800000.0
sz002921,联诚精密,2019-09-06,20.3,20.42,19.53,19.57,19.26,3203900.0,63949847.0,1001984000.0,1565600000.0
sz002921,联诚精密,2019-09-09,19.49,19.74,19.46,19.66,19.57,1685700.0,32992760.0,1006592000.0,1572800000.0
sz002921,联诚精密,2019-09-10,19.71,19.71,19.45,19.56,19.66,909100.0,17794440.0,1001472000.0,1564800000.0
sz002921,联诚精密,2019-09-11,19.59,19.68,19.5,19.5,19.56,597180.0,11677087.0,998400000.0,1560000000.0
sz002921,联诚精密,2019-09-12,19.5,19.7,19.41,19.64,19.5,754400.0,14746571.0,1005568000.0,1571200000.0
sz002921,联诚精密,2019-09-16,19.65,19.89,19.65,19.74,19.64,711814.0,14075939.0,1010688000.0,1579200000.0
sz002921,联诚精密,2019-09-17,19.74,19.84,19.17,19.29,19.74,713000.0,13850453.0,987648000.0,1543200000.0
sz002921,联诚精密,2019-09-18,19.42,19.42,19.25,19.31,19.29,416100.0,8046777.0,988672000.0,1544800000.0
sz002921,联诚精密,2019-09-19,19.35,19.79,19.1,19.66,19.31,762900.0,14908509.0,1006592000.0,1572800000.0
sz002921,联诚精密,2019-09-20,19.7,19.93,19.68,19.88,19.66,1077900.0,21363686.0,1017856000.0,1590400000.0
sz002921,联诚精密,2019-09-23,19.88,19.88,19.35,19.48,19.88,702300.0,13678772.0,997376000.0,1558400000.0
sz002921,联诚精密,2019-09-24,19.49,20.69,19.48,19.83,19.48,2734558.0,54633126.0,1015296000.0,1586400000.0
sz002921,联诚精密,2019-09-25,19.8,19.8,19.08,19.15,19.83,1720445.0,33217079.0,980480000.0,1532000000.0
sz002921,联诚精密,2019-09-26,19.18,19.35,18.32,18.37,19.15,1464900.0,27277955.0,940544000.0,1469600000.0
sz002921,联诚精密,2019-09-27,18.35,18.6,18.27,18.47,18.37,801500.0,14825304.0,945664000.0,1477600000.0
sz002921,联诚精密,2019-09-30,18.55,18.65,18.43,18.46,18.47,487800.0,9040734.0,945152000.0,1476800000.0
sz002921,联诚精密,2019-10-08,18.47,18.78,18.4,18.42,18.46,467700.0,8662792.0,943104000.0,1473600000.0
sz002921,联诚精密,2019-10-09,18.31,18.68,18.27,18.65,18.42,419500.0,7776281.0,954880000.0,1492000000.0
sz002921,联诚精密,2019-10-10,18.67,19.02,18.6,19.02,18.65,793814.0,14956002.0,973824000.0,1521600000.0
sz002921,联诚精密,2019-10-11,19.9,19.9,19.2,19.22,19.02,2241900.0,43713965.0,984064000.0,1537600000.0
sz002921,联诚精密,2019-10-14,19.22,19.4,19.08,19.33,19.22,1244100.0,23981075.0,989696000.0,1546400000.0
sz002921,联诚精密,2019-10-15,19.33,19.33,18.93,19.06,19.33,727200.0,13869142.0,975872000.0,1524800000.0
sz002921,联诚精密,2019-10-16,18.98,19.17,18.91,18.92,19.06,522000.0,9925673.0,968704000.0,1513600000.0
sz002921,联诚精密,2019-10-17,18.92,19.09,18.87,18.99,18.92,445400.0,8452746.0,972288000.0,1519200000.0
sz002921,联诚精密,2019-10-18,19.0,19.12,18.57,18.71,18.99,608900.0,11489798.0,957952000.0,1496800000.0
sz002921,联诚精密,2019-10-21,18.7,18.7,18.25,18.66,18.71,505200.0,9347915.0,955392000.0,1492800000.0
sz002921,联诚精密,2019-10-22,18.66,18.9,18.58,18.9,18.66,474800.0,8902366.0,967680000.0,1512000000.0
sz002921,联诚精密,2019-10-23,18.9,18.95,18.77,18.88,18.9,385800.0,7272205.0,966656000.0,1510400000.0
sz002921,联诚精密,2019-10-24,18.88,18.97,18.72,18.92,18.88,302700.0,5713510.0,968704000.0,1513600000.0
sz002921,联诚精密,2019-10-25,18.81,19.03,18.66,19.0,18.92,437106.0,8246400.0,972800000.0,1520000000.0
sz002921,联诚精密,2019-10-28,18.91,19.2,18.86,19.15,19.0,708000.0,13495470.0,980480000.0,1532000000.0
sz002921,联诚精密,2019-10-29,19.19,19.19,18.6,18.64,19.15,675800.0,12727663.0,954368000.0,1491200000.0
sz002921,联诚精密,2019-10-30,18.62,18.62,18.27,18.3,18.64,643200.0,11822418.0,936960000.0,1464000000.0
sz002921,联诚精密,2019-10-31,18.39,18.45,18.1,18.13,18.3,535700.0,9770196.0,928256000.0,1450400000.0
sz002921,联诚精密,2019-11-01,18.13,18.34,18.03,18.21,18.13,406100.0,7400874.0,932352000.0,1456800000.0
sz002921,联诚精密,2019-11-04,18.3,18.36,18.21,18.3,18.21,523200.0,9559633.0,936960000.0,1464000000.0
sz002921,联诚精密,2019-11-05,18.31,18.36,18.11,18.2,18.3,393514.0,7161576.0,931840000.0,1456000000.0
sz002921,联诚精密,2019-11-06,18.3,18.3,17.86,17.91,18.2,549500.0,9915668.0,916992000.0,1432800000.0
sz002921,联诚精密,2019-11-07,17.91,17.99,17.82,17.97,17.91,416700.0,7464932.0,920064000.0,1437600000.0
sz002921,联诚精密,2019-11-08,18.05,18.16,17.98,18.05,17.97,362500.0,6553504.0,924160000.0,1444000000.0
sz002921,联诚精密,2019-11-11,17.92,17.92,17.15,17.18,18.05,957200.0,16636762.0,879616000.0,1374400000.0
sz002921,联诚精密,2019-11-12,17.18,17.31,17.07,17.24,17.18,448206.0,7697202.0,882688000.0,1379200000.0
sz002921,联诚精密,2019-11-13,17.05,17.25,17.05,17.24,17.24,317358.0,5448908.0,882688000.0,1379200000.0
sz002921,联诚精密,2019-11-14,17.25,17.35,17.16,17.28,17.24,255000.0,4404790.0,884736000.0,1382400000.0
sz002921,联诚精密,2019-11-15,17.29,17.31,17.04,17.04,17.28,327200.0,5604759.0,872448000.0,1363200000.0
sz002921,联诚精密,2019-11-18,17.04,17.25,16.93,17.21,17.04,260800.0,4469029.0,881152000.0,1376800000.0
sz002921,联诚精密,2019-11-19,17.19,17.5,17.14,17.5,17.21,462000.0,8027039.0,896000000.0,1400000000.0
sz002921,联诚精密,2019-11-20,17.45,17.65,17.27,17.36,17.5,311400.0,5432241.0,888832000.0,1388800000.0
sz002921,联诚精密,2019-11-21,17.36,17.41,17.16,17.36,17.36,273100.0,4729583.0,888832000.0,1388800000.0
sz002921,联诚精密,2019-11-22,17.56,17.56,17.11,17.23,17.36,358600.0,6203246.0,882176000.0,1378400000.0
sz002921,联诚精密,2019-11-25,17.18,17.29,16.97,17.13,17.23,352900.0,6032119.0,877056000.0,1370400000.0
sz002921,联诚精密,2019-11-26,17.13,17.14,16.93,16.97,17.13,468200.0,7969945.0,868864000.0,1357600000.0
sz002921,联诚精密,2019-11-27,16.97,17.03,16.85,16.9,16.97,279300.0,4728298.0,865280000.0,1352000000.0
sz002921,联诚精密,2019-11-28,17.02,17.02,16.84,16.85,16.9,326800.0,5523273.0,862720000.0,1348000000.0
sz002921,联诚精密,2019-11-29,16.86,17.03,16.83,17.0,16.85,222100.0,3762796.0,870400000.0,1360000000.0
sz002921,联诚精密,2019-12-02,17.04,17.14,17.0,17.08,17.0,276200.0,4719693.0,874496000.0,1366400000.0
sz002921,联诚精密,2019-12-03,17.07,17.21,16.95,17.18,17.08,326300.0,5573729.0,879616000.0,1374400000.0
sz002921,联诚精密,2019-12-04,17.11,17.38,17.06,17.25,17.18,358900.0,6183994.0,883200000.0,1380000000.0
sz002921,联诚精密,2019-12-05,17.3,17.8,17.26,17.68,17.25,782100.0,13768561.0,905216000.0,1414400000.0
sz002921,联诚精密,2019-12-06,17.67,17.67,17.38,17.5,17.68,636700.0,11116706.0,896000000.0,1400000000.0
sz002921,联诚精密,2019-12-09,17.48,17.56,17.43,17.54,17.5,372400.0,6516111.0,898048000.0,1403200000.0
sz002921,联诚精密,2019-12-10,17.54,18.59,17.32,18.59,17.54,553800.0,9797440.0,951808000.0,1487200000.0
sz002921,联诚精密,2019-12-11,17.8,18.14,17.71,17.95,18.59,1066600.0,19148020.0,919040000.0,1436000000.0
sz002921,联诚精密,2019-12-12,17.83,18.22,17.66,17.94,17.95,1301200.0,23366075.0,918528000.0,1435200000.0
sz002921,联诚精密,2019-12-13,17.94,18.13,17.8,18.0,17.94,855800.0,15355622.0,921600000.0,1440000000.0
sz002921,联诚精密,2019-12-16,18.11,18.11,17.92,18.06,18.0,804700.0,14496934.0,924672000.0,1444800000.0
sz002921,联诚精密,2019-12-17,18.05,18.25,18.0,18.16,18.06,891800.0,16141493.0,929792000.0,1452800000.0
sz002921,联诚精密,2019-12-18,18.18,18.31,18.12,18.26,18.16,814601.0,14863675.0,934912000.0,1460800000.0
sz002921,联诚精密,2019-12-19,18.21,18.3,18.12,18.29,18.26,659800.0,12007479.0,936448000.0,1463200000.0
sz002921,联诚精密,2019-12-20,18.29,18.4,18.22,18.25,18.29,884100.0,16176642.0,934400000.0,1460000000.0
sz002921,联诚精密,2019-12-23,18.23,18.3,17.8,17.83,18.25,800214.0,14481287.0,912896000.0,1426400000.0
sz002921,联诚精密,2019-12-24,18.01,18.16,17.8,18.12,17.83,747500.0,13439754.0,927744000.0,1449600000.0
sz002921,联诚精密,2019-12-25,18.03,18.21,18.01,18.2,18.12,504100.0,9148345.0,931840000.0,1456000000.0
sz002921,联诚精密,2019-12-26,18.2,18.47,18.15,18.36,18.2,883159.0,16198101.0,940032000.0,1468800000.0
sz002921,联诚精密,2019-12-27,18.41,18.44,18.11,18.19,18.36,796000.0,14557510.0,931328000.0,1455200000.0
sz002921,联诚精密,2019-12-30,18.12,18.3,17.61,18.3,18.19,814515.0,14740490.0,936960000.0,1464000000.0
sz002921,联诚精密,2019-12-31,18.3,18.4,18.18,18.36,18.3,637500.0,11695305.0,940032000.0,1468800000.0
sz002921,联诚精密,2020-01-02,18.44,18.64,18.35,18.51,18.36,1188200.0,22021726.0,947712000.0,1480800000.0
sz002921,联诚精密,2020-01-03,18.51,18.68,18.47,18.61,18.51,886263.0,16464764.0,952832000.0,1488800000.0
sz002921,联诚精密,2020-01-06,18.58,18.83,18.46,18.77,18.61,964600.0,18062140.0,961024000.0,1501600000.0
sz002921,联诚精密,2020-01-07,18.77,18.88,18.63,18.71,18.77,1014203.0,18998953.0,957952000.0,1496800000.0
sz002921,联诚精密,2020-01-08,18.7,18.76,18.27,18.37,18.71,1108463.0,20525580.0,940544000.0,1469600000.0
sz002921,联诚精密,2020-01-09,18.41,18.87,18.36,18.86,18.37,1276990.0,23893144.0,965632000.0,1508800000.0
sz002921,联诚精密,2020-01-10,18.88,18.88,18.6,18.69,18.86,587600.0,10994299.0,956928000.0,1495200000.0
sz002921,联诚精密,2020-01-13,18.75,18.88,18.51,18.87,18.69,722525.0,13516385.0,966144000.0,1509600000.0
sz002921,联诚精密,2020-01-14,18.75,18.99,18.75,18.9,18.87,863200.0,16313315.0,967680000.0,1512000000.0
sz002921,联诚精密,2020-01-15,18.82,18.91,18.55,18.59,18.9,698900.0,13030964.0,951808000.0,1487200000.0
sz002921,联诚精密,2020-01-16,18.68,18.97,18.53,18.64,18.59,974500.0,18291947.0,954368000.0,1491200000.0
sz002921,联诚精密,2020-01-17,18.62,18.75,18.44,18.53,18.64,715700.0,13287872.0,948736000.0,1482400000.0
sz002921,联诚精密,2020-01-20,18.52,18.58,18.28,18.56,18.53,715700.0,13203207.0,950272000.0,1484800000.0
sz002921,联诚精密,2020-01-21,18.5,18.53,18.15,18.2,18.56,746900.0,13654490.0,931840000.0,1456000000.0
sz002921,联诚精密,2020-01-22,18.2,18.44,17.93,18.36,18.2,729320.0,13256101.0,940032000.0,1468800000.0
sz002921,联诚精密,2020-01-23,18.25,18.44,17.51,17.69,18.36,953201.0,17113412.0,905728000.0,1415200000.0
sz002921,联诚精密,2020-02-03,15.92,15.92,15.92,15.92,17.69,335600.0,5342752.0,815104000.0,1273600000.0
sz002921,联诚精密,2020-02-04,14.34,15.7,14.34,15.43,15.92,1197153.0,18217703.0,790016000.0,1234400000.0
sz002921,联诚精密,2020-02-05,15.45,15.98,15.45,15.9,15.43,812340.0,12852161.0,814080000.0,1272000000.0
sz002921,联诚精密,2020-02-06,15.93,16.24,15.76,16.11,15.9,815376.0,13079520.0,824832000.0,1288800000.0
sz002921,联诚精密,2020-02-07,16.15,16.45,16.06,16.41,16.11,800372.0,12996021.0,840192000.0,1312800000.0
sz002921,联诚精密,2020-02-10,16.44,16.81,16.39,16.79,16.41,701000.0,11688952.0,859648000.0,1343200000.0
sz002921,联诚精密,2020-02-11,16.82,16.91,16.52,16.57,16.79,660840.0,11037034.0,848384000.0,1325600000.0
sz002921,联诚精密,2020-02-12,16.5,17.02,16.5,17.0,16.57,730689.0,12273029.0,870400000.0,1360000000.0
sz002921,联诚精密,2020-02-13,17.06,17.31,16.81,17.17,17.0,1237525.0,21142750.0,879104000.0,1373600000.0
sz002921,联诚精密,2020-02-14,17.58,17.58,17.01,17.09,17.17,966085.0,16761591.0,875008000.0,1367200000.0
sz002921,联诚精密,2020-02-17,17.13,17.58,17.13,17.57,17.09,984661.0,17122949.0,899584000.0,1405600000.0
sz002921,联诚精密,2020-02-18,17.61,17.81,17.46,17.81,17.57,905901.0,15981145.0,911872000.0,1424800000.0
sz002921,联诚精密,2020-02-19,18.36,18.36,17.8,18.15,17.81,1118640.0,20198203.0,929280000.0,1452000000.0
sz002921,联诚精密,2020-02-20,18.19,18.36,17.92,18.15,18.15,1259580.0,22824460.0,929280000.0,1452000000.0
sz002921,联诚精密,2020-02-21,18.02,18.28,18.02,18.12,18.15,836200.0,15188281.0,927744000.0,1449600000.0
sz002921,联诚精密,2020-02-24,18.1,18.27,17.78,18.25,18.12,1193000.0,21559849.0,934400000.0,1460000000.0
sz002921,联诚精密,2020-02-25,18.6,18.6,17.72,18.0,18.25,1601856.0,29024729.0,921600000.0,1440000000.0
sz002921,联诚精密,2020-02-26,17.91,18.45,17.8,17.94,18.0,1514364.0,27423483.0,918528000.0,1435200000.0
sz002921,联诚精密,2020-02-27,17.84,18.28,17.8,17.86,17.94,815361.0,14633987.0,914432000.0,1428800000.0
sz002921,联诚精密,2020-02-28,17.46,17.46,16.58,16.58,17.86,1238460.0,21010956.0,848896000.0,1326400000.0
sz002921,联诚精密,2020-03-02,16.58,17.6,16.57,17.5,16.58,1171160.0,20274541.0,896000000.0,1400000000.0
sz002921,联诚精密,2020-03-03,17.69,18.07,17.57,17.74,17.5,1042800.0,18631742.0,908288000.0,1419200000.0
sz002921,联诚精密,2020-03-04,17.69,17.93,17.51,17.89,17.74,645600.0,11506350.0,915968000.0,1431200000.0
sz002921,联诚精密,2020-03-05,18.07,18.43,17.89,18.38,17.89,1379381.0,25206506.0,941056000.0,1470400000.0
sz002921,联诚精密,2020-03-06,18.21,18.66,18.03,18.5,18.38,1251319.0,22998713.0,947200000.0,1480000000.0
sz002921,联诚精密,2020-03-09,18.29,18.41,17.84,17.95,18.5,1384589.0,25025277.0,919040000.0,1436000000.0
sz002921,联诚精密,2020-03-10,17.66,18.35,17.42,18.32,17.95,1400300.0,25000607.0,937984000.0,1465600000.0
sz002921,联诚精密,2020-03-11,18.4,18.9,18.22,18.62,18.32,2198200.0,40925856.0,953344000.0,1489600000.0
sz002921,联诚精密,2020-03-12,18.98,18.98,18.02,18.36,18.62,2275080.0,41967812.0,940032000.0,1468800000.0
sz002921,联诚精密,2020-03-13,18.68,18.68,16.52,18.05,18.36,1987158.0,35754008.0,924160000.0,1444000000.0
sz002921,联诚精密,2020-03-16,18.01,18.29,17.28,17.3,18.05,1396500.0,24922497.0,885760000.0,1384000000.0
sz002921,联诚精密,2020-03-17,17.28,17.58,16.83,17.5,17.3,830200.0,14337515.0,896000000.0,1400000000.0
sz002921,联诚精密,2020-03-18,17.45,17.98,17.31,17.31,17.5,807439.0,14270832.0,886272000.0,1384800000.0
sz002921,联诚精密,2020-03-19,17.5,17.72,17.13,17.71,17.31,1062720.0,18527448.0,906752000.0,1416800000.0
sz002921,联诚精密,2020-03-20,17.82,19.18,17.7,19.16,17.71,3368356.0,62861075.0,980992000.0,1532800000.0
sz002921,联诚精密,2020-03-23,18.5,19.56,18.48,18.87,19.16,3405338.0,64992313.0,966144000.0,1509600000.0
sz002921,联诚精密,2020-03-24,19.13,19.57,18.48,19.45,18.87,3300561.0,62960886.0,995840000.0,1556000000.0
sz002921,联诚精密,2020-03-25,19.73,19.85,19.04,19.12,19.45,3215916.0,61995262.0,978944000.0,1529600000.0
sz002921,联诚精密,2020-03-26,18.95,18.95,18.41,18.6,19.12,2262440.0,42085986.0,952320000.0,1488000000.0
sz002921,联诚精密,2020-03-27,18.39,18.68,18.24,18.32,18.6,2303816.0,42438435.0,937984000.0,1465600000.0
sz002921,联诚精密,2020-03-30,17.8,17.8,17.02,17.59,18.32,2608177.0,45017091.0,900608000.0,1407200000.0
sz002921,联诚精密,2020-03-31,17.98,17.98,17.21,17.23,17.59,1277454.0,22510373.0,882176000.0,1378400000.0
sz002921,联诚精密,2020-04-01,17.06,17.45,17.06,17.08,17.23,755026.0,13020704.0,874496000.0,1366400000.0
sz002921,联诚精密,2020-04-02,17.08,17.29,16.74,17.24,17.08,917177.0,15555360.0,882688000.0,1379200000.0
sz002921,联诚精密,2020-04-03,17.2,17.23,16.81,16.84,17.24,920616.0,15625880.0,862208000.0,1347200000.0
sz002921,联诚精密,2020-04-07,17.16,17.39,17.05,17.31,16.84,915216.0,15767318.0,886272000.0,1384800000.0
sz002921,联诚精密,2020-04-08,17.31,17.56,17.17,17.47,17.31,942216.0,16393123.0,894464000.0,1397600000.0
sz002921,联诚精密,2020-04-09,17.56,17.63,17.45,17.55,17.47,724226.0,12707505.0,898560000.0,1404000000.0
sz002921,联诚精密,2020-04-10,17.52,17.52,17.05,17.16,17.55,819800.0,14135918.0,878592000.0,1372800000.0
sz002921,联诚精密,2020-04-13,17.25,17.25,16.85,17.0,17.16,579100.0,9810614.0,870400000.0,1360000000.0
sz002921,联诚精密,2020-04-14,16.91,17.27,16.91,17.22,17.0,480100.0,8235424.0,881664000.0,1377600000.0
sz002921,联诚精密,2020-04-15,17.3,17.3,17.01,17.06,17.22,555539.0,9523312.0,873472000.0,1364800000.0
sz002921,联诚精密,2020-04-16,16.97,17.19,16.9,17.17,17.06,450200.0,7687185.0,879104000.0,1373600000.0
sz002921,联诚精密,2020-04-17,17.1,17.63,17.1,17.56,17.17,1456726.0,25470430.0,899072000.0,1404800000.0
sz002921,联诚精密,2020-04-20,17.56,18.28,17.36,18.15,17.56,1553800.0,27975607.0,929280000.0,1452000000.0
sz002921,联诚精密,2020-04-21,18.14,18.33,17.88,18.27,18.15,1244000.0,22561367.0,935424000.0,1461600000.0
sz002921,联诚精密,2020-04-22,18.17,18.48,17.95,18.21,18.27,974339.0,17738556.0,932352000.0,1456800000.0
sz002921,联诚精密,2020-04-23,18.21,18.7,18.21,18.5,18.21,1272139.0,23565371.0,947200000.0,1480000000.0
sz002921,联诚精密,2020-04-24,18.61,18.61,18.07,18.27,18.5,1271300.0,23362040.0,935424000.0,1461600000.0
sz002921,联诚精密,2020-04-27,18.18,18.5,17.66,17.96,18.27,784300.0,14134024.0,919552000.0,1436800000.0
sz002921,联诚精密,2020-04-28,18.15,18.15,17.28,17.62,17.96,862272.0,15291113.0,902144000.0,1409600000.0
sz002921,联诚精密,2020-04-29,17.67,18.59,17.67,18.21,17.62,1798400.0,32796964.0,932352000.0,1456800000.0
sz002921,联诚精密,2020-04-30,18.21,18.57,18.12,18.53,18.21,1512820.0,27810266.0,948736000.0,1482400000.0
sz002921,联诚精密,2020-05-06,18.43,18.87,18.23,18.8,18.53,1731579.0,32250576.0,962560000.0,1504000000.0
sz002921,联诚精密,2020-05-07,18.9,18.98,18.33,18.51,18.8,1820700.0,33758129.0,947712000.0,1480800000.0
sz002921,联诚精密,2020-05-08,18.36,19.0,18.1,18.92,18.21,2181260.0,40577220.0,968704000.0,1513600000.0
sz002921,联诚精密,2020-05-11,19.15,19.15,18.58,18.75,18.92,2164798.0,40779727.0,960000000.0,1500000000.0
sz002921,联诚精密,2020-05-12,18.88,18.88,18.28,18.59,18.75,1359378.0,25182493.0,951808000.0,1487200000.0
sz002921,联诚精密,2020-05-13,18.74,19.39,18.55,19.34,18.59,2881366.0,55121065.0,990208000.0,1547200000.0
sz002921,联诚精密,2020-05-14,19.08,19.6,18.95,19.48,19.34,2184810.0,42100721.0,997376000.0,1558400000.0
sz002921,联诚精密,2020-05-15,19.45,19.47,19.08,19.14,19.48,1616800.0,31122824.0,979968000.0,1531200000.0
sz002921,联诚精密,2020-05-18,19.13,19.19,18.9,19.04,19.14,1012398.0,19244886.0,974848000.0,1523200000.0
sz002921,联诚精密,2020-05-19,19.39,19.39,18.8,18.93,19.04,1102600.0,20998673.0,969216000.0,1514400000.0
sz002921,联诚精密,2020-05-20,18.93,18.93,18.48,18.7,18.93,1332098.0,24831442.0,957440000.0,1496000000.0
sz002921,联诚精密,2020-05-21,18.88,18.88,18.5,18.53,18.7,873600.0,16341589.0,948736000.0,1482400000.0
sz002921,联诚精密,2020-05-22,18.42,18.6,18.2,18.47,18.53,702000.0,12934533.0,945664000.0,1477600000.0
sz002921,联诚精密,2020-05-25,18.54,19.45,18.42,19.41,18.47,2016412.0,38463510.0,993792000.0,1552800000.0
sz002921,联诚精密,2020-05-26,19.22,20.2,19.22,19.81,19.41,3169112.0,62547503.0,1014272000.0,1584800000.0
sz002921,联诚精密,2020-05-27,19.63,19.85,19.36,19.72,19.81,1971300.0,38719480.0,1009664000.0,1577600000.0
sz002921,联诚精密,2020-05-28,19.73,19.89,19.01,19.23,19.72,1514900.0,29343665.0,984576000.0,1538400000.0
sz002921,联诚精密,2020-05-29,19.38,19.38,19.05,19.32,19.23,1366616.0,26262627.0,989184000.0,1545600000.0
sz002921,联诚精密,2020-06-01,19.61,19.8,19.34,19.6,19.32,2128300.0,41750455.0,1003520000.0,1568000000.0
sz002921,联诚精密,2020-06-02,19.63,19.68,19.15,19.44,19.6,1968586.0,38118761.0,995328000.0,1555200000.0
sz002921,联诚精密,2020-06-03,19.54,20.38,19.29,20.2,19.44,3266300.0,65129747.0,1034240000.0,1648320000.0
sz002921,联诚精密,2020-06-04,20.12,20.14,19.83,19.97,20.2,1810145.0,36167668.0,1022464000.0,1629552000.0
sz002921,联诚精密,2020-06-05,20.0,20.09,19.6,19.71,19.97,1354060.0,26702666.0,1009152000.0,1608336000.0
sz002921,联诚精密,2020-06-08,19.41,19.57,18.68,18.71,19.71,2758106.0,52289606.0,957952000.0,1526736000.0
sz002921,联诚精密,2020-06-09,18.82,19.39,18.71,19.32,18.71,2103406.0,40135650.0,989184000.0,1576512000.0
sz002921,联诚精密,2020-06-10,19.28,19.56,19.1,19.19,19.32,1515300.0,29160728.0,982528000.0,1565904000.0
sz002921,联诚精密,2020-06-11,19.33,19.88,19.12,19.82,19.19,2293398.0,44786505.0,1014784000.0,1617312000.0
sz002921,联诚精密,2020-06-12,19.55,20.13,19.4,20.03,19.82,2444400.0,48569149.0,1025536000.0,1634448000.0
sz002921,联诚精密,2020-06-15,20.05,20.6,20.05,20.08,20.03,2917000.0,59129782.0,969362000.0,1638528000.0
sz002921,联诚精密,2020-06-16,20.23,21.23,20.11,20.67,20.08,3929472.0,81271893.0,997844250.0,1686672000.0
sz002921,联诚精密,2020-06-17,20.65,20.71,20.21,20.25,20.67,2996800.0,60967581.0,977568750.0,1652400000.0
sz002921,联诚精密,2020-06-18,20.45,20.7,20.05,20.1,20.25,1979672.0,40135153.0,970327500.0,1640160000.0
sz002921,联诚精密,2020-06-19,20.27,20.6,20.08,20.33,20.1,2321500.0,47322769.0,981430750.0,1658928000.0
sz002921,联诚精密,2020-06-22,20.38,21.1,20.16,20.83,20.33,2922970.0,60327505.0,1005568250.0,1699728000.0
sz002921,联诚精密,2020-06-23,20.88,21.48,20.52,21.35,20.83,3140726.0,66158250.0,1030671250.0,1742160000.0
sz002921,联诚精密,2020-06-24,21.24,21.56,20.91,21.18,21.35,2313180.0,48859651.0,1022464500.0,1728288000.0
sz002921,联诚精密,2020-06-29,21.44,21.44,20.66,20.98,21.18,1923216.0,40205711.0,1012809500.0,1711968000.0
sz002921,联诚精密,2020-06-30,21.13,21.68,20.83,21.63,20.98,2640950.0,56338713.0,1044188250.0,1765008000.0
sz002921,联诚精密,2020-07-01,21.7,21.71,21.04,21.36,21.63,2776166.0,59106848.0,1031154000.0,1742976000.0
sz002921,联诚精密,2020-07-02,21.32,21.34,20.89,20.95,21.36,2344822.0,49338416.0,1011361250.0,1709520000.0
sz002921,联诚精密,2020-07-03,21.0,21.15,20.53,21.11,20.95,1968654.0,41042397.0,1019085250.0,1722576000.0
sz002921,联诚精密,2020-07-06,21.11,21.79,20.79,21.79,21.11,2971426.0,63287604.0,1051912250.0,1778064000.0
sz002921,联诚精密,2020-07-07,21.9,22.0,21.51,21.53,21.79,3066600.0,66552442.0,1039360750.0,1756848000.0
sz002921,联诚精密,2020-07-08,21.47,21.66,21.17,21.6,21.53,2543500.0,54514026.0,1042740000.0,1762560000.0
sz002921,联诚精密,2020-07-09,21.67,22.49,21.49,22.24,21.6,3692993.0,81503826.0,1073636000.0,1814784000.0
sz002921,联诚精密,2020-07-10,22.2,22.36,21.85,21.93,22.24,2299603.0,50787026.0,1058670750.0,1789488000.0
sz002921,联诚精密,2020-07-13,21.91,22.9,21.88,22.78,21.93,3256615.0,73425711.0,1099704500.0,1858848000.0
sz002921,联诚精密,2020-07-14,22.7,25.06,22.53,24.88,22.78,7875347.0,191875035.0,1201082000.0,2030208000.0
sz002921,联诚精密,2020-07-15,25.2,25.4,24.4,24.57,24.88,7237100.0,179560046.0,1186116750.0,2004912000.0
sz002921,联诚精密,2020-07-16,24.42,24.81,22.7,23.2,24.57,4811647.0,114248505.0,1119980000.0,1893120000.0
sz002921,联诚精密,2020-07-17,22.63,22.82,21.1,21.22,23.2,4610126.0,99832858.0,1024395500.0,1731552000.0
sz002921,联诚精密,2020-07-20,21.46,21.7,20.91,21.69,21.22,2468195.0,52677615.0,1047084750.0,1769904000.0
sz002921,联诚精密,2020-07-21,21.63,21.85,21.41,21.48,21.69,1756800.0,37962606.0,1036947000.0,1752768000.0
sz002921,联诚精密,2020-07-22,21.55,21.95,21.31,21.85,21.48,2068200.0,44887098.0,1054808750.0,1782960000.0
sz002921,联诚精密,2020-07-23,21.93,21.93,21.21,21.77,21.85,1939900.0,41912158.0,1050946750.0,1776432000.0
sz002921,联诚精密,2020-07-24,21.75,21.75,20.26,20.58,21.77,2321088.0,48809844.0,993499500.0,1679328000.0
sz002921,联诚精密,2020-07-27,20.58,20.98,20.28,20.72,20.58,1279966.0,26354356.0,1000258000.0,1690752000.0
sz002921,联诚精密,2020-07-28,20.88,21.16,20.55,20.82,20.72,1204054.0,25125351.0,1005085500.0,1698912000.0
sz002921,联诚精密,2020-07-29,20.82,21.18,20.43,21.12,20.82,1370400.0,28690845.0,1019568000.0,1723392000.0
sz002921,联诚精密,2020-07-30,22.0,22.3,21.61,21.86,21.12,3277922.0,72003105.0,1055291500.0,1783776000.0
sz002921,联诚精密,2020-07-31,21.6,22.19,21.59,22.01,21.86,2229300.0,48916406.0,1062532750.0,1796016000.0
sz002921,联诚精密,2020-08-03,22.0,22.57,21.99,22.51,22.01,2138000.0,47843900.0,1086670250.0,1836816000.0
sz002921,联诚精密,2020-08-04,22.46,22.63,22.11,22.3,22.51,1627400.0,36259233.0,1076532500.0,1819680000.0
sz002921,联诚精密,2020-08-05,22.3,23.09,22.21,22.58,22.3,1812500.0,40951368.0,1090049500.0,1842528000.0
sz002921,联诚精密,2020-08-06,23.49,23.54,22.35,22.88,22.58,1909960.0,43435017.0,1104532000.0,1867008000.0
sz002921,联诚精密,2020-08-07,22.65,22.84,21.93,22.22,22.88,1703576.0,38039309.0,1072670500.0,1813152000.0
sz002921,联诚精密,2020-08-10,22.04,22.82,22.01,22.6,22.22,1155400.0,26054604.0,1091015000.0,1844160000.0
sz002921,联诚精密,2020-08-11,22.6,23.2,22.39,22.44,22.6,1996572.0,45535503.0,1083291000.0,1831104000.0
sz002921,联诚精密,2020-08-12,22.32,22.43,21.61,22.14,22.44,1578600.0,34706802.0,1068808500.0,1806624000.0
sz002921,联诚精密,2020-08-13,22.16,22.94,22.16,22.41,22.14,1457900.0,32921557.0,1081842750.0,1828656000.0
sz002921,联诚精密,2020-08-14,22.41,22.65,21.99,22.56,22.41,1321000.0,29432373.0,1089084000.0,1840896000.0
sz002921,联诚精密,2020-08-17,22.55,23.13,22.2,23.07,22.56,2010050.0,45934476.0,1113704250.0,1882512000.0
sz002921,联诚精密,2020-08-18,23.0,23.5,22.78,23.25,23.07,2576800.0,59505570.0,1122393750.0,1897200000.0
sz002921,联诚精密,2020-08-19,23.1,23.62,22.78,22.8,23.25,2400172.0,55512636.0,1100670000.0,1860480000.0
sz002921,联诚精密,2020-08-20,22.73,23.62,22.45,23.3,22.8,2540750.0,58938500.0,1124807500.0,1901280000.0
sz002921,联诚精密,2020-08-21,23.25,24.8,23.17,24.1,23.3,4206566.0,101522158.0,1163427500.0,1966560000.0
sz002921,联诚精密,2020-08-24,23.97,24.2,23.56,24.19,24.1,2090800.0,50025920.0,1167772250.0,1973904000.0
sz002921,联诚精密,2020-08-25,24.2,24.25,23.7,24.0,24.19,1874116.0,44821148.0,1158600000.0,1958400000.0
sz002921,联诚精密,2020-08-26,24.47,24.47,22.92,23.18,24.0,2370191.0,55807615.0,1119014500.0,1891488000.0
sz002921,联诚精密,2020-08-27,23.22,23.7,22.63,23.49,23.18,2017900.0,47134460.0,1133979750.0,1916784000.0
sz002921,联诚精密,2020-08-28,23.45,23.45,22.7,23.3,23.49,1925661.0,44334273.0,1124807500.0,1901280000.0
sz002921,联诚精密,2020-08-31,23.38,23.76,23.13,23.22,23.3,1367300.0,32067769.0,1120945500.0,1894752000.0
sz002921,联诚精密,2020-09-01,23.32,23.68,23.02,23.66,23.22,1208500.0,28349955.0,1142186500.0,1930656000.0
sz002921,联诚精密,2020-09-02,23.69,23.97,23.48,23.83,23.66,1602900.0,38031658.0,1150393250.0,1944528000.0
sz002921,联诚精密,2020-09-03,23.7,23.79,23.16,23.23,23.83,1753000.0,40974078.0,1121428250.0,1895568000.0
sz002921,联诚精密,2020-09-04,23.0,23.12,22.61,23.01,23.23,1491600.0,34058643.0,1110807750.0,1877616000.0
sz002921,联诚精密,2020-09-07,23.43,23.54,22.35,22.4,23.01,1885609.0,43297607.0,1081360000.0,1827840000.0
sz002921,联诚精密,2020-09-08,22.42,22.85,22.28,22.64,22.4,1246400.0,28148341.0,1092946000.0,1847424000.0
sz002921,联诚精密,2020-09-09,22.51,22.88,22.12,22.19,22.64,1539891.0,34630745.0,1071222250.0,1810704000.0
sz002921,联诚精密,2020-09-10,22.42,22.49,20.76,20.9,22.19,2049891.0,43925434.0,1008947500.0,1705440000.0
sz002921,联诚精密,2020-09-11,20.86,21.53,20.63,21.32,20.9,1166300.0,24711624.0,1029223000.0,1739712000.0
sz002921,联诚精密,2020-09-14,21.5,22.09,21.45,21.78,21.32,1100500.0,23974062.0,1051429500.0,1777248000.0
sz002921,联诚精密,2020-09-15,21.88,21.96,21.59,21.65,21.78,793200.0,17260945.0,1045153750.0,1766640000.0
sz002921,联诚精密,2020-09-16,21.8,21.8,21.45,21.64,21.65,900198.0,19452763.0,1044671000.0,1765824000.0
sz002921,联诚精密,2020-09-17,21.79,22.05,21.17,21.86,21.64,897580.0,19518032.0,1055291500.0,1783776000.0
sz002921,联诚精密,2020-09-18,22.27,22.27,21.58,21.83,21.86,1158400.0,25243116.0,1053843250.0,1781328000.0
sz002921,联诚精密,2020-09-21,21.97,21.97,21.39,21.46,21.83,1023710.0,22125542.0,1035981500.0,1751136000.0
sz002921,联诚精密,2020-09-22,21.46,21.56,21.06,21.16,21.46,878800.0,18669077.0,1021499000.0,1726656000.0
sz002921,联诚精密,2020-09-23,21.16,21.53,21.08,21.22,21.16,639300.0,13605664.0,1024395500.0,1731552000.0
sz002921,联诚精密,2020-09-24,21.13,21.17,20.61,20.63,21.22,852910.0,17748014.0,995913250.0,1683408000.0
sz002921,联诚精密,2020-09-25,20.78,20.89,20.41,20.76,20.63,670680.0,13846790.0,1002189000.0,1694016000.0
sz002921,联诚精密,2020-09-28,20.96,20.96,20.14,20.16,20.76,718200.0,14656538.0,973224000.0,1645056000.0
sz002921,联诚精密,2020-09-29,20.17,20.93,20.07,20.48,20.16,839188.0,17223046.0,988672000.0,1671168000.0
sz002921,联诚精密,2020-09-30,20.44,20.71,20.2,20.48,20.48,526300.0,10785705.0,988672000.0,1671168000.0
sz002921,联诚精密,2020-10-09,20.68,21.18,20.6,20.91,20.48,898700.0,18817756.0,1009430250.0,1706256000.0
sz002921,联诚精密,2020-10-12,21.09,21.55,20.9,21.47,20.91,1158800.0,24610654.0,1036464250.0,1751952000.0
sz002921,联诚精密,2020-10-13,21.33,21.5,21.25,21.41,21.47,853500.0,18237188.0,1033567750.0,1747056000.0
sz002921,联诚精密,2020-10-14,21.32,21.49,21.14,21.3,21.41,736410.0,15692931.0,1028257500.0,1738080000.0
sz002921,联诚精密,2020-10-15,21.76,22.3,21.5,21.88,21.3,1999680.0,43763170.0,1056257000.0,1785408000.0
sz002921,联诚精密,2020-10-16,21.61,22.74,21.61,22.58,21.88,2172700.0,48703705.0,1090049500.0,1842528000.0
sz002921,联诚精密,2020-10-19,22.77,23.18,22.3,22.86,22.58,2024300.0,46382655.0,1103566500.0,1865376000.0
sz002921,联诚精密,2020-10-20,23.1,23.17,22.8,23.04,22.86,1599000.0,36789048.0,1112256000.0,1880064000.0
sz002921,联诚精密,2020-10-21,23.0,23.4,22.8,23.38,23.04,1673491.0,38829812.0,1128669500.0,1907808000.0
sz002921,联诚精密,2020-10-22,23.3,23.68,22.81,23.34,23.38,1538391.0,35804670.0,1126738500.0,1904544000.0
sz002921,联诚精密,2020-10-23,23.23,23.55,23.11,23.2,23.34,1406400.0,32822419.0,1119980000.0,1893120000.0
sz002921,联诚精密,2020-10-26,23.32,23.85,23.01,23.49,23.2,1721300.0,40322214.0,1133979750.0,1916784000.0
sz002921,联诚精密,2020-10-27,23.27,23.61,22.91,23.25,23.49,1575600.0,36612282.0,1122393750.0,1897200000.0
sz002921,联诚精密,2020-10-28,23.5,23.69,23.1,23.4,23.25,1442253.0,33763413.0,1129635000.0,1909440000.0
sz002921,联诚精密,2020-10-29,23.2,24.09,23.13,23.68,23.4,1928654.0,45838145.0,1143152000.0,1932288000.0
sz002921,联诚精密,2020-10-30,23.97,24.18,23.25,23.37,23.68,1773100.0,42124499.0,1128186750.0,1906992000.0
sz002921,联诚精密,2020-11-02,23.33,24.0,23.21,23.84,23.37,1684850.0,40043552.0,1150876000.0,1945344000.0
sz002921,联诚精密,2020-11-03,23.85,24.0,23.58,23.68,23.84,1519900.0,36110704.0,1143152000.0,1932288000.0
sz002921,联诚精密,2020-11-04,23.65,23.79,23.17,23.62,23.68,1368700.0,32104706.0,1140255500.0,1927392000.0
sz002921,联诚精密,2020-11-05,23.56,24.04,23.39,23.7,23.62,1386245.0,32787728.0,1144117500.0,1933920000.0
sz002921,联诚精密,2020-11-06,23.72,23.93,22.99,23.27,23.7,1073654.0,25072886.0,1123359250.0,1898832000.0
sz002921,联诚精密,2020-11-09,23.35,24.57,23.21,24.31,23.27,3113929.0,74950620.0,1173565250.0,1983696000.0
sz002921,联诚精密,2020-11-10,24.88,24.9,23.63,23.71,24.31,2386531.0,57228081.0,1144600250.0,1934736000.0
sz002921,联诚精密,2020-11-11,23.83,23.9,23.11,23.23,23.71,1279000.0,29958578.0,1121428250.0,1895568000.0
sz002921,联诚精密,2020-11-12,23.42,23.46,23.0,23.05,23.23,920000.0,21333168.0,1112738750.0,1880880000.0
sz002921,联诚精密,2020-11-13,22.9,23.41,22.71,23.38,23.05,963000.0,22288023.0,1128669500.0,1907808000.0
sz002921,联诚精密,2020-11-16,23.38,23.63,23.03,23.23,23.38,1076900.0,25057794.0,1121428250.0,1895568000.0
sz002921,联诚精密,2020-11-17,23.17,23.38,22.66,22.92,23.23,1046450.0,23987432.0,1106463000.0,1870272000.0
sz002921,联诚精密,2020-11-18,23.0,25.1,22.92,24.84,22.92,4729833.0,115214852.0,1199151000.0,2026944000.0
sz002921,联诚精密,2020-11-19,24.85,25.87,24.72,25.03,24.84,4590497.0,115718518.0,1208323250.0,2042448000.0
sz002921,联诚精密,2020-11-20,25.03,25.22,24.09,24.55,25.03,2798638.0,68618138.0,1185151250.0,2003280000.0
sz002921,联诚精密,2020-11-23,24.64,24.64,24.02,24.28,24.55,2025430.0,49133194.0,1172117000.0,1981248000.0
sz002921,联诚精密,2020-11-24,24.09,25.07,23.91,24.79,24.28,3114726.0,76606668.0,1196737250.0,2022864000.0
sz002921,联诚精密,2020-11-25,24.79,24.84,23.98,23.98,24.79,1944618.0,47142558.0,1157634500.0,1956768000.0
sz002921,联诚精密,2020-11-26,24.2,24.2,23.0,23.14,23.98,1614600.0,37860187.0,1117083500.0,1888224000.0
sz002921,联诚精密,2020-11-27,23.25,23.25,22.35,22.6,23.14,1934252.0,43911803.0,1091015000.0,1844160000.0
sz002921,联诚精密,2020-11-30,22.3,22.54,21.75,21.96,22.6,1638898.0,36243742.0,1060119000.0,1791936000.0
sz002921,联诚精密,2020-12-01,21.96,22.17,21.78,22.0,21.96,1101043.0,24167418.0,1062050000.0,1795200000.0
sz002921,联诚精密,2020-12-02,22.01,22.22,21.92,22.12,22.0,1034800.0,22803108.0,1067843000.0,1804992000.0
sz002921,联诚精密,2020-12-03,22.16,22.36,21.95,22.28,22.12,901800.0,20051704.0,1075567000.0,1818048000.0
sz002921,联诚精密,2020-12-04,22.39,22.56,22.13,22.46,22.28,872700.0,19533351.0,1084256500.0,1832736000.0
sz002921,联诚精密,2020-12-07,22.52,22.58,21.99,21.99,22.46,969400.0,21547796.0,1061567250.0,1794384000.0
sz002921,联诚精密,2020-12-08,21.83,22.28,21.82,22.01,21.99,602730.0,13302643.0,1062532750.0,1796016000.0
sz002921,联诚精密,2020-12-09,22.05,22.2,21.33,21.39,22.01,781930.0,16940631.0,1032602250.0,1745424000.0
sz002921,联诚精密,2020-12-10,21.39,21.64,21.11,21.3,21.39,596900.0,12741119.0,1028257500.0,1738080000.0
sz002921,联诚精密,2020-12-11,21.3,21.44,20.7,21.12,21.3,660643.0,13860460.0,1019568000.0,1723392000.0
sz002921,联诚精密,2020-12-14,21.12,21.36,20.6,21.33,21.12,621000.0,13104195.0,1029705750.0,1740528000.0
sz002921,联诚精密,2020-12-15,21.1,21.41,20.92,21.1,21.33,636500.0,13446826.0,1018602500.0,1721760000.0
sz002921,联诚精密,2020-12-16,21.08,21.3,20.74,20.93,21.1,527900.0,11094351.0,1010395750.0,1707888000.0
sz002921,联诚精密,2020-12-17,21.05,21.28,20.5,21.21,20.93,571457.0,11935739.0,1023912750.0,1730736000.0
sz002921,联诚精密,2020-12-18,21.14,21.2,20.72,20.77,21.21,531500.0,11100735.0,1002671750.0,1694832000.0
sz002921,联诚精密,2020-12-21,20.84,21.37,20.51,21.27,20.77,805495.0,16991639.0,1026809250.0,1735632000.0
sz002921,联诚精密,2020-12-22,21.2,21.27,20.51,20.61,21.27,939862.0,19600063.0,994947750.0,1681776000.0
sz002921,联诚精密,2020-12-23,20.68,21.12,20.31,20.81,20.61,893000.0,18584184.0,1004602750.0,1698096000.0
sz002921,联诚精密,2020-12-24,20.82,20.82,18.81,19.18,20.81,2367271.0,46504798.0,925914500.0,1565088000.0
sz002921,联诚精密,2020-12-25,18.99,20.29,18.86,19.96,19.18,1452739.0,28828390.0,963569000.0,1628736000.0
sz002921,联诚精密,2020-12-28,19.8,19.87,19.03,19.18,19.96,1510900.0,29163600.0,1198654100.0,1565088000.0
sz002921,联诚精密,2020-12-29,19.05,19.55,18.97,19.22,19.18,765243.0,14792114.0,1201153900.0,1568352000.0
sz002921,联诚精密,2020-12-30,19.21,19.65,19.12,19.45,19.22,641900.0,12463158.0,1215527750.0,1587120000.0
sz002921,联诚精密,2020-12-31,19.4,19.77,19.3,19.52,19.45,781010.0,15239732.0,1219902400.0,1592832000.0
sz002921,联诚精密,2021-01-04,19.53,19.85,19.47,19.68,19.52,799543.0,15707239.0,1229901600.0,1605888000.0
sz002921,联诚精密,2021-01-05,19.68,19.74,19.24,19.4,19.68,851400.0,16550469.0,1212403000.0,1583040000.0
sz002921,联诚精密,2021-01-06,19.4,19.53,18.72,18.84,19.4,1333060.0,25270233.0,1177405800.0,1537344000.0
sz002921,联诚精密,2021-01-07,18.72,18.88,17.8,18.03,18.84,1388300.0,25236326.0,1126784850.0,1471248000.0
sz002921,联诚精密,2021-01-08,17.91,18.57,17.5,18.1,18.03,1393400.0,25258413.0,1131159500.0,1476960000.0
sz002921,联诚精密,2021-01-11,18.12,18.27,17.53,17.9,18.1,1061723.0,18990908.0,1118660500.0,1460640000.0
sz002921,联诚精密,2021-01-12,17.96,18.38,17.61,18.03,17.9,741273.0,13387032.0,1126784850.0,1471248000.0
sz002921,联诚精密,2021-01-13,18.03,18.29,17.55,18.26,18.03,1321000.0,23664362.0,1141158700.0,1490016000.0
sz002921,联诚精密,2021-01-14,18.78,19.73,18.39,19.25,18.26,2574752.0,49358208.0,1203028750.0,1570800000.0
sz002921,联诚精密,2021-01-15,18.71,19.1,18.46,18.81,19.25,1793761.0,33586966.0,1175530950.0,1534896000.0
sz002921,联诚精密,2021-01-18,18.78,19.11,18.51,18.84,18.81,1217100.0,22982820.0,1177405800.0,1537344000.0
sz002921,联诚精密,2021-01-19,18.85,19.17,18.75,18.98,18.84,806300.0,15262654.0,1186155100.0,1548768000.0
sz002921,联诚精密,2021-01-20,19.0,19.39,18.75,19.07,18.98,886838.0,16861163.0,1191779650.0,1556112000.0
sz002921,联诚精密,2021-01-21,19.0,19.31,18.96,19.16,19.07,984279.0,18872539.0,1197404200.0,1563456000.0
sz002921,联诚精密,2021-01-22,19.03,19.29,18.87,19.08,19.16,755400.0,14348803.0,1192404600.0,1556928000.0
sz002921,联诚精密,2021-01-25,19.18,19.18,18.51,18.57,19.08,768100.0,14373885.0,1160532150.0,1515312000.0
sz002921,联诚精密,2021-01-26,18.51,18.79,18.4,18.57,18.57,480700.0,8952584.0,1160532150.0,1515312000.0
sz002921,联诚精密,2021-01-27,18.58,18.83,18.42,18.67,18.57,536541.0,10018662.0,1166781650.0,1523472000.0
sz002921,联诚精密,2021-01-28,18.61,19.01,18.49,18.92,18.67,636741.0,11995527.0,1182405400.0,1543872000.0
sz002921,联诚精密,2021-01-29,19.19,19.2,18.34,18.42,18.92,1030258.0,19190376.0,1151157900.0,1503072000.0
sz002921,联诚精密,2021-02-01,18.35,18.57,17.93,18.02,18.42,1166600.0,21169255.0,1126159900.0,1470432000.0
sz002921,联诚精密,2021-02-02,18.02,18.26,17.88,17.95,18.02,606400.0,10942401.0,1121785250.0,1464720000.0
sz002921,联诚精密,2021-02-03,17.95,18.04,17.52,17.62,17.95,792100.0,14062778.0,1101161900.0,1437792000.0
sz002921,联诚精密,2021-02-04,17.5,17.57,16.88,17.02,17.62,979400.0,16775293.0,1063664900.0,1388832000.0
sz002921,联诚精密,2021-02-05,17.03,17.23,16.8,16.85,17.02,782100.0,13292720.0,1053040750.0,1374960000.0
sz002921,联诚精密,2021-02-08,16.76,16.97,16.6,16.8,16.85,571700.0,9599299.0,1049916000.0,1370880000.0
sz002921,联诚精密,2021-02-09,16.95,17.13,16.76,17.1,16.8,402041.0,6829125.0,1068664500.0,1395360000.0
sz002921,联诚精密,2021-02-10,17.1,17.56,17.1,17.29,17.1,526900.0,9131035.0,1080538550.0,1410864000.0
sz002921,联诚精密,2021-02-18,17.39,17.7,17.39,17.65,17.29,575600.0,10126055.0,1103036750.0,1440240000.0
sz002921,联诚精密,2021-02-19,17.62,18.21,17.58,18.2,17.65,700600.0,12618536.0,1137409000.0,1485120000.0
sz002921,联诚精密,2021-02-22,18.27,18.99,18.27,18.53,18.2,926000.0,17324123.0,1158032350.0,1512048000.0
sz002921,联诚精密,2021-02-23,18.38,18.86,18.24,18.4,18.53,537623.0,9892083.0,1149908000.0,1501440000.0
sz002921,联诚精密,2021-02-24,18.34,18.71,18.34,18.51,18.4,485640.0,9011982.0,1156782450.0,1510416000.0
sz002921,联诚精密,2021-02-25,18.48,18.57,18.28,18.4,18.51,384800.0,7080897.0,1149908000.0,1501440000.0
sz002921,联诚精密,2021-02-26,18.14,18.7,18.0,18.61,18.4,592621.0,10953751.0,1163031950.0,1518576000.0
sz002921,联诚精密,2021-03-01,18.66,18.93,18.56,18.89,18.61,504800.0,9481270.0,1180530550.0,1541424000.0
sz002921,联诚精密,2021-03-02,18.87,19.07,18.8,18.98,18.89,572500.0,10836091.0,1186155100.0,1548768000.0
sz002921,联诚精密,2021-03-03,18.98,19.66,18.84,19.58,18.98,1084583.0,21014652.0,1223652100.0,1597728000.0
sz002921,联诚精密,2021-03-04,19.6,19.99,19.33,19.47,19.58,1323000.0,26042665.0,1216777650.0,1588752000.0
sz002921,联诚精密,2021-03-05,19.3,19.8,19.3,19.73,19.47,871698.0,17117136.0,1233026350.0,1609968000.0
sz002921,联诚精密,2021-03-08,19.7,19.95,19.52,19.6,19.73,782000.0,15403546.0,1224902000.0,1599360000.0
sz002921,联诚精密,2021-03-09,19.61,19.78,18.96,19.26,19.6,919700.0,17773295.0,1203653700.0,1571616000.0
sz002921,联诚精密,2021-03-10,19.27,19.46,18.66,18.79,19.26,597941.0,11318438.0,1174281050.0,1533264000.0
sz002921,联诚精密,2021-03-11,18.71,19.23,18.71,19.2,18.79,454700.0,8645272.0,1199904000.0,1566720000.0
sz002921,联诚精密,2021-03-12,19.2,19.67,19.2,19.52,19.2,722400.0,14062448.0,1219902400.0,1592832000.0
sz002921,联诚精密,2021-03-15,19.51,19.95,19.4,19.89,19.52,792114.0,15631711.0,1243025550.0,1623024000.0
sz002921,联诚精密,2021-03-16,19.9,20.37,19.82,20.2,19.89,860820.0,17380539.0,1262399000.0,1648320000.0
sz002921,联诚精密,2021-03-17,20.2,20.97,20.0,20.91,20.2,1253416.0,25706123.0,1306770450.0,1706256000.0
sz002921,联诚精密,2021-03-18,20.92,21.68,20.88,21.56,20.91,1746073.0,37297674.0,1347392200.0,1759296000.0
sz002921,联诚精密,2021-03-19,21.3,21.75,21.2,21.64,21.56,1566801.0,33697940.0,1352391800.0,1765824000.0
sz002921,联诚精密,2021-03-22,21.3,21.54,20.31,20.98,21.64,2429206.0,50610656.0,1311153680.82,1711976580.8200002
sz002921,联诚精密,2021-03-23,20.99,21.03,20.65,20.77,20.98,1225200.0,25528928.0,1298029644.93,1694840494.93
sz002921,联诚精密,2021-03-24,20.7,21.09,20.42,20.79,20.77,1269441.0,26471691.0,1299279553.11,1696472503.11
sz002921,联诚精密,2021-03-25,20.57,20.73,20.01,20.21,20.79,884200.0,17961770.0,1263032215.89,1649144265.89
sz002921,联诚精密,2021-03-26,20.2,20.66,20.04,20.41,20.21,643210.0,13014538.0,1275531297.69,1665464347.69
sz002921,联诚精密,2021-03-29,20.44,20.84,20.37,20.43,20.41,662743.0,13637553.0,1276781205.87,1667096355.87
sz002921,联诚精密,2021-03-30,20.27,20.28,19.71,19.76,20.43,1055674.0,21023870.0,1234909281.8400002,1612424081.84
sz002921,联诚精密,2021-03-31,20.0,20.0,19.8,19.99,19.76,491719.0,9786819.0,1249283225.91,1631192175.9099998
sz002921,联诚精密,2021-04-01,19.79,20.0,19.63,19.82,19.99,837019.0,16604635.0,1238659006.38,1617320106.38
sz002921,联诚精密,2021-04-02,19.9,19.94,19.64,19.87,19.82,541219.0,10721925.0,1241784591.5,1621400941.5
sz002921,联诚精密,2021-04-06,19.93,20.18,19.84,20.14,19.87,618600.0,12366469.0,1258658363.0,1643433063.0
sz002921,联诚精密,2021-04-07,20.13,20.2,19.8,20.01,20.14,545700.0,10884020.0,1250533954.5,1632825004.5
sz002921,联诚精密,2021-04-08,19.99,20.6,19.81,20.44,20.01,1150773.0,23144155.0,1277406998.0,1667913198.0
sz002921,联诚精密,2021-04-09,20.26,20.58,20.12,20.16,20.44,1377800.0,28043526.0,1259908272.0,1645065072.0
sz002921,联诚精密,2021-04-12,20.15,20.16,19.12,19.23,20.16,1271655.0,24811495.0,1201787503.5,1569176653.5
sz002921,联诚精密,2021-04-13,19.23,19.45,19.16,19.29,19.23,351000.0,6771251.0,1205537230.5,1574072680.5000002
sz002921,联诚精密,2021-04-14,19.29,19.81,19.19,19.75,19.29,690618.0,13508785.0,1234285137.5,1611608887.5000002
sz002921,联诚精密,2021-04-15,19.97,20.89,19.85,20.72,19.75,2115502.0,43209956.0,1294905724.0,1690761324.0
sz002921,联诚精密,2021-04-16,20.76,21.27,20.51,21.19,20.72,1621451.0,34135166.0,1324278585.5,1729113535.5
sz002921,联诚精密,2021-04-19,21.29,21.67,21.04,21.57,21.19,1608823.0,34428776.0,1348026856.5,1760121706.4999998
sz002921,联诚精密,2021-04-20,21.57,21.96,21.45,21.81,21.57,1333900.0,29071220.0,1363025764.5,1779705814.5
sz002921,联诚精密,2021-04-21,21.82,22.45,21.56,22.14,21.81,1986400.0,43875221.0,1383649263.0,1806633963.0
sz002921,联诚精密,2021-04-22,22.29,22.48,21.81,21.86,22.14,1261100.0,27815117.0,1366150537.0,1783785837.0
sz002921,联诚精密,2021-04-23,21.88,21.99,21.53,21.57,21.86,1127050.0,24451011.0,1348026856.5,1760121706.4999998
sz002921,联诚精密,2021-04-26,21.57,22.28,21.46,21.89,21.57,1334633.0,29314557.0,1368025400.5,1786233850.5
sz002921,联诚精密,2021-04-27,21.94,22.26,21.41,21.89,21.89,1008000.0,21876767.0,1368025400.5,1786233850.5
sz002921,联诚精密,2021-04-28,22.16,22.16,21.61,21.72,21.89,786700.0,17168165.0,1357401174.0,1772361773.9999998
sz002921,联诚精密,2021-04-29,21.79,22.12,21.51,21.56,21.72,860758.0,18804990.0,1347401902.0,1759305701.9999998
sz002921,联诚精密,2021-04-30,21.56,21.83,21.21,21.55,21.56,718700.0,15472204.0,1346776947.5,1758489697.5
sz002921,联诚精密,2021-05-06,21.56,21.77,21.13,21.26,21.55,685700.0,14576709.0,1328653267.0,1734825566.9999998
sz002921,联诚精密,2021-05-07,21.26,21.54,20.88,21.48,21.26,716007.0,15233905.0,1342402266.0,1752777666.0
sz002921,联诚精密,2021-05-10,21.45,21.45,20.31,20.35,21.48,1643679.0,33802179.0,1271782407.5,1660569157.4999998
sz002921,联诚精密,2021-05-11,15.5,15.73,15.3,15.43,15.35,1498490.0,23238191.0,1253596046.39,1636823164.24
sz002921,联诚精密,2021-05-12,15.46,15.78,15.09,15.69,15.43,1374845.0,21260886.0,1274719505.37,1664404111.92
sz002921,联诚精密,2021-05-13,15.5,15.83,15.5,15.58,15.69,817510.0,12816773.0,1265782657.34,1652735249.44
sz002921,联诚精密,2021-05-14,15.86,16.99,15.62,16.88,15.58,3185449.0,52595151.0,1371399952.2400002,1790639987.84
sz002921,联诚精密,2021-05-17,17.08,17.1,16.02,16.24,16.88,2708880.0,44225094.0,1319403745.52,1722748424.32
sz002921,联诚精密,2021-05-18,16.11,16.11,15.5,15.64,16.24,2195432.0,34491163.0,1270657301.72,1659100083.52
sz002921,联诚精密,2021-05-19,15.56,16.36,15.53,15.91,15.64,1824813.0,29237746.0,1292593201.43,1687741836.88
sz002921,联诚精密,2021-05-20,15.91,16.12,15.65,15.7,15.91,1410050.0,22304879.0,1275531946.1,1665464917.6
sz002921,联诚精密,2021-05-21,15.7,15.92,15.62,15.63,15.7,785200.0,12372023.0,1269844860.99,1658039277.84
sz002921,联诚精密,2021-05-24,15.71,15.71,15.4,15.46,15.63,1079240.0,16722903.0,1256033368.58,1640005581.28
sz002921,联诚精密,2021-05-25,15.46,15.6,15.36,15.58,15.46,783800.0,12138593.0,1265782657.34,1652735249.44
sz002921,联诚精密,2021-05-26,15.6,15.76,15.55,15.73,15.58,734180.0,11510091.0,1277969268.29,1668647334.64
sz002921,联诚精密,2021-05-27,15.8,15.9,15.71,15.87,15.73,711160.0,11260866.0,1289345660.31,1683500835.96
sz002921,联诚精密,2021-05-28,15.87,15.87,15.66,15.67,15.87,817910.0,12859609.0,1273096817.71,1662284694.36
sz002921,联诚精密,2021-05-31,15.78,15.78,15.33,15.46,15.67,1190680.0,18413536.0,1256035532.98,1640007745.6799998
sz002921,联诚精密,2021-06-01,15.54,16.29,15.44,16.14,15.46,2051734.0,32772800.0,1311281597.82,1712142627.12
sz002921,联诚精密,2021-06-02,16.2,16.31,15.84,15.86,16.14,1265460.0,20294017.0,1288533218.18,1682440028.88
sz002921,联诚精密,2021-06-03,15.86,16.07,15.75,15.87,15.86,823300.0,13099524.0,1289345660.31,1683500835.96
sz002921,联诚精密,2021-06-04,15.92,16.22,15.85,16.18,15.87,1309160.0,21047349.0,1314531366.34,1716385855.44
sz002921,联诚精密,2021-06-07,16.28,16.68,16.12,16.49,16.18,2100919.0,34557979.0,1339717072.37,1749270874.9199998
sz002921,联诚精密,2021-06-08,16.48,16.48,16.01,16.09,16.49,1460834.0,23533646.0,1307219387.17,1706838591.72
sz002921,联诚精密,2021-06-09,16.09,16.24,15.92,16.22,16.09,914145.0,14748817.0,1317781134.86,1720629083.76
sz002921,联诚精密,2021-06-10,16.16,16.17,15.73,15.84,16.22,2072820.0,32900305.0,1296071773.92,1680318414.72
sz002921,联诚精密,2021-06-11,15.86,16.47,15.84,15.86,15.84,1491210.0,23975804.0,1297708228.18,1682440028.88
sz002921,联诚精密,2021-06-15,15.81,15.97,15.3,15.74,15.86,1490677.0,23270252.0,1287889502.62,1669710343.92
sz002921,联诚精密,2021-06-16,15.57,15.99,15.34,15.47,15.74,943820.0,14673918.0,1265797370.11,1641068552.76
sz002921,联诚精密,2021-06-17,15.39,15.6,15.33,15.36,15.47,762630.0,11772305.0,1256796871.68,1629399674.88
sz002921,联诚精密,2021-06-18,15.36,15.53,15.2,15.5,15.36,704550.0,10849098.0,1268252051.5,1644250974.0
sz002921,联诚精密,2021-06-21,15.42,15.96,15.4,15.81,15.5,1057660.0,16595293.0,1293617092.53,1677135993.4799998
sz002921,联诚精密,2021-06-22,15.85,16.08,15.62,16.01,15.81,1216690.0,19338537.0,1309981635.13,1698352135.08
sz002921,联诚精密,2021-06-23,16.12,16.12,15.81,15.92,16.01,683510.0,10853737.0,1302617590.96,1688804871.36
sz002921,联诚精密,2021-06-24,15.92,15.92,15.68,15.76,15.92,590760.0,9304022.0,1289525956.88,1671831958.08
sz002921,联诚精密,2021-06-25,15.76,15.96,15.51,15.79,15.76,748780.0,11716807.0,1291980638.27,1675014379.32
sz002921,联诚精密,2021-06-28,15.59,15.64,15.51,15.56,15.79,626630.0,9756551.0,1273161414.28,1650615816.48
sz002921,联诚精密,2021-06-29,15.69,15.69,15.35,15.5,15.56,674940.0,10420353.0,1268252051.5,1644250974.0
sz002921,联诚精密,2021-06-30,15.45,15.8,15.32,15.47,15.5,773720.0,11939590.0,1265797370.11,1641068552.76
sz002921,联诚精密,2021-07-01,15.7,15.7,15.19,15.47,15.47,880565.0,13567188.0,1265797370.11,1641068552.76
sz002921,联诚精密,2021-07-02,15.3,15.45,15.18,15.2,15.47,654780.0,9986463.0,1243705237.6,1612426761.6
sz002921,联诚精密,2021-07-05,15.19,15.39,15.15,15.37,15.2,599878.0,9164315.0,1257615098.81,1630460481.9599998
sz002921,联诚精密,2021-07-06,16.18,16.18,15.28,15.53,15.37,1110611.0,17282354.0,1270706732.89,1647433395.24
sz002921,联诚精密,2021-07-07,15.4,15.72,15.3,15.56,15.53,730167.0,11365932.0,1273161414.28,1650615816.48
sz002921,联诚精密,2021-07-08,15.56,15.98,15.46,15.65,15.56,855500.0,13371929.0,1280525458.45,1660163080.2
sz002921,联诚精密,2021-07-09,15.55,15.69,15.45,15.67,15.65,536840.0,8342205.0,1282161912.71,1662284694.36
sz002921,联诚精密,2021-07-12,15.86,15.87,15.63,15.83,15.67,1322330.0,20823877.0,1295253546.79,1679257607.64
sz002921,联诚精密,2021-07-13,15.73,15.84,15.65,15.81,15.83,800270.0,12619998.0,1293617092.53,1677135993.4799998
sz002921,联诚精密,2021-07-14,15.75,15.79,15.52,15.68,15.81,937160.0,14631037.0,1282980139.8400002,1663345501.44
sz002921,联诚精密,2021-07-15,15.61,15.61,15.17,15.27,15.68,1293412.0,19796227.0,1249432827.51,1619852411.1599998
sz002921,联诚精密,2021-07-16,15.25,15.34,15.17,15.2,15.27,581150.0,8849589.0,1243705237.6,1612426761.6
sz002921,联诚精密,2021-07-19,15.17,15.19,14.86,14.89,15.2,951800.0,14201155.0,1218340196.57,1579541742.12
sz002921,联诚精密,2021-07-20,14.84,15.15,14.7,15.09,14.89,823941.0,12278676.0,1234704739.17,1600757883.72
sz002921,联诚精密,2021-07-21,15.0,15.25,14.95,15.2,15.09,676890.0,10232458.0,1243705237.6,1612426761.6
sz002921,联诚精密,2021-07-22,15.15,15.26,15.09,15.17,15.2,454871.0,6901412.0,1241250556.21,1609244340.36
sz002921,联诚精密,2021-07-23,15.25,15.25,14.8,14.95,15.17,919590.0,13769264.0,1223249559.35,1585906584.6
sz002921,联诚精密,2021-07-26,14.9,14.91,14.27,14.35,14.95,1060217.0,15378167.0,1174155931.55,1522258159.8000002
sz002921,联诚精密,2021-07-27,14.4,14.52,14.11,14.11,14.35,473860.0,6799535.0,1154518480.43,1496798789.88
sz002921,联诚精密,2021-07-28,14.13,14.16,13.63,13.67,14.11,868540.0,11986013.0,1118516486.71,1450123278.36
sz002921,联诚精密,2021-07-29,13.8,14.7,13.73,14.36,13.67,1666120.0,23685680.0,1174974158.68,1523318966.88
sz002921,联诚精密,2021-07-30,14.36,14.67,14.13,14.67,14.36,896751.0,12909191.0,1200339199.71,1556203986.36
sz002921,联诚精密,2021-08-02,14.51,15.3,14.51,15.27,14.67,2015073.0,30321888.0,1249432827.51,1619852411.1599998
sz002921,联诚精密,2021-08-03,15.2,15.26,15.02,15.09,15.27,1055590.0,15990619.0,1234704739.17,1600757883.72
sz002921,联诚精密,2021-08-04,15.09,15.24,14.9,15.13,15.09,880140.0,13302196.0,1237977647.69,1605001112.04
sz002921,联诚精密,2021-08-05,15.08,15.14,14.84,15.11,15.13,686300.0,10274366.0,1236341193.43,1602879497.88
sz002921,联诚精密,2021-08-06,15.15,15.35,14.88,15.32,15.11,745976.0,11286087.0,1253523963.16,1625156446.56
sz002921,联诚精密,2021-08-09,15.3,15.34,15.07,15.2,15.32,1326018.0,20071303.0,1243705237.6,1612426761.6
sz002921,联诚精密,2021-08-10,15.23,15.41,15.18,15.39,15.2,1203160.0,18464382.0,1259251553.07,1632582096.12
sz002921,联诚精密,2021-08-11,15.29,15.6,15.27,15.53,15.39,1265876.0,19532832.0,1270706732.89,1647433395.24
sz002921,联诚精密,2021-08-12,15.5,15.6,15.31,15.5,15.53,905626.0,14022658.0,1268252051.5,1644250974.0
sz002921,联诚精密,2021-08-13,15.5,15.72,15.44,15.51,15.5,1191650.0,18534810.0,1269070278.63,1645311781.08
sz002921,联诚精密,2021-08-16,15.52,15.59,15.43,15.52,15.51,941909.0,14619747.0,1269888505.76,1646372588.1599998
sz002921,联诚精密,2021-08-17,15.5,15.63,15.26,15.5,15.52,1060218.0,16420894.0,1268252051.5,1644250974.0
sz002921,联诚精密,2021-08-18,15.49,15.6,15.2,15.38,15.5,984660.0,15091213.0,1258433325.94,1631521289.0400002
sz002921,联诚精密,2021-08-19,15.22,15.35,15.05,15.18,15.38,878770.0,13312995.0,1242068783.34,1610305147.4399998
sz002921,联诚精密,2021-08-20,15.15,15.16,14.68,14.78,15.18,1086850.0,16079255.0,1209339698.14,1567872864.24
sz002921,联诚精密,2021-08-23,14.78,15.53,14.75,15.37,14.78,2204060.0,33806278.0,1257615098.81,1630460481.9599998
sz002921,联诚精密,2021-08-24,15.42,16.16,15.35,15.94,15.37,3200887.0,50691657.0,1304254045.22,1690926485.52
sz002921,联诚精密,2021-08-25,15.83,15.89,15.6,15.75,15.94,1683905.0,26478933.0,1288605354.75,1670771151.0
sz002921,联诚精密,2021-08-26,15.61,15.78,15.57,15.62,15.75,1041038.0,16292467.0,1277969247.06,1656980658.9599998
sz002921,联诚精密,2021-08-27,15.49,15.86,15.48,15.81,15.62,1170980.0,18366236.0,1293514327.53,1677135993.4799998
sz002921,联诚精密,2021-08-30,15.81,16.36,15.71,16.25,15.81,2845370.0,45834319.0,1329513461.25,1723811505.0
sz002921,联诚精密,2021-08-31,16.19,16.36,15.91,16.18,16.25,1798700.0,28947984.0,1323786326.3400002,1716385855.44
sz002921,联诚精密,2021-09-01,16.2,16.35,15.73,15.85,16.18,1669450.0,26633015.0,1296786976.05,1681379221.8
sz002921,联诚精密,2021-09-02,15.94,16.12,15.73,16.03,15.85,1154660.0,18402095.0,1311513894.39,1700473749.24
sz002921,联诚精密,2021-09-03,16.04,16.88,16.03,16.68,16.03,3735850.0,61965941.0,1364694432.8400002,1769426209.44
sz002921,联诚精密,2021-09-06,16.67,16.85,16.48,16.59,16.68,1918910.0,31875003.0,1357330973.67,1759878945.7199998
sz002921,联诚精密,2021-09-07,16.59,16.68,16.43,16.5,16.59,1687235.0,27877487.0,1349967514.5,1750331681.9999998
sz002921,联诚精密,2021-09-08,16.41,16.87,16.34,16.8,16.5,1900570.0,31749681.0,1374512378.4,1782155894.4
sz002921,联诚精密,2021-09-09,16.8,16.99,16.62,16.65,16.8,1755820.0,29390534.0,1362239946.45,1766243788.2
sz002921,联诚精密,2021-09-10,16.65,16.74,16.19,16.39,16.65,1519969.0,24953447.0,1340967731.07,1738662804.12
sz002921,联诚精密,2021-09-13,16.35,16.6,16.26,16.49,16.39,1150240.0,18951389.0,1349149352.37,1749270874.9199998
sz002921,联诚精密,2021-09-14,16.47,16.75,15.97,16.07,16.49,1671392.0,27115007.0,1314786542.91,1704716977.5600002
sz002921,联诚精密,2021-09-15,16.06,16.37,15.9,16.35,16.07,953780.0,15480556.0,1337695082.55,1734419575.8
sz002921,联诚精密,2021-09-16,16.31,16.76,16.1,16.19,16.35,1691753.0,27848724.0,1324604488.47,1717446662.52
sz002921,联诚精密,2021-09-17,16.36,16.6,16.04,16.46,16.19,1372483.0,22447206.0,1346694865.9799998,1746088453.68
sz002921,联诚精密,2021-09-22,16.13,16.92,15.6,16.8,16.46,1889427.0,31103820.0,1374512378.4,1782155894.4
sz002921,联诚精密,2021-09-23,16.82,16.85,16.54,16.66,16.8,1568750.0,26111159.0,1363058108.5800002,1767304595.28
sz002921,联诚精密,2021-09-24,16.68,16.72,16.01,16.05,16.66,1512620.0,24546709.0,1313150218.65,1702595363.4
sz002921,联诚精密,2021-09-27,16.05,16.25,15.25,15.46,16.05,1485033.0,23205569.0,1264878652.98,1640007745.6799998
sz002921,联诚精密,2021-09-28,15.46,15.67,15.31,15.46,15.46,530420.0,8218626.0,1264878652.98,1640007745.6799998
sz002921,联诚精密,2021-09-29,15.31,15.55,15.02,15.03,15.46,760536.0,11552641.0,1229697681.39,1594393041.2399998
sz002921,联诚精密,2021-09-30,15.03,15.2,14.98,15.02,15.03,762338.0,11482691.0,1228879519.26,1593332234.1599998
sz002921,联诚精密,2021-10-08,15.07,15.75,15.07,15.62,15.02,818908.0,12707281.0,1277969247.06,1656980658.9599998
sz002921,联诚精密,2021-10-11,15.62,15.75,15.43,15.58,15.62,594444.0,9234710.0,1274697439.86,1652738271.96
sz002921,联诚精密,2021-10-12,15.6,15.6,14.88,15.11,15.58,840950.0,12689331.0,1236243794.37,1602880313.82
sz002921,联诚精密,2021-10-13,15.1,15.19,14.91,15.09,15.11,434529.0,6542503.0,1234607469.03,1600758698.58
sz002921,联诚精密,2021-10-14,15.08,15.23,14.93,15.16,15.09,322250.0,4864706.0,1240334607.72,1608184351.92
sz002921,联诚精密,2021-10-15,15.16,15.23,15.03,15.03,15.16,552690.0,8366373.0,1229698493.01,1594393852.86
sz002921,联诚精密,2021-10-18,15.05,15.42,15.05,15.27,15.03,588900.0,9001279.0,1249334397.09,1619853235.74
sz002921,联诚精密,2021-10-19,15.41,15.41,15.17,15.36,15.27,498900.0,7632825.0,1256697861.12,1629400504.32
sz002921,联诚精密,2021-10-20,15.38,15.5,15.05,15.21,15.36,551980.0,8408593.0,1244425421.07,1613488390.02
sz002921,联诚精密,2021-10-21,15.13,15.27,14.99,15.01,15.21,546530.0,8264262.0,1228062167.67,1592272237.62
sz002921,联诚精密,2021-10-22,14.95,15.01,14.46,14.46,15.01,985830.0,14447240.0,1183063220.82,1533927818.5199995
sz002921,联诚精密,2021-10-25,14.46,14.53,14.29,14.49,14.46,367540.0,5311194.0,1185517708.8300002,1537110241.38
sz002921,联诚精密,2021-10-26,14.55,14.89,14.48,14.8,14.49,822026.0,12123049.0,1210880751.6,1569995277.6
sz002921,联诚精密,2021-10-27,14.77,14.84,14.26,14.37,14.8,791640.0,11415810.0,1175699756.79,1524380549.94
sz002921,联诚精密,2021-10-28,14.17,14.41,14.01,14.18,14.37,626730.0,8891348.0,1160154666.06,1504225205.1599998
sz002921,联诚精密,2021-10-29,14.18,14.45,13.81,14.33,14.18,744588.0,10496534.0,1172427106.11,1520137319.46
sz002921,联诚精密,2021-11-01,14.38,14.58,14.3,14.57,14.33,560358.0,8106987.0,1192063010.19,1545596702.34
sz002921,联诚精密,2021-11-02,14.56,14.63,14.32,14.36,14.57,531500.0,7692558.0,1174881594.12,1523319742.3200002
sz002921,联诚精密,2021-11-03,14.36,14.59,14.28,14.54,14.36,477650.0,6908955.0,1189608522.18,1542414279.48
sz002921,联诚精密,2021-11-04,14.54,14.73,14.54,14.71,14.54,588560.0,8634162.0,1203517287.57,1560448009.02
sz002921,联诚精密,2021-11-05,14.7,14.74,14.19,14.53,14.71,810520.0,11811562.0,1188790359.51,1541353471.86
sz002921,联诚精密,2021-11-08,14.53,14.68,14.46,14.59,14.53,413360.0,6038147.0,1193699335.53,1547718317.58
sz002921,联诚精密,2021-11-09,14.59,14.77,14.52,14.68,14.59,507070.0,7432273.0,1201062799.56,1557265586.1599998
sz002921,联诚精密,2021-11-10,14.68,14.86,14.62,14.85,14.68,638630.0,9422606.0,1214971564.95,1575299315.6999998
sz002921,联诚精密,2021-11-11,14.86,15.04,14.84,14.93,14.85,672850.0,10064864.0,1221516866.31,1583785776.66
sz002921,联诚精密,2021-11-12,14.93,15.43,14.9,15.36,14.93,1057540.0,16087088.0,1256697861.12,1629400504.32
sz002921,联诚精密,2021-11-15,15.36,15.64,15.07,15.64,15.36,1744728.0,26848554.0,1279606415.88,1659103117.68
sz002921,联诚精密,2021-11-16,15.65,15.75,15.33,15.39,15.64,1623636.0,25048154.0,1259152349.13,1632582927.18
sz002921,联诚精密,2021-11-17,15.43,15.89,15.42,15.79,15.39,1471434.0,23128644.0,1291878855.93,1675015231.98
sz002921,联诚精密,2021-11-18,15.72,15.84,15.57,15.61,15.79,881270.0,13836115.0,1277151927.87,1655920694.82
sz002921,联诚精密,2021-11-19,15.69,15.88,15.4,15.78,15.61,1185283.0,18590301.0,1291060693.26,1673954424.36
sz002921,联诚精密,2021-11-22,15.81,15.94,15.66,15.75,15.78,854360.0,13466797.0,1288606205.25,1670772001.5
sz002921,联诚精密,2021-11-23,15.86,16.16,15.8,16.03,15.75,1272496.0,20339238.0,1311514760.01,1700474614.86
sz002921,联诚精密,2021-11-24,16.14,16.19,15.84,15.94,16.03,835530.0,13317297.0,1304151295.98,1690927346.28
sz002921,联诚精密,2021-11-25,16.0,16.07,15.77,15.88,15.94,774617.0,12357334.0,1299242319.96,1684562500.56
sz002921,联诚精密,2021-11-26,15.89,15.96,15.55,15.75,15.88,1007575.0,15792020.0,1288606205.25,1670772001.5
sz002921,联诚精密,2021-11-29,15.63,15.86,15.5,15.84,15.75,903700.0,14204840.0,1295969669.28,1680319270.08
sz002921,联诚精密,2021-11-30,15.84,16.08,15.84,16.04,15.84,1037820.0,16562280.0,1312332922.6799998,1701535422.48
sz002921,联诚精密,2021-12-01,16.04,16.5,16.0,16.4,16.04,1769983.0,28814920.0,1341786778.8,1739724496.8
sz002921,联诚精密,2021-12-02,16.42,16.7,16.2,16.25,16.4,1794360.0,29516640.0,1329514338.7499998,1723812382.5
sz002921,联诚精密,2021-12-03,16.25,16.76,16.17,16.4,16.25,1329997.0,21902137.0,1341786778.8,1739724496.8
sz002921,联诚精密,2021-12-06,16.47,16.47,15.89,15.99,16.4,1390235.0,22327635.0,1308242109.33,1696231384.3799999
sz002921,联诚精密,2021-12-07,16.03,16.09,15.6,15.68,15.99,902850.0,14223664.0,1282879066.5600002,1663346348.16
sz002921,联诚精密,2021-12-08,15.68,16.01,15.68,15.85,15.68,722873.0,11479160.0,1296787831.95,1681380077.7
sz002921,联诚精密,2021-12-09,15.85,16.31,15.79,16.04,15.85,1203790.0,19388221.0,1312332922.6799998,1701535422.48
sz002921,联诚精密,2021-12-10,16.04,17.16,16.01,16.89,16.04,4027508.0,67337915.0,1381876749.6299999,1791704070.18
sz002921,联诚精密,2021-12-13,17.12,17.9,16.82,17.38,16.89,6662175.0,115979220.0,1421966720.46,1843683643.56
sz002921,联诚精密,2021-12-14,17.38,17.38,16.84,16.95,17.38,3423623.0,58190410.0,1386785725.65,1798068915.9
sz002921,联诚精密,2021-12-15,16.95,17.35,16.87,16.94,16.95,2436885.0,41634504.0,1385967562.98,1797008108.28
sz002921,联诚精密,2021-12-16,17.13,17.45,16.7,17.06,16.94,2390700.0,40458217.0,1395785515.02,1809737799.7199998
sz002921,联诚精密,2021-12-17,17.06,17.17,16.73,16.95,17.06,1577760.0,26721985.0,1386785725.65,1798068915.9
sz002921,联诚精密,2021-12-20,16.95,17.2,16.82,17.04,16.95,1579292.0,26871793.0,1394149189.68,1807616184.48
sz002921,联诚精密,2021-12-21,17.04,17.17,16.84,17.16,17.04,1500117.0,25566899.0,1403967141.72,1820345875.92
sz002921,联诚精密,2021-12-22,17.1,17.39,16.85,17.21,17.16,2252048.0,38602833.0,1408057955.07,1825649914.0200002
sz002921,联诚精密,2021-12-23,17.08,17.32,16.74,16.97,17.21,2013160.0,34267163.0,1388422050.9900002,1800190531.14
sz002921,联诚精密,2021-12-24,16.97,17.09,16.43,16.57,16.97,1769566.0,29534946.0,1355695544.1899998,1757758226.3400002
sz002921,联诚精密,2021-12-27,16.56,16.91,16.28,16.77,16.57,1287340.0,21501972.0,1372058797.59,1778974378.74
sz002921,联诚精密,2021-12-28,16.86,16.87,16.68,16.78,16.77,738276.0,12396240.0,1372876960.26,1780035186.36
sz002921,联诚精密,2021-12-29,16.86,17.04,16.6,16.93,16.78,1192926.0,20104026.0,1385149400.31,1795947300.6599998
sz002921,联诚精密,2021-12-30,16.92,17.35,16.91,17.08,16.93,1571986.0,26975102.0,1397421840.36,1811859414.96
sz002921,联诚精密,2021-12-31,17.08,17.35,17.05,17.08,17.08,1285051.0,22058547.0,1397421840.36,1811859414.96
sz002921,联诚精密,2022-01-04,17.1,18.79,17.08,18.79,17.08,5587352.0,101797422.0,1537327656.9299998,1993257517.98
sz002921,联诚精密,2022-01-05,20.39,20.6,18.4,19.5,18.79,10799622.0,211367568.0,1595418259.5,2068575912.0
sz002921,联诚精密,2022-01-06,18.88,19.6,18.6,19.21,19.5,5487490.0,104597613.0,1571691526.4099998,2037812475.3600001
sz002921,联诚精密,2022-01-07,19.21,19.31,17.8,17.86,19.21,5486122.0,100698266.0,1461239493.06,1894603373.76
sz002921,联诚精密,2022-01-10,17.86,18.22,17.5,18.22,17.86,2933776.0,52810128.0,1490693368.62,1932792467.52
sz002921,联诚精密,2022-01-11,18.12,18.38,17.98,18.18,18.22,1925280.0,34899445.0,1487420715.78,1928549234.88
sz002921,联诚精密,2022-01-12,18.18,20.0,18.13,20.0,18.18,5819126.0,112781745.0,1636326420.0,2121616320.0000002
sz002921,联诚精密,2022-01-13,20.29,20.29,19.42,20.03,20.0,7354824.0,146769775.0,1638780909.6299999,2124798744.4799998
sz002921,联诚精密,2022-01-14,20.03,20.11,19.2,19.41,20.03,4493288.0,87547899.0,1588054790.61,2059028638.5600002
