数据由邢不行整理
股票代码,股票名称,交易日期,开盘价,最高价,最低价,收盘价,前收盘价,成交量,成交额,流通市值,总市值
sz002982,N湘佳,2020-04-24,35.56,42.67,35.56,42.67,29.63,205873.0,8757229.0,1093632100.0,4347219600.0
sz002982,湘佳股份,2020-04-27,46.94,46.94,46.94,46.94,42.67,126765.0,5950349.0,1203072200.0,4782247200.0
sz002982,湘佳股份,2020-04-28,51.63,51.63,49.68,51.63,46.94,3660718.0,188567423.0,1323276900.0,5260064400.0
sz002982,湘佳股份,2020-04-29,56.79,56.79,56.79,56.79,51.63,316135.0,17953306.0,1455527700.0,5785765200.0
sz002982,湘佳股份,2020-04-30,62.47,62.47,62.47,62.47,56.79,1324704.0,82754258.0,1601106100.0,6364443600.0
sz002982,湘佳股份,2020-05-06,64.0,66.66,59.0,64.55,62.47,15952345.0,988057852.0,1654416500.0,6576354000.0
sz002982,湘佳股份,2020-05-07,61.01,71.01,61.0,71.01,64.55,11893219.0,778921051.0,1819986300.0,7234498800.0
sz002982,湘佳股份,2020-05-08,70.8,78.11,68.0,78.11,71.01,16006061.0,1168689859.0,2001959300.0,7957846800.0
sz002982,湘佳股份,2020-05-11,80.68,85.92,78.21,78.33,78.11,12979343.0,1081284091.0,2007597900.0,7980260400.0
sz002982,湘佳股份,2020-05-12,77.0,84.52,74.62,81.95,78.33,11498745.0,911659748.0,2100378500.0,8349066000.0
sz002982,湘佳股份,2020-05-13,81.0,85.69,80.99,81.03,81.95,10235829.0,850330858.0,2076798900.0,8255336400.0
sz002982,湘佳股份,2020-05-14,85.01,89.13,85.01,89.13,81.03,10703131.0,936778683.0,2284401900.0,9080564400.0
sz002982,湘佳股份,2020-05-15,88.0,98.04,86.16,98.04,89.13,7027965.0,654033296.0,2512765200.0,9988315200.0
sz002982,湘佳股份,2020-05-18,107.68,107.84,102.6,104.8,98.04,7835137.0,833232961.0,2686024000.0,10677024000.0
sz002982,湘佳股份,2020-05-19,109.0,113.2,103.19,107.18,104.8,8463030.0,915435714.0,2747023400.0,10919498400.0
sz002982,湘佳股份,2020-05-20,104.14,109.69,100.01,101.97,107.18,7320746.0,761667344.0,2613491100.0,10388703600.0
sz002982,湘佳股份,2020-05-21,100.6,109.2,100.55,108.0,101.97,7166492.0,762236079.0,2768040000.0,11003040000.0
sz002982,湘佳股份,2020-05-22,107.02,109.97,102.69,104.01,108.0,5438173.0,573861343.0,2665776300.0,10596538800.0
sz002982,湘佳股份,2020-05-25,102.2,109.5,98.28,105.6,104.01,5700940.0,597027402.0,2706528000.0,10758528000.0
sz002982,湘佳股份,2020-05-26,105.91,116.16,103.8,116.16,105.6,6367857.0,717104984.0,2977180800.0,11834380800.0
sz002982,湘佳股份,2020-05-27,116.56,121.9,113.5,116.43,116.16,6555646.0,766407970.0,2984100900.0,11861888400.0
sz002982,湘佳股份,2020-05-28,113.7,116.65,112.49,114.1,116.43,3629451.0,414157554.0,2924383000.0,11624508000.0
sz002982,湘佳股份,2020-05-29,113.47,115.88,106.98,107.0,114.1,5557616.0,614604357.0,2742410000.0,10901160000.0
sz002982,湘佳股份,2020-06-01,104.6,111.73,101.65,108.2,107.0,5396182.0,575066443.0,2773166000.0,11023416000.0
sz002982,湘佳股份,2020-06-02,107.01,112.39,105.0,107.5,108.2,3712348.0,402875371.0,2755225000.0,10952100000.0
sz002982,湘佳股份,2020-06-03,108.2,118.25,105.73,118.25,107.5,5396913.0,609237758.0,3030747500.0,12047310000.0
sz002982,湘佳股份,2020-06-04,117.0,119.49,112.71,116.17,118.25,3749859.0,435360532.0,2977437100.0,11835399600.0
sz002982,湘佳股份,2020-06-05,115.03,117.25,112.7,115.0,116.17,2831888.0,324984585.0,2947450000.0,11716200000.0
sz002982,湘佳股份,2020-06-08,115.08,116.08,105.79,108.01,115.0,4092127.0,447418823.0,2768296300.0,11004058800.0
sz002982,湘佳股份,2020-06-09,107.32,107.4,99.96,105.5,108.01,4583659.0,470206580.0,2703965000.0,10748340000.0
sz002982,湘佳股份,2020-06-10,104.0,106.94,103.22,104.43,105.5,2712700.0,283955770.0,2676540900.0,10639328400.0
sz002982,湘佳股份,2020-06-11,103.5,105.32,102.23,102.89,104.43,2046594.0,211353232.0,2637070700.0,10482433200.0
sz002982,湘佳股份,2020-06-12,100.49,104.99,100.02,103.8,102.89,2541885.0,263338418.0,2660394000.0,10575144000.0
sz002982,湘佳股份,2020-06-15,104.0,114.18,104.0,110.8,103.8,5964573.0,672047308.0,2839804000.0,11288304000.0
sz002982,湘佳股份,2020-06-16,109.02,109.02,105.18,106.69,110.8,4134065.0,441221554.0,2734464699.9999995,10869577200.0
sz002982,湘佳股份,2020-06-17,106.0,108.69,105.18,107.99,106.69,2078097.0,222061942.0,2767783700.0,11002021200.000002
sz002982,湘佳股份,2020-06-18,106.79,108.18,104.22,104.4,107.99,2067000.0,218545880.0,2675772000.0,10636272000.0
sz002982,湘佳股份,2020-06-19,104.0,106.2,102.62,105.16,104.4,1519552.0,159300799.0,2695250800.0,10713700800.0
sz002982,湘佳股份,2020-06-22,107.02,109.15,103.36,106.1,105.16,2318898.0,244371378.0,2719343000.0,10809468000.0
sz002982,湘佳股份,2020-06-23,104.7,106.58,103.5,104.9,106.1,1875612.0,196768617.0,2688587000.0,10687212000.0
sz002982,湘佳股份,2020-06-24,104.6,105.47,101.45,102.16,104.9,1964681.0,202251757.0,2618360800.0,10408060800.0
sz002982,湘佳股份,2020-06-29,100.99,102.88,100.39,101.5,102.16,1261423.0,127953809.0,2601445000.0,10340820000.0
sz002982,湘佳股份,2020-06-30,101.77,103.8,100.71,103.11,101.5,1810442.0,185277697.0,2642709300.0,10504846800.0
sz002982,湘佳股份,2020-07-01,102.52,103.55,101.19,102.9,103.11,1618498.0,165992300.0,2637327000.0,10483452000.0
sz002982,湘佳股份,2020-07-02,102.28,102.3,100.36,100.53,102.9,1903831.0,191886735.0,2576583900.0,10241996400.0
sz002982,湘佳股份,2020-07-03,99.53,99.54,95.4,96.8,100.53,2414113.0,235293992.0,2480984000.0,9861984000.0
sz002982,湘佳股份,2020-07-06,99.75,106.15,99.74,103.0,96.8,3787279.0,391004063.0,2639890000.0,10493640000.0
sz002982,湘佳股份,2020-07-07,104.0,112.0,101.6,107.86,103.0,2795824.0,298111035.0,2764451800.0,10988776800.0
sz002982,湘佳股份,2020-07-08,108.01,118.38,108.0,118.35,107.86,3549619.0,405678661.0,3033310500.0,12057498000.0
sz002982,湘佳股份,2020-07-09,119.2,123.49,117.2,121.99,118.35,3558822.0,426388358.0,3126603700.0,12428341200.000002
sz002982,湘佳股份,2020-07-10,119.05,119.05,111.5,111.8,121.79,4668330.0,532773577.0,2865434000.0,11390184000.0
sz002982,湘佳股份,2020-07-13,112.0,116.52,109.21,116.5,111.8,3272732.0,372943235.0,2985895000.0,11869020000.0
sz002982,湘佳股份,2020-07-14,116.5,116.6,109.7,112.45,116.5,2266140.0,255969653.0,2882093500.0,11456406000.0
sz002982,湘佳股份,2020-07-15,112.64,118.0,111.17,114.9,112.45,2736614.0,314215233.0,2944887000.0,11706012000.0
sz002982,湘佳股份,2020-07-16,114.8,114.89,103.41,103.41,114.9,2824572.0,304503038.0,2650398300.0,10535410800.0
sz002982,湘佳股份,2020-07-17,101.0,104.41,100.11,103.38,103.41,1589071.0,162685583.0,2649629400.0,10532354400.0
sz002982,湘佳股份,2020-07-20,103.65,105.2,102.34,104.58,103.38,960987.0,99737973.0,2680385400.0,10654610400.0
sz002982,湘佳股份,2020-07-21,105.64,106.2,102.66,103.61,104.58,1066215.0,110832638.0,2655524300.0,10555786800.0
sz002982,湘佳股份,2020-07-22,103.51,104.54,101.95,103.65,103.61,1095273.0,113299534.0,2656549500.0,10559862000.0
sz002982,湘佳股份,2020-07-23,102.1,103.3,99.12,102.17,103.65,1553263.0,156967295.0,2618617100.0,10409079600.0
sz002982,湘佳股份,2020-07-24,102.13,105.2,98.92,100.05,102.17,1835753.0,187293654.0,2564281500.0,10193094000.0
sz002982,湘佳股份,2020-07-27,100.0,101.59,95.0,100.98,100.05,1415956.0,140488252.0,2588117400.0,10287842400.0
sz002982,湘佳股份,2020-07-28,100.9,103.95,100.35,103.5,100.98,1445411.0,148669946.0,2652705000.0,10544580000.0
sz002982,湘佳股份,2020-07-29,103.35,103.57,101.25,103.57,103.5,1314137.0,134657029.0,2654499099.9999995,10551711600.0
sz002982,湘佳股份,2020-07-30,103.22,106.58,102.6,103.8,103.57,1759379.0,184418692.0,2660394000.0,10575144000.0
sz002982,湘佳股份,2020-07-31,102.4,113.8,98.92,110.0,103.8,3201932.0,341274355.0,2819300000.0,11206800000.0
sz002982,湘佳股份,2020-08-03,111.15,112.79,109.11,111.5,110.0,2140241.0,238175386.0,2857745000.0,11359620000.0
sz002982,湘佳股份,2020-08-04,111.8,117.01,110.2,111.64,111.5,2541951.0,290025805.0,2861333200.0,11373883200.0
sz002982,湘佳股份,2020-08-05,110.0,115.3,107.59,114.5,111.64,2396128.0,269073906.0,2934635000.0,11665260000.0
sz002982,湘佳股份,2020-08-06,114.9,119.89,113.01,115.6,114.5,3050207.0,357233010.0,2962828000.0,11777328000.0
sz002982,湘佳股份,2020-08-07,114.89,114.89,108.09,111.46,115.6,2380358.0,265752669.0,2856719800.0,11355544800.0
sz002982,湘佳股份,2020-08-10,110.05,112.2,108.0,110.5,111.46,1072023.0,117964882.0,2832115000.0,11257740000.0
sz002982,湘佳股份,2020-08-11,110.9,115.38,110.05,111.19,110.5,1993449.0,225451364.0,2849799699.9999995,11328037200.0
sz002982,湘佳股份,2020-08-12,110.0,113.48,108.75,110.7,111.19,1542900.0,171199578.0,2837241000.0,11278116000.0
sz002982,湘佳股份,2020-08-13,110.5,119.0,110.42,117.0,110.7,2862119.0,331439777.0,2998710000.0,11919960000.0
sz002982,湘佳股份,2020-08-14,115.2,118.89,112.2,115.87,117.0,2348993.0,270182096.0,2969748100.0,11804835600.0
sz002982,湘佳股份,2020-08-17,117.0,118.87,114.33,116.99,115.87,1716898.0,199172996.0,2998453700.0,11918941200.000002
sz002982,湘佳股份,2020-08-18,117.8,124.88,115.5,123.0,116.99,3283171.0,394167595.0,3152490000.0,12531240000.0
sz002982,湘佳股份,2020-08-19,121.6,135.0,121.15,124.79,123.0,4309279.0,549281578.0,3198367700.0,12713605200.0
sz002982,湘佳股份,2020-08-20,125.99,135.3,123.32,131.93,124.79,4453885.0,580368839.0,3381365900.0000005,13441028400.0
sz002982,湘佳股份,2020-08-21,130.69,133.99,128.0,130.56,131.93,2692648.0,352162863.0,3346252800.0000005,13301452800.0
sz002982,湘佳股份,2020-08-24,129.0,142.96,128.51,142.95,130.56,3642063.0,501382218.0,3663808500.0,14563746000.0
sz002982,湘佳股份,2020-08-25,140.12,148.2,139.1,140.21,142.95,2850837.0,405450542.0,3593582300.0,14284594800.0
sz002982,湘佳股份,2020-08-26,140.25,144.0,126.19,126.19,140.21,3840325.0,513400162.0,3234249699.9999995,12856237200.0
sz002982,湘佳股份,2020-08-27,123.53,127.58,118.0,126.0,126.19,2887364.0,355202942.0,3229380000.0,12836880000.0
sz002982,湘佳股份,2020-08-28,124.0,126.0,121.68,124.86,126.0,1963904.0,243540652.0,3200161800.0,12720736800.0
sz002982,湘佳股份,2020-08-31,124.77,127.99,122.58,122.89,124.86,1155770.0,144288951.0,3149670700.0,12520033200.0
sz002982,湘佳股份,2020-09-01,122.3,123.98,118.28,120.81,122.89,1318463.0,158578280.0,3096360300.0000005,12308122800.0
sz002982,湘佳股份,2020-09-02,121.61,128.18,121.03,127.98,120.81,2077093.0,262086109.0,3280127400.0,13038602400.0
sz002982,湘佳股份,2020-09-03,127.0,133.58,124.3,132.0,127.98,1854377.0,239713873.0,3383160000.0,13448160000.0
sz002982,湘佳股份,2020-09-04,129.01,131.48,125.11,126.18,132.0,1145700.0,146239646.0,3233993400.0000005,12855218400.0
sz002982,湘佳股份,2020-09-07,126.11,127.19,120.52,121.0,126.18,1005263.0,124323475.0,3101230000.0,12327480000.0
sz002982,湘佳股份,2020-09-08,120.91,124.78,115.5,119.5,121.0,1229961.0,147904149.0,3062785000.0,12174660000.0
sz002982,湘佳股份,2020-09-09,116.47,116.47,107.55,107.55,119.5,2256064.0,248491031.0,2756506500.0,10957194000.0
sz002982,湘佳股份,2020-09-10,106.18,108.0,100.66,102.5,107.55,2291117.0,237717141.0,2627075000.0,10442700000.0
sz002982,湘佳股份,2020-09-11,101.1,103.28,98.0,102.86,102.5,1726911.0,174166453.0,2636301800.0,10479376800.0
sz002982,湘佳股份,2020-09-14,101.99,106.0,101.46,102.18,102.86,1667057.0,172284239.0,2618873400.0,10410098400.0
sz002982,湘佳股份,2020-09-15,102.06,104.0,100.0,102.86,102.18,1183338.0,120317356.0,2636301800.0,10479376800.0
sz002982,湘佳股份,2020-09-16,102.84,102.86,99.25,100.17,102.86,1201209.0,120645415.0,2567357100.0,10205319600.0
sz002982,湘佳股份,2020-09-17,99.8,100.85,97.2,99.9,100.17,1175021.0,115877951.0,2560437000.0,10177812000.0
sz002982,湘佳股份,2020-09-18,99.99,100.98,98.48,99.7,99.9,911597.0,90567928.0,2555311000.0,10157436000.0
sz002982,湘佳股份,2020-09-21,99.6,99.6,95.6,97.15,99.7,1520976.0,147958280.0,2489954500.0,9897642000.0
sz002982,湘佳股份,2020-09-22,96.01,97.0,91.29,92.81,97.15,1782600.0,167892158.0,2378720300.0,9455482800.0
sz002982,湘佳股份,2020-09-23,92.91,94.18,89.98,93.68,92.81,1617397.0,148174179.0,2401018400.0,9544118400.0
sz002982,湘佳股份,2020-09-24,92.4,92.74,90.3,90.34,93.68,962400.0,87921475.0,2315414200.0,9203839200.0
sz002982,湘佳股份,2020-09-25,91.1,91.87,89.18,89.46,90.34,802750.0,72453487.0,2292859800.0,9114184800.0
sz002982,湘佳股份,2020-09-28,89.53,90.39,85.8,85.98,89.46,923048.0,80334368.0,2203667400.0,8759642400.0
sz002982,湘佳股份,2020-09-29,87.27,88.88,86.57,87.64,85.98,1047900.0,92129027.0,2246213200.0,8928763200.0
sz002982,湘佳股份,2020-09-30,87.94,88.8,87.46,88.01,87.64,771300.0,67876010.0,2255696300.0,8966458800.0
sz002982,湘佳股份,2020-10-09,88.72,90.82,88.72,90.74,88.01,895830.0,80505950.0,2325666200.0,9244591200.0
sz002982,湘佳股份,2020-10-12,90.68,93.3,90.02,93.0,90.74,1214113.0,111850409.0,2383590000.0,9474840000.0
sz002982,湘佳股份,2020-10-13,92.86,93.6,91.5,92.73,93.0,756783.0,69789413.0,2376669900.0,9447332400.0
sz002982,湘佳股份,2020-10-14,92.0,92.6,89.85,90.1,92.73,760212.0,69116936.0,2309263000.0,9179388000.0
sz002982,湘佳股份,2020-10-15,90.1,91.39,89.0,89.79,90.1,520401.0,46931060.0,2301317700.0,9147805200.0
sz002982,湘佳股份,2020-10-16,89.5,92.31,89.2,92.05,89.79,1036740.0,94682868.0,2359241500.0,9378054000.0
sz002982,湘佳股份,2020-10-19,91.32,98.75,91.32,96.22,92.05,2009302.0,193805154.0,2466118600.0,9802893600.0
sz002982,湘佳股份,2020-10-20,95.65,96.98,89.03,92.0,96.22,1853219.0,170846452.0,2357960000.0,9372960000.0
sz002982,湘佳股份,2020-10-21,92.3,93.0,88.08,88.21,92.0,1154500.0,103854854.0,2260822300.0,8986834800.0
sz002982,湘佳股份,2020-10-22,89.73,90.66,88.0,88.18,88.21,865922.0,77104215.0,2260053400.0,8983778400.0
sz002982,湘佳股份,2020-10-23,88.1,90.08,86.2,86.64,88.18,813134.0,71097860.0,2220583200.0,8826883200.0
sz002982,湘佳股份,2020-10-26,84.25,84.25,77.98,77.98,86.64,999262.0,78653877.0,1998627400.0,7944602400.0
sz002982,湘佳股份,2020-10-27,73.4,77.46,73.0,74.7,77.98,3377549.0,253006767.0,1914561000.0,7610436000.0
sz002982,湘佳股份,2020-10-28,75.26,75.99,73.4,73.43,74.7,1504022.0,111501115.0,1882010900.0,7481048400.0
sz002982,湘佳股份,2020-10-29,72.0,73.95,71.5,73.6,73.43,1068643.0,77932991.0,1886368000.0,7498368000.0
sz002982,湘佳股份,2020-10-30,73.6,73.8,70.5,70.53,73.6,1438190.0,103352896.0,1807683900.0,7185596400.0
sz002982,湘佳股份,2020-11-02,69.99,72.16,69.66,71.32,70.53,1104308.0,78466330.0,1827931600.0,7266081600.0
sz002982,湘佳股份,2020-11-03,71.8,72.8,70.71,72.7,71.32,806707.0,58097211.0,1863301000.0,7406676000.0
sz002982,湘佳股份,2020-11-04,72.71,74.45,71.71,72.04,72.7,956623.0,69664073.0,1846385200.0,7339435200.0
sz002982,湘佳股份,2020-11-05,72.04,73.69,71.81,73.19,72.04,827000.0,60298769.0,1875859700.0,7456597200.0
sz002982,湘佳股份,2020-11-06,73.0,73.84,72.01,72.53,73.19,656124.0,47637435.0,1858943900.0,7389356400.0
sz002982,湘佳股份,2020-11-09,72.43,73.99,72.43,73.14,72.53,953633.0,69975331.0,1874578200.0,7451503199.999999
sz002982,湘佳股份,2020-11-10,73.68,75.6,72.76,75.06,73.14,1464736.0,109208453.0,1923787800.0,7647112800.0
sz002982,湘佳股份,2020-11-11,75.0,75.81,70.67,71.57,75.06,1807386.0,130896244.0,1834339100.0,7291551600.0
sz002982,湘佳股份,2020-11-12,71.0,72.0,70.29,70.9,71.57,871158.0,61786755.0,1817167000.0,7223292000.0
sz002982,湘佳股份,2020-11-13,70.54,70.9,68.41,68.68,70.9,1183486.0,81878029.0,1760268400.0,6997118400.0
sz002982,湘佳股份,2020-11-16,69.26,70.46,67.91,69.0,68.68,1653600.0,114290527.0,1768470000.0,7029720000.0
sz002982,湘佳股份,2020-11-17,69.26,69.59,66.71,67.35,69.0,1050600.0,71151457.0,1726180500.0,6861618000.0
sz002982,湘佳股份,2020-11-18,68.18,69.8,67.5,68.11,67.35,955200.0,65450336.0,1745659300.0,6939046800.000001
sz002982,湘佳股份,2020-11-19,68.16,72.85,66.93,71.7,68.11,2040500.0,144384323.0,1837671000.0,7304796000.0
sz002982,湘佳股份,2020-11-20,71.03,73.78,70.08,73.4,71.7,1557800.0,112617737.0,1881242000.0,7477992000.0
sz002982,湘佳股份,2020-11-23,73.61,76.0,71.17,72.85,73.4,1826057.0,133450723.0,1867145500.0,7421958000.0
sz002982,湘佳股份,2020-11-24,72.03,73.45,71.0,72.15,72.85,890924.0,64455629.0,1849204500.0,7350642000.0
sz002982,湘佳股份,2020-11-25,72.6,73.25,69.37,69.63,72.15,1067533.0,75547562.0,1784616900.0,7093904399.999999
sz002982,湘佳股份,2020-11-26,69.65,70.5,68.5,69.45,69.63,711169.0,49340109.0,1780003500.0,7075566000.0
sz002982,湘佳股份,2020-11-27,69.95,72.66,69.58,71.68,69.45,1365776.0,97804151.0,1837158400.0,7302758400.0
sz002982,湘佳股份,2020-11-30,72.02,73.6,70.99,71.03,71.68,1245212.0,89472367.0,1820498900.0,7236536400.0
sz002982,湘佳股份,2020-12-01,70.1,71.49,69.88,71.07,71.03,1056946.0,74693926.0,1821524100.0,7240611600.0
sz002982,湘佳股份,2020-12-02,70.91,72.37,70.71,72.25,71.07,1050711.0,75176806.0,1851767500.0,7360830000.0
sz002982,湘佳股份,2020-12-03,71.96,76.0,70.65,75.95,72.25,2534060.0,187856083.0,1946598500.0,7737786000.0
sz002982,湘佳股份,2020-12-04,75.94,82.69,75.2,81.3,75.95,3796518.0,299931142.0,2083719000.0,8282844000.0
sz002982,湘佳股份,2020-12-07,80.48,87.16,79.21,81.98,81.3,4112360.0,342684089.0,2101147400.0,8352122400.0
sz002982,湘佳股份,2020-12-08,80.51,83.2,80.51,82.11,81.98,2187578.0,179079834.0,2104479300.0,8365366800.000001
sz002982,湘佳股份,2020-12-09,82.05,82.45,77.59,77.59,82.11,2534595.0,201607375.0,1988631700.0,7904869200.0
sz002982,湘佳股份,2020-12-10,76.66,80.65,76.29,78.42,77.59,1600335.0,125371884.0,2009904600.0,7989429600.0
sz002982,湘佳股份,2020-12-11,77.85,81.0,77.21,80.88,78.42,1831469.0,146191013.0,2072954400.0,8240054399.999999
sz002982,湘佳股份,2020-12-14,80.64,86.97,79.28,86.96,80.88,3391001.0,284728021.0,2228784800.0,8859484800.0
sz002982,湘佳股份,2020-12-15,86.9,88.5,85.21,86.09,86.96,2259914.0,196150716.0,2206486700.0,8770849200.0
sz002982,湘佳股份,2020-12-16,86.17,88.6,85.28,88.0,86.09,2017742.0,176269493.0,2255440000.0,8965440000.0
sz002982,湘佳股份,2020-12-17,87.52,88.99,85.62,86.51,88.0,1853202.0,160771000.0,2217251300.0,8813638800.0
sz002982,湘佳股份,2020-12-18,85.79,86.84,82.0,83.0,86.51,1810716.0,151006211.0,2127290000.0,8456040000.0
sz002982,湘佳股份,2020-12-21,83.25,83.88,81.36,82.05,83.0,1387324.0,114444700.0,2102941500.0,8359254000.0
sz002982,湘佳股份,2020-12-22,81.45,82.68,75.9,76.27,82.05,2560966.0,200814800.0,1954800100.0,7770387600.0
sz002982,湘佳股份,2020-12-23,75.25,75.25,68.85,70.78,76.27,3180122.0,225897409.0,1814091400.0,7211066400.0
sz002982,湘佳股份,2020-12-24,69.8,69.8,67.5,67.92,70.78,1872596.0,128314233.0,1740789600.0,6919689600.0
sz002982,湘佳股份,2020-12-25,67.46,70.53,67.08,68.49,67.92,1235920.0,85409020.0,1755398700.0,6977761200.0
sz002982,湘佳股份,2020-12-28,67.43,69.43,65.0,65.19,68.49,1847144.0,123083507.0,1670819700.0,6641557200.0
sz002982,湘佳股份,2020-12-29,65.08,65.78,62.56,64.55,65.19,1282472.0,82273281.0,1654416500.0,6576354000.0
sz002982,湘佳股份,2020-12-30,64.85,64.85,63.0,64.15,64.55,977002.0,62684682.0,1644164500.0,6535602000.0
sz002982,湘佳股份,2020-12-31,64.16,66.35,63.6,65.3,64.15,1183712.0,76844875.0,1673639000.0,6652764000.0
sz002982,湘佳股份,2021-01-04,65.65,71.83,65.56,71.83,65.3,1686930.0,117098371.0,1841002900.0,7318040400.0
sz002982,湘佳股份,2021-01-05,74.01,79.01,73.59,74.38,71.83,3825177.0,290936073.0,1906359400.0,7577834399.999999
sz002982,湘佳股份,2021-01-06,73.5,73.96,70.61,71.46,74.38,2338299.0,167563174.0,1831519800.0,7280344800.0
sz002982,湘佳股份,2021-01-07,72.0,74.68,71.0,72.76,71.46,2091821.0,151895923.0,1864838800.0,7412788800.0
sz002982,湘佳股份,2021-01-08,70.39,71.2,68.9,69.6,72.76,1457252.0,101543786.0,1783848000.0,7090848000.0
sz002982,湘佳股份,2021-01-11,69.61,69.61,64.0,64.83,69.6,1878318.0,123419522.0,1661592900.0,6604880400.0
sz002982,湘佳股份,2021-01-12,64.96,66.76,64.66,66.22,64.83,1060562.0,69900680.0,1697218599.9999998,6746493600.0
sz002982,湘佳股份,2021-01-13,65.91,66.0,63.74,64.91,66.22,1225690.0,79267684.0,1663643299.9999998,6613030800.0
sz002982,湘佳股份,2021-01-14,64.92,64.97,63.11,63.58,64.91,1022135.0,65304186.0,1629555400.0,6477530400.0
sz002982,湘佳股份,2021-01-15,64.4,66.59,64.0,66.23,63.58,1283447.0,84005867.0,1697474900.0,6747512400.0
sz002982,湘佳股份,2021-01-18,66.91,68.24,65.68,66.83,66.23,1047752.0,70072498.0,1712852900.0,6808640400.0
sz002982,湘佳股份,2021-01-19,66.8,67.0,64.6,66.0,66.83,891454.0,58834358.0,1691580000.0,6724080000.0
sz002982,湘佳股份,2021-01-20,66.0,66.57,65.03,66.2,66.0,646258.0,42443049.0,1696706000.0,6744456000.0
sz002982,湘佳股份,2021-01-21,65.9,66.52,65.33,66.4,66.2,1054948.0,69719485.0,1701832000.0,6764832000.0
sz002982,湘佳股份,2021-01-22,66.31,66.31,63.05,63.58,66.4,1561412.0,100057067.0,1629555400.0,6477530400.0
sz002982,湘佳股份,2021-01-25,62.59,62.75,60.01,60.52,63.58,1469710.0,89513909.0,1551127600.0,6165777600.0
sz002982,湘佳股份,2021-01-26,60.89,63.0,60.5,61.41,60.52,1218285.0,75281983.0,1573938299.9999998,6256450800.0
sz002982,湘佳股份,2021-01-27,61.41,61.45,59.94,60.32,61.41,874109.0,52776242.0,1546001600.0,6145401600.0
sz002982,湘佳股份,2021-01-28,59.8,61.35,58.26,60.0,60.32,757467.0,45473993.0,1537800000.0,6112800000.0
sz002982,湘佳股份,2021-01-29,60.36,60.49,57.57,57.7,60.0,1056206.0,62028746.0,1478851000.0,5878476000.0
sz002982,湘佳股份,2021-02-01,57.6,59.3,56.12,58.22,57.7,881147.0,51036958.0,1492178599.9999998,5931453600.0
sz002982,湘佳股份,2021-02-02,58.62,58.94,57.19,57.46,58.22,621870.0,35860235.0,1472699800.0,5854024800.0
sz002982,湘佳股份,2021-02-03,57.45,58.85,56.41,58.24,57.46,1122549.0,64872416.0,1492691200.0,5933491200.0
sz002982,湘佳股份,2021-02-04,57.1,57.7,53.29,55.01,58.24,1410304.0,78045129.0,1409906300.0,5604418800.0
sz002982,湘佳股份,2021-02-05,55.1,56.52,52.9,52.91,55.01,1109500.0,60863244.0,1356083299.9999998,5390470800.0
sz002982,湘佳股份,2021-02-08,52.77,53.92,52.09,53.2,52.91,776321.0,41114404.0,1363516000.0,5420016000.0
sz002982,湘佳股份,2021-02-09,53.11,54.65,52.6,54.45,53.2,837492.0,44943157.0,1395553500.0,5547366000.0
sz002982,湘佳股份,2021-02-10,54.65,59.07,54.29,58.12,54.45,1385668.0,79280027.0,1489615600.0,5921265600.000001
sz002982,湘佳股份,2021-02-18,58.49,59.74,57.5,58.1,58.12,994590.0,58287242.0,1489103000.0,5919228000.0
sz002982,湘佳股份,2021-02-19,58.15,62.6,57.24,62.26,58.1,1597320.0,97146695.0,1595723800.0,6343048800.0
sz002982,湘佳股份,2021-02-22,62.5,68.49,62.5,66.21,62.26,2788006.0,183826827.0,1696962300.0,6745474800.0
sz002982,湘佳股份,2021-02-23,64.63,68.31,64.23,64.4,66.21,1435179.0,93920209.0,1650572000.0,6561072000.0
sz002982,湘佳股份,2021-02-24,63.2,68.41,62.91,65.76,64.4,1740888.0,115488093.0,1685428800.0,6699628800.0
sz002982,湘佳股份,2021-02-25,65.39,66.87,64.01,64.1,65.76,897200.0,57992449.0,1642883000.0,6530508000.0
sz002982,湘佳股份,2021-02-26,62.8,64.45,62.26,62.98,64.1,637203.0,40254077.0,1614177400.0,6416402400.0
sz002982,湘佳股份,2021-03-01,62.5,64.8,62.4,64.65,62.98,821800.0,52290084.0,1656979500.0,6586542000.0
sz002982,湘佳股份,2021-03-02,64.08,64.89,61.8,62.37,64.65,691200.0,43417455.0,1598543100.0,6354255600.000001
sz002982,湘佳股份,2021-03-03,62.0,63.12,61.99,62.68,62.37,458100.0,28714806.0,1606488400.0,6385838400.0
sz002982,湘佳股份,2021-03-04,62.9,62.9,61.21,61.62,62.68,654476.0,40525623.0,1579320600.0,6277845600.000001
sz002982,湘佳股份,2021-03-05,61.02,63.39,60.42,62.68,61.62,759956.0,47056452.0,1606488400.0,6385838400.0
sz002982,湘佳股份,2021-03-08,62.98,65.0,62.01,62.23,62.68,866637.0,55256745.0,1594954900.0,6339992400.0
sz002982,湘佳股份,2021-03-09,61.62,62.75,58.0,60.88,62.23,772000.0,46845089.0,1560354400.0,6202454399.999999
sz002982,湘佳股份,2021-03-10,61.1,61.93,56.91,57.37,60.88,882400.0,51712775.0,1470393100.0,5844855600.000001
sz002982,湘佳股份,2021-03-11,57.39,59.5,55.5,59.06,57.37,608094.0,35225683.0,1513707800.0,6017032800.0
sz002982,湘佳股份,2021-03-12,59.09,59.09,57.26,57.87,59.06,422772.0,24443494.0,1483208100.0,5895795600.000001
sz002982,湘佳股份,2021-03-15,57.87,57.89,55.0,55.87,57.87,657330.0,36894416.0,1431948100.0,5692035600.000001
sz002982,湘佳股份,2021-03-16,53.74,54.9,51.51,54.36,55.87,1571253.0,83017841.0,1393246800.0,5538196800.000001
sz002982,湘佳股份,2021-03-17,55.22,57.58,54.44,57.22,54.36,1084581.0,60864580.0,1466548599.9999998,5829573600.0
sz002982,湘佳股份,2021-03-18,56.98,57.65,55.8,56.32,57.22,750976.0,42524754.0,1443481600.0,5737881600.0
sz002982,湘佳股份,2021-03-19,55.3,57.4,54.67,57.12,56.32,719906.0,40210877.0,1463985600.0,5819385600.000001
sz002982,湘佳股份,2021-03-22,56.68,59.88,56.4,56.93,57.12,888106.0,50961357.0,1459115900.0,5800028400.0
sz002982,湘佳股份,2021-03-23,56.33,57.37,55.7,55.83,56.93,619403.0,34816647.0,1430922900.0,5687960400.0
sz002982,湘佳股份,2021-03-24,54.62,55.64,53.61,53.66,55.83,459090.0,24940269.0,1375305799.9999998,5466880800.0
sz002982,湘佳股份,2021-03-25,52.81,54.44,52.81,53.56,53.66,293485.0,15788509.0,1372742800.0,5456692800.0
sz002982,湘佳股份,2021-03-26,53.57,57.66,53.57,56.89,53.56,1106400.0,62136396.0,1458090700.0,5795953199.999999
sz002982,湘佳股份,2021-03-29,56.9,59.15,56.69,57.15,56.89,944721.0,54437448.0,1464754500.0,5822442000.0
sz002982,湘佳股份,2021-03-30,58.23,58.68,55.43,55.51,57.15,677909.0,38254803.0,1422721300.0,5655358800.0
sz002982,湘佳股份,2021-03-31,55.52,55.54,53.85,53.95,55.51,542100.0,29450841.0,1382738500.0,5496426000.0
sz002982,湘佳股份,2021-04-01,53.95,54.7,53.55,54.46,53.95,401100.0,21722544.0,1395809800.0,5548384800.0
sz002982,湘佳股份,2021-04-02,54.47,54.5,53.21,53.91,54.46,471100.0,25344367.0,1381713299.9999998,5492350800.0
sz002982,湘佳股份,2021-04-06,53.8,54.13,53.1,53.87,53.91,363481.0,19489294.0,1380688100.0,5488275600.000001
sz002982,湘佳股份,2021-04-07,53.86,53.98,52.56,52.99,53.87,791039.0,41921795.0,1358133700.0,5398621200.0
sz002982,湘佳股份,2021-04-08,52.99,53.71,52.7,53.0,52.99,580770.0,30882375.0,1358390000.0,5399640000.0
sz002982,湘佳股份,2021-04-09,52.88,53.17,51.8,53.15,53.0,539913.0,28375913.0,1362234500.0,5414922000.0
sz002982,湘佳股份,2021-04-12,53.1,54.84,51.8,51.89,53.15,1028652.0,54565349.0,1329940700.0,5286553199.999999
sz002982,湘佳股份,2021-04-13,51.9,52.89,50.81,51.76,51.89,891724.0,46088931.0,1326608800.0,5273308800.0
sz002982,湘佳股份,2021-04-14,49.15,51.6,47.15,51.0,51.76,1769654.0,86346862.0,1307130000.0,5195880000.0
sz002982,湘佳股份,2021-04-15,50.19,50.49,48.16,48.25,51.0,797860.0,39106482.0,1236647500.0,4915710000.0
sz002982,湘佳股份,2021-04-16,47.82,48.64,47.8,48.35,48.25,507870.0,24495546.0,1239210500.0,4925898000.0
sz002982,湘佳股份,2021-04-19,48.36,49.2,47.88,49.07,48.35,583596.0,28350756.0,1257664100.0,4999251600.0
sz002982,湘佳股份,2021-04-20,48.7,50.5,48.52,49.56,49.07,696600.0,34592837.0,1270222800.0,5049172800.0
sz002982,湘佳股份,2021-04-21,49.49,49.95,48.51,48.59,49.56,463530.0,22604424.0,1245361700.0,4950349200.0
sz002982,湘佳股份,2021-04-22,48.49,48.79,47.38,47.43,48.59,638624.0,30487980.0,1215630900.0,4832168400.0
sz002982,湘佳股份,2021-04-23,47.25,47.42,45.45,45.9,47.43,884090.0,40698414.0,1176417000.0,4676292000.0
sz002982,湘佳股份,2021-04-26,43.85,46.3,43.85,45.65,45.9,1417870.0,64157148.0,2154109375.0,4650822000.0
sz002982,湘佳股份,2021-04-27,45.31,45.31,44.12,44.33,45.65,866399.0,38651857.0,2045275375.0,4516340400.0
sz002982,湘佳股份,2021-04-28,43.87,46.5,43.38,46.5,44.33,1476968.0,66910596.0,2145393750.0,4737420000.0
sz002982,湘佳股份,2021-04-29,46.49,46.68,45.61,46.36,46.5,624655.0,28847706.0,2138934500.0,4723156800.0
sz002982,湘佳股份,2021-04-30,46.0,46.89,44.74,46.38,46.36,832969.0,38236823.0,2139857250.0,4725194400.0
sz002982,湘佳股份,2021-05-06,46.03,46.03,45.0,45.02,46.38,519218.0,23547176.0,2077110250.0,4586637600.0
sz002982,湘佳股份,2021-05-07,44.82,45.47,44.01,44.01,45.02,507568.0,22604743.0,2030511375.0,4483738800.0
sz002982,湘佳股份,2021-05-10,44.2,44.94,42.51,42.9,44.01,595487.0,25681095.0,1979298750.0,4370652000.0
sz002982,湘佳股份,2021-05-11,42.8,43.9,42.48,43.15,42.9,542900.0,23362413.0,1990833125.0,4396122000.0
sz002982,湘佳股份,2021-05-12,42.99,44.37,42.8,43.75,42.95,567463.0,24801922.0,2018515625.0,4457250000.0
sz002982,湘佳股份,2021-05-13,43.94,44.13,42.71,43.09,43.75,631457.0,27285964.0,1988064875.0,4390009200.0
sz002982,湘佳股份,2021-05-14,43.0,44.37,43.0,44.37,43.09,633390.0,27793346.0,2047120875.0,4520415600.0
sz002982,湘佳股份,2021-05-17,44.91,45.0,43.8,44.39,44.37,596726.0,26501546.0,2048043625.0,4522453200.0
sz002982,湘佳股份,2021-05-18,44.42,44.97,43.9,44.04,44.39,496100.0,21924142.0,2031895500.0,4486795200.0
sz002982,湘佳股份,2021-05-19,43.5,43.9,42.62,42.88,44.04,671600.0,28949737.0,1978376000.0,4368614400.0
sz002982,湘佳股份,2021-05-20,42.85,43.33,42.42,43.14,42.88,601800.0,25783523.0,1990371750.0,4395103200.0
sz002982,湘佳股份,2021-05-21,43.01,44.24,42.63,43.19,43.14,585534.0,25455592.0,1992678625.0,4400197200.0
sz002982,湘佳股份,2021-05-24,43.19,43.71,42.86,42.9,43.19,459733.0,19823044.0,1979298750.0,4370652000.0
sz002982,湘佳股份,2021-05-25,42.84,44.16,42.42,43.95,42.9,755190.0,32795228.0,2027743125.0,4477626000.0
sz002982,湘佳股份,2021-05-26,43.9,45.3,43.57,44.97,43.95,1093561.0,48985017.0,2074803375.0,4581543600.0
sz002982,湘佳股份,2021-05-27,44.82,45.32,44.65,44.98,44.97,579774.0,26078191.0,2075264750.0,4582562400.0
sz002982,湘佳股份,2021-05-28,45.35,45.88,44.1,44.41,44.98,801380.0,36024996.0,2048966375.0,4524490800.0
sz002982,湘佳股份,2021-05-31,44.22,45.0,43.46,44.93,44.41,750900.0,33349749.0,2072957875.0,4577468400.0
sz002982,湘佳股份,2021-06-01,44.86,49.42,44.85,49.42,44.93,2729477.0,131166339.0,2280115250.0,5034909600.0
sz002982,湘佳股份,2021-06-02,49.96,49.96,47.57,47.94,49.42,3393343.0,163871450.0,2211831750.0,4884127200.0
sz002982,湘佳股份,2021-06-03,47.24,49.19,47.24,48.79,47.94,2332544.0,112750934.0,2251048625.0,4970725200.0
sz002982,湘佳股份,2021-06-04,47.99,52.0,47.32,51.0,48.79,2797308.0,140946933.0,2353012500.0,5195880000.0
sz002982,湘佳股份,2021-06-07,50.99,51.96,49.31,51.62,51.0,1831304.0,91706097.0,2381617750.0,5259045600.000001
sz002982,湘佳股份,2021-06-08,51.33,51.55,49.48,49.48,51.62,1215527.0,60801173.0,2282883500.0,5041022400.0
sz002982,湘佳股份,2021-06-09,49.68,49.68,48.15,48.26,49.48,1084458.0,52771776.0,2226595750.0,4916728800.0
sz002982,湘佳股份,2021-06-10,48.27,48.72,47.3,48.0,48.26,1299158.0,62064013.0,2214600000.0,4890240000.0
sz002982,湘佳股份,2021-06-11,47.97,47.99,45.26,45.26,48.0,1638042.0,75781314.0,2088183250.0,4611088800.0
sz002982,湘佳股份,2021-06-15,45.15,45.18,43.0,43.15,45.26,1283059.0,56138081.0,1990833125.0,4396122000.0
sz002982,湘佳股份,2021-06-16,42.9,44.2,42.85,43.13,43.15,796950.0,34666451.0,1989910375.0,4394084400.0
sz002982,湘佳股份,2021-06-17,43.26,43.78,43.0,43.45,43.13,660458.0,28613649.0,2004674375.0,4426686000.0
sz002982,湘佳股份,2021-06-18,43.38,43.38,42.03,42.83,43.45,802535.0,34115053.0,1976069125.0,4363520400.0
sz002982,湘佳股份,2021-06-21,42.53,44.09,42.49,43.69,42.83,716259.0,31057712.0,2015747375.0,4451137200.0
sz002982,湘佳股份,2021-06-22,43.69,44.37,43.35,44.09,43.69,724100.0,31785775.0,2034202375.0,4491889200.0
sz002982,湘佳股份,2021-06-23,44.0,44.46,43.35,43.66,44.09,748280.0,32671568.0,2014363250.0,4448080800.0
sz002982,湘佳股份,2021-06-24,43.49,43.5,42.65,43.0,43.66,640940.0,27475973.0,1983912500.0,4380840000.0
sz002982,湘佳股份,2021-06-25,43.11,43.55,42.66,43.2,43.0,570741.0,24616543.0,1993140000.0,4401216000.0
sz002982,湘佳股份,2021-06-28,44.0,47.08,43.9,45.26,43.2,1946872.0,88627636.0,2088183250.0,4611088800.0
sz002982,湘佳股份,2021-06-29,45.27,45.29,44.05,44.26,45.26,944373.0,42008519.0,2042045750.0,4509208800.0
sz002982,湘佳股份,2021-06-30,44.3,44.58,42.5,42.65,44.26,1504918.0,64869107.0,1967764375.0,4345182000.0
sz002982,湘佳股份,2021-07-01,42.99,43.5,41.88,42.49,42.65,1004195.0,42790931.0,1960382375.0,4328881200.0
sz002982,湘佳股份,2021-07-02,42.27,43.3,41.9,42.0,42.49,666115.0,28192417.0,1937775000.0,4278960000.0
sz002982,湘佳股份,2021-07-05,42.08,42.48,41.12,41.42,42.0,664567.0,27576633.0,1911015250.0,4219869600.0
sz002982,湘佳股份,2021-07-06,41.42,41.97,41.0,41.75,41.42,587602.0,24337942.0,1926240625.0,4253490000.0
sz002982,湘佳股份,2021-07-07,41.49,41.94,41.35,41.8,41.75,396279.0,16484931.0,1928547500.0,4258584000.0
sz002982,湘佳股份,2021-07-08,41.72,41.78,40.33,40.35,41.8,855647.0,34891619.0,1861648125.0,4110858000.0
sz002982,湘佳股份,2021-07-09,40.37,41.88,40.1,41.21,40.35,871133.0,35892400.0,1901326375.0,4198474800.0
sz002982,湘佳股份,2021-07-12,41.26,41.59,40.4,41.4,41.21,602956.0,24749282.0,1910092500.0,4217832000.0
sz002982,湘佳股份,2021-07-13,41.38,42.4,41.08,42.23,41.4,876275.0,36819486.0,1948386625.0,4302392400.0
sz002982,湘佳股份,2021-07-14,41.3,43.16,41.3,42.48,42.23,977206.0,41371218.0,1959921000.0,4327862400.0
sz002982,湘佳股份,2021-07-15,42.29,43.29,41.61,41.99,42.48,729952.0,30901788.0,1937313625.0,4277941200.0
sz002982,湘佳股份,2021-07-16,41.99,42.0,40.81,40.83,41.99,589483.0,24206943.0,1883794125.0,4159760400.0
sz002982,湘佳股份,2021-07-19,40.6,40.9,39.91,40.05,40.83,504502.0,20260072.0,1847806875.0,4080294000.0
sz002982,湘佳股份,2021-07-20,39.88,39.98,38.8,39.0,40.05,798161.0,31237090.0,1799362500.0,3973320000.0
sz002982,湘佳股份,2021-07-21,38.88,39.48,38.88,39.37,39.0,482850.0,18900714.0,1816433375.0,4011015600.0
sz002982,湘佳股份,2021-07-22,39.36,39.69,38.41,38.51,39.37,999834.0,38760679.0,1776755125.0,3923398800.0
sz002982,湘佳股份,2021-07-23,38.51,38.8,37.35,37.38,38.51,744150.0,28042410.0,1724619750.0,3808274400.0
sz002982,湘佳股份,2021-07-26,37.01,37.36,35.74,35.96,37.38,665822.0,24279499.0,1659104500.0,3663604800.0
sz002982,湘佳股份,2021-07-27,36.03,36.24,34.9,35.08,35.96,857442.0,30488416.0,1618503500.0,3573950400.0
sz002982,湘佳股份,2021-07-28,34.95,35.46,33.81,35.23,35.08,1043309.0,35893114.0,1625424125.0,3589232400.0
sz002982,湘佳股份,2021-07-29,35.58,35.91,34.91,34.97,35.23,684786.0,24184077.0,1613428375.0,3562743600.0
sz002982,湘佳股份,2021-07-30,34.6,36.0,34.03,35.96,34.97,682149.0,23933224.0,1659104500.0,3663604800.0
sz002982,湘佳股份,2021-08-02,35.83,37.76,35.21,37.3,35.96,913902.0,33805602.0,1720928750.0,3800124000.0
sz002982,湘佳股份,2021-08-03,37.21,37.81,36.69,36.9,37.3,642878.0,23854365.0,1702473750.0,3759372000.0
sz002982,湘佳股份,2021-08-04,37.2,37.22,36.34,36.75,36.9,419954.0,15377845.0,1695553125.0,3744090000.0
sz002982,湘佳股份,2021-08-05,36.68,37.09,36.22,36.23,36.75,405000.0,14791379.0,1671561625.0,3691112400.0
sz002982,湘佳股份,2021-08-06,36.23,36.55,35.37,36.06,36.23,426391.0,15294806.0,1663718250.0,3673792800.000001
sz002982,湘佳股份,2021-08-09,35.91,39.67,35.58,39.67,36.06,1743905.0,67987002.0,1830274625.0,4041579600.0
sz002982,湘佳股份,2021-08-10,40.02,41.69,38.67,40.52,39.67,2690093.0,108044453.0,1869491500.0,4128177600.0
sz002982,湘佳股份,2021-08-11,40.49,40.5,39.3,39.44,40.52,1373173.0,54655006.0,1819663000.0,4018147200.0
sz002982,湘佳股份,2021-08-12,39.46,40.98,38.68,38.7,39.44,990593.0,39096573.0,1785521250.0,3942756000.0
sz002982,湘佳股份,2021-08-13,38.7,39.8,38.19,39.55,38.7,931762.0,36228883.0,1824738125.0,4029354000.0
sz002982,湘佳股份,2021-08-16,39.0,40.0,38.88,39.0,39.55,765901.0,30131414.0,1799362500.0,3973320000.0
sz002982,湘佳股份,2021-08-17,38.5,39.56,37.58,38.7,39.0,779007.0,30111339.0,1785521250.0,3942756000.0
sz002982,湘佳股份,2021-08-18,38.6,38.89,37.88,38.07,38.7,793784.0,30302558.0,1756454625.0,3878571600.0
sz002982,湘佳股份,2021-08-19,37.82,38.4,37.55,38.13,38.07,724714.0,27628860.0,1759222875.0,3884684400.0
sz002982,湘佳股份,2021-08-20,38.14,38.37,36.76,37.81,38.13,926694.0,34607037.0,1744458875.0,3852082800.000001
sz002982,湘佳股份,2021-08-23,37.6,39.0,37.37,38.73,37.81,1000349.0,38534253.0,1786905375.0,3945812400.0
sz002982,湘佳股份,2021-08-24,38.8,39.18,38.4,38.58,38.73,571593.0,22128261.0,1779984750.0,3930530400.0
sz002982,湘佳股份,2021-08-25,38.5,39.74,38.11,38.88,38.58,849020.0,33250498.0,1793826000.0,3961094400.0
sz002982,湘佳股份,2021-08-26,38.5,38.75,36.83,36.98,38.88,919095.0,34558284.0,1744993750.0,3767522400.0
sz002982,湘佳股份,2021-08-27,36.54,37.07,36.2,36.45,36.98,533959.0,19498684.0,1719984375.0,3713526000.0
sz002982,湘佳股份,2021-08-30,37.29,37.29,35.1,35.3,36.45,678233.0,24219672.0,1665718750.0,3596364000.0
sz002982,湘佳股份,2021-08-31,35.19,36.6,35.19,35.53,35.3,704847.0,25292229.0,1676571875.0,3619796400.0
sz002982,湘佳股份,2021-09-01,35.17,37.08,34.61,36.81,35.53,1095567.0,39351604.0,1736971875.0,3750202800.000001
sz002982,湘佳股份,2021-09-02,37.0,37.19,35.88,36.06,36.81,624259.0,22590774.0,1701581250.0,3673792800.000001
sz002982,湘佳股份,2021-09-03,35.71,36.77,35.67,36.47,36.06,621158.0,22522771.0,1720928125.0,3715563600.0
sz002982,湘佳股份,2021-09-06,36.38,37.53,36.03,37.2,36.47,1174580.0,43427526.0,1755375000.0,3789936000.0
sz002982,湘佳股份,2021-09-07,37.38,37.51,36.55,37.08,37.2,674960.0,24943326.0,1749712500.0,3777710400.0
sz002982,湘佳股份,2021-09-08,37.0,37.49,36.76,37.12,37.08,746406.0,27716253.0,1751600000.0,3781785600.0
sz002982,湘佳股份,2021-09-09,37.13,38.46,36.62,37.23,37.12,945877.0,35544139.0,1756790625.0,3792992400.0
sz002982,湘佳股份,2021-09-10,37.24,37.44,36.56,36.65,37.23,650343.0,23947030.0,1729421875.0,3733902000.0
sz002982,湘佳股份,2021-09-13,36.64,36.72,36.0,36.36,36.65,686708.0,24961659.0,1715737500.0,3704356800.0
sz002982,湘佳股份,2021-09-14,36.41,37.3,35.7,35.84,36.36,704833.0,25564578.0,1691200000.0,3651379200.0
sz002982,湘佳股份,2021-09-15,36.0,36.07,35.3,35.94,35.84,409264.0,14632814.0,1695918750.0,3661567200.0
sz002982,湘佳股份,2021-09-16,35.95,39.24,35.9,37.99,35.94,2650224.0,99815853.0,1792653125.0,3870421200.0
sz002982,湘佳股份,2021-09-17,37.6,37.77,36.37,37.41,37.99,1454721.0,54010689.0,1765284375.0,3811330800.0
sz002982,湘佳股份,2021-09-22,36.55,36.8,36.0,36.15,37.41,742715.0,26973267.0,1705828125.0,3682962000.0
sz002982,湘佳股份,2021-09-23,36.14,36.83,36.07,36.65,36.15,644265.0,23433932.0,1729421875.0,3733902000.0
sz002982,湘佳股份,2021-09-24,36.47,37.64,36.38,37.39,36.65,1101345.0,40985696.0,1764340625.0,3809293200.0
sz002982,湘佳股份,2021-09-27,37.5,40.37,37.5,39.04,37.39,2232219.0,87204779.0,1842200000.0,3977395200.0
sz002982,湘佳股份,2021-09-28,38.7,38.72,37.5,37.99,39.04,1231159.0,46784337.0,1792653125.0,3870421200.0
sz002982,湘佳股份,2021-09-29,37.9,40.29,37.09,39.43,37.99,3143293.0,120678653.0,1860603125.0,4017128400.000001
sz002982,湘佳股份,2021-09-30,39.0,40.1,38.64,39.21,39.43,2222407.0,87901673.0,1850221875.0,3994714800.0
sz002982,湘佳股份,2021-10-08,38.52,41.17,38.2,40.66,39.21,2327510.0,93823662.0,1918643750.0,4142440800.0
sz002982,湘佳股份,2021-10-11,40.93,43.0,39.91,42.91,40.66,3418031.0,142155222.0,2024815625.0,4371670800.0
sz002982,湘佳股份,2021-10-12,42.0,42.89,41.57,42.38,42.91,2173956.0,91775334.0,1999806250.0,4317674400.0
sz002982,湘佳股份,2021-10-13,42.4,42.89,39.95,41.45,42.38,1672417.0,68830875.0,1955921875.0,4222926000.0
sz002982,湘佳股份,2021-10-14,40.61,41.42,40.18,40.77,41.45,1293816.0,52708052.0,1923834375.0,4153647600.0
sz002982,湘佳股份,2021-10-15,39.5,40.65,38.54,38.7,40.77,1866528.0,73751242.0,1826156250.0,3942756000.0
sz002982,湘佳股份,2021-10-18,38.6,39.4,37.36,38.81,38.7,1431908.0,54938953.0,1831346875.0,3953962800.000001
sz002982,湘佳股份,2021-10-19,38.7,41.85,38.67,41.29,38.81,2847202.0,115822945.0,1948371875.0,4206625200.0
sz002982,湘佳股份,2021-10-20,41.0,41.84,40.25,40.58,41.29,1429674.0,58338654.0,1914868750.0,4134290400.0
sz002982,湘佳股份,2021-10-21,40.8,41.24,39.52,40.3,40.58,1079520.0,43550628.0,1901656250.0,4105764000.0
sz002982,湘佳股份,2021-10-22,40.05,41.6,39.65,40.66,40.3,1399464.0,57026803.0,1918643750.0,4142440800.0
sz002982,湘佳股份,2021-10-25,41.71,42.38,39.67,39.81,40.66,1700702.0,68776203.0,1878534375.0,4055842800.000001
sz002982,湘佳股份,2021-10-26,39.13,41.1,39.0,40.17,39.81,1629026.0,65249698.0,1895521875.0,4092519600.0
sz002982,湘佳股份,2021-10-27,39.9,40.75,39.11,39.67,40.17,1309394.0,52199990.0,1871928125.0,4041579600.0
sz002982,湘佳股份,2021-10-28,39.58,40.33,38.88,40.09,39.67,1171420.0,46581988.0,1891746875.0,4084369200.0
sz002982,湘佳股份,2021-10-29,39.86,41.28,39.44,40.96,40.09,1921382.0,78506935.0,1932800000.0,4173004800.0
sz002982,湘佳股份,2021-11-01,40.5,42.6,40.35,42.5,40.96,2245607.0,93971338.0,2005468750.0,4329900000.0
sz002982,湘佳股份,2021-11-02,42.5,42.8,41.5,42.5,42.5,1748361.0,73560503.0,2005468750.0,4329900000.0
sz002982,湘佳股份,2021-11-03,42.3,44.65,41.87,44.55,42.5,3308074.0,144937260.0,2102203125.0,4538754000.0
sz002982,湘佳股份,2021-11-04,44.3,46.5,43.58,44.06,44.55,3788244.0,170182463.0,2079081250.0,4488832800.0
sz002982,湘佳股份,2021-11-05,43.6,45.15,42.3,42.44,44.06,2781308.0,120341960.0,2002637500.0,4323787200.0
sz002982,湘佳股份,2021-11-08,42.36,42.9,41.87,42.12,42.44,1444244.0,60980993.0,1987537500.0,4291185600.0
sz002982,湘佳股份,2021-11-09,42.3,43.21,41.91,42.78,42.12,1256915.0,53759769.0,2018681250.0,4358426400.0
sz002982,湘佳股份,2021-11-10,42.8,43.49,41.0,42.13,42.78,1372222.0,58041639.0,1988009375.0,4292204400.0
sz002982,湘佳股份,2021-11-11,42.39,42.79,41.55,42.04,42.13,1237633.0,52026124.0,1983762500.0,4283035200.0
sz002982,湘佳股份,2021-11-12,42.0,42.6,41.48,41.48,42.04,1250360.0,52421179.0,1957337500.0,4225982400.0
sz002982,湘佳股份,2021-11-15,41.48,42.33,41.22,42.3,41.48,1346518.0,56428032.0,1996031250.0,4309524000.0
sz002982,湘佳股份,2021-11-16,42.35,43.08,42.13,42.55,42.3,1516151.0,64536614.0,2007828125.0,4334994000.0
sz002982,湘佳股份,2021-11-17,42.3,42.4,41.6,42.09,42.55,948632.0,39779935.0,1986121875.0,4288129200.0
sz002982,湘佳股份,2021-11-18,42.09,42.96,41.81,42.54,42.09,1280107.0,54446727.0,2007356250.0,4333975200.0
sz002982,湘佳股份,2021-11-19,42.26,42.64,41.18,41.42,42.54,1488076.0,61916831.0,1954506250.0,4219869600.0
sz002982,湘佳股份,2021-11-22,41.6,41.65,40.12,40.56,41.42,1212181.0,49144145.0,1913925000.0,4132252800.0000005
sz002982,湘佳股份,2021-11-23,40.56,40.9,39.81,39.98,40.56,949433.0,38108063.0,1886556250.0,4073162400.0
sz002982,湘佳股份,2021-11-24,40.03,40.47,39.48,40.19,39.98,1016081.0,40566464.0,1896465625.0,4094557199.9999995
sz002982,湘佳股份,2021-11-25,40.0,40.15,39.62,39.75,40.19,653047.0,25981706.0,1875703125.0,4049730000.0
sz002982,湘佳股份,2021-11-26,39.62,39.75,38.63,38.77,39.75,1002602.0,39176248.0,1829459375.0,3949887600.0
sz002982,湘佳股份,2021-11-29,38.4,39.35,38.0,39.12,38.77,668746.0,25949635.0,1845975000.0,3985545600.0
sz002982,湘佳股份,2021-11-30,39.27,39.36,37.8,38.13,39.12,1026989.0,39461154.0,1799259375.0,3884684400.0
sz002982,湘佳股份,2021-12-01,37.9,38.6,37.57,38.44,38.13,779920.0,29861558.0,1813887500.0,3916267199.9999995
sz002982,湘佳股份,2021-12-02,38.56,40.48,38.51,40.26,38.44,2038324.0,81455906.0,1899768750.0,4101688800.0
sz002982,湘佳股份,2021-12-03,40.66,40.75,39.75,40.16,40.26,982922.0,39407215.0,1895050000.0,4091500800.0
sz002982,湘佳股份,2021-12-06,40.22,44.18,40.21,43.65,40.16,5046323.0,217039793.0,2059734375.0,4447062000.0
sz002982,湘佳股份,2021-12-07,44.24,44.48,42.41,44.33,43.65,3994473.0,174207501.0,2091821875.0,4516340400.0
sz002982,湘佳股份,2021-12-08,44.33,44.44,43.7,43.9,44.33,1705200.0,75125159.0,2071531250.0,4472532000.0
sz002982,湘佳股份,2021-12-09,44.07,45.0,43.79,44.44,43.9,2077773.0,92434446.0,2097012500.0,4527547200.0
sz002982,湘佳股份,2021-12-10,45.33,48.38,44.71,47.6,44.44,4022316.0,189584140.0,2246125000.0,4849488000.0
sz002982,湘佳股份,2021-12-13,47.92,48.0,45.87,46.1,47.6,2700760.0,126248124.0,2175343750.0,4696668000.0
sz002982,湘佳股份,2021-12-14,46.4,46.5,44.55,44.7,46.1,1778200.0,80618283.0,2109281250.0,4554036000.0
sz002982,湘佳股份,2021-12-15,44.98,45.96,44.47,45.05,44.7,1416100.0,64191025.0,2125796875.0,4589694000.0
sz002982,湘佳股份,2021-12-16,45.04,45.77,44.77,45.25,45.05,1187597.0,53794674.0,2135234375.0,4610070000.0
sz002982,湘佳股份,2021-12-17,45.3,45.64,43.8,43.98,45.25,1418500.0,63061993.0,2075306250.0,4480682400.0
sz002982,湘佳股份,2021-12-20,43.97,44.77,42.88,43.0,43.98,1221400.0,53327058.0,2029062500.0,4380840000.0
sz002982,湘佳股份,2021-12-21,43.22,43.52,42.52,43.29,43.0,1471245.0,63228499.0,2042746875.0,4410385200.0
sz002982,湘佳股份,2021-12-22,43.2,44.98,43.2,44.17,43.29,1474841.0,65249830.0,2084271875.0,4500039600.0
sz002982,湘佳股份,2021-12-23,44.21,47.52,44.21,45.18,44.17,2621994.0,120119394.0,2131931250.0,4602938400.0
sz002982,湘佳股份,2021-12-24,45.09,46.41,43.98,45.73,45.18,2244607.0,101616298.0,2157884375.0,4658972400.0
sz002982,湘佳股份,2021-12-27,46.05,46.88,45.68,46.28,45.73,2150328.0,99551657.0,2183837500.0,4715006400.0
sz002982,湘佳股份,2021-12-28,46.3,47.13,45.6,46.51,46.28,1576883.0,73331941.0,2194690625.0,4738438800.0
sz002982,湘佳股份,2021-12-29,46.31,47.47,45.23,45.36,46.51,1757500.0,80849634.0,2140425000.0,4621276800.0
sz002982,湘佳股份,2021-12-30,45.08,46.46,44.9,45.63,45.36,1185430.0,54188672.0,2153165625.0,4648784400.0
sz002982,湘佳股份,2021-12-31,45.58,49.18,45.36,48.79,45.63,2676330.0,128533596.0,2302278125.0,4970725200.0
sz002982,湘佳股份,2022-01-04,48.83,53.64,48.8,52.1,48.79,4742205.0,243033637.0,2458468750.0,5307948000.0
sz002982,湘佳股份,2022-01-05,52.68,54.5,51.31,53.47,52.1,4288213.0,227946479.0,2523115625.0,5447523600.0
sz002982,湘佳股份,2022-01-06,51.9,53.32,50.33,53.01,53.47,3246400.0,168294663.0,2501409375.0,5400658800.0
sz002982,湘佳股份,2022-01-07,53.0,53.38,50.0,50.2,53.01,2177769.0,111851897.0,2368812500.0,5114376000.0
sz002982,湘佳股份,2022-01-10,49.92,55.22,49.92,55.22,50.2,3430462.0,183123921.0,2605693750.0,5625813600.0
sz002982,湘佳股份,2022-01-11,58.99,59.0,52.14,52.52,55.22,4577391.0,250828145.0,2478287500.0,5350737600.0
sz002982,湘佳股份,2022-01-12,51.76,53.65,50.9,52.83,52.52,2414575.0,126206630.0,2492915625.0,5382320400.0
sz002982,湘佳股份,2022-01-13,53.35,55.5,53.0,53.82,52.83,3188921.0,172358454.0,2539631250.0,5483181600.0
sz002982,湘佳股份,2022-01-14,54.0,56.78,52.06,52.67,53.82,3075597.0,167661163.0,2485365625.0,5366019600.0
