数据由邢不行整理
股票代码,股票名称,交易日期,开盘价,最高价,最低价,收盘价,前收盘价,成交量,成交额,流通市值,总市值
sz002956,N西麦,2019-06-19,43.99,52.79,43.99,52.79,36.66,56615.0,2978145.0,1055800000.0,4223200000.0
sz002956,西麦食品,2019-06-20,58.07,58.07,58.07,58.07,52.79,36406.0,2114096.0,1161400000.0,4645600000.0
sz002956,西麦食品,2019-06-21,63.88,63.88,63.88,63.88,58.07,84249.0,5381826.0,1277600000.0,5110400000.0
sz002956,西麦食品,2019-06-24,66.66,70.0,63.0,67.0,63.88,11059660.0,727248742.0,1340000000.0,5360000000.0
sz002956,西麦食品,2019-06-25,64.64,66.2,63.5,64.4,67.0,5810113.0,375260811.0,1288000000.0,5152000000.0
sz002956,西麦食品,2019-06-26,63.8,68.28,63.8,65.86,64.4,6291727.0,417509799.0,1317200000.0,5268800000.0
sz002956,西麦食品,2019-06-27,66.48,67.0,63.78,65.0,65.86,4787837.0,310023030.0,1300000000.0,5200000000.0
sz002956,西麦食品,2019-06-28,64.4,66.35,63.9,64.21,65.0,3830118.0,248918876.0,1284200000.0,5136800000.0
sz002956,西麦食品,2019-07-01,65.01,69.66,64.28,68.1,64.21,6930550.0,464243225.0,1362000000.0,5448000000.0
sz002956,西麦食品,2019-07-02,67.18,68.59,66.2,67.77,68.1,5256418.0,353252338.0,1355400000.0,5421600000.0
sz002956,西麦食品,2019-07-03,67.91,72.18,66.7,70.44,67.77,8475028.0,590944627.0,1408800000.0,5635200000.0
sz002956,西麦食品,2019-07-04,68.12,68.76,64.86,65.26,70.44,4908919.0,325034364.0,1305200000.0,5220800000.0
sz002956,西麦食品,2019-07-05,65.15,66.68,64.72,66.04,65.26,2782342.0,183023466.0,1320800000.0,5283200000.0
sz002956,西麦食品,2019-07-08,65.6,65.95,59.5,59.79,66.04,4596963.0,285793349.0,1195800000.0,4783200000.0
sz002956,西麦食品,2019-07-09,58.6,60.7,58.08,59.08,59.79,2376258.0,140679924.0,1181600000.0,4726400000.0
sz002956,西麦食品,2019-07-10,59.19,59.71,58.75,59.0,59.08,1353249.0,79956259.0,1180000000.0,4720000000.0
sz002956,西麦食品,2019-07-11,59.7,59.7,54.85,56.4,59.0,3443136.0,196710529.0,1128000000.0,4512000000.0
sz002956,西麦食品,2019-07-12,56.0,56.09,54.9,55.51,56.4,1860953.0,103204703.0,1110200000.0,4440800000.0
sz002956,西麦食品,2019-07-15,55.01,56.54,54.01,55.97,55.51,1897772.0,105248429.0,1119400000.0,4477600000.0
sz002956,西麦食品,2019-07-16,55.76,57.38,55.68,56.96,55.97,1699114.0,96637746.0,1139200000.0,4556800000.0
sz002956,西麦食品,2019-07-17,56.54,56.54,55.04,55.86,56.96,1435821.0,80102813.0,1117200000.0,4468800000.0
sz002956,西麦食品,2019-07-18,54.94,55.75,54.61,54.73,55.86,1088007.0,59917603.0,1094600000.0,4378400000.0
sz002956,西麦食品,2019-07-19,54.77,55.72,54.25,54.3,54.73,1172168.0,64381614.0,1086000000.0,4344000000.0
sz002956,西麦食品,2019-07-22,54.36,54.69,50.38,50.45,54.3,2010816.0,103988435.0,1009000000.0,4036000000.0
sz002956,西麦食品,2019-07-23,50.4,51.63,50.4,50.86,50.45,1025794.0,52198287.0,1017200000.0,4068800000.0
sz002956,西麦食品,2019-07-24,50.87,51.98,50.87,51.31,50.86,1049133.0,54019093.0,1026200000.0,4104800000.0
sz002956,西麦食品,2019-07-25,51.01,54.58,50.83,54.16,51.31,2391072.0,126947298.0,1083200000.0,4332800000.0
sz002956,西麦食品,2019-07-26,53.59,54.46,53.09,53.5,54.16,1246065.0,67041187.0,1070000000.0,4280000000.0
sz002956,西麦食品,2019-07-29,53.56,54.97,52.7,54.63,53.5,1195816.0,64709651.0,1092600000.0,4370400000.0
sz002956,西麦食品,2019-07-30,54.54,54.8,53.82,53.83,54.63,898310.0,48647419.0,1076600000.0,4306400000.0
sz002956,西麦食品,2019-07-31,53.81,54.35,52.08,52.43,53.83,1040064.0,55157180.0,1048600000.0,4194400000.0
sz002956,西麦食品,2019-08-01,52.1,52.98,51.76,52.6,52.43,684900.0,35932648.0,1052000000.0,4208000000.0
sz002956,西麦食品,2019-08-02,51.51,52.59,50.98,52.25,52.6,944517.0,48871667.0,1045000000.0,4180000000.0
sz002956,西麦食品,2019-08-05,52.35,53.5,52.25,52.41,52.25,997119.0,52739609.0,1048200000.0,4192800000.0
sz002956,西麦食品,2019-08-06,51.07,51.46,49.29,50.89,52.41,1559278.0,78535741.0,1017800000.0,4071200000.0
sz002956,西麦食品,2019-08-07,50.99,51.35,49.8,49.94,50.89,901143.0,45570032.0,998800000.0,3995200000.0
sz002956,西麦食品,2019-08-08,50.0,50.93,49.61,50.2,49.94,799156.0,40139335.0,1004000000.0,4016000000.0
sz002956,西麦食品,2019-08-09,50.24,50.5,48.55,48.74,50.2,1142108.0,56357988.0,974800000.0,3899200000.0
sz002956,西麦食品,2019-08-12,48.73,49.55,48.69,49.48,48.74,698022.0,34365775.0,989600000.0,3958400000.0
sz002956,西麦食品,2019-08-13,49.04,51.28,48.76,50.95,49.48,1354751.0,68247596.0,1019000000.0,4076000000.0
sz002956,西麦食品,2019-08-14,51.3,51.53,50.7,51.08,50.95,875356.0,44806990.0,1021600000.0,4086400000.0
sz002956,西麦食品,2019-08-15,50.18,51.11,49.61,51.08,51.08,829844.0,41967096.0,1021600000.0,4086400000.0
sz002956,西麦食品,2019-08-16,51.16,52.48,51.16,51.46,51.08,882414.0,45645616.0,1029200000.0,4116800000.0
sz002956,西麦食品,2019-08-19,51.4,52.87,51.4,52.86,51.46,1155354.0,60257608.0,1057200000.0,4228800000.0
sz002956,西麦食品,2019-08-20,52.57,52.99,51.31,51.9,52.86,1405856.0,73048481.0,1038000000.0,4152000000.0
sz002956,西麦食品,2019-08-21,51.63,51.63,50.55,50.8,51.9,1034940.0,52555912.0,1016000000.0,4064000000.0
sz002956,西麦食品,2019-08-22,50.75,50.78,49.8,50.27,50.8,699117.0,35052443.0,1005400000.0,4021600000.0
sz002956,西麦食品,2019-08-23,50.27,50.79,49.82,50.28,50.27,847222.0,42520892.0,1005600000.0,4022400000.0
sz002956,西麦食品,2019-08-26,49.39,50.12,49.0,49.6,50.28,683756.0,33825351.0,992000000.0,3968000000.0
sz002956,西麦食品,2019-08-27,49.7,50.41,49.52,50.08,49.6,992287.0,49652718.0,1001600000.0,4006400000.0
sz002956,西麦食品,2019-08-28,50.2,53.88,50.0,53.66,50.08,2554445.0,132484012.0,1073200000.0,4292800000.0
sz002956,西麦食品,2019-08-29,53.0,53.1,51.76,52.12,53.66,1743494.0,91389860.0,1042400000.0,4169600000.0
sz002956,西麦食品,2019-08-30,52.19,52.77,51.4,51.75,52.12,1293387.0,67369588.0,1035000000.0,4140000000.0
sz002956,西麦食品,2019-09-02,51.6,52.97,51.42,52.6,51.75,1393636.0,73163088.0,1052000000.0,4208000000.0
sz002956,西麦食品,2019-09-03,52.59,53.5,51.82,53.06,52.6,1489730.0,78682373.0,1061200000.0,4244800000.0
sz002956,西麦食品,2019-09-04,52.77,52.78,51.87,52.47,53.06,1306959.0,68322638.0,1049400000.0,4197600000.0
sz002956,西麦食品,2019-09-05,52.46,53.28,52.46,52.88,52.47,1685928.0,89039175.0,1057600000.0,4230400000.0
sz002956,西麦食品,2019-09-06,52.89,53.56,52.25,52.53,52.88,1182077.0,62495084.0,1050600000.0,4202400000.0
sz002956,西麦食品,2019-09-09,52.65,53.8,52.43,53.67,52.53,1766095.0,93901300.0,1073400000.0,4293600000.0
sz002956,西麦食品,2019-09-10,53.64,54.47,52.87,54.05,53.67,1735562.0,92796804.0,1081000000.0,4324000000.0
sz002956,西麦食品,2019-09-11,54.0,55.0,53.36,53.39,54.05,1672717.0,90720084.0,1067800000.0,4271200000.0
sz002956,西麦食品,2019-09-12,53.33,56.49,53.1,55.75,53.39,3399979.0,188302334.0,1115000000.0,4460000000.0
sz002956,西麦食品,2019-09-16,55.7,58.28,55.25,57.2,55.75,3081279.0,175546885.0,1144000000.0,4576000000.0
sz002956,西麦食品,2019-09-17,57.22,58.15,55.81,57.64,57.2,2411153.0,137562895.0,1152800000.0,4611200000.0
sz002956,西麦食品,2019-09-18,57.3,61.2,57.29,58.72,57.64,3799743.0,226577083.0,1174400000.0,4697600000.0
sz002956,西麦食品,2019-09-19,58.45,60.06,57.45,59.99,58.72,2907600.0,171131654.0,1199800000.0,4799200000.0
sz002956,西麦食品,2019-09-20,59.94,60.15,57.62,57.75,59.99,2428977.0,143226529.0,1155000000.0,4620000000.0
sz002956,西麦食品,2019-09-23,56.7,57.3,54.71,55.26,57.75,2512883.0,139308300.0,1105200000.0,4420800000.0
sz002956,西麦食品,2019-09-24,55.42,57.18,55.3,56.75,55.26,2028459.0,114168571.0,1135000000.0,4540000000.0
sz002956,西麦食品,2019-09-25,56.69,58.5,55.5,57.25,56.75,2085581.0,119581371.0,1145000000.0,4580000000.0
sz002956,西麦食品,2019-09-26,57.24,57.4,53.89,53.98,57.25,2139557.0,117919897.0,1079600000.0,4318400000.0
sz002956,西麦食品,2019-09-27,53.67,54.88,53.16,54.44,53.98,1084170.0,59067946.0,1088800000.0,4355200000.0
sz002956,西麦食品,2019-09-30,54.4,54.45,53.3,53.41,54.44,890530.0,47904319.0,1068200000.0,4272800000.0
sz002956,西麦食品,2019-10-08,53.4,53.87,50.82,51.11,53.41,1367088.0,71218583.0,1022200000.0,4088800000.0
sz002956,西麦食品,2019-10-09,51.0,51.84,50.63,51.6,51.11,798463.0,40990465.0,1032000000.0,4128000000.0
sz002956,西麦食品,2019-10-10,51.3,52.52,51.3,52.2,51.6,917234.0,47649906.0,1044000000.0,4176000000.0
sz002956,西麦食品,2019-10-11,52.39,52.39,50.68,51.13,52.2,1429802.0,73476283.0,1022600000.0,4090400000.0
sz002956,西麦食品,2019-10-14,51.51,52.29,51.25,51.98,51.13,1038088.0,53742242.0,1039600000.0,4158400000.0
sz002956,西麦食品,2019-10-15,51.65,53.38,51.42,52.98,51.98,1309671.0,68798758.0,1059600000.0,4238400000.0
sz002956,西麦食品,2019-10-16,52.97,54.86,52.4,53.9,52.98,2042222.0,109581269.0,1078000000.0,4312000000.0
sz002956,西麦食品,2019-10-17,53.37,53.64,52.5,52.82,53.9,1240600.0,65731370.0,1056400000.0,4225600000.0
sz002956,西麦食品,2019-10-18,52.91,54.3,52.62,53.26,52.82,1633637.0,87612328.0,1065200000.0,4260800000.0
sz002956,西麦食品,2019-10-21,52.6,52.88,50.68,51.1,53.26,1248722.0,64063760.0,1022000000.0,4088000000.0
sz002956,西麦食品,2019-10-22,51.1,51.59,50.36,51.18,51.1,768863.0,39178179.0,1023600000.0,4094400000.0
sz002956,西麦食品,2019-10-23,51.28,51.59,50.72,50.94,51.18,643091.0,32960580.0,1018800000.0,4075200000.0
sz002956,西麦食品,2019-10-24,51.28,51.28,50.18,50.51,50.94,936820.0,47265837.0,1010200000.0,4040800000.0
sz002956,西麦食品,2019-10-25,50.23,51.42,50.2,51.3,50.51,680398.0,34561833.0,1026000000.0,4104000000.0
sz002956,西麦食品,2019-10-28,51.15,52.43,50.75,52.37,51.3,977100.0,50633442.0,1047400000.0,4189600000.0
sz002956,西麦食品,2019-10-29,52.52,53.56,52.1,52.53,52.37,1262831.0,66884147.0,1050600000.0,4202400000.0
sz002956,西麦食品,2019-10-30,52.75,53.45,52.0,53.1,52.53,866470.0,45775898.0,1062000000.0,4248000000.0
sz002956,西麦食品,2019-10-31,53.11,53.12,50.6,50.95,53.1,1012601.0,52504046.0,1019000000.0,4076000000.0
sz002956,西麦食品,2019-11-01,50.95,52.48,50.15,52.05,50.95,860400.0,44402159.0,1041000000.0,4164000000.0
sz002956,西麦食品,2019-11-04,52.05,52.85,51.85,52.68,52.05,831181.0,43541150.0,1053600000.0,4214400000.0
sz002956,西麦食品,2019-11-05,52.6,53.19,52.25,52.8,52.68,881485.0,46617144.0,1056000000.0,4224000000.0
sz002956,西麦食品,2019-11-06,53.08,53.08,51.84,52.0,52.8,726381.0,38057582.0,1040000000.0,4160000000.0
sz002956,西麦食品,2019-11-07,52.36,52.45,51.66,51.99,52.0,620600.0,32248014.0,1039800000.0,4159200000.0
sz002956,西麦食品,2019-11-08,52.2,54.84,52.16,54.04,51.99,2367834.0,127467002.0,1080800000.0,4323200000.0
sz002956,西麦食品,2019-11-11,53.76,56.42,53.14,55.23,54.04,2878769.0,158925131.0,1104600000.0,4418400000.0
sz002956,西麦食品,2019-11-12,54.32,55.99,54.3,54.8,55.23,2031725.0,111940749.0,1096000000.0,4384000000.0
sz002956,西麦食品,2019-11-13,54.8,55.5,53.81,54.26,54.8,1463551.0,79622019.0,1085200000.0,4340800000.0
sz002956,西麦食品,2019-11-14,54.39,56.6,54.04,56.6,54.26,2456139.0,136562701.0,1132000000.0,4528000000.0
sz002956,西麦食品,2019-11-15,56.08,57.3,55.55,55.8,56.6,1855448.0,104317788.0,1116000000.0,4464000000.0
sz002956,西麦食品,2019-11-18,55.0,56.87,54.6,56.62,55.8,1826218.0,102219807.0,1132400000.0,4529600000.0
sz002956,西麦食品,2019-11-19,56.12,56.92,55.99,56.58,56.62,1657680.0,93553814.0,1131600000.0,4526400000.0
sz002956,西麦食品,2019-11-20,56.5,56.55,55.22,55.3,56.58,1501926.0,83572345.0,1106000000.0,4424000000.0
sz002956,西麦食品,2019-11-21,54.8,54.94,53.86,54.45,55.3,1462943.0,79518363.0,1089000000.0,4356000000.0
sz002956,西麦食品,2019-11-22,54.38,54.76,52.33,52.65,54.45,1538083.0,82482801.0,1053000000.0,4212000000.0
sz002956,西麦食品,2019-11-25,52.67,52.88,51.01,51.41,52.65,1084525.0,55806810.0,1028200000.0,4112800000.0
sz002956,西麦食品,2019-11-26,51.78,52.43,51.3,51.75,51.41,735741.0,38199084.0,1035000000.0,4140000000.0
sz002956,西麦食品,2019-11-27,51.75,52.1,51.26,51.91,51.75,534484.0,27656192.0,1038200000.0,4152800000.0
sz002956,西麦食品,2019-11-28,51.63,51.99,51.41,51.72,51.91,416800.0,21545800.0,1034400000.0,4137600000.0
sz002956,西麦食品,2019-11-29,51.6,52.45,51.2,51.99,51.72,624001.0,32335709.0,1039800000.0,4159200000.0
sz002956,西麦食品,2019-12-02,51.73,51.99,51.42,51.59,51.99,418400.0,21630245.0,1031800000.0,4127200000.0
sz002956,西麦食品,2019-12-03,51.6,51.6,50.22,51.03,51.59,689426.0,34959021.0,1020600000.0,4082400000.0
sz002956,西麦食品,2019-12-04,50.55,50.95,50.41,50.69,51.03,470001.0,23822301.0,1013800000.0,4055200000.0
sz002956,西麦食品,2019-12-05,50.7,51.35,50.7,51.23,50.69,573600.0,29297870.0,1024600000.0,4098400000.0
sz002956,西麦食品,2019-12-06,51.18,51.68,51.03,51.43,51.23,502320.0,25746890.0,1028600000.0,4114400000.0
sz002956,西麦食品,2019-12-09,51.49,51.53,50.89,50.91,51.43,560662.0,28640432.0,1018200000.0,4072800000.0
sz002956,西麦食品,2019-12-10,50.8,51.36,50.6,51.16,50.91,635027.0,32396448.0,1023200000.0,4092800000.0
sz002956,西麦食品,2019-12-11,51.26,51.68,51.13,51.25,51.16,564227.0,28992020.0,1025000000.0,4100000000.0
sz002956,西麦食品,2019-12-12,51.45,51.45,50.6,50.61,51.25,613800.0,31179274.0,1012200000.0,4048800000.0
sz002956,西麦食品,2019-12-13,50.67,51.09,50.6,50.95,50.61,634697.0,32252440.0,1019000000.0,4076000000.0
sz002956,西麦食品,2019-12-16,50.77,52.92,50.77,52.54,50.95,1248700.0,64930117.0,1050800000.0,4203200000.0
sz002956,西麦食品,2019-12-17,52.47,52.83,52.2,52.72,52.54,1044201.0,54826755.0,1054400000.0,4217600000.0
sz002956,西麦食品,2019-12-18,52.52,53.2,52.23,52.9,52.72,943654.0,49762802.0,1058000000.0,4232000000.0
sz002956,西麦食品,2019-12-19,52.36,52.7,52.0,52.63,52.9,791485.0,41464182.0,1052600000.0,4210400000.0
sz002956,西麦食品,2019-12-20,52.61,53.79,52.0,53.07,52.63,1457585.0,77178627.0,1061400000.0,4245600000.0
sz002956,西麦食品,2019-12-23,53.0,54.35,52.65,53.02,53.07,1483038.0,79392369.0,1060400000.0,4241600000.0
sz002956,西麦食品,2019-12-24,53.02,53.83,52.41,53.52,53.02,1141832.0,60776232.0,1070400000.0,4281600000.0
sz002956,西麦食品,2019-12-25,53.4,53.4,52.72,53.15,53.52,884133.0,46852449.0,1063000000.0,4252000000.0
sz002956,西麦食品,2019-12-26,52.98,53.38,52.8,53.35,53.15,715714.0,38005335.0,1067000000.0,4268000000.0
sz002956,西麦食品,2019-12-27,53.35,54.88,53.32,54.16,53.35,1856252.0,100303315.0,1083200000.0,4332800000.0
sz002956,西麦食品,2019-12-30,54.32,55.95,54.0,55.57,54.16,1878809.0,103981737.0,1111400000.0,4445600000.0
sz002956,西麦食品,2019-12-31,55.0,55.15,54.35,54.69,55.57,1321033.0,72191162.0,1093800000.0,4375200000.0
sz002956,西麦食品,2020-01-02,54.91,55.16,54.38,55.02,54.69,1448500.0,79215147.0,1100400000.0,4401600000.0
sz002956,西麦食品,2020-01-03,55.0,55.11,53.78,53.78,55.02,1590100.0,86134239.0,1075600000.0,4302400000.0
sz002956,西麦食品,2020-01-06,53.07,53.69,52.93,53.26,53.78,1208148.0,64304335.0,1065200000.0,4260800000.0
sz002956,西麦食品,2020-01-07,53.29,53.79,53.2,53.79,53.26,861175.0,46135982.0,1075800000.0,4303200000.0
sz002956,西麦食品,2020-01-08,53.45,53.65,52.11,52.11,53.79,1363890.0,72020050.0,1042200000.0,4168800000.0
sz002956,西麦食品,2020-01-09,52.51,52.8,52.25,52.79,52.11,973940.0,51182566.0,1055800000.0,4223200000.0
sz002956,西麦食品,2020-01-10,53.14,53.76,52.91,53.65,52.79,1212064.0,64742820.0,1073000000.0,4292000000.0
sz002956,西麦食品,2020-01-13,53.65,53.65,52.79,53.5,53.65,1065499.0,56686100.0,1070000000.0,4280000000.0
sz002956,西麦食品,2020-01-14,53.53,53.55,52.83,53.1,53.5,960757.0,51011556.0,1062000000.0,4248000000.0
sz002956,西麦食品,2020-01-15,53.0,53.34,52.59,52.74,53.1,611885.0,32353429.0,1054800000.0,4219200000.0
sz002956,西麦食品,2020-01-16,52.54,52.63,51.88,51.98,52.74,1007100.0,52551143.0,1039600000.0,4158400000.0
sz002956,西麦食品,2020-01-17,52.08,52.42,51.88,52.15,51.98,472218.0,24612879.0,1043000000.0,4172000000.0
sz002956,西麦食品,2020-01-20,52.09,52.45,51.56,52.44,52.15,716700.0,37239600.0,1048800000.0,4195200000.0
sz002956,西麦食品,2020-01-21,52.43,52.43,51.66,51.69,52.44,484516.0,25104710.0,1033800000.0,4135200000.0
sz002956,西麦食品,2020-01-22,51.09,51.5,50.8,51.36,51.69,694810.0,35523997.0,1027200000.0,4108800000.0
sz002956,西麦食品,2020-01-23,51.4,51.4,49.16,49.3,51.36,1174451.0,58803428.0,986000000.0,3944000000.0
sz002956,西麦食品,2020-02-03,44.37,44.37,44.37,44.37,49.3,382400.0,16967088.0,887400000.0,3549600000.0
sz002956,西麦食品,2020-02-04,41.11,43.8,41.11,43.27,44.37,1085075.0,46558039.0,865400000.0,3461600000.0
sz002956,西麦食品,2020-02-05,43.27,46.0,43.22,44.82,43.27,1018245.0,45561088.0,896400000.0,3585600000.0
sz002956,西麦食品,2020-02-06,44.18,45.8,44.18,45.52,44.82,963093.0,43647848.0,910400000.0,3641600000.0
sz002956,西麦食品,2020-02-07,45.47,46.17,45.05,46.15,45.52,828649.0,37747127.0,923000000.0,3692000000.0
sz002956,西麦食品,2020-02-10,45.8,47.25,45.4,46.98,46.15,892149.0,41267464.0,939600000.0,3758400000.0
sz002956,西麦食品,2020-02-11,46.98,46.98,46.32,46.36,46.98,572801.0,26659965.0,927200000.0,3708800000.0
sz002956,西麦食品,2020-02-12,46.02,46.61,46.02,46.5,46.36,617456.0,28616146.0,930000000.0,3720000000.0
sz002956,西麦食品,2020-02-13,46.49,46.5,45.31,45.57,46.5,854749.0,39137762.0,911400000.0,3645600000.0
sz002956,西麦食品,2020-02-14,45.55,45.56,44.97,45.03,45.57,532274.0,24068458.0,900600000.0,3602400000.0
sz002956,西麦食品,2020-02-17,45.02,46.7,44.95,46.61,45.03,776771.0,35870613.0,932200000.0,3728800000.0
sz002956,西麦食品,2020-02-18,46.57,47.0,46.42,46.95,46.61,862407.0,40343952.0,939000000.0,3756000000.0
sz002956,西麦食品,2020-02-19,46.95,50.0,46.78,48.14,46.95,1801407.0,86586620.0,962800000.0,3851200000.0
sz002956,西麦食品,2020-02-20,48.12,49.38,47.81,48.66,48.14,1503502.0,73134393.0,973200000.0,3892800000.0
sz002956,西麦食品,2020-02-21,48.66,48.94,47.86,48.39,48.66,1178752.0,57020288.0,967800000.0,3871200000.0
sz002956,西麦食品,2020-02-24,48.01,48.15,47.29,47.84,48.39,1112081.0,52982486.0,956800000.0,3827200000.0
sz002956,西麦食品,2020-02-25,47.01,47.39,46.07,46.84,47.84,957425.0,44780188.0,936800000.0,3747200000.0
sz002956,西麦食品,2020-02-26,46.5,47.25,46.0,47.14,46.84,866766.0,40500534.0,942800000.0,3771200000.0
sz002956,西麦食品,2020-02-27,47.17,49.8,47.16,48.68,47.14,2007631.0,97686505.0,973600000.0,3894400000.0
sz002956,西麦食品,2020-02-28,47.99,48.6,46.69,47.5,48.68,1308218.0,61986164.0,950000000.0,3800000000.0
sz002956,西麦食品,2020-03-02,48.06,48.86,47.05,48.68,47.5,1497608.0,72214701.0,973600000.0,3894400000.0
sz002956,西麦食品,2020-03-03,49.23,49.34,48.21,48.51,48.68,1223604.0,59871624.0,970200000.0,3880800000.0
sz002956,西麦食品,2020-03-04,48.52,50.35,48.42,50.15,48.51,1496256.0,74050225.0,1003000000.0,4012000000.0
sz002956,西麦食品,2020-03-05,50.31,53.2,50.3,51.72,50.15,2247097.0,116263962.0,1034400000.0,4137600000.0
sz002956,西麦食品,2020-03-06,51.15,51.5,50.21,50.3,51.72,1243266.0,63132744.0,1006000000.0,4024000000.0
sz002956,西麦食品,2020-03-09,49.7,49.7,48.55,48.57,50.3,1151003.0,56444999.0,971400000.0,3885600000.0
sz002956,西麦食品,2020-03-10,48.0,49.68,47.88,49.51,48.57,946322.0,46179144.0,990200000.0,3960800000.0
sz002956,西麦食品,2020-03-11,49.4,49.86,48.88,48.88,49.51,790500.0,39052438.0,977600000.0,3910400000.0
sz002956,西麦食品,2020-03-12,48.35,48.6,46.98,47.07,48.88,995651.0,47423863.0,941400000.0,3765600000.0
sz002956,西麦食品,2020-03-13,45.01,47.7,44.13,47.0,47.07,832003.0,38567252.0,940000000.0,3760000000.0
sz002956,西麦食品,2020-03-16,47.47,47.63,44.68,45.0,47.0,763500.0,35264922.0,900000000.0,3600000000.0
sz002956,西麦食品,2020-03-17,45.0,45.8,44.44,45.53,45.0,650249.0,29339547.0,910600000.0,3642400000.0
sz002956,西麦食品,2020-03-18,45.98,48.89,45.41,47.6,45.53,1750549.0,83377949.0,952000000.0,3808000000.0
sz002956,西麦食品,2020-03-19,47.86,49.38,47.01,48.94,47.6,1390000.0,67496468.0,978800000.0,3915200000.0
sz002956,西麦食品,2020-03-20,48.94,49.33,48.01,49.05,48.94,1106600.0,53818553.0,981000000.0,3924000000.0
sz002956,西麦食品,2020-03-23,48.0,48.96,46.8,46.9,49.05,935900.0,45055535.0,938000000.0,3752000000.0
sz002956,西麦食品,2020-03-24,47.61,51.59,47.61,51.59,46.9,2607487.0,131019784.0,1031800000.0,4127200000.0
sz002956,西麦食品,2020-03-25,53.08,55.8,52.3,54.25,51.59,3791954.0,204492324.0,1085000000.0,4340000000.0
sz002956,西麦食品,2020-03-26,54.11,56.44,53.71,55.68,54.25,3431545.0,189816859.0,1113600000.0,4454400000.0
sz002956,西麦食品,2020-03-27,56.13,56.2,52.88,52.92,55.68,2720180.0,148046686.0,1058400000.0,4233600000.0
sz002956,西麦食品,2020-03-30,53.42,55.17,52.86,53.05,52.92,2344613.0,126097973.0,1061000000.0,4244000000.0
sz002956,西麦食品,2020-03-31,53.7,55.99,53.01,55.2,53.05,2906158.0,159416881.0,1104000000.0,4416000000.0
sz002956,西麦食品,2020-04-01,54.62,54.86,53.01,53.37,55.2,2085126.0,112242203.0,1067400000.0,4269600000.0
sz002956,西麦食品,2020-04-02,53.03,53.52,51.82,52.49,53.37,1550604.0,81357980.0,1049800000.0,4199200000.0
sz002956,西麦食品,2020-04-03,52.55,56.42,52.5,54.5,52.49,2577663.0,141590408.0,1090000000.0,4360000000.0
sz002956,西麦食品,2020-04-07,55.5,58.45,54.2,57.59,54.5,3314763.0,186900930.0,1151800000.0,4607200000.0
sz002956,西麦食品,2020-04-08,56.79,56.88,55.5,55.59,57.59,2146658.0,120036196.0,1111800000.0,4447200000.0
sz002956,西麦食品,2020-04-09,55.8,56.5,54.2,55.23,55.59,1915349.0,105799833.0,1104600000.0,4418400000.0
sz002956,西麦食品,2020-04-10,55.33,55.73,52.88,53.41,55.23,1820514.0,98480304.0,1068200000.0,4272800000.0
sz002956,西麦食品,2020-04-13,53.09,54.8,53.0,54.0,53.41,1202893.0,64983560.0,1080000000.0,4320000000.0
sz002956,西麦食品,2020-04-14,53.99,54.78,53.15,54.45,54.0,1329668.0,71848042.0,1089000000.0,4356000000.0
sz002956,西麦食品,2020-04-15,54.31,54.79,53.25,53.46,54.45,1137666.0,61307952.0,1069200000.0,4276800000.0
sz002956,西麦食品,2020-04-16,53.46,58.58,53.38,57.36,53.46,3085908.0,173140334.0,1147200000.0,4588800000.0
sz002956,西麦食品,2020-04-17,57.48,58.28,55.88,56.99,57.36,2459979.0,140345905.0,1139800000.0,4559200000.0
sz002956,西麦食品,2020-04-20,62.69,62.69,61.68,62.69,56.99,1519900.0,95089195.0,1253800000.0,5015200000.0
sz002956,西麦食品,2020-04-21,63.73,66.67,62.68,64.72,62.69,5217394.0,336181091.0,1294400000.0,5177600000.0
sz002956,西麦食品,2020-04-22,63.29,67.5,63.15,66.66,64.72,4173284.0,273680366.0,1333200000.0,5332800000.0
sz002956,西麦食品,2020-04-23,65.65,66.95,63.0,63.1,66.66,3900466.0,252916008.0,1262000000.0,5048000000.0
sz002956,西麦食品,2020-04-24,63.11,63.9,60.35,60.83,63.1,2592635.0,160355257.0,1216600000.0,4866400000.0
sz002956,西麦食品,2020-04-27,60.81,61.48,58.89,58.91,60.83,2221700.0,133382636.0,1178200000.0,4712800000.0
sz002956,西麦食品,2020-04-28,58.69,61.13,57.5,59.8,58.91,2608349.0,155225127.0,1196000000.0,4784000000.0
sz002956,西麦食品,2020-04-29,59.25,61.0,58.77,60.52,59.8,1993918.0,119682444.0,1210400000.0,4841600000.0
sz002956,西麦食品,2020-04-30,58.51,59.5,56.11,57.9,60.52,3979672.0,228271879.0,1158000000.0,4632000000.0
sz002956,西麦食品,2020-05-06,56.95,58.45,56.6,58.26,57.9,1716463.0,99179286.0,1165200000.0,4660800000.0
sz002956,西麦食品,2020-05-07,58.67,60.65,58.08,60.22,58.26,2449250.0,146694885.0,1204400000.0,4817600000.0
sz002956,西麦食品,2020-05-08,60.28,61.0,59.45,60.36,60.22,1918940.0,115629349.0,1207200000.0,4828800000.0
sz002956,西麦食品,2020-05-11,60.02,61.97,60.02,60.8,60.36,1576800.0,96241687.0,1216000000.0,4864000000.0
sz002956,西麦食品,2020-05-12,60.7,62.41,59.8,62.33,60.8,1941963.0,119297803.0,1246600000.0,4986400000.0
sz002956,西麦食品,2020-05-13,61.7,65.0,61.7,64.48,62.33,2691700.0,172236769.0,1289600000.0,5158400000.0
sz002956,西麦食品,2020-05-14,64.08,65.26,63.35,64.02,64.48,2316840.0,148594015.0,1280400000.0,5121600000.0
sz002956,西麦食品,2020-05-15,63.89,64.92,63.27,64.76,64.02,1704117.0,109034084.0,1295200000.0,5180800000.0
sz002956,西麦食品,2020-05-18,64.65,66.1,64.1,64.51,64.76,1701353.0,110296300.0,1290200000.0,5160800000.0
sz002956,西麦食品,2020-05-19,64.32,64.64,62.88,64.0,64.51,1818668.0,116183872.0,1280000000.0,5120000000.0
sz002956,西麦食品,2020-05-20,64.0,65.57,62.65,62.75,64.0,2135700.0,136983233.0,1255000000.0,5020000000.0
sz002956,西麦食品,2020-05-21,63.06,66.6,62.4,64.3,62.75,2747335.0,177503424.0,1286000000.0,5144000000.0
sz002956,西麦食品,2020-05-22,64.35,69.6,64.35,66.72,64.3,3426320.0,228753696.0,1334400000.0,5337600000.0
sz002956,西麦食品,2020-05-25,65.68,68.43,64.84,67.99,66.72,2489299.0,165955539.0,1359800000.0,5439200000.0
sz002956,西麦食品,2020-05-26,67.68,69.65,66.31,69.02,67.99,2258832.0,153608479.0,1380400000.0,5521600000.0
sz002956,西麦食品,2020-05-27,69.2,75.92,68.61,75.92,69.02,2702408.0,199755846.0,1518400000.0,6073600000.0
sz002956,西麦食品,2020-05-28,75.94,78.5,72.5,74.2,75.92,3788165.0,284482359.0,1484000000.0,5936000000.0
sz002956,西麦食品,2020-05-29,74.0,79.1,73.46,77.61,74.2,3346750.0,255716975.0,1552200000.0,6208800000.0
sz002956,西麦食品,2020-06-01,77.61,80.6,77.07,78.84,77.61,2427200.0,191098066.0,1576800000.0,6307200000.0
sz002956,西麦食品,2020-06-02,78.61,79.54,75.28,75.8,78.84,2441209.0,187622125.0,1516000000.0,6064000000.0
sz002956,西麦食品,2020-06-03,76.4,76.4,74.5,75.51,75.8,1375287.0,103848972.0,1510200000.0,6040800000.0
sz002956,西麦食品,2020-06-04,75.95,77.48,74.8,76.66,75.51,1513985.0,115335224.0,1533200000.0,6132800000.0
sz002956,西麦食品,2020-06-05,76.51,76.92,73.68,74.61,76.66,1651806.0,123489448.0,1492200000.0,5968800000.0
sz002956,西麦食品,2020-06-08,74.58,76.52,72.68,75.05,74.61,1435568.0,106858676.0,1501000000.0,6004000000.0
sz002956,西麦食品,2020-06-09,74.95,78.4,74.55,77.18,75.05,1606002.0,123205979.0,1543600000.0,6174400000.0
sz002956,西麦食品,2020-06-10,76.8,81.28,75.99,80.36,77.18,1857699.0,146676311.0,1607200000.0,6428800000.0
sz002956,西麦食品,2020-06-11,79.89,84.8,79.35,82.67,80.36,1826912.0,149915875.0,1653400000.0,6613600000.0
sz002956,西麦食品,2020-06-12,79.5,84.36,79.5,82.8,82.67,1227460.0,100663727.0,1656000000.0,6624000000.0
sz002956,西麦食品,2020-06-15,82.94,83.77,77.76,77.85,82.8,2010340.0,161050340.0,1557000000.0,6228000000.0
sz002956,西麦食品,2020-06-16,79.17,85.1,77.8,84.4,77.85,2173801.0,178243926.0,1688000000.0,6752000000.0
sz002956,西麦食品,2020-06-17,83.68,84.4,81.1,81.6,84.4,1406700.0,115723243.0,1632000000.0,6528000000.0
sz002956,西麦食品,2020-06-18,81.78,82.33,79.62,81.78,81.6,918200.0,74321786.0,1635600000.0,6542400000.0
sz002956,西麦食品,2020-06-19,81.26,83.11,80.0,80.19,81.78,2141200.0,172850133.0,2799668658.6000004,6415200000.0
sz002956,西麦食品,2020-06-22,79.51,83.56,79.42,83.2,80.19,1745700.0,141805200.0,2904756608.0,6656000000.0
sz002956,西麦食品,2020-06-23,83.12,91.52,82.58,90.5,83.2,2521025.0,222154825.0,3159621070.0,7240000000.0
sz002956,西麦食品,2020-06-24,90.47,94.2,90.01,92.33,90.5,1867800.0,172631138.0,3223511750.2000003,7386400000.0
sz002956,西麦食品,2020-06-29,92.52,101.3,92.52,99.92,92.33,2016340.0,196404194.0,3488500964.8,7993600000.0
sz002956,西麦食品,2020-06-30,100.12,109.91,100.12,109.0,99.92,2412000.0,256567576.0,3805510460.0,8720000000.0
sz002956,西麦食品,2020-07-01,104.0,110.93,104.0,109.4,109.0,3718871.0,401141052.0,3819475636.0,8752000000.0
sz002956,西麦食品,2020-07-02,109.4,111.58,105.49,106.0,109.4,2498601.0,268494240.0,3700771640.0,8480000000.0
sz002956,西麦食品,2020-07-03,51.0,53.99,50.96,51.8,52.2,4350202.0,227220614.0,3616980584.0,8288000000.0
sz002956,西麦食品,2020-07-06,52.0,52.84,49.55,51.02,51.8,5846464.0,297899759.0,3562516397.6,8163200000.0
sz002956,西麦食品,2020-07-07,50.66,53.52,50.52,52.33,51.02,5231942.0,271995180.0,3653988300.4,8372800000.0
sz002956,西麦食品,2020-07-08,52.31,52.66,51.0,51.68,52.33,3015200.0,156050106.0,3608601478.4,8268800000.0
sz002956,西麦食品,2020-07-09,52.51,54.49,51.43,53.54,51.68,4385036.0,232158129.0,3738477615.2,8566400000.0
sz002956,西麦食品,2020-07-10,53.0,56.6,52.65,55.8,53.54,4285300.0,236657580.0,3896284104.0,8928000000.0
sz002956,西麦食品,2020-07-13,55.89,58.05,53.7,58.0,55.8,7104915.0,395777446.0,4049901040.0,9280000000.0
sz002956,西麦食品,2020-07-14,57.99,57.99,52.68,54.31,58.0,5124958.0,284913912.0,3792243542.8,8689600000.0
sz002956,西麦食品,2020-07-15,54.35,57.2,53.41,55.56,54.31,4296626.0,237445005.0,3879525892.8,8889600000.0
sz002956,西麦食品,2020-07-16,55.56,55.9,50.0,50.0,55.56,4563240.0,238452941.0,3491294000.0,8000000000.0
sz002956,西麦食品,2020-07-17,49.8,51.05,46.8,49.6,50.0,3067548.0,150633723.0,3463363648.0,7936000000.0
sz002956,西麦食品,2020-07-20,49.58,50.36,47.62,48.71,49.6,3205462.0,155809589.0,3401218614.8,7793600000.0
sz002956,西麦食品,2020-07-21,49.0,50.35,48.0,49.51,48.71,2712539.0,134127411.0,3457079318.8,7921600000.0
sz002956,西麦食品,2020-07-22,49.45,50.33,48.32,49.6,49.51,2293328.0,113580624.0,3463363648.0,7936000000.0
sz002956,西麦食品,2020-07-23,49.62,50.14,48.3,49.52,49.6,2484299.0,122094281.0,3457777577.6,7923200000.0
sz002956,西麦食品,2020-07-24,49.21,49.37,46.74,47.17,49.52,3193580.0,152766246.0,3293686759.6000004,7547200000.0
sz002956,西麦食品,2020-07-27,46.97,47.81,46.64,47.09,47.17,1716700.0,80924289.0,3288100689.2,7534400000.0
sz002956,西麦食品,2020-07-28,47.5,49.3,47.04,48.77,47.09,2010716.0,97284452.0,3405408167.6000004,7803200000.0
sz002956,西麦食品,2020-07-29,49.0,49.3,48.36,49.04,48.77,1773400.0,86683711.0,3424261155.2,7846400000.0
sz002956,西麦食品,2020-07-30,49.1,53.88,48.6,50.95,49.04,4583800.0,235862319.0,3557628586.0,8152000000.0
sz002956,西麦食品,2020-07-31,51.0,52.1,50.1,51.28,50.95,2269559.0,115893534.0,3580671126.4,8204800000.0
sz002956,西麦食品,2020-08-03,52.45,52.45,50.29,50.99,51.28,2976100.0,151004504.0,3560421621.2,8158400000.0
sz002956,西麦食品,2020-08-04,50.75,51.5,50.0,50.18,50.99,2000100.0,101510474.0,3503862658.4,8028800000.0
sz002956,西麦食品,2020-08-05,50.29,51.59,49.38,51.23,50.18,2412696.0,121605830.0,3577179832.4,8196800000.0
sz002956,西麦食品,2020-08-06,50.99,51.16,48.8,48.88,51.23,2309000.0,114242293.0,3413089014.4,7820800000.0
sz002956,西麦食品,2020-08-07,48.83,49.43,47.06,47.82,48.88,1772210.0,85116674.0,3339073581.6,7651200000.0
sz002956,西麦食品,2020-08-10,47.69,48.54,47.21,48.12,47.82,1199700.0,57393543.0,3360021345.6,7699200000.0
sz002956,西麦食品,2020-08-11,47.98,49.29,47.7,48.37,48.12,1694972.0,82281864.0,3377477815.6,7739200000.0
sz002956,西麦食品,2020-08-12,48.37,48.58,46.87,47.4,48.37,1406100.0,66595621.0,3309746712.0,7584000000.0
sz002956,西麦食品,2020-08-13,47.3,47.96,47.09,47.42,47.4,778572.0,36963354.0,3311143229.6000004,7587200000.0
sz002956,西麦食品,2020-08-14,47.43,47.99,47.08,47.69,47.42,766416.0,36484783.0,3329996217.2,7630400000.0
sz002956,西麦食品,2020-08-17,47.99,49.13,47.8,48.66,47.69,1666612.0,81179183.0,3397727320.8,7785600000.0
sz002956,西麦食品,2020-08-18,49.07,51.96,48.3,51.42,48.66,3321065.0,168813734.0,3590446749.6,8227200000.0
sz002956,西麦食品,2020-08-19,51.36,55.55,51.0,53.24,51.42,5160793.0,277905984.0,3717529851.2,8518400000.0
sz002956,西麦食品,2020-08-20,52.55,52.64,50.63,50.78,53.24,2309166.0,118622664.0,3545758186.4,8124800000.0
sz002956,西麦食品,2020-08-21,51.06,52.8,51.06,51.82,50.78,2158966.0,111965789.0,3618377101.6,8291200000.0
sz002956,西麦食品,2020-08-24,51.85,52.42,49.5,50.49,51.82,1984398.0,100389298.0,3525508681.2,8078400000.0
sz002956,西麦食品,2020-08-25,50.92,50.92,49.56,49.7,50.49,1553800.0,77938878.0,3470346236.0,7952000000.0
sz002956,西麦食品,2020-08-26,49.54,49.66,47.0,47.25,49.7,1958177.0,94109299.0,3299272830.0,7560000000.0
sz002956,西麦食品,2020-08-27,47.6,51.98,46.82,51.98,47.25,4288275.0,217062622.0,3629549242.4,8316800000.0
sz002956,西麦食品,2020-08-28,53.5,56.8,52.35,55.3,51.98,6700824.0,367531113.0,3861371164.0,8848000000.0
sz002956,西麦食品,2020-08-31,55.59,56.29,52.1,53.86,55.3,4554901.0,248964254.0,3760821896.8,8617600000.0
sz002956,西麦食品,2020-09-01,53.01,53.74,51.84,53.4,53.86,2858606.0,150595935.0,3728701992.0,8544000000.0
sz002956,西麦食品,2020-09-02,54.0,56.5,52.86,52.91,53.4,3967900.0,216794884.0,3694487310.8,8465600000.0
sz002956,西麦食品,2020-09-03,52.9,54.31,51.71,52.01,52.91,2515930.0,132866213.0,3631644018.8,8321600000.0
sz002956,西麦食品,2020-09-04,50.56,50.73,48.79,50.12,52.01,2942600.0,145558938.0,3499673105.6,8019200000.0
sz002956,西麦食品,2020-09-07,49.58,51.6,49.2,49.63,50.12,2023228.0,101873982.0,3465458424.4,7940800000.0
sz002956,西麦食品,2020-09-08,49.8,50.49,48.33,48.87,49.63,1311360.0,64152430.0,3412390755.6000004,7819200000.0
sz002956,西麦食品,2020-09-09,48.5,49.47,47.6,47.94,48.87,1580339.0,76527474.0,3347452687.2,7670400000.0
sz002956,西麦食品,2020-09-10,48.48,49.5,48.16,48.71,47.94,1232839.0,60203412.0,3401218614.8,7793600000.0
sz002956,西麦食品,2020-09-11,48.25,49.58,47.68,49.29,48.71,940137.0,45949972.0,3441717625.2,7886400000.0
sz002956,西麦食品,2020-09-14,49.25,50.0,48.2,49.58,49.29,1246400.0,61129558.0,3461967130.4,7932800000.0
sz002956,西麦食品,2020-09-15,49.56,50.19,49.06,49.98,49.58,842300.0,41900554.0,3489897482.4,7996800000.0
sz002956,西麦食品,2020-09-16,49.98,49.98,48.39,48.61,49.98,873900.0,42782430.0,3394236026.8,7777600000.0
sz002956,西麦食品,2020-09-17,48.5,48.5,46.3,46.8,48.61,1883500.0,88528821.0,3267851184.0,7488000000.0
sz002956,西麦食品,2020-09-18,46.9,47.29,46.36,47.05,46.8,967400.0,45271817.0,3285307653.9999995,7528000000.0
sz002956,西麦食品,2020-09-21,47.06,47.06,45.55,45.88,47.05,1445502.0,66606338.0,3203611374.4,7340800000.0
sz002956,西麦食品,2020-09-22,45.8,45.81,44.5,44.93,45.88,1467031.0,66074567.0,3137276788.4,7188800000.0
sz002956,西麦食品,2020-09-23,44.58,45.39,44.14,44.88,44.93,943500.0,42212658.0,3133785494.4,7180800000.0
sz002956,西麦食品,2020-09-24,44.4,45.2,43.94,43.99,44.88,816600.0,36199458.0,3071640461.2000003,7038400000.0
sz002956,西麦食品,2020-09-25,43.9,44.47,43.51,43.86,43.99,658600.0,28915194.0,3062563096.8,7017600000.0
sz002956,西麦食品,2020-09-28,43.52,44.26,42.8,43.28,43.86,740400.0,32238522.0,3022064086.4,6924800000.0
sz002956,西麦食品,2020-09-29,43.43,43.85,43.1,43.55,43.28,599300.0,26075271.0,3040917074.0,6968000000.0
sz002956,西麦食品,2020-09-30,43.19,44.44,43.18,43.78,43.55,691002.0,30310188.0,3056977026.4,7004800000.0
sz002956,西麦食品,2020-10-09,44.15,44.93,44.0,44.14,43.78,752834.0,33391534.0,3082114343.2,7062400000.0
sz002956,西麦食品,2020-10-12,44.2,46.45,44.2,46.42,44.14,1660934.0,75724043.0,3241317349.6,7427200000.0
sz002956,西麦食品,2020-10-13,46.42,46.43,44.8,45.3,46.42,1197936.0,54409728.0,3163112364.0,7248000000.0
sz002956,西麦食品,2020-10-14,45.33,46.48,44.69,45.4,45.3,929000.0,42430227.0,3170094952.0,7264000000.0
sz002956,西麦食品,2020-10-15,45.58,45.78,44.01,44.09,45.4,1151634.0,51372528.0,3078623049.2000003,7054400000.0
sz002956,西麦食品,2020-10-16,44.09,44.88,43.81,44.18,44.09,454000.0,20108007.0,3084907378.4,7068800000.0
sz002956,西麦食品,2020-10-19,44.18,44.68,43.54,43.7,44.18,596400.0,26297552.0,3051390956.0,6992000000.0
sz002956,西麦食品,2020-10-20,43.5,44.2,43.15,44.18,43.7,495900.0,21716087.0,3084907378.4,7068800000.0
sz002956,西麦食品,2020-10-21,44.18,44.27,43.5,43.7,44.18,570400.0,24933489.0,3051390956.0,6992000000.0
sz002956,西麦食品,2020-10-22,43.69,43.99,43.01,43.65,43.7,434700.0,18848297.0,3047899662.0000005,6984000000.0
sz002956,西麦食品,2020-10-23,43.63,43.8,41.5,41.87,43.65,776602.0,33163281.0,2923609595.6,6699200000.0
sz002956,西麦食品,2020-10-26,41.91,42.28,40.51,41.41,41.87,699800.0,28915917.0,2891489690.8,6625600000.0
sz002956,西麦食品,2020-10-27,41.4,42.39,40.93,41.94,41.41,583300.0,24360937.0,2928497407.2,6710400000.0
sz002956,西麦食品,2020-10-28,41.94,42.35,40.42,40.82,41.94,976124.0,40017155.0,2850292421.6000004,6531200000.0
sz002956,西麦食品,2020-10-29,39.42,41.46,39.31,41.04,40.82,868202.0,35446801.0,2865654115.2000003,6566400000.0
sz002956,西麦食品,2020-10-30,40.01,40.99,36.94,36.94,41.04,2504200.0,94323838.0,2579368007.2,5910400000.0
sz002956,西麦食品,2020-11-02,34.59,36.46,34.59,35.35,36.94,2343000.0,83174880.0,2468344858.0,5656000000.0
sz002956,西麦食品,2020-11-03,35.91,36.8,35.02,36.43,35.35,1711800.0,61471802.0,2543756808.4,5828800000.0
sz002956,西麦食品,2020-11-04,36.42,36.68,35.17,35.53,36.43,1499500.0,53435048.0,2480913516.4,5684800000.0
sz002956,西麦食品,2020-11-05,35.72,36.79,35.72,35.93,35.53,1181500.0,42599030.0,2508843868.4,5748800000.0
sz002956,西麦食品,2020-11-06,35.93,36.04,35.01,35.49,35.93,1194900.0,42324269.0,2478120481.2,5678400000.0
sz002956,西麦食品,2020-11-09,35.69,36.9,35.56,36.5,35.49,1371722.0,49884806.0,2548644620.0,5840000000.0
sz002956,西麦食品,2020-11-10,36.57,37.0,35.6,36.16,36.5,1184200.0,42751306.0,2524903820.8,5785600000.0
sz002956,西麦食品,2020-11-11,36.16,36.95,35.39,35.5,36.16,1592100.0,57245655.0,2478818740.0,5680000000.0
sz002956,西麦食品,2020-11-12,35.0,36.68,35.0,35.75,35.5,1159200.0,41607030.0,2496275210.0,5720000000.0
sz002956,西麦食品,2020-11-13,35.75,36.47,35.1,35.47,35.75,565000.0,20000429.0,2476723963.6,5675200000.0
sz002956,西麦食品,2020-11-16,35.58,36.33,35.38,36.08,35.47,876326.0,31436765.0,2519317750.4,5772800000.0
sz002956,西麦食品,2020-11-17,36.12,36.12,34.77,34.91,36.08,1191945.0,41966885.0,2437621470.8,5585600000.0
sz002956,西麦食品,2020-11-18,34.95,35.65,34.95,35.23,34.91,701625.0,24739181.0,2459965752.4,5636800000.0
sz002956,西麦食品,2020-11-19,35.26,35.55,34.3,35.35,35.23,1323500.0,46316505.0,2468344858.0,5656000000.0
sz002956,西麦食品,2020-11-20,35.5,35.74,34.8,34.93,35.35,1068722.0,37541130.0,2439017988.4,5588800000.0
sz002956,西麦食品,2020-11-23,35.3,35.48,34.47,34.52,34.93,1315260.0,45760859.0,2410389377.6,5523200000.0
sz002956,西麦食品,2020-11-24,34.41,34.98,33.41,33.76,34.52,1350678.0,45541088.0,2357321708.8,5401600000.0
sz002956,西麦食品,2020-11-25,33.99,33.99,32.5,32.55,33.76,1187782.0,39109363.0,2272832394.0,5208000000.0
sz002956,西麦食品,2020-11-26,32.55,33.06,32.0,32.05,32.55,989800.0,31991000.0,2237919454.0,5128000000.0
sz002956,西麦食品,2020-11-27,32.15,32.29,31.12,31.5,32.05,1327878.0,41869998.0,2199515220.0,5040000000.0
sz002956,西麦食品,2020-11-30,31.4,31.85,31.05,31.6,31.5,1362900.0,42977868.0,2206497808.0,5056000000.0
sz002956,西麦食品,2020-12-01,31.6,33.95,31.4,33.62,31.6,2325953.0,76647487.0,2347546085.6,5379200000.0
sz002956,西麦食品,2020-12-02,33.3,34.65,33.03,33.55,33.62,2323500.0,78922450.0,2342658274.0,5368000000.0
sz002956,西麦食品,2020-12-03,33.55,34.92,33.2,34.82,33.55,1832697.0,62931563.0,2431337141.6,5571200000.0
sz002956,西麦食品,2020-12-04,34.78,35.42,34.4,35.32,34.82,1765300.0,61812035.0,2466250081.6,5651200000.0
sz002956,西麦食品,2020-12-07,35.32,35.66,34.77,34.92,35.32,1356600.0,47679675.0,2438319729.6,5587200000.0
sz002956,西麦食品,2020-12-08,34.66,35.47,34.43,35.15,34.92,1281500.0,44897268.0,2454379682.0,5624000000.0
sz002956,西麦食品,2020-12-09,35.79,35.79,34.13,34.49,35.15,1394297.0,48363241.0,2408294601.2,5518400000.0
sz002956,西麦食品,2020-12-10,34.21,35.0,34.02,34.35,34.49,957400.0,33055289.0,2398518978.0,5496000000.0
sz002956,西麦食品,2020-12-11,34.35,34.35,32.8,33.08,34.35,1377525.0,45961689.0,2309840110.4,5292800000.0
sz002956,西麦食品,2020-12-14,33.08,35.31,32.86,35.15,33.08,2026000.0,69449972.0,2454379682.0,5624000000.0
sz002956,西麦食品,2020-12-15,35.16,35.5,34.2,34.56,35.15,1306825.0,45277672.0,2413182412.8,5529600000.0
sz002956,西麦食品,2020-12-16,34.41,36.68,34.11,36.68,34.56,3437125.0,122881011.0,2561213278.4,5868800000.0
sz002956,西麦食品,2020-12-17,36.4,37.97,36.0,37.4,36.68,4536004.0,168062805.0,2611487912.0,5984000000.0
sz002956,西麦食品,2020-12-18,37.03,37.4,35.56,35.68,37.4,2979600.0,107273429.0,2491387398.4,5708800000.0
sz002956,西麦食品,2020-12-21,35.2,35.67,34.39,35.41,35.68,2057197.0,72094218.0,2472534410.8,5665600000.0
sz002956,西麦食品,2020-12-22,35.09,36.55,35.03,35.55,35.41,2500500.0,89384411.0,2482310034.0,5688000000.0
sz002956,西麦食品,2020-12-23,35.5,35.9,32.0,32.7,35.55,4283425.0,144631589.0,2283306276.0,5232000000.0
sz002956,西麦食品,2020-12-24,32.5,32.5,29.99,30.02,32.7,3567650.0,108954505.0,2096172917.6,4803200000.0
sz002956,西麦食品,2020-12-25,29.9,30.4,29.17,29.71,30.02,1811027.0,54128844.0,2074526894.8,4753600000.0
sz002956,西麦食品,2020-12-28,29.74,30.19,28.02,28.32,29.71,2549902.0,72521381.0,1977468921.6,4531200000.0
sz002956,西麦食品,2020-12-29,28.3,28.88,27.8,28.7,28.32,1671936.0,47451281.0,2004002756.0,4592000000.0
sz002956,西麦食品,2020-12-30,28.6,29.14,28.22,28.45,28.7,1175924.0,33625557.0,1986546286.0,4552000000.0
sz002956,西麦食品,2020-12-31,28.49,28.67,28.19,28.31,28.45,1600781.0,45495996.0,1976770662.8,4529600000.0
sz002956,西麦食品,2021-01-04,28.3,28.66,27.8,28.42,28.31,2835927.0,80278755.0,1984451509.6,4547200000.0
sz002956,西麦食品,2021-01-05,28.4,30.24,28.11,30.24,28.42,5311281.0,155231270.0,2111534611.2,4838400000.0
sz002956,西麦食品,2021-01-06,30.01,30.03,28.83,28.97,30.24,3344127.0,97544382.0,2022855743.6,4635200000.0
sz002956,西麦食品,2021-01-07,28.7,28.77,26.07,26.07,28.97,5857879.0,157306092.0,1820360691.6,4171200000.0
sz002956,西麦食品,2021-01-08,25.98,26.33,24.54,26.11,26.07,3157809.0,80360931.0,1823153726.8,4177600000.0
sz002956,西麦食品,2021-01-11,26.04,26.07,24.06,24.39,26.11,3715300.0,92033748.0,1703053213.1999998,3902400000.0
sz002956,西麦食品,2021-01-12,24.4,25.58,24.2,25.28,24.39,2332501.0,58683336.0,1765198246.4,4044800000.0
sz002956,西麦食品,2021-01-13,25.35,25.58,24.5,25.01,25.28,2033502.0,50550151.0,1746345258.8,4001600000.0
sz002956,西麦食品,2021-01-14,25.36,25.85,24.87,25.32,25.01,1944911.0,49347007.0,1767991281.6,4051200000.0
sz002956,西麦食品,2021-01-15,25.33,26.5,25.02,26.26,25.32,2263010.0,58187429.0,1833627608.8,4201600000.0
sz002956,西麦食品,2021-01-18,26.2,26.65,25.88,26.05,26.26,1900450.0,49666503.0,1818964174.0,4168000000.0
sz002956,西麦食品,2021-01-19,26.07,26.49,25.93,26.03,26.05,1827650.0,47926346.0,1817567656.4,4164800000.0
sz002956,西麦食品,2021-01-20,25.94,26.35,25.3,26.19,26.03,1230700.0,32031446.0,1828739797.2,4190400000.0
sz002956,西麦食品,2021-01-21,26.0,26.43,25.75,26.22,26.19,2558600.0,66957453.0,1830834573.6,4195200000.0
sz002956,西麦食品,2021-01-22,26.36,26.68,25.85,26.24,26.22,2381827.0,62502958.0,1832231091.2,4198400000.0
sz002956,西麦食品,2021-01-25,26.2,26.34,25.2,25.46,26.24,2122600.0,54606929.0,1777766904.8,4073600000.0
sz002956,西麦食品,2021-01-26,25.38,26.15,25.11,25.3,25.46,1317000.0,33705785.0,1766594764.0000002,4048000000.0
sz002956,西麦食品,2021-01-27,25.3,25.4,24.69,25.02,25.3,1104300.0,27510921.0,1747043517.6,4003200000.0
sz002956,西麦食品,2021-01-28,24.82,25.05,24.23,24.36,25.02,1928200.0,47386821.0,1700958436.8,3897600000.0
sz002956,西麦食品,2021-01-29,24.36,24.66,23.73,23.9,24.36,1486500.0,35764775.0,1668838532.0000002,3824000000.0
sz002956,西麦食品,2021-02-01,23.9,23.9,22.4,23.23,23.9,3612100.0,83234051.0,1622055192.4,3716800000.0
sz002956,西麦食品,2021-02-02,23.1,24.85,23.02,24.82,23.23,2798400.0,67666993.0,1733078341.6,3971200000.0
sz002956,西麦食品,2021-02-03,24.88,26.2,24.71,25.45,24.82,3391400.0,86571254.0,1777068646.0,4072000000.0
sz002956,西麦食品,2021-02-04,25.7,28.0,25.61,28.0,25.45,3499388.0,96636105.0,1955124640.0,4480000000.0
sz002956,西麦食品,2021-02-05,28.8,30.79,27.25,28.55,28.0,9793342.0,283968688.0,1993528874.0,4568000000.0
sz002956,西麦食品,2021-02-08,27.63,27.68,25.7,26.84,28.55,6983956.0,184506136.0,1874126619.2,4294400000.0
sz002956,西麦食品,2021-02-09,26.45,27.57,26.02,26.86,26.84,3978248.0,106632267.0,1875523136.8,4297600000.0
sz002956,西麦食品,2021-02-10,26.86,26.86,25.21,25.56,26.86,4161500.0,107407482.0,1784749492.8,4089600000.0
sz002956,西麦食品,2021-02-18,25.7,28.12,25.7,28.12,25.56,3771500.0,103584711.0,1963503745.6,4499200000.0
sz002956,西麦食品,2021-02-19,29.02,30.7,28.76,30.55,28.12,8055108.0,239523189.0,2133180634.0,4888000000.0
sz002956,西麦食品,2021-02-22,30.39,32.5,29.28,31.24,30.55,6627200.0,203786412.0,2181360491.2000003,4998400000.0
sz002956,西麦食品,2021-02-23,30.99,31.0,29.62,29.74,31.24,4098334.0,123146507.0,2076621671.2,4758400000.0
sz002956,西麦食品,2021-02-24,29.77,31.41,29.77,30.4,29.74,3861766.0,117978438.0,2122706752.0,4864000000.0
sz002956,西麦食品,2021-02-25,30.19,30.46,29.28,29.73,30.4,2409084.0,71587920.0,2075923412.4,4756800000.0
sz002956,西麦食品,2021-02-26,29.36,29.36,28.2,28.33,29.73,2749550.0,79083524.0,1978167180.4,4532800000.0
sz002956,西麦食品,2021-03-01,28.62,30.9,28.62,30.75,28.33,4036936.0,121702927.0,2147145810.0,4920000000.0
sz002956,西麦食品,2021-03-02,30.67,30.8,29.43,30.0,30.75,3421460.0,102530837.0,2094776400.0,4800000000.0
sz002956,西麦食品,2021-03-03,29.82,32.8,29.35,31.95,30.0,5728667.0,179034445.0,2230936866.0,5112000000.0
sz002956,西麦食品,2021-03-04,31.67,32.66,30.8,31.43,31.95,4296018.0,135235224.0,2194627408.4,5028800000.0
sz002956,西麦食品,2021-03-05,30.97,31.25,30.1,30.88,31.43,2336908.0,71939212.0,2156223174.4,4940800000.0
sz002956,西麦食品,2021-03-08,30.91,31.5,29.86,30.8,30.88,3172334.0,96888126.0,2150637104.0,4928000000.0
sz002956,西麦食品,2021-03-09,30.3,30.5,28.2,28.22,30.8,3783284.0,109887421.0,1970486333.6,4515200000.0
sz002956,西麦食品,2021-03-10,28.76,28.87,26.5,26.61,28.22,3184326.0,86472026.0,1858066666.8,4257600000.0
sz002956,西麦食品,2021-03-11,26.44,28.5,26.44,27.94,26.61,2675599.0,73696291.0,1950935087.2,4470400000.0
sz002956,西麦食品,2021-03-12,27.89,27.89,27.22,27.75,27.94,1824283.0,50153741.0,1937668170.0,4440000000.0
sz002956,西麦食品,2021-03-15,27.75,28.05,27.1,27.53,27.75,1390399.0,38421111.0,1922306476.4,4404800000.0
sz002956,西麦食品,2021-03-16,27.67,28.62,27.67,28.61,27.53,1777120.0,50268342.0,1997718426.8,4577600000.0
sz002956,西麦食品,2021-03-17,28.49,29.18,28.23,28.7,28.61,1446700.0,41653226.0,2004002756.0,4592000000.0
sz002956,西麦食品,2021-03-18,28.7,28.96,28.38,28.41,28.7,1305383.0,37294144.0,1983753250.8,4545600000.0
sz002956,西麦食品,2021-03-19,27.71,28.4,27.7,28.0,28.41,1304900.0,36623555.0,1955124640.0,4480000000.0
sz002956,西麦食品,2021-03-22,27.89,28.73,27.66,27.78,28.0,1258100.0,35173400.0,1939762946.4,4444800000.0
sz002956,西麦食品,2021-03-23,27.77,27.98,27.3,27.61,27.78,1143488.0,31597141.0,1927892546.8,4417600000.0
sz002956,西麦食品,2021-03-24,27.61,27.75,26.69,27.22,27.61,1399700.0,37867999.0,1900660453.6,4355200000.0
sz002956,西麦食品,2021-03-25,26.96,27.53,26.88,27.23,27.22,871700.0,23734271.0,1901358712.4,4356800000.0
sz002956,西麦食品,2021-03-26,27.28,27.47,27.04,27.31,27.23,798900.0,21793606.0,1906944782.8,4369600000.0
sz002956,西麦食品,2021-03-29,27.32,27.72,27.22,27.43,27.31,860400.0,23643568.0,1915323888.4,4388800000.0
sz002956,西麦食品,2021-03-30,27.42,27.42,26.52,26.57,27.43,1443197.0,38734657.0,1855273631.6,4251200000.0
sz002956,西麦食品,2021-03-31,26.56,27.09,26.02,26.76,26.57,1189000.0,31653135.0,1868540548.8,4281600000.0
sz002956,西麦食品,2021-04-01,26.76,26.98,26.49,26.81,26.76,831381.0,22272122.0,1872031842.8,4289600000.0
sz002956,西麦食品,2021-04-02,26.8,27.44,26.61,27.23,26.81,1166200.0,31626733.0,1901358712.4,4356800000.0
sz002956,西麦食品,2021-04-06,28.21,28.22,27.5,27.88,27.23,1327050.0,36995669.0,1946745534.4,4460800000.0
sz002956,西麦食品,2021-04-07,27.89,28.75,27.71,28.36,27.88,1488917.0,42141127.0,1980261956.8,4537600000.0
sz002956,西麦食品,2021-04-08,28.25,29.76,27.96,29.04,28.36,2741800.0,79696710.0,2027743555.2,4646400000.0
sz002956,西麦食品,2021-04-09,28.9,29.15,28.25,28.59,29.04,1613383.0,46151787.0,1996321909.2,4574400000.0
sz002956,西麦食品,2021-04-12,28.39,28.81,27.78,27.8,28.59,1206850.0,34010894.0,1941159464.0,4448000000.0
sz002956,西麦食品,2021-04-13,27.61,28.18,27.26,27.5,27.8,992400.0,27497202.0,1920211700.0,4400000000.0
sz002956,西麦食品,2021-04-14,27.4,27.85,26.91,27.74,27.5,919400.0,25242857.0,1936969911.2,4438400000.0
sz002956,西麦食品,2021-04-15,28.03,28.44,27.75,27.97,27.74,1317865.0,37027130.0,1953029863.6,4475200000.0
sz002956,西麦食品,2021-04-16,27.96,28.3,27.58,28.15,27.97,1182582.0,33100187.0,1965598522.0,4504000000.0
sz002956,西麦食品,2021-04-19,28.16,28.16,27.43,27.97,28.15,1499073.0,41708801.0,1953029863.6,4475200000.0
sz002956,西麦食品,2021-04-20,27.97,29.2,27.9,28.59,27.97,2409376.0,69043009.0,1996321909.2,4574400000.0
sz002956,西麦食品,2021-04-21,28.47,29.38,28.31,28.92,28.59,2413676.0,69804183.0,2019364449.6,4627200000.0
sz002956,西麦食品,2021-04-22,28.93,29.92,28.68,29.86,28.92,3313251.0,97485811.0,2085000776.8,4777600000.0
sz002956,西麦食品,2021-04-23,29.46,29.85,28.55,29.02,29.86,3018951.0,87833450.0,2026347037.6,4643200000.0
sz002956,西麦食品,2021-04-26,28.97,29.51,28.61,29.08,29.02,1886476.0,54696734.0,2030536590.4,4652800000.0
sz002956,西麦食品,2021-04-27,28.98,28.98,28.15,28.17,29.08,1410900.0,40076586.0,1966995039.6,4507200000.0
sz002956,西麦食品,2021-04-28,28.0,28.07,27.11,27.84,28.17,1833200.0,50366799.0,1943952499.2,4454400000.0
sz002956,西麦食品,2021-04-29,28.11,30.0,28.11,28.95,27.84,2830500.0,82346296.0,2021459226.0,4632000000.0
sz002956,西麦食品,2021-04-30,28.94,29.45,28.6,28.92,28.95,2097000.0,60959282.0,2019364449.6,4627200000.0
sz002956,西麦食品,2021-05-06,28.91,30.29,28.91,30.28,28.92,4575183.0,137030394.0,2114327646.4,4844800000.0
sz002956,西麦食品,2021-05-07,30.0,30.15,29.48,29.89,30.28,2693100.0,80138365.0,2087095553.2,4782400000.0
sz002956,西麦食品,2021-05-10,29.89,29.97,28.1,28.47,29.89,3181000.0,91808423.0,1987942803.6,4555200000.0
sz002956,西麦食品,2021-05-11,28.47,29.65,28.22,28.96,28.47,2522183.0,73224940.0,2022157484.8,4633600000.0
sz002956,西麦食品,2021-05-12,28.79,28.99,27.74,28.71,28.96,2419700.0,68380762.0,2004701014.8,4593600000.0
sz002956,西麦食品,2021-05-13,28.36,31.58,28.21,31.58,28.71,7273783.0,223267283.0,2205101290.4,5052800000.0
sz002956,西麦食品,2021-05-14,34.74,34.74,34.74,34.74,31.58,939217.0,32628399.0,2425751071.2,5558400000.0
sz002956,西麦食品,2021-05-17,38.21,38.21,35.1,35.91,34.74,18033299.0,662046593.0,2507447350.8,5745600000.0
sz002956,西麦食品,2021-05-18,35.3,35.5,33.08,33.76,35.91,11403495.0,387149999.0,2357321708.8,5401600000.0
sz002956,西麦食品,2021-05-19,33.1,34.98,32.51,34.38,33.76,8956290.0,303249937.0,2400613754.4,5500800000.0
sz002956,西麦食品,2021-05-20,33.5,34.37,33.03,33.26,34.38,5665962.0,189789354.0,2322408768.8,5321600000.0
sz002956,西麦食品,2021-05-21,33.46,34.0,32.52,32.55,33.26,5536386.0,184196899.0,2272832394.0,5208000000.0
sz002956,西麦食品,2021-05-24,31.87,32.2,31.29,31.33,32.55,5258400.0,165999106.0,2187644820.4,5012800000.0
sz002956,西麦食品,2021-05-25,31.3,32.84,31.02,32.4,31.33,5451501.0,175424497.0,2262358512.0,5184000000.0
sz002956,西麦食品,2021-05-26,32.11,33.05,31.6,32.7,32.4,4185408.0,136092896.0,2283306276.0,5232000000.0
sz002956,西麦食品,2021-05-27,32.44,33.2,32.16,32.22,32.7,3634500.0,118189155.0,2249789853.6,5155200000.0
sz002956,西麦食品,2021-05-28,32.2,32.73,31.76,32.73,32.22,3204711.0,103466458.0,2285401052.4,5236800000.0
sz002956,西麦食品,2021-05-31,32.7,34.35,32.48,33.79,32.73,5305734.0,177081066.0,2310826465.2000003,5406400000.0
sz002956,西麦食品,2021-06-01,33.51,33.76,32.38,33.0,33.79,3966000.0,130578267.0,2256800040.0,5280000000.0
sz002956,西麦食品,2021-06-02,32.96,33.33,32.34,32.53,33.0,3456200.0,113508664.0,2224657736.4,5204800000.0
sz002956,西麦食品,2021-06-03,32.53,32.72,31.27,31.33,32.53,4158700.0,130959814.0,2142592280.4,5012800000.0
sz002956,西麦食品,2021-06-04,31.12,31.68,31.01,31.39,31.33,1765700.0,55411324.0,2146695553.2,5022400000.0
sz002956,西麦食品,2021-06-07,31.35,31.7,30.81,31.53,31.39,1968300.0,61544606.0,2156269856.4,5044800000.0
sz002956,西麦食品,2021-06-08,31.34,31.48,30.41,30.66,31.53,1959300.0,60344673.0,2096772400.8,4905600000.0
sz002956,西麦食品,2021-06-09,30.78,31.66,30.51,31.48,30.66,2082200.0,65129685.0,2152850462.4,5036800000.0
sz002956,西麦食品,2021-06-10,31.41,32.21,31.4,31.51,31.48,2212100.0,70402217.0,2154902098.8,5041600000.0
sz002956,西麦食品,2021-06-11,31.56,31.82,30.86,31.07,31.51,1504200.0,46766286.0,2124811431.6,4971200000.0
sz002956,西麦食品,2021-06-15,31.17,31.88,30.81,31.74,31.07,1827500.0,57561674.0,2170631311.2000003,5078400000.0
sz002956,西麦食品,2021-06-16,31.67,32.0,31.31,31.56,31.74,1527200.0,48309078.0,2158321492.8,5049600000.0
sz002956,西麦食品,2021-06-17,31.45,32.95,31.1,32.6,31.56,2849898.0,92579869.0,2229444888.0,5216000000.0
sz002956,西麦食品,2021-06-18,32.37,32.71,31.86,32.22,32.6,2073334.0,66731347.0,2203457493.6,5155200000.0
sz002956,西麦食品,2021-06-21,31.98,32.22,31.55,31.82,32.22,1613600.0,51479590.0,2176102341.6,5091200000.0
sz002956,西麦食品,2021-06-22,31.7,31.7,30.3,30.82,31.82,3146298.0,96475421.0,2107714461.6,4931200000.0
sz002956,西麦食品,2021-06-23,30.75,30.79,30.21,30.48,30.82,1634800.0,49854222.0,2084462582.4,4876800000.0
sz002956,西麦食品,2021-06-24,30.48,31.1,30.2,30.56,30.48,1242900.0,38129473.0,2089933612.8,4889600000.0
sz002956,西麦食品,2021-06-25,30.5,30.51,29.82,30.12,30.56,1787444.0,53718001.0,2059842945.6,4819200000.0
sz002956,西麦食品,2021-06-28,30.13,30.49,29.23,29.3,30.12,2288900.0,67639097.0,2003764884.0,4688000000.0
sz002956,西麦食品,2021-06-29,29.34,29.48,29.11,29.29,29.3,1049486.0,30774228.0,2003081005.2,4686400000.0
sz002956,西麦食品,2021-06-30,29.37,29.66,29.12,29.62,29.29,987371.0,29051944.0,2025649005.6,4739200000.0
sz002956,西麦食品,2021-07-01,29.46,29.9,29.15,29.56,29.62,1227392.0,36151149.0,2020895412.8,4729600000.0
sz002956,西麦食品,2021-07-02,29.25,29.36,28.34,28.66,29.56,1596394.0,46132288.0,1959366120.8,4585600000.0
sz002956,西麦食品,2021-07-05,28.71,28.99,28.2,28.81,28.66,1162000.0,33239610.0,1969621002.8,4609600000.0
sz002956,西麦食品,2021-07-06,28.9,28.9,28.3,28.51,28.81,922900.0,26275948.0,1949111238.8,4561600000.0
sz002956,西麦食品,2021-07-07,28.6,29.14,28.56,28.79,28.51,999300.0,28849142.0,1968253685.2,4606400000.0
sz002956,西麦食品,2021-07-08,28.79,28.98,27.88,28.88,28.79,1902041.0,53857012.0,1974406614.4,4620800000.0
sz002956,西麦食品,2021-07-09,29.0,31.77,29.0,31.77,28.88,3840901.0,119311100.0,2171984007.6,5083200000.0
sz002956,西麦食品,2021-07-12,31.88,32.43,30.89,32.08,31.77,5285186.0,167304269.0,2193177430.4,5132800000.0
sz002956,西麦食品,2021-07-13,31.86,32.49,31.55,32.47,32.08,3040775.0,97467677.0,2219840123.6,5195200000.0
sz002956,西麦食品,2021-07-14,32.8,32.8,31.82,32.2,32.47,2218300.0,71440986.0,2201381336.0,5152000000.0
sz002956,西麦食品,2021-07-15,32.01,32.68,31.35,31.35,32.2,2752041.0,88030188.0,2143270338.0,5016000000.0
sz002956,西麦食品,2021-07-16,22.2,22.28,21.3,21.44,22.13,2764440.0,59986680.0,2052070254.08,4802560000.0
sz002956,西麦食品,2021-07-19,21.34,21.35,20.39,20.77,21.44,2404985.0,49839999.0,1987943058.64,4652480000.0
sz002956,西麦食品,2021-07-20,20.64,21.18,20.43,20.5,20.77,1994340.0,41196055.0,1962100756.0,4592000000.0
sz002956,西麦食品,2021-07-21,20.62,20.9,20.27,20.66,20.5,2827760.0,58069307.0,1977414713.12,4627840000.0
sz002956,西麦食品,2021-07-22,20.6,20.63,20.2,20.27,20.66,2297057.0,46784042.0,1940086942.64,4540480000.0
sz002956,西麦食品,2021-07-23,20.21,20.26,19.38,19.39,20.27,3347020.0,65899408.0,1855860178.48,4343360000.0
sz002956,西麦食品,2021-07-26,19.37,19.38,18.24,18.71,19.39,2949820.0,55306144.0,1790775860.72,4191040000.0
sz002956,西麦食品,2021-07-27,18.51,18.88,18.3,18.36,18.71,1756960.0,32591259.0,1757276579.52,4112640000.0
sz002956,西麦食品,2021-07-28,18.34,18.34,17.42,17.58,18.36,2091421.0,37053424.0,1682621038.56,3937920000.0
sz002956,西麦食品,2021-07-29,17.75,18.05,17.68,17.8,17.58,1653980.0,29486532.0,1703677729.6,3987200000.0
sz002956,西麦食品,2021-07-30,17.8,18.28,17.38,18.26,17.8,2163780.0,38604508.0,1747705356.3200002,4090240000.0
sz002956,西麦食品,2021-08-02,18.2,18.76,17.8,18.58,18.26,2074780.0,38072565.0,1778333270.5600002,4161920000.0
sz002956,西麦食品,2021-08-03,18.6,18.97,18.46,18.77,18.58,2139483.0,40128004.0,1796518594.64,4204480000.0
sz002956,西麦食品,2021-08-04,19.05,19.1,18.4,18.48,18.77,2217340.0,41261869.0,1768762047.36,4139520000.0
sz002956,西麦食品,2021-08-05,18.33,18.65,17.98,18.0,18.48,1937312.0,35301050.0,1722820176.0,4032000000.0
sz002956,西麦食品,2021-08-06,17.99,18.18,17.71,18.09,18.0,1849752.0,33222599.0,1731434276.88,4052160000.0
sz002956,西麦食品,2021-08-09,18.08,19.26,17.89,18.95,18.09,3698270.0,69761424.0,1813746796.4,4244800000.0
sz002956,西麦食品,2021-08-10,18.82,19.69,18.71,19.63,18.95,3537695.0,68221685.0,1878831114.16,4397120000.0
sz002956,西麦食品,2021-08-11,19.59,19.94,19.32,19.56,19.63,2752785.0,53940517.0,1872131257.92,4381440000.0
sz002956,西麦食品,2021-08-12,19.6,19.83,19.31,19.35,19.56,1685994.0,32833681.0,1852031689.2,4334400000.0
sz002956,西麦食品,2021-08-13,19.45,19.58,19.05,19.33,19.35,1356360.0,26142392.0,1850117444.56,4329920000.0
sz002956,西麦食品,2021-08-16,19.18,19.55,19.18,19.33,19.33,2113890.0,40934983.0,1850117444.56,4329920000.0
sz002956,西麦食品,2021-08-17,19.33,19.33,18.32,18.37,19.33,2642680.0,49524124.0,1758233701.84,4114880000.0
sz002956,西麦食品,2021-08-18,18.06,18.2,17.52,17.88,18.37,3302020.0,58909985.0,1711334708.1599998,4005120000.0
sz002956,西麦食品,2021-08-19,17.8,17.95,17.22,17.23,17.88,3255180.0,56746432.0,1649121757.36,3859520000.0
sz002956,西麦食品,2021-08-20,17.03,17.2,16.55,16.67,17.23,2890942.0,48302350.0,1595522907.44,3734080000.0
sz002956,西麦食品,2021-08-23,16.59,17.42,16.59,17.34,16.67,2158782.0,36912863.0,1659650102.88,3884160000.0
sz002956,西麦食品,2021-08-24,17.46,17.5,17.16,17.21,17.34,1600040.0,27695487.0,1647207512.72,3855040000.0
sz002956,西麦食品,2021-08-25,17.21,17.48,17.17,17.44,17.21,1982415.0,34367240.0,1669221326.0800002,3906560000.0
sz002956,西麦食品,2021-08-26,17.44,17.46,17.0,17.08,17.44,1577560.0,26960664.0,1634764922.56,3825920000.0
sz002956,西麦食品,2021-08-27,17.05,17.21,16.73,16.96,17.08,1234380.0,20953893.0,1623279454.72,3799040000.0
sz002956,西麦食品,2021-08-30,17.0,17.1,16.81,16.9,16.96,1286420.0,21793641.0,1617536720.8,3785600000.0
sz002956,西麦食品,2021-08-31,16.85,17.01,16.67,16.78,16.9,1200820.0,20154449.0,1606051252.96,3758720000.0
sz002956,西麦食品,2021-09-01,16.84,17.2,16.57,17.19,16.78,2047910.0,34693826.0,1645293268.0800002,3850560000.0
sz002956,西麦食品,2021-09-02,17.15,17.32,16.92,17.17,17.19,1634870.0,28020317.0,1643379023.44,3846080000.0
sz002956,西麦食品,2021-09-03,17.1,17.39,16.92,17.3,17.17,1825940.0,31439485.0,1655821613.6,3875200000.0
sz002956,西麦食品,2021-09-06,17.36,17.49,17.09,17.4,17.3,1773180.0,30709090.0,1665392836.8,3897600000.0
sz002956,西麦食品,2021-09-07,17.36,17.49,17.3,17.41,17.4,1469300.0,25556994.0,1666349959.12,3899840000.0
sz002956,西麦食品,2021-09-08,17.4,17.64,17.35,17.63,17.41,1981890.0,34823172.0,1687406650.16,3949120000.0
sz002956,西麦食品,2021-09-09,17.71,18.11,17.46,17.52,17.63,2050010.0,36192500.0,1676878304.64,3924480000.0
sz002956,西麦食品,2021-09-10,17.58,17.65,17.26,17.35,17.52,1649708.0,28713084.0,1660607225.2,3886400000.0
sz002956,西麦食品,2021-09-13,17.35,17.65,17.25,17.47,17.35,1178900.0,20576766.0,1672092693.04,3913280000.0
sz002956,西麦食品,2021-09-14,17.5,17.68,17.12,17.17,17.47,1376140.0,23884225.0,1643379023.44,3846080000.0
sz002956,西麦食品,2021-09-15,17.3,17.3,16.92,17.06,17.17,1229679.0,20961083.0,1632850677.9199998,3821440000.0
sz002956,西麦食品,2021-09-16,17.07,17.42,17.05,17.07,17.06,1436080.0,24657679.0,1633807800.24,3823680000.0
sz002956,西麦食品,2021-09-17,17.0,17.11,16.8,16.89,17.07,1442199.0,24358968.0,1616579598.48,3783360000.0
sz002956,西麦食品,2021-09-22,16.74,16.89,16.62,16.84,16.89,1105900.0,18514764.0,1611793986.88,3772160000.0
sz002956,西麦食品,2021-09-23,16.84,17.26,16.8,17.03,16.84,1388079.0,23686369.0,1629979310.9599998,3814720000.0
sz002956,西麦食品,2021-09-24,17.02,18.49,17.02,17.91,17.03,6107786.0,109596232.0,1714206075.12,4011840000.0
sz002956,西麦食品,2021-09-27,17.7,18.49,17.56,18.14,17.91,4804180.0,86838245.0,1736219888.48,4063360000.0
sz002956,西麦食品,2021-09-28,17.8,17.94,17.31,17.83,18.14,2334039.0,41144791.0,1706549096.56,3993920000.0
sz002956,西麦食品,2021-09-29,17.6,18.29,17.35,17.94,17.83,3534360.0,63231172.0,1717077442.08,4018560000.0
sz002956,西麦食品,2021-09-30,18.03,18.09,17.62,17.85,17.94,1857140.0,33144767.0,1708463341.2,3998400000.0
sz002956,西麦食品,2021-10-08,17.8,19.0,17.69,18.87,17.85,4824500.0,89125828.0,1806089817.84,4226880000.0
sz002956,西麦食品,2021-10-11,18.88,19.44,18.43,18.67,18.87,4102277.0,76846242.0,1786947371.44,4182080000.0
sz002956,西麦食品,2021-10-12,18.67,18.67,18.27,18.4,18.67,2236766.0,41161110.0,1761105068.8,4121600000.0
sz002956,西麦食品,2021-10-13,18.47,18.88,18.16,18.88,18.4,3506884.0,65116344.0,1807046940.16,4229120000.0
sz002956,西麦食品,2021-10-14,18.68,18.8,18.28,18.36,18.88,2736093.0,50383272.0,1757276579.52,4112640000.0
sz002956,西麦食品,2021-10-15,18.19,18.5,17.82,18.07,18.36,2647526.0,47847689.0,1729520032.2399998,4047680000.0
sz002956,西麦食品,2021-10-18,18.06,18.06,17.09,17.38,18.07,2476947.0,43015908.0,1663478592.16,3893120000.0
sz002956,西麦食品,2021-10-19,17.0,18.08,17.0,17.79,17.38,2354600.0,41593944.0,1702720607.2800002,3984960000.0
sz002956,西麦食品,2021-10-20,17.85,17.95,17.49,17.54,17.79,1343280.0,23710023.0,1678792549.2800002,3928960000.0
sz002956,西麦食品,2021-10-21,17.5,18.39,17.5,18.09,17.54,2764242.0,49759665.0,1731434276.88,4052160000.0
sz002956,西麦食品,2021-10-22,18.0,18.5,17.85,18.29,18.09,2848768.0,51845561.0,1750576723.28,4096960000.0
sz002956,西麦食品,2021-10-25,18.4,18.4,17.5,17.75,18.29,3074720.0,54771528.0,1698892118.0,3976000000.0
sz002956,西麦食品,2021-10-26,17.68,18.15,17.56,18.1,17.75,2285220.0,40996955.0,1732391399.1999998,4054400000.0
sz002956,西麦食品,2021-10-27,17.98,17.98,17.22,17.44,18.1,2350620.0,40893353.0,1669221326.08,3906560000.0
sz002956,西麦食品,2021-10-28,17.24,17.73,17.0,17.55,17.44,2158180.0,37453027.0,1679749671.6,3931200000.0
sz002956,西麦食品,2021-10-29,17.33,18.24,16.95,17.89,17.55,3281060.0,58329484.0,1712291830.48,4007360000.0
sz002956,西麦食品,2021-11-01,17.81,18.55,17.5,18.3,17.89,3588600.0,65573341.0,1751533845.6,4099200000.0
sz002956,西麦食品,2021-11-02,18.31,19.0,18.3,18.91,18.3,6664200.0,124718295.0,1809918307.12,4235840000.0
sz002956,西麦食品,2021-11-03,19.0,19.17,18.55,18.95,18.91,5245600.0,98827550.0,1813746796.4,4244800000.0
sz002956,西麦食品,2021-11-04,18.73,19.7,18.65,19.7,18.95,6898899.0,133787603.0,1885530970.4,4412800000.0
sz002956,西麦食品,2021-11-05,19.58,19.94,18.88,18.99,19.7,5981360.0,115464584.0,1817575285.68,4253760000.0
sz002956,西麦食品,2021-11-08,18.9,18.9,18.43,18.67,18.99,2615526.0,48635126.0,1786947371.44,4182080000.0
sz002956,西麦食品,2021-11-09,18.69,18.85,18.48,18.82,18.67,1960750.0,36687357.0,1801304206.24,4215680000.0
sz002956,西麦食品,2021-11-10,18.8,18.85,18.3,18.47,18.82,2401890.0,44399266.0,1767804925.04,4137280000.0
sz002956,西麦食品,2021-11-11,18.47,18.51,18.12,18.32,18.47,2481540.0,45416560.0,1753448090.2399998,4103680000.0
sz002956,西麦食品,2021-11-12,18.27,18.37,18.04,18.06,18.32,2209560.0,40151065.0,1728562909.9199998,4045440000.0
sz002956,西麦食品,2021-11-15,18.06,18.69,18.0,18.68,18.06,2977420.0,54935168.0,1787904493.76,4184320000.0
sz002956,西麦食品,2021-11-16,18.65,18.88,18.41,18.52,18.68,2194060.0,40706625.0,1772590536.64,4148480000.0
sz002956,西麦食品,2021-11-17,18.52,18.56,18.13,18.2,18.52,2035400.0,37069822.0,1741962622.4,4076800000.0
sz002956,西麦食品,2021-11-18,18.2,18.45,18.06,18.12,18.2,1741020.0,31722448.0,1734305643.84,4058880000.0
sz002956,西麦食品,2021-11-19,18.22,18.26,17.83,18.2,18.12,1784620.0,32233818.0,1741962622.4,4076800000.0
sz002956,西麦食品,2021-11-22,18.2,18.28,17.91,18.28,18.2,1658580.0,30029763.0,1749619600.96,4094720000.0
sz002956,西麦食品,2021-11-23,18.22,18.58,18.02,18.41,18.28,2841060.0,52169400.0,1762062191.12,4123840000.0
sz002956,西麦食品,2021-11-24,18.23,18.48,18.03,18.12,18.41,1920560.0,34885896.0,1734305643.84,4057800591.6
sz002956,西麦食品,2021-11-25,18.16,18.25,18.08,18.09,18.12,1342846.0,24346794.0,1731434276.8799999,4051082378.7000003
sz002956,西麦食品,2021-11-26,18.04,18.14,17.86,17.89,18.09,1588990.0,28487001.0,1712291830.48,4006294292.7000003
sz002956,西麦食品,2021-11-29,17.82,17.89,17.58,17.63,17.89,1307760.0,23149259.0,1687406650.16,3948069780.9
sz002956,西麦食品,2021-11-30,17.65,17.78,17.44,17.5,17.63,1565624.0,27568061.0,1674964060.0,3918957525.0
sz002956,西麦食品,2021-12-01,17.54,17.74,17.41,17.71,17.5,1020280.0,17978872.0,1695063628.72,3965985015.3
sz002956,西麦食品,2021-12-02,17.75,18.06,17.65,17.76,17.71,1645120.0,29363944.0,1699849240.3200002,3977182036.7999997
sz002956,西麦食品,2021-12-03,17.78,17.82,17.6,17.63,17.76,1164314.0,20567491.0,1687406650.16,3948069780.9
sz002956,西麦食品,2021-12-06,17.7,17.75,17.42,17.44,17.63,1201845.0,21056925.0,1669221326.0800002,3905521099.2000003
sz002956,西麦食品,2021-12-07,17.5,17.75,17.44,17.71,17.44,1225365.0,21627444.0,1695063628.72,3965985015.3
sz002956,西麦食品,2021-12-08,17.76,18.28,17.7,18.2,17.71,3674135.0,66369749.0,1741962622.4,4075715826.0
sz002956,西麦食品,2021-12-09,18.2,18.43,18.1,18.19,18.2,2544640.0,46402122.0,1741005500.08,4073476421.7000003
sz002956,西麦食品,2021-12-10,18.12,18.42,17.98,18.22,18.19,1766060.0,32177093.0,1743876867.04,4080194634.6
sz002956,西麦食品,2021-12-13,18.15,18.4,18.15,18.39,18.22,2490240.0,45558999.0,1760147946.48,4118264507.7
sz002956,西麦食品,2021-12-14,18.27,18.7,18.27,18.49,18.39,2644344.0,48989973.0,1769719169.68,4140658550.7
sz002956,西麦食品,2021-12-15,18.49,18.49,18.0,18.14,18.49,2224780.0,40447334.0,1736219888.48,4062279400.2
sz002956,西麦食品,2021-12-16,18.08,18.24,18.04,18.14,18.14,1225428.0,22240289.0,1736219888.48,4062279400.2
sz002956,西麦食品,2021-12-17,19.0,19.0,18.25,18.28,18.14,4148400.0,76999069.0,1749619600.96,4093631060.3999996
sz002956,西麦食品,2021-12-20,18.08,18.28,17.9,18.0,18.28,1880237.0,34004671.0,1722820176.0,4030927739.9999995
sz002956,西麦食品,2021-12-21,17.98,18.1,17.79,17.97,18.0,1549224.0,27776976.0,1719948809.04,4024209527.1
sz002956,西麦食品,2021-12-22,17.98,18.09,17.9,18.0,17.97,981320.0,17653333.0,1722820176.0,4030927739.9999995
sz002956,西麦食品,2021-12-23,18.07,18.08,17.72,17.76,18.0,1505120.0,26798103.0,1699849240.3200002,3977182036.7999997
sz002956,西麦食品,2021-12-24,17.79,18.06,17.75,17.92,17.76,1382480.0,24765836.0,1715163197.44,4013012505.6000004
sz002956,西麦食品,2021-12-27,18.07,18.36,17.96,18.36,17.92,2933840.0,53462323.0,1757276579.52,4111546294.8
sz002956,西麦食品,2021-12-28,18.4,18.5,18.23,18.32,18.36,1994640.0,36577337.0,1753448090.2399998,4102588677.6
sz002956,西麦食品,2021-12-29,18.22,18.45,18.1,18.18,18.32,1494500.0,27203177.0,1740048377.76,4071237017.4
sz002956,西麦食品,2021-12-30,18.2,18.35,18.2,18.24,18.18,1357180.0,24780792.0,1745791111.68,4084673443.2
sz002956,西麦食品,2021-12-31,18.2,18.53,18.11,18.44,18.24,2282660.0,41973505.0,1764933558.08,4129461529.2000003
sz002956,西麦食品,2022-01-04,18.44,18.75,18.3,18.75,18.44,3285224.0,61155179.0,1794604350.0,4198883062.5
sz002956,西麦食品,2022-01-05,18.74,18.96,18.49,18.69,18.75,3580980.0,67160697.0,1788861616.08,4185446636.7
sz002956,西麦食品,2022-01-06,18.69,18.9,18.56,18.8,18.69,2367880.0,44415507.0,1799389961.6000001,4210080084.0
sz002956,西麦食品,2022-01-07,18.98,18.98,18.38,18.38,18.8,2718120.0,50674306.0,1759190824.1599998,4116025103.3999996
sz002956,西麦食品,2022-01-10,18.3,18.91,18.18,18.71,18.38,2575200.0,47943162.0,1790775860.72,4189925445.3
sz002956,西麦食品,2022-01-11,18.89,18.91,18.43,18.45,18.71,1675680.0,31164353.0,1765890680.4,4131700933.5
sz002956,西麦食品,2022-01-12,18.55,19.29,18.46,19.22,18.45,5656420.0,107645191.0,1839589099.04,4304135064.6
sz002956,西麦食品,2022-01-13,19.22,19.3,18.94,19.08,19.22,3795438.0,72467593.0,1826189386.5600002,4272783404.4
sz002956,西麦食品,2022-01-14,19.43,19.98,18.0,18.1,19.08,9091444.0,169833084.0,1732391399.1999998,4053321783.0000005
