数据由邢不行整理
股票代码,股票名称,交易日期,开盘价,最高价,最低价,收盘价,前收盘价,成交量,成交额,流通市值,总市值
sz002926,N华西,2018-02-05,11.35,13.62,11.35,13.62,9.46,439012.0,5959235.0,7150500000.0,35752500000.0
sz002926,华西证券,2018-02-06,14.98,14.98,14.98,14.98,13.62,494455.0,7406935.0,7864500000.0,39322500000.0
sz002926,华西证券,2018-02-07,16.48,16.48,16.48,16.48,14.98,495475.0,8165428.0,8652000000.0,43260000000.0
sz002926,华西证券,2018-02-08,18.13,18.13,15.51,16.66,16.48,198581182.0,3277728861.0,8746500000.0,43732500000.0
sz002926,华西证券,2018-02-09,15.81,16.34,15.3,15.76,16.66,117362497.0,1863083726.0,8274000000.0,41370000000.0
sz002926,华西证券,2018-02-12,16.04,16.44,15.58,16.11,15.76,96944574.0,1557113817.0,8457750000.0,42288750000.0
sz002926,华西证券,2018-02-13,15.98,16.06,14.83,14.83,16.11,119228160.0,1841710884.0,7785750000.0,38928750000.0
sz002926,华西证券,2018-02-14,14.37,14.55,13.86,14.0,14.83,76037693.0,1077729711.0,7350000000.0,36750000000.0
sz002926,华西证券,2018-02-22,14.15,14.28,13.88,14.11,14.0,54172532.0,765336197.0,7407750000.0,37038750000.0
sz002926,华西证券,2018-02-23,14.01,14.57,13.98,14.3,14.11,59236825.0,847991817.0,7507500000.0,37537500000.0
sz002926,华西证券,2018-02-26,14.6,15.6,14.34,15.17,14.3,103717739.0,1536032289.0,7964250000.0,39821250000.0
sz002926,华西证券,2018-02-27,14.89,14.99,14.7,14.78,15.17,68611685.0,1017357239.0,7759500000.0,38797500000.0
sz002926,华西证券,2018-02-28,14.41,14.95,14.23,14.56,14.78,70504260.0,1025535457.0,7644000000.0,38220000000.0
sz002926,华西证券,2018-03-01,14.39,14.94,14.31,14.86,14.56,63944550.0,938902942.0,7801500000.0,39007500000.0
sz002926,华西证券,2018-03-02,14.67,15.1,14.61,14.61,14.86,63565976.0,942090559.0,7670250000.0,38351250000.0
sz002926,华西证券,2018-03-05,14.43,14.69,14.25,14.48,14.61,45516729.0,657426668.0,7602000000.0,38010000000.0
sz002926,华西证券,2018-03-06,14.61,15.62,14.57,15.2,14.48,120135715.0,1810573872.0,7980000000.0,39900000000.0
sz002926,华西证券,2018-03-07,15.08,15.32,14.7,14.74,15.2,74199932.0,1105528959.0,7738500000.0,38692500000.0
sz002926,华西证券,2018-03-08,14.61,14.98,14.58,14.91,14.74,51582992.0,764209342.0,7827750000.0,39138750000.0
sz002926,华西证券,2018-03-09,14.94,15.49,14.87,15.35,14.91,98857407.0,1505117393.0,8058750000.0,40293750000.0
sz002926,华西证券,2018-03-12,15.64,15.98,15.25,15.46,15.35,108948267.0,1694550589.0,8116500000.0,40582500000.0
sz002926,华西证券,2018-03-13,15.31,15.31,15.0,15.07,15.46,70938344.0,1074039508.0,7911750000.0,39558750000.0
sz002926,华西证券,2018-03-14,15.02,15.42,14.98,15.12,15.07,64002936.0,973454928.0,7938000000.0,39690000000.0
sz002926,华西证券,2018-03-15,14.5,14.69,14.04,14.3,15.12,84342267.0,1208887598.0,7507500000.0,37537500000.0
sz002926,华西证券,2018-03-16,14.24,14.42,14.1,14.11,14.3,39631299.0,565259098.0,7407750000.0,37038750000.0
sz002926,华西证券,2018-03-19,14.1,14.48,14.08,14.26,14.11,33761848.0,482490427.0,7486500000.0,37432500000.0
sz002926,华西证券,2018-03-20,14.08,14.25,13.85,14.19,14.26,42987966.0,603320684.0,7449750000.0,37248750000.0
sz002926,华西证券,2018-03-21,14.19,14.91,14.18,14.31,14.19,77416087.0,1124409483.0,7512750000.0,37563750000.0
sz002926,华西证券,2018-03-22,14.25,14.46,14.07,14.15,14.31,43078015.0,613255490.0,7428750000.0,37143750000.0
sz002926,华西证券,2018-03-23,13.4,13.72,12.74,12.79,14.15,65332812.0,866200341.0,6714750000.0,33573750000.0
sz002926,华西证券,2018-03-26,12.55,13.1,12.36,13.01,12.79,35746972.0,456201258.0,6830250000.0,34151250000.0
sz002926,华西证券,2018-03-27,13.25,13.4,13.08,13.22,13.01,42098774.0,557092972.0,6940500000.0,34702500000.0
sz002926,华西证券,2018-03-28,12.99,13.5,12.92,13.13,13.22,37727098.0,499682292.0,6893250000.0,34466250000.0
sz002926,华西证券,2018-03-29,13.29,13.59,13.24,13.37,13.13,46215357.0,619819722.0,7019250000.0,35096250000.0
sz002926,华西证券,2018-03-30,13.38,13.67,13.28,13.45,13.37,38338986.0,514786778.0,7061250000.0,35306250000.0
sz002926,华西证券,2018-04-02,13.44,13.84,13.31,13.35,13.45,45990490.0,623931243.0,7008750000.0,35043750000.0
sz002926,华西证券,2018-04-03,13.04,13.35,12.91,13.13,13.35,30122066.0,395567825.0,6893250000.0,34466250000.0
sz002926,华西证券,2018-04-04,13.26,13.65,13.19,13.24,13.13,43218068.0,580377303.0,6951000000.0,34755000000.0
sz002926,华西证券,2018-04-09,13.12,13.51,13.01,13.51,13.24,38403024.0,510817966.0,7092750000.0,35463750000.0
sz002926,华西证券,2018-04-10,13.6,14.13,13.57,13.87,13.51,69103246.0,953659277.0,7281750000.0,36408750000.0
sz002926,华西证券,2018-04-11,13.66,13.79,13.5,13.63,13.87,47261247.0,644604028.0,7155750000.0,35778750000.0
sz002926,华西证券,2018-04-12,13.6,13.85,13.55,13.67,13.63,38431830.0,526416032.0,7176750000.0,35883750000.0
sz002926,华西证券,2018-04-13,13.79,13.85,13.31,13.32,13.67,36583289.0,496580837.0,6993000000.0,34965000000.0
sz002926,华西证券,2018-04-16,13.18,13.28,12.92,12.93,13.32,33980958.0,443507906.0,6788250000.0,33941250000.0
sz002926,华西证券,2018-04-17,13.01,13.27,12.78,12.81,12.93,30569223.0,398878844.0,6725250000.0,33626250000.0
sz002926,华西证券,2018-04-18,13.0,13.09,12.77,13.04,12.81,27298309.0,353534435.0,6846000000.0,34230000000.0
sz002926,华西证券,2018-04-19,12.99,13.23,12.95,13.0,13.04,30970597.0,405024138.0,6825000000.0,34125000000.0
sz002926,华西证券,2018-04-20,12.92,12.95,12.38,12.41,13.0,33630202.0,426502820.0,6515250000.0,32576250000.0
sz002926,华西证券,2018-04-23,12.44,12.62,12.36,12.52,12.41,16814309.0,209830357.0,6573000000.0,32865000000.0
sz002926,华西证券,2018-04-24,12.5,12.97,12.48,12.88,12.52,34336560.0,438310151.0,6762000000.0,33810000000.0
sz002926,华西证券,2018-04-25,12.7,12.85,12.66,12.75,12.88,20921119.0,266396811.0,6693750000.0,33468750000.0
sz002926,华西证券,2018-04-26,12.73,12.79,12.22,12.28,12.75,26030115.0,325837253.0,6447000000.0,32235000000.0
sz002926,华西证券,2018-04-27,12.35,12.58,12.3,12.42,12.28,20657539.0,256973818.0,6520500000.0,32602500000.0
sz002926,华西证券,2018-05-02,12.8,12.87,12.38,12.46,12.42,21382771.0,269294228.0,6541500000.0,32707500000.0
sz002926,华西证券,2018-05-03,12.4,12.91,12.35,12.9,12.46,46455546.0,591977669.0,6772500000.0,33862500000.0
sz002926,华西证券,2018-05-04,12.76,12.84,12.6,12.66,12.9,27174482.0,345370570.0,6646500000.0,33232500000.0
sz002926,华西证券,2018-05-07,12.75,12.9,12.71,12.85,12.66,27112228.0,347630746.0,6746250000.0,33731250000.0
sz002926,华西证券,2018-05-08,12.81,12.95,12.74,12.88,12.85,28945126.0,372158696.0,6762000000.0,33810000000.0
sz002926,华西证券,2018-05-09,12.85,12.9,12.68,12.75,12.88,21361321.0,272547816.0,6693750000.0,33468750000.0
sz002926,华西证券,2018-05-10,12.8,12.85,12.65,12.84,12.75,21881727.0,279128476.0,6741000000.0,33705000000.0
sz002926,华西证券,2018-05-11,12.87,12.88,12.54,12.55,12.84,22612660.0,286654797.0,6588750000.0,32943750000.0
sz002926,华西证券,2018-05-14,12.51,12.74,12.51,12.58,12.55,18401710.0,232316669.0,6604500000.0,33022500000.0
sz002926,华西证券,2018-05-15,12.7,12.7,12.41,12.66,12.58,22266595.0,279392020.0,6646500000.0,33232500000.0
sz002926,华西证券,2018-05-16,12.6,12.63,12.42,12.44,12.66,18412297.0,230493133.0,6531000000.0,32655000000.0
sz002926,华西证券,2018-05-17,12.45,12.57,12.44,12.46,12.44,12780902.0,159540438.0,6541500000.0,32707500000.0
sz002926,华西证券,2018-05-18,12.48,12.68,12.42,12.65,12.46,24999920.0,313974778.0,6641250000.0,33206250000.0
sz002926,华西证券,2018-05-21,12.74,12.84,12.63,12.74,12.65,28965691.0,368885352.0,6688500000.0,33442500000.0
sz002926,华西证券,2018-05-22,12.71,13.03,12.6,12.97,12.74,47713602.0,611456325.0,6809250000.0,34046250000.0
sz002926,华西证券,2018-05-23,12.87,12.93,12.71,12.74,12.97,31108258.0,398898624.0,6688500000.0,33442500000.0
sz002926,华西证券,2018-05-24,12.7,12.85,12.64,12.67,12.74,18538085.0,235988231.0,6651750000.0,33258750000.0
sz002926,华西证券,2018-05-25,12.64,12.73,12.42,12.47,12.67,19587827.0,246425911.0,6546750000.0,32733750000.0
sz002926,华西证券,2018-05-28,12.43,12.63,12.42,12.51,12.47,16488863.0,206390835.0,6567750000.0,32838750000.0
sz002926,华西证券,2018-05-29,12.46,12.56,12.27,12.3,12.51,19330097.0,239569507.0,6457500000.0,32287500000.0
sz002926,华西证券,2018-05-30,12.02,12.07,11.4,11.49,12.3,34131346.0,401052054.0,6032250000.0,30161250000.0
sz002926,华西证券,2018-05-31,11.6,11.65,11.48,11.62,11.49,17176631.0,199086165.0,6100500000.0,30502500000.0
sz002926,华西证券,2018-06-01,11.56,12.07,11.45,11.71,11.62,30133639.0,354068070.0,6147750000.0,30738750000.0
sz002926,华西证券,2018-06-04,11.7,11.82,11.59,11.6,11.71,14984301.0,175045846.0,6090000000.0,30450000000.0
sz002926,华西证券,2018-06-05,11.65,11.75,11.6,11.75,11.6,13410883.0,156767740.0,6168750000.0,30843750000.0
sz002926,华西证券,2018-06-06,11.7,11.93,11.66,11.78,11.75,18285958.0,215316002.0,6184500000.0,30922500000.0
sz002926,华西证券,2018-06-07,11.81,12.05,11.78,11.79,11.78,26371406.0,313957216.0,6189750000.0,30948750000.0
sz002926,华西证券,2018-06-08,11.71,11.74,11.4,11.46,11.79,19867999.0,228686216.0,6016500000.0,30082500000.0
sz002926,华西证券,2018-06-11,11.42,11.66,11.35,11.48,11.46,13711700.0,158017500.0,6027000000.0,30135000000.0
sz002926,华西证券,2018-06-12,11.46,11.55,11.36,11.53,11.48,13664676.0,156979558.0,6053250000.0,30266250000.0
sz002926,华西证券,2018-06-13,11.48,11.56,11.14,11.17,11.53,15448948.0,175260804.0,5864250000.0,29321250000.0
sz002926,华西证券,2018-06-14,11.15,11.4,11.15,11.22,11.17,13068543.0,147216217.0,5890500000.0,29452500000.0
sz002926,华西证券,2018-06-15,11.22,11.28,10.83,10.92,11.22,17494307.0,193312241.0,5733000000.0,28665000000.0
sz002926,华西证券,2018-06-19,10.78,10.8,9.83,9.83,10.92,29673215.0,302076753.0,5160750000.0,25803750000.0
sz002926,华西证券,2018-06-20,9.79,9.98,9.57,9.87,9.83,19379397.0,190392963.0,5181750000.0,25908750000.0
sz002926,华西证券,2018-06-21,9.85,9.95,9.39,9.42,9.87,19942466.0,193096802.0,4945500000.0,24727500000.0
sz002926,华西证券,2018-06-22,9.38,9.65,9.3,9.64,9.42,17690244.0,168854671.0,5061000000.0,25305000000.0
sz002926,华西证券,2018-06-25,9.72,9.84,9.59,9.59,9.64,14280670.0,138411383.0,5034750000.0,25173750000.0
sz002926,华西证券,2018-06-26,9.43,9.95,9.4,9.9,9.59,23201489.0,226867795.0,5197500000.0,25987500000.0
sz002926,华西证券,2018-06-27,9.89,9.89,9.72,9.8,9.9,15982038.0,156591355.0,5145000000.0,25725000000.0
sz002926,华西证券,2018-06-28,9.82,10.24,9.77,9.86,9.8,32689575.0,326571332.0,5176500000.0,25882500000.0
sz002926,华西证券,2018-06-29,9.81,10.14,9.8,10.04,9.86,22857806.0,227905190.0,5271000000.0,26355000000.0
sz002926,华西证券,2018-07-02,10.0,10.04,9.62,9.69,10.04,18211923.0,179533433.0,5087250000.0,25436250000.0
sz002926,华西证券,2018-07-03,9.67,9.87,9.62,9.84,9.69,14151816.0,138252862.0,5166000000.0,25830000000.0
sz002926,华西证券,2018-07-04,9.8,9.8,9.5,9.54,9.84,17052717.0,164215625.0,5008500000.0,25042500000.0
sz002926,华西证券,2018-07-05,9.6,9.88,9.52,9.53,9.54,23054668.0,223993256.0,5003250000.0,25016250000.0
sz002926,华西证券,2018-07-06,9.55,9.79,9.27,9.57,9.53,23869955.0,227797905.0,5024250000.0,25121250000.0
sz002926,华西证券,2018-07-09,9.58,9.73,9.56,9.72,9.57,14518184.0,140461704.0,5103000000.0,25515000000.0
sz002926,华西证券,2018-07-10,9.7,9.77,9.63,9.74,9.72,14827135.0,143955431.0,5113500000.0,25567500000.0
sz002926,华西证券,2018-07-11,9.56,9.6,9.28,9.41,9.74,18241066.0,172339726.0,4940250000.0,24701250000.0
sz002926,华西证券,2018-07-12,9.42,10.18,9.42,10.05,9.41,47672219.0,472684919.0,5276250000.0,26381250000.0
sz002926,华西证券,2018-07-13,9.98,10.01,9.81,9.84,10.05,27304957.0,269939653.0,5166000000.0,25830000000.0
sz002926,华西证券,2018-07-16,9.88,9.91,9.68,9.76,9.84,17933584.0,175163158.0,5124000000.0,25620000000.0
sz002926,华西证券,2018-07-17,9.73,9.76,9.65,9.75,9.76,10566193.0,102530884.0,5118750000.0,25593750000.0
sz002926,华西证券,2018-07-18,9.75,9.84,9.57,9.57,9.75,15769017.0,153008680.0,5024250000.0,25121250000.0
sz002926,华西证券,2018-07-19,9.56,9.67,9.47,9.49,9.57,10407201.0,99413016.0,4982250000.0,24911250000.0
sz002926,华西证券,2018-07-20,9.47,10.05,9.46,9.87,9.49,36949022.0,362644519.0,5181750000.0,25908750000.0
sz002926,华西证券,2018-07-23,9.73,10.18,9.67,10.03,9.87,38525436.0,382713338.0,5265750000.0,26328750000.0
sz002926,华西证券,2018-07-24,10.0,10.58,9.97,10.2,10.03,53826074.0,553129352.0,5355000000.0,26775000000.0
sz002926,华西证券,2018-07-25,10.12,10.2,10.03,10.13,10.2,25750187.0,260290103.0,5318250000.0,26591250000.0
sz002926,华西证券,2018-07-26,10.15,10.18,10.01,10.04,10.13,16281254.0,164094752.0,5271000000.0,26355000000.0
sz002926,华西证券,2018-07-27,10.0,10.1,9.97,9.98,10.04,13229234.0,132668604.0,5239500000.0,26197500000.0
sz002926,华西证券,2018-07-30,9.96,10.09,9.9,9.98,9.98,11200510.0,111766975.0,5239500000.0,26197500000.0
sz002926,华西证券,2018-07-31,9.92,10.09,9.89,10.0,9.98,11792434.0,117779067.0,5250000000.0,26250000000.0
sz002926,华西证券,2018-08-01,10.03,10.1,9.75,9.77,10.0,15782981.0,156815436.0,5129250000.0,25646250000.0
sz002926,华西证券,2018-08-02,9.7,9.73,9.28,9.41,9.77,19208829.0,182012930.0,4940250000.0,24701250000.0
sz002926,华西证券,2018-08-03,9.42,9.48,9.3,9.31,9.41,8727342.0,82044014.0,4887750000.0,24438750000.0
sz002926,华西证券,2018-08-06,9.38,9.46,9.15,9.27,9.31,9797985.0,91323901.0,4866750000.0,24333750000.0
sz002926,华西证券,2018-08-07,9.3,9.51,9.25,9.5,9.27,13701278.0,129023459.0,4987500000.0,24937500000.0
sz002926,华西证券,2018-08-08,9.43,9.52,9.27,9.3,9.5,10594561.0,99442578.0,4882500000.0,24412500000.0
sz002926,华西证券,2018-08-09,9.26,9.57,9.26,9.47,9.3,13282181.0,125828810.0,4971750000.0,24858750000.0
sz002926,华西证券,2018-08-10,9.44,9.55,9.41,9.47,9.47,8828076.0,83578358.0,4971750000.0,24858750000.0
sz002926,华西证券,2018-08-13,9.35,9.45,9.28,9.41,9.47,9652110.0,90204978.0,4940250000.0,24701250000.0
sz002926,华西证券,2018-08-14,9.4,9.47,9.37,9.44,9.41,6937374.0,65383571.0,4956000000.0,24780000000.0
sz002926,华西证券,2018-08-15,9.46,9.47,9.27,9.27,9.44,7560900.0,70634159.0,4866750000.0,24333750000.0
sz002926,华西证券,2018-08-16,9.21,9.56,9.16,9.36,9.27,15373736.0,144368009.0,4914000000.0,24570000000.0
sz002926,华西证券,2018-08-17,9.42,9.46,9.21,9.22,9.36,10299100.0,96400302.0,4840500000.0,24202500000.0
sz002926,华西证券,2018-08-20,9.21,9.39,9.21,9.37,9.22,9080396.0,84643538.0,4919250000.0,24596250000.0
sz002926,华西证券,2018-08-21,9.35,9.47,9.33,9.42,9.37,8855434.0,83329399.0,4945500000.0,24727500000.0
sz002926,华西证券,2018-08-22,9.41,9.41,9.28,9.3,9.42,6684800.0,62343675.0,4882500000.0,24412500000.0
sz002926,华西证券,2018-08-23,9.31,9.51,9.29,9.43,9.3,11939179.0,112352773.0,4950750000.0,24753750000.0
sz002926,华西证券,2018-08-24,9.37,9.52,9.33,9.44,9.39,12381818.0,116811190.0,4956000000.0,24780000000.0
sz002926,华西证券,2018-08-27,9.42,9.58,9.42,9.57,9.44,16563494.0,157775473.0,5024250000.0,25121250000.0
sz002926,华西证券,2018-08-28,9.56,9.58,9.44,9.49,9.57,10723538.0,101882982.0,4982250000.0,24911250000.0
sz002926,华西证券,2018-08-29,9.49,9.5,9.4,9.41,9.49,8099762.0,76468382.0,4940250000.0,24701250000.0
sz002926,华西证券,2018-08-30,9.43,9.46,9.25,9.25,9.41,9395200.0,87673770.0,4856250000.0,24281250000.0
sz002926,华西证券,2018-08-31,9.27,9.38,9.23,9.25,9.25,6656637.0,61848568.0,4856250000.0,24281250000.0
sz002926,华西证券,2018-09-03,9.25,9.3,9.2,9.27,9.25,5557329.0,51403905.0,4866750000.0,24333750000.0
sz002926,华西证券,2018-09-04,9.27,9.41,9.25,9.34,9.27,7980544.0,74503486.0,4903500000.0,24517500000.0
sz002926,华西证券,2018-09-05,9.33,9.38,9.2,9.21,9.34,7464580.0,69385852.0,4835250000.0,24176250000.0
sz002926,华西证券,2018-09-06,9.21,9.29,9.2,9.22,9.21,6508556.0,60127070.0,4840500000.0,24202500000.0
sz002926,华西证券,2018-09-07,9.22,9.38,9.22,9.25,9.22,8344088.0,77552922.0,4856250000.0,24281250000.0
sz002926,华西证券,2018-09-10,9.23,9.26,8.96,8.96,9.25,13435083.0,121799634.0,4704000000.0,23520000000.0
sz002926,华西证券,2018-09-11,8.97,9.07,8.91,8.97,8.96,5730032.0,51436866.0,4709250000.0,23546250000.0
sz002926,华西证券,2018-09-12,8.97,9.09,8.95,9.01,8.97,6275364.0,56702159.0,4730250000.0,23651250000.0
sz002926,华西证券,2018-09-13,9.08,9.11,9.02,9.1,9.01,7127449.0,64624355.0,4777500000.0,23887500000.0
sz002926,华西证券,2018-09-14,9.08,9.11,8.97,8.98,9.1,5997905.0,54239641.0,4714500000.0,23572500000.0
sz002926,华西证券,2018-09-17,8.95,8.97,8.78,8.81,8.98,7537096.0,66872818.0,4625250000.0,23126250000.0
sz002926,华西证券,2018-09-18,8.78,8.99,8.78,8.99,8.81,8143422.0,72628480.0,4719750000.0,23598750000.0
sz002926,华西证券,2018-09-19,8.94,9.1,8.92,9.04,8.99,8457657.0,76357963.0,4746000000.0,23730000000.0
sz002926,华西证券,2018-09-20,9.05,9.12,8.99,9.01,9.04,6847861.0,61951327.0,4730250000.0,23651250000.0
sz002926,华西证券,2018-09-21,9.02,9.24,8.99,9.23,9.01,17702197.0,161798164.0,4845750000.0,24228750000.0
sz002926,华西证券,2018-09-25,9.14,9.16,9.09,9.11,9.23,8261804.0,75293325.0,4782750000.0,23913750000.0
sz002926,华西证券,2018-09-26,9.09,9.19,9.08,9.11,9.11,12582990.0,115013244.0,4782750000.0,23913750000.0
sz002926,华西证券,2018-09-27,9.03,9.03,8.86,8.86,9.11,12701119.0,113478120.0,4651500000.0,23257500000.0
sz002926,华西证券,2018-09-28,8.87,8.95,8.86,8.92,8.86,5687618.0,50733564.0,4683000000.0,23415000000.0
sz002926,华西证券,2018-10-08,8.79,8.8,8.52,8.55,8.92,8656341.0,75215696.0,4488750000.0,22443750000.0
sz002926,华西证券,2018-10-09,8.59,8.62,8.54,8.59,8.55,4146325.0,35544952.0,4509750000.0,22548750000.0
sz002926,华西证券,2018-10-10,8.56,8.65,8.54,8.57,8.59,4504300.0,38641139.0,4499250000.0,22496250000.0
sz002926,华西证券,2018-10-11,8.18,8.26,7.71,7.71,8.57,17023843.0,134855890.0,4047750000.0,20238750000.0
sz002926,华西证券,2018-10-12,7.69,7.69,7.17,7.42,7.71,12357993.0,92016828.0,3895500000.0,19477500000.0
sz002926,华西证券,2018-10-15,7.43,7.5,7.23,7.25,7.42,7176230.0,53026576.0,3806250000.0,19031250000.0
sz002926,华西证券,2018-10-16,7.25,7.41,7.16,7.21,7.25,7149366.0,52030625.0,3785250000.0,18926250000.0
sz002926,华西证券,2018-10-17,7.31,7.34,7.15,7.29,7.21,6634502.0,48136195.0,3827250000.0,19136250000.0
sz002926,华西证券,2018-10-18,7.29,7.29,7.1,7.11,7.29,5431156.0,39041321.0,3732750000.0,18663750000.0
sz002926,华西证券,2018-10-19,7.03,7.43,6.99,7.36,7.11,11505747.0,83260002.0,3864000000.0,19320000000.0
sz002926,华西证券,2018-10-22,7.45,8.1,7.4,8.1,7.36,29290914.0,231387932.0,4252500000.0,21262500000.0
sz002926,华西证券,2018-10-23,8.49,8.63,8.02,8.1,8.1,52066907.0,434593834.0,4252500000.0,21262500000.0
sz002926,华西证券,2018-10-24,7.87,8.48,7.82,8.27,8.1,38307832.0,315633385.0,4341750000.0,21708750000.0
sz002926,华西证券,2018-10-25,7.97,8.67,7.87,8.67,8.27,47688094.0,398270879.0,4551750000.0,22758750000.0
sz002926,华西证券,2018-10-26,8.75,8.78,8.36,8.42,8.67,36913850.0,315918511.0,4420500000.0,22102500000.0
sz002926,华西证券,2018-10-29,8.3,8.52,8.1,8.23,8.42,21881503.0,181691464.0,4320750000.0,21603750000.0
sz002926,华西证券,2018-10-30,8.25,9.05,8.12,9.05,8.23,73494380.0,648628742.0,4751250000.0,23756250000.0
sz002926,华西证券,2018-10-31,8.9,9.05,8.71,8.91,9.05,57535922.0,510355911.0,4677750000.0,23388750000.0
sz002926,华西证券,2018-11-01,8.9,9.47,8.85,8.91,8.91,58770354.0,535893979.0,4677750000.0,23388750000.0
sz002926,华西证券,2018-11-02,9.12,9.17,8.91,9.15,8.91,39698181.0,360262355.0,4803750000.0,24018750000.0
sz002926,华西证券,2018-11-05,9.27,9.47,9.15,9.41,9.15,55628959.0,519909859.0,4940250000.0,24701250000.0
sz002926,华西证券,2018-11-06,9.27,9.44,9.02,9.15,9.41,35873053.0,329883421.0,4803750000.0,24018750000.0
sz002926,华西证券,2018-11-07,9.03,9.14,8.95,8.98,9.15,24476431.0,221096492.0,4714500000.0,23572500000.0
sz002926,华西证券,2018-11-08,9.11,9.13,8.82,8.82,8.98,28120223.0,252499250.0,4630500000.0,23152500000.0
sz002926,华西证券,2018-11-09,8.71,8.93,8.71,8.81,8.82,17743950.0,156762166.0,4625250000.0,23126250000.0
sz002926,华西证券,2018-11-12,8.77,8.97,8.75,8.97,8.81,19394386.0,172023099.0,4709250000.0,23546250000.0
sz002926,华西证券,2018-11-13,8.78,9.46,8.76,9.22,8.97,44662224.0,407332298.0,4840500000.0,24202500000.0
sz002926,华西证券,2018-11-14,9.16,9.27,9.01,9.02,9.22,27224275.0,248392193.0,4735500000.0,23677500000.0
sz002926,华西证券,2018-11-15,9.05,9.31,8.98,9.26,9.02,32849108.0,302390949.0,4861500000.0,24307500000.0
sz002926,华西证券,2018-11-16,9.3,10.08,9.2,9.69,9.26,69711818.0,672210108.0,5087250000.0,25436250000.0
sz002926,华西证券,2018-11-19,9.57,10.37,9.55,10.11,9.69,75241162.0,750773693.0,5307750000.0,26538750000.0
sz002926,华西证券,2018-11-20,9.93,10.16,9.62,9.64,10.11,50141139.0,495545018.0,5061000000.0,25305000000.0
sz002926,华西证券,2018-11-21,9.46,9.79,9.41,9.75,9.64,35429853.0,341126285.0,5118750000.0,25593750000.0
sz002926,华西证券,2018-11-22,9.75,9.8,9.5,9.62,9.75,24292285.0,233597089.0,5050500000.0,25252500000.0
sz002926,华西证券,2018-11-23,9.52,9.71,9.03,9.11,9.62,28960263.0,270064743.0,4782750000.0,23913750000.0
sz002926,华西证券,2018-11-26,9.11,9.23,8.99,9.11,9.11,14742345.0,134227287.0,4782750000.0,23913750000.0
sz002926,华西证券,2018-11-27,9.19,9.26,9.04,9.19,9.11,15781100.0,144500734.0,4824750000.0,24123750000.0
sz002926,华西证券,2018-11-28,9.17,9.48,9.12,9.41,9.19,27768874.0,259389180.0,4940250000.0,24701250000.0
sz002926,华西证券,2018-11-29,9.44,9.52,8.92,8.92,9.41,24719159.0,228180058.0,4683000000.0,23415000000.0
sz002926,华西证券,2018-11-30,8.83,9.13,8.8,9.07,8.92,17783870.0,159117066.0,4761750000.0,23808750000.0
sz002926,华西证券,2018-12-03,9.56,9.66,9.32,9.37,9.07,31132117.0,294584883.0,4919250000.0,24596250000.0
sz002926,华西证券,2018-12-04,9.37,9.47,9.32,9.44,9.37,15101349.0,142059134.0,4956000000.0,24780000000.0
sz002926,华西证券,2018-12-05,9.23,9.35,9.18,9.2,9.44,17078705.0,158062341.0,4830000000.0,24150000000.0
sz002926,华西证券,2018-12-06,9.16,9.25,9.03,9.1,9.2,13875588.0,126719063.0,4777500000.0,23887500000.0
sz002926,华西证券,2018-12-07,9.1,9.18,9.05,9.1,9.1,8839112.0,80582491.0,4777500000.0,23887500000.0
sz002926,华西证券,2018-12-10,9.01,9.06,8.89,8.97,9.1,8486530.0,76106633.0,4709250000.0,23546250000.0
sz002926,华西证券,2018-12-11,9.04,9.06,8.94,9.05,8.97,6969635.0,62815578.0,4751250000.0,23756250000.0
sz002926,华西证券,2018-12-12,9.07,9.22,9.06,9.11,9.05,9010789.0,82413847.0,4782750000.0,23913750000.0
sz002926,华西证券,2018-12-13,9.12,9.31,9.06,9.22,9.11,15174759.0,139939969.0,4840500000.0,24202500000.0
sz002926,华西证券,2018-12-14,9.2,9.33,9.06,9.08,9.22,16724376.0,154075785.0,4767000000.0,23835000000.0
sz002926,华西证券,2018-12-17,9.0,9.1,8.9,9.06,9.08,9588162.0,86479581.0,4756500000.0,23782500000.0
sz002926,华西证券,2018-12-18,9.02,9.07,8.89,8.95,9.06,8475431.0,75942446.0,4698750000.0,23493750000.0
sz002926,华西证券,2018-12-19,8.97,9.02,8.85,8.89,8.95,5953056.0,53181212.0,4667250000.0,23336250000.0
sz002926,华西证券,2018-12-20,8.89,9.1,8.84,9.05,8.89,10579460.0,95148818.0,4751250000.0,23756250000.0
sz002926,华西证券,2018-12-21,8.98,9.05,8.89,8.96,9.05,6813477.0,61036215.0,4704000000.0,23520000000.0
sz002926,华西证券,2018-12-24,8.91,9.01,8.85,8.94,8.96,7571543.0,67571594.0,4693500000.0,23467500000.0
sz002926,华西证券,2018-12-25,8.86,8.87,8.32,8.51,8.94,15890065.0,135157138.0,4467750000.0,22338750000.0
sz002926,华西证券,2018-12-26,8.5,8.58,8.34,8.37,8.51,7553644.0,63715157.0,4394250000.0,21971250000.0
sz002926,华西证券,2018-12-27,8.56,8.59,8.2,8.21,8.37,7313301.0,61759163.0,4310250000.0,21551250000.0
sz002926,华西证券,2018-12-28,8.29,8.51,8.21,8.37,8.21,8893299.0,74701092.0,4394250000.0,21971250000.0
sz002926,华西证券,2019-01-02,8.37,8.44,8.3,8.4,8.37,5534055.0,46314226.0,4410000000.0,22050000000.0
sz002926,华西证券,2019-01-03,8.4,8.77,8.37,8.51,8.4,12518332.0,107876748.0,4467750000.0,22338750000.0
sz002926,华西证券,2019-01-04,8.4,9.36,8.38,9.27,8.51,44604913.0,405032560.0,4866750000.0,24333750000.0
sz002926,华西证券,2019-01-07,9.26,9.27,9.04,9.14,9.27,28582060.0,261462019.0,4798500000.0,23992500000.0
sz002926,华西证券,2019-01-08,9.07,9.32,9.0,9.14,9.14,22771963.0,208443799.0,4798500000.0,23992500000.0
sz002926,华西证券,2019-01-09,9.11,9.36,9.11,9.15,9.14,21214784.0,195494888.0,4803750000.0,24018750000.0
sz002926,华西证券,2019-01-10,9.16,9.18,8.96,9.0,9.15,15223100.0,137952817.0,4725000000.0,23625000000.0
sz002926,华西证券,2019-01-11,9.0,9.1,8.98,9.05,9.0,9543781.0,86281100.0,4751250000.0,23756250000.0
sz002926,华西证券,2019-01-14,9.17,9.66,9.08,9.29,9.05,30266432.0,283508736.0,4877250000.0,24386250000.0
sz002926,华西证券,2019-01-15,9.22,9.63,9.21,9.51,9.29,39524753.0,374214539.0,4992750000.0,24963750000.0
sz002926,华西证券,2019-01-16,9.45,9.46,9.29,9.36,9.51,18667901.0,174683203.0,4914000000.0,24570000000.0
sz002926,华西证券,2019-01-17,9.34,9.42,9.21,9.22,9.36,12770628.0,118639522.0,4840500000.0,24202500000.0
sz002926,华西证券,2019-01-18,9.22,9.36,9.14,9.22,9.22,15846364.0,146304206.0,4840500000.0,24202500000.0
sz002926,华西证券,2019-01-21,9.22,9.32,9.13,9.17,9.22,10352723.0,95364137.0,4814250000.0,24071250000.0
sz002926,华西证券,2019-01-22,9.17,9.2,9.1,9.11,9.17,8730555.0,79870063.0,4782750000.0,23913750000.0
sz002926,华西证券,2019-01-23,9.09,9.14,9.03,9.08,9.11,5766881.0,52374963.0,4767000000.0,23835000000.0
sz002926,华西证券,2019-01-24,9.12,9.32,9.1,9.22,9.08,15132139.0,139735323.0,4840500000.0,24202500000.0
sz002926,华西证券,2019-01-25,9.18,9.24,9.07,9.09,9.22,10036236.0,92017310.0,4772250000.0,23861250000.0
sz002926,华西证券,2019-01-28,9.21,9.26,8.95,8.97,9.09,12568298.0,114538005.0,4709250000.0,23546250000.0
sz002926,华西证券,2019-01-29,8.91,8.93,8.61,8.74,8.97,11954179.0,104772388.0,4588500000.0,22942500000.0
sz002926,华西证券,2019-01-30,8.66,8.76,8.65,8.65,8.74,5870284.0,51022603.0,4541250000.0,22706250000.0
sz002926,华西证券,2019-01-31,8.69,8.79,8.47,8.52,8.65,8918043.0,77160900.0,4473000000.0,22365000000.0
sz002926,华西证券,2019-02-01,8.65,8.77,8.65,8.77,8.52,8686748.0,75748703.0,4604250000.0,23021250000.0
sz002926,华西证券,2019-02-11,7.89,8.63,7.89,8.47,8.77,50387773.0,414465158.0,15060908757.5,22233750000.0
sz002926,华西证券,2019-02-12,8.4,8.76,8.39,8.64,8.47,31763708.0,272511387.0,15363193821.1,22680000000.0
sz002926,华西证券,2019-02-13,8.63,9.27,8.61,9.11,8.64,53337269.0,480829360.0,16198923114.6,23913750000.0
sz002926,华西证券,2019-02-14,9.14,9.26,9.03,9.16,9.11,37233038.0,341663840.0,16287830486.3,24045000000.0
sz002926,华西证券,2019-02-15,9.15,9.32,9.11,9.16,9.16,27839155.0,255698086.0,16287830486.3,24045000000.0
sz002926,华西证券,2019-02-18,9.21,9.67,9.21,9.56,9.16,62517264.0,589248771.0,16999089459.5,25095000000.0
sz002926,华西证券,2019-02-19,9.57,9.84,9.41,9.55,9.56,58251918.0,559599024.0,16981307985.1,25068750000.0
sz002926,华西证券,2019-02-20,9.35,9.47,9.21,9.37,9.55,51022221.0,476285096.0,16661241447.2,24596250000.0
sz002926,华西证券,2019-02-21,9.37,9.68,9.31,9.37,9.37,56355890.0,533273281.0,16661241447.2,24596250000.0
sz002926,华西证券,2019-02-22,9.38,10.3,9.36,10.29,9.37,113161140.0,1116165023.0,18297137085.6,27011250000.0
sz002926,华西证券,2019-02-25,10.6,11.32,10.35,11.32,10.29,135315393.0,1477041458.0,20128628941.6,29715000000.0
sz002926,华西证券,2019-02-26,11.54,11.85,10.88,10.99,11.32,132127812.0,1505158763.0,19541840288.7,28848750000.0
sz002926,华西证券,2019-02-27,10.92,11.31,10.69,10.95,10.99,75289285.0,827282982.0,19470714391.3,28743750000.0
sz002926,华西证券,2019-02-28,10.92,10.97,10.45,10.8,10.95,47507569.0,507456049.0,19203992276.4,28350000000.0
sz002926,华西证券,2019-03-01,10.92,11.37,10.73,11.18,10.8,72871013.0,808791257.0,19879688300.9,29347500000.0
sz002926,华西证券,2019-03-04,11.23,11.93,10.9,11.21,11.18,98641894.0,1117301446.0,19933032723.9,29426250000.0
sz002926,华西证券,2019-03-05,11.04,11.27,10.96,11.26,11.21,52038640.0,579400938.0,20021940095.6,29557500000.0
sz002926,华西证券,2019-03-06,11.28,12.38,11.18,12.28,11.26,143622957.0,1698912493.0,21835650477.2,32235000000.0
sz002926,华西证券,2019-03-07,12.55,13.51,12.28,13.2,12.28,179336261.0,2323408678.0,23471546115.6,34650000000.0
sz002926,华西证券,2019-03-08,12.27,12.95,11.88,11.88,13.2,116870556.0,1446728936.0,21124391504.0,31185000000.0
sz002926,华西证券,2019-03-11,11.92,12.42,11.55,12.37,11.88,73286177.0,882466020.0,21995683746.2,32471250000.0
sz002926,华西证券,2019-03-12,12.41,12.78,12.13,12.45,12.37,77132002.0,963889072.0,22137935540.8,32681250000.0
sz002926,华西证券,2019-03-13,12.41,12.45,11.92,11.97,12.45,53914947.0,653391017.0,21284424773.0,31421250000.0
sz002926,华西证券,2019-03-14,11.8,11.97,11.12,11.37,11.97,63464259.0,728362810.0,20217536313.2,29846250000.0
sz002926,华西证券,2019-03-15,11.45,11.75,11.22,11.4,11.37,43676580.0,501763448.0,20270880736.2,29925000000.0
sz002926,华西证券,2019-03-18,11.4,11.75,11.12,11.75,11.4,40380112.0,464087668.0,20893232337.8,30843750000.0
sz002926,华西证券,2019-03-19,11.76,11.95,11.59,11.7,11.75,31650532.0,371940179.0,20804324966.1,30712500000.0
sz002926,华西证券,2019-03-20,11.68,11.96,11.56,11.82,11.7,44287674.0,520742489.0,21017702658.1,31027500000.0
sz002926,华西证券,2019-03-21,11.8,12.25,11.7,11.99,11.82,62006294.0,743587053.0,21319987721.7,31473750000.0
sz002926,华西证券,2019-03-22,11.93,12.0,11.52,11.8,11.99,36832535.0,433282077.0,20982139709.4,30975000000.0
sz002926,华西证券,2019-03-25,11.46,11.69,11.28,11.31,11.8,35122123.0,403469381.0,20110847467.2,29688750000.0
sz002926,华西证券,2019-03-26,11.4,11.44,10.96,11.05,11.31,31132801.0,348906401.0,19648529134.7,29006250000.0
sz002926,华西证券,2019-03-27,11.15,11.24,10.98,11.09,11.05,24603143.0,273431744.0,19719655032.0,29111250000.0
sz002926,华西证券,2019-03-28,11.01,12.18,10.94,11.45,11.09,59551210.0,691074434.0,20359788107.8,30056250000.0
sz002926,华西证券,2019-03-29,11.6,12.35,11.53,12.33,11.45,109629084.0,1320550205.0,21924557848.9,32366250000.0
sz002926,华西证券,2019-04-01,12.25,12.66,12.02,12.4,12.33,97302416.0,1198056173.0,22049028169.2,32550000000.0
sz002926,华西证券,2019-04-02,12.36,12.57,12.23,12.3,12.4,61421814.0,759783185.0,21871213425.9,32287500000.0
sz002926,华西证券,2019-04-03,12.22,12.78,12.18,12.72,12.3,80217582.0,1004650759.0,22618035347.8,33390000000.0
sz002926,华西证券,2019-04-04,12.75,12.85,12.47,12.6,12.72,61063111.0,769534549.0,22404657655.8,33075000000.0
sz002926,华西证券,2019-04-08,12.63,12.72,12.02,12.25,12.6,51514278.0,636126630.0,21782306054.2,32156250000.0
sz002926,华西证券,2019-04-09,12.2,12.43,12.03,12.3,12.25,29840156.0,365511080.0,21871213425.9,32287500000.0
sz002926,华西证券,2019-04-10,12.0,12.03,11.21,11.77,12.3,80453030.0,939101448.0,20928795286.4,30896250000.0
sz002926,华西证券,2019-04-11,11.64,11.72,11.4,11.44,11.77,31188854.0,360010225.0,20342006633.5,30030000000.0
sz002926,华西证券,2019-04-12,11.45,11.63,11.34,11.51,11.44,25073700.0,288544542.0,20466476953.8,30213750000.0
sz002926,华西证券,2019-04-15,11.73,11.79,11.2,11.31,11.51,28308326.0,327545210.0,20110847467.2,29688750000.0
sz002926,华西证券,2019-04-16,11.23,11.63,11.21,11.6,11.31,35956615.0,411183316.0,20626510222.8,30450000000.0
sz002926,华西证券,2019-04-17,11.6,11.63,11.45,11.51,11.6,24140818.0,278261894.0,20466476953.8,30213750000.0
sz002926,华西证券,2019-04-18,11.5,11.59,11.4,11.41,11.51,20410245.0,234194973.0,20288662210.5,29951250000.0
sz002926,华西证券,2019-04-19,11.44,11.6,11.38,11.51,11.41,20709665.0,237748768.0,20466476953.8,30213750000.0
sz002926,华西证券,2019-04-22,11.68,11.72,11.29,11.31,11.51,25086870.0,288071225.0,20110847467.2,29688750000.0
sz002926,华西证券,2019-04-23,11.3,11.6,11.14,11.37,11.31,30427428.0,345975629.0,20217536313.2,29846250000.0
sz002926,华西证券,2019-04-24,11.35,11.52,11.29,11.46,11.37,18097782.0,206475982.0,20377569582.2,30082500000.0
sz002926,华西证券,2019-04-25,11.45,11.6,11.09,11.11,11.46,27866012.0,316931108.0,19755217980.6,29163750000.0
sz002926,华西证券,2019-04-26,11.05,11.26,10.86,11.0,11.11,28285612.0,312141163.0,19559621763.0,28875000000.0
sz002926,华西证券,2019-04-29,11.0,11.05,10.37,10.43,11.0,30077202.0,318763441.0,18546077726.2,27378750000.0
sz002926,华西证券,2019-04-30,10.48,10.63,10.43,10.52,10.43,16544555.0,174382898.0,18706110995.2,27615000000.0
sz002926,华西证券,2019-05-06,10.1,10.15,9.47,9.47,10.52,35957389.0,351563681.0,16839056190.5,24858750000.0
sz002926,华西证券,2019-05-07,9.56,9.77,9.36,9.77,9.47,32982561.0,316240715.0,17372500420.4,25646250000.0
sz002926,华西证券,2019-05-08,9.5,10.03,9.43,9.89,9.77,29039568.0,285890200.0,17585878112.4,25961250000.0
sz002926,华西证券,2019-05-09,9.76,10.15,9.71,9.79,9.89,25901530.0,257762936.0,17408063369.1,25698750000.0
sz002926,华西证券,2019-05-10,10.04,10.28,9.71,10.19,9.79,34030965.0,343567222.0,18119322342.3,26748750000.0
sz002926,华西证券,2019-05-13,10.03,10.09,9.79,9.82,10.19,25766192.0,255779034.0,17461407792.1,25777500000.0
sz002926,华西证券,2019-05-14,9.71,9.94,9.69,9.82,9.82,16422274.0,161657062.0,17461407792.1,25777500000.0
sz002926,华西证券,2019-05-15,9.91,9.99,9.82,9.91,9.82,17661806.0,175035062.0,17621441061.0,26013750000.0
sz002926,华西证券,2019-05-16,9.9,9.95,9.82,9.92,9.91,13646458.0,134960529.0,17639222535.4,26040000000.0
sz002926,华西证券,2019-05-17,9.95,9.95,9.3,9.38,9.92,26565571.0,254636469.0,16679022921.5,24622500000.0
sz002926,华西证券,2019-05-20,9.31,9.59,9.25,9.48,9.38,15969273.0,150578193.0,16856837664.8,24885000000.0
sz002926,华西证券,2019-05-21,9.46,9.68,9.44,9.61,9.48,15268609.0,146602168.0,17087996831.1,25226250000.0
sz002926,华西证券,2019-05-22,9.59,9.67,9.4,9.46,9.61,12133732.0,115544288.0,16821274716.2,24832500000.0
sz002926,华西证券,2019-05-23,9.47,9.65,9.32,9.41,9.46,13095746.0,124187681.0,16732367344.5,24701250000.0
sz002926,华西证券,2019-05-24,9.38,9.53,9.33,9.39,9.41,10388030.0,97907516.0,16696804395.9,24648750000.0
sz002926,华西证券,2019-05-27,9.39,9.75,9.32,9.7,9.39,22170058.0,213079207.0,17248030100.1,25462500000.0
sz002926,华西证券,2019-05-28,9.66,9.8,9.63,9.79,9.7,16546103.0,160513721.0,17408063369.1,25698750000.0
sz002926,华西证券,2019-05-29,9.7,9.86,9.66,9.74,9.79,15590300.0,152281536.0,17319155997.4,25567500000.0
sz002926,华西证券,2019-05-30,9.68,9.69,9.52,9.59,9.74,10974700.0,105350596.0,17052433882.5,25173750000.0
sz002926,华西证券,2019-05-31,9.61,9.76,9.58,9.61,9.59,10165538.0,98133176.0,17087996831.1,25226250000.0
sz002926,华西证券,2019-06-03,9.66,9.85,9.6,9.68,9.61,15999226.0,155362324.0,17212467151.4,25410000000.0
sz002926,华西证券,2019-06-04,9.67,9.8,9.51,9.76,9.68,17952953.0,173450970.0,17354718946.1,25620000000.0
sz002926,华西证券,2019-06-05,9.85,9.95,9.75,9.77,9.76,21394651.0,210533882.0,17372500420.4,25646250000.0
sz002926,华西证券,2019-06-06,9.77,9.92,9.72,9.8,9.77,23256116.0,228897896.0,17425844843.4,25725000000.0
sz002926,华西证券,2019-06-10,9.76,9.85,9.34,9.67,9.8,18163382.0,174524684.0,17194685677.1,25383750000.0
sz002926,华西证券,2019-06-11,9.64,10.25,9.61,10.16,9.67,32931482.0,330588584.0,18065977919.3,26670000000.0
sz002926,华西证券,2019-06-12,10.1,10.17,10.04,10.1,10.16,17651365.0,178385408.0,17959289073.3,26512500000.0
sz002926,华西证券,2019-06-13,10.07,10.33,10.04,10.2,10.1,21617741.0,221108590.0,18137103816.6,26775000000.0
sz002926,华西证券,2019-06-14,10.15,10.45,10.12,10.16,10.2,40257978.0,414454584.0,18065977919.3,26670000000.0
sz002926,华西证券,2019-06-17,10.19,10.49,10.13,10.47,10.16,26372436.0,273885770.0,18617203623.5,27483750000.0
sz002926,华西证券,2019-06-18,10.5,10.58,10.33,10.45,10.47,19602489.0,204994258.0,18581640674.8,27431250000.0
sz002926,华西证券,2019-06-19,11.0,11.15,10.46,10.55,10.45,31538708.0,340284441.0,18759455418.2,27693750000.0
sz002926,华西证券,2019-06-20,10.5,11.29,10.45,11.08,10.55,47209678.0,517117507.0,19701873557.6,29085000000.0
sz002926,华西证券,2019-06-21,11.03,11.19,10.87,10.97,11.08,33354009.0,367906537.0,19506277340.0,28796250000.0
sz002926,华西证券,2019-06-24,11.01,11.08,10.78,10.84,10.97,17682500.0,192903535.0,19275118173.7,28455000000.0
sz002926,华西证券,2019-06-25,10.85,10.94,10.51,10.9,10.84,31346804.0,335697305.0,19381807019.7,28612500000.0
sz002926,华西证券,2019-06-26,10.6,10.7,10.51,10.52,10.9,19162417.0,203060912.0,18706110995.2,27615000000.0
sz002926,华西证券,2019-06-27,10.57,10.8,10.57,10.65,10.52,18755573.0,200344739.0,18937270161.5,27956250000.0
sz002926,华西证券,2019-06-28,10.66,10.66,10.41,10.5,10.65,12076097.0,126894667.0,18670548046.5,27562500000.0
sz002926,华西证券,2019-07-01,10.8,10.87,10.67,10.71,10.5,23977723.0,257560200.0,19043959007.4,28113750000.0
sz002926,华西证券,2019-07-02,10.68,10.7,10.54,10.57,10.71,13450759.0,142783836.0,18795018366.8,27746250000.0
sz002926,华西证券,2019-07-03,10.57,10.66,10.48,10.56,10.57,12403156.0,130981381.0,18777236892.5,27720000000.0
sz002926,华西证券,2019-07-04,10.58,10.77,10.41,10.49,10.56,19934978.0,210759240.0,18652766572.2,27536250000.0
sz002926,华西证券,2019-07-05,10.48,10.52,10.3,10.46,10.49,11171848.0,116255155.0,18599422149.2,27457500000.0
sz002926,华西证券,2019-07-08,10.39,10.48,10.04,10.07,10.46,15527000.0,158632982.0,17905944650.3,26433750000.0
sz002926,华西证券,2019-07-09,10.13,10.2,10.06,10.12,10.07,18850744.0,190910897.0,17994852022.0,26565000000.0
sz002926,华西证券,2019-07-10,10.14,10.17,9.95,10.03,10.12,18937000.0,190241084.0,17834818753.0,26328750000.0
sz002926,华西证券,2019-07-11,10.06,10.19,9.91,10.01,10.03,14773888.0,148437777.0,17799255804.3,26276250000.0
sz002926,华西证券,2019-07-12,9.97,10.15,9.94,10.09,10.01,10606571.0,106897767.0,17941507599.0,26486250000.0
sz002926,华西证券,2019-07-15,10.14,10.48,10.04,10.36,10.09,22276148.0,229039140.0,18421607405.9,27195000000.0
sz002926,华西证券,2019-07-16,10.3,10.4,10.23,10.31,10.36,11410435.0,117710402.0,18332700034.2,27063750000.0
sz002926,华西证券,2019-07-17,10.27,10.39,10.26,10.34,10.31,10100520.0,104226060.0,18386044457.2,27142500000.0
sz002926,华西证券,2019-07-18,10.24,10.27,10.11,10.13,10.34,9924826.0,101010645.0,18012633496.3,26591250000.0
sz002926,华西证券,2019-07-19,10.2,10.38,10.16,10.27,10.13,12194348.0,125443962.0,18261574136.9,26958750000.0
sz002926,华西证券,2019-07-22,10.28,10.29,9.94,9.99,10.27,13509333.0,135868917.0,17763692855.7,26223750000.0
sz002926,华西证券,2019-07-23,10.03,10.08,9.96,10.01,9.99,11551100.0,115551117.0,17799255804.3,26276250000.0
sz002926,华西证券,2019-07-24,10.04,10.16,10.04,10.07,10.01,12559597.0,126784339.0,17905944650.3,26433750000.0
sz002926,华西证券,2019-07-25,10.05,10.1,9.98,10.08,10.07,8501729.0,85404097.0,17923726124.6,26460000000.0
sz002926,华西证券,2019-07-26,10.07,10.08,9.98,10.03,10.08,7096350.0,71138430.0,17834818753.0,26328750000.0
sz002926,华西证券,2019-07-29,10.04,10.06,9.96,10.0,10.03,6770100.0,67666615.0,17781474330.0,26250000000.0
sz002926,华西证券,2019-07-30,10.03,10.2,9.99,10.08,10.0,17154996.0,173541659.0,17923726124.6,26460000000.0
sz002926,华西证券,2019-07-31,10.06,10.13,10.02,10.06,10.08,10012400.0,100980908.0,17888163176.0,26407500000.0
sz002926,华西证券,2019-08-01,10.01,10.09,9.94,10.0,10.06,9410894.0,94123551.0,17781474330.0,26250000000.0
sz002926,华西证券,2019-08-02,9.8,9.83,9.67,9.72,10.0,12882982.0,125561138.0,17283593048.8,25515000000.0
sz002926,华西证券,2019-08-05,9.68,9.79,9.51,9.52,9.72,9783800.0,94411007.0,16927963562.2,24990000000.0
sz002926,华西证券,2019-08-06,9.33,9.64,9.14,9.44,9.52,18324492.0,171516973.0,16785711767.5,24780000000.0
sz002926,华西证券,2019-08-07,9.45,9.47,9.26,9.26,9.44,8136200.0,76263703.0,16465645229.6,24307500000.0
sz002926,华西证券,2019-08-08,9.47,9.52,9.32,9.35,9.26,11950700.0,112616571.0,16625678498.5,24543750000.0
sz002926,华西证券,2019-08-09,9.41,9.44,9.1,9.14,9.35,10999539.0,101690120.0,16252267537.6,23992500000.0
sz002926,华西证券,2019-08-12,9.23,9.35,9.17,9.35,9.14,12541486.0,116219483.0,16625678498.5,24543750000.0
sz002926,华西证券,2019-08-13,9.25,9.26,9.17,9.2,9.35,7478546.0,68818757.0,16358956383.6,24150000000.0
sz002926,华西证券,2019-08-14,9.36,9.41,9.24,9.25,9.2,10714573.0,99863117.0,16447863755.2,24281250000.0
sz002926,华西证券,2019-08-15,9.02,9.26,8.99,9.23,9.25,9829468.0,89629606.0,16412300806.6,24228750000.0
sz002926,华西证券,2019-08-16,9.24,9.37,9.16,9.27,9.23,11711494.0,108911447.0,16483426703.9,24333750000.0
sz002926,华西证券,2019-08-19,9.36,9.79,9.35,9.77,9.27,28684586.0,275772295.0,17372500420.4,25646250000.0
sz002926,华西证券,2019-08-20,9.75,9.99,9.7,9.84,9.77,28038838.0,276847696.0,17496970740.7,25830000000.0
sz002926,华西证券,2019-08-21,9.82,10.02,9.78,9.91,9.84,19637233.0,194555392.0,17621441061.0,26013750000.0
sz002926,华西证券,2019-08-22,9.96,9.99,9.87,9.97,9.91,14452333.0,143528865.0,17728129907.0,26171250000.0
sz002926,华西证券,2019-08-23,9.99,10.06,9.89,9.96,9.97,14222485.0,141874395.0,17710348432.7,26145000000.0
sz002926,华西证券,2019-08-26,9.7,9.83,9.63,9.78,9.88,15620150.0,152179767.0,17390281894.7,25672500000.0
sz002926,华西证券,2019-08-27,9.85,10.46,9.83,10.13,9.78,54197431.0,554110384.0,18012633496.3,26591250000.0
sz002926,华西证券,2019-08-28,10.05,10.11,9.96,9.98,10.13,24495344.0,245747147.0,17745911381.3,26197500000.0
sz002926,华西证券,2019-08-29,9.94,10.05,9.88,9.98,9.98,17226447.0,172008255.0,17745911381.3,26197500000.0
sz002926,华西证券,2019-08-30,10.08,10.12,9.72,9.8,9.98,18670479.0,184942592.0,17425844843.4,25725000000.0
sz002926,华西证券,2019-09-02,9.88,10.34,9.84,10.18,9.8,40914665.0,414955311.0,18101540867.9,26722500000.0
sz002926,华西证券,2019-09-03,10.15,10.23,10.03,10.16,10.18,20522331.0,207721457.0,18065977919.3,26670000000.0
sz002926,华西证券,2019-09-04,10.12,10.39,10.08,10.26,10.16,36084272.0,369582225.0,18243792662.6,26932500000.0
sz002926,华西证券,2019-09-05,10.39,10.84,10.39,10.46,10.26,68694041.0,726563313.0,18599422149.2,27457500000.0
sz002926,华西证券,2019-09-06,10.5,10.63,10.33,10.44,10.46,28790288.0,300679980.0,18563859200.5,27405000000.0
sz002926,华西证券,2019-09-09,10.65,10.65,10.46,10.57,10.44,40232521.0,425263734.0,18795018366.8,27746250000.0
sz002926,华西证券,2019-09-10,10.57,10.77,10.4,10.65,10.57,40158855.0,424579487.0,18937270161.5,27956250000.0
sz002926,华西证券,2019-09-11,10.75,10.85,10.61,10.69,10.65,39133728.0,420367921.0,19008396058.8,28061250000.0
sz002926,华西证券,2019-09-12,10.63,10.72,10.52,10.68,10.69,32325300.0,342955375.0,18990614584.4,28035000000.0
sz002926,华西证券,2019-09-16,10.67,10.71,10.46,10.53,10.68,22801628.0,241356572.0,18723892469.5,27641250000.0
sz002926,华西证券,2019-09-17,10.49,10.51,10.16,10.26,10.53,23450707.0,241910802.0,18243792662.6,26932500000.0
sz002926,华西证券,2019-09-18,10.26,10.32,10.23,10.28,10.26,12622196.0,129613613.0,18279355611.2,26985000000.0
sz002926,华西证券,2019-09-19,10.28,10.33,10.19,10.3,10.28,13947803.0,143228341.0,18314918559.9,27037500000.0
sz002926,华西证券,2019-09-20,10.26,10.32,10.15,10.27,10.3,14408795.0,147512186.0,18261574136.9,26958750000.0
sz002926,华西证券,2019-09-23,10.19,10.19,10.01,10.09,10.27,17488207.0,176125659.0,17941507599.0,26486250000.0
sz002926,华西证券,2019-09-24,10.12,10.26,10.07,10.14,10.09,17404672.0,177191304.0,18030414970.6,26617500000.0
sz002926,华西证券,2019-09-25,10.08,10.16,10.01,10.05,10.14,11557538.0,116456898.0,17870381701.7,26381250000.0
sz002926,华西证券,2019-09-26,10.12,10.22,9.9,9.95,10.05,18873989.0,189963954.0,17692566958.3,26118750000.0
sz002926,华西证券,2019-09-27,9.93,10.03,9.91,10.01,9.95,9947331.0,99249442.0,17799255804.3,26276250000.0
sz002926,华西证券,2019-09-30,10.01,10.07,9.82,9.82,10.01,9937400.0,98731952.0,17461407792.1,25777500000.0
sz002926,华西证券,2019-10-08,9.81,9.91,9.7,9.73,9.82,9893880.0,96861991.0,17301374523.1,25541250000.0
sz002926,华西证券,2019-10-09,9.63,9.84,9.62,9.81,9.73,8512518.0,82966033.0,17443626317.7,25751250000.0
sz002926,华西证券,2019-10-10,9.82,9.91,9.76,9.9,9.81,8656081.0,85421374.0,17603659586.7,25987500000.0
sz002926,华西证券,2019-10-11,9.95,10.18,9.9,10.06,9.9,23784372.0,239383009.0,17888163176.0,26407500000.0
sz002926,华西证券,2019-10-14,10.17,10.29,10.11,10.13,10.06,44201342.0,450534604.0,18012633496.3,26591250000.0
sz002926,华西证券,2019-10-15,10.1,10.12,9.86,9.9,10.13,22456530.0,223906270.0,17603659586.7,25987500000.0
sz002926,华西证券,2019-10-16,9.96,10.04,9.87,9.9,9.9,12975584.0,129136552.0,17603659586.7,25987500000.0
sz002926,华西证券,2019-10-17,9.9,9.96,9.78,9.84,9.9,11215199.0,110689279.0,17496970740.7,25830000000.0
sz002926,华西证券,2019-10-18,9.84,9.88,9.55,9.6,9.84,14221145.0,137926501.0,17070215356.8,25200000000.0
sz002926,华西证券,2019-10-21,9.58,9.58,9.4,9.52,9.6,10603347.0,100460152.0,16927963562.2,24990000000.0
sz002926,华西证券,2019-10-22,9.52,9.63,9.43,9.6,9.52,8185818.0,78116383.0,17070215356.8,25200000000.0
sz002926,华西证券,2019-10-23,9.61,9.65,9.49,9.53,9.6,7501200.0,71625895.0,16945745036.5,25016250000.0
sz002926,华西证券,2019-10-24,9.55,9.7,9.48,9.64,9.53,10633396.0,102240333.0,17141341254.1,25305000000.0
sz002926,华西证券,2019-10-25,9.65,9.75,9.52,9.73,9.64,13974682.0,134950779.0,17301374523.1,25541250000.0
sz002926,华西证券,2019-10-28,9.73,9.88,9.68,9.85,9.73,16759510.0,163989744.0,17514752215.0,25856250000.0
sz002926,华西证券,2019-10-29,9.85,9.85,9.61,9.61,9.85,12927146.0,125429674.0,17087996831.1,25226250000.0
sz002926,华西证券,2019-10-30,9.62,9.62,9.47,9.51,9.61,9903962.0,94300647.0,16910182087.8,24963750000.0
sz002926,华西证券,2019-10-31,9.53,9.58,9.46,9.53,9.51,8005255.0,76238578.0,16945745036.5,25016250000.0
sz002926,华西证券,2019-11-01,9.51,9.68,9.47,9.65,9.53,10578916.0,101538334.0,17159122728.5,25331250000.0
sz002926,华西证券,2019-11-04,9.7,9.93,9.68,9.79,9.65,20906030.0,205076289.0,17408063369.1,25698750000.0
sz002926,华西证券,2019-11-05,9.85,10.01,9.77,9.89,9.79,22586362.0,223931125.0,17585878112.4,25961250000.0
sz002926,华西证券,2019-11-06,9.91,9.93,9.76,9.78,9.89,10982265.0,108071806.0,17390281894.7,25672500000.0
sz002926,华西证券,2019-11-07,9.79,9.99,9.76,9.93,9.78,14761253.0,146240028.0,17657004009.7,26066250000.0
sz002926,华西证券,2019-11-08,10.03,10.06,9.78,9.79,9.93,13516912.0,134050378.0,17408063369.1,25698750000.0
sz002926,华西证券,2019-11-11,9.7,9.73,9.51,9.59,9.79,14367126.0,138265359.0,17052433882.5,25173750000.0
sz002926,华西证券,2019-11-12,9.58,9.6,9.49,9.57,9.59,8336825.0,79589971.0,17016870933.8,25121250000.0
sz002926,华西证券,2019-11-13,9.56,9.56,9.39,9.45,9.57,8913800.0,84401138.0,16803493241.9,24806250000.0
sz002926,华西证券,2019-11-14,9.48,9.55,9.4,9.48,9.45,7477884.0,70834116.0,16856837664.8,24885000000.0
sz002926,华西证券,2019-11-15,9.5,9.54,9.35,9.35,9.48,9374500.0,88370667.0,16625678498.5,24543750000.0
sz002926,华西证券,2019-11-18,9.36,9.55,9.34,9.5,9.35,9038918.0,85594314.0,16892400613.5,24937500000.0
sz002926,华西证券,2019-11-19,9.52,9.64,9.48,9.64,9.5,10754028.0,102990384.0,17141341254.1,25305000000.0
sz002926,华西证券,2019-11-20,9.63,9.63,9.46,9.47,9.64,10454933.0,99696878.0,16839056190.5,24858750000.0
sz002926,华西证券,2019-11-21,9.45,9.52,9.4,9.48,9.47,6915372.0,65375801.0,16856837664.8,24885000000.0
sz002926,华西证券,2019-11-22,9.48,9.59,9.34,9.37,9.48,10813400.0,102097056.0,16661241447.2,24596250000.0
sz002926,华西证券,2019-11-25,9.4,9.43,9.29,9.41,9.37,6894519.0,64611180.0,16732367344.5,24701250000.0
sz002926,华西证券,2019-11-26,9.43,9.44,9.35,9.44,9.41,8301309.0,78055338.0,16785711767.5,24780000000.0
sz002926,华西证券,2019-11-27,9.4,9.45,9.34,9.36,9.44,6336568.0,59469247.0,16643459972.9,24570000000.0
sz002926,华西证券,2019-11-28,9.35,9.4,9.34,9.36,9.36,5025504.0,47083662.0,16643459972.9,24570000000.0
sz002926,华西证券,2019-11-29,9.37,9.49,9.35,9.45,9.36,8597786.0,81119526.0,16803493241.9,24806250000.0
sz002926,华西证券,2019-12-02,9.54,9.62,9.36,9.36,9.45,16423991.0,155422143.0,16643459972.9,24570000000.0
sz002926,华西证券,2019-12-03,9.29,9.36,9.26,9.36,9.36,11640281.0,108379287.0,16643459972.9,24570000000.0
sz002926,华西证券,2019-12-04,9.31,9.36,9.24,9.26,9.36,12697251.0,117788257.0,16465645229.6,24307500000.0
sz002926,华西证券,2019-12-05,9.29,9.39,9.27,9.37,9.26,17288942.0,161482221.0,16661241447.2,24596250000.0
sz002926,华西证券,2019-12-06,9.37,9.41,9.31,9.4,9.37,11036080.0,103419086.0,16714585870.2,24675000000.0
sz002926,华西证券,2019-12-09,9.44,9.48,9.39,9.44,9.4,12512924.0,118119670.0,16785711767.5,24780000000.0
sz002926,华西证券,2019-12-10,9.4,9.44,9.32,9.4,9.44,17585620.0,164658215.0,16714585870.2,24675000000.0
sz002926,华西证券,2019-12-11,9.4,9.53,9.35,9.44,9.4,15361400.0,144891571.0,16785711767.5,24780000000.0
sz002926,华西证券,2019-12-12,9.4,9.43,9.35,9.37,9.44,10763487.0,101031322.0,16661241447.2,24596250000.0
sz002926,华西证券,2019-12-13,9.48,9.85,9.43,9.79,9.37,47840118.0,461701283.0,17408063369.1,25698750000.0
sz002926,华西证券,2019-12-16,9.83,10.04,9.72,9.98,9.79,36937137.0,364888329.0,17745911381.3,26197500000.0
sz002926,华西证券,2019-12-17,9.94,10.98,9.93,10.57,9.98,107814897.0,1141612434.0,18795018366.8,27746250000.0
sz002926,华西证券,2019-12-18,10.51,10.92,10.46,10.72,10.57,87383713.0,936402198.0,19061740481.8,28140000000.0
sz002926,华西证券,2019-12-19,10.73,10.78,10.56,10.65,10.72,42832926.0,456858525.0,18937270161.5,27956250000.0
sz002926,华西证券,2019-12-20,10.73,10.99,10.66,10.68,10.65,72925326.0,788701939.0,18990614584.4,28035000000.0
sz002926,华西证券,2019-12-23,10.65,10.8,10.26,10.28,10.68,51110444.0,539135195.0,18279355611.2,26985000000.0
sz002926,华西证券,2019-12-24,10.38,10.49,10.28,10.48,10.28,34313962.0,356202343.0,18634985097.8,27510000000.0
sz002926,华西证券,2019-12-25,10.43,10.65,10.31,10.45,10.48,39375205.0,411274150.0,18581640674.8,27431250000.0
sz002926,华西证券,2019-12-26,10.46,10.83,10.4,10.83,10.45,52665336.0,558979247.0,19257336699.4,28428750000.0
sz002926,华西证券,2019-12-27,10.79,10.95,10.43,10.43,10.83,72152803.0,774950785.0,18546077726.2,27378750000.0
sz002926,华西证券,2019-12-30,10.38,11.18,10.35,11.03,10.43,84169380.0,914831031.0,19612966186.0,28953750000.0
sz002926,华西证券,2019-12-31,11.0,11.09,10.88,11.01,11.03,47395018.0,520318212.0,19577403237.3,28901250000.0
sz002926,华西证券,2020-01-02,11.23,11.3,10.95,10.96,11.01,64542041.0,717014674.0,19488495865.7,28770000000.0
sz002926,华西证券,2020-01-03,10.82,11.01,10.78,10.87,10.96,48638514.0,529107981.0,19328462596.7,28533750000.0
sz002926,华西证券,2020-01-06,10.78,11.14,10.72,10.98,10.87,56948056.0,623337162.0,19524058814.3,28822500000.0
sz002926,华西证券,2020-01-07,10.98,11.13,10.88,11.05,10.98,43656968.0,480150171.0,19648529134.7,29006250000.0
sz002926,华西证券,2020-01-08,10.91,10.94,10.62,10.67,11.05,40389573.0,436076036.0,18972833110.1,28008750000.0
sz002926,华西证券,2020-01-09,10.87,11.07,10.8,10.85,10.67,33190295.0,362360560.0,19292899648.0,28481250000.0
sz002926,华西证券,2020-01-10,10.95,11.03,10.76,10.83,10.85,28545457.0,311155228.0,19257336699.4,28428750000.0
sz002926,华西证券,2020-01-13,10.81,11.03,10.62,11.03,10.83,37060322.0,401615487.0,19612966186.0,28953750000.0
sz002926,华西证券,2020-01-14,11.01,11.09,10.88,10.89,11.03,26090623.0,286313098.0,19364025545.4,28586250000.0
sz002926,华西证券,2020-01-15,10.85,10.95,10.8,10.83,10.89,20214983.0,219616845.0,19257336699.4,28428750000.0
sz002926,华西证券,2020-01-16,10.85,10.85,10.58,10.69,10.83,34404609.0,367825747.0,19008396058.8,28061250000.0
sz002926,华西证券,2020-01-17,10.7,10.92,10.66,10.73,10.69,24913082.0,268567289.0,19079521956.1,28166250000.0
sz002926,华西证券,2020-01-20,10.81,11.04,10.69,11.02,10.73,39218435.0,428213517.0,19595184711.7,28927500000.0
sz002926,华西证券,2020-01-21,10.97,11.09,10.81,10.85,11.02,35158768.0,384230527.0,19292899648.0,28481250000.0
sz002926,华西证券,2020-01-22,10.73,11.12,10.62,11.11,10.85,43295126.0,472899937.0,19755217980.6,29163750000.0
sz002926,华西证券,2020-01-23,10.95,11.06,10.45,10.6,11.11,45434941.0,490137774.0,18848362789.8,27825000000.0
sz002926,华西证券,2020-02-03,9.54,9.54,9.54,9.54,10.6,5021600.0,47906064.0,16963526510.8,25042500000.0
sz002926,华西证券,2020-02-04,8.95,9.5,8.95,9.37,9.54,56759666.0,526932788.0,16661241447.2,24596250000.0
sz002926,华西证券,2020-02-05,9.38,9.84,9.33,9.54,9.37,39022434.0,372689529.0,16963526510.8,25042500000.0
sz002926,华西证券,2020-02-06,9.51,9.88,9.42,9.79,9.54,48854126.0,474766148.0,17408063369.1,25698750000.0
sz002926,华西证券,2020-02-07,9.76,9.93,9.66,9.85,9.79,38413912.0,376506637.0,17514752215.0,25856250000.0
sz002926,华西证券,2020-02-10,9.75,10.65,9.73,10.49,9.85,69559845.0,715629491.0,18652766572.2,27536250000.0
sz002926,华西证券,2020-02-11,10.49,10.85,10.32,10.41,10.49,55858450.0,588715341.0,18510514777.5,27326250000.0
sz002926,华西证券,2020-02-12,10.3,10.67,10.29,10.53,10.41,43153220.0,452997662.0,18723892469.5,27641250000.0
sz002926,华西证券,2020-02-13,10.47,10.58,10.19,10.25,10.53,45762562.0,472452885.0,18226011188.2,26906250000.0
sz002926,华西证券,2020-02-14,10.22,10.54,10.17,10.33,10.25,38217565.0,395858127.0,18368262982.9,27116250000.0
sz002926,华西证券,2020-02-17,10.6,10.8,10.45,10.73,10.33,56140182.0,595410790.0,19079521956.1,28166250000.0
sz002926,华西证券,2020-02-18,10.67,10.79,10.54,10.63,10.73,41257184.0,439162691.0,18901707212.8,27903750000.0
sz002926,华西证券,2020-02-19,10.57,10.94,10.56,10.79,10.63,70781605.0,764565954.0,19186210802.1,28323750000.0
sz002926,华西证券,2020-02-20,10.84,11.87,10.75,11.87,10.79,150321562.0,1724663926.0,21106610029.7,31158750000.0
sz002926,华西证券,2020-02-21,12.05,12.9,11.98,12.25,11.87,188458124.0,2322074866.0,21782306054.2,32156250000.0
sz002926,华西证券,2020-02-24,12.21,12.75,12.02,12.5,12.25,138257295.0,1707098858.0,22226842912.5,32812500000.0
sz002926,华西证券,2020-02-25,12.15,12.58,11.82,12.48,12.5,122866146.0,1508090783.0,22191279963.8,32760000000.0
sz002926,华西证券,2020-02-26,12.23,12.5,11.83,12.03,12.48,90404233.0,1104205891.0,21391113619.0,31578750000.0
sz002926,华西证券,2020-02-27,12.19,12.39,12.02,12.16,12.03,74248730.0,906451722.0,21622272785.3,31920000000.0
sz002926,华西证券,2020-02-28,11.7,11.88,11.1,11.25,12.16,82156508.0,943569379.0,20004158621.2,29531250000.0
sz002926,华西证券,2020-03-02,11.41,11.99,11.26,11.76,11.25,84090168.0,978744199.0,20911013812.1,30870000000.0
sz002926,华西证券,2020-03-03,12.0,12.27,11.66,11.82,11.76,85428661.0,1023273157.0,21017702658.1,31027500000.0
sz002926,华西证券,2020-03-04,11.71,12.45,11.69,12.41,11.82,89003874.0,1074505488.0,22066809643.5,32576250000.0
sz002926,华西证券,2020-03-05,12.6,13.33,12.31,12.79,12.41,148801448.0,1905753662.0,22742505668.1,33573750000.0
sz002926,华西证券,2020-03-06,12.48,12.61,12.12,12.15,12.79,101192466.0,1245697694.0,21604491311.0,31893750000.0
sz002926,华西证券,2020-03-09,11.81,12.13,11.6,11.74,12.15,73757118.0,875479469.0,20875450863.4,30817500000.0
sz002926,华西证券,2020-03-10,11.79,12.45,11.71,12.4,11.74,87806249.0,1062170958.0,22049028169.2,32550000000.0
sz002926,华西证券,2020-03-11,12.38,12.45,11.91,11.95,12.4,62012892.0,756543217.0,21248861824.3,31368750000.0
sz002926,华西证券,2020-03-12,11.78,12.1,11.71,11.94,11.95,50515418.0,600009566.0,21231080350.0,31342500000.0
sz002926,华西证券,2020-03-13,11.29,12.07,11.26,11.88,11.94,64416483.0,750078274.0,21124391504.0,31185000000.0
sz002926,华西证券,2020-03-16,11.9,11.9,10.8,10.82,11.88,67206923.0,765054417.0,19239555225.1,28402500000.0
sz002926,华西证券,2020-03-17,11.07,11.19,10.62,11.0,10.82,48448121.0,530846659.0,19559621763.0,28875000000.0
sz002926,华西证券,2020-03-18,11.11,11.7,11.0,11.0,11.0,74399382.0,842599272.0,19559621763.0,28875000000.0
sz002926,华西证券,2020-03-19,10.92,11.55,10.92,11.32,11.0,79987623.0,903635755.0,20128628941.6,29715000000.0
sz002926,华西证券,2020-03-20,11.38,11.42,11.01,11.26,11.32,55750921.0,623401055.0,20021940095.6,29557500000.0
sz002926,华西证券,2020-03-23,10.8,11.04,10.6,10.69,11.26,42590364.0,460664619.0,19008396058.8,28061250000.0
sz002926,华西证券,2020-03-24,10.92,11.02,10.61,10.99,10.69,40501351.0,440856146.0,19541840288.7,28848750000.0
sz002926,华西证券,2020-03-25,11.25,11.3,11.03,11.13,10.99,37093515.0,413774527.0,19790780929.3,29216250000.0
sz002926,华西证券,2020-03-26,11.01,11.05,10.76,10.8,11.13,30562741.0,333097306.0,19203992276.4,28350000000.0
sz002926,华西证券,2020-03-27,10.92,11.19,10.78,10.9,10.8,37710180.0,413371295.0,19381807019.7,28612500000.0
sz002926,华西证券,2020-03-30,10.66,10.84,10.54,10.75,10.9,25531567.0,272333303.0,19115084904.8,28218750000.0
sz002926,华西证券,2020-03-31,10.85,10.88,10.51,10.52,10.75,28138638.0,300978325.0,18706110995.2,27615000000.0
sz002926,华西证券,2020-04-01,10.48,10.68,10.12,10.22,10.52,36981330.0,384748130.0,18172666765.3,26827500000.0
sz002926,华西证券,2020-04-02,10.13,10.44,10.13,10.44,10.22,30246770.0,310716314.0,18563859200.5,27405000000.0
sz002926,华西证券,2020-04-03,10.35,10.39,10.14,10.21,10.44,22627718.0,231917244.0,18154885290.9,26801250000.0
sz002926,华西证券,2020-04-07,10.44,10.57,10.35,10.5,10.21,38418707.0,401774358.0,18670548046.5,27562500000.0
sz002926,华西证券,2020-04-08,10.41,10.53,10.35,10.47,10.5,25344335.0,264227707.0,18617203623.5,27483750000.0
sz002926,华西证券,2020-04-09,10.59,10.85,10.58,10.63,10.47,38756147.0,415206682.0,18901707212.8,27903750000.0
sz002926,华西证券,2020-04-10,10.59,10.65,10.34,10.4,10.63,29146606.0,305427383.0,18492733303.2,27300000000.0
sz002926,华西证券,2020-04-13,10.31,10.39,10.23,10.32,10.4,18463600.0,190142402.0,18350481508.6,27090000000.0
sz002926,华西证券,2020-04-14,10.36,10.79,10.36,10.73,10.32,47998353.0,509085052.0,19079521956.1,28166250000.0
sz002926,华西证券,2020-04-15,10.6,10.78,10.52,10.53,10.73,34745147.0,369186459.0,18723892469.5,27641250000.0
sz002926,华西证券,2020-04-16,10.46,10.8,10.45,10.68,10.53,35814512.0,382054811.0,18990614584.4,28035000000.0
sz002926,华西证券,2020-04-17,10.78,10.84,10.6,10.63,10.68,29083488.0,311748024.0,18901707212.8,27903750000.0
sz002926,华西证券,2020-04-20,10.8,10.8,10.61,10.69,10.63,25156182.0,269076695.0,19008396058.8,28061250000.0
sz002926,华西证券,2020-04-21,10.56,10.57,10.17,10.26,10.69,44843966.0,462157805.0,18243792662.6,26932500000.0
sz002926,华西证券,2020-04-22,10.17,10.3,10.14,10.28,10.26,23290719.0,237834992.0,18279355611.2,26985000000.0
sz002926,华西证券,2020-04-23,10.28,10.29,10.13,10.15,10.28,18926920.0,192791751.0,18048196445.0,26643750000.0
sz002926,华西证券,2020-04-24,10.1,10.14,9.77,9.78,10.15,33072157.0,327909692.0,17390281894.7,25672500000.0
sz002926,华西证券,2020-04-27,9.85,9.89,9.75,9.82,9.78,17231208.0,169686678.0,17461407792.1,25777500000.0
sz002926,华西证券,2020-04-28,9.99,10.06,9.7,9.93,9.82,29606200.0,294212712.0,17657004009.7,26066250000.0
sz002926,华西证券,2020-04-29,9.86,10.03,9.83,9.93,9.93,16416133.0,163364077.0,17657004009.7,26066250000.0
sz002926,华西证券,2020-04-30,10.02,10.24,9.98,10.18,9.93,24833588.0,251750207.0,18101540867.9,26722500000.0
sz002926,华西证券,2020-05-06,10.01,10.25,9.98,10.25,10.18,25728505.0,259941442.0,18226011188.2,26906250000.0
sz002926,华西证券,2020-05-07,10.2,10.33,10.15,10.18,10.25,22148100.0,226738799.0,18101540867.9,26722500000.0
sz002926,华西证券,2020-05-08,10.27,10.59,10.21,10.42,10.18,41798971.0,435049583.0,18528296251.9,27352500000.0
sz002926,华西证券,2020-05-11,10.42,10.48,10.25,10.31,10.42,20925945.0,216682855.0,18332700034.2,27063750000.0
sz002926,华西证券,2020-05-12,10.4,10.46,10.19,10.38,10.31,19307165.0,199834259.0,18457170354.5,27247500000.0
sz002926,华西证券,2020-05-13,10.3,10.45,10.25,10.42,10.38,16563271.0,171676276.0,18528296251.9,27352500000.0
sz002926,华西证券,2020-05-14,10.36,10.36,10.2,10.22,10.42,16414576.0,168587254.0,18172666765.3,26827500000.0
sz002926,华西证券,2020-05-15,10.29,10.32,10.2,10.2,10.22,13504647.0,138463715.0,18137103816.6,26775000000.0
sz002926,华西证券,2020-05-18,10.2,10.33,10.09,10.23,10.2,16338292.0,167282528.0,18190448239.6,26853750000.0
sz002926,华西证券,2020-05-19,10.35,10.39,10.27,10.31,10.23,15909498.0,164355299.0,18332700034.2,27063750000.0
sz002926,华西证券,2020-05-20,10.25,10.35,10.15,10.2,10.31,14226236.0,145503115.0,18137103816.6,26775000000.0
sz002926,华西证券,2020-05-21,10.21,10.24,10.02,10.02,10.2,15311090.0,154968313.0,17817037278.7,26302500000.0
sz002926,华西证券,2020-05-22,9.99,10.07,9.72,9.72,10.02,21366132.0,211210630.0,17283593048.8,25515000000.0
sz002926,华西证券,2020-05-25,9.72,9.79,9.69,9.74,9.72,12164257.0,118407296.0,17319155997.4,25567500000.0
sz002926,华西证券,2020-05-26,9.74,9.87,9.74,9.86,9.74,12195778.0,119665416.0,17532533689.4,25882500000.0
sz002926,华西证券,2020-05-27,9.83,9.85,9.7,9.74,9.86,11843002.0,115682711.0,17319155997.4,25567500000.0
sz002926,华西证券,2020-05-28,9.76,10.12,9.75,10.01,9.74,27841622.0,277343870.0,17799255804.3,26276250000.0
sz002926,华西证券,2020-05-29,9.91,9.99,9.89,9.93,10.01,12562659.0,124847271.0,17657004009.7,26066250000.0
sz002926,华西证券,2020-06-01,10.22,10.58,10.14,10.47,9.93,45984434.0,477599969.0,18617203623.5,27483750000.0
sz002926,华西证券,2020-06-02,10.47,10.66,10.42,10.49,10.47,33578766.0,354045259.0,18652766572.2,27536250000.0
sz002926,华西证券,2020-06-03,10.6,10.65,10.31,10.33,10.49,32690221.0,342866865.0,18368262982.9,27116250000.0
sz002926,华西证券,2020-06-04,10.43,10.47,10.22,10.26,10.33,23848353.0,245905935.0,18243792662.6,26932500000.0
sz002926,华西证券,2020-06-05,10.27,10.37,10.12,10.33,10.26,24781133.0,253923757.0,18368262982.9,27116250000.0
sz002926,华西证券,2020-06-08,10.37,10.38,10.16,10.17,10.33,20231790.0,207375233.0,18083759393.6,26696250000.0
sz002926,华西证券,2020-06-09,10.2,10.42,10.16,10.3,10.17,23862173.0,246064214.0,18314918559.9,27037500000.0
sz002926,华西证券,2020-06-10,10.29,10.3,10.16,10.19,10.3,14936200.0,152460113.0,18119322342.3,26748750000.0
sz002926,华西证券,2020-06-11,10.21,10.44,10.16,10.24,10.19,27339825.0,281228398.0,18208229713.9,26880000000.0
sz002926,华西证券,2020-06-12,10.07,10.26,10.02,10.18,10.24,21419864.0,217401158.0,18101540867.9,26722500000.0
sz002926,华西证券,2020-06-15,10.21,10.47,10.18,10.22,10.18,33476407.0,345579648.0,18172666765.26,26827500000.0
sz002926,华西证券,2020-06-16,10.32,10.48,10.28,10.48,10.22,31834783.0,330721529.0,18634985097.84,27510000000.0
sz002926,华西证券,2020-06-17,10.44,10.48,10.29,10.42,10.48,23973100.0,248568778.0,18528296251.86,27352500000.0
sz002926,华西证券,2020-06-18,10.39,10.64,10.3,10.49,10.42,32215069.0,337188017.0,18652766572.17,27536250000.0
sz002926,华西证券,2020-06-19,10.48,10.99,10.47,10.89,10.49,65903971.0,706891284.0,19364025545.37,28586250000.0
sz002926,华西证券,2020-06-22,10.85,11.48,10.77,10.97,10.89,69368386.0,773175919.0,19506277340.01,28796250000.0
sz002926,华西证券,2020-06-23,10.95,11.07,10.84,11.05,10.97,39270103.0,430574311.0,19648529134.65,29006250000.0
sz002926,华西证券,2020-06-24,11.07,11.15,10.88,10.94,11.05,28361967.0,310994917.0,19452932917.02,28717500000.0
sz002926,华西证券,2020-06-29,10.76,10.76,10.34,10.43,10.94,42964403.0,451141051.0,18546077726.19,27378750000.0
sz002926,华西证券,2020-06-30,10.45,10.75,10.35,10.63,10.43,35762364.0,376865504.0,18901707212.79,27903750000.0
sz002926,华西证券,2020-07-01,10.56,10.99,10.52,10.99,10.63,49231247.0,529815354.0,19541840288.67,28848750000.0
sz002926,华西证券,2020-07-02,10.97,11.86,10.92,11.85,10.99,103525740.0,1186150306.0,21071047081.050003,31106250000.0
sz002926,华西证券,2020-07-03,11.98,12.79,11.67,12.54,11.85,162511191.0,1980328407.0,22297968809.82,32917500000.0
sz002926,华西证券,2020-07-06,12.85,13.78,12.54,13.67,12.54,180416817.0,2393736023.0,24307275409.11,35883750000.0
sz002926,华西证券,2020-07-07,13.63,13.63,12.74,12.97,13.67,151969207.0,1995557785.0,23062572206.01,34046250000.0
sz002926,华西证券,2020-07-08,12.99,14.18,12.98,13.71,12.97,151077402.0,2049610367.0,24378401306.43,35988750000.0
sz002926,华西证券,2020-07-09,13.46,14.12,13.25,13.75,13.71,134232583.0,1830725671.0,24449527203.75,36093750000.0
sz002926,华西证券,2020-07-10,13.43,14.48,13.36,14.05,13.75,148485820.0,2080553755.0,24982971433.65,36881250000.0
sz002926,华西证券,2020-07-13,14.1,14.74,13.65,14.28,14.05,121941286.0,1736762936.0,25391945343.24,37485000000.0
sz002926,华西证券,2020-07-14,14.04,14.37,13.79,14.23,14.28,103663134.0,1457014936.0,25303037971.59,37353750000.0
sz002926,华西证券,2020-07-15,14.29,14.3,13.35,13.47,14.23,96267528.0,1326101974.0,23951645922.51,35358750000.0
sz002926,华西证券,2020-07-16,13.42,13.82,12.85,12.95,13.47,85786316.0,1149162319.0,23027009257.35,33993750000.0
sz002926,华西证券,2020-07-17,13.07,13.13,12.26,12.5,12.95,76114688.0,963801736.0,22226842912.5,32812500000.0
sz002926,华西证券,2020-07-20,12.79,13.26,12.7,12.99,12.5,77907942.0,1008064634.0,23098135154.67,34098750000.0
sz002926,华西证券,2020-07-21,13.0,13.1,12.64,12.79,12.99,53738965.0,688619156.0,22742505668.07,33573750000.0
sz002926,华西证券,2020-07-22,12.8,13.42,12.69,12.97,12.79,78838561.0,1033132768.0,23062572206.01,34046250000.0
sz002926,华西证券,2020-07-23,12.76,13.08,12.5,12.92,12.97,60488827.0,773252709.0,22973664834.36,33915000000.0
sz002926,华西证券,2020-07-24,12.97,13.1,11.98,12.03,12.92,75759659.0,944045970.0,21391113618.99,31578750000.0
sz002926,华西证券,2020-07-27,12.05,12.15,11.71,12.03,12.03,39564650.0,473745007.0,21391113618.99,31578750000.0
sz002926,华西证券,2020-07-28,12.11,12.16,11.87,11.98,12.03,31624152.0,380117423.0,21302206247.34,31447500000.0
sz002926,华西证券,2020-07-29,11.96,12.45,11.91,12.4,11.98,47377878.0,581930382.0,22049028169.2,32550000000.0
sz002926,华西证券,2020-07-30,12.36,12.64,12.23,12.42,12.4,45074196.0,561361629.0,22084591117.86,32602500000.0
sz002926,华西证券,2020-07-31,12.35,12.92,12.31,12.75,12.42,57190372.0,726555111.0,22671379770.75,33468750000.0
sz002926,华西证券,2020-08-03,13.0,13.08,12.73,13.05,12.75,57854630.0,747463561.0,23204824000.65,34256250000.0
sz002926,华西证券,2020-08-04,13.07,13.24,12.8,12.9,13.05,50456579.0,656369162.0,22938101885.7,33862500000.0
sz002926,华西证券,2020-08-05,12.78,12.92,12.65,12.83,12.9,35410003.0,452646046.0,22813631565.39,33678750000.0
sz002926,华西证券,2020-08-06,12.83,13.28,12.58,13.2,12.83,56058926.0,723970824.0,23471546115.6,34650000000.0
sz002926,华西证券,2020-08-07,13.06,13.14,12.59,12.84,13.2,63459768.0,817834121.0,22831413039.72,33705000000.0
sz002926,华西证券,2020-08-10,12.73,13.28,12.66,13.09,12.84,57232994.0,744196880.0,23275949897.97,34361250000.0
sz002926,华西证券,2020-08-11,13.01,13.23,12.53,12.54,13.09,47996572.0,620216479.0,22297968809.82,32917500000.0
sz002926,华西证券,2020-08-12,12.5,13.54,12.47,12.92,12.54,113835421.0,1494232497.0,22973664834.36,33915000000.0
sz002926,华西证券,2020-08-13,12.88,12.96,12.56,12.72,12.92,69973476.0,890798975.0,22618035347.76,33390000000.0
sz002926,华西证券,2020-08-14,12.61,12.81,12.44,12.75,12.72,46443912.0,586526633.0,22671379770.75,33468750000.0
sz002926,华西证券,2020-08-17,12.92,13.98,12.92,13.64,12.75,124257301.0,1670374360.0,24253930986.12,35805000000.0
sz002926,华西证券,2020-08-18,13.6,13.74,13.33,13.45,13.64,62997738.0,850827771.0,23916082973.85,35306250000.0
sz002926,华西证券,2020-08-19,13.32,13.53,13.1,13.1,13.45,55550117.0,740464228.0,23293731372.3,34387500000.0
sz002926,华西证券,2020-08-20,13.03,13.11,12.83,12.89,13.1,39387938.0,509840095.0,22920320411.37,33836250000.0
sz002926,华西证券,2020-08-21,13.05,13.19,12.92,13.11,12.89,40300106.0,526651830.0,23311512846.63,34413750000.0
sz002926,华西证券,2020-08-24,13.29,13.29,12.91,12.93,13.11,32606761.0,424695964.0,22991446308.69,33941250000.0
sz002926,华西证券,2020-08-25,12.99,13.16,12.8,12.89,12.93,32879513.0,427170933.0,22920320411.37,33836250000.0
sz002926,华西证券,2020-08-26,12.82,12.93,12.33,12.43,12.89,47942335.0,604180195.0,22102372592.19,32628750000.0
sz002926,华西证券,2020-08-27,12.42,12.63,12.31,12.59,12.35,30220266.0,376346153.0,22386876181.47,33048750000.0
sz002926,华西证券,2020-08-28,12.5,12.91,12.41,12.87,12.59,41286246.0,523058448.0,22884757462.71,33783750000.0
sz002926,华西证券,2020-08-31,12.93,13.29,12.8,12.8,12.87,52494016.0,685368131.0,22760287142.4,33600000000.0
sz002926,华西证券,2020-09-01,12.78,12.94,12.62,12.83,12.8,31826022.0,406053758.0,22813631565.39,33678750000.0
sz002926,华西证券,2020-09-02,12.87,12.98,12.64,12.79,12.83,35764713.0,458195572.0,22742505668.07,33573750000.0
sz002926,华西证券,2020-09-03,12.75,12.93,12.6,12.67,12.79,30185069.0,384585861.0,22529127976.11,33258750000.0
sz002926,华西证券,2020-09-04,12.43,12.59,12.43,12.55,12.67,22052217.0,275935048.0,22315750284.15,32943750000.0
sz002926,华西证券,2020-09-07,12.53,12.6,12.0,12.02,12.55,40515761.0,499143138.0,21373332144.66,31552500000.0
sz002926,华西证券,2020-09-08,12.08,12.27,11.93,12.19,12.02,37797572.0,457400053.0,21675617208.27,31998750000.0
sz002926,华西证券,2020-09-09,12.01,12.07,11.8,11.97,12.19,35081839.0,419530061.0,21284424773.01,31421250000.0
sz002926,华西证券,2020-09-10,12.06,12.08,11.62,11.7,11.97,36532873.0,433542585.0,20804324966.1,30712500000.0
sz002926,华西证券,2020-09-11,11.68,11.81,11.62,11.78,11.7,21256197.0,249257055.0,20946576760.74,30922500000.0
sz002926,华西证券,2020-09-14,11.86,11.89,11.67,11.83,11.78,23665631.0,278539382.0,21035484132.39,31053750000.0
sz002926,华西证券,2020-09-15,11.77,11.85,11.68,11.8,11.83,23538469.0,277109472.0,20982139709.4,30975000000.0
sz002926,华西证券,2020-09-16,11.75,11.87,11.66,11.77,11.8,21661726.0,255057352.0,20928795286.41,30896250000.0
sz002926,华西证券,2020-09-17,11.71,11.82,11.58,11.65,11.77,24188946.0,282670392.0,20715417594.45,30581250000.0
sz002926,华西证券,2020-09-18,11.66,12.22,11.63,12.17,11.65,52138507.0,622455179.0,21640054259.61,31946250000.0
sz002926,华西证券,2020-09-21,12.43,12.48,12.08,12.11,12.17,39586593.0,484218482.0,21533365413.63,31788750000.0
sz002926,华西证券,2020-09-22,12.0,12.65,11.95,12.22,12.11,55164865.0,678477759.0,21728961631.26,32077500000.0
sz002926,华西证券,2020-09-23,12.18,12.33,12.1,12.22,12.22,23075621.0,281439324.0,21728961631.26,32077500000.0
sz002926,华西证券,2020-09-24,12.11,12.26,11.92,11.93,12.22,26675416.0,322074473.0,21213298875.69,31316250000.0
sz002926,华西证券,2020-09-25,12.02,12.32,11.92,12.19,11.93,32459251.0,394083365.0,21675617208.27,31998750000.0
sz002926,华西证券,2020-09-28,12.1,12.28,12.01,12.16,12.19,15495583.0,188185623.0,21622272785.280003,31920000000.0
sz002926,华西证券,2020-09-29,12.19,12.33,12.16,12.21,12.16,17355851.0,212594721.0,21711180156.93,32051250000.0
sz002926,华西证券,2020-09-30,12.21,12.26,11.8,11.98,12.21,22470201.0,270128209.0,21302206247.34,31447500000.0
sz002926,华西证券,2020-10-09,12.12,12.24,12.12,12.18,11.98,17626451.0,214683656.0,21657835733.94,31972500000.0
sz002926,华西证券,2020-10-12,12.23,12.62,12.23,12.59,12.18,35970592.0,449502089.0,22386876181.47,33048750000.0
sz002926,华西证券,2020-10-13,12.42,12.47,12.25,12.38,12.59,32296250.0,399249023.0,22013465220.54,32497500000.0
sz002926,华西证券,2020-10-14,12.34,12.39,12.25,12.29,12.38,17036825.0,209594763.0,21853431951.57,32261250000.0
sz002926,华西证券,2020-10-15,12.29,12.5,12.2,12.22,12.29,18612435.0,229279559.0,21728961631.26,32077500000.0
sz002926,华西证券,2020-10-16,12.23,12.31,12.17,12.22,12.22,15963751.0,195257342.0,21728961631.26,32077500000.0
sz002926,华西证券,2020-10-19,12.35,12.43,12.02,12.05,12.22,22401528.0,273629795.0,21426676567.65,31631250000.0
sz002926,华西证券,2020-10-20,12.0,12.07,11.86,12.07,12.05,14852185.0,177785357.0,21462239516.31,31683750000.0
sz002926,华西证券,2020-10-21,12.06,12.07,11.88,11.97,12.07,12326725.0,147403726.0,21284424773.01,31421250000.0
sz002926,华西证券,2020-10-22,11.94,12.17,11.9,12.04,11.97,15406989.0,185130517.0,21408895093.32,31605000000.0
sz002926,华西证券,2020-10-23,12.01,12.12,11.86,11.89,12.04,16795000.0,201461161.0,21142172978.37,31211250000.0
sz002926,华西证券,2020-10-26,11.82,11.82,11.54,11.6,11.89,21198714.0,247297713.0,20626510222.8,30450000000.0
sz002926,华西证券,2020-10-27,11.6,11.63,11.45,11.54,11.6,11959054.0,138172005.0,20519821376.82,30292500000.0
sz002926,华西证券,2020-10-28,11.53,11.66,11.41,11.63,11.54,12461939.0,144085095.0,20679854645.79,30528750000.0
sz002926,华西证券,2020-10-29,11.49,11.77,11.44,11.7,11.63,15470866.0,180074854.0,20804324966.1,30712500000.0
sz002926,华西证券,2020-10-30,11.76,12.02,11.58,11.6,11.7,31359307.0,371288584.0,20626510222.8,30450000000.0
sz002926,华西证券,2020-11-02,11.63,11.92,11.51,11.68,11.6,23849604.0,279388502.0,20768762017.44,30660000000.0
sz002926,华西证券,2020-11-03,11.71,12.06,11.67,11.97,11.68,27793748.0,331140345.0,21284424773.01,31421250000.0
sz002926,华西证券,2020-11-04,11.95,11.98,11.77,11.85,11.97,17184221.0,204033305.0,21071047081.050003,31106250000.0
sz002926,华西证券,2020-11-05,12.04,12.1,11.9,12.02,11.85,20352631.0,244327573.0,21373332144.66,31552500000.0
sz002926,华西证券,2020-11-06,12.02,12.15,11.87,11.99,12.02,24932479.0,299496663.0,21319987721.67,31473750000.0
sz002926,华西证券,2020-11-09,12.1,12.62,12.06,12.49,11.99,52684543.0,652048393.0,22209061438.17,32786250000.0
sz002926,华西证券,2020-11-10,12.47,12.53,12.23,12.29,12.49,34552578.0,428158325.0,21853431951.57,32261250000.0
sz002926,华西证券,2020-11-11,12.3,12.35,12.13,12.17,12.29,23420066.0,286753726.0,21640054259.61,31946250000.0
sz002926,华西证券,2020-11-12,12.18,12.3,12.07,12.16,12.17,16884443.0,205300399.0,21622272785.280003,31920000000.0
sz002926,华西证券,2020-11-13,12.12,12.17,11.88,11.97,12.16,20365554.0,244577647.0,21284424773.01,31421250000.0
sz002926,华西证券,2020-11-16,12.05,12.2,11.98,12.19,11.97,19589987.0,237366903.0,21675617208.27,31998750000.0
sz002926,华西证券,2020-11-17,12.18,12.3,12.02,12.3,12.19,21199790.0,257638333.0,21871213425.9,32287500000.0
sz002926,华西证券,2020-11-18,12.26,12.53,12.22,12.29,12.3,27427625.0,339453442.0,21853431951.57,32261250000.0
sz002926,华西证券,2020-11-19,12.2,12.45,12.13,12.41,12.29,25263831.0,310670043.0,22066809643.53,32576250000.0
sz002926,华西证券,2020-11-20,12.37,12.51,12.34,12.4,12.41,23870660.0,296213250.0,22049028169.2,32550000000.0
sz002926,华西证券,2020-11-23,12.3,12.95,12.28,12.65,12.4,54046259.0,683203653.0,22493565027.45,33206250000.0
sz002926,华西证券,2020-11-24,12.53,12.66,12.39,12.43,12.65,30813300.0,385647331.0,22102372592.19,32628750000.0
sz002926,华西证券,2020-11-25,12.51,12.63,12.26,12.27,12.43,25643787.0,319703534.0,21817869002.91,32208750000.0
sz002926,华西证券,2020-11-26,12.31,12.42,12.21,12.29,12.27,18439457.0,226449470.0,21853431951.57,32261250000.0
sz002926,华西证券,2020-11-27,12.3,12.55,12.22,12.54,12.29,25907457.0,320771254.0,22297968809.82,32917500000.0
sz002926,华西证券,2020-11-30,12.61,13.05,12.56,12.56,12.54,69648272.0,892589825.0,22333531758.480003,32970000000.0
sz002926,华西证券,2020-12-01,12.53,13.02,12.48,12.9,12.56,53484242.0,682522599.0,22938101885.7,33862500000.0
sz002926,华西证券,2020-12-02,12.88,13.13,12.77,12.93,12.9,50817140.0,657441107.0,22991446308.69,33941250000.0
sz002926,华西证券,2020-12-03,12.9,13.15,12.78,13.06,12.93,48464320.0,629039202.0,23222605474.98,34282500000.0
sz002926,华西证券,2020-12-04,12.93,12.97,12.67,12.79,13.06,30921358.0,395145687.0,22742505668.07,33573750000.0
sz002926,华西证券,2020-12-07,12.75,12.88,12.51,12.53,12.79,25177798.0,318831295.0,22280187335.49,32891250000.0
sz002926,华西证券,2020-12-08,12.57,12.7,12.5,12.53,12.53,19977998.0,251358839.0,22280187335.49,32891250000.0
sz002926,华西证券,2020-12-09,12.58,12.67,11.98,12.03,12.53,35344474.0,436027762.0,21391113618.99,31578750000.0
sz002926,华西证券,2020-12-10,12.0,12.11,11.82,11.93,12.03,25878173.0,309666863.0,21213298875.69,31316250000.0
sz002926,华西证券,2020-12-11,11.93,11.98,11.62,11.73,11.93,23868261.0,281208766.0,20857669389.09,30791250000.0
sz002926,华西证券,2020-12-14,11.74,11.81,11.68,11.79,11.73,13684743.0,160741389.0,20964358235.07,30948750000.0
sz002926,华西证券,2020-12-15,11.76,11.9,11.68,11.77,11.79,14038726.0,165363604.0,20928795286.41,30896250000.0
sz002926,华西证券,2020-12-16,11.82,11.86,11.68,11.69,11.77,13817308.0,162466418.0,20786543491.77,30686250000.0
sz002926,华西证券,2020-12-17,11.66,12.03,11.55,12.01,11.69,26269631.0,311003112.0,21355550670.33,31526250000.0
sz002926,华西证券,2020-12-18,11.95,12.0,11.82,11.84,12.01,18572253.0,220868461.0,21053265606.72,31080000000.0
sz002926,华西证券,2020-12-21,11.81,12.06,11.72,12.04,11.84,17852052.0,213092911.0,21408895093.32,31605000000.0
sz002926,华西证券,2020-12-22,11.97,12.02,11.42,11.46,12.04,27026592.0,316370064.0,20377569582.18,30082500000.0
sz002926,华西证券,2020-12-23,11.47,11.69,11.42,11.59,11.46,22024721.0,254478409.0,20608728748.47,30423750000.0
sz002926,华西证券,2020-12-24,11.59,11.67,11.32,11.36,11.59,17621283.0,202187775.0,20199754838.88,29820000000.0
sz002926,华西证券,2020-12-25,11.3,11.71,11.3,11.63,11.36,25100666.0,290823595.0,20679854645.79,30528750000.0
sz002926,华西证券,2020-12-28,11.57,11.76,11.51,11.6,11.63,21661794.0,251717696.0,20626510222.8,30450000000.0
sz002926,华西证券,2020-12-29,11.62,11.91,11.62,11.63,11.6,22630422.0,266209532.0,20679854645.79,30528750000.0
sz002926,华西证券,2020-12-30,11.62,12.04,11.6,11.96,11.63,31711361.0,377078690.0,21266643298.68,31395000000.0
sz002926,华西证券,2020-12-31,12.03,12.55,12.02,12.48,11.96,60289047.0,746195176.0,22191279963.84,32760000000.0
sz002926,华西证券,2021-01-04,12.6,12.68,12.28,12.45,12.48,43041645.0,535722430.0,22137935540.85,32681250000.0
sz002926,华西证券,2021-01-05,12.4,12.52,12.23,12.41,12.45,35368946.0,438268769.0,22066809643.53,32576250000.0
sz002926,华西证券,2021-01-06,12.47,12.58,12.21,12.32,12.41,27579516.0,341056413.0,21906776374.56,32340000000.0
sz002926,华西证券,2021-01-07,12.38,12.44,11.98,12.39,12.32,40060959.0,490659032.0,22031246694.87,32523750000.0
sz002926,华西证券,2021-01-08,12.35,12.57,12.17,12.46,12.39,37778159.0,469025537.0,22155717015.18,32707500000.0
sz002926,华西证券,2021-01-11,12.45,12.56,12.01,12.07,12.46,31100475.0,382161497.0,21462239516.31,31683750000.0
sz002926,华西证券,2021-01-12,12.01,12.62,11.85,12.58,12.07,54076600.0,662695947.0,22369094707.14,33022500000.0
sz002926,华西证券,2021-01-13,12.5,12.58,11.88,11.91,12.58,54027519.0,657659965.0,21177735927.030003,31263750000.0
sz002926,华西证券,2021-01-14,11.84,11.86,11.56,11.65,11.91,34932560.0,408457915.0,20715417594.45,30581250000.0
sz002926,华西证券,2021-01-15,11.65,11.85,11.54,11.67,11.65,24463382.0,285960031.0,20750980543.11,30633750000.0
sz002926,华西证券,2021-01-18,11.31,11.36,11.1,11.11,11.67,67279500.0,754033887.0,19755217980.63,29163750000.0
sz002926,华西证券,2021-01-19,11.09,11.2,10.92,11.09,11.11,35748774.0,395500192.0,19719655031.97,29111250000.0
sz002926,华西证券,2021-01-20,11.08,11.12,10.93,10.94,11.09,26652892.0,293630349.0,19452932917.02,28717500000.0
sz002926,华西证券,2021-01-21,10.96,11.2,10.93,11.03,10.94,30094767.0,333004521.0,19612966185.99,28953750000.0
sz002926,华西证券,2021-01-22,10.98,11.03,10.74,10.8,11.03,30336765.0,329928844.0,19203992276.4,28350000000.0
sz002926,华西证券,2021-01-25,10.78,10.86,10.62,10.68,10.8,23227687.0,249084162.0,18990614584.44,28035000000.0
sz002926,华西证券,2021-01-26,10.63,10.73,10.42,10.45,10.68,22606882.0,238567937.0,18581640674.85,27431250000.0
sz002926,华西证券,2021-01-27,10.44,10.55,10.29,10.33,10.45,22913600.0,238836364.0,18368262982.89,27116250000.0
sz002926,华西证券,2021-01-28,10.25,10.35,10.14,10.32,10.33,26467369.0,271270118.0,18350481508.56,27090000000.0
sz002926,华西证券,2021-01-29,10.35,10.39,10.05,10.12,10.32,21029709.0,214636330.0,17994852021.96,26565000000.0
sz002926,华西证券,2021-02-01,10.2,10.23,9.9,9.93,10.12,26602597.0,266728721.0,17657004009.690002,26066250000.0
sz002926,华西证券,2021-02-02,9.9,9.92,9.7,9.91,9.93,27802527.0,273023577.0,17621441061.03,26013750000.0
sz002926,华西证券,2021-02-03,9.96,10.04,9.86,9.87,9.91,18993520.0,188779933.0,17550315163.71,25908750000.0
sz002926,华西证券,2021-02-04,9.78,9.89,9.56,9.64,9.87,25101329.0,243810047.0,17141341254.12,25305000000.0
sz002926,华西证券,2021-02-05,9.78,10.05,9.64,9.69,9.64,30512262.0,300928475.0,18180656228.97,25436250000.0
sz002926,华西证券,2021-02-08,9.7,9.94,9.68,9.82,9.69,20088903.0,197249731.0,18424565961.66,25777500000.0
sz002926,华西证券,2021-02-09,9.8,10.09,9.73,10.06,9.82,26782334.0,266225869.0,18874860852.78,26407500000.0
sz002926,华西证券,2021-02-10,9.99,10.06,9.91,10.01,10.06,18824800.0,187919888.0,18781049417.13,26276250000.0
sz002926,华西证券,2021-02-18,10.17,10.26,10.06,10.12,10.01,21611881.0,219221433.0,18987434575.56,26565000000.0
sz002926,华西证券,2021-02-19,10.11,10.46,10.06,10.45,10.12,24040912.0,246647142.0,19606590050.85,27431250000.0
sz002926,华西证券,2021-02-22,10.46,10.67,10.29,10.3,10.45,31426712.0,329689019.0,19325155743.9,27037500000.0
sz002926,华西证券,2021-02-23,10.24,10.37,10.19,10.25,10.3,19554576.0,201011855.0,19231344308.25,26906250000.0
sz002926,华西证券,2021-02-24,10.26,10.38,10.17,10.23,10.25,17919514.0,183983573.0,19193819733.99,26853750000.0
sz002926,华西证券,2021-02-25,10.26,10.38,10.2,10.26,10.23,16755949.0,172368865.0,19250106595.38,26932500000.0
sz002926,华西证券,2021-02-26,10.11,10.2,10.07,10.11,10.26,16215727.0,164562039.0,18968672288.43,26538750000.0
sz002926,华西证券,2021-03-01,10.17,10.18,10.05,10.16,10.11,15486413.0,156627089.0,19062483724.08,26670000000.0
sz002926,华西证券,2021-03-02,10.18,10.26,10.07,10.12,10.16,14690384.0,149178802.0,18987434575.56,26565000000.0
sz002926,华西证券,2021-03-03,10.11,10.31,10.1,10.31,10.12,16984134.0,173860990.0,19343918031.03,27063750000.0
sz002926,华西证券,2021-03-04,10.22,10.28,10.14,10.17,10.31,13955187.0,142494394.0,19081246011.21,26696250000.0
sz002926,华西证券,2021-03-05,10.15,10.41,10.15,10.37,10.17,25613637.0,264873606.0,19456491753.81,27221250000.0
sz002926,华西证券,2021-03-08,10.48,10.51,10.25,10.28,10.37,20371810.0,211457357.0,19287631169.64,26985000000.0
sz002926,华西证券,2021-03-09,10.28,10.34,10.0,10.07,10.28,23714530.0,240464005.0,18893623139.91,26433750000.0
sz002926,华西证券,2021-03-10,10.13,10.16,9.81,9.85,10.07,17687478.0,176328590.0,18480852823.05,25856250000.0
sz002926,华西证券,2021-03-11,9.96,10.05,9.88,10.01,9.85,14085063.0,140464379.0,18781049417.13,26276250000.0
sz002926,华西证券,2021-03-12,10.06,10.36,10.02,10.22,10.01,29739899.0,302956325.0,19175057446.86,26827500000.0
sz002926,华西证券,2021-03-15,10.09,10.09,9.96,10.0,10.22,20174724.0,202055071.0,18762287130.0,26250000000.0
sz002926,华西证券,2021-03-16,10.09,10.09,9.96,10.04,10.0,11405485.0,114287373.0,18837336278.52,26355000000.0
sz002926,华西证券,2021-03-17,10.01,10.05,9.96,10.01,10.04,13242076.0,132499742.0,18781049417.13,26276250000.0
sz002926,华西证券,2021-03-18,10.04,10.06,9.96,9.96,10.01,12187100.0,121853621.0,18687237981.48,26145000000.0
sz002926,华西证券,2021-03-19,9.92,9.94,9.85,9.9,9.96,12536995.0,123925441.0,18574664258.7,25987500000.0
sz002926,华西证券,2021-03-22,9.98,10.15,9.93,10.08,9.9,16648626.0,167207188.0,18912385427.04,26460000000.0
sz002926,华西证券,2021-03-23,10.06,10.2,9.97,10.12,10.08,22060718.0,222557740.0,18987434575.56,26565000000.0
sz002926,华西证券,2021-03-24,10.06,10.38,10.05,10.18,10.12,29852542.0,305249101.0,19100008298.34,26722500000.0
sz002926,华西证券,2021-03-25,10.12,10.26,10.1,10.13,10.18,15220774.0,154734790.0,19006196862.69,26591250000.0
sz002926,华西证券,2021-03-26,10.16,10.17,10.1,10.16,10.13,13304804.0,134876737.0,19062483724.08,26670000000.0
sz002926,华西证券,2021-03-29,10.17,10.19,10.1,10.15,10.16,12665664.0,128551825.0,19043721436.95,26643750000.0
sz002926,华西证券,2021-03-30,10.14,10.19,10.08,10.09,10.15,11934508.0,120832125.0,18931147714.17,26486250000.0
sz002926,华西证券,2021-03-31,10.11,10.11,9.94,9.95,10.09,14599923.0,145811354.0,18668475694.35,26118750000.0
sz002926,华西证券,2021-04-01,10.09,10.1,9.97,10.01,9.95,10045015.0,100678789.0,18781049417.13,26276250000.0
sz002926,华西证券,2021-04-02,10.02,10.08,9.98,10.06,10.01,12763398.0,128132215.0,18874860852.78,26407500000.0
sz002926,华西证券,2021-04-06,10.08,10.14,10.05,10.06,10.06,9857541.0,99493752.0,18874860852.78,26407500000.0
sz002926,华西证券,2021-04-07,10.06,10.18,10.04,10.09,10.06,10869866.0,109778016.0,18931147714.17,26486250000.0
sz002926,华西证券,2021-04-08,10.09,10.21,10.04,10.13,10.09,17304160.0,175578259.0,19006196862.69,26591250000.0
sz002926,华西证券,2021-04-09,10.11,10.12,9.98,10.04,10.13,11881733.0,119279706.0,18837336278.52,26355000000.0
sz002926,华西证券,2021-04-12,10.02,10.02,9.82,9.85,10.04,15834261.0,157299686.0,18480852823.05,25856250000.0
sz002926,华西证券,2021-04-13,9.85,9.89,9.74,9.82,9.85,14317625.0,140368653.0,18424565961.66,25777500000.0
sz002926,华西证券,2021-04-14,9.88,9.98,9.83,9.91,9.82,12394822.0,122776123.0,18593426545.83,26013750000.0
sz002926,华西证券,2021-04-15,9.98,9.98,9.86,9.93,9.91,12682263.0,125737929.0,18630951120.09,26066250000.0
sz002926,华西证券,2021-04-16,9.93,10.01,9.9,9.99,9.93,12170660.0,121202938.0,18743524842.87,26223750000.0
sz002926,华西证券,2021-04-19,9.99,10.16,9.95,10.14,9.99,20529268.0,207119020.0,19024959149.82,26617500000.0
sz002926,华西证券,2021-04-20,10.1,10.21,10.04,10.06,10.14,13000155.0,131432986.0,18874860852.78,26407500000.0
sz002926,华西证券,2021-04-21,10.1,10.14,10.03,10.05,10.06,9662001.0,97313613.0,18856098565.65,26381250000.0
sz002926,华西证券,2021-04-22,10.08,10.16,10.04,10.05,10.05,12645186.0,127618523.0,18856098565.65,26381250000.0
sz002926,华西证券,2021-04-23,10.03,10.04,9.91,9.98,10.05,13954568.0,138951253.0,18724762555.74,26197500000.0
sz002926,华西证券,2021-04-26,9.94,10.01,9.71,9.73,9.98,17074292.0,168643377.0,18255705377.49,25541250000.0
sz002926,华西证券,2021-04-27,9.78,9.8,9.65,9.7,9.73,13252994.0,128795286.0,18199418516.1,25462500000.0
sz002926,华西证券,2021-04-28,9.68,9.68,9.34,9.4,9.7,27255168.0,258416354.0,17636549902.2,24675000000.0
sz002926,华西证券,2021-04-29,9.36,9.58,9.3,9.5,9.4,18204430.0,172552646.0,17824172773.5,24937500000.0
sz002926,华西证券,2021-04-30,9.47,9.5,9.33,9.34,9.5,13112264.0,123219411.0,17523976179.420002,24517500000.0
sz002926,华西证券,2021-05-06,9.42,9.47,9.28,9.28,9.34,10723119.0,100370382.0,17411402456.64,24360000000.0
sz002926,华西证券,2021-05-07,9.29,9.33,9.2,9.23,9.28,12307795.0,113740325.0,17317591020.99,24228750000.0
sz002926,华西证券,2021-05-10,9.23,9.26,9.1,9.18,9.23,13915303.0,127593672.0,17223779585.34,24097500000.0
sz002926,华西证券,2021-05-11,9.11,9.33,9.11,9.31,9.18,12634252.0,116778471.0,17467689318.03,24438750000.0
sz002926,华西证券,2021-05-12,9.34,9.34,9.23,9.31,9.31,7113221.0,65990721.0,17467689318.03,24438750000.0
sz002926,华西证券,2021-05-13,9.26,9.33,9.22,9.23,9.31,7401373.0,68609476.0,17317591020.99,24228750000.0
sz002926,华西证券,2021-05-14,9.25,9.74,9.23,9.71,9.23,36641204.0,350115341.0,18218180803.23,25488750000.0
sz002926,华西证券,2021-05-17,9.65,9.69,9.47,9.56,9.71,20679332.0,198270329.0,17936746496.280003,25095000000.0
sz002926,华西证券,2021-05-18,9.53,9.7,9.53,9.6,9.56,13095451.0,126183556.0,18011795644.8,25200000000.0
sz002926,华西证券,2021-05-19,9.63,9.67,9.51,9.51,9.6,10734749.0,102833380.0,17842935060.63,24963750000.0
sz002926,华西证券,2021-05-20,9.51,9.71,9.5,9.61,9.51,17384390.0,166881999.0,18030557931.93,25226250000.0
sz002926,华西证券,2021-05-21,9.62,9.66,9.55,9.56,9.61,11183919.0,107346265.0,17936746496.280003,25095000000.0
sz002926,华西证券,2021-05-24,9.59,9.78,9.57,9.68,9.56,16768385.0,162709431.0,18161893941.84,25410000000.0
sz002926,华西证券,2021-05-25,9.64,10.0,9.64,9.94,9.68,37072289.0,367030667.0,18649713407.22,26092500000.0
sz002926,华西证券,2021-05-26,9.93,10.19,9.89,9.93,9.94,35215588.0,353177369.0,18630951120.09,26066250000.0
sz002926,华西证券,2021-05-27,9.89,10.11,9.87,9.99,9.93,24002101.0,239995750.0,18743524842.87,26223750000.0
sz002926,华西证券,2021-05-28,9.97,10.18,9.9,10.06,9.99,30016909.0,301212300.0,18874860852.78,26407500000.0
sz002926,华西证券,2021-05-31,10.07,10.16,10.03,10.08,10.06,22294197.0,224682701.0,18912385427.04,26460000000.0
sz002926,华西证券,2021-06-01,10.05,10.05,9.83,9.96,10.08,20753709.0,206228416.0,18687237981.48,26145000000.0
sz002926,华西证券,2021-06-02,10.04,10.15,9.91,9.95,9.96,20952592.0,210212826.0,18668475694.35,26118750000.0
sz002926,华西证券,2021-06-03,9.92,10.04,9.87,9.87,9.95,16590844.0,165023476.0,18518377397.31,25908750000.0
sz002926,华西证券,2021-06-04,9.85,10.18,9.8,9.94,9.87,23192893.0,231150619.0,18649713407.22,26092500000.0
sz002926,华西证券,2021-06-07,9.91,10.03,9.86,9.91,9.94,14382785.0,142725371.0,18593426545.83,26013750000.0
sz002926,华西证券,2021-06-08,9.92,10.01,9.88,9.89,9.91,16518579.0,164007231.0,18555901971.57,25961250000.0
sz002926,华西证券,2021-06-09,9.88,9.96,9.81,9.85,9.89,12872879.0,127057232.0,18480852823.05,25856250000.0
sz002926,华西证券,2021-06-10,9.84,9.95,9.79,9.86,9.85,14549624.0,143420691.0,18499615110.18,25882500000.0
sz002926,华西证券,2021-06-11,9.89,9.92,9.75,9.78,9.86,22127471.0,217821841.0,18349516813.14,25672500000.0
sz002926,华西证券,2021-06-15,9.78,9.78,9.54,9.55,9.78,16441750.0,158248281.0,17917984209.149998,25068750000.0
sz002926,华西证券,2021-06-16,9.6,9.66,9.54,9.56,9.55,11273820.0,108033892.0,17936746496.280003,25095000000.0
sz002926,华西证券,2021-06-17,9.56,9.63,9.5,9.56,9.56,10162119.0,97205621.0,17936746496.280003,25095000000.0
sz002926,华西证券,2021-06-18,9.56,9.65,9.5,9.59,9.56,11671057.0,111917593.0,17993033357.67,25173750000.0
sz002926,华西证券,2021-06-21,9.59,9.67,9.53,9.55,9.59,10271435.0,98400101.0,17917984209.149998,25068750000.0
sz002926,华西证券,2021-06-22,9.55,9.59,9.41,9.45,9.55,14554070.0,138131250.0,17730361337.850002,24806250000.0
sz002926,华西证券,2021-06-23,9.45,9.54,9.4,9.48,9.45,11017261.0,104207123.0,17786648199.239998,24885000000.0
sz002926,华西证券,2021-06-24,9.5,9.6,9.47,9.48,9.48,13231806.0,126007139.0,17786648199.239998,24885000000.0
sz002926,华西证券,2021-06-25,9.5,9.75,9.46,9.68,9.48,26369066.0,253701271.0,18161893941.84,25410000000.0
sz002926,华西证券,2021-06-28,9.68,9.69,9.53,9.54,9.68,13977795.0,133978808.0,17899221922.02,25042500000.0
sz002926,华西证券,2021-06-29,9.55,9.59,9.48,9.48,9.54,9879938.0,94134029.0,17786648199.239998,24885000000.0
sz002926,华西证券,2021-06-30,9.49,9.63,9.44,9.63,9.48,15025183.0,143611917.0,18068082506.19,25278750000.0
sz002926,华西证券,2021-07-01,9.7,9.78,9.42,9.42,9.63,17524152.0,168065380.0,17674074476.46,24727500000.0
sz002926,华西证券,2021-07-02,9.36,9.41,9.23,9.25,9.42,15205545.0,141300111.0,17355115595.25,24281250000.0
sz002926,华西证券,2021-07-05,9.25,9.28,9.19,9.24,9.25,8817175.0,81342893.0,17336353308.12,24255000000.0
sz002926,华西证券,2021-07-06,9.24,9.3,9.17,9.27,9.24,9049382.0,83558888.0,17392640169.510002,24333750000.0
sz002926,华西证券,2021-07-07,9.22,9.28,9.2,9.27,9.27,7648644.0,70767930.0,17392640169.510002,24333750000.0
sz002926,华西证券,2021-07-08,9.29,9.32,9.15,9.16,9.27,11483099.0,105889042.0,17186255011.08,24045000000.0
sz002926,华西证券,2021-07-09,9.18,9.21,9.12,9.2,9.16,9248322.0,84811377.0,17261304159.6,24150000000.0
sz002926,华西证券,2021-07-12,9.28,9.35,9.23,9.28,9.2,15243273.0,141665635.0,17411402456.64,24360000000.0
sz002926,华西证券,2021-07-13,9.27,9.28,9.2,9.25,9.28,9650016.0,89120831.0,17355115595.25,24281250000.0
sz002926,华西证券,2021-07-14,9.26,9.26,9.15,9.15,9.25,11873900.0,109113017.0,17167492723.95,24018750000.0
sz002926,华西证券,2021-07-15,9.14,9.24,9.13,9.19,9.15,15616635.0,143439689.0,17242541872.47,24123750000.0
sz002926,华西证券,2021-07-16,9.24,9.29,9.17,9.25,9.19,16778312.0,154839263.0,17355115595.25,24281250000.0
sz002926,华西证券,2021-07-19,9.24,9.28,9.17,9.24,9.25,11745210.0,108150897.0,17336353308.12,24255000000.0
sz002926,华西证券,2021-07-20,9.19,9.27,9.16,9.21,9.24,8880667.0,81774503.0,17280066446.73,24176250000.0
sz002926,华西证券,2021-07-21,9.22,9.32,9.2,9.26,9.21,10983551.0,101687993.0,17373877882.379997,24307500000.0
sz002926,华西证券,2021-07-22,9.26,9.41,9.23,9.35,9.26,15543537.0,145173308.0,17542738466.55,24543750000.0
sz002926,华西证券,2021-07-23,9.36,9.55,9.28,9.38,9.35,24522324.0,230752321.0,17599025327.940002,24622500000.0
sz002926,华西证券,2021-07-26,9.36,9.42,9.15,9.16,9.38,20509298.0,190255147.0,17186255011.08,24045000000.0
sz002926,华西证券,2021-07-27,9.19,9.24,8.98,8.98,9.16,20343513.0,184830072.0,16848533842.74,23572500000.0
sz002926,华西证券,2021-07-28,8.98,9.09,8.88,8.95,8.98,17077330.0,153219555.0,16792246981.35,23493750000.0
sz002926,华西证券,2021-07-29,8.95,9.01,8.79,8.86,8.95,18421706.0,163575512.0,16623386397.18,23257500000.0
sz002926,华西证券,2021-07-30,8.82,8.93,8.77,8.81,8.86,13074732.0,115500346.0,16529574961.53,23126250000.0
sz002926,华西证券,2021-08-02,8.78,9.14,8.62,8.99,8.81,24265132.0,216256022.0,16867296129.87,23598750000.0
sz002926,华西证券,2021-08-03,8.93,9.15,8.89,9.04,8.99,18115918.0,163412578.0,16961107565.52,23730000000.0
sz002926,华西证券,2021-08-04,9.04,9.06,8.94,8.96,9.04,11659906.0,104844157.0,16811009268.48,23520000000.0
sz002926,华西证券,2021-08-05,9.06,9.59,9.04,9.17,8.96,41843581.0,389614031.0,24071250000.0,24071250000.0
sz002926,华西证券,2021-08-06,9.1,9.18,9.0,9.08,9.17,23615416.0,214287165.0,23835000000.0,23835000000.0
sz002926,华西证券,2021-08-09,9.06,9.33,9.03,9.19,9.08,21241014.0,195645095.0,24123750000.0,24123750000.0
sz002926,华西证券,2021-08-10,9.21,9.34,9.13,9.32,9.19,19678250.0,182121869.0,24465000000.0,24465000000.0
sz002926,华西证券,2021-08-11,9.31,9.36,9.23,9.25,9.32,15440436.0,143332871.0,24281250000.0,24281250000.0
sz002926,华西证券,2021-08-12,9.21,9.3,9.18,9.21,9.25,12901396.0,119087876.0,24176250000.0,24176250000.0
sz002926,华西证券,2021-08-13,9.23,9.48,9.22,9.37,9.21,26782876.0,250839102.0,24596250000.0,24596250000.0
sz002926,华西证券,2021-08-16,9.33,9.59,9.33,9.52,9.37,33269905.0,315157572.0,24990000000.0,24990000000.0
sz002926,华西证券,2021-08-17,9.48,9.89,9.46,9.5,9.52,44600321.0,430299138.0,24937500000.0,24937500000.0
sz002926,华西证券,2021-08-18,9.55,10.19,9.48,10.14,9.5,77875874.0,772582411.0,26617500000.0,26617500000.0
sz002926,华西证券,2021-08-19,10.05,10.23,9.83,9.86,10.14,53569286.0,533725431.0,25882500000.0,25882500000.0
sz002926,华西证券,2021-08-20,9.82,9.95,9.72,9.89,9.86,35069487.0,345491581.0,25961250000.0,25961250000.0
sz002926,华西证券,2021-08-23,9.95,10.04,9.87,9.94,9.89,26953901.0,268236536.0,26092500000.0,26092500000.0
sz002926,华西证券,2021-08-24,9.83,10.0,9.67,9.92,9.83,32260329.0,317502172.0,26040000000.0,26040000000.0
sz002926,华西证券,2021-08-25,9.89,9.94,9.74,9.82,9.92,28156488.0,276376801.0,25777500000.0,25777500000.0
sz002926,华西证券,2021-08-26,9.79,9.94,9.76,9.76,9.82,23197784.0,228212671.0,25620000000.0,25620000000.0
sz002926,华西证券,2021-08-27,9.76,9.85,9.66,9.7,9.76,19491178.0,189699875.0,25462500000.0,25462500000.0
sz002926,华西证券,2021-08-30,9.66,9.73,9.54,9.58,9.7,21431468.0,206045871.0,25147500000.0,25147500000.0
sz002926,华西证券,2021-08-31,9.6,9.77,9.51,9.7,9.58,25167094.0,242732971.0,25462500000.0,25462500000.0
sz002926,华西证券,2021-09-01,9.66,10.15,9.62,9.96,9.7,47322801.0,468901038.0,26145000000.0,26145000000.0
sz002926,华西证券,2021-09-02,9.97,10.07,9.92,9.98,9.96,47303817.0,472452432.0,26197500000.0,26197500000.0
sz002926,华西证券,2021-09-03,10.33,10.38,9.9,9.92,9.98,54106683.0,545745849.0,26040000000.0,26040000000.0
sz002926,华西证券,2021-09-06,9.91,10.21,9.89,10.11,9.92,42413035.0,428310746.0,26538750000.0,26538750000.0
sz002926,华西证券,2021-09-07,10.08,10.21,9.98,10.19,10.11,33309886.0,336209859.0,26748750000.0,26748750000.0
sz002926,华西证券,2021-09-08,10.21,10.4,10.15,10.21,10.19,50975989.0,524301749.0,26801250000.0,26801250000.0
sz002926,华西证券,2021-09-09,10.1,10.18,10.01,10.11,10.21,37752980.0,381531333.0,26538750000.0,26538750000.0
sz002926,华西证券,2021-09-10,10.11,10.46,10.1,10.2,10.11,45650639.0,469173294.0,26775000000.0,26775000000.0
sz002926,华西证券,2021-09-13,10.22,10.38,10.2,10.24,10.2,31590337.0,324410705.0,26880000000.0,26880000000.0
sz002926,华西证券,2021-09-14,10.28,10.29,9.9,9.93,10.24,34372772.0,346484790.0,26066250000.0,26066250000.0
sz002926,华西证券,2021-09-15,9.99,10.25,9.96,10.13,9.93,35189235.0,356212480.0,26591250000.0,26591250000.0
sz002926,华西证券,2021-09-16,10.11,10.18,9.82,9.82,10.13,30961459.0,309376099.0,25777500000.0,25777500000.0
sz002926,华西证券,2021-09-17,9.82,9.94,9.77,9.88,9.82,20288342.0,200102372.0,25935000000.0,25935000000.0
sz002926,华西证券,2021-09-22,9.7,9.83,9.66,9.82,9.88,19365053.0,188932124.0,25777500000.0,25777500000.0
sz002926,华西证券,2021-09-23,9.83,10.04,9.82,9.94,9.82,21286340.0,211433672.0,26092500000.0,26092500000.0
sz002926,华西证券,2021-09-24,9.94,10.01,9.77,9.8,9.94,21234318.0,209991998.0,25725000000.0,25725000000.0
sz002926,华西证券,2021-09-27,9.8,9.84,9.6,9.64,9.8,20230018.0,196492349.0,25305000000.0,25305000000.0
sz002926,华西证券,2021-09-28,9.7,9.76,9.63,9.68,9.64,14497591.0,140548372.0,25410000000.0,25410000000.0
sz002926,华西证券,2021-09-29,9.59,9.65,9.43,9.64,9.68,21670966.0,207147966.0,25305000000.0,25305000000.0
sz002926,华西证券,2021-09-30,9.63,9.66,9.53,9.62,9.64,14617480.0,140292245.0,25252500000.0,25252500000.0
sz002926,华西证券,2021-10-08,9.69,9.74,9.63,9.7,9.62,12009363.0,116367206.0,25462500000.0,25462500000.0
sz002926,华西证券,2021-10-11,9.71,9.73,9.67,9.69,9.7,9817550.0,95244720.0,25436250000.0,25436250000.0
sz002926,华西证券,2021-10-12,9.66,9.66,9.49,9.55,9.69,17459439.0,167008873.0,25068750000.0,25068750000.0
sz002926,华西证券,2021-10-13,9.55,9.66,9.52,9.61,9.55,9377460.0,89842152.0,25226250000.0,25226250000.0
sz002926,华西证券,2021-10-14,9.59,9.63,9.55,9.61,9.61,8938899.0,85776522.0,25226250000.0,25226250000.0
sz002926,华西证券,2021-10-15,9.59,9.64,9.52,9.54,9.61,8467195.0,81196690.0,25042500000.0,25042500000.0
sz002926,华西证券,2021-10-18,9.52,9.59,9.47,9.49,9.54,11071522.0,105540233.0,24911250000.0,24911250000.0
sz002926,华西证券,2021-10-19,9.49,9.61,9.48,9.6,9.49,10069480.0,96335482.0,25200000000.0,25200000000.0
sz002926,华西证券,2021-10-20,9.6,9.64,9.55,9.59,9.6,8662110.0,83127125.0,25173750000.0,25173750000.0
sz002926,华西证券,2021-10-21,9.6,9.65,9.51,9.56,9.59,10469814.0,100319412.0,25095000000.0,25095000000.0
sz002926,华西证券,2021-10-22,9.55,9.61,9.38,9.39,9.56,12531029.0,118813165.0,24648750000.0,24648750000.0
sz002926,华西证券,2021-10-25,9.44,9.48,9.21,9.39,9.39,19208717.0,179396741.0,24648750000.0,24648750000.0
sz002926,华西证券,2021-10-26,9.38,9.44,9.31,9.31,9.39,15767335.0,147818991.0,24438750000.0,24438750000.0
sz002926,华西证券,2021-10-27,9.32,9.35,9.08,9.09,9.31,14000432.999999998,128389452.0,23861250000.0,23861250000.0
sz002926,华西证券,2021-10-28,9.05,9.12,8.96,9.02,9.09,16263694.0,146594831.0,23677500000.0,23677500000.0
sz002926,华西证券,2021-10-29,8.95,9.16,8.93,9.05,9.02,13744631.0,124386178.0,23756250000.0,23756250000.0
sz002926,华西证券,2021-11-01,9.02,9.21,9.01,9.19,9.05,14284862.0,130613506.0,24123750000.0,24123750000.0
sz002926,华西证券,2021-11-02,9.17,9.26,9.05,9.09,9.19,12259373.0,112163022.0,23861250000.0,23861250000.0
sz002926,华西证券,2021-11-03,9.13,9.18,9.08,9.12,9.09,7211330.0,65821495.0,23940000000.0,23940000000.0
sz002926,华西证券,2021-11-04,9.14,9.18,9.09,9.12,9.12,7485783.0,68242504.0,23940000000.0,23940000000.0
sz002926,华西证券,2021-11-05,9.12,9.15,9.08,9.1,9.12,8512994.0,77632712.0,23887500000.0,23887500000.0
sz002926,华西证券,2021-11-08,9.1,9.23,9.08,9.19,9.1,10048532.0,92114690.0,24123750000.0,24123750000.0
sz002926,华西证券,2021-11-09,9.2,9.25,9.16,9.24,9.19,8596824.0,79225441.0,24255000000.0,24255000000.0
sz002926,华西证券,2021-11-10,9.23,9.28,9.2,9.26,9.24,8079273.0,74600015.0,24307500000.0,24307500000.0
sz002926,华西证券,2021-11-11,9.23,9.41,9.23,9.37,9.26,14895553.0,139366649.0,24596250000.0,24596250000.0
sz002926,华西证券,2021-11-12,9.37,9.38,9.28,9.31,9.37,9011850.0,83987569.0,24438750000.0,24438750000.0
sz002926,华西证券,2021-11-15,9.33,9.36,9.24,9.25,9.31,9506063.0,88145264.0,24281250000.0,24281250000.0
sz002926,华西证券,2021-11-16,9.25,9.3,9.2,9.21,9.25,9414212.0,87094217.0,24176250000.0,24176250000.0
sz002926,华西证券,2021-11-17,9.24,9.24,9.16,9.21,9.21,10343120.0,95150247.0,24176250000.0,24176250000.0
sz002926,华西证券,2021-11-18,9.18,9.22,9.14,9.15,9.21,9469441.0,86932659.0,24018750000.0,24018750000.0
sz002926,华西证券,2021-11-19,9.14,9.5,9.14,9.4,9.15,22759788.0,212466335.0,24675000000.0,24675000000.0
sz002926,华西证券,2021-11-22,9.38,9.53,9.32,9.37,9.4,19129736.0,180065459.0,24596250000.0,24596250000.0
sz002926,华西证券,2021-11-23,9.35,9.51,9.34,9.42,9.37,14498421.0,136916804.0,24727500000.0,24727500000.0
sz002926,华西证券,2021-11-24,9.38,9.45,9.35,9.37,9.42,9015174.0,84539275.0,24596250000.0,24596250000.0
sz002926,华西证券,2021-11-25,9.35,9.42,9.32,9.38,9.37,8945689.0,83839306.0,24622500000.0,24622500000.0
sz002926,华西证券,2021-11-26,9.35,9.41,9.32,9.33,9.38,8306560.0,77738714.0,24491250000.0,24491250000.0
sz002926,华西证券,2021-11-29,9.28,9.33,9.26,9.29,9.33,9761285.0,90683071.0,24386250000.0,24386250000.0
sz002926,华西证券,2021-11-30,9.3,9.38,9.27,9.28,9.29,9750147.0,90828272.0,24360000000.0,24360000000.0
sz002926,华西证券,2021-12-01,9.28,9.44,9.27,9.38,9.28,12539388.0,117510485.0,24622500000.0,24622500000.0
sz002926,华西证券,2021-12-02,9.35,9.46,9.34,9.38,9.38,13343351.0,125522149.0,24622500000.0,24622500000.0
sz002926,华西证券,2021-12-03,9.39,9.46,9.36,9.45,9.38,11602928.0,109225258.0,24806250000.0,24806250000.0
sz002926,华西证券,2021-12-06,9.47,9.68,9.42,9.44,9.45,27297092.0,260693776.0,24780000000.0,24780000000.0
sz002926,华西证券,2021-12-07,9.53,9.56,9.41,9.45,9.44,16665803.0,157673802.0,24806250000.0,24806250000.0
sz002926,华西证券,2021-12-08,9.48,9.57,9.38,9.53,9.45,17773080.0,168230324.0,25016250000.0,25016250000.0
sz002926,华西证券,2021-12-09,9.51,9.87,9.48,9.69,9.53,41804061.0,406505039.0,25436250000.0,25436250000.0
sz002926,华西证券,2021-12-10,9.6,9.67,9.54,9.59,9.69,24680612.0,236667478.0,25173750000.0,25173750000.0
sz002926,华西证券,2021-12-13,9.71,9.79,9.57,9.59,9.59,26581716.0,257110218.0,25173750000.0,25173750000.0
sz002926,华西证券,2021-12-14,9.53,9.57,9.49,9.53,9.59,13446604.0,128029762.0,25016250000.0,25016250000.0
sz002926,华西证券,2021-12-15,9.51,9.63,9.5,9.56,9.53,12922696.0,123633313.0,25095000000.0,25095000000.0
sz002926,华西证券,2021-12-16,9.57,9.65,9.52,9.65,9.56,14203939.0,136180867.0,25331250000.0,25331250000.0
sz002926,华西证券,2021-12-17,9.63,9.75,9.6,9.66,9.65,20514325.0,198505947.0,25357500000.0,25357500000.0
sz002926,华西证券,2021-12-20,9.61,9.66,9.51,9.52,9.66,13568066.0,130073828.0,24990000000.0,24990000000.0
sz002926,华西证券,2021-12-21,9.52,9.72,9.52,9.68,9.52,17937841.0,172944311.0,25410000000.0,25410000000.0
sz002926,华西证券,2021-12-22,9.69,9.74,9.61,9.64,9.68,13239861.0,128067582.0,25305000000.0,25305000000.0
sz002926,华西证券,2021-12-23,9.61,9.69,9.59,9.65,9.64,11202418.0,108038452.0,25331250000.0,25331250000.0
sz002926,华西证券,2021-12-24,9.65,9.67,9.52,9.56,9.65,12498457.0,119674334.0,25095000000.0,25095000000.0
sz002926,华西证券,2021-12-27,9.7,10.08,9.65,9.83,9.56,48984444.0,484082408.0,25803750000.0,25803750000.0
sz002926,华西证券,2021-12-28,9.8,9.84,9.66,9.77,9.83,24780332.0,241227744.0,25646250000.0,25646250000.0
sz002926,华西证券,2021-12-29,9.72,9.78,9.66,9.66,9.77,13626592.0,132394659.0,25357500000.0,25357500000.0
sz002926,华西证券,2021-12-30,9.63,9.81,9.63,9.76,9.66,20211925.0,196902343.0,25620000000.0,25620000000.0
sz002926,华西证券,2021-12-31,9.79,9.89,9.74,9.85,9.76,17709676.0,173909136.0,25856250000.0,25856250000.0
sz002926,华西证券,2022-01-04,9.85,9.88,9.78,9.85,9.85,16986748.0,167093386.0,25856250000.0,25856250000.0
sz002926,华西证券,2022-01-05,9.85,9.89,9.77,9.77,9.85,17419219.0,171058850.0,25646250000.0,25646250000.0
sz002926,华西证券,2022-01-06,9.73,9.82,9.7,9.71,9.77,17177114.0,167410933.0,25488750000.0,25488750000.0
sz002926,华西证券,2022-01-07,9.75,9.83,9.68,9.7,9.71,16771430.0,163668493.0,25462500000.0,25462500000.0
sz002926,华西证券,2022-01-10,9.71,9.8,9.7,9.73,9.7,12503664.0,121739880.0,25541250000.0,25541250000.0
sz002926,华西证券,2022-01-11,9.72,9.84,9.71,9.74,9.73,16456062.0,160629892.0,25567500000.0,25567500000.0
sz002926,华西证券,2022-01-12,9.73,9.77,9.67,9.75,9.74,12197383.0,118656817.0,25593750000.0,25593750000.0
sz002926,华西证券,2022-01-13,9.77,9.8,9.71,9.71,9.75,12165050.0,118719983.0,25488750000.0,25488750000.0
sz002926,华西证券,2022-01-14,9.69,9.72,9.46,9.48,9.71,20782703.0,199149325.0,24885000000.0,24885000000.0
