数据由邢不行整理
股票代码,股票名称,交易日期,开盘价,最高价,最低价,收盘价,前收盘价,成交量,成交额,流通市值,总市值
sz002960,N青鸟,2019-08-09,20.81,24.97,20.81,24.97,17.34,76859.0,1917713.0,1498200000.0,5992800000.0
sz002960,青鸟消防,2019-08-12,27.47,27.47,27.47,27.47,24.97,46238.0,1270157.0,1648200000.0,6592800000.0
sz002960,青鸟消防,2019-08-13,30.22,30.22,30.22,30.22,27.47,72916.0,2203521.0,1813200000.0,7252800000.0
sz002960,青鸟消防,2019-08-14,33.24,33.24,33.24,33.24,30.22,120665.0,4010904.0,1994400000.0,7977600000.0
sz002960,青鸟消防,2019-08-15,36.56,36.56,36.56,36.56,33.24,337053.0,12322657.0,2193600000.0,8774400000.0
sz002960,青鸟消防,2019-08-16,40.22,40.22,37.18,37.2,36.56,34196586.0,1310959167.0,2232000000.0,8928000000.0
sz002960,青鸟消防,2019-08-19,36.0,36.48,34.9,36.22,37.2,21541095.0,769782860.0,2173200000.0,8692800000.0
sz002960,青鸟消防,2019-08-20,35.75,36.49,35.09,35.19,36.22,13828160.0,493930437.0,2111400000.0,8445600000.0
sz002960,青鸟消防,2019-08-21,34.81,34.87,33.36,33.63,35.19,14177868.0,482112781.0,2017800000.0,8071200000.0
sz002960,青鸟消防,2019-08-22,33.73,34.28,33.12,34.06,33.63,9919598.0,335473273.0,2043600000.0,8174400000.0
sz002960,青鸟消防,2019-08-23,33.71,34.05,33.16,33.22,34.06,6951037.0,233202738.0,1993200000.0,7972800000.0
sz002960,青鸟消防,2019-08-26,32.0,32.49,31.81,32.32,33.22,6220022.0,200532544.0,1939200000.0,7756800000.0
sz002960,青鸟消防,2019-08-27,32.82,33.04,32.48,32.66,32.32,6141955.0,200891409.0,1959600000.0,7838400000.0
sz002960,青鸟消防,2019-08-28,32.5,33.97,32.42,33.74,32.66,9095051.0,304282895.0,2024400000.0,8097600000.0
sz002960,青鸟消防,2019-08-29,33.5,33.5,32.38,32.48,33.74,8010105.0,262452478.0,1948800000.0,7795200000.0
sz002960,青鸟消防,2019-08-30,32.6,32.88,32.28,32.28,32.48,5465931.0,178210399.0,1936800000.0,7747200000.0
sz002960,青鸟消防,2019-09-02,31.8,32.15,31.06,32.05,32.28,6384391.0,202214664.0,1923000000.0,7692000000.0
sz002960,青鸟消防,2019-09-03,31.88,32.65,31.88,32.49,32.05,6194889.0,199912118.0,1949400000.0,7797600000.0
sz002960,青鸟消防,2019-09-04,32.37,32.8,32.02,32.75,32.49,6490436.0,211053133.0,1965000000.0,7860000000.0
sz002960,青鸟消防,2019-09-05,32.92,33.46,32.64,32.82,32.75,8112501.0,267803073.0,1969200000.0,7876800000.0
sz002960,青鸟消防,2019-09-06,32.76,33.28,32.56,32.83,32.82,5626668.0,184883918.0,1969800000.0,7879200000.0
sz002960,青鸟消防,2019-09-09,33.0,33.74,32.83,33.57,32.83,8948370.0,299033633.0,2014200000.0,8056800000.0
sz002960,青鸟消防,2019-09-10,33.4,34.7,33.21,34.7,33.57,11408355.0,389266726.0,2082000000.0,8328000000.0
sz002960,青鸟消防,2019-09-11,34.7,35.27,33.75,33.8,34.7,10057304.0,346099614.0,2028000000.0,8112000000.0
sz002960,青鸟消防,2019-09-12,33.58,34.29,33.31,33.91,33.8,6422760.0,216932916.0,2034600000.0,8138400000.0
sz002960,青鸟消防,2019-09-16,33.89,34.48,33.52,34.28,33.91,6649695.0,226417911.0,2056800000.0,8227200000.0
sz002960,青鸟消防,2019-09-17,34.2,34.97,33.58,34.06,34.28,7833355.0,268496201.0,2043600000.0,8174400000.0
sz002960,青鸟消防,2019-09-18,33.9,35.67,33.62,35.49,34.06,13663365.0,477306119.0,2129400000.0,8517600000.0
sz002960,青鸟消防,2019-09-19,35.1,35.95,34.84,35.9,35.49,10250753.0,363415846.0,2154000000.0,8616000000.0
sz002960,青鸟消防,2019-09-20,35.67,36.12,34.9,34.91,35.9,10131840.0,359216845.0,2094600000.0,8378400000.0
sz002960,青鸟消防,2019-09-23,34.61,34.63,32.96,33.3,34.91,8539117.0,287258575.0,1998000000.0,7992000000.0
sz002960,青鸟消防,2019-09-24,33.2,33.95,33.15,33.51,33.3,5180447.0,173998159.0,2010600000.0,8042400000.0
sz002960,青鸟消防,2019-09-25,33.25,33.37,32.12,32.17,33.51,5499401.0,179145786.0,1930200000.0,7720800000.0
sz002960,青鸟消防,2019-09-26,32.25,32.47,30.7,30.77,32.17,5021113.0,158065771.0,1846200000.0,7384800000.0
sz002960,青鸟消防,2019-09-27,30.62,31.47,30.62,30.83,30.77,3250746.0,100722386.0,1849800000.0,7399200000.0
sz002960,青鸟消防,2019-09-30,30.87,30.97,29.91,29.96,30.83,2966813.0,89733370.0,1797600000.0,7190400000.0
sz002960,青鸟消防,2019-10-08,30.03,30.67,29.96,30.24,29.96,2407492.0,72865643.0,1814400000.0,7257600000.0
sz002960,青鸟消防,2019-10-09,30.07,30.79,29.7,30.73,30.24,2666951.0,80985338.0,1843800000.0,7375200000.0
sz002960,青鸟消防,2019-10-10,30.71,31.73,30.55,31.63,30.73,4068549.0,127066127.0,1897800000.0,7591200000.0
sz002960,青鸟消防,2019-10-11,31.63,31.93,31.32,31.32,31.63,4322475.0,136668560.0,1879200000.0,7516800000.0
sz002960,青鸟消防,2019-10-14,31.49,31.75,31.35,31.55,31.32,3809258.0,120245950.0,1893000000.0,7572000000.0
sz002960,青鸟消防,2019-10-15,31.35,31.5,30.9,31.24,31.55,3118267.0,97238816.0,1874400000.0,7497600000.0
sz002960,青鸟消防,2019-10-16,31.26,31.57,30.89,31.01,31.24,3156398.0,98597111.0,1860600000.0,7442400000.0
sz002960,青鸟消防,2019-10-17,30.82,31.93,30.81,31.14,31.01,3649455.0,114682581.0,1868400000.0,7473600000.0
sz002960,青鸟消防,2019-10-18,30.99,30.99,29.71,29.8,31.14,4954754.0,149061226.0,1788000000.0,7152000000.0
sz002960,青鸟消防,2019-10-21,29.35,29.42,27.7,28.19,29.8,3670486.0,103900173.0,1691400000.0,6765600000.0
sz002960,青鸟消防,2019-10-22,28.24,28.46,27.98,28.43,28.19,2026755.0,57234583.0,1705800000.0,6823200000.0
sz002960,青鸟消防,2019-10-23,29.24,30.28,28.89,29.15,28.43,3932212.0,115885792.0,1749000000.0,6996000000.0
sz002960,青鸟消防,2019-10-24,28.96,29.18,28.7,28.97,29.15,1931861.0,55964305.0,1738200000.0,6952800000.0
sz002960,青鸟消防,2019-10-25,29.02,29.4,28.82,29.18,28.97,1916680.0,55903219.0,1750800000.0,7003200000.0
sz002960,青鸟消防,2019-10-28,29.45,29.58,29.01,29.42,29.18,2600404.0,76260988.0,1765200000.0,7060800000.0
sz002960,青鸟消防,2019-10-29,29.33,29.34,28.23,28.23,29.42,3381734.0,97184738.0,1693800000.0,6775200000.0
sz002960,青鸟消防,2019-10-30,28.18,28.6,27.92,28.07,28.23,2085657.0,58851676.0,1684200000.0,6736800000.0
sz002960,青鸟消防,2019-10-31,27.92,28.1,26.92,26.92,28.07,3804252.0,104314778.0,1615200000.0,6460800000.0
sz002960,青鸟消防,2019-11-01,27.07,27.2,26.81,27.12,26.92,1671835.0,45251200.0,1627200000.0,6508800000.0
sz002960,青鸟消防,2019-11-04,27.32,27.32,27.09,27.16,27.12,1506862.0,40959363.0,1629600000.0,6518400000.0
sz002960,青鸟消防,2019-11-05,27.15,27.54,26.91,27.35,27.16,2700545.0,73472306.0,1641000000.0,6564000000.0
sz002960,青鸟消防,2019-11-06,27.3,27.55,27.13,27.48,27.35,2662907.0,72824306.0,1648800000.0,6595200000.0
sz002960,青鸟消防,2019-11-07,27.48,27.58,27.13,27.27,27.48,2063813.0,56453130.0,1636200000.0,6544800000.0
sz002960,青鸟消防,2019-11-08,27.32,28.28,27.28,27.78,27.27,4402730.0,122548895.0,1666800000.0,6667200000.0
sz002960,青鸟消防,2019-11-11,27.41,27.47,26.56,26.63,27.78,2935224.0,79043355.0,1597800000.0,6391200000.0
sz002960,青鸟消防,2019-11-12,26.8,27.53,26.66,27.51,26.63,3119488.0,84945914.0,1650600000.0,6602400000.0
sz002960,青鸟消防,2019-11-13,27.26,27.77,27.12,27.32,27.51,2776033.0,76162568.0,1639200000.0,6556800000.0
sz002960,青鸟消防,2019-11-14,27.29,27.65,26.98,27.58,27.32,2946737.0,80564486.0,1654800000.0,6619200000.0
sz002960,青鸟消防,2019-11-15,27.52,27.56,26.95,27.04,27.58,2133636.0,58007449.0,1622400000.0,6489600000.0
sz002960,青鸟消防,2019-11-18,26.98,27.33,26.85,27.33,27.04,1693650.0,46010457.0,1639800000.0,6559200000.0
sz002960,青鸟消防,2019-11-19,27.32,28.25,27.21,28.19,27.33,3926945.0,109445443.0,1691400000.0,6765600000.0
sz002960,青鸟消防,2019-11-20,28.0,28.46,27.8,27.97,28.19,3545799.0,99633060.0,1678200000.0,6712800000.0
sz002960,青鸟消防,2019-11-21,28.05,28.37,27.8,28.19,27.97,2666192.0,75128957.0,1691400000.0,6765600000.0
sz002960,青鸟消防,2019-11-22,28.1,28.45,27.23,27.34,28.19,3081440.0,85594595.0,1640400000.0,6561600000.0
sz002960,青鸟消防,2019-11-25,27.35,27.58,26.12,26.22,27.34,3494850.0,92769242.0,1573200000.0,6292800000.0
sz002960,青鸟消防,2019-11-26,26.26,26.38,25.95,26.06,26.22,1930919.0,50487386.0,1563600000.0,6254400000.0
sz002960,青鸟消防,2019-11-27,26.02,26.03,25.72,25.86,26.06,1501611.0,38804269.0,1551600000.0,6206400000.0
sz002960,青鸟消防,2019-11-28,25.87,26.18,25.81,25.89,25.86,1223179.0,31794889.0,1553400000.0,6213600000.0
sz002960,青鸟消防,2019-11-29,25.9,26.25,25.63,26.2,25.89,1658421.0,43073461.0,1572000000.0,6288000000.0
sz002960,青鸟消防,2019-12-02,26.5,26.69,25.96,26.04,26.2,1809415.0,47606171.0,1562400000.0,6249600000.0
sz002960,青鸟消防,2019-12-03,25.75,25.96,25.53,25.89,26.04,1717738.0,44168870.0,1553400000.0,6213600000.0
sz002960,青鸟消防,2019-12-04,25.75,25.92,25.61,25.85,25.89,998063.0,25764665.0,1551000000.0,6204000000.0
sz002960,青鸟消防,2019-12-05,25.88,26.37,25.88,26.3,25.85,2067852.0,54171454.0,1578000000.0,6312000000.0
sz002960,青鸟消防,2019-12-06,26.24,26.4,26.08,26.22,26.3,1646609.0,43177469.0,1573200000.0,6292800000.0
sz002960,青鸟消防,2019-12-09,26.25,26.3,25.91,26.2,26.22,1980697.0,51736015.0,1572000000.0,6288000000.0
sz002960,青鸟消防,2019-12-10,26.05,26.54,25.95,26.4,26.2,2468546.0,64946311.0,1584000000.0,6336000000.0
sz002960,青鸟消防,2019-12-11,26.3,26.68,26.19,26.68,26.4,2842303.0,75122465.0,1600800000.0,6403200000.0
sz002960,青鸟消防,2019-12-12,26.7,26.92,26.44,26.45,26.68,3237071.0,86253781.0,1587000000.0,6348000000.0
sz002960,青鸟消防,2019-12-13,26.65,26.91,26.49,26.72,26.45,2795048.0,74560236.0,1603200000.0,6412800000.0
sz002960,青鸟消防,2019-12-16,26.76,27.19,26.58,27.09,26.72,3311235.0,89135647.0,1625400000.0,6501600000.0
sz002960,青鸟消防,2019-12-17,27.1,27.22,26.87,27.19,27.09,3271445.0,88496573.0,1631400000.0,6525600000.0
sz002960,青鸟消防,2019-12-18,27.16,27.49,27.03,27.29,27.19,2986038.0,81407775.0,1637400000.0,6549600000.0
sz002960,青鸟消防,2019-12-19,27.29,27.31,26.89,27.02,27.29,2770239.0,74978416.0,1621200000.0,6484800000.0
sz002960,青鸟消防,2019-12-20,27.01,27.14,26.7,26.71,27.02,2213467.0,59596578.0,1602600000.0,6410400000.0
sz002960,青鸟消防,2019-12-23,26.67,26.67,25.95,25.97,26.71,2217562.0,58382008.0,1558200000.0,6232800000.0
sz002960,青鸟消防,2019-12-24,26.06,26.35,25.99,26.29,25.97,1334489.0,34884699.0,1577400000.0,6309600000.0
sz002960,青鸟消防,2019-12-25,26.27,26.39,26.19,26.29,26.29,1224251.0,32201283.0,1577400000.0,6309600000.0
sz002960,青鸟消防,2019-12-26,26.32,27.14,26.3,27.13,26.29,3524892.0,94598435.0,1627800000.0,6511200000.0
sz002960,青鸟消防,2019-12-27,27.16,27.22,26.81,26.81,27.13,2579991.0,69496679.0,1608600000.0,6434400000.0
sz002960,青鸟消防,2019-12-30,26.8,27.03,26.2,26.97,26.81,2349008.0,62744421.0,1618200000.0,6472800000.0
sz002960,青鸟消防,2019-12-31,27.18,27.18,26.8,27.01,26.97,1881877.0,50725244.0,1620600000.0,6482400000.0
sz002960,青鸟消防,2020-01-02,27.2,27.45,27.07,27.3,27.01,3155337.0,86042347.0,1638000000.0,6552000000.0
sz002960,青鸟消防,2020-01-03,27.27,27.48,27.07,27.43,27.3,3096961.0,84405594.0,1645800000.0,6583200000.0
sz002960,青鸟消防,2020-01-06,27.2,27.58,27.13,27.32,27.43,2837762.0,77611268.0,1639200000.0,6556800000.0
sz002960,青鸟消防,2020-01-07,27.36,27.77,27.35,27.73,27.32,3223926.0,89017934.0,1663800000.0,6655200000.0
sz002960,青鸟消防,2020-01-08,27.51,27.65,27.12,27.13,27.73,3059452.0,83632503.0,1627800000.0,6511200000.0
sz002960,青鸟消防,2020-01-09,27.28,27.56,27.25,27.51,27.13,2256087.0,61832822.0,1650600000.0,6602400000.0
sz002960,青鸟消防,2020-01-10,27.65,27.76,27.43,27.66,27.51,2339106.0,64587244.0,1659600000.0,6638400000.0
sz002960,青鸟消防,2020-01-13,27.66,27.88,27.43,27.87,27.66,2285265.0,63273159.0,1672200000.0,6688800000.0
sz002960,青鸟消防,2020-01-14,27.85,28.42,27.74,28.15,27.87,3609770.0,101607806.0,1689000000.0,6756000000.0
sz002960,青鸟消防,2020-01-15,28.21,28.35,27.66,27.84,28.15,2558414.0,71343946.0,1670400000.0,6681600000.0
sz002960,青鸟消防,2020-01-16,27.76,28.2,27.62,27.66,27.84,2345166.0,65445693.0,1659600000.0,6638400000.0
sz002960,青鸟消防,2020-01-17,27.72,27.92,27.52,27.61,27.66,1748557.0,48442514.0,1656600000.0,6626400000.0
sz002960,青鸟消防,2020-01-20,27.52,27.87,27.35,27.77,27.61,1808907.0,49868610.0,1666200000.0,6664800000.0
sz002960,青鸟消防,2020-01-21,27.71,27.76,27.29,27.29,27.77,1898598.0,52056879.0,1637400000.0,6549600000.0
sz002960,青鸟消防,2020-01-22,27.13,27.27,26.51,27.0,27.29,2256800.0,60767064.0,1620000000.0,6480000000.0
sz002960,青鸟消防,2020-01-23,26.79,26.99,25.85,26.07,27.0,2299635.0,60708770.0,1564200000.0,6256800000.0
sz002960,青鸟消防,2020-02-03,23.46,23.46,23.46,23.46,26.07,466400.0,10941744.0,1407600000.0,5630400000.0
sz002960,青鸟消防,2020-02-04,21.15,22.66,21.15,22.41,23.46,3581438.0,79833886.0,1344600000.0,5378400000.0
sz002960,青鸟消防,2020-02-05,22.54,23.18,22.42,22.77,22.41,2641709.0,60418437.0,1366200000.0,5464800000.0
sz002960,青鸟消防,2020-02-06,22.83,23.26,22.59,23.12,22.77,2768055.0,63506660.0,1387200000.0,5548800000.0
sz002960,青鸟消防,2020-02-07,23.15,23.89,23.07,23.66,23.12,2804404.0,66007603.0,1419600000.0,5678400000.0
sz002960,青鸟消防,2020-02-10,23.63,24.26,23.52,24.17,23.66,2199909.0,52807809.0,1450200000.0,5800800000.0
sz002960,青鸟消防,2020-02-11,24.25,24.27,23.86,23.99,24.17,1793830.0,43033588.0,1439400000.0,5757600000.0
sz002960,青鸟消防,2020-02-12,24.0,24.13,23.76,24.12,23.99,1802815.0,43280674.0,1447200000.0,5788800000.0
sz002960,青鸟消防,2020-02-13,24.04,24.18,23.68,23.71,24.12,1785888.0,42658247.0,1422600000.0,5690400000.0
sz002960,青鸟消防,2020-02-14,23.61,23.95,23.61,23.73,23.71,1351983.0,32172222.0,1423800000.0,5695200000.0
sz002960,青鸟消防,2020-02-17,23.79,24.55,23.79,24.5,23.73,2459695.0,59733720.0,1470000000.0,5880000000.0
sz002960,青鸟消防,2020-02-18,24.53,25.13,24.45,25.02,24.5,2696495.0,66898223.0,1501200000.0,6004800000.0
sz002960,青鸟消防,2020-02-19,24.97,25.28,24.81,24.89,25.02,2524442.0,63234517.0,1493400000.0,5973600000.0
sz002960,青鸟消防,2020-02-20,24.91,25.18,24.71,25.15,24.89,2574420.0,64369908.0,1509000000.0,6036000000.0
sz002960,青鸟消防,2020-02-21,25.15,25.5,25.01,25.32,25.15,2607303.0,66055969.0,1519200000.0,6076800000.0
sz002960,青鸟消防,2020-02-24,25.0,25.49,24.93,25.32,25.32,2532049.0,63751675.0,1519200000.0,6076800000.0
sz002960,青鸟消防,2020-02-25,24.79,24.99,24.02,24.8,25.32,3502985.0,86310171.0,1488000000.0,5952000000.0
sz002960,青鸟消防,2020-02-26,24.51,25.22,24.4,24.58,24.8,2811478.0,69731876.0,1474800000.0,5899200000.0
sz002960,青鸟消防,2020-02-27,24.58,25.96,24.54,25.38,24.58,5242390.0,133054846.0,1522800000.0,6091200000.0
sz002960,青鸟消防,2020-02-28,24.72,24.9,23.71,23.76,25.38,4282830.0,103951369.0,1425600000.0,5702400000.0
sz002960,青鸟消防,2020-03-02,23.98,24.65,23.98,24.56,23.76,2277556.0,55537688.0,1473600000.0,5894400000.0
sz002960,青鸟消防,2020-03-03,24.75,25.2,24.55,24.67,24.56,2770824.0,68972207.0,1480200000.0,5920800000.0
sz002960,青鸟消防,2020-03-04,24.51,25.2,24.38,25.2,24.67,2537201.0,62940078.0,1512000000.0,6048000000.0
sz002960,青鸟消防,2020-03-05,25.41,25.55,25.12,25.52,25.2,3402973.0,86247431.0,1531200000.0,6124800000.0
sz002960,青鸟消防,2020-03-06,25.2,25.41,25.06,25.28,25.52,2361293.0,59574485.0,1516800000.0,6067200000.0
sz002960,青鸟消防,2020-03-09,25.01,25.18,24.38,24.47,25.28,2882557.0,71131463.0,1468200000.0,5872800000.0
sz002960,青鸟消防,2020-03-10,23.99,24.95,23.73,24.86,24.47,2462979.0,59957565.0,1491600000.0,5966400000.0
sz002960,青鸟消防,2020-03-11,25.0,25.21,24.8,24.83,24.86,2222310.0,55592132.0,1489800000.0,5959200000.0
sz002960,青鸟消防,2020-03-12,24.54,24.58,23.91,24.1,24.83,2066053.0,50109903.0,1446000000.0,5784000000.0
sz002960,青鸟消防,2020-03-13,22.98,23.66,22.59,23.2,24.1,2688428.0,61922504.0,1392000000.0,5568000000.0
sz002960,青鸟消防,2020-03-16,23.43,23.6,22.18,22.24,23.2,2365606.0,54227546.0,1334400000.0,5337600000.0
sz002960,青鸟消防,2020-03-17,22.41,22.45,21.22,22.09,22.24,1878310.0,41109261.0,1325400000.0,5301600000.0
sz002960,青鸟消防,2020-03-18,22.27,22.61,21.7,21.72,22.09,1311400.0,29163885.0,1303200000.0,5212800000.0
sz002960,青鸟消防,2020-03-19,21.67,22.2,21.5,22.13,21.72,1525647.0,33277805.0,1327800000.0,5311200000.0
sz002960,青鸟消防,2020-03-20,22.65,22.65,22.08,22.38,22.13,1329862.0,29703568.0,1342800000.0,5371200000.0
sz002960,青鸟消防,2020-03-23,21.76,22.12,21.59,21.72,22.38,1302618.0,28455184.0,1303200000.0,5212800000.0
sz002960,青鸟消防,2020-03-24,22.05,22.31,21.63,22.15,21.72,1015800.0,22361348.0,1329000000.0,5316000000.0
sz002960,青鸟消防,2020-03-25,22.41,22.72,22.37,22.63,22.15,1464124.0,32981937.0,1357800000.0,5431200000.0
sz002960,青鸟消防,2020-03-26,22.43,23.6,22.42,23.12,22.63,2495499.0,57574764.0,1387200000.0,5548800000.0
sz002960,青鸟消防,2020-03-27,23.39,23.47,22.71,22.76,23.12,1666101.0,38338788.0,1365600000.0,5462400000.0
sz002960,青鸟消防,2020-03-30,22.42,22.65,22.18,22.35,22.76,1172600.0,26249204.0,1341000000.0,5364000000.0
sz002960,青鸟消防,2020-03-31,22.49,24.5,22.49,23.7,22.35,4707966.0,111535509.0,1422000000.0,5688000000.0
sz002960,青鸟消防,2020-04-01,23.86,24.2,23.11,23.14,23.7,3064364.0,72189876.0,1388400000.0,5553600000.0
sz002960,青鸟消防,2020-04-02,23.13,23.89,22.91,23.68,23.14,2534200.0,59388656.0,1420800000.0,5683200000.0
sz002960,青鸟消防,2020-04-03,23.59,23.63,23.1,23.13,23.68,1614611.0,37664600.0,1387800000.0,5551200000.0
sz002960,青鸟消防,2020-04-07,23.48,23.59,23.29,23.48,23.13,1850695.0,43385975.0,1408800000.0,5635200000.0
sz002960,青鸟消防,2020-04-08,23.47,23.68,23.39,23.59,23.48,1289324.0,30373117.0,1415400000.0,5661600000.0
sz002960,青鸟消防,2020-04-09,23.61,23.97,23.53,23.64,23.59,1682607.0,39958905.0,1418400000.0,5673600000.0
sz002960,青鸟消防,2020-04-10,23.61,23.61,22.85,22.91,23.64,1845994.0,42673578.0,1374600000.0,5498400000.0
sz002960,青鸟消防,2020-04-13,22.04,22.04,21.38,21.69,22.91,2744698.0,59463414.0,1301400000.0,5205600000.0
sz002960,青鸟消防,2020-04-14,21.6,21.85,21.6,21.78,21.69,1064635.0,23141650.0,1306800000.0,5227200000.0
sz002960,青鸟消防,2020-04-15,21.8,22.27,21.68,21.85,21.78,1324065.0,29081334.0,1311000000.0,5244000000.0
sz002960,青鸟消防,2020-04-16,21.85,21.96,21.66,21.9,21.85,731055.0,15967575.0,1314000000.0,5256000000.0
sz002960,青鸟消防,2020-04-17,21.99,22.11,21.82,21.86,21.9,865655.0,19020713.0,1311600000.0,5246400000.0
sz002960,青鸟消防,2020-04-20,22.01,22.1,21.85,22.09,21.86,892473.0,19640389.0,1325400000.0,5301600000.0
sz002960,青鸟消防,2020-04-21,22.02,22.17,21.87,22.17,22.09,893944.0,19675278.0,1330200000.0,5320800000.0
sz002960,青鸟消防,2020-04-22,22.18,22.43,22.01,22.29,22.17,1272767.0,28289867.0,1337400000.0,5349600000.0
sz002960,青鸟消防,2020-04-23,22.05,22.1,21.68,21.75,22.29,2033000.0,44384262.0,1305000000.0,5220000000.0
sz002960,青鸟消防,2020-04-24,21.67,21.82,21.18,21.23,21.75,1433300.0,30694582.0,1273800000.0,5095200000.0
sz002960,青鸟消防,2020-04-27,21.38,21.38,21.16,21.22,21.23,774889.0,16455422.0,1273200000.0,5092800000.0
sz002960,青鸟消防,2020-04-28,21.3,21.3,20.1,20.53,21.22,1418094.0,29173606.0,1231800000.0,4927200000.0
sz002960,青鸟消防,2020-04-29,20.56,20.76,20.45,20.46,20.53,818910.0,16822068.0,1227600000.0,4910400000.0
sz002960,青鸟消防,2020-04-30,20.6,20.84,20.6,20.8,20.46,1038600.0,21526024.0,1248000000.0,4992000000.0
sz002960,青鸟消防,2020-05-06,20.59,21.1,20.46,21.01,20.8,886419.0,18454185.0,1260600000.0,5042400000.0
sz002960,青鸟消防,2020-05-07,21.18,21.18,20.8,20.95,21.01,919489.0,19243276.0,1257000000.0,5028000000.0
sz002960,青鸟消防,2020-05-08,21.0,21.25,21.0,21.21,20.95,1225298.0,25951362.0,1272600000.0,5090400000.0
sz002960,青鸟消防,2020-05-11,21.24,21.83,21.22,21.75,21.21,1931533.0,41679817.0,1305000000.0,5220000000.0
sz002960,青鸟消防,2020-05-12,21.81,21.81,21.38,21.63,21.75,1010452.0,21720213.0,1297800000.0,5191200000.0
sz002960,青鸟消防,2020-05-13,21.49,21.76,21.45,21.71,21.63,859867.0,18641991.0,1302600000.0,5210400000.0
sz002960,青鸟消防,2020-05-14,21.66,22.38,21.58,21.82,21.71,1963678.0,43152858.0,1309200000.0,5236800000.0
sz002960,青鸟消防,2020-05-15,21.91,21.93,21.7,21.8,21.82,1067800.0,23288258.0,1308000000.0,5232000000.0
sz002960,青鸟消防,2020-05-18,21.75,22.04,21.66,21.8,21.8,950189.0,20735786.0,1308000000.0,5232000000.0
sz002960,青鸟消防,2020-05-19,21.81,21.96,21.73,21.84,21.8,804089.0,17544468.0,1310400000.0,5241600000.0
sz002960,青鸟消防,2020-05-20,22.0,22.26,21.7,22.1,21.84,1429379.0,31374238.0,1326000000.0,5304000000.0
sz002960,青鸟消防,2020-05-21,22.1,22.2,21.88,21.93,22.1,1105647.0,24334401.0,1315800000.0,5263200000.0
sz002960,青鸟消防,2020-05-22,21.85,21.94,21.62,21.8,21.93,1163454.0,25368264.0,1308000000.0,5232000000.0
sz002960,青鸟消防,2020-05-25,21.9,21.97,21.26,21.4,21.8,850100.0,18341227.0,1284000000.0,5136000000.0
sz002960,青鸟消防,2020-05-26,21.4,21.7,21.4,21.63,21.4,758889.0,16354991.0,1297800000.0,5191200000.0
sz002960,青鸟消防,2020-05-27,21.4,21.69,21.31,21.42,21.63,860600.0,18499438.0,1285200000.0,5140800000.0
sz002960,青鸟消防,2020-05-28,21.35,21.53,20.86,21.15,21.42,969700.0,20518696.0,1269000000.0,5076000000.0
sz002960,青鸟消防,2020-05-29,21.14,21.26,20.9,21.12,21.15,654800.0,13810495.0,1267200000.0,5068800000.0
sz002960,青鸟消防,2020-06-01,21.19,21.74,21.19,21.68,21.12,978884.0,21040065.0,1300800000.0,5203200000.0
sz002960,青鸟消防,2020-06-02,21.61,21.98,21.5,21.93,21.68,1123000.0,24524687.0,1315800000.0,5263200000.0
sz002960,青鸟消防,2020-06-03,22.0,22.04,21.8,21.86,21.93,796600.0,17452891.0,1311600000.0,5246400000.0
sz002960,青鸟消防,2020-06-04,21.93,22.52,21.7,22.33,21.86,1876427.0,41576965.0,1339800000.0,5359200000.0
sz002960,青鸟消防,2020-06-05,22.23,22.3,21.97,22.15,22.33,1109590.0,24547142.0,1329000000.0,5316000000.0
sz002960,青鸟消防,2020-06-08,22.23,22.26,22.08,22.11,22.15,791400.0,17537439.0,1326600000.0,5306400000.0
sz002960,青鸟消防,2020-06-09,22.19,22.79,22.12,22.59,22.11,1982722.0,44854443.0,1355400000.0,5421600000.0
sz002960,青鸟消防,2020-06-10,22.59,22.68,22.15,22.31,22.59,1180430.0,26447467.0,1338600000.0,5354400000.0
sz002960,青鸟消防,2020-06-11,22.16,22.37,22.01,22.04,22.31,899297.0,19925691.0,1322400000.0,5289600000.0
sz002960,青鸟消防,2020-06-12,21.89,22.25,21.57,22.18,22.04,1007885.0,22055471.0,1330800000.0,5323200000.0
sz002960,青鸟消防,2020-06-15,22.3,23.38,22.3,22.55,22.18,1892233.0,43048971.0,1353000000.0,5412000000.0
sz002960,青鸟消防,2020-06-16,22.65,23.04,22.4,22.84,22.55,1303145.0,29651512.0,1370400000.0,5481600000.0
sz002960,青鸟消防,2020-06-17,22.8,22.97,22.65,22.76,22.84,877559.0,19977823.0,1365600000.0,5462400000.0
sz002960,青鸟消防,2020-06-18,22.93,23.96,22.85,23.63,22.76,3748152.0,88246924.0,1417800000.0,5817942300.0
sz002960,青鸟消防,2020-06-19,23.46,23.85,23.3,23.54,23.63,1837048.0,43276604.0,1412400000.0,5795783400.0
sz002960,青鸟消防,2020-06-22,23.4,23.5,23.01,23.16,23.54,1829328.0,42428740.0,1389600000.0,5702223600.0
sz002960,青鸟消防,2020-06-23,23.12,23.2,22.79,22.85,23.16,959914.0,21995705.0,1371000000.0,5625898500.0
sz002960,青鸟消防,2020-06-24,22.94,23.06,22.7,22.72,22.85,831900.0,18999387.0,1363200000.0,5593891200.0
sz002960,青鸟消防,2020-06-29,22.71,22.71,22.3,22.44,22.72,950277.0,21311904.0,1346400000.0,5524952400.0
sz002960,青鸟消防,2020-06-30,22.58,23.46,22.5,23.32,22.44,2149267.0,49382251.0,1399200000.0,5741617200.0
sz002960,青鸟消防,2020-07-01,23.26,24.45,23.15,24.35,23.32,4921782.0,118467244.0,1461000000.0,5995213500.0
sz002960,青鸟消防,2020-07-02,24.58,26.79,24.58,26.79,24.35,8527366.0,225669195.0,1607400000.0,6595965900.0
sz002960,青鸟消防,2020-07-03,27.99,29.15,27.4,29.15,26.5,19097363.0,551697244.0,1749000000.0,7177021500.0
sz002960,青鸟消防,2020-07-06,29.15,31.48,28.29,30.09,29.15,18208922.0,542529953.0,1805400000.0,7408458900.0
sz002960,青鸟消防,2020-07-07,29.3,31.87,29.3,29.6,30.09,14566272.0,445952056.0,1776000000.0,7287816000.0
sz002960,青鸟消防,2020-07-08,29.14,30.2,28.46,30.0,29.6,11146291.0,326122736.0,1800000000.0,7386300000.0
sz002960,青鸟消防,2020-07-09,29.75,33.0,29.32,32.08,30.0,15242284.0,481545792.0,1924800000.0,7898416800.000001
sz002960,青鸟消防,2020-07-10,32.06,35.29,31.6,35.29,32.08,12144678.0,411452127.0,2117400000.0,8688750900.0
sz002960,青鸟消防,2020-07-13,36.0,38.82,35.5,38.82,35.29,10323099.0,392373045.0,2329200000.0,9557872200.0
sz002960,青鸟消防,2020-07-14,39.5,40.9,36.0,38.2,38.82,13441923.0,515121270.0,2292000000.0,9405222000.0
sz002960,青鸟消防,2020-07-15,37.35,39.16,35.61,37.0,38.2,9249165.0,349598718.0,2220000000.0,9109770000.0
sz002960,青鸟消防,2020-07-16,37.45,40.44,35.13,36.0,37.0,9819561.0,368818288.0,2160000000.0,8863560000.0
sz002960,青鸟消防,2020-07-17,37.84,38.25,34.5,36.7,36.0,9249299.0,339091628.0,2202000000.0,9035907000.0
sz002960,青鸟消防,2020-07-20,37.6,40.08,35.5,39.85,36.7,7496767.0,285118923.0,2391000000.0,9811468500.0
sz002960,青鸟消防,2020-07-21,39.8,39.8,37.09,37.95,39.85,6652266.0,252866831.0,2277000000.0,9343669500.0
sz002960,青鸟消防,2020-07-22,37.2,41.65,36.91,41.1,37.95,8679629.0,344820778.0,2466000000.0,10119231000.0
sz002960,青鸟消防,2020-07-23,40.8,41.74,38.88,40.04,41.1,4835189.0,195029074.0,2402400000.0,9858248400.0
sz002960,青鸟消防,2020-07-24,39.18,41.65,38.0,38.16,40.04,5535958.0,219053460.0,2289600000.0,9395373600.0
sz002960,青鸟消防,2020-07-27,38.63,38.93,35.5,37.7,38.16,4976928.0,186086841.0,2262000000.0,9282117000.0
sz002960,青鸟消防,2020-07-28,37.7,38.3,35.68,36.9,37.7,3333500.0,122381354.0,2214000000.0,9085149000.0
sz002960,青鸟消防,2020-07-29,36.8,38.87,36.4,38.71,36.9,3988567.0,152298799.0,2322600000.0,9530789100.0
sz002960,青鸟消防,2020-07-30,40.31,42.58,40.3,42.58,38.71,3454993.0,144780023.0,2554800000.0,10483621800.0
sz002960,青鸟消防,2020-07-31,45.11,45.6,40.7,42.37,42.58,8036376.0,347885836.0,2542200000.0,10431917700.0
sz002960,青鸟消防,2020-08-03,43.0,43.0,40.31,41.91,42.37,5762565.0,239789713.0,2514600000.0,10318661100.0
sz002960,青鸟消防,2020-08-04,42.3,43.5,39.9,42.18,41.91,6164686.0,256216056.0,2530800000.0,10385137800.0
sz002960,青鸟消防,2020-08-05,43.04,45.58,41.1,44.33,42.18,6003081.0,261523819.0,2659800000.0,10914489300.0
sz002960,青鸟消防,2020-08-06,43.31,48.1,43.18,46.46,44.33,5777031.0,263030263.0,2787600000.0,11438916600.0
sz002960,青鸟消防,2020-08-07,46.48,47.88,44.55,45.2,46.46,5215378.0,239174597.0,2712000000.0,11128692000.0
sz002960,青鸟消防,2020-08-10,45.08,46.32,44.51,45.68,45.2,4136269.0,187842587.0,6768098630.4,11246872800.0
sz002960,青鸟消防,2020-08-11,45.38,48.48,44.9,45.85,45.68,5358353.0,252420802.0,5557187123.25,11288728500.0
sz002960,青鸟消防,2020-08-12,45.71,46.93,42.71,44.86,45.85,5581978.0,245658291.0,5437195514.7,11044980600.0
sz002960,青鸟消防,2020-08-13,44.65,45.01,42.4,43.25,44.86,4418689.0,191364561.0,5242057646.25,10648582500.0
sz002960,青鸟消防,2020-08-14,43.3,43.88,42.42,42.75,43.25,3410193.0,146439653.0,5181455823.75,10525477500.0
sz002960,青鸟消防,2020-08-17,42.49,42.85,40.7,42.0,42.75,6190597.0,258941886.0,5090553090.0,10340820000.0
sz002960,青鸟消防,2020-08-18,41.87,43.5,41.0,42.8,42.0,5038213.0,214366920.0,5187516006.0,10537788000.0
sz002960,青鸟消防,2020-08-19,42.57,43.67,41.8,42.47,42.8,3729004.0,159349554.0,5147518803.150001,10456538700.0
sz002960,青鸟消防,2020-08-20,42.9,43.44,42.25,42.59,42.47,1947100.0,83380214.0,5162063240.55,10486083899.999998
sz002960,青鸟消防,2020-08-21,42.89,43.75,42.15,43.2,42.59,2276400.0,98048587.0,5235997464.0,10636272000.0
sz002960,青鸟消防,2020-08-24,42.0,45.5,42.0,44.21,43.2,6376722.0,281681586.0,5358413145.45,10884944100.0
sz002960,青鸟消防,2020-08-25,43.3,44.6,43.25,43.86,44.21,2461979.0,107615025.0,5315991869.700001,10798770600.0
sz002960,青鸟消防,2020-08-26,43.6,44.7,43.0,43.72,43.86,2218461.0,97356531.0,5299023359.400001,10764301200.000002
sz002960,青鸟消防,2020-08-27,43.72,44.55,43.65,43.85,43.72,2334486.0,102997314.0,5314779833.25,10796308500.0
sz002960,青鸟消防,2020-08-28,44.35,48.13,43.86,47.79,43.85,4372000.0,204076047.0,5792322194.55,11766375900.0
sz002960,青鸟消防,2020-08-31,48.5,50.55,47.13,48.8,47.79,4469500.0,219389459.0,5914737876.0,12015048000.0
sz002960,青鸟消防,2020-09-01,50.94,50.94,48.35,48.7,48.8,2732489.0,134894665.0,5902617511.5,11990427000.0
sz002960,青鸟消防,2020-09-02,49.83,49.9,46.75,47.12,48.7,1978419.0,94461934.0,5711115752.400001,11601415200.0
sz002960,青鸟消防,2020-09-03,47.35,47.53,46.5,47.15,47.12,1606546.0,75670855.0,5714751861.75,11608801500.0
sz002960,青鸟消防,2020-09-04,46.71,47.99,46.13,47.4,47.15,1571400.0,73818263.0,5745052773.0,11670354000.0
sz002960,青鸟消防,2020-09-07,46.88,48.19,45.38,45.52,47.4,2458889.0,115230038.0,5517189920.400001,11207479200.0
sz002960,青鸟消防,2020-09-08,45.5,46.3,43.72,45.28,45.52,2416991.0,108589242.0,5488101045.6,11148388799.999998
sz002960,青鸟消防,2020-09-09,45.0,45.2,42.59,42.68,45.28,2376400.0,103974369.0,5172971568.599999,10508242800.0
sz002960,青鸟消防,2020-09-10,43.4,43.55,40.4,40.83,42.68,2623489.0,110307673.0,4948744825.35,10052754300.0
sz002960,青鸟消防,2020-09-11,41.01,41.79,40.18,41.2,40.83,1552200.0,63612976.0,4993590174.0,10143852000.0
sz002960,青鸟消防,2020-09-14,41.84,42.39,40.59,41.59,41.2,1181100.0,49126733.0,5040859595.55,10239873900.0
sz002960,青鸟消防,2020-09-15,42.02,42.35,41.37,41.91,41.59,1297300.0,54283840.0,5079644761.95,10318661100.0
sz002960,青鸟消防,2020-09-16,42.08,42.48,41.42,41.63,41.91,864700.0,36069184.0,5045707741.35,10249722300.0
sz002960,青鸟消防,2020-09-17,41.79,42.18,41.05,41.71,41.63,1160600.0,48438835.0,5055404032.95,10269419100.0
sz002960,青鸟消防,2020-09-18,42.56,42.56,41.63,42.19,41.71,789500.0,33198047.0,5113581782.55,10387599900.0
sz002960,青鸟消防,2020-09-21,42.19,42.49,41.81,41.83,42.19,876500.0,36846638.0,5069948470.349999,10298964300.0
sz002960,青鸟消防,2020-09-22,41.78,41.81,39.83,40.5,41.83,2366117.0,96576691.0,4908747622.5,9971505000.0
sz002960,青鸟消防,2020-09-23,40.72,40.72,37.19,37.45,40.5,7896600.0,302708552.0,4539076505.25,9220564500.0
sz002960,青鸟消防,2020-09-24,37.04,37.2,34.62,35.5,37.45,5923885.0,210534782.0,4302729397.5,8740455000.0
sz002960,青鸟消防,2020-09-25,35.23,36.4,35.15,35.26,35.5,2367800.0,84432862.0,4273640522.7,8681364600.0
sz002960,青鸟消防,2020-09-28,35.8,37.42,35.21,35.56,35.26,2494689.0,90181666.0,4310001616.2,8755227600.0
sz002960,青鸟消防,2020-09-29,36.0,36.58,35.49,35.84,35.56,1452200.0,51954766.0,4343938636.8,8824166400.0
sz002960,青鸟消防,2020-09-30,35.71,37.18,35.56,36.92,35.84,2588850.0,94869159.0,4474838573.4,9090073200.0
sz002960,青鸟消防,2020-10-09,37.1,37.68,35.89,36.6,36.92,2626642.0,95809977.0,4436053407.0,9011286000.0
sz002960,青鸟消防,2020-10-12,36.6,38.11,36.25,38.11,36.6,3291567.0,123828709.0,4619070910.95,9383063100.0
sz002960,青鸟消防,2020-10-13,37.82,37.96,36.81,37.96,38.11,2519174.0,93583413.0,4600890364.2,9346131600.0
sz002960,青鸟消防,2020-10-14,37.68,37.68,36.5,36.82,37.96,1736000.0,63931392.0,4462718208.9,9065452200.0
sz002960,青鸟消防,2020-10-15,36.83,37.18,36.22,36.82,36.82,1758780.0,64543652.0,4462718208.9,9065452200.0
sz002960,青鸟消防,2020-10-16,37.02,37.02,35.66,35.99,36.82,1806480.0,65188728.0,4362119183.55,8861097900.0
sz002960,青鸟消防,2020-10-19,36.6,37.68,36.2,36.6,35.99,2182224.0,80587299.0,4436053407.0,9011286000.0
sz002960,青鸟消防,2020-10-20,36.6,37.18,36.0,37.09,36.6,1186400.0,43453176.0,4495443193.05,9131928900.0
sz002960,青鸟消防,2020-10-21,37.12,37.28,35.99,36.5,37.09,1111700.0,40392222.0,4423933042.5,8986665000.0
sz002960,青鸟消防,2020-10-22,36.2,36.47,34.7,34.95,36.5,2146972.0,75258982.0,4236067392.75,8605039500.0
sz002960,青鸟消防,2020-10-23,34.9,34.9,32.08,32.6,34.95,4211085.0,139923779.0,3951238827.0,8026446000.0
sz002960,青鸟消防,2020-10-26,32.5,33.39,31.81,32.29,32.6,3502649.0,114186707.0,3913665697.05,7950120900.0
sz002960,青鸟消防,2020-10-27,32.29,32.77,32.01,32.24,32.29,1629500.0,52677157.0,3907605514.8,7937810400.0
sz002960,青鸟消防,2020-10-28,32.7,32.79,31.5,31.68,32.24,1804189.0,57628639.0,3839731473.6,7799932800.0
sz002960,青鸟消防,2020-10-29,31.13,33.59,31.12,33.11,31.68,3290984.0,107518221.0,4013052685.95,8152013100.000001
sz002960,青鸟消防,2020-10-30,33.11,34.84,32.84,33.87,33.11,2971585.0,100372882.0,4105167456.15,8339132700.0
sz002960,青鸟消防,2020-11-02,34.34,34.55,32.19,32.8,33.87,5704700.0,190081276.0,3975479556.0,8075688000.0
sz002960,青鸟消防,2020-11-03,32.96,33.4,32.32,32.82,32.8,3848639.0,126083023.0,3977903628.9,8080612200.0
sz002960,青鸟消防,2020-11-04,33.14,33.26,31.81,32.23,32.82,3699529.0,119615645.0,3906393478.35,7935348300.0
sz002960,青鸟消防,2020-11-05,32.84,33.55,32.45,33.3,32.23,3804417.0,125367506.0,4036081378.5,8198793000.0
sz002960,青鸟消防,2020-11-06,33.3,33.53,31.34,31.99,33.3,3810600.0,122040508.0,3877304603.55,7876257900.0
sz002960,青鸟消防,2020-11-09,31.99,34.74,31.76,34.11,31.99,6149388.0,205784587.0,4134256330.95,8398223100.000001
sz002960,青鸟消防,2020-11-10,34.45,34.49,33.3,33.65,34.11,2615700.0,88024987.0,4078502654.25,8284966500.0
sz002960,青鸟消防,2020-11-11,33.46,33.65,32.25,32.92,33.65,3208700.0,105223735.0,3990023993.4,8105233199.999999
sz002960,青鸟消防,2020-11-12,32.8,34.7,32.7,34.69,32.92,6966750.0,238558345.0,4204554445.05,8541024900.0
sz002960,青鸟消防,2020-11-13,34.7,37.25,34.6,37.0,34.69,8398512.0,303818306.0,4484534865.0,9109770000.0
sz002960,青鸟消防,2020-11-16,37.4,38.65,36.31,37.5,37.0,7404557.0,279334966.0,4545136687.5,9232875000.0
sz002960,青鸟消防,2020-11-17,37.5,37.78,36.66,37.22,37.5,3878265.0,144247877.0,4511199666.9,9163936200.0
sz002960,青鸟消防,2020-11-18,37.6,38.3,37.3,37.7,37.22,3806906.0,143646116.0,4569377416.5,9282117000.0
sz002960,青鸟消防,2020-11-19,37.86,38.36,36.96,37.64,37.7,2966406.0,111387339.0,4562105197.8,9267344400.0
sz002960,青鸟消防,2020-11-20,37.66,38.39,37.32,37.73,37.64,2330704.0,88274560.0,4573013525.849999,9289503300.0
sz002960,青鸟消防,2020-11-23,37.77,38.18,36.92,37.3,37.73,2822477.0,105507899.0,4520895958.5,9183633000.0
sz002960,青鸟消防,2020-11-24,37.3,39.6,37.3,39.49,37.3,4638891.0,178992849.0,4786331941.05,9722832900.0
sz002960,青鸟消防,2020-11-25,39.01,39.79,38.0,39.3,39.49,4225556.0,164376449.0,4763303248.5,9676053000.0
sz002960,青鸟消防,2020-11-26,38.65,40.81,38.53,40.53,39.3,3438368.0,136808494.0,4912383731.849999,9978891300.0
sz002960,青鸟消防,2020-11-27,40.43,40.43,38.94,39.7,40.53,2873880.0,114291246.0,4811784706.5,9774537000.0
sz002960,青鸟消防,2020-11-30,39.5,40.78,38.67,39.87,39.7,2504645.0,99995199.0,4832389326.15,9816392700.0
sz002960,青鸟消防,2020-12-01,40.0,40.61,39.4,40.26,39.87,2074518.0,83209907.0,4879658747.7,9912414600.0
sz002960,青鸟消防,2020-12-02,40.43,41.0,39.83,40.84,40.26,2564243.0,103772233.0,4949956861.8,10055216400.0
sz002960,青鸟消防,2020-12-03,40.84,41.0,39.01,39.51,40.84,2492981.0,98823390.0,4788756013.95,9727757100.0
sz002960,青鸟消防,2020-12-04,39.18,40.8,38.5,40.57,39.51,3253190.0,129724882.0,4917231877.65,9988739700.0
sz002960,青鸟消防,2020-12-07,40.52,41.88,40.25,41.35,40.57,3100848.0,127399427.0,5011770720.75,10180783500.0
sz002960,青鸟消防,2020-12-08,40.82,42.0,40.56,41.76,41.35,2610701.0,108115288.0,5061464215.2,10281729600.0
sz002960,青鸟消防,2020-12-09,41.51,41.52,39.71,39.95,41.76,2023320.0,82142823.0,4842085617.75,9836089500.0
sz002960,青鸟消防,2020-12-10,40.0,40.96,39.98,40.67,39.95,1974295.0,80036854.0,4929352242.15,10013360700.0
sz002960,青鸟消防,2020-12-11,40.22,40.58,38.65,39.3,40.67,2230440.0,87935534.0,4763303248.5,9676053000.0
sz002960,青鸟消防,2020-12-14,39.08,39.3,37.64,38.77,39.3,2508594.0,95983695.0,4699065316.650001,9545561700.0
sz002960,青鸟消防,2020-12-15,38.7,39.95,38.0,39.72,38.77,1810800.0,70713193.0,4814208779.4,9779461200.0
sz002960,青鸟消防,2020-12-16,39.6,39.81,38.5,39.01,39.72,1358216.0,52963439.0,4728154191.45,9604652100.0
sz002960,青鸟消防,2020-12-17,38.88,39.6,38.29,39.55,39.01,1485993.0,57745998.0,4793604159.75,9737605500.0
sz002960,青鸟消防,2020-12-18,39.35,39.8,38.35,38.87,39.55,1625962.0,63203778.0,4711185681.15,9570182700.0
sz002960,青鸟消防,2020-12-21,38.35,40.4,37.83,39.95,38.87,2288154.0,90569305.0,4842085617.75,9836089500.0
sz002960,青鸟消防,2020-12-22,39.85,39.97,38.71,39.76,39.95,2743298.0,107930285.0,4819056925.2,9789309600.0
sz002960,青鸟消防,2020-12-23,39.5,40.2,38.38,39.5,39.76,3348449.0,131960953.0,4787543977.5,9725295000.0
sz002960,青鸟消防,2020-12-24,39.5,39.79,38.81,38.9,39.5,1387686.0,54345078.0,4714821790.5,9577569000.0
sz002960,青鸟消防,2020-12-25,38.8,39.09,38.01,38.84,38.9,1328500.0,51257996.0,4707549571.8,9562796400.0
sz002960,青鸟消防,2020-12-28,38.42,38.74,37.23,37.23,38.84,1610636.0,60694118.0,4512411703.349999,9166398300.0
sz002960,青鸟消防,2020-12-29,37.39,37.53,35.0,36.15,37.23,2282999.0,82751572.0,4381511766.75,8900491500.0
sz002960,青鸟消防,2020-12-30,36.06,38.19,35.84,37.47,36.15,2718255.0,101030289.0,4541500578.15,9225488700.0
sz002960,青鸟消防,2020-12-31,37.47,38.19,36.91,37.41,37.47,1259405.0,47249696.0,4534228359.45,9210716100.0
sz002960,青鸟消防,2021-01-04,37.68,37.68,35.88,35.96,37.41,3481369.0,126668350.0,4358483074.2,8853711600.0
sz002960,青鸟消防,2021-01-05,35.96,36.46,34.43,36.3,35.96,3182335.0,112642321.0,4399692313.5,8937423000.0
sz002960,青鸟消防,2021-01-06,36.01,36.35,33.77,33.88,36.3,3513081.0,120741819.0,4106379492.6,8341594800.0
sz002960,青鸟消防,2021-01-07,34.01,34.16,32.01,32.27,33.88,4004558.0,132477533.0,3911241624.15,7945196700.0
sz002960,青鸟消防,2021-01-08,32.08,33.71,31.01,33.3,32.27,3681118.0,119588293.0,4036081378.5,8198793000.0
sz002960,青鸟消防,2021-01-11,33.31,33.61,32.0,33.27,33.3,2520201.0,82730561.0,4032445269.15,8191406700.0
sz002960,青鸟消防,2021-01-12,33.2,34.76,32.63,34.34,33.27,2140322.0,72869488.0,4162133169.3,8454851400.0
sz002960,青鸟消防,2021-01-13,34.24,34.34,33.41,33.9,34.34,2229818.0,75265405.0,4108803565.500001,8346519000.0
sz002960,青鸟消防,2021-01-14,33.7,33.7,32.33,33.5,33.9,2821835.0,93605710.0,4060322107.500001,8248035000.0
sz002960,青鸟消防,2021-01-15,33.5,33.7,32.66,33.02,33.5,1403534.0,46530856.0,4002144357.9,8129854200.0
sz002960,青鸟消防,2021-01-18,33.35,34.06,33.1,33.71,33.02,2171868.0,72662953.0,4085774872.95,8299739100.0
sz002960,青鸟消防,2021-01-19,33.72,34.48,33.52,33.91,33.71,1275684.0,43388398.0,4110015601.95,8348981100.0
sz002960,青鸟消防,2021-01-20,33.93,34.41,33.0,33.89,33.91,1375499.0,46380624.0,4107591529.05,8344056899.999999
sz002960,青鸟消防,2021-01-21,33.23,35.44,33.23,34.78,33.89,2703898.0,93961443.0,4215462773.1,8563183800.0
sz002960,青鸟消防,2021-01-22,34.79,35.02,33.35,33.47,34.78,1929084.0,65533315.0,4056685998.15,8240648700.0
sz002960,青鸟消防,2021-01-25,33.6,34.56,32.0,34.56,33.47,3671637.0,121947159.0,4188797971.2,8509017600.0
sz002960,青鸟消防,2021-01-26,34.32,36.5,31.6,31.91,34.56,5227131.0,171305580.0,3867608311.95,7856561100.0
sz002960,青鸟消防,2021-01-27,31.22,32.27,31.21,31.51,31.91,1855336.0,58722905.0,3819126853.95,7758077100.0
sz002960,青鸟消防,2021-01-28,31.25,31.78,31.06,31.19,31.51,1166567.0,36610485.0,3780341687.55,7679289900.0
sz002960,青鸟消防,2021-01-29,31.22,31.45,29.87,30.57,31.19,1768701.0,53867079.0,3705195427.65,7526639700.0
sz002960,青鸟消防,2021-02-01,30.55,31.49,29.28,29.35,30.57,2150189.0,64582725.0,3557326980.75,7226263500.0
sz002960,青鸟消防,2021-02-02,29.6,32.29,28.8,32.29,29.35,3709108.0,115689604.0,3913665697.05,7950120900.0
sz002960,青鸟消防,2021-02-03,32.4,34.84,32.2,33.09,32.29,4248754.0,143154448.0,4010628613.05,8147088900.0
sz002960,青鸟消防,2021-02-04,32.69,34.0,32.2,33.75,33.09,2707132.0,89976569.0,4090623018.75,8309587500.0
sz002960,青鸟消防,2021-02-05,33.03,33.35,31.14,31.42,33.75,2530760.0,81318594.0,3808218525.9,7735918199.999999
sz002960,青鸟消防,2021-02-08,30.8,31.87,30.58,30.58,31.42,1453385.0,45028125.0,3706407464.1,7529101800.000001
sz002960,青鸟消防,2021-02-09,30.57,33.64,30.45,33.64,30.58,1939042.0,63594956.0,4077290617.8,8282504399.999999
sz002960,青鸟消防,2021-02-10,34.39,34.78,33.0,34.06,33.64,3693400.0,126302294.0,4128196148.7,8385912600.0
sz002960,青鸟消防,2021-02-18,34.43,35.47,34.06,35.3,34.06,2457856.0,85634091.0,4278488668.5,8691213000.0
sz002960,青鸟消防,2021-02-19,35.02,38.83,34.91,38.83,35.3,3704324.0,137719838.0,4706337535.35,9560334300.0
sz002960,青鸟消防,2021-02-22,39.4,42.58,38.99,40.87,38.83,7583902.0,310625100.0,4953592971.150001,10062602700.0
sz002960,青鸟消防,2021-02-23,41.27,42.0,40.05,41.41,40.87,3554620.0,146634462.0,5019042939.45,10195556100.0
sz002960,青鸟消防,2021-02-24,41.09,41.98,39.55,40.5,41.41,3098116.0,126237731.0,4908747622.5,9971505000.0
sz002960,青鸟消防,2021-02-25,40.46,42.8,40.38,41.7,40.5,3396423.0,141313909.0,5054191996.5,10266957000.0
sz002960,青鸟消防,2021-02-26,41.45,42.1,40.41,41.8,41.7,2366491.0,98136975.0,5066312361.0,10291578000.0
sz002960,青鸟消防,2021-03-01,41.88,45.98,41.88,45.98,41.8,4881635.0,222627357.0,5572943597.099999,11320735800.0
sz002960,青鸟消防,2021-03-02,46.91,46.99,45.3,46.01,45.98,4761001.0,219420156.0,5576579706.45,11328122100.0
sz002960,青鸟消防,2021-03-03,46.03,47.55,45.14,47.03,46.01,3339526.0,155057429.0,5700207424.35,11579256299.999998
sz002960,青鸟消防,2021-03-04,46.56,46.82,45.4,46.06,47.03,2138541.0,98399980.0,5582639888.7,11340432600.0
sz002960,青鸟消防,2021-03-05,46.07,46.29,42.66,44.2,46.06,4720013.0,210147940.0,5357201109.0,10882482000.0
sz002960,青鸟消防,2021-03-08,44.18,47.2,42.86,44.0,44.2,5446916.0,244312861.0,5332960379.999999,10833240000.0
sz002960,青鸟消防,2021-03-09,44.62,44.98,39.6,39.61,44.0,5633206.0,231607919.0,4800876378.45,9752378100.0
sz002960,青鸟消防,2021-03-10,39.61,40.6,38.01,38.26,39.61,3120309.0,121334318.0,4637251457.7,9419994600.0
sz002960,青鸟消防,2021-03-11,39.0,41.0,38.18,39.77,38.26,3082152.0,122508940.0,4820268961.65,9791771700.0
sz002960,青鸟消防,2021-03-12,40.37,42.0,38.68,40.79,39.77,3226000.0,128024705.0,4943896679.55,10042905900.0
sz002960,青鸟消防,2021-03-15,40.49,40.86,38.33,39.0,40.79,3842787.0,152203793.0,4726942155.0,9602190000.0
sz002960,青鸟消防,2021-03-16,39.3,39.88,38.36,39.4,39.0,3617269.0,140920855.0,4775423613.0,9700674000.0
sz002960,青鸟消防,2021-03-17,39.45,41.37,39.42,41.13,39.4,2679382.0,108733864.0,4985105918.85,10126617300.0
sz002960,青鸟消防,2021-03-18,40.78,44.88,40.78,42.6,41.13,3273576.0,141670041.0,5163275277.0,10488546000.0
sz002960,青鸟消防,2021-03-19,42.33,44.44,41.96,42.69,42.6,2352232.0,101320928.0,5174183605.05,10510704900.0
sz002960,青鸟消防,2021-03-22,42.81,44.85,42.63,44.6,42.69,2409016.0,106415411.0,5405682567.0,10980966000.0
sz002960,青鸟消防,2021-03-23,44.41,44.79,42.1,43.72,44.6,2667522.0,115679791.0,5299023359.400001,10764301200.000002
sz002960,青鸟消防,2021-03-24,43.7,44.37,42.38,44.13,43.72,2054280.0,90022716.0,5348716853.849999,10865247300.0
sz002960,青鸟消防,2021-03-25,44.11,44.96,43.38,43.55,44.13,1742435.0,76929785.0,5278418739.75,10722445500.0
sz002960,青鸟消防,2021-03-26,43.71,44.5,42.34,42.55,43.55,1682390.0,72179971.0,5157215094.75,10476235500.0
sz002960,青鸟消防,2021-03-29,42.8,44.68,42.15,42.89,42.55,2127816.0,91917980.0,5198424334.05,10559946900.0
sz002960,青鸟消防,2021-03-30,42.87,43.84,41.38,42.15,42.89,2328968.0,97980928.0,5108733636.75,10377751500.0
sz002960,青鸟消防,2021-03-31,41.97,43.11,41.83,42.39,42.15,1603444.0,68130626.0,5137822511.55,10436841900.0
sz002960,青鸟消防,2021-04-01,42.99,43.31,41.9,42.58,42.39,1077759.0,45735924.0,5160851204.099999,10483621800.0
sz002960,青鸟消防,2021-04-02,42.87,42.98,40.96,41.48,42.58,2607588.0,108973418.0,5027527194.6,10212790800.0
sz002960,青鸟消防,2021-04-06,41.11,42.26,40.35,40.96,41.48,2059428.0,84544113.0,4964501299.2,10084761600.0
sz002960,青鸟消防,2021-04-07,41.11,41.78,40.61,41.37,40.96,1179977.0,48638907.0,5014194793.65,10185707700.0
sz002960,青鸟消防,2021-04-08,40.96,44.66,40.41,43.12,41.37,3059545.0,129746496.0,5226301172.4,10616575200.0
sz002960,青鸟消防,2021-04-09,43.39,44.3,42.65,42.92,43.12,1799425.0,77956047.0,5202060443.400001,10567333200.0
sz002960,青鸟消防,2021-04-12,43.0,43.0,41.2,41.33,42.92,1813132.0,75877697.0,5009346647.849999,10175859300.0
sz002960,青鸟消防,2021-04-13,41.52,41.79,40.51,40.73,41.33,1133574.0,46410828.0,4936624460.85,10028133300.0
sz002960,青鸟消防,2021-04-14,41.04,41.95,39.9,41.73,40.73,2232130.0,91001257.0,5057828105.85,10274343300.0
sz002960,青鸟消防,2021-04-15,41.31,42.4,39.33,39.7,41.73,3478783.0,141195076.0,4811784706.5,9774537000.0
sz002960,青鸟消防,2021-04-16,40.57,40.57,38.71,38.91,39.7,3245825.0,127469122.0,4716033826.95,9580031100.0
sz002960,青鸟消防,2021-04-19,38.31,39.48,38.31,38.8,38.91,3334731.0,129720590.0,4702701426.0,9552948000.0
sz002960,青鸟消防,2021-04-20,38.8,39.89,38.4,39.38,38.8,1961069.0,77123237.0,4772999540.099999,9695749800.0
sz002960,青鸟消防,2021-04-21,39.31,39.45,38.53,38.76,39.38,1217988.0,47286304.0,4697853280.2,9543099600.0
sz002960,青鸟消防,2021-04-22,38.76,38.91,38.08,38.42,38.76,1484820.0,57222022.0,4656644040.900001,9459388200.0
sz002960,青鸟消防,2021-04-23,38.4,38.73,38.03,38.4,38.42,1113427.0,42677027.0,4654219968.0,9454464000.0
sz002960,青鸟消防,2021-04-26,38.75,39.88,38.17,39.4,38.4,2687370.0,105163705.0,4775423613.0,9700674000.0
sz002960,青鸟消防,2021-04-27,39.3,39.4,38.2,38.6,39.4,1727397.0,66623837.0,4678460697.0,9503706000.0
sz002960,青鸟消防,2021-04-28,38.92,39.88,38.16,38.61,38.6,2007140.0,78066140.0,4679672733.45,9506168100.0
sz002960,青鸟消防,2021-04-29,38.65,38.75,38.07,38.5,38.61,1342675.0,51471894.0,4666340332.5,9479085000.0
sz002960,青鸟消防,2021-04-30,38.51,38.7,37.0,37.4,38.5,1607905.0,60468807.0,4533016323.0,9208254000.0
sz002960,青鸟消防,2021-05-06,37.43,38.25,37.0,37.98,37.4,1082067.0,40677747.0,4603314437.1,9351055800.0
sz002960,青鸟消防,2021-05-07,37.99,38.43,36.55,37.01,37.98,2153070.0,80175797.0,4485746901.45,9112232100.0
sz002960,青鸟消防,2021-05-10,37.01,37.78,36.55,37.5,37.01,1328582.0,49504611.0,4545136687.5,9232875000.0
sz002960,青鸟消防,2021-05-11,37.86,38.74,37.01,37.16,37.5,1968851.0,74054308.0,4503927448.2,9149163600.0
sz002960,青鸟消防,2021-05-12,37.33,37.73,36.7,37.2,37.16,1235349.0,46022391.0,4508775594.0,9159012000.0
sz002960,青鸟消防,2021-05-13,36.8,37.23,36.09,36.2,37.2,1403322.0,51396188.0,4387571949.0,8912802000.0
sz002960,青鸟消防,2021-05-14,36.23,36.72,35.76,36.18,36.2,2658845.0,95900902.0,4385147876.1,8907877800.0
sz002960,青鸟消防,2021-05-17,35.69,37.35,35.53,36.4,36.18,2855468.0,104380216.0,4411812678.0,8962044000.0
sz002960,青鸟消防,2021-05-18,36.52,37.73,36.07,37.55,36.4,2020305.0,74567914.0,4551196869.75,9245185500.0
sz002960,青鸟消防,2021-05-19,37.56,37.93,36.86,37.3,37.55,1808126.0,67598809.0,4520895958.5,9183633000.0
sz002960,青鸟消防,2021-05-20,37.28,38.66,37.13,38.44,37.3,1858109.0,70624339.0,4659068113.8,9464312400.0
sz002960,青鸟消防,2021-05-21,38.49,39.2,38.3,38.59,38.44,1528449.0,59256463.0,4677248660.55,9501243900.0
sz002960,青鸟消防,2021-05-24,38.9,38.9,37.76,38.4,38.59,1319147.0,50612567.0,4654219968.0,9454464000.0
sz002960,青鸟消防,2021-05-25,38.74,39.18,38.0,39.0,38.4,1429456.0,55416561.0,4726942155.0,9602190000.0
sz002960,青鸟消防,2021-05-26,38.78,39.15,37.73,37.78,39.0,1430300.0,54786169.0,4579073708.1,9301813800.0
sz002960,青鸟消防,2021-05-27,37.9,38.49,37.42,37.7,37.78,1760452.0,66634128.0,4569377416.5,9282117000.0
sz002960,青鸟消防,2021-05-28,37.7,38.76,37.6,38.5,37.7,1919244.0,73580025.0,4666340332.5,9479085000.0
sz002960,青鸟消防,2021-05-31,38.55,39.13,37.65,38.13,38.5,2318729.0,88705789.0,4659992785.83,9409871212.77
sz002960,青鸟消防,2021-06-01,37.86,38.25,37.68,37.92,38.13,1461288.0,55349807.0,4634327994.72,9358046587.68
sz002960,青鸟消防,2021-06-02,38.05,38.14,37.25,37.56,37.92,1480620.0,55714839.0,4590331209.96,9269204373.24
sz002960,青鸟消防,2021-06-03,37.57,37.79,37.11,37.28,37.56,1452170.0,54206133.0,4556111488.48,9200104873.12
sz002960,青鸟消防,2021-06-04,26.53,26.56,25.62,25.75,26.33,2183832.0,56946123.0,4402861458.25,8890648862.75
sz002960,青鸟消防,2021-06-07,25.68,25.92,25.15,25.4,25.75,1695464.0,43227169.0,4343016739.4,8769805091.800001
sz002960,青鸟消防,2021-06-08,25.4,26.14,25.28,25.76,25.4,1882180.0,48666545.0,4404571307.360001,8894101541.92
sz002960,青鸟消防,2021-06-09,25.9,25.9,24.89,24.97,25.76,2205196.0,55549644.0,4269493227.67,8621339887.49
sz002960,青鸟消防,2021-06-10,24.71,25.09,24.45,24.55,24.97,2560159.0,63063228.0,4197679565.05,8476327362.349999
sz002960,青鸟消防,2021-06-11,24.56,24.79,24.4,24.52,24.55,2026046.0,49699755.0,4192550017.72,8465969324.84
sz002960,青鸟消防,2021-06-15,25.0,25.45,23.86,24.29,24.52,3128187.0,76691336.0,4153223488.19,8386557703.93
sz002960,青鸟消防,2021-06-16,24.06,24.27,23.03,23.16,24.29,2656681.0,62526866.0,3959915003.76,7996404957.72
sz002960,青鸟消防,2021-06-17,23.23,24.35,23.23,24.2,23.16,3323918.0,79302513.0,4137735021.2,8355483591.4
sz002960,青鸟消防,2021-06-18,24.2,25.08,23.88,24.91,24.2,2489760.0,61068275.0,4337668474.2,8607103326.94
sz002960,青鸟消防,2021-06-21,24.87,26.2,24.87,25.96,24.91,3480617.0,89963369.0,4520508775.2,8969907762.64
sz002960,青鸟消防,2021-06-22,25.95,26.16,25.42,25.66,25.96,2078213.0,53375166.0,4468268689.2,8866249352.44
sz002960,青鸟消防,2021-06-23,25.56,26.65,25.21,26.5,25.66,3363839.0,87742832.0,4614540930.0,9156492901.0
sz002960,青鸟消防,2021-06-24,26.73,26.79,26.16,26.5,26.5,1912757.0,50491805.0,4614540930.0,9156492901.0
sz002960,青鸟消防,2021-06-25,26.57,27.38,26.57,26.86,26.5,2501121.0,67564671.0,4677229033.2,9280882993.24
sz002960,青鸟消防,2021-06-28,26.87,27.77,26.27,26.83,26.86,2790298.0,74603292.0,4672005024.599999,9270517152.22
sz002960,青鸟消防,2021-06-29,26.75,26.9,25.79,26.26,26.83,2544969.0,66666879.0,4572748861.2,9073566172.84
sz002960,青鸟消防,2021-06-30,26.3,26.65,26.1,26.16,26.26,1533084.0,40451709.0,4555335499.2,9039013369.44
sz002960,青鸟消防,2021-07-01,26.15,26.22,25.4,25.6,26.16,1537466.0,39603417.0,4457820672.0,8845517670.4
sz002960,青鸟消防,2021-07-02,25.5,26.08,25.26,25.7,25.6,1395034.0,36057651.0,4475234034.0,8880070473.8
sz002960,青鸟消防,2021-07-05,25.68,26.15,25.26,26.02,25.7,1508041.0,39021565.0,4530956792.400001,8990639444.68
sz002960,青鸟消防,2021-07-06,26.11,26.2,24.89,25.42,26.02,2107939.0,53721717.0,4426476620.400001,8783322624.28
sz002960,青鸟消防,2021-07-07,26.24,26.65,24.72,24.8,25.42,5138159.0,130680602.0,4318513776.0,8569095243.2
sz002960,青鸟消防,2021-07-08,25.18,25.18,24.38,24.57,24.8,3120461.0,77226208.0,4285042766.55,8549570934.45
sz002960,青鸟消防,2021-07-09,24.68,24.8,24.17,24.73,24.57,2012174.0,49313629.0,4312946992.95,8605245796.05
sz002960,青鸟消防,2021-07-12,24.99,27.2,24.89,27.2,24.73,6656635.0,175698471.0,4743718488.0,9464726472.0
sz002960,青鸟消防,2021-07-13,27.0,27.1,26.15,26.34,27.2,4880099.0,129352207.0,4593733271.1,9165474090.9
sz002960,青鸟消防,2021-07-14,26.6,27.2,26.21,26.47,26.34,3621255.0,96380114.0,4616405455.05,9210709915.95
sz002960,青鸟消防,2021-07-15,26.21,27.34,26.21,27.02,26.47,4247189.0,114098858.0,4712326233.3,9402092252.7
sz002960,青鸟消防,2021-07-16,26.95,27.85,26.6,27.65,27.02,4782932.0,130705870.0,4822199124.75,9621312020.25
sz002960,青鸟消防,2021-07-19,27.62,28.25,26.8,27.12,27.65,3630259.0,99777975.0,4729766374.8,9436889041.2
sz002960,青鸟消防,2021-07-20,26.96,28.5,26.57,28.33,27.12,4712336.0,131513806.0,4940792086.95,9857930182.05
sz002960,青鸟消防,2021-07-21,28.33,28.98,27.98,27.99,28.33,3615134.0,102169340.0,4881495605.85,9739621101.15
sz002960,青鸟消防,2021-07-22,28.07,28.24,27.62,27.86,27.99,2447409.0,68192347.0,4858823421.9,9694385276.1
sz002960,青鸟消防,2021-07-23,27.81,28.46,27.15,27.33,27.86,2555868.0,70580945.0,4766390671.95,9509962297.05
sz002960,青鸟消防,2021-07-26,27.68,28.28,26.1,26.27,27.33,3987432.0,107506576.0,4581525172.05,9141116338.95
sz002960,青鸟消防,2021-07-27,26.24,26.75,25.4,25.6,26.27,4107962.0,106864433.0,4464676224.0,8907977856.0
sz002960,青鸟消防,2021-07-28,25.61,25.73,24.3,24.54,25.6,3174256.0,78730116.0,4279810724.1,8539131897.9
sz002960,青鸟消防,2021-07-29,25.05,25.99,24.88,25.34,24.54,3463422.0,88258536.0,4419331856.099999,8817506205.9
sz002960,青鸟消防,2021-07-30,25.36,26.56,25.13,26.02,25.34,2623991.0,68106102.0,4537924818.3,9054124367.7
sz002960,青鸟消防,2021-08-02,26.02,26.77,25.7,26.7,26.02,2530388.0,66950936.0,4656517780.5,9290742529.5
sz002960,青鸟消防,2021-08-03,26.51,27.2,26.5,26.7,26.7,2192648.0,58784411.0,4656517780.5,9290742529.5
sz002960,青鸟消防,2021-08-04,26.86,27.34,26.52,27.1,26.7,2941507.0,79159221.0,4726278346.5,9429929683.5
sz002960,青鸟消防,2021-08-05,28.68,28.68,27.5,28.12,27.1,5049878.0,141308807.0,4904167789.8,9784856926.2
sz002960,青鸟消防,2021-08-06,28.29,28.68,27.81,28.55,28.12,4016173.0,114102448.0,4979160398.25,9934483116.75
sz002960,青鸟消防,2021-08-09,28.3,30.1,28.18,30.0,28.55,5261544.0,155754154.0,5232042450.0,10439036550.0
sz002960,青鸟消防,2021-08-10,29.76,30.13,28.81,29.21,30.0,4621589.0,136007752.0,5094265332.15,10164141920.85
sz002960,青鸟消防,2021-08-11,29.22,30.0,29.08,29.69,29.21,3399825.0,100846770.0,5177978011.35,10331166505.65
sz002960,青鸟消防,2021-08-12,30.09,31.0,29.48,29.53,29.69,3918627.0,117862518.0,5150073784.95,10275491644.05
sz002960,青鸟消防,2021-08-13,29.53,29.92,28.5,28.75,29.53,3775000.0,108833934.0,5014040681.25,10004076693.75
sz002960,青鸟消防,2021-08-16,28.75,29.09,28.03,28.75,28.75,3042022.0,87123047.0,5014040681.25,10004076693.75
sz002960,青鸟消防,2021-08-17,28.75,29.12,27.63,27.7,28.75,2561654.0,72224449.0,4830919195.5,9638710414.5
sz002960,青鸟消防,2021-08-18,27.5,28.1,27.31,27.86,27.7,3112285.0,86223018.0,4858823421.9,9694385276.1
sz002960,青鸟消防,2021-08-19,27.94,29.69,27.62,28.9,27.86,4191795.0,120375862.0,5040200893.5,10056271876.5
sz002960,青鸟消防,2021-08-20,29.0,29.0,27.8,28.55,28.9,2723900.0,76976304.0,4979160398.25,9934483116.75
sz002960,青鸟消防,2021-08-23,28.63,29.15,28.31,29.08,28.55,2553307.0,73929395.0,5071593148.200001,10118906095.8
sz002960,青鸟消防,2021-08-24,29.37,29.65,28.92,29.4,29.08,2517477.0,73615312.0,5127401601.0,10230255819.0
sz002960,青鸟消防,2021-08-25,29.4,31.2,29.06,30.55,29.4,5542061.0,167328273.0,5327963228.25,10630418886.75
sz002960,青鸟消防,2021-08-26,30.33,30.33,29.37,29.45,30.55,4410971.0,130988724.0,5136121671.75,10247654213.25
sz002960,青鸟消防,2021-08-27,29.5,29.75,28.88,29.68,29.45,2169367.0,63603585.0,5176233997.2,10327686826.8
sz002960,青鸟消防,2021-08-30,29.99,30.27,29.13,29.51,29.68,2373272.0,70497778.0,5146585756.650001,10268532286.35
sz002960,青鸟消防,2021-08-31,29.3,29.7,28.2,29.09,29.51,2723369.0,78745642.0,5073337162.35,10122385774.65
sz002960,青鸟消防,2021-09-01,29.0,30.39,28.72,29.17,29.09,2602248.0,76760646.0,5087289275.55,10150223205.45
sz002960,青鸟消防,2021-09-02,29.48,30.65,29.38,30.16,29.17,4478649.0,135415751.0,5259946676.4,10494711411.6
sz002960,青鸟消防,2021-09-03,30.31,30.48,29.11,29.42,30.16,3226246.0,95437253.0,5130889629.3,10237215176.7
sz002960,青鸟消防,2021-09-06,29.4,29.56,28.75,29.45,29.42,1891214.0,55007001.0,5136121671.75,10247654213.25
sz002960,青鸟消防,2021-09-07,28.73,29.3,28.28,28.91,29.45,2692411.0,77460046.0,5041944907.65,10059751555.35
sz002960,青鸟消防,2021-09-08,29.01,29.1,28.7,29.04,28.91,1782927.0,51520364.0,5064617091.6,10104987380.4
sz002960,青鸟消防,2021-09-09,29.04,30.05,28.81,29.93,29.04,2466427.0,73059836.0,5219834350.95,10414678798.05
sz002960,青鸟消防,2021-09-10,29.69,30.35,29.41,29.99,29.93,2857492.0,85651904.0,5230298435.85,10435556871.15
sz002960,青鸟消防,2021-09-13,30.23,30.25,28.58,28.81,29.99,2900855.0,84453655.0,5024504766.15,10024954766.85
sz002960,青鸟消防,2021-09-14,28.87,28.99,27.82,27.99,28.81,1878928.0,53331798.0,4881495605.85,9739621101.15
sz002960,青鸟消防,2021-09-15,28.01,28.4,27.5,28.08,27.99,1103722.0,31008008.0,4897191733.2,9770938210.8
sz002960,青鸟消防,2021-09-16,28.11,28.12,26.52,26.8,28.08,3317133.0,90074580.0,4673957922.0,9325539318.0
sz002960,青鸟消防,2021-09-17,26.78,27.33,26.1,26.75,26.8,1799874.0,47788358.0,4665237851.25,9308140923.75
sz002960,青鸟消防,2021-09-22,26.42,26.68,26.01,26.2,26.75,1363881.0,35866135.0,4569317073.0,9116758587.0
sz002960,青鸟消防,2021-09-23,26.39,27.87,26.36,27.5,26.2,2256430.0,61528408.0,4796038912.5,9569116837.5
sz002960,青鸟消防,2021-09-24,27.62,27.62,26.82,26.9,27.5,1163773.0,31531796.0,4691398063.5,9360336106.5
sz002960,青鸟消防,2021-09-27,26.78,27.08,25.91,26.05,26.9,1641512.0,42910858.0,4543156860.75,9064563404.25
sz002960,青鸟消防,2021-09-28,26.3,26.47,25.9,26.29,26.05,1747833.0,45703078.0,4585013200.349999,9148075696.65
sz002960,青鸟消防,2021-09-29,26.15,26.17,25.56,26.0,26.29,1226673.0,31642591.0,4534436790.0,9047165010.0
sz002960,青鸟消防,2021-09-30,25.7,26.2,25.6,25.65,26.0,1408843.0,36366464.0,4473396294.75,8925376250.25
sz002960,青鸟消防,2021-10-08,25.6,26.49,25.6,26.22,25.65,1580348.0,41435796.0,4572805101.3,9123717944.7
sz002960,青鸟消防,2021-10-11,26.27,26.57,25.91,26.05,26.22,901830.0,23511589.0,4543156860.75,9064563404.25
sz002960,青鸟消防,2021-10-12,26.05,26.34,25.63,26.13,26.05,1413560.0,36591090.0,4557108973.95,9092400835.05
sz002960,青鸟消防,2021-10-13,26.21,26.21,25.8,26.18,26.13,523119.0,13633817.0,4565829044.7,9109799229.3
sz002960,青鸟消防,2021-10-14,26.18,26.66,26.02,26.64,26.18,907879.0,23981486.0,4646053695.6,9269864456.4
sz002960,青鸟消防,2021-10-15,26.69,26.69,26.3,26.31,26.64,761053.0,20119940.0,4588501228.65,9155035054.35
sz002960,青鸟消防,2021-10-18,26.28,26.57,26.27,26.36,26.31,744966.0,19645541.0,4597221299.400001,9172433448.6
sz002960,青鸟消防,2021-10-19,26.36,26.6,26.24,26.55,26.36,1316005.0,34833396.0,4630357568.25,9238547346.75
sz002960,青鸟消防,2021-10-20,26.61,27.35,26.34,26.64,26.55,1653531.0,44280561.0,4646053695.6,9269864456.4
sz002960,青鸟消防,2021-10-21,26.42,26.99,26.34,26.9,26.64,1269473.0,33951192.0,4691398063.5,9360336106.5
sz002960,青鸟消防,2021-10-22,26.89,26.9,25.32,25.47,26.9,2398417.0,62151349.0,4442004040.05,8862742030.95
sz002960,青鸟消防,2021-10-25,25.46,28.02,25.43,28.02,25.47,5917100.0,161578036.0,4886727648.3,9750060137.7
sz002960,青鸟消防,2021-10-26,29.69,30.17,28.01,28.82,28.02,8431629.0,245651445.0,5026248780.3,10028434445.7
sz002960,青鸟消防,2021-10-27,28.06,29.93,28.06,29.15,28.82,6100214.0,176539296.0,5092978162.8,10152440763.3
sz002960,青鸟消防,2021-10-28,28.66,32.05,27.25,31.7,29.15,13462066.0,402531629.0,5538504554.400001,11040561653.400002
sz002960,青鸟消防,2021-10-29,31.69,32.99,31.42,31.7,31.7,9977239.0,320283652.0,5538504554.400001,11040561653.400002
sz002960,青鸟消防,2021-11-01,31.7,34.87,31.45,34.87,31.7,9481775.0,323913468.0,6092355009.84,12144617818.740002
sz002960,青鸟消防,2021-11-02,35.98,36.88,33.2,35.7,34.87,19406308.0,683996011.0,6237369482.400001,12433692461.4
sz002960,青鸟消防,2021-11-03,35.0,38.18,34.58,35.85,35.7,9701978.0,351690522.0,6263576917.2,12485934866.7
sz002960,青鸟消防,2021-11-04,35.16,37.5,34.41,36.42,35.85,8013578.0,287498228.0,6363165169.440001,12684456006.84
sz002960,青鸟消防,2021-11-05,36.71,37.01,34.64,35.15,36.42,5983459.0,213018143.0,6141275554.8,12242136975.3
sz002960,青鸟消防,2021-11-08,35.88,38.48,34.36,37.15,35.15,10669296.0,392420709.0,6490708018.8,12938702379.3
sz002960,青鸟消防,2021-11-09,37.07,37.27,36.02,36.53,37.15,5927485.0,217210270.0,6382383954.959999,12722767104.06
sz002960,青鸟消防,2021-11-10,36.47,37.93,35.28,37.37,36.53,7279368.0,268134537.0,6529145589.84,13015324573.74
sz002960,青鸟消防,2021-11-11,36.72,38.98,36.38,38.5,37.37,6877960.0,262502975.0,6726574932.0,13408884027.0
sz002960,青鸟消防,2021-11-12,38.01,42.35,38.01,42.35,38.5,10664354.0,436282250.0,7399232425.2,14749772429.7
sz002960,青鸟消防,2021-11-15,42.35,45.58,41.96,42.14,42.35,11989315.0,522779995.0,7362542016.48,14676633062.28
sz002960,青鸟消防,2021-11-16,42.14,43.0,40.42,41.27,42.14,7344878.0,305788620.0,7210538894.64,14373627111.54
sz002960,青鸟消防,2021-11-17,42.5,43.81,41.06,43.7,41.27,7482209.0,319385616.0,7635099338.4,15219954077.4
sz002960,青鸟消防,2021-11-18,43.0,45.8,43.0,45.3,43.7,8833720.0,396768422.0,7914645309.6,15777206400.599998
sz002960,青鸟消防,2021-11-19,45.0,45.6,43.58,45.0,45.3,4549247.0,202530638.0,7862230440.0,15672721590.0
sz002960,青鸟消防,2021-11-22,44.44,46.1,44.02,44.53,45.0,4287270.0,191859583.0,7780113810.96,15509028720.06
sz002960,青鸟消防,2021-11-23,44.73,45.59,41.1,42.23,44.53,8384292.0,359082988.0,7378266477.360001,14707978505.460001
sz002960,青鸟消防,2021-11-24,41.96,43.6,40.89,42.06,42.23,6353310.0,266468885.0,7348564717.92,14648770446.12
sz002960,青鸟消防,2021-11-25,41.71,43.36,40.75,41.85,42.06,6551222.0,273508927.0,7311874309.2,14575631078.699999
sz002960,青鸟消防,2021-11-26,41.63,44.35,41.32,44.0,41.85,6787502.0,292893335.0,7687514208.0,15324438888.0
sz002960,青鸟消防,2021-11-29,44.0,48.35,43.45,47.1,44.0,11002844.0,510701982.0,8229134527.2,16404115264.2
sz002960,青鸟消防,2021-11-30,47.18,47.2,43.8,45.7,47.1,8236789.0,373343021.0,7984531802.400001,15916519481.4
sz002960,青鸟消防,2021-12-01,45.7,46.38,44.39,44.89,45.7,4231924.0,190661713.0,7843011654.48,15634410492.779999
sz002960,青鸟消防,2021-12-02,44.73,45.86,43.82,44.78,44.89,4713791.0,211250866.0,7823792868.96,15596099395.560001
sz002960,青鸟消防,2021-12-03,44.82,45.37,43.95,45.11,44.78,3723941.0,165974508.0,7881449225.52,15711032687.220001
sz002960,青鸟消防,2021-12-06,45.3,45.65,43.1,44.82,45.11,4512257.0,198570569.0,7830781518.24,15610030703.640001
sz002960,青鸟消防,2021-12-07,44.78,44.78,40.9,42.42,44.82,6844834.0,288830579.0,7411462561.44,14774152218.840002
sz002960,青鸟消防,2021-12-08,43.42,45.12,42.74,44.18,42.42,5956295.0,262786735.0,7718963129.76,15387129774.36
sz002960,青鸟消防,2021-12-09,44.4,44.58,41.73,42.2,44.18,3968373.0,168658768.0,7373024990.400001,14697530024.4
sz002960,青鸟消防,2021-12-10,41.9,43.1,41.6,42.21,42.2,3497687.0,148257432.0,7374772152.719999,14701012851.42
sz002960,青鸟消防,2021-12-13,42.62,43.1,41.0,42.79,42.21,3544724.0,149209755.0,7476107567.28,14903016818.580002
sz002960,青鸟消防,2021-12-14,42.6,44.87,42.21,44.5,42.79,4493586.0,198430524.0,7774872324.0,15498580239.0
sz002960,青鸟消防,2021-12-15,44.55,45.36,44.02,44.74,44.5,2562534.0,114698508.0,7816804219.68,15582168087.480001
sz002960,青鸟消防,2021-12-16,44.85,47.5,44.71,47.1,44.74,4650182.0,217265394.0,8229134527.2,16404115264.2
sz002960,青鸟消防,2021-12-17,46.62,46.87,44.63,44.79,47.1,3246756.0,147809431.0,7825540031.28,15599582222.58
sz002960,青鸟消防,2021-12-20,45.1,47.15,42.88,43.01,44.79,4871333.0,216433129.0,7514545138.32,14979639013.02
sz002960,青鸟消防,2021-12-21,43.06,44.33,42.0,43.96,43.01,3437466.0,149383176.0,7680525558.72,15310507579.92
sz002960,青鸟消防,2021-12-22,44.66,44.91,43.2,43.79,43.96,2903584.0,126943795.0,7650823799.280001,15251299520.58
sz002960,青鸟消防,2021-12-23,43.88,47.2,43.41,46.79,43.79,4804066.0,221436293.0,8174972495.28,16296147626.58
sz002960,青鸟消防,2021-12-24,47.16,47.21,45.0,45.4,46.79,2779233.0,128275562.0,7932116932.8,15812034670.800001
sz002960,青鸟消防,2021-12-27,45.4,47.47,45.04,46.56,45.4,2758663.0,128348780.0,8134787761.92,16216042605.119999
sz002960,青鸟消防,2021-12-28,46.38,47.86,45.85,46.76,46.56,2329398.0,109035427.0,8169731008.320001,16285699145.519999
sz002960,青鸟消防,2021-12-29,47.09,47.25,45.44,46.7,46.76,2492719.0,115975164.0,8159248034.400001,16264802183.4
sz002960,青鸟消防,2021-12-30,46.66,47.66,45.36,46.75,46.7,2705946.0,125541132.0,8167983846.0,16282216318.5
sz002960,青鸟消防,2021-12-31,47.08,50.13,46.25,48.55,46.75,4917614.0,240552462.0,8482473063.6,16909125182.099998
sz002960,青鸟消防,2022-01-04,48.0,50.8,47.46,48.47,48.55,4889338.0,239659864.0,8468495765.04,16881262565.939999
sz002960,青鸟消防,2022-01-05,48.92,48.98,44.47,45.79,48.47,5487255.0,252585888.0,8000256263.28,15947864924.58
sz002960,青鸟消防,2022-01-06,45.99,48.2,44.0,47.0,45.79,4605732.0,212152433.0,8211662904.000001,16369286994.0
sz002960,青鸟消防,2022-01-07,47.0,49.51,45.57,45.98,47.0,4291375.0,203499436.0,8033452347.36,16014038637.96
sz002960,青鸟消防,2022-01-10,45.76,46.37,43.21,43.86,45.98,4315611.0,192321332.0,7663053935.52,15275679309.72
sz002960,青鸟消防,2022-01-11,43.81,44.26,41.97,43.33,43.86,4111795.0,176624192.0,7570454332.56,15091089477.66
sz002960,青鸟消防,2022-01-12,43.0,46.58,43.0,46.2,43.33,3107449.0,140736166.0,8071889918.400001,16090660832.400002
sz002960,青鸟消防,2022-01-13,46.13,49.1,44.75,47.7,46.2,5123909.0,243278992.0,8333964266.4,16613084885.4
sz002960,青鸟消防,2022-01-14,47.7,50.34,47.23,49.77,47.7,3944406.0,194890452.0,8695626866.640001,17334030078.54
