数据由邢不行整理
股票代码,股票名称,交易日期,开盘价,最高价,最低价,收盘价,前收盘价,成交量,成交额,流通市值,总市值
sz002937,N兴瑞,2018-09-26,11.93,14.31,11.93,14.31,9.94,33983.0,482806.0,658260000.0,2633040000.0
sz002937,兴瑞科技,2018-09-27,15.74,15.74,15.74,15.74,14.31,31178.0,490741.0,724040000.0,2896160000.0
sz002937,兴瑞科技,2018-09-28,17.31,17.31,17.31,17.31,15.74,108281.0,1874344.0,796260000.0,3185040000.0
sz002937,兴瑞科技,2018-10-08,19.04,19.04,19.04,19.04,17.31,360251.0,6859179.0,875840000.0,3503360000.0
sz002937,兴瑞科技,2018-10-09,20.94,20.94,20.94,20.94,19.04,201410.0,4217525.0,963240000.0,3852960000.0
sz002937,兴瑞科技,2018-10-10,23.03,23.03,23.03,23.03,20.94,142575.0,3283502.0,1059380000.0,4237520000.0
sz002937,兴瑞科技,2018-10-11,25.33,25.33,25.33,25.33,23.03,1604925.0,40652750.0,1165180000.0,4660720000.0
sz002937,兴瑞科技,2018-10-12,27.86,27.86,27.02,27.86,25.33,14144645.0,392059143.0,1281560000.0,5126240000.0
sz002937,兴瑞科技,2018-10-15,29.0,30.65,27.4,30.65,27.86,29927897.0,873022870.0,1409900000.0,5639600000.0
sz002937,兴瑞科技,2018-10-16,29.71,30.0,27.59,27.59,30.65,23337861.0,669494952.0,1269140000.0,5076560000.0
sz002937,兴瑞科技,2018-10-17,27.01,27.82,25.26,26.48,27.59,24015838.0,641069287.0,1218080000.0,4872320000.0
sz002937,兴瑞科技,2018-10-18,26.05,27.3,24.86,26.25,26.48,21412133.0,565291593.0,1207500000.0,4830000000.0
sz002937,兴瑞科技,2018-10-19,25.01,27.28,24.8,27.18,26.25,20823614.0,550832862.0,1250280000.0,5001120000.0
sz002937,兴瑞科技,2018-10-22,27.01,29.9,26.1,29.9,27.18,25463381.0,713556997.0,1375400000.0,5501600000.0
sz002937,兴瑞科技,2018-10-23,29.0,31.35,26.91,26.91,29.9,30186629.0,885190577.0,1237860000.0,4951440000.0
sz002937,兴瑞科技,2018-10-24,25.1,26.01,24.3,25.55,26.91,22479531.0,565341407.0,1175300000.0,4701200000.0
sz002937,兴瑞科技,2018-10-25,24.0,24.36,23.38,24.08,25.55,14442262.0,345501285.0,1107680000.0,4430720000.0
sz002937,兴瑞科技,2018-10-26,24.58,25.97,24.44,24.61,24.08,18948809.0,474493760.0,1132060000.0,4528240000.0
sz002937,兴瑞科技,2018-10-29,24.17,27.07,23.7,27.07,24.61,24000383.0,635880632.0,1245220000.0,4980880000.0
sz002937,兴瑞科技,2018-10-30,27.5,27.74,24.44,26.01,27.07,26365108.0,682289458.0,1196460000.0,4785840000.0
sz002937,兴瑞科技,2018-10-31,25.88,28.48,25.61,27.6,26.01,27277295.0,741625868.0,1269600000.0,5078400000.0
sz002937,兴瑞科技,2018-11-01,27.28,29.67,26.65,26.85,27.6,26297034.0,737236288.0,1235100000.0,4940400000.0
sz002937,兴瑞科技,2018-11-02,27.22,29.54,26.98,29.54,26.85,24928944.0,711691211.0,1358840000.0,5435360000.0
sz002937,兴瑞科技,2018-11-05,31.99,32.49,27.9,28.39,29.54,32562967.0,1006343686.0,1305940000.0,5223760000.0
sz002937,兴瑞科技,2018-11-06,25.88,26.35,25.55,25.55,28.39,24586739.0,633705213.0,1175300000.0,4701200000.0
sz002937,兴瑞科技,2018-11-07,24.99,25.77,24.81,25.53,25.55,13517621.0,342364395.0,1174380000.0,4697520000.0
sz002937,兴瑞科技,2018-11-08,25.3,25.73,24.5,24.71,25.53,11334301.0,282956981.0,1136660000.0,4546640000.0
sz002937,兴瑞科技,2018-11-09,24.92,25.65,24.75,24.88,24.71,10693258.0,269723949.0,1144480000.0,4577920000.0
sz002937,兴瑞科技,2018-11-12,24.05,25.29,23.98,25.19,24.88,10797478.0,266021542.0,1158740000.0,4634960000.0
sz002937,兴瑞科技,2018-11-13,24.49,27.19,24.35,26.01,25.19,16040036.0,404611507.0,1196460000.0,4785840000.0
sz002937,兴瑞科技,2018-11-14,25.63,27.23,25.53,26.96,26.01,20671679.0,553074560.0,1240160000.0,4960640000.0
sz002937,兴瑞科技,2018-11-15,26.07,27.77,26.0,27.27,26.96,17105586.0,457292110.0,1254420000.0,5017680000.0
sz002937,兴瑞科技,2018-11-16,27.0,27.52,26.51,26.51,27.27,11842084.0,318874478.0,1219460000.0,4877840000.0
sz002937,兴瑞科技,2018-11-19,26.02,28.82,26.02,27.76,26.51,18049495.0,497968450.0,1276960000.0,5107840000.0
sz002937,兴瑞科技,2018-11-20,27.28,27.38,26.1,26.19,27.76,13412711.0,358299952.0,1204740000.0,4818960000.0
sz002937,兴瑞科技,2018-11-21,25.5,25.94,24.55,25.66,26.19,11933836.0,300751631.0,1180360000.0,4721440000.0
sz002937,兴瑞科技,2018-11-22,25.77,26.15,24.77,24.85,25.66,8845219.0,224818179.0,1143100000.0,4572400000.0
sz002937,兴瑞科技,2018-11-23,24.86,27.34,24.86,25.8,24.85,17404586.0,459543673.0,1186800000.0,4747200000.0
sz002937,兴瑞科技,2018-11-26,26.33,27.28,25.83,26.05,25.8,17326493.0,461109423.0,1198300000.0,4793200000.0
sz002937,兴瑞科技,2018-11-27,26.0,26.0,23.77,24.33,26.05,16394192.0,399476971.0,1119180000.0,4476720000.0
sz002937,兴瑞科技,2018-11-28,24.0,24.48,23.42,24.35,24.33,9642789.0,231040879.0,1120100000.0,4480400000.0
sz002937,兴瑞科技,2018-11-29,24.36,24.5,22.62,22.75,24.35,9506170.0,225047890.0,1046500000.0,4186000000.0
sz002937,兴瑞科技,2018-11-30,22.7,22.7,21.28,22.27,22.75,8837933.0,194713908.0,1024420000.0,4097680000.0
sz002937,兴瑞科技,2018-12-03,22.99,23.78,22.7,23.26,22.27,9096242.0,210790503.0,1069960000.0,4279840000.0
sz002937,兴瑞科技,2018-12-04,23.07,23.12,22.43,22.91,23.26,7175501.0,163867670.0,1053860000.0,4215440000.0
sz002937,兴瑞科技,2018-12-05,22.08,22.41,21.81,22.24,22.91,5078371.0,112576032.0,1023040000.0,4092160000.0
sz002937,兴瑞科技,2018-12-06,22.2,22.89,22.1,22.24,22.24,5892707.0,132589514.0,1023040000.0,4092160000.0
sz002937,兴瑞科技,2018-12-07,22.11,22.48,21.85,21.87,22.24,3912480.0,86170108.0,1006020000.0,4024080000.0
sz002937,兴瑞科技,2018-12-10,21.73,21.73,20.61,20.84,21.87,5438164.0,114459972.0,958640000.0,3834560000.0
sz002937,兴瑞科技,2018-12-11,21.04,21.88,20.7,21.72,20.84,6330858.0,135095106.0,999120000.0,3996480000.0
sz002937,兴瑞科技,2018-12-12,21.62,22.66,21.52,22.15,21.72,8219233.0,183215321.0,1018900000.0,4075600000.0
sz002937,兴瑞科技,2018-12-13,22.08,22.16,21.27,21.71,22.15,6424504.0,139390270.0,998660000.0,3994640000.0
sz002937,兴瑞科技,2018-12-14,21.55,22.37,21.3,21.67,21.71,6357480.0,138717524.0,996820000.0,3987280000.0
sz002937,兴瑞科技,2018-12-17,21.44,22.68,21.25,22.53,21.67,8557329.0,190071433.0,1036380000.0,4145520000.0
sz002937,兴瑞科技,2018-12-18,22.25,22.37,21.6,21.93,22.53,6081119.0,133625422.0,1008780000.0,4035120000.0
sz002937,兴瑞科技,2018-12-19,21.95,22.2,21.0,21.02,21.93,4970863.0,107516022.0,966920000.0,3867680000.0
sz002937,兴瑞科技,2018-12-20,20.7,21.6,20.66,21.39,21.02,4081231.0,86386934.0,983940000.0,3935760000.0
sz002937,兴瑞科技,2018-12-21,21.25,21.77,21.06,21.62,21.39,4514605.0,96984793.0,994520000.0,3978080000.0
sz002937,兴瑞科技,2018-12-24,21.48,23.15,21.48,22.37,21.62,9230067.0,205940732.0,1029020000.0,4116080000.0
sz002937,兴瑞科技,2018-12-25,22.03,23.5,21.52,23.01,22.37,11454224.0,257047166.0,1058460000.0,4233840000.0
sz002937,兴瑞科技,2018-12-26,23.07,24.2,22.7,22.82,23.01,13875672.0,325587353.0,1049720000.0,4198880000.0
sz002937,兴瑞科技,2018-12-27,23.98,25.1,23.68,25.1,22.82,25225981.0,625776403.0,1154600000.0,4618400000.0
sz002937,兴瑞科技,2018-12-28,24.0,25.07,22.59,22.59,25.1,19689927.0,468851599.0,1039140000.0,4156560000.0
sz002937,兴瑞科技,2019-01-02,22.55,22.88,21.46,21.54,22.59,13650590.0,297871028.0,990840000.0,3963360000.0
sz002937,兴瑞科技,2019-01-03,21.09,21.43,20.66,20.74,21.54,10280077.0,215676196.0,954040000.0,3816160000.0
sz002937,兴瑞科技,2019-01-04,20.19,21.32,20.06,21.13,20.74,8331507.0,173410482.0,971980000.0,3887920000.0
sz002937,兴瑞科技,2019-01-07,21.13,21.65,20.93,21.38,21.13,7978487.0,170070931.0,983480000.0,3933920000.0
sz002937,兴瑞科技,2019-01-08,21.53,21.89,21.24,21.31,21.38,7510007.0,162055410.0,980260000.0,3921040000.0
sz002937,兴瑞科技,2019-01-09,21.63,22.15,21.37,21.72,21.31,10522888.0,229160866.0,999120000.0,3996480000.0
sz002937,兴瑞科技,2019-01-10,21.7,22.66,21.55,22.36,21.72,12624094.0,279508789.0,1028560000.0,4114240000.0
sz002937,兴瑞科技,2019-01-11,22.29,24.2,22.2,23.59,22.36,17735356.0,412561480.0,1085140000.0,4340560000.0
sz002937,兴瑞科技,2019-01-14,24.1,24.79,22.21,22.48,23.59,15234363.0,353431055.0,1034080000.0,4136320000.0
sz002937,兴瑞科技,2019-01-15,21.9,23.2,21.64,22.95,22.48,11554600.0,257947759.0,1055700000.0,4222800000.0
sz002937,兴瑞科技,2019-01-16,22.98,24.88,22.97,23.9,22.95,17040357.0,406436582.0,1099400000.0,4397600000.0
sz002937,兴瑞科技,2019-01-17,23.59,24.25,23.21,23.78,23.9,12922822.0,306566097.0,1093880000.0,4375520000.0
sz002937,兴瑞科技,2019-01-18,23.5,24.86,23.22,24.06,23.78,15777064.0,381215274.0,1106760000.0,4427040000.0
sz002937,兴瑞科技,2019-01-21,24.16,25.99,23.55,24.98,24.06,17301014.0,429033350.0,1149080000.0,4596320000.0
sz002937,兴瑞科技,2019-01-22,27.48,27.48,27.48,27.48,24.98,2462621.0,67672825.0,1264080000.0,5056320000.0
sz002937,兴瑞科技,2019-01-23,29.84,29.84,28.02,29.2,27.48,27488619.0,798224329.0,1343200000.0,5372800000.0
sz002937,兴瑞科技,2019-01-24,29.86,31.21,28.7,29.54,29.2,26062759.0,777049023.0,1358840000.0,5435360000.0
sz002937,兴瑞科技,2019-01-25,28.81,32.1,28.6,30.19,29.54,24784254.0,749976524.0,1388740000.0,5554960000.0
sz002937,兴瑞科技,2019-01-28,31.19,33.21,30.08,32.0,30.19,30659747.0,992626682.0,1472000000.0,5888000000.0
sz002937,兴瑞科技,2019-01-29,30.01,30.18,28.8,28.81,32.0,22831171.0,663844685.0,1325260000.0,5301040000.0
sz002937,兴瑞科技,2019-01-30,28.89,29.68,27.25,27.3,28.81,17391295.0,495607405.0,1255800000.0,5023200000.0
sz002937,兴瑞科技,2019-01-31,26.97,27.58,25.37,26.08,27.3,15084497.0,399304416.0,1199680000.0,4798720000.0
sz002937,兴瑞科技,2019-02-01,26.6,26.9,26.1,26.75,26.08,10498607.0,278460795.0,1230500000.0,4922000000.0
sz002937,兴瑞科技,2019-02-11,27.01,28.28,26.8,27.97,26.75,12051907.0,332381986.0,1286620000.0,5146480000.0
sz002937,兴瑞科技,2019-02-12,28.0,28.94,27.81,28.23,27.97,14264944.0,403674030.0,1298580000.0,5194320000.0
sz002937,兴瑞科技,2019-02-13,27.82,28.77,27.7,28.45,28.23,12334247.0,349938455.0,1308700000.0,5234800000.0
sz002937,兴瑞科技,2019-02-14,27.9,28.74,27.56,27.98,28.45,12561235.0,352805682.0,1287080000.0,5148320000.0
sz002937,兴瑞科技,2019-02-15,28.17,29.23,27.93,28.07,27.98,13198913.0,375250673.0,1291220000.0,5164880000.0
sz002937,兴瑞科技,2019-02-18,28.33,29.49,27.65,29.23,28.07,16039592.0,457251620.0,1344580000.0,5378320000.0
sz002937,兴瑞科技,2019-02-19,29.0,29.48,28.39,28.63,29.23,12832626.0,370267468.0,1316980000.0,5267920000.0
sz002937,兴瑞科技,2019-02-20,28.64,28.93,27.71,28.2,28.63,9306626.0,263569196.0,1297200000.0,5188800000.0
sz002937,兴瑞科技,2019-02-21,28.0,28.5,27.57,27.6,28.2,8961636.0,250776481.0,1269600000.0,5078400000.0
sz002937,兴瑞科技,2019-02-22,27.33,27.82,27.27,27.68,27.6,6628906.0,182744858.0,1273280000.0,5093120000.0
sz002937,兴瑞科技,2019-02-25,27.52,29.48,27.52,29.18,27.68,13773683.0,394155368.0,1342280000.0,5369120000.0
sz002937,兴瑞科技,2019-02-26,29.74,32.1,29.25,32.1,29.18,16803285.0,518740281.0,1476600000.0,5906400000.0
sz002937,兴瑞科技,2019-02-27,33.0,33.9,28.9,29.38,32.1,21739856.0,682245240.0,1351480000.0,5405920000.0
sz002937,兴瑞科技,2019-02-28,28.31,29.48,28.26,28.51,29.38,9875267.0,282996383.0,1311460000.0,5245840000.0
sz002937,兴瑞科技,2019-03-01,28.51,29.29,28.35,29.25,28.51,7483358.0,215707420.0,1345500000.0,5382000000.0
sz002937,兴瑞科技,2019-03-04,29.99,30.94,29.5,29.7,29.25,12269917.0,370310939.0,1366200000.0,5464800000.0
sz002937,兴瑞科技,2019-03-05,29.4,30.6,29.32,30.6,29.7,9858142.0,297913583.0,1407600000.0,5630400000.0
sz002937,兴瑞科技,2019-03-06,31.25,32.88,30.11,32.14,30.6,15162265.0,478439331.0,1478440000.0,5913760000.0
sz002937,兴瑞科技,2019-03-07,32.14,35.35,31.62,35.35,32.14,11017058.0,370527739.0,1626100000.0,6504400000.0
sz002937,兴瑞科技,2019-03-08,35.94,38.8,32.6,32.7,35.35,23137243.0,835344133.0,1504200000.0,6016800000.0
sz002937,兴瑞科技,2019-03-11,32.35,34.99,32.32,34.36,32.7,13245742.0,443321006.0,1580560000.0,6322240000.0
sz002937,兴瑞科技,2019-03-12,34.1,35.5,33.71,34.96,34.36,13521400.0,468443811.0,1608160000.0,6432640000.0
sz002937,兴瑞科技,2019-03-13,35.66,36.98,33.6,34.3,34.96,14169904.0,504828847.0,1577800000.0,6311200000.0
sz002937,兴瑞科技,2019-03-14,33.5,33.99,30.88,32.55,34.3,10612052.0,345320121.0,1497300000.0,5989200000.0
sz002937,兴瑞科技,2019-03-15,32.5,33.88,31.8,33.86,32.55,8847651.0,292062485.0,1557560000.0,6230240000.0
sz002937,兴瑞科技,2019-03-18,34.48,35.3,33.55,35.05,33.86,9270442.0,322324040.0,1612300000.0,6449200000.0
sz002937,兴瑞科技,2019-03-19,34.76,35.88,34.7,35.88,35.05,9409681.0,332806341.0,1650480000.0,6601920000.0
sz002937,兴瑞科技,2019-03-20,36.02,36.86,34.68,35.77,35.88,10774848.0,384660246.0,1645420000.0,6581680000.0
sz002937,兴瑞科技,2019-03-21,36.5,39.35,35.31,36.81,35.77,17596040.0,650803290.0,1693260000.0,6773040000.0
sz002937,兴瑞科技,2019-03-22,37.6,38.36,36.85,37.36,36.81,12756593.0,480250843.0,1718560000.0,6874240000.0
sz002937,兴瑞科技,2019-03-25,36.21,38.0,35.8,36.3,37.36,10463827.0,388002431.0,1669800000.0,6679200000.0
sz002937,兴瑞科技,2019-03-26,35.8,36.37,32.67,34.31,36.3,9748459.0,339984969.0,1578260000.0,6313040000.0
sz002937,兴瑞科技,2019-03-27,34.68,35.74,33.6,35.24,34.31,8146181.0,283541563.0,1621040000.0,6484160000.0
sz002937,兴瑞科技,2019-03-28,35.0,35.65,32.88,32.9,35.24,8663971.0,297104795.0,1513400000.0,6053600000.0
sz002937,兴瑞科技,2019-03-29,33.06,34.35,32.91,34.13,32.9,6477123.0,218303993.0,1569980000.0,6279920000.0
sz002937,兴瑞科技,2019-04-01,34.81,35.7,34.52,35.46,34.13,7443998.0,262255535.0,1631160000.0,6524640000.0
sz002937,兴瑞科技,2019-04-02,35.64,36.08,35.01,35.25,35.46,8690242.0,308458521.0,1621500000.0,6486000000.0
sz002937,兴瑞科技,2019-04-03,35.0,35.1,34.36,34.69,35.25,5780340.0,200231913.0,1595740000.0,6382960000.0
sz002937,兴瑞科技,2019-04-04,35.0,35.1,34.2,34.52,34.69,4946998.0,171583433.0,1587920000.0,6351680000.0
sz002937,兴瑞科技,2019-04-08,34.75,37.49,34.5,37.05,34.52,13969327.0,504213502.0,1704300000.0,6817200000.0
sz002937,兴瑞科技,2019-04-09,36.45,38.8,35.81,37.57,37.05,11507440.0,431781573.0,1728220000.0,6912880000.0
sz002937,兴瑞科技,2019-04-10,37.0,37.68,36.02,36.4,37.57,6079231.0,223697869.0,1674400000.0,6697600000.0
sz002937,兴瑞科技,2019-04-11,37.19,37.74,36.4,36.7,36.4,6658249.0,246620500.0,1688200000.0,6752800000.0
sz002937,兴瑞科技,2019-04-12,36.4,36.87,35.1,35.68,36.7,6031447.0,215218477.0,1641280000.0,6565120000.0
sz002937,兴瑞科技,2019-04-15,36.0,36.18,35.0,35.0,35.68,6200722.0,220440952.0,1610000000.0,6440000000.0
sz002937,兴瑞科技,2019-04-16,36.0,36.55,35.25,36.35,35.0,8265086.0,296408654.0,1672100000.0,6688400000.0
sz002937,兴瑞科技,2019-04-17,36.36,39.0,35.81,38.28,36.35,13141473.0,494814409.0,1760880000.0,7043520000.0
sz002937,兴瑞科技,2019-04-18,37.89,38.82,36.75,37.9,38.28,10795670.0,408360549.0,1743400000.0,6973600000.0
sz002937,兴瑞科技,2019-04-19,37.8,38.96,37.1,38.47,37.9,9658347.0,367373603.0,1769620000.0,7078480000.0
sz002937,兴瑞科技,2019-04-22,38.18,39.59,37.2,38.53,38.47,9911773.0,380572427.0,1772380000.0,7089520000.0
sz002937,兴瑞科技,2019-04-23,23.5,24.0,21.71,23.5,23.89,19489202.0,445774150.0,1729600000.0,6918400000.0
sz002937,兴瑞科技,2019-04-24,23.65,24.47,22.03,22.66,23.5,15743888.0,362526951.0,1667776000.0,6671104000.0
sz002937,兴瑞科技,2019-04-25,22.3,24.93,21.91,24.93,22.66,16615228.0,404639179.0,1834848000.0,7339392000.0
sz002937,兴瑞科技,2019-04-26,24.99,25.39,22.44,22.44,24.93,31536610.0,756296968.0,1651584000.0,6606336000.0
sz002937,兴瑞科技,2019-04-29,20.44,20.88,20.2,20.2,22.44,5947120.0,121053822.0,1486720000.0,5946880000.0
sz002937,兴瑞科技,2019-04-30,18.18,19.19,18.18,18.24,20.2,20873662.0,385715920.0,1342464000.0,5369856000.0
sz002937,兴瑞科技,2019-05-06,17.3,18.79,16.85,17.64,18.24,15349791.0,274314150.0,1298304000.0,5193216000.0
sz002937,兴瑞科技,2019-05-07,17.95,19.3,17.91,18.98,17.64,19076570.0,354897633.0,1396928000.0,5587712000.0
sz002937,兴瑞科技,2019-05-08,18.17,19.9,18.01,18.92,18.98,17828077.0,338765129.0,1392512000.0,5570048000.0
sz002937,兴瑞科技,2019-05-09,18.61,20.13,18.6,19.32,18.92,17275515.0,334960216.0,1421952000.0,5687808000.0
sz002937,兴瑞科技,2019-05-10,19.98,20.11,18.53,19.56,19.32,18611415.0,363117450.0,1439616000.0,5758464000.0
sz002937,兴瑞科技,2019-05-13,19.12,19.35,18.12,18.55,19.56,13972649.0,261110930.0,1365280000.0,5461120000.0
sz002937,兴瑞科技,2019-05-14,18.0,18.61,17.82,17.91,18.55,10301600.0,186778738.0,1318176000.0,5272704000.0
sz002937,兴瑞科技,2019-05-15,18.21,18.3,17.92,18.28,17.91,9686335.0,175673761.0,1345408000.0,5381632000.0
sz002937,兴瑞科技,2019-05-16,18.36,18.36,17.76,17.89,18.28,9688415.0,174163014.0,1316704000.0,5266816000.0
sz002937,兴瑞科技,2019-05-17,17.9,18.09,16.1,16.2,17.89,13883250.0,235403446.0,1192320000.0,4769280000.0
sz002937,兴瑞科技,2019-05-20,16.26,16.78,15.93,16.46,16.2,8864100.0,145281025.0,1211456000.0,4845824000.0
sz002937,兴瑞科技,2019-05-21,16.55,17.08,16.27,16.8,16.46,9884277.0,164383978.0,1236480000.0,4945920000.0
sz002937,兴瑞科技,2019-05-22,16.7,16.79,16.18,16.31,16.8,7526702.0,123590619.0,1200416000.0,4801664000.0
sz002937,兴瑞科技,2019-05-23,16.2,16.32,15.2,15.42,16.31,8564947.0,134174407.0,1134912000.0,4539648000.0
sz002937,兴瑞科技,2019-05-24,15.47,16.49,15.41,15.9,15.42,10252610.0,164758031.0,1170240000.0,4680960000.0
sz002937,兴瑞科技,2019-05-27,16.06,16.46,16.0,16.45,15.9,9503700.0,154763212.0,1210720000.0,4842880000.0
sz002937,兴瑞科技,2019-05-28,16.32,16.93,16.21,16.39,16.45,11540846.0,191438419.0,1206304000.0,4825216000.0
sz002937,兴瑞科技,2019-05-29,16.28,17.5,16.28,16.93,16.39,12175789.0,206036499.0,1246048000.0,4984192000.0
sz002937,兴瑞科技,2019-05-30,16.73,16.89,16.39,16.81,16.93,9023068.0,149641052.0,1237216000.0,4948864000.0
sz002937,兴瑞科技,2019-05-31,17.03,18.11,17.03,17.86,16.81,19306470.0,340471776.0,1314496000.0,5257984000.0
sz002937,兴瑞科技,2019-06-03,17.65,17.78,16.85,17.07,17.86,12513627.0,216264421.0,1256352000.0,5025408000.0
sz002937,兴瑞科技,2019-06-04,17.07,17.07,15.88,16.38,17.07,9858314.0,161604600.0,1205568000.0,4822272000.0
sz002937,兴瑞科技,2019-06-05,16.48,16.88,16.32,16.53,16.38,7024817.0,116462784.0,1216608000.0,4866432000.0
sz002937,兴瑞科技,2019-06-06,16.44,16.44,15.7,15.74,16.53,6324877.0,100935598.0,1158464000.0,4633856000.0
sz002937,兴瑞科技,2019-06-10,15.92,16.53,15.9,16.45,15.74,6639442.0,108123068.0,1210720000.0,4842880000.0
sz002937,兴瑞科技,2019-06-11,18.1,18.1,18.1,18.1,16.45,3676002.0,66535636.0,1332160000.0,5328640000.0
sz002937,兴瑞科技,2019-06-12,18.4,19.86,18.15,18.65,18.1,30315453.0,576064704.0,1372640000.0,5490560000.0
sz002937,兴瑞科技,2019-06-13,18.2,18.65,17.79,18.02,18.65,15348422.0,277491731.0,1326272000.0,5305088000.0
sz002937,兴瑞科技,2019-06-14,17.82,18.02,16.88,17.14,18.02,13646980.0,237707238.0,1261504000.0,5046016000.0
sz002937,兴瑞科技,2019-06-17,17.0,17.45,17.0,17.05,17.14,6397497.0,109860530.0,1254880000.0,5019520000.0
sz002937,兴瑞科技,2019-06-18,17.16,17.9,16.58,17.8,17.05,11668562.0,201961726.0,1310080000.0,5240320000.0
sz002937,兴瑞科技,2019-06-19,18.3,18.48,17.7,17.78,17.8,12417993.0,224022439.0,1308608000.0,5234432000.0
sz002937,兴瑞科技,2019-06-20,17.55,18.18,17.53,17.85,17.78,10061022.0,180194845.0,1313760000.0,5255040000.0
sz002937,兴瑞科技,2019-06-21,17.78,18.18,17.73,17.95,17.85,9460476.0,170036847.0,1321120000.0,5284480000.0
sz002937,兴瑞科技,2019-06-24,17.88,17.92,17.34,17.5,17.95,7518242.0,131833554.0,1288000000.0,5152000000.0
sz002937,兴瑞科技,2019-06-25,17.52,17.56,17.19,17.36,17.5,4837322.0,83766244.0,1277696000.0,5110784000.0
sz002937,兴瑞科技,2019-06-26,17.42,17.97,17.36,17.97,17.36,8372958.0,148483060.0,1322592000.0,5290368000.0
sz002937,兴瑞科技,2019-06-27,17.8,18.17,17.67,17.99,17.97,8985580.0,161269588.0,1324064000.0,5296256000.0
sz002937,兴瑞科技,2019-06-28,17.8,17.93,17.22,17.26,17.99,6865580.0,120026922.0,1270336000.0,5081344000.0
sz002937,兴瑞科技,2019-07-01,17.74,17.96,17.54,17.9,17.26,7805702.0,138910156.0,1317440000.0,5269760000.0
sz002937,兴瑞科技,2019-07-02,17.66,18.28,17.66,17.83,17.9,7331573.0,131613283.0,1312288000.0,5249152000.0
sz002937,兴瑞科技,2019-07-03,17.7,17.95,17.3,17.45,17.83,5356891.0,93572698.0,1284320000.0,5137280000.0
sz002937,兴瑞科技,2019-07-04,17.34,17.6,17.25,17.42,17.45,3937404.0,68498293.0,1282112000.0,5128448000.0
sz002937,兴瑞科技,2019-07-05,17.4,17.85,17.35,17.8,17.42,5943862.0,105055533.0,1310080000.0,5240320000.0
sz002937,兴瑞科技,2019-07-08,17.7,18.35,17.36,18.24,17.8,11494567.0,205834409.0,1342464000.0,5369856000.0
sz002937,兴瑞科技,2019-07-09,18.01,18.23,17.75,17.97,18.24,6769842.0,121586324.0,1322592000.0,5290368000.0
sz002937,兴瑞科技,2019-07-10,18.0,18.09,17.16,17.32,17.97,7694671.0,135347892.0,1274752000.0,5099008000.0
sz002937,兴瑞科技,2019-07-11,17.32,17.46,16.6,16.83,17.32,7342962.0,124988510.0,1238688000.0,4954752000.0
sz002937,兴瑞科技,2019-07-12,16.75,16.9,16.5,16.78,16.83,3506100.0,58542183.0,1235008000.0,4940032000.0
sz002937,兴瑞科技,2019-07-15,16.71,16.95,16.18,16.87,16.78,4162651.0,69137116.0,1241632000.0,4966528000.0
sz002937,兴瑞科技,2019-07-16,16.75,17.1,16.65,16.97,16.87,3773282.0,63929586.0,1248992000.0,4995968000.0
sz002937,兴瑞科技,2019-07-17,16.97,17.11,16.7,16.81,16.97,3575060.0,60470800.0,1237216000.0,4948864000.0
sz002937,兴瑞科技,2019-07-18,16.68,16.69,16.1,16.1,16.81,5163280.0,84096611.0,1184960000.0,4739840000.0
sz002937,兴瑞科技,2019-07-19,16.1,16.45,16.1,16.24,16.1,3096360.0,50441295.0,1195264000.0,4781056000.0
sz002937,兴瑞科技,2019-07-22,16.2,16.2,14.65,15.13,16.24,5217859.0,79913160.0,1113568000.0,4454272000.0
sz002937,兴瑞科技,2019-07-23,15.29,15.63,15.13,15.5,15.13,3247271.0,50193186.0,1140800000.0,4563200000.0
sz002937,兴瑞科技,2019-07-24,15.52,16.07,15.52,15.79,15.5,3925980.0,62159062.0,1162144000.0,4648576000.0
sz002937,兴瑞科技,2019-07-25,15.83,16.26,15.65,16.09,15.79,4238660.0,68101633.0,1184224000.0,4736896000.0
sz002937,兴瑞科技,2019-07-26,16.1,16.35,15.93,16.12,16.09,3553440.0,57471312.0,1186432000.0,4745728000.0
sz002937,兴瑞科技,2019-07-29,16.1,16.34,16.03,16.18,16.12,3076905.0,49778110.0,1190848000.0,4763392000.0
sz002937,兴瑞科技,2019-07-30,16.31,16.38,15.94,15.98,16.18,3426868.0,55545144.0,1176128000.0,4704512000.0
sz002937,兴瑞科技,2019-07-31,15.97,16.33,15.78,16.3,15.98,5208440.0,84272101.0,1199680000.0,4798720000.0
sz002937,兴瑞科技,2019-08-01,16.18,16.2,15.81,16.1,16.3,4331906.0,69252444.0,1184960000.0,4739840000.0
sz002937,兴瑞科技,2019-08-02,15.62,15.8,15.3,15.55,16.1,4268076.0,66441332.0,1144480000.0,4577920000.0
sz002937,兴瑞科技,2019-08-05,15.55,16.06,15.49,15.56,15.55,4346558.0,68648257.0,1145216000.0,4580864000.0
sz002937,兴瑞科技,2019-08-06,15.24,15.54,14.8,15.41,15.56,5105668.0,77512783.0,1134176000.0,4536704000.0
sz002937,兴瑞科技,2019-08-07,15.57,15.7,15.18,15.19,15.41,3943007.0,61006472.0,1117984000.0,4471936000.0
sz002937,兴瑞科技,2019-08-08,15.11,15.39,14.92,15.08,15.19,3461525.0,52177870.0,1109888000.0,4439552000.0
sz002937,兴瑞科技,2019-08-09,15.23,15.23,14.69,14.72,15.08,3632690.0,54102426.0,1083392000.0,4333568000.0
sz002937,兴瑞科技,2019-08-12,14.72,15.19,14.68,15.14,14.72,3695945.0,55003322.0,1114304000.0,4457216000.0
sz002937,兴瑞科技,2019-08-13,14.9,14.99,14.8,14.88,15.14,2600640.0,38759847.0,1095168000.0,4380672000.0
sz002937,兴瑞科技,2019-08-14,15.18,16.37,15.07,15.87,14.88,12225500.0,194379865.0,1168032000.0,4672128000.0
sz002937,兴瑞科技,2019-08-15,15.3,15.65,15.1,15.65,15.87,8243690.0,126900955.0,1151840000.0,4607360000.0
sz002937,兴瑞科技,2019-08-16,15.67,16.14,15.53,15.95,15.65,8349290.0,131631530.0,1173920000.0,4695680000.0
sz002937,兴瑞科技,2019-08-19,16.15,16.34,16.03,16.21,15.95,9024910.0,146241263.0,1193056000.0,4772224000.0
sz002937,兴瑞科技,2019-08-20,16.41,17.43,16.25,17.03,16.21,16217220.0,273895682.0,1253408000.0,5013632000.0
sz002937,兴瑞科技,2019-08-21,16.81,16.94,16.53,16.73,17.03,8753730.0,146479376.0,1231328000.0,4925312000.0
sz002937,兴瑞科技,2019-08-22,16.73,17.25,16.67,17.0,16.73,8685709.0,147911227.0,1251200000.0,5004800000.0
sz002937,兴瑞科技,2019-08-23,16.9,17.27,16.51,16.69,17.0,6869793.0,116032496.0,1228384000.0,4913536000.0
sz002937,兴瑞科技,2019-08-26,16.15,16.64,16.01,16.43,16.69,4926020.0,80844947.0,1209248000.0,4836992000.0
sz002937,兴瑞科技,2019-08-27,16.53,16.78,16.37,16.54,16.43,5081140.0,84356667.0,1217344000.0,4869376000.0
sz002937,兴瑞科技,2019-08-28,16.61,16.7,16.08,16.2,16.54,5627140.0,91680300.0,1192320000.0,4769280000.0
sz002937,兴瑞科技,2019-08-29,16.34,16.48,16.11,16.16,16.2,4484802.0,72955649.0,1189376000.0,4757504000.0
sz002937,兴瑞科技,2019-08-30,16.25,16.34,15.53,15.53,16.16,5595120.0,89192135.0,1143008000.0,4572032000.0
sz002937,兴瑞科技,2019-09-02,15.53,16.25,15.53,16.24,15.53,5309331.0,85210671.0,1195264000.0,4781056000.0
sz002937,兴瑞科技,2019-09-03,16.4,16.44,16.05,16.25,16.24,3973465.0,64363275.0,1196000000.0,4784000000.0
sz002937,兴瑞科技,2019-09-04,16.36,16.37,16.05,16.31,16.25,4300620.0,69790800.0,1200416000.0,4801664000.0
sz002937,兴瑞科技,2019-09-05,16.4,16.75,16.25,16.53,16.31,8305244.0,137245099.0,1216608000.0,4866432000.0
sz002937,兴瑞科技,2019-09-06,16.63,16.88,16.52,16.69,16.53,6869499.0,114699451.0,1228384000.0,4913536000.0
sz002937,兴瑞科技,2019-09-09,16.96,17.27,16.74,17.26,16.69,9476182.0,161806538.0,1270336000.0,5081344000.0
sz002937,兴瑞科技,2019-09-10,17.3,17.3,16.83,17.03,17.26,7661585.0,130454246.0,1253408000.0,5013632000.0
sz002937,兴瑞科技,2019-09-11,17.07,17.37,16.82,17.37,17.03,7828687.0,133896770.0,1278432000.0,5113728000.0
sz002937,兴瑞科技,2019-09-12,17.46,17.47,16.95,17.05,17.37,6704023.0,114819419.0,1254880000.0,5019520000.0
sz002937,兴瑞科技,2019-09-16,17.08,17.08,16.81,16.89,17.05,5040176.0,85247904.0,1243104000.0,4972416000.0
sz002937,兴瑞科技,2019-09-17,16.78,16.8,16.34,16.44,16.89,4903423.0,81101801.0,1209984000.0,4839936000.0
sz002937,兴瑞科技,2019-09-18,16.52,17.23,16.51,17.11,16.44,8842537.0,149423333.0,1259296000.0,5037184000.0
sz002937,兴瑞科技,2019-09-19,17.24,17.24,16.8,16.98,17.11,6073073.0,102879327.0,1249728000.0,4998912000.0
sz002937,兴瑞科技,2019-09-20,17.11,18.68,17.1,18.25,16.98,27607738.0,497985523.0,1343200000.0,5372800000.0
sz002937,兴瑞科技,2019-09-23,17.72,17.87,17.35,17.79,18.25,15992847.0,281749282.0,1309344000.0,5237376000.0
sz002937,兴瑞科技,2019-09-24,17.5,17.72,17.22,17.37,17.79,11431147.0,199501419.0,1278432000.0,5113728000.0
sz002937,兴瑞科技,2019-09-25,17.29,17.29,16.48,16.52,17.37,9562442.0,160746996.0,1215872000.0,4863488000.0
sz002937,兴瑞科技,2019-09-26,16.49,16.63,15.35,15.37,16.52,9430333.0,148482055.0,1131232000.0,4524928000.0
sz002937,兴瑞科技,2019-09-27,15.34,15.65,15.29,15.4,15.37,3945260.0,61196403.0,1133440000.0,4533760000.0
sz002937,兴瑞科技,2019-09-30,15.4,16.16,15.18,15.63,15.4,5048760.0,78563159.0,1499378147.52,4601472000.0
sz002937,兴瑞科技,2019-10-08,15.6,16.16,15.6,15.85,15.63,4106530.0,65121375.0,1520482638.4,4666240000.0
sz002937,兴瑞科技,2019-10-09,15.68,15.95,15.41,15.82,15.85,2554373.0,40165585.0,1517604753.28,4657408000.0
sz002937,兴瑞科技,2019-10-10,15.88,16.08,15.75,16.01,15.82,3957127.0,62956083.0,1535831359.04,4713344000.0
sz002937,兴瑞科技,2019-10-11,16.02,16.08,15.65,15.71,16.01,3554888.0,56151150.0,1507052507.84,4625024000.0
sz002937,兴瑞科技,2019-10-14,15.83,16.07,15.83,15.96,15.71,3541480.0,56464874.0,1531034883.84,4698624000.0
sz002937,兴瑞科技,2019-10-15,15.94,15.94,15.52,15.56,15.96,3131515.0,48969811.0,1492663082.24,4580864000.0
sz002937,兴瑞科技,2019-10-16,15.62,15.71,15.43,15.53,15.56,2248320.0,34943719.0,1489785197.12,4572032000.0
sz002937,兴瑞科技,2019-10-17,15.52,15.68,15.5,15.57,15.53,1566680.0,24395773.0,1493622377.28,4583808000.0
sz002937,兴瑞科技,2019-10-18,15.66,15.68,15.22,15.26,15.57,2569820.0,39538851.0,1463884231.04,4492544000.0
sz002937,兴瑞科技,2019-10-21,15.09,15.25,14.81,15.01,15.26,2253140.0,33712096.0,1439901855.04,4418944000.0
sz002937,兴瑞科技,2019-10-22,15.02,15.45,15.02,15.45,15.01,2503480.0,38302388.0,1482110836.8,4548480000.0
sz002937,兴瑞科技,2019-10-23,15.46,15.62,15.33,15.48,15.45,2564520.0,39740302.0,1484988721.92,4557312000.0
sz002937,兴瑞科技,2019-10-24,15.56,15.56,15.25,15.37,15.48,1954262.0,30097717.0,1474436476.48,4524928000.0
sz002937,兴瑞科技,2019-10-25,15.47,15.47,15.15,15.36,15.37,1816393.0,27808958.0,1473477181.44,4521984000.0
sz002937,兴瑞科技,2019-10-28,15.26,15.69,15.26,15.66,15.36,2953571.0,46046559.0,1502256032.64,4610304000.0
sz002937,兴瑞科技,2019-10-29,15.66,15.94,15.5,15.79,15.66,3673820.0,57717529.0,1514726868.16,4648576000.0
sz002937,兴瑞科技,2019-10-30,15.75,15.75,15.21,15.35,15.79,2317075.0,35883668.0,1472517886.4,4519040000.0
sz002937,兴瑞科技,2019-10-31,15.48,15.49,14.98,14.99,15.35,2572082.0,39017748.0,1437983264.96,4413056000.0
sz002937,兴瑞科技,2019-11-01,14.91,15.2,14.9,15.11,14.99,1351640.0,20433394.0,1449494805.44,4448384000.0
sz002937,兴瑞科技,2019-11-04,15.2,15.34,15.16,15.18,15.11,1445640.0,22056815.0,1456209870.72,4468992000.0
sz002937,兴瑞科技,2019-11-05,15.19,15.45,15.15,15.35,15.18,1794403.0,27520145.0,1472517886.4,4519040000.0
sz002937,兴瑞科技,2019-11-06,15.34,15.46,15.12,15.16,15.35,1637381.0,25021487.0,1454291280.64,4463104000.0
sz002937,兴瑞科技,2019-11-07,15.2,15.32,15.04,15.3,15.16,1454690.0,22115767.0,1467721411.2,4504320000.0
sz002937,兴瑞科技,2019-11-08,15.4,15.45,15.17,15.2,15.3,1852450.0,28371901.0,1458128460.8,4474880000.0
sz002937,兴瑞科技,2019-11-11,15.16,15.16,14.74,14.81,15.2,2358320.0,35075771.0,1420715954.24,4360064000.0
sz002937,兴瑞科技,2019-11-12,14.81,14.86,14.13,14.63,14.81,2665600.0,38612544.0,1403448643.52,4307072000.0
sz002937,兴瑞科技,2019-11-13,14.63,14.63,14.18,14.26,14.63,2138129.0,30639198.0,1367954727.04,4198144000.0
sz002937,兴瑞科技,2019-11-14,14.36,14.63,14.36,14.55,14.26,2294707.0,33326658.0,1395774283.2,4283520000.0
sz002937,兴瑞科技,2019-11-15,14.45,14.74,14.35,14.42,14.55,1674520.0,24274918.0,1383303447.68,4245248000.0
sz002937,兴瑞科技,2019-11-18,14.51,14.56,14.41,14.48,14.42,1278762.0,18519744.0,1389059217.92,4262912000.0
sz002937,兴瑞科技,2019-11-19,14.58,14.69,14.44,14.69,14.48,2047391.0,29868449.0,1409204413.76,4324736000.0
sz002937,兴瑞科技,2019-11-20,14.69,14.69,14.36,14.42,14.69,2060551.0,29931272.0,1383303447.68,4245248000.0
sz002937,兴瑞科技,2019-11-21,14.26,14.39,14.26,14.33,14.42,1315862.0,18839692.0,1374669792.32,4218752000.0
sz002937,兴瑞科技,2019-11-22,14.35,14.44,14.17,14.2,14.33,1855393.0,26490312.0,1362198956.8,4180480000.0
sz002937,兴瑞科技,2019-11-25,14.15,14.25,13.93,14.0,14.2,1514653.0,21260624.0,1343013056.0,4121600000.0
sz002937,兴瑞科技,2019-11-26,14.02,14.15,13.8,13.91,14.0,1378873.0,19221597.0,1334379400.64,4095104000.0
sz002937,兴瑞科技,2019-11-27,13.95,14.29,13.95,14.16,13.91,1992360.0,28236690.0,1358361776.64,4168704000.0
sz002937,兴瑞科技,2019-11-28,14.04,14.19,13.96,14.04,14.16,1432820.0,20116316.0,1346850236.16,4133376000.0
sz002937,兴瑞科技,2019-11-29,14.06,14.16,13.98,14.15,14.04,1268531.0,17864373.0,1357402481.6,4165760000.0
sz002937,兴瑞科技,2019-12-02,14.15,14.31,14.1,14.15,14.15,1028640.0,14573152.0,1357402481.6,4165760000.0
sz002937,兴瑞科技,2019-12-03,14.15,14.2,13.9,14.2,14.15,1090211.0,15315590.0,1362198956.8,4180480000.0
sz002937,兴瑞科技,2019-12-04,14.3,15.39,14.23,14.67,14.2,4753693.0,70238672.0,1407285823.68,4318848000.0
sz002937,兴瑞科技,2019-12-05,14.6,14.85,14.51,14.74,14.67,3815931.0,56178587.0,1414000888.96,4339456000.0
sz002937,兴瑞科技,2019-12-06,14.74,14.83,14.56,14.57,14.74,4014260.0,58788268.0,1397692873.28,4289408000.0
sz002937,兴瑞科技,2019-12-09,14.58,14.82,14.58,14.7,14.57,2164720.0,31834115.0,1410163708.8,4327680000.0
sz002937,兴瑞科技,2019-12-10,14.69,14.96,14.63,14.85,14.7,4238406.0,62826285.0,1424553134.4,4371840000.0
sz002937,兴瑞科技,2019-12-11,14.88,14.94,14.52,14.6,14.85,3427351.0,50386181.0,1400570758.4,4298240000.0
sz002937,兴瑞科技,2019-12-12,14.61,14.82,14.52,14.72,14.6,2465560.0,36208820.0,1412082298.88,4333568000.0
sz002937,兴瑞科技,2019-12-13,14.72,14.86,14.64,14.78,14.72,2824580.0,41633620.0,1417838069.12,4351232000.0
sz002937,兴瑞科技,2019-12-16,14.81,15.14,14.78,15.14,14.78,4802767.0,72194681.0,1452372690.56,4457216000.0
sz002937,兴瑞科技,2019-12-17,15.14,15.3,15.04,15.18,15.14,4658175.0,70695724.0,1456209870.72,4468992000.0
sz002937,兴瑞科技,2019-12-18,15.25,15.42,15.14,15.35,15.18,4547280.0,69656157.0,1472517886.4,4519040000.0
sz002937,兴瑞科技,2019-12-19,15.34,15.37,15.16,15.3,15.35,3168502.0,48314268.0,1467721411.2,4504320000.0
sz002937,兴瑞科技,2019-12-20,15.22,15.35,14.95,14.96,15.3,3809900.0,57600617.0,1435105379.84,4404224000.0
sz002937,兴瑞科技,2019-12-23,14.96,14.96,14.5,14.5,14.96,2887431.0,42549446.0,1390977808.0,4268800000.0
sz002937,兴瑞科技,2019-12-24,14.5,14.75,14.49,14.7,14.5,1838833.0,26850247.0,1410163708.8,4327680000.0
sz002937,兴瑞科技,2019-12-25,15.0,15.92,14.98,15.39,14.7,8170724.0,125872371.0,1476355066.56,4530816000.0
sz002937,兴瑞科技,2019-12-26,15.18,15.63,15.18,15.58,15.39,7505914.0,116049522.0,1494581672.32,4586752000.0
sz002937,兴瑞科技,2019-12-27,15.59,15.69,15.25,15.31,15.58,4485492.0,69052679.0,1468680706.24,4507264000.0
sz002937,兴瑞科技,2019-12-30,15.21,15.32,14.8,15.2,15.31,3604634.0,54450674.0,1458128460.8,4474880000.0
sz002937,兴瑞科技,2019-12-31,15.29,15.3,15.0,15.15,15.2,3218066.0,48651464.0,1453331985.6,4460160000.0
sz002937,兴瑞科技,2020-01-02,15.24,15.43,15.24,15.4,15.15,3631487.0,55770624.0,1477314361.6,4533760000.0
sz002937,兴瑞科技,2020-01-03,15.4,15.46,15.29,15.43,15.4,3664535.0,56387463.0,1480192246.72,4542592000.0
sz002937,兴瑞科技,2020-01-06,15.28,15.64,15.12,15.55,15.43,5588991.0,86580347.0,1491703787.2,4577920000.0
sz002937,兴瑞科技,2020-01-07,15.51,15.76,15.42,15.75,15.55,6005230.0,93646715.0,1510889688.0,4636800000.0
sz002937,兴瑞科技,2020-01-08,15.75,15.75,15.28,15.3,15.75,5526040.0,85739923.0,1467721411.2,4504320000.0
sz002937,兴瑞科技,2020-01-09,15.46,15.88,15.46,15.88,15.3,8265613.0,130131332.0,1523360523.52,4675072000.0
sz002937,兴瑞科技,2020-01-10,15.98,15.98,15.53,15.72,15.88,5313890.0,83530798.0,1508011802.88,4627968000.0
sz002937,兴瑞科技,2020-01-13,15.7,16.22,15.61,16.2,15.72,7758798.0,124276781.0,1554057964.8,4769280000.0
sz002937,兴瑞科技,2020-01-14,16.22,16.38,16.01,16.06,16.2,5594480.0,90233331.0,1540627834.24,4728064000.0
sz002937,兴瑞科技,2020-01-15,16.15,16.48,15.95,16.21,16.06,5662547.0,91783015.0,1555017259.84,4772224000.0
sz002937,兴瑞科技,2020-01-16,16.22,16.3,15.93,15.94,16.21,5088920.0,81560425.0,1529116293.76,4692736000.0
sz002937,兴瑞科技,2020-01-17,15.93,16.05,15.65,15.72,15.94,3716771.0,58891165.0,1508011802.88,4627968000.0
sz002937,兴瑞科技,2020-01-20,15.73,16.03,15.51,15.99,15.72,3457813.0,54656893.0,1533912768.96,4707456000.0
sz002937,兴瑞科技,2020-01-21,15.97,16.08,15.79,15.84,15.99,3005896.0,47824202.0,1519523343.36,4663296000.0
sz002937,兴瑞科技,2020-01-22,15.83,16.05,15.58,15.99,15.84,3946676.0,62522905.0,1533912768.96,4707456000.0
sz002937,兴瑞科技,2020-01-23,15.8,15.98,15.04,15.23,15.99,5058576.0,78523484.0,1461006345.92,4483712000.0
sz002937,兴瑞科技,2020-02-03,13.71,13.71,13.71,13.71,15.23,653200.0,8955372.0,1315193499.84,4036224000.0
sz002937,兴瑞科技,2020-02-04,12.34,13.23,12.34,13.07,13.71,5707618.0,73836686.0,1253798617.28,3847808000.0
sz002937,兴瑞科技,2020-02-05,13.1,13.56,13.08,13.2,13.07,4815385.0,63985498.0,1266269452.8,3886080000.0
sz002937,兴瑞科技,2020-02-06,13.48,14.15,13.37,14.03,13.2,5889658.0,81488499.0,1345890941.12,4130432000.0
sz002937,兴瑞科技,2020-02-07,14.01,14.44,13.85,14.24,14.03,4809489.0,68137099.0,1366036136.96,4192256000.0
sz002937,兴瑞科技,2020-02-10,14.21,14.89,14.1,14.86,14.24,5144700.0,75362478.0,1425512429.44,4374784000.0
sz002937,兴瑞科技,2020-02-11,15.0,15.64,14.7,15.21,14.86,7046811.0,106728960.0,1459087755.84,4477824000.0
sz002937,兴瑞科技,2020-02-12,15.22,15.47,15.07,15.28,15.21,5254060.0,80142871.0,1465802821.12,4498432000.0
sz002937,兴瑞科技,2020-02-13,15.37,15.73,15.01,15.59,15.28,7629932.0,117680881.0,1495540967.36,4589696000.0
sz002937,兴瑞科技,2020-02-14,15.45,15.57,15.2,15.3,15.59,5374956.0,82672419.0,1467721411.2,4504320000.0
sz002937,兴瑞科技,2020-02-17,15.41,15.74,15.32,15.74,15.3,5672110.0,88218395.0,1509930392.96,4633856000.0
sz002937,兴瑞科技,2020-02-18,15.8,16.05,15.51,15.97,15.74,6889342.0,108623280.0,1531994178.88,4701568000.0
sz002937,兴瑞科技,2020-02-19,15.82,15.96,15.5,15.53,15.97,5135108.0,80772286.0,1489785197.12,4572032000.0
sz002937,兴瑞科技,2020-02-20,15.65,15.86,15.51,15.8,15.53,4956630.0,78030452.0,1515686163.2,4651520000.0
sz002937,兴瑞科技,2020-02-21,15.86,16.45,15.74,16.36,15.8,10005026.0,161743165.0,1569406685.44,4816384000.0
sz002937,兴瑞科技,2020-02-24,16.49,16.94,16.31,16.77,16.36,11665171.0,193908266.0,1608737782.08,4937088000.0
sz002937,兴瑞科技,2020-02-25,16.08,16.55,15.44,16.34,16.77,12090146.0,195580897.0,1567488095.36,4810496000.0
sz002937,兴瑞科技,2020-02-26,15.99,16.26,15.6,15.63,16.34,7632867.0,121388381.0,1499378147.52,4601472000.0
sz002937,兴瑞科技,2020-02-27,15.87,16.06,15.51,15.72,15.63,4999187.0,78882712.0,1508011802.88,4627968000.0
sz002937,兴瑞科技,2020-02-28,15.24,15.24,14.2,14.3,15.72,7754602.0,114522612.0,1371791907.2,4209920000.0
sz002937,兴瑞科技,2020-03-02,14.37,15.2,14.37,15.11,14.3,4976115.0,73963033.0,1449494805.44,4448384000.0
sz002937,兴瑞科技,2020-03-03,15.32,16.05,15.32,15.6,15.11,6573794.0,103134706.0,1496500262.4,4592640000.0
sz002937,兴瑞科技,2020-03-04,15.59,16.67,15.3,16.43,15.6,11334510.0,182273869.0,1576121750.72,4836992000.0
sz002937,兴瑞科技,2020-03-05,16.8,17.03,16.42,16.52,16.43,11482107.0,191663694.0,1584755406.08,4863488000.0
sz002937,兴瑞科技,2020-03-06,16.26,16.99,16.1,16.57,16.52,10058099.0,166931801.0,1589551881.28,4878208000.0
sz002937,兴瑞科技,2020-03-09,16.28,16.95,15.88,16.07,16.57,9303486.0,153140356.0,1541587129.28,4731008000.0
sz002937,兴瑞科技,2020-03-10,15.73,16.78,15.7,16.71,16.07,10632778.0,173327027.0,1602982011.84,4919424000.0
sz002937,兴瑞科技,2020-03-11,16.75,17.49,16.53,17.08,16.71,18979291.0,324503701.0,1638475928.32,5028352000.0
sz002937,兴瑞科技,2020-03-12,16.6,16.79,16.0,16.27,17.08,10541574.0,172577980.0,1560773030.08,4789888000.0
sz002937,兴瑞科技,2020-03-13,15.27,16.03,15.03,15.71,16.27,8975471.0,138916258.0,1507052507.84,4625024000.0
sz002937,兴瑞科技,2020-03-16,15.94,16.03,14.3,14.37,15.71,8830032.0,134239286.0,1378506972.48,4230528000.0
sz002937,兴瑞科技,2020-03-17,14.46,14.88,13.7,14.3,14.37,5912236.0,84752873.0,1371791907.2,4209920000.0
sz002937,兴瑞科技,2020-03-18,14.4,14.67,13.88,13.9,14.3,5310600.0,76226070.0,1333420105.6,4092160000.0
sz002937,兴瑞科技,2020-03-19,13.9,14.3,13.74,14.17,13.9,4348491.0,61001998.0,1359321071.68,4171648000.0
sz002937,兴瑞科技,2020-03-20,14.39,14.49,13.99,14.14,14.17,3663437.0,51961242.0,1356443186.56,4162816000.0
sz002937,兴瑞科技,2020-03-23,13.54,13.69,13.03,13.13,14.14,5043658.0,67418437.0,1259554387.52,3865472000.0
sz002937,兴瑞科技,2020-03-24,13.49,13.5,12.87,13.46,13.13,3922968.0,52190092.0,1291211123.84,3962624000.0
sz002937,兴瑞科技,2020-03-25,13.79,13.97,13.65,13.85,13.46,3970460.0,54793347.0,1328623630.4,4077440000.0
sz002937,兴瑞科技,2020-03-26,13.71,13.78,13.54,13.6,13.85,2951377.0,40286525.0,1304641254.4,4003840000.0
sz002937,兴瑞科技,2020-03-27,13.82,13.95,13.48,13.7,13.6,4017397.0,55168993.0,1314234204.8,4033280000.0
sz002937,兴瑞科技,2020-03-30,13.49,13.49,13.01,13.28,13.7,2874840.0,38035428.0,1273943813.12,3909632000.0
sz002937,兴瑞科技,2020-03-31,13.49,13.55,13.25,13.25,13.28,2078100.0,27813298.0,1271065928.0,3900800000.0
sz002937,兴瑞科技,2020-04-01,13.25,13.52,13.2,13.38,13.25,2059584.0,27576973.0,1283536763.52,3939072000.0
sz002937,兴瑞科技,2020-04-02,13.36,13.81,13.26,13.78,13.38,3024856.0,41028575.0,1321908565.12,4056832000.0
sz002937,兴瑞科技,2020-04-03,13.7,13.71,13.43,13.51,13.78,2416678.0,32755345.0,1296007599.04,3977344000.0
sz002937,兴瑞科技,2020-04-07,13.84,13.94,13.69,13.9,13.51,3407147.0,47077651.0,1333420105.6,4092160000.0
sz002937,兴瑞科技,2020-04-08,13.8,14.09,13.71,13.95,13.9,3173607.0,44135576.0,1338216580.8,4106880000.0
sz002937,兴瑞科技,2020-04-09,14.15,14.23,13.94,13.98,13.95,2894731.0,40689545.0,1341094465.92,4115712000.0
sz002937,兴瑞科技,2020-04-10,13.94,14.0,13.43,13.52,13.98,2948720.0,40229787.0,1296966894.08,3980288000.0
sz002937,兴瑞科技,2020-04-13,13.53,13.53,13.21,13.25,13.52,1937731.0,25755573.0,1271065928.0,3900800000.0
sz002937,兴瑞科技,2020-04-14,13.38,13.46,13.27,13.46,13.25,1748340.0,23379127.0,1291211123.84,3962624000.0
sz002937,兴瑞科技,2020-04-15,13.46,13.49,13.22,13.25,13.46,1882667.0,25142313.0,1271065928.0,3900800000.0
sz002937,兴瑞科技,2020-04-16,13.2,13.35,13.03,13.35,13.25,1695020.0,22382871.0,1280658878.4,3930240000.0
sz002937,兴瑞科技,2020-04-17,13.4,13.55,13.32,13.34,13.35,2308707.0,30991116.0,1279699583.36,3927296000.0
sz002937,兴瑞科技,2020-04-20,13.36,13.47,13.23,13.45,13.34,1773927.0,23713776.0,1290251828.8,3959680000.0
sz002937,兴瑞科技,2020-04-21,13.4,13.4,13.11,13.25,13.45,1952935.0,25829487.0,1271065928.0,3900800000.0
sz002937,兴瑞科技,2020-04-22,13.12,13.36,13.12,13.34,13.25,1335657.0,17719716.0,1279699583.36,3927296000.0
sz002937,兴瑞科技,2020-04-23,13.34,13.4,13.2,13.25,13.34,1671160.0,22173443.0,1271065928.0,3900800000.0
sz002937,兴瑞科技,2020-04-24,13.39,13.39,13.02,13.08,13.25,1962260.0,25857071.0,1254757912.32,3850752000.0
sz002937,兴瑞科技,2020-04-27,13.13,13.35,12.8,12.8,13.08,2070577.0,26706432.0,1227897651.2,3768320000.0
sz002937,兴瑞科技,2020-04-28,12.79,12.79,11.84,12.38,12.8,2839880.0,34920406.0,1187607259.52,3644672000.0
sz002937,兴瑞科技,2020-04-29,12.26,12.45,12.11,12.28,12.26,1456000.0,17945485.0,1178014309.12,3615232000.0
sz002937,兴瑞科技,2020-04-30,12.32,12.82,12.32,12.75,12.28,2298300.0,29054522.0,1223101176.0,3753600000.0
sz002937,兴瑞科技,2020-05-06,12.65,13.05,12.58,13.04,12.75,2376891.0,30676048.0,1250920732.16,3838976000.0
sz002937,兴瑞科技,2020-05-07,13.18,13.35,12.96,13.01,13.04,2629340.0,34588382.0,1248042847.04,3830144000.0
sz002937,兴瑞科技,2020-05-08,13.11,13.32,13.1,13.18,13.01,2558560.0,33817221.0,1264350862.72,3880192000.0
sz002937,兴瑞科技,2020-05-11,13.26,13.37,13.14,13.23,13.18,2343260.0,31093345.0,1269147337.92,3894912000.0
sz002937,兴瑞科技,2020-05-12,13.23,14.55,12.91,14.55,13.23,11730919.0,166809374.0,1395774283.2,4283520000.0
sz002937,兴瑞科技,2020-05-13,14.2,14.62,14.02,14.33,14.55,10815007.0,154444281.0,1374669792.32,4218752000.0
sz002937,兴瑞科技,2020-05-14,14.13,14.21,13.93,14.12,14.33,5024460.0,70608717.0,1354524596.48,4156928000.0
sz002937,兴瑞科技,2020-05-15,14.15,14.19,13.83,13.85,14.12,4189400.0,58619871.0,1328623630.4,4077440000.0
sz002937,兴瑞科技,2020-05-18,13.98,14.47,13.56,14.11,13.85,6551718.0,91261575.0,1353565301.44,4153984000.0
sz002937,兴瑞科技,2020-05-19,14.16,14.17,13.87,14.02,14.11,3469291.0,48516127.0,1344931646.08,4127488000.0
sz002937,兴瑞科技,2020-05-20,14.0,14.45,13.92,13.94,14.02,5027987.0,71065152.0,1337257285.76,4103936000.0
sz002937,兴瑞科技,2020-05-21,13.85,14.47,13.85,14.09,13.94,5445591.0,77380883.0,1351646711.36,4148096000.0
sz002937,兴瑞科技,2020-05-22,13.99,13.99,13.46,13.49,14.09,3958240.0,54067909.0,1294089008.96,3971456000.0
sz002937,兴瑞科技,2020-05-25,13.4,13.49,12.91,13.11,13.49,3413214.0,44723774.0,1257635797.44,3859584000.0
sz002937,兴瑞科技,2020-05-26,13.15,13.44,13.14,13.35,13.11,2396527.0,31824408.0,1280658878.4,3930240000.0
sz002937,兴瑞科技,2020-05-27,13.45,14.69,13.4,14.55,13.35,16594914.0,239211961.0,1395774283.2,4283520000.0
sz002937,兴瑞科技,2020-05-28,14.33,14.33,13.69,14.0,14.55,11332500.0,158934079.0,1343013056.0,4121600000.0
sz002937,兴瑞科技,2020-05-29,13.91,14.37,13.81,14.18,14.0,7289263.0,103474676.0,1360280366.72,4174592000.0
sz002937,兴瑞科技,2020-06-01,14.19,14.59,14.1,14.45,14.18,7631788.0,110076239.0,1386181332.8,4254080000.0
sz002937,兴瑞科技,2020-06-02,14.5,14.66,14.31,14.61,14.45,6464412.0,94054906.0,1401530053.44,4301184000.0
sz002937,兴瑞科技,2020-06-03,14.53,14.63,14.2,14.23,14.61,6448700.0,92627082.0,1365076841.92,4189312000.0
sz002937,兴瑞科技,2020-06-04,14.2,14.89,14.12,14.69,14.23,7998472.0,116592453.0,1409204413.76,4324736000.0
sz002937,兴瑞科技,2020-06-05,14.71,14.86,14.39,14.79,14.69,7930092.0,116325152.0,1418797364.16,4354176000.0
sz002937,兴瑞科技,2020-06-08,14.96,15.23,14.58,14.61,14.79,7189940.0,106593220.0,1401530053.44,4301184000.0
sz002937,兴瑞科技,2020-06-09,14.55,14.74,14.35,14.42,14.61,4217960.0,61110155.0,1383303447.68,4245248000.0
sz002937,兴瑞科技,2020-06-10,14.39,14.41,14.2,14.28,14.42,3029040.0,43228083.0,1369873317.12,4204032000.0
sz002937,兴瑞科技,2020-06-11,14.26,14.53,14.12,14.27,14.28,3314480.0,47524997.0,1368914022.08,4201088000.0
sz002937,兴瑞科技,2020-06-12,13.92,14.48,13.83,14.3,14.27,3293940.0,46767412.0,1371791907.2,4209920000.0
sz002937,兴瑞科技,2020-06-15,14.14,14.4,14.12,14.12,14.3,2576386.0,36650749.0,1354524596.4799998,4156928000.0
sz002937,兴瑞科技,2020-06-16,14.36,14.5,14.21,14.45,14.12,3343382.0,48187697.0,1386181332.8000002,4254080000.0
sz002937,兴瑞科技,2020-06-17,14.5,14.52,14.19,14.33,14.45,2768900.0,39574689.0,1374669792.3200002,4218752000.0
sz002937,兴瑞科技,2020-06-18,14.31,14.43,14.22,14.37,14.33,2442791.0,35039044.0,1378506972.48,4230528000.0
sz002937,兴瑞科技,2020-06-19,14.4,14.89,14.31,14.83,14.37,6645152.0,97401160.0,1422634544.32,4365952000.0
sz002937,兴瑞科技,2020-06-22,14.85,14.97,14.64,14.86,14.83,4492520.0,66301088.0,1425512429.44,4374784000.0
sz002937,兴瑞科技,2020-06-23,14.81,14.86,14.5,14.53,14.86,3110759.0,45521852.0,1393855693.12,4277632000.0
sz002937,兴瑞科技,2020-06-24,14.48,14.67,14.34,14.36,14.53,2418920.0,34943391.0,1377547677.44,4227584000.0
sz002937,兴瑞科技,2020-06-29,14.36,14.39,13.98,14.03,14.36,3059760.0,43169198.0,1345890941.12,4130432000.0
sz002937,兴瑞科技,2020-06-30,14.3,14.35,14.09,14.12,14.03,2603470.0,36978966.0,1354524596.4799998,4156928000.0
sz002937,兴瑞科技,2020-07-01,14.12,14.32,13.9,14.12,14.12,3374640.0,47639573.0,1354524596.4799998,4156928000.0
sz002937,兴瑞科技,2020-07-02,14.05,14.31,14.05,14.28,14.12,3781293.0,53603887.0,1369873317.12,4204032000.0
sz002937,兴瑞科技,2020-07-03,14.26,14.94,14.22,14.84,14.28,8603609.0,126445234.0,1423593839.36,4368896000.0
sz002937,兴瑞科技,2020-07-06,14.99,15.53,14.81,15.36,14.84,9602600.0,145912064.0,1473477181.44,4521984000.0
sz002937,兴瑞科技,2020-07-07,15.28,15.9,15.07,15.6,15.36,9518004.0,148679662.0,1496500262.4,4592640000.0
sz002937,兴瑞科技,2020-07-08,15.58,15.75,15.41,15.6,15.6,6593180.0,102665039.0,1496500262.4,4592640000.0
sz002937,兴瑞科技,2020-07-09,15.62,16.33,15.55,16.15,15.6,8970191.0,143041780.0,1549261489.6,4754560000.0
sz002937,兴瑞科技,2020-07-10,16.07,16.36,15.71,15.97,16.15,7014420.0,112289219.0,1531994178.88,4701568000.0
sz002937,兴瑞科技,2020-07-13,16.05,16.26,15.91,16.24,15.97,6181372.0,99744378.0,1557895144.9599998,4781056000.0
sz002937,兴瑞科技,2020-07-14,16.3,16.3,15.45,15.9,16.24,7658499.0,121455216.0,1525279113.6,4680960000.0
sz002937,兴瑞科技,2020-07-15,15.99,16.1,15.3,15.45,15.9,5307762.0,82832947.0,1482110836.8000002,4548480000.0
sz002937,兴瑞科技,2020-07-16,15.48,15.61,14.54,14.59,15.45,4646660.0,70475053.0,1399611463.36,4295296000.0
sz002937,兴瑞科技,2020-07-17,14.59,14.82,14.41,14.77,14.59,3235811.0,47333999.0,1416878774.08,4348288000.0
sz002937,兴瑞科技,2020-07-20,14.87,16.06,14.87,16.04,14.77,8560834.0,134554671.0,1538709244.1599998,4722176000.0
sz002937,兴瑞科技,2020-07-21,16.1,16.76,16.0,16.51,16.04,11272809.0,185567003.0,1583796111.0400002,4860544000.0
sz002937,兴瑞科技,2020-07-22,16.58,16.76,16.31,16.43,16.51,7377350.0,121695988.0,1576121750.72,4836992000.0
sz002937,兴瑞科技,2020-07-23,16.38,16.41,15.8,16.19,16.43,6702020.0,108168854.0,1553098669.76,4766336000.0
sz002937,兴瑞科技,2020-07-24,16.18,16.32,15.23,15.3,16.19,5638380.0,88513285.0,1467721411.1999998,4504320000.0
sz002937,兴瑞科技,2020-07-27,15.4,15.6,15.15,15.36,15.3,3891371.0,59763339.0,1473477181.44,4521984000.0
sz002937,兴瑞科技,2020-07-28,15.55,16.33,15.1,15.29,15.36,5592240.0,87240842.0,1466762116.1599998,4501376000.0
sz002937,兴瑞科技,2020-07-29,15.25,15.8,15.08,15.68,15.29,4721714.0,72867007.0,1504174622.72,4616192000.0
sz002937,兴瑞科技,2020-07-30,16.07,16.07,15.44,15.49,15.68,4621817.0,72309216.0,1485948016.96,4560256000.0
sz002937,兴瑞科技,2020-07-31,15.44,16.58,15.44,16.01,15.49,7521683.0,119928021.0,1535831359.04,4713344000.0
sz002937,兴瑞科技,2020-08-03,16.3,16.37,15.88,16.29,16.01,6914260.0,111749606.0,1562691620.1599998,4795776000.0
sz002937,兴瑞科技,2020-08-04,16.33,16.35,15.92,15.98,16.29,4486500.0,72121514.0,1532953473.92,4704512000.0
sz002937,兴瑞科技,2020-08-05,16.1,16.15,15.8,16.08,15.98,3677186.0,58807988.0,1542546424.32,4733952000.0
sz002937,兴瑞科技,2020-08-06,15.99,16.06,15.55,15.88,16.08,4123960.0,65100260.0,1523360523.52,4675072000.0
sz002937,兴瑞科技,2020-08-07,15.88,16.37,15.51,15.59,15.88,5770439.0,91584448.0,1495540967.36,4589696000.0
sz002937,兴瑞科技,2020-08-10,15.38,15.75,15.28,15.53,15.59,3994660.0,61661060.0,1489785197.12,4572032000.0
sz002937,兴瑞科技,2020-08-11,15.57,15.59,15.01,15.05,15.53,3855436.0,58933134.0,1443739035.1999998,4430720000.0
sz002937,兴瑞科技,2020-08-12,15.05,15.14,14.5,14.85,15.05,3911456.0,57614984.0,1424553134.4,4371840000.0
sz002937,兴瑞科技,2020-08-13,14.9,15.05,14.7,14.78,14.85,2535800.0,37663499.0,1417838069.12,4351232000.0
sz002937,兴瑞科技,2020-08-14,14.87,15.1,14.74,15.1,14.78,2178360.0,32496377.0,1448535510.4,4445440000.0
sz002937,兴瑞科技,2020-08-17,15.1,15.24,14.95,15.2,15.1,3033540.0,45907560.0,1458128460.8,4474880000.0
sz002937,兴瑞科技,2020-08-18,15.25,15.27,14.95,14.97,15.2,2983640.0,44928542.0,1436064674.88,4407168000.0
sz002937,兴瑞科技,2020-08-19,15.05,15.05,14.75,14.77,14.97,2403720.0,35689511.0,1416878774.08,4348288000.0
sz002937,兴瑞科技,2020-08-20,14.7,14.94,14.58,14.8,14.77,1766700.0,26134278.0,1419756659.2,4357120000.0
sz002937,兴瑞科技,2020-08-21,14.82,15.22,14.82,15.08,14.8,2826678.0,42372509.0,1446616920.32,4439552000.0
sz002937,兴瑞科技,2020-08-24,15.0,15.62,14.99,15.48,15.08,4668619.0,71623861.0,1484988721.92,4557312000.0
sz002937,兴瑞科技,2020-08-25,15.3,15.38,15.12,15.17,15.48,3141156.0,47764464.0,1442735022.28,4466048000.0
sz002937,兴瑞科技,2020-08-26,15.35,15.35,14.75,14.75,15.17,2644560.0,39541689.0,1402791139.0,4342400000.0
sz002937,兴瑞科技,2020-08-27,14.76,15.07,14.66,14.93,14.75,2160845.0,32181570.0,1419909946.12,4395392000.0
sz002937,兴瑞科技,2020-08-28,14.93,15.03,14.7,14.94,14.93,2032575.0,30154058.0,1420860990.9599998,4398336000.0
sz002937,兴瑞科技,2020-08-31,14.95,15.29,14.95,15.0,14.94,2419580.0,36643603.0,1426567260.0,4416000000.0
sz002937,兴瑞科技,2020-09-01,15.02,15.13,14.85,15.09,15.0,1597400.0,23968362.0,1435126663.56,4442496000.0
sz002937,兴瑞科技,2020-09-02,15.1,15.55,15.06,15.44,15.09,4195839.0,64349959.0,1468413232.9599998,4545536000.0
sz002937,兴瑞科技,2020-09-03,15.44,16.18,15.22,16.0,15.44,8696334.0,136411570.0,1521671744.0,4710400000.0
sz002937,兴瑞科技,2020-09-04,15.7,16.72,15.5,15.73,16.0,7718224.0,122271937.0,1495993533.32,4630912000.0
sz002937,兴瑞科技,2020-09-07,15.57,15.8,15.38,15.45,15.73,3607269.0,56114393.0,1469364277.8,4548480000.0
sz002937,兴瑞科技,2020-09-08,15.39,15.6,15.31,15.58,15.45,2394379.0,37076685.0,1481727860.7199998,4586752000.0
sz002937,兴瑞科技,2020-09-09,15.4,15.43,14.73,14.85,15.58,4655418.0,70303925.0,1412301587.4,4371840000.0
sz002937,兴瑞科技,2020-09-10,14.92,14.98,13.82,14.22,14.85,4304599.0,62235550.0,1352385762.48,4186368000.0
sz002937,兴瑞科技,2020-09-11,13.97,14.38,13.95,14.29,14.22,1720140.0,24439999.0,1359043076.36,4206976000.0
sz002937,兴瑞科技,2020-09-14,14.4,14.44,14.04,14.3,14.29,2826420.0,40227507.0,1359994121.2,4209920000.0
sz002937,兴瑞科技,2020-09-15,14.32,14.32,14.03,14.12,14.3,1799660.0,25480946.0,1342875314.0800002,4156928000.0
sz002937,兴瑞科技,2020-09-16,14.05,14.14,13.8,13.94,14.12,1751000.0,24442958.0,1325756506.96,4103936000.0
sz002937,兴瑞科技,2020-09-17,13.94,14.59,13.9,14.42,13.94,2584011.0,36893408.0,1371406659.28,4245248000.0
sz002937,兴瑞科技,2020-09-18,14.48,14.48,14.24,14.29,14.42,1905380.0,27282159.0,1359043076.36,4206976000.0
sz002937,兴瑞科技,2020-09-21,14.31,14.33,14.09,14.16,14.29,2551480.0,36196317.0,1346679493.4399998,4168704000.0
sz002937,兴瑞科技,2020-09-22,14.0,14.04,13.78,13.8,14.16,2471606.0,34284201.0,1312441879.2,4062720000.0
sz002937,兴瑞科技,2020-09-23,13.81,13.93,13.76,13.87,13.8,1897060.0,26221017.0,1319099193.0800002,4083328000.0
sz002937,兴瑞科技,2020-09-24,13.78,13.79,13.55,13.58,13.87,1629075.0,22193989.0,1291518892.72,3997952000.0
sz002937,兴瑞科技,2020-09-25,13.71,13.71,13.33,13.43,13.58,1483100.0,19938711.0,1277253220.12,3953792000.0
sz002937,兴瑞科技,2020-09-28,13.48,13.68,13.25,13.25,13.43,1002360.0,13346445.0,1260134413.0,3900800000.0
sz002937,兴瑞科技,2020-09-29,13.25,13.49,13.25,13.39,13.25,792444.0,10627243.0,1273449040.76,3942016000.0
sz002937,兴瑞科技,2020-09-30,13.52,13.65,13.4,13.55,13.39,1062061.0,14337091.0,1321964937.4,3989120000.0
sz002937,兴瑞科技,2020-10-09,13.67,13.88,13.67,13.88,13.55,1233020.0,17023534.0,1354160393.4399998,4086272000.0
sz002937,兴瑞科技,2020-10-12,13.98,14.12,13.9,14.1,13.88,1775081.0,24891063.0,1375624030.8,4151040000.0
sz002937,兴瑞科技,2020-10-13,14.09,14.09,13.92,14.03,14.1,1518520.0,21233406.0,1368794691.64,4130432000.0
sz002937,兴瑞科技,2020-10-14,14.0,14.04,13.78,13.81,14.03,1357160.0,18822296.0,1347331054.2800002,4065664000.0
sz002937,兴瑞科技,2020-10-15,13.75,13.95,13.74,13.75,13.81,1004500.0,13877574.0,1341477335.0,4048000000.0
sz002937,兴瑞科技,2020-10-16,13.76,13.79,13.63,13.74,13.75,971000.0,13299919.0,1340501715.12,4045056000.0
sz002937,兴瑞科技,2020-10-19,13.75,13.85,13.69,13.82,13.74,1252340.0,17263235.0,1348306674.16,4068608000.0
sz002937,兴瑞科技,2020-10-20,13.71,14.28,13.66,14.16,13.82,2804740.0,39371840.0,1381477750.08,4168704000.0
sz002937,兴瑞科技,2020-10-21,14.13,14.2,13.96,14.08,14.16,1423020.0,20030931.0,1373672791.04,4145152000.0
sz002937,兴瑞科技,2020-10-22,14.09,14.2,13.93,14.04,14.08,1203820.0,16956538.0,1369770311.5200002,4133376000.0
sz002937,兴瑞科技,2020-10-23,14.09,14.16,13.87,13.88,14.04,1106101.0,15470190.0,1354160393.4399998,4086272000.0
sz002937,兴瑞科技,2020-10-26,13.81,13.83,13.57,13.7,13.88,1747900.0,23910686.0,1336599235.6,4033280000.0
sz002937,兴瑞科技,2020-10-27,13.68,13.76,13.48,13.68,13.7,1320103.0,17959802.0,1334647995.84,4027392000.0
sz002937,兴瑞科技,2020-10-28,13.64,13.82,13.5,13.76,13.68,1010905.0,13798296.0,1342452954.88,4050944000.0
sz002937,兴瑞科技,2020-10-29,13.72,13.87,13.54,13.76,13.76,1274643.0,17520670.0,1342452954.88,4050944000.0
sz002937,兴瑞科技,2020-10-30,13.73,13.82,13.37,13.45,13.76,1412980.0,19152166.0,1312208738.6,3959680000.0
sz002937,兴瑞科技,2020-11-02,13.45,13.81,13.27,13.64,13.45,2645672.0,35889465.0,1330745516.32,4015616000.0
sz002937,兴瑞科技,2020-11-03,13.65,13.95,13.65,13.9,13.64,1636726.0,22652326.0,1356111633.1999998,4092160000.0
sz002937,兴瑞科技,2020-11-04,13.93,14.07,13.76,14.0,13.9,1354008.0,18843770.0,1365867832.0,4121600000.0
sz002937,兴瑞科技,2020-11-05,14.06,14.22,13.89,14.15,14.0,2597700.0,36668082.0,1380502130.2,4165760000.0
sz002937,兴瑞科技,2020-11-06,14.16,14.18,13.96,14.03,14.15,1452565.0,20413537.0,1368794691.64,4130432000.0
sz002937,兴瑞科技,2020-11-09,14.05,14.38,14.05,14.22,14.03,2529786.0,36020944.0,1387331469.36,4186368000.0
sz002937,兴瑞科技,2020-11-10,14.22,14.31,14.11,14.21,14.22,1703600.0,24183227.0,1386355849.48,4183424000.0
sz002937,兴瑞科技,2020-11-11,14.17,14.22,13.99,14.01,14.21,1277180.0,17956516.0,1366843451.88,4124544000.0
sz002937,兴瑞科技,2020-11-12,14.07,14.14,13.98,14.08,14.01,899725.0,12641676.0,1373672791.04,4145152000.0
sz002937,兴瑞科技,2020-11-13,14.08,14.21,13.99,14.18,14.08,976260.0,13786294.0,1383428989.84,4174592000.0
sz002937,兴瑞科技,2020-11-16,14.27,14.55,14.03,14.53,14.18,3460634.0,49973479.0,1417575685.64,4277632000.0
sz002937,兴瑞科技,2020-11-17,14.53,14.53,14.12,14.22,14.53,2355635.0,33570203.0,1387331469.36,4186368000.0
sz002937,兴瑞科技,2020-11-18,14.29,14.5,14.23,14.32,14.22,1575051.0,22601801.0,1397087668.1599998,4215808000.0
sz002937,兴瑞科技,2020-11-19,14.25,14.43,14.25,14.38,14.32,1340865.0,19219728.0,1402941387.44,4233472000.0
sz002937,兴瑞科技,2020-11-20,14.4,14.49,14.27,14.47,14.38,1467328.0,21114671.0,1411721966.36,4259968000.0
sz002937,兴瑞科技,2020-11-23,14.52,14.56,14.35,14.47,14.47,1661323.0,24023475.0,1411721966.36,4259968000.0
sz002937,兴瑞科技,2020-11-24,14.44,14.55,14.41,14.47,14.47,1072585.0,15530925.0,1411721966.36,4259968000.0
sz002937,兴瑞科技,2020-11-25,14.51,14.8,14.46,14.62,14.47,3144942.0,46058780.0,1426356264.56,4304128000.0
sz002937,兴瑞科技,2020-11-26,14.67,14.75,14.23,14.31,14.62,2442489.0,35295882.0,1396112048.28,4212864000.0
sz002937,兴瑞科技,2020-11-27,14.22,14.39,14.07,14.18,14.31,1599751.0,22685512.0,1383428989.84,4174592000.0
sz002937,兴瑞科技,2020-11-30,14.25,14.35,14.17,14.17,14.18,1026522.0,14620878.0,1382453369.96,4171648000.0
sz002937,兴瑞科技,2020-12-01,14.17,14.39,14.06,14.3,14.17,1475600.0,20974999.0,1395136428.4,4209920000.0
sz002937,兴瑞科技,2020-12-02,14.3,14.39,14.18,14.24,14.3,1268240.0,18076609.0,1389282709.12,4192256000.0
sz002937,兴瑞科技,2020-12-03,14.24,14.26,14.1,14.14,14.24,881100.0,12482992.0,1379526510.32,4162816000.0
sz002937,兴瑞科技,2020-12-04,14.11,14.23,14.09,14.18,14.14,1170820.0,16564475.0,1383428989.84,4174592000.0
sz002937,兴瑞科技,2020-12-07,14.26,14.26,13.68,13.77,14.18,2170291.0,30237616.0,1343428574.76,4053888000.0
sz002937,兴瑞科技,2020-12-08,13.77,13.9,13.57,13.82,13.77,1237599.0,16945845.0,1348306674.16,4068608000.0
sz002937,兴瑞科技,2020-12-09,13.83,13.86,13.47,13.48,13.82,1462760.0,19947210.0,1315135598.24,3968512000.0
sz002937,兴瑞科技,2020-12-10,13.41,13.61,13.29,13.4,13.48,982620.0,13200164.0,1307330639.2,3944960000.0
sz002937,兴瑞科技,2020-12-11,13.51,13.51,13.14,13.28,13.4,1064071.0,14117122.0,1295623200.64,3909632000.0
sz002937,兴瑞科技,2020-12-14,13.28,13.34,13.1,13.28,13.28,810700.0,10723285.0,1295623200.64,3909632000.0
sz002937,兴瑞科技,2020-12-15,13.3,13.55,13.21,13.38,13.28,644580.0,8619654.0,1305379399.44,3939072000.0
sz002937,兴瑞科技,2020-12-16,13.32,13.44,13.21,13.28,13.38,537020.0,7147335.0,1295623200.64,3909632000.0
sz002937,兴瑞科技,2020-12-17,13.28,13.36,13.14,13.35,13.28,639740.0,8482759.0,1302452539.8,3930240000.0
sz002937,兴瑞科技,2020-12-18,13.35,13.43,13.18,13.25,13.35,542448.0,7193670.0,1292696341.0,3900800000.0
sz002937,兴瑞科技,2020-12-21,13.25,13.44,13.12,13.35,13.25,1030360.0,13759482.0,1302452539.8,3930240000.0
sz002937,兴瑞科技,2020-12-22,13.37,13.52,13.0,13.05,13.35,1399820.0,18565771.0,1273183943.4,3841920000.0
sz002937,兴瑞科技,2020-12-23,13.06,13.18,12.87,12.96,13.05,1111680.0,14417617.0,1264403364.48,3815424000.0
sz002937,兴瑞科技,2020-12-24,13.06,13.06,12.37,12.48,12.96,1805780.0,22763717.0,1217573610.24,3674112000.0
sz002937,兴瑞科技,2020-12-25,12.43,12.68,12.4,12.53,12.48,879914.0,11028630.0,1222451709.64,3688832000.0
sz002937,兴瑞科技,2020-12-28,12.59,12.59,12.04,12.06,12.53,1463240.0,17846831.0,1176597575.28,3550464000.0
sz002937,兴瑞科技,2020-12-29,11.99,12.47,11.99,12.26,12.06,1223122.0,15001756.0,1196109972.88,3609344000.0
sz002937,兴瑞科技,2020-12-30,12.26,12.55,12.22,12.4,12.26,1255720.0,15627523.0,1209768651.2,3650560000.0
sz002937,兴瑞科技,2020-12-31,12.41,12.63,12.4,12.6,12.4,780382.0,9775942.0,1229281048.8,3709440000.0
sz002937,兴瑞科技,2021-01-04,12.6,13.21,12.41,13.11,12.6,2229465.0,28846917.0,1279037662.68,3859584000.0
sz002937,兴瑞科技,2021-01-05,13.11,13.44,13.05,13.17,13.11,1740360.0,23027340.0,1284891381.96,3877248000.0
sz002937,兴瑞科技,2021-01-06,13.18,13.3,12.77,12.8,13.17,2074240.0,26848903.0,1248793446.4,3768320000.0
sz002937,兴瑞科技,2021-01-07,12.97,13.02,12.51,12.8,12.8,2014880.0,25650291.0,1248793446.4,3768320000.0
sz002937,兴瑞科技,2021-01-08,12.79,12.82,12.52,12.8,12.8,723160.0,9190204.0,1248793446.4,3768320000.0
sz002937,兴瑞科技,2021-01-11,12.89,12.9,12.01,12.38,12.8,1640680.0,20394265.0,1207817411.44,3644672000.0
sz002937,兴瑞科技,2021-01-12,12.47,12.85,12.19,12.78,12.38,1535640.0,19228116.0,1246842206.64,3762432000.0
sz002937,兴瑞科技,2021-01-13,12.78,13.55,12.76,13.2,12.78,3769256.0,49936497.0,1287818241.6,3886080000.0
sz002937,兴瑞科技,2021-01-14,13.2,13.33,12.96,12.97,13.2,2417620.0,31688340.0,1265378984.36,3818368000.0
sz002937,兴瑞科技,2021-01-15,12.89,13.13,12.75,12.95,12.97,988676.0,12796689.0,1263427744.6,3812480000.0
sz002937,兴瑞科技,2021-01-18,12.89,13.11,12.88,13.09,12.95,1006324.0,13115524.0,1277086422.92,3853696000.0
sz002937,兴瑞科技,2021-01-19,13.07,13.15,12.89,12.98,13.09,1020800.0,13274173.0,1266354604.24,3821312000.0
sz002937,兴瑞科技,2021-01-20,13.09,13.11,12.98,13.07,12.98,833580.0,10880069.0,1275135183.16,3847808000.0
sz002937,兴瑞科技,2021-01-21,13.08,13.09,12.87,12.88,13.07,1229559.0,15953323.0,1256598405.44,3791872000.0
sz002937,兴瑞科技,2021-01-22,12.86,12.86,12.46,12.49,12.88,1512840.0,19078308.0,1218549230.12,3677056000.0
sz002937,兴瑞科技,2021-01-25,12.35,12.56,12.25,12.27,12.49,1049820.0,13010490.0,1197085592.76,3612288000.0
sz002937,兴瑞科技,2021-01-26,12.28,12.37,12.1,12.16,12.27,1305313.0,15904865.0,1186353774.08,3579904000.0
sz002937,兴瑞科技,2021-01-27,12.23,12.23,12.08,12.19,12.16,524568.0,6373786.0,1189280633.72,3588736000.0
sz002937,兴瑞科技,2021-01-28,12.32,12.44,12.18,12.28,12.19,597260.0,7351240.0,1198061212.64,3615232000.0
sz002937,兴瑞科技,2021-01-29,12.29,12.76,12.25,12.6,12.28,2062640.0,25983621.0,1229281048.8,3709440000.0
sz002937,兴瑞科技,2021-02-01,12.54,12.94,12.51,12.8,12.6,1537313.0,19672290.0,1248793446.4,3768320000.0
sz002937,兴瑞科技,2021-02-02,12.8,12.89,12.35,12.38,12.8,1475860.0,18605887.0,1207817411.44,3644672000.0
sz002937,兴瑞科技,2021-02-03,12.39,12.45,12.1,12.15,12.38,1085120.0,13212265.0,1185378154.2,3576960000.0
sz002937,兴瑞科技,2021-02-04,12.07,12.23,12.01,12.08,12.15,808760.0,9780550.0,1178548815.04,3556352000.0
sz002937,兴瑞科技,2021-02-05,12.03,12.19,11.4,11.43,12.08,2041788.0,23867680.0,1115133522.84,3364992000.0
sz002937,兴瑞科技,2021-02-08,11.48,11.58,11.44,11.54,11.43,731680.0,8431295.0,1125865341.52,3397376000.0
sz002937,兴瑞科技,2021-02-09,11.54,11.62,11.45,11.59,11.54,695240.0,8033576.0,1130743440.92,3412096000.0
sz002937,兴瑞科技,2021-02-10,11.59,11.67,11.54,11.64,11.59,512140.0,5957710.0,1135621540.3200002,3463208460.0
sz002937,兴瑞科技,2021-02-18,11.77,11.96,11.74,11.88,11.64,665420.0,7899501.0,1159036417.4399998,3534614820.0
sz002937,兴瑞科技,2021-02-19,11.81,12.2,11.81,12.17,11.88,751780.0,9090767.0,1187329393.96,3620897505.0
sz002937,兴瑞科技,2021-02-22,12.17,12.5,12.17,12.21,12.17,1281040.0,15805698.0,1191231873.48,3632798565.0
sz002937,兴瑞科技,2021-02-23,12.21,12.32,11.98,12.03,12.21,1210860.0,14674739.0,1173670715.64,3579243795.0
sz002937,兴瑞科技,2021-02-24,12.09,12.2,12.03,12.17,12.03,769800.0,9346616.0,1187329393.96,3620897505.0
sz002937,兴瑞科技,2021-02-25,12.25,12.46,11.92,11.93,12.17,828540.0,9995080.0,1163914516.84,3549491145.0000005
sz002937,兴瑞科技,2021-02-26,11.93,12.03,11.82,11.93,11.93,621100.0,7414420.0,1163914516.84,3549491145.0000005
sz002937,兴瑞科技,2021-03-01,12.05,12.43,11.91,12.39,11.93,2123229.0,25993307.0,1208793031.32,3686353335.0
sz002937,兴瑞科技,2021-03-02,12.47,12.52,12.2,12.32,12.39,778200.0,9603301.0,1201963692.16,3665526480.0
sz002937,兴瑞科技,2021-03-03,12.37,12.84,12.37,12.8,12.32,2426244.0,30708441.0,1248793446.4,3808339200.0
sz002937,兴瑞科技,2021-03-04,12.77,13.22,12.7,12.91,12.8,2419801.0,31358665.0,1259525265.08,3841067115.0
sz002937,兴瑞科技,2021-03-05,12.96,13.17,12.72,13.03,12.91,1470510.0,18996055.0,1271232703.64,3876770295.0
sz002937,兴瑞科技,2021-03-08,13.07,13.07,12.66,12.69,13.03,1335044.0,17120029.0,1238061627.72,3775611285.0
sz002937,兴瑞科技,2021-03-09,12.57,12.79,12.31,12.49,12.69,898140.0,11237495.0,1218549230.12,3716105985.0
sz002937,兴瑞科技,2021-03-10,12.6,12.64,12.43,12.53,12.49,607080.0,7596080.0,1222451709.64,3728007045.0
sz002937,兴瑞科技,2021-03-11,12.53,12.78,12.38,12.64,12.53,852940.0,10759917.0,1233183528.32,3760734960.0
sz002937,兴瑞科技,2021-03-12,12.7,12.7,12.37,12.44,12.64,792340.0,9892837.0,1213671130.72,3701229660.0
sz002937,兴瑞科技,2021-03-15,12.61,12.61,12.39,12.47,12.44,448351.0,5587148.0,1216597990.36,3710155455.0
sz002937,兴瑞科技,2021-03-16,12.5,12.65,12.4,12.65,12.47,753740.0,9481698.0,1234159148.2,3763710225.0
sz002937,兴瑞科技,2021-03-17,12.7,12.7,12.53,12.62,12.65,478240.0,6036287.0,1231232288.56,3754784430.000001
sz002937,兴瑞科技,2021-03-18,12.7,12.7,12.54,12.63,12.62,509080.0,6422648.0,1232207908.44,3757759695.0
sz002937,兴瑞科技,2021-03-19,12.51,12.75,12.5,12.6,12.63,658541.0,8335403.0,1229281048.8,3748833900.0
sz002937,兴瑞科技,2021-03-22,12.6,12.82,12.57,12.81,12.6,625600.0,7966412.0,1249769066.28,3811314465.0
sz002937,兴瑞科技,2021-03-23,12.73,13.12,12.73,12.96,12.81,1427904.0,18498939.0,1264403364.48,3855943440.0
sz002937,兴瑞科技,2021-03-24,12.92,13.1,12.8,13.1,12.96,1120800.0,14469194.0,1278062042.8,3897597150.000001
sz002937,兴瑞科技,2021-03-25,13.0,13.43,12.98,13.21,13.1,2692273.0,35752503.0,1288793861.48,3930325065.0
sz002937,兴瑞科技,2021-03-26,13.16,13.38,13.11,13.26,13.21,1355136.0,17951568.0,1293671960.88,3945201390.000001
sz002937,兴瑞科技,2021-03-29,13.3,13.41,13.1,13.22,13.26,1034093.0,13678774.0,1289769481.36,3933300330.0
sz002937,兴瑞科技,2021-03-30,13.22,13.44,13.22,13.28,13.22,996820.0,13264975.0,1295623200.64,3951151920.0
sz002937,兴瑞科技,2021-03-31,13.22,13.45,13.22,13.29,13.28,1078900.0,14364332.0,1296598820.52,3954127185.0
sz002937,兴瑞科技,2021-04-01,13.22,13.34,12.96,13.02,13.29,1433373.0,18750473.0,1270257083.76,3873795030.000001
sz002937,兴瑞科技,2021-04-02,13.03,13.12,12.88,13.02,13.02,724622.0,9420316.0,1270257083.76,3873795030.000001
sz002937,兴瑞科技,2021-04-06,13.15,13.59,13.06,13.52,13.02,2072900.0,27740694.0,1319038077.76,4022558280.0
sz002937,兴瑞科技,2021-04-07,13.44,13.75,13.38,13.43,13.52,1494380.0,20237315.0,1310257498.8400002,3995780895.0
sz002937,兴瑞科技,2021-04-08,13.61,13.61,13.23,13.25,13.43,982000.0,13117407.0,1292696341.0,3942226125.0
sz002937,兴瑞科技,2021-04-09,13.25,13.32,13.1,13.13,13.25,816845.0,10768674.0,1280988902.44,3906522945.0
sz002937,兴瑞科技,2021-04-12,13.12,13.23,12.97,12.97,13.13,793000.0,10389409.0,1265378984.36,3858918705.0
sz002937,兴瑞科技,2021-04-13,12.9,13.17,12.82,13.02,12.97,968860.0,12585497.0,1270257083.76,3873795030.000001
sz002937,兴瑞科技,2021-04-14,12.86,13.17,12.85,13.12,13.02,600160.0,7837872.0,1280013282.56,3903547680.0
sz002937,兴瑞科技,2021-04-15,13.18,13.43,13.12,13.13,13.12,923506.0,12246691.0,1280988902.44,3906522945.0
sz002937,兴瑞科技,2021-04-16,13.18,13.48,13.13,13.35,13.13,1697500.0,22696614.0,1302452539.8,3971978775.0
sz002937,兴瑞科技,2021-04-19,13.63,13.93,13.58,13.87,13.35,3708529.0,51294827.0,1353184773.56,4126692555.000001
sz002937,兴瑞科技,2021-04-20,14.0,14.42,13.58,13.65,13.87,4540370.0,63282441.0,1331721136.1999998,4061236725.0
sz002937,兴瑞科技,2021-04-21,13.54,13.76,13.45,13.69,13.65,2535852.0,34524458.0,1335623615.72,4073137785.0
sz002937,兴瑞科技,2021-04-22,13.69,13.7,13.45,13.54,13.69,1424728.0,19329181.0,1320989317.52,4028508810.0
sz002937,兴瑞科技,2021-04-23,13.54,13.63,13.36,13.36,13.54,1360632.0,18329498.0,1303428159.68,3974954040.0
sz002937,兴瑞科技,2021-04-26,13.35,13.55,13.15,13.18,13.36,1377492.0,18405480.0,1285867001.84,3921399270.000001
sz002937,兴瑞科技,2021-04-27,13.11,13.4,12.85,13.27,13.18,1693192.0,22249935.0,1294647580.76,3948176655.0
sz002937,兴瑞科技,2021-04-28,13.28,13.38,13.1,13.35,13.27,1368224.0,18087345.0,1302452539.8,3971978775.0
sz002937,兴瑞科技,2021-04-29,13.56,13.56,13.21,13.51,13.35,1326967.0,17790517.0,1318062457.88,4019583015.0
sz002937,兴瑞科技,2021-04-30,13.48,13.48,13.11,13.37,13.33,1246500.0,16564940.0,1304403779.56,3977929305.0
sz002937,兴瑞科技,2021-05-06,13.37,13.4,13.21,13.33,13.37,839941.0,11174852.0,1300501300.04,3966028245.0
sz002937,兴瑞科技,2021-05-07,13.38,13.38,13.1,13.1,13.33,728280.0,9611797.0,1278062042.8,3897597150.000001
sz002937,兴瑞科技,2021-05-10,13.25,13.25,12.97,13.11,13.1,1000460.0,13068641.0,1279037662.68,3900572415.0
sz002937,兴瑞科技,2021-05-11,13.12,13.18,12.99,13.16,13.11,575512.0,7528374.0,1283915762.08,3915448740.0
sz002937,兴瑞科技,2021-05-12,13.18,13.19,13.05,13.13,13.16,468500.0,6140724.0,1280988902.44,3906522945.0
sz002937,兴瑞科技,2021-05-13,13.12,13.22,13.04,13.07,13.13,673700.0,8850545.0,1275135183.16,3888671355.0
sz002937,兴瑞科技,2021-05-14,13.05,13.13,12.83,12.9,13.07,1674700.0,21731815.0,1258549645.2,3838091850.0
sz002937,兴瑞科技,2021-05-17,12.86,13.06,12.25,12.33,12.9,2699206.0,33807980.0,1202939312.04,3668501745.0
sz002937,兴瑞科技,2021-05-18,12.41,12.43,12.19,12.27,12.33,1603236.0,19697538.0,1197085592.76,3650650155.0
sz002937,兴瑞科技,2021-05-19,12.35,12.39,12.2,12.28,12.27,1195700.0,14710359.0,1198061212.64,3653625420.0
sz002937,兴瑞科技,2021-05-20,12.3,12.35,12.2,12.26,12.28,748100.0,9190614.0,1196109972.88,3647674890.0
sz002937,兴瑞科技,2021-05-21,12.33,12.33,12.18,12.18,12.26,947180.0,11575020.0,1188305013.84,3623872770.0
sz002937,兴瑞科技,2021-05-24,12.27,12.27,11.98,12.03,12.18,1217660.0,14658919.0,1173670715.64,3579243795.0
sz002937,兴瑞科技,2021-05-25,12.06,12.25,12.0,12.2,12.03,896800.0,10888377.0,1190256253.6,3629823300.0
sz002937,兴瑞科技,2021-05-26,12.29,12.31,12.05,12.27,12.2,1053340.0,12864582.0,1197085592.76,3650650155.0
sz002937,兴瑞科技,2021-05-27,12.28,12.49,12.23,12.42,12.27,1225920.0,15174009.0,1211719890.96,3695279130.0
sz002937,兴瑞科技,2021-05-28,12.42,12.59,12.41,12.41,12.42,908499.0,11343633.0,1210744271.08,3692303865.0
sz002937,兴瑞科技,2021-05-31,12.51,12.57,12.3,12.36,12.41,727700.0,8988974.0,1205866171.68,3677427540.0
sz002937,兴瑞科技,2021-06-01,12.28,12.43,12.19,12.29,12.36,1255192.0,15470521.0,1199036832.52,3656600685.0
sz002937,兴瑞科技,2021-06-02,12.29,13.52,12.23,13.12,12.29,5674335.0,74002308.0,1280013282.56,3903547680.0
sz002937,兴瑞科技,2021-06-03,12.89,12.9,12.5,12.73,13.12,3745481.0,47660124.0,1241964107.24,3787512345.0
sz002937,兴瑞科技,2021-06-04,12.66,14.0,12.59,14.0,12.73,12969316.0,180147940.0,1365867832.0,4165371000.0
sz002937,兴瑞科技,2021-06-07,13.95,14.17,13.5,14.06,14.0,12957538.0,178985958.0,1371721551.2800002,4183222590.0
sz002937,兴瑞科技,2021-06-08,13.8,14.14,13.66,13.86,14.06,7225622.0,100063832.0,1352209153.6799998,4123717290.0
sz002937,兴瑞科技,2021-06-09,13.86,13.92,13.36,13.39,13.86,5319853.0,72289920.0,1306355019.32,3983879835.0
sz002937,兴瑞科技,2021-06-10,13.52,13.61,13.33,13.54,13.39,3626640.0,48803112.0,1320989317.52,4028508810.0
sz002937,兴瑞科技,2021-06-11,13.5,13.66,13.36,13.41,13.54,3427782.0,46166716.0,1308306259.08,3989830365.0
sz002937,兴瑞科技,2021-06-15,13.3,14.17,13.3,13.94,13.41,7532621.0,104520923.0,1360014112.72,4147519410.0
sz002937,兴瑞科技,2021-06-16,13.76,13.89,13.31,13.58,13.94,3783747.0,51196102.0,1324891797.0400002,4040409870.0
sz002937,兴瑞科技,2021-06-17,13.59,13.85,13.26,13.41,13.58,5157090.0,70019803.0,1308306259.08,3989830365.0
sz002937,兴瑞科技,2021-06-18,13.44,14.68,13.42,14.33,13.41,10396615.0,147726653.0,1398063288.04,4263554745.0
sz002937,兴瑞科技,2021-06-21,14.02,14.39,14.0,14.3,14.33,6647520.0,94571660.0,1395136428.4,4254628950.0
sz002937,兴瑞科技,2021-06-22,14.33,14.35,13.9,13.93,14.3,4746716.0,66606386.0,1359038492.84,4144544145.0
sz002937,兴瑞科技,2021-06-23,14.12,14.14,13.8,13.9,13.93,3590400.0,50044155.0,1356111633.1999998,4135618350.0
sz002937,兴瑞科技,2021-06-24,13.9,14.04,13.6,13.64,13.9,3557198.0,48859606.0,1330745516.32,4058261460.0
sz002937,兴瑞科技,2021-06-25,13.63,13.78,13.43,13.7,13.64,3152020.0,42873557.0,1336599235.6,4076113050.0
sz002937,兴瑞科技,2021-06-28,13.72,14.17,13.67,14.03,13.7,4568420.0,64148360.0,1368794691.64,4174296795.000001
sz002937,兴瑞科技,2021-06-29,14.0,14.03,13.7,13.95,14.03,2741332.0,37964858.0,1360989732.6,4150494675.000001
sz002937,兴瑞科技,2021-06-30,14.0,14.2,13.81,14.18,13.95,4147640.0,58303332.0,1383428989.84,4218925770.0
sz002937,兴瑞科技,2021-07-01,14.19,14.19,13.45,13.56,14.18,3866465.0,53237903.0,1322940557.28,4034459340.0
sz002937,兴瑞科技,2021-07-02,13.6,13.64,13.32,13.42,13.56,1912940.0,25737779.0,1309281878.96,3992805630.0
sz002937,兴瑞科技,2021-07-05,13.31,13.82,13.31,13.82,13.42,1962200.0,26676323.0,1348306674.16,4111816230.0
sz002937,兴瑞科技,2021-07-06,13.85,13.94,13.53,13.87,13.82,3064932.0,42137758.0,1353184773.56,4126692555.000001
sz002937,兴瑞科技,2021-07-07,13.82,14.14,13.79,14.0,13.87,3717340.0,52022165.0,1365867832.0,4165371000.0
sz002937,兴瑞科技,2021-07-08,14.0,14.11,13.8,13.89,14.0,2491274.0,34624650.0,1355136013.32,4132643085.0
sz002937,兴瑞科技,2021-07-09,13.9,14.28,13.65,14.18,13.89,4821240.0,67738296.0,1383428989.84,4218925770.0
sz002937,兴瑞科技,2021-07-12,14.2,14.67,14.02,14.57,14.18,6527379.0,93906494.0,1421478165.1599998,4334961105.0
sz002937,兴瑞科技,2021-07-13,14.78,14.89,14.31,14.44,14.57,4145400.0,60030802.0,1408795106.72,4296282660.0
sz002937,兴瑞科技,2021-07-14,14.53,14.7,14.33,14.33,14.44,3585500.0,51937976.0,1398063288.04,4263554745.0
sz002937,兴瑞科技,2021-07-15,14.4,14.56,14.0,14.26,14.33,3089260.0,43811501.0,1391233948.88,4242727890.0
sz002937,兴瑞科技,2021-07-16,14.14,14.32,13.97,14.12,14.26,2523660.0,35671340.0,1377575270.56,4201074180.0
sz002937,兴瑞科技,2021-07-19,14.1,14.13,13.85,13.95,14.12,2078880.0,29010960.0,1360989732.6,4150494675.000001
sz002937,兴瑞科技,2021-07-20,13.9,13.95,13.68,13.81,13.95,1969760.0,27123746.0,1347331054.2800002,4108840965.0
sz002937,兴瑞科技,2021-07-21,13.9,14.59,13.76,14.33,13.81,3852340.0,54926421.0,1398063288.04,4263554745.0
sz002937,兴瑞科技,2021-07-22,14.28,14.55,14.19,14.44,14.33,2967440.0,42604171.0,1408795106.72,4296282660.0
sz002937,兴瑞科技,2021-07-23,14.4,14.42,13.9,14.04,14.44,2335600.0,32920625.0,1369770311.5200002,4177272060.0
sz002937,兴瑞科技,2021-07-26,14.0,14.26,13.77,14.02,14.04,2794642.0,39011396.0,1367819071.76,4171321530.0
sz002937,兴瑞科技,2021-07-27,14.0,15.18,13.93,14.53,14.02,7937300.0,116295145.0,1417575685.64,4323060045.0
sz002937,兴瑞科技,2021-07-28,14.49,14.7,13.56,14.1,14.53,4754706.0,67762213.0,1375624030.8,4195123650.0
sz002937,兴瑞科技,2021-07-29,14.22,15.18,14.1,15.12,14.1,9001253.0,133910983.0,1475137258.56,4498600680.0
sz002937,兴瑞科技,2021-07-30,15.2,15.38,14.87,15.09,15.12,6708018.0,101308933.0,1472210398.92,4489674885.0
sz002937,兴瑞科技,2021-08-02,14.95,15.23,14.8,15.06,15.09,4453516.0,66710048.0,1469283539.28,4480749090.0
sz002937,兴瑞科技,2021-08-03,14.95,14.96,14.6,14.76,15.06,3956954.0,58452648.0,1440014942.88,4391491140.0
sz002937,兴瑞科技,2021-08-04,14.87,14.97,14.68,14.94,14.76,3241400.0,48205227.0,1457576100.72,4445045910.0
sz002937,兴瑞科技,2021-08-05,14.89,14.9,14.55,14.75,14.94,2737400.0,40299132.0,1439039322.9999998,4388515875.0
sz002937,兴瑞科技,2021-08-06,14.74,15.13,14.69,14.88,14.75,2913900.0,43485014.0,1451722381.44,4427194320.0
sz002937,兴瑞科技,2021-08-09,14.83,15.14,14.51,14.61,14.88,3327840.0,49044221.0,1425380644.68,4346862165.0
sz002937,兴瑞科技,2021-08-10,14.61,14.79,14.51,14.64,14.61,2236476.0,32755486.0,1428307504.32,4355787960.0
sz002937,兴瑞科技,2021-08-11,14.56,14.75,14.21,14.4,14.64,3739036.0,53631506.0,1404892627.2,4284381600.0
sz002937,兴瑞科技,2021-08-12,14.36,14.97,14.35,14.9,14.4,4318268.0,63700682.0,1453673621.2,4433144850.0
sz002937,兴瑞科技,2021-08-13,14.83,14.83,14.42,14.49,14.9,3218247.0,46969523.0,1413673206.12,4311158985.0
sz002937,兴瑞科技,2021-08-16,14.51,15.89,14.43,15.48,14.49,12144197.0,186760979.0,1510259574.24,4605710220.0
sz002937,兴瑞科技,2021-08-17,15.3,15.45,14.5,14.64,15.48,7149489.0,106793531.0,1428307504.32,4355787960.0
sz002937,兴瑞科技,2021-08-18,14.54,15.18,14.28,15.04,14.64,6033380.0,89162292.0,1467332299.52,4474798560.0
sz002937,兴瑞科技,2021-08-19,15.51,15.6,14.5,14.75,15.04,4640832.0,68502102.0,1439039322.9999998,4388515875.0
sz002937,兴瑞科技,2021-08-20,14.74,14.74,14.33,14.46,14.75,2543580.0,36882391.0,1410746346.48,4302233190.0
sz002937,兴瑞科技,2021-08-23,14.46,15.06,14.42,14.91,14.46,3132140.0,46443511.0,1454649241.0800002,4436120115.0
sz002937,兴瑞科技,2021-08-24,15.04,15.05,14.71,14.76,14.91,2487485.0,36745962.0,1440014942.88,4391491140.0
sz002937,兴瑞科技,2021-08-25,14.7,14.96,14.6,14.75,14.76,2620260.0,38705553.0,1439039322.9999998,4388515875.0
sz002937,兴瑞科技,2021-08-26,14.83,14.83,14.28,14.32,14.75,3468718.0,50267458.0,1397087668.1599998,4260579480.0
sz002937,兴瑞科技,2021-08-27,14.18,14.44,13.88,14.07,14.32,3290900.0,46457426.0,1372697171.16,4186197855.0
sz002937,兴瑞科技,2021-08-30,13.88,13.89,12.66,12.75,14.07,11209938.0,146246167.0,1243915347.0,3793462875.0
sz002937,兴瑞科技,2021-08-31,12.42,12.74,12.15,12.27,12.75,5742193.0,70494971.0,1197085592.76,3650650155.0
sz002937,兴瑞科技,2021-09-01,12.24,12.47,12.15,12.38,12.27,3192449.0,39250137.0,1207817411.44,3683378070.0
sz002937,兴瑞科技,2021-09-02,12.38,12.42,12.2,12.29,12.38,2188614.0,26858670.0,1199036832.52,3656600685.0
sz002937,兴瑞科技,2021-09-03,12.3,12.47,12.23,12.39,12.29,2290193.0,28265128.0,1208793031.32,3686353335.0
sz002937,兴瑞科技,2021-09-06,12.47,12.69,12.35,12.61,12.39,2503147.0,31481240.0,1230256668.68,3751809165.0
sz002937,兴瑞科技,2021-09-07,12.56,12.69,12.49,12.61,12.61,2028462.0,25513211.0,1230256668.68,3751809165.0
sz002937,兴瑞科技,2021-09-08,12.62,12.81,12.58,12.79,12.61,2052840.0,26011252.0,1247817826.52,3805363935.0
sz002937,兴瑞科技,2021-09-09,12.82,12.82,12.58,12.64,12.79,2096673.0,26519836.0,1233183528.32,3760734960.0
sz002937,兴瑞科技,2021-09-10,12.71,12.74,12.57,12.69,12.64,1455080.0,18406308.0,1238061627.72,3775611285.0
sz002937,兴瑞科技,2021-09-13,12.73,12.8,12.58,12.74,12.69,1199399.0,15245084.0,1242939727.12,3790487610.0
sz002937,兴瑞科技,2021-09-14,12.77,12.77,12.51,12.57,12.74,1560120.0,19735376.0,1226354189.1599998,3739908105.0
sz002937,兴瑞科技,2021-09-15,12.56,12.56,12.27,12.39,12.57,1566220.0,19420708.0,1208793031.32,3686353335.0
sz002937,兴瑞科技,2021-09-16,12.35,12.48,12.3,12.35,12.39,1211680.0,14992161.0,1204890551.8,3674452275.0
sz002937,兴瑞科技,2021-09-17,12.31,12.4,12.2,12.3,12.35,1414978.0,17360928.0,1200012452.4,3659575950.0
sz002937,兴瑞科技,2021-09-22,12.28,12.49,12.19,12.42,12.3,950160.0,11768760.0,1211719890.96,3695279130.0
sz002937,兴瑞科技,2021-09-23,12.47,12.75,12.44,12.55,12.42,1813338.0,22818416.0,1224402949.4,3733957575.0
sz002937,兴瑞科技,2021-09-24,12.57,12.67,12.39,12.44,12.55,1516180.0,19029553.0,1213671130.72,3701229660.0
sz002937,兴瑞科技,2021-09-27,12.43,12.5,12.1,12.2,12.44,1266620.0,15535913.0,1190256253.6,3629823300.0
sz002937,兴瑞科技,2021-09-28,12.23,12.27,12.13,12.24,12.2,853267.0,10425105.0,1194158733.12,3641724360.0
sz002937,兴瑞科技,2021-09-29,12.21,12.21,11.8,11.85,12.24,1274571.0,15244210.0,1156109557.8,3525689025.0000005
sz002937,兴瑞科技,2021-09-30,11.85,12.12,11.85,12.06,11.85,526700.0,6342802.0,1176597575.28,3588169589.9999995
sz002937,兴瑞科技,2021-10-08,12.09,12.29,12.09,12.22,12.06,515200.0,6286635.0,1192207493.36,3635773830.0
sz002937,兴瑞科技,2021-10-11,12.21,12.38,12.19,12.25,12.22,631080.0,7745813.0,1195134353.0,3644699625.0
sz002937,兴瑞科技,2021-10-12,12.25,12.35,12.12,12.28,12.25,762040.0,9299724.0,1198061212.64,3653625420.0
sz002937,兴瑞科技,2021-10-13,12.27,12.44,12.21,12.43,12.28,1099540.0,13620576.0,1212695510.8400002,3698254395.0
sz002937,兴瑞科技,2021-10-14,12.45,12.57,12.39,12.56,12.43,1000816.0,12478058.0,1225378569.28,3736932840.0
sz002937,兴瑞科技,2021-10-15,12.56,12.72,12.45,12.69,12.56,1458196.0,18374241.0,1238061627.72,3775611285.0
sz002937,兴瑞科技,2021-10-18,12.8,12.84,12.62,12.79,12.69,1496800.0,19054956.0,1247817826.52,3805363935.0
sz002937,兴瑞科技,2021-10-19,12.75,12.77,12.6,12.68,12.79,905460.0,11503375.0,1237086007.84,3772636020.0
sz002937,兴瑞科技,2021-10-20,12.71,12.75,12.51,12.54,12.68,961320.0,12142314.0,1223427329.52,3730982310.000001
sz002937,兴瑞科技,2021-10-21,12.58,12.76,12.45,12.56,12.54,1609936.0,20296620.0,1225378569.28,3736932840.0
sz002937,兴瑞科技,2021-10-22,12.48,12.6,12.4,12.43,12.56,837400.0,10446048.0,1212695510.8400002,3698254395.0
sz002937,兴瑞科技,2021-10-25,12.43,12.54,12.26,12.53,12.43,957200.0,11849950.0,1222451709.64,3728007045.0
sz002937,兴瑞科技,2021-10-26,12.52,12.52,12.19,12.22,12.53,1382000.0,16958693.0,1192207493.36,3635773830.0
sz002937,兴瑞科技,2021-10-27,12.3,12.3,12.02,12.07,12.22,650713.0,7870443.0,1177573195.16,3591144855.0
sz002937,兴瑞科技,2021-10-28,12.29,12.29,11.84,11.87,12.07,873440.0,10442074.0,1158060797.5600002,3531639555.0
sz002937,兴瑞科技,2021-10-29,11.97,13.0,11.82,12.58,11.87,3007340.0,37614233.0,1227329809.04,3742883370.0
sz002937,兴瑞科技,2021-11-01,12.56,13.45,12.48,13.24,12.58,7011880.0,91671895.0,1291720721.12,3939250860.0
sz002937,兴瑞科技,2021-11-02,13.55,14.56,13.44,13.7,13.24,13798460.0,194876017.0,1336599235.6,4076113050.0
sz002937,兴瑞科技,2021-11-03,13.73,14.0,13.21,13.33,13.7,7071040.0,96129606.0,1300501300.04,3966028245.0
sz002937,兴瑞科技,2021-11-04,13.35,14.66,13.33,14.66,13.33,9402088.0,134983848.0,1430258744.08,4361738490.0
sz002937,兴瑞科技,2021-11-05,14.91,16.08,14.51,15.75,14.66,22968617.0,350538355.0,1536601311.0,4686042375.0
sz002937,兴瑞科技,2021-11-08,15.59,15.98,15.05,15.81,15.75,13346876.0,208637772.0,1542455030.28,4703893965.0
sz002937,兴瑞科技,2021-11-09,15.75,15.8,15.07,15.37,15.81,11730512.0,181351029.0,1499527755.5600002,4572982305.0
sz002937,兴瑞科技,2021-11-10,16.08,16.91,16.08,16.91,15.37,11756421.0,197584581.0,1649773217.08,5031173115.0
sz002937,兴瑞科技,2021-11-11,17.46,18.59,16.89,17.35,16.91,29777946.0,528417618.0,1692700491.8,5162084775.0
sz002937,兴瑞科技,2021-11-12,17.09,18.48,16.81,18.37,17.35,21177463.0,375867667.0,1792213719.56,5465561805.0
sz002937,兴瑞科技,2021-11-15,18.99,20.21,18.6,19.2,18.37,28629306.0,569367516.0,1873190169.6,5712508800.0
sz002937,兴瑞科技,2021-11-16,19.15,19.5,18.02,18.7,19.2,17522827.0,326929272.0,1824409175.6,5563745550.000001
sz002937,兴瑞科技,2021-11-17,18.22,20.56,18.2,19.85,18.7,15925235.0,317483559.0,1936605461.8,5905901025.0
sz002937,兴瑞科技,2021-11-18,19.93,20.29,19.17,19.44,19.85,9023720.0,177015507.0,1896605046.72,5783915159.999999
sz002937,兴瑞科技,2021-11-19,19.43,19.53,18.65,19.12,19.44,7114368.0,135778578.0,1865385210.56,5688706679.999999
sz002937,兴瑞科技,2021-11-22,19.08,20.35,18.98,20.1,19.12,9278140.0,182277201.0,1960995958.8000002,5980282650.0
sz002937,兴瑞科技,2021-11-23,20.01,21.03,19.75,19.96,20.1,6090876.0,122500994.0,1947337280.4799998,5938628940.0
sz002937,兴瑞科技,2021-11-24,20.0,20.25,19.36,19.9,19.96,8820391.0,175186545.0,1941483561.2,5920777350.0
sz002937,兴瑞科技,2021-11-25,19.56,20.48,19.49,20.01,19.9,7857263.0,157094408.0,1952215379.8799999,5953505265.0
sz002937,兴瑞科技,2021-11-26,20.01,20.35,19.41,19.8,20.01,5624804.0,111733046.0,1931727362.4,5891024700.0
sz002937,兴瑞科技,2021-11-29,19.43,21.78,19.35,21.0,19.8,13833428.0,295887226.0,2048801748.0,6248056500.0
sz002937,兴瑞科技,2021-11-30,21.48,21.71,20.5,20.95,21.0,11236281.0,236920985.0,2043923648.6,6233180175.0
sz002937,兴瑞科技,2021-12-01,20.92,21.27,20.56,20.6,20.95,6864698.0,143401886.0,2009776952.8000002,6129045900.0
sz002937,兴瑞科技,2021-12-02,20.6,21.13,20.25,20.71,20.6,5606787.0,115768209.0,2020508771.48,6161773815.0
sz002937,兴瑞科技,2021-12-03,20.71,21.1,19.9,20.64,20.71,5431972.0,111302857.0,2013679432.32,6140946960.0
sz002937,兴瑞科技,2021-12-06,20.85,20.85,20.05,20.25,20.64,5078433.0,103665860.0,1975630257.0,6024911625.0
sz002937,兴瑞科技,2021-12-07,19.99,20.45,18.64,18.94,20.25,13516791.0,260209937.0,1847824052.72,5635151910.0
sz002937,兴瑞科技,2021-12-08,19.05,20.51,18.53,20.06,18.94,8648009.0,173818505.0,1957093479.28,5968381590.0
sz002937,兴瑞科技,2021-12-09,20.15,20.16,19.14,19.3,20.06,6065420.0,118056240.0,1882946368.3999999,5742261450.0
sz002937,兴瑞科技,2021-12-10,19.33,19.59,18.88,19.2,19.3,4946548.0,94923511.0,1873190169.6000001,5712508800.0
sz002937,兴瑞科技,2021-12-13,19.2,19.22,17.28,19.02,19.2,4717209.0,88903305.0,1855629011.7600002,5658954030.000001
sz002937,兴瑞科技,2021-12-14,19.02,19.23,18.62,18.9,19.02,4387086.0,83006827.0,1843921573.2,5623250850.0
sz002937,兴瑞科技,2021-12-15,18.97,19.09,18.5,18.59,18.9,3226720.0,60806427.0,1813677356.9199998,5531017635.0
sz002937,兴瑞科技,2021-12-16,18.68,18.83,18.52,18.7,18.59,1773608.0,33151361.0,1824409175.6,5563745550.000001
sz002937,兴瑞科技,2021-12-17,18.6,18.87,18.15,18.25,18.7,2807098.0,51802993.0,1780506281.0,5429858625.0
sz002937,兴瑞科技,2021-12-20,18.38,18.53,17.7,17.83,18.25,3498186.0,63168269.0,1739530246.04,5304897495.0
sz002937,兴瑞科技,2021-12-21,17.92,19.46,17.85,19.15,17.83,5362954.0,100655955.0,1868312070.2,5697632475.000001
sz002937,兴瑞科技,2021-12-22,19.07,21.07,18.95,19.92,19.15,12582253.0,257872351.0,1943434800.96,5926727879.999999
sz002937,兴瑞科技,2021-12-23,20.19,21.35,19.55,20.81,19.92,10542538.0,217643047.0,2030264970.2800002,6191526465.0
sz002937,兴瑞科技,2021-12-24,21.12,21.17,20.2,20.5,20.81,4814321.0,98870685.0,2000020754.0,6099293250.0
sz002937,兴瑞科技,2021-12-27,20.45,20.57,19.66,19.98,20.5,2943946.0,58620762.0,1949288520.24,5944579470.0
sz002937,兴瑞科技,2021-12-28,19.98,20.58,19.89,20.3,19.98,2309463.0,46734528.0,1980508356.4,6039787950.0
sz002937,兴瑞科技,2021-12-29,20.3,20.3,19.28,19.43,20.3,4190614.0,82207128.0,1895629426.8400002,5780939895.0
sz002937,兴瑞科技,2021-12-30,19.43,20.71,19.24,20.12,19.43,4424575.0,88818317.0,1962947198.5600002,5986233180.0
sz002937,兴瑞科技,2021-12-31,20.07,20.38,19.45,20.16,20.12,3257720.0,64459802.0,1966849678.08,5998134240.0
sz002937,兴瑞科技,2022-01-04,20.04,20.45,19.35,19.8,20.16,2786420.0,55287204.0,1931727362.4,5891024700.0
sz002937,兴瑞科技,2022-01-05,19.78,20.0,18.49,18.58,19.8,4452300.0,83861799.0,1812701737.04,5528042370.0
sz002937,兴瑞科技,2022-01-06,18.57,19.43,18.3,19.24,18.58,2554600.0,48806848.0,1877092649.1200001,5724409860.0
sz002937,兴瑞科技,2022-01-07,19.35,19.51,18.57,18.75,19.24,2132820.0,40073392.0,1829287275.0,5578621875.0
sz002937,兴瑞科技,2022-01-10,18.7,19.8,18.26,19.11,18.75,3013080.0,57970497.0,1864409590.68,5685731415.0
sz002937,兴瑞科技,2022-01-11,19.14,20.33,18.7,18.92,19.11,3271400.0,63245235.0,1845872812.96,5629201380.0
sz002937,兴瑞科技,2022-01-12,18.94,20.81,18.94,19.99,18.92,8962051.0,181914405.0,1950264140.12,5947554735.0
sz002937,兴瑞科技,2022-01-13,20.29,20.3,18.88,19.59,19.99,6750849.0,132402844.0,1911239344.92,5828544135.0
sz002937,兴瑞科技,2022-01-14,19.35,21.55,19.35,21.55,19.59,12188471.0,258356737.0,2102460841.3999999,6411696075.0
