数据由邢不行整理
股票代码,股票名称,交易日期,开盘价,最高价,最低价,收盘价,前收盘价,成交量,成交额,流通市值,总市值
sz002980,N华盛昌,2020-04-15,17.87,21.44,17.87,21.44,14.89,110748.0,2372117.0,714668096.0,2858668096.0
sz002980,华盛昌,2020-04-16,23.58,23.58,23.58,23.58,21.44,27747.0,654274.0,786001572.0,3144001572.0
sz002980,华盛昌,2020-04-17,25.94,25.94,25.94,25.94,23.58,27630.0,716722.0,864668396.0,3458668396.0
sz002980,华盛昌,2020-04-20,28.53,28.53,28.53,28.53,25.94,37385.0,1066594.0,951001902.0,3804001902.0
sz002980,华盛昌,2020-04-21,31.38,31.38,31.38,31.38,28.53,175994.0,5522691.0,1046002092.0,4184002092.0
sz002980,华盛昌,2020-04-22,34.52,34.52,34.52,34.52,31.38,331060.0,11428191.0,1150668968.0,4602668968.0
sz002980,华盛昌,2020-04-23,35.0,37.97,34.0,37.97,34.52,21371285.0,777490440.0,1265669198.0,5062669198.0
sz002980,华盛昌,2020-04-24,36.0,36.66,34.17,34.18,37.97,15803085.0,555818565.0,1139335612.0,4557335612.0
sz002980,华盛昌,2020-04-27,34.8,35.18,32.55,33.45,34.18,10089346.0,344460157.0,1115002230.0,4460002230.0
sz002980,华盛昌,2020-04-28,32.43,32.67,30.11,31.3,33.45,11134270.0,346968990.0,1043335420.0,4173335420.0
sz002980,华盛昌,2020-04-29,34.43,34.43,34.43,34.43,31.3,2016920.0,69442555.0,1147668962.0,4590668962.0
sz002980,华盛昌,2020-04-30,37.87,37.87,37.08,37.87,34.43,11108246.0,420277203.0,1262335858.0,5049335858.0
sz002980,华盛昌,2020-05-06,38.0,41.66,37.87,41.66,37.87,20375013.0,818388227.0,1388669444.0,5554669444.0
sz002980,华盛昌,2020-05-07,40.11,45.83,39.2,45.83,41.66,16229276.0,681725574.0,1527669722.0,6110669722.0
sz002980,华盛昌,2020-05-08,45.98,50.41,45.0,50.41,45.83,17673530.0,860751640.0,1680336694.0,6721336694.0
sz002980,华盛昌,2020-05-11,54.77,55.45,50.46,52.95,50.41,17086965.0,930978770.0,1765003530.0,7060003530.0
sz002980,华盛昌,2020-05-12,54.0,58.25,50.5,58.25,52.95,16741837.0,926476351.0,1941670550.0,7766670550.0
sz002980,华盛昌,2020-05-13,61.33,64.08,60.68,64.08,58.25,17690808.0,1115983361.0,2136004272.0,8544004272.0
sz002980,华盛昌,2020-05-14,66.51,69.84,58.8,59.3,64.08,21463638.0,1373028441.0,1976670620.0,7906670620.0
sz002980,华盛昌,2020-05-15,58.0,65.23,56.7,62.27,59.3,19334156.0,1178943800.0,2075670818.0,8302670818.0
sz002980,华盛昌,2020-05-18,60.04,62.19,57.4,58.95,62.27,14481368.0,863683624.0,1965003930.0,7860003930.0
sz002980,华盛昌,2020-05-19,58.1,64.85,58.01,64.85,58.95,16150945.0,1012949545.0,2161670990.0,8646670990.0
sz002980,华盛昌,2020-05-20,63.0,67.9,59.91,62.96,64.85,17246514.0,1099435742.0,2098670864.0,8394670864.0
sz002980,华盛昌,2020-05-21,61.02,69.26,59.5,69.26,62.96,16271027.0,1064565266.0,2308671284.0,9234671284.0
sz002980,华盛昌,2020-05-22,69.26,75.0,65.01,69.0,69.26,20002105.0,1412156191.0,2300004600.0,9200004600.0
sz002980,华盛昌,2020-05-25,63.0,69.7,62.1,63.3,69.0,16260122.0,1048029023.0,2110004220.0,8440004220.0
sz002980,华盛昌,2020-05-26,62.01,64.58,58.86,63.11,63.3,13762499.0,851910714.0,2103670874.0,8414670874.0
sz002980,华盛昌,2020-05-27,63.07,68.18,62.5,64.81,63.11,14597741.0,959813528.0,2160337654.0,8641337654.0
sz002980,华盛昌,2020-05-28,63.16,63.79,58.44,58.9,64.81,13436801.0,815875355.0,1963337260.0,7853337260.0
sz002980,华盛昌,2020-05-29,58.01,60.46,57.45,58.36,58.9,8849683.0,519964878.0,1945337224.0,7781337224.0
sz002980,华盛昌,2020-06-01,58.01,60.98,57.39,60.52,58.36,9667487.0,575879646.0,2017337368.0,8069337368.0
sz002980,华盛昌,2020-06-02,62.84,65.6,61.3,62.79,60.52,12160562.0,767576204.0,2093004186.0,8372004186.0
sz002980,华盛昌,2020-06-03,60.4,63.33,59.55,62.31,62.79,10595527.0,647470616.0,2077004154.0,8308004154.0
sz002980,华盛昌,2020-06-04,61.51,62.0,58.13,58.62,62.31,9300139.0,553881516.0,1954003908.0,7816003908.0
sz002980,华盛昌,2020-06-05,57.87,58.53,54.2,56.15,58.62,8182458.0,458410224.0,1871670410.0,7486670410.0
sz002980,华盛昌,2020-06-08,55.8,59.75,55.02,59.38,56.15,8957196.0,518454092.0,1979337292.0,7917337292.0
sz002980,华盛昌,2020-06-09,59.0,60.17,58.01,58.35,59.38,5517133.0,324236587.0,1945003890.0,7780003890.0
sz002980,华盛昌,2020-06-10,58.0,59.98,57.12,58.67,58.35,6176171.0,364204944.0,1955670578.0,7822670578.0
sz002980,华盛昌,2020-06-11,58.42,59.89,57.28,59.86,58.67,6820298.0,399974955.0,1995337324.0,7981337324.0
sz002980,华盛昌,2020-06-12,59.0,65.85,58.3,65.85,59.86,14299582.0,908496399.0,2195004390.0,8780004390.0
sz002980,华盛昌,2020-06-15,69.0,71.5,65.7,66.41,65.85,15783382.0,1084531458.0,2213671094.0,8854671094.0
sz002980,华盛昌,2020-06-16,64.51,66.9,64.08,65.1,66.41,9073351.0,591170814.0,2170004340.0,8680004340.0
sz002980,华盛昌,2020-06-17,66.46,70.5,65.47,68.68,65.1,12110223.0,821715839.0,2289337912.0,9157337912.0
sz002980,华盛昌,2020-06-18,66.09,66.5,62.8,63.75,68.68,9289584.0,599210292.0,2125004250.0,8500004250.0
sz002980,华盛昌,2020-06-19,63.08,64.77,63.06,63.75,63.75,4587048.0,292440231.0,2125004250.0,8500004250.0
sz002980,华盛昌,2020-06-22,63.07,64.23,62.11,63.34,63.75,5152919.0,324766516.0,2111337556.0,8445337556.0
sz002980,华盛昌,2020-06-23,63.0,64.95,62.85,63.92,63.34,4980982.0,319792054.0,2130670928.0,8522670928.0
sz002980,华盛昌,2020-06-24,63.61,63.9,60.0,61.02,63.92,7009504.0,430802111.0,2034004068.0,8136004068.0
sz002980,华盛昌,2020-06-29,58.4,62.6,58.21,61.74,61.02,4064893.0,249804462.0,2058004116.0,8232004116.0
sz002980,华盛昌,2020-06-30,61.2,64.0,61.2,63.56,61.74,4816909.0,304704657.0,2118670904.0,8474670904.0
sz002980,华盛昌,2020-07-01,64.45,66.15,62.82,63.33,63.56,6111985.0,394584001.0,2111004222.0,8444004222.0
sz002980,华盛昌,2020-07-02,62.16,64.49,62.16,63.93,63.33,4940952.0,314912073.0,2131004262.0,8524004262.0
sz002980,华盛昌,2020-07-03,64.18,64.88,62.2,63.38,63.93,4288814.0,271068450.0,2112670892.0,8450670892.0
sz002980,华盛昌,2020-07-06,63.55,67.22,62.55,66.0,63.38,6753174.0,438994807.0,2200004400.0,8800004400.0
sz002980,华盛昌,2020-07-07,65.76,69.81,64.5,68.0,66.0,8386148.0,565414261.0,2266671200.0,9066671200.0
sz002980,华盛昌,2020-07-08,68.95,74.8,68.95,74.8,68.0,7653872.0,552490301.0,2493338320.0,9973338320.0
sz002980,华盛昌,2020-07-09,78.0,82.28,77.58,82.28,74.8,10582192.0,853420021.0,2742672152.0,10970672152.0
sz002980,华盛昌,2020-07-10,82.28,88.92,78.3,84.59,82.28,10041711.0,831656463.0,2819672306.0,11278672305.999998
sz002980,华盛昌,2020-07-13,87.5,92.96,84.8,90.89,84.59,8446549.0,745939953.0,3029672726.0000005,12118672726.0
sz002980,华盛昌,2020-07-14,82.0,85.51,81.8,81.8,90.89,9781179.0,809863596.0,2726672120.0,10906672120.0
sz002980,华盛昌,2020-07-15,77.51,78.5,73.62,73.62,81.8,10464983.0,788973589.0,2454004908.0,9816004908.0
sz002980,华盛昌,2020-07-16,73.0,75.76,70.0,70.99,73.62,7229278.0,527717247.0,2366338066.0,9465338066.0
sz002980,华盛昌,2020-07-17,71.6,73.1,71.01,72.81,70.99,4819655.0,347522707.0,2427004854.0,9708004854.0
sz002980,华盛昌,2020-07-20,74.5,74.7,71.08,73.52,72.81,4463248.0,324714009.0,2450671568.0,9802671568.0
sz002980,华盛昌,2020-07-21,73.3,73.83,71.63,72.51,73.52,3536012.0,256773572.0,2417004834.0,9668004834.0
sz002980,华盛昌,2020-07-22,72.42,73.78,71.58,73.18,72.51,3970819.0,290018055.0,2439338212.0,9757338212.0
sz002980,华盛昌,2020-07-23,72.01,72.56,67.0,70.36,73.18,5494003.0,385300152.0,2345338024.0,9381338024.0
sz002980,华盛昌,2020-07-24,69.57,72.99,68.76,69.15,70.36,4564328.0,323201569.0,2305004610.0,9220004610.0
sz002980,华盛昌,2020-07-27,68.5,68.99,65.33,67.62,69.15,3636898.0,244773698.0,2254004508.0,9016004508.0
sz002980,华盛昌,2020-07-28,68.5,72.72,67.66,71.56,67.62,4564423.0,321322772.0,2385338104.0,9541338104.0
sz002980,华盛昌,2020-07-29,70.9,72.3,70.1,72.18,71.56,3863137.0,275497178.0,2406004812.0,9624004812.0
sz002980,华盛昌,2020-07-30,71.95,77.5,71.43,75.81,72.18,7426531.0,552964670.0,2527005054.0,10108005054.0
sz002980,华盛昌,2020-07-31,74.98,75.49,73.01,74.71,75.81,5119902.0,380967070.0,2490338314.0,9961338314.0
sz002980,华盛昌,2020-08-03,74.8,76.73,74.15,76.52,74.71,5136472.0,387396647.0,2550671768.0,10202671768.0
sz002980,华盛昌,2020-08-04,76.1,76.1,72.81,72.9,76.52,5109272.0,379055318.0,2430004860.0,9720004860.0
sz002980,华盛昌,2020-08-05,72.88,72.88,70.02,72.03,72.9,3055129.0,218639435.0,2401004802.0,9604004802.0
sz002980,华盛昌,2020-08-06,72.0,72.68,70.5,71.09,72.03,2540555.0,180886351.0,2369671406.0,9478671406.0
sz002980,华盛昌,2020-08-07,71.3,71.3,67.9,69.11,71.09,2906320.0,201283385.0,2303671274.0,9214671274.0
sz002980,华盛昌,2020-08-10,68.8,70.26,67.7,69.92,69.11,2479107.0,171046967.0,2330671328.0,9322671328.0
sz002980,华盛昌,2020-08-11,70.49,70.49,67.88,68.1,69.92,2062993.0,142671778.0,2270004540.0,9080004540.0
sz002980,华盛昌,2020-08-12,68.26,68.26,64.5,65.49,68.1,2542874.0,167688168.0,2183004366.0,8732004366.0
sz002980,华盛昌,2020-08-13,66.0,66.47,65.5,65.7,65.49,1287028.0,84874673.0,2190004380.0,8760004380.0
sz002980,华盛昌,2020-08-14,65.28,67.31,65.28,66.8,65.7,1472080.0,98001517.0,2226671120.0,8906671120.0
sz002980,华盛昌,2020-08-17,66.92,70.44,66.92,70.4,66.8,2967216.0,205888805.0,2346671360.0,9386671360.0
sz002980,华盛昌,2020-08-18,70.81,72.88,70.39,70.48,70.4,3380539.0,241928109.0,2349338032.0,9397338032.0
sz002980,华盛昌,2020-08-19,70.2,70.58,68.26,70.58,70.48,2453103.0,170714633.0,2352671372.0,9410671372.0
sz002980,华盛昌,2020-08-20,70.2,72.54,69.51,71.08,70.58,2651790.0,189154408.0,2369338072.0,9477338072.0
sz002980,华盛昌,2020-08-21,71.51,71.85,70.0,70.19,71.08,2032972.0,143453810.0,2339671346.0,9358671346.0
sz002980,华盛昌,2020-08-24,70.04,70.29,67.0,68.13,70.19,2628024.0,178789148.0,2271004542.0,9084004542.0
sz002980,华盛昌,2020-08-25,67.5,70.92,67.5,70.9,68.13,2877182.0,200448623.0,2363338060.0,9453338060.0
sz002980,华盛昌,2020-08-26,71.96,71.96,67.4,67.4,70.9,3769795.0,260978970.0,2246671160.0,8986671160.0
sz002980,华盛昌,2020-08-27,66.99,67.99,65.55,66.96,67.4,2009260.0,134120633.0,2232004464.0,8928004464.0
sz002980,华盛昌,2020-08-28,66.7,68.2,66.0,67.88,66.96,1886847.0,126754078.0,2262671192.0,9050671192.0
sz002980,华盛昌,2020-08-31,68.05,68.5,67.01,67.02,67.88,1696521.0,114993586.0,2234004468.0,8936004468.0
sz002980,华盛昌,2020-09-01,67.02,67.89,66.02,67.55,67.02,1470149.0,98410566.0,2251671170.0,9006671170.0
sz002980,华盛昌,2020-09-02,67.5,67.83,66.08,66.18,67.55,1712370.0,114175793.0,2206004412.0,8824004412.0
sz002980,华盛昌,2020-09-03,66.18,66.5,65.56,65.62,66.18,1243948.0,81894764.0,2187337708.0,8749337708.0
sz002980,华盛昌,2020-09-04,64.88,64.88,63.37,63.58,65.62,2059333.0,131369389.0,2119337572.0,8477337572.0
sz002980,华盛昌,2020-09-07,63.3,64.08,60.74,61.03,63.58,1834931.0,114702594.0,2034337402.0,8137337402.0
sz002980,华盛昌,2020-09-08,61.03,61.38,58.5,60.02,61.03,1646228.0,98428741.0,2000670668.0,8002670668.0
sz002980,华盛昌,2020-09-09,59.4,59.5,55.55,55.95,60.02,2377448.0,135682445.0,1865003730.0,7460003730.0
sz002980,华盛昌,2020-09-10,56.63,57.22,55.0,55.38,55.95,1563579.0,87720808.0,1846003692.0,7384003692.0
sz002980,华盛昌,2020-09-11,55.0,56.99,55.0,56.87,55.38,1147854.0,64369685.0,1895670458.0,7582670458.0
sz002980,华盛昌,2020-09-14,57.14,57.7,56.33,57.12,56.87,1208348.0,69032617.0,1904003808.0,7616003808.0
sz002980,华盛昌,2020-09-15,57.15,57.58,56.52,57.45,57.12,981756.0,56118337.0,1915003830.0,7660003830.0
sz002980,华盛昌,2020-09-16,57.99,57.99,56.57,56.86,57.45,906115.0,51527287.0,1895337124.0,7581337124.0
sz002980,华盛昌,2020-09-17,56.88,59.47,56.61,58.88,56.86,1967663.0,114527452.0,1962670592.0,7850670592.0
sz002980,华盛昌,2020-09-18,58.34,59.2,57.98,58.97,58.88,1292724.0,75847578.0,1965670598.0,7862670598.0
sz002980,华盛昌,2020-09-21,58.97,60.22,58.4,59.76,58.97,1132111.0,67252124.0,1992003984.0,7968003983.999999
sz002980,华盛昌,2020-09-22,59.19,61.48,59.01,60.06,59.76,1567879.0,94914035.0,2002004004.0,8008004004.0
sz002980,华盛昌,2020-09-23,60.0,60.19,59.24,60.01,60.06,1014459.0,60575903.0,2000337334.0,8001337334.0
sz002980,华盛昌,2020-09-24,59.99,61.16,58.55,58.57,60.01,1459824.0,87260444.0,1952337238.0,7809337238.0
sz002980,华盛昌,2020-09-25,58.36,59.35,56.69,57.74,58.57,1256555.0,72802461.0,1924670516.0,7698670516.0
sz002980,华盛昌,2020-09-28,56.99,57.48,55.61,55.75,56.78,759148.0,42696900.0,1858337050.0,7433337050.0
sz002980,华盛昌,2020-09-29,55.96,56.45,55.7,55.7,55.75,700655.0,39211834.0,1856670380.0,7426670379.999999
sz002980,华盛昌,2020-09-30,55.75,56.37,55.5,55.95,55.7,547244.0,30611858.0,1865003730.0,7460003730.0
sz002980,华盛昌,2020-10-09,57.06,58.05,56.5,57.98,55.95,1115358.0,64073404.0,1932670532.0,7730670532.0
sz002980,华盛昌,2020-10-12,59.0,61.48,58.98,61.4,57.98,2099486.0,126989576.0,2046670760.0,8186670760.0
sz002980,华盛昌,2020-10-13,61.1,61.88,60.3,60.97,61.4,1798828.0,110057816.0,2032337398.0,8129337398.0
sz002980,华盛昌,2020-10-14,60.96,62.29,60.6,61.81,60.97,1674354.0,102958096.0,2060337454.0,8241337454.0
sz002980,华盛昌,2020-10-15,60.1,60.1,56.6,57.04,61.81,3363382.0,193358109.0,1901337136.0,7605337136.0
sz002980,华盛昌,2020-10-16,57.12,57.31,56.2,56.97,57.04,1441746.0,81809494.0,1899003798.0,7596003798.0
sz002980,华盛昌,2020-10-19,57.8,57.8,56.21,56.32,56.97,1110835.0,63191851.0,1877337088.0,7509337088.0
sz002980,华盛昌,2020-10-20,56.1,57.42,55.82,57.33,56.32,1129368.0,63950534.0,1911003822.0,7644003822.0
sz002980,华盛昌,2020-10-21,57.36,57.82,56.28,56.49,57.33,943400.0,53535991.0,1883003766.0,7532003766.0
sz002980,华盛昌,2020-10-22,56.49,57.15,55.74,56.48,56.49,891569.0,50266098.0,1882670432.0,7530670432.0
sz002980,华盛昌,2020-10-23,56.5,57.39,55.4,55.41,56.48,1200554.0,67499461.0,1847003694.0,7388003694.0
sz002980,华盛昌,2020-10-26,55.35,55.87,54.32,55.76,55.41,751300.0,41621586.0,1858670384.0,7434670384.0
sz002980,华盛昌,2020-10-27,55.98,56.18,55.16,55.25,55.76,798017.0,44253267.0,1841670350.0,7366670350.0
sz002980,华盛昌,2020-10-28,55.25,55.53,52.01,53.13,55.25,1562169.0,83481092.0,1771003542.0,7084003541.999999
sz002980,华盛昌,2020-10-29,52.5,53.5,51.38,53.12,53.13,1054024.0,55549446.0,1770670208.0,7082670208.000001
sz002980,华盛昌,2020-10-30,52.59,53.68,51.53,51.54,53.12,1151700.0,60104387.0,1718003436.0,6872003436.0
sz002980,华盛昌,2020-11-02,51.4,52.36,48.87,49.42,51.54,1488096.0,74143683.0,1647336628.0,6589336628.000001
sz002980,华盛昌,2020-11-03,49.49,53.66,49.49,53.06,49.42,2243924.0,116732781.0,1768670204.0,7074670204.0
sz002980,华盛昌,2020-11-04,53.42,53.6,52.56,52.67,53.06,1029100.0,54422082.0,1755670178.0,7022670178.0
sz002980,华盛昌,2020-11-05,52.97,53.49,52.39,52.8,52.67,902524.0,47731523.0,1760003520.0000002,7040003520.0
sz002980,华盛昌,2020-11-06,52.82,53.07,51.62,51.99,52.8,950124.0,49428154.0,1733003466.0,6932003466.000001
sz002980,华盛昌,2020-11-09,52.68,54.36,52.68,53.79,51.99,1273848.0,68294447.0,1793003586.0,7172003586.0
sz002980,华盛昌,2020-11-10,53.82,54.28,53.31,53.37,53.79,1177268.0,63269266.0,1779003558.0,7116003558.0
sz002980,华盛昌,2020-11-11,53.14,53.22,52.05,52.06,53.37,803224.0,42208394.0,1735336804.0000002,6941336804.0
sz002980,华盛昌,2020-11-12,52.18,53.12,51.16,51.42,52.06,869900.0,45375835.0,1714003428.0000002,6856003428.0
sz002980,华盛昌,2020-11-13,51.13,52.78,50.19,52.28,51.42,836024.0,43334873.0,1742670152.0,6970670152.0
sz002980,华盛昌,2020-11-16,52.29,52.56,51.11,51.21,52.28,1004900.0,51783918.0,1707003414.0,6828003414.0
sz002980,华盛昌,2020-11-17,51.23,51.57,49.83,50.54,51.21,989300.0,49752002.0,1684670036.0,6738670036.000001
sz002980,华盛昌,2020-11-18,50.11,51.19,50.11,50.44,50.54,516948.0,26101132.0,1681336696.0,6725336696.0
sz002980,华盛昌,2020-11-19,50.43,51.08,50.03,50.79,50.44,695400.0,35239582.0,1693003386.0,6772003386.0
sz002980,华盛昌,2020-11-20,50.9,51.07,50.31,50.49,50.79,626800.0,31729327.0,1683003366.0,6732003366.0
sz002980,华盛昌,2020-11-23,50.31,50.83,50.07,50.52,50.49,696248.0,35096298.0,1684003368.0,6736003368.000001
sz002980,华盛昌,2020-11-24,50.78,51.35,50.14,50.18,50.52,761428.0,38415281.0,1672670012.0,6690670012.000001
sz002980,华盛昌,2020-11-25,50.1,50.4,49.22,49.29,50.18,954700.0,47263326.0,1643003286.0,6572003286.0
sz002980,华盛昌,2020-11-26,49.0,49.32,48.22,48.32,49.29,1015634.0,49337354.0,1610669888.0,6442669888.000001
sz002980,华盛昌,2020-11-27,48.21,48.58,47.77,47.84,48.32,755900.0,36278332.0,1594669856.0000002,6378669856.0
sz002980,华盛昌,2020-11-30,47.81,48.33,46.99,47.97,47.84,808196.0,38511244.0,1599003198.0,6396003198.000001
sz002980,华盛昌,2020-12-01,48.4,48.93,47.91,48.7,47.97,825276.0,39987769.0,1623336580.0,6493336580.000001
sz002980,华盛昌,2020-12-02,48.99,49.34,48.5,49.16,48.7,852208.0,41744301.0,1638669944.0,6554669944.0
sz002980,华盛昌,2020-12-03,49.15,49.97,48.68,49.52,49.16,993400.0,49113388.0,1650669968.0,6602669968.0
sz002980,华盛昌,2020-12-04,49.39,51.98,49.21,51.61,49.52,2254419.0,115701748.0,1720336773.9999998,6881336774.0
sz002980,华盛昌,2020-12-07,51.5,51.6,50.3,50.32,51.61,1343676.0,68283141.0,1677336688.0000002,6709336688.0
sz002980,华盛昌,2020-12-08,50.26,50.29,49.27,49.31,50.32,936299.0,46488082.0,1643669954.0000002,6574669954.0
sz002980,华盛昌,2020-12-09,49.32,50.15,49.01,49.02,49.31,754448.0,37454042.0,1634003268.0,6536003268.0
sz002980,华盛昌,2020-12-10,48.86,49.32,48.25,48.54,49.02,673124.0,32777618.0,1618003236.0,6472003236.0
sz002980,华盛昌,2020-12-11,48.6,48.8,47.4,48.03,48.54,853972.0,40841674.0,1601003201.9999998,6404003202.0
sz002980,华盛昌,2020-12-14,47.9,48.65,47.66,48.3,48.03,527096.0,25417676.0,1610003219.9999998,6440003220.0
sz002980,华盛昌,2020-12-15,48.3,49.35,47.92,49.35,48.3,830491.0,40427063.0,1645003290.0,6580003290.0
sz002980,华盛昌,2020-12-16,49.12,50.59,49.12,50.05,49.35,1198800.0,60140177.0,1668336669.9999998,6673336670.0
sz002980,华盛昌,2020-12-17,50.35,50.35,48.68,49.66,50.05,949800.0,46785062.0,1655336644.0,6621336644.0
sz002980,华盛昌,2020-12-18,49.4,50.47,48.78,50.04,49.66,1074339.0,53298009.0,1668003336.0000002,6672003336.0
sz002980,华盛昌,2020-12-21,49.95,50.55,49.58,50.38,50.04,923204.0,46417092.0,1679336692.0,6717336692.0
sz002980,华盛昌,2020-12-22,50.31,51.58,49.21,50.07,50.38,1631700.0,82571400.0,1669003338.0,6676003338.0
sz002980,华盛昌,2020-12-23,49.97,50.51,49.3,49.43,50.07,929848.0,46155980.0,1647669962.0,6590669962.000001
sz002980,华盛昌,2020-12-24,49.32,49.32,47.91,47.98,49.43,841163.0,40814853.0,1599336532.0,6397336531.999999
sz002980,华盛昌,2020-12-25,47.35,48.19,47.35,47.42,47.98,877752.0,41757257.0,1580669828.0,6322669828.0
sz002980,华盛昌,2020-12-28,47.29,47.34,45.2,45.2,47.42,1214000.0,55748730.0,1506669680.0,6026669680.0
sz002980,华盛昌,2020-12-29,45.21,45.88,45.16,45.19,45.2,652080.0,29641360.0,1506336346.0,6025336346.0
sz002980,华盛昌,2020-12-30,45.19,45.45,44.25,44.61,45.19,876208.0,39072343.0,1487002974.0,5948002974.0
sz002980,华盛昌,2020-12-31,44.31,45.73,44.31,45.1,44.61,654571.0,29545182.0,1503336340.0,6013336340.0
sz002980,华盛昌,2021-01-04,44.88,45.99,44.88,45.58,45.1,836848.0,38129510.0,1519336372.0,6077336372.0
sz002980,华盛昌,2021-01-05,45.66,46.19,45.32,46.04,45.58,908400.0,41581990.0,1534669736.0,6138669736.0
sz002980,华盛昌,2021-01-06,46.5,46.5,45.0,45.06,46.04,883000.0,40154513.0,1502003004.0,6008003003.999999
sz002980,华盛昌,2021-01-07,45.12,45.5,42.47,42.63,45.06,1468220.0,63941323.0,1421002842.0,5684002842.0
sz002980,华盛昌,2021-01-08,42.68,43.37,40.51,43.25,42.63,848742.0,35815230.0,1441669549.9999998,5766669550.0
sz002980,华盛昌,2021-01-11,43.27,43.35,41.27,41.52,43.25,822100.0,34812863.0,1384002768.0,5536002768.0
sz002980,华盛昌,2021-01-12,41.53,42.25,41.3,42.02,41.52,613600.0,25704430.0,1400669468.0,5602669468.0
sz002980,华盛昌,2021-01-13,42.02,42.02,40.72,41.38,42.02,811000.0,33475958.0,1379336092.0,5517336091.999999
sz002980,华盛昌,2021-01-14,40.85,43.33,40.85,42.46,41.38,1137184.0,48243830.0,1415336164.0,5661336164.000001
sz002980,华盛昌,2021-01-15,42.14,44.29,42.07,44.04,42.46,1329180.0,57837440.0,1468002936.0,5872002936.0
sz002980,华盛昌,2021-01-18,44.44,44.82,43.61,43.98,44.04,974278.0,42926956.0,1466002931.9999998,5864002932.0
sz002980,华盛昌,2021-01-19,43.72,44.18,43.41,43.55,43.98,696927.0,30433880.0,1451669570.0,5806669570.000001
sz002980,华盛昌,2021-01-20,43.55,43.93,43.03,43.48,43.55,585400.0,25375721.0,1449336232.0,5797336232.0
sz002980,华盛昌,2021-01-21,43.57,45.3,43.57,44.95,43.48,1385617.0,61641328.0,1498336330.0,5993336330.0
sz002980,华盛昌,2021-01-22,44.8,44.8,44.12,44.4,44.95,835624.0,37079519.0,1480002960.0,5920002960.0
sz002980,华盛昌,2021-01-25,44.43,44.73,42.01,42.42,44.4,1315924.0,56504181.0,1414002827.9999998,5656002828.0
sz002980,华盛昌,2021-01-26,42.07,42.9,41.68,42.1,42.42,531524.0,22460227.0,1403336140.0,5613336139.999999
sz002980,华盛昌,2021-01-27,41.86,42.57,41.71,42.17,42.1,484200.0,20398457.0,1405669478.0,5622669478.0
sz002980,华盛昌,2021-01-28,42.0,43.6,41.71,42.68,42.17,962399.0,41381066.0,1422669512.0,5690669512.0
sz002980,华盛昌,2021-01-29,43.0,43.24,40.63,41.01,42.68,1209975.0,50164813.0,1367002734.0,5468002733.999999
sz002980,华盛昌,2021-02-01,41.28,45.11,40.8,45.11,41.01,2361662.0,104281252.0,1503669674.0,6014669674.0
sz002980,华盛昌,2021-02-02,46.01,46.46,44.01,45.07,45.11,3200505.0,144939594.0,1502336338.0,6009336338.0
sz002980,华盛昌,2021-02-03,44.79,44.99,43.55,43.62,45.07,1704292.0,75025857.0,1454002907.9999998,5816002908.0
sz002980,华盛昌,2021-02-04,43.18,43.45,41.37,41.87,43.62,1424950.0,60011936.0,1395669457.9999998,5582669458.0
sz002980,华盛昌,2021-02-05,41.88,44.91,41.88,42.94,41.87,1698500.0,73994717.0,1431336196.0,5725336196.0
sz002980,华盛昌,2021-02-08,43.12,45.12,41.5,44.57,42.94,1947227.0,85366937.0,1485669638.0,5942669638.0
sz002980,华盛昌,2021-02-09,44.3,45.17,43.6,44.57,44.57,1355000.0,60408826.0,1485669638.0,5942669638.0
sz002980,华盛昌,2021-02-10,44.5,45.45,43.66,45.08,44.57,1581300.0,70629907.0,1502669672.0000002,6010669672.0
sz002980,华盛昌,2021-02-18,45.26,48.65,44.9,48.01,45.08,2972007.0,138643176.0,1600336534.0,6401336533.999999
sz002980,华盛昌,2021-02-19,47.6,48.88,47.0,48.18,48.01,2130324.0,101957701.0,1606003212.0,6424003212.0
sz002980,华盛昌,2021-02-22,48.19,50.45,47.33,49.46,48.18,2787976.0,136341768.0,1648669964.0,6594669963.999999
sz002980,华盛昌,2021-02-23,49.0,49.85,46.8,47.06,49.46,2178175.0,105097559.0,1568669804.0,6274669804.0
sz002980,华盛昌,2021-02-24,47.31,48.69,47.0,48.69,47.06,1767416.0,84474771.0,1623003246.0,6492003246.000001
sz002980,华盛昌,2021-02-25,49.3,49.3,47.47,47.5,48.69,1355125.0,65313475.0,1583336500.0,6333336500.0
sz002980,华盛昌,2021-02-26,47.06,47.88,46.63,46.81,47.5,950067.0,44748484.0,1560336454.0,6241336454.0
sz002980,华盛昌,2021-03-01,46.84,48.49,46.3,48.24,46.81,1410826.0,67215984.0,1608003216.0,6432003216.0
sz002980,华盛昌,2021-03-02,48.29,48.29,46.88,47.06,48.24,1079876.0,51127860.0,1568669804.0,6274669804.0
sz002980,华盛昌,2021-03-03,47.06,47.43,46.6,47.16,47.06,847605.0,39773364.0,1572003144.0,6288003144.0
sz002980,华盛昌,2021-03-04,46.8,47.08,45.96,45.96,47.16,1051933.0,48729780.0,1532003064.0,6128003064.0
sz002980,华盛昌,2021-03-05,45.61,46.33,45.42,46.1,45.96,701910.0,32259349.0,1536669739.9999998,6146669740.0
sz002980,华盛昌,2021-03-08,46.58,47.58,46.22,46.32,46.1,1210588.0,56782680.0,1544003088.0,6176003088.0
sz002980,华盛昌,2021-03-09,46.4,46.79,42.61,43.6,46.32,1412308.0,62426810.0,1453336240.0,5813336240.0
sz002980,华盛昌,2021-03-10,43.63,44.27,42.58,42.7,43.6,745833.0,32077555.0,1423336179.9999998,5693336180.0
sz002980,华盛昌,2021-03-11,42.76,43.6,42.2,43.22,42.7,544000.0,23365203.0,1440669548.0,5762669547.999999
sz002980,华盛昌,2021-03-12,43.21,43.35,42.52,42.69,43.22,486246.0,20831572.0,1423002846.0000002,5692002846.0
sz002980,华盛昌,2021-03-15,42.74,42.82,41.88,42.16,42.69,574801.0,24317425.0,1405336144.0,5621336144.0
sz002980,华盛昌,2021-03-16,42.21,43.55,42.08,43.4,42.16,729416.0,31301914.0,1446669560.0,5786669560.0
sz002980,华盛昌,2021-03-17,43.07,47.74,42.83,47.74,43.4,2906091.0,135313076.0,1591336516.0000002,6365336516.0
sz002980,华盛昌,2021-03-18,50.22,52.0,48.65,49.0,47.74,6704487.0,335716618.0,1633336600.0,6533336600.0
sz002980,华盛昌,2021-03-19,47.78,48.88,47.4,47.9,49.0,3400999.0,163985806.0,1596669860.0,6386669860.0
sz002980,华盛昌,2021-03-22,47.99,49.59,47.99,49.24,47.9,3137865.0,153676972.0,1641336616.0,6565336616.0
sz002980,华盛昌,2021-03-23,49.01,49.2,47.11,47.91,49.24,2316839.0,111338986.0,1597003194.0,6388003194.0
sz002980,华盛昌,2021-03-24,47.54,48.11,46.71,47.02,47.91,1637611.0,77512811.0,1567336467.9999998,6269336468.0
sz002980,华盛昌,2021-03-25,46.5,47.47,46.3,47.43,47.02,1626727.0,76390575.0,1581003162.0,6324003162.0
sz002980,华盛昌,2021-03-26,47.4,48.5,47.0,48.21,47.43,1910234.0,91708869.0,1607003213.9999998,6428003214.0
sz002980,华盛昌,2021-03-29,48.6,48.6,46.81,46.86,48.21,1608200.0,76163359.0,1562003124.0,6248003124.000001
sz002980,华盛昌,2021-03-30,46.6,46.6,45.13,45.17,46.86,1727823.0,79055037.0,1505669678.0000002,6022669678.0
sz002980,华盛昌,2021-03-31,45.13,45.76,45.13,45.54,45.17,816900.0,37176462.0,1518003036.0000002,6072003036.0
sz002980,华盛昌,2021-04-01,46.0,46.49,45.48,45.95,45.54,992000.0,45718520.0,1531669730.0,6126669730.0
sz002980,华盛昌,2021-04-02,45.9,45.9,45.2,45.81,45.95,840550.0,38349034.0,1527003054.0000002,6108003054.0
sz002980,华盛昌,2021-04-06,45.7,47.39,45.67,47.34,45.81,1295204.0,60537249.0,1578003156.0,6312003156.0
sz002980,华盛昌,2021-04-07,47.21,47.96,46.7,47.51,47.34,1470981.0,69480059.0,1583669834.0,6334669834.0
sz002980,华盛昌,2021-04-08,47.32,47.9,46.82,47.35,47.51,1216881.0,57661717.0,1578336490.0,6313336490.0
sz002980,华盛昌,2021-04-09,47.5,47.65,46.05,46.3,47.35,1142883.0,53248247.0,1543336420.0,6173336420.0
sz002980,华盛昌,2021-04-12,46.5,46.55,44.71,44.79,46.3,997899.0,45339566.0,1493002986.0,5972002986.0
sz002980,华盛昌,2021-04-13,44.49,45.23,44.28,44.62,44.79,579199.0,25943278.0,1487336308.0000002,5949336308.0
sz002980,华盛昌,2021-04-14,44.7,45.28,44.7,45.26,44.62,575392.0,25899138.0,1508669684.0000002,6034669684.0
sz002980,华盛昌,2021-04-15,43.7,43.71,40.73,40.73,45.26,2911800.0,119438757.0,1357669382.0,5430669382.0
sz002980,华盛昌,2021-04-16,40.47,41.0,39.38,40.58,40.73,1318954.0,53210626.0,1352669371.9999998,5410669372.0
sz002980,华盛昌,2021-04-19,40.6,41.45,40.1,41.03,40.58,1166867.0,47569531.0,1367669402.0,5470669402.0
sz002980,华盛昌,2021-04-20,40.99,41.0,40.36,40.42,41.03,841074.0,34142799.0,1347336028.0,5389336028.0
sz002980,华盛昌,2021-04-21,40.13,40.35,39.69,40.18,40.42,757783.0,30275648.0,1339336012.0,5357336012.0
sz002980,华盛昌,2021-04-22,40.18,40.35,39.61,39.9,40.18,798854.0,31872257.0,1330002660.0,5320002659.999999
sz002980,华盛昌,2021-04-23,39.7,40.3,39.5,39.98,39.9,580253.0,23154587.0,1332669332.0,5330669332.0
sz002980,华盛昌,2021-04-26,40.0,40.4,39.85,40.08,39.98,721874.0,28993551.0,1336002672.0,5344002672.0
sz002980,华盛昌,2021-04-27,40.0,40.3,39.42,39.76,40.08,564900.0,22430112.0,1325335983.9999998,5301335984.0
sz002980,华盛昌,2021-04-28,40.0,41.0,39.55,40.81,39.76,971357.0,39293527.0,1360336054.0,5441336054.0
sz002980,华盛昌,2021-04-29,40.81,41.3,39.87,39.97,40.81,865824.0,34768629.0,1332335998.0,5329335998.0
sz002980,华盛昌,2021-04-30,40.0,40.1,37.17,37.78,39.97,1683732.0,64186324.0,1259335852.0,5037335852.0
sz002980,华盛昌,2021-05-06,37.78,37.78,36.51,37.19,37.78,866695.0,32055631.0,1239669146.0,4958669146.0
sz002980,华盛昌,2021-05-07,37.0,38.6,36.78,37.98,37.19,779636.0,29381860.0,1266002532.0,5064002532.0
sz002980,华盛昌,2021-05-10,37.88,37.9,37.06,37.37,37.98,430924.0,16089540.0,1245669158.0,4982669158.0
sz002980,华盛昌,2021-05-11,37.34,38.11,37.01,37.65,37.37,529024.0,19840616.0,1255002510.0,5020002510.0
sz002980,华盛昌,2021-05-12,37.25,37.8,37.21,37.55,37.65,358100.0,13407123.0,1251669170.0,5006669170.0
sz002980,华盛昌,2021-05-13,37.42,37.7,36.93,36.97,37.55,446600.0,16633849.0,1232335798.0,4929335798.0
sz002980,华盛昌,2021-05-14,37.0,37.69,37.0,37.41,36.97,465890.0,17448661.0,1247002494.0,4988002494.0
sz002980,华盛昌,2021-05-17,37.45,38.2,37.41,37.7,37.41,444382.0,16821945.0,1256669180.0,5026669180.0
sz002980,华盛昌,2021-05-18,37.7,38.25,37.58,37.76,37.7,382674.0,14539375.0,1258669184.0,5034669184.0
sz002980,华盛昌,2021-05-19,37.8,38.2,37.42,37.61,37.76,351426.0,13219866.0,1253669174.0,5014669174.0
sz002980,华盛昌,2021-05-20,37.7,38.18,37.59,37.59,37.61,443400.0,16759319.0,1253002506.0,5012002506.0
sz002980,华盛昌,2021-05-21,37.6,37.9,37.02,37.19,37.59,290200.0,10831832.0,1239669146.0,4958669146.0
sz002980,华盛昌,2021-05-24,37.15,38.7,36.98,37.9,37.19,614768.0,23348875.0,1263335860.0,5053335860.0
sz002980,华盛昌,2021-05-25,37.6,38.07,37.6,37.94,37.9,371100.0,14040314.0,1264669196.0,5058669196.0
sz002980,华盛昌,2021-05-26,38.16,38.5,37.79,38.22,37.94,540122.0,20585439.0,1274002548.0,5096002548.0
sz002980,华盛昌,2021-05-27,38.25,38.95,38.1,38.67,38.22,719700.0,27788096.0,1289002578.0,5156002578.0
sz002980,华盛昌,2021-05-28,38.7,38.76,37.85,37.99,38.67,533435.0,20408316.0,1266335866.0,5065335866.0
sz002980,华盛昌,2021-05-31,38.2,38.49,37.75,37.83,37.99,611520.0,23211261.0,1261002522.0,5044002522.0
sz002980,华盛昌,2021-06-01,37.83,38.62,37.55,38.34,37.83,699799.0,26731456.0,1278002556.0,5112002556.0
sz002980,华盛昌,2021-06-02,38.48,39.24,38.11,38.62,38.34,718666.0,27747149.0,1287335908.0,5149335908.0
sz002980,华盛昌,2021-06-03,39.2,39.5,38.67,38.88,38.62,897241.0,35068665.0,1296002592.0,5184002592.0
sz002980,华盛昌,2021-06-04,38.98,39.78,38.73,39.52,38.88,883834.0,34815971.0,1317335968.0,5269335968.000001
sz002980,华盛昌,2021-06-07,39.52,40.5,39.35,40.28,39.52,837067.0,33562284.0,1342669352.0,5370669351.999999
sz002980,华盛昌,2021-06-08,40.5,40.5,39.31,39.91,40.28,997659.0,39574081.0,1330335994.0,5321335993.999999
sz002980,华盛昌,2021-06-09,38.67,38.67,37.67,37.73,38.81,752120.0,28461935.0,1257669182.0,5030669182.0
sz002980,华盛昌,2021-06-10,38.0,38.34,37.34,37.91,37.73,643127.0,24346272.0,1263669194.0,5054669194.0
sz002980,华盛昌,2021-06-11,37.91,38.0,37.16,37.4,37.91,580193.0,21720211.0,1246669160.0,4986669160.0
sz002980,华盛昌,2021-06-15,37.96,38.2,37.23,37.35,37.4,599053.0,22466083.0,1245002490.0,4980002490.0
sz002980,华盛昌,2021-06-16,37.19,37.5,36.13,36.21,37.35,731851.0,26721586.0,1207002414.0,4828002414.0
sz002980,华盛昌,2021-06-17,36.43,36.43,36.0,36.3,36.21,370724.0,13427548.0,1210002420.0,4840002420.0
sz002980,华盛昌,2021-06-18,36.57,36.57,36.01,36.03,36.3,402592.0,14524522.0,1201002402.0,4804002402.0
sz002980,华盛昌,2021-06-21,36.15,36.9,35.6,36.55,36.03,534592.0,19467355.0,1218335770.0,4873335770.0
sz002980,华盛昌,2021-06-22,36.51,36.8,36.34,36.54,36.55,329075.0,11993930.0,1218002436.0,4872002436.0
sz002980,华盛昌,2021-06-23,36.55,36.67,36.29,36.43,36.54,380710.0,13886634.0,1214335762.0,4857335762.0
sz002980,华盛昌,2021-06-24,36.63,36.88,36.1,36.12,36.43,441900.0,16090609.0,1204002408.0,4816002408.0
sz002980,华盛昌,2021-06-25,36.04,36.32,35.95,36.04,36.12,399992.0,14431492.0,1201335736.0,4805335736.0
sz002980,华盛昌,2021-06-28,35.94,36.69,35.94,36.3,36.04,376736.0,13666665.0,1210002420.0,4840002420.0
sz002980,华盛昌,2021-06-29,36.25,36.7,36.2,36.47,36.3,464270.0,16917917.0,1215669098.0,4862669098.0
sz002980,华盛昌,2021-06-30,36.49,36.75,35.93,35.95,36.47,611200.0,22043384.0,1198335730.0,4793335730.0
sz002980,华盛昌,2021-07-01,36.26,36.26,35.7,35.71,35.95,434270.0,15583638.0,1190335714.0,4761335714.0
sz002980,华盛昌,2021-07-02,35.71,35.95,35.0,35.04,35.71,510459.0,17960670.0,1168002336.0,4672002336.0
sz002980,华盛昌,2021-07-05,35.04,35.51,34.71,34.95,35.04,435400.0,15204607.0,1165002330.0,4660002330.0
sz002980,华盛昌,2021-07-06,34.95,35.29,34.87,35.2,34.95,275101.0,9645131.0,1173335680.0,4693335680.0
sz002980,华盛昌,2021-07-07,35.09,35.27,34.85,35.03,35.2,335025.0,11717290.0,1167669002.0,4670669002.0
sz002980,华盛昌,2021-07-08,35.01,35.24,34.31,34.49,35.03,557024.0,19284406.0,1149668966.0,4598668966.0
sz002980,华盛昌,2021-07-09,34.38,35.1,34.18,34.83,34.49,459400.0,15899732.0,1161002322.0,4644002322.0
sz002980,华盛昌,2021-07-12,35.43,35.43,34.96,35.16,34.83,345700.0,12149546.0,1172002344.0,4688002344.0
sz002980,华盛昌,2021-07-13,35.11,35.3,34.85,34.95,35.16,325400.0,11376327.0,1165002330.0,4660002330.0
sz002980,华盛昌,2021-07-14,34.95,35.0,34.56,34.61,34.95,365100.0,12652381.0,1153668974.0,4614668974.0
sz002980,华盛昌,2021-07-15,34.5,34.61,33.54,33.78,34.61,891551.0,30040937.0,1126002252.0,4504002252.0
sz002980,华盛昌,2021-07-16,33.76,33.89,33.0,33.05,33.78,559116.0,18635839.0,1101668870.0,4406668870.0
sz002980,华盛昌,2021-07-19,32.99,32.99,31.0,32.36,33.05,756064.0,24128471.0,1078668824.0,4314668824.0
sz002980,华盛昌,2021-07-20,32.36,32.68,31.51,31.81,32.36,343700.0,10934796.0,1060335454.0,4241335454.0
sz002980,华盛昌,2021-07-21,31.91,32.3,31.87,31.97,31.81,326524.0,10464400.0,1065668798.0,4262668798.0
sz002980,华盛昌,2021-07-22,31.87,32.21,31.87,32.11,31.97,250801.0,8044575.0,1070335474.0,4281335474.0
sz002980,华盛昌,2021-07-23,32.11,32.16,31.33,31.36,32.11,399453.0,12596556.0,1045335424.0,4181335424.0
sz002980,华盛昌,2021-07-26,31.51,31.55,30.3,30.47,31.36,593560.0,18202202.0,1015668698.0,4062668698.0
sz002980,华盛昌,2021-07-27,30.76,32.09,30.41,30.8,30.47,712046.0,22138497.0,1026668720.0,4106668720.0
sz002980,华盛昌,2021-07-28,30.8,31.26,30.2,30.54,30.8,469200.0,14337318.0,1018002036.0,4072002036.0
sz002980,华盛昌,2021-07-29,30.59,32.2,30.59,31.66,30.54,626050.0,19657200.0,1055335444.0,4221335444.0
sz002980,华盛昌,2021-07-30,32.99,32.99,31.88,32.52,31.66,1018897.0,33255975.0,1084002168.0,4336002168.0
sz002980,华盛昌,2021-08-02,32.18,32.18,31.41,31.87,32.52,863513.0,27378947.0,1062335458.0,4249335458.0
sz002980,华盛昌,2021-08-03,31.85,32.49,31.67,32.0,31.87,580768.0,18675853.0,1066668800.0,4266668800.0
sz002980,华盛昌,2021-08-04,31.99,32.48,31.58,32.31,32.0,507134.0,16313107.0,1077002154.0,4308002154.0
sz002980,华盛昌,2021-08-05,32.4,32.42,31.66,31.7,32.31,382118.0,12194317.0,1056668780.0,4226668780.000001
sz002980,华盛昌,2021-08-06,31.55,32.13,31.12,31.6,31.7,268400.0,8444045.0,1053335440.0,4213335440.0
sz002980,华盛昌,2021-08-09,31.36,32.49,31.34,32.31,31.6,457968.0,14753099.0,1077002154.0,4308002154.0
sz002980,华盛昌,2021-08-10,32.29,32.59,32.16,32.55,32.31,373000.0,12069750.0,1085002170.0,4340002170.0
sz002980,华盛昌,2021-08-11,32.55,32.69,32.19,32.52,32.55,376998.0,12193967.0,1084002168.0,4336002168.0
sz002980,华盛昌,2021-08-12,32.85,33.3,32.5,32.8,32.52,606718.0,19883500.0,1093335520.0,4373335520.0
sz002980,华盛昌,2021-08-13,32.52,32.69,32.12,32.42,32.8,404563.0,13080969.0,1080668828.0,4322668828.0
sz002980,华盛昌,2021-08-16,32.36,32.58,32.04,32.45,32.42,301400.0,9750359.0,1081668830.0,4326668830.0
sz002980,华盛昌,2021-08-17,32.21,32.44,31.33,31.34,32.45,378100.0,12053737.0,1044668756.0,4178668756.000001
sz002980,华盛昌,2021-08-18,31.51,31.63,31.12,31.28,31.34,269800.0,8443060.0,1042668752.0,4170668752.0
sz002980,华盛昌,2021-08-19,31.14,31.6,31.04,31.18,31.28,225300.0,7048793.0,1039335412.0,4157335412.0
sz002980,华盛昌,2021-08-20,31.08,31.08,30.4,30.54,31.18,355224.0,10867932.0,1018002036.0,4072002036.0
sz002980,华盛昌,2021-08-23,30.5,32.98,30.5,32.67,30.54,1139306.0,36408696.0,1089002178.0,4356002178.0
sz002980,华盛昌,2021-08-24,32.52,32.97,32.28,32.58,32.67,461200.0,15013520.0,1086002172.0,4344002172.0
sz002980,华盛昌,2021-08-25,32.58,32.85,31.98,32.2,32.58,502480.0,16237919.0,1073335480.0,4293335480.0
sz002980,华盛昌,2021-08-26,32.0,32.23,31.48,31.5,32.2,362687.0,11524087.0,1050002100.0,4200002100.0
sz002980,华盛昌,2021-08-27,31.4,31.56,30.68,30.89,31.5,566202.0,17567618.0,1029668726.0,4118668726.0
sz002980,华盛昌,2021-08-30,30.8,31.96,30.67,31.12,30.89,420067.0,13131176.0,1037335408.0,4149335408.0
sz002980,华盛昌,2021-08-31,31.02,31.13,30.54,30.72,31.12,394300.0,12113509.0,1024002048.0,4096002048.0
sz002980,华盛昌,2021-09-01,30.62,31.28,30.62,31.13,30.72,396700.0,12270979.0,1037668742.0,4150668742.0
sz002980,华盛昌,2021-09-02,31.22,31.22,30.75,30.85,31.13,303600.0,9395379.0,1028335390.0,4113335390.0
sz002980,华盛昌,2021-09-03,30.85,31.2,30.77,31.01,30.85,330200.0,10230946.0,1033668734.0,4134668734.0
sz002980,华盛昌,2021-09-06,31.3,32.06,30.96,31.94,31.01,686300.0,21760169.0,1064668796.0,4258668796.0
sz002980,华盛昌,2021-09-07,31.77,32.6,31.76,32.52,31.94,796524.0,25641932.0,1084002168.0,4336002168.0
sz002980,华盛昌,2021-09-08,32.53,32.53,31.79,31.87,32.52,739024.0,23648834.0,1062335458.0,4249335458.0
sz002980,华盛昌,2021-09-09,31.8,32.16,31.45,31.69,31.87,461148.0,14655829.0,1056335446.0,4225335446.0
sz002980,华盛昌,2021-09-10,31.67,31.94,31.51,31.84,31.69,296000.0,9391900.0,1061335456.0,4245335456.0
sz002980,华盛昌,2021-09-13,31.98,31.98,31.5,31.6,31.84,328980.0,10408659.0,1053335440.0,4213335440.0
sz002980,华盛昌,2021-09-14,31.7,31.9,31.08,31.22,31.6,378300.0,11868860.0,1040668748.0,4162668748.0
sz002980,华盛昌,2021-09-15,31.19,31.36,30.83,31.29,31.22,241500.0,7493642.0,1043002086.0,4172002086.0
sz002980,华盛昌,2021-09-16,31.25,31.5,31.04,31.43,31.29,316532.0,9896518.0,1047668762.0,4190668762.0
sz002980,华盛昌,2021-09-17,32.6,34.57,31.6,34.57,31.43,2749287.0,94341110.0,1152335638.0,4609335638.0
sz002980,华盛昌,2021-09-22,35.0,37.5,34.57,37.0,34.57,5459359.0,198244718.0,1233335800.0,4933335800.0
sz002980,华盛昌,2021-09-23,36.88,36.9,34.5,36.55,37.0,3284155.0,117506414.0,1218335770.0,4873335770.0
sz002980,华盛昌,2021-09-24,35.9,36.39,35.35,36.12,36.55,1869496.0,66946446.0,1204002408.0,4816002408.0
sz002980,华盛昌,2021-09-27,36.0,36.04,34.24,34.64,36.12,1617739.0,56412788.0,1154668976.0,4618668976.0
sz002980,华盛昌,2021-09-28,34.59,35.24,34.03,34.85,34.64,996630.0,34629659.0,1161668990.0,4646668990.0
sz002980,华盛昌,2021-09-29,34.49,34.75,32.89,32.9,34.85,1316000.0,43970491.0,1096668860.0,4386668860.0
sz002980,华盛昌,2021-09-30,32.86,33.62,32.85,33.4,32.9,870200.0,28911553.0,1113335560.0,4453335560.0
sz002980,华盛昌,2021-10-08,33.72,34.1,32.91,33.1,33.4,1132400.0,37720621.0,1103335540.0,4413335540.0
sz002980,华盛昌,2021-10-11,33.3,33.98,32.8,33.05,33.1,1171656.0,39070961.0,1101668870.0,4406668870.0
sz002980,华盛昌,2021-10-12,33.05,33.05,31.86,32.92,33.05,1296030.0,41905422.0,1097335528.0,4389335528.0
sz002980,华盛昌,2021-10-13,34.7,35.0,32.72,32.73,32.92,2067800.0,69519289.0,1091002182.0,4364002182.0
sz002980,华盛昌,2021-10-14,32.15,32.73,31.87,32.08,32.73,824900.0,26467091.0,1069335472.0,4277335472.0
sz002980,华盛昌,2021-10-15,31.9,31.94,31.05,31.08,32.08,1005680.0,31412520.0,1036002072.0,4144002072.0
sz002980,华盛昌,2021-10-18,31.0,31.0,29.85,30.02,31.08,1267268.0,38181388.0,1000668668.0,4002668668.0
sz002980,华盛昌,2021-10-19,29.81,30.23,29.81,30.11,30.02,556110.0,16728878.0,1003668674.0,4014668674.0
sz002980,华盛昌,2021-10-20,30.17,30.8,29.96,30.66,30.11,713654.0,21665350.0,1022002044.0,4088002044.0
sz002980,华盛昌,2021-10-21,31.8,31.8,30.35,30.38,30.66,719100.0,22162838.0,1012668692.0,4050668692.0
sz002980,华盛昌,2021-10-22,30.11,30.65,29.8,30.04,30.38,622495.0,18618432.0,1001335336.0,4005335336.000001
sz002980,华盛昌,2021-10-25,29.99,30.38,29.69,30.3,30.04,351296.0,10582954.0,1010002020.0,4040002020.0
sz002980,华盛昌,2021-10-26,30.32,30.32,29.81,29.92,30.3,453552.0,13596590.0,997335328.0,3989335328.0
sz002980,华盛昌,2021-10-27,30.0,30.05,28.77,28.78,29.92,769000.0,22327478.0,959335252.0,3837335252.0
sz002980,华盛昌,2021-10-28,28.81,28.99,27.68,28.05,28.78,531760.0,14909829.0,935001870.0,3740001870.0
sz002980,华盛昌,2021-10-29,27.74,29.14,27.74,29.03,28.05,521000.0,14955970.0,967668602.0,3870668602.0
sz002980,华盛昌,2021-11-01,28.99,29.47,28.84,29.3,29.03,342923.0,10042680.0,976668620.0,3906668620.0
sz002980,华盛昌,2021-11-02,29.2,29.69,28.68,28.88,29.3,439766.0,12824603.0,962668592.0,3850668592.0
sz002980,华盛昌,2021-11-03,28.89,29.45,28.69,29.28,28.88,240101.0,7012851.0,976001952.0,3904001952.0
sz002980,华盛昌,2021-11-04,29.86,29.86,29.26,29.5,29.28,278809.0,8199817.0,983335300.0,3933335300.000001
sz002980,华盛昌,2021-11-05,29.49,29.51,28.68,28.8,29.5,981007.0,28419635.0,960001920.0,3840001920.0
sz002980,华盛昌,2021-11-08,28.8,29.09,28.37,28.52,28.8,430600.0,12263025.0,950668568.0,3802668568.0
sz002980,华盛昌,2021-11-09,28.61,29.22,28.5,28.99,28.52,442280.0,12761963.0,966335266.0,3865335266.0
sz002980,华盛昌,2021-11-10,29.2,29.4,28.71,29.37,28.99,541900.0,15836084.0,979001958.0,3916001958.0
sz002980,华盛昌,2021-11-11,29.09,29.84,29.09,29.52,29.37,1341200.0,39494824.0,984001968.0,3936001968.0
sz002980,华盛昌,2021-11-12,29.53,29.88,29.41,29.74,29.52,598546.0,17765296.0,991335316.0,3965335316.0
sz002980,华盛昌,2021-11-15,29.85,30.38,29.68,30.31,29.74,908166.0,27399078.0,1010335354.0,4041335354.0
sz002980,华盛昌,2021-11-16,30.23,30.41,29.6,29.68,30.31,607143.0,18163139.0,989335312.0,3957335312.000001
sz002980,华盛昌,2021-11-17,29.68,30.36,29.68,30.17,29.68,423100.0,12743898.0,1005668678.0,4022668678.0
sz002980,华盛昌,2021-11-18,30.17,30.91,30.01,30.31,30.17,931043.0,28421404.0,1010335354.0,4041335354.0
sz002980,华盛昌,2021-11-19,30.12,30.49,30.0,30.31,30.31,550700.0,16667447.0,1010335354.0,4041335354.0
sz002980,华盛昌,2021-11-22,30.31,30.65,30.26,30.42,30.31,439600.0,13369316.0,1014002028.0,4056002028.0000005
sz002980,华盛昌,2021-11-23,30.42,31.09,30.3,30.9,30.42,785800.0,24140612.0,1030002060.0,4120002060.0
sz002980,华盛昌,2021-11-24,30.78,32.0,30.7,31.05,30.9,1031824.0,32258393.0,1035002070.0,4140002070.0
sz002980,华盛昌,2021-11-25,30.8,31.95,30.8,31.69,31.05,1170969.0,36830262.0,1056335445.9999999,4225335446.0
sz002980,华盛昌,2021-11-26,31.48,31.6,31.01,31.3,31.69,734300.0,22965610.0,1043335420.0,4173335420.0
sz002980,华盛昌,2021-11-29,30.86,31.19,30.7,31.05,31.3,511224.0,15825996.0,1035002070.0,4140002070.0
sz002980,华盛昌,2021-11-30,31.1,31.89,31.1,31.73,31.05,781443.0,24734840.0,1057668782.0000001,4230668782.0
sz002980,华盛昌,2021-12-01,31.99,32.1,31.61,31.84,31.73,572800.0,18237447.0,1061335456.0,4245335456.0
sz002980,华盛昌,2021-12-02,32.3,32.3,31.17,31.17,31.84,672624.0,21218002.0,1039002078.0,4156002077.9999995
sz002980,华盛昌,2021-12-03,31.32,31.86,31.26,31.42,31.17,570722.0,18016200.0,1047335428.0,4189335428.0
sz002980,华盛昌,2021-12-06,31.42,31.55,30.56,30.58,31.42,781700.0,24065979.0,1019335372.0000001,4077335372.0
sz002980,华盛昌,2021-12-07,30.61,30.97,29.7,30.03,30.58,689600.0,20756895.0,1001002002.0000001,4004002002.0
sz002980,华盛昌,2021-12-08,30.1,30.42,29.88,30.39,30.03,418900.0,12654395.0,1013002026.0,4052002026.0
sz002980,华盛昌,2021-12-09,30.5,30.66,30.28,30.44,30.39,488400.0,14858601.0,1014668696.0,4058668696.0
sz002980,华盛昌,2021-12-10,30.44,30.61,30.18,30.3,30.44,412900.0,12542366.0,1010002020.0,4040002020.0
sz002980,华盛昌,2021-12-13,30.37,30.55,29.93,30.07,30.3,741700.0,22391022.0,1002335338.0,4009335337.9999995
sz002980,华盛昌,2021-12-14,30.1,30.76,30.0,30.67,30.07,715457.0,21829413.0,1022335378.0,4089335378.0
sz002980,华盛昌,2021-12-15,30.8,30.8,30.37,30.62,30.67,550000.0,16818603.0,1020668708.0,4082668707.9999995
sz002980,华盛昌,2021-12-16,30.8,30.8,30.41,30.67,30.62,504800.0,15417458.0,1022335378.0,4089335378.0
sz002980,华盛昌,2021-12-17,30.72,31.89,30.27,30.52,30.67,969074.0,29678465.0,1017335368.0,4069335368.0
sz002980,华盛昌,2021-12-20,30.16,30.45,29.96,29.99,30.52,621700.0,18759934.0,999668665.9999999,3998668666.0
sz002980,华盛昌,2021-12-21,30.14,30.19,29.63,30.03,29.99,578210.0,17289917.0,1001002002.0000001,4004002002.0
sz002980,华盛昌,2021-12-22,30.01,30.2,29.9,30.0,30.03,325200.0,9768644.0,1000002000.0,4000002000.0
sz002980,华盛昌,2021-12-23,30.0,30.28,29.72,30.22,30.0,544324.0,16299141.0,1007335347.9999999,4029335348.0
sz002980,华盛昌,2021-12-24,30.19,30.21,29.4,29.6,30.22,460500.0,13677318.0,986668640.0,3946668640.0
sz002980,华盛昌,2021-12-27,29.67,29.9,29.26,29.65,29.6,310900.0,9207884.0,988335310.0,3953335310.0
sz002980,华盛昌,2021-12-28,31.13,31.13,29.5,30.1,29.65,680500.0,20660800.0,1003335340.0,4013335340.0
sz002980,华盛昌,2021-12-29,29.99,30.39,29.71,30.14,30.1,481040.0,14469846.0,1004668676.0,4018668676.0
sz002980,华盛昌,2021-12-30,29.95,30.58,29.95,30.28,30.14,488324.0,14808162.0,1009335352.0,4037335352.0
sz002980,华盛昌,2021-12-31,30.29,30.49,30.2,30.41,30.28,365000.0,11094797.0,1013668694.0,4054668694.0000005
sz002980,华盛昌,2022-01-04,30.14,31.17,30.14,30.96,30.41,980078.0,30245671.0,1032002064.0,4128002064.0000005
sz002980,华盛昌,2022-01-05,31.16,31.25,30.43,30.53,30.96,612500.0,18788091.0,1017668702.0,4070668702.0
sz002980,华盛昌,2022-01-06,30.58,31.06,30.31,30.91,30.53,509100.0,15689605.0,1030335394.0,4121335394.0
sz002980,华盛昌,2022-01-07,30.91,31.17,30.51,30.69,30.91,448600.0,13823974.0,1023002046.0,4092002046.0
sz002980,华盛昌,2022-01-10,30.75,32.43,30.75,32.02,30.69,1895014.0,60205871.0,1067335468.0,4269335468.0
sz002980,华盛昌,2022-01-11,32.01,32.67,31.51,32.5,32.02,2187363.0,70461080.0,1083335500.0,4333335500.0
sz002980,华盛昌,2022-01-12,32.18,35.0,32.18,33.9,32.5,3336254.0,111733728.0,1130002260.0,4520002260.0
sz002980,华盛昌,2022-01-13,33.32,34.99,33.0,34.59,33.9,3828953.0,131742181.0,1153002306.0,4612002306.0
sz002980,华盛昌,2022-01-14,34.58,35.0,33.81,34.47,34.59,2809716.0,96938842.0,1149002298.0,4596002298.0
