数据由邢不行整理
股票代码,股票名称,交易日期,开盘价,最高价,最低价,收盘价,前收盘价,成交量,成交额,流通市值,总市值
sz002997,N瑞鹄,2020-09-03,15.0,17.97,15.0,17.97,12.48,184435.0,3313853.0,824823000.0,3299292000.0
sz002997,瑞鹄模具,2020-09-04,19.77,19.77,19.77,19.77,17.97,46659.0,922448.0,907443000.0,3629772000.0
sz002997,瑞鹄模具,2020-09-07,21.75,21.75,21.75,21.75,19.77,47665.0,1036714.0,998325000.0,3993300000.0
sz002997,瑞鹄模具,2020-09-08,23.93,23.93,23.93,23.93,21.75,73398.0,1756414.0,1098387000.0,4393548000.0
sz002997,瑞鹄模具,2020-09-09,26.32,26.32,26.32,26.32,23.93,241043.0,6344252.0,1208088000.0,4832352000.0
sz002997,瑞鹄模具,2020-09-10,28.95,28.95,28.95,28.95,26.32,411186.0,11903835.0,1328805000.0,5315220000.0
sz002997,瑞鹄模具,2020-09-11,26.06,26.06,26.06,26.06,28.95,1846000.0,48106760.0,1196154000.0,4784616000.0
sz002997,瑞鹄模具,2020-09-14,23.45,24.1,23.45,23.45,26.06,7501535.0,176013318.0,1076355000.0,4305420000.0
sz002997,瑞鹄模具,2020-09-15,22.6,22.88,21.7,22.08,23.45,18332343.0,405349359.0,1013472000.0,4053888000.0
sz002997,瑞鹄模具,2020-09-16,21.5,23.93,21.29,23.07,22.08,16897036.0,379882045.0,1058913000.0,4235652000.0
sz002997,瑞鹄模具,2020-09-17,22.6,23.0,21.9,22.07,23.07,11400971.0,254850293.0,1013013000.0,4052052000.0
sz002997,瑞鹄模具,2020-09-18,21.78,21.88,20.9,21.09,22.07,10327193.0,219517463.0,968031000.0,3872124000.0
sz002997,瑞鹄模具,2020-09-21,21.15,21.47,20.94,21.18,21.09,5600694.0,118887452.0,972162000.0,3888648000.0
sz002997,瑞鹄模具,2020-09-22,20.92,20.92,20.1,20.18,21.18,7207394.0,147390284.0,926262000.0,3705048000.0
sz002997,瑞鹄模具,2020-09-23,20.2,20.91,20.2,20.57,20.18,5108630.0,104921667.0,944163000.0,3776652000.0
sz002997,瑞鹄模具,2020-09-24,20.35,20.77,19.85,20.23,20.57,6732916.0,136117218.0,928557000.0,3714228000.0
sz002997,瑞鹄模具,2020-09-25,20.18,20.43,19.82,20.25,20.23,5653055.0,113835650.0,929475000.0,3717900000.0
sz002997,瑞鹄模具,2020-09-28,20.24,20.53,19.96,19.97,20.25,3856790.0,78232025.0,916623000.0,3666492000.0
sz002997,瑞鹄模具,2020-09-29,20.01,20.16,19.33,19.55,19.97,4577966.0,89580674.0,897345000.0,3589380000.0
sz002997,瑞鹄模具,2020-09-30,19.55,19.98,19.43,19.65,19.55,3123984.0,61407903.0,901935000.0,3607740000.0
sz002997,瑞鹄模具,2020-10-09,19.86,20.1,19.7,19.94,19.65,4526640.0,90299189.0,915246000.0,3660984000.0
sz002997,瑞鹄模具,2020-10-12,20.02,20.49,20.02,20.42,19.94,5809203.0,117638691.0,937278000.0,3749112000.0
sz002997,瑞鹄模具,2020-10-13,20.3,20.84,20.2,20.68,20.42,5863039.0,120273320.0,949212000.0,3796848000.0
sz002997,瑞鹄模具,2020-10-14,20.52,20.98,20.27,20.92,20.68,7054772.0,145838862.0,960228000.0,3840912000.0
sz002997,瑞鹄模具,2020-10-15,20.96,21.97,20.8,21.37,20.92,12138469.0,260599149.0,980883000.0,3923532000.0
sz002997,瑞鹄模具,2020-10-16,21.0,21.09,20.05,20.2,21.37,8426646.0,172384495.0,927180000.0,3708720000.0
sz002997,瑞鹄模具,2020-10-19,20.37,20.49,19.72,19.77,20.2,4834139.0,97342804.0,907443000.0,3629772000.0
sz002997,瑞鹄模具,2020-10-20,19.53,20.11,19.43,20.05,19.77,3901726.0,77128104.0,920295000.0,3681180000.0
sz002997,瑞鹄模具,2020-10-21,20.14,20.63,20.05,20.4,20.05,5468211.0,111574877.0,936360000.0,3745440000.0
sz002997,瑞鹄模具,2020-10-22,20.4,20.9,19.98,20.64,20.4,5230576.0,107469246.0,947376000.0,3789504000.0
sz002997,瑞鹄模具,2020-10-23,20.28,20.57,19.7,19.8,20.64,4823509.0,97173373.0,908820000.0,3635280000.0
sz002997,瑞鹄模具,2020-10-26,19.8,19.8,19.08,19.21,19.8,3932481.0,76356548.0,881739000.0,3526956000.0
sz002997,瑞鹄模具,2020-10-27,19.0,19.2,18.59,18.74,19.21,3433154.0,64729091.0,860166000.0,3440664000.0
sz002997,瑞鹄模具,2020-10-28,18.74,18.94,18.39,18.89,18.74,3087688.0,57789139.0,867051000.0,3468204000.0
sz002997,瑞鹄模具,2020-10-29,18.45,18.9,18.3,18.56,18.89,2418148.0,45100882.0,851904000.0,3407616000.0
sz002997,瑞鹄模具,2020-10-30,18.56,18.97,17.76,17.85,18.56,3488289.0,63986079.0,819315000.0,3277260000.0
sz002997,瑞鹄模具,2020-11-02,17.85,18.28,17.7,18.08,17.85,2159454.0,38871702.0,829872000.0,3319488000.0
sz002997,瑞鹄模具,2020-11-03,18.25,18.79,18.11,18.7,18.08,3103895.0,57286279.0,858330000.0,3433320000.0
sz002997,瑞鹄模具,2020-11-04,18.61,18.83,18.48,18.53,18.7,2131039.0,39686665.0,850527000.0,3402108000.0
sz002997,瑞鹄模具,2020-11-05,18.69,19.19,18.61,18.91,18.53,3360703.0,63514085.0,867969000.0,3471876000.0
sz002997,瑞鹄模具,2020-11-06,18.93,19.3,18.61,18.8,18.91,2941032.0,55669991.0,862920000.0,3451680000.0
sz002997,瑞鹄模具,2020-11-09,18.75,19.38,18.75,19.19,18.8,4086710.0,77847020.0,880821000.0,3523284000.0
sz002997,瑞鹄模具,2020-11-10,19.17,19.17,18.61,18.7,19.19,2986569.0,56294105.0,858330000.0,3433320000.0
sz002997,瑞鹄模具,2020-11-11,18.73,19.3,18.62,19.05,18.7,4320807.0,82060423.0,874395000.0,3497580000.0
sz002997,瑞鹄模具,2020-11-12,18.9,19.02,18.66,18.75,19.05,2339510.0,43941343.0,860625000.0,3442500000.0
sz002997,瑞鹄模具,2020-11-13,18.71,19.74,18.71,19.5,18.75,7096152.0,137511041.0,895050000.0,3580200000.0
sz002997,瑞鹄模具,2020-11-16,19.37,20.48,19.28,20.25,19.5,8056460.0,161644430.0,929475000.0,3717900000.0
sz002997,瑞鹄模具,2020-11-17,20.18,20.25,19.58,19.78,20.25,5045025.0,100449714.0,907902000.0,3631608000.0
sz002997,瑞鹄模具,2020-11-18,19.8,20.19,19.64,20.07,19.78,4770682.0,95029686.0,921213000.0,3684852000.0
sz002997,瑞鹄模具,2020-11-19,20.18,20.38,19.8,19.88,20.07,3827185.0,76518199.0,912492000.0,3649968000.0
sz002997,瑞鹄模具,2020-11-20,19.77,20.56,19.72,20.0,19.88,4865830.0,98103257.0,918000000.0,3672000000.0
sz002997,瑞鹄模具,2020-11-23,19.89,20.05,19.0,19.63,20.0,3687235.0,72600635.0,901017000.0,3604068000.0
sz002997,瑞鹄模具,2020-11-24,19.62,20.59,19.62,20.33,19.63,7033606.0,142404209.0,933147000.0,3732588000.0
sz002997,瑞鹄模具,2020-11-25,20.11,22.36,20.08,22.36,20.33,15587638.0,331863810.0,1026324000.0,4105296000.0
sz002997,瑞鹄模具,2020-11-26,21.34,24.3,21.31,21.71,22.36,19402031.0,433556803.0,996489000.0,3985956000.0
sz002997,瑞鹄模具,2020-11-27,21.18,21.54,20.07,20.36,21.71,12197553.0,252881846.0,934524000.0,3738096000.0
sz002997,瑞鹄模具,2020-11-30,20.15,20.62,20.0,20.0,20.36,6449097.0,130516180.0,918000000.0,3672000000.0
sz002997,瑞鹄模具,2020-12-01,19.8,20.35,19.56,20.29,20.0,6192723.0,123840429.0,931311000.0,3725244000.0
sz002997,瑞鹄模具,2020-12-02,20.09,20.29,19.84,19.87,20.29,5340919.0,106795502.0,912033000.0,3648132000.0
sz002997,瑞鹄模具,2020-12-03,19.92,20.25,19.68,20.1,19.87,4347190.0,86959912.0,922590000.0,3690360000.0
sz002997,瑞鹄模具,2020-12-04,19.86,19.99,19.22,19.32,20.1,5245611.0,102355753.0,886788000.0,3547152000.0
sz002997,瑞鹄模具,2020-12-07,19.25,19.38,18.88,18.91,19.32,3421191.0,65123180.0,867969000.0,3471876000.0
sz002997,瑞鹄模具,2020-12-08,18.96,19.29,18.91,19.11,18.91,2245776.0,42922438.0,877149000.0,3508596000.0
sz002997,瑞鹄模具,2020-12-09,19.16,19.21,18.38,18.43,19.11,3067925.0,57244311.0,845937000.0,3383748000.0
sz002997,瑞鹄模具,2020-12-10,18.43,18.62,18.3,18.43,18.43,1630228.0,30108623.0,845937000.0,3383748000.0
sz002997,瑞鹄模具,2020-12-11,18.48,18.54,17.87,18.1,18.43,2640049.0,47664151.0,830790000.0,3323160000.0
sz002997,瑞鹄模具,2020-12-14,18.11,18.38,17.94,18.3,18.1,1458668.0,26546830.0,839970000.0,3359880000.0
sz002997,瑞鹄模具,2020-12-15,18.28,18.57,18.12,18.53,18.3,1681651.0,30967411.0,850527000.0,3402108000.0
sz002997,瑞鹄模具,2020-12-16,18.53,18.58,17.86,17.88,18.53,2424622.0,43863989.0,820692000.0,3282768000.0
sz002997,瑞鹄模具,2020-12-17,17.84,18.02,17.3,17.94,17.88,2262835.0,39963152.0,823446000.0,3293784000.0
sz002997,瑞鹄模具,2020-12-18,17.94,17.94,17.58,17.61,17.94,1496316.0,26556496.0,808299000.0,3233196000.0
sz002997,瑞鹄模具,2020-12-21,17.4,17.75,17.4,17.66,17.61,1119261.0,19732193.0,810594000.0,3242376000.0
sz002997,瑞鹄模具,2020-12-22,17.62,17.7,16.94,16.95,17.66,2411592.0,41693309.0,778005000.0,3112020000.0
sz002997,瑞鹄模具,2020-12-23,16.89,17.33,16.61,16.69,16.95,2050600.0,34604331.0,766071000.0,3064284000.0
sz002997,瑞鹄模具,2020-12-24,16.69,16.8,15.97,16.08,16.69,2378767.0,38706415.0,738072000.0,2952288000.0
sz002997,瑞鹄模具,2020-12-25,15.97,16.37,15.87,16.14,16.08,1418037.0,22973261.0,740826000.0,2963304000.0
sz002997,瑞鹄模具,2020-12-28,16.1,16.44,15.85,16.21,16.14,1620224.0,26164575.0,744039000.0,2976156000.0
sz002997,瑞鹄模具,2020-12-29,16.15,16.36,16.09,16.12,16.21,1153149.0,18703598.0,739908000.0,2959632000.0
sz002997,瑞鹄模具,2020-12-30,16.16,16.59,16.14,16.37,16.12,1451857.0,23833043.0,751383000.0,3005532000.0
sz002997,瑞鹄模具,2020-12-31,16.37,16.75,16.25,16.53,16.37,1166463.0,19294842.0,758727000.0,3034908000.0
sz002997,瑞鹄模具,2021-01-04,16.48,16.95,16.41,16.81,16.53,1288555.0,21597512.0,771579000.0,3086316000.0
sz002997,瑞鹄模具,2021-01-05,16.82,16.97,16.51,16.63,16.81,1441092.0,23982158.0,763317000.0,3053268000.0
sz002997,瑞鹄模具,2021-01-06,16.75,16.75,16.0,16.11,16.63,1765037.0,28616298.0,739449000.0,2957796000.0
sz002997,瑞鹄模具,2021-01-07,16.1,16.1,15.2,15.25,16.11,2338943.0,36290172.0,699975000.0,2799900000.0
sz002997,瑞鹄模具,2021-01-08,15.26,15.53,14.91,15.46,15.25,1372871.0,21040472.0,709614000.0,2838456000.0
sz002997,瑞鹄模具,2021-01-11,15.3,15.5,15.0,15.04,15.46,1244920.0,18928675.0,690336000.0,2761344000.0
sz002997,瑞鹄模具,2021-01-12,15.05,15.26,15.01,15.05,15.04,735847.0,11123733.0,690795000.0,2763180000.0
sz002997,瑞鹄模具,2021-01-13,15.05,15.09,14.33,14.37,15.05,1838750.0,26847037.0,659583000.0,2638332000.0
sz002997,瑞鹄模具,2021-01-14,14.39,14.67,14.01,14.41,14.37,1413252.0,20272853.0,661419000.0,2645676000.0
sz002997,瑞鹄模具,2021-01-15,14.33,15.18,14.33,14.95,14.41,1999844.0,29778619.0,686205000.0,2744820000.0
sz002997,瑞鹄模具,2021-01-18,14.83,15.25,14.83,15.12,14.95,1315496.0,19861864.0,694008000.0,2776032000.0
sz002997,瑞鹄模具,2021-01-19,15.12,15.32,15.06,15.13,15.12,1170859.0,17793387.0,694467000.0,2777868000.0
sz002997,瑞鹄模具,2021-01-20,15.09,15.68,15.09,15.57,15.13,2441966.0,37945241.0,714663000.0,2858652000.0
sz002997,瑞鹄模具,2021-01-21,15.54,15.8,15.21,15.49,15.57,2275363.0,35141110.0,710991000.0,2843964000.0
sz002997,瑞鹄模具,2021-01-22,15.3,17.04,15.3,17.04,15.49,2344565.0,39241430.0,782136000.0,3128544000.0
sz002997,瑞鹄模具,2021-01-25,17.0,17.48,16.51,16.85,17.04,5709312.0,96778476.0,773415000.0,3093660000.0
sz002997,瑞鹄模具,2021-01-26,16.5,17.2,16.26,16.86,16.85,3753647.0,63100014.0,773874000.0,3095496000.0
sz002997,瑞鹄模具,2021-01-27,16.5,17.16,16.21,17.04,16.86,3584390.0,60262547.0,782136000.0,3128544000.0
sz002997,瑞鹄模具,2021-01-28,16.7,17.05,16.31,16.44,17.04,2698804.0,44900484.0,754596000.0,3018384000.0
sz002997,瑞鹄模具,2021-01-29,16.41,16.59,15.48,15.7,16.44,2740818.0,43581418.0,720630000.0,2882520000.0
sz002997,瑞鹄模具,2021-02-01,15.71,16.48,15.55,16.27,15.7,2328216.0,37200775.0,746793000.0,2987172000.0
sz002997,瑞鹄模具,2021-02-02,16.3,16.3,15.76,15.87,16.27,1504320.0,24080147.0,728433000.0,2913732000.0
sz002997,瑞鹄模具,2021-02-03,15.78,15.86,15.01,15.03,15.87,1903123.0,29061820.0,689877000.0,2759508000.0
sz002997,瑞鹄模具,2021-02-04,14.99,15.2,14.45,14.74,15.03,1453959.0,21422192.0,676566000.0,2706264000.0
sz002997,瑞鹄模具,2021-02-05,14.76,15.63,14.62,15.26,14.74,2191400.0,33072015.0,700434000.0,2801736000.0
sz002997,瑞鹄模具,2021-02-08,15.58,15.58,14.87,14.9,15.26,1500702.0,22711007.0,683910000.0,2735640000.0
sz002997,瑞鹄模具,2021-02-09,14.75,15.8,14.62,15.03,14.9,1103023.0,16595905.0,689877000.0,2759508000.0
sz002997,瑞鹄模具,2021-02-10,15.0,15.15,14.73,14.84,15.03,1341625.0,20043335.0,681156000.0,2724624000.0
sz002997,瑞鹄模具,2021-02-18,14.96,15.33,14.96,15.26,14.84,1439590.0,21910106.0,700434000.0,2801736000.0
sz002997,瑞鹄模具,2021-02-19,15.26,15.67,15.14,15.62,15.26,1788510.0,27672857.0,716958000.0,2867832000.0
sz002997,瑞鹄模具,2021-02-22,15.68,16.2,15.55,15.89,15.62,2069869.0,32990063.0,729351000.0,2917404000.0
sz002997,瑞鹄模具,2021-02-23,15.75,16.01,15.58,15.82,15.89,1228606.0,19363334.0,726138000.0,2904552000.0
sz002997,瑞鹄模具,2021-02-24,15.83,16.1,15.7,15.98,15.82,1534954.0,24436849.0,733482000.0,2933928000.0
sz002997,瑞鹄模具,2021-02-25,16.0,16.04,15.43,15.44,15.98,1451663.0,22698614.0,708696000.0,2834784000.0
sz002997,瑞鹄模具,2021-02-26,15.25,15.55,15.1,15.43,15.44,788965.0,12159202.0,708237000.0,2832948000.0
sz002997,瑞鹄模具,2021-03-01,15.41,15.99,15.41,15.95,15.43,1298117.0,20499443.0,732105000.0,2928420000.0
sz002997,瑞鹄模具,2021-03-02,16.1,16.1,15.63,15.86,15.95,1035649.0,16348469.0,727974000.0,2911896000.0
sz002997,瑞鹄模具,2021-03-03,15.62,16.0,15.62,15.94,15.86,1261000.0,20042466.0,731646000.0,2926584000.0
sz002997,瑞鹄模具,2021-03-04,15.96,16.18,15.85,15.89,15.94,1481352.0,23670157.0,729351000.0,2917404000.0
sz002997,瑞鹄模具,2021-03-05,15.8,15.99,15.76,15.9,15.89,1384582.0,22016467.0,729810000.0,2919240000.0
sz002997,瑞鹄模具,2021-03-08,15.91,16.05,15.5,15.56,15.9,1295879.0,20497934.0,714204000.0,2856816000.0
sz002997,瑞鹄模具,2021-03-09,15.63,15.75,14.5,14.98,15.56,1389898.0,21025265.0,687582000.0,2750328000.0
sz002997,瑞鹄模具,2021-03-10,15.13,15.2,14.69,14.78,14.98,962008.0,14317075.0,678402000.0,2713608000.0
sz002997,瑞鹄模具,2021-03-11,14.76,15.0,14.68,14.97,14.78,615808.0,9167513.0,687123000.0,2748492000.0
sz002997,瑞鹄模具,2021-03-12,14.96,15.07,14.77,14.92,14.97,694708.0,10339256.0,684828000.0,2739312000.0
sz002997,瑞鹄模具,2021-03-15,14.88,15.04,14.66,14.79,14.92,791900.0,11731707.0,678861000.0,2715444000.0
sz002997,瑞鹄模具,2021-03-16,14.75,14.99,14.71,14.97,14.79,666800.0,9922201.0,687123000.0,2748492000.0
sz002997,瑞鹄模具,2021-03-17,14.92,15.54,14.88,15.45,14.97,1451468.0,22091986.0,709155000.0,2836620000.0
sz002997,瑞鹄模具,2021-03-18,15.41,15.81,15.31,15.76,15.45,1842125.0,28800213.0,723384000.0,2893536000.0
sz002997,瑞鹄模具,2021-03-19,16.35,17.34,16.35,17.34,15.76,2726344.0,47117249.0,795906000.0,3183624000.0
sz002997,瑞鹄模具,2021-03-22,18.52,19.07,17.88,17.95,17.34,13814299.0,253276003.0,823905000.0,3295620000.0
sz002997,瑞鹄模具,2021-03-23,17.08,17.26,16.16,16.16,17.95,8915129.0,147823152.0,741744000.0,2966976000.0
sz002997,瑞鹄模具,2021-03-24,15.83,16.36,15.83,16.36,16.16,4387118.0,70730947.0,750924000.0,3003696000.0
sz002997,瑞鹄模具,2021-03-25,16.14,16.89,16.08,16.6,16.36,4797561.0,79665318.0,761940000.0,3047760000.0
sz002997,瑞鹄模具,2021-03-26,16.4,16.59,16.16,16.42,16.6,3189507.0,52064672.0,753678000.0,3014712000.0
sz002997,瑞鹄模具,2021-03-29,16.31,16.4,16.0,16.11,16.42,2256414.0,36430877.0,739449000.0,2957796000.0
sz002997,瑞鹄模具,2021-03-30,16.01,16.5,16.0,16.46,16.11,2891685.0,46925951.0,755514000.0,3022056000.0
sz002997,瑞鹄模具,2021-03-31,16.57,17.24,16.35,16.35,16.46,3416897.0,57072465.0,750465000.0,3001860000.0
sz002997,瑞鹄模具,2021-04-01,16.18,16.97,15.9,16.69,16.35,3435457.0,56300425.0,766071000.0,3064284000.0
sz002997,瑞鹄模具,2021-04-02,16.52,17.1,16.39,16.89,16.69,4025517.0,67612583.0,775251000.0,3101004000.0
sz002997,瑞鹄模具,2021-04-06,16.8,17.1,16.66,16.93,16.89,2820953.0,47753543.0,777087000.0,3108348000.0
sz002997,瑞鹄模具,2021-04-07,16.88,17.34,16.65,17.33,16.93,4497501.0,76921778.0,795447000.0,3181788000.0
sz002997,瑞鹄模具,2021-04-08,17.18,17.32,16.66,16.69,17.33,3507205.0,59508798.0,766071000.0,3064284000.0
sz002997,瑞鹄模具,2021-04-09,16.67,16.87,16.56,16.62,16.69,1730906.0,28904097.0,762858000.0,3051432000.0
sz002997,瑞鹄模具,2021-04-12,16.63,17.14,16.34,17.14,16.62,3077166.0,51606672.0,786726000.0,3146904000.0
sz002997,瑞鹄模具,2021-04-13,17.01,17.25,16.17,16.34,17.14,3168962.0,52852227.0,750006000.0,3000024000.0
sz002997,瑞鹄模具,2021-04-14,16.2,17.49,16.18,17.14,16.34,4805599.0,81672748.0,786726000.0,3146904000.0
sz002997,瑞鹄模具,2021-04-15,17.0,17.23,16.69,16.93,17.14,2650361.0,44841977.0,777087000.0,3108348000.0
sz002997,瑞鹄模具,2021-04-16,16.93,17.7,16.8,17.5,16.93,5845878.0,101047366.0,803250000.0,3213000000.0
sz002997,瑞鹄模具,2021-04-19,18.03,19.25,17.51,19.25,17.5,10790454.0,198798784.0,883575000.0,3534300000.0
sz002997,瑞鹄模具,2021-04-20,20.6,21.18,20.26,21.18,19.25,17602461.0,370273818.0,972162000.0,3888648000.0
sz002997,瑞鹄模具,2021-04-21,20.0,20.47,19.06,19.06,21.18,21617826.0,419929981.0,874854000.0,3499416000.0
sz002997,瑞鹄模具,2021-04-22,18.51,20.97,18.08,20.97,19.06,19901457.0,380708943.0,962523000.0,3850092000.0
sz002997,瑞鹄模具,2021-04-23,20.25,23.07,20.01,23.07,20.97,23860729.0,533309571.0,1058913000.0,4235652000.0
sz002997,瑞鹄模具,2021-04-26,24.28,25.38,23.76,25.38,23.07,20852012.0,519979119.0,1164942000.0,4659768000.0
sz002997,瑞鹄模具,2021-04-27,24.56,26.54,22.84,24.0,25.38,26935077.0,649224650.0,1101600000.0,4406400000.0
sz002997,瑞鹄模具,2021-04-28,23.51,23.55,21.6,21.6,24.0,11821301.0,257146149.0,991440000.0,3965760000.0
sz002997,瑞鹄模具,2021-04-29,19.45,19.93,19.44,19.44,21.6,8124065.0,158370979.0,892296000.0,3569184000.0
sz002997,瑞鹄模具,2021-04-30,18.11,19.4,17.5,18.29,19.44,17352683.0,311162327.0,839511000.0,3358044000.0
sz002997,瑞鹄模具,2021-05-06,17.68,18.87,17.57,17.92,18.29,10874012.0,197869960.0,822528000.0,3290112000.0
sz002997,瑞鹄模具,2021-05-07,17.74,18.58,17.18,18.2,17.92,11520295.0,205060464.0,835380000.0,3341520000.0
sz002997,瑞鹄模具,2021-05-10,18.1,19.3,17.52,18.75,18.2,11753101.0,217330042.0,860625000.0,3442500000.0
sz002997,瑞鹄模具,2021-05-11,18.56,18.89,17.72,18.07,18.75,9745674.0,177346023.0,829413000.0,3317652000.0
sz002997,瑞鹄模具,2021-05-12,18.0,19.1,17.59,18.7,18.07,12912207.0,238988997.0,858330000.0,3433320000.0
sz002997,瑞鹄模具,2021-05-13,18.39,18.92,18.0,18.46,18.7,8734090.0,161285230.0,847314000.0,3389256000.0
sz002997,瑞鹄模具,2021-05-14,18.6,18.74,17.91,18.06,18.46,10678914.0,194497281.0,828954000.0,3315816000.0
sz002997,瑞鹄模具,2021-05-17,18.06,18.08,17.3,17.32,18.06,7380507.0,129432509.0,794988000.0,3179952000.0
sz002997,瑞鹄模具,2021-05-18,17.33,19.05,16.95,19.05,17.32,10443879.0,190831324.0,874395000.0,3497580000.0
sz002997,瑞鹄模具,2021-05-19,19.24,19.78,18.27,19.05,19.05,18592401.0,353832699.0,874395000.0,3497580000.0
sz002997,瑞鹄模具,2021-05-20,18.7,19.99,18.68,19.29,19.05,15451398.0,300779525.0,885411000.0,3541644000.0
sz002997,瑞鹄模具,2021-05-21,19.33,19.48,18.73,18.79,19.29,8993923.0,170620101.0,862461000.0,3449844000.0
sz002997,瑞鹄模具,2021-05-24,18.66,18.72,17.94,18.03,18.79,7688596.0,139921577.0,827577000.0,3310308000.0
sz002997,瑞鹄模具,2021-05-25,18.15,18.25,17.83,18.08,18.03,5204049.0,93880591.0,829872000.0,3319488000.0
sz002997,瑞鹄模具,2021-05-26,18.11,18.58,18.01,18.2,18.08,7019649.0,128032894.0,835380000.0,3341520000.0
sz002997,瑞鹄模具,2021-05-27,18.22,18.72,17.95,18.44,18.2,7142096.0,130648920.0,846396000.0,3385584000.0
sz002997,瑞鹄模具,2021-05-28,18.22,18.6,18.05,18.05,18.44,5007098.0,91482473.0,828495000.0,3313980000.0
sz002997,瑞鹄模具,2021-05-31,18.07,18.42,17.73,18.3,18.05,4518745.0,82240782.0,839970000.0,3359880000.0
sz002997,瑞鹄模具,2021-06-01,18.19,18.43,18.08,18.23,18.3,4264345.0,77760324.0,836757000.0,3347028000.0
sz002997,瑞鹄模具,2021-06-02,18.23,19.3,18.12,19.01,18.23,11870745.0,223718467.0,872559000.0,3490236000.0
sz002997,瑞鹄模具,2021-06-03,18.73,19.35,18.4,19.2,19.01,10210898.0,192244732.0,881280000.0,3525120000.0
sz002997,瑞鹄模具,2021-06-04,18.95,19.52,18.8,18.84,19.2,7307749.0,139635259.0,864756000.0,3459024000.0
sz002997,瑞鹄模具,2021-06-07,18.7,19.18,18.34,19.0,18.84,5523941.0,103768463.0,872100000.0,3488400000.0
sz002997,瑞鹄模具,2021-06-08,18.96,19.58,18.82,19.46,19.0,9071747.0,175250212.0,893214000.0,3572856000.0
sz002997,瑞鹄模具,2021-06-09,19.29,19.57,18.91,19.05,19.46,5873500.0,112530182.0,874395000.0,3497580000.0
sz002997,瑞鹄模具,2021-06-10,18.86,19.06,18.5,18.7,19.05,4619900.0,86511662.0,858330000.0,3433320000.0
sz002997,瑞鹄模具,2021-06-11,18.6,18.73,18.26,18.42,18.7,3915500.0,72194683.0,845478000.0,3381912000.0
sz002997,瑞鹄模具,2021-06-15,18.4,18.67,17.57,17.68,18.42,4147800.0,74520238.0,811512000.0,3246048000.0
sz002997,瑞鹄模具,2021-06-16,17.46,19.45,17.2,18.76,17.68,7706796.0,143166300.0,861084000.0,3444336000.0
sz002997,瑞鹄模具,2021-06-17,18.0,18.7,17.8,18.26,18.56,3924698.0,71730617.0,838134000.0,3352536000.0
sz002997,瑞鹄模具,2021-06-18,18.21,19.24,18.21,18.71,18.26,4994698.0,93330472.0,858789000.0,3435156000.0
sz002997,瑞鹄模具,2021-06-21,18.59,19.34,18.53,18.93,18.71,5079011.0,96485173.0,868887000.0,3475548000.0
sz002997,瑞鹄模具,2021-06-22,18.92,19.28,18.73,19.06,18.93,5598898.0,106467649.0,874854000.0,3499416000.0
sz002997,瑞鹄模具,2021-06-23,19.06,19.1,18.54,18.7,19.06,4334300.0,81215994.0,858330000.0,3433320000.0
sz002997,瑞鹄模具,2021-06-24,18.7,19.09,18.41,18.85,18.7,4364211.0,81655744.0,865215000.0,3460860000.0
sz002997,瑞鹄模具,2021-06-25,18.71,18.91,18.55,18.57,18.85,3365337.0,62841401.0,852363000.0,3409452000.0
sz002997,瑞鹄模具,2021-06-28,18.52,18.52,18.0,18.08,18.57,3287507.0,59650373.0,829872000.0,3319488000.0
sz002997,瑞鹄模具,2021-06-29,18.17,18.32,17.94,17.96,18.08,1854198.0,33592286.0,824364000.0,3297456000.0
sz002997,瑞鹄模具,2021-06-30,17.96,18.05,17.6,17.96,17.96,2213466.0,39405269.0,824364000.0,3297456000.0
sz002997,瑞鹄模具,2021-07-01,17.99,18.2,17.53,17.65,17.96,1884781.0,33778883.0,810135000.0,3240540000.0
sz002997,瑞鹄模具,2021-07-02,17.64,17.89,17.47,17.61,17.65,1542198.0,27225554.0,808299000.0,3233196000.0
sz002997,瑞鹄模具,2021-07-05,17.4,17.84,17.33,17.61,17.61,1504700.0,26508067.0,808299000.0,3233196000.0
sz002997,瑞鹄模具,2021-07-06,17.62,18.3,17.61,17.82,17.61,1976198.0,35362668.0,817938000.0,3271752000.0
sz002997,瑞鹄模具,2021-07-07,17.62,17.87,17.61,17.74,17.82,1424940.0,25258299.0,814266000.0,3257064000.0
sz002997,瑞鹄模具,2021-07-08,17.64,17.82,17.11,17.11,17.74,2872898.0,50048194.0,785349000.0,3141396000.0
sz002997,瑞鹄模具,2021-07-09,17.1,17.3,16.8,17.18,17.11,2889398.0,49258896.0,788562000.0,3154248000.0
sz002997,瑞鹄模具,2021-07-12,17.22,17.77,17.07,17.37,17.18,2754898.0,47894569.0,797283000.0,3189132000.0
sz002997,瑞鹄模具,2021-07-13,17.39,17.52,17.07,17.15,17.37,2164598.0,37157432.0,787185000.0,3148740000.0
sz002997,瑞鹄模具,2021-07-14,17.12,17.18,16.71,16.74,17.15,2306298.0,38972207.0,768366000.0,3073464000.0
sz002997,瑞鹄模具,2021-07-15,16.66,16.72,16.01,16.07,16.74,2897848.0,46919490.0,737613000.0,2950452000.0
sz002997,瑞鹄模具,2021-07-16,16.14,16.19,16.01,16.03,16.07,1355700.0,21796860.0,735777000.0,2943108000.0
sz002997,瑞鹄模具,2021-07-19,16.1,16.11,15.51,15.52,16.03,2085249.0,32667256.0,712368000.0,2849472000.0
sz002997,瑞鹄模具,2021-07-20,15.45,15.98,15.26,15.73,15.52,1491500.0,23301340.0,722007000.0,2888028000.0
sz002997,瑞鹄模具,2021-07-21,15.74,15.83,15.66,15.7,15.73,1276600.0,20102097.0,720630000.0,2882520000.0
sz002997,瑞鹄模具,2021-07-22,15.7,15.89,15.64,15.82,15.7,1507998.0,23795272.0,726138000.0,2904552000.0
sz002997,瑞鹄模具,2021-07-23,15.82,15.89,15.42,15.48,15.82,1648500.0,25634835.0,710532000.0,2842128000.0
sz002997,瑞鹄模具,2021-07-26,15.6,16.37,14.65,16.19,15.48,4528423.0,70497478.0,743121000.0,2972484000.0
sz002997,瑞鹄模具,2021-07-27,16.03,16.27,15.71,15.71,16.19,2131556.0,34106526.0,721089000.0,2884356000.0
sz002997,瑞鹄模具,2021-07-28,15.62,16.05,15.06,15.17,15.71,1476400.0,22584368.0,696303000.0,2785212000.0
sz002997,瑞鹄模具,2021-07-29,15.33,15.78,15.2,15.38,15.17,1397100.0,21584469.0,705942000.0,2823768000.0
sz002997,瑞鹄模具,2021-07-30,15.26,15.78,15.26,15.6,15.38,1414803.0,21944250.0,716040000.0,2864160000.0
sz002997,瑞鹄模具,2021-08-02,15.68,16.0,15.51,15.92,15.6,1768296.0,28087527.0,730728000.0,2922912000.0
sz002997,瑞鹄模具,2021-08-03,15.92,16.09,15.78,15.84,15.92,1425198.0,22723624.0,727056000.0,2908224000.0
sz002997,瑞鹄模具,2021-08-04,15.82,16.16,15.73,16.04,15.84,1509698.0,24140574.0,736236000.0,2944944000.0
sz002997,瑞鹄模具,2021-08-05,16.05,16.09,15.76,15.76,16.04,1347190.0,21350908.0,723384000.0,2893536000.0
sz002997,瑞鹄模具,2021-08-06,15.66,15.77,15.41,15.55,15.76,1213698.0,18890086.0,713745000.0,2854980000.0
sz002997,瑞鹄模具,2021-08-09,15.5,15.8,15.5,15.72,15.55,921700.0,14463771.0,721548000.0,2886192000.0
sz002997,瑞鹄模具,2021-08-10,15.6,16.08,15.6,15.92,15.72,1250200.0,19912794.0,730728000.0,2922912000.0
sz002997,瑞鹄模具,2021-08-11,15.92,16.37,15.85,16.16,15.92,2202398.0,35534670.0,741744000.0,2966976000.0
sz002997,瑞鹄模具,2021-08-12,16.2,16.37,15.95,16.19,16.16,1519696.0,24592679.0,743121000.0,2972484000.0
sz002997,瑞鹄模具,2021-08-13,16.2,16.3,16.03,16.06,16.19,1369000.0,22096851.0,737154000.0,2948616000.0
sz002997,瑞鹄模具,2021-08-16,15.88,16.85,15.83,16.52,16.06,3799400.0,62500177.0,758268000.0,3033072000.0
sz002997,瑞鹄模具,2021-08-17,16.38,16.6,15.92,16.11,16.52,2611400.0,42447224.0,739449000.0,2957796000.0
sz002997,瑞鹄模具,2021-08-18,16.0,16.26,15.89,16.24,16.11,1683800.0,27035833.0,745416000.0,2981664000.0
sz002997,瑞鹄模具,2021-08-19,16.19,16.24,15.9,15.93,16.24,1163900.0,18633019.0,731187000.0,2924748000.0
sz002997,瑞鹄模具,2021-08-20,15.9,15.93,15.21,15.34,15.93,1914896.0,29586670.0,704106000.0,2816424000.0
sz002997,瑞鹄模具,2021-08-23,15.48,16.09,15.42,16.04,15.34,2223100.0,35255731.0,736236000.0,2944944000.0
sz002997,瑞鹄模具,2021-08-24,16.08,16.62,16.08,16.24,16.04,2356752.0,38523074.0,745416000.0,2981664000.0
sz002997,瑞鹄模具,2021-08-25,16.18,16.39,16.07,16.3,16.24,1874800.0,30492601.0,748170000.0,2992680000.0
sz002997,瑞鹄模具,2021-08-26,16.24,16.51,16.1,16.19,16.3,1819788.0,29648800.0,743121000.0,2972484000.0
sz002997,瑞鹄模具,2021-08-27,16.26,16.43,16.02,16.21,16.19,1528000.0,24778938.0,744039000.0,2976156000.0
sz002997,瑞鹄模具,2021-08-30,16.1,16.19,15.51,15.68,16.21,2356400.0,37096923.0,719712000.0,2878848000.0
sz002997,瑞鹄模具,2021-08-31,15.67,15.86,15.45,15.61,15.68,1633000.0,25559112.0,716499000.0,2865996000.0
sz002997,瑞鹄模具,2021-09-01,15.29,15.59,14.8,15.25,15.61,2425974.0,36824861.0,699975000.0,2799900000.0
sz002997,瑞鹄模具,2021-09-02,15.25,15.31,15.04,15.27,15.25,1144757.0,17417026.0,700893000.0,2803572000.0
sz002997,瑞鹄模具,2021-09-03,15.36,15.78,15.1,15.42,15.27,1234029.0,19049058.0,1764819000.0,2831112000.0
sz002997,瑞鹄模具,2021-09-06,15.42,15.63,15.16,15.46,15.42,1663729.0,25593712.0,1769397000.0,2838456000.0
sz002997,瑞鹄模具,2021-09-07,15.46,15.59,15.3,15.38,15.46,1985266.0,30549620.0,1760241000.0,2823768000.0
sz002997,瑞鹄模具,2021-09-08,15.31,15.6,15.31,15.56,15.38,1960998.0,30357458.0,1780842000.0,2856816000.0
sz002997,瑞鹄模具,2021-09-09,15.66,15.74,15.5,15.65,15.56,1515650.0,23632603.0,1791142500.0,2873340000.0
sz002997,瑞鹄模具,2021-09-10,15.65,15.74,15.34,15.34,15.65,1519200.0,23516950.0,1755663000.0,2816424000.0
sz002997,瑞鹄模具,2021-09-13,15.31,15.47,15.11,15.41,15.34,1380684.0,21031322.0,1763674500.0,2829276000.0
sz002997,瑞鹄模具,2021-09-14,15.36,15.42,15.01,15.06,15.41,1452698.0,22082058.0,1723617000.0,2765016000.0
sz002997,瑞鹄模具,2021-09-15,15.06,15.2,14.96,15.06,15.06,1018800.0,15333454.0,1723617000.0,2765016000.0
sz002997,瑞鹄模具,2021-09-16,15.07,15.19,14.91,14.93,15.06,1132300.0,17030776.0,1708738500.0,2741148000.0
sz002997,瑞鹄模具,2021-09-17,14.93,14.99,14.66,14.76,14.93,1153098.0,17062264.0,1689282000.0,2709936000.0
sz002997,瑞鹄模具,2021-09-22,14.73,14.85,14.54,14.84,14.76,784500.0,11512921.0,1698438000.0,2724624000.0
sz002997,瑞鹄模具,2021-09-23,14.88,15.07,14.84,14.95,14.84,834800.0,12478644.0,1711027500.0,2744820000.0
sz002997,瑞鹄模具,2021-09-24,14.96,14.96,14.56,14.56,14.95,1126206.0,16584392.0,1666392000.0,2673216000.0
sz002997,瑞鹄模具,2021-09-27,14.56,14.7,14.22,14.4,14.56,1151599.0,16557521.0,1648080000.0,2643840000.0
sz002997,瑞鹄模具,2021-09-28,14.38,14.46,14.29,14.4,14.4,651998.0,9364639.0,1648080000.0,2643840000.0
sz002997,瑞鹄模具,2021-09-29,14.28,14.3,13.85,13.85,14.4,1084200.0,15297484.0,1585132500.0,2542860000.0
sz002997,瑞鹄模具,2021-09-30,13.85,14.05,13.85,14.03,13.85,582598.0,8136675.0,1605733500.0,2575908000.0
sz002997,瑞鹄模具,2021-10-08,14.1,14.3,14.05,14.25,14.03,600300.0,8535914.0,1630912500.0,2616300000.0
sz002997,瑞鹄模具,2021-10-11,14.25,14.31,14.06,14.28,14.25,707600.0,10052897.0,1634346000.0,2621808000.0
sz002997,瑞鹄模具,2021-10-12,14.26,14.29,14.01,14.09,14.28,625400.0,8803979.0,1612600500.0,2586924000.0
sz002997,瑞鹄模具,2021-10-13,14.09,14.45,14.02,14.42,14.09,957796.0,13687358.0,1650369000.0,2647512000.0
sz002997,瑞鹄模具,2021-10-14,14.41,14.62,14.31,14.48,14.42,862600.0,12454621.0,1657236000.0,2658528000.0
sz002997,瑞鹄模具,2021-10-15,14.4,14.45,14.21,14.29,14.48,586398.0,8379823.0,1635490500.0,2623644000.0
sz002997,瑞鹄模具,2021-10-18,14.3,14.43,14.11,14.33,14.29,514498.0,7336195.0,1640068500.0,2630988000.0
sz002997,瑞鹄模具,2021-10-19,14.31,14.41,14.23,14.34,14.33,454498.0,6510223.0,1641213000.0,2632824000.0
sz002997,瑞鹄模具,2021-10-20,14.25,14.3,14.17,14.22,14.34,512400.0,7289058.0,1627479000.0,2610792000.0
sz002997,瑞鹄模具,2021-10-21,14.22,14.78,14.18,14.38,14.22,1565349.0,22691725.0,1645791000.0,2640168000.0
sz002997,瑞鹄模具,2021-10-22,14.26,14.44,14.05,14.15,14.38,736423.0,10429305.0,1619467500.0,2597940000.0
sz002997,瑞鹄模具,2021-10-25,14.12,14.24,14.03,14.17,14.15,603898.0,8540260.0,1621756500.0,2601612000.0
sz002997,瑞鹄模具,2021-10-26,14.45,14.67,14.34,14.38,14.17,1505200.0,21825436.0,1645791000.0,2640168000.0
sz002997,瑞鹄模具,2021-10-27,14.23,15.17,14.22,14.84,14.38,3440296.0,50644866.0,1698438000.0,2724624000.0
sz002997,瑞鹄模具,2021-10-28,14.86,14.86,14.55,14.64,14.84,1477900.0,21653306.0,1675548000.0,2687904000.0
sz002997,瑞鹄模具,2021-10-29,14.54,14.92,14.54,14.89,14.64,1770145.0,26195021.0,1704160500.0,2733804000.0
sz002997,瑞鹄模具,2021-11-01,14.95,15.19,14.82,15.18,14.89,2330257.0,34988933.0,1737351000.0,2787048000.0
sz002997,瑞鹄模具,2021-11-02,15.19,15.27,14.69,14.95,15.18,2375800.0,35690354.0,1711027500.0,2744820000.0
sz002997,瑞鹄模具,2021-11-03,14.83,15.04,14.71,14.93,14.95,1387645.0,20689043.0,1708738500.0,2741148000.0
sz002997,瑞鹄模具,2021-11-04,14.9,15.56,14.88,15.38,14.93,3122363.0,47778145.0,1760241000.0,2823768000.0
sz002997,瑞鹄模具,2021-11-05,15.38,15.48,15.26,15.29,15.38,2003300.0,30782170.0,1749940500.0,2807244000.0
sz002997,瑞鹄模具,2021-11-08,15.29,15.49,15.11,15.49,15.29,1522096.0,23335127.0,1772830500.0,2843964000.0
sz002997,瑞鹄模具,2021-11-09,15.47,15.57,15.4,15.49,15.49,1301098.0,20123918.0,1772830500.0,2843964000.0
sz002997,瑞鹄模具,2021-11-10,15.4,15.66,15.33,15.65,15.49,1957149.0,30342699.0,1791142500.0,2873340000.0
sz002997,瑞鹄模具,2021-11-11,15.65,16.05,15.61,15.72,15.65,3910496.0,62001345.0,1799154000.0,2886192000.0
sz002997,瑞鹄模具,2021-11-12,15.67,16.17,15.64,16.1,15.72,3329200.0,52957388.0,1842645000.0,2955960000.0
sz002997,瑞鹄模具,2021-11-15,16.12,17.1,16.12,16.51,16.1,5896098.0,97887692.0,1889569500.0,3031236000.0
sz002997,瑞鹄模具,2021-11-16,16.51,17.05,16.34,17.02,16.51,7442301.0,125189019.0,1947939000.0,3124872000.0
sz002997,瑞鹄模具,2021-11-17,17.4,17.67,16.62,16.82,17.02,7825243.0,131903071.0,1925049000.0,3088152000.0
sz002997,瑞鹄模具,2021-11-18,16.77,18.4,16.74,16.82,16.82,9340639.0,161398841.0,1925049000.0,3088152000.0
sz002997,瑞鹄模具,2021-11-19,16.69,17.26,16.38,16.96,16.82,6911847.0,116428548.0,1941072000.0,3113856000.0
sz002997,瑞鹄模具,2021-11-22,16.7,17.43,16.67,17.31,16.96,6440289.0,110337993.0,1981129500.0,3178116000.0
sz002997,瑞鹄模具,2021-11-23,17.27,17.5,16.93,17.15,17.31,5382196.0,92379217.0,1962817500.0,3148740000.0
sz002997,瑞鹄模具,2021-11-24,17.15,17.79,17.0,17.51,17.15,6510355.0,113074727.0,2004019500.0,3214836000.0
sz002997,瑞鹄模具,2021-11-25,17.77,17.77,17.01,17.03,17.51,4962800.0,85563526.0,1949083500.0,3126708000.0
sz002997,瑞鹄模具,2021-11-26,17.0,17.34,16.86,16.98,17.03,3469259.0,59175995.0,1943361000.0,3117528000.0
sz002997,瑞鹄模具,2021-11-29,16.73,17.34,16.6,17.24,16.98,3743348.0,63914575.0,1973118000.0,3165264000.0
sz002997,瑞鹄模具,2021-11-30,17.28,17.48,17.02,17.19,17.24,3470500.0,59932684.0,1967395500.0,3156084000.0
sz002997,瑞鹄模具,2021-12-01,17.37,17.93,17.25,17.3,17.19,4071798.0,70970293.0,1979985000.0,3176280000.0
sz002997,瑞鹄模具,2021-12-02,17.23,17.36,16.92,17.05,17.3,3440665.0,58930144.0,1951372500.0,3130380000.0
sz002997,瑞鹄模具,2021-12-03,17.14,17.19,16.93,17.04,17.05,2261500.0,38594553.0,1950228000.0,3128544000.0
sz002997,瑞鹄模具,2021-12-06,17.1,17.12,15.88,15.89,17.04,5241896.0,84585735.0,1818610500.0,2917404000.0
sz002997,瑞鹄模具,2021-12-07,15.88,16.3,15.68,15.83,15.89,2752900.0,43889550.0,1811743500.0,2906388000.0
sz002997,瑞鹄模具,2021-12-08,15.9,17.41,15.7,17.41,15.83,6237940.0,104894994.0,1992574500.0,3196476000.0
sz002997,瑞鹄模具,2021-12-09,17.96,19.14,17.28,17.89,17.41,19895917.0,363553018.0,2047510500.0,3284604000.0
sz002997,瑞鹄模具,2021-12-10,17.8,18.62,17.5,18.19,17.89,15304356.0,276623081.0,2081845500.0,3339684000.0
sz002997,瑞鹄模具,2021-12-13,18.3,18.75,18.11,18.19,18.19,8421793.0,154607770.0,2081845500.0,3339684000.0
sz002997,瑞鹄模具,2021-12-14,18.23,18.49,17.72,18.3,18.19,6004098.0,109307806.0,2094435000.0,3359880000.0
sz002997,瑞鹄模具,2021-12-15,18.31,18.36,17.8,17.89,18.3,4821800.0,86858502.0,2047510500.0,3284604000.0
sz002997,瑞鹄模具,2021-12-16,17.95,18.25,17.82,17.92,17.89,3312591.0,59716159.0,2050944000.0,3290112000.0
sz002997,瑞鹄模具,2021-12-17,18.0,18.19,17.6,17.81,17.92,3677872.0,65752713.0,2038354500.0,3269916000.0
sz002997,瑞鹄模具,2021-12-20,17.77,18.17,17.58,17.85,17.81,3565859.0,63758396.0,2042932500.0,3277260000.0
sz002997,瑞鹄模具,2021-12-21,17.95,18.15,17.6,17.7,17.85,3154600.0,56064091.0,2025765000.0,3249720000.0
sz002997,瑞鹄模具,2021-12-22,17.7,17.84,17.43,17.51,17.7,3395100.0,59755837.0,2004019500.0,3214836000.0
sz002997,瑞鹄模具,2021-12-23,17.51,17.81,17.22,17.26,17.51,4990500.0,87290242.0,1975407000.0,3168936000.0
sz002997,瑞鹄模具,2021-12-24,17.4,17.5,16.52,16.55,17.26,4348463.0,73011083.0,1894147500.0,3038580000.0
sz002997,瑞鹄模具,2021-12-27,16.7,16.79,16.25,16.69,16.55,2696700.0,44664102.0,1910170500.0,3064284000.0
sz002997,瑞鹄模具,2021-12-28,16.7,17.89,16.62,17.26,16.69,5015600.0,86276004.0,1975407000.0,3168936000.0
sz002997,瑞鹄模具,2021-12-29,17.57,17.74,16.7,17.55,17.26,4947851.0,85848555.0,2008597500.0,3222180000.0
sz002997,瑞鹄模具,2021-12-30,18.0,18.77,17.67,18.12,17.55,8231096.0,149052013.0,2073834000.0,3326832000.0
sz002997,瑞鹄模具,2021-12-31,17.91,18.07,17.5,17.56,18.12,4790600.0,84801804.0,2009742000.0,3224016000.0
sz002997,瑞鹄模具,2022-01-04,17.56,17.9,17.51,17.72,17.56,3030402.0,53581496.0,2028054000.0,3253392000.0
sz002997,瑞鹄模具,2022-01-05,17.66,17.85,17.13,17.31,17.72,3040898.0,52966433.0,1981129500.0,3178116000.0
sz002997,瑞鹄模具,2022-01-06,17.34,17.5,17.08,17.41,17.31,1876100.0,32574074.0,1992574500.0,3196476000.0
sz002997,瑞鹄模具,2022-01-07,17.26,17.59,16.88,16.89,17.41,2663892.0,45739918.0,1933060500.0,3101004000.0
sz002997,瑞鹄模具,2022-01-10,16.85,18.08,16.58,17.28,16.89,3451077.0,60183112.0,1977696000.0,3172608000.0
sz002997,瑞鹄模具,2022-01-11,17.31,17.96,17.26,17.36,17.28,2935800.0,51476296.0,1986852000.0,3187296000.0
sz002997,瑞鹄模具,2022-01-12,17.23,17.87,17.18,17.72,17.36,2694202.0,47601020.0,2028054000.0,3253392000.0
sz002997,瑞鹄模具,2022-01-13,17.68,17.81,17.53,17.75,17.72,2388613.0,42218566.0,2031487500.0,3258900000.0
sz002997,瑞鹄模具,2022-01-14,17.6,18.35,17.31,18.0,17.75,6318040.0,113924500.0,2060100000.0,3304800000.0
