数据由邢不行整理
股票代码,股票名称,交易日期,开盘价,最高价,最低价,收盘价,前收盘价,成交量,成交额,流通市值,总市值
sz002976,N瑞玛,2020-03-06,22.81,27.37,22.81,27.37,19.01,74758.0,2038940.0,684250000.0,2737000000.0
sz002976,瑞玛工业,2020-03-09,30.11,30.11,30.11,30.11,27.37,24384.0,734202.0,752750000.0,3011000000.0
sz002976,瑞玛工业,2020-03-10,33.12,33.12,33.12,33.12,30.11,27332.0,905235.0,828000000.0,3312000000.0
sz002976,瑞玛工业,2020-03-11,36.43,36.43,36.43,36.43,33.12,29573.0,1077344.0,910750000.0,3643000000.0
sz002976,瑞玛工业,2020-03-12,40.07,40.07,40.07,40.07,36.43,212599.0,8518841.0,1001750000.0,4007000000.0
sz002976,瑞玛工业,2020-03-13,44.08,44.08,44.08,44.08,40.07,282749.0,12463575.0,1102000000.0,4408000000.0
sz002976,瑞玛工业,2020-03-16,48.49,48.49,48.49,48.49,44.08,161312.0,7822018.0,1212250000.0,4849000000.0
sz002976,瑞玛工业,2020-03-17,53.34,53.34,44.51,48.77,48.49,16358027.0,804802341.0,1219250000.0,4877000000.0
sz002976,瑞玛工业,2020-03-18,47.38,49.88,44.44,45.05,48.77,11282677.0,532876011.0,1126250000.0,4505000000.0
sz002976,瑞玛工业,2020-03-19,43.12,48.48,43.12,47.4,45.05,9785206.0,449678977.0,1185000000.0,4740000000.0
sz002976,瑞玛工业,2020-03-20,46.7,47.01,42.78,42.95,47.4,8705902.0,388096004.0,1073750000.0,4295000000.0
sz002976,瑞玛工业,2020-03-23,40.4,40.99,38.66,38.66,42.95,6463023.0,254183233.0,966500000.0,3866000000.0
sz002976,瑞玛工业,2020-03-24,39.31,40.21,37.61,40.0,38.66,7243381.0,285825044.0,1000000000.0,4000000000.0
sz002976,瑞玛工业,2020-03-25,40.24,40.88,39.06,39.1,40.0,7020814.0,278675026.0,977500000.0,3910000000.0
sz002976,瑞玛工业,2020-03-26,38.02,38.55,36.7,37.06,39.1,6340643.0,237952758.0,926500000.0,3706000000.0
sz002976,瑞玛工业,2020-03-27,37.44,39.16,36.8,38.06,37.06,6395475.0,241382507.0,951500000.0,3806000000.0
sz002976,瑞玛工业,2020-03-30,37.0,40.1,36.49,39.86,38.06,7567996.0,293608171.0,996500000.0,3986000000.0
sz002976,瑞玛工业,2020-03-31,39.7,39.7,37.55,37.92,39.86,6080597.0,235281530.0,948000000.0,3792000000.0
sz002976,瑞玛工业,2020-04-01,37.15,41.71,37.15,40.62,37.92,10012050.0,405848936.0,1015500000.0,4062000000.0
sz002976,瑞玛工业,2020-04-02,39.94,42.73,39.42,41.58,40.62,9401012.0,382113456.0,1039500000.0,4158000000.0
sz002976,瑞玛工业,2020-04-03,40.33,41.2,38.52,38.92,41.58,7023953.0,279878624.0,973000000.0,3892000000.0
sz002976,瑞玛工业,2020-04-07,40.5,40.65,39.45,39.68,38.92,5746527.0,229523243.0,992000000.0,3968000000.0
sz002976,瑞玛工业,2020-04-08,38.19,39.11,38.01,38.68,39.68,5231617.0,201559006.0,967000000.0,3868000000.0
sz002976,瑞玛工业,2020-04-09,38.9,39.14,37.57,37.61,38.68,4969809.0,189895934.0,940250000.0,3761000000.0
sz002976,瑞玛工业,2020-04-10,37.47,37.47,35.03,35.22,37.61,5554928.0,200696780.0,880500000.0,3522000000.0
sz002976,瑞玛工业,2020-04-13,34.87,34.97,34.0,34.42,35.22,2591809.0,89252807.0,860500000.0,3442000000.0
sz002976,瑞玛工业,2020-04-14,34.72,35.53,34.69,35.1,34.42,2774422.0,97130543.0,877500000.0,3510000000.0
sz002976,瑞玛工业,2020-04-15,35.0,35.46,34.41,34.62,35.1,3188182.0,111284796.0,865500000.0,3462000000.0
sz002976,瑞玛工业,2020-04-16,34.2,34.5,33.76,34.13,34.62,2953709.0,100664556.0,853250000.0,3413000000.0
sz002976,瑞玛工业,2020-04-17,34.49,34.93,33.83,33.84,34.13,3110093.0,106896721.0,846000000.0,3384000000.0
sz002976,瑞玛工业,2020-04-20,33.6,33.97,33.21,33.97,33.84,2580335.0,86380800.0,849250000.0,3397000000.0
sz002976,瑞玛工业,2020-04-21,33.61,34.11,33.45,33.9,33.97,2236289.0,75531009.0,847500000.0,3390000000.0
sz002976,瑞玛工业,2020-04-22,33.69,33.81,33.38,33.69,33.9,2126611.0,71412579.0,842250000.0,3369000000.0
sz002976,瑞玛工业,2020-04-23,33.71,34.63,33.53,33.9,33.69,3169956.0,107914208.0,847500000.0,3390000000.0
sz002976,瑞玛工业,2020-04-24,33.83,35.39,33.78,34.78,33.9,4468204.0,154777386.0,869500000.0,3478000000.0
sz002976,瑞玛工业,2020-04-27,34.61,35.89,33.81,33.9,34.78,3568158.0,124544242.0,847500000.0,3390000000.0
sz002976,瑞玛工业,2020-04-28,32.2,32.99,30.51,30.55,33.9,4723473.0,146453393.0,763750000.0,3055000000.0
sz002976,瑞玛工业,2020-04-29,30.04,31.58,29.92,30.98,30.55,2959935.0,91259398.0,774500000.0,3098000000.0
sz002976,瑞玛工业,2020-04-30,31.0,32.28,30.79,31.84,30.98,3246304.0,102817700.0,796000000.0,3184000000.0
sz002976,瑞玛工业,2020-05-06,31.48,32.67,31.05,32.67,31.84,2576480.0,82905195.0,816750000.0,3267000000.0
sz002976,瑞玛工业,2020-05-07,33.51,34.65,32.82,33.79,32.67,4438056.0,149752417.0,844750000.0,3379000000.0
sz002976,瑞玛工业,2020-05-08,34.07,35.5,33.45,34.9,33.79,5335478.0,184284252.0,872500000.0,3490000000.0
sz002976,瑞玛工业,2020-05-11,35.28,36.45,34.9,35.91,34.9,6625810.0,237194599.0,897750000.0,3591000000.0
sz002976,瑞玛工业,2020-05-12,35.4,36.79,34.8,36.44,35.91,5687981.0,203952421.0,911000000.0,3644000000.0
sz002976,瑞玛工业,2020-05-13,35.85,36.15,34.8,34.81,36.44,4809261.0,170061206.0,870250000.0,3481000000.0
sz002976,瑞玛工业,2020-05-14,34.46,36.78,34.25,35.57,34.81,5449375.0,195574552.0,889250000.0,3557000000.0
sz002976,瑞玛工业,2020-05-15,35.55,36.48,35.2,35.82,35.57,3815818.0,136740576.0,895500000.0,3582000000.0
sz002976,瑞玛工业,2020-05-18,34.9,35.7,34.39,34.51,35.82,2958449.0,103693603.0,862750000.0,3451000000.0
sz002976,瑞玛工业,2020-05-19,35.11,37.86,34.68,37.14,34.51,6352282.0,231962791.0,928500000.0,3714000000.0
sz002976,瑞玛工业,2020-05-20,37.18,38.48,36.31,36.54,37.14,5425756.0,202332327.0,913500000.0,3654000000.0
sz002976,瑞玛工业,2020-05-21,36.61,38.99,36.61,37.6,36.54,5343589.0,201937564.0,940000000.0,3760000000.0
sz002976,瑞玛工业,2020-05-22,36.8,41.36,35.5,40.85,37.6,10668790.0,417829067.0,1021250000.0,4085000000.0
sz002976,瑞玛工业,2020-05-25,38.88,40.8,36.77,36.88,40.85,8304216.0,319493405.0,922000000.0,3688000000.0
sz002976,瑞玛工业,2020-05-26,36.3,40.57,35.17,40.57,36.88,8863234.0,348319813.0,1014250000.0,4057000000.0
sz002976,瑞玛工业,2020-05-27,40.98,40.98,36.51,39.7,40.57,8975184.0,354617332.0,992500000.0,3970000000.0
sz002976,瑞玛工业,2020-05-28,38.38,39.38,36.81,38.1,39.7,5705132.0,217081156.0,952500000.0,3810000000.0
sz002976,瑞玛工业,2020-05-29,37.6,39.7,37.15,38.0,38.1,5315589.0,203807797.0,950000000.0,3800000000.0
sz002976,瑞玛工业,2020-06-01,38.0,39.38,37.08,39.12,38.0,5851047.0,225038246.0,978000000.0,3912000000.0
sz002976,瑞玛工业,2020-06-02,39.2,39.2,38.2,38.65,39.12,4065788.0,157356659.0,966250000.0,3865000000.0
sz002976,瑞玛工业,2020-06-03,38.44,38.6,37.5,37.55,38.65,3786576.0,143267466.0,938750000.0,3755000000.0
sz002976,瑞玛工业,2020-06-04,37.55,38.24,36.5,36.5,37.55,3583048.0,133918467.0,912500000.0,3650000000.0
sz002976,瑞玛工业,2020-06-05,36.2,36.96,36.0,36.08,36.5,2546900.0,92438631.0,902000000.0,3608000000.0
sz002976,瑞玛工业,2020-06-08,36.17,37.2,36.17,36.7,36.08,2508500.0,92084506.0,917500000.0,3670000000.0
sz002976,瑞玛工业,2020-06-09,36.75,36.9,35.43,35.56,36.7,2903614.0,104130810.0,889000000.0,3556000000.0
sz002976,瑞玛工业,2020-06-10,35.63,36.16,35.0,35.05,35.56,2555072.0,90668892.0,876250000.0,3505000000.0
sz002976,瑞玛工业,2020-06-11,34.9,35.47,34.78,35.39,35.05,1914228.0,67298865.0,884750000.0,3539000000.0
sz002976,瑞玛工业,2020-06-12,34.5,36.27,34.4,35.83,35.39,2327332.0,82800436.0,895750000.0,3583000000.0
sz002976,瑞玛工业,2020-06-15,35.6,36.1,35.42,35.46,35.83,1824437.0,65154225.0,886500000.0,3546000000.0
sz002976,瑞玛工业,2020-06-16,35.35,35.46,34.75,35.12,34.96,1683956.0,59049834.0,878000000.0,3512000000.0
sz002976,瑞玛工业,2020-06-17,35.12,36.22,35.0,35.62,35.12,2606201.0,93092699.0,890500000.0,3562000000.0
sz002976,瑞玛工业,2020-06-18,35.5,36.85,35.4,36.41,35.62,3034288.0,109913342.0,910250000.0,3641000000.0
sz002976,瑞玛工业,2020-06-19,36.21,37.23,35.9,35.92,36.41,2958295.0,107515465.0,898000000.0,3592000000.0
sz002976,瑞玛工业,2020-06-22,35.68,35.74,34.8,34.85,35.92,2625752.0,92406534.0,871250000.0,3485000000.0
sz002976,瑞玛工业,2020-06-23,34.85,34.97,33.65,33.77,34.85,2740434.0,93431260.0,844250000.0,3377000000.0
sz002976,瑞玛工业,2020-06-24,33.78,34.2,33.64,33.98,33.77,1234893.0,41906246.0,849500000.0,3398000000.0
sz002976,瑞玛工业,2020-06-29,33.98,34.2,32.89,33.05,33.98,1816419.0,60551743.0,826250000.0,3305000000.0
sz002976,瑞玛工业,2020-06-30,33.2,33.85,33.12,33.68,33.05,1345103.0,45208275.0,842000000.0,3368000000.0
sz002976,瑞玛工业,2020-07-01,33.85,34.16,33.14,33.43,33.68,1456856.0,48935703.0,835750000.0,3343000000.0
sz002976,瑞玛工业,2020-07-02,33.59,34.15,33.52,34.03,33.43,1546756.0,52408522.0,850750000.0,3403000000.0
sz002976,瑞玛工业,2020-07-03,34.05,34.4,33.76,34.17,34.03,1755600.0,59815215.0,854250000.0,3417000000.0
sz002976,瑞玛工业,2020-07-06,34.3,36.16,34.26,35.68,34.17,3168734.0,111641990.0,892000000.0,3568000000.0
sz002976,瑞玛工业,2020-07-07,35.9,36.65,35.21,36.14,35.68,3649494.0,131691098.0,903500000.0,3614000000.0
sz002976,瑞玛工业,2020-07-08,35.8,36.66,35.5,36.58,36.14,3422749.0,124105971.0,914500000.0,3658000000.0
sz002976,瑞玛工业,2020-07-09,36.84,37.5,36.18,37.44,36.58,4126729.0,152138855.0,936000000.0,3744000000.0
sz002976,瑞玛工业,2020-07-10,37.66,38.53,37.2,37.79,37.44,4670944.0,177394603.0,944750000.0,3779000000.0
sz002976,瑞玛工业,2020-07-13,37.62,38.5,37.19,38.17,37.79,3853481.0,145972212.0,954250000.0,3817000000.0
sz002976,瑞玛工业,2020-07-14,37.82,38.59,36.51,37.23,38.17,3356100.0,125739550.0,930750000.0,3723000000.0
sz002976,瑞玛工业,2020-07-15,37.31,37.59,35.71,35.88,37.23,2537824.0,92480792.0,897000000.0,3588000000.0
sz002976,瑞玛工业,2020-07-16,35.76,36.2,33.5,33.9,35.88,2362031.0,82579731.0,847500000.0,3390000000.0
sz002976,瑞玛工业,2020-07-17,34.0,34.38,33.3,33.57,33.9,1602243.0,54043314.0,839250000.0,3357000000.0
sz002976,瑞玛工业,2020-07-20,33.8,34.47,33.4,34.37,33.57,1484463.0,50482326.0,859250000.0,3437000000.0
sz002976,瑞玛工业,2020-07-21,34.71,35.09,34.15,34.52,34.37,1298028.0,44940312.0,863000000.0,3452000000.0
sz002976,瑞玛工业,2020-07-22,34.49,34.69,34.03,34.23,34.52,1324128.0,45501346.0,855750000.0,3423000000.0
sz002976,瑞玛工业,2020-07-23,33.98,34.12,33.0,33.77,34.23,1615944.0,54166651.0,844250000.0,3377000000.0
sz002976,瑞玛工业,2020-07-24,35.0,36.65,34.7,35.33,33.77,4773385.0,170019367.0,883250000.0,3533000000.0
sz002976,瑞玛工业,2020-07-27,34.5,36.1,33.7,36.05,35.33,2680780.0,93125610.0,901250000.0,3605000000.0
sz002976,瑞玛工业,2020-07-28,35.97,36.89,35.96,36.23,36.05,3031260.0,110164720.0,905750000.0,3623000000.0
sz002976,瑞玛工业,2020-07-29,36.48,36.48,35.2,36.36,36.23,2591005.0,93162449.0,909000000.0,3636000000.0
sz002976,瑞玛工业,2020-07-30,36.16,36.3,35.53,35.71,36.36,2115953.0,75812156.0,892750000.0,3571000000.0
sz002976,瑞玛工业,2020-07-31,35.69,35.92,35.18,35.42,35.71,1938876.0,68805021.0,885500000.0,3542000000.0
sz002976,瑞玛工业,2020-08-03,35.5,37.33,35.33,37.18,35.42,4163254.0,152125885.0,929500000.0,3718000000.0
sz002976,瑞玛工业,2020-08-04,36.97,37.1,36.1,36.29,37.18,2500892.0,91231822.0,907250000.0,3629000000.0
sz002976,瑞玛工业,2020-08-05,36.01,36.89,35.5,36.75,36.29,2612320.0,94670773.0,918750000.0,3675000000.0
sz002976,瑞玛工业,2020-08-06,37.2,38.26,36.93,37.3,36.75,4889014.0,183605666.0,932500000.0,3730000000.0
sz002976,瑞玛工业,2020-08-07,36.92,38.5,36.12,37.85,37.3,3479867.0,128850136.0,946250000.0,3785000000.0
sz002976,瑞玛工业,2020-08-10,37.5,39.49,37.23,38.44,37.85,5383612.0,208189428.0,961000000.0,3844000000.0
sz002976,瑞玛工业,2020-08-11,37.88,37.93,36.19,36.5,38.44,3735638.0,138814883.0,912500000.0,3650000000.0
sz002976,瑞玛工业,2020-08-12,36.31,36.5,34.62,35.24,36.5,2214949.0,78282760.0,881000000.0,3524000000.0
sz002976,瑞玛工业,2020-08-13,35.26,35.56,35.12,35.3,35.24,1192049.0,42092453.0,882500000.0,3530000000.0
sz002976,瑞玛工业,2020-08-14,35.38,35.71,34.7,35.63,35.3,1180349.0,41515975.0,890750000.0,3563000000.0
sz002976,瑞玛工业,2020-08-17,35.88,36.34,35.52,36.2,35.63,1570800.0,56548902.0,905000000.0,3620000000.0
sz002976,瑞玛工业,2020-08-18,36.48,36.63,36.04,36.22,36.2,1523109.0,55307891.0,905500000.0,3622000000.0
sz002976,瑞玛工业,2020-08-19,36.11,36.26,35.4,35.44,36.22,1572857.0,56349691.0,886000000.0,3544000000.0
sz002976,瑞玛工业,2020-08-20,35.35,35.38,34.84,35.15,35.44,989380.0,34641403.0,878750000.0,3515000000.0
sz002976,瑞玛工业,2020-08-21,35.6,35.6,35.03,35.1,35.15,1033350.0,36413430.0,877500000.0,3510000000.0
sz002976,瑞玛工业,2020-08-24,35.09,35.45,34.26,35.45,35.1,1126532.0,39323097.0,886250000.0,3545000000.0
sz002976,瑞玛工业,2020-08-25,35.17,35.44,34.5,34.7,35.45,1336475.0,46565380.0,867500000.0,3470000000.0
sz002976,瑞玛工业,2020-08-26,34.52,34.91,33.72,33.73,34.7,1237566.0,42353230.0,843250000.0,3373000000.0
sz002976,瑞玛工业,2020-08-27,33.71,34.36,33.3,34.04,33.73,823896.0,27981003.0,851000000.0,3404000000.0
sz002976,瑞玛工业,2020-08-28,33.93,34.35,33.6,34.15,34.04,929843.0,31554265.0,853750000.0,3415000000.0
sz002976,瑞玛工业,2020-08-31,34.13,35.0,33.51,34.34,34.15,942071.0,32560592.0,858500000.0,3434000000.0
sz002976,瑞玛工业,2020-09-01,34.34,36.54,34.25,36.1,34.34,3068986.0,110542781.0,902500000.0,3610000000.0
sz002976,瑞玛工业,2020-09-02,35.9,36.1,35.45,35.77,36.1,1551458.0,55456973.0,894250000.0,3577000000.0
sz002976,瑞玛工业,2020-09-03,35.79,35.86,35.08,35.23,35.77,926237.0,32770400.0,880750000.0,3523000000.0
sz002976,瑞玛工业,2020-09-04,34.41,35.02,34.26,34.88,35.23,822499.0,28582552.0,872000000.0,3488000000.0
sz002976,瑞玛工业,2020-09-07,34.8,35.15,34.0,34.15,34.88,1030370.0,35687988.0,853750000.0,3415000000.0
sz002976,瑞玛工业,2020-09-08,34.11,34.36,33.7,34.05,34.15,863800.0,29356057.0,851250000.0,3405000000.0
sz002976,瑞玛工业,2020-09-09,33.78,33.98,33.12,33.3,34.05,1060220.0,35525289.0,832500000.0,3330000000.0
sz002976,瑞玛工业,2020-09-10,33.4,33.78,31.53,31.7,33.3,1240300.0,40397284.0,792500000.0,3170000000.0
sz002976,瑞玛工业,2020-09-11,31.66,32.19,30.8,32.19,31.7,761792.0,23988552.0,804750000.0,3219000000.0
sz002976,瑞玛工业,2020-09-14,32.36,33.52,32.11,32.67,32.19,695985.0,22677056.0,816750000.0,3267000000.0
sz002976,瑞玛工业,2020-09-15,32.56,32.99,32.3,32.51,32.67,456761.0,14896750.0,812750000.0,3251000000.0
sz002976,瑞玛工业,2020-09-16,32.51,32.86,32.19,32.32,32.51,434300.0,14100608.0,808000000.0,3232000000.0
sz002976,瑞玛工业,2020-09-17,32.17,32.93,32.1,32.8,32.32,599484.0,19554485.0,820000000.0,3280000000.0
sz002976,瑞玛工业,2020-09-18,32.7,32.89,32.41,32.83,32.8,523215.0,17097886.0,820750000.0,3283000000.0
sz002976,瑞玛工业,2020-09-21,32.84,32.97,32.0,32.02,32.83,743028.0,24132982.0,800500000.0,3202000000.0
sz002976,瑞玛工业,2020-09-22,32.11,32.11,31.11,31.31,32.02,662464.0,20903015.0,782750000.0,3131000000.0
sz002976,瑞玛工业,2020-09-23,31.28,33.22,31.28,32.86,31.31,1604356.0,52279874.0,821500000.0,3286000000.0
sz002976,瑞玛工业,2020-09-24,32.8,32.8,31.81,31.81,32.86,1020607.0,32845467.0,795250000.0,3181000000.0
sz002976,瑞玛工业,2020-09-25,32.21,32.21,31.23,31.4,31.81,729825.0,23006831.0,785000000.0,3140000000.0
sz002976,瑞玛工业,2020-09-28,31.41,31.53,30.05,30.05,31.4,841557.0,25740023.0,751250000.0,3005000000.0
sz002976,瑞玛工业,2020-09-29,30.14,30.47,30.12,30.16,30.05,406128.0,12282317.0,754000000.0,3016000000.0
sz002976,瑞玛工业,2020-09-30,30.16,30.3,29.7,29.91,30.16,462636.0,13900549.0,747750000.0,2991000000.0
sz002976,瑞玛工业,2020-10-09,30.48,30.86,30.4,30.75,29.91,567964.0,17438595.0,768750000.0,3075000000.0
sz002976,瑞玛工业,2020-10-12,30.96,31.81,30.8,31.81,30.75,593800.0,18647778.0,795250000.0,3181000000.0
sz002976,瑞玛工业,2020-10-13,31.58,31.8,31.45,31.6,31.81,438074.0,13851756.0,790000000.0,3160000000.0
sz002976,瑞玛工业,2020-10-14,31.46,31.56,31.0,31.28,31.6,524036.0,16400253.0,782000000.0,3128000000.0
sz002976,瑞玛工业,2020-10-15,31.1,31.39,31.05,31.11,31.28,285700.0,8909219.0,777750000.0,3111000000.0
sz002976,瑞玛工业,2020-10-16,31.2,31.38,30.83,31.21,31.11,547000.0,16958477.0,780250000.0,3121000000.0
sz002976,瑞玛工业,2020-10-19,31.38,31.56,30.99,31.03,31.21,469549.0,14676670.0,775750000.0,3103000000.0
sz002976,瑞玛工业,2020-10-20,30.92,31.47,30.63,31.33,31.03,570180.0,17749254.0,783250000.0,3133000000.0
sz002976,瑞玛工业,2020-10-21,31.34,31.37,31.02,31.25,31.33,413028.0,12891485.0,781250000.0,3125000000.0
sz002976,瑞玛工业,2020-10-22,31.18,31.49,30.73,31.36,31.25,449656.0,14028222.0,784000000.0,3136000000.0
sz002976,瑞玛工业,2020-10-23,31.59,32.48,31.39,31.93,31.36,1322103.0,42204528.0,798250000.0,3193000000.0
sz002976,瑞玛工业,2020-10-26,31.69,32.45,30.4,31.78,31.93,956963.0,30258286.0,794500000.0,3178000000.0
sz002976,瑞玛工业,2020-10-27,31.6,32.21,31.4,32.16,31.78,722136.0,23048423.0,804000000.0,3216000000.0
sz002976,瑞玛工业,2020-10-28,32.49,32.49,31.52,31.71,32.16,764403.0,24313886.0,792750000.0,3171000000.0
sz002976,瑞玛工业,2020-10-29,31.45,31.65,30.83,30.9,31.71,749875.0,23337362.0,772500000.0,3090000000.0
sz002976,瑞玛工业,2020-10-30,30.9,31.22,30.1,30.12,30.9,574100.0,17622395.0,753000000.0,3012000000.0
sz002976,瑞玛工业,2020-11-02,30.12,33.13,29.96,33.13,30.12,1554400.0,51010122.0,828250000.0,3313000000.0
sz002976,瑞玛工业,2020-11-03,35.0,36.44,34.15,35.63,33.13,7795682.0,276341864.0,890750000.0,3563000000.0
sz002976,瑞玛工业,2020-11-04,35.02,35.03,33.56,33.85,35.63,3782049.0,129293138.0,846250000.0,3385000000.0
sz002976,瑞玛工业,2020-11-05,34.03,34.35,33.56,34.1,33.85,1897238.0,64545006.0,852500000.0,3410000000.0
sz002976,瑞玛工业,2020-11-06,34.1,34.1,33.33,33.68,34.1,1385143.0,46681633.0,842000000.0,3368000000.0
sz002976,瑞玛工业,2020-11-09,33.75,34.5,33.39,34.03,33.68,1820077.0,61824407.0,850750000.0,3403000000.0
sz002976,瑞玛工业,2020-11-10,34.15,34.65,33.4,34.42,34.03,1941677.0,65970071.0,860500000.0,3442000000.0
sz002976,瑞玛工业,2020-11-11,34.24,34.45,33.68,33.7,34.42,953628.0,32382775.0,842500000.0,3370000000.0
sz002976,瑞玛工业,2020-11-12,33.75,34.4,33.4,34.15,33.7,1306836.0,44539404.0,853750000.0,3415000000.0
sz002976,瑞玛工业,2020-11-13,34.34,34.34,33.5,33.92,34.15,927000.0,31349248.0,848000000.0,3392000000.0
sz002976,瑞玛工业,2020-11-16,33.93,34.23,33.48,33.76,33.92,1043664.0,35172731.0,844000000.0,3376000000.0
sz002976,瑞玛工业,2020-11-17,33.68,33.68,31.71,32.0,33.76,1762000.0,57312015.0,800000000.0,3200000000.0
sz002976,瑞玛工业,2020-11-18,31.8,32.19,31.61,31.78,32.0,686200.0,21886805.0,794500000.0,3178000000.0
sz002976,瑞玛工业,2020-11-19,31.63,31.63,31.15,31.46,31.78,904406.0,28397176.0,786500000.0,3146000000.0
sz002976,瑞玛工业,2020-11-20,31.47,31.76,31.42,31.69,31.46,739500.0,23327442.0,792250000.0,3169000000.0
sz002976,瑞玛工业,2020-11-23,31.8,31.8,31.21,31.33,31.69,787528.0,24723914.0,783250000.0,3133000000.0
sz002976,瑞玛工业,2020-11-24,31.36,31.56,31.08,31.09,31.33,651900.0,20402205.0,777250000.0,3109000000.0
sz002976,瑞玛工业,2020-11-25,31.09,31.6,30.72,31.43,31.09,942400.0,29324767.0,785750000.0,3143000000.0
sz002976,瑞玛工业,2020-11-26,31.38,31.38,30.83,30.83,31.43,576400.0,17861357.0,770750000.0,3083000000.0
sz002976,瑞玛工业,2020-11-27,30.83,31.15,30.47,30.65,30.83,552240.0,16906064.0,766250000.0,3065000000.0
sz002976,瑞玛工业,2020-11-30,30.5,30.75,30.5,30.53,30.65,657515.0,20114353.0,763250000.0,3053000000.0
sz002976,瑞玛工业,2020-12-01,30.53,30.89,30.53,30.79,30.53,513900.0,15803278.0,769750000.0,3079000000.0
sz002976,瑞玛工业,2020-12-02,31.0,31.0,30.72,30.99,30.79,527921.0,16309898.0,774750000.0,3099000000.0
sz002976,瑞玛工业,2020-12-03,30.98,31.41,30.72,31.36,30.99,657950.0,20540578.0,784000000.0,3136000000.0
sz002976,瑞玛工业,2020-12-04,31.3,31.3,31.0,31.04,31.36,507550.0,15790805.0,776000000.0,3104000000.0
sz002976,瑞玛工业,2020-12-07,31.31,31.31,30.47,30.5,31.04,677075.0,20826794.0,762500000.0,3050000000.0
sz002976,瑞玛工业,2020-12-08,30.55,30.83,30.4,30.66,30.5,330864.0,10149762.0,766500000.0,3066000000.0
sz002976,瑞玛工业,2020-12-09,30.73,30.79,30.1,30.16,30.66,573600.0,17385928.0,754000000.0,3016000000.0
sz002976,瑞玛工业,2020-12-10,30.1,30.5,29.91,30.05,30.16,387180.0,11707507.0,751250000.0,3005000000.0
sz002976,瑞玛工业,2020-12-11,30.05,30.08,29.13,29.48,30.05,671600.0,19893371.0,737000000.0,2948000000.0
sz002976,瑞玛工业,2020-12-14,29.23,29.55,29.06,29.25,29.48,406281.0,11887107.0,731250000.0,2925000000.0
sz002976,瑞玛工业,2020-12-15,29.25,29.44,29.1,29.39,29.25,371100.0,10851499.0,734750000.0,2939000000.0
sz002976,瑞玛工业,2020-12-16,29.28,29.48,28.2,28.26,29.39,677300.0,19536417.0,706500000.0,2826000000.0
sz002976,瑞玛工业,2020-12-17,28.26,28.38,27.05,28.24,28.26,944228.0,26157942.0,706000000.0,2824000000.0
sz002976,瑞玛工业,2020-12-18,28.18,28.3,27.2,27.66,28.24,563428.0,15624660.0,691500000.0,2766000000.0
sz002976,瑞玛工业,2020-12-21,27.66,27.97,27.3,27.83,27.66,411736.0,11371977.0,695750000.0,2783000000.0
sz002976,瑞玛工业,2020-12-22,27.99,27.99,27.08,27.09,27.83,481950.0,13268486.0,677250000.0,2709000000.0
sz002976,瑞玛工业,2020-12-23,27.17,27.3,26.74,26.82,27.09,547400.0,14737037.0,670500000.0,2682000000.0
sz002976,瑞玛工业,2020-12-24,26.91,26.99,25.83,25.93,26.82,720600.0,18898588.0,648250000.0,2593000000.0
sz002976,瑞玛工业,2020-12-25,25.54,26.36,25.5,26.3,25.93,396600.0,10320817.0,657500000.0,2630000000.0
sz002976,瑞玛工业,2020-12-28,26.39,26.41,25.68,25.69,26.3,360700.0,9330422.0,642250000.0,2569000000.0
sz002976,瑞玛工业,2020-12-29,25.77,26.28,25.63,25.82,25.69,324221.0,8427952.0,645500000.0,2582000000.0
sz002976,瑞玛工业,2020-12-30,25.81,25.99,25.69,25.79,25.82,306572.0,7913224.0,644750000.0,2579000000.0
sz002976,瑞玛工业,2020-12-31,25.75,26.3,25.72,26.28,25.79,445157.0,11633573.0,657000000.0,2628000000.0
sz002976,瑞玛工业,2021-01-04,26.11,27.17,26.11,26.85,26.28,567136.0,15195808.0,671250000.0,2685000000.0
sz002976,瑞玛工业,2021-01-05,26.75,27.0,26.52,26.8,26.85,448216.0,11980513.0,670000000.0,2680000000.0
sz002976,瑞玛工业,2021-01-06,26.65,26.8,25.8,25.87,26.8,511564.0,13387266.0,646750000.0,2587000000.0
sz002976,瑞玛工业,2021-01-07,25.87,25.87,24.5,24.54,25.87,795589.0,19789815.0,613500000.0,2454000000.0
sz002976,瑞玛工业,2021-01-08,24.48,25.28,23.0,24.72,24.54,637900.0,15472418.0,618000000.0,2472000000.0
sz002976,瑞玛工业,2021-01-11,24.7,24.8,23.5,23.65,24.72,668000.0,15910172.0,591250000.0,2365000000.0
sz002976,瑞玛工业,2021-01-12,23.3,23.99,23.1,23.52,23.65,370300.0,8748723.0,588000000.0,2352000000.0
sz002976,瑞玛工业,2021-01-13,23.54,23.59,22.51,22.53,23.52,778700.0,17782723.0,563250000.0,2253000000.0
sz002976,瑞玛工业,2021-01-14,22.53,23.14,22.3,22.67,22.53,452500.0,10271046.0,566750000.0,2267000000.0
sz002976,瑞玛工业,2021-01-15,22.65,24.02,22.49,23.58,22.67,659115.0,15455900.0,589500000.0,2358000000.0
sz002976,瑞玛工业,2021-01-18,23.5,24.24,23.39,23.92,23.58,391928.0,9375399.0,598000000.0,2392000000.0
sz002976,瑞玛工业,2021-01-19,24.37,24.37,23.92,24.08,23.92,439800.0,10626516.0,602000000.0,2408000000.0
sz002976,瑞玛工业,2021-01-20,24.08,26.49,24.07,26.49,24.08,855428.0,22138214.0,662250000.0,2649000000.0
sz002976,瑞玛工业,2021-01-21,27.97,28.8,25.92,26.0,26.49,2603052.0,71171606.0,650000000.0,2600000000.0
sz002976,瑞玛工业,2021-01-22,25.84,25.96,24.3,24.85,26.0,1620371.0,40384190.0,621250000.0,2485000000.0
sz002976,瑞玛工业,2021-01-25,24.41,24.71,23.58,23.58,24.85,964200.0,23080837.0,589500000.0,2358000000.0
sz002976,瑞玛工业,2021-01-26,23.6,24.36,23.53,23.86,23.58,743968.0,17748716.0,596500000.0,2386000000.0
sz002976,瑞玛工业,2021-01-27,23.5,23.85,23.0,23.42,23.86,632028.0,14807694.0,585500000.0,2342000000.0
sz002976,瑞玛工业,2021-01-28,23.43,24.0,23.2,23.51,23.42,487129.0,11506359.0,587750000.0,2351000000.0
sz002976,瑞玛工业,2021-01-29,23.99,24.0,22.7,22.98,23.51,467000.0,10778038.0,574500000.0,2298000000.0
sz002976,瑞玛工业,2021-02-01,22.98,23.47,22.72,23.46,22.98,322200.0,7457353.0,586500000.0,2346000000.0
sz002976,瑞玛工业,2021-02-02,23.3,23.82,23.16,23.82,23.46,369037.0,8667891.0,595500000.0,2382000000.0
sz002976,瑞玛工业,2021-02-03,23.58,23.77,23.02,23.05,23.82,335381.0,7833630.0,576250000.0,2305000000.0
sz002976,瑞玛工业,2021-02-04,23.05,23.05,22.01,22.6,23.05,486110.0,10920721.0,565000000.0,2260000000.0
sz002976,瑞玛工业,2021-02-05,22.25,23.25,22.25,22.64,22.6,265628.0,6074891.0,566000000.0,2264000000.0
sz002976,瑞玛工业,2021-02-08,22.65,23.19,22.38,22.41,22.64,295700.0,6690874.0,560250000.0,2241000000.0
sz002976,瑞玛工业,2021-02-09,22.35,22.65,22.2,22.44,22.41,275600.0,6188798.0,561000000.0,2244000000.0
sz002976,瑞玛工业,2021-02-10,22.61,22.62,22.32,22.47,22.44,307000.0,6893506.0,561750000.0,2247000000.0
sz002976,瑞玛工业,2021-02-18,22.6,23.33,22.6,23.08,22.47,399456.0,9217625.0,577000000.0,2308000000.0
sz002976,瑞玛工业,2021-02-19,24.66,25.39,24.66,25.39,23.08,567000.0,14358425.0,634750000.0,2539000000.0
sz002976,瑞玛工业,2021-02-22,25.76,25.95,24.7,25.51,25.39,2031349.0,51531391.0,637750000.0,2551000000.0
sz002976,瑞玛工业,2021-02-23,24.9,25.19,24.55,24.55,25.51,983678.0,24382499.0,613750000.0,2455000000.0
sz002976,瑞玛工业,2021-02-24,24.55,25.1,24.28,24.8,24.55,760064.0,18837802.0,620000000.0,2480000000.0
sz002976,瑞玛工业,2021-02-25,24.85,25.02,24.02,24.1,24.8,667525.0,16217065.0,602500000.0,2410000000.0
sz002976,瑞玛工业,2021-02-26,23.87,24.55,23.62,24.17,24.1,396229.0,9567953.0,604250000.0,2417000000.0
sz002976,瑞玛工业,2021-03-01,24.21,24.73,24.21,24.57,24.17,483763.0,11810442.0,614250000.0,2457000000.0
sz002976,瑞玛工业,2021-03-02,24.6,24.66,24.02,24.16,24.57,401628.0,9746753.0,604000000.0,2416000000.0
sz002976,瑞玛工业,2021-03-03,24.16,24.29,24.0,24.2,24.16,423000.0,10207312.0,605000000.0,2420000000.0
sz002976,瑞玛工业,2021-03-04,24.25,24.72,24.05,24.21,24.2,539257.0,13129747.0,605250000.0,2421000000.0
sz002976,瑞玛工业,2021-03-05,23.99,24.4,23.87,24.31,24.21,452728.0,10964355.0,607750000.0,2431000000.0
sz002976,瑞玛工业,2021-03-08,24.55,24.8,24.08,24.28,24.31,432100.0,10541503.0,713528500.0,2428000000.0
sz002976,瑞玛工业,2021-03-09,24.28,24.32,22.02,23.08,24.28,573900.0,13386524.0,678263500.0,2308000000.0
sz002976,瑞玛工业,2021-03-10,23.14,23.45,22.55,22.63,23.08,438300.0,9989047.0,665039125.0,2263000000.0
sz002976,瑞玛工业,2021-03-11,24.63,24.68,23.04,23.43,22.63,465476.0,11026791.0,688549125.0,2343000000.0
sz002976,瑞玛工业,2021-03-12,23.51,23.78,23.0,23.37,23.43,280200.0,6501891.0,686785875.0,2337000000.0
sz002976,瑞玛工业,2021-03-15,23.05,23.36,22.82,23.14,23.37,272428.0,6270260.0,680026750.0,2314000000.0
sz002976,瑞玛工业,2021-03-16,23.13,23.6,22.9,23.48,23.14,342600.0,8011094.0,690018500.0,2348000000.0
sz002976,瑞玛工业,2021-03-17,23.48,23.92,23.3,23.72,23.48,319100.0,7542024.0,697071500.0,2372000000.0
sz002976,瑞玛工业,2021-03-18,23.78,23.78,23.41,23.55,23.72,292805.0,6902441.0,692075625.0,2355000000.0
sz002976,瑞玛工业,2021-03-19,23.55,23.98,23.29,23.96,23.55,519028.0,12344752.0,704124500.0,2396000000.0
sz002976,瑞玛工业,2021-03-22,23.93,24.48,23.81,24.27,23.96,527656.0,12779146.0,713234625.0,2427000000.0
sz002976,瑞玛工业,2021-03-23,24.42,24.42,23.82,23.91,24.27,410500.0,9835934.0,702655125.0,2391000000.0
sz002976,瑞玛工业,2021-03-24,23.71,24.18,23.71,24.0,23.91,296900.0,7099320.0,705300000.0,2400000000.0
sz002976,瑞玛工业,2021-03-25,24.0,24.39,23.83,24.16,24.0,381200.0,9191444.0,710002000.0,2416000000.0
sz002976,瑞玛工业,2021-03-26,24.23,24.29,23.95,24.11,24.16,342500.0,8268293.0,708532625.0,2411000000.0
sz002976,瑞玛工业,2021-03-29,24.02,24.35,23.83,23.86,24.11,336228.0,8095691.0,701185750.0,2386000000.0
sz002976,瑞玛工业,2021-03-30,23.78,23.8,23.18,23.56,23.86,354000.0,8310845.0,692369500.0,2356000000.0
sz002976,瑞玛工业,2021-03-31,23.44,24.18,23.4,24.1,23.56,502028.0,12004504.0,708238750.0,2410000000.0
sz002976,瑞玛工业,2021-04-01,24.2,24.2,23.9,24.07,24.1,269402.0,6471105.0,707357125.0,2407000000.0
sz002976,瑞玛工业,2021-04-02,23.94,24.8,23.94,24.4,24.07,665900.0,16252762.0,717055000.0,2440000000.0
sz002976,瑞玛工业,2021-04-06,24.45,24.65,22.45,24.48,24.4,618200.0,15025641.0,719406000.0,2448000000.0
sz002976,瑞玛工业,2021-04-07,24.16,24.95,24.16,24.84,24.48,891200.0,21971473.0,729985500.0,2484000000.0
sz002976,瑞玛工业,2021-04-08,24.91,24.98,24.22,24.25,24.84,706836.0,17365048.0,712646875.0,2425000000.0
sz002976,瑞玛工业,2021-04-09,24.18,24.48,24.1,24.29,24.25,396428.0,9631865.0,713822375.0,2429000000.0
sz002976,瑞玛工业,2021-04-12,24.3,24.95,24.05,24.93,24.29,953121.0,23443405.0,732630375.0,2493000000.0
sz002976,瑞玛工业,2021-04-13,24.95,24.97,23.9,23.95,24.93,940734.0,22846840.0,703830625.0,2395000000.0
sz002976,瑞玛工业,2021-04-14,23.72,24.33,23.11,24.21,23.95,524500.0,12507835.0,711471375.0,2421000000.0
sz002976,瑞玛工业,2021-04-15,24.16,24.36,23.83,24.26,24.21,480456.0,11595716.0,712940750.0,2426000000.0
sz002976,瑞玛工业,2021-04-16,24.03,24.5,24.03,24.36,24.26,544300.0,13241024.0,715879500.0,2436000000.0
sz002976,瑞玛工业,2021-04-19,24.33,24.78,24.33,24.6,24.36,667077.0,16434249.0,722932500.0,2460000000.0
sz002976,瑞玛工业,2021-04-20,24.59,24.98,24.3,24.31,24.6,724900.0,17875792.0,714410125.0,2431000000.0
sz002976,瑞玛工业,2021-04-21,24.3,24.59,24.13,24.22,24.31,424900.0,10310935.0,711765250.0,2422000000.0
sz002976,瑞玛工业,2021-04-22,24.4,24.49,24.13,24.2,24.22,360928.0,8757569.0,711177500.0,2420000000.0
sz002976,瑞玛工业,2021-04-23,24.02,24.21,23.33,23.37,24.2,640800.0,15154082.0,686785875.0,2337000000.0
sz002976,瑞玛工业,2021-04-26,23.5,23.57,23.01,23.1,23.37,428228.0,9982779.0,678851250.0,2310000000.0
sz002976,瑞玛工业,2021-04-27,23.07,23.46,22.8,23.46,23.1,472942.0,10906091.0,689430750.0,2346000000.0
sz002976,瑞玛工业,2021-04-28,23.0,23.55,23.0,23.1,23.46,336742.0,7794248.0,678851250.0,2310000000.0
sz002976,瑞玛工业,2021-04-29,23.1,23.23,22.91,23.09,23.1,288494.0,6662260.0,678557375.0,2309000000.0
sz002976,瑞玛工业,2021-04-30,23.1,23.1,22.43,22.56,23.09,443797.0,10038023.0,662982000.0,2256000000.0
sz002976,瑞玛工业,2021-05-06,22.56,22.79,22.51,22.56,22.56,237236.0,5372947.0,662982000.0,2256000000.0
sz002976,瑞玛工业,2021-05-07,22.65,22.67,22.22,22.22,22.56,318300.0,7137311.0,652990250.0,2222000000.0
sz002976,瑞玛工业,2021-05-10,22.42,22.53,22.03,22.14,22.22,277200.0,6162248.0,650639250.0,2214000000.0
sz002976,瑞玛工业,2021-05-11,22.09,22.39,22.08,22.35,22.14,269028.0,5974146.0,656810625.0,2235000000.0
sz002976,瑞玛工业,2021-05-12,22.46,22.69,22.22,22.61,22.35,233600.0,5241416.0,664451375.0,2261000000.0
sz002976,瑞玛工业,2021-05-13,22.43,22.75,22.41,22.52,22.61,240900.0,5434552.0,661806500.0,2252000000.0
sz002976,瑞玛工业,2021-05-14,22.68,22.77,22.58,22.71,22.52,260500.0,5912582.0,667390125.0,2271000000.0
sz002976,瑞玛工业,2021-05-17,22.8,22.8,22.49,22.62,22.71,239200.0,5406743.0,664745250.0,2262000000.0
sz002976,瑞玛工业,2021-05-18,22.3,22.65,22.3,22.57,22.62,266128.0,5975311.0,663275875.0,2257000000.0
sz002976,瑞玛工业,2021-05-19,22.67,22.67,22.37,22.52,22.57,196800.0,4431468.0,661806500.0,2252000000.0
sz002976,瑞玛工业,2021-05-20,22.39,22.52,22.34,22.4,22.52,171900.0,3851699.0,658280000.0,2240000000.0
sz002976,瑞玛工业,2021-05-21,22.4,22.66,22.4,22.46,22.4,221700.0,4993612.0,660043250.0,2246000000.0
sz002976,瑞玛工业,2021-05-24,22.62,22.62,22.35,22.47,22.46,200184.0,4495905.0,660337125.0,2247000000.0
sz002976,瑞玛工业,2021-05-25,22.46,22.58,22.4,22.55,22.47,324015.0,7285831.0,662688125.0,2255000000.0
sz002976,瑞玛工业,2021-05-26,22.56,22.99,22.46,22.8,22.55,434464.0,9880860.0,670035000.0,2280000000.0
sz002976,瑞玛工业,2021-05-27,22.8,22.99,22.72,22.87,22.8,346000.0,7920873.0,672092125.0,2287000000.0
sz002976,瑞玛工业,2021-05-28,22.87,22.99,22.66,22.67,22.87,223100.0,5081620.0,666214625.0,2267000000.0
sz002976,瑞玛工业,2021-05-31,22.61,22.94,22.61,22.89,22.67,293100.0,6680090.0,672679875.0,2289000000.0
sz002976,瑞玛工业,2021-06-01,22.9,23.32,22.6,23.13,22.89,412300.0,9511142.0,679732875.0,2313000000.0
sz002976,瑞玛工业,2021-06-02,23.13,23.26,23.01,23.1,23.13,309100.0,7144465.0,678851250.0,2310000000.0
sz002976,瑞玛工业,2021-06-03,23.1,23.44,23.1,23.22,23.1,352300.0,8200472.0,682377750.0,2322000000.0
sz002976,瑞玛工业,2021-06-04,23.22,23.45,23.11,23.17,23.22,296869.0,6899456.0,680908375.0,2317000000.0
sz002976,瑞玛工业,2021-06-07,23.47,23.67,23.18,23.41,23.17,468728.0,11002889.0,687961375.0,2341000000.0
sz002976,瑞玛工业,2021-06-08,23.46,23.65,23.21,23.3,23.41,363177.0,8467175.0,684728750.0,2330000000.0
sz002976,瑞玛工业,2021-06-09,23.48,23.67,23.36,23.61,23.3,476074.0,11194457.0,693838875.0,2361000000.0
sz002976,瑞玛工业,2021-06-10,23.68,23.68,23.45,23.5,23.61,313634.0,7384969.0,690606250.0,2350000000.0
sz002976,瑞玛工业,2021-06-11,23.64,23.64,23.14,23.26,23.5,327827.0,7660342.0,683553250.0,2326000000.0
sz002976,瑞玛工业,2021-06-15,23.27,23.39,23.06,23.11,23.26,244743.0,5667261.0,679145125.0,2311000000.0
sz002976,瑞玛工业,2021-06-16,19.12,19.36,18.89,19.02,19.18,356425.0,6822676.0,670740300.0,2282400000.0
sz002976,瑞玛工业,2021-06-17,19.07,19.59,19.06,19.29,19.02,480314.0,9310933.0,680261850.0,2314800000.0
sz002976,瑞玛工业,2021-06-18,19.1,19.39,19.1,19.3,19.29,383127.0,7374065.0,680614500.0,2316000000.0
sz002976,瑞玛工业,2021-06-21,19.3,19.47,19.0,19.47,19.3,320860.0,6217262.0,686609550.0,2336400000.0
sz002976,瑞玛工业,2021-06-22,19.55,20.18,19.49,20.1,19.47,1026473.0,20400912.0,708826500.0,2412000000.0
sz002976,瑞玛工业,2021-06-23,20.67,22.11,20.33,22.11,20.1,1441886.0,31153766.0,779709149.9999999,2653200000.0
sz002976,瑞玛工业,2021-06-24,24.32,24.32,24.0,24.32,22.11,3276902.0,79689603.0,857644800.0,2918400000.0
sz002976,瑞玛工业,2021-06-25,22.99,23.88,22.15,22.18,24.32,6244572.0,141241231.0,782177700.0,2661600000.0
sz002976,瑞玛工业,2021-06-28,21.58,22.6,21.57,21.96,22.18,4040432.0,89579181.0,774419400.0,2635200000.0
sz002976,瑞玛工业,2021-06-29,21.78,22.37,21.0,21.25,21.96,2915946.0,62534914.0,749381250.0,2550000000.0
sz002976,瑞玛工业,2021-06-30,21.2,21.49,20.83,21.0,21.25,1882310.0,39643359.0,740565000.0,2520000000.0
sz002976,瑞玛工业,2021-07-01,20.78,21.33,20.66,21.17,21.0,1821736.0,38263407.0,746560050.0,2540400000.0
sz002976,瑞玛工业,2021-07-02,20.9,20.9,20.33,20.52,21.17,1446250.0,29711459.0,723637800.0,2462400000.0
sz002976,瑞玛工业,2021-07-05,20.5,20.96,20.33,20.92,20.52,1249520.0,25905759.0,737743800.0,2510400000.0
sz002976,瑞玛工业,2021-07-06,20.89,20.89,20.52,20.69,20.92,1007077.0,20796571.0,729632850.0,2482800000.0
sz002976,瑞玛工业,2021-07-07,20.7,21.5,20.7,21.13,20.69,2099740.0,44436173.0,745149450.0000001,2535600000.0
sz002976,瑞玛工业,2021-07-08,21.0,21.11,20.34,20.5,21.13,1721434.0,35395902.0,722932500.0,2460000000.0
sz002976,瑞玛工业,2021-07-09,20.38,20.58,19.85,20.14,20.5,1109874.0,22281402.0,710237100.0000001,2416800000.0
sz002976,瑞玛工业,2021-07-12,20.36,20.52,20.04,20.52,20.14,1185740.0,24147150.0,723637800.0,2462400000.0
sz002976,瑞玛工业,2021-07-13,20.5,20.56,20.2,20.56,20.52,813044.0,16533967.0,725048400.0,2467200000.0
sz002976,瑞玛工业,2021-07-14,20.56,20.57,20.2,20.26,20.56,673017.0,13675926.0,714468900.0,2431200000.0
sz002976,瑞玛工业,2021-07-15,20.36,20.56,20.1,20.48,20.26,886100.0,18047013.0,722227200.0,2457600000.0
sz002976,瑞玛工业,2021-07-16,20.6,20.65,20.2,20.24,20.48,577360.0,11786038.0,713763600.0,2428800000.0
sz002976,瑞玛工业,2021-07-19,20.0,20.17,19.88,20.15,20.24,520480.0,10419747.0,710589750.0,2418000000.0
sz002976,瑞玛工业,2021-07-20,20.35,20.43,19.99,20.32,20.15,422140.0,8532829.0,716584800.0,2438400000.0
sz002976,瑞玛工业,2021-07-21,20.37,20.56,20.18,20.47,20.32,593133.0,12076856.0,721874550.0,2456400000.0
sz002976,瑞玛工业,2021-07-22,20.5,20.52,20.22,20.25,20.47,679074.0,13777557.0,714116250.0,2430000000.0
sz002976,瑞玛工业,2021-07-23,20.26,20.26,19.73,19.73,20.25,972611.0,19349328.0,695778450.0,2367600000.0
sz002976,瑞玛工业,2021-07-26,19.73,19.8,18.93,19.3,19.73,725209.0,14008154.0,680614500.0,2316000000.0
sz002976,瑞玛工业,2021-07-27,19.3,19.55,19.07,19.1,19.3,476640.0,9187711.0,673561500.0,2292000000.0
sz002976,瑞玛工业,2021-07-28,19.02,19.38,18.52,18.56,19.1,699985.0,13104535.0,654518400.0,2227200000.0
sz002976,瑞玛工业,2021-07-29,18.59,19.78,18.59,19.4,18.56,894903.0,17181409.0,684141000.0,2328000000.0
sz002976,瑞玛工业,2021-07-30,20.08,20.1,19.41,19.49,19.4,1013160.0,20103510.0,687314850.0,2338800000.0
sz002976,瑞玛工业,2021-08-02,19.26,19.47,19.0,19.45,19.49,803580.0,15474615.0,685904250.0,2334000000.0
sz002976,瑞玛工业,2021-08-03,19.27,19.65,19.23,19.4,19.45,551800.0,10750871.0,684141000.0,2328000000.0
sz002976,瑞玛工业,2021-08-04,19.4,19.55,19.24,19.48,19.4,373180.0,7252056.0,686962200.0,2337600000.0
sz002976,瑞玛工业,2021-08-05,19.49,19.49,19.12,19.12,19.48,492180.0,9473466.0,674266799.9999999,2294400000.0
sz002976,瑞玛工业,2021-08-06,19.09,19.25,18.96,19.14,19.12,352580.0,6722020.0,674972100.0000001,2296800000.0
sz002976,瑞玛工业,2021-08-09,19.18,19.38,19.04,19.34,19.14,388260.0,7478508.0,682025100.0,2320800000.0
sz002976,瑞玛工业,2021-08-10,19.19,21.27,19.19,20.63,19.34,2129032.0,43406768.0,727516950.0000001,2475600000.0
sz002976,瑞玛工业,2021-08-11,20.61,20.76,20.07,20.51,20.63,1770803.0,36100355.0,723285150.0,2461200000.0
sz002976,瑞玛工业,2021-08-12,20.51,20.59,20.2,20.23,20.51,765440.0,15584433.0,713410950.0,2427600000.0
sz002976,瑞玛工业,2021-08-13,20.18,20.4,20.0,20.22,20.23,863190.0,17380541.0,713058300.0,2426400000.0
sz002976,瑞玛工业,2021-08-16,20.39,21.2,20.1,21.05,20.22,1928352.0,40174229.0,742328250.0,2526000000.0
sz002976,瑞玛工业,2021-08-17,21.05,21.24,20.31,20.4,21.05,1367621.0,28426760.0,719406000.0,2448000000.0
sz002976,瑞玛工业,2021-08-18,20.75,20.75,20.3,20.62,20.4,760476.0,15606380.0,727164299.9999999,2474400000.0
sz002976,瑞玛工业,2021-08-19,20.62,21.04,20.44,20.97,20.62,994262.0,20691365.0,739507050.0,2516400000.0
sz002976,瑞玛工业,2021-08-20,20.87,21.38,20.51,21.37,20.97,1616859.0,34096958.0,753613049.9999999,2564400000.0
sz002976,瑞玛工业,2021-08-23,21.5,21.66,21.0,21.34,21.37,1092480.0,23256539.0,752555100.0,2560800000.0
sz002976,瑞玛工业,2021-08-24,21.15,21.35,21.12,21.2,21.34,718023.0,15220594.0,747618000.0,2544000000.0
sz002976,瑞玛工业,2021-08-25,21.12,21.39,20.85,21.35,21.2,777620.0,16492900.0,752907750.0,2562000000.0
sz002976,瑞玛工业,2021-08-26,21.25,21.51,20.93,20.93,21.35,796040.0,16814515.0,738096450.0,2511600000.0
sz002976,瑞玛工业,2021-08-27,20.89,21.25,20.54,21.0,20.93,696180.0,14553291.0,740565000.0,2520000000.0
sz002976,瑞玛工业,2021-08-30,21.0,21.85,21.0,21.7,21.0,1382420.0,29686101.0,765250500.0,2604000000.0
sz002976,瑞玛工业,2021-08-31,21.6,21.98,21.5,21.98,21.7,1812499.0,39569671.0,775124700.0,2637600000.0
sz002976,瑞玛工业,2021-09-01,21.86,22.41,21.58,22.27,21.98,1861169.0,41072697.0,785351550.0,2672400000.0
sz002976,瑞玛工业,2021-09-02,22.48,23.5,21.6,21.6,22.27,4013451.0,90759912.0,761724000.0,2592000000.0
sz002976,瑞玛工业,2021-09-03,21.79,22.28,21.01,22.28,21.6,2365414.0,51365020.0,785704200.0,2673600000.0
sz002976,瑞玛工业,2021-09-06,22.29,23.73,22.29,23.41,22.28,3309376.0,76525018.0,825553650.0,2809200000.0
sz002976,瑞玛工业,2021-09-07,23.41,25.24,23.41,25.1,23.41,4266178.0,105135302.0,885151500.0,3012000000.0
sz002976,瑞玛工业,2021-09-08,25.24,25.42,24.74,25.15,25.1,3258435.0,81426128.0,886914750.0,3018000000.0
sz002976,瑞玛工业,2021-09-09,25.0,25.1,23.94,24.09,25.15,2861730.0,69850877.0,849533850.0,2890800000.0
sz002976,瑞玛工业,2021-09-10,24.09,24.14,23.04,23.61,24.09,2756014.0,64675296.0,832606649.9999999,2833200000.0
sz002976,瑞玛工业,2021-09-13,23.76,23.76,22.22,22.6,23.61,2710136.0,61397657.0,796989000.0,2712000000.0
sz002976,瑞玛工业,2021-09-14,22.7,22.72,21.46,21.7,22.6,2133814.0,46931953.0,765250500.0,2604000000.0
sz002976,瑞玛工业,2021-09-15,21.7,21.89,21.38,21.83,21.7,1390882.0,30058361.0,769834950.0,2619600000.0
sz002976,瑞玛工业,2021-09-16,21.9,22.17,21.09,21.13,21.83,1554289.0,33409499.0,745149450.0000001,2535600000.0
sz002976,瑞玛工业,2021-09-17,21.13,21.15,20.16,20.51,21.13,1241129.0,25586097.0,723285150.0,2461200000.0
sz002976,瑞玛工业,2021-09-22,20.44,20.68,20.23,20.53,20.51,762914.0,15620125.0,723990450.0,2463600000.0
sz002976,瑞玛工业,2021-09-23,20.69,20.79,20.42,20.55,20.53,824570.0,16973518.0,724695750.0,2466000000.0
sz002976,瑞玛工业,2021-09-24,20.67,20.67,19.9,19.96,20.55,821460.0,16560061.0,703889400.0,2395200000.0
sz002976,瑞玛工业,2021-09-27,19.96,20.05,19.3,19.42,19.96,741340.0,14532520.0,684846300.0,2330400000.0
sz002976,瑞玛工业,2021-09-28,19.69,19.69,19.31,19.57,19.42,388073.0,7563893.0,690136050.0,2348400000.0
sz002976,瑞玛工业,2021-09-29,19.57,19.58,19.06,19.1,19.57,569320.0,10958233.0,673561500.0,2292000000.0
sz002976,瑞玛工业,2021-09-30,19.28,19.49,19.1,19.29,19.1,404400.0,7822411.0,680261850.0,2314800000.0
sz002976,瑞玛工业,2021-10-08,19.4,19.78,19.4,19.57,19.29,459700.0,8996033.0,690136050.0,2348400000.0
sz002976,瑞玛工业,2021-10-11,19.91,19.91,19.44,19.6,19.57,612887.0,12040887.0,691194000.0,2352000000.0
sz002976,瑞玛工业,2021-10-12,19.77,19.77,18.96,19.15,19.6,700813.0,13448120.0,675324750.0,2298000000.0
sz002976,瑞玛工业,2021-10-13,19.15,19.5,19.1,19.47,19.15,359834.0,6952499.0,686609550.0,2336400000.0
sz002976,瑞玛工业,2021-10-14,19.48,19.48,19.18,19.44,19.47,386860.0,7473709.0,685551600.0,2332800000.0
sz002976,瑞玛工业,2021-10-15,20.44,20.5,19.42,19.55,19.44,820951.0,16173909.0,689430750.0,2346000000.0
sz002976,瑞玛工业,2021-10-18,19.34,19.39,19.12,19.3,19.55,446771.0,8584296.0,680614500.0,2316000000.0
sz002976,瑞玛工业,2021-10-19,19.31,19.31,19.12,19.19,19.3,434380.0,8340887.0,676735350.0,2302800000.0
sz002976,瑞玛工业,2021-10-20,19.11,19.21,19.0,19.1,19.19,420216.0,8018435.0,673561500.0,2292000000.0
sz002976,瑞玛工业,2021-10-21,19.17,19.2,19.02,19.14,19.1,313600.0,5991278.0,674972100.0000001,2296800000.0
sz002976,瑞玛工业,2021-10-22,19.94,19.94,19.09,19.15,19.14,464660.0,8980926.0,675324750.0,2298000000.0
sz002976,瑞玛工业,2021-10-25,19.11,19.15,18.91,18.98,19.15,347775.0,6597719.0,669329700.0,2277600000.0
sz002976,瑞玛工业,2021-10-26,19.09,19.65,18.91,19.35,18.98,850420.0,16384142.0,682377750.0,2322000000.0
sz002976,瑞玛工业,2021-10-27,19.1,19.27,18.62,18.96,19.35,732971.0,13831020.0,668624400.0,2275200000.0
sz002976,瑞玛工业,2021-10-28,19.0,19.19,18.01,18.13,18.96,727740.0,13430097.0,639354450.0,2175600000.0
sz002976,瑞玛工业,2021-10-29,18.03,18.97,18.03,18.31,18.13,442389.0,8146828.0,645702150.0,2197200000.0
sz002976,瑞玛工业,2021-11-01,18.35,18.63,18.31,18.6,18.31,342318.0,6348020.0,655929000.0,2232000000.0
sz002976,瑞玛工业,2021-11-02,18.69,18.98,18.31,18.48,18.6,413753.0,7715605.0,651697200.0,2217600000.0
sz002976,瑞玛工业,2021-11-03,18.48,18.74,18.42,18.58,18.48,190340.0,3538602.0,655223700.0,2229600000.0
sz002976,瑞玛工业,2021-11-04,18.65,19.55,18.46,19.18,18.58,988464.0,18828574.0,676382700.0,2301600000.0
sz002976,瑞玛工业,2021-11-05,19.09,19.2,18.9,18.98,19.18,512120.0,9751048.0,669329700.0,2277600000.0
sz002976,瑞玛工业,2021-11-08,18.89,19.29,18.81,19.24,18.98,594120.0,11324959.0,678498600.0,2308800000.0
sz002976,瑞玛工业,2021-11-09,19.24,19.38,19.13,19.22,19.24,393816.0,7576548.0,677793300.0,2306400000.0
sz002976,瑞玛工业,2021-11-10,19.18,19.47,19.07,19.47,19.22,683213.0,13188835.0,686609550.0,2336400000.0
sz002976,瑞玛工业,2021-11-11,19.47,19.65,19.44,19.54,19.47,519596.0,10158485.0,689078100.0,2344800000.0
sz002976,瑞玛工业,2021-11-12,19.4,19.95,19.4,19.85,19.54,799780.0,15774186.0,700010250.0,2382000000.0
sz002976,瑞玛工业,2021-11-15,20.0,20.35,19.85,20.2,19.85,1040117.0,20986472.0,712353000.0,2424000000.0
sz002976,瑞玛工业,2021-11-16,20.21,20.48,19.91,19.96,20.2,878376.0,17714847.0,703889400.0,2395200000.0
sz002976,瑞玛工业,2021-11-17,19.94,20.4,19.9,20.27,19.96,695296.0,14034585.0,714821550.0,2432400000.0
sz002976,瑞玛工业,2021-11-18,22.3,22.3,22.3,22.3,20.27,859779.0,19173072.0,786409500.0,2676000000.0
sz002976,瑞玛工业,2021-11-19,22.74,23.4,21.77,21.95,22.3,6181314.0,139382897.0,774066750.0,2634000000.0
sz002976,瑞玛工业,2021-11-22,21.58,21.6,20.8,21.6,21.95,4229840.0,89719625.0,761724000.0,2592000000.0
sz002976,瑞玛工业,2021-11-23,21.5,23.76,21.4,23.76,21.6,3216233.0,75022015.0,837896400.0,2851200000.0
sz002976,瑞玛工业,2021-11-24,24.5,25.1,23.85,23.91,23.76,8436632.0,206035108.0,843186150.0,2869200000.0
sz002976,瑞玛工业,2021-11-25,23.6,23.83,22.57,22.78,23.91,5362453.0,123308496.0,803336700.0,2733600000.0
sz002976,瑞玛工业,2021-11-26,22.64,22.77,22.04,22.04,22.78,2549833.0,56934283.0,777240600.0,2644800000.0
sz002976,瑞玛工业,2021-11-29,21.87,22.25,21.41,22.09,22.04,2309380.0,50469026.0,779003850.0,2650800000.0
sz002976,瑞玛工业,2021-11-30,22.07,22.29,21.42,21.55,22.09,2329400.0,50833454.0,759960750.0,2586000000.0
sz002976,瑞玛工业,2021-12-01,21.68,22.1,21.37,22.0,21.55,2258334.0,49344588.0,775830000.0,2640000000.0
sz002976,瑞玛工业,2021-12-02,21.99,24.2,21.88,24.2,22.0,6381680.0,148603122.0,853413000.0,2904000000.0
sz002976,瑞玛工业,2021-12-03,23.5,24.93,23.26,24.67,24.2,7999417.0,193064486.0,869987550.0,2960400000.0
sz002976,瑞玛工业,2021-12-06,24.42,24.54,23.69,23.99,24.67,3568863.0,85692147.0,846007350.0,2878800000.0
sz002976,瑞玛工业,2021-12-07,24.19,24.38,23.23,23.32,23.99,2799955.0,66255080.0,822379800.0,2798400000.0
sz002976,瑞玛工业,2021-12-08,23.52,23.6,23.05,23.4,23.32,2063840.0,48097506.0,825201000.0,2808000000.0
sz002976,瑞玛工业,2021-12-09,23.4,23.93,23.15,23.26,23.4,1607080.0,37683171.0,820263900.0,2791200000.0
sz002976,瑞玛工业,2021-12-10,23.05,23.74,22.7,23.65,23.26,1969760.0,46134838.0,834017250.0,2838000000.0
sz002976,瑞玛工业,2021-12-13,23.58,24.32,22.9,23.9,23.65,2845453.0,67356311.0,842833500.0,2868000000.0
sz002976,瑞玛工业,2021-12-14,23.9,24.39,23.64,23.89,23.9,1822400.0,43536136.0,842480850.0000001,2866800000.0
sz002976,瑞玛工业,2021-12-15,23.9,24.3,23.48,23.8,23.89,1954300.0,46634368.0,839307000.0,2856000000.0
sz002976,瑞玛工业,2021-12-16,24.0,24.0,23.49,23.52,23.8,1018711.0,24064834.0,829432800.0,2822400000.0
sz002976,瑞玛工业,2021-12-17,23.54,23.65,23.0,23.33,23.52,1020214.0,23733166.0,822732450.0,2799600000.0
sz002976,瑞玛工业,2021-12-20,23.07,23.59,22.96,23.07,23.33,1061720.0,24610210.0,813563550.0,2768400000.0
sz002976,瑞玛工业,2021-12-21,22.93,23.24,22.75,22.93,23.07,1242840.0,28500875.0,808626450.0,2751600000.0
sz002976,瑞玛工业,2021-12-22,22.82,23.1,22.8,23.03,22.93,610100.0,14005237.0,812152950.0,2763600000.0
sz002976,瑞玛工业,2021-12-23,23.38,24.28,21.8,21.83,23.03,2842780.0,63742269.0,769834950.0,2619600000.0
sz002976,瑞玛工业,2021-12-24,21.62,22.19,21.22,21.5,21.83,1452133.0,31328274.0,758197500.0,2580000000.0
sz002976,瑞玛工业,2021-12-27,21.5,21.58,20.91,21.4,21.5,1094980.0,23303174.0,754671000.0,2568000000.0
sz002976,瑞玛工业,2021-12-28,21.45,21.6,21.22,21.57,21.4,797820.0,17109014.0,760666050.0,2588400000.0
sz002976,瑞玛工业,2021-12-29,22.47,22.47,21.02,21.25,21.57,1056520.0,22604536.0,749381250.0,2550000000.0
sz002976,瑞玛工业,2021-12-30,21.06,22.25,21.06,21.89,21.25,1383903.0,30215895.0,771950850.0000001,2626800000.0
sz002976,瑞玛精密,2021-12-31,22.2,23.2,21.98,22.15,21.89,1141831.0,25481705.0,781119750.0,2658000000.0
sz002976,瑞玛精密,2022-01-04,22.45,22.5,21.91,22.14,22.15,844296.0,18727288.0,780767100.0000001,2656800000.0
sz002976,瑞玛精密,2022-01-05,22.14,22.27,21.72,21.98,22.14,849680.0,18629781.0,775124700.0,2637600000.0
sz002976,瑞玛精密,2022-01-06,21.98,22.35,21.92,22.18,21.98,496853.0,10999843.0,782177700.0,2661600000.0
sz002976,瑞玛精密,2022-01-07,22.18,22.5,21.63,21.68,22.18,758180.0,16691570.0,764545200.0,2601600000.0
sz002976,瑞玛精密,2022-01-10,21.68,23.18,21.68,22.63,21.68,2001198.0,45119557.0,798046950.0000001,2715600000.0
sz002976,瑞玛精密,2022-01-11,22.63,23.26,22.4,22.57,22.63,1150339.0,26274532.0,795931050.0,2708400000.0
sz002976,瑞玛精密,2022-01-12,22.57,23.13,22.43,22.99,22.57,1380881.0,31759013.0,810742350.0,2758800000.0
sz002976,瑞玛精密,2022-01-13,22.99,23.15,22.65,22.75,22.99,955760.0,21873561.0,802278750.0,2730000000.0
sz002976,瑞玛精密,2022-01-14,22.85,23.1,22.05,22.27,22.75,1152182.0,25921354.0,785351550.0,2672400000.0
