数据由邢不行整理
股票代码,股票名称,交易日期,开盘价,最高价,最低价,收盘价,前收盘价,成交量,成交额,流通市值,总市值
sz300736,N百华,2018-01-09,23.02,27.62,23.02,27.62,19.18,7400.0,203698.0,375002264.0,1500006294.0
sz300736,百华悦邦,2018-01-10,30.38,30.38,30.38,30.38,27.62,1600.0,48608.0,412475336.0,1649898306.0
sz300736,百华悦邦,2018-01-11,33.42,33.42,33.42,33.42,30.38,4000.0,133680.0,453750024.0,1814996754.0
sz300736,百华悦邦,2018-01-12,36.76,36.76,36.76,36.76,33.42,8900.0,327164.0,499097872.0,1996387812.0
sz300736,百华悦邦,2018-01-15,40.44,40.44,40.44,40.44,36.76,27101.0,1095964.0,549061968.0,2196243828.0
sz300736,百华悦邦,2018-01-16,44.48,44.48,44.48,44.48,40.44,71431.0,3177250.0,603913856.0,2415650976.0
sz300736,百华悦邦,2018-01-17,48.93,48.93,48.93,48.93,44.48,44500.0,2177385.0,664332396.0,2657324691.0
sz300736,百华悦邦,2018-01-18,53.82,53.82,53.82,53.82,48.93,96991.0,5220055.0,730724904.0,2922894234.0
sz300736,百华悦邦,2018-01-19,59.2,59.2,58.0,59.2,53.82,2393962.0,141692630.0,803770240.0,3215075040.0
sz300736,百华悦邦,2018-01-22,59.2,59.2,53.28,53.28,59.2,4889474.0,268559896.0,723393216.0,2893567536.0
sz300736,百华悦邦,2018-01-23,50.0,52.11,49.36,51.33,53.28,5052000.0,256224367.0,696917676.0,2787665571.0
sz300736,百华悦邦,2018-01-24,51.55,52.47,49.5,50.67,51.33,4396280.0,224913118.0,687956724.0,2751821829.0
sz300736,百华悦邦,2018-01-25,49.09,50.99,49.09,49.96,50.67,3422284.0,171445558.0,678316912.0,2713262652.0
sz300736,百华悦邦,2018-01-26,49.2,49.99,47.35,47.5,49.96,3357655.0,162720133.0,644917000.0,2579663250.0
sz300736,百华悦邦,2018-01-29,47.99,49.3,47.3,48.67,47.5,2982130.0,144610306.0,660802324.0,2643204429.0
sz300736,百华悦邦,2018-01-30,48.11,51.35,48.1,49.27,48.67,3644549.0,180988812.0,668948644.0,2675789649.0
sz300736,百华悦邦,2018-01-31,46.0,46.46,44.34,44.34,49.27,3265876.0,148055072.0,602013048.0,2408047758.0
sz300736,百华悦邦,2018-02-01,44.45,44.95,42.46,43.2,44.34,2254193.0,98803734.0,586535040.0,2346135840.0
sz300736,百华悦邦,2018-02-02,43.3,44.38,41.69,43.94,43.2,2112704.0,92017792.0,596582168.0,2386324278.0
sz300736,百华悦邦,2018-02-05,42.08,42.95,39.55,39.86,43.94,2559429.0,105125830.0,541187192.0,2164744782.0
sz300736,百华悦邦,2018-02-06,37.94,39.2,36.8,36.95,39.86,1914400.0,72822250.0,501677540.0,2006706465.0
sz300736,百华悦邦,2018-02-07,38.0,39.56,36.8,38.37,36.95,2107603.0,80546513.0,520957164.0,2083824819.0
sz300736,百华悦邦,2018-02-08,38.25,39.1,37.02,38.51,38.37,1642879.0,63209043.0,522857972.0,2091428037.0
sz300736,百华悦邦,2018-02-09,37.0,39.83,36.76,38.51,38.51,2031545.0,77466924.0,522857972.0,2091428037.0
sz300736,百华悦邦,2018-02-12,39.65,40.25,38.68,39.5,38.51,1876036.0,74299823.0,536299400.0,2145193650.0
sz300736,百华悦邦,2018-02-13,39.2,39.58,37.45,37.6,39.5,1678600.0,64664600.0,510502720.0,2042007120.0
sz300736,百华悦邦,2018-02-14,37.49,38.27,36.88,36.95,37.6,917692.0,34424827.0,501677540.0,2006706465.0
sz300736,百华悦邦,2018-02-22,37.49,37.85,36.9,37.75,36.95,874824.0,32786202.0,512539300.0,2050153425.0
sz300736,百华悦邦,2018-02-23,37.66,38.78,37.41,38.62,37.75,1199831.0,45961794.0,524351464.0,2097401994.0
sz300736,百华悦邦,2018-02-26,39.91,40.59,39.39,40.29,38.62,2109936.0,84637085.0,547025388.0,2188097523.0
sz300736,百华悦邦,2018-02-27,40.39,43.38,40.37,41.37,40.29,3119171.0,130609172.0,561688764.0,2246750919.0
sz300736,百华悦邦,2018-02-28,39.8,39.8,37.89,38.79,41.37,2331648.0,91006679.0,526659588.0,2106634473.0
sz300736,百华悦邦,2018-03-01,38.87,39.88,38.42,39.56,38.79,1512858.0,59584793.0,537114032.0,2148452172.0
sz300736,百华悦邦,2018-03-02,39.55,41.35,39.03,40.04,39.56,1975845.0,79864089.0,543631088.0,2174520348.0
sz300736,百华悦邦,2018-03-05,40.4,41.09,39.5,41.09,40.04,1853674.0,75041061.0,557887148.0,2231544483.0
sz300736,百华悦邦,2018-03-06,41.1,41.81,40.62,40.88,41.09,2149975.0,88536849.0,555035936.0,2220139656.0
sz300736,百华悦邦,2018-03-07,40.95,42.55,40.95,42.1,40.88,2352688.0,98374553.0,571600120.0,2286396270.0
sz300736,百华悦邦,2018-03-08,42.09,44.5,41.72,43.69,42.1,2986085.0,129604332.0,593187868.0,2372747103.0
sz300736,百华悦邦,2018-03-09,43.68,45.88,42.91,44.83,43.69,2792100.0,123292992.0,608665876.0,2434659021.0
sz300736,百华悦邦,2018-03-12,44.92,46.28,44.01,44.47,44.83,2933395.0,132227365.0,603778084.0,2415107889.0
sz300736,百华悦邦,2018-03-13,44.43,44.43,42.5,43.44,44.47,1945504.0,84421476.0,589793568.0,2359169928.0
sz300736,百华悦邦,2018-03-14,43.15,44.83,43.0,43.0,43.44,1739200.0,76340988.0,583819600.0,2335274100.0
sz300736,百华悦邦,2018-03-15,42.5,42.5,38.93,40.47,43.0,2351174.0,95587430.0,549469284.0,2197873089.0
sz300736,百华悦邦,2018-03-16,40.11,41.5,40.04,40.49,40.47,1403998.0,57477697.0,549740828.0,2198959263.0
sz300736,百华悦邦,2018-03-19,41.12,43.58,40.52,42.42,40.49,1920843.0,80874062.0,575944824.0,2303775054.0
sz300736,百华悦邦,2018-03-20,41.5,45.65,41.2,44.49,42.42,2981629.0,129807011.0,604049628.0,2416194063.0
sz300736,百华悦邦,2018-03-21,44.29,45.19,42.02,43.39,44.49,2507687.0,110054790.0,589114708.0,2356454493.0
sz300736,百华悦邦,2018-03-22,42.72,46.28,42.72,45.4,43.39,3574148.0,160230025.0,616404880.0,2465614980.0
sz300736,百华悦邦,2018-03-23,43.0,44.97,40.86,40.86,45.4,2812972.0,119712125.0,554764392.0,2219053482.0
sz300736,百华悦邦,2018-03-26,38.5,41.45,38.0,41.26,40.86,2139895.0,85328568.0,560195272.0,2240776962.0
sz300736,百华悦邦,2018-03-27,41.18,43.53,41.18,42.4,41.26,2121125.0,90195416.0,575673280.0,2302688880.0
sz300736,百华悦邦,2018-03-28,41.6,44.5,41.6,42.64,42.4,2212541.0,95747426.0,578931808.0,2315722968.0
sz300736,百华悦邦,2018-03-29,43.0,44.5,42.43,43.92,42.64,1947723.0,84549266.0,596310624.0,2385238104.0
sz300736,百华悦邦,2018-03-30,43.55,46.19,43.2,45.0,43.92,3251178.0,147171404.0,610974000.0,2443891500.0
sz300736,百华悦邦,2018-04-02,45.3,46.97,44.5,44.92,45.0,3235110.0,147242088.0,609887824.0,2439546804.0
sz300736,百华悦邦,2018-04-03,44.2,48.97,43.51,46.35,44.92,3404835.0,157163545.0,629303220.0,2517208245.0
sz300736,百华悦邦,2018-04-04,46.14,47.5,45.78,46.46,46.35,2943170.0,136787350.0,630796712.0,2523182202.0
sz300736,百华悦邦,2018-04-09,46.47,48.48,45.71,48.38,46.46,2867224.0,135919008.0,656864936.0,2627454906.0
sz300736,百华悦邦,2018-04-10,47.9,47.9,45.0,46.21,48.38,2669981.0,124205640.0,627402412.0,2509605027.0
sz300736,百华悦邦,2018-04-11,46.95,47.2,46.22,47.05,46.21,1805956.0,84590826.0,638807260.0,2555224335.0
sz300736,百华悦邦,2018-04-12,47.17,48.55,45.78,46.11,47.05,2063946.0,97496478.0,626044692.0,2504174157.0
sz300736,百华悦邦,2018-04-13,48.96,50.2,46.81,46.95,46.11,3147055.0,152058529.0,637449540.0,2549793465.0
sz300736,百华悦邦,2018-04-16,46.98,47.21,44.7,45.1,46.95,1923511.0,87588477.0,612331720.0,2449322370.0
sz300736,百华悦邦,2018-04-17,45.36,46.1,43.9,43.94,45.1,1596098.0,72000141.0,596582168.0,2386324278.0
sz300736,百华悦邦,2018-04-18,44.3,44.59,41.51,43.49,43.94,1424351.0,61115411.0,590472428.0,2361885363.0
sz300736,百华悦邦,2018-04-19,43.49,44.44,42.41,42.67,43.49,1124000.0,49165709.0,579339124.0,2317352229.0
sz300736,百华悦邦,2018-04-20,42.6,43.2,40.18,40.41,42.67,1087564.0,45331920.0,548654652.0,2194614567.0
sz300736,百华悦邦,2018-04-23,40.4,41.28,40.22,41.24,40.41,642953.0,26251706.0,559923728.0,2239690788.0
sz300736,百华悦邦,2018-04-24,41.45,43.0,41.03,42.96,41.24,1016123.0,43083445.0,583276512.0,2333101752.0
sz300736,百华悦邦,2018-04-25,44.0,46.51,43.39,43.9,42.96,2063834.0,92118437.0,596039080.0,2384151930.0
sz300736,百华悦邦,2018-04-26,43.58,43.58,42.01,42.01,43.9,1306824.0,55874424.0,570378172.0,2281508487.0
sz300736,百华悦邦,2018-04-27,42.19,43.4,42.18,42.81,42.01,835658.0,35764318.0,581239932.0,2324955447.0
sz300736,百华悦邦,2018-05-02,42.83,43.4,41.5,41.89,42.81,613824.0,25950442.0,568748908.0,2274991443.0
sz300736,百华悦邦,2018-05-03,41.9,43.8,41.38,43.61,41.89,1132458.0,48532588.0,592101692.0,2368402407.0
sz300736,百华悦邦,2018-05-04,43.24,43.6,42.06,42.91,43.61,850534.0,36582035.0,582597652.0,2330386317.0
sz300736,百华悦邦,2018-05-07,44.22,45.98,43.8,44.5,42.91,1479593.0,65985125.0,604185400.0,2416737150.0
sz300736,百华悦邦,2018-05-08,44.07,46.39,44.07,45.98,44.5,1910685.0,86735509.0,624279656.0,2497114026.0
sz300736,百华悦邦,2018-05-09,45.93,46.45,44.81,45.52,45.98,1520736.0,69214840.0,618034144.0,2472132024.0
sz300736,百华悦邦,2018-05-10,45.83,46.58,45.42,46.54,45.52,1822231.0,84021985.0,631882888.0,2527526898.0
sz300736,百华悦邦,2018-05-11,46.1,46.58,45.08,45.13,46.54,1551359.0,71121619.0,612739036.0,2450951631.0
sz300736,百华悦邦,2018-05-14,45.13,45.43,43.8,43.98,45.13,1081400.0,48297148.0,597125256.0,2388496626.0
sz300736,百华悦邦,2018-05-15,43.86,48.0,43.82,46.83,43.98,2656900.0,122691943.0,635820276.0,2543276421.0
sz300736,百华悦邦,2018-05-16,47.19,47.98,46.35,47.35,46.83,2363826.0,111070626.0,642880420.0,2571516945.0
sz300736,百华悦邦,2018-05-17,46.82,47.58,46.42,47.18,47.35,1462200.0,68679603.0,640572296.0,2562284466.0
sz300736,百华悦邦,2018-05-18,47.58,49.83,47.04,49.1,47.18,3126347.0,152104515.0,666640520.0,2666557170.0
sz300736,百华悦邦,2018-05-21,48.87,50.18,48.43,49.75,49.1,2725824.0,134506519.0,675465700.0,2701857825.0
sz300736,百华悦邦,2018-05-22,31.98,32.95,31.71,32.65,32.71,3628683.0,117065002.0,664943370.0,2659768582.5
sz300736,百华悦邦,2018-05-23,32.4,33.29,32.21,32.54,32.65,3318580.0,108749878.0,662703132.0,2650807647.0
sz300736,百华悦邦,2018-05-24,32.4,32.66,31.6,31.95,32.54,2620705.0,83926260.0,650687310.0,2602744447.5
sz300736,百华悦邦,2018-05-25,32.12,33.99,31.84,32.56,31.95,3848380.0,126057531.0,663110448.0,2652436908.0
sz300736,百华悦邦,2018-05-28,32.68,32.96,30.43,31.75,32.56,2606605.0,82911900.0,646614150.0,2586451837.5
sz300736,百华悦邦,2018-05-29,31.14,32.98,31.1,31.1,31.75,3046076.0,98306804.0,633376380.0,2533500855.0
sz300736,百华悦邦,2018-05-30,30.3,30.3,27.99,27.99,31.1,2845670.0,82048423.0,570038742.0,2280150769.5
sz300736,百华悦邦,2018-05-31,28.45,28.88,27.85,28.6,27.99,1731521.0,49267574.0,582461880.0,2329843230.0
sz300736,百华悦邦,2018-06-01,28.48,30.25,28.23,29.02,28.6,2303305.0,67137615.0,591015516.0,2364057711.0
sz300736,百华悦邦,2018-06-04,29.49,29.79,28.52,29.15,29.02,1608050.0,46998178.0,593663070.0,2374647907.5
sz300736,百华悦邦,2018-06-05,29.31,30.51,29.0,30.36,29.15,2692222.0,80911070.0,618305688.0,2473218198.0
sz300736,百华悦邦,2018-06-06,30.24,31.09,29.88,30.8,30.36,2882017.0,87777393.0,627266640.0,2509061940.0
sz300736,百华悦邦,2018-06-07,30.8,30.99,29.56,29.89,30.8,2856670.0,86197425.0,608733762.0,2434930564.5
sz300736,百华悦邦,2018-06-08,29.8,30.25,29.38,30.2,29.89,2162269.0,64597310.0,615047160.0,2460184110.0
sz300736,百华悦邦,2018-06-11,30.0,30.9,29.7,29.96,30.2,1936781.0,58573959.0,610159368.0,2440632978.0
sz300736,百华悦邦,2018-06-12,30.01,30.19,28.2,29.69,29.96,1933169.0,56720669.0,604660602.0,2418637954.5
sz300736,百华悦邦,2018-06-13,29.62,30.16,29.08,29.17,29.69,1433946.0,42528106.0,594070386.0,2376277168.5
sz300736,百华悦邦,2018-06-14,29.0,30.95,28.71,29.97,29.17,2150000.0,64647703.0,610363026.0,2441447608.5
sz300736,百华悦邦,2018-06-15,30.85,31.2,29.0,29.33,29.97,2036800.0,61263847.0,597328914.0,2389311256.5
sz300736,百华悦邦,2018-06-19,28.21,28.24,26.4,26.4,29.33,1910399.0,51225430.0,537657120.0,2150624520.0
sz300736,百华悦邦,2018-06-20,25.28,26.99,25.04,26.85,26.4,2585649.0,67339574.0,546821730.0,2187282892.5
sz300736,百华悦邦,2018-06-21,26.7,26.78,24.3,24.45,26.85,1959200.0,49994260.0,497943810.0,1991771572.5
sz300736,百华悦邦,2018-06-22,24.2,25.5,23.9,25.18,24.45,1209904.0,30120437.0,512810844.0,2051239599.0
sz300736,百华悦邦,2018-06-25,25.46,25.89,25.2,25.37,25.18,1044749.0,26712225.0,516680346.0,2066717578.5
sz300736,百华悦邦,2018-06-26,24.91,26.1,24.7,25.93,25.37,1100450.0,28216685.0,528085194.0,2112336886.5
sz300736,百华悦邦,2018-06-27,26.97,26.97,25.71,26.09,25.93,1326600.0,34956046.0,531343722.0,2125370974.5
sz300736,百华悦邦,2018-06-28,26.0,26.6,25.7,25.79,26.09,1019950.0,26680306.0,525233982.0,2100932059.5
sz300736,百华悦邦,2018-06-29,25.69,26.76,25.68,26.59,25.79,1226855.0,32414208.0,541526622.0,2166102499.5
sz300736,百华悦邦,2018-07-02,26.8,27.36,26.38,26.76,26.59,1665502.0,44623633.0,544988808.0,2179951218.0
sz300736,百华悦邦,2018-07-03,26.78,27.5,26.37,27.32,26.76,1568350.0,42368340.0,556393656.0,2232127326.0
sz300736,百华悦邦,2018-07-04,27.04,27.15,25.51,25.76,27.32,1474379.0,38715040.0,524623008.0,2104670568.0
sz300736,百华悦邦,2018-07-05,26.37,26.37,25.4,25.5,25.76,877547.0,22782704.0,519327900.0,2083427775.0
sz300736,百华悦邦,2018-07-06,25.41,26.55,25.01,25.88,25.5,1297477.0,33613828.0,527066904.0,2114474934.0
sz300736,百华悦邦,2018-07-09,25.87,26.49,25.71,26.42,25.88,1185103.0,31101746.0,538064436.0,2158594581.0
sz300736,百华悦邦,2018-07-10,26.45,27.56,26.25,27.3,26.42,2033326.0,54587672.0,555986340.0,2230493265.0
sz300736,百华悦邦,2018-07-11,26.7,26.78,25.53,26.43,27.3,1643346.0,43254652.0,538268094.0,2159411611.5
sz300736,百华悦邦,2018-07-12,26.35,28.42,26.35,27.33,26.43,2066146.0,56501350.0,556597314.0,2232944356.5
sz300736,百华悦邦,2018-07-13,27.18,28.12,27.11,27.7,27.33,1966294.0,54295353.0,564132660.0,2263174485.0
sz300736,百华悦邦,2018-07-16,27.3,27.8,27.3,27.35,27.7,1029700.0,28285607.0,557004630.0,2234578417.5
sz300736,百华悦邦,2018-07-17,27.21,27.56,26.7,27.2,27.35,873947.0,23681651.0,553949760.0,2222322960.0
sz300736,百华悦邦,2018-07-18,27.53,27.97,26.8,26.93,27.2,1172077.0,32337268.0,548450994.0,2200263136.5
sz300736,百华悦邦,2018-07-19,26.93,27.87,26.9,27.3,26.93,1226428.0,33615699.0,555986340.0,2230493265.0
sz300736,百华悦邦,2018-07-20,27.25,27.71,27.0,27.58,27.3,998950.0,27421745.0,561688764.0,2253370119.0
sz300736,百华悦邦,2018-07-23,27.57,27.57,26.7,27.21,27.58,1113550.0,30074842.0,554153418.0,2223139990.5
sz300736,百华悦邦,2018-07-24,27.24,27.58,26.9,27.58,27.21,959246.0,26263165.0,561688764.0,2253370119.0
sz300736,百华悦邦,2018-07-25,27.56,27.88,26.92,27.11,27.58,1161695.0,31831659.0,552116838.0,2214969685.5
sz300736,百华悦邦,2018-07-26,27.0,27.26,25.78,25.97,27.11,1270890.0,33382401.0,528899826.0,2121828208.5
sz300736,百华悦邦,2018-07-27,26.09,26.29,25.72,25.85,25.97,585050.0,15214394.0,526455930.0,2112023842.5
sz300736,百华悦邦,2018-07-30,25.75,26.05,24.88,25.13,25.85,662450.0,16846762.0,511792554.0,2053197646.5
sz300736,百华悦邦,2018-07-31,25.13,25.3,24.8,25.12,25.13,432006.0,10850735.0,511588896.0,2052380616.0
sz300736,百华悦邦,2018-08-01,25.37,25.46,24.5,24.67,25.12,719650.0,18016589.0,502424286.0,2015614243.5
sz300736,百华悦邦,2018-08-02,24.62,24.66,22.53,23.41,24.67,1096050.0,25621483.0,476763378.0,1912668400.5
sz300736,百华悦邦,2018-08-03,23.62,23.79,22.63,22.76,23.41,652850.0,15133683.0,463525608.0,1859561418.0
sz300736,百华悦邦,2018-08-06,22.75,22.87,21.72,22.05,22.76,901773.0,20103530.0,449065890.0,1801552252.5
sz300736,百华悦邦,2018-08-07,22.12,22.8,22.0,22.69,22.05,876926.0,19702424.0,462100002.0,1853842204.5
sz300736,百华悦邦,2018-08-08,22.61,22.74,21.82,22.04,22.69,905375.0,20132260.0,448862232.0,1800735222.0
sz300736,百华悦邦,2018-08-09,22.0,23.1,21.81,22.68,22.04,980603.0,22287881.0,461896344.0,1853025174.0
sz300736,百华悦邦,2018-08-10,22.52,23.14,22.52,23.02,22.68,920250.0,21060722.0,468820716.0,1880804211.0
sz300736,百华悦邦,2018-08-13,22.72,23.42,22.61,23.28,23.02,907117.0,20842142.0,474115824.0,1902047004.0
sz300736,百华悦邦,2018-08-14,23.23,23.5,23.14,23.22,23.28,633278.0,14750232.0,472893876.0,1897144821.0
sz300736,百华悦邦,2018-08-15,23.26,23.4,22.6,22.63,23.22,650914.0,14914375.0,460878054.0,1848940021.5
sz300736,百华悦邦,2018-08-16,22.38,23.2,22.05,22.78,22.63,679714.0,15454458.0,463932924.0,1861195479.0
sz300736,百华悦邦,2018-08-17,23.19,23.19,21.81,22.08,22.78,749700.0,16913625.0,449676864.0,1804003344.0
sz300736,百华悦邦,2018-08-20,22.07,22.87,21.9,22.7,22.08,661901.0,14797984.0,462303660.0,1854659235.0
sz300736,百华悦邦,2018-08-21,22.6,23.0,22.1,22.8,22.7,831200.0,18748367.0,464340240.0,1862829540.0
sz300736,百华悦邦,2018-08-22,22.8,22.8,22.12,22.26,22.8,548026.0,12252814.0,453342708.0,1818709893.0
sz300736,百华悦邦,2018-08-23,22.3,22.74,22.05,22.53,22.26,611376.0,13765535.0,458841474.0,1840769716.5
sz300736,百华悦邦,2018-08-24,22.56,22.57,22.1,22.28,22.53,542576.0,12127517.0,453750024.0,1820343954.0
sz300736,百华悦邦,2018-08-27,22.11,22.84,22.11,22.73,22.28,735726.0,16617746.0,462914634.0,1857110326.5
sz300736,百华悦邦,2018-08-28,22.83,22.99,22.57,22.93,22.73,681600.0,15515403.0,466987794.0,1873450936.5
sz300736,百华悦邦,2018-08-29,22.85,22.88,22.44,22.62,22.93,452326.0,10216718.0,460674396.0,1848122991.0
sz300736,百华悦邦,2018-08-30,22.69,23.66,22.48,23.0,22.62,2095981.0,48517293.0,468413400.0,1879170150.0
sz300736,百华悦邦,2018-08-31,22.7,25.3,22.62,25.3,23.0,4531480.0,110894906.0,515254740.0,2067087165.0
sz300736,百华悦邦,2018-09-03,25.7,26.49,23.88,25.2,25.3,5657743.0,142065150.0,513218160.0,2058916860.0
sz300736,百华悦邦,2018-09-04,24.03,24.95,24.03,24.45,25.2,3661518.0,89456735.0,497943810.0,1997639572.5
sz300736,百华悦邦,2018-09-05,24.14,24.6,23.8,24.07,24.45,2448500.0,59143535.0,490204806.0,1966592413.5
sz300736,百华悦邦,2018-09-06,23.78,24.45,23.75,24.28,24.07,2326789.0,56091914.0,494481624.0,1983750054.0
sz300736,百华悦邦,2018-09-07,24.13,24.48,23.3,23.83,24.28,2253640.0,54070073.0,485317014.0,1946983681.5
sz300736,百华悦邦,2018-09-10,23.6,23.6,21.5,21.6,23.83,2356264.0,52366887.0,439901280.0,1764785880.0
sz300736,百华悦邦,2018-09-11,21.49,21.99,21.1,21.6,21.6,1272250.0,27403612.0,439901280.0,1764785880.0
sz300736,百华悦邦,2018-09-12,21.84,21.84,21.4,21.67,21.6,904850.0,19583124.0,441326886.0,1770505093.5
sz300736,百邦科技,2018-09-13,22.4,22.49,21.55,21.89,21.67,1313500.0,28885521.0,445807362.0,1788479764.5
sz300736,百邦科技,2018-09-14,21.74,21.99,21.1,21.1,21.89,1287350.0,27613653.0,429718380.0,1723934355.0
sz300736,百邦科技,2018-09-17,21.09,21.25,20.2,20.2,21.1,961450.0,19809847.0,411389160.0,1650401610.0
sz300736,百邦科技,2018-09-18,20.07,20.99,20.01,20.74,20.2,1085818.0,22284385.0,422386692.0,1694521257.0
sz300736,百邦科技,2018-09-19,20.64,21.23,20.55,20.76,20.74,1021618.0,21247773.0,422794008.0,1696155318.0
sz300736,百邦科技,2018-09-20,20.82,20.98,20.5,20.61,20.76,786649.0,16292337.0,419739138.0,1683899860.5
sz300736,百邦科技,2018-09-21,20.69,20.9,20.6,20.85,20.61,856600.0,17778607.0,424626930.0,1703508592.5
sz300736,百邦科技,2018-09-25,20.78,21.18,20.51,20.94,20.85,695099.0,14487670.0,426459852.0,1710861867.0
sz300736,百邦科技,2018-09-26,20.98,21.28,20.64,21.0,20.94,1063221.0,22269060.0,427681800.0,1715764050.0
sz300736,百邦科技,2018-09-27,21.01,21.22,20.18,20.29,21.0,990850.0,20414307.0,413222082.0,1657754884.5
sz300736,百邦科技,2018-09-28,20.15,20.7,20.15,20.66,20.29,656721.0,13496180.0,420757428.0,1687985013.0
sz300736,百邦科技,2018-10-08,20.36,20.65,19.61,19.65,20.66,822600.0,16419891.0,400187970.0,1605464932.5
sz300736,百邦科技,2018-10-09,19.78,20.33,19.67,20.32,19.65,879300.0,17661245.0,413833056.0,1660205976.0
sz300736,百邦科技,2018-10-10,20.32,21.89,20.11,21.15,20.32,1435688.0,30415253.0,430736670.0,1728019507.5
sz300736,百邦科技,2018-10-11,20.51,20.53,19.04,19.1,21.15,1685125.0,33012230.0,388986780.0,1560528255.0
sz300736,百邦科技,2018-10-12,19.1,19.8,18.65,19.52,19.1,1361148.0,26304838.0,397540416.0,1594843536.0
sz300736,百邦科技,2018-10-15,19.65,19.99,19.28,19.36,19.52,1071100.0,20993187.0,394281888.0,1581771048.0
sz300736,百邦科技,2018-10-16,19.36,19.72,18.95,19.2,19.36,1019448.0,19696309.0,391023360.0,1568698560.0
sz300736,百邦科技,2018-10-17,19.9,21.12,19.76,21.12,19.2,1667399.0,34718969.0,430125696.0,1725568416.0
sz300736,百邦科技,2018-10-18,23.23,23.23,21.97,23.23,21.12,9565650.0,220185485.0,473097534.0,1897961851.5
sz300736,百邦科技,2018-10-19,22.97,25.55,22.6,25.55,23.23,5860957.0,143716132.0,520346190.0,2087512927.5
sz300736,百邦科技,2018-10-22,28.0,28.11,27.0,28.11,25.55,6254449.0,175015327.0,572482638.0,2296672735.5
sz300736,百邦科技,2018-10-23,30.0,30.92,29.59,30.92,28.11,6938867.0,211929807.0,629710536.0,2526258306.0
sz300736,百邦科技,2018-10-24,29.0,29.68,27.83,28.58,30.92,12672784.0,359920069.0,582054564.0,2335073169.0
sz300736,百邦科技,2018-10-25,27.05,27.88,26.28,26.84,28.58,8929980.0,242121056.0,546618072.0,2192909862.0
sz300736,百邦科技,2018-10-26,27.01,27.49,25.51,26.15,26.84,8166915.0,217170650.0,532565670.0,2136534757.5
sz300736,百邦科技,2018-10-29,25.99,26.8,24.08,24.55,26.15,7931000.0,200416233.0,499980390.0,2005809877.5
sz300736,百邦科技,2018-10-30,24.55,25.56,24.1,25.01,24.55,7500716.0,186190733.0,509348658.0,2043393280.5
sz300736,百邦科技,2018-10-31,24.57,25.45,24.53,25.01,25.01,6650800.0,166135342.0,509348658.0,2043393280.5
sz300736,百邦科技,2018-11-01,24.99,25.81,24.63,25.67,25.01,7369885.0,185837724.0,522790086.0,2097317293.5
sz300736,百邦科技,2018-11-02,26.11,26.25,25.11,25.55,25.67,6823611.0,174199054.0,520346190.0,2087512927.5
sz300736,百邦科技,2018-11-05,25.27,26.26,24.92,26.2,25.55,8019549.0,206642945.0,533583960.0,2140619910.0
sz300736,百邦科技,2018-11-06,25.5,25.5,23.58,23.58,26.2,6829365.0,164791986.0,480225564.0,1926557919.0
sz300736,百邦科技,2018-11-07,23.57,24.2,23.2,24.08,23.58,4562166.0,108506034.0,490408464.0,1967409444.0
sz300736,百邦科技,2018-11-08,24.1,24.27,23.72,24.11,24.08,3480349.0,83328959.0,491019438.0,1969860535.5
sz300736,百邦科技,2018-11-09,23.9,24.32,23.58,24.0,24.11,3149315.0,75360268.0,488779200.0,1960873200.0
sz300736,百邦科技,2018-11-12,24.11,25.0,23.73,24.68,24.0,4581400.0,111695220.0,502627944.0,2016431274.0
sz300736,百邦科技,2018-11-13,24.3,25.24,23.88,24.72,24.68,5138815.0,125650305.0,503442576.0,2019699396.0
sz300736,百邦科技,2018-11-14,24.6,24.79,24.01,24.25,24.72,3741800.0,91183662.0,493870650.0,1981298962.5
sz300736,百邦科技,2018-11-15,24.05,24.87,24.02,24.77,24.25,4500750.0,110425149.0,504460866.0,2023784548.5
sz300736,百邦科技,2018-11-16,24.72,24.9,24.3,24.61,24.77,4219650.0,103702022.0,501202338.0,2010712060.5
sz300736,百邦科技,2018-11-19,26.3,26.33,24.27,24.36,24.61,4949250.0,124086977.0,496110888.0,1990286298.0
sz300736,百邦科技,2018-11-20,23.8,23.85,23.3,23.63,24.36,3603265.0,85037476.0,481243854.0,1930643071.5
sz300736,百邦科技,2018-11-21,23.35,23.78,23.35,23.7,23.63,2064700.0,48703267.0,482669460.0,1936362285.0
sz300736,百邦科技,2018-11-22,23.7,23.9,22.96,22.96,23.7,2229950.0,52046564.0,467598768.0,1875902028.0
sz300736,百邦科技,2018-11-23,23.1,23.1,20.79,20.82,22.96,3449500.0,75312753.0,424015956.0,1701057501.0
sz300736,百邦科技,2018-11-26,20.8,21.2,20.48,20.54,20.82,2263644.0,46880745.0,418313532.0,1678180647.0
sz300736,百邦科技,2018-11-27,20.75,20.98,20.61,20.85,20.54,2049019.0,42571825.0,424626930.0,1703508592.5
sz300736,百邦科技,2018-11-28,21.01,21.16,20.45,21.16,20.85,1899554.0,39730192.0,430940328.0,1728836538.0
sz300736,百邦科技,2018-11-29,21.23,21.56,20.43,20.49,21.16,2277100.0,47968574.0,417295242.0,1674095494.5
sz300736,百邦科技,2018-11-30,20.35,20.77,20.08,20.75,20.49,1790700.0,36704418.0,422590350.0,1695338287.5
sz300736,百邦科技,2018-12-03,21.21,21.46,20.91,21.3,20.75,2251790.0,47908404.0,433791540.0,1740274965.0
sz300736,百邦科技,2018-12-04,21.3,21.86,21.0,21.57,21.3,2273800.0,48675444.0,439290306.0,1762334788.5
sz300736,百邦科技,2018-12-05,20.98,21.26,20.81,21.05,21.57,1923401.0,40389860.0,428700090.0,1719849202.5
sz300736,百邦科技,2018-12-06,20.9,21.08,20.6,20.73,21.05,1272690.0,26494456.0,422183034.0,1693704226.5
sz300736,百邦科技,2018-12-07,20.75,21.28,20.75,20.9,20.73,1305954.0,27426810.0,425645220.0,1707593745.0
sz300736,百邦科技,2018-12-10,20.88,20.88,20.45,20.55,20.9,900250.0,18570672.0,418517190.0,1678997677.5
sz300736,百邦科技,2018-12-11,20.59,20.77,20.51,20.7,20.55,1046100.0,21587868.0,421572060.0,1691253135.0
sz300736,百邦科技,2018-12-12,20.97,21.21,20.75,21.1,20.7,1887500.0,39699614.0,429718380.0,1723934355.0
sz300736,百邦科技,2018-12-13,21.21,22.28,20.75,21.7,21.1,3542365.0,76069969.0,441937860.0,1772956185.0
sz300736,百邦科技,2018-12-14,21.48,21.48,20.6,20.6,21.7,2163650.0,45632711.0,419535480.0,1683082830.0
sz300736,百邦科技,2018-12-17,20.44,20.86,20.22,20.82,20.6,1316650.0,27159373.0,424015956.0,1701057501.0
sz300736,百邦科技,2018-12-18,20.72,20.79,20.45,20.71,20.82,1013100.0,20892229.0,421775718.0,1692070165.5
sz300736,百邦科技,2018-12-19,20.77,20.9,20.37,20.42,20.71,1320165.0,27166875.0,415869636.0,1668376281.0
sz300736,百邦科技,2018-12-20,20.34,20.86,20.34,20.77,20.42,1435954.0,29656091.0,422997666.0,1696972348.5
sz300736,百邦科技,2018-12-21,20.74,22.85,20.7,22.85,20.77,2382550.0,53128224.0,465358530.0,1866914692.5
sz300736,百邦科技,2018-12-24,25.14,25.14,25.14,25.14,22.85,1228750.0,30890775.0,511996212.0,2054014677.0
sz300736,百邦科技,2018-12-25,26.0,27.65,25.94,27.65,25.14,11881342.0,322215205.0,563114370.0,2259089332.5
sz300736,百邦科技,2018-12-26,28.48,30.42,25.6,25.82,27.65,14057060.0,392773717.0,525844956.0,2109572751.0
sz300736,百邦科技,2018-12-27,24.97,25.92,23.52,23.64,25.82,10484509.0,258328069.0,481447512.0,1931460102.0
sz300736,百邦科技,2018-12-28,23.4,23.69,22.16,22.32,23.64,7775503.0,177958446.0,454564656.0,1823612076.0
sz300736,百邦科技,2019-01-02,22.35,22.58,22.13,22.39,22.32,4778700.0,106757682.0,455990262.0,1829331289.5
sz300736,百邦科技,2019-01-03,22.06,22.1,20.73,20.78,22.39,5815441.0,123269393.0,423201324.0,1697789379.0
sz300736,百邦科技,2019-01-04,20.84,21.27,20.3,21.1,20.78,4186291.0,87545031.0,429718380.0,1723934355.0
sz300736,百邦科技,2019-01-07,21.1,21.95,21.05,21.54,21.1,5696099.0,122876526.0,438679332.0,1759883697.0
sz300736,百邦科技,2019-01-08,21.36,21.38,20.86,21.18,21.54,4081499.0,85962373.0,431347644.0,1730470599.0
sz300736,百邦科技,2019-01-09,20.96,21.76,20.88,21.61,21.18,5006475.0,107220943.0,1141704922.5,1765602910.5
sz300736,百邦科技,2019-01-10,21.7,21.98,21.03,21.47,21.61,3935700.0,84419771.0,1134308407.5,1754164483.5
sz300736,百邦科技,2019-01-11,21.51,21.54,21.01,21.52,21.47,3612877.0,76995370.0,1136950020.0,1758249636.0
sz300736,百邦科技,2019-01-14,21.48,21.5,20.82,20.85,21.52,3058699.0,64391527.0,1101552412.5,1703508592.5
sz300736,百邦科技,2019-01-15,20.6,21.34,20.58,21.19,20.85,2517000.0,53094904.0,1119515377.5,1731287629.5
sz300736,百邦科技,2019-01-16,21.11,21.47,20.85,21.0,21.19,2107494.0,44244793.0,1109477250.0,1715764050.0
sz300736,百邦科技,2019-01-17,21.14,21.18,20.66,20.71,21.0,1633725.0,33995931.0,1094155897.5,1692070165.5
sz300736,百邦科技,2019-01-18,20.68,20.88,20.2,20.43,20.71,1935950.0,39634889.0,1079362867.5,1669193311.5
sz300736,百邦科技,2019-01-21,20.44,20.73,20.24,20.7,20.43,1655650.0,34040350.0,1093627575.0,1691253135.0
sz300736,百邦科技,2019-01-22,20.6,21.18,20.4,20.78,20.7,1963300.0,40796536.0,1097854155.0,1697789379.0
sz300736,百邦科技,2019-01-23,20.65,20.98,20.61,20.94,20.78,2045425.0,42675708.0,1106307315.0,1710861867.0
sz300736,百邦科技,2019-01-24,20.95,21.19,20.7,21.18,20.94,2439925.0,51086101.0,1118987055.0,1730470599.0
sz300736,百邦科技,2019-01-25,21.31,23.18,21.26,21.53,21.18,6184165.0,136018341.0,1137478342.5,1759066666.5
sz300736,百邦科技,2019-01-28,21.01,21.1,19.4,19.63,21.53,4321850.0,86648028.0,1037097067.5,1603830871.5
sz300736,百邦科技,2019-01-29,19.4,19.79,19.01,19.56,19.63,2165790.0,42008472.0,1033398810.0,1598111658.0
sz300736,百邦科技,2019-01-30,19.32,19.32,18.6,18.62,19.56,2314650.0,43670407.0,983736495.0,1521310791.0
sz300736,百邦科技,2019-01-31,18.62,18.79,16.82,16.91,18.62,2865793.0,50543794.0,893393347.5,1381598575.5
sz300736,百邦科技,2019-02-01,16.98,17.37,16.98,17.36,16.91,1942650.0,33364100.0,917167860.0,1418364948.0
sz300736,百邦科技,2019-02-11,17.18,17.93,17.12,17.86,17.36,2124475.0,37412861.0,943583985.0,1459216473.0
sz300736,百邦科技,2019-02-12,18.0,18.42,17.81,18.23,17.86,2043225.0,37106953.0,963131917.5,1489446601.5
sz300736,百邦科技,2019-02-13,18.04,18.71,18.04,18.56,18.23,2477339.0,45684546.0,980566560.0,1516408608.0
sz300736,百邦科技,2019-02-14,18.65,18.76,18.35,18.71,18.56,2289550.0,42456192.0,988491397.5,1528664065.5
sz300736,百邦科技,2019-02-15,18.64,18.87,18.46,18.69,18.71,2188700.0,40831882.0,987434752.5,1527030004.5
sz300736,百邦科技,2019-02-18,18.79,19.37,18.72,19.36,18.69,2651249.0,50774786.0,1022832360.0,1581771048.0
sz300736,百邦科技,2019-02-19,19.36,19.68,19.09,19.36,19.36,2762303.0,53458773.0,1022832360.0,1581771048.0
sz300736,百邦科技,2019-02-20,19.4,19.54,19.04,19.37,19.36,2207028.0,42472418.0,1023360682.5,1582588078.5
sz300736,百邦科技,2019-02-21,19.37,19.99,19.37,19.51,19.37,4180294.0,82392495.0,1030757197.5,1594026505.5
sz300736,百邦科技,2019-02-22,19.26,19.9,19.26,19.82,19.51,3343971.0,65551276.0,1047135195.0,1619354451.0
sz300736,百邦科技,2019-02-25,20.17,20.92,20.01,20.63,19.82,4497035.0,91867509.0,1089929317.5,1685533921.5
sz300736,百邦科技,2019-02-26,20.7,21.33,20.24,20.79,20.63,4697836.0,97181333.0,1098382477.5,1698606409.5
sz300736,百邦科技,2019-02-27,20.74,20.87,20.03,20.4,20.79,3540849.0,72576548.0,1077777900.0,1666742220.0
sz300736,百邦科技,2019-02-28,20.22,20.77,20.2,20.63,20.4,2670008.0,54847109.0,1089929317.5,1685533921.5
sz300736,百邦科技,2019-03-01,20.62,21.02,20.28,20.64,20.63,2146522.0,44262284.0,1090457640.0,1686350952.0
sz300736,百邦科技,2019-03-04,20.68,21.5,20.67,21.09,20.64,3979392.0,83955605.0,1114232152.5,1723117324.5
sz300736,百邦科技,2019-03-05,20.9,21.98,20.84,21.98,21.09,3952765.0,84554795.0,1161252855.0,1795833039.0
sz300736,百邦科技,2019-03-06,22.31,22.88,21.33,22.14,21.98,4885055.0,107444276.0,1169706015.0,1808905527.0
sz300736,百邦科技,2019-03-07,22.15,22.88,21.78,22.82,22.14,4218866.0,94770586.0,1205631945.0,1864463601.0
sz300736,百邦科技,2019-03-08,22.6,23.41,21.6,21.7,22.82,4746439.0,106689061.0,1146459825.0,1772956185.0
sz300736,百邦科技,2019-03-11,21.9,22.78,21.72,22.78,21.7,3358997.0,75015588.0,1203518655.0,1861195479.0
sz300736,百邦科技,2019-03-12,22.89,23.3,22.5,23.28,22.78,4186680.0,95789853.0,1229934780.0,1902047004.0
sz300736,百邦科技,2019-03-13,23.46,23.46,22.21,22.47,23.28,3754382.0,85644398.0,1187140657.5,1835867533.5
sz300736,百邦科技,2019-03-14,22.0,22.37,21.17,21.64,22.47,3172332.0,68910234.0,1143289890.0,1768054002.0
sz300736,百邦科技,2019-03-15,21.79,22.2,21.6,21.78,21.64,1793310.0,39316797.0,1150686405.0,1779492429.0
sz300736,百邦科技,2019-03-18,21.81,22.54,21.81,22.3,21.78,1901000.0,41974463.0,1178159175.0,1821978015.0
sz300736,百邦科技,2019-03-19,22.88,22.88,21.93,22.4,22.3,1764135.0,39388753.0,1183442400.0,1830148320.0
sz300736,百邦科技,2019-03-20,22.45,22.48,21.55,22.28,22.4,1656977.0,36536525.0,1177102530.0,1820343954.0
sz300736,百邦科技,2019-03-21,22.6,23.12,22.36,22.4,22.28,3177900.0,72246511.0,1183442400.0,1830148320.0
sz300736,百邦科技,2019-03-22,22.23,22.62,21.82,22.29,22.4,2305235.0,51141956.0,1177630852.5,1821160984.5
sz300736,百邦科技,2019-03-25,21.88,22.6,21.52,22.22,22.29,2148160.0,47352115.0,1173932595.0,1815441771.0
sz300736,百邦科技,2019-03-26,22.22,22.52,20.91,21.05,22.22,2460826.0,53024269.0,1112118862.5,1719849202.5
sz300736,百邦科技,2019-03-27,21.16,21.24,20.0,21.08,21.05,2076619.0,43054509.0,1113703830.0,1722300294.0
sz300736,百邦科技,2019-03-28,20.8,21.47,20.48,20.48,21.08,1482525.0,31083966.0,1082004480.0,1673278464.0
sz300736,百邦科技,2019-03-29,20.53,21.16,20.11,20.84,20.48,2110783.0,43716602.0,1101024090.0,1702691562.0
sz300736,百邦科技,2019-04-01,21.2,21.86,21.1,21.85,20.84,2267259.0,49025183.0,1154384662.5,1785211642.5
sz300736,百邦科技,2019-04-02,22.16,22.75,21.92,21.93,21.85,2577555.0,57167447.0,1158611242.5,1791747886.5
sz300736,百邦科技,2019-04-03,21.8,22.7,21.67,22.18,21.93,2203375.0,48780723.0,1171819305.0,1812173649.0
sz300736,百邦科技,2019-04-04,22.2,22.43,21.97,22.26,22.18,2279700.0,50486239.0,1176045885.0,1818709893.0
sz300736,百邦科技,2019-04-08,22.44,22.69,22.1,22.25,22.26,2923845.0,65355870.0,1175517562.5,1817892862.5
sz300736,百邦科技,2019-04-09,22.05,22.26,21.61,22.04,22.25,2129609.0,46565178.0,1164422790.0,1800735222.0
sz300736,百邦科技,2019-04-10,21.7,22.02,21.17,21.95,22.04,2535976.0,54936381.0,1159667887.5,1793381947.5
sz300736,百邦科技,2019-04-11,22.15,22.15,21.12,21.25,21.95,1655586.0,35830746.0,1122685312.5,1736189812.5
sz300736,百邦科技,2019-04-12,21.17,21.58,21.17,21.35,21.25,1283705.0,27441243.0,1127968537.5,1744360117.5
sz300736,百邦科技,2019-04-15,21.6,21.91,20.9,20.97,21.35,1533140.0,32897057.0,1107892282.5,1713312958.5
sz300736,百邦科技,2019-04-16,20.97,21.42,20.16,21.38,20.97,2152356.0,44747774.0,1129553505.0,1746811209.0
sz300736,百邦科技,2019-04-17,21.55,21.55,21.24,21.5,21.38,1417065.0,30301328.0,1135893375.0,1756615575.0
sz300736,百邦科技,2019-04-18,21.51,21.77,21.02,21.04,21.5,1339847.0,28532707.0,1111590540.0,1719032172.0
sz300736,百邦科技,2019-04-19,21.04,21.35,20.81,21.3,21.04,859738.0,18109125.0,1125326925.0,1740274965.0
sz300736,百邦科技,2019-04-22,21.4,21.49,21.0,21.1,21.3,953625.0,20239412.0,1114760475.0,1723934355.0
sz300736,百邦科技,2019-04-23,21.49,21.69,20.6,20.7,21.1,2560217.0,54096483.0,1093627575.0,1691253135.0
sz300736,百邦科技,2019-04-24,20.7,20.85,20.34,20.68,20.7,1145095.0,23587269.0,1092570930.0,1689619074.0
sz300736,百邦科技,2019-04-25,20.76,20.95,20.01,20.02,20.68,1438978.0,29537515.0,1057701645.0,1635695061.0
sz300736,百邦科技,2019-04-26,20.06,20.19,19.05,19.3,20.02,1499586.0,29462892.0,1019662425.0,1576868865.0
sz300736,百邦科技,2019-04-29,19.27,19.27,17.8,17.87,19.3,1790683.0,32953903.0,944112307.5,1460033503.5
sz300736,百邦科技,2019-04-30,18.08,18.36,18.0,18.15,17.87,1005383.0,18254565.0,958905337.5,1482910357.5
sz300736,百邦科技,2019-05-06,17.8,17.8,17.11,17.31,18.15,1674983.0,29183130.0,914526247.5,1414279795.5
sz300736,百邦科技,2019-05-07,17.39,18.33,17.39,17.93,17.31,1044664.0,18741697.0,947282242.5,1464935686.5
sz300736,百邦科技,2019-05-08,18.0,18.64,17.53,18.21,17.93,1171613.0,21392952.0,962075272.5,1487812540.5
sz300736,百邦科技,2019-05-09,17.92,18.36,17.92,18.02,18.21,829522.0,15019278.0,952037145.0,1472288961.0
sz300736,百邦科技,2019-05-10,18.1,18.8,18.02,18.52,18.02,1376936.0,25399624.0,978453270.0,1513140486.0
sz300736,百邦科技,2019-05-13,18.26,18.47,18.2,18.32,18.52,806350.0,14755570.0,967886820.0,1496799876.0
sz300736,百邦科技,2019-05-14,18.2,18.5,18.0,18.34,18.32,962150.0,17614625.0,968943465.0,1498433937.0
sz300736,百邦科技,2019-05-15,18.18,18.68,18.18,18.45,18.34,1420850.0,26220269.0,974755012.5,1507421272.5
sz300736,百邦科技,2019-05-16,18.44,18.67,18.35,18.58,18.45,1251750.0,23185869.0,981623205.0,1518042669.0
sz300736,百邦科技,2019-05-17,18.62,18.68,17.75,17.8,18.58,1404175.0,25494521.0,940414050.0,1454314290.0
sz300736,百邦科技,2019-05-20,17.88,18.48,17.6,18.09,17.8,820675.0,14776258.0,955735402.5,1478008174.5
sz300736,百邦科技,2019-05-21,18.01,19.88,17.91,18.8,18.09,1874275.0,35207197.0,993246300.0,1536017340.0
sz300736,百邦科技,2019-05-22,18.83,18.83,18.45,18.72,18.8,1495460.0,27841507.0,989019720.0,1529481096.0
sz300736,百邦科技,2019-05-23,18.51,18.55,17.96,18.0,18.72,1152627.0,20950822.0,950980500.0,1470654900.0
sz300736,百邦科技,2019-05-24,17.95,18.19,17.9,17.96,18.0,684725.0,12319841.0,948867210.0,1467386778.0
sz300736,百邦科技,2019-05-27,17.92,18.74,17.8,18.74,17.96,1274377.0,23314870.0,990076365.0,1531115157.0
sz300736,百邦科技,2019-05-28,18.65,18.71,18.28,18.35,18.74,1128750.0,20881231.0,969471787.5,1499250967.5
sz300736,百邦科技,2019-05-29,18.4,18.65,18.27,18.5,18.35,1009991.0,18608916.0,977396625.0,1511506425.0
sz300736,百邦科技,2019-05-30,18.42,18.42,17.88,18.1,18.5,1218700.0,22034705.0,956263725.0,1478825205.0
sz300736,百邦科技,2019-05-31,18.01,18.5,17.97,18.24,18.1,1106875.0,20225593.0,963660240.0,1490263632.0
sz300736,百邦科技,2019-06-03,18.55,19.68,18.55,18.7,18.24,3135202.0,59233842.0,987963075.0,1527847035.0
sz300736,百邦科技,2019-06-04,18.4,18.87,18.1,18.14,18.7,1434450.0,26423743.0,958377015.0,1482093327.0
sz300736,百邦科技,2019-06-05,18.21,19.8,18.21,18.73,18.14,2647637.0,50119928.0,989548042.5,1530298126.5
sz300736,百邦科技,2019-06-06,18.73,20.6,18.64,20.6,18.73,4245950.0,84688657.0,1088344350.0,1683082830.0
sz300736,百邦科技,2019-06-10,21.1,21.1,19.79,20.56,20.6,6256369.0,126832733.0,1086231060.0,1679814708.0
sz300736,百邦科技,2019-06-11,20.15,20.7,19.83,20.62,20.56,4771156.0,96722936.0,1089400995.0,1684716891.0
sz300736,百邦科技,2019-06-12,20.34,20.96,20.0,20.34,20.62,4216911.0,86132614.0,1074607965.0,1661840037.0
sz300736,百邦科技,2019-06-13,20.3,21.8,20.1,20.89,20.34,4279700.0,89598183.0,1103665702.5,1706776714.5
sz300736,百邦科技,2019-06-14,20.89,20.89,19.6,19.68,20.89,2818958.0,56872562.0,1039738680.0,1607916024.0
sz300736,百邦科技,2019-06-17,19.88,20.16,19.68,19.94,19.68,1139100.0,22710076.0,1053475065.0,1629158817.0
sz300736,百邦科技,2019-06-18,19.9,19.9,19.2,19.59,19.94,1108829.0,21627116.0,1034983777.5,1600562749.5
sz300736,百邦科技,2019-06-19,20.13,20.19,19.78,20.1,19.59,2220045.0,44418462.0,1061928225.0,1642231305.0
sz300736,百邦科技,2019-06-20,20.02,20.4,19.5,20.1,20.1,1656808.0,33031551.0,1061928225.0,1642231305.0
sz300736,百邦科技,2019-06-21,21.47,22.0,20.4,20.92,20.1,5834432.0,124102421.0,1099960002.0,1709227806.0
sz300736,百邦科技,2019-06-24,21.16,21.79,20.93,21.14,20.92,3202973.0,68149973.0,1111527459.0,1727202477.0
sz300736,百邦科技,2019-06-25,21.19,21.5,20.2,20.78,21.14,2174803.0,45295919.0,1092598893.0,1697789379.0
sz300736,百邦科技,2019-06-26,21.06,21.9,20.8,21.07,20.78,2557985.0,54151983.0,1107846904.5,1721483263.5
sz300736,百邦科技,2019-06-27,20.52,21.07,20.26,20.65,21.07,1815952.0,37602515.0,1085763577.5,1687167982.5
sz300736,百邦科技,2019-06-28,20.53,21.4,20.53,21.18,20.65,3069598.0,64519341.0,1113630633.0,1730470599.0
sz300736,百邦科技,2019-07-01,21.55,22.68,21.36,22.31,21.18,6021825.0,132773951.0,1173045298.5,1822795045.5
sz300736,百邦科技,2019-07-02,21.92,22.93,21.65,22.5,22.31,5230475.0,116837933.0,1183035375.0,1838318625.0
sz300736,百邦科技,2019-07-03,13.0,13.67,12.84,13.56,13.88,5169983.0,69013796.0,1140253891.2,1772121686.4
sz300736,百邦科技,2019-07-04,13.44,13.53,12.8,13.03,13.56,4715443.0,61824667.0,1095686445.6,1702857343.2
sz300736,百邦科技,2019-07-05,12.97,13.5,12.69,13.23,13.03,4508300.0,59411704.0,1112504349.6,1728994831.2
sz300736,百邦科技,2019-07-08,13.0,13.48,12.21,12.45,13.23,5149520.0,66406714.0,1046914524.0,1627058628.0
sz300736,百邦科技,2019-07-09,12.21,12.63,12.16,12.27,12.45,3450679.0,42532717.0,1031778410.4,1603534888.8
sz300736,百邦科技,2019-07-10,12.22,12.98,12.22,12.67,12.27,3526479.0,44248955.0,1065414218.4,1655809864.8
sz300736,百邦科技,2019-07-11,12.65,12.84,12.36,12.43,12.67,2447163.0,30786287.0,1045232733.6,1624444879.2
sz300736,百邦科技,2019-07-12,12.52,12.52,12.15,12.21,12.43,2137466.0,26359449.0,1026733039.2,1595693642.4
sz300736,百邦科技,2019-07-15,12.0,12.56,11.71,12.33,12.21,2757840.0,33487757.0,1036823781.6,1611376135.2
sz300736,百邦科技,2019-07-16,12.35,12.56,11.98,12.05,12.33,2756320.0,33545633.0,1013278716.0,1574783652.0
sz300736,百邦科技,2019-07-17,12.05,12.15,11.86,11.86,12.05,1802335.0,21563615.0,997301707.2,1549953038.4
sz300736,百邦科技,2019-07-18,11.79,11.79,11.52,11.66,11.86,1793195.0,20842283.0,980483803.2,1523815550.4
sz300736,百邦科技,2019-07-19,11.66,11.94,11.52,11.71,11.66,2673720.0,31324881.0,984688279.2,1530349922.4
sz300736,百邦科技,2019-07-22,11.72,11.73,10.98,11.01,11.71,2971100.0,33513396.0,925825615.2,1438868714.4
sz300736,百邦科技,2019-07-23,11.01,11.47,11.01,11.45,11.01,2271814.0,25744996.0,962825004.0,1496371188.0
sz300736,百邦科技,2019-07-24,11.45,11.77,11.12,11.55,11.45,2108560.0,24518975.0,971233956.0,1509439932.0
sz300736,百邦科技,2019-07-25,11.66,11.66,11.34,11.54,11.55,1211680.0,14029251.0,970393060.8,1508133057.6
sz300736,百邦科技,2019-07-26,11.6,12.69,11.58,12.69,11.54,4971180.0,62722229.0,1067096008.8,1658423613.6
sz300736,百邦科技,2019-07-29,12.3,12.3,11.91,12.25,12.69,7640181.0,92697595.0,1030096620.0,1600921140.0
sz300736,百邦科技,2019-07-30,12.05,12.25,12.0,12.13,12.25,4176680.0,50653268.0,1020005877.6,1585238647.2
sz300736,百邦科技,2019-07-31,12.03,12.08,11.77,11.84,12.13,3016714.0,35735105.0,995619916.8,1547339289.6
sz300736,百邦科技,2019-08-01,11.8,11.89,11.61,11.86,11.84,2498286.0,29278334.0,997301707.2,1549953038.4
sz300736,百邦科技,2019-08-02,11.42,11.6,11.22,11.43,11.86,2768112.0,31656454.0,961143213.6,1493757439.2
sz300736,百邦科技,2019-08-05,11.4,11.69,11.3,11.33,11.43,2143840.0,24638743.0,952734261.6,1480688695.2
sz300736,百邦科技,2019-08-06,10.97,11.19,10.7,10.91,11.33,2970742.0,32421768.0,917416663.2,1425799970.4
sz300736,百邦科技,2019-08-07,11.05,11.2,10.83,10.83,10.91,1990094.0,22014447.0,910689501.6,1415344975.2
sz300736,百邦科技,2019-08-08,10.94,11.0,10.81,10.84,10.83,2136980.0,23231231.0,911530396.8,1416651849.6
sz300736,百邦科技,2019-08-09,10.93,11.03,10.7,10.72,10.84,1676020.0,18162610.0,901439654.4,1400969356.8
sz300736,百邦科技,2019-08-12,10.74,10.98,10.51,10.95,10.72,1693580.0,18225963.0,920780244.0,1431027468.0
sz300736,百邦科技,2019-08-13,10.8,10.91,10.58,10.65,10.95,1522773.0,16282859.0,895553388.0,1391821236.0
sz300736,百邦科技,2019-08-14,11.18,11.72,11.18,11.72,10.65,1975592.0,23052579.0,985529174.4,1531656796.8
sz300736,百邦科技,2019-08-15,11.78,12.15,11.22,11.95,11.72,8248500.0,97148143.0,1004869764.0,1561714908.0
sz300736,百邦科技,2019-08-16,11.64,11.77,11.55,11.66,11.95,4544107.0,52947991.0,980483803.2,1523815550.4
sz300736,百邦科技,2019-08-19,11.77,11.95,11.63,11.91,11.66,4591534.0,54240599.0,1001506183.2,1556487410.4
sz300736,百邦科技,2019-08-20,11.93,11.94,11.72,11.76,11.91,3472538.0,41054774.0,988892755.2,1536884294.4
sz300736,百邦科技,2019-08-21,11.76,11.79,11.56,11.61,11.76,2085000.0,24276326.0,976279327.2,1517281178.4
sz300736,百邦科技,2019-08-22,11.75,11.75,11.5,11.66,11.61,1752040.0,20339878.0,980483803.2,1523815550.4
sz300736,百邦科技,2019-08-23,11.66,12.13,11.56,11.7,11.66,3658013.0,43315766.0,983847384.0,1529043048.0
sz300736,百邦科技,2019-08-26,11.27,11.46,11.16,11.25,11.7,2383480.0,26889720.0,946007100.0,1470233700.0
sz300736,百邦科技,2019-08-27,11.35,11.45,11.24,11.4,11.25,1676480.0,19048600.0,958620528.0,1489836816.0
sz300736,百邦科技,2019-08-28,11.73,12.54,11.52,11.82,11.4,5458760.0,65873346.0,993938126.4,1544725540.8
sz300736,百邦科技,2019-08-29,11.18,11.56,11.12,11.56,11.82,3193453.0,36436081.0,972074851.2,1510746806.4
sz300736,百邦科技,2019-08-30,11.43,11.58,10.88,11.1,11.56,3358433.0,37687116.0,933393672.0,1450630584.0
sz300736,百邦科技,2019-09-02,11.09,11.27,10.95,11.27,11.1,2579312.0,28756114.0,947688890.4,1472847448.8
sz300736,百邦科技,2019-09-03,11.29,11.34,11.14,11.31,11.27,1925950.0,21646812.0,951052471.2,1478074946.4
sz300736,百邦科技,2019-09-04,11.21,11.35,11.17,11.32,11.31,1846111.0,20817003.0,951893366.4,1479381820.8
sz300736,百邦科技,2019-09-05,11.39,11.67,11.32,11.59,11.32,3397765.0,39055626.0,974597536.8,1514667429.6
sz300736,百邦科技,2019-09-06,11.58,11.9,11.57,11.76,11.59,3727025.0,43632902.0,988892755.2,1536884294.4
sz300736,百邦科技,2019-09-09,11.77,12.44,11.77,12.16,11.76,5009100.0,60587429.0,1022528563.2,1589159270.4
sz300736,百邦科技,2019-09-10,12.1,12.21,11.83,12.14,12.16,3841333.0,46249611.0,1020846772.8,1586545521.6
sz300736,百邦科技,2019-09-11,12.25,12.48,11.98,12.15,12.14,4084985.0,49717562.0,1021687668.0,1587852396.0
sz300736,百邦科技,2019-09-12,12.12,12.33,11.93,12.26,12.15,3819840.0,46392729.0,1030937515.2,1602228014.4
sz300736,百邦科技,2019-09-16,12.47,12.47,12.1,12.22,12.26,3690200.0,45297437.0,1027573934.4,1597000516.8
sz300736,百邦科技,2019-09-17,12.25,12.25,11.76,11.84,12.22,2618060.0,31350616.0,995619916.8,1547339289.6
sz300736,百邦科技,2019-09-18,11.9,12.89,11.9,12.54,11.84,8222400.0,102735817.0,1054482580.8,1638820497.6
sz300736,百邦科技,2019-09-19,12.42,12.58,12.23,12.54,12.54,5705978.0,70927563.0,1054482580.8,1638820497.6
sz300736,百邦科技,2019-09-20,12.63,12.64,12.3,12.33,12.54,4371913.0,54403982.0,1036823781.6,1611376135.2
sz300736,百邦科技,2019-09-23,12.42,12.7,12.27,12.54,12.33,3870765.0,48294810.0,1054482580.8,1638820497.6
sz300736,百邦科技,2019-09-24,12.43,13.38,12.28,12.5,12.54,5664393.0,71856284.0,1051119000.0,1633593000.0
sz300736,百邦科技,2019-09-25,12.27,13.29,12.27,12.89,12.5,7353589.0,94208177.0,1083913912.8,1684561101.6
sz300736,百邦科技,2019-09-26,12.68,12.89,11.76,11.8,12.89,5569320.0,67862152.0,992256336.0,1542111792.0
sz300736,百邦科技,2019-09-27,11.89,11.89,10.62,11.43,11.8,3262544.0,37613901.0,961143213.6,1493757439.2
sz300736,百邦科技,2019-09-30,11.37,11.67,11.08,11.1,11.43,2492860.0,28297338.0,933393672.0,1450630584.0
sz300736,百邦科技,2019-10-08,11.25,11.98,11.1,11.67,11.1,4505580.0,52296670.0,981324698.4,1525122424.8
sz300736,百邦科技,2019-10-09,11.87,12.24,11.62,11.99,11.67,5213702.0,62441124.0,1008233344.8,1566942405.6
sz300736,百邦科技,2019-10-10,12.03,12.1,11.8,11.95,11.99,3669397.0,43784962.0,1004869764.0,1561714908.0
sz300736,百邦科技,2019-10-11,11.76,11.95,11.49,11.57,11.95,2686692.0,31349391.0,972915746.4,1512053680.8
sz300736,百邦科技,2019-10-14,11.66,11.89,11.66,11.77,11.57,2191240.0,25817367.0,989733650.4,1538191168.8
sz300736,百邦科技,2019-10-15,11.68,11.77,11.11,11.4,11.77,2669920.0,30358197.0,958620528.0,1489836816.0
sz300736,百邦科技,2019-10-16,11.38,11.49,11.13,11.15,11.4,1905660.0,21462961.0,937598148.0,1457164956.0
sz300736,百邦科技,2019-10-17,11.15,11.25,11.04,11.22,11.15,1323180.0,14770100.0,943484414.4,1466313076.8
sz300736,百邦科技,2019-10-18,11.29,11.29,10.81,10.92,11.22,1941121.0,21341972.0,918257558.4,1427106844.8
sz300736,百邦科技,2019-10-21,11.2,11.57,11.01,11.11,10.92,2826920.0,31731135.0,934234567.2,1450657586.4
sz300736,百邦科技,2019-10-22,11.01,11.23,10.86,11.19,11.11,2192500.0,24184016.0,940961728.8,1461103365.6
sz300736,百邦科技,2019-10-23,11.18,11.28,11.05,11.21,11.19,1753780.0,19602028.0,942643519.2,1463714810.4
sz300736,百邦科技,2019-10-24,11.21,11.3,11.08,11.23,11.21,1719305.0,19267241.0,944325309.6,1466326255.2
sz300736,百邦科技,2019-10-25,11.26,11.38,11.13,11.28,11.23,1726700.0,19414282.0,948529785.6,1472854867.2
sz300736,百邦科技,2019-10-28,12.41,12.41,12.41,12.41,11.28,2597120.0,32230259.0,1043550943.2,1620401498.4
sz300736,百邦科技,2019-10-29,12.65,13.65,12.41,13.65,12.41,7716140.0,102760567.0,1147821948.0,1782311076.0
sz300736,百邦科技,2019-10-30,15.0,15.01,12.29,12.29,13.65,11755960.0,158211080.0,1033460200.8,1604732829.6
sz300736,百邦科技,2019-10-31,11.21,11.49,11.06,11.06,12.29,10183720.0,113466733.0,930030091.2,1444128974.4
sz300736,百邦科技,2019-11-01,10.65,10.87,10.52,10.66,11.06,6454241.0,69105350.0,896394283.2,1391900078.4
sz300736,百邦科技,2019-11-04,10.73,10.94,10.73,10.9,10.66,4484071.0,48528824.0,916575768.0,1423237416.0
sz300736,百邦科技,2019-11-05,10.99,10.99,10.67,10.76,10.9,3504073.0,37725569.0,904803235.2,1404957302.4
sz300736,百邦科技,2019-11-06,10.72,10.76,10.56,10.72,10.76,2725640.0,29019603.0,901439654.4,1399734412.8
sz300736,百邦科技,2019-11-07,10.69,10.93,10.63,10.89,10.72,2810464.0,30441876.0,915734872.8,1421931693.6
sz300736,百邦科技,2019-11-08,10.88,10.97,10.78,10.78,10.89,2622078.0,28507547.0,906485025.6,1407568747.2
sz300736,百邦科技,2019-11-11,10.86,11.1,10.74,10.8,10.78,3961360.0,43143609.0,908166816.0,1410180192.0
sz300736,百邦科技,2019-11-12,10.65,10.65,10.28,10.55,10.8,3650984.0,38067187.0,887144436.0,1377537132.0
sz300736,百邦科技,2019-11-13,10.49,10.49,10.19,10.25,10.55,2713153.0,28002594.0,861917580.0,1338365460.0
sz300736,百邦科技,2019-11-14,10.19,10.65,10.19,10.47,10.25,3705014.0,38760978.0,880417274.4,1367091352.8
sz300736,百邦科技,2019-11-15,10.42,10.76,10.33,10.58,10.47,3542020.0,37382700.0,889667121.6,1381454299.2
sz300736,百邦科技,2019-11-18,10.47,10.82,10.42,10.72,10.58,2253200.0,24076584.0,901439654.4,1399734412.8
sz300736,百邦科技,2019-11-19,10.8,11.79,10.66,11.79,10.72,7341863.0,84157065.0,991415440.8,1539446709.6
sz300736,百邦科技,2019-11-20,11.79,11.79,10.61,11.15,11.79,10228757.0,114620518.0,937598148.0,1455880476.0
sz300736,百邦科技,2019-11-21,10.86,11.15,10.83,11.02,11.15,5490705.0,60381698.0,926666510.4,1438906084.8
sz300736,百邦科技,2019-11-22,11.01,11.07,10.6,10.6,11.02,4542632.0,49041454.0,891348912.0,1384065744.0
sz300736,百邦科技,2019-11-25,10.65,10.71,10.25,10.4,10.6,3234920.0,33676877.0,874531008.0,1357951296.0
sz300736,百邦科技,2019-11-26,10.45,10.46,10.32,10.37,10.4,1773947.0,18434347.0,872008322.4,1354034128.8
sz300736,百邦科技,2019-11-27,10.35,10.48,10.2,10.35,10.37,1556100.0,16104815.0,870326532.0,1351422684.0
sz300736,百邦科技,2019-11-28,10.35,10.47,10.2,10.3,10.35,1674807.0,17280442.0,866122056.0,1344894072.0
sz300736,百邦科技,2019-11-29,10.26,10.37,10.21,10.36,10.3,1343190.0,13834725.0,871167427.2,1352728406.4
sz300736,百邦科技,2019-12-02,10.39,10.44,10.28,10.28,10.36,1335480.0,13828427.0,864440265.6,1342282627.2
sz300736,百邦科技,2019-12-03,10.26,10.42,10.19,10.37,10.28,1717660.0,17668740.0,872008322.4,1354034128.8
sz300736,百邦科技,2019-12-04,10.3,10.44,10.28,10.42,10.37,1406980.0,14603758.0,876212798.4,1360562740.8
sz300736,百邦科技,2019-12-05,10.42,10.66,10.39,10.65,10.42,2273640.0,23994531.0,895553388.0,1390594356.0
sz300736,百邦科技,2019-12-06,10.58,10.79,10.53,10.71,10.65,1953780.0,20786868.0,900598759.2,1398428690.4
sz300736,百邦科技,2019-12-09,10.77,10.79,10.6,10.69,10.71,1630560.0,17444346.0,898916968.8,1395817245.6
sz300736,百邦科技,2019-12-10,10.68,10.85,10.54,10.8,10.69,1694280.0,18152644.0,908166816.0,1410180192.0
sz300736,百邦科技,2019-12-11,10.81,10.9,10.72,10.72,10.8,1586407.0,17119980.0,901439654.4,1399734412.8
sz300736,百邦科技,2019-12-12,10.68,10.84,10.56,10.62,10.72,1847078.0,19723319.0,893030702.4,1386677188.8
sz300736,百邦科技,2019-12-13,10.77,10.86,10.65,10.76,10.62,1975160.0,21230217.0,904803235.2,1404957302.4
sz300736,百邦科技,2019-12-16,10.75,11.03,10.72,10.98,10.76,2001037.0,21840377.0,923302929.6,1433683195.2
sz300736,百邦科技,2019-12-17,11.02,11.15,10.92,11.07,10.98,2482660.0,27476663.0,930870986.4,1445434696.8
sz300736,百邦科技,2019-12-18,11.07,11.56,11.06,11.12,11.07,2909040.0,32710877.0,935075462.4,1451963308.8
sz300736,百邦科技,2019-12-19,11.22,11.25,11.0,11.18,11.12,2248860.0,24993429.0,940120833.6,1459797643.2
sz300736,百邦科技,2019-12-20,11.22,11.25,10.92,10.97,11.18,1675220.0,18589656.0,922462034.4,1432377472.8
sz300736,百邦科技,2019-12-23,10.95,11.01,10.5,10.63,10.97,1902020.0,20528232.0,893871597.6,1387982911.2
sz300736,百邦科技,2019-12-24,10.72,11.0,10.62,10.96,10.63,1617020.0,17562847.0,921621139.2,1431071750.4
sz300736,百邦科技,2019-12-25,11.3,11.3,10.98,11.06,10.96,1687160.0,18699648.0,930030091.2,1444128974.4
sz300736,百邦科技,2019-12-26,11.06,11.17,11.01,11.14,11.06,1192300.0,13247839.0,936757252.8,1454574753.6
sz300736,百邦科技,2019-12-27,11.09,11.21,10.92,10.97,11.14,1572400.0,17379865.0,922462034.4,1432377472.8
sz300736,百邦科技,2019-12-30,10.92,10.92,10.56,10.78,10.97,1605720.0,17255062.0,906485025.6,1407568747.2
sz300736,百邦科技,2019-12-31,10.78,10.91,10.71,10.88,10.78,1530582.0,16543199.0,914893977.6,1420625971.2
sz300736,百邦科技,2020-01-02,10.89,11.27,10.85,11.19,10.88,2906000.0,32309553.0,940961728.8,1461103365.6
sz300736,百邦科技,2020-01-03,11.27,11.48,11.15,11.44,11.19,2924585.0,33069001.0,961984108.8,1493746425.6
sz300736,百邦科技,2020-01-06,11.41,11.41,11.0,11.28,11.44,2738215.0,30756257.0,948529785.6,1472854867.2
sz300736,百邦科技,2020-01-07,11.3,11.44,11.27,11.39,11.28,1883240.0,21379038.0,957779632.8,1487217813.6
sz300736,百邦科技,2020-01-08,11.21,11.46,11.12,11.16,11.39,2083280.0,23551863.0,938439043.2,1457186198.4
sz300736,百邦科技,2020-01-09,11.18,11.44,11.18,11.38,11.16,1900198.0,21566848.0,956938737.6,1485912091.2
sz300736,百邦科技,2020-01-10,11.45,11.49,11.13,11.32,11.38,1394320.0,15724235.0,951893366.4,1478077756.8
sz300736,百邦科技,2020-01-13,11.39,11.45,11.22,11.3,11.32,1573120.0,17776460.0,950211576.0,1475466312.0
sz300736,百邦科技,2020-01-14,11.4,11.4,11.2,11.22,11.3,1792300.0,20220576.0,943484414.4,1465020532.8
sz300736,百邦科技,2020-01-15,11.25,11.26,10.98,11.06,11.22,2027760.0,22422390.0,930030091.2,1444128974.4
sz300736,百邦科技,2020-01-16,11.09,11.09,10.69,10.83,11.06,2584200.0,28079405.0,910689501.6,1414097359.2
sz300736,百邦科技,2020-01-17,10.83,10.88,10.68,10.72,10.83,2175399.0,23404951.0,901439654.4,1399734412.8
sz300736,百邦科技,2020-01-20,10.75,10.87,10.63,10.85,10.72,1774760.0,19103079.0,912371292.0,1416708804.0
sz300736,百邦科技,2020-01-21,10.85,10.85,10.62,10.62,10.85,1180820.0,12631141.0,893030702.4,1386677188.8
sz300736,百邦科技,2020-01-22,10.6,10.6,10.27,10.51,10.62,2078200.0,21673743.0,883780855.2,1372314242.4
sz300736,百邦科技,2020-01-23,10.5,10.59,9.93,10.16,10.51,2002680.0,20592573.0,854349523.2,1326613958.4
sz300736,百邦科技,2020-02-03,9.14,9.14,9.14,9.14,10.16,372100.0,3400994.0,768578212.8,1193430273.6
sz300736,百邦科技,2020-02-04,8.23,8.77,8.23,8.57,9.14,3182395.0,27096563.0,720647186.4,1119004096.8
sz300736,百邦科技,2020-02-05,8.57,8.99,8.51,8.84,8.57,2254845.0,19882145.0,743351356.8,1154258601.6
sz300736,百邦科技,2020-02-06,8.94,9.07,8.82,9.04,8.84,2061540.0,18456145.0,760169260.8,1180373049.6
sz300736,百邦科技,2020-02-07,9.13,9.13,8.8,8.99,9.04,1717815.0,15337843.0,755964784.8,1173844437.6
sz300736,百邦科技,2020-02-10,8.94,9.12,8.92,9.1,8.99,1564760.0,14140817.0,765214632.0,1188207384.0
sz300736,百邦科技,2020-02-11,9.19,9.19,8.96,9.01,9.1,1859335.0,16801013.0,757646575.2,1176455882.4
sz300736,百邦科技,2020-02-12,8.97,9.19,8.97,9.15,9.01,1927315.0,17543350.0,769419108.0,1194735996.0
sz300736,百邦科技,2020-02-13,9.21,9.37,8.98,9.01,9.15,2139056.0,19589693.0,757646575.2,1176455882.4
sz300736,百邦科技,2020-02-14,9.01,9.18,8.88,8.99,9.01,1905264.0,17169875.0,755964784.8,1173844437.6
sz300736,百邦科技,2020-02-17,9.1,9.41,8.75,9.38,8.99,2798620.0,25936647.0,788759697.6,1224767611.2
sz300736,百邦科技,2020-02-18,9.43,9.63,9.31,9.59,9.38,2545659.0,24109192.0,806418496.8,1252187781.6
sz300736,百邦科技,2020-02-19,9.59,9.77,9.42,9.55,9.59,2663720.0,25627409.0,803054916.0,1246964892.0
sz300736,百邦科技,2020-02-20,9.65,9.88,9.43,9.79,9.55,2465180.0,23790676.0,823236400.8,1278302229.6
sz300736,百邦科技,2020-02-21,9.8,10.04,9.69,10.0,9.79,2771778.0,27403746.0,840895200.0,1305722400.0
sz300736,百邦科技,2020-02-24,10.01,10.57,10.01,10.41,10.0,4539900.0,46458432.0,875371903.2,1359257018.4
sz300736,百邦科技,2020-02-25,10.26,11.3,10.19,10.52,10.41,7965868.0,84747801.0,884621750.4,1373619964.8
sz300736,百邦科技,2020-02-26,10.34,10.55,9.83,10.11,10.52,3849711.0,39301203.0,850145047.2,1320085346.4
sz300736,百邦科技,2020-02-27,10.31,10.32,9.87,9.92,10.11,2739860.0,27488850.0,834168038.4,1295276620.8
sz300736,百邦科技,2020-02-28,9.6,9.86,9.08,9.1,9.92,3371514.0,31737068.0,765214632.0,1188207384.0
sz300736,百邦科技,2020-03-02,9.21,9.57,9.15,9.54,9.1,2308434.0,21662206.0,802214020.8,1245659169.6
sz300736,百邦科技,2020-03-03,9.64,9.96,9.54,9.71,9.54,2467133.0,24122991.0,816509239.2,1267856450.4
sz300736,百邦科技,2020-03-04,9.71,10.13,9.71,10.03,9.71,2096918.0,20828561.0,843417885.6,1309639567.2
sz300736,百邦科技,2020-03-05,10.25,10.25,9.96,10.15,10.03,2053899.0,20738087.0,853508628.0,1325308236.0
sz300736,百邦科技,2020-03-06,10.17,10.33,10.0,10.1,10.15,1740777.0,17722708.0,849304152.0,1318779624.0
sz300736,百邦科技,2020-03-09,10.0,10.48,9.75,9.9,10.1,3047804.0,30729148.0,832486248.0,1292665176.0
sz300736,百邦科技,2020-03-10,9.76,10.14,9.48,10.1,9.9,2924520.0,28897727.0,849304152.0,1318779624.0
sz300736,百邦科技,2020-03-11,10.19,10.41,10.0,10.04,10.1,2943946.0,30081464.0,844258780.8,1310945289.6
sz300736,百邦科技,2020-03-12,9.91,10.39,9.72,9.86,10.04,3111231.0,31148917.0,829122667.2,1287442286.4
sz300736,百邦科技,2020-03-13,9.32,9.84,9.29,9.65,9.86,2648880.0,25219022.0,811463868.0,1260022116.0
sz300736,百邦科技,2020-03-16,9.68,9.95,9.22,9.28,9.65,2327725.0,22445369.0,780350745.6,1211710387.2
sz300736,百邦科技,2020-03-17,9.49,9.49,8.98,9.4,9.28,2226488.0,20593103.0,790441488.0,1227379056.0
sz300736,百邦科技,2020-03-18,9.42,9.68,9.23,9.25,9.4,1805020.0,17117237.0,777828060.0,1207793220.0
sz300736,百邦科技,2020-03-19,9.25,9.43,9.04,9.3,9.25,1474020.0,13618020.0,782032536.0,1214321832.0
sz300736,百邦科技,2020-03-20,9.49,9.52,9.23,9.41,9.3,1627080.0,15190357.0,791282383.2,1228684778.4
sz300736,百邦科技,2020-03-23,9.4,9.4,9.07,9.07,9.41,1608660.0,14827005.0,762691946.4,1184290216.8
sz300736,百邦科技,2020-03-24,9.23,9.35,9.13,9.35,9.07,1652520.0,15323047.0,786237012.0,1220850444.0
sz300736,百邦科技,2020-03-25,9.48,9.54,9.4,9.49,9.35,1084304.0,10289106.0,798009544.8,1239130557.6
sz300736,百邦科技,2020-03-26,9.48,9.53,9.4,9.41,9.49,1061240.0,10035899.0,791282383.2,1228684778.4
sz300736,百邦科技,2020-03-27,9.59,9.59,9.36,9.39,9.41,1292780.0,12252803.0,789600592.8,1226073333.6
sz300736,百邦科技,2020-03-30,9.3,9.31,8.99,9.15,9.39,1472080.0,13392509.0,769419108.0,1194735996.0
sz300736,百邦科技,2020-03-31,9.29,9.3,9.1,9.15,9.15,1194749.0,10959874.0,769419108.0,1194735996.0
sz300736,百邦科技,2020-04-01,9.08,9.25,9.02,9.08,9.15,903991.0,8286947.0,763532841.6,1185595939.2
sz300736,百邦科技,2020-04-02,9.02,9.99,9.02,9.41,9.08,1455584.0,13529497.0,791282383.2,1228684778.4
sz300736,百邦科技,2020-04-03,9.49,9.49,9.29,9.34,9.41,900140.0,8431281.0,785396116.8,1219544721.6
sz300736,百邦科技,2020-04-07,9.49,9.85,9.47,9.75,9.34,1778320.0,17067246.0,819872820.0,1273079340.0
sz300736,百邦科技,2020-04-08,9.75,9.92,9.65,9.82,9.75,1662161.0,16309700.0,825759086.4,1282219396.8
sz300736,百邦科技,2020-04-09,9.89,10.06,9.76,9.83,9.82,1941080.0,19204947.0,826599981.6,1283525119.2
sz300736,百邦科技,2020-04-10,9.87,9.87,9.36,9.48,9.83,1800819.0,17164431.0,797168649.6,1237824835.2
sz300736,百邦科技,2020-04-13,9.46,9.48,9.24,9.3,9.48,789459.0,7349163.0,782032536.0,1214321832.0
sz300736,百邦科技,2020-04-14,9.39,9.49,9.33,9.46,9.3,892220.0,8384928.0,795486859.2,1235213390.4
sz300736,百邦科技,2020-04-15,9.47,9.66,9.25,9.31,9.46,1679360.0,15740717.0,782873431.2,1215627554.4
sz300736,百邦科技,2020-04-16,9.38,9.54,9.13,9.32,9.31,2447559.0,22644999.0,783714326.4,1216933276.8
sz300736,百邦科技,2020-04-17,9.41,10.25,9.38,10.25,9.32,6662371.0,67162605.0,861917580.0,1338365460.0
sz300736,百邦科技,2020-04-20,10.0,10.24,9.68,9.95,10.25,9647858.0,95107602.0,836690724.0,1299193788.0
sz300736,百邦科技,2020-04-21,9.86,9.87,9.57,9.77,9.95,4590508.0,44544377.0,821554610.4,1275690784.8
sz300736,百邦科技,2020-04-22,9.77,10.75,9.68,10.18,9.77,10634400.0,110162049.0,856031313.6,1329225403.2
sz300736,百邦科技,2020-04-23,9.9,9.99,9.68,9.84,10.18,6768690.0,66294534.0,827440876.8,1284830841.6
sz300736,百邦科技,2020-04-24,9.73,9.73,9.19,9.19,9.84,4682039.0,44146323.0,772782688.8,1199958885.6
sz300736,百邦科技,2020-04-27,9.09,9.28,9.05,9.1,9.19,2112173.0,19288491.0,765214632.0,1188207384.0
sz300736,百邦科技,2020-04-28,9.0,9.19,8.19,8.56,9.1,3582881.0,30895323.0,719806291.2,1117698374.4
sz300736,百邦科技,2020-04-29,8.47,8.68,8.31,8.52,8.56,1287140.0,10985197.0,716442710.4,1112475484.8
sz300736,百邦科技,2020-04-30,8.54,9.03,8.54,8.71,8.52,1317120.0,11490576.0,732419719.2,1137284210.4
sz300736,百邦科技,2020-05-06,8.7,8.9,8.62,8.87,8.71,1480243.0,12998163.0,745874042.4,1158175768.8
sz300736,百邦科技,2020-05-07,8.88,8.94,8.73,8.75,8.87,1482725.0,13086609.0,735783300.0,1142507100.0
sz300736,百邦科技,2020-05-08,8.84,8.94,8.75,8.83,8.75,1051140.0,9304778.0,742510461.6,1152952879.2
sz300736,百邦科技,2020-05-11,8.8,8.96,8.71,8.81,8.83,1063680.0,9406275.0,740828671.2,1150341434.4
sz300736,百邦科技,2020-05-12,8.82,8.82,8.56,8.71,8.81,1262220.0,10969210.0,732419719.2,1137284210.4
sz300736,百邦科技,2020-05-13,8.72,8.76,8.61,8.71,8.71,834480.0,7263456.0,732419719.2,1137284210.4
sz300736,百邦科技,2020-05-14,8.67,8.73,8.6,8.64,8.71,951584.0,8251099.0,726533452.8,1128144153.6
sz300736,百邦科技,2020-05-15,8.63,8.73,8.63,8.64,8.64,706860.0,6138833.0,726533452.8,1128144153.6
sz300736,百邦科技,2020-05-18,8.7,8.7,8.36,8.47,8.64,1499280.0,12697895.0,712238234.4,1105946872.8
sz300736,百邦科技,2020-05-19,8.71,8.73,8.53,8.68,8.47,1378079.0,11913287.0,729897033.6,1133367043.2
sz300736,百邦科技,2020-05-20,8.7,8.7,8.53,8.55,8.68,986785.0,8469928.0,718965396.0,1116392652.0
sz300736,百邦科技,2020-05-21,8.56,8.69,8.53,8.54,8.55,861399.0,7407620.0,718124500.8,1115086929.6
sz300736,百邦科技,2020-05-22,8.59,8.59,8.4,8.52,8.54,739515.0,6281677.0,716442710.4,1112475484.8
sz300736,百邦科技,2020-05-25,8.51,8.56,8.41,8.5,8.52,633900.0,5363921.0,714760920.0,1109864040.0
sz300736,百邦科技,2020-05-26,8.54,8.72,8.47,8.67,8.5,1220980.0,10529904.0,729056138.4,1132061320.8
sz300736,百邦科技,2020-05-27,8.75,8.87,8.66,8.76,8.67,1763607.0,15466514.0,736624195.2,1143812822.4
sz300736,百邦科技,2020-05-28,8.88,8.88,8.61,8.76,8.76,1211300.0,10564471.0,736624195.2,1143812822.4
sz300736,百邦科技,2020-05-29,8.73,8.87,8.7,8.76,8.76,762280.0,6699061.0,736624195.2,1143812822.4
sz300736,百邦科技,2020-06-01,8.8,9.08,8.8,8.97,8.76,1591820.0,14266583.0,754282994.4,1171232992.8
sz300736,百邦科技,2020-06-02,8.97,9.15,8.93,9.03,8.97,1334280.0,12048646.0,759328365.6,1179067327.2
sz300736,百邦科技,2020-06-03,9.04,9.93,9.04,9.34,9.03,10507197.0,100686154.0,785396116.8,1219544721.6
sz300736,百邦科技,2020-06-04,9.18,9.28,8.92,9.08,9.34,6679527.0,60648732.0,763532841.6,1185595939.2
sz300736,百邦科技,2020-06-05,9.0,9.14,8.92,8.97,9.08,2676448.0,24118438.0,754282994.4,1171232992.8
sz300736,百邦科技,2020-06-08,8.97,9.08,8.85,8.89,8.97,1564145.0,13991293.0,747555832.8,1160787213.6
sz300736,百邦科技,2020-06-09,8.85,9.04,8.82,9.0,8.89,1803220.0,16088539.0,756805680.0,1175150160.0
sz300736,百邦科技,2020-06-10,9.0,9.0,8.84,8.97,9.0,1275773.0,11368712.0,754282994.4,1171232992.8
sz300736,百邦科技,2020-06-11,8.97,9.16,8.92,9.02,8.97,2508585.0,22598019.0,758487470.4,1177761604.8
sz300736,百邦科技,2020-06-12,8.88,9.0,8.8,8.93,9.02,1198605.0,10681722.0,750919413.6,1166010103.2
sz300736,百邦科技,2020-06-15,8.85,9.07,8.8,8.86,8.93,1241060.0,11082556.0,708599950.06,1156870046.4
sz300736,百邦科技,2020-06-16,8.89,9.02,8.89,9.0,8.86,994080.0,8907847.0,719796789.0,1175150160.0
sz300736,百邦科技,2020-06-17,9.05,9.17,8.97,9.14,9.0,1776288.0,16096729.0,730993627.94,1193430273.6
sz300736,百邦科技,2020-06-18,9.18,9.28,9.07,9.28,9.14,2023380.0,18552493.0,742190466.88,1211710387.2
sz300736,百邦科技,2020-06-19,9.24,9.38,9.17,9.28,9.28,1633216.0,15132602.0,742190466.88,1211710387.2
sz300736,百邦科技,2020-06-22,9.32,9.35,9.17,9.26,9.28,1163109.0,10755674.0,740590918.4599999,1209098942.4
sz300736,百邦科技,2020-06-23,9.29,9.3,9.2,9.21,9.26,1272916.0,11778222.0,736592047.41,1202570330.4
sz300736,百邦科技,2020-06-24,9.27,9.37,9.12,9.18,9.21,1155480.0,10665751.0,734192724.78,1198653163.2
sz300736,百邦科技,2020-06-29,9.18,9.57,9.01,9.5,9.18,3453738.0,32447318.0,759785499.5,1240436280.0
sz300736,百邦科技,2020-06-30,10.45,10.45,10.45,10.45,9.5,3337782.0,34879822.0,835764049.45,1364479908.0
sz300736,百邦科技,2020-07-01,11.5,11.5,9.7,9.92,10.45,12370242.0,128745446.0,793376016.32,1295276620.8
sz300736,百邦科技,2020-07-02,10.3,10.53,9.52,9.66,9.92,11983518.0,118901834.0,772581886.8599999,1261327838.4
sz300736,百邦科技,2020-07-03,9.76,9.8,9.39,9.55,9.66,8009655.0,76462006.0,763784370.5500001,1246964892.0
sz300736,百邦科技,2020-07-06,9.34,9.86,9.34,9.78,9.55,7206322.0,69504049.0,782179177.38,1276996507.2
sz300736,百邦科技,2020-07-07,9.79,10.29,9.6,10.12,9.78,7082061.0,69933718.0,809371500.52,1321391068.8
sz300736,百邦科技,2020-07-08,9.95,10.08,9.92,10.06,10.12,5440160.0,54428363.0,804572855.2600001,1313556734.4
sz300736,百邦科技,2020-07-09,10.05,10.4,10.01,10.32,10.06,6050132.0,61685543.0,825366984.72,1347505516.8
sz300736,百邦科技,2020-07-10,10.33,10.46,10.11,10.17,10.32,3802741.0,39005070.0,813370371.5699999,1327919680.8
sz300736,百邦科技,2020-07-13,10.27,10.62,10.2,10.52,10.17,5102817.0,53132127.0,841362468.92,1373619964.8
sz300736,百邦科技,2020-07-14,10.4,10.67,10.2,10.43,10.52,4337620.0,45262335.0,834164501.03,1361868463.2
sz300736,百邦科技,2020-07-15,10.42,10.46,9.93,9.94,10.43,3248065.0,32982348.0,794975564.74,1297888065.6
sz300736,百邦科技,2020-07-16,9.94,10.11,9.61,9.73,9.94,2457619.0,24209567.0,778180306.33,1270467895.2
sz300736,百邦科技,2020-07-17,9.77,9.84,9.52,9.63,9.73,1717540.0,16614972.0,770182564.23,1257410671.2
sz300736,百邦科技,2020-07-20,9.63,10.19,9.63,10.04,9.63,2730740.0,27082695.0,802973306.84,1310945289.6
sz300736,百邦科技,2020-07-21,10.03,10.29,9.91,10.14,10.04,1778280.0,17944734.0,810971048.94,1324002513.6
sz300736,百邦科技,2020-07-22,10.04,10.32,10.04,10.12,10.14,1876720.0,19174962.0,809371500.52,1321391068.8
sz300736,百邦科技,2020-07-23,10.26,10.26,9.83,10.22,10.12,3926240.0,39612216.0,817369242.62,1334448292.8
sz300736,百邦科技,2020-07-24,10.22,10.29,9.76,9.92,10.22,2116345.0,21268542.0,793376016.32,1295276620.8
sz300736,百邦科技,2020-07-27,9.92,9.95,9.61,9.9,9.92,1659376.0,16211443.0,791776467.9,1292665176.0
sz300736,百邦科技,2020-07-28,9.78,10.07,9.78,9.9,9.9,1345940.0,13367022.0,791776467.9,1292665176.0
sz300736,百邦科技,2020-07-29,9.97,10.22,9.75,10.18,9.9,1778712.0,17831823.0,814170145.78,1329225403.2
sz300736,百邦科技,2020-07-30,10.12,10.69,10.11,10.5,10.18,4519809.0,46953598.0,839762920.5,1371008520.0000002
sz300736,百邦科技,2020-07-31,10.51,10.92,10.38,10.77,10.5,3525771.0,37467600.0,861356824.1700001,1406263024.8000002
sz300736,百邦科技,2020-08-03,10.8,11.77,10.56,10.85,10.77,9842074.0,106474531.0,867755017.85,1416708804.0
sz300736,百邦科技,2020-08-04,10.8,10.81,10.33,10.52,10.85,5501640.0,57837783.0,841362468.92,1373619964.8
sz300736,百邦科技,2020-08-05,10.45,10.66,10.44,10.53,10.52,2527834.0,26616656.0,842162243.13,1374925687.2
sz300736,百邦科技,2020-08-06,10.56,10.64,10.35,10.57,10.53,3115296.0,32802470.0,845361339.97,1380148576.8
sz300736,百邦科技,2020-08-07,10.59,10.59,10.15,10.25,10.57,2051702.0,21173018.0,819768565.25,1338365460.0
sz300736,百邦科技,2020-08-10,10.36,10.46,10.18,10.39,10.25,1694258.0,17587097.0,830965404.1899999,1356645573.6
sz300736,百邦科技,2020-08-11,10.45,10.5,10.12,10.15,10.39,1676680.0,17255599.0,811770823.1500001,1325308236.0
sz300736,百邦科技,2020-08-12,10.14,10.19,9.88,10.15,10.15,1675660.0,16795098.0,811770823.1500001,1325308236.0
sz300736,百邦科技,2020-08-13,10.15,10.38,10.15,10.26,10.15,1282640.0,13154738.0,820568339.46,1339671182.4
sz300736,百邦科技,2020-08-14,10.33,10.6,10.19,10.45,10.26,2670822.0,27825585.0,835764049.45,1364479908.0
sz300736,百邦科技,2020-08-17,10.39,10.52,10.39,10.46,10.45,2104120.0,22022133.0,836563823.6600001,1365785630.4
sz300736,百邦科技,2020-08-18,10.47,10.55,10.41,10.53,10.46,2206269.0,23159602.0,842162243.13,1374925687.2
sz300736,百邦科技,2020-08-19,10.51,10.53,10.24,10.29,10.53,1306580.0,13549460.0,822967662.0899999,1343588349.6
sz300736,百邦科技,2020-08-20,10.28,10.35,10.08,10.28,10.29,819900.0,8402530.0,822167887.88,1342282627.2
sz300736,百邦科技,2020-08-21,10.35,10.52,10.23,10.37,10.28,1382800.0,14379977.0,829365855.7700001,1354034128.8
sz300736,百邦科技,2020-08-24,10.4,10.96,10.26,10.62,10.37,3722260.0,39318136.0,849360211.02,1386677188.8
sz300736,百邦科技,2020-08-25,10.62,11.09,10.5,10.8,10.62,6356900.0,69019819.0,863756146.8,1410180192.0
sz300736,百邦科技,2020-08-26,10.86,11.16,10.48,10.73,10.8,4288780.0,46316389.0,858157727.33,1401040135.2
sz300736,百邦科技,2020-08-27,10.61,11.5,10.61,11.16,10.73,7175940.0,79341945.0,903983101.2,1457186198.4
sz300736,百邦科技,2020-08-28,11.16,11.88,10.83,10.98,11.16,5474996.0,61146558.0,889402728.6,1433683195.1999998
sz300736,百邦科技,2020-08-31,10.99,11.54,10.88,11.2,10.98,6025385.0,67727479.0,907223184.0,1462409088.0
sz300736,百邦科技,2020-09-01,11.18,11.55,11.05,11.49,11.2,4343015.0,49074668.0,930713784.3,1500275037.6
sz300736,百邦科技,2020-09-02,11.77,12.1,11.52,11.85,11.49,7815300.0,92772772.0,959874529.5,1547281044.0
sz300736,百邦科技,2020-09-03,11.7,12.5,11.52,11.88,11.85,7772440.0,93140477.0,962304591.6,1551198211.2
sz300736,百邦科技,2020-09-04,11.3,12.2,11.25,12.15,11.88,6398080.0,76426494.0,984175150.5,1586452716.0
sz300736,百邦科技,2020-09-07,12.15,12.72,11.89,12.31,12.15,8105740.0,100097842.0,997135481.7,1607344274.4
sz300736,百邦科技,2020-09-08,12.8,14.77,12.78,14.77,12.31,8297484.0,117793278.0,1196400573.9,1928551984.8
sz300736,百邦科技,2020-09-09,15.88,17.68,14.0,14.13,14.77,28304535.0,456064756.0,1144559249.1,1844985751.2
sz300736,百邦科技,2020-09-10,12.5,13.3,11.3,11.3,14.13,16580340.0,199509712.0,915323391.0,1475466312.0
sz300736,百邦科技,2020-09-11,10.5,11.3,10.5,11.12,11.3,10221956.0,111865446.0,900743018.4,1451963308.8
sz300736,百邦科技,2020-09-14,11.09,12.2,11.09,11.83,11.12,10706236.0,124875303.0,958254488.1,1544669599.2
sz300736,百邦科技,2020-09-15,11.99,12.26,11.65,11.94,11.83,10013660.0,119995830.0,967164715.8,1559032545.6
sz300736,百邦科技,2020-09-16,11.82,12.12,11.5,11.77,11.94,7339123.0,86957888.0,953394363.9,1536835264.8
sz300736,百邦科技,2020-09-17,11.79,12.11,11.32,11.9,11.77,6655399.0,79296000.0,963924633.0,1553809656.0
sz300736,百邦科技,2020-09-18,11.92,11.95,11.59,11.8,11.9,5360183.0,63116251.0,955824426.0,1540752432.0
sz300736,百邦科技,2020-09-21,11.9,12.18,11.7,12.0,11.8,5372036.0,64098446.0,972024840.0,1566866880.0
sz300736,百邦科技,2020-09-22,11.81,12.48,11.58,12.43,12.0,7866300.0,95021065.0,1006855730.1,1623012943.1999998
sz300736,百邦科技,2020-09-23,12.49,12.87,12.11,12.3,12.43,8945463.0,110408744.0,996325461.0,1606038552.0
sz300736,百邦科技,2020-09-24,12.0,12.8,11.3,11.36,12.3,8493420.0,101191696.0,920183515.2,1483300646.4
sz300736,百邦科技,2020-09-25,11.39,12.1,11.2,11.3,11.36,5223500.0,59904202.0,916452306.2,1475466312.0
sz300736,百邦科技,2020-09-28,11.22,11.29,10.79,10.82,11.3,5368378.0,58906742.0,877523358.68,1412791636.8
sz300736,百邦科技,2020-09-29,10.99,11.54,10.92,11.08,10.82,5695076.0,63713235.0,898609871.92,1446740419.1999998
sz300736,百邦科技,2020-09-30,11.07,11.38,10.88,11.38,11.08,5169380.0,57799429.0,922940464.12,1485912091.2
sz300736,百邦科技,2020-10-09,11.9,12.25,11.45,12.19,11.38,7473720.0,89282456.0,988633063.06,1591675605.6
sz300736,百邦科技,2020-10-12,12.0,12.98,12.0,12.65,12.19,10627640.0,132461878.0,1025939971.1,1651738836.0
sz300736,百邦科技,2020-10-13,12.59,13.9,12.49,13.17,12.65,11298244.0,147426981.0,1068112997.58,1719636400.8000002
sz300736,百邦科技,2020-10-14,12.95,13.3,12.51,12.94,13.17,8994963.0,114623279.0,1049459543.56,1689604785.6
sz300736,百邦科技,2020-10-15,12.89,13.23,12.6,13.15,12.94,6902500.0,89361468.0,1066490958.1,1717024956.0
sz300736,百邦科技,2020-10-16,12.83,13.38,12.52,13.13,13.15,6260523.0,81545267.0,1064868918.62,1714413511.2
sz300736,百邦科技,2020-10-19,13.5,13.7,13.08,13.15,13.13,5751639.0,76412077.0,1066490958.1,1717024956.0
sz300736,百邦科技,2020-10-20,12.96,13.55,12.96,13.45,13.15,5088603.0,67688114.0,1090821550.3,1756196628.0
sz300736,百邦科技,2020-10-21,13.85,15.15,13.8,14.03,13.45,13684764.0,195294421.0,1137860695.22,1831928527.2
sz300736,百邦科技,2020-10-22,13.95,14.75,13.8,14.23,14.03,10727700.0,153552026.0,1154081090.02,1853789912.8
sz300736,百邦科技,2020-10-23,13.94,14.8,13.87,13.98,14.23,9648680.0,137160750.0,1133805596.52,1821221572.8
sz300736,百邦科技,2020-10-26,13.9,14.1,13.14,13.98,13.98,7121364.0,97808790.0,1133805596.52,1821221572.8
sz300736,百邦科技,2020-10-27,13.86,14.69,13.67,14.55,13.98,8655960.0,124125698.0,1180033721.7,1895477388.0
sz300736,百邦科技,2020-10-28,14.38,15.88,13.34,15.09,14.55,13969920.0,202618661.0,1223828787.6599998,1965825002.4
sz300736,百邦科技,2020-10-29,14.4,15.08,13.9,13.93,15.09,10781380.0,155698523.0,1129750497.82,1814707904.8
sz300736,百邦科技,2020-10-30,13.92,15.8,13.92,14.25,13.93,12632280.0,184687507.0,1155703129.5,1856395380.0
sz300736,百邦科技,2020-11-02,13.57,15.16,13.57,14.95,14.25,12664755.0,183727788.0,1212474511.3,1947586732.0
sz300736,百邦科技,2020-11-03,14.91,15.44,14.48,14.92,14.95,10458412.0,156410033.0,1210041452.08,1943678531.2
sz300736,百邦科技,2020-11-04,14.92,15.2,14.22,14.5,14.92,5772440.0,84037389.0,1175978623.0,1888963720.0
sz300736,百邦科技,2020-11-05,14.9,15.4,14.44,14.85,14.5,6808100.0,100927632.0,1204364313.9,1934559396.0
sz300736,百邦科技,2020-11-06,14.64,14.82,13.45,13.5,14.85,7359520.0,102814910.0,1094876649.0,1758690360.0
sz300736,百邦科技,2020-11-09,13.6,14.74,13.6,14.21,13.5,8285500.0,118236176.0,1152459050.54,1851184445.6
sz300736,百邦科技,2020-11-10,14.31,14.6,13.33,13.49,14.21,5839200.0,79901462.0,1094065629.26,1757387626.4
sz300736,百邦科技,2020-11-11,13.42,13.58,12.75,12.75,13.49,4768900.0,62228947.0,1034050168.5,1660985340.0000002
sz300736,百邦科技,2020-11-12,12.92,13.12,12.64,12.73,12.75,2980940.0,38166665.0,1032428129.02,1658379872.8
sz300736,百邦科技,2020-11-13,12.66,12.97,12.45,12.67,12.73,2919995.0,37058737.0,1027562010.58,1650563471.1999998
sz300736,百邦科技,2020-11-16,12.78,12.87,12.07,12.15,12.67,4408340.0,54686581.0,985388984.1,1582821324.0
sz300736,百邦科技,2020-11-17,12.16,12.28,11.81,12.0,12.15,3042380.0,36401186.0,973223688.0,1563280320.0
sz300736,百邦科技,2020-11-18,11.98,12.35,11.91,12.03,12.0,2587460.0,31167320.0,975656747.22,1567188520.8000002
sz300736,百邦科技,2020-11-19,12.0,12.19,11.7,12.02,12.03,2883220.0,34560915.0,974845727.48,1565885787.1999998
sz300736,百邦科技,2020-11-20,11.94,12.05,11.82,11.98,12.02,1899000.0,22712892.0,971601648.52,1560674852.8
sz300736,百邦科技,2020-11-23,11.9,11.98,11.63,11.78,11.98,2579660.0,30387204.0,955381253.72,1534620180.8000002
sz300736,百邦科技,2020-11-24,11.75,11.95,11.57,11.57,11.78,2823600.0,33081406.0,938349839.18,1507262775.2
sz300736,百邦科技,2020-11-25,11.8,12.09,11.57,11.6,11.57,4021880.0,47405606.0,940782898.4,1511170976.0
sz300736,百邦科技,2020-11-26,11.46,11.67,11.32,11.44,11.6,2137280.0,24486255.0,927806582.56,1490327238.4
sz300736,百邦科技,2020-11-27,11.38,11.55,11.14,11.31,11.44,2142500.0,24233548.0,917263325.94,1473391701.6
sz300736,百邦科技,2020-11-30,11.38,11.5,11.26,11.31,11.31,1859600.0,21150213.0,917263325.94,1473391701.6
sz300736,百邦科技,2020-12-01,11.34,11.55,11.28,11.53,11.31,1948100.0,22320766.0,935105760.22,1502051840.8
sz300736,百邦科技,2020-12-02,11.54,11.59,11.35,11.41,11.53,1732900.0,19789406.0,925373523.34,1486419037.6
sz300736,百邦科技,2020-12-03,11.38,11.48,11.17,11.37,11.41,2155400.0,24470567.0,922129444.38,1481208103.1999998
sz300736,百邦科技,2020-12-04,11.42,11.5,11.32,11.4,11.37,1419600.0,16173537.0,924562503.6,1485116304.0
sz300736,百邦科技,2020-12-07,11.39,11.6,11.17,11.2,11.4,3093880.0,35159056.0,908342108.8,1459061632.0
sz300736,百邦科技,2020-12-08,11.33,11.33,11.13,11.16,11.2,1207480.0,13519036.0,905098029.84,1453850697.6
sz300736,百邦科技,2020-12-09,11.22,11.22,10.81,10.92,11.16,2136420.0,23488504.0,885633556.0799999,1422585091.2
sz300736,百邦科技,2020-12-10,10.99,11.16,10.72,11.0,10.92,2909140.0,31944735.0,892121714.0000001,1433006960.0
sz300736,百邦科技,2020-12-11,11.13,11.13,10.5,10.62,11.0,2481820.0,26516755.0,861302963.88,1383503083.2
sz300736,百邦科技,2020-12-14,10.56,10.92,10.29,10.86,10.62,3073420.0,32843822.0,880767437.64,1414768689.6
sz300736,百邦科技,2020-12-15,10.81,11.16,10.72,10.79,10.86,2310200.0,25173355.0,875090299.4599999,1405649554.4
sz300736,百邦科技,2020-12-16,10.89,10.9,10.23,10.31,10.79,2189500.0,22870526.0,836161351.94,1343118341.6
sz300736,百邦科技,2020-12-17,10.39,10.73,9.95,10.46,10.31,3025720.0,31357270.0,848326648.04,1362659345.6
sz300736,百邦科技,2020-12-18,10.57,10.7,10.15,10.15,10.46,1886800.0,19537141.0,823185036.1,1322274604.0
sz300736,百邦科技,2020-12-21,10.06,10.41,9.96,10.2,10.15,1628600.0,16568500.0,827240134.8,1328788272.0
sz300736,百邦科技,2020-12-22,10.15,10.17,9.5,9.69,10.2,2722920.0,26784542.0,785878128.0600001,1262348858.4
sz300736,百邦科技,2020-12-23,9.69,10.02,9.36,9.43,9.69,3102780.0,29786371.0,764791614.8199999,1228477784.8
sz300736,百邦科技,2020-12-24,9.47,9.47,9.0,9.07,9.43,2733950.0,25062514.0,735594904.1800001,1181579375.2
sz300736,百邦科技,2020-12-25,9.07,9.53,9.07,9.23,9.07,3177460.0,29599626.0,748571220.02,1202423112.8
sz300736,百邦科技,2020-12-28,9.23,9.38,8.85,8.9,9.23,2628600.0,23682251.0,721807568.5999999,1159432904.0
sz300736,百邦科技,2020-12-29,8.9,9.2,8.9,9.03,8.9,2979760.0,27041009.0,732350825.22,1176368440.8
sz300736,百邦科技,2020-12-30,9.01,9.13,8.9,9.11,9.03,2328160.0,21060884.0,738838983.1400001,1186790309.6
sz300736,百邦科技,2020-12-31,9.06,9.33,9.02,9.25,9.11,2748740.0,25346013.0,750193259.5,1205028580.0
sz300736,百邦科技,2021-01-04,9.25,9.4,9.12,9.28,9.25,1959740.0,18237184.0,752626318.72,1208936780.8
sz300736,百邦科技,2021-01-05,9.3,9.33,9.01,9.08,9.28,2193200.0,20054871.0,736405923.9200001,1182882108.8
sz300736,百邦科技,2021-01-06,9.05,9.08,8.55,8.64,9.08,3288720.0,28660446.0,700721055.36,1125561830.4
sz300736,百邦科技,2021-01-07,8.64,8.64,8.0,8.08,8.64,3513808.0,28893065.0,655303949.92,1052608748.8
sz300736,百邦科技,2021-01-08,8.17,8.38,7.85,8.05,8.08,2850800.0,23054068.0,652870890.7,1048700548.0
sz300736,百邦科技,2021-01-11,8.05,8.18,7.56,7.63,8.05,2704940.0,21117137.0,971191256.77,993985736.8
sz300736,百邦科技,2021-01-12,7.68,7.87,7.48,7.53,7.63,2955100.0,22600144.0,958462668.87,980958400.8
sz300736,百邦科技,2021-01-13,7.53,7.53,7.0,7.16,7.53,3626370.0,26019966.0,911366893.64,932757257.6
sz300736,百邦科技,2021-01-14,7.18,7.28,7.0,7.16,7.16,2796880.0,20042195.0,911366893.64,932757257.6
sz300736,百邦科技,2021-01-15,7.09,7.5,7.09,7.49,7.16,3587500.0,26429857.0,953371233.71,975747466.4
sz300736,百邦科技,2021-01-18,7.49,7.77,7.48,7.74,7.49,2973000.0,22778110.0,985192703.46,1008315806.4
sz300736,百邦科技,2021-01-19,7.83,8.18,7.7,8.03,7.74,4312600.0,34290744.0,1022105608.37,1046095080.8
sz300736,百邦科技,2021-01-20,8.21,8.54,7.82,7.9,8.03,4743203.0,38325249.0,1005558444.1,1029159544.0
sz300736,百邦科技,2021-01-21,7.72,7.98,7.72,7.84,7.9,3301760.0,25920023.0,997921291.36,1021343142.4
sz300736,百邦科技,2021-01-22,7.88,7.88,7.5,7.51,7.84,2446820.0,18628277.0,955916951.29,978352933.6
sz300736,百邦科技,2021-01-25,7.59,7.59,7.15,7.17,7.51,2626240.0,19070196.0,912639752.43,934059991.2
sz300736,百邦科技,2021-01-26,7.14,7.28,7.05,7.17,7.17,1939324.0,13934369.0,912639752.43,934059991.2
sz300736,百邦科技,2021-01-27,7.13,7.36,7.13,7.2,7.17,2504840.0,18160848.0,916458328.8,937968192.0
sz300736,百邦科技,2021-01-28,7.19,7.39,7.12,7.26,7.2,2331500.0,16977192.0,924095481.54,945784593.6
sz300736,百邦科技,2021-01-29,7.37,7.4,7.07,7.11,7.26,2597887.0,18697076.0,905002599.69,926243589.6
sz300736,百邦科技,2021-02-01,7.01,7.33,6.97,7.15,7.11,2288240.0,16206657.0,910094034.85,931454524.0
sz300736,百邦科技,2021-02-02,7.15,7.2,7.02,7.09,7.15,1572300.0,11168761.0,902456882.11,923638122.4
sz300736,百邦科技,2021-02-03,7.07,7.07,6.75,6.76,7.09,1897160.0,13000848.0,860452542.04,880647913.6
sz300736,百邦科技,2021-02-04,6.72,6.9,6.49,6.63,6.76,2308360.0,15419767.0,843905377.7700001,863712376.8000001
sz300736,百邦科技,2021-02-05,6.68,6.79,6.47,6.47,6.63,1674400.0,11093058.0,823539637.13,842868639.2
sz300736,百邦科技,2021-02-08,6.49,6.5,6.19,6.37,6.47,1706280.0,10812228.0,810811049.23,829841303.1999999
sz300736,百邦科技,2021-02-09,6.3,6.51,6.3,6.48,6.37,1250660.0,8023752.0,824812495.92,844171372.8
sz300736,百邦科技,2021-02-10,6.5,6.66,6.45,6.6,6.48,1368820.0,9001187.0,840086801.4,859804176.0
sz300736,百邦科技,2021-02-18,6.78,6.91,6.65,6.88,6.6,1737060.0,11863373.0,875726847.52,896280716.8
sz300736,百邦科技,2021-02-19,6.81,7.26,6.81,7.19,6.88,2295132.0,16268253.0,915185470.01,936665458.4
sz300736,百邦科技,2021-02-22,7.2,7.66,7.18,7.43,7.19,2821500.0,20989871.0,945734080.97,967931064.8
sz300736,百邦科技,2021-02-23,7.44,7.48,7.19,7.32,7.43,2124120.0,15625467.0,931732634.28,953600995.2
sz300736,百邦科技,2021-02-24,7.32,7.7,7.23,7.6,7.32,3921520.0,29474529.0,967372680.4,990077536.0
sz300736,百邦科技,2021-02-25,7.63,7.75,7.38,7.38,7.6,3052920.0,22969932.0,939369787.02,961417396.8
sz300736,百邦科技,2021-02-26,7.25,7.75,7.25,7.61,7.38,3079740.0,23355440.0,968645539.19,991380269.6
sz300736,百邦科技,2021-03-01,7.75,8.07,7.71,8.05,7.61,3583179.0,28455668.0,1024651325.95,1048700548.0
sz300736,百邦科技,2021-03-02,8.02,8.02,7.78,7.89,8.05,1973660.0,15517737.0,1004285585.31,1027856810.4
sz300736,百邦科技,2021-03-03,7.82,8.03,7.79,8.01,7.89,1777000.0,14073199.0,1019559890.79,1043489613.6
sz300736,百邦科技,2021-03-04,8.18,8.18,7.91,8.0,8.01,1620460.0,12987424.0,1018287032.0,1042186880.0
sz300736,百邦科技,2021-03-05,7.92,8.37,7.92,8.25,8.0,2294538.0,18846144.0,1050801501.75,1074755220.0
sz300736,百邦科技,2021-03-08,8.39,8.45,8.15,8.17,8.25,1482980.0,12284517.0,1040611911.43,1064333351.2
sz300736,百邦科技,2021-03-09,8.15,8.21,7.76,7.91,8.17,2004380.0,16001290.0,1007495742.89,1030462277.6
sz300736,百邦科技,2021-03-10,7.78,8.05,7.54,7.56,7.91,1735300.0,13343419.0,962916285.24,984866601.6
sz300736,百邦科技,2021-03-11,7.69,7.81,7.49,7.75,7.56,1532900.0,11726570.0,987116562.25,1009618540.0
sz300736,百邦科技,2021-03-12,7.91,7.93,7.53,7.64,7.75,1690000.0,12954683.0,973105875.56,995288470.4
sz300736,百邦科技,2021-03-15,7.61,7.91,7.58,7.64,7.64,2017080.0,15563619.0,973105875.56,995288470.4
sz300736,百邦科技,2021-03-16,7.55,8.03,7.55,7.93,7.64,1876900.0,14784378.0,1010043140.47,1033067744.8
sz300736,百邦科技,2021-03-17,7.91,8.1,7.81,7.92,7.93,1812200.0,14444177.0,1008769441.68,1031765011.2
sz300736,百邦科技,2021-03-18,7.99,7.99,7.77,7.8,7.92,1686200.0,13203929.0,993485056.2,1016132208.0
sz300736,百邦科技,2021-03-19,7.8,7.95,7.7,7.74,7.8,1344278.0,10517547.0,985842863.46,1008315806.4
sz300736,百邦科技,2021-03-22,7.85,7.85,7.62,7.77,7.74,1585460.0,12268917.0,989663959.83,1012224007.2
sz300736,百邦科技,2021-03-23,7.77,7.8,7.51,7.6,7.77,1347500.0,10260248.0,968011080.4,990077536.0
sz300736,百邦科技,2021-03-24,7.6,7.64,7.42,7.48,7.6,1029880.0,7738579.0,952726694.92,974444732.8
sz300736,百邦科技,2021-03-25,7.39,7.62,7.33,7.4,7.48,1635100.0,12233045.0,942537104.6,964022864.0
sz300736,百邦科技,2021-03-26,7.39,7.54,7.35,7.48,7.4,1334440.0,9959012.0,952726694.92,974444732.8
sz300736,百邦科技,2021-03-29,7.5,7.6,7.35,7.49,7.48,1369900.0,10236704.0,954000393.71,975747466.4
sz300736,百邦科技,2021-03-30,7.5,7.51,7.14,7.15,7.49,1729200.0,12535222.0,910694634.85,931454524.0
sz300736,百邦科技,2021-03-31,7.17,7.47,7.09,7.35,7.15,1931820.0,14041876.0,936168610.65,957509196.0
sz300736,百邦科技,2021-04-01,7.36,7.4,7.17,7.2,7.35,991700.0,7183003.0,917063128.8,937968192.0
sz300736,百邦科技,2021-04-02,7.2,7.27,7.13,7.16,7.2,1128300.0,8103242.0,911968333.64,932757257.6
sz300736,百邦科技,2021-04-06,7.18,7.45,7.09,7.39,7.16,1742652.0,12738459.0,941263405.81,962720130.4
sz300736,百邦科技,2021-04-07,7.41,7.69,7.38,7.67,7.39,1491180.0,11253989.0,976926971.93,999196671.2
sz300736,百邦科技,2021-04-08,7.69,7.79,7.38,7.4,7.67,1837500.0,13958603.0,942537104.6,964022864.0
sz300736,百邦科技,2021-04-09,7.4,7.72,7.27,7.65,7.4,2793300.0,20924975.0,974379574.35,996591204.0
sz300736,百邦科技,2021-04-12,7.7,7.7,7.32,7.41,7.65,2334790.0,17405343.0,943810803.39,965325597.6
sz300736,百邦科技,2021-04-13,7.58,7.58,7.35,7.42,7.41,1866440.0,13888839.0,945084502.18,966628331.2
sz300736,百邦科技,2021-04-14,7.43,7.57,7.32,7.49,7.42,1635550.0,12223435.0,954000393.71,975747466.4
sz300736,百邦科技,2021-04-15,7.42,7.73,7.41,7.54,7.49,2438840.0,18503375.0,960368887.66,982261134.4
sz300736,百邦科技,2021-04-16,7.52,7.96,7.52,7.92,7.54,3038432.0,23808710.0,1008769441.68,1031765011.2
sz300736,百邦科技,2021-04-19,7.92,7.97,7.78,7.8,7.92,2446400.0,19187766.0,993485056.2,1016132208.0
sz300736,百邦科技,2021-04-20,7.88,7.98,7.74,7.78,7.8,1920580.0,15099591.0,990937658.62,1013526740.8
sz300736,百邦科技,2021-04-21,7.67,7.8,7.61,7.65,7.78,1181600.0,9082573.0,974379574.35,996591204.0
sz300736,百邦科技,2021-04-22,7.65,7.72,7.54,7.59,7.65,1268580.0,9650419.0,966737381.61,988774802.4
sz300736,百邦科技,2021-04-23,7.67,7.67,7.31,7.36,7.59,1815140.0,13414842.0,937442309.44,958811929.6
sz300736,百邦科技,2021-04-26,7.44,7.46,7.25,7.28,7.36,1537600.0,11277767.0,927252719.12,948390060.8
sz300736,百邦科技,2021-04-27,7.38,7.6,7.08,7.34,7.28,2738520.0,20018846.0,934894911.86,956206462.4
sz300736,百邦科技,2021-04-28,7.15,7.41,7.13,7.36,7.34,1385244.0,10091513.0,937442309.44,958811929.6
sz300736,百邦科技,2021-04-29,7.43,7.8,7.05,7.65,7.36,3773720.0,28521857.0,974379574.35,996591204.0
sz300736,百邦科技,2021-04-30,7.52,7.66,7.28,7.32,7.65,2221256.0,16542768.0,932347514.28,953600995.2
sz300736,百邦科技,2021-05-06,7.37,7.67,7.23,7.47,7.32,2274636.0,17117511.0,951452996.13,973141999.2
sz300736,百邦科技,2021-05-07,7.46,7.62,7.36,7.62,7.47,1840000.0,13822409.0,970558477.98,992683003.2
sz300736,百邦科技,2021-05-10,7.6,7.88,7.6,7.76,7.62,3020516.0,23322614.0,988390261.04,1010921273.6
sz300736,百邦科技,2021-05-11,7.65,7.8,7.6,7.74,7.76,2662060.0,20501812.0,985842863.46,1008315806.4
sz300736,百邦科技,2021-05-12,7.66,7.87,7.63,7.86,7.74,2363740.0,18372586.0,1001127248.94,1023948609.6
sz300736,百邦科技,2021-05-13,7.79,8.12,7.75,7.95,7.86,3713300.0,29686902.0,1012590538.05,1035673212.0
sz300736,百邦科技,2021-05-14,7.88,8.64,7.88,8.51,7.95,5985980.0,50094120.0,1083917670.29,1108626293.6
sz300736,百邦科技,2021-05-17,8.51,8.51,8.12,8.17,8.51,4199020.0,34600668.0,1040611911.43,1064333351.2
sz300736,百邦科技,2021-05-18,8.17,8.17,7.96,8.15,8.17,2252840.0,18216638.0,1038064513.85,1061727884.0
sz300736,百邦科技,2021-05-19,8.15,8.46,8.05,8.46,8.15,3396204.0,28145522.0,1077549176.34,1102112625.6
sz300736,百邦科技,2021-05-20,8.32,8.82,8.16,8.75,8.46,5228584.0,44826096.0,1114486441.25,1139891900.0
sz300736,百邦科技,2021-05-21,8.84,9.26,8.7,9.09,8.75,7836904.0,70809306.0,1157792200.11,1184184842.4
sz300736,百邦科技,2021-05-24,9.0,9.46,8.87,9.42,9.09,6324540.0,58344545.0,1199824260.18,1227175051.2
sz300736,百邦科技,2021-05-25,9.35,10.8,9.26,10.73,9.42,11914255.0,120002771.0,1366678801.67,1397833152.8000002
sz300736,百邦科技,2021-05-26,10.3,10.79,10.14,10.57,10.73,10276719.0,107655602.0,1346299621.03,1376989415.2
sz300736,百邦科技,2021-05-27,10.22,10.62,9.95,10.59,10.57,9505979.0,97571104.0,1348847018.61,1379594882.4
sz300736,百邦科技,2021-05-28,10.32,11.66,10.32,11.5,10.59,11279244.0,125381057.0,1464753608.5,1498143640.0
sz300736,百邦科技,2021-05-31,11.3,11.98,11.05,11.73,11.5,8516979.0,98311702.0,1494048680.67,1528106512.8
sz300736,百邦科技,2021-06-01,11.42,11.55,11.15,11.39,11.73,6241320.0,70941107.0,1450742921.81,1483813570.4
sz300736,百邦科技,2021-06-02,11.27,11.86,10.92,11.67,11.39,7239864.0,82524390.0,1486406487.93,1520290111.2
sz300736,百邦科技,2021-06-03,11.75,11.77,11.14,11.2,11.67,4375120.0,49632174.0,1426542644.8000002,1459061632.0
sz300736,百邦科技,2021-06-04,11.0,11.56,10.82,11.45,11.2,4001800.0,45310189.0,1458385114.55,1491629972.0000002
sz300736,百邦科技,2021-06-07,11.35,13.74,11.35,13.0,11.45,11075868.0,142830093.0,1655808427.0,1693553679.9999998
sz300736,百邦科技,2021-06-08,12.72,12.94,12.25,12.5,13.0,7227926.0,91146374.0,1592123487.5,1628417000.0
sz300736,百邦科技,2021-06-09,12.47,12.66,11.97,12.1,12.5,4119600.0,50071573.0,1541175535.9,1576307656.0000002
sz300736,百邦科技,2021-06-10,12.1,12.44,11.9,12.07,12.1,3932700.0,47654787.0,1537354439.5300002,1572399455.2
sz300736,百邦科技,2021-06-11,12.07,13.5,11.99,12.96,12.07,7408156.0,95280251.0,1650713631.84,1688342745.6
sz300736,百邦科技,2021-06-15,12.7,13.29,12.08,12.42,12.96,5178360.0,64316660.0,1581933897.1799998,1617995131.1999998
sz300736,百邦科技,2021-06-16,12.04,12.62,12.04,12.13,12.42,3301860.0,40630678.0,1544996632.2700002,1580215856.8
sz300736,百邦科技,2021-06-17,12.38,12.55,11.55,11.7,12.13,3470720.0,41571346.0,1490227584.3,1524198311.9999998
sz300736,百邦科技,2021-06-18,11.7,12.62,11.57,12.13,11.7,4930720.0,60276144.0,1544996632.2700002,1580215856.8
sz300736,百邦科技,2021-06-21,12.12,12.54,12.0,12.39,12.13,4133420.0,50927348.0,1578112800.81,1614086930.4
sz300736,百邦科技,2021-06-22,12.75,12.88,11.96,12.16,12.39,3013100.0,36815993.0,1548817728.64,1584124057.6
sz300736,百邦科技,2021-06-23,12.16,12.26,11.4,11.61,12.16,4111400.0,48031348.0,1478764295.19,1512473709.6
sz300736,百邦科技,2021-06-24,11.6,11.76,10.85,10.96,11.61,3664920.0,40498008.0,1395973873.84,1427796025.6
sz300736,百邦科技,2021-06-25,10.96,11.0,10.37,10.54,10.96,3342520.0,35395984.0,1342478524.66,1373081214.4
sz300736,百邦科技,2021-06-28,10.44,11.15,10.39,11.0,10.54,3370620.0,36928628.0,1401068669.0,1433006960.0
sz300736,百邦科技,2021-06-29,11.0,11.42,10.88,11.06,11.0,2043040.0,22701603.0,1408710861.74,1440823361.6
sz300736,百邦科技,2021-06-30,11.0,13.27,10.92,11.16,11.06,9783684.0,113744877.0,1421447849.64,1453850697.6
sz300736,百邦科技,2021-07-01,10.8,11.12,10.24,10.35,11.16,6782100.0,71363388.0,1318278247.65,1348329276.0
sz300736,百邦科技,2021-07-02,10.27,10.51,10.16,10.39,10.35,3379928.0,34989099.0,1323373042.81,1353540210.4
sz300736,百邦科技,2021-07-05,10.42,11.35,10.42,11.26,10.39,4846220.0,53650249.0,1434184837.54,1466878033.6
sz300736,百邦科技,2021-07-06,11.49,11.58,10.76,10.93,11.26,3339400.0,36490648.0,1392152777.4699998,1423887824.8
sz300736,百邦科技,2021-07-07,10.74,10.96,10.62,10.69,10.93,2120980.0,22748191.0,1361584006.51,1392622218.4
sz300736,百邦科技,2021-07-08,10.73,10.91,10.33,10.42,10.69,2014340.0,21078911.0,1327194139.18,1357448411.2
sz300736,百邦科技,2021-07-09,10.42,10.63,10.17,10.38,10.42,1740020.0,18053359.0,1322099344.0200002,1352237476.8
sz300736,百邦科技,2021-07-12,10.38,11.05,10.18,10.79,10.38,4032260.0,43098427.0,1374320994.41,1405649554.4
sz300736,百邦科技,2021-07-13,10.79,11.28,10.67,11.13,10.79,2748400.0,30414706.0,1417626753.27,1449942496.8000002
sz300736,百邦科技,2021-07-14,11.11,11.11,10.66,10.72,11.13,2063200.0,22313369.0,1365405102.88,1396530419.1999998
sz300736,百邦科技,2021-07-15,10.56,10.74,10.1,10.14,10.72,2309872.0,23697082.0,1291530573.06,1320971870.4
sz300736,百邦科技,2021-07-16,10.14,10.28,9.94,10.1,10.14,1375640.0,13901246.0,1286435777.9,1315760936.0
sz300736,百邦科技,2021-07-19,10.72,10.72,9.7,10.15,10.1,2376675.0,23779320.0,1292804271.85,1322274604.0
sz300736,百邦科技,2021-07-20,10.02,10.25,9.9,10.23,10.15,1586000.0,15918856.0,1302993862.17,1332696472.8
sz300736,百邦科技,2021-07-21,10.2,10.64,10.12,10.55,10.23,2006840.0,21018264.0,1343752223.4499998,1374383948.0
sz300736,百邦科技,2021-07-22,10.55,11.18,10.54,10.94,10.55,2448700.0,26712208.0,1393426476.26,1425190558.4
sz300736,百邦科技,2021-07-23,10.95,10.97,10.3,10.38,10.94,2297080.0,24239402.0,1322099344.0200002,1352237476.8
sz300736,百邦科技,2021-07-26,10.07,10.46,10.01,10.38,10.38,2187100.0,22414369.0,1322099344.0200002,1352237476.8
sz300736,百邦科技,2021-07-27,10.33,10.49,10.0,10.02,10.38,1637920.0,16618596.0,1276246187.58,1305339067.2
sz300736,百邦科技,2021-07-28,10.0,10.09,9.14,9.8,10.02,1677600.0,16403803.0,1248224814.2,1276678928.0
sz300736,百邦科技,2021-07-29,9.8,10.32,9.8,10.29,9.8,1446100.0,14709850.0,1310636054.9099998,1340512874.4
sz300736,百邦科技,2021-07-30,10.14,10.54,10.11,10.5,10.29,1723836.0,17945302.0,1337383729.5,1367870280.0
sz300736,百邦科技,2021-08-02,10.5,10.85,10.25,10.74,10.5,2228400.0,23772027.0,1367952500.46,1399135886.4
sz300736,百邦科技,2021-08-03,10.94,11.0,10.66,10.74,10.74,1900600.0,20525157.0,1367952500.46,1399135886.4
sz300736,百邦科技,2021-08-04,10.73,11.06,10.72,11.04,10.74,2165340.0,23641933.0,1406163464.1599998,1438217894.4
sz300736,百邦科技,2021-08-05,11.08,11.16,10.58,10.7,11.04,1629960.0,17564248.0,1362857705.3000002,1393924952.0
sz300736,百邦科技,2021-08-06,10.46,10.93,10.46,10.86,10.7,1382400.0,14918408.0,1383236885.94,1414768689.6
sz300736,百邦科技,2021-08-09,10.99,10.99,10.5,10.64,10.86,1201540.0,12775109.0,1355215512.56,1386108550.4
sz300736,百邦科技,2021-08-10,10.65,10.88,10.59,10.72,10.64,1186780.0,12745339.0,1365405102.88,1396530419.1999998
sz300736,百邦科技,2021-08-11,10.65,10.72,10.42,10.65,10.72,1183896.0,12535620.0,1356489211.35,1387411283.9999998
sz300736,百邦科技,2021-08-12,10.74,10.76,10.5,10.57,10.65,1047316.0,11116424.0,1346299621.03,1376989415.2
sz300736,百邦科技,2021-08-13,10.58,10.73,10.32,10.63,10.57,1263060.0,13272294.0,1353941813.77,1384805816.8
sz300736,百邦科技,2021-08-16,10.61,10.78,10.46,10.78,10.63,1201500.0,12790657.0,1373047295.62,1404346820.8
sz300736,百邦科技,2021-08-17,10.9,10.9,9.92,9.99,10.78,2851840.0,29119928.0,1272425091.21,1301430866.4
sz300736,百邦科技,2021-08-18,10.09,10.36,10.0,10.19,9.99,1205800.0,12194029.0,1297899067.01,1327485538.4
sz300736,百邦科技,2021-08-19,10.26,10.26,10.0,10.04,10.19,722360.0,7305643.0,1278793585.1599998,1307944534.4
sz300736,百邦科技,2021-08-20,9.99,10.16,9.79,10.06,10.04,1248159.0,12473545.0,1281340982.74,1310550001.6
sz300736,百邦科技,2021-08-23,10.05,10.7,10.0,10.66,10.06,1994620.0,20978879.0,1357762910.14,1388714017.6
sz300736,百邦科技,2021-08-24,10.73,11.77,10.51,11.32,10.66,4060779.0,45759556.0,1441827030.28,1474694435.2
sz300736,百邦科技,2021-08-25,11.32,11.74,10.81,10.91,11.32,3637959.0,40658240.0,1389605379.89,1421282357.6
sz300736,百邦科技,2021-08-26,10.92,11.08,10.68,10.74,10.91,2029539.0,21958455.0,1367952500.46,1399135886.4
sz300736,百邦科技,2021-08-27,10.74,10.86,10.22,10.71,10.74,3083080.0,32362150.0,1117880336.79,1395227685.6
sz300736,百邦科技,2021-08-30,10.71,11.34,10.7,11.23,10.71,2837100.0,31521551.0,1172156506.27,1462969832.8
sz300736,百邦科技,2021-08-31,11.24,11.36,10.82,11.13,11.23,2136311.0,23523925.0,1161718781.37,1449942496.8000002
sz300736,百邦科技,2021-09-01,11.13,11.37,10.72,11.27,11.13,2740819.0,30337663.0,1176331596.23,1468180767.2
sz300736,百邦科技,2021-09-02,11.03,11.62,11.03,11.25,11.27,2684120.0,30575369.0,1174244051.25,1465575300.0
sz300736,百邦科技,2021-09-03,11.36,11.92,11.21,11.92,11.25,3807810.0,44463813.0,1244176808.0800002,1552858451.2
sz300736,百邦科技,2021-09-06,11.81,12.31,11.6,12.23,11.92,6465040.0,77693000.0,1276533755.27,1593243192.8
sz300736,百邦科技,2021-09-07,12.2,12.26,11.88,11.96,12.23,3509620.0,42311948.0,1248351898.04,1558069385.6
sz300736,百邦科技,2021-09-08,11.97,12.02,11.78,11.82,11.96,2951920.0,35109741.0,1233739083.18,1539831115.2
sz300736,百邦科技,2021-09-09,11.8,12.24,11.63,12.04,11.82,2530980.0,30379135.0,1256702077.96,1568491254.4
sz300736,百邦科技,2021-09-10,12.0,12.21,11.71,11.99,12.04,2211302.0,26490673.0,1251598319.51,1561977586.4
sz300736,百邦科技,2021-09-13,11.9,12.25,11.7,11.91,11.99,1916100.0,22879196.0,1243247371.59,1551555717.6
sz300736,百邦科技,2021-09-14,11.91,12.46,11.52,11.8,11.91,2985060.0,35631451.0,1231764818.2,1537225648.0
sz300736,百邦科技,2021-09-15,11.8,12.35,11.43,11.6,11.8,2683060.0,31457456.0,1210887448.4,1511170976.0
sz300736,百邦科技,2021-09-16,11.49,11.85,11.38,11.58,11.6,1875160.0,21892257.0,1208799711.4199998,1508565508.8
sz300736,百邦科技,2021-09-17,11.57,11.78,11.3,11.56,11.58,1655100.0,19062128.0,1206711974.44,1505960041.6
sz300736,百邦科技,2021-09-22,11.56,11.71,11.16,11.48,11.56,1244120.0,14143471.0,1198361026.52,1495538172.8
sz300736,百邦科技,2021-09-23,11.5,12.11,11.41,11.89,11.48,1645680.0,19545102.0,1241159634.61,1548950250.4
sz300736,百邦科技,2021-09-24,11.88,12.05,11.53,11.6,11.89,1075500.0,12555246.0,1210887448.4,1511170976.0
sz300736,百邦科技,2021-09-27,11.6,11.76,11.0,11.07,11.6,1378380.0,15545142.0,1155562418.43,1442126095.2
sz300736,百邦科技,2021-09-28,10.7,11.33,10.7,11.18,11.07,1188700.0,13205550.0,1167044971.8200002,1456456164.8
sz300736,百邦科技,2021-09-29,11.15,11.41,10.5,10.7,11.18,932300.0,10070792.0,1116939284.3,1393924952.0
sz300736,百邦科技,2021-09-30,10.64,11.81,10.62,11.63,10.7,1848020.0,21165785.0,1214019053.87,1515079176.8000002
sz300736,百邦科技,2021-10-08,11.98,12.24,11.55,12.0,11.63,2251340.0,26894363.0,1252642188.0,1563280320.0
sz300736,百邦科技,2021-10-11,11.98,12.3,11.83,11.94,12.0,1046240.0,12553797.0,1246378977.06,1555463918.4
sz300736,百邦科技,2021-10-12,12.09,12.19,11.53,11.63,11.94,984180.0,11509916.0,1214019053.87,1515079176.8000002
sz300736,百邦科技,2021-10-13,11.65,12.19,11.64,11.93,11.63,1085160.0,12940539.0,1245335108.57,1554161184.8
sz300736,百邦科技,2021-10-14,11.88,12.18,11.16,11.95,11.93,1360420.0,16179937.0,1247422845.55,1556766652.0
sz300736,百邦科技,2021-10-15,11.94,12.14,11.69,12.06,11.95,1690731.0,20253504.0,1258905398.94,1571096721.6
sz300736,百邦科技,2021-10-18,12.06,12.98,11.71,12.7,12.06,4411696.0,54934389.0,1325712982.3,1654471672.0
sz300736,百邦科技,2021-10-19,12.71,12.78,12.34,12.42,12.7,2663060.0,33208661.0,1296484664.58,1617995131.1999998
sz300736,百邦科技,2021-10-20,12.5,12.9,12.38,12.5,12.42,2981780.0,37708145.0,1304835612.5,1628417000.0
sz300736,百邦科技,2021-10-21,12.49,12.83,12.08,12.15,12.5,2545011.0,31484446.0,1268300215.35,1582821324.0
sz300736,百邦科技,2021-10-22,12.4,12.59,11.62,11.85,12.15,2608111.0,31238149.0,1236984160.65,1543739316.0
sz300736,百邦科技,2021-10-25,11.85,12.6,11.5,12.38,11.85,3239620.0,39518459.0,1292309190.62,1612784196.8
sz300736,百邦科技,2021-10-26,12.38,12.38,11.2,11.38,12.38,3818360.0,44464842.0,1187922341.62,1482510836.8000002
sz300736,百邦科技,2021-10-27,11.4,12.33,11.14,11.57,11.38,2467600.0,28549748.0,1208422274.93,1507262775.2
sz300736,百邦科技,2021-10-28,11.56,11.56,10.85,11.08,11.57,2840748.0,31741103.0,1156582187.92,1443428828.8
sz300736,百邦科技,2021-10-29,10.95,11.99,10.89,11.75,11.08,4332109.0,50258448.0,1226519919.5,1530711980.0
sz300736,百邦科技,2021-11-01,11.73,12.9,11.73,12.87,11.75,6759980.0,84753155.0,1343430754.38,1676618143.2
sz300736,百邦科技,2021-11-02,12.8,13.2,12.58,13.0,12.87,5590420.0,71950498.0,1357000762.0,1693553679.9999998
sz300736,百邦科技,2021-11-03,12.89,13.2,12.74,13.05,13.0,4102780.0,53381352.0,1362219995.7,1700067348.0
sz300736,百邦科技,2021-11-04,13.04,13.1,12.36,12.5,13.05,6413420.0,81725031.0,1304808425.0,1628417000.0
sz300736,百邦科技,2021-11-05,12.63,14.43,12.5,12.86,12.5,7090620.0,91718057.0,1342386907.64,1675315409.6
sz300736,百邦科技,2021-11-08,12.85,13.05,12.52,12.71,12.86,3696700.0,47369309.0,1326729206.54,1655774405.6
sz300736,百邦科技,2021-11-09,12.9,12.99,12.55,12.87,12.71,3482300.0,44741940.0,1343430754.38,1676618143.2
sz300736,百邦科技,2021-11-10,12.88,13.56,12.82,13.56,12.87,4118200.0,54430309.0,1415456179.44,1766506761.6
sz300736,百邦科技,2021-11-11,13.41,13.83,13.13,13.6,13.56,3618160.0,48720326.0,1419631566.4,1771717696.0
sz300736,百邦科技,2021-11-12,13.42,13.75,13.28,13.44,13.6,2419840.0,32549844.0,1402930018.56,1750873958.4
sz300736,百邦科技,2021-11-15,13.41,14.0,13.13,13.85,13.44,3326200.0,45482700.0,1445727734.9,1804286036.0
sz300736,百邦科技,2021-11-16,13.88,13.88,12.79,12.9,13.85,4615840.0,60763797.0,1346562294.6,1680526344.0
sz300736,百邦科技,2021-11-17,12.89,13.28,12.71,13.22,12.9,3208240.0,41841353.0,1379965390.28,1722213819.2
sz300736,百邦科技,2021-11-18,13.2,13.39,12.8,12.81,13.22,2392200.0,30973122.0,1337167673.94,1668801741.6
sz300736,百邦科技,2021-11-19,12.87,13.13,12.75,12.84,12.81,1476140.0,19011682.0,1340299214.16,1672709942.4
sz300736,百邦科技,2021-11-22,12.99,13.09,12.26,12.42,12.84,2683440.0,33274779.0,1296457651.0800002,1617995131.1999998
sz300736,百邦科技,2021-11-23,12.39,12.49,12.15,12.38,12.42,1532116.0,18825965.0,1292282264.1200001,1612784196.8
sz300736,百邦科技,2021-11-24,12.35,12.42,12.15,12.36,12.38,1403600.0,17227173.0,1290194570.64,1610178729.6000001
sz300736,百邦科技,2021-11-25,12.46,12.54,12.09,12.1,12.36,1427260.0,17453845.0,1263054555.3999999,1576307656.0000002
sz300736,百邦科技,2021-11-26,12.1,12.38,12.03,12.3,12.1,1435320.0,17582731.0,1283931490.2,1602362328.0
sz300736,百邦科技,2021-11-29,12.22,12.24,11.85,11.98,12.3,1248740.0,15009590.0,1250528394.52,1560674852.8
sz300736,百邦科技,2021-11-30,11.98,12.34,11.98,12.18,11.98,1332679.0,16270477.0,1271405329.32,1586729524.8000002
sz300736,百邦科技,2021-12-01,12.06,12.33,11.94,12.31,12.18,963239.0,11768805.0,1284975336.94,1603665061.6
sz300736,百邦科技,2021-12-02,12.34,12.38,12.06,12.07,12.31,1029400.0,12480685.0,1259923015.1799998,1572399455.2
sz300736,百邦科技,2021-12-03,12.07,12.22,11.8,11.88,12.07,1182400.0,14103437.0,1240089927.1200001,1547647516.8
sz300736,百邦科技,2021-12-06,11.88,11.88,11.38,11.44,11.88,1886480.0,21776967.0,1194160670.56,1490327238.3999999
sz300736,百邦科技,2021-12-07,11.6,11.64,11.38,11.5,11.44,845000.0,9701071.0,1200423751.0,1498143640.0
sz300736,百邦科技,2021-12-08,11.5,12.03,11.45,11.89,11.5,1392340.0,16443783.0,1241160526.36,1547282606.56
sz300736,百邦科技,2021-12-09,11.89,12.0,11.75,11.98,11.89,726660.0,8647638.0,1250555349.52,1558994585.92
sz300736,百邦科技,2021-12-10,12.08,12.09,11.78,12.01,11.98,1022791.0,12188457.0,1253686957.24,1562898579.04
sz300736,百邦科技,2021-12-13,12.04,12.14,11.96,12.1,12.01,1258580.0,15159347.0,1263081780.4,1574610558.3999999
sz300736,百邦科技,2021-12-14,12.1,12.18,12.02,12.17,12.1,1023571.0,12412876.0,1270388865.08,1583719875.68
sz300736,百邦科技,2021-12-15,12.15,12.37,11.93,12.01,12.17,1083851.0,13168758.0,1253686957.24,1562898579.04
sz300736,百邦科技,2021-12-16,12.0,12.15,11.92,12.12,12.01,797151.0,9629194.0,1265169518.8799999,1577213220.48
sz300736,百邦科技,2021-12-17,12.14,12.21,12.01,12.03,12.12,739838.0,8946927.0,1255774695.72,1565501241.12
sz300736,百邦科技,2021-12-20,11.99,12.22,11.87,12.1,12.03,1191520.0,14353008.0,1263081780.4,1574610558.3999999
sz300736,百邦科技,2021-12-21,12.1,12.16,11.92,12.12,12.1,829160.0,9995270.0,1265169518.8799999,1577213220.48
sz300736,百邦科技,2021-12-22,12.12,12.4,12.05,12.39,12.12,1495488.0,18385323.0,1293353988.36,1612349158.5600002
sz300736,百邦科技,2021-12-23,12.36,12.36,12.0,12.07,12.39,1198600.0,14494514.0,1259950172.68,1570706565.28
sz300736,百邦科技,2021-12-24,12.01,12.07,11.16,11.33,12.07,2439780.0,28035568.0,1182703848.92,1474408068.32
sz300736,百邦科技,2021-12-27,11.49,11.49,11.05,11.29,11.33,906487.0,10177583.0,1178528371.96,1469202744.16
sz300736,百邦科技,2021-12-28,11.29,11.5,11.17,11.45,11.29,505338.0,5754501.0,1195230279.8,1490024040.8000002
sz300736,百邦科技,2021-12-29,11.43,11.5,11.19,11.31,11.45,655980.0,7431516.0,1180616110.44,1471805406.2399998
sz300736,百邦科技,2021-12-30,11.36,11.62,11.3,11.48,11.31,645520.0,7426765.0,1198361887.52,1493928033.92
sz300736,百邦科技,2021-12-31,11.46,11.75,11.43,11.64,11.48,990440.0,11534084.0,1215063795.36,1514749330.5600002
sz300736,百邦科技,2022-01-04,11.91,12.0,11.5,11.94,11.64,1071435.0,12725720.0,1246379872.56,1553789261.76
sz300736,百邦科技,2022-01-05,11.87,12.36,11.8,12.0,11.94,2033240.0,24550498.0,1252643088.0,1561597248.0
sz300736,百邦科技,2022-01-06,11.96,12.07,11.77,12.0,12.0,922740.0,11010980.0,1252643088.0,1561597248.0
sz300736,百邦科技,2022-01-07,11.85,12.06,11.75,11.98,12.0,942759.0,11221209.0,1250555349.52,1558994585.92
sz300736,百邦科技,2022-01-10,11.88,12.32,11.5,12.14,11.98,1847880.0,22223364.0,1267257257.36,1579815882.56
sz300736,百邦科技,2022-01-11,12.14,12.6,12.07,12.25,12.14,1597718.0,19631731.0,1278739819.0,1594130523.9999998
sz300736,百邦科技,2022-01-12,12.25,12.45,12.17,12.34,12.25,1127255.0,13928327.0,1288134642.1599998,1605842503.36
sz300736,百邦科技,2022-01-13,12.34,12.77,12.21,12.51,12.34,2176100.0,27209173.0,1305880419.24,1627965131.0400002
sz300736,百邦科技,2022-01-14,12.51,12.66,12.2,12.23,12.51,1341004.0,16612959.0,1276652080.52,1591527861.92
