数据由邢不行整理
股票代码,股票名称,交易日期,开盘价,最高价,最低价,收盘价,前收盘价,成交量,成交额,流通市值,总市值
sz300913,N兆龙,2020-12-07,46.0,49.0,41.7,42.02,13.21,20560984.0,912909773.0,1220577840.9,5147450000.0
sz300913,C兆龙,2020-12-08,43.81,46.49,42.52,44.02,42.02,16856537.0,747525731.0,1278672930.9,5392450000.0
sz300913,C兆龙,2020-12-09,43.0,53.34,43.0,49.56,44.02,19413557.0,936002244.0,1439596330.2,6071100000.0
sz300913,C兆龙,2020-12-10,46.65,47.5,42.55,43.12,49.56,15659460.0,700870376.0,1252530140.4,5282200000.0
sz300913,C兆龙,2020-12-11,41.41,41.52,38.12,39.02,43.12,12850234.0,512194210.0,1133435205.9,4779950000.0
sz300913,兆龙互连,2020-12-14,38.26,42.26,38.26,40.41,39.02,10506631.0,427289562.0,1173811293.45,4950225000.0
sz300913,兆龙互连,2020-12-15,40.41,42.11,38.18,39.7,40.41,10030486.0,398137242.0,1153187536.5,4863250000.0
sz300913,兆龙互连,2020-12-16,38.6,39.45,36.6,36.7,39.7,8550007.0,324140457.0,1066044901.5,4495750000.0
sz300913,兆龙互连,2020-12-17,36.1,39.46,36.01,39.01,36.7,10100992.0,385277630.0,1133144730.45,4778725000.0
sz300913,兆龙互连,2020-12-18,39.51,40.0,37.45,37.68,39.01,7883122.0,302899885.0,1094511495.6,4615800000.0
sz300913,兆龙互连,2020-12-21,36.97,37.46,36.1,36.94,37.68,6111327.0,225172466.0,1073016312.3,4525150000.0
sz300913,兆龙互连,2020-12-22,36.3,37.33,34.63,34.65,36.94,8361643.0,298238001.0,1006497434.25,4244625000.0
sz300913,兆龙互连,2020-12-23,35.2,35.49,34.04,34.36,34.65,5608635.0,194712175.0,998073646.2,4209100000.0
sz300913,兆龙互连,2020-12-24,33.93,34.06,32.51,32.89,34.36,6097615.0,202737182.0,955373755.05,4029025000.0
sz300913,兆龙互连,2020-12-25,32.71,32.9,30.67,31.6,32.89,7688034.0,244688006.0,917902422.0,3871000000.0
sz300913,兆龙互连,2020-12-28,31.18,31.6,29.95,30.26,31.6,5621029.0,171680568.0,878978711.6999999,3706850000.0
sz300913,兆龙互连,2020-12-29,30.51,32.17,30.23,30.53,30.26,7775001.0,242620639.0,886821548.8499999,3739925000.0
sz300913,兆龙互连,2020-12-30,29.8,31.58,29.08,31.17,30.53,6887122.0,210714444.0,905411977.65,3818325000.0
sz300913,兆龙互连,2020-12-31,31.25,32.11,30.64,31.36,31.17,6390137.0,200474772.0,910931011.2,3841600000.0
sz300913,兆龙互连,2021-01-04,30.73,32.15,30.73,31.73,31.36,5302075.0,167501285.0,921678602.85,3886925000.0
sz300913,兆龙互连,2021-01-05,31.7,34.3,30.91,32.93,31.73,8180240.0,266191858.0,956535656.85,4033925000.0
sz300913,兆龙互连,2021-01-06,32.41,32.45,30.35,30.39,32.93,6616925.0,207324224.0,882754892.55,3722775000.0
sz300913,兆龙互连,2021-01-07,29.99,30.3,27.28,27.5,30.39,7519486.0,214313119.0,798807487.5,3368750000.0
sz300913,兆龙互连,2021-01-08,27.41,28.58,26.8,27.58,27.5,4960086.0,138362594.0,801131291.0999999,3378550000.0
sz300913,兆龙互连,2021-01-11,27.65,28.98,26.9,28.27,27.58,5970074.0,167192051.0,821174097.15,3463075000.0
sz300913,兆龙互连,2021-01-12,27.68,28.18,26.51,26.8,28.27,5258985.0,143381904.0,778474206.0,3283000000.0
sz300913,兆龙互连,2021-01-13,26.7,27.35,25.2,25.27,26.8,4846432.0,126585689.0,734031462.15,3095575000.0
sz300913,兆龙互连,2021-01-14,25.67,26.82,25.0,26.12,25.27,5206715.0,136084610.0,758721875.4,3199700000.0
sz300913,兆龙互连,2021-01-15,25.9,29.66,25.71,29.01,26.12,8739823.0,245794349.0,842669280.4499999,3553725000.0
sz300913,兆龙互连,2021-01-18,28.1,29.46,27.66,28.77,29.01,6796040.0,194686607.0,835697869.6500001,3524325000.0
sz300913,兆龙互连,2021-01-19,28.77,33.69,28.6,30.97,28.77,10349901.0,326447121.0,899602468.65,3793825000.0
sz300913,兆龙互连,2021-01-20,30.45,30.96,29.3,30.09,30.97,7523988.0,225072877.0,874040629.05,3686025000.0
sz300913,兆龙互连,2021-01-21,29.36,29.65,28.39,28.56,30.09,5221056.0,150923458.0,829597885.2,3498600000.0
sz300913,兆龙互连,2021-01-22,28.26,29.65,27.28,27.54,28.56,5355296.0,151861710.0,799969389.3000001,3373650000.0
sz300913,兆龙互连,2021-01-25,26.99,28.6,26.5,28.6,27.54,5714692.0,157043698.0,830759787.0000001,3503500000.0
sz300913,兆龙互连,2021-01-26,28.2,29.69,27.17,27.31,28.6,5050762.0,143790028.0,793288453.9499999,3345475000.0
sz300913,兆龙互连,2021-01-27,26.79,27.87,26.67,27.84,27.31,3666509.0,99827109.0,808683652.8,3410400000.0
sz300913,兆龙互连,2021-01-28,27.58,28.49,26.35,26.37,27.84,3703472.0,101145509.0,765983761.65,3230325000.0
sz300913,兆龙互连,2021-01-29,26.3,27.38,26.29,27.03,26.37,3781508.0,101287744.0,785155141.35,3311175000.0
sz300913,兆龙互连,2021-02-01,27.04,31.44,27.04,30.95,27.03,9759449.0,286095637.0,899021517.75,3791375000.0
sz300913,兆龙互连,2021-02-02,29.83,30.4,28.78,28.91,30.95,7447026.0,219907792.0,839764525.9499999,3541475000.0
sz300913,兆龙互连,2021-02-03,28.69,30.59,28.48,30.12,28.91,7579635.0,225508915.0,874912055.4,3689700000.0
sz300913,兆龙互连,2021-02-04,29.4,32.2,28.69,30.76,30.12,8987167.0,275547048.0,893502484.2,3768100000.0
sz300913,兆龙互连,2021-02-05,30.75,30.95,26.52,27.2,30.76,7037390.0,203738127.0,790093224.0,3332000000.0
sz300913,兆龙互连,2021-02-08,27.01,27.2,25.77,25.8,27.2,4599128.0,121366916.0,749426661.0,3160500000.0
sz300913,兆龙互连,2021-02-09,25.8,26.68,25.38,25.96,25.8,3729946.0,97154508.0,754074268.1999999,3180100000.0
sz300913,兆龙互连,2021-02-10,26.01,26.35,24.65,25.05,25.96,4807724.0,121540484.0,727641002.25,3068625000.0
sz300913,兆龙互连,2021-02-18,25.5,26.39,25.24,26.15,25.05,3620285.0,94118387.0,759593301.75,3203375000.0
sz300913,兆龙互连,2021-02-19,26.27,27.14,25.8,26.94,26.15,3552354.0,94211024.0,782540862.3,3300150000.0
sz300913,兆龙互连,2021-02-22,26.74,27.63,26.31,26.5,26.94,4160028.0,112397861.0,769759942.5,3246250000.0
sz300913,兆龙互连,2021-02-23,26.32,28.82,25.9,27.96,26.5,6187548.0,170210831.0,812169358.1999999,3425100000.0
sz300913,兆龙互连,2021-02-24,27.5,27.99,26.86,27.39,27.96,3868632.0,106359843.0,795612257.5500001,3355275000.0
sz300913,兆龙互连,2021-02-25,27.76,28.0,26.19,26.41,27.39,3393238.0,91214046.0,767145663.45,3235225000.0
sz300913,兆龙互连,2021-02-26,25.78,26.97,25.58,26.54,26.41,2675832.0,70914141.0,770921844.3,3251150000.0
sz300913,兆龙互连,2021-03-01,26.62,27.35,26.62,27.04,26.54,2429002.0,65469488.0,785445616.8,3312400000.0
sz300913,兆龙互连,2021-03-02,27.49,27.49,26.08,26.37,27.04,2786314.0,74176233.0,765983761.65,3230325000.0
sz300913,兆龙互连,2021-03-03,26.35,26.58,25.8,26.48,26.37,2065671.0,54322677.0,769178991.6,3243800000.0
sz300913,兆龙互连,2021-03-04,26.45,26.67,25.65,25.74,26.48,2640211.0,68815915.0,747683808.3,3153150000.0
sz300913,兆龙互连,2021-03-05,25.39,26.36,25.35,26.18,25.74,1993829.0,51941244.0,760464728.1,3207050000.0
sz300913,兆龙互连,2021-03-08,26.19,27.53,26.17,26.62,26.18,3709754.0,100135000.0,773245647.9000001,3260950000.0
sz300913,兆龙互连,2021-03-09,26.72,28.1,25.4,26.78,26.62,5002208.0,134832363.0,777893255.0999999,3280550000.0
sz300913,兆龙互连,2021-03-10,26.7,28.78,25.81,28.78,26.78,8342797.0,233302774.0,835988345.1,3525550000.0
sz300913,兆龙互连,2021-03-11,28.35,28.49,27.69,28.31,28.78,5148292.0,144543295.0,822335998.95,3467975000.0
sz300913,兆龙互连,2021-03-12,28.09,28.31,27.68,28.03,28.31,3501164.0,97945886.0,814202686.35,3433675000.0
sz300913,兆龙互连,2021-03-15,27.71,27.71,26.06,26.51,28.03,3644334.0,97853391.0,770050417.9499999,3247475000.0
sz300913,兆龙互连,2021-03-16,26.44,27.02,26.21,26.87,26.51,2383271.0,63660161.0,780507534.15,3291575000.0
sz300913,兆龙互连,2021-03-17,26.65,27.58,26.6,27.44,26.87,2687364.0,72929234.0,797064634.8000001,3361400000.0
sz300913,兆龙互连,2021-03-18,27.45,28.68,27.01,28.35,27.44,4463794.0,124326217.0,823497900.75,3472875000.0
sz300913,兆龙互连,2021-03-19,28.58,29.78,28.08,28.4,28.35,6821754.0,197230706.0,824950278.0,3479000000.0
sz300913,兆龙互连,2021-03-22,28.29,29.68,28.29,29.32,28.4,5964052.0,173888125.0,851674019.4,3591700000.0
sz300913,兆龙互连,2021-03-23,28.91,29.36,28.4,28.78,29.32,4433915.0,127582175.0,835988345.1,3525550000.0
sz300913,兆龙互连,2021-03-24,28.38,28.79,27.63,28.47,28.78,3351146.0,94614848.0,826983606.15,3487575000.0
sz300913,兆龙互连,2021-03-25,28.2,29.13,28.03,29.1,28.47,4032625.0,115378010.0,845283559.5,3564750000.0
sz300913,兆龙互连,2021-03-26,29.0,29.05,28.33,28.44,29.1,2875591.0,82349277.0,826112179.8000001,3483900000.0
sz300913,兆龙互连,2021-03-29,28.2,28.35,27.38,27.47,28.44,2846979.0,78838035.0,797936061.15,3365075000.0
sz300913,兆龙互连,2021-03-30,27.54,27.8,26.58,26.69,27.47,2673750.0,72229663.0,775278976.0500001,3269525000.0
sz300913,兆龙互连,2021-03-31,26.53,26.98,26.28,26.88,26.69,1906520.0,50993236.0,780798009.5999999,3292800000.0
sz300913,兆龙互连,2021-04-01,26.72,27.25,26.58,26.64,26.88,1916410.0,51408905.0,773826598.8000001,3263400000.0
sz300913,兆龙互连,2021-04-02,26.5,27.49,26.45,27.21,26.64,2472184.0,66973771.0,790383699.4499999,3333225000.0
sz300913,兆龙互连,2021-04-06,27.17,28.08,27.1,27.7,27.21,2538870.0,69999568.0,804616996.5,3393250000.0
sz300913,兆龙互连,2021-04-07,27.59,28.6,27.2,28.57,27.7,4340367.0,121785683.0,829888360.65,3499825000.0
sz300913,兆龙互连,2021-04-08,28.88,29.57,28.21,28.41,28.57,6045226.0,174861721.0,825240753.45,3480225000.0
sz300913,兆龙互连,2021-04-09,28.14,29.1,28.11,28.98,28.41,4282429.0,122729975.0,841797854.1,3550050000.0
sz300913,兆龙互连,2021-04-12,28.69,29.26,28.01,28.16,28.98,3062250.0,87412692.0,817978867.1999999,3449600000.0
sz300913,兆龙互连,2021-04-13,28.4,28.57,27.33,27.59,28.16,2514710.0,70301791.0,801421766.5500001,3379775000.0
sz300913,兆龙互连,2021-04-14,27.71,29.2,27.7,28.7,27.59,3716540.0,106261972.0,833664541.5,3515750000.0
sz300913,兆龙互连,2021-04-15,28.55,28.87,27.01,27.2,28.7,3400173.0,94215533.0,790093224.0,3332000000.0
sz300913,兆龙互连,2021-04-16,27.32,29.72,27.26,28.88,27.2,5132400.0,146903477.0,838893099.6,3537800000.0
sz300913,兆龙互连,2021-04-19,28.92,29.35,28.68,29.05,28.88,3730770.0,108237158.0,843831182.25,3558625000.0
sz300913,兆龙互连,2021-04-20,29.43,29.77,28.4,28.57,29.05,3429092.0,99254359.0,829888360.65,3499825000.0
sz300913,兆龙互连,2021-04-21,28.29,30.2,28.09,29.73,28.57,6940153.0,204241797.0,863583512.85,3641925000.0
sz300913,兆龙互连,2021-04-22,29.45,29.8,29.01,29.52,29.73,4620600.0,135740801.0,857483528.4000001,3616200000.0
sz300913,兆龙互连,2021-04-23,28.8,28.86,26.37,26.71,29.52,6613050.0,179571644.0,775859926.9499999,3271975000.0
sz300913,兆龙互连,2021-04-26,26.4,26.94,26.0,26.23,26.71,3047589.0,80432959.0,761917105.35,3213175000.0
sz300913,兆龙互连,2021-04-27,26.21,26.4,25.0,25.37,26.23,2862853.0,72692106.0,736936216.65,3107825000.0
sz300913,兆龙互连,2021-04-28,25.32,25.72,25.2,25.55,25.37,1451550.0,37055062.0,742164774.7500001,3129875000.0
sz300913,兆龙互连,2021-04-29,25.57,25.68,24.86,24.91,25.55,1880881.0,47404109.0,723574345.95,3051475000.0
sz300913,兆龙互连,2021-04-30,24.95,25.1,23.83,23.85,24.91,2561968.0,62058939.0,692783948.25,2921625000.0
sz300913,兆龙互连,2021-05-06,23.99,24.27,23.76,24.05,23.85,1352030.0,32464606.0,698593457.2500001,2946125000.0
sz300913,兆龙互连,2021-05-07,24.25,24.46,24.05,24.16,24.05,1248170.0,30271497.0,701788687.1999999,2959600000.0
sz300913,兆龙互连,2021-05-10,24.18,24.45,23.92,24.27,24.16,1065400.0,25797145.0,704983917.1500001,2973075000.0
sz300913,兆龙互连,2021-05-11,24.27,24.66,24.03,24.66,24.27,1349130.0,33005895.0,716312459.7,3020850000.0
sz300913,兆龙互连,2021-05-12,24.59,24.59,24.22,24.46,24.66,1192946.0,29117342.0,710502950.6999999,2996350000.0
sz300913,兆龙互连,2021-05-13,24.08,24.51,23.88,23.91,24.46,1429075.0,34520535.0,694526800.95,2928975000.0
sz300913,兆龙互连,2021-05-14,24.06,24.96,23.89,24.68,23.91,2116640.0,51719788.0,716893410.6,3023300000.0
sz300913,兆龙互连,2021-05-17,24.57,24.57,24.05,24.4,24.68,1439148.0,34931845.0,708760098.0,2989000000.0
sz300913,兆龙互连,2021-05-18,24.29,24.98,24.2,24.68,24.4,1368856.0,33750691.0,716893410.6,3023300000.0
sz300913,兆龙互连,2021-05-19,24.48,24.88,24.2,24.38,24.68,1478718.0,36118672.0,708179147.1,2986550000.0
sz300913,兆龙互连,2021-05-20,24.36,24.36,23.95,23.95,24.38,1297015.0,31295267.0,695688702.7499999,2933875000.0
sz300913,兆龙互连,2021-05-21,23.98,24.15,23.46,23.57,23.95,1569926.0,37383068.0,684650635.6500001,2887325000.0
sz300913,兆龙互连,2021-05-24,23.56,23.66,22.71,23.1,23.57,2095710.0,48204980.0,670998289.5,2829750000.0
sz300913,兆龙互连,2021-05-25,23.05,23.3,22.84,23.21,23.1,1596432.0,36859117.0,674193519.45,2843225000.0
sz300913,兆龙互连,2021-05-26,23.59,24.98,23.5,24.48,23.21,3720317.0,90870114.0,711083901.5999999,2998800000.0
sz300913,兆龙互连,2021-05-27,24.0,24.5,23.95,24.34,24.48,2154748.0,52201731.0,707017245.3000001,2981650000.0
sz300913,兆龙互连,2021-05-28,24.25,24.6,24.0,24.01,24.34,1806600.0,43915898.0,697431555.45,2941225000.0
sz300913,兆龙互连,2021-05-31,23.88,24.38,23.85,24.37,24.01,1357050.0,32850604.0,707888671.65,2985325000.0
sz300913,兆龙互连,2021-06-01,24.3,24.55,24.08,24.51,24.37,1756377.0,42835448.0,711955327.95,3002475000.0
sz300913,兆龙互连,2021-06-02,24.51,24.75,24.17,24.43,24.51,1742200.0,42604495.0,709631524.3499999,2992675000.0
sz300913,兆龙互连,2021-06-03,24.55,25.62,24.27,24.65,24.43,3518400.0,88076850.0,716021984.25,3019625000.0
sz300913,兆龙互连,2021-06-04,24.26,24.7,23.71,23.78,24.65,2448100.0,58966004.0,690750620.0999999,2913050000.0
sz300913,兆龙互连,2021-06-07,23.26,24.34,23.2,24.14,23.78,2391599.0,57099853.0,739287500.0,2957150000.0
sz300913,兆龙互连,2021-06-08,24.13,24.38,23.77,23.94,24.14,1731692.0,41644347.0,733162500.0,2932650000.0
sz300913,兆龙互连,2021-06-09,24.16,25.05,23.95,24.65,23.94,2466667.0,60794670.0,754906250.0,3019625000.0
sz300913,兆龙互连,2021-06-10,24.46,25.25,24.38,25.02,24.65,2902087.0,72347431.0,766237500.0,3064950000.0
sz300913,兆龙互连,2021-06-11,25.4,25.4,24.61,24.71,25.02,2340290.0,58256308.0,756743750.0,3026975000.0
sz300913,兆龙互连,2021-06-15,24.26,24.98,24.21,24.45,24.71,1746624.0,42752313.0,748781250.0,2995125000.0
sz300913,兆龙互连,2021-06-16,24.4,24.86,23.78,23.81,24.45,1811400.0,44104873.0,729181250.0,2916725000.0
sz300913,兆龙互连,2021-06-17,23.81,24.16,23.4,24.09,23.81,1756947.0,41771213.0,737756250.0,2951025000.0
sz300913,兆龙互连,2021-06-18,24.81,28.91,24.81,28.91,24.09,6997083.0,196142545.0,885368750.0,3541475000.0
sz300913,兆龙互连,2021-06-21,29.68,29.93,27.13,27.9,28.91,10794587.0,304051713.0,854437500.0,3417750000.0
sz300913,兆龙互连,2021-06-22,27.68,27.98,26.96,27.07,27.9,6347796.0,173572806.0,829018750.0,3316075000.0
sz300913,兆龙互连,2021-06-23,27.2,27.68,27.12,27.28,27.07,4612668.0,126050962.0,835450000.0,3341800000.0
sz300913,兆龙互连,2021-06-24,27.47,27.55,26.33,26.96,27.28,4103353.0,110339925.0,825650000.0,3302600000.0
sz300913,兆龙互连,2021-06-25,26.72,26.9,26.24,26.4,26.96,2781185.0,73688676.0,808500000.0,3234000000.0
sz300913,兆龙互连,2021-06-28,26.43,26.9,26.27,26.81,26.4,2584393.0,68977554.0,821056250.0,3284225000.0
sz300913,兆龙互连,2021-06-29,26.74,27.14,25.83,25.91,26.81,2828629.0,74362321.0,793493750.0,3173975000.0
sz300913,兆龙互连,2021-06-30,25.94,26.28,25.7,26.2,25.91,1779002.0,46278419.0,802375000.0,3209500000.0
sz300913,兆龙互连,2021-07-01,26.26,26.26,24.88,25.04,26.2,2739323.0,69707184.0,766850000.0,3067400000.0
sz300913,兆龙互连,2021-07-02,24.78,25.18,24.6,24.69,25.04,1585099.0,39383347.0,756131250.0,3024525000.0
sz300913,兆龙互连,2021-07-05,24.7,25.44,24.7,25.39,24.69,2175883.0,54674020.0,777568750.0,3110275000.0
sz300913,兆龙互连,2021-07-06,25.3,25.45,24.86,25.45,25.39,1505415.0,37834614.0,779406250.0,3117625000.0
sz300913,兆龙互连,2021-07-07,25.39,25.79,25.23,25.53,25.45,1588492.0,40585538.0,781856250.0,3127425000.0
sz300913,兆龙互连,2021-07-08,25.65,25.65,24.8,25.03,25.53,1976569.0,49496436.0,766543750.0,3066175000.0
sz300913,兆龙互连,2021-07-09,24.85,25.28,24.85,25.05,25.03,1315953.0,32970672.0,767156250.0,3068625000.0
sz300913,兆龙互连,2021-07-12,25.09,26.12,25.09,25.65,25.05,2618873.0,67427212.0,785531250.0,3142125000.0
sz300913,兆龙互连,2021-07-13,25.41,25.82,25.05,25.81,25.65,2007248.0,50911863.0,790431250.0,3161725000.0
sz300913,兆龙互连,2021-07-14,25.78,27.0,25.56,27.0,25.81,5179352.0,136980706.0,826875000.0,3307500000.0
sz300913,兆龙互连,2021-07-15,27.5,28.48,26.31,26.38,27.0,4956443.0,135033277.0,807887500.0,3231550000.0
sz300913,兆龙互连,2021-07-16,25.88,25.88,24.83,25.0,26.26,3562410.0,89673251.0,765625000.0,3062500000.0
sz300913,兆龙互连,2021-07-19,24.81,26.31,24.25,25.63,25.0,3300172.0,83480149.0,784918750.0,3139675000.0
sz300913,兆龙互连,2021-07-20,25.15,25.6,24.85,25.06,25.63,1913799.0,48042527.0,767462500.0,3069850000.0
sz300913,兆龙互连,2021-07-21,24.92,25.27,24.92,25.06,25.06,1343689.0,33692044.0,767462500.0,3069850000.0
sz300913,兆龙互连,2021-07-22,25.06,26.29,24.93,25.9,25.06,3313431.0,85490949.0,793187500.0,3172750000.0
sz300913,兆龙互连,2021-07-23,25.84,26.19,25.25,25.28,25.9,2128246.0,54637939.0,774200000.0,3096800000.0
sz300913,兆龙互连,2021-07-26,25.62,25.77,24.6,24.82,25.28,1742656.0,43836576.0,760112500.0,3040450000.0
sz300913,兆龙互连,2021-07-27,24.8,25.56,24.8,24.85,24.82,2058362.0,51811660.0,761031250.0,3044125000.0
sz300913,兆龙互连,2021-07-28,24.75,24.8,23.01,23.13,24.85,2780490.0,65225394.0,708356250.0,2833425000.0
sz300913,兆龙互连,2021-07-29,23.25,23.98,23.25,23.58,23.13,1826116.0,43122609.0,722137500.0,2888550000.0
sz300913,兆龙互连,2021-07-30,23.53,24.45,23.37,24.21,23.58,1877424.0,45095209.0,741431250.0,2965725000.0
sz300913,兆龙互连,2021-08-02,24.3,24.7,24.01,24.64,24.21,1674960.0,40937418.0,754600000.0,3018400000.0
sz300913,兆龙互连,2021-08-03,24.5,25.12,24.3,24.54,24.64,1950339.0,48326089.0,751537500.0,3006150000.0
sz300913,兆龙互连,2021-08-04,24.35,24.92,24.35,24.86,24.54,1498294.0,37038132.0,761337500.0,3045350000.0
sz300913,兆龙互连,2021-08-05,24.7,24.75,23.84,24.01,24.86,2012330.0,48602844.0,735306250.0,2941225000.0
sz300913,兆龙互连,2021-08-06,24.03,24.45,23.74,24.42,24.01,1522511.0,36740960.0,747862500.0,2991450000.0
sz300913,兆龙互连,2021-08-09,24.2,24.93,24.2,24.85,24.42,1713007.0,42229496.0,761031250.0,3044125000.0
sz300913,兆龙互连,2021-08-10,24.89,25.68,24.75,25.58,24.85,2644152.0,67179063.0,783387500.0,3133550000.0
sz300913,兆龙互连,2021-08-11,25.38,26.3,25.15,25.91,25.58,2971210.0,76524393.0,793493750.0,3173975000.0
sz300913,兆龙互连,2021-08-12,26.03,26.03,25.41,25.57,25.91,2031768.0,52061386.0,783081250.0,3132325000.0
sz300913,兆龙互连,2021-08-13,25.48,26.28,25.36,26.26,25.57,3172483.0,82061925.0,804212500.0,3216850000.0
sz300913,兆龙互连,2021-08-16,26.88,26.88,25.42,26.09,26.26,3391929.0,88060656.0,799006250.0,3196025000.0
sz300913,兆龙互连,2021-08-17,25.93,26.67,25.68,25.86,26.09,2921010.0,76308245.0,791962500.0,3167850000.0
sz300913,兆龙互连,2021-08-18,25.8,26.18,25.47,26.06,25.86,2119039.0,54601838.0,798087500.0,3192350000.0
sz300913,兆龙互连,2021-08-19,25.79,27.65,25.72,26.02,26.06,4352918.0,115198259.0,796862500.0,3187450000.0
sz300913,兆龙互连,2021-08-20,25.62,25.7,24.07,24.32,26.02,3401420.0,83067971.0,744800000.0,2979200000.0
sz300913,兆龙互连,2021-08-23,24.33,26.58,24.33,26.16,24.32,4057908.0,103863954.0,801150000.0,3204600000.0
sz300913,兆龙互连,2021-08-24,26.65,26.67,25.73,25.84,26.16,2234671.0,58131506.0,791350000.0,3165400000.0
sz300913,兆龙互连,2021-08-25,25.71,26.08,25.51,25.9,25.84,1535099.0,39553065.0,793187500.0,3172750000.0
sz300913,兆龙互连,2021-08-26,25.85,25.94,24.86,24.91,25.9,1998085.0,50442435.0,762868750.0,3051475000.0
sz300913,兆龙互连,2021-08-27,24.69,25.4,24.52,25.39,24.91,2148917.0,53607762.0,777568750.0,3110275000.0
sz300913,兆龙互连,2021-08-30,25.88,27.38,25.72,26.06,25.39,4015985.0,106070185.0,798087500.0,3192350000.0
sz300913,兆龙互连,2021-08-31,26.07,26.99,25.43,26.95,26.06,5000301.0,132914500.0,825343750.0,3301375000.0
sz300913,兆龙互连,2021-09-01,26.6,27.78,26.32,27.5,26.95,5880726.0,160271050.0,842187500.0,3368750000.0
sz300913,兆龙互连,2021-09-02,27.21,28.15,26.76,27.41,27.5,4570513.0,124798017.0,839431250.0,3357725000.0
sz300913,兆龙互连,2021-09-03,27.5,27.7,26.69,26.81,27.41,3062383.0,82697857.0,821056250.0,3284225000.0
sz300913,兆龙互连,2021-09-06,26.81,27.04,26.35,26.92,26.81,2141808.0,57312427.0,824425000.0,3297700000.0
sz300913,兆龙互连,2021-09-07,26.99,26.99,26.4,26.59,26.92,2278400.0,60538982.0,814318750.0,3257275000.0
sz300913,兆龙互连,2021-09-08,26.58,26.81,26.18,26.56,26.59,2162898.0,57210041.0,813400000.0,3253600000.0
sz300913,兆龙互连,2021-09-09,26.46,27.34,26.3,27.29,26.56,2844583.0,76358975.0,835756250.0,3343025000.0
sz300913,兆龙互连,2021-09-10,27.02,27.15,26.26,26.29,27.29,2523987.0,67294754.0,805131250.0,3220525000.0
sz300913,兆龙互连,2021-09-13,26.24,26.24,25.59,25.64,26.29,1826043.0,46949919.0,785225000.0,3140900000.0
sz300913,兆龙互连,2021-09-14,25.64,25.83,25.3,25.31,25.64,1467829.0,37547046.0,775118750.0,3100475000.0
sz300913,兆龙互连,2021-09-15,25.3,25.93,25.01,25.88,25.31,1351575.0,34543844.0,792575000.0,3170300000.0
sz300913,兆龙互连,2021-09-16,25.88,25.92,25.01,25.08,25.88,1274814.0,32475462.0,768075000.0,3072300000.0
sz300913,兆龙互连,2021-09-17,24.92,25.9,24.9,25.78,25.08,1448318.0,36852411.0,789512500.0,3158050000.0
sz300913,兆龙互连,2021-09-22,25.7,25.96,25.28,25.82,25.78,1361089.0,34874657.0,790737500.0,3162950000.0
sz300913,兆龙互连,2021-09-23,25.76,27.12,25.7,26.41,25.82,2771315.0,73544021.0,808806250.0,3235225000.0
sz300913,兆龙互连,2021-09-24,26.19,26.98,25.83,26.93,26.41,3086214.0,81900850.0,824731250.0,3298925000.0
sz300913,兆龙互连,2021-09-27,27.01,27.49,26.42,26.88,26.93,3165275.0,85297104.0,823200000.0,3292800000.0
sz300913,兆龙互连,2021-09-28,27.0,27.68,26.66,26.84,26.88,3011699.0,81723258.0,821975000.0,3287900000.0
sz300913,兆龙互连,2021-09-29,26.08,26.38,24.49,24.55,26.84,2873290.0,72468472.0,751843750.0,3007375000.0
sz300913,兆龙互连,2021-09-30,24.67,24.93,24.42,24.88,24.55,1196361.0,29640622.0,761950000.0,3047800000.0
sz300913,兆龙互连,2021-10-08,24.91,25.29,24.89,25.11,24.88,1117057.0,28068605.0,768993750.0,3075975000.0
sz300913,兆龙互连,2021-10-11,25.11,26.75,23.84,26.7,25.11,4110308.0,104306601.0,817687500.0,3270750000.0
sz300913,兆龙互连,2021-10-12,26.21,26.7,25.85,26.5,26.7,2648782.0,69495216.0,811562500.0,3246250000.0
sz300913,兆龙互连,2021-10-13,26.49,27.38,26.21,27.1,26.5,3979756.0,107229034.0,829937500.0,3319750000.0
sz300913,兆龙互连,2021-10-14,27.4,27.4,26.59,26.73,27.1,2741889.0,73831406.0,818606250.0,3274425000.0
sz300913,兆龙互连,2021-10-15,26.47,29.12,26.16,28.09,26.73,6722432.0,188644888.0,860256250.0,3441025000.0
sz300913,兆龙互连,2021-10-18,28.05,28.63,27.55,28.37,28.09,4458584.0,125061565.0,868831250.0,3475325000.0
sz300913,兆龙互连,2021-10-19,27.9,28.5,27.7,27.76,28.37,3527759.0,98687788.0,850150000.0,3400600000.0
sz300913,兆龙互连,2021-10-20,27.97,29.49,27.38,28.87,27.76,5701963.0,163327217.0,884143750.0,3536575000.0
sz300913,兆龙互连,2021-10-21,28.48,28.8,27.83,28.42,28.87,3633135.0,102795472.0,870362500.0,3481450000.0
sz300913,兆龙互连,2021-10-22,28.41,28.41,26.94,27.2,28.42,3597434.0,98310761.0,833000000.0,3332000000.0
sz300913,兆龙互连,2021-10-25,27.21,28.07,26.82,27.65,27.2,2547292.0,70355548.0,846781250.0,3387125000.0
sz300913,兆龙互连,2021-10-26,27.63,28.01,26.9,27.93,27.65,3090867.0,84891232.0,855356250.0,3421425000.0
sz300913,兆龙互连,2021-10-27,27.5,27.73,25.38,25.38,27.93,4162529.0,108742315.0,777262500.0,3109050000.0
sz300913,兆龙互连,2021-10-28,25.48,26.1,24.93,25.8,25.38,2089264.0,53457899.0,790125000.0,3160500000.0
sz300913,兆龙互连,2021-10-29,26.15,27.37,26.04,26.46,25.8,2817603.0,75403250.0,810337500.0,3241350000.0
sz300913,兆龙互连,2021-11-01,26.23,27.85,26.23,27.52,26.46,3483496.0,94905154.0,842800000.0,3371200000.0
sz300913,兆龙互连,2021-11-02,27.58,27.88,26.82,27.15,27.52,2878906.0,78573193.0,831468750.0,3325875000.0
sz300913,兆龙互连,2021-11-03,27.34,28.44,27.06,28.26,27.15,4181527.0,117075485.0,865462500.0,3461850000.0
sz300913,兆龙互连,2021-11-04,28.18,28.5,27.73,28.29,28.26,3345338.0,94250583.0,866381250.0,3465525000.0
sz300913,兆龙互连,2021-11-05,28.0,29.08,27.83,28.43,28.29,4917019.0,140076733.0,870668750.0,3482675000.0
sz300913,兆龙互连,2021-11-08,28.43,28.94,28.05,28.35,28.43,3520703.0,100151883.0,868218750.0,3472875000.0
sz300913,兆龙互连,2021-11-09,28.8,34.02,28.5,34.02,28.35,8693659.0,282936108.0,1041862500.0,4167450000.0
sz300913,兆龙互连,2021-11-10,34.27,34.68,31.88,32.12,34.02,12173514.0,399141014.0,983675000.0,3934700000.0
sz300913,兆龙互连,2021-11-11,32.49,33.39,31.62,32.99,32.12,9252048.0,302987207.0,1010318750.0,4041275000.0
sz300913,兆龙互连,2021-11-12,32.78,36.2,32.16,33.86,32.99,9994330.0,339704446.0,1036962500.0,4147850000.0
sz300913,兆龙互连,2021-11-15,34.35,36.0,33.35,34.93,33.86,7661227.0,265485824.0,1069731250.0,4278925000.0
sz300913,兆龙互连,2021-11-16,34.3,34.61,32.8,33.19,34.93,6079790.0,203964278.0,1016443750.0,4065775000.0
sz300913,兆龙互连,2021-11-17,33.02,34.15,33.02,33.5,33.19,4549253.0,152403166.0,1025937500.0,4103750000.0
sz300913,兆龙互连,2021-11-18,33.29,33.59,32.32,32.41,33.5,4448074.0,146086493.0,992556250.0,3970225000.0
sz300913,兆龙互连,2021-11-19,32.32,32.67,31.14,31.78,32.41,4754573.0,150776401.0,973262500.0,3893050000.0
sz300913,兆龙互连,2021-11-22,31.56,32.4,31.38,31.91,31.78,3536879.0,113056380.0,977243750.0,3908975000.0
sz300913,兆龙互连,2021-11-23,32.13,32.81,31.58,32.64,31.91,4490476.0,144989192.0,999600000.0,3998400000.0
sz300913,兆龙互连,2021-11-24,32.53,33.43,32.07,33.09,32.64,5101070.0,167531483.0,1013381250.0,4053525000.0
sz300913,兆龙互连,2021-11-25,32.76,33.05,31.77,32.09,33.09,3478923.0,112064117.0,982756250.0,3931025000.0
sz300913,兆龙互连,2021-11-26,32.23,34.56,31.52,33.93,32.09,6855772.0,227016924.0,1039106250.0,4156425000.0
sz300913,兆龙互连,2021-11-29,33.08,35.49,33.02,35.08,33.93,6151504.0,212277518.0,1074325000.0,4297300000.0
sz300913,兆龙互连,2021-11-30,35.45,35.45,32.52,32.85,35.08,5638179.0,190461245.0,1006031250.0,4024125000.0
sz300913,兆龙互连,2021-12-01,32.84,33.4,32.13,33.33,32.85,2904689.0,95418281.0,1020731250.0,4082925000.0
sz300913,兆龙互连,2021-12-02,33.25,33.25,29.9,30.05,33.33,5385602.0,168031150.0,920281250.0,3681125000.0
sz300913,兆龙互连,2021-12-03,30.12,30.59,29.37,29.82,30.05,2842687.0,84951008.0,913237500.0,3652950000.0
sz300913,兆龙互连,2021-12-06,29.82,30.13,28.82,29.28,29.82,2394297.0,70241090.0,896700000.0,3586800000.0
sz300913,兆龙互连,2021-12-07,29.3,30.23,28.94,30.0,29.28,2348961.0,69452757.0,918750000.0,3675000000.0
sz300913,兆龙互连,2021-12-08,30.0,30.2,29.58,30.05,30.0,1510938.0,45185621.0,920281250.0,3681125000.0
sz300913,兆龙互连,2021-12-09,30.05,30.87,29.89,29.96,30.05,1961805.0,59552346.0,917525000.0,3670100000.0
sz300913,兆龙互连,2021-12-10,29.91,29.91,29.18,29.47,29.96,1563061.0,46052188.0,902518750.0,3610075000.0
sz300913,兆龙互连,2021-12-13,29.44,29.96,29.1,29.8,29.47,1537383.0,45457591.0,912625000.0,3650500000.0
sz300913,兆龙互连,2021-12-14,29.8,30.76,29.42,30.56,29.8,2505753.0,75836729.0,935900000.0,3743600000.0
sz300913,兆龙互连,2021-12-15,30.51,30.84,30.21,30.36,30.56,1599559.0,48724299.0,929775000.0,3719100000.0
sz300913,兆龙互连,2021-12-16,30.3,30.6,30.06,30.39,30.36,1451347.0,43886316.0,930693750.0,3722775000.0
sz300913,兆龙互连,2021-12-17,30.22,30.33,29.13,29.25,30.39,1808170.0,53473645.0,895781250.0,3583125000.0
sz300913,兆龙互连,2021-12-20,28.98,29.35,27.81,27.84,29.25,1906188.0,53925189.0,852600000.0,3410400000.0
sz300913,兆龙互连,2021-12-21,28.09,28.48,27.95,28.3,27.84,1069307.0,30229944.0,866687500.0,3466750000.0
sz300913,兆龙互连,2021-12-22,28.45,28.56,28.26,28.29,28.3,924900.0,26209963.0,866381250.0,3465525000.0
sz300913,兆龙互连,2021-12-23,28.39,28.45,27.56,28.13,28.29,1231555.0,34450863.0,861481250.0,3445925000.0
sz300913,兆龙互连,2021-12-24,28.13,28.3,26.78,26.8,28.13,1692117.0,46162571.0,820750000.0,3283000000.0
sz300913,兆龙互连,2021-12-27,26.77,27.15,26.6,27.0,26.8,770184.0,20733780.0,826875000.0,3307500000.0
sz300913,兆龙互连,2021-12-28,26.89,27.46,26.87,27.28,27.0,796601.0,21703976.0,835450000.0,3341800000.0
sz300913,兆龙互连,2021-12-29,27.28,27.56,26.84,27.35,27.28,836952.0,22816907.0,837593750.0,3350375000.0
sz300913,兆龙互连,2021-12-30,27.31,27.77,27.31,27.43,27.35,913330.0,25152949.0,840043750.0,3360175000.0
sz300913,兆龙互连,2021-12-31,27.39,27.68,27.21,27.37,27.43,866134.0,23774433.0,838206250.0,3352825000.0
sz300913,兆龙互连,2022-01-04,27.2,27.78,27.09,27.71,27.37,988674.0,27246467.0,848618750.0,3394475000.0
sz300913,兆龙互连,2022-01-05,27.6,28.1,27.35,27.54,27.71,1277859.0,35401649.0,843412500.0,3373650000.0
sz300913,兆龙互连,2022-01-06,27.7,27.94,27.42,27.84,27.54,914400.0,25379414.0,852600000.0,3410400000.0
sz300913,兆龙互连,2022-01-07,27.85,27.92,26.31,26.44,27.84,2019746.0,54571681.0,809725000.0,3238900000.0
sz300913,兆龙互连,2022-01-10,26.5,26.95,25.9,26.83,26.44,961657.0,25560616.0,821668750.0,3286675000.0
sz300913,兆龙互连,2022-01-11,26.98,27.37,26.75,27.03,26.83,790140.0,21380845.0,827793750.0,3311175000.0
sz300913,兆龙互连,2022-01-12,27.05,27.58,27.05,27.33,27.03,940106.0,25704501.0,836981250.0,3347925000.0
sz300913,兆龙互连,2022-01-13,27.73,28.65,27.71,27.76,27.33,2124247.0,59697063.0,850150000.0,3400600000.0
sz300913,兆龙互连,2022-01-14,27.62,28.32,27.62,28.0,27.76,1662182.0,46624982.0,857500000.0,3430000000.0
