数据由邢不行整理
股票代码,股票名称,交易日期,开盘价,最高价,最低价,收盘价,前收盘价,成交量,成交额,流通市值,总市值
sz300826,N测绘,2020-04-03,27.46,32.95,27.46,32.95,22.88,75700.0,2490245.0,659000000.0,2636000000.0
sz300826,测绘股份,2020-04-07,36.25,36.25,36.25,36.25,32.95,22224.0,805620.0,725000000.0,2900000000.0
sz300826,测绘股份,2020-04-08,39.88,39.88,39.88,39.88,36.25,23611.0,941606.0,797600000.0,3190400000.0
sz300826,测绘股份,2020-04-09,43.87,43.87,43.87,43.87,39.88,90704.0,3979184.0,877400000.0,3509600000.0
sz300826,测绘股份,2020-04-10,48.26,48.26,48.26,48.26,43.87,172600.0,8329676.0,965200000.0,3860800000.0
sz300826,测绘股份,2020-04-13,53.09,53.09,53.09,53.09,48.26,112279.0,5960892.0,1061800000.0,4247200000.0
sz300826,测绘股份,2020-04-14,55.88,55.88,47.78,47.78,53.09,3564800.0,178871850.0,955600000.0,3822400000.0
sz300826,测绘股份,2020-04-15,44.11,45.67,43.51,43.74,47.78,9035374.0,400877991.0,874800000.0,3499200000.0
sz300826,测绘股份,2020-04-16,42.06,43.7,41.61,42.18,43.74,5451109.0,230800837.0,843600000.0,3374400000.0
sz300826,测绘股份,2020-04-17,42.18,44.72,41.5,42.65,42.18,6053252.0,260043685.0,853000000.0,3412000000.0
sz300826,测绘股份,2020-04-20,41.88,42.8,40.52,42.09,42.65,4977570.0,206580583.0,841800000.0,3367200000.0
sz300826,测绘股份,2020-04-21,41.46,43.6,40.95,42.9,42.09,4676455.0,197800046.0,858000000.0,3432000000.0
sz300826,测绘股份,2020-04-22,42.77,42.77,41.15,41.41,42.9,3853248.0,160879498.0,828200000.0,3312800000.0
sz300826,测绘股份,2020-04-23,41.37,41.37,39.55,39.74,41.41,4037282.0,162246785.0,794800000.0,3179200000.0
sz300826,测绘股份,2020-04-24,39.28,39.49,37.33,37.78,39.74,3645814.0,139377253.0,755600000.0,3022400000.0
sz300826,测绘股份,2020-04-27,37.51,38.8,37.5,38.5,37.78,2481888.0,94752678.0,770000000.0,3080000000.0
sz300826,测绘股份,2020-04-28,38.3,38.35,34.78,35.0,38.5,3425739.0,122867059.0,700000000.0,2800000000.0
sz300826,测绘股份,2020-04-29,34.67,36.47,34.52,35.44,35.0,2464576.0,87595489.0,708800000.0,2835200000.0
sz300826,测绘股份,2020-04-30,35.5,36.22,34.57,35.65,35.44,2498507.0,88623608.0,713000000.0,2852000000.0
sz300826,测绘股份,2020-05-06,34.92,36.46,34.81,36.46,35.65,2078753.0,74591459.0,729200000.0,2916800000.0
sz300826,测绘股份,2020-05-07,36.08,40.11,36.02,40.11,36.46,5191508.0,199583283.0,802200000.0,3208800000.0
sz300826,测绘股份,2020-05-08,39.0,40.95,38.66,39.75,40.11,5618532.0,222784602.0,795000000.0,3180000000.0
sz300826,测绘股份,2020-05-11,39.59,41.41,39.1,41.22,39.75,6941523.0,282449538.0,824400000.0,3297600000.0
sz300826,测绘股份,2020-05-12,40.45,44.88,40.1,43.08,41.22,7848326.0,335621905.0,861600000.0,3446400000.0
sz300826,测绘股份,2020-05-13,42.02,42.77,40.79,40.79,43.08,5701839.0,236888059.0,815800000.0,3263200000.0
sz300826,测绘股份,2020-05-14,39.97,41.19,39.53,40.21,40.79,3450465.0,139350875.0,804200000.0,3216800000.0
sz300826,测绘股份,2020-05-15,40.11,41.0,39.6,39.64,40.21,3063695.0,122733712.0,792800000.0,3171200000.0
sz300826,测绘股份,2020-05-18,39.29,39.6,37.6,37.66,39.64,3350507.0,129364257.0,753200000.0,3012800000.0
sz300826,测绘股份,2020-05-19,37.9,39.45,37.67,39.43,37.66,3203136.0,124349867.0,788600000.0,3154400000.0
sz300826,测绘股份,2020-05-20,39.88,43.34,39.69,41.02,39.43,5591903.0,230385767.0,820400000.0,3281600000.0
sz300826,测绘股份,2020-05-21,42.0,42.88,41.03,41.42,41.02,4942732.0,206375205.0,828400000.0,3313600000.0
sz300826,测绘股份,2020-05-22,42.06,42.3,39.28,40.21,41.42,3676613.0,148124342.0,804200000.0,3216800000.0
sz300826,测绘股份,2020-05-25,40.68,41.8,40.03,41.59,40.21,4044165.0,166205699.0,831800000.0,3327200000.0
sz300826,测绘股份,2020-05-26,41.26,41.72,39.3,41.72,41.59,3752533.0,152834814.0,834400000.0,3337600000.0
sz300826,测绘股份,2020-05-27,41.24,43.36,41.0,41.45,41.72,4733661.0,199818648.0,829000000.0,3316000000.0
sz300826,测绘股份,2020-05-28,41.62,42.39,39.36,40.02,41.45,3759549.0,152743566.0,800400000.0,3201600000.0
sz300826,测绘股份,2020-05-29,39.47,39.87,37.8,38.24,40.02,2907822.0,111938101.0,764800000.0,3059200000.0
sz300826,测绘股份,2020-06-01,38.14,39.25,38.14,39.05,38.24,2216547.0,86147618.0,781000000.0,3124000000.0
sz300826,测绘股份,2020-06-02,39.06,40.38,38.79,40.11,39.05,2820110.0,111719925.0,802200000.0,3208800000.0
sz300826,测绘股份,2020-06-03,40.08,40.08,39.0,39.0,40.11,2169368.0,85491110.0,780000000.0,3120000000.0
sz300826,测绘股份,2020-06-04,38.98,39.87,38.77,39.1,39.0,1657093.0,64992316.0,782000000.0,3128000000.0
sz300826,测绘股份,2020-06-05,39.27,39.93,38.81,38.88,39.1,1902045.0,74795143.0,777600000.0,3110400000.0
sz300826,测绘股份,2020-06-08,38.93,39.29,38.17,38.6,38.88,1704623.0,65688028.0,772000000.0,3088000000.0
sz300826,测绘股份,2020-06-09,38.57,38.58,37.7,37.93,38.6,1669051.0,63443148.0,758600000.0,3034400000.0
sz300826,测绘股份,2020-06-10,38.02,38.58,37.98,38.07,37.93,1363884.0,52182555.0,761400000.0,3045600000.0
sz300826,测绘股份,2020-06-11,38.01,38.3,37.71,37.83,38.07,1171500.0,44473219.0,756600000.0,3026400000.0
sz300826,测绘股份,2020-06-12,37.1,37.97,36.8,37.69,37.83,1408600.0,52531833.0,753800000.0,3015200000.0
sz300826,测绘股份,2020-06-15,37.45,38.45,37.43,38.01,37.69,1518218.0,57832236.0,760200000.0,3040800000.0
sz300826,测绘股份,2020-06-16,38.21,38.83,38.21,38.83,38.01,1749200.0,67566678.0,776600000.0,3106400000.0
sz300826,测绘股份,2020-06-17,38.75,38.75,38.24,38.65,38.83,1366937.0,52577363.0,773000000.0,3092000000.0
sz300826,测绘股份,2020-06-18,38.6,39.1,38.28,39.09,38.65,1397014.0,54091715.0,781800000.0,3127200000.0
sz300826,测绘股份,2020-06-19,38.98,38.99,38.4,38.52,39.09,1180309.0,45586161.0,770400000.0,3081600000.0
sz300826,测绘股份,2020-06-22,38.43,38.72,37.92,38.1,38.52,1350246.0,51597070.0,762000000.0,3048000000.0
sz300826,测绘股份,2020-06-23,37.99,38.04,37.36,37.58,38.1,1060820.0,39913704.0,751600000.0,3006400000.0
sz300826,测绘股份,2020-06-24,37.66,37.88,37.4,37.8,37.58,873826.0,32930339.0,756000000.0,3024000000.0
sz300826,测绘股份,2020-06-29,37.66,37.74,36.51,36.57,37.8,1429055.0,52594029.0,731400000.0,2925600000.0
sz300826,测绘股份,2020-06-30,36.61,36.97,36.61,36.83,36.57,817100.0,30093631.0,736600000.0,2946400000.0
sz300826,测绘股份,2020-07-01,37.07,37.07,36.56,36.87,36.83,847000.0,31166719.0,737400000.0,2949600000.0
sz300826,测绘股份,2020-07-02,36.77,37.51,36.67,37.41,36.87,1192200.0,44368262.0,748200000.0,2992800000.0
sz300826,测绘股份,2020-07-03,37.3,37.77,37.13,37.65,37.41,1231637.0,46212307.0,753000000.0,3012000000.0
sz300826,测绘股份,2020-07-06,37.8,38.99,37.58,38.86,37.65,2092945.0,80498486.0,777200000.0,3108800000.0
sz300826,测绘股份,2020-07-07,39.05,39.48,38.5,38.91,38.86,2862021.0,111650003.0,778200000.0,3112800000.0
sz300826,测绘股份,2020-07-08,38.72,40.21,38.5,40.21,38.91,2946056.0,115973852.0,804200000.0,3216800000.0
sz300826,测绘股份,2020-07-09,40.0,41.72,39.8,40.88,40.21,3492473.0,142765116.0,817600000.0,3270400000.0
sz300826,测绘股份,2020-07-10,40.56,42.45,40.16,41.37,40.88,4071489.0,168000343.0,827400000.0,3309600000.0
sz300826,测绘股份,2020-07-13,41.3,42.24,41.0,41.96,41.37,3158082.0,131614055.0,839200000.0,3356800000.0
sz300826,测绘股份,2020-07-14,41.7,42.95,40.8,41.43,41.96,3045828.0,127631455.0,828600000.0,3314400000.0
sz300826,测绘股份,2020-07-15,41.71,43.3,40.38,40.59,41.43,3053948.0,127754419.0,811800000.0,3247200000.0
sz300826,测绘股份,2020-07-16,40.0,40.01,37.11,37.5,40.59,2872670.0,110919900.0,750000000.0,3000000000.0
sz300826,测绘股份,2020-07-17,37.5,38.21,36.75,37.18,37.5,1304114.0,48823242.0,743600000.0,2974400000.0
sz300826,测绘股份,2020-07-20,37.4,38.17,37.21,38.13,37.18,928214.0,35070391.0,762600000.0,3050400000.0
sz300826,测绘股份,2020-07-21,38.13,38.47,37.55,38.06,38.13,850714.0,32290034.0,761200000.0,3044800000.0
sz300826,测绘股份,2020-07-22,38.07,38.18,37.36,37.98,38.06,1148221.0,43526995.0,759600000.0,3038400000.0
sz300826,测绘股份,2020-07-23,37.7,37.89,36.6,37.34,37.98,1421021.0,52789097.0,746800000.0,2987200000.0
sz300826,测绘股份,2020-07-24,37.38,37.75,36.0,36.3,37.34,1172600.0,43238853.0,726000000.0,2904000000.0
sz300826,测绘股份,2020-07-27,36.1,36.5,35.3,35.57,36.3,902214.0,32118890.0,711400000.0,2845600000.0
sz300826,测绘股份,2020-07-28,35.66,36.42,35.66,36.15,35.57,595300.0,21455122.0,723000000.0,2892000000.0
sz300826,测绘股份,2020-07-29,36.04,36.8,35.87,36.8,36.15,933783.0,34068538.0,736000000.0,2944000000.0
sz300826,测绘股份,2020-07-30,36.74,37.73,36.7,36.93,36.8,808749.0,29864177.0,738600000.0,2954400000.0
sz300826,测绘股份,2020-07-31,36.8,37.1,36.39,36.91,36.93,720033.0,26460980.0,738200000.0,2952800000.0
sz300826,测绘股份,2020-08-03,37.18,37.95,37.1,37.9,36.91,1002844.0,37653077.0,758000000.0,3032000000.0
sz300826,测绘股份,2020-08-04,37.91,37.93,37.07,37.36,37.9,964400.0,36126760.0,747200000.0,2988800000.0
sz300826,测绘股份,2020-08-05,37.36,38.65,37.36,38.42,37.36,1558686.0,59382889.0,768400000.0,3073600000.0
sz300826,测绘股份,2020-08-06,38.36,38.36,37.38,37.82,38.42,1125591.0,42519874.0,756400000.0,3025600000.0
sz300826,测绘股份,2020-08-07,37.73,38.24,37.2,37.72,37.82,868493.0,32758792.0,754400000.0,3017600000.0
sz300826,测绘股份,2020-08-10,37.85,38.8,37.42,38.8,37.72,1601988.0,61535912.0,776000000.0,3104000000.0
sz300826,测绘股份,2020-08-11,38.85,38.85,37.66,37.68,38.8,1313508.0,49964079.0,753600000.0,3014400000.0
sz300826,测绘股份,2020-08-12,37.66,37.66,36.66,37.36,37.68,812502.0,30196028.0,747200000.0,2988800000.0
sz300826,测绘股份,2020-08-13,37.49,37.87,37.01,37.22,37.36,478242.0,17932470.0,744400000.0,2977600000.0
sz300826,测绘股份,2020-08-14,37.29,37.63,36.89,37.6,37.22,447473.0,16697283.0,752000000.0,3008000000.0
sz300826,测绘股份,2020-08-17,37.73,38.18,37.52,38.01,37.6,754016.0,28568682.0,760200000.0,3040800000.0
sz300826,测绘股份,2020-08-18,38.02,38.1,37.8,37.98,38.01,529516.0,20083749.0,759600000.0,3038400000.0
sz300826,测绘股份,2020-08-19,37.99,38.0,37.42,37.48,37.98,542916.0,20409273.0,749600000.0,2998400000.0
sz300826,测绘股份,2020-08-20,37.44,37.44,36.38,36.96,37.48,450400.0,16612565.0,739200000.0,2956800000.0
sz300826,测绘股份,2020-08-21,37.19,38.03,37.19,38.0,36.96,992519.0,37442336.0,760000000.0,3040000000.0
sz300826,测绘股份,2020-08-24,38.5,38.5,36.87,37.83,38.0,842800.0,31654939.0,756600000.0,3026400000.0
sz300826,测绘股份,2020-08-25,37.78,39.41,37.6,39.05,37.83,2144496.0,83264347.0,781000000.0,3124000000.0
sz300826,测绘股份,2020-08-26,38.9,39.79,37.8,38.21,39.05,1786519.0,69494364.0,764200000.0,3056800000.0
sz300826,测绘股份,2020-08-27,37.85,38.48,37.05,38.44,38.21,1047300.0,39613338.0,768800000.0,3075200000.0
sz300826,测绘股份,2020-08-28,38.48,39.5,37.73,38.98,38.44,1340600.0,51897547.0,779600000.0,3118400000.0
sz300826,测绘股份,2020-08-31,39.2,39.78,38.7,38.95,38.98,1270400.0,49944471.0,779000000.0,3116000000.0
sz300826,测绘股份,2020-09-01,38.81,41.0,38.27,39.96,38.95,1815980.0,71718167.0,799200000.0,3196800000.0
sz300826,测绘股份,2020-09-02,39.8,40.5,39.52,40.24,39.96,1742927.0,69882095.0,804800000.0,3219200000.0
sz300826,测绘股份,2020-09-03,40.08,40.59,39.09,40.49,40.24,1819865.0,72598792.0,809800000.0,3239200000.0
sz300826,测绘股份,2020-09-04,40.1,40.96,39.71,39.9,40.49,1375200.0,55340665.0,798000000.0,3192000000.0
sz300826,测绘股份,2020-09-07,39.49,40.2,38.97,39.2,39.9,1539827.0,61011208.0,784000000.0,3136000000.0
sz300826,测绘股份,2020-09-08,39.09,39.48,38.7,39.26,39.2,1165500.0,45572303.0,785200000.0,3140800000.0
sz300826,测绘股份,2020-09-09,38.79,41.36,38.52,40.25,39.26,2810499.0,112750328.0,805000000.0,3220000000.0
sz300826,测绘股份,2020-09-10,40.0,40.8,35.85,36.24,40.25,2449800.0,93204087.0,724800000.0,2899200000.0
sz300826,测绘股份,2020-09-11,35.91,36.69,35.2,36.52,36.24,911199.0,32692666.0,730400000.0,2921600000.0
sz300826,测绘股份,2020-09-14,36.86,37.47,36.39,37.3,36.52,771200.0,28565709.0,746000000.0,2984000000.0
sz300826,测绘股份,2020-09-15,37.4,37.61,36.99,37.14,37.3,781559.0,29133946.0,742800000.0,2971200000.0
sz300826,测绘股份,2020-09-16,37.01,38.1,36.6,37.62,37.14,765900.0,28461183.0,752400000.0,3009600000.0
sz300826,测绘股份,2020-09-17,37.7,39.39,37.5,38.5,37.62,1727999.0,66991830.0,770000000.0,3080000000.0
sz300826,测绘股份,2020-09-18,38.8,39.35,38.1,38.68,38.5,1170299.0,45291203.0,773600000.0,3094400000.0
sz300826,测绘股份,2020-09-21,38.63,39.17,38.01,38.45,38.68,869700.0,33552373.0,769000000.0,3076000000.0
sz300826,测绘股份,2020-09-22,38.45,38.8,37.9,37.94,38.45,738860.0,28314302.0,758800000.0,3035200000.0
sz300826,测绘股份,2020-09-23,38.01,38.6,38.01,38.39,37.94,663787.0,25461383.0,767800000.0,3071200000.0
sz300826,测绘股份,2020-09-24,38.19,38.59,37.72,38.05,38.39,761600.0,29061197.0,761000000.0,3044000000.0
sz300826,测绘股份,2020-09-25,38.07,38.35,36.68,36.75,38.05,952600.0,35459992.0,735000000.0,2940000000.0
sz300826,测绘股份,2020-09-28,36.81,37.07,35.84,35.88,36.75,573500.0,20725621.0,717600000.0,2870400000.0
sz300826,测绘股份,2020-09-29,36.18,36.38,35.95,36.07,35.88,367400.0,13278685.0,721400000.0,2885600000.0
sz300826,测绘股份,2020-09-30,36.2,36.5,35.77,35.93,36.07,314300.0,11316950.0,718600000.0,2874400000.0
sz300826,测绘股份,2020-10-09,36.1,36.95,36.1,36.81,35.93,407400.0,14974612.0,736200000.0,2944800000.0
sz300826,测绘股份,2020-10-12,36.77,38.16,36.75,37.97,36.81,861400.0,32348439.0,759400000.0,3037600000.0
sz300826,测绘股份,2020-10-13,37.95,38.11,37.71,37.98,37.97,560000.0,21245897.0,759600000.0,3038400000.0
sz300826,测绘股份,2020-10-14,37.96,38.52,37.87,38.17,37.98,810100.0,30921975.0,763400000.0,3053600000.0
sz300826,测绘股份,2020-10-15,38.1,38.66,37.7,38.03,38.17,644800.0,24591056.0,760600000.0,3042400000.0
sz300826,测绘股份,2020-10-16,38.03,38.78,37.72,38.68,38.03,884400.0,33953339.0,773600000.0,3094400000.0
sz300826,测绘股份,2020-10-19,38.91,39.1,37.93,37.97,38.68,648000.0,24828701.0,759400000.0,3037600000.0
sz300826,测绘股份,2020-10-20,38.2,39.46,37.72,39.04,37.97,1209100.0,46928707.0,780800000.0,3123200000.0
sz300826,测绘股份,2020-10-21,39.1,39.99,38.76,39.02,39.04,1622317.0,63715917.0,780400000.0,3121600000.0
sz300826,测绘股份,2020-10-22,39.18,40.53,38.68,40.53,39.02,3079770.0,122863873.0,810600000.0,3242400000.0
sz300826,测绘股份,2020-10-23,40.58,48.64,40.35,45.9,40.53,8739628.0,402872680.0,918000000.0,3672000000.0
sz300826,测绘股份,2020-10-26,43.9,44.86,41.82,43.95,45.9,5817372.0,251660005.0,879000000.0,3516000000.0
sz300826,测绘股份,2020-10-27,43.0,44.44,41.28,41.49,43.95,4094089.0,173464582.0,829800000.0,3319200000.0
sz300826,测绘股份,2020-10-28,41.65,42.95,41.2,42.76,41.49,3347846.0,141546402.0,855200000.0,3420800000.0
sz300826,测绘股份,2020-10-29,41.22,42.88,39.92,41.44,42.76,3043588.0,125480947.0,828800000.0,3315200000.0
sz300826,测绘股份,2020-10-30,40.98,43.5,40.37,41.81,41.44,2960900.0,124565091.0,836200000.0,3344800000.0
sz300826,测绘股份,2020-11-02,41.6,43.88,41.41,43.52,41.81,2858460.0,121904937.0,870400000.0,3481600000.0
sz300826,测绘股份,2020-11-03,43.4,44.88,42.1,44.4,43.52,3660700.0,159512595.0,888000000.0,3552000000.0
sz300826,测绘股份,2020-11-04,46.12,51.58,43.55,45.53,44.4,6764477.0,312290204.0,910600000.0,3642400000.0
sz300826,测绘股份,2020-11-05,45.0,47.0,43.76,45.03,45.53,4261329.0,190457328.0,900600000.0,3602400000.0
sz300826,测绘股份,2020-11-06,43.95,44.24,41.42,41.57,45.03,3218200.0,136350962.0,831400000.0,3325600000.0
sz300826,测绘股份,2020-11-09,41.65,42.66,41.56,41.8,41.57,2369000.0,99797212.0,836000000.0,3344000000.0
sz300826,测绘股份,2020-11-10,41.69,42.22,40.12,40.55,41.8,2061919.0,84056682.0,811000000.0,3244000000.0
sz300826,测绘股份,2020-11-11,40.77,40.95,39.55,39.81,40.55,1646400.0,66048493.0,796200000.0,3184800000.0
sz300826,测绘股份,2020-11-12,40.08,40.08,38.66,38.81,39.81,1503630.0,59026485.0,776200000.0,3104800000.0
sz300826,测绘股份,2020-11-13,38.65,39.39,38.65,38.95,38.81,952830.0,37247495.0,779000000.0,3116000000.0
sz300826,测绘股份,2020-11-16,39.28,39.33,38.06,38.4,38.95,1028200.0,39669389.0,768000000.0,3072000000.0
sz300826,测绘股份,2020-11-17,38.3,38.59,37.67,38.16,38.4,952993.0,36200186.0,763200000.0,3052800000.0
sz300826,测绘股份,2020-11-18,38.16,39.19,38.12,39.16,38.16,1081100.0,41912658.0,783200000.0,3132800000.0
sz300826,测绘股份,2020-11-19,39.15,39.42,38.71,39.32,39.16,910100.0,35618696.0,786400000.0,3145600000.0
sz300826,测绘股份,2020-11-20,39.32,39.39,38.8,39.07,39.32,790800.0,30811134.0,781400000.0,3125600000.0
sz300826,测绘股份,2020-11-23,39.18,39.18,38.06,38.36,39.07,937500.0,35948622.0,767200000.0,3068800000.0
sz300826,测绘股份,2020-11-24,38.28,38.7,38.02,38.17,38.36,680200.0,26046891.0,763400000.0,3053600000.0
sz300826,测绘股份,2020-11-25,38.62,40.2,38.43,38.92,38.17,1762389.0,69393092.0,778400000.0,3113600000.0
sz300826,测绘股份,2020-11-26,38.2,38.92,37.28,38.1,38.92,1421089.0,53806531.0,762000000.0,3048000000.0
sz300826,测绘股份,2020-11-27,37.82,38.07,36.78,36.98,38.1,1111900.0,41414557.0,739600000.0,2958400000.0
sz300826,测绘股份,2020-11-30,37.22,37.22,36.73,36.84,36.98,457400.0,16913726.0,736800000.0,2947200000.0
sz300826,测绘股份,2020-12-01,36.85,37.45,36.8,37.39,36.84,469300.0,17503576.0,747800000.0,2991200000.0
sz300826,测绘股份,2020-12-02,37.39,37.8,37.15,37.75,37.39,681659.0,25525153.0,755000000.0,3020000000.0
sz300826,测绘股份,2020-12-03,37.64,38.17,37.43,37.56,37.75,531700.0,20094168.0,751200000.0,3004800000.0
sz300826,测绘股份,2020-12-04,37.6,37.77,37.08,37.2,37.56,466900.0,17388962.0,744000000.0,2976000000.0
sz300826,测绘股份,2020-12-07,37.15,37.41,37.01,37.23,37.2,347100.0,12911878.0,744600000.0,2978400000.0
sz300826,测绘股份,2020-12-08,37.02,37.57,37.02,37.15,37.23,294700.0,10978526.0,743000000.0,2972000000.0
sz300826,测绘股份,2020-12-09,37.33,37.89,37.03,37.4,37.15,667018.0,24971861.0,748000000.0,2992000000.0
sz300826,测绘股份,2020-12-10,37.18,38.37,37.0,38.22,37.4,1149590.0,43558999.0,764400000.0,3057600000.0
sz300826,测绘股份,2020-12-11,38.3,38.37,36.0,36.1,38.22,1360418.0,50017339.0,722000000.0,2888000000.0
sz300826,测绘股份,2020-12-14,36.11,36.35,35.76,36.16,36.1,496400.0,17910671.0,723200000.0,2892800000.0
sz300826,测绘股份,2020-12-15,36.02,36.45,36.01,36.15,36.16,323718.0,11701795.0,723000000.0,2892000000.0
sz300826,测绘股份,2020-12-16,36.15,36.15,34.51,34.51,36.15,829300.0,29142147.0,690200000.0,2760800000.0
sz300826,测绘股份,2020-12-17,34.58,34.95,33.37,34.66,34.51,649090.0,22119987.0,693200000.0,2772800000.0
sz300826,测绘股份,2020-12-18,34.66,34.86,33.86,33.93,34.66,442800.0,15182285.0,678600000.0,2714400000.0
sz300826,测绘股份,2020-12-21,33.85,34.15,33.39,33.5,33.93,519600.0,17476817.0,670000000.0,2680000000.0
sz300826,测绘股份,2020-12-22,33.5,33.5,31.91,31.96,33.5,820190.0,26807992.0,639200000.0,2556800000.0
sz300826,测绘股份,2020-12-23,32.03,32.43,31.09,31.18,31.96,711725.0,22515424.0,623600000.0,2494400000.0
sz300826,测绘股份,2020-12-24,31.18,31.45,29.91,30.18,31.18,668940.0,20440910.0,603600000.0,2414400000.0
sz300826,测绘股份,2020-12-25,30.35,31.11,29.9,30.81,30.18,489200.0,14985944.0,616200000.0,2464800000.0
sz300826,测绘股份,2020-12-28,30.8,30.8,29.73,29.73,30.81,496544.0,14925546.0,594600000.0,2378400000.0
sz300826,测绘股份,2020-12-29,29.73,30.62,29.51,30.23,29.73,467544.0,14154800.0,604600000.0,2418400000.0
sz300826,测绘股份,2020-12-30,30.57,30.71,30.08,30.25,30.23,296900.0,9013375.0,605000000.0,2420000000.0
sz300826,测绘股份,2020-12-31,30.24,30.84,30.02,30.56,30.25,390359.0,11934808.0,611200000.0,2444800000.0
sz300826,测绘股份,2021-01-04,30.78,31.43,30.51,31.41,30.56,551936.0,17141366.0,628200000.0,2512800000.0
sz300826,测绘股份,2021-01-05,31.38,31.56,30.71,31.1,31.41,426818.0,13266143.0,622000000.0,2488000000.0
sz300826,测绘股份,2021-01-06,31.1,31.2,29.87,29.92,31.1,670500.0,20306389.0,598400000.0,2393600000.0
sz300826,测绘股份,2021-01-07,29.91,29.99,27.88,27.92,29.92,850200.0,24284208.0,558400000.0,2233600000.0
sz300826,测绘股份,2021-01-08,27.92,28.64,27.31,28.21,27.92,506700.0,14235108.0,564200000.0,2256800000.0
sz300826,测绘股份,2021-01-11,28.21,28.87,27.27,27.51,28.21,479500.0,13267101.0,550200000.0,2200800000.0
sz300826,测绘股份,2021-01-12,27.51,28.12,27.38,27.67,27.51,334000.0,9275557.0,553400000.0,2213600000.0
sz300826,测绘股份,2021-01-13,27.3,27.51,26.63,26.69,27.67,527000.0,14218164.0,533800000.0,2135200000.0
sz300826,测绘股份,2021-01-14,26.5,27.37,25.92,27.1,26.69,549700.0,14652802.0,542000000.0,2168000000.0
sz300826,测绘股份,2021-01-15,27.1,28.74,26.96,28.46,27.1,628502.0,17673538.0,569200000.0,2276800000.0
sz300826,测绘股份,2021-01-18,28.46,29.2,28.23,28.62,28.46,465400.0,13389717.0,572400000.0,2289600000.0
sz300826,测绘股份,2021-01-19,28.62,29.64,28.09,29.15,28.62,468300.0,13613519.0,583000000.0,2332000000.0
sz300826,测绘股份,2021-01-20,29.15,29.42,28.67,28.83,29.15,354700.0,10263163.0,576600000.0,2306400000.0
sz300826,测绘股份,2021-01-21,28.73,29.39,28.7,29.05,28.83,266100.0,7728239.0,581000000.0,2324000000.0
sz300826,测绘股份,2021-01-22,29.05,29.05,28.0,28.05,29.05,321600.0,9098736.0,561000000.0,2244000000.0
sz300826,测绘股份,2021-01-25,28.29,28.29,27.19,27.21,28.05,322159.0,8829410.0,544200000.0,2176800000.0
sz300826,测绘股份,2021-01-26,27.22,27.79,27.02,27.06,27.21,251300.0,6871251.0,541200000.0,2164800000.0
sz300826,测绘股份,2021-01-27,27.19,27.58,26.87,27.18,27.06,219500.0,5976700.0,543600000.0,2174400000.0
sz300826,测绘股份,2021-01-28,27.01,27.58,26.88,27.08,27.18,266700.0,7277072.0,541600000.0,2166400000.0
sz300826,测绘股份,2021-01-29,27.08,27.18,26.2,26.54,27.08,311500.0,8281780.0,530800000.0,2123200000.0
sz300826,测绘股份,2021-02-01,26.54,27.75,26.45,27.45,26.54,325100.0,8840413.0,549000000.0,2196000000.0
sz300826,测绘股份,2021-02-02,27.45,27.7,27.03,27.2,27.45,288500.0,7885435.0,544000000.0,2176000000.0
sz300826,测绘股份,2021-02-03,27.21,27.48,26.41,26.41,27.2,287400.0,7660685.0,528200000.0,2112800000.0
sz300826,测绘股份,2021-02-04,26.41,26.41,25.11,25.54,26.41,358359.0,9181316.0,510800000.0,2043200000.0
sz300826,测绘股份,2021-02-05,25.51,25.99,25.16,25.16,25.54,227500.0,5812252.0,503200000.0,2012800000.0
sz300826,测绘股份,2021-02-08,25.16,25.82,25.0,25.02,25.16,261500.0,6611353.0,500400000.0,2001600000.0
sz300826,测绘股份,2021-02-09,24.8,25.58,24.8,25.45,25.02,213000.0,5393829.0,509000000.0,2036000000.0
sz300826,测绘股份,2021-02-10,25.81,25.81,25.35,25.51,25.45,187259.0,4782652.0,510200000.0,2040800000.0
sz300826,测绘股份,2021-02-18,25.55,26.72,25.55,26.62,25.51,437600.0,11590863.0,532400000.0,2129600000.0
sz300826,测绘股份,2021-02-19,26.47,27.4,26.47,27.38,26.62,383000.0,10382606.0,547600000.0,2190400000.0
sz300826,测绘股份,2021-02-22,27.5,28.19,27.12,27.54,27.38,485500.0,13470666.0,550800000.0,2203200000.0
sz300826,测绘股份,2021-02-23,27.35,28.09,27.0,27.36,27.54,281000.0,7664002.0,547200000.0,2188800000.0
sz300826,测绘股份,2021-02-24,27.79,27.83,27.1,27.53,27.36,260500.0,7155905.0,550600000.0,2202400000.0
sz300826,测绘股份,2021-02-25,27.35,29.4,27.12,28.33,27.53,858285.0,24447742.0,566600000.0,2266400000.0
sz300826,测绘股份,2021-02-26,27.48,28.4,27.48,28.2,28.33,419403.0,11770010.0,564000000.0,2256000000.0
sz300826,测绘股份,2021-03-01,28.08,28.68,28.03,28.4,28.2,354000.0,10025290.0,568000000.0,2272000000.0
sz300826,测绘股份,2021-03-02,28.39,28.57,27.7,27.75,28.4,400000.0,11244840.0,555000000.0,2220000000.0
sz300826,测绘股份,2021-03-03,27.95,28.29,27.81,28.07,27.75,261500.0,7336666.0,561400000.0,2245600000.0
sz300826,测绘股份,2021-03-04,27.89,28.24,27.62,27.65,28.07,304300.0,8481664.0,553000000.0,2212000000.0
sz300826,测绘股份,2021-03-05,27.47,28.06,27.47,28.05,27.65,274800.0,7663692.0,561000000.0,2244000000.0
sz300826,测绘股份,2021-03-08,28.12,28.48,27.71,27.86,28.05,332985.0,9350470.0,557200000.0,2228800000.0
sz300826,测绘股份,2021-03-09,28.05,28.05,26.56,27.05,27.86,319200.0,8712092.0,541000000.0,2164000000.0
sz300826,测绘股份,2021-03-10,27.11,27.58,26.28,26.29,27.05,293985.0,7828893.0,525800000.0,2103200000.0
sz300826,测绘股份,2021-03-11,26.29,27.07,26.18,27.07,26.29,158885.0,4224975.0,541400000.0,2165600000.0
sz300826,测绘股份,2021-03-12,26.77,26.99,26.39,26.52,27.07,178400.0,4739436.0,530400000.0,2121600000.0
sz300826,测绘股份,2021-03-15,26.6,26.88,26.09,26.29,26.52,158400.0,4172030.0,525800000.0,2103200000.0
sz300826,测绘股份,2021-03-16,26.68,27.38,26.31,26.97,26.29,313300.0,8408531.0,539400000.0,2157600000.0
sz300826,测绘股份,2021-03-17,27.1,28.09,26.73,27.67,26.97,493500.0,13588703.0,553400000.0,2213600000.0
sz300826,测绘股份,2021-03-18,27.99,28.48,27.45,28.19,27.67,560644.0,15681343.0,563800000.0,2255200000.0
sz300826,测绘股份,2021-03-19,28.18,28.9,28.04,28.36,28.19,686929.0,19558518.0,567200000.0,2268800000.0
sz300826,测绘股份,2021-03-22,28.63,28.88,28.1,28.52,28.36,505700.0,14398781.0,570400000.0,2281600000.0
sz300826,测绘股份,2021-03-23,28.53,28.53,27.63,27.76,28.52,428700.0,11968398.0,555200000.0,2220800000.0
sz300826,测绘股份,2021-03-24,27.5,28.18,27.5,27.6,27.76,195900.0,5434968.0,552000000.0,2208000000.0
sz300826,测绘股份,2021-03-25,27.5,27.71,27.05,27.14,27.6,294790.0,8081605.0,542800000.0,2171200000.0
sz300826,测绘股份,2021-03-26,27.39,27.42,27.0,27.3,27.14,183100.0,4991480.0,546000000.0,2184000000.0
sz300826,测绘股份,2021-03-29,27.6,27.6,27.02,27.11,27.3,192400.0,5240515.0,542200000.0,2168800000.0
sz300826,测绘股份,2021-03-30,26.88,27.07,26.49,26.59,27.11,244100.0,6506779.0,531800000.0,2127200000.0
sz300826,测绘股份,2021-03-31,26.6,29.25,26.5,28.44,26.59,1120690.0,31655949.0,568800000.0,2275200000.0
sz300826,测绘股份,2021-04-01,27.85,28.27,27.53,27.6,28.44,670690.0,18623852.0,552000000.0,2208000000.0
sz300826,测绘股份,2021-04-02,27.28,27.78,26.83,27.4,27.6,555300.0,15141626.0,548000000.0,2192000000.0
sz300826,测绘股份,2021-04-06,27.0,27.97,26.83,27.96,27.4,925487.0,25352233.0,1025637974.76,2236800000.0
sz300826,测绘股份,2021-04-07,27.72,29.18,27.29,28.58,27.96,1506314.0,42373963.0,1048381019.98,2286400000.0
sz300826,测绘股份,2021-04-08,28.4,28.65,27.82,27.82,28.58,970672.0,27480633.0,1020502448.42,2225600000.0
sz300826,测绘股份,2021-04-09,27.81,27.82,27.4,27.62,27.82,579730.0,16051000.0,1013165982.22,2209600000.0
sz300826,测绘股份,2021-04-12,27.73,27.73,27.22,27.33,27.62,579191.0,15849594.0,1002528106.23,2186400000.0
sz300826,测绘股份,2021-04-13,27.3,28.37,26.91,27.37,27.33,961639.0,26617113.0,1003995399.47,2189600000.0
sz300826,测绘股份,2021-04-14,27.2,27.58,26.94,27.47,27.37,386489.0,10554466.0,1007663632.57,2197600000.0
sz300826,测绘股份,2021-04-15,27.3,27.42,27.0,27.21,27.47,382723.0,10389780.0,998126226.51,2176800000.0
sz300826,测绘股份,2021-04-16,27.28,27.87,27.14,27.71,27.21,773762.0,21425331.0,1016467392.01,2216800000.0
sz300826,测绘股份,2021-04-19,27.81,28.27,27.62,28.11,27.71,999232.0,27983731.0,1031140324.41,2248800000.0
sz300826,测绘股份,2021-04-20,28.09,28.27,27.8,27.8,28.11,660188.0,18463999.0,1019768801.8,2224000000.0
sz300826,测绘股份,2021-04-21,27.6,27.75,27.4,27.5,27.8,379165.0,10440395.0,1008764102.5,2200000000.0
sz300826,测绘股份,2021-04-22,27.5,27.75,27.22,27.35,27.5,358012.0,9814383.0,1003261752.85,2188000000.0
sz300826,测绘股份,2021-04-23,28.15,30.48,28.15,28.83,27.35,2860944.0,83861541.0,1057551602.73,2306400000.0
sz300826,测绘股份,2021-04-26,28.51,29.5,28.01,29.22,28.83,2033560.0,58659169.0,1071857711.82,2337600000.0
sz300826,测绘股份,2021-04-27,28.96,29.15,28.2,28.99,29.22,1216956.0,34848623.0,1063420775.69,2319200000.0
sz300826,测绘股份,2021-04-28,28.71,30.0,28.71,29.6,28.99,1480352.0,43595913.0,1085796997.6,2368000000.0
sz300826,测绘股份,2021-04-29,29.88,29.88,28.87,28.87,29.6,1043201.0,30606877.0,1059018895.97,2309600000.0
sz300826,测绘股份,2021-04-30,28.77,28.88,28.06,28.42,28.87,808213.0,22901488.0,1042511847.02,2273600000.0
sz300826,测绘股份,2021-05-06,28.48,29.49,28.26,29.35,28.42,933019.0,27129254.0,1076626414.85,2348000000.0
sz300826,测绘股份,2021-05-07,29.01,29.7,28.81,28.86,29.35,692300.0,20195320.0,1058652072.66,2308800000.0
sz300826,测绘股份,2021-05-10,28.86,29.16,28.31,29.11,28.86,591188.0,17035021.0,1067822655.41,2328800000.0
sz300826,测绘股份,2021-05-11,29.05,30.28,28.81,30.1,29.11,1331026.0,39601202.0,1104138163.1,2408000000.0
sz300826,测绘股份,2021-05-12,29.78,30.57,29.65,29.9,30.1,1040788.0,31361550.0,1096801696.9,2392000000.0
sz300826,测绘股份,2021-05-13,29.72,30.54,29.16,30.45,29.9,1086040.0,32587892.0,1116976978.95,2436000000.0
sz300826,测绘股份,2021-05-14,30.45,30.96,30.21,30.47,30.45,1371758.0,41962980.0,1117710625.57,2437600000.0
sz300826,测绘股份,2021-05-17,30.1,30.1,29.03,29.1,30.47,1076525.0,31613213.0,1067455832.1,2328000000.0
sz300826,测绘股份,2021-05-18,29.07,29.66,29.07,29.6,29.1,637213.0,18752418.0,1085796997.6,2368000000.0
sz300826,测绘股份,2021-05-19,30.01,31.74,29.74,31.56,29.6,2301716.0,71133510.0,1157694366.36,2524800000.0
sz300826,测绘股份,2021-05-20,31.39,31.46,30.62,30.64,31.56,1275509.0,39467155.0,1123946621.84,2451200000.0
sz300826,测绘股份,2021-05-21,30.85,31.49,30.67,31.46,30.64,1147759.0,35734983.0,1154026133.26,2516800000.0
sz300826,测绘股份,2021-05-24,31.5,31.77,30.75,31.35,31.46,1289809.0,40126141.0,1149991076.85,2508000000.0
sz300826,测绘股份,2021-05-25,21.86,21.86,20.82,21.22,21.86,1401183.0,29612600.0,1089758680.86,2376640000.0
sz300826,测绘股份,2021-05-26,21.22,21.52,20.82,21.51,21.22,1306170.0,27619770.0,1104651707.13,2409120000.0
sz300826,测绘股份,2021-05-27,21.51,21.51,20.92,21.04,21.51,1271860.0,26833733.0,1080514733.52,2356480000.0
sz300826,测绘股份,2021-05-28,21.02,21.05,20.21,20.56,21.04,1877252.0,38560182.0,1055864207.28,2302720000.0
sz300826,测绘股份,2021-05-31,20.19,20.62,19.92,20.57,20.56,1149250.0,23319401.0,1056377759.91,2303840000.0
sz300826,测绘股份,2021-06-01,20.85,21.22,20.58,20.75,20.57,1429570.0,29876583.0,1065621707.25,2324000000.0
sz300826,测绘股份,2021-06-02,20.55,20.75,20.24,20.24,20.75,997545.0,20328643.0,1039430523.12,2266880000.0
sz300826,测绘股份,2021-06-03,20.13,20.41,20.06,20.13,20.24,712274.0,14392169.0,1033781444.19,2254560000.0
sz300826,测绘股份,2021-06-04,20.09,20.29,20.09,20.15,20.13,453598.0,9152035.0,1034808549.45,2256800000.0
sz300826,测绘股份,2021-06-07,20.49,20.49,20.16,20.29,20.15,380507.0,7710243.0,1041998286.27,2272480000.0
sz300826,测绘股份,2021-06-08,20.33,20.37,19.94,20.05,20.29,875340.0,17547041.0,1029673023.15,2245600000.0
sz300826,测绘股份,2021-06-09,20.05,20.05,19.62,19.68,20.05,817582.0,16133541.0,1010671575.84,2204160000.0
sz300826,测绘股份,2021-06-10,19.6,19.98,19.57,19.89,19.68,622040.0,12332166.0,1021456181.07,2227680000.0
sz300826,测绘股份,2021-06-11,19.89,19.89,19.58,19.59,19.89,565680.0,11164798.0,1006049602.17,2194080000.0
sz300826,测绘股份,2021-06-15,19.59,19.7,19.06,19.08,19.59,757570.0,14595452.0,979858418.04,2136960000.0
sz300826,测绘股份,2021-06-16,19.07,19.32,18.95,19.02,19.08,492585.0,9387507.0,976777102.26,2130240000.0
sz300826,测绘股份,2021-06-17,19.0,19.16,18.92,19.04,19.02,373601.0,7122284.0,977804207.52,2132480000.0
sz300826,测绘股份,2021-06-18,19.07,19.35,18.92,19.31,19.04,440960.0,8456679.0,991670128.53,2162720000.0
sz300826,测绘股份,2021-06-21,19.28,20.0,19.11,19.8,19.31,871339.0,17117984.0,1016834207.4,2217600000.0
sz300826,测绘股份,2021-06-22,20.0,23.71,19.99,21.7,19.8,5094408.0,111545906.0,1114409207.1,2430400000.0
sz300826,测绘股份,2021-06-23,21.0,21.25,20.65,21.03,21.7,2993715.0,62811109.0,1080001180.89,2355360000.0
sz300826,测绘股份,2021-06-24,20.68,20.82,20.15,20.33,21.03,2137260.0,43773855.0,1044052496.79,2276960000.0
sz300826,测绘股份,2021-06-25,20.33,20.66,20.1,20.35,20.33,1238517.0,25159081.0,1045079602.05,2279200000.0
sz300826,测绘股份,2021-06-28,20.27,20.6,20.23,20.6,20.35,915371.0,18707179.0,1057918417.8,2307200000.0
sz300826,测绘股份,2021-06-29,20.5,20.51,19.83,19.9,20.6,1066745.0,21465307.0,1021969733.7,2228800000.0
sz300826,测绘股份,2021-06-30,19.85,20.17,19.82,20.03,19.9,573360.0,11461884.0,1028645917.89,2243360000.0
sz300826,测绘股份,2021-07-01,20.03,20.08,19.27,19.28,20.03,909832.0,17887559.0,990129470.64,2159360000.0
sz300826,测绘股份,2021-07-02,19.29,19.5,19.06,19.43,19.28,427900.0,8272524.0,997832760.09,2176160000.0
sz300826,测绘股份,2021-07-05,19.59,20.77,19.25,20.48,19.43,2059700.0,41603270.0,1051755786.24,2293760000.0
sz300826,测绘股份,2021-07-06,20.79,20.91,19.92,20.19,20.48,1363679.0,27686039.0,1036862759.97,2261280000.0
sz300826,测绘股份,2021-07-07,20.0,20.19,19.87,20.1,20.19,752480.0,15079541.0,1032240786.3,2251200000.0
sz300826,测绘股份,2021-07-08,19.9,20.12,19.54,19.55,20.1,912520.0,17972784.0,1003995391.65,2189600000.0
sz300826,测绘股份,2021-07-09,19.53,19.79,19.46,19.71,19.55,532713.0,10476258.0,1012212233.73,2207520000.0
sz300826,测绘股份,2021-07-12,19.88,19.99,19.67,19.99,19.71,596100.0,11839502.0,1026591707.37,2238880000.0
sz300826,测绘股份,2021-07-13,19.91,20.02,19.81,19.85,19.99,547780.0,10887255.0,1019401970.55,2223200000.0
sz300826,测绘股份,2021-07-14,19.86,19.94,19.55,19.56,19.85,506313.0,9932286.0,1004508944.28,2190720000.0
sz300826,测绘股份,2021-07-15,19.58,19.59,19.05,19.2,19.56,569220.0,10943179.0,986021049.6,2150400000.0
sz300826,测绘股份,2021-07-16,19.23,19.41,19.06,19.29,19.2,364780.0,7003360.0,990643023.27,2160480000.0
sz300826,测绘股份,2021-07-19,19.1,19.29,18.73,19.01,19.29,543460.0,10264808.0,976263549.63,2129120000.0
sz300826,测绘股份,2021-07-20,18.88,19.06,18.75,19.02,19.01,264120.0,5003835.0,976777102.26,2130240000.0
sz300826,测绘股份,2021-07-21,19.0,19.61,18.98,19.48,19.02,541300.0,10469648.0,1000400523.24,2181760000.0
sz300826,测绘股份,2021-07-22,19.48,19.65,19.32,19.4,19.48,472640.0,9207356.0,996292102.2,2172800000.0
sz300826,测绘股份,2021-07-23,19.45,19.57,18.86,18.89,19.4,587680.0,11224235.0,970100918.07,2115680000.0
sz300826,测绘股份,2021-07-26,18.89,18.96,18.63,18.64,18.89,523860.0,9835812.0,957262102.32,2087680000.0
sz300826,测绘股份,2021-07-27,18.64,18.99,18.64,18.65,18.64,460880.0,8658617.0,957775654.95,2088800000.0
sz300826,测绘股份,2021-07-28,18.64,18.64,17.78,17.78,18.65,739340.0,13298063.0,913096576.14,1991360000.0
sz300826,测绘股份,2021-07-29,17.89,18.07,17.8,17.96,17.78,465811.0,8351193.0,922340523.48,2011520000.0
sz300826,测绘股份,2021-07-30,17.95,18.06,17.65,18.03,17.96,494280.0,8810448.0,925935391.89,2019360000.0
sz300826,测绘股份,2021-08-02,17.9,18.48,17.82,18.39,18.03,451165.0,8204487.0,944423286.57,2059680000.0
sz300826,测绘股份,2021-08-03,18.21,18.71,18.21,18.46,18.39,588540.0,10915357.0,948018154.98,2067520000.0
sz300826,测绘股份,2021-08-04,18.33,18.69,18.31,18.69,18.46,491142.0,9118753.0,959829865.47,2093280000.0
sz300826,测绘股份,2021-08-05,19.1,20.9,19.05,19.43,18.69,2473032.0,49204583.0,997832760.09,2176160000.0
sz300826,测绘股份,2021-08-06,19.75,19.75,18.69,18.86,19.43,1399300.0,26430449.0,968560260.18,2112320000.0
sz300826,测绘股份,2021-08-09,18.65,18.89,18.42,18.73,18.86,723434.0,13482667.0,961884075.99,2097760000.0
sz300826,测绘股份,2021-08-10,18.61,19.12,18.61,19.03,18.73,696178.0,13191639.0,977290654.89,2131360000.0
sz300826,测绘股份,2021-08-11,18.95,19.22,18.9,19.18,19.03,613439.0,11719651.0,984993944.34,2148160000.0
sz300826,测绘股份,2021-08-12,19.19,19.2,18.87,18.9,19.18,602231.0,11437598.0,970614470.7,2116800000.0
sz300826,测绘股份,2021-08-13,18.9,18.98,18.82,18.94,18.9,383499.0,7247016.0,972668681.22,2121280000.0
sz300826,测绘股份,2021-08-16,18.94,19.68,18.85,19.52,18.94,1641983.0,31770676.0,1002454733.76,2186240000.0
sz300826,测绘股份,2021-08-17,19.58,19.67,19.1,19.2,19.52,1043659.0,20210992.0,986021049.6,2150400000.0
sz300826,测绘股份,2021-08-18,19.2,19.63,19.05,19.48,19.2,941365.0,18268368.0,1000400523.24,2181760000.0
sz300826,测绘股份,2021-08-19,19.35,19.5,18.91,19.05,19.48,673620.0,12895393.0,978317760.15,2133600000.0
sz300826,测绘股份,2021-08-20,18.95,19.0,18.57,18.7,19.05,606139.0,11336529.0,960343418.1,2094400000.0
sz300826,测绘股份,2021-08-23,18.98,19.4,18.72,19.26,18.7,802148.0,15397752.0,989102365.38,2157120000.0
sz300826,测绘股份,2021-08-24,19.33,19.59,19.25,19.32,19.26,700159.0,13576122.0,992183681.16,2163840000.0
sz300826,测绘股份,2021-08-25,19.32,19.55,19.13,19.53,19.32,789880.0,15356099.0,1002968286.39,2187360000.0
sz300826,测绘股份,2021-08-26,19.46,19.58,19.1,19.11,19.53,670922.0,12932068.0,971788293.84,2140320000.0
sz300826,测绘股份,2021-08-27,19.11,19.11,18.74,18.89,19.11,678300.0,12814530.0,960600778.16,2115680000.0
sz300826,测绘股份,2021-08-30,19.08,19.17,18.5,18.62,18.89,579640.0,10870074.0,946870645.28,2085440000.0
sz300826,测绘股份,2021-08-31,18.37,18.88,18.21,18.61,18.62,439580.0,8176933.0,946362121.84,2084320000.0
sz300826,测绘股份,2021-09-01,18.6,18.95,18.41,18.95,18.61,689324.0,12896221.0,963651918.8,2122400000.0
sz300826,测绘股份,2021-09-02,19.0,20.18,18.99,19.96,18.95,3510917.0,69511430.0,1015012786.24,2235520000.0
sz300826,测绘股份,2021-09-03,19.76,19.79,19.25,19.45,19.96,1935051.0,37692384.0,989078090.8,2178400000.0
sz300826,测绘股份,2021-09-06,19.36,19.75,19.36,19.64,19.45,1272260.0,24889716.0,998740036.16,2199680000.0
sz300826,测绘股份,2021-09-07,19.64,19.66,19.4,19.52,19.64,1063091.0,20730249.0,992637754.88,2186240000.0
sz300826,测绘股份,2021-09-08,19.62,19.72,19.45,19.7,19.52,1091244.0,21360136.0,1001791176.8,2206400000.0
sz300826,测绘股份,2021-09-09,19.95,20.55,19.66,19.7,19.7,1971669.0,39572735.0,1001791176.8,2206400000.0
sz300826,测绘股份,2021-09-10,19.95,19.95,19.35,19.42,19.7,1249511.0,24383867.0,987552520.48,2175040000.0
sz300826,测绘股份,2021-09-13,19.37,19.77,19.27,19.5,19.42,676910.0,13186292.0,991620708.0,2184000000.0
sz300826,测绘股份,2021-09-14,19.74,19.74,19.1,19.13,19.5,793680.0,15354924.0,972805340.72,2142560000.0
sz300826,测绘股份,2021-09-15,19.0,19.34,18.78,19.22,19.13,541980.0,10353920.0,977382051.68,2152640000.0
sz300826,测绘股份,2021-09-16,19.28,19.52,19.09,19.14,19.22,586071.0,11313952.0,973313864.16,2143680000.0
sz300826,测绘股份,2021-09-17,19.0,19.26,18.73,18.8,19.14,607340.0,11473116.0,956024067.2,2105600000.0
sz300826,测绘股份,2021-09-22,18.86,18.86,18.53,18.65,18.8,314380.0,5863327.0,948396215.6,2088800000.0
sz300826,测绘股份,2021-09-23,18.66,19.19,18.66,19.18,18.65,569611.0,10818264.0,975347957.92,2148160000.0
sz300826,测绘股份,2021-09-24,19.19,19.2,18.62,18.68,19.18,470151.0,8862577.0,949921785.92,2092160000.0
sz300826,测绘股份,2021-09-27,18.7,18.7,18.12,18.12,18.68,599420.0,10987589.0,921444473.28,2029440000.0
sz300826,测绘股份,2021-09-28,18.24,18.49,18.08,18.47,18.12,260820.0,4782149.0,939242793.68,2068640000.0
sz300826,测绘股份,2021-09-29,19.58,21.7,19.18,19.63,18.47,4883871.0,97944982.0,998231512.72,2198560000.0
sz300826,测绘股份,2021-09-30,19.0,19.99,18.51,19.87,19.63,3410165.0,65399706.0,1010436075.28,2225440000.0
sz300826,测绘股份,2021-10-08,19.61,20.33,19.42,20.1,19.87,2875836.0,57357291.0,1022132114.4,2251200000.0
sz300826,测绘股份,2021-10-11,20.1,20.21,19.58,19.93,20.1,1704280.0,33761185.0,1013487215.92,2232160000.0
sz300826,测绘股份,2021-10-12,19.86,19.93,19.27,19.52,19.93,1296040.0,25295803.0,992637754.88,2186240000.0
sz300826,测绘股份,2021-10-13,19.5,19.78,19.3,19.67,19.52,1055906.0,20708988.0,1000265606.48,2203040000.0
sz300826,测绘股份,2021-10-14,19.61,19.67,18.86,18.95,19.67,1323495.0,25223804.0,963651918.8,2122400000.0
sz300826,测绘股份,2021-10-15,18.95,19.14,18.5,18.59,18.95,898328.0,16887450.0,945345074.96,2082080000.0
sz300826,测绘股份,2021-10-18,18.61,18.86,18.48,18.86,18.59,573300.0,10726887.0,959075207.84,2112320000.0
sz300826,测绘股份,2021-10-19,18.86,18.99,18.61,18.7,18.86,474860.0,8893135.0,950938832.8,2094400000.0
sz300826,测绘股份,2021-10-20,18.7,18.74,18.22,18.31,18.7,844020.0,15509859.0,931106418.64,2050720000.0
sz300826,测绘股份,2021-10-21,18.51,18.51,18.28,18.48,18.31,499900.0,9198777.0,939751317.12,2069760000.0
sz300826,测绘股份,2021-10-22,18.51,18.56,18.32,18.35,18.48,384980.0,7095107.0,933140512.4,2055200000.0
sz300826,测绘股份,2021-10-25,18.14,18.68,18.13,18.68,18.35,477176.0,8816228.0,949921785.92,2092160000.0
sz300826,测绘股份,2021-10-26,18.71,18.86,18.51,18.56,18.68,510740.0,9510524.0,943819504.64,2078720000.0
sz300826,测绘股份,2021-10-27,18.38,18.56,17.9,17.92,18.56,843579.9999999999,15266816.0,911274004.48,2007040000.0
sz300826,测绘股份,2021-10-28,18.03,18.17,17.66,18.12,17.92,516145.0,9225597.0,921444473.28,2029440000.0
sz300826,测绘股份,2021-10-29,18.22,18.5,18.12,18.27,18.12,594420.0,10852081.0,929072324.88,2046240000.0
sz300826,测绘股份,2021-11-01,18.3,18.36,17.96,18.28,18.27,466078.0,8478978.0,929580848.32,2047360000.0
sz300826,测绘股份,2021-11-02,18.25,18.52,18.08,18.08,18.28,534720.0,9772760.0,919410379.52,2024960000.0
sz300826,测绘股份,2021-11-03,18.54,18.68,18.14,18.41,18.08,357300.0,6553273.0,936191653.04,2061920000.0
sz300826,测绘股份,2021-11-04,18.41,18.53,18.11,18.4,18.41,435060.0,7981956.0,935683129.6,2060800000.0
sz300826,测绘股份,2021-11-05,18.39,18.8,18.26,18.71,18.4,667640.0,12386216.0,951447356.24,2095520000.0
sz300826,测绘股份,2021-11-08,18.71,18.71,18.5,18.69,18.71,429394.0,7975506.0,950430309.36,2093280000.0
sz300826,测绘股份,2021-11-09,18.58,18.85,18.48,18.83,18.69,490740.0,9214539.0,957549637.52,2108960000.0
sz300826,测绘股份,2021-11-10,19.33,19.47,18.85,19.02,18.83,1157900.0,22161491.0,967211582.88,2130240000.0
sz300826,测绘股份,2021-11-11,18.99,19.47,18.77,19.27,19.02,1363206.0,26206504.0,979924668.88,2158240000.0
sz300826,测绘股份,2021-11-12,19.18,19.46,19.03,19.27,19.27,986500.0,18970904.0,979924668.88,2158240000.0
sz300826,测绘股份,2021-11-15,19.3,20.22,19.3,20.19,19.27,3204301.0,63786202.0,1026708825.36,2261280000.0
sz300826,测绘股份,2021-11-16,20.79,21.78,19.9,19.94,20.19,6165696.0,128758146.0,1013995739.36,2233280000.0
sz300826,测绘股份,2021-11-17,19.4,21.3,19.4,20.88,19.94,5237808.0,108430133.0,1061796942.72,2338560000.0
sz300826,测绘股份,2021-11-18,20.66,20.9,20.0,20.0,20.88,3616172.0,73878411.0,1017046880.0,2240000000.0
sz300826,测绘股份,2021-11-19,20.15,21.26,20.15,21.26,20.0,5050016.0,105693474.0,1081120833.44,2381120000.0
sz300826,测绘股份,2021-11-22,21.25,21.26,20.7,20.93,21.26,2612707.0,54571487.0,1064339559.9200001,2344160000.0
sz300826,测绘股份,2021-11-23,21.0,21.18,20.44,21.03,20.93,2373320.0,49378278.0,1069424794.3199999,2355360000.0
sz300826,测绘股份,2021-11-24,20.81,21.0,20.38,20.7,21.03,2002537.0,41366060.0,1052643520.8,2318400000.0
sz300826,测绘股份,2021-11-25,20.73,21.5,20.39,20.83,20.7,2463460.0,51515497.0,1059254325.52,2332960000.0
sz300826,测绘股份,2021-11-26,20.49,20.84,20.28,20.68,20.83,1503385.0,30895108.0,1051626473.92,2316160000.0
sz300826,测绘股份,2021-11-29,20.3,20.6,20.21,20.37,20.68,1044716.0,21287208.0,1035862247.28,2281440000.0
sz300826,测绘股份,2021-11-30,20.37,20.87,20.12,20.58,20.37,1167036.0,24063932.0,1046541239.52,2304960000.0
sz300826,测绘股份,2021-12-01,20.49,21.07,20.49,21.0,20.58,1592563.0,33293396.0,1067899224.0,2352000000.0
sz300826,测绘股份,2021-12-02,21.0,21.02,20.34,20.37,21.0,1576721.0,32502409.0,1035862247.28,2281440000.0
sz300826,测绘股份,2021-12-03,20.77,20.9,20.41,20.58,20.37,1036460.0,21404284.0,1046541239.52,2304960000.0
sz300826,测绘股份,2021-12-06,20.74,20.78,19.74,19.76,20.58,1505320.0,30128473.0,1004842317.44,2213120000.0
sz300826,测绘股份,2021-12-07,19.88,20.04,19.55,19.68,19.76,897680.0,17751502.0,1000774129.92,2204160000.0
sz300826,测绘股份,2021-12-08,19.68,19.88,19.55,19.7,19.68,677220.0,13346217.0,1001791176.8,2206400000.0
sz300826,测绘股份,2021-12-09,19.71,19.92,19.64,19.7,19.7,624120.0,12336597.0,1001791176.8,2206400000.0
sz300826,测绘股份,2021-12-10,20.0,21.42,19.85,20.28,19.7,3857840.0,78706117.0,1031285536.3199999,2271360000.0
sz300826,测绘股份,2021-12-13,20.11,21.15,19.93,21.03,20.28,4238305.0,88057912.0,1069424794.3199999,2355360000.0
sz300826,测绘股份,2021-12-14,21.04,21.5,20.51,21.32,21.03,3725020.0,78898512.0,1084171974.0800002,2387840000.0
sz300826,测绘股份,2021-12-15,21.45,22.13,21.05,21.78,21.32,4153668.0,90388177.0,1107564052.32,2439360000.0
sz300826,测绘股份,2021-12-16,21.69,22.04,21.47,21.75,21.78,2848640.0,61958327.0,1106038482.0,2436000000.0
sz300826,测绘股份,2021-12-17,21.7,21.75,21.3,21.62,21.75,2054873.0,44280443.0,1099427677.28,2421440000.0
sz300826,测绘股份,2021-12-20,21.28,22.3,21.05,21.67,21.62,2908765.0,63742006.0,1101970294.48,2427040000.0
sz300826,测绘股份,2021-12-21,21.52,21.94,21.46,21.59,21.67,1862682.0,40371276.0,1097902106.96,2418080000.0
sz300826,测绘股份,2021-12-22,21.61,21.99,21.25,21.65,21.59,1643202.0,35536305.0,1100953247.6000001,2424800000.0
sz300826,测绘股份,2021-12-23,21.99,21.99,20.87,20.89,21.65,2202080.0,46456976.0,1062305466.1600001,2339680000.0
sz300826,测绘股份,2021-12-24,21.09,21.09,20.02,20.18,20.89,1549796.0,31660090.0,1026200301.9200001,2260160000.0
sz300826,测绘股份,2021-12-27,20.19,20.45,19.86,20.44,20.18,847580.0,17177591.0,1039421911.3599999,2289280000.0
sz300826,测绘股份,2021-12-28,20.34,20.63,20.31,20.53,20.44,865400.0,17682004.0,1043998622.32,2299360000.0
sz300826,测绘股份,2021-12-29,20.53,20.69,20.12,20.29,20.53,1023420.0,20824885.0,1031794059.76,2272480000.0
sz300826,测绘股份,2021-12-30,20.3,21.43,20.3,20.69,20.29,1386856.0,28858880.0,1052134997.36,2317280000.0
sz300826,测绘股份,2021-12-31,20.91,20.91,20.51,20.62,20.69,1083020.0,22443263.0,1048575333.2800001,2309440000.0
sz300826,测绘股份,2022-01-04,20.45,21.21,20.45,21.21,20.62,1469668.0,30793378.0,1078578216.24,2375520000.0
sz300826,测绘股份,2022-01-05,21.14,21.14,20.26,20.55,21.21,1287000.0,26611602.0,1045015669.1999999,2301600000.0
sz300826,测绘股份,2022-01-06,20.4,22.25,20.33,22.13,20.55,4417754.0,95881014.0,1125362372.72,2478560000.0
sz300826,测绘股份,2022-01-07,22.13,22.45,21.37,21.5,22.13,3189968.0,69317817.0,1093325396.0,2408000000.0
sz300826,测绘股份,2022-01-10,21.33,22.3,21.33,22.0,21.5,2400165.0,52521954.0,1118751568.0,2464000000.0
sz300826,测绘股份,2022-01-11,21.86,22.24,21.65,21.98,22.0,1672820.0,36718999.0,1117734521.12,2461760000.0
sz300826,测绘股份,2022-01-12,21.83,22.69,21.5,22.24,21.98,2449160.0,54444009.0,1130956130.56,2490880000.0
sz300826,测绘股份,2022-01-13,22.18,22.38,21.88,22.15,22.24,1937120.0,42937687.0,1126379419.6,2480800000.0
sz300826,测绘股份,2022-01-14,22.48,22.87,21.55,21.68,22.15,3271580.0,72430358.0,1102478817.92,2428160000.0
