数据由邢不行整理
股票代码,股票名称,交易日期,开盘价,最高价,最低价,收盘价,前收盘价,成交量,成交额,流通市值,总市值
sz300624,N万兴,2018-01-18,21.85,23.83,21.85,23.83,16.55,7100.0,167873.0,476600000.0,1906400000.0
sz300624,万兴科技,2018-01-19,26.21,26.21,26.21,26.21,23.83,1400.0,36694.0,524200000.0,2096800000.0
sz300624,万兴科技,2018-01-22,28.83,28.83,28.83,28.83,26.21,2600.0,74958.0,576600000.0,2306400000.0
sz300624,万兴科技,2018-01-23,31.71,31.71,31.71,31.71,28.83,2983.0,94590.0,634200000.0,2536800000.0
sz300624,万兴科技,2018-01-24,34.88,34.88,34.88,34.88,31.71,9500.0,331360.0,697600000.0,2790400000.0
sz300624,万兴科技,2018-01-25,38.37,38.37,38.37,38.37,34.88,16100.0,617757.0,767400000.0,3069600000.0
sz300624,万兴科技,2018-01-26,42.21,42.21,42.21,42.21,38.37,48841.0,2061578.0,844200000.0,3376800000.0
sz300624,万兴科技,2018-01-29,46.43,46.43,46.43,46.43,42.21,80404.0,3733157.0,928600000.0,3714400000.0
sz300624,万兴科技,2018-01-30,51.07,51.07,51.07,51.07,46.43,303700.0,15509959.0,1021400000.0,4085600000.0
sz300624,万兴科技,2018-01-31,56.18,56.18,56.18,56.18,51.07,281352.0,15806355.0,1123600000.0,4494400000.0
sz300624,万兴科技,2018-02-01,60.0,61.8,57.33,61.0,56.18,14508743.0,860153604.0,1220000000.0,4880000000.0
sz300624,万兴科技,2018-02-02,58.55,60.44,54.9,54.9,61.0,8595102.0,493262821.0,1098000000.0,4392000000.0
sz300624,万兴科技,2018-02-05,50.0,51.2,49.41,49.41,54.9,5127411.0,255326216.0,988200000.0,3952800000.0
sz300624,万兴科技,2018-02-06,44.82,46.8,44.47,44.47,49.41,6467867.0,291226842.0,889400000.0,3557600000.0
sz300624,万兴科技,2018-02-07,47.0,48.92,45.0,47.3,44.47,8438467.0,402867446.0,946000000.0,3784000000.0
sz300624,万兴科技,2018-02-08,45.03,48.85,43.5,47.7,47.3,6968119.0,322202133.0,954000000.0,3816000000.0
sz300624,万兴科技,2018-02-09,45.03,51.49,45.02,47.65,47.7,8281643.0,399998743.0,953000000.0,3812000000.0
sz300624,万兴科技,2018-02-12,49.6,52.42,48.7,52.42,47.65,6852839.0,347597231.0,1048400000.0,4193600000.0
sz300624,万兴科技,2018-02-13,54.0,54.0,47.18,47.18,52.42,6751307.0,334086606.0,943600000.0,3774400000.0
sz300624,万兴科技,2018-02-14,45.0,46.6,42.46,44.0,47.18,6223562.0,276641629.0,880000000.0,3520000000.0
sz300624,万兴科技,2018-02-22,44.45,47.1,43.63,45.83,44.0,4615133.0,209675625.0,916600000.0,3666400000.0
sz300624,万兴科技,2018-02-23,45.34,46.57,44.92,46.39,45.83,4226722.0,193746506.0,927800000.0,3711200000.0
sz300624,万兴科技,2018-02-26,48.29,49.45,47.5,48.89,46.39,5326774.0,258817752.0,977800000.0,3911200000.0
sz300624,万兴科技,2018-02-27,48.1,52.93,48.03,50.35,48.89,6166674.0,312281409.0,1007000000.0,4028000000.0
sz300624,万兴科技,2018-02-28,48.9,48.9,45.35,45.48,50.35,5756736.0,269760784.0,909600000.0,3638400000.0
sz300624,万兴科技,2018-03-01,45.12,50.03,45.12,50.03,45.48,3398696.0,163187395.0,1000600000.0,4002400000.0
sz300624,万兴科技,2018-03-02,52.37,55.03,52.3,55.03,50.03,10691870.0,581711195.0,1100600000.0,4402400000.0
sz300624,万兴科技,2018-03-05,56.17,60.53,55.0,60.53,55.03,9849805.0,574397888.0,1210600000.0,4842400000.0
sz300624,万兴科技,2018-03-06,64.0,66.58,62.22,66.58,60.53,7794095.0,507014338.0,1331600000.0,5326400000.0
sz300624,万兴科技,2018-03-07,71.29,73.24,69.99,73.24,66.58,7863801.0,569505318.0,1464800000.0,5859200000.0
sz300624,万兴科技,2018-03-08,79.97,80.56,78.0,80.56,73.24,1989184.0,158992697.0,1611200000.0,6444800000.0
sz300624,万兴科技,2018-03-16,88.62,88.62,88.62,88.62,80.56,740000.0,65578800.0,1772400000.0,7089600000.0
sz300624,万兴科技,2018-03-19,97.46,97.48,95.0,97.48,88.62,4308921.0,419048750.0,1949600000.0,7798400000.0
sz300624,万兴科技,2018-03-20,102.0,107.23,99.69,107.23,97.48,7896968.0,823599543.0,2144600000.0,8578400000.0
sz300624,万兴科技,2018-03-21,114.0,115.38,107.23,111.85,107.23,8402358.0,940238163.0,2237000000.0,8948000000.0
sz300624,万兴科技,2018-03-22,115.0,117.9,106.75,109.0,111.85,10974826.0,1233187532.0,2180000000.0,8720000000.0
sz300624,万兴科技,2018-03-23,106.0,119.9,106.0,119.9,109.0,10515588.0,1218572383.0,2398000000.0,9592000000.0
sz300624,万兴科技,2018-03-26,119.8,119.8,109.01,114.54,119.9,9700444.0,1114040610.0,2290800000.0,9163200000.0
sz300624,万兴科技,2018-03-27,118.0,125.99,115.2,125.99,114.54,7155142.0,863145196.0,2519800000.0,10079200000.0
sz300624,万兴科技,2018-04-04,138.59,138.59,133.15,138.59,125.99,4547668.0,628748529.0,2771800000.0,11087200000.0
sz300624,万兴科技,2018-04-09,148.0,152.45,142.33,152.45,138.59,3920124.0,590542681.0,3049000000.0,12196000000.0
sz300624,万兴科技,2018-04-10,167.0,167.7,142.0,143.11,152.45,10411153.0,1600854275.0,2862200000.0,11448800000.0
sz300624,万兴科技,2018-04-11,145.71,148.87,141.0,148.3,143.11,7573868.0,1101432447.0,2966000000.0,11864000000.0
sz300624,万兴科技,2018-04-12,150.0,151.0,139.0,142.0,148.3,7639322.0,1097367897.0,2840000000.0,11360000000.0
sz300624,万兴科技,2018-04-13,140.66,144.0,130.5,131.84,142.0,7700078.0,1050212678.0,2636800000.0,10547200000.0
sz300624,万兴科技,2018-04-16,129.95,136.3,129.9,134.0,131.84,5862846.0,779429854.0,2680000000.0,10720000000.0
sz300624,万兴科技,2018-04-17,132.0,137.99,126.0,126.0,134.0,7549518.0,1001612641.0,2520000000.0,10080000000.0
sz300624,万兴科技,2018-04-18,127.0,131.96,122.03,129.9,126.0,6852972.0,881053511.0,2598000000.0,10392000000.0
sz300624,万兴科技,2018-04-19,128.0,142.89,121.21,122.9,129.9,10804512.0,1434189202.0,2458000000.0,9832000000.0
sz300624,万兴科技,2018-04-20,120.0,121.79,110.61,111.05,122.9,9867724.0,1132516214.0,2221000000.0,8884000000.0
sz300624,万兴科技,2018-04-23,112.05,115.0,111.54,113.7,111.05,5578100.0,630618651.0,2274000000.0,9096000000.0
sz300624,万兴科技,2018-04-24,115.0,125.07,113.5,125.07,113.7,8661658.0,1050456615.0,2501400000.0,10005600000.0
sz300624,万兴科技,2018-04-25,130.0,136.56,120.0,120.6,125.07,12261665.0,1564601685.0,2412000000.0,9648000000.0
sz300624,万兴科技,2018-04-26,116.98,123.0,112.41,113.08,120.6,6955314.0,801991307.0,2261600000.0,9046400000.0
sz300624,万兴科技,2018-04-27,115.0,119.0,112.5,112.5,113.08,5503614.0,634011698.0,2250000000.0,9000000000.0
sz300624,万兴科技,2018-05-02,113.52,120.0,108.1,120.0,112.5,7211480.0,824280936.0,2400000000.0,9600000000.0
sz300624,万兴科技,2018-05-03,118.0,126.33,117.01,121.72,120.0,7912745.0,963617312.0,2434400000.0,9737600000.0
sz300624,万兴科技,2018-05-04,118.43,120.44,112.54,113.81,121.72,6218971.0,722146629.0,2276200000.0,9104800000.0
sz300624,万兴科技,2018-05-07,113.8,125.19,113.03,125.19,113.81,6424755.0,770658700.0,2503800000.0,10015200000.0
sz300624,万兴科技,2018-05-08,130.47,131.45,120.02,120.9,125.19,8502572.0,1052614139.0,2418000000.0,9672000000.0
sz300624,万兴科技,2018-05-09,117.0,120.66,114.59,120.26,120.9,5875522.0,686688836.0,2405200000.0,9620800000.0
sz300624,万兴科技,2018-05-10,118.99,121.8,116.5,117.52,120.26,4140605.0,491981908.0,2350400000.0,9401600000.0
sz300624,万兴科技,2018-05-11,116.0,123.9,115.04,117.22,117.52,5705524.0,681167262.0,2344400000.0,9377600000.0
sz300624,万兴科技,2018-05-14,113.0,119.5,111.15,116.12,117.22,4555068.0,525608082.0,2322400000.0,9289600000.0
sz300624,万兴科技,2018-05-15,116.12,123.6,115.1,119.6,116.12,6584736.0,789840519.0,2392000000.0,9568000000.0
sz300624,万兴科技,2018-05-16,117.0,120.05,115.2,117.48,119.6,4981385.0,583073871.0,2349600000.0,9398400000.0
sz300624,万兴科技,2018-05-17,115.01,123.21,114.0,117.1,117.48,5604155.0,665778262.0,2342000000.0,9368000000.0
sz300624,万兴科技,2018-05-18,116.0,122.0,115.52,118.46,117.1,5211458.0,619592561.0,2369200000.0,9476800000.0
sz300624,万兴科技,2018-05-21,120.21,130.31,120.21,130.31,118.46,9149976.0,1171563388.0,2606200000.0,10424800000.0
sz300624,万兴科技,2018-05-22,134.96,134.97,124.06,124.87,130.31,10000403.0,1273982225.0,2497400000.0,9989600000.0
sz300624,万兴科技,2018-05-23,122.0,128.94,121.01,125.23,124.67,7012016.0,877389783.0,2504600000.0,10018400000.0
sz300624,万兴科技,2018-05-24,122.75,124.37,119.5,120.2,125.23,5252128.0,637408688.0,2404000000.0,9616000000.0
sz300624,万兴科技,2018-05-25,120.0,121.48,114.5,114.58,120.2,4785314.0,560253484.0,2291600000.0,9166400000.0
sz300624,万兴科技,2018-05-28,114.97,115.41,108.61,109.75,114.58,3961712.0,441081391.0,2195000000.0,8780000000.0
sz300624,万兴科技,2018-05-29,111.1,112.88,109.76,112.5,109.75,3238476.0,360738843.0,2250000000.0,9000000000.0
sz300624,万兴科技,2018-05-30,110.02,111.0,101.25,101.25,112.5,4395107.0,466069364.0,2025000000.0,8100000000.0
sz300624,万兴科技,2018-05-31,101.5,103.5,100.33,102.85,101.25,3237094.0,330882436.0,2057000000.0,8228000000.0
sz300624,万兴科技,2018-06-01,101.5,104.98,96.1,98.2,102.85,4048920.0,405385097.0,1964000000.0,7856000000.0
sz300624,万兴科技,2018-06-04,99.6,100.46,96.71,97.99,98.2,2466335.0,243497432.0,1959800000.0,7839200000.0
sz300624,万兴科技,2018-06-05,98.2,101.5,98.05,101.38,97.99,3868559.0,385899335.0,2027600000.0,8110400000.0
sz300624,万兴科技,2018-06-06,100.48,103.0,99.5,99.98,101.38,2982550.0,299730607.0,1999600000.0,7998400000.0
sz300624,万兴科技,2018-06-07,100.5,102.3,96.2,96.47,99.98,3125117.0,306722154.0,1929400000.0,7717600000.0
sz300624,万兴科技,2018-06-08,96.35,99.66,96.0,97.2,96.47,2817102.0,274880724.0,1944000000.0,7776000000.0
sz300624,万兴科技,2018-06-11,97.48,98.8,95.22,95.6,97.2,2323616.0,224717382.0,1912000000.0,7648000000.0
sz300624,万兴科技,2018-06-12,95.15,96.18,89.81,93.9,95.6,3259274.0,302393485.0,1878000000.0,7512000000.0
sz300624,万兴科技,2018-06-13,94.38,95.38,90.21,90.25,93.9,2525171.0,234232146.0,1805000000.0,7220000000.0
sz300624,万兴科技,2018-06-14,90.6,99.28,90.11,99.28,90.25,4600209.0,447755743.0,1985600000.0,7942400000.0
sz300624,万兴科技,2018-06-15,99.55,99.87,90.94,92.95,99.28,4559530.0,435451825.0,1859000000.0,7436000000.0
sz300624,万兴科技,2018-06-19,89.85,89.99,83.66,84.52,92.95,3951982.0,342714475.0,1690400000.0,6761600000.0
sz300624,万兴科技,2018-06-20,85.7,89.58,84.52,86.8,84.52,3947022.0,344217593.0,1736000000.0,6944000000.0
sz300624,万兴科技,2018-06-21,85.16,85.95,80.46,81.41,86.8,3829216.0,318171154.0,1628200000.0,6512800000.0
sz300624,万兴科技,2018-06-22,81.66,85.57,80.86,83.42,81.41,3499015.0,293786193.0,1668400000.0,6673600000.0
sz300624,万兴科技,2018-06-25,83.5,86.2,82.88,84.85,83.42,3208200.0,271913587.0,1697000000.0,6788000000.0
sz300624,万兴科技,2018-06-26,83.51,90.8,82.2,87.85,84.85,4432887.0,386861617.0,1757000000.0,7028000000.0
sz300624,万兴科技,2018-06-27,87.35,89.56,86.26,88.66,87.85,3790355.0,332503475.0,1773200000.0,7092800000.0
sz300624,万兴科技,2018-06-28,88.0,90.94,84.5,84.6,88.66,3626855.0,317660591.0,1692000000.0,6768000000.0
sz300624,万兴科技,2018-06-29,85.0,93.06,83.55,89.8,84.6,7075459.0,637127218.0,1796000000.0,7184000000.0
sz300624,万兴科技,2018-07-02,88.54,90.58,85.33,87.01,89.8,4682171.0,412267050.0,1740200000.0,6960800000.0
sz300624,万兴科技,2018-07-03,87.6,90.4,86.76,89.9,87.01,4214466.0,374263523.0,1798000000.0,7192000000.0
sz300624,万兴科技,2018-07-04,90.0,90.0,81.87,83.12,89.9,4370825.0,373906964.0,1662400000.0,6649600000.0
sz300624,万兴科技,2018-07-05,83.08,85.1,80.81,81.3,83.12,2583851.0,215129897.0,1626000000.0,6504000000.0
sz300624,万兴科技,2018-07-06,81.0,86.99,81.0,83.83,81.3,3836466.0,323938809.0,1676600000.0,6706400000.0
sz300624,万兴科技,2018-07-09,83.83,85.6,83.4,85.36,83.83,2786496.0,236238960.0,1707200000.0,6828800000.0
sz300624,万兴科技,2018-07-10,85.35,87.85,84.43,87.1,85.36,3355338.0,289094980.0,1742000000.0,6968000000.0
sz300624,万兴科技,2018-07-11,86.0,86.0,82.6,84.95,87.1,3476089.0,293220527.0,1699000000.0,6796000000.0
sz300624,万兴科技,2018-07-12,85.7,89.58,85.55,87.81,84.95,4096994.0,360701806.0,1756200000.0,7024800000.0
sz300624,万兴科技,2018-07-13,87.4,89.5,86.3,86.68,87.81,3314991.0,290473923.0,1733600000.0,6934400000.0
sz300624,万兴科技,2018-07-16,87.9,88.28,86.51,87.22,86.68,2152737.0,187922972.0,1744400000.0,6977600000.0
sz300624,万兴科技,2018-07-17,86.38,87.65,83.65,85.59,87.22,2650557.0,225345929.0,1711800000.0,6847200000.0
sz300624,万兴科技,2018-07-18,85.36,86.39,83.2,83.32,85.59,2001516.0,169436941.0,1666400000.0,6665600000.0
sz300624,万兴科技,2018-07-19,83.99,84.24,81.3,81.77,83.32,1900027.0,156387104.0,1635400000.0,6541600000.0
sz300624,万兴科技,2018-07-20,82.7,83.48,81.55,82.6,81.77,1880737.0,155713904.0,1652000000.0,6608000000.0
sz300624,万兴科技,2018-07-23,82.45,82.45,81.0,82.38,82.6,1590933.0,129999554.0,1647600000.0,6590400000.0
sz300624,万兴科技,2018-07-24,82.8,84.78,82.48,83.88,82.38,1878027.0,157226585.0,1677600000.0,6710400000.0
sz300624,万兴科技,2018-07-25,84.44,84.9,81.8,81.88,83.88,2031965.0,168828295.0,1637600000.0,6550400000.0
sz300624,万兴科技,2018-07-26,80.5,80.73,75.1,75.61,81.88,3641770.0,282054340.0,1512200000.0,6048800000.0
sz300624,万兴科技,2018-07-27,74.15,76.58,74.15,74.65,75.61,1292298.0,97588457.0,1493000000.0,5972000000.0
sz300624,万兴科技,2018-07-30,74.52,75.41,72.02,73.05,74.65,1473434.0,108328066.0,1461000000.0,5844000000.0
sz300624,万兴科技,2018-07-31,73.33,74.0,72.62,73.43,73.05,1051785.0,77149135.0,1468600000.0,5874400000.0
sz300624,万兴科技,2018-08-01,74.4,74.67,72.08,72.1,73.43,1169694.0,85483027.0,1442000000.0,5768000000.0
sz300624,万兴科技,2018-08-02,72.0,74.28,68.67,73.68,72.1,3171917.0,227208950.0,1473600000.0,5894400000.0
sz300624,万兴科技,2018-08-03,73.08,73.8,70.44,70.44,73.68,1752179.0,126472252.0,1408800000.0,5635200000.0
sz300624,万兴科技,2018-08-06,70.1,70.1,66.3,66.8,70.44,2004531.0,136055048.0,1336000000.0,5344000000.0
sz300624,万兴科技,2018-08-07,66.81,71.4,66.37,69.81,66.8,2797421.0,193045632.0,1396200000.0,5584800000.0
sz300624,万兴科技,2018-08-08,69.8,70.0,66.51,67.0,69.81,2313990.0,158051318.0,1340000000.0,5360000000.0
sz300624,万兴科技,2018-08-09,67.41,73.7,67.41,73.7,67.0,4820541.0,349687260.0,1474000000.0,5896000000.0
sz300624,万兴科技,2018-08-10,72.05,73.12,71.11,72.76,73.7,3731390.0,269813006.0,1455200000.0,5820800000.0
sz300624,万兴科技,2018-08-13,71.2,73.38,70.5,72.99,72.76,2669976.0,191574177.0,1459800000.0,5839200000.0
sz300624,万兴科技,2018-08-14,72.91,72.91,71.0,71.95,72.99,1939837.0,139056917.0,1439000000.0,5756000000.0
sz300624,万兴科技,2018-08-15,71.53,71.7,69.5,69.56,71.95,1609721.0,113375950.0,1391200000.0,5564800000.0
sz300624,万兴科技,2018-08-16,67.8,69.76,67.0,68.04,69.56,1278800.0,87475473.0,1360800000.0,5443200000.0
sz300624,万兴科技,2018-08-17,69.31,69.31,66.3,66.87,68.04,1398160.0,94732731.0,1337400000.0,5349600000.0
sz300624,万兴科技,2018-08-20,66.86,68.58,66.5,68.58,66.87,1382519.0,93487455.0,1371600000.0,5486400000.0
sz300624,万兴科技,2018-08-21,68.6,70.6,67.2,70.21,68.58,2103439.0,145359493.0,1404200000.0,5616800000.0
sz300624,万兴科技,2018-08-22,69.5,70.2,67.9,67.93,70.21,1531572.0,105574858.0,1358600000.0,5434400000.0
sz300624,万兴科技,2018-08-23,68.7,74.5,68.49,70.8,67.93,3979178.0,285281260.0,1416000000.0,5664000000.0
sz300624,万兴科技,2018-08-24,70.05,72.2,69.75,70.51,70.8,2333349.0,165457863.0,1410200000.0,5640800000.0
sz300624,万兴科技,2018-08-27,70.99,72.44,70.76,71.8,70.51,2180380.0,156260257.0,1436000000.0,5744000000.0
sz300624,万兴科技,2018-08-28,72.0,72.3,70.37,70.91,71.8,1687564.0,120280300.0,1418200000.0,5672800000.0
sz300624,万兴科技,2018-08-29,70.8,71.1,69.66,70.14,70.91,1154330.0,80996592.0,1402800000.0,5611200000.0
sz300624,万兴科技,2018-08-30,70.16,72.17,69.82,70.0,70.14,1840009.0,130879337.0,1400000000.0,5600000000.0
sz300624,万兴科技,2018-08-31,69.87,70.0,66.6,66.99,70.0,1906370.0,128998797.0,1339800000.0,5359200000.0
sz300624,万兴科技,2018-09-03,66.51,67.09,62.51,64.7,66.99,1965322.0,126528538.0,1294000000.0,5176000000.0
sz300624,万兴科技,2018-09-04,64.24,66.28,64.23,65.35,64.7,1435298.0,93530038.0,1307000000.0,5228000000.0
sz300624,万兴科技,2018-09-05,64.96,66.5,64.55,65.31,65.35,1666890.0,109147107.0,1306200000.0,5224800000.0
sz300624,万兴科技,2018-09-06,65.01,67.3,64.32,65.79,65.31,2067528.0,136737520.0,1315800000.0,5263200000.0
sz300624,万兴科技,2018-09-07,65.99,68.48,65.38,66.86,65.79,2348333.0,157341637.0,1337200000.0,5348800000.0
sz300624,万兴科技,2018-09-10,67.4,70.14,65.43,69.04,66.86,3556167.0,243162041.0,1380800000.0,5523200000.0
sz300624,万兴科技,2018-09-11,70.0,70.0,67.67,68.35,69.04,2211705.0,151753229.0,1367000000.0,5468000000.0
sz300624,万兴科技,2018-09-12,67.1,69.45,66.66,68.16,68.35,1955272.0,133034045.0,1363200000.0,5452800000.0
sz300624,万兴科技,2018-09-13,68.78,69.3,67.05,68.79,68.16,1814814.0,123940059.0,1375800000.0,5503200000.0
sz300624,万兴科技,2018-09-14,68.78,68.79,64.0,64.33,68.79,2430952.0,160932247.0,1286600000.0,5146400000.0
sz300624,万兴科技,2018-09-17,63.15,64.4,62.67,63.55,64.33,1119500.0,71094210.0,1271000000.0,5084000000.0
sz300624,万兴科技,2018-09-18,63.55,64.5,62.31,64.32,63.55,1364270.0,86932978.0,1286400000.0,5145600000.0
sz300624,万兴科技,2018-09-19,64.0,70.75,63.21,67.1,64.32,3492428.0,235147976.0,1342000000.0,5368000000.0
sz300624,万兴科技,2018-09-20,66.79,66.79,65.5,65.85,67.1,1778023.0,117431550.0,1317000000.0,5268000000.0
sz300624,万兴科技,2018-09-21,66.0,66.45,65.05,65.94,65.85,1148153.0,75667219.0,1318800000.0,5275200000.0
sz300624,万兴科技,2018-09-25,65.0,66.88,65.0,65.87,65.94,892710.0,58881630.0,1317400000.0,5269600000.0
sz300624,万兴科技,2018-09-26,66.18,67.45,65.41,66.6,65.87,1552932.0,103133154.0,1332000000.0,5328000000.0
sz300624,万兴科技,2018-09-27,67.0,68.66,66.2,67.29,66.6,2395313.0,161876006.0,1345800000.0,5383200000.0
sz300624,万兴科技,2018-09-28,66.56,70.88,66.4,69.99,67.29,3674530.0,255106036.0,1399800000.0,5599200000.0
sz300624,万兴科技,2018-10-08,68.0,68.88,67.01,67.82,69.99,2076461.0,140968953.0,1356400000.0,5425600000.0
sz300624,万兴科技,2018-10-09,68.23,70.87,68.23,69.7,67.82,2392257.0,165951686.0,1394000000.0,5576000000.0
sz300624,万兴科技,2018-10-10,69.7,72.0,67.5,70.7,69.7,3286622.0,229334629.0,1414000000.0,5656000000.0
sz300624,万兴科技,2018-10-11,67.17,68.53,63.63,63.74,70.7,2841827.0,187112080.0,1274800000.0,5099200000.0
sz300624,万兴科技,2018-10-12,64.0,64.29,57.61,60.26,63.74,2900833.0,175631204.0,1205200000.0,4820800000.0
sz300624,万兴科技,2018-10-15,60.79,61.22,59.59,59.6,60.26,1405191.0,84870026.0,1192000000.0,4768000000.0
sz300624,万兴科技,2018-10-16,59.5,62.88,59.5,60.29,59.6,2189843.0,134050365.0,1205800000.0,4823200000.0
sz300624,万兴科技,2018-10-17,60.2,62.5,59.58,61.35,60.29,1909008.0,116714126.0,1227000000.0,4908000000.0
sz300624,万兴科技,2018-10-18,60.14,61.8,60.0,60.0,61.35,1654500.0,100630872.0,1200000000.0,4800000000.0
sz300624,万兴科技,2018-10-19,58.8,61.48,57.23,61.23,60.0,2027468.0,122194633.0,1224600000.0,4898400000.0
sz300624,万兴科技,2018-10-22,61.0,64.76,61.0,63.69,61.23,2937347.0,185510781.0,1273800000.0,5095200000.0
sz300624,万兴科技,2018-10-23,63.2,64.4,61.52,61.85,63.69,2204182.0,138022740.0,1237000000.0,4948000000.0
sz300624,万兴科技,2018-10-24,61.59,62.3,60.51,60.83,61.85,1388205.0,85053037.0,1216600000.0,4866400000.0
sz300624,万兴科技,2018-10-25,57.96,57.96,54.8,56.14,60.83,2850722.0,160155348.0,1122800000.0,4491200000.0
sz300624,万兴科技,2018-10-26,56.75,57.79,55.81,56.29,56.14,1466886.0,83049604.0,1125800000.0,4503200000.0
sz300624,万兴科技,2018-10-29,55.57,56.66,54.56,55.3,56.29,1144970.0,63710315.0,1106000000.0,4424000000.0
sz300624,万兴科技,2018-10-30,55.4,58.16,54.0,57.2,55.3,2335969.0,132240113.0,1144000000.0,4576000000.0
sz300624,万兴科技,2018-10-31,56.97,58.5,56.6,57.3,57.2,2028468.0,116456693.0,1146000000.0,4584000000.0
sz300624,万兴科技,2018-11-01,58.03,62.0,57.52,58.3,57.3,3091793.0,182266219.0,1166000000.0,4664000000.0
sz300624,万兴科技,2018-11-02,59.0,60.58,58.78,59.87,58.3,2610998.0,155520197.0,1197400000.0,4789600000.0
sz300624,万兴科技,2018-11-05,60.3,61.8,58.52,59.81,59.87,2586625.0,155615097.0,1196200000.0,4784800000.0
sz300624,万兴科技,2018-11-06,59.5,65.79,56.5,65.79,59.81,6351169.0,399732809.0,1315800000.0,5263200000.0
sz300624,万兴科技,2018-11-07,65.88,68.49,64.49,64.6,65.79,6346531.0,420765537.0,1292000000.0,5168000000.0
sz300624,万兴科技,2018-11-08,62.07,63.5,61.9,61.95,64.6,3219776.0,201386190.0,1239000000.0,4956000000.0
sz300624,万兴科技,2018-11-09,62.03,63.2,60.8,60.96,61.95,2049683.0,126776679.0,1219200000.0,4876800000.0
sz300624,万兴科技,2018-11-12,60.3,62.84,60.3,62.61,60.96,2250962.0,139296491.0,1252200000.0,5008800000.0
sz300624,万兴科技,2018-11-13,61.09,62.87,61.0,61.98,62.61,2470596.0,152952586.0,1239600000.0,4958400000.0
sz300624,万兴科技,2018-11-14,61.5,63.36,61.21,62.9,61.98,2394808.0,150191265.0,1258000000.0,5032000000.0
sz300624,万兴科技,2018-11-15,64.4,67.84,63.54,66.42,62.9,4484224.0,294690317.0,1328400000.0,5313600000.0
sz300624,万兴科技,2018-11-16,66.34,72.48,65.68,68.5,66.42,5308374.0,365691016.0,1370000000.0,5480000000.0
sz300624,万兴科技,2018-11-19,69.28,69.88,66.5,67.7,68.5,3085482.0,209405634.0,1354000000.0,5416000000.0
sz300624,万兴科技,2018-11-20,66.95,69.98,66.01,67.99,67.7,3647493.0,247564808.0,1359800000.0,5439200000.0
sz300624,万兴科技,2018-11-21,66.08,67.5,65.05,66.57,67.99,2379150.0,157742004.0,1331400000.0,5325600000.0
sz300624,万兴科技,2018-11-22,67.45,69.5,67.08,67.27,66.57,3038689.0,207566709.0,1345400000.0,5381600000.0
sz300624,万兴科技,2018-11-23,66.99,66.99,62.88,63.9,67.27,2479894.0,160709254.0,1278000000.0,5112000000.0
sz300624,万兴科技,2018-11-26,62.62,62.9,59.7,60.39,63.9,2375124.0,144764108.0,1207800000.0,4831200000.0
sz300624,万兴科技,2018-11-27,60.45,61.33,59.54,60.18,60.39,1290083.0,78204690.0,1203600000.0,4814400000.0
sz300624,万兴科技,2018-11-28,60.56,61.25,59.63,61.2,60.18,1291793.0,78241044.0,1224000000.0,4896000000.0
sz300624,万兴科技,2018-11-29,61.32,61.89,57.6,57.89,61.2,1754302.0,105032059.0,1157800000.0,4631200000.0
sz300624,万兴科技,2018-11-30,57.31,58.99,56.6,58.63,57.89,1341320.0,77806564.0,1172600000.0,4690400000.0
sz300624,万兴科技,2018-12-03,60.58,61.16,59.51,60.5,58.63,1659651.0,100342953.0,1210000000.0,4840000000.0
sz300624,万兴科技,2018-12-04,60.49,61.6,59.85,61.02,60.5,1760480.0,106710018.0,1220400000.0,4881600000.0
sz300624,万兴科技,2018-12-05,59.48,60.5,59.01,59.9,61.02,1218150.0,72873170.0,1198000000.0,4792000000.0
sz300624,万兴科技,2018-12-06,59.5,60.18,58.38,58.6,59.9,1111227.0,65780138.0,1172000000.0,4688000000.0
sz300624,万兴科技,2018-12-07,59.28,59.57,58.58,58.62,58.6,673946.0,39731286.0,1172400000.0,4689600000.0
sz300624,万兴科技,2018-12-10,58.5,59.51,58.01,58.08,58.62,672144.0,39454097.0,1161600000.0,4646400000.0
sz300624,万兴科技,2018-12-11,58.3,58.8,58.0,58.52,58.08,733110.0,42794025.0,1170400000.0,4681600000.0
sz300624,万兴科技,2018-12-12,58.9,59.3,58.4,58.6,58.52,742784.0,43671712.0,1172000000.0,4754921200.0
sz300624,万兴科技,2018-12-13,58.92,59.2,57.69,59.19,58.6,1277750.0,75105317.0,1183800000.0,4802794980.0
sz300624,万兴科技,2018-12-14,59.27,59.27,57.25,57.27,59.19,962175.0,55922775.0,1145400000.0,4647002340.0
sz300624,万兴科技,2018-12-17,57.1,57.84,56.5,57.8,57.27,728533.0,41678946.0,1156000000.0,4690007600.0
sz300624,万兴科技,2018-12-18,57.8,58.5,57.12,57.7,57.8,717340.0,41518286.0,1154000000.0,4681893400.0
sz300624,万兴科技,2018-12-19,58.0,58.53,57.08,57.4,57.7,712330.0,41122279.0,1148000000.0,4657550800.0
sz300624,万兴科技,2018-12-20,56.79,58.5,56.78,58.1,57.4,791497.0,45773724.0,1162000000.0,4714350200.0
sz300624,万兴科技,2018-12-21,57.9,59.95,57.7,59.48,58.1,2044645.0,120936934.0,1189600000.0,4826326160.0
sz300624,万兴科技,2018-12-24,59.82,61.46,58.94,60.9,59.48,2683512.0,162017966.0,1218000000.0,4941547800.0
sz300624,万兴科技,2018-12-25,59.94,59.94,57.18,59.5,60.9,2199890.0,129440866.0,1190000000.0,4827949000.0
sz300624,万兴科技,2018-12-26,59.5,60.25,58.48,58.48,59.5,1395663.0,82775893.0,1169600000.0,4745184160.0
sz300624,万兴科技,2018-12-27,59.3,59.48,56.02,56.24,58.48,1406707.0,81909826.0,1124800000.0,4563426080.0
sz300624,万兴科技,2018-12-28,55.88,56.35,54.0,54.06,56.24,1392840.0,76661614.0,1081200000.0,4386536520.0
sz300624,万兴科技,2019-01-02,54.06,54.87,52.91,52.94,54.06,1032430.0,55382227.0,1058800000.0,4295657480.0
sz300624,万兴科技,2019-01-03,52.94,53.46,51.05,51.13,52.94,1290350.0,67321061.0,1022600000.0,4148790460.0
sz300624,万兴科技,2019-01-04,50.6,52.39,49.6,51.69,51.13,1462476.0,74856433.0,1033800000.0,4194229980.0
sz300624,万兴科技,2019-01-07,52.3,52.75,51.72,52.35,51.69,1272728.0,66569820.0,1047000000.0,4247783700.0
sz300624,万兴科技,2019-01-08,52.49,53.85,52.2,52.28,52.35,1319724.0,69732673.0,1045600000.0,4242103760.0
sz300624,万兴科技,2019-01-09,52.29,53.09,51.4,52.23,52.28,1359362.0,71314637.0,1044600000.0,4238046660.0
sz300624,万兴科技,2019-01-10,52.0,52.87,51.36,51.47,52.23,1224915.0,63698585.0,1029400000.0,4176378740.0
sz300624,万兴科技,2019-01-11,46.32,46.49,46.32,46.32,51.47,1018478.0,47180939.0,926400000.0,3758497440.0
sz300624,万兴科技,2019-01-14,45.21,46.15,44.83,44.94,46.32,2995103.0,135426080.0,898800000.0,3646521480.0
sz300624,万兴科技,2019-01-15,45.06,45.16,43.88,44.57,44.94,2162363.0,96098843.0,891400000.0,3616498940.0
sz300624,万兴科技,2019-01-16,44.36,45.45,44.36,44.94,44.57,1688813.0,75849091.0,898800000.0,3646521480.0
sz300624,万兴科技,2019-01-17,44.7,44.7,43.53,43.58,44.94,1782088.0,78207781.0,871600000.0,3536168360.0
sz300624,万兴科技,2019-01-18,44.01,44.81,43.7,44.3,43.58,1601043.0,70981348.0,2188420443.0,3594590600.0
sz300624,万兴科技,2019-01-21,44.11,44.58,44.01,44.48,44.3,1080816.0,47895186.0,2197312444.8,3609196160.0
sz300624,万兴科技,2019-01-22,44.2,45.0,44.2,44.89,44.48,1351216.0,60477632.0,2217566448.9,3642464380.0
sz300624,万兴科技,2019-01-23,44.89,44.9,44.23,44.51,44.89,915205.0,40683851.0,2198794445.1,3611630420.0
sz300624,万兴科技,2019-01-24,44.51,45.98,44.25,45.57,44.51,2114573.0,96027770.0,2251158455.7,3697640940.0
sz300624,万兴科技,2019-01-25,45.47,45.47,44.41,44.49,45.57,1445706.0,65121696.0,2197806444.9,3610007580.0
sz300624,万兴科技,2019-01-28,44.55,44.93,43.8,43.99,44.49,1033016.0,45922247.0,2173106439.9,3569436580.0
sz300624,万兴科技,2019-01-29,43.83,44.15,42.2,42.36,43.99,1294448.0,55419482.0,2092584423.6,3437175120.0
sz300624,万兴科技,2019-01-30,42.41,45.76,42.02,44.4,42.36,2509723.0,111220536.0,2193360444.0,3602704800.0
sz300624,万兴科技,2019-01-31,44.03,44.5,41.82,41.89,44.4,1934615.0,83190201.0,2069366418.9,3399038380.0
sz300624,万兴科技,2019-02-01,42.01,43.15,42.01,43.07,41.89,985348.0,42287436.0,2127658430.7,3494785940.0
sz300624,万兴科技,2019-02-11,42.69,44.64,42.69,44.41,43.07,1786350.0,78326868.0,2193854444.1,3603516220.0
sz300624,万兴科技,2019-02-12,44.4,45.55,44.04,44.94,44.41,2882534.0,129310826.0,2220036449.4,3646521480.0
sz300624,万兴科技,2019-02-13,44.8,46.43,44.5,46.27,44.94,3506320.0,160162863.0,2285738462.7,3754440340.0
sz300624,万兴科技,2019-02-14,46.0,46.7,45.1,46.41,46.27,3195326.0,146464210.0,2292654464.1,3765800220.0
sz300624,万兴科技,2019-02-15,46.39,46.8,45.95,46.2,46.41,1861591.0,85990274.0,2282280462.0,3748760400.0
sz300624,万兴科技,2019-02-18,46.2,50.2,46.2,48.49,46.2,3811033.0,183783181.0,2395406484.9,3934575580.0
sz300624,万兴科技,2019-02-19,48.79,50.76,48.41,49.61,48.49,3596282.0,177209372.0,2450734496.1,4025454620.0
sz300624,万兴科技,2019-02-20,49.59,50.5,48.51,50.48,49.61,2423887.0,119660716.0,2493712504.8,4096048160.0
sz300624,万兴科技,2019-02-21,50.2,55.53,50.1,55.53,50.48,3392944.0,183915639.0,2743182555.3,4505815260.0
sz300624,万兴科技,2019-02-22,60.9,61.08,59.0,61.08,55.53,2552793.0,153973679.0,3017352610.8,4956153360.0
sz300624,万兴科技,2019-02-25,66.99,66.99,60.68,63.05,61.08,6919870.0,439426724.0,3114670630.5,5116003100.0
sz300624,万兴科技,2019-02-26,61.88,66.79,60.82,61.27,63.05,5057643.0,323243613.0,3026738612.7,4971570340.0
sz300624,万兴科技,2019-02-27,59.0,60.0,56.11,56.89,61.27,4614348.0,267759766.0,2810366568.9,4616168380.0
sz300624,万兴科技,2019-02-28,57.12,58.78,56.6,58.0,56.89,2657296.0,153634768.0,2865200580.0,4706236000.0
sz300624,万兴科技,2019-03-01,58.52,63.57,58.52,61.13,58.0,2991565.0,181025814.0,3019822611.3,4960210460.0
sz300624,万兴科技,2019-03-04,62.0,62.79,59.8,61.9,61.13,3117087.0,191412802.0,3057860619.0,5022689800.0
sz300624,万兴科技,2019-03-05,61.2,62.21,60.54,62.2,61.9,2065053.0,126739804.0,3072680622.0,5047032400.0
sz300624,万兴科技,2019-03-06,62.88,65.2,62.03,63.95,62.2,3275918.0,209368959.0,3159130639.5,5189030900.0
sz300624,万兴科技,2019-03-07,63.85,66.66,62.16,65.8,63.95,3436183.0,221326687.0,3250520658.0,5339143600.0
sz300624,万兴科技,2019-03-08,63.5,72.0,62.01,67.3,65.8,4966356.0,339810730.0,3324620673.0,5460856600.0
sz300624,万兴科技,2019-03-11,68.54,70.5,64.73,67.41,67.3,2893932.0,195713560.0,3330054674.1,5469782220.0
sz300624,万兴科技,2019-03-12,68.1,69.66,66.38,67.27,67.41,2962995.0,200008157.0,3323138672.7,5458422340.0
sz300624,万兴科技,2019-03-13,69.0,73.7,66.9,68.1,67.27,4288630.0,301213279.0,3364140681.0,5525770200.0
sz300624,万兴科技,2019-03-14,66.5,66.66,61.6,63.0,68.1,3059591.0,194898220.0,3112200630.0,5111946000.0
sz300624,万兴科技,2019-03-15,63.41,64.0,61.7,62.46,63.0,1758382.0,110757713.0,3085524624.6,5068129320.0
sz300624,万兴科技,2019-03-18,63.98,64.0,62.21,63.47,62.46,1456508.0,91699542.0,3135418634.7,5150082740.0
sz300624,万兴科技,2019-03-19,63.0,65.19,62.76,64.42,63.47,2099809.0,134185499.0,3182348644.2,5227167640.0
sz300624,万兴科技,2019-03-20,64.4,64.4,61.01,62.14,64.42,2142561.0,134102358.0,3069716621.4,5042163880.0
sz300624,万兴科技,2019-03-21,62.0,63.5,61.99,62.6,62.14,1692769.0,106645434.0,3092440626.0,5079489200.0
sz300624,万兴科技,2019-03-22,63.49,63.6,62.19,63.08,62.6,1208919.0,76040523.0,3116152630.8,5118437360.0
sz300624,万兴科技,2019-03-25,61.7,62.99,61.0,62.2,63.08,1163751.0,72459250.0,3072680622.0,5047032400.0
sz300624,万兴科技,2019-03-26,62.95,62.95,58.65,59.7,62.2,2000480.0,121917374.0,2949180597.0,4844177400.0
sz300624,万兴科技,2019-03-27,60.0,60.0,57.36,59.36,59.7,1516606.0,88776026.0,2932384593.6,4816589120.0
sz300624,万兴科技,2019-03-28,58.43,60.58,56.91,56.92,59.36,1803960.0,105330446.0,2811848569.2,4618602640.0
sz300624,万兴科技,2019-03-29,57.6,61.75,57.22,60.27,56.92,2180485.0,129202119.0,2977338602.7,4890428340.0
sz300624,万兴科技,2019-04-01,60.35,63.0,60.35,63.0,60.27,1960991.0,121851491.0,3112200630.0,5111946000.0
sz300624,万兴科技,2019-04-02,63.3,66.31,62.31,65.66,63.0,3205214.0,206936185.0,3243604656.6,5327783720.0
sz300624,万兴科技,2019-04-03,64.54,66.6,63.5,64.54,65.66,1800971.0,116523526.0,3188276645.4,5236904680.0
sz300624,万兴科技,2019-04-04,64.57,65.15,62.03,62.05,64.54,2244337.0,141639919.0,3065270620.5,5034861100.0
sz300624,万兴科技,2019-04-08,62.8,62.85,60.19,61.0,62.05,1401717.0,86192238.0,3013400610.0,4949662000.0
sz300624,万兴科技,2019-04-09,61.0,62.66,60.41,61.8,61.0,1058756.0,65424817.0,3052920618.0,5014575600.0
sz300624,万兴科技,2019-04-10,61.0,61.66,58.7,59.8,61.8,1816046.0,108104439.0,2954120598.0,4852291600.0
sz300624,万兴科技,2019-04-11,60.18,60.9,58.97,59.23,59.8,977009.0,58441657.0,2925962592.3,4806040660.0
sz300624,万兴科技,2019-04-12,59.23,59.85,57.58,58.18,59.23,1462417.0,85002398.0,2874092581.8,4720841560.0
sz300624,万兴科技,2019-04-15,58.8,59.85,57.42,57.5,58.18,1268785.0,74685344.0,2840500575.0,4665665000.0
sz300624,万兴科技,2019-04-16,57.4,60.0,57.32,59.9,57.5,1599840.0,93918882.0,2959060599.0,4860405800.0
sz300624,万兴科技,2019-04-17,60.0,60.15,59.06,59.22,59.9,1050350.0,62523981.0,2925468592.2,4805229240.0
sz300624,万兴科技,2019-04-18,59.86,59.92,58.5,58.56,59.22,789029.0,46592250.0,2892864585.6,4751675520.0
sz300624,万兴科技,2019-04-19,58.56,59.32,57.73,57.95,58.56,1076520.0,62637496.0,2862730579.5,4702178900.0
sz300624,万兴科技,2019-04-22,57.7,58.63,56.9,57.04,57.95,1005800.0,58015341.0,2817776570.4,4628339680.0
sz300624,万兴科技,2019-04-23,56.59,57.95,56.56,56.85,57.04,784370.0,44851545.0,2808390568.5,4612922700.0
sz300624,万兴科技,2019-04-24,57.19,57.28,54.0,56.59,56.85,1504625.0,83766732.0,2795546565.9,4591825780.0
sz300624,万兴科技,2019-04-25,56.41,57.49,54.51,54.88,56.59,1016243.0,57439459.0,2711072548.8,4453072960.0
sz300624,万兴科技,2019-04-26,55.02,55.35,53.91,54.4,54.88,970126.0,52993723.0,2687360544.0,4414124800.0
sz300624,万兴科技,2019-04-29,54.67,55.2,49.6,51.15,54.4,1410085.0,74019109.0,2526810511.5,4150413300.0
sz300624,万兴科技,2019-04-30,51.1,52.73,50.0,51.26,51.15,1350341.0,69629087.0,2532244512.6,4159338920.0
sz300624,万兴科技,2019-05-06,49.5,51.95,48.1,48.93,51.26,1696290.0,85022990.0,2417142489.3,3970278060.0
sz300624,万兴科技,2019-05-07,49.12,49.89,48.65,49.01,48.93,987847.0,48517318.0,2421094490.1,3976769420.0
sz300624,万兴科技,2019-05-08,47.5,49.5,47.0,48.96,49.01,977101.0,47495337.0,2418624489.6,3972712320.0
sz300624,万兴科技,2019-05-09,48.5,49.27,48.24,48.5,48.71,704938.0,34335045.0,2395900485.0,3935387000.0
sz300624,万兴科技,2019-05-10,49.15,50.1,48.01,49.9,48.5,2214112.0,109192697.0,2465060499.0,4048985800.0
sz300624,万兴科技,2019-05-13,49.31,49.79,48.2,48.61,49.9,1434513.0,70207003.0,2401334486.1,3944312620.0
sz300624,万兴科技,2019-05-14,48.06,49.28,47.88,48.6,48.61,1314163.0,63963904.0,2400840486.0,3943501200.0
sz300624,万兴科技,2019-05-15,48.9,49.9,48.86,49.65,48.6,1529282.0,75621925.0,2452710496.5,4028700300.0
sz300624,万兴科技,2019-05-16,49.65,49.85,48.93,49.01,49.65,1180972.0,58192488.0,2421094490.1,3976769420.0
sz300624,万兴科技,2019-05-17,49.06,49.64,45.5,46.22,49.01,1668724.0,79959314.0,2283268462.2,3750383240.0
sz300624,万兴科技,2019-05-20,46.74,47.7,46.24,47.38,46.22,1172326.0,55131742.0,2340572473.8,3844507960.0
sz300624,万兴科技,2019-05-21,47.37,49.47,46.53,48.75,47.38,1395611.0,67635473.0,2408250487.5,3955672500.0
sz300624,万兴科技,2019-05-22,49.0,53.63,48.71,53.63,48.75,3190382.0,165820229.0,2649322536.3,4351645460.0
sz300624,万兴科技,2019-05-23,54.1,57.88,52.58,53.24,53.63,5703038.0,315446985.0,2630056532.4,4320000080.0
sz300624,万兴科技,2019-05-24,51.23,51.89,49.56,50.29,53.24,3529438.0,179225760.0,2484326502.9,4080631180.0
sz300624,万兴科技,2019-05-27,49.17,52.4,48.03,51.88,50.29,2928166.0,147206752.0,2562872518.8,4209646960.0
sz300624,万兴科技,2019-05-28,53.0,53.63,51.02,52.05,51.88,2791859.0,145551362.0,2571270520.5,4223441100.0
sz300624,万兴科技,2019-05-29,51.2,53.42,50.51,52.1,52.05,2003127.0,104748969.0,2573740521.0,4227498200.0
sz300624,万兴科技,2019-05-30,51.51,54.47,51.51,53.52,52.1,2557598.0,136347219.0,2643888535.2,4342719840.0
sz300624,万兴科技,2019-05-31,53.02,54.26,52.58,53.0,53.52,1901943.0,101420038.0,2618200530.0,4300526000.0
sz300624,万兴科技,2019-06-03,52.18,52.79,50.33,51.1,53.0,1686907.0,86801797.0,2524340511.0,4146356200.0
sz300624,万兴科技,2019-06-04,51.69,52.96,51.08,51.71,51.1,1605740.0,83716347.0,2554474517.1,4195852820.0
sz300624,万兴科技,2019-06-05,52.35,52.8,50.7,51.16,51.71,1332382.0,68793425.0,2527304511.6,4151224720.0
sz300624,万兴科技,2019-06-06,50.9,52.56,49.55,49.6,51.16,1243340.0,63389213.0,2450240496.0,4024643200.0
sz300624,万兴科技,2019-06-10,49.98,50.86,48.8,49.4,49.6,1191970.0,59255607.0,2440360494.0,4008414800.0
sz300624,万兴科技,2019-06-11,49.4,51.39,48.6,51.24,49.4,1563245.0,78455391.0,2531256512.4,4157716080.0
sz300624,万兴科技,2019-06-12,51.0,52.15,50.51,50.9,51.24,1251511.0,64115571.0,2514460509.0,4130127800.0
sz300624,万兴科技,2019-06-13,50.77,52.11,50.32,51.35,50.9,1313945.0,67587391.0,2536690513.5,4166641700.0
sz300624,万兴科技,2019-06-14,51.0,51.99,49.44,49.48,51.35,1245690.0,62989815.0,2444312494.8,4014906160.0
sz300624,万兴科技,2019-06-17,49.98,49.98,48.25,49.18,49.48,1069807.0,52541061.0,2429492491.8,3990563560.0
sz300624,万兴科技,2019-06-18,49.05,49.88,48.88,49.26,49.18,614810.0,30383226.0,2433444492.6,3997054920.0
sz300624,万兴科技,2019-06-19,50.1,50.9,49.75,49.86,49.26,1009205.0,50848952.0,2463084498.6,4045740120.0
sz300624,万兴科技,2019-06-20,49.42,51.94,48.5,51.7,49.86,1828294.0,92039741.0,2553980517.0,4195041400.0
sz300624,万兴科技,2019-06-21,51.45,52.6,51.45,51.77,51.7,1617936.0,84069253.0,2557438517.7,4200721340.0
sz300624,万兴科技,2019-06-24,51.35,52.48,51.25,51.47,51.77,1055987.0,54522526.0,2542618514.7,4176378740.0
sz300624,万兴科技,2019-06-25,51.22,51.22,49.75,49.97,51.47,1036992.0,52019532.0,2468518499.7,4054665740.0
sz300624,万兴科技,2019-06-26,49.73,50.15,49.28,49.28,49.97,926918.0,46051056.0,2434432492.8,3998677760.0
sz300624,万兴科技,2019-06-27,49.81,50.25,49.38,49.82,49.28,1007218.0,50192067.0,2461108498.2,4042494440.0
sz300624,万兴科技,2019-06-28,49.51,49.74,47.6,48.23,49.82,1383927.0,66953854.0,2382562482.3,3913478660.0
sz300624,万兴科技,2019-07-01,49.17,50.47,49.02,50.42,48.23,1592438.0,79372836.0,2490748504.2,4091179640.0
sz300624,万兴科技,2019-07-02,50.16,51.19,49.6,49.91,50.42,1081798.0,54468529.0,2465554499.1,4049797220.0
sz300624,万兴科技,2019-07-03,49.96,49.96,48.83,49.0,49.91,733569.0,36098394.0,2420600490.0,3975958000.0
sz300624,万兴科技,2019-07-04,49.45,49.45,48.53,49.0,49.0,647741.0,31673622.0,2420600490.0,3975958000.0
sz300624,万兴科技,2019-07-05,48.59,49.1,48.5,48.85,49.0,660168.0,32193485.0,2413190488.5,3963786700.0
sz300624,万兴科技,2019-07-08,48.85,48.85,46.48,46.59,48.85,1223656.0,57724787.0,2301546465.9,3793707225.0
sz300624,万兴科技,2019-07-09,46.78,46.89,46.08,46.6,46.59,663415.0,30800450.0,2302040466.0,3794521500.0
sz300624,万兴科技,2019-07-10,46.8,47.74,46.29,47.19,46.6,874429.0,41176904.0,2331186471.9,3842563725.0
sz300624,万兴科技,2019-07-11,47.44,47.75,46.5,47.1,47.19,603270.0,28336052.0,2326740471.0,3835235250.0
sz300624,万兴科技,2019-07-12,46.98,47.06,46.27,46.76,47.1,481443.0,22496909.0,2309944467.6,3807549900.0
sz300624,万兴科技,2019-07-15,46.76,48.85,46.51,48.77,46.76,1395534.0,67145851.0,2409238487.7,3971219175.0
sz300624,万兴科技,2019-07-16,48.77,49.31,48.45,48.93,48.77,959922.0,47005561.0,2417142489.3,3984247575.0
sz300624,万兴科技,2019-07-17,49.01,49.94,48.72,49.5,48.93,1146814.0,56704687.0,2445300495.0,4030661250.0
sz300624,万兴科技,2019-07-18,49.0,49.03,47.4,47.48,49.5,1038251.0,50017709.0,2345512474.8,3866177700.0
sz300624,万兴科技,2019-07-19,47.79,49.29,47.79,48.76,47.48,860110.0,41821492.0,2408744487.6,3970404900.0
sz300624,万兴科技,2019-07-22,48.97,48.97,47.0,47.53,48.76,1273797.0,60495143.0,2347982475.3,3870249075.0
sz300624,万兴科技,2019-07-23,47.17,47.56,46.7,47.45,47.53,871522.0,41097750.0,2344030474.5,3863734875.0
sz300624,万兴科技,2019-07-24,47.69,48.77,47.12,48.5,47.45,1044197.0,50364865.0,2395900485.0,3949233750.0
sz300624,万兴科技,2019-07-25,48.3,49.71,48.3,49.52,48.5,1399642.0,68811133.0,2446288495.2,4032289800.0
sz300624,万兴科技,2019-07-26,49.2,49.7,48.81,49.46,49.52,911320.0,44886823.0,2443324494.6,4027404150.0
sz300624,万兴科技,2019-07-29,49.15,52.95,49.15,51.92,49.46,2736451.0,139922337.0,2564848519.2,4227715800.0
sz300624,万兴科技,2019-07-30,51.4,52.38,50.75,50.8,51.92,2202550.0,113412944.0,2509520508.0,4136517000.0
sz300624,万兴科技,2019-07-31,51.06,51.18,50.0,50.7,50.8,1539700.0,77784069.0,2504580507.0,4128374250.0
sz300624,万兴科技,2019-08-01,50.34,51.05,50.05,50.8,50.7,1064137.0,53753742.0,2509520508.0,4136517000.0
sz300624,万兴科技,2019-08-02,49.98,51.65,49.23,51.35,50.8,1825989.0,92540254.0,2536690513.5,4181302125.0
sz300624,万兴科技,2019-08-05,51.4,51.5,50.13,50.15,51.35,1415252.0,71993372.0,2477410501.5,4083589125.0
sz300624,万兴科技,2019-08-06,49.08,49.09,47.6,48.21,50.15,1466561.0,71060900.0,2381574482.1,3925619775.0
sz300624,万兴科技,2019-08-07,48.7,49.06,47.0,47.21,48.21,1226650.0,58873464.0,2332174472.1,3844192275.0
sz300624,万兴科技,2019-08-08,47.27,48.14,46.66,47.63,47.21,1406865.0,66364638.0,2352922476.3,3878391825.0
sz300624,万兴科技,2019-08-09,47.6,47.79,46.7,46.88,47.63,1046900.0,49479764.0,2315872468.8,3817321200.0
sz300624,万兴科技,2019-08-12,47.0,48.46,46.8,48.45,46.88,916195.0,43826343.0,2393430484.5,3945162375.0
sz300624,万兴科技,2019-08-13,48.0,48.83,47.8,48.5,48.45,640200.0,30931714.0,2395900485.0,3949233750.0
sz300624,万兴科技,2019-08-14,49.13,53.35,49.13,51.42,48.5,3959552.0,206176694.0,2540148514.2,4187002050.0
sz300624,万兴科技,2019-08-15,50.6,52.66,49.61,52.38,51.42,3033511.0,154394079.0,2587572523.8,4265172450.0
sz300624,万兴科技,2019-08-16,51.7,52.77,51.5,51.71,52.38,2105300.0,109577950.0,2554474517.1,4210616025.0
sz300624,万兴科技,2019-08-19,52.61,55.95,51.82,55.26,51.71,3562983.0,193191184.0,2729844552.6,4499683650.0
sz300624,万兴科技,2019-08-20,55.4,55.67,54.36,54.49,55.26,1972461.0,108378210.0,2691806544.9,4436984475.0
sz300624,万兴科技,2019-08-21,54.49,55.78,54.1,55.55,54.49,1917076.0,105735744.0,2744170555.5,4523297625.0
sz300624,万兴科技,2019-08-22,55.4,56.83,54.12,54.7,55.55,2118870.0,117395870.0,2702180547.0,4454084250.0
sz300624,万兴科技,2019-08-23,55.0,55.48,53.5,54.0,54.7,1426700.0,77733887.0,2667600540.0,4397085000.0
sz300624,万兴科技,2019-08-26,52.8,54.66,52.78,53.76,54.0,1421983.0,76622106.0,2655744537.6,4377542400.0
sz300624,万兴科技,2019-08-27,54.4,55.5,53.87,54.28,53.76,1770607.0,96892300.0,2681432542.8,4419884700.0
sz300624,万兴科技,2019-08-28,54.3,56.37,54.29,54.8,54.28,2065500.0,114068600.0,2707120548.0,4462227000.0
sz300624,万兴科技,2019-08-29,54.77,57.8,54.77,56.55,54.8,3000860.0,169577917.0,2793570565.5,4604725125.0
sz300624,万兴科技,2019-08-30,56.72,58.1,53.53,54.08,56.55,2916312.0,162833760.0,2671552540.8,4403599200.0
sz300624,万兴科技,2019-09-02,52.21,56.28,51.8,55.39,54.08,3106614.0,169073683.0,2736266553.9,4510269225.0
sz300624,万兴科技,2019-09-03,55.8,56.63,54.49,54.8,55.39,2079043.0,114997529.0,2707120548.0,4462227000.0
sz300624,万兴科技,2019-09-04,55.1,60.28,54.8,60.28,54.8,4799144.0,280257416.0,2977832602.8,4908449700.0
sz300624,万兴科技,2019-09-05,62.2,62.7,59.45,59.86,60.28,5310865.0,322883477.0,2957084598.6,4874250150.0
sz300624,万兴科技,2019-09-06,59.9,60.87,57.9,58.4,59.86,3475633.0,205264099.0,2884960584.0,4755366000.0
sz300624,万兴科技,2019-09-09,58.87,64.2,58.87,63.5,58.4,4098456.0,252687308.0,3136900635.0,5170646250.0
sz300624,万兴科技,2019-09-10,62.17,63.43,60.89,62.0,63.5,3085200.0,191307200.0,3062800620.0,5048505000.0
sz300624,万兴科技,2019-09-11,61.9,63.28,61.17,62.2,62.0,2753078.0,171595194.0,3072680622.0,5064790500.0
sz300624,万兴科技,2019-09-12,61.95,62.49,61.36,61.89,62.2,1379610.0,85357041.0,3057366618.9,5039547975.0
sz300624,万兴科技,2019-09-16,61.94,62.5,61.01,61.82,61.89,1549207.0,95241903.0,3053908618.2,5033848050.0
sz300624,万兴科技,2019-09-17,61.48,61.48,58.3,58.84,61.82,1973052.0,117569589.0,2906696588.4,4791194100.0
sz300624,万兴科技,2019-09-18,58.4,60.35,58.2,58.57,58.84,1311000.0,77552827.0,2893358585.7,4769208675.0
sz300624,万兴科技,2019-09-19,59.02,59.94,58.15,59.66,58.57,1268400.0,75196274.0,2947204596.6,4857964650.0
sz300624,万兴科技,2019-09-20,65.63,65.63,62.8,65.63,59.66,6057303.0,392342337.0,3242122656.3,5344086825.0
sz300624,万兴科技,2019-09-23,68.63,72.19,68.01,72.19,65.63,6729838.0,482297968.0,3566186721.9,5878251225.0
sz300624,万兴科技,2019-09-24,72.0,72.0,67.21,68.0,72.19,7907762.0,549753289.0,3359200680.0,5537070000.0
sz300624,万兴科技,2019-09-25,66.81,70.94,66.81,69.3,68.0,5286017.0,365920499.0,3423420693.0,5642925750.0
sz300624,万兴科技,2019-09-26,69.3,74.8,68.46,68.46,69.3,6496191.0,464422051.0,3381924684.6,5574526650.0
sz300624,万兴科技,2019-09-27,69.9,74.46,68.88,72.22,68.46,4126571.0,296553154.0,3567668722.2,5880694050.0
sz300624,万兴科技,2019-09-30,71.31,75.33,68.7,70.8,72.22,2891513.0,208414240.0,3497520708.0,5765067000.0
sz300624,万兴科技,2019-10-08,72.0,72.86,66.5,68.15,70.8,3390800.0,233420635.0,3366610681.5,5549284125.0
sz300624,万兴科技,2019-10-09,67.17,68.96,66.2,67.71,68.15,2100212.0,141562490.0,3344874677.1,5513456025.0
sz300624,万兴科技,2019-10-10,67.5,68.09,65.66,67.7,67.71,2676293.0,179505025.0,3344380677.0,5512641750.0
sz300624,万兴科技,2019-10-11,68.4,74.47,67.71,74.47,67.7,4305666.0,307635271.0,3678818744.7,6063905925.0
sz300624,万兴科技,2019-10-14,73.99,77.8,73.2,75.3,74.47,3979356.0,300250403.0,3719820753.0,6131490750.0
sz300624,万兴科技,2019-10-15,74.54,78.58,72.5,76.42,75.3,3727642.0,282672563.0,3775148764.2,6222689550.0
sz300624,万兴科技,2019-10-16,75.15,83.35,75.15,80.59,76.42,3887653.0,308977220.0,3981146805.9,6562242225.0
sz300624,万兴科技,2019-10-17,81.77,81.77,77.6,80.4,80.59,2683711.0,214314630.0,3971760804.0,6546771000.0
sz300624,万兴科技,2019-10-18,80.41,80.41,76.38,77.12,80.4,2112315.0,164813151.0,3809728771.2,6279688800.0
sz300624,万兴科技,2019-10-21,76.4,77.73,74.5,76.0,77.12,2188796.0,166099177.0,3754400760.0,6188490000.0
sz300624,万兴科技,2019-10-22,76.06,79.78,75.55,77.68,76.0,2669900.0,207460846.0,3837392776.8,6325288200.0
sz300624,万兴科技,2019-10-23,76.55,77.8,74.1,75.4,77.68,2222258.0,168622800.0,3724760754.0,6139633500.0
sz300624,万兴科技,2019-10-24,75.01,75.69,73.0,73.27,75.4,1868757.0,137891359.0,3619538732.7,5966192925.0
sz300624,万兴科技,2019-10-25,73.11,74.5,70.52,73.0,73.27,2511995.0,181505655.0,3606200730.0,5944207500.0
sz300624,万兴科技,2019-10-28,73.21,75.28,72.63,75.15,73.0,2358110.0,175033062.0,3712410751.5,6119276625.0
sz300624,万兴科技,2019-10-29,75.48,78.5,71.51,72.9,75.15,3973696.0,300873558.0,3601260729.0,5936064750.0
sz300624,万兴科技,2019-10-30,72.2,75.5,72.2,73.06,72.9,2355142.0,174081152.0,3609164730.6,5949093150.0
sz300624,万兴科技,2019-10-31,73.03,74.4,70.0,70.0,73.06,2195810.0,157432193.0,3458000700.0,5699925000.0
sz300624,万兴科技,2019-11-01,69.05,71.48,69.05,70.69,70.0,1912053.0,134502395.0,3492086706.9,5756109975.0
sz300624,万兴科技,2019-11-04,71.5,72.8,69.96,71.58,70.69,1777746.0,127154869.0,3536052715.8,5828580450.0
sz300624,万兴科技,2019-11-05,71.11,72.18,69.41,69.7,71.58,2312464.0,162159244.0,3443180697.0,5675496750.0
sz300624,万兴科技,2019-11-06,70.01,71.19,68.18,68.43,69.7,1950100.0,135446935.0,3380442684.3,5572083825.0
sz300624,万兴科技,2019-11-07,68.11,69.5,67.96,68.59,68.43,1594654.0,109541050.0,3388346685.9,5585112225.0
sz300624,万兴科技,2019-11-08,69.11,71.76,68.81,69.5,68.59,3346787.0,235369722.0,3433300695.0,5659211250.0
sz300624,万兴科技,2019-11-11,70.23,76.45,70.23,75.5,69.5,6829862.0,514041710.0,3729700755.0,6147776250.0
sz300624,万兴科技,2019-11-12,74.56,75.3,67.95,68.1,75.5,6356518.0,448341550.0,3364140681.0,5545212750.0
sz300624,万兴科技,2019-11-13,69.19,70.5,68.43,69.5,68.1,3061146.0,212058317.0,3433300695.0,5659211250.0
sz300624,万兴科技,2019-11-14,68.75,69.97,68.08,69.02,69.5,3167903.0,218467296.0,3409588690.2,5620126050.0
sz300624,万兴科技,2019-11-15,69.02,71.8,67.5,70.85,69.02,5979592.0,415232692.0,3499990708.5,5769138375.0
sz300624,万兴科技,2019-11-18,73.5,74.96,68.7,69.43,70.85,4532279.0,321173160.0,3429842694.3,5653511325.0
sz300624,万兴科技,2019-11-19,70.47,71.16,69.2,70.51,69.43,4150692.0,291451183.0,3483194705.1,5741453025.0
sz300624,万兴科技,2019-11-20,70.09,75.66,69.56,72.75,70.51,5550568.0,402709422.0,3593850727.5,5923850625.0
sz300624,万兴科技,2019-11-21,72.02,73.4,71.5,73.3,72.75,3108669.0,225751856.0,3621020733.0,5968635750.0
sz300624,万兴科技,2019-11-22,73.21,73.55,66.11,66.41,73.3,4616150.0,319789271.0,3280654664.1,5407600275.0
sz300624,万兴科技,2019-11-25,66.01,66.66,61.8,62.1,66.41,3556793.0,225589885.0,3067740621.0,5056647750.0
sz300624,万兴科技,2019-11-26,63.01,63.69,60.88,61.19,62.1,2229809.0,138447875.0,3022786611.9,4982548725.0
sz300624,万兴科技,2019-11-27,60.83,62.37,60.66,61.77,61.19,1487975.0,91773519.0,3051438617.7,5029776675.0
sz300624,万兴科技,2019-11-28,61.77,62.84,60.73,61.78,61.77,1434800.0,89156053.0,3051932617.8,5030590950.0
sz300624,万兴科技,2019-11-29,61.21,62.45,61.01,61.8,61.78,1151504.0,71025967.0,3052920618.0,5032219500.0
sz300624,万兴科技,2019-12-02,62.4,64.02,61.25,63.31,61.8,1939726.0,121951256.0,3127514633.1,5155175025.0
sz300624,万兴科技,2019-12-03,62.52,63.65,62.27,63.3,63.31,1334699.0,84160809.0,3127020633.0,5154360750.0
sz300624,万兴科技,2019-12-04,63.09,63.7,62.2,62.39,63.3,1232904.0,77455491.0,3082066623.9,5080261725.0
sz300624,万兴科技,2019-12-05,62.97,63.92,62.5,63.62,62.39,1705604.0,108021014.0,3142828636.2,5180417550.0
sz300624,万兴科技,2019-12-06,63.59,65.35,63.14,64.91,63.62,1703599.0,109478801.0,3206554649.1,5285459025.0
sz300624,万兴科技,2019-12-09,65.0,66.29,64.38,65.71,64.91,1770652.0,115966036.0,3246074657.1,5350601025.0
sz300624,万兴科技,2019-12-10,65.51,66.47,65.0,65.84,65.71,1324958.0,86982767.0,3252496658.4,5361186600.0
sz300624,万兴科技,2019-12-11,65.5,66.35,64.09,64.68,65.84,1553600.0,101188481.0,3195192646.8,5266730700.0
sz300624,万兴科技,2019-12-12,63.71,64.95,63.71,63.99,64.68,1639500.0,105322510.0,3186728235.9,5210545725.0
sz300624,万兴科技,2019-12-13,64.48,65.29,63.51,64.86,63.99,1645000.0,105992070.0,3230054592.6,5281387650.0
sz300624,万兴科技,2019-12-16,65.61,69.35,65.56,69.12,64.86,3412373.0,232362966.0,3442204339.2,5628268800.0
sz300624,万兴科技,2019-12-17,68.6,69.86,68.36,69.37,69.12,2570777.0,177890261.0,3454654441.7,5648625675.0
sz300624,万兴科技,2019-12-18,68.94,71.77,68.58,70.91,69.37,3059875.0,215814474.0,3531347073.1,5774024025.0
sz300624,万兴科技,2019-12-19,71.0,71.79,69.88,70.98,70.91,2112399.0,149349913.0,3534833101.8,5779723950.0
sz300624,万兴科技,2019-12-20,71.05,71.39,68.34,68.48,70.98,2283472.0,158633834.0,3410332076.8,5576155200.0
sz300624,万兴科技,2019-12-23,68.12,68.2,65.32,66.1,68.48,1671337.0,111493189.0,3291807101.0,5382357750.0
sz300624,万兴科技,2019-12-24,66.56,67.29,65.52,66.31,66.1,1521856.0,100664612.0,3302265187.1,5399457525.0
sz300624,万兴科技,2019-12-25,65.9,67.47,65.6,66.51,66.31,1766866.0,117635263.0,3312225269.1,5415743025.0
sz300624,万兴科技,2019-12-26,66.37,66.37,63.58,64.66,66.51,2959055.0,191864718.0,3220094510.6,5265102150.0
sz300624,万兴科技,2019-12-27,64.9,64.9,62.19,62.21,64.66,2518299.0,159953921.0,3098083506.1,5065604775.0
sz300624,万兴科技,2019-12-30,61.95,63.54,60.1,63.1,62.21,1986400.0,123590170.0,3142405871.0,5138075250.0
sz300624,万兴科技,2019-12-31,63.16,63.88,62.65,63.1,63.1,1053975.0,66485247.0,3142405871.0,5138075250.0
sz300624,万兴科技,2020-01-02,64.99,67.66,63.5,66.47,63.1,2964209.0,194544392.0,3310233252.7,5412485925.0
sz300624,万兴科技,2020-01-03,67.51,72.77,67.51,69.26,66.47,4772629.0,333403946.0,3449176396.6,5639668650.0
sz300624,万兴科技,2020-01-06,67.9,70.68,67.63,68.9,69.26,3349835.0,232737031.0,3431248249.0,5610354750.0
sz300624,万兴科技,2020-01-07,68.99,75.79,68.99,75.79,68.9,5564150.0,407979751.0,3774373073.9,6171390225.0
sz300624,万兴科技,2020-01-08,76.0,76.8,73.62,74.1,75.79,4211663.0,314927761.0,3690210381.0,6033777750.0
sz300624,万兴科技,2020-01-09,75.56,76.17,74.1,75.23,74.1,2930192.0,220670399.0,3746484844.3,6125790825.0
sz300624,万兴科技,2020-01-10,75.26,78.9,74.4,75.19,75.23,3278346.0,249430972.0,3744492827.9,6122533725.0
sz300624,万兴科技,2020-01-13,74.32,79.58,74.32,78.31,75.19,3464700.0,267208239.0,3899870107.1,6376587525.0
sz300624,万兴科技,2020-01-14,77.92,78.66,76.3,76.49,78.31,2766652.0,213233067.0,3809233360.9,6228389475.0
sz300624,万兴科技,2020-01-15,77.01,77.89,75.2,76.5,76.49,2247100.0,172118126.0,3809731365.0,6229203750.0
sz300624,万兴科技,2020-01-16,76.0,77.49,75.3,75.75,76.5,2370593.0,180486824.0,3772381057.5,6168133125.0
sz300624,万兴科技,2020-01-17,76.02,80.0,75.51,76.5,75.75,4018700.0,311969985.0,3809731365.0,6229203750.0
sz300624,万兴科技,2020-01-20,75.3,77.88,73.34,77.04,76.5,2925100.0,223068104.0,3836623586.4,6273174600.0
sz300624,万兴科技,2020-01-21,76.91,78.85,75.01,75.8,77.04,2474644.0,189064644.0,3774871078.0,6172204500.0
sz300624,万兴科技,2020-01-22,76.58,79.15,74.2,77.43,75.8,3079574.0,236339886.0,3856045746.3,6304931325.0
sz300624,万兴科技,2020-01-23,76.01,76.93,69.69,70.71,77.43,4085679.0,297903612.0,3521386991.1,5757738525.0
sz300624,万兴科技,2020-02-03,63.64,63.64,63.64,63.64,70.71,418300.0,26620612.0,3169298092.4,5182046100.0
sz300624,万兴科技,2020-02-04,62.04,64.45,60.85,64.05,63.64,4265662.0,267142075.0,3189716260.5,5215431375.0
sz300624,万兴科技,2020-02-05,63.33,66.95,63.33,64.7,64.05,3289278.0,214189077.0,3222086527.0,5268359250.0
sz300624,万兴科技,2020-02-06,64.04,67.23,64.01,66.29,64.7,2917200.0,191815392.0,3301269178.9,5397828975.0
sz300624,万兴科技,2020-02-07,65.98,68.78,65.75,68.29,66.29,3096041.0,208259911.0,3400869998.9,5560683975.0
sz300624,万兴科技,2020-02-10,67.81,68.5,66.05,67.57,68.29,2586142.0,174325068.0,3365013703.7,5502056175.0
sz300624,万兴科技,2020-02-11,67.55,67.86,66.06,66.2,67.57,2102813.0,140253249.0,3296787142.0,5390500500.0
sz300624,万兴科技,2020-02-12,66.5,67.85,65.4,67.5,66.2,3081500.0,205460317.0,3361527675.0,5496356250.0
sz300624,万兴科技,2020-02-13,67.58,68.43,66.29,67.81,67.5,2487100.0,167349506.0,3376965802.1,5521598775.0
sz300624,万兴科技,2020-02-14,67.5,68.94,66.5,66.88,67.81,2967303.0,200457966.0,3330651420.8,5445871200.0
sz300624,万兴科技,2020-02-17,67.5,73.49,67.07,73.41,66.88,5192745.0,370506620.0,3655848098.1,5977592775.0
sz300624,万兴科技,2020-02-18,73.0,75.29,71.52,74.95,73.41,3285529.0,243333068.0,3732540729.5,6102991125.0
sz300624,万兴科技,2020-02-19,75.0,82.45,73.83,82.45,74.95,5492721.0,436733753.0,4106043804.5,6713697375.0
sz300624,万兴科技,2020-02-20,84.5,87.34,80.37,85.72,82.45,7357732.0,622641111.0,4268891145.2,6979965300.0
sz300624,万兴科技,2020-02-21,84.58,94.29,84.07,94.29,85.72,2851557.0,259804865.0,4695680658.9,7677798975.0
sz300624,万兴科技,2020-02-24,100.91,103.72,98.57,103.72,94.29,3304364.0,338482109.0,5165298525.2,8445660300.0
sz300624,万兴科技,2020-02-25,102.55,109.86,93.35,100.04,103.72,9730165.0,970180186.0,4982033016.4,8131701380.0
sz300624,万兴科技,2020-02-26,94.07,94.12,90.04,90.04,100.04,5995542.0,546486365.0,4484028916.4,7318856380.0
sz300624,万兴科技,2020-02-27,89.0,95.61,84.1,92.95,90.04,7153341.0,648765512.0,4628948109.5,7555394275.0
sz300624,万兴科技,2020-02-28,86.0,94.73,85.0,89.27,92.95,5620171.0,501462009.0,4445682600.7,7256267315.0
sz300624,万兴科技,2020-03-02,92.3,95.8,89.01,93.92,89.27,4964832.0,460611656.0,4677254507.2,7634240240.0
sz300624,万兴科技,2020-03-03,96.0,98.98,91.51,92.2,93.92,4702620.0,448555969.0,4591597802.0,7494430900.0
sz300624,万兴科技,2020-03-04,89.9,90.91,84.6,87.9,92.2,5497552.0,481443672.0,4377456039.0,7144907550.0
sz300624,万兴科技,2020-03-05,90.41,90.46,85.67,87.98,87.9,3585578.0,314929554.0,4381440071.8,7151410310.0
sz300624,万兴科技,2020-03-06,85.86,90.25,85.13,88.0,87.98,2976437.0,261858265.0,4382436080.0,7153036000.0
sz300624,万兴科技,2020-03-09,85.32,88.21,79.22,80.48,88.0,4118858.0,343278670.0,4007936996.8,6541776560.0
sz300624,万兴科技,2020-03-10,80.18,84.84,80.11,84.52,80.48,3411427.0,282120412.0,4209130653.2,6870165940.0
sz300624,万兴科技,2020-03-11,84.78,85.03,80.0,80.04,84.52,2970554.0,243530639.0,3986024816.4,6506011380.0
sz300624,万兴科技,2020-03-12,78.04,81.14,77.89,78.43,80.04,1952249.0,154419047.0,3905846156.3,6375143335.0
sz300624,万兴科技,2020-03-13,71.99,78.98,71.94,77.37,78.43,3457552.0,263247876.0,3853057721.7,6288981765.0
sz300624,万兴科技,2020-03-16,78.82,78.82,69.7,71.82,77.37,3479619.0,257975024.0,3576665446.2,5837852790.0
sz300624,万兴科技,2020-03-17,73.4,74.5,69.11,71.2,71.82,2875000.0,205511723.0,3545789192.0,5787456400.0
sz300624,万兴科技,2020-03-18,72.69,78.32,72.69,78.32,71.2,6460729.0,501946397.0,3900368111.2,6366202040.0
sz300624,万兴科技,2020-03-19,77.0,83.09,76.5,82.47,78.32,8359358.0,669012456.0,4107039812.7,6703532715.0
sz300624,万兴科技,2020-03-20,83.98,83.99,78.36,78.83,82.47,4698618.0,377131942.0,3925766320.3,6407657135.0
sz300624,万兴科技,2020-03-23,76.0,78.57,73.38,74.3,78.83,2939800.0,224314369.0,3700170463.0,6039438350.0
sz300624,万兴科技,2020-03-24,77.4,81.73,76.0,81.73,74.3,4560386.0,360851923.0,4070187509.3,6643382185.0
sz300624,万兴科技,2020-03-25,84.0,88.0,82.18,85.0,81.73,5564769.0,472285600.0,4233034850.0,6909182500.0
sz300624,万兴科技,2020-03-26,85.0,88.0,82.5,83.97,85.0,4437422.0,379637204.0,4181740427.7,6825459465.0
sz300624,万兴科技,2020-03-27,85.48,86.6,81.6,82.8,83.97,3750857.0,313382934.0,4123473948.0,6730356600.0
sz300624,万兴科技,2020-03-30,79.05,80.8,77.44,77.72,82.8,3536221.0,279909692.0,3870487865.2,6317431340.0
sz300624,万兴科技,2020-03-31,79.0,80.8,76.67,76.95,77.72,2383349.0,188504007.0,3832141549.5,6254842275.0
sz300624,万兴科技,2020-04-01,77.0,79.28,74.16,74.9,76.95,3523549.0,269851615.0,3730050709.0,6088209050.0
sz300624,万兴科技,2020-04-02,74.6,79.0,74.6,78.77,74.9,3148849.0,239415694.0,3922778295.7,6402780065.0
sz300624,万兴科技,2020-04-03,78.08,78.11,73.52,74.08,78.77,3738000.0,282360055.0,3689214372.8,6021555760.0
sz300624,万兴科技,2020-04-07,76.05,76.88,75.3,76.37,74.08,3025218.0,230532896.0,3803257311.7,6207697265.0
sz300624,万兴科技,2020-04-08,77.49,77.89,74.5,74.8,76.37,2771379.0,210809182.0,3725070668.0,6080080600.0
sz300624,万兴科技,2020-04-09,76.0,81.88,75.9,79.62,74.8,4635569.0,367791170.0,3965108644.2,6471871890.0
sz300624,万兴科技,2020-04-10,79.65,83.49,78.74,82.45,79.62,6452425.0,527271207.0,4106043804.5,6701907025.0
sz300624,万兴科技,2020-04-13,81.65,82.38,74.21,80.34,82.45,5439649.0,422740860.0,4000964939.4,6530396730.0
sz300624,万兴科技,2020-04-14,80.01,82.45,79.09,81.58,80.34,3677833.0,297759529.0,4062717447.8,6631189510.0
sz300624,万兴科技,2020-04-15,81.88,83.3,80.42,81.58,81.58,3079974.0,252718686.0,4062717447.8,6631189510.0
sz300624,万兴科技,2020-04-16,81.34,84.47,79.33,84.0,81.58,3634454.0,299954138.0,4183234440.0,6827898000.0
sz300624,万兴科技,2020-04-17,85.6,85.6,80.91,81.5,84.0,3698691.0,308042263.0,4058733415.0,6624686750.0
sz300624,万兴科技,2020-04-20,81.6,84.44,80.68,81.82,81.5,2805275.0,229783185.0,4074669546.2,6650697790.0
sz300624,万兴科技,2020-04-21,81.5,83.6,80.41,82.91,81.82,2606563.0,214857651.0,4128951993.1,6739297895.0
sz300624,万兴科技,2020-04-22,81.53,82.25,80.13,81.47,82.91,2556817.0,207264335.0,4057239402.7,6622248215.0
sz300624,万兴科技,2020-04-23,81.5,82.02,80.35,80.53,81.47,1971498.0,160246027.0,4010427017.3,6545840785.0
sz300624,万兴科技,2020-04-24,80.1,81.28,77.0,78.48,80.53,2018600.0,160992136.0,3908336176.8,6379207560.0
sz300624,万兴科技,2020-04-27,76.51,78.68,75.3,77.0,78.48,1911190.0,147129481.0,3834631570.0,6258906500.0
sz300624,万兴科技,2020-04-28,76.31,77.4,71.95,74.98,77.0,2232200.0,167869823.0,3734034741.8,6094711810.0
sz300624,万兴科技,2020-04-29,74.58,76.39,74.51,75.96,74.98,1102300.0,83655090.0,3782839143.6,6174370620.0
sz300624,万兴科技,2020-04-30,76.3,81.98,76.3,81.08,75.96,2491793.0,198372372.0,4037817242.8,6590547260.0
sz300624,万兴科技,2020-05-06,80.58,83.88,80.1,82.91,81.08,3214187.0,265143323.0,4128951993.1,6739297895.0
sz300624,万兴科技,2020-05-07,83.75,84.79,82.0,83.35,82.91,2539335.0,211925026.0,4150864173.5,6775063075.0
sz300624,万兴科技,2020-05-08,84.88,86.42,83.36,84.6,83.35,2845500.0,241814419.0,4213114686.0,6876668700.0
sz300624,万兴科技,2020-05-11,85.86,87.5,84.64,85.48,84.6,2527800.0,217166740.0,4256939046.8,6948199060.0
sz300624,万兴科技,2020-05-12,84.98,85.99,83.8,85.06,85.48,2060461.0,174593933.0,4236022874.6,6914059570.0
sz300624,万兴科技,2020-05-13,85.23,86.24,84.67,85.39,85.06,1539480.0,131544936.0,4252457009.9,6940883455.0
sz300624,万兴科技,2020-05-14,85.17,86.95,84.5,84.7,85.39,2112440.0,180679280.0,4218094727.0,6884797150.0
sz300624,万兴科技,2020-05-15,85.43,86.87,84.01,85.72,84.7,2109995.0,181059899.0,4268891145.2,6967707340.0
sz300624,万兴科技,2020-05-18,87.0,93.84,84.88,89.58,85.72,4762614.0,423971325.0,4461120727.8,7281465510.0
sz300624,万兴科技,2020-05-19,91.2,98.54,90.13,98.54,89.58,5187952.0,494563716.0,4907332401.4,8009774630.0
sz300624,万兴科技,2020-05-20,99.97,100.88,91.98,93.9,98.54,5180249.0,492888117.0,4676258499.0,7632614550.0
sz300624,万兴科技,2020-05-21,93.05,94.72,87.5,87.9,93.9,3718349.0,336610184.0,4377456039.0,7144907550.0
sz300624,万兴科技,2020-05-22,55.0,56.2,52.01,52.24,54.72,5042693.0,272054772.0,4162517469.44,6794083648.0
sz300624,万兴科技,2020-05-25,52.12,54.4,51.11,53.24,52.24,4054449.0,214785377.0,4242198125.44,6924138848.0
sz300624,万兴科技,2020-05-26,52.55,56.73,52.4,55.44,53.24,5004083.0,275900850.0,4417495568.64,7210260288.0
sz300624,万兴科技,2020-05-27,55.11,55.87,53.33,53.55,55.44,2647359.0,143658812.0,4266899128.8,6964455960.0
sz300624,万兴科技,2020-05-28,53.94,55.71,53.11,55.03,53.55,3980647.0,217464425.0,4384826499.68,7156937656.0
sz300624,万兴科技,2020-05-29,56.08,57.47,55.0,56.37,55.03,4540150.0,256064471.0,4491598578.72,7331211624.0
sz300624,万兴科技,2020-06-01,56.41,59.29,55.66,58.9,56.37,5637899.0,325437176.0,4693190638.4,7660251280.0
sz300624,万兴科技,2020-06-02,58.9,59.17,57.8,58.8,58.9,3299370.0,192639449.0,4685222572.8,7647245760.0
sz300624,万兴科技,2020-06-03,59.3,60.6,58.0,59.1,58.8,4164436.0,247111771.0,4709126769.6,7686262320.0
sz300624,万兴科技,2020-06-04,59.31,61.77,58.8,60.9,59.1,3511449.0,212378978.0,4852551950.4,7920361680.0
sz300624,万兴科技,2020-06-05,61.0,62.23,59.73,60.92,60.9,3033560.0,184732661.0,4854145563.52,7922962784.0
sz300624,万兴科技,2020-06-08,60.93,61.55,58.25,58.5,60.92,4287420.0,255799117.0,4661318376.0,7608229200.0
sz300624,万兴科技,2020-06-09,59.08,59.5,57.52,57.95,58.5,4008169.0,234140393.0,4617494015.2,7536698840.0
sz300624,万兴科技,2020-06-10,58.19,61.48,57.3,59.57,57.95,4800598.0,286698881.0,4746576677.92,7747388264.0
sz300624,万兴科技,2020-06-11,59.03,60.67,58.92,59.92,59.57,3649705.0,218405926.0,4774464907.52,7792907584.0
sz300624,万兴科技,2020-06-12,58.05,61.0,57.9,59.92,59.92,3347539.0,200462480.0,4774464907.52,7792907584.0
sz300624,万兴科技,2020-06-15,59.55,64.81,59.55,61.78,59.92,5777040.0,362076543.0,4922300247.68,8034810256.000002
sz300624,万兴科技,2020-06-16,62.02,63.49,60.6,61.34,61.78,5659073.0,348534179.0,4887243399.04,7977585968.000002
sz300624,万兴科技,2020-06-17,61.57,62.5,59.4,60.4,61.34,4149326.0,251384842.0,4812349222.4,7855334080.000002
sz300624,万兴科技,2020-06-18,60.4,66.44,60.11,66.44,60.4,9606829.0,619573091.0,5293584144.64,8640867488.0
sz300624,万兴科技,2020-06-19,67.0,67.98,65.0,67.09,66.44,8121524.0,541013794.0,5345372671.04,8725403368.0
sz300624,万兴科技,2020-06-22,67.0,70.38,66.46,69.21,67.09,6205381.0,425841674.0,5514282941.76,9001120392.0
sz300624,万兴科技,2020-06-23,70.02,76.13,68.85,76.13,69.21,6905674.0,508610066.0,6065631561.28,9901102376.0
sz300624,万兴科技,2020-06-24,77.3,82.68,76.13,81.47,76.13,8172100.0,648205451.0,6491094224.320001,10595597144.0
sz300624,万兴科技,2020-06-29,81.0,81.0,75.58,77.9,81.47,8050375.0,628658555.0,6206655702.400001,10131300080.0
sz300624,万兴科技,2020-06-30,78.02,81.4,77.6,80.5,77.9,4826887.0,383826569.0,6413809808.0,10469443600.0
sz300624,万兴科技,2020-07-01,81.0,85.9,80.0,84.16,80.5,6435964.0,533277103.0,6705419048.96,10945445632.0
sz300624,万兴科技,2020-07-02,84.16,86.58,79.0,79.65,84.16,7432000.0,608572236.0,6346086350.4,10358896680.0
sz300624,万兴科技,2020-07-03,80.5,83.3,79.2,81.86,79.65,5649989.0,461547046.0,6522167340.16,10646318672.0
sz300624,万兴科技,2020-07-06,80.64,84.2,79.35,80.05,81.86,7772210.0,635343606.0,6377956212.799999,10410918760.0
sz300624,万兴科技,2020-07-07,79.73,84.81,78.6,82.11,80.05,7707351.0,631597487.0,6542086004.16,10678832472.000002
sz300624,万兴科技,2020-07-08,81.45,85.44,79.97,83.71,82.11,6723426.0,556563262.0,6685805193.76,10886920792.0
sz300624,万兴科技,2020-07-09,82.5,90.32,82.4,87.3,83.71,9211151.0,797396540.0,6972533668.8,11353818960.0
sz300624,万兴科技,2020-07-10,85.58,86.5,82.19,82.44,87.3,8875315.0,741841872.0,6584372000.639999,10721750688.0
sz300624,万兴科技,2020-07-13,82.44,85.65,82.4,85.5,82.44,6228569.0,525984351.0,6828770088.0,11119719600.0
sz300624,万兴科技,2020-07-14,85.25,87.6,79.63,81.4,85.5,6932065.0,575654161.0,6501308598.400001,10586493280.0
sz300624,万兴科技,2020-07-15,82.79,84.4,80.23,82.22,81.4,6761774.0,559650177.0,6566800896.32,10693138544.0
sz300624,万兴科技,2020-07-16,83.01,85.8,74.0,74.0,82.22,9205852.0,735771358.0,5910280544.0,9624084800.0
sz300624,万兴科技,2020-07-17,72.46,75.67,68.79,69.66,74.0,9340172.0,664374999.0,5563650576.96,9059645232.0
sz300624,万兴科技,2020-07-20,71.15,71.69,68.0,70.36,69.66,7060707.0,493413400.0,5619558636.160001,9150683872.0
sz300624,万兴科技,2020-07-21,70.18,71.4,69.3,70.4,70.36,4095734.0,287609191.0,5622753382.4,9155886080.0
sz300624,万兴科技,2020-07-22,70.5,71.92,69.6,70.99,70.4,5170876.0,366429800.0,5669875889.44,9232618648.0
sz300624,万兴科技,2020-07-23,70.23,71.78,67.39,70.34,70.99,5243865.0,363599177.0,5617961263.04,9148082768.0
sz300624,万兴科技,2020-07-24,69.89,71.71,66.0,66.15,70.34,5070446.0,345304377.0,5283311594.4,8603151480.0
sz300624,万兴科技,2020-07-27,66.3,67.3,65.04,65.97,66.15,3667050.0,242295824.0,5268935236.32,8579741544.0
sz300624,万兴科技,2020-07-28,66.9,67.33,65.31,66.08,65.97,2648857.0,175127311.0,5277720788.4800005,8594047616.0
sz300624,万兴科技,2020-07-29,66.6,68.44,65.77,68.04,66.08,4448357.0,300405507.0,5434263354.240001,8848955808.0
sz300624,万兴科技,2020-07-30,68.3,68.5,65.08,65.35,68.04,4535820.0,299828889.0,5219416669.6,8499107320.0
sz300624,万兴科技,2020-07-31,66.0,69.92,65.01,67.48,65.35,6519514.0,442758279.0,5389536906.879999,8776124896.0
sz300624,万兴科技,2020-08-03,67.57,68.74,65.89,68.3,67.48,7613389.0,510210499.0,5455029204.8,8882770160.0
sz300624,万兴科技,2020-08-04,68.25,68.25,65.2,65.66,68.3,6215883.0,412148009.0,5244175952.96,8539424432.0
sz300624,万兴科技,2020-08-05,71.9,71.9,67.67,69.6,65.66,10916636.0,755466201.0,5558858457.6,9051841920.0
sz300624,万兴科技,2020-08-06,68.49,69.6,65.66,68.17,69.6,9106332.0,612376065.0,5444646279.52,8865862984.0
sz300624,万兴科技,2020-08-07,67.0,68.0,62.0,64.08,68.17,7894583.0,513360041.0,5117983476.48,8333937216.000001
sz300624,万兴科技,2020-08-10,63.9,65.08,62.0,64.32,64.08,6198007.0,393271213.0,5137151953.92,8365150464.0
sz300624,万兴科技,2020-08-11,63.93,64.7,61.37,61.4,64.32,4664126.0,292119902.0,4903935478.400001,7985389280.0
sz300624,万兴科技,2020-08-12,61.45,61.5,58.66,59.95,61.4,4044365.0,241216768.0,4788125927.2,7796809240.0
sz300624,万兴科技,2020-08-13,60.41,60.8,59.59,60.38,59.95,2182645.0,131438022.0,4822469449.28,7852732976.000001
sz300624,万兴科技,2020-08-14,60.42,61.26,60.01,61.22,60.38,2381321.0,144339587.0,4889559120.320001,7961979344.0
sz300624,万兴科技,2020-08-17,62.29,65.67,61.9,65.63,61.22,6580953.0,424341572.0,5241779893.28,8535522776.0
sz300624,万兴科技,2020-08-18,72.19,72.19,72.19,72.19,65.63,3031039.0,218810705.0,5765718276.639999,9388684888.0
sz300624,万兴科技,2020-08-19,74.0,74.89,69.0,69.0,72.19,12722162.0,916393712.0,5510937264.0,8973808800.0
sz300624,万兴科技,2020-08-20,68.03,71.3,68.03,70.02,69.0,7237070.0,504510738.0,5592403293.12,9106465104.0
sz300624,万兴科技,2020-08-21,71.0,71.2,68.5,69.27,70.02,4974259.0,344937447.0,5532501801.12,9008923704.0
sz300624,万兴科技,2020-08-24,69.2,71.71,68.73,69.04,69.27,5902494.0,415788711.0,5514132010.24,8979011008.0
sz300624,万兴科技,2020-08-25,68.36,71.53,67.5,71.26,69.04,7167599.0,502575430.0,5691440426.56,9267733552.0
sz300624,万兴科技,2020-08-26,70.82,73.48,69.78,70.0,71.26,6190481.0,442460153.0,5590805919.999999,9103864000.0
sz300624,万兴科技,2020-08-27,70.63,77.5,70.19,76.5,70.0,9399260.0,699207960.0,6109952184.0,9949222800.0
sz300624,万兴科技,2020-08-28,75.58,77.35,73.58,75.7,76.5,5806886.0,437186532.0,6046057259.2,9845178640.0
sz300624,万兴科技,2020-08-31,77.0,78.8,75.31,77.11,75.7,6054080.0,468111889.0,6158672064.16,10028556472.0
sz300624,万兴科技,2020-09-01,76.0,77.2,74.1,76.7,77.11,4112409.0,311761379.0,6125925915.2,9975233840.0
sz300624,万兴科技,2020-09-02,76.8,78.78,76.4,77.5,76.7,5094800.0,395840565.0,6189820840.0,10079278000.0
sz300624,万兴科技,2020-09-03,77.62,77.84,74.4,76.53,77.5,4702209.0,357073733.0,6112348243.68,9953124456.0
sz300624,万兴科技,2020-09-04,74.5,78.0,74.26,75.57,76.53,3989858.0,301881639.0,6035674333.92,9828271464.0
sz300624,万兴科技,2020-09-07,76.5,77.3,70.86,71.41,75.57,5275894.0,388575780.0,5703420724.96,9287241832.0
sz300624,万兴科技,2020-09-08,71.4,72.95,68.8,69.19,71.41,5418894.0,379398695.0,5526112308.64,8998519288.0
sz300624,万兴科技,2020-09-09,68.24,68.99,64.26,64.7,69.19,5797507.0,381230850.0,5167502043.2,8414571440.0
sz300624,万兴科技,2020-09-10,65.48,67.0,63.62,63.8,64.7,4019352.0,263072620.0,5095620252.8,8297521760.0
sz300624,万兴科技,2020-09-11,64.45,67.8,63.83,66.96,63.8,4207600.0,278725950.0,5348005205.76,8708496192.0
sz300624,万兴科技,2020-09-14,67.0,69.8,66.75,68.54,66.96,4172080.0,284559961.0,5474197682.24,8913983408.0
sz300624,万兴科技,2020-09-15,68.51,70.26,67.02,69.1,68.54,3652309.0,250949368.0,5518924129.599999,8986814320.0
sz300624,万兴科技,2020-09-16,69.0,69.24,67.72,68.55,69.1,2378220.0,162407432.0,5474996368.8,8915283960.0
sz300624,万兴科技,2020-09-17,68.54,69.19,66.98,67.87,68.55,2886254.0,196608119.0,5420685682.719999,8826846424.0
sz300624,万兴科技,2020-09-18,67.96,70.5,67.86,69.24,67.87,3557555.0,246196834.0,5530105741.44,9005022048.0
sz300624,万兴科技,2020-09-21,69.6,70.48,68.5,69.7,69.24,2903390.0,202134977.0,5566845323.2,9064847440.0
sz300624,万兴科技,2020-09-22,68.52,70.5,67.79,67.91,69.7,2553816.0,176337256.0,5423880428.96,8832048632.0
sz300624,万兴科技,2020-09-23,67.84,70.68,67.26,70.08,67.91,3138191.0,217383364.0,5597195412.48,9114268416.0
sz300624,万兴科技,2020-09-24,70.13,70.13,66.68,67.03,70.08,3670953.0,248744303.0,5353596011.68,8717600056.0
sz300624,万兴科技,2020-09-25,67.56,68.7,67.31,67.76,67.03,2372774.0,161147215.0,5411900130.56,8812540352.0
sz300624,万兴科技,2020-09-28,67.9,68.34,66.23,66.59,67.76,1789305.0,120190077.0,5318453803.04,8660375768.0
sz300624,万兴科技,2020-09-29,67.06,67.79,66.01,66.95,66.59,2333405.0,155868421.0,5347206519.2,8707195640.0
sz300624,万兴科技,2020-09-30,66.95,68.32,66.78,67.7,66.95,1973971.0,133634808.0,5407108011.2,8804737040.0
sz300624,万兴科技,2020-10-09,68.87,70.34,68.2,69.25,67.7,3068329.0,212358543.0,5530904428.0,9006322600.0
sz300624,万兴科技,2020-10-12,69.22,72.97,69.04,72.97,69.25,3829378.0,273908886.0,5828015828.32,9490127944.0
sz300624,万兴科技,2020-10-13,72.0,72.81,71.2,72.58,72.97,2284206.0,164710212.0,5796867052.48,9439406416.0
sz300624,万兴科技,2020-10-14,72.58,73.36,71.2,72.96,72.58,2754436.0,199307204.0,5827217141.76,9488827392.0
sz300624,万兴科技,2020-10-15,72.39,73.33,71.39,71.98,72.96,2919086.0,211621723.0,5748945858.88,9361373296.0
sz300624,万兴科技,2020-10-16,71.96,72.26,70.0,71.71,71.98,2241034.0,159682050.0,5727381321.76,9326258392.0
sz300624,万兴科技,2020-10-19,72.59,72.59,69.78,69.88,71.71,2060206.0,146110118.0,5581221681.28,9088257376.0
sz300624,万兴科技,2020-10-20,70.61,70.89,69.5,70.58,69.88,1730128.0,121584833.0,5637129740.48,9179296016.0
sz300624,万兴科技,2020-10-21,70.96,71.0,68.18,68.46,70.58,2318743.0,160177856.0,5467808189.759999,8903578992.0
sz300624,万兴科技,2020-10-22,68.81,69.17,67.47,68.37,68.46,1752734.0,119905867.0,5460620010.72,8891874024.0
sz300624,万兴科技,2020-10-23,68.5,68.95,66.06,66.13,68.37,2059162.0,138586157.0,5281714221.28,8600550376.0
sz300624,万兴科技,2020-10-26,65.93,66.4,64.87,66.28,66.13,1518589.0,100006341.0,5293694519.68,8620058656.0
sz300624,万兴科技,2020-10-27,67.01,67.01,64.68,65.28,66.28,2028386.0,132848186.0,5213825863.68,8490003456.0
sz300624,万兴科技,2020-10-28,65.7,65.7,63.28,64.73,65.28,2253115.0,144978232.0,5169898102.88,8411471899.200001
sz300624,万兴科技,2020-10-29,64.2,65.1,63.28,64.77,64.73,2269938.0,145892884.0,5173092849.12,8416669780.8
sz300624,万兴科技,2020-10-30,63.71,63.8,60.67,62.47,64.77,4542623.0,283957533.0,4989394940.32,8117791588.8
sz300624,万兴科技,2020-11-02,63.97,67.74,62.66,66.2,62.47,6338409.0,414779065.0,5287305027.2,8602494048.0
sz300624,万兴科技,2020-11-03,66.26,67.77,65.41,67.72,66.2,3280648.0,218694852.0,5408705384.32,8800013548.8
sz300624,万兴科技,2020-11-04,67.13,67.29,64.18,64.58,67.72,2916015.0,191160694.0,5157917804.4800005,8391979843.200001
sz300624,万兴科技,2020-11-05,65.58,66.0,63.87,64.91,64.58,2687050.0,174199123.0,5184274460.96,8434862366.400001
sz300624,万兴科技,2020-11-06,65.11,65.92,63.52,64.1,64.91,2370947.0,153058108.0,5119580849.6,8329605264.0
sz300624,万兴科技,2020-11-09,64.7,66.39,63.32,65.65,64.1,3604451.0,235403391.0,5243377266.4,8531023175.999999
sz300624,万兴科技,2020-11-10,65.71,65.77,63.4,63.6,65.65,2692479.0,172170538.0,5079646521.6,8264631744.0
sz300624,万兴科技,2020-11-11,63.13,63.41,59.37,59.5,63.6,4422440.0,269368060.0,4752185032.0,7731848880.0
sz300624,万兴科技,2020-11-12,60.01,60.5,58.38,59.61,59.5,2777911.0,163928302.0,4760970584.16,7746143054.400001
sz300624,万兴科技,2020-11-13,59.03,59.95,58.14,59.51,59.61,2036258.0,120707240.0,4752983718.559999,7733148350.400001
sz300624,万兴科技,2020-11-16,59.58,59.95,58.65,59.4,59.51,1835774.0,108303705.0,4744198166.4,7718854176.0
sz300624,万兴科技,2020-11-17,59.36,59.36,56.44,57.66,59.4,2740408.0,157352610.0,4605226704.96,7492746326.4
sz300624,万兴科技,2020-11-18,57.88,58.75,57.2,57.65,57.66,1649022.0,95213460.0,4604428018.4,7491446856.0
sz300624,万兴科技,2020-11-19,57.63,58.61,56.6,58.39,57.65,1742553.0,100933240.0,4663530823.84,7587607665.6
sz300624,万兴科技,2020-11-20,58.3,58.71,57.4,58.55,58.39,1854435.0,107646892.0,4676309808.8,7608399192.0
sz300624,万兴科技,2020-11-23,58.7,60.2,57.6,59.8,58.55,2699681.0,159444266.0,4776145628.8,7770832992.0
sz300624,万兴科技,2020-11-24,59.12,59.74,58.5,58.87,59.8,1581484.0,93234506.0,4701867778.72,7649982244.8
sz300624,万兴科技,2020-11-25,58.87,59.41,57.85,58.85,58.87,1554568.0,91267384.0,4700270405.6,7647383304.0
sz300624,万兴科技,2020-11-26,58.3,58.99,56.65,56.99,58.85,1792381.0,103164966.0,4551714705.44,7405681809.6
sz300624,万兴科技,2020-11-27,56.93,57.8,55.8,57.08,56.99,1467122.0,83469467.0,4558902884.48,7417377043.2
sz300624,万兴科技,2020-11-30,56.81,57.48,56.16,56.4,57.08,1452288.0,82425604.0,4504592198.4,7329013056.0
sz300624,万兴科技,2020-12-01,56.36,57.73,56.32,57.5,56.4,1419519.0,81198372.0,4592447720.0,7471954800.0
sz300624,万兴科技,2020-12-02,57.82,59.3,57.82,58.51,57.5,1891716.0,110693457.0,4673115062.56,7603201310.4
sz300624,万兴科技,2020-12-03,58.83,59.5,58.06,58.68,58.51,1585564.0,93288051.0,4686692734.08,7625292307.2
sz300624,万兴科技,2020-12-04,58.68,59.1,58.2,58.7,58.68,1058141.0,62064898.0,4688290107.2,7627891248.0
sz300624,万兴科技,2020-12-07,58.05,61.98,58.04,60.59,58.7,3012880.0,182535435.0,4839241867.04,7873491153.6
sz300624,万兴科技,2020-12-08,60.59,61.0,59.71,60.08,60.59,1664518.0,100177812.0,4798508852.48,7807218163.2
sz300624,万兴科技,2020-12-09,59.9,61.89,58.64,58.68,60.08,1850539.0,111600451.0,4686692734.08,7625292307.2
sz300624,万兴科技,2020-12-10,58.68,60.21,58.5,59.33,58.68,1758828.0,104398219.0,4738607360.48,7709757883.200001
sz300624,万兴科技,2020-12-11,60.12,63.35,59.4,62.21,59.33,5161807.0,320005180.0,4968629089.76,8084005358.400001
sz300624,万兴科技,2020-12-14,62.0,63.88,61.23,62.75,62.21,3140050.0,197347228.0,5038775804.0,8154176760.0
sz300624,万兴科技,2020-12-15,62.5,63.0,61.53,61.78,62.75,1839981.0,114222768.0,4960885564.4800005,8028128131.2
sz300624,万兴科技,2020-12-16,61.53,62.68,60.0,62.1,61.78,2093526.0,128691702.0,4986581313.6,8069711184.0
sz300624,万兴科技,2020-12-17,62.11,62.72,60.7,61.3,62.1,1783533.0,109074353.0,4922341940.8,7965753552.0
sz300624,万兴科技,2020-12-18,61.0,61.3,59.71,60.34,61.3,1834771.0,110669541.0,4845254693.44,7841004393.599999
sz300624,万兴科技,2020-12-21,59.81,61.21,59.75,60.92,60.34,1430285.0,86951185.0,4891828238.719999,7916373676.8
sz300624,万兴科技,2020-12-22,60.82,60.82,51.37,51.97,60.92,8920367.0,485928046.0,4173150255.52,6753347668.8
sz300624,万兴科技,2020-12-23,51.68,53.25,50.24,52.04,51.97,3883471.0,201320991.0,4178771200.64,6762443961.6
sz300624,万兴科技,2020-12-24,52.38,52.38,50.13,50.33,52.04,2813785.0,143095994.0,4041459541.28,6540234523.200001
sz300624,万兴科技,2020-12-25,50.0,51.88,49.52,50.75,50.33,1861101.0,94904299.0,4075185212.0,6594812280.0
sz300624,万兴科技,2020-12-28,50.98,50.98,48.8,49.38,50.75,2517338.0,124752513.0,3965175286.08,6416784835.2
sz300624,万兴科技,2020-12-29,48.97,53.5,48.97,52.36,49.38,3786575.0,196319717.0,4204466949.76,6804027014.4
sz300624,万兴科技,2020-12-30,52.8,54.42,51.86,54.11,52.36,2755794.0,147592840.0,4344990577.76,7031434334.400001
sz300624,万兴科技,2020-12-31,54.3,56.2,54.09,55.39,54.11,2229032.0,123597974.0,4447773574.24,7197766545.6
sz300624,万兴科技,2021-01-04,55.06,56.88,54.31,55.45,55.39,2592827.0,143304457.0,4452591527.2,7205563368.000001
sz300624,万兴科技,2021-01-05,54.5,56.1,54.48,55.59,55.45,2093331.0,115638373.0,4463833417.44,7223755953.6
sz300624,万兴科技,2021-01-06,61.15,63.6,57.0,58.54,55.59,6072639.0,364359641.0,4700716104.64,7607099721.6
sz300624,万兴科技,2021-01-07,57.02,57.11,53.91,55.2,58.54,4560648.0,252899877.0,4432516723.2,7173076608.0
sz300624,万兴科技,2021-01-08,54.1,57.3,53.46,55.71,55.2,3252248.0,181499697.0,4473469323.360001,7239349598.400001
sz300624,万兴科技,2021-01-11,55.68,57.25,53.97,54.18,55.71,2632089.0,145920091.0,4350611522.88,7040530627.200001
sz300624,万兴科技,2021-01-12,54.18,55.5,52.81,54.23,54.18,2175035.0,117449636.0,4354626483.68,7047027979.200001
sz300624,万兴科技,2021-01-13,54.31,54.8,52.12,53.09,54.23,2624995.0,139126536.0,4263085377.44,6898888353.6
sz300624,万兴科技,2021-01-14,52.81,58.69,52.63,56.89,53.09,4363558.0,244037989.0,4568222398.24,7392687105.6
sz300624,万兴科技,2021-01-15,56.4,59.47,55.9,57.67,56.89,4022100.0,232661154.0,4630855786.719999,7494045796.799999
sz300624,万兴科技,2021-01-18,57.73,60.48,56.77,59.13,57.67,4413471.0,261440564.0,4748092642.08,7683768475.2
sz300624,万兴科技,2021-01-19,58.4,60.44,58.01,58.58,59.13,2982907.0,176624776.0,6472945307.4,7612297603.2
sz300624,万兴科技,2021-01-20,59.29,59.7,57.88,58.28,58.58,2195269.0,128242345.0,6439796048.400001,7573313491.2
sz300624,万兴科技,2021-01-21,57.65,59.3,57.39,58.2,58.28,2404642.0,140393149.0,6430956246.0,7562917728.0
sz300624,万兴科技,2021-01-22,58.19,59.23,57.0,57.8,58.2,2098807.0,121311270.0,6386757234.0,7510938912.0
sz300624,万兴科技,2021-01-25,57.04,57.8,56.0,56.24,57.8,2777840.0,157085495.0,6214381087.2,7308221529.599999
sz300624,万兴科技,2021-01-26,55.65,59.2,55.65,57.5,56.24,3018777.0,173784866.0,6353607975.0,7471954800.0
sz300624,万兴科技,2021-01-27,55.55,56.75,53.11,55.35,57.5,4937794.0,272115184.0,6116038285.5,7192568664.000001
sz300624,万兴科技,2021-01-28,55.3,59.0,54.67,54.98,55.35,3519840.0,200272560.0,6075154199.400001,7144488259.2
sz300624,万兴科技,2021-01-29,55.79,56.15,54.02,54.62,54.98,2646989.0,145699638.0,6035375088.599999,7097707324.8
sz300624,万兴科技,2021-02-01,54.33,55.78,53.5,54.04,54.62,2187378.0,119228626.0,5971286521.2,7022338041.6
sz300624,万兴科技,2021-02-02,54.33,54.93,51.9,53.37,54.04,2763246.0,147113802.0,5897253176.1,6935273524.8
sz300624,万兴科技,2021-02-03,53.01,53.5,51.19,51.39,53.37,1961850.0,102213281.0,5678468066.7,6677978385.599999
sz300624,万兴科技,2021-02-04,51.35,51.65,48.66,49.21,51.39,2546777.0,126345960.0,5437583451.3,6394693838.400001
sz300624,万兴科技,2021-02-05,49.68,50.45,47.75,47.75,49.21,2112137.0,102913673.0,5276257057.5,6204971160.0
sz300624,万兴科技,2021-02-08,47.83,48.36,47.0,47.13,47.75,1433180.0,68234807.0,5207748588.9,6124403995.2
sz300624,万兴科技,2021-02-09,47.43,48.7,46.49,48.3,47.13,1983196.0,94245500.0,5337030699.0,6276442032.0
sz300624,万兴科技,2021-02-10,48.1,49.75,47.81,49.75,48.3,1649187.0,80696889.0,5497252117.5,6464865240.0
sz300624,万兴科技,2021-02-18,50.33,52.18,50.06,50.75,49.75,2186468.0,111658813.0,5607749647.5,6594812280.0
sz300624,万兴科技,2021-02-19,51.0,51.39,49.75,51.06,50.75,1693028.0,85670486.0,5642003881.8,6635095862.4
sz300624,万兴科技,2021-02-22,51.01,51.66,50.08,50.08,51.06,2120329.0,108039853.0,5533716302.4,6507747763.2
sz300624,万兴科技,2021-02-23,50.0,50.0,48.73,48.86,50.08,1544779.0,76010765.0,5398909315.8,6349212374.400001
sz300624,万兴科技,2021-02-24,48.8,49.98,48.75,49.05,48.86,1449912.0,71590171.0,5419903846.5,6373902312.0
sz300624,万兴科技,2021-02-25,49.11,49.56,47.6,47.64,49.05,1936822.0,93159358.0,5264102329.2,6190676985.6
sz300624,万兴科技,2021-02-26,46.49,47.98,46.49,46.98,47.64,1767080.0,83435743.0,5191173959.400001,6104911939.2
sz300624,万兴科技,2021-03-01,47.15,49.22,47.15,48.73,46.98,2270147.0,109984170.0,5384544636.9,6332319259.2
sz300624,万兴科技,2021-03-02,49.2,49.37,47.56,47.8,48.73,1670854.0,80415259.0,5281781934.0,6211468512.0
sz300624,万兴科技,2021-03-03,47.68,48.69,47.63,48.29,47.8,1441400.0,69426996.0,5335925723.7,6275142561.599999
sz300624,万兴科技,2021-03-04,47.97,48.19,46.6,46.68,48.29,1975093.0,92856449.0,5158024700.4,6065927827.2
sz300624,万兴科技,2021-03-05,46.79,47.6,46.56,47.53,46.68,1509021.0,71196255.0,5251947600.9,6176382811.200001
sz300624,万兴科技,2021-03-08,47.65,48.8,47.22,47.26,47.53,1770597.0,84909014.0,5222113267.8,6141297110.4
sz300624,万兴科技,2021-03-09,47.41,47.41,44.01,44.47,47.26,2326659.0,105385991.0,4913825159.1,5778744868.8
sz300624,万兴科技,2021-03-10,44.98,45.46,42.95,43.0,44.47,1925621.0,84390265.0,4751393790.0,5587722720.0
sz300624,万兴科技,2021-03-11,43.31,43.79,42.67,43.72,43.0,1242113.0,53926858.0,4830952011.6,5681284588.8
sz300624,万兴科技,2021-03-12,43.87,43.98,42.71,43.06,43.72,1144952.0,49268870.0,4758023641.8,5595519542.4
sz300624,万兴科技,2021-03-15,41.63,41.63,39.33,40.74,43.06,3637812.0,146623398.0,4501669372.2,5294042409.599999
sz300624,万兴科技,2021-03-16,40.85,41.96,40.26,41.41,40.74,2326516.0,95561168.0,4575702717.3,5381106926.400001
sz300624,万兴科技,2021-03-17,41.12,41.73,40.51,41.59,41.41,1076803.0,44427061.0,4595592272.7,5404497393.6
sz300624,万兴科技,2021-03-18,41.6,41.93,41.15,41.36,41.59,906464.0,37574768.0,4570177840.8,5374609574.400001
sz300624,万兴科技,2021-03-19,41.46,42.81,40.37,41.64,41.36,1769173.0,74202374.0,4601117149.2,5410994745.6
sz300624,万兴科技,2021-03-22,41.72,42.88,41.64,42.63,41.64,1436483.0,60944073.0,4710509703.9,5539642315.200001
sz300624,万兴科技,2021-03-23,42.5,43.18,41.74,42.21,42.63,1568715.0,66354566.0,4664100741.3,5485064558.4
sz300624,万兴科技,2021-03-24,41.67,42.38,41.1,41.3,42.21,1183729.0,49407942.0,4563547989.0,5366812752.0
sz300624,万兴科技,2021-03-25,41.16,42.45,40.99,42.04,41.3,1157566.0,48464669.0,4645316161.2,5462973561.599999
sz300624,万兴科技,2021-03-26,41.82,42.6,41.67,42.49,42.04,1078280.0,45609654.0,4695040049.7,5521449729.6
sz300624,万兴科技,2021-03-29,42.49,43.24,41.9,42.3,42.49,1086905.0,46166364.0,4674045519.0,5496759791.999999
sz300624,万兴科技,2021-03-30,42.44,42.45,41.38,41.44,42.3,1083080.0,45123507.0,4579017643.2,5385005337.6
sz300624,万兴科技,2021-03-31,41.31,42.07,40.95,41.51,41.44,1105971.0,45981959.0,4586752470.3,5394101630.400001
sz300624,万兴科技,2021-04-01,41.9,42.45,41.5,42.33,41.51,978362.0,41123063.0,4677360444.9,5500658203.200001
sz300624,万兴科技,2021-04-02,42.46,43.14,42.0,42.32,42.33,1580048.0,67211110.0,4676255469.6,5499358732.8
sz300624,万兴科技,2021-04-06,42.6,43.44,42.6,43.3,42.32,1498112.0,64509451.0,4784543049.0,5626706832.0
sz300624,万兴科技,2021-04-07,43.1,43.3,42.25,42.58,43.3,1357206.0,57723126.0,4704984827.4,5533144963.200001
sz300624,万兴科技,2021-04-08,42.56,42.89,42.16,42.63,42.58,1019531.0,43427017.0,4710509703.9,5539642315.200001
sz300624,万兴科技,2021-04-09,42.85,42.9,41.66,41.97,42.63,996653.0,41991709.0,4637581334.1,5453877268.8
sz300624,万兴科技,2021-04-12,43.74,45.98,43.4,43.7,41.97,4559936.0,204153107.0,4828742061.0,5678685648.000001
sz300624,万兴科技,2021-04-13,43.12,43.2,41.9,42.25,43.7,2283538.0,96987086.0,4668520642.5,5490262439.999999
sz300624,万兴科技,2021-04-14,41.95,42.75,41.95,42.62,42.25,1290980.0,54687629.0,4709404728.599999,5538342844.8
sz300624,万兴科技,2021-04-15,42.87,42.87,41.67,41.95,42.62,1163277.0,48837780.0,4635371383.5,5451278328.0
sz300624,万兴科技,2021-04-16,41.0,41.0,39.68,40.8,41.95,2729190.0,109831937.0,4508299224.0,5301839232.0
sz300624,万兴科技,2021-04-19,40.62,42.26,40.52,42.1,40.8,1854429.0,77030699.0,4651946013.0,5470770384.0
sz300624,万兴科技,2021-04-20,42.95,44.1,41.77,42.71,42.1,2309890.0,99339200.0,4719349506.3,5550038078.400001
sz300624,万兴科技,2021-04-21,42.63,44.05,42.41,43.18,42.71,1767763.0,76699310.0,4771283345.400001,5611113187.2
sz300624,万兴科技,2021-04-22,43.07,43.85,42.8,43.1,43.18,1525832.0,65906619.0,4762443543.0,5600717424.0
sz300624,万兴科技,2021-04-23,42.81,43.47,42.31,42.76,43.1,1296366.0,55315551.0,4724874382.8,5556535430.400001
sz300624,万兴科技,2021-04-26,42.6,42.86,41.85,41.9,42.76,1305670.0,55181404.0,4629846507.0,5444780976.0
sz300624,万兴科技,2021-04-27,41.8,41.89,40.32,40.9,41.9,1445374.0,59065777.0,4519348977.0,5314833935.999999
sz300624,万兴科技,2021-04-28,40.94,41.19,40.03,40.16,40.9,1146900.0,46269839.0,4437580804.8,5218673126.400001
sz300624,万兴科技,2021-04-29,40.16,40.84,40.0,40.24,40.16,1167934.0,47135297.0,4446420607.2,5229068889.6
sz300624,万兴科技,2021-04-30,40.29,40.97,39.93,40.86,40.24,1546732.0,62691971.0,4514929075.8,5309636054.4
sz300624,万兴科技,2021-05-06,40.8,40.8,39.72,39.72,40.86,1669600.0,66808671.0,4388961891.6,5161496428.8
sz300624,万兴科技,2021-05-07,39.71,39.99,38.42,38.5,39.72,1549539.0,60701220.0,4254154905.0,5002961040.0
sz300624,万兴科技,2021-05-10,39.0,39.0,37.8,37.92,38.5,1403025.0,53844763.0,4190066337.6,4927591756.8
sz300624,万兴科技,2021-05-11,37.8,39.0,37.6,38.78,37.92,1121280.0,43057491.0,4285094213.4,5039346211.2
sz300624,万兴科技,2021-05-12,38.98,44.0,38.1,42.33,38.78,4280246.0,179907110.0,4677360444.9,5500658203.200001
sz300624,万兴科技,2021-05-13,41.18,44.0,41.18,43.33,42.33,3846513.0,165506709.0,4787857974.900001,5630605243.2
sz300624,万兴科技,2021-05-14,44.16,44.16,42.54,43.18,43.33,3033989.0,130742346.0,4771283345.400001,5611113187.2
sz300624,万兴科技,2021-05-17,43.0,44.98,42.75,44.26,43.18,3315682.0,146098140.0,4890620677.8,5751455990.4
sz300624,万兴科技,2021-05-18,44.0,45.3,43.56,44.88,44.26,2800963.0,125202966.0,4959129146.4,5832023155.2
sz300624,万兴科技,2021-05-19,44.88,45.0,44.03,44.53,44.88,1477168.0,65523295.0,4920455010.9,5786541691.2
sz300624,万兴科技,2021-05-20,44.4,44.58,43.77,44.01,44.53,1588951.0,70139086.0,4862996295.3,5718969230.400001
sz300624,万兴科技,2021-05-21,43.66,44.5,43.58,43.72,43.81,1512295.0,66605675.0,4830952011.6,5681284588.8
sz300624,万兴科技,2021-05-24,44.27,48.11,43.81,47.45,43.72,5243906.0,243907817.0,5243107798.500001,6165987047.999999
sz300624,万兴科技,2021-05-25,48.0,51.5,47.0,50.66,47.45,6377303.0,314972982.0,5597804869.8,6583117046.400001
sz300624,万兴科技,2021-05-26,50.0,51.6,48.9,49.12,50.66,4884583.0,244061849.0,5427638673.6,6382998604.8
sz300624,万兴科技,2021-05-27,48.9,49.46,48.04,48.21,49.12,3591516.0,174216910.0,5327085921.3,6264746798.4
sz300624,万兴科技,2021-05-28,48.0,49.79,47.44,49.37,48.21,4055283.0,197910826.0,5455263056.1,6415485364.8
sz300624,万兴科技,2021-05-31,51.0,52.37,49.42,49.46,49.37,4317903.0,217893862.0,5465207833.8,6427180598.4
sz300624,万兴科技,2021-06-01,48.7,53.3,48.11,52.6,49.46,5901787.0,301549007.0,5812170078.0,6835214304.0
sz300624,万兴科技,2021-06-02,52.35,52.35,49.77,50.13,52.6,3677128.0,186345293.0,5539241178.9,6514245115.2
sz300624,万兴科技,2021-06-03,50.72,52.0,49.1,51.0,50.13,3955899.0,201997480.0,5635374030.000001,6627299040.0
sz300624,万兴科技,2021-06-04,50.52,50.59,49.4,49.66,51.0,2930631.0,145875901.0,5487307339.8,6453170006.4
sz300624,万兴科技,2021-06-07,50.99,58.58,50.98,57.48,49.66,9498640.0,523833388.0,6351398024.4,7469355859.2
sz300624,万兴科技,2021-06-08,58.91,66.42,58.1,60.64,57.48,13149009.0,810192934.0,6700570219.2,7879988505.6
sz300624,万兴科技,2021-06-09,59.0,62.28,57.69,60.71,60.64,8577354.0,511620146.0,6708305046.3,7889084798.400001
sz300624,万兴科技,2021-06-10,60.22,72.85,59.1,72.85,60.71,15642780.0,1047705476.0,8049745060.5,9466641864.0
sz300624,万兴科技,2021-06-11,74.26,84.92,72.5,75.14,72.85,22262893.0,1721441007.0,8302784404.2,9764220585.6
sz300624,万兴科技,2021-06-15,69.21,71.88,63.45,64.55,75.14,18662433.0,1257842899.0,7132615561.5,8388081432.000001
sz300624,万兴科技,2021-06-16,63.0,66.53,62.18,63.0,64.55,12617061.0,812109837.0,6961344390.0,8186663520.0
sz300624,万兴科技,2021-06-17,62.68,67.66,59.63,66.9,63.0,16256053.0,1030048232.0,7392284756.999999,8693456976.0
sz300624,万兴科技,2021-06-18,65.0,70.18,63.55,66.1,66.9,12743113.0,851329701.0,7303886733.0,8589499344.0
sz300624,万兴科技,2021-06-21,66.35,71.89,66.2,68.21,66.1,11141192.0,763634395.0,7537036521.299999,8863687598.4
sz300624,万兴科技,2021-06-22,67.91,67.91,62.17,63.12,68.21,11668513.0,748867561.0,6974604093.6,8202257164.799999
sz300624,万兴科技,2021-06-23,61.1,62.89,60.33,61.99,63.12,9050212.0,557833874.0,6849741884.700001,8055417009.6
sz300624,万兴科技,2021-06-24,61.31,63.28,60.33,61.5,61.99,6953699.0,431678029.0,6795598095.0,7991742960.0
sz300624,万兴科技,2021-06-25,62.19,62.49,58.45,58.51,61.5,9021065.0,539008604.0,6465210480.299999,7603201310.4
sz300624,万兴科技,2021-06-28,58.51,60.46,58.5,59.8,58.51,5345055.0,318829792.0,6607752294.0,7770832992.0
sz300624,万兴科技,2021-06-29,59.45,60.88,57.48,57.88,59.8,5535638.0,325701102.0,6395597036.4,7521334675.2
sz300624,万兴科技,2021-06-30,58.14,59.09,57.59,58.58,57.88,4330186.0,252696849.0,6472945307.4,7612297603.2
sz300624,万兴科技,2021-07-01,58.68,58.93,55.68,56.2,58.58,6157172.0,349416955.0,6209961186.0,7303023648.0
sz300624,万兴科技,2021-07-02,55.76,57.19,55.1,55.7,56.2,4723843.0,265466366.0,6154712421.0,7238050128.0
sz300624,万兴科技,2021-07-05,55.97,57.03,55.65,56.36,55.7,3459901.0,194779536.0,6227640790.8,7323815174.4
sz300624,万兴科技,2021-07-06,56.41,60.88,56.05,58.8,56.36,8849111.0,521411008.0,6497254764.0,7640885952.0
sz300624,万兴科技,2021-07-07,57.4,57.4,54.14,56.38,58.8,6726539.0,373784184.0,6229850741.400001,7326414115.2
sz300624,万兴科技,2021-07-08,56.25,57.84,55.08,55.68,56.38,4384751.0,247344410.0,6162279878.4,7235451187.2
sz300624,万兴科技,2021-07-09,55.03,56.9,53.6,54.87,55.68,4984982.0,273128762.0,6072634643.099999,7130194084.8
sz300624,万兴科技,2021-07-12,54.87,58.77,54.18,58.0,54.87,6649714.0,380316524.0,6419041540.0,7536928320.000001
sz300624,万兴科技,2021-07-13,58.13,59.09,56.92,57.62,58.0,4141965.0,239211285.0,6376985750.599999,7487548444.799999
sz300624,万兴科技,2021-07-14,57.5,58.68,55.64,57.75,57.62,5552047.0,318946384.0,6391373257.5,7504441560.0
sz300624,万兴科技,2021-07-15,58.88,59.0,56.3,56.83,57.75,5445326.0,311746238.0,6289553977.9,7384890283.200001
sz300624,万兴科技,2021-07-16,56.0,56.44,53.69,53.9,56.83,5808573.0,319577040.0,5965281707.0,7004145456.0
sz300624,万兴科技,2021-07-19,53.83,55.24,53.11,54.01,53.9,3152948.0,171525649.0,5977455751.3,7018439630.4
sz300624,万兴科技,2021-07-20,53.34,53.97,51.46,53.43,54.01,4053411.0,212741778.0,5913265335.9,6943070347.2
sz300624,万兴科技,2021-07-21,53.42,55.55,52.77,54.4,53.43,4887402.0,264615127.0,6020618272.000001,7069118976.0
sz300624,万兴科技,2021-07-22,54.4,54.4,53.32,53.69,54.4,3327743.0,178554833.0,5942040349.700001,6976856577.599999
sz300624,万兴科技,2021-07-23,54.08,55.99,51.85,51.99,53.69,4996162.0,268260436.0,5753896028.7,6755946609.6
sz300624,万兴科技,2021-07-26,51.2,51.5,47.2,49.67,51.99,5880810.0,292352202.0,5497134367.1,6454469476.8
sz300624,万兴科技,2021-07-27,50.39,52.8,49.7,50.65,49.67,4992362.0,256359450.0,5605594034.5,6581817576.0
sz300624,万兴科技,2021-07-28,50.08,50.89,48.28,48.88,50.65,3405410.0,168534598.0,5409702594.400001,6351811315.200001
sz300624,万兴科技,2021-07-29,49.25,50.82,49.25,50.59,48.88,2728047.0,137230639.0,5598953646.700001,6574020753.6
sz300624,万兴科技,2021-07-30,50.12,53.02,50.12,51.11,50.59,3801050.0,196059140.0,5656503674.3,6641593214.4
sz300624,万兴科技,2021-08-02,50.49,52.17,49.51,52.02,51.11,3541603.0,180222022.0,5757216222.599999,6759845020.8
sz300624,万兴科技,2021-08-03,52.06,53.88,51.28,52.0,52.02,3819657.0,200962833.0,5755002760.0,6757246080.0
sz300624,万兴科技,2021-08-04,52.33,52.35,51.3,52.11,52.0,2876278.0,149125967.0,5767176804.299999,6771540254.4
sz300624,万兴科技,2021-08-05,51.9,51.9,49.92,50.36,52.11,3312349.0,167488623.0,5573498826.8,6544132934.400001
sz300624,万兴科技,2021-08-06,50.34,50.76,49.27,49.73,50.36,2986229.0,148964783.0,5503774754.9,6462266299.2
sz300624,万兴科技,2021-08-09,49.73,50.56,49.31,50.2,49.73,2157450.0,108013589.0,5555791126.0,6523341408.000001
sz300624,万兴科技,2021-08-10,49.99,50.46,49.53,50.06,50.2,2380463.0,118733102.0,5540296887.799999,6505148822.4
sz300624,万兴科技,2021-08-11,50.08,50.24,48.91,49.28,50.06,2560729.0,126477912.0,5453971846.4,6403790131.2
sz300624,万兴科技,2021-08-12,49.02,50.67,48.0,48.05,49.28,4130165.0,203551201.0,5317843896.5,6243955272.0
sz300624,万兴科技,2021-08-13,48.21,48.26,46.54,46.59,48.05,3479947.0,164201587.0,5156261126.7,6054232593.6
sz300624,万兴科技,2021-08-16,46.36,47.36,46.06,46.63,46.59,2436541.0,113668945.0,5160688051.9,6059430475.2
sz300624,万兴科技,2021-08-17,46.99,47.0,44.28,44.6,46.63,3656357.0,165786127.0,4936021598.0,5795637984.0
sz300624,万兴科技,2021-08-18,44.54,45.37,44.17,45.01,44.6,2023376.0,90756915.0,4981397581.3,5848916270.400001
sz300624,万兴科技,2021-08-19,44.91,46.19,44.76,45.28,45.01,2315724.0,105635897.0,5011279326.400001,5884001971.2
sz300624,万兴科技,2021-08-20,45.29,45.34,43.85,44.76,45.28,2002742.0,89065021.0,4953729298.8,5816429510.4
sz300624,万兴科技,2021-08-23,45.0,45.59,44.87,45.16,44.76,1967057.0,89026279.0,4997998550.8,5868408326.400001
sz300624,万兴科技,2021-08-24,45.19,45.45,44.37,44.99,45.16,1766753.0,79160983.0,4979184118.7,5846317329.6
sz300624,万兴科技,2021-08-25,45.49,45.49,43.99,44.34,44.99,2092026.0,92835675.0,4907246584.2,5761851753.6
sz300624,万兴科技,2021-08-26,44.04,44.85,43.73,44.08,44.34,1913711.0,84689085.0,4878471570.400001,5728065523.2
sz300624,万兴科技,2021-08-27,41.49,41.6,38.89,40.83,44.08,6120157.0,243747381.0,4518783897.9,5305737643.2
sz300624,万兴科技,2021-08-30,41.52,44.68,41.52,43.97,40.83,5482213.0,239481644.0,4866297526.1,5713771348.8
sz300624,万兴科技,2021-08-31,43.88,43.95,42.68,43.7,43.97,2719373.0,117766666.0,4836415781.0,5678685648.000001
sz300624,万兴科技,2021-09-01,43.55,43.6,42.07,42.8,43.7,1796301.0,76770955.0,4736809964.0,5561733312.0
sz300624,万兴科技,2021-09-02,42.5,44.79,42.16,44.26,42.8,2246708.0,98090569.0,4898392733.8,5751455990.4
sz300624,万兴科技,2021-09-03,44.23,46.5,44.0,45.22,44.26,3349190.0,152681979.0,5004638938.6,5876205148.8
sz300624,万兴科技,2021-09-06,44.96,47.0,43.61,46.72,45.22,3848253.0,177498409.0,5170648633.6,6071125708.8
sz300624,万兴科技,2021-09-07,47.08,51.83,47.08,49.15,46.72,6889000.0,341766734.0,5439584339.5,6386897016.0
sz300624,万兴科技,2021-09-08,50.6,58.8,50.6,57.5,49.15,12968626.0,695376994.0,6363704975.000001,7471954800.0
sz300624,万兴科技,2021-09-09,53.72,54.43,50.0,51.19,57.5,9352034.0,490175743.0,5665357524.7,6651988977.599999
sz300624,万兴科技,2021-09-10,51.2,51.99,48.13,48.27,51.19,6492317.0,320362581.0,5342191985.1,6272543620.8
sz300624,万兴科技,2021-09-13,48.67,52.8,47.54,50.9,48.27,6790602.0,343483683.0,5633262317.0,6614304336.0
sz300624,万兴科技,2021-09-14,50.3,53.6,50.0,51.7,50.9,7575200.0,393361878.0,5721800821.0,6718261968.0
sz300624,万兴科技,2021-09-15,51.0,51.5,49.63,50.18,51.7,4163804.0,209532366.0,5553577663.4,6520742467.200001
sz300624,万兴科技,2021-09-16,50.06,52.0,49.15,49.98,50.18,3824979.0,192723910.0,5531443037.4,6494753059.2
sz300624,万兴科技,2021-09-17,50.42,50.5,47.99,48.43,49.98,2857292.0,139166477.0,5359899685.9,6293335147.2
sz300624,万兴科技,2021-09-22,47.56,48.17,46.85,47.44,48.43,2061090.0,97630150.0,5250333287.2,6164687577.599999
sz300624,万兴科技,2021-09-23,47.64,49.86,47.5,48.23,47.44,3261146.0,158554104.0,5337765059.9,6267345739.2
sz300624,万兴科技,2021-09-24,48.24,51.78,48.24,50.35,48.23,4579307.0,231405256.0,5572392095.5,6542833464.0
sz300624,万兴科技,2021-09-27,50.9,52.38,49.0,49.51,50.35,3786839.0,192139001.0,5479426666.3,6433677950.4
sz300624,万兴科技,2021-09-28,48.5,50.3,48.15,49.81,49.51,2191319.0,108197072.0,5512628605.299999,6472662062.4
sz300624,万兴科技,2021-09-29,49.42,50.27,48.1,48.1,49.81,1891120.0,92548432.0,5323377553.0,6250452624.0
sz300624,万兴科技,2021-09-30,48.39,51.45,48.38,50.98,48.1,2951851.0,148453324.0,5642116167.4,6624700099.2
sz300624,万兴科技,2021-10-08,51.55,52.0,50.35,50.86,50.98,2233413.0,114178604.0,5628835391.799999,6609106454.4
sz300624,万兴科技,2021-10-11,49.98,51.51,49.26,50.49,50.86,2053787.0,103235340.0,5587886333.700001,6561026049.6
sz300624,万兴科技,2021-10-12,50.49,50.49,44.7,46.02,50.49,4690201.0,221230725.0,5093177442.6,5980162780.799999
sz300624,万兴科技,2021-10-13,46.05,46.5,44.18,45.13,46.02,2003740.0,90439232.0,4994678356.9,5864509915.200001
sz300624,万兴科技,2021-10-14,44.83,45.45,44.39,44.78,45.13,1231674.0,55046199.0,4955942761.4,5819028451.2
sz300624,万兴科技,2021-10-15,44.74,45.3,43.6,43.92,44.78,1814580.0,80117862.0,4860763869.599999,5707273996.8
sz300624,万兴科技,2021-10-18,43.92,44.04,42.63,44.04,43.92,1642056.0,71311956.0,4874044645.2,5722867641.6
sz300624,万兴科技,2021-10-19,43.78,45.5,43.77,45.02,44.04,1863302.0,83688751.0,4982504312.599999,5850215740.8
sz300624,万兴科技,2021-10-20,45.48,46.28,44.5,44.67,45.02,1705346.0,77062709.0,4943768717.099999,5804734276.799999
sz300624,万兴科技,2021-10-21,45.2,45.2,43.25,43.6,44.67,1839658.0,80928778.0,4825348468.0,5665690943.999999
sz300624,万兴科技,2021-10-22,43.81,45.04,43.18,44.48,43.6,2203514.0,97634497.0,4922740822.400001,5780044339.2
sz300624,万兴科技,2021-10-25,44.28,44.44,43.22,43.8,44.48,1507692.0,65806546.0,4847483094.0,5691680352.0
sz300624,万兴科技,2021-10-26,43.34,44.28,42.48,42.69,43.8,1824440.0,78726307.0,4724635919.7,5547439137.6
sz300624,万兴科技,2021-10-27,42.7,42.98,41.19,41.88,42.69,1656614.0,69133415.0,4634990684.4,5442182035.2
sz300624,万兴科技,2021-10-28,41.01,43.0,40.91,41.04,41.88,1830508.0,76561512.0,4542025255.2,5333026521.6
sz300624,万兴科技,2021-10-29,38.6,42.93,38.6,42.28,41.04,2526577.0,104659880.0,4679259936.4,5494160851.2
sz300624,万兴科技,2021-11-01,42.06,44.41,42.06,43.37,42.28,2350147.0,102167142.0,4799893648.1,5635803124.799999
sz300624,万兴科技,2021-11-02,43.25,43.73,42.1,42.38,43.37,1619029.0,69408888.0,4690327249.4,5507155555.200001
sz300624,万兴科技,2021-11-03,42.25,44.63,42.25,43.94,42.38,2245129.0,98522734.0,4862977332.2,5709872937.6
sz300624,万兴科技,2021-11-04,43.65,45.2,43.65,45.2,43.94,3104540.0,138545647.0,5002425476.0,5873606208.0
sz300624,万兴科技,2021-11-05,44.8,48.14,44.5,46.94,45.2,6333532.0,297304043.0,5194996722.2,6099714057.6
sz300624,万兴科技,2021-11-08,46.2,46.93,44.8,46.06,46.94,4607829.0,210603419.0,5097604367.8,5985360662.4
sz300624,万兴科技,2021-11-09,45.4,46.5,44.75,45.35,46.06,2957067.0,134808415.0,5019026445.5,5893098264.0
sz300624,万兴科技,2021-11-10,46.08,48.28,45.58,47.5,45.35,6224154.0,292097397.0,5256973675.000001,6172484399.999999
sz300624,万兴科技,2021-11-11,47.39,48.51,45.47,47.44,47.5,6874028.0,323603696.0,5250333287.2,6164687577.599999
sz300624,万兴科技,2021-11-12,46.68,49.39,46.07,48.28,47.44,6958725.0,332796548.0,5343298716.400001,6273843091.2
sz300624,万兴科技,2021-11-15,48.01,52.5,47.22,52.3,48.28,11294474.0,566069063.0,5788204699.0,6796230192.0
sz300624,万兴科技,2021-11-16,52.33,53.8,50.45,51.08,52.3,9204278.0,477480283.0,5653183480.4,6637694803.2
sz300624,万兴科技,2021-11-17,50.0,50.99,49.56,49.77,51.08,5955823.0,298620321.0,5508201680.1,6467464180.8
sz300624,万兴科技,2021-11-18,49.18,50.0,45.88,46.12,49.77,7981521.0,376050974.0,5104244755.6,5993157484.799999
sz300624,万兴科技,2021-11-19,45.8,47.3,45.6,46.47,46.12,5091842.0,237924034.0,5142980351.1,6038638948.8
sz300624,万兴科技,2021-11-22,46.9,47.28,45.8,46.94,46.47,3812005.0,178164114.0,5194996722.2,6099714057.6
sz300624,万兴科技,2021-11-23,46.3,47.4,45.05,46.3,46.94,5439644.0,250277016.0,5124165919.0,6016547952.000001
sz300624,万兴科技,2021-11-24,46.18,48.2,45.89,48.01,46.3,6846222.0,324731231.0,5313416971.3,6238757390.400001
sz300624,万兴科技,2021-11-25,47.4,48.4,46.3,46.45,48.01,5107269.0,241141207.0,5140766888.5,6036040008.0
sz300624,万兴科技,2021-11-26,45.9,46.15,44.38,44.66,46.45,5077713.0,228817587.0,4942661985.8,5803434806.4
sz300624,万兴科技,2021-11-29,44.1,44.85,43.42,43.63,44.66,3762669.0,165425150.0,4828668661.9,5669589355.200001
sz300624,万兴科技,2021-11-30,43.96,44.9,42.97,43.51,43.63,3366047.0,147540527.0,4815387886.3,5653995710.4
sz300624,万兴科技,2021-12-01,43.81,44.58,43.56,44.25,43.51,2938312.0,129679694.0,4897286002.5,5750156520.0
sz300624,万兴科技,2021-12-02,44.0,44.26,42.89,42.91,44.25,2547308.0,110596240.0,4748984008.3,5576027486.4
sz300624,万兴科技,2021-12-03,42.89,43.49,42.68,42.8,42.91,1829251.0,78622879.0,4736809964.0,5561733312.0
sz300624,万兴科技,2021-12-06,42.8,43.25,42.12,42.16,42.8,2442073.0,103754110.0,4665979160.8,5478567206.4
sz300624,万兴科技,2021-12-07,42.53,42.8,41.66,42.11,42.16,2078530.0,87534872.0,4660445504.3,5472069854.4
sz300624,万兴科技,2021-12-08,42.11,43.54,41.9,43.3,42.11,2335065.0,100398874.0,4792146529.0,5626706832.0
sz300624,万兴科技,2021-12-09,43.16,44.18,43.0,43.66,43.3,2548212.0,111379155.0,4831988855.8,5673487766.400001
sz300624,万兴科技,2021-12-10,43.69,44.28,42.88,43.19,43.66,4483750.0,195512592.0,4779972484.7,5612412657.599999
sz300624,万兴科技,2021-12-13,45.08,51.23,44.31,49.25,43.19,14806764.0,706531819.0,5469634572.5,6399891720.0
sz300624,万兴科技,2021-12-14,48.2,49.4,47.0,47.64,49.25,11355050.0,546133270.0,5290830274.8,6190676985.6
sz300624,万兴科技,2021-12-15,47.8,49.56,47.12,48.12,47.64,8213884.0,397904641.0,5344138388.4,6253051564.8
sz300624,万兴科技,2021-12-16,47.3,55.19,47.26,52.49,48.12,16671611.0,857873444.0,5829464339.3,6820920129.599999
sz300624,万兴科技,2021-12-17,52.47,53.0,49.99,50.3,52.49,9408199.0,478087892.0,5586246071.0,6536336112.0
sz300624,万兴科技,2021-12-20,48.99,50.0,47.5,47.8,50.3,7084801.0,343343802.0,5308599645.999999,6211468512.0
sz300624,万兴科技,2021-12-21,47.8,48.89,47.01,48.33,47.8,5798876.0,279254503.0,5367460688.099999,6280340443.2
sz300624,万兴科技,2021-12-22,48.25,50.49,47.85,49.49,48.33,7619660.0,376874785.0,5496288629.299999,6431079009.6
sz300624,万兴科技,2021-12-23,49.43,50.78,48.69,48.89,49.49,6913376.0,343245536.0,5429653487.299999,6353110785.6
sz300624,万兴科技,2021-12-24,49.8,51.0,49.16,50.01,48.89,7720954.0,387367965.0,5554039085.7,6498651470.4
sz300624,万兴科技,2021-12-27,50.45,54.17,49.18,53.52,50.01,13514294.0,703834123.0,5943854666.4,6954765580.8
sz300624,万兴科技,2021-12-28,52.68,56.0,52.0,53.76,53.52,12341129.0,664494204.0,5970508723.2,6985952870.4
sz300624,万兴科技,2021-12-29,55.1,58.71,54.46,54.6,53.76,14117718.0,794145877.0,6063797922.0,7095108384.0
sz300624,万兴科技,2021-12-30,55.0,58.6,54.01,57.5,54.6,11681972.0,666187816.0,6385867775.0,7471954800.0
sz300624,万兴科技,2021-12-31,58.09,58.87,54.44,55.11,57.5,9823769.0,550169896.0,6120437792.700001,7161381374.4
sz300624,万兴科技,2022-01-04,57.31,65.0,57.0,61.45,55.11,15839839.0,970174589.0,6825224892.15,7985921373.65
sz300624,万兴科技,2022-01-05,60.8,64.67,58.38,58.83,61.45,15804407.0,966369258.0,6534222626.610001,7645431316.71
sz300624,万兴科技,2022-01-06,60.64,62.0,58.45,60.62,58.83,11724095.0,705841277.0,6733037151.54,7878056202.940001
sz300624,万兴科技,2022-01-07,61.0,61.36,53.23,53.9,60.62,13236948.0,746854316.0,5986649661.299999,7004738194.3
sz300624,万兴科技,2022-01-10,53.91,55.08,51.38,53.85,53.9,7643068.0,408349480.0,5981096182.950001,6998240292.45
sz300624,万兴科技,2022-01-11,53.42,54.0,51.56,52.47,53.85,6068260.0,319397649.0,5902851965.67,6818924121.570001
sz300624,万兴科技,2022-01-12,52.0,53.2,51.2,51.61,52.47,6606620.0,343653012.0,5806102343.210001,6707159784.91
sz300624,万兴科技,2022-01-13,51.82,52.02,50.41,50.79,51.61,5488665.0,279710720.0,5713852703.19,6600593789.490001
sz300624,万兴科技,2022-01-14,49.8,52.2,49.73,50.96,50.79,7273189.0,371037026.0,5732977628.559999,6622686739.76
