数据由邢不行整理
股票代码,股票名称,交易日期,开盘价,最高价,最低价,收盘价,前收盘价,成交量,成交额,流通市值,总市值
sz300789,N唐源,2019-08-28,42.7,51.24,42.7,51.24,35.58,16409.0,839516.0,589260000.0,2356156571.16
sz300789,唐源电气,2019-08-29,56.36,56.36,56.36,56.36,51.24,12900.0,727044.0,648140000.0,2591588297.24
sz300789,唐源电气,2019-08-30,62.0,62.0,62.0,62.0,56.36,23000.0,1426000.0,713000000.0,2850931058.0
sz300789,唐源电气,2019-09-02,68.2,68.2,68.2,68.2,62.0,52800.0,3600960.0,784300000.0,3136024163.8
sz300789,唐源电气,2019-09-03,75.02,75.02,75.02,75.02,68.2,94652.0,7100793.0,862730000.0,3449626580.18
sz300789,唐源电气,2019-09-04,82.52,82.52,82.52,82.52,75.02,90696.0,7484233.0,948980000.0,3794497272.68
sz300789,唐源电气,2019-09-05,90.77,90.77,86.2,90.77,82.52,7395053.0,660752627.0,1043855000.0,4173855034.43
sz300789,唐源电气,2019-09-06,87.99,90.5,83.88,83.99,90.77,5141500.0,448343646.0,965885000.0,3862091928.41
sz300789,唐源电气,2019-09-09,82.81,87.47,80.5,85.91,83.99,3328899.0,280167306.0,987965000.0,3950378825.69
sz300789,唐源电气,2019-09-10,85.03,94.48,85.02,91.38,85.91,4063435.0,367929729.0,1050870000.0,4201904517.42
sz300789,唐源电气,2019-09-11,89.9,93.9,86.66,87.26,91.38,3230464.0,289345494.0,1003490000.0,4012455550.34
sz300789,唐源电气,2019-09-12,87.68,90.8,87.68,88.28,87.26,2241213.0,199429622.0,1015220000.0,4059357964.52
sz300789,唐源电气,2019-09-16,87.68,95.6,87.68,95.0,88.28,3563472.0,330438612.0,1092500000.0,4368362105.0
sz300789,唐源电气,2019-09-17,93.64,97.0,91.82,96.8,95.0,3058437.0,287859599.0,1113200000.0,4451131071.2
sz300789,唐源电气,2019-09-18,96.3,97.56,92.89,92.89,96.8,2617870.0,248990994.0,1068235000.0,4271338483.51
sz300789,唐源电气,2019-09-19,93.16,96.18,90.9,96.02,92.89,2471831.0,231351417.0,1104230000.0,4415264519.18
sz300789,唐源电气,2019-09-20,98.52,103.88,92.56,92.94,96.02,3922507.0,383571260.0,1068810000.0,4273637621.46
sz300789,唐源电气,2019-09-23,90.55,93.0,88.74,92.74,92.94,2182004.0,197904828.0,1066510000.0,4264441069.66
sz300789,唐源电气,2019-09-24,92.01,94.5,90.32,94.1,92.74,2067346.0,190923802.0,1082150000.0,4326977621.9
sz300789,唐源电气,2019-09-25,93.25,96.3,90.86,91.06,94.1,2333051.0,218712966.0,1047190000.0,4187190034.54
sz300789,唐源电气,2019-09-26,90.95,92.36,84.71,86.26,91.06,2539404.0,223875008.0,991990000.0,3966472791.34
sz300789,唐源电气,2019-09-27,86.0,87.48,85.58,87.14,86.26,1070647.0,92908469.0,1002110000.0,4006937619.26
sz300789,唐源电气,2019-09-30,86.2,87.18,82.5,82.5,87.14,1316415.0,110942114.0,948750000.0,3793577617.5
sz300789,唐源电气,2019-10-08,82.38,83.45,76.32,77.04,82.5,1690100.0,134015351.0,885960000.0,3542511753.36
sz300789,唐源电气,2019-10-09,76.19,77.59,75.22,77.52,77.04,951340.0,72716479.0,891480000.0,3564583477.68
sz300789,唐源电气,2019-10-10,77.49,79.78,76.57,79.18,77.52,1024408.0,80270132.0,910570000.0,3640914857.62
sz300789,唐源电气,2019-10-11,79.16,79.95,77.1,77.95,79.18,940992.0,73725492.0,896425000.0,3584356064.05
sz300789,唐源电气,2019-10-14,79.01,81.05,78.62,79.98,77.95,1074917.0,86148526.0,919770000.0,3677701064.82
sz300789,唐源电气,2019-10-15,79.1,80.55,77.77,80.44,79.98,978041.0,77138886.0,925060000.0,3698853133.96
sz300789,唐源电气,2019-10-16,80.01,82.5,80.01,81.06,80.44,1005264.0,81928048.0,932190000.0,3727362444.54
sz300789,唐源电气,2019-10-17,80.7,82.38,80.33,82.14,81.06,869434.0,71082447.0,944610000.0,3777023824.26
sz300789,唐源电气,2019-10-18,82.1,82.11,77.5,77.6,82.14,1306651.0,104450529.0,892400000.0,3568262098.4
sz300789,唐源电气,2019-10-21,77.6,77.95,72.21,73.17,77.6,1303000.0,97164450.0,841455000.0,3364558476.03
sz300789,唐源电气,2019-10-22,73.3,74.85,73.3,74.6,73.17,600025.0,44430458.0,857900000.0,3430313821.4
sz300789,唐源电气,2019-10-23,74.59,75.67,73.36,74.83,74.6,664400.0,49505245.0,860545000.0,3440889855.97
sz300789,唐源电气,2019-10-24,74.96,74.96,73.87,74.16,74.83,470892.0,35005574.0,852840000.0,3410081407.44
sz300789,唐源电气,2019-10-25,74.97,79.28,74.19,76.82,74.16,1205239.0,92878978.0,883430000.0,3532395546.38
sz300789,唐源电气,2019-10-28,76.99,77.83,75.58,77.32,76.82,861465.0,66235769.0,889180000.0,3555386925.88
sz300789,唐源电气,2019-10-29,77.0,77.0,72.79,72.9,77.32,1086147.0,80941662.0,838350000.0,3352143131.1
sz300789,唐源电气,2019-10-30,72.32,72.32,70.24,71.3,72.9,728047.0,51727265.0,819950000.0,3278570716.7
sz300789,唐源电气,2019-10-31,71.0,71.55,67.58,67.65,71.3,998217.0,69075375.0,777975000.0,3110733646.35
sz300789,唐源电气,2019-11-01,67.0,69.19,66.7,68.13,67.65,715700.0,48829971.0,783495000.0,3132805370.67
sz300789,唐源电气,2019-11-04,68.0,69.28,67.83,68.47,68.13,692200.0,47484472.0,787405000.0,3148439508.73
sz300789,唐源电气,2019-11-05,68.5,69.8,68.2,68.71,68.47,608700.0,41958869.0,790165000.0,3159475370.89
sz300789,唐源电气,2019-11-06,68.26,68.88,66.27,66.7,68.71,726101.0,48951536.0,767050000.0,3067050025.3
sz300789,唐源电气,2019-11-07,66.7,68.2,66.5,67.6,66.7,502400.0,33965173.0,777400000.0,3108434508.4
sz300789,唐源电气,2019-11-08,67.73,74.36,67.73,74.36,67.6,1260757.0,90894473.0,855140000.0,3419277959.24
sz300789,唐源电气,2019-11-11,75.44,81.75,74.0,77.22,74.36,2934928.0,225822043.0,888030000.0,3550788649.98
sz300789,唐源电气,2019-11-12,77.95,83.5,75.72,82.0,77.22,3178996.0,253116281.0,943000000.0,3770586238.0
sz300789,唐源电气,2019-11-13,80.0,80.95,78.53,80.16,82.0,2251483.0,178958758.0,921840000.0,3685977961.44
sz300789,唐源电气,2019-11-14,82.0,83.99,80.28,82.95,80.16,2447939.0,200884599.0,953925000.0,3814269859.05
sz300789,唐源电气,2019-11-15,82.0,82.82,80.61,81.23,82.95,1810794.0,148071093.0,934145000.0,3735179513.57
sz300789,唐源电气,2019-11-18,79.81,81.91,78.0,81.73,81.23,1587175.0,126588518.0,939895000.0,3758170893.07
sz300789,唐源电气,2019-11-19,81.2,82.82,80.16,82.79,81.73,1735628.0,141309710.0,952085000.0,3806912617.61
sz300789,唐源电气,2019-11-20,81.83,88.42,81.2,86.41,82.79,2664771.0,228247396.0,993715000.0,3973370205.19
sz300789,唐源电气,2019-11-21,85.2,86.03,82.02,83.32,86.41,1673416.0,140490420.0,958180000.0,3831283479.88
sz300789,唐源电气,2019-11-22,83.0,84.74,78.18,79.97,83.32,1798714.0,145831840.0,919655000.0,3677241237.23
sz300789,唐源电气,2019-11-25,79.24,80.6,76.75,80.2,79.97,1195414.0,94070301.0,922300000.0,3687817271.8
sz300789,唐源电气,2019-11-26,79.21,80.75,77.51,78.01,80.2,941800.0,74382439.0,897115000.0,3587115029.59
sz300789,唐源电气,2019-11-27,77.1,77.6,74.03,74.89,78.01,1404426.0,105617519.0,861235000.0,3443648821.51
sz300789,唐源电气,2019-11-28,74.89,74.99,73.4,74.17,74.89,932500.0,69174173.0,852955000.0,3410541235.03
sz300789,唐源电气,2019-11-29,74.36,78.0,74.0,77.91,74.17,1461506.0,111714259.0,895965000.0,3582516753.69
sz300789,唐源电气,2019-12-02,77.01,77.66,75.01,76.02,77.91,1034095.0,79221926.0,874230000.0,3495609339.18
sz300789,唐源电气,2019-12-03,75.62,75.93,74.16,75.93,76.02,691800.0,51902131.0,873195000.0,3491470890.87
sz300789,唐源电气,2019-12-04,74.96,77.5,74.71,77.04,75.93,782947.0,59916603.0,885960000.0,3542511753.36
sz300789,唐源电气,2019-12-05,77.75,79.0,77.09,78.25,77.04,1034900.0,80952675.0,899875000.0,3598150891.75
sz300789,唐源电气,2019-12-06,78.0,78.7,76.88,77.75,78.25,805300.0,62526966.0,894125000.0,3575159512.25
sz300789,唐源电气,2019-12-09,78.27,79.45,77.77,78.33,77.75,772462.0,60654831.0,900795000.0,3601829512.47
sz300789,唐源电气,2019-12-10,77.74,78.45,76.62,78.18,78.33,788262.0,61076102.0,899070000.0,3594932098.62
sz300789,唐源电气,2019-12-11,78.0,78.59,76.81,76.83,78.18,658262.0,51086736.0,883545000.0,3532855373.97
sz300789,唐源电气,2019-12-12,76.43,76.46,73.92,73.93,76.83,1001492.0,75072876.0,850195000.0,3399505372.87
sz300789,唐源电气,2019-12-13,74.03,75.2,74.03,75.0,73.93,626980.0,46797003.0,862500000.0,3448706925.0
sz300789,唐源电气,2019-12-16,77.89,82.5,77.79,82.5,75.0,1892184.0,151377021.0,948750000.0,3793577617.5
sz300789,唐源电气,2019-12-17,84.52,85.5,82.62,83.6,82.5,2338525.0,196140874.0,961400000.0,3844158652.4
sz300789,唐源电气,2019-12-18,84.05,87.24,83.5,85.62,83.6,1987135.0,169858859.0,984630000.0,3937043825.58
sz300789,唐源电气,2019-12-19,84.88,87.48,83.76,86.0,85.62,1535898.0,131186757.0,989000000.0,3954517274.0
sz300789,唐源电气,2019-12-20,85.56,92.39,85.4,88.6,86.0,2325565.0,207297381.0,1018900000.0,4074072447.4
sz300789,唐源电气,2019-12-23,87.55,96.66,87.36,89.9,88.6,2434761.0,222527636.0,1033850000.0,4133850034.1
sz300789,唐源电气,2019-12-24,89.04,91.5,83.21,89.63,89.9,2011011.0,175462368.0,1030745000.0,4121434689.17
sz300789,唐源电气,2019-12-25,88.0,92.0,86.5,91.0,89.63,1817129.0,162371481.0,1046500000.0,4184431069.0
sz300789,唐源电气,2019-12-26,90.88,90.98,88.5,90.13,91.0,1399600.0,125809147.0,1036495000.0,4144426068.67
sz300789,唐源电气,2019-12-27,90.0,94.15,87.63,93.9,90.13,2096972.0,191233512.0,1079850000.0,4317781070.1
sz300789,唐源电气,2019-12-30,92.51,97.88,91.23,91.38,93.9,2370510.0,223156235.0,1050870000.0,4201904517.42
sz300789,唐源电气,2019-12-31,89.01,89.7,86.8,87.79,91.38,1938780.0,170586262.0,1009585000.0,4036826412.61
sz300789,唐源电气,2020-01-02,87.98,90.12,86.5,88.8,87.79,1397242.0,123797667.0,1021200000.0,4083268999.2
sz300789,唐源电气,2020-01-03,89.01,89.62,87.13,87.3,88.8,1143162.0,100712152.0,1003950000.0,4014294860.7
sz300789,唐源电气,2020-01-06,86.08,88.65,85.53,87.81,87.3,913500.0,79759055.0,1009815000.0,4037746067.79
sz300789,唐源电气,2020-01-07,87.81,89.59,87.6,88.64,87.81,964338.0,85712932.0,1019360000.0,4075911757.76
sz300789,唐源电气,2020-01-08,88.02,88.38,86.01,86.04,88.64,911010.0,79404547.0,989460000.0,3956356584.36
sz300789,唐源电气,2020-01-09,87.02,89.59,87.02,88.38,86.04,1054810.0,93418778.0,1016370000.0,4063956240.42
sz300789,唐源电气,2020-01-10,88.9,91.33,87.77,90.6,88.38,1150000.0,103239952.0,1041900000.0,4166037965.4
sz300789,唐源电气,2020-01-13,90.12,91.88,89.31,90.7,90.6,1028290.0,93399682.0,1043050000.0,4170636241.3
sz300789,唐源电气,2020-01-14,90.61,90.98,89.0,89.4,90.7,888510.0,79672958.0,1028100000.0,4110858654.6
sz300789,唐源电气,2020-01-15,89.08,89.87,86.87,87.51,89.4,877305.0,77156456.0,1006365000.0,4023951240.09
sz300789,唐源电气,2020-01-16,87.69,89.5,87.3,89.5,87.51,688405.0,60659229.0,1029250000.0,4115456930.5
sz300789,唐源电气,2020-01-17,88.99,89.5,87.13,87.6,89.5,618905.0,54727245.0,1007400000.0,4028089688.4
sz300789,唐源电气,2020-01-20,87.47,90.29,86.22,90.28,87.6,932962.0,82095932.0,1038220000.0,4151323482.52
sz300789,唐源电气,2020-01-21,89.8,92.5,89.22,90.8,90.28,1270567.0,116220504.0,1044200000.0,4175234517.2
sz300789,唐源电气,2020-01-22,90.1,94.87,90.1,93.38,90.8,1366048.0,127080764.0,1073870000.0,4293870035.42
sz300789,唐源电气,2020-01-23,92.2,92.5,84.04,84.04,93.38,1857300.0,160001882.0,966460000.0,3864391066.36
sz300789,唐源电气,2020-02-03,75.64,75.64,75.64,75.64,84.04,45700.0,3456748.0,869860000.0,3478135890.76
sz300789,唐源电气,2020-02-04,68.08,71.32,68.08,69.55,75.64,2499249.0,171801309.0,799825000.0,3198100888.45
sz300789,唐源电气,2020-02-05,69.58,71.68,68.68,69.8,69.55,1664415.0,116465254.0,802700000.0,3209596578.2
sz300789,唐源电气,2020-02-06,69.31,70.92,68.77,70.38,69.8,1373562.0,95904089.0,809370000.0,3236266578.42
sz300789,唐源电气,2020-02-07,70.3,73.69,69.81,72.42,70.38,1408115.0,101449223.0,832830000.0,3330071406.78
sz300789,唐源电气,2020-02-10,72.08,74.83,71.34,74.0,72.42,988700.0,72463674.0,851000000.0,3402724166.0
sz300789,唐源电气,2020-02-11,73.66,74.74,72.7,73.76,74.0,1004341.0,73887434.0,848240000.0,3391688303.84
sz300789,唐源电气,2020-02-12,73.55,74.67,73.21,74.31,73.76,884522.0,65617524.0,854565000.0,3416978821.29
sz300789,唐源电气,2020-02-13,74.41,74.41,72.91,72.99,74.31,991643.0,73062253.0,839385000.0,3356281579.41
sz300789,唐源电气,2020-02-14,71.51,73.98,71.5,72.47,72.99,991222.0,72002093.0,833405000.0,3332370544.73
sz300789,唐源电气,2020-02-17,73.8,75.25,73.1,74.97,72.47,972837.0,72269067.0,862155000.0,3447327442.23
sz300789,唐源电气,2020-02-18,74.8,77.49,74.8,77.35,74.97,1531415.0,116714725.0,889525000.0,3556766408.65
sz300789,唐源电气,2020-02-19,77.28,77.5,74.9,75.7,77.35,1314600.0,99775121.0,870550000.0,3480894856.3
sz300789,唐源电气,2020-02-20,76.03,78.6,76.0,77.7,75.7,1344915.0,103879423.0,893550000.0,3572860374.3
sz300789,唐源电气,2020-02-21,77.29,80.5,77.0,78.7,77.7,1376600.0,108124884.0,905050000.0,3618843133.3
sz300789,唐源电气,2020-02-24,78.07,78.72,77.03,78.01,78.7,1092815.0,84977384.0,897115000.0,3587115029.59
sz300789,唐源电气,2020-02-25,76.2,76.49,70.23,76.07,78.01,1308429.0,98371653.0,874805000.0,3497908477.13
sz300789,唐源电气,2020-02-26,74.79,77.38,74.42,74.93,76.07,1189997.0,90514070.0,861695000.0,3445488131.87
sz300789,唐源电气,2020-02-27,75.5,76.29,73.52,74.05,74.93,775200.0,57935669.0,851575000.0,3405023303.95
sz300789,唐源电气,2020-02-28,72.0,72.0,68.4,68.6,74.05,1151580.0,80943387.0,788900000.0,3154417267.4
sz300789,唐源电气,2020-03-02,69.08,70.93,68.83,70.77,68.6,892580.0,62469858.0,813855000.0,3254199854.43
sz300789,唐源电气,2020-03-03,72.0,73.9,70.6,71.25,70.77,964600.0,69693227.0,819375000.0,3276271578.75
sz300789,唐源电气,2020-03-04,70.06,72.15,70.06,72.15,71.25,722600.0,51485188.0,829725000.0,3317656061.85
sz300789,唐源电气,2020-03-05,72.98,73.67,72.01,73.18,72.15,892900.0,64989069.0,841570000.0,3365018303.62
sz300789,唐源电气,2020-03-06,72.4,73.22,71.88,72.44,73.18,642100.0,46491151.0,833060000.0,3330991061.96
sz300789,唐源电气,2020-03-09,72.0,75.46,71.13,72.56,72.44,1190000.0,87111766.0,834440000.0,3336508993.04
sz300789,唐源电气,2020-03-10,71.88,73.2,69.21,73.11,72.56,1093000.0,77773918.0,840765000.0,3361799510.49
sz300789,唐源电气,2020-03-11,73.05,75.2,72.31,73.5,73.11,1221800.0,90343794.0,845250000.0,3379732786.5
sz300789,唐源电气,2020-03-12,72.94,72.94,70.25,70.9,73.5,837000.0,59543587.0,815350000.0,3260177613.1
sz300789,唐源电气,2020-03-13,66.79,69.84,66.01,69.05,70.9,836100.0,57024243.0,794075000.0,3175109508.95
sz300789,唐源电气,2020-03-16,69.3,69.8,66.13,66.17,69.05,748600.0,51069857.0,760955000.0,3042679163.03
sz300789,唐源电气,2020-03-17,66.35,67.77,64.9,66.89,66.17,644600.0,42819334.0,769235000.0,3075786749.51
sz300789,唐源电气,2020-03-18,67.08,68.66,65.82,65.82,66.89,635100.0,42819637.0,756930000.0,3026585197.38
sz300789,唐源电气,2020-03-19,66.0,67.47,65.33,67.42,65.82,519800.0,34577780.0,775330000.0,3100157611.78
sz300789,唐源电气,2020-03-20,67.05,68.5,67.05,68.31,67.42,484800.0,32913158.0,785565000.0,3141082267.29
sz300789,唐源电气,2020-03-23,67.38,67.5,65.6,65.62,68.31,499500.0,33170528.0,754630000.0,3017388645.58
sz300789,唐源电气,2020-03-24,66.8,67.34,65.03,66.82,65.62,437200.0,29040520.0,768430000.0,3072567956.38
sz300789,唐源电气,2020-03-25,68.08,68.83,67.32,68.33,66.82,571600.0,38942938.0,785795000.0,3142001922.47
sz300789,唐源电气,2020-03-26,67.68,68.3,66.66,66.79,68.33,396080.0,26701854.0,768085000.0,3071188473.61
sz300789,唐源电气,2020-03-27,67.1,68.27,67.1,67.38,66.79,350200.0,23701985.0,774870000.0,3098318301.42
sz300789,唐源电气,2020-03-30,66.66,66.66,64.16,64.57,67.38,440800.0,28602132.0,742555000.0,2969106748.63
sz300789,唐源电气,2020-03-31,65.13,65.38,63.66,64.0,64.57,360350.0,23202957.0,736000000.0,2942896576.0
sz300789,唐源电气,2020-04-01,63.51,64.24,62.28,62.3,64.0,460300.0,29184088.0,716450000.0,2864725885.7
sz300789,唐源电气,2020-04-02,61.97,63.2,61.18,63.16,62.3,497631.0,30828764.0,726340000.0,2904271058.44
sz300789,唐源电气,2020-04-03,63.0,63.33,61.6,62.78,63.16,409500.0,25637111.0,721970000.0,2886797610.02
sz300789,唐源电气,2020-04-07,63.4,64.97,63.4,64.8,62.78,496428.0,32031340.0,745200000.0,2979682783.2
sz300789,唐源电气,2020-04-08,64.6,65.79,64.19,65.56,64.8,418000.0,27206932.0,753940000.0,3014629680.04
sz300789,唐源电气,2020-04-09,65.67,65.96,65.02,65.56,65.56,325600.0,21327441.0,753940000.0,3014629680.04
sz300789,唐源电气,2020-04-10,64.72,64.8,61.29,62.12,65.56,679700.0,42757146.0,714380000.0,2856448989.08
sz300789,唐源电气,2020-04-13,61.96,61.96,60.04,60.1,62.12,346700.0,21004890.0,691150000.0,2763563815.9
sz300789,唐源电气,2020-04-14,60.78,61.2,60.25,61.0,60.1,243600.0,14805860.0,701500000.0,2804948299.0
sz300789,唐源电气,2020-04-15,61.05,61.95,60.71,60.71,61.0,292600.0,17866787.0,698165000.0,2791613298.89
sz300789,唐源电气,2020-04-16,60.62,61.38,60.6,61.27,60.71,196200.0,11984126.0,704605000.0,2817363643.93
sz300789,唐源电气,2020-04-17,62.0,63.3,61.61,62.68,61.27,466900.0,29168198.0,720820000.0,2882199334.12
sz300789,唐源电气,2020-04-20,62.64,63.36,62.12,63.1,62.68,378000.0,23763073.0,725650000.0,2901512092.9
sz300789,唐源电气,2020-04-21,62.92,63.1,61.89,62.83,63.1,284400.0,17820292.0,722545000.0,2889096747.97
sz300789,唐源电气,2020-04-22,62.31,65.35,62.31,64.95,62.83,634800.0,41000686.0,746925000.0,2986580197.05
sz300789,唐源电气,2020-04-23,65.0,65.45,64.31,64.56,64.95,428900.0,27792998.0,742440000.0,2968646921.04
sz300789,唐源电气,2020-04-24,64.63,65.3,62.65,63.25,64.56,437315.0,27822520.0,727375000.0,2908409506.75
sz300789,唐源电气,2020-04-27,59.9,60.86,56.93,56.93,63.25,1287500.0,74630757.0,654695000.0,2617798469.87
sz300789,唐源电气,2020-04-28,56.48,57.2,52.15,53.23,56.93,755115.0,40850556.0,612145000.0,2447662261.57
sz300789,唐源电气,2020-04-29,53.41,54.6,52.9,53.82,53.23,305900.0,16492394.0,618930000.0,2474792089.38
sz300789,唐源电气,2020-04-30,53.99,55.65,53.99,55.38,53.82,335400.0,18450606.0,636870000.0,2546525193.42
sz300789,唐源电气,2020-05-06,55.28,56.85,54.41,56.65,55.38,400100.0,22368351.0,651475000.0,2604923297.35
sz300789,唐源电气,2020-05-07,56.65,56.89,56.26,56.78,56.65,343500.0,19434799.0,652970000.0,2610901056.02
sz300789,唐源电气,2020-05-08,57.18,57.8,56.87,57.47,56.78,357200.0,20508113.0,660905000.0,2642629159.73
sz300789,唐源电气,2020-05-11,57.6,58.0,57.01,57.55,57.47,322115.0,18539378.0,661825000.0,2646307780.45
sz300789,唐源电气,2020-05-12,57.93,57.93,56.12,57.57,57.55,423500.0,24190973.0,662055000.0,2647227435.63
sz300789,唐源电气,2020-05-13,58.0,58.95,57.39,58.3,57.57,485600.0,28342779.0,670450000.0,2680794849.7
sz300789,唐源电气,2020-05-14,58.3,58.32,57.0,57.12,58.3,420200.0,24157758.0,656880000.0,2626535194.08
sz300789,唐源电气,2020-05-15,57.46,57.96,57.07,57.22,57.12,261500.0,15017942.0,658030000.0,2631133469.98
sz300789,唐源电气,2020-05-18,57.86,59.95,57.33,57.61,57.22,571297.0,33520121.0,662515000.0,2649066745.99
sz300789,唐源电气,2020-05-19,57.69,58.32,57.04,57.39,57.61,449200.0,25790860.0,659985000.0,2638950539.01
sz300789,唐源电气,2020-05-20,57.9,57.9,56.67,56.88,57.39,375000.0,21354043.0,654120000.0,2615499331.92
sz300789,唐源电气,2020-05-21,56.89,57.86,56.51,56.8,56.88,358200.0,20425225.0,653200000.0,2611820711.2
sz300789,唐源电气,2020-05-22,56.0,56.99,54.9,55.2,56.8,420300.0,23392851.0,634800000.0,2538248296.8
sz300789,唐源电气,2020-05-25,55.52,55.52,54.01,54.57,55.2,261400.0,14337850.0,627555000.0,2509279158.63
sz300789,唐源电气,2020-05-26,54.57,56.6,54.57,56.53,54.57,404700.0,22707109.0,650095000.0,2599405366.27
sz300789,唐源电气,2020-05-27,56.77,58.66,56.22,57.74,56.53,617000.0,35616520.0,664010000.0,2655044504.66
sz300789,唐源电气,2020-05-28,57.74,58.26,55.55,56.6,57.74,389900.0,22124020.0,650900000.0,2602624159.4
sz300789,唐源电气,2020-05-29,57.11,57.11,56.02,56.63,56.6,275100.0,15568182.0,651245000.0,2604003642.17
sz300789,唐源电气,2020-06-01,56.65,58.67,56.65,58.45,56.63,469999.0,27311492.0,672175000.0,2687692263.55
sz300789,唐源电气,2020-06-02,58.3,59.9,58.07,59.27,58.45,448600.0,26476206.0,681605000.0,2725398125.93
sz300789,唐源电气,2020-06-03,59.18,59.5,58.6,59.2,59.27,314000.0,18550042.0,680800000.0,2722179332.8
sz300789,唐源电气,2020-06-04,59.43,59.43,58.03,58.65,59.2,264900.0,15513370.0,674475000.0,2696888815.35
sz300789,唐源电气,2020-06-05,58.28,59.12,58.28,58.7,58.65,210500.0,12341565.0,675050000.0,2699187953.3
sz300789,唐源电气,2020-06-08,58.69,59.01,58.0,58.0,58.7,269703.0,15767041.0,667000000.0,2667000022.0
sz300789,唐源电气,2020-06-09,58.0,58.49,57.69,58.21,58.0,177200.0,10304398.0,669415000.0,2676656401.39
sz300789,唐源电气,2020-06-10,58.21,58.21,57.21,57.5,58.21,217000.0,12495070.0,661250000.0,2644008642.5
sz300789,唐源电气,2020-06-11,57.52,58.29,57.36,57.84,57.5,287400.0,16611515.0,665160000.0,2659642780.56
sz300789,唐源电气,2020-06-12,57.0,57.53,56.2,57.4,57.84,288000.0,16400206.0,660100000.0,2639410366.6
sz300789,唐源电气,2020-06-15,57.1,58.19,57.1,57.54,57.4,255800.0,14780826.0,661710000.0,2645847952.86
sz300789,唐源电气,2020-06-16,58.19,58.96,57.49,58.77,57.54,359000.0,20991075.0,675855000.0,2702406746.43
sz300789,唐源电气,2020-06-17,58.77,59.59,58.6,59.44,58.77,338473.0,19989993.0,683560000.0,2733215194.96
sz300789,唐源电气,2020-06-18,59.44,59.5,58.55,59.16,59.44,249727.0,14743534.0,680340000.0,2720340022.44
sz300789,唐源电气,2020-06-19,59.11,59.3,58.56,58.62,58.8,200100.0,11770950.0,674130000.0,2695509332.58
sz300789,唐源电气,2020-06-22,58.9,58.9,58.31,58.62,58.62,259600.0,15208022.0,674130000.0,2695509332.58
sz300789,唐源电气,2020-06-23,58.96,62.1,58.84,60.34,58.62,894553.0,54387407.0,693910000.0,2774599678.06
sz300789,唐源电气,2020-06-24,59.79,59.99,58.8,59.51,60.34,559580.0,33214618.0,684365000.0,2736433988.09
sz300789,唐源电气,2020-06-29,58.92,59.5,57.64,58.1,59.51,360800.0,21120405.0,668150000.0,2671598297.9
sz300789,唐源电气,2020-06-30,58.56,59.48,58.0,59.15,58.1,271699.0,16030910.0,680225000.0,2719880194.85
sz300789,唐源电气,2020-07-01,59.15,59.76,58.36,58.68,59.15,350100.0,20593160.0,674820000.0,2698268298.12
sz300789,唐源电气,2020-07-02,58.78,59.26,58.39,59.06,58.68,381700.0,22437638.0,679190000.0,2715741746.54
sz300789,唐源电气,2020-07-03,59.69,59.69,58.66,59.45,59.06,385053.0,22790560.0,683675000.0,2733675022.55
sz300789,唐源电气,2020-07-06,59.48,61.9,59.45,61.77,59.45,607600.0,37254420.0,710355000.0,2840355023.43
sz300789,唐源电气,2020-07-07,62.34,62.99,61.1,62.3,61.77,672000.0,41880378.0,716450000.0,2864725885.7000003
sz300789,唐源电气,2020-07-08,62.3,63.48,62.0,63.17,62.3,565000.0,35493086.0,726455000.0,2904730886.03
sz300789,唐源电气,2020-07-09,62.9,66.28,62.78,65.68,63.17,711701.0,46175081.0,755320000.0,3020147611.12
sz300789,唐源电气,2020-07-10,65.17,66.95,64.03,66.31,65.68,813431.0,53256090.0,762565000.0,3049116749.2899995
sz300789,唐源电气,2020-07-13,66.0,67.6,65.94,66.97,66.31,669656.0,44726711.0,770155000.0,3079465370.23
sz300789,唐源电气,2020-07-14,66.35,67.23,64.0,65.02,66.97,683900.0,44784627.0,747730000.0,2989798990.18
sz300789,唐源电气,2020-07-15,65.5,65.63,62.99,63.12,65.02,534827.0,34260213.0,725880000.0,2902431748.08
sz300789,唐源电气,2020-07-16,63.21,64.59,60.08,60.3,63.12,606201.0,37778819.0,693450000.0,2772760367.7000003
sz300789,唐源电气,2020-07-17,60.97,61.49,60.05,60.58,60.3,315100.0,19123859.0,696670000.0,2785635540.22
sz300789,唐源电气,2020-07-20,60.81,62.17,60.5,62.1,60.58,274600.0,16856201.0,714150000.0,2855529333.9
sz300789,唐源电气,2020-07-21,62.1,62.66,61.66,62.09,62.1,290400.0,18063856.0,714035000.0,2855069506.31
sz300789,唐源电气,2020-07-22,61.99,62.88,61.99,62.2,62.09,317900.0,19848597.0,715300000.0,2860127609.8
sz300789,唐源电气,2020-07-23,61.86,62.17,59.83,61.65,62.2,540480.0,32912343.0,708975000.0,2834837092.3500004
sz300789,唐源电气,2020-07-24,61.06,62.46,59.3,59.47,61.65,456200.0,27645803.0,683905000.0,2734594677.73
sz300789,唐源电气,2020-07-27,59.47,60.19,58.0,58.18,59.47,375123.0,21980623.0,669070000.0,2675276918.62
sz300789,唐源电气,2020-07-28,57.99,59.49,57.99,59.0,58.18,238000.0,14004806.0,678500000.0,2712982781.0
sz300789,唐源电气,2020-07-29,58.03,60.24,58.03,60.14,59.0,258700.0,15395364.0,691610000.0,2765403126.26
sz300789,唐源电气,2020-07-30,60.45,60.83,59.66,59.87,60.14,283400.0,17011226.0,688505000.0,2752987781.33
sz300789,唐源电气,2020-07-31,59.8,60.71,59.51,60.19,59.87,253300.0,15229084.0,692185000.0,2767702264.2100005
sz300789,唐源电气,2020-08-03,60.19,61.5,60.19,61.37,60.19,350600.0,21411200.0,705755000.0,2821961919.8300004
sz300789,唐源电气,2020-08-04,61.75,61.75,60.34,60.62,61.37,311000.0,18909828.0,697130000.0,2787474850.5800004
sz300789,唐源电气,2020-08-05,60.62,61.97,60.29,61.72,60.62,363400.0,22243908.0,709780000.0,2838055885.4800005
sz300789,唐源电气,2020-08-06,61.51,61.87,59.76,60.72,61.72,368780.0,22361855.0,698280000.0,2792073126.48
sz300789,唐源电气,2020-08-07,60.8,60.8,59.03,60.0,60.72,405200.0,24211095.0,690000000.0,2758965540.0
sz300789,唐源电气,2020-08-10,60.0,63.0,59.9,61.22,60.0,415680.0,25560776.0,704030000.0,2815064505.98
sz300789,唐源电气,2020-08-11,61.22,61.8,59.1,59.17,61.22,404700.0,24311066.0,680455000.0,2720799850.03
sz300789,唐源电气,2020-08-12,59.06,59.3,57.46,57.94,59.17,437300.0,25361813.0,666310000.0,2664241056.46
sz300789,唐源电气,2020-08-13,58.07,58.91,58.0,58.15,57.94,203803.0,11899494.0,668725000.0,2673897435.85
sz300789,唐源电气,2020-08-14,58.4,58.53,57.76,58.3,58.15,181000.0,10531479.0,670450000.0,2680794849.7
sz300789,唐源电气,2020-08-17,58.36,59.88,58.0,58.93,58.3,257500.0,15125987.0,677695000.0,2709763987.87
sz300789,唐源电气,2020-08-18,59.55,59.55,58.73,59.01,58.93,182800.0,10775614.0,678615000.0,2713442608.59
sz300789,唐源电气,2020-08-19,58.91,59.08,57.94,57.96,59.01,288900.0,16838401.0,666540000.0,2665160711.6400003
sz300789,唐源电气,2020-08-20,57.9,58.18,57.3,57.92,57.96,181500.0,10494119.0,666080000.0,2663321401.28
sz300789,唐源电气,2020-08-21,57.94,63.71,57.94,63.71,57.92,1468676.0,91589408.0,732665000.0,2929561575.89
sz300789,唐源电气,2020-08-24,65.47,65.48,62.71,63.1,63.71,1485244.0,95024192.0,725650000.0,2901512092.9
sz300789,唐源电气,2020-08-25,63.76,64.79,61.84,64.5,63.1,1159000.0,74119567.0,741750000.0,2965887955.5
sz300789,唐源电气,2020-08-26,64.1,64.97,61.1,61.2,64.5,897529.0,55978218.0,703800000.0,2814144850.8
sz300789,唐源电气,2020-08-27,61.22,63.0,60.71,62.96,61.2,638632.0,39812117.0,724040000.0,2895074506.64
sz300789,唐源电气,2020-08-28,60.67,60.67,57.52,59.09,62.96,1221129.0,71752624.0,679535000.0,2717121229.3100004
sz300789,唐源电气,2020-08-31,59.01,66.62,58.85,65.77,59.09,2099628.0,134866258.0,1115311809.43,3024286059.43
sz300789,唐源电气,2020-09-01,63.99,64.65,62.64,63.85,65.77,1339199.0,85009990.0,1082752912.15,2935999162.15
sz300789,唐源电气,2020-09-02,64.11,66.42,63.01,65.64,63.85,1461900.0,95181069.0,1113107300.76,3018308300.76
sz300789,唐源电气,2020-09-03,65.64,66.0,63.15,63.5,65.64,874800.0,55983313.0,1076817696.5,2919905196.4999995
sz300789,唐源电气,2020-09-04,62.2,64.48,61.8,63.88,63.5,630600.0,40062291.0,1083261644.92,2937378644.92
sz300789,唐源电气,2020-09-07,63.88,65.49,63.0,63.9,63.88,818480.0,52281902.0,1083600800.1,2938298300.1
sz300789,唐源电气,2020-09-08,63.96,66.12,63.05,65.99,63.9,1144609.0,74595844.0,1119042516.4099998,3034402266.4100003
sz300789,唐源电气,2020-09-09,65.0,68.5,63.96,67.8,65.99,1757961.0,117465948.0,1149736060.2,3117631060.2000003
sz300789,唐源电气,2020-09-10,67.0,67.6,62.0,62.69,67.8,1332430.0,85676350.0,1063081911.71,2882659161.71
sz300789,唐源电气,2020-09-11,62.04,68.76,61.04,68.44,62.69,1799327.0,119110086.0,1160589025.96,3147060025.96
sz300789,唐源电气,2020-09-14,68.6,70.32,66.9,69.52,68.44,1775817.0,122002350.0,1178903405.68,3196721405.68
sz300789,唐源电气,2020-09-15,69.28,69.39,67.02,67.45,69.52,1022014.0,69408162.0,1143800844.55,3101537094.55
sz300789,唐源电气,2020-09-16,66.86,67.4,65.01,65.9,67.45,784627.0,51512486.0,1117516318.1,3030263818.1
sz300789,唐源电气,2020-09-17,65.33,68.97,65.33,67.81,65.9,949515.0,64279161.0,1149905637.79,3118090887.79
sz300789,唐源电气,2020-09-18,66.85,67.44,65.8,67.2,67.81,598756.0,39881025.0,1139561404.8,3090041404.8
sz300789,唐源电气,2020-09-21,67.8,67.8,65.3,65.3,67.2,534498.0,35170413.0,1107341662.7,3002674162.7
sz300789,唐源电气,2020-09-22,65.04,65.24,63.18,63.47,65.3,530130.0,33923434.0,1076308963.73,2918525713.73
sz300789,唐源电气,2020-09-23,63.47,64.31,63.18,64.21,63.47,393300.0,25101952.0,1088857705.39,2952552955.3900003
sz300789,唐源电气,2020-09-24,63.98,63.98,61.6,61.67,64.21,534800.0,33417562.0,1045784997.53,2835756747.53
sz300789,唐源电气,2020-09-25,62.07,62.57,60.58,61.01,61.67,347074.0,21320416.0,1034592876.59,2805408126.59
sz300789,唐源电气,2020-09-28,61.02,61.78,60.31,60.94,61.01,239300.0,14567003.0,1033405833.46,2802189333.46
sz300789,唐源电气,2020-09-29,61.05,62.5,60.71,61.85,60.94,240608.0,14830863.0,1048837394.15,2844033644.15
sz300789,唐源电气,2020-09-30,61.85,62.29,61.02,61.86,61.85,281000.0,17369274.0,1049006971.74,2844493471.74
sz300789,唐源电气,2020-10-09,62.29,63.1,62.25,62.74,61.86,310129.0,19461696.0,1063929799.66,2884958299.66
sz300789,唐源电气,2020-10-12,63.0,63.78,62.55,63.77,62.74,501129.0,31704448.0,1081396291.43,2932320541.43
sz300789,唐源电气,2020-10-13,64.0,64.0,62.63,63.2,63.77,399200.0,25197546.0,1071730368.8,2906110368.8
sz300789,唐源电气,2020-10-14,62.72,63.21,62.1,62.25,63.2,327800.0,20496387.0,1055620497.75,2862426747.75
sz300789,唐源电气,2020-10-15,62.25,62.58,61.0,62.5,62.25,341014.0,21034753.0,1059859937.5,2873922437.5
sz300789,唐源电气,2020-10-16,62.42,63.79,61.81,63.07,62.5,412600.0,25977163.0,1069525860.13,2900132610.13
sz300789,唐源电气,2020-10-19,63.63,63.7,61.62,61.63,63.07,314700.0,19666820.0,1045106687.17,2833917437.17
sz300789,唐源电气,2020-10-20,61.88,62.98,61.1,62.85,61.63,272697.0,16990321.0,1065795153.15,2890016403.15
sz300789,唐源电气,2020-10-21,62.87,66.0,62.87,65.41,62.85,1181637.0,76553775.0,1109207016.19,3007732266.19
sz300789,唐源电气,2020-10-22,65.58,67.29,64.19,66.4,65.41,1147700.0,75731558.0,1125995197.6,3053255197.6
sz300789,唐源电气,2020-10-23,66.4,66.5,63.65,65.2,66.4,936749.0,60918723.0,1105645886.8,2998075886.8
sz300789,唐源电气,2020-10-26,65.2,67.18,63.82,64.47,65.2,800000.0,52224019.0,1093266722.73,2964508472.73
sz300789,唐源电气,2020-10-27,64.0,66.75,63.33,65.35,64.47,839000.0,54850922.0,1108189550.65,3004973300.65
sz300789,唐源电气,2020-10-28,64.78,65.55,62.7,65.05,65.35,791246.0,50733992.0,1103102222.95,2991178472.95
sz300789,唐源电气,2020-10-29,64.63,64.63,62.98,63.15,65.05,579000.0,36925067.0,1070882480.85,2903811230.8500004
sz300789,唐源电气,2020-10-30,63.76,66.66,63.29,63.84,63.15,1198443.0,78233695.0,1082583334.56,2935539334.56
sz300789,唐源电气,2020-11-02,63.84,65.88,61.2,65.72,63.84,1089714.0,69822517.0,1114463921.48,3021986921.48
sz300789,唐源电气,2020-11-03,65.19,66.65,65.19,66.34,65.72,1031914.0,68132075.0,1124977732.06,3050496232.0600004
sz300789,唐源电气,2020-11-04,66.39,67.53,65.03,65.71,66.34,977300.0,64515812.0,1114294343.89,3021527093.8900003
sz300789,唐源电气,2020-11-05,66.28,68.5,65.62,67.5,65.71,1284408.0,86153992.0,1144648732.5,3103836232.5
sz300789,唐源电气,2020-11-06,67.19,67.5,65.12,65.78,67.5,869808.0,57591171.0,1115481387.02,3024745887.02
sz300789,唐源电气,2020-11-09,66.85,68.8,66.14,67.23,65.78,1101600.0,74290148.0,1140070137.57,3091420887.57
sz300789,唐源电气,2020-11-10,67.02,68.13,64.88,65.68,67.23,898829.0,59703021.0,1113785611.12,3020147611.12
sz300789,唐源电气,2020-11-11,66.0,66.42,63.91,63.98,65.68,605400.0,39311968.0,1084957420.82,2941976920.82
sz300789,唐源电气,2020-11-12,64.34,64.7,62.78,63.19,63.98,432114.0,27413482.0,1071560791.21,2905650541.21
sz300789,唐源电气,2020-11-13,62.9,63.7,62.41,63.29,63.19,272400.0,17191515.0,1073256567.11,2910248817.11
sz300789,唐源电气,2020-11-16,63.35,63.68,62.31,62.76,63.29,343129.0,21571760.0,1064268954.84,2885877954.84
sz300789,唐源电气,2020-11-17,62.53,62.93,60.06,60.57,62.76,615800.0,37495043.0,1027131462.63,2785175712.63
sz300789,唐源电气,2020-11-18,60.7,61.47,60.27,60.7,60.57,253114.0,15378056.0,1029335971.3,2791153471.3
sz300789,唐源电气,2020-11-19,60.7,65.99,60.11,65.49,60.7,1235000.0,78541761.0,1110563636.91,3011410886.9100003
sz300789,唐源电气,2020-11-20,65.88,70.78,65.01,70.18,65.49,2602808.0,178928359.0,1190095526.62,3227070026.6200004
sz300789,唐源电气,2020-11-23,70.0,71.0,67.0,67.22,70.18,1754500.0,120150972.0,1139900559.98,3090961059.98
sz300789,唐源电气,2020-11-24,67.38,67.58,65.3,65.8,67.22,1037400.0,68731808.0,1115820542.2,3025665542.2
sz300789,唐源电气,2020-11-25,65.96,66.29,64.7,65.64,65.8,764300.0,50072481.0,1113107300.76,3018308300.76
sz300789,唐源电气,2020-11-26,65.11,66.2,63.76,64.3,65.64,644400.0,41759787.0,1090383903.7,2956691403.7
sz300789,唐源电气,2020-11-27,64.02,64.79,62.12,62.51,64.3,816400.0,51399954.0,1060029515.09,2874382265.09
sz300789,唐源电气,2020-11-30,62.51,63.07,61.67,61.8,62.51,505400.0,31496010.0,1047989506.2,2841734506.2000003
sz300789,唐源电气,2020-12-01,61.83,62.9,61.83,62.55,61.8,338800.0,21166399.0,1060707825.45,2876221575.4500003
sz300789,唐源电气,2020-12-02,62.59,63.48,62.18,62.68,62.55,406300.0,25447056.0,1062912334.12,2882199334.1200004
sz300789,唐源电气,2020-12-03,62.89,63.37,62.5,62.97,62.68,332400.0,20928346.0,1067830084.23,2895534334.23
sz300789,唐源电气,2020-12-04,62.8,63.17,62.17,62.29,62.97,301200.0,18841123.0,1056298808.11,2864266058.11
sz300789,唐源电气,2020-12-07,61.63,62.53,61.29,62.0,62.29,247600.0,15311822.0,1051381058.0,2850931058.0
sz300789,唐源电气,2020-12-08,61.55,62.5,61.55,62.19,62.0,169677.0,10510376.0,1054603032.21,2859667782.21
sz300789,唐源电气,2020-12-09,62.19,64.25,61.81,62.75,62.19,523000.0,33028421.0,1064099377.25,2885418127.2500005
sz300789,唐源电气,2020-12-10,62.78,63.12,61.87,61.9,62.75,282000.0,17587493.0,1049685282.1,2846332782.1000004
sz300789,唐源电气,2020-12-11,62.0,62.28,56.36,56.79,61.9,1015200.0,59136030.0,963031133.61,2611360883.61
sz300789,唐源电气,2020-12-14,56.79,56.88,55.23,56.09,56.79,274000.0,15294984.0,951160702.31,2579172952.31
sz300789,唐源电气,2020-12-15,56.15,58.36,56.15,56.6,56.09,305600.0,17440599.0,959809159.4,2602624159.4
sz300789,唐源电气,2020-12-16,56.89,56.89,54.4,54.55,56.6,384100.0,21202609.0,925045753.45,2508359503.45
sz300789,唐源电气,2020-12-17,54.55,55.35,52.71,55.17,54.55,416600.0,22482628.0,935559564.03,2536868814.03
sz300789,唐源电气,2020-12-18,55.42,56.22,53.52,53.54,55.17,312200.0,17095391.0,907918416.86,2461916916.86
sz300789,唐源电气,2020-12-21,53.54,54.44,52.8,53.86,53.54,217500.0,11711035.0,913344899.74,2476631399.74
sz300789,唐源电气,2020-12-22,54.0,54.0,51.7,51.83,53.86,396600.0,20839365.0,878920648.97,2383286398.97
sz300789,唐源电气,2020-12-23,51.55,52.34,50.53,50.7,51.83,404600.0,20682230.0,859758381.3000001,2331325881.3
sz300789,唐源电气,2020-12-24,50.7,50.7,47.25,47.49,50.7,714300.0,34602981.0,805323974.91,2183721224.91
sz300789,唐源电气,2020-12-25,47.6,49.54,47.6,48.49,47.49,512600.0,24942585.0,822281733.9100001,2229703983.91
sz300789,唐源电气,2020-12-28,48.53,48.69,46.78,46.88,48.49,433100.0,20477050.0,794979741.92,2155671741.92
sz300789,唐源电气,2020-12-29,46.94,48.12,46.91,46.91,46.88,331400.0,15767072.0,795488474.69,2157051224.69
sz300789,唐源电气,2020-12-30,46.9,48.0,46.11,47.0,46.91,267700.0,12636642.0,797014673.0,2161189673.0
sz300789,唐源电气,2020-12-31,47.03,48.28,47.0,47.52,47.0,304200.0,14501931.0,805832707.6800001,2185100707.68
sz300789,唐源电气,2021-01-04,47.24,48.8,47.24,48.16,47.52,281600.0,13573063.0,816685673.4399999,2214529673.44
sz300789,唐源电气,2021-01-05,48.19,48.77,46.74,47.28,48.16,374000.0,17705112.0,801762845.52,2174064845.52
sz300789,唐源电气,2021-01-06,47.22,47.36,45.53,45.55,47.28,494400.0,22853675.0,772425922.45,2094514672.45
sz300789,唐源电气,2021-01-07,45.2,45.48,42.27,42.77,45.55,614056.0,26643961.0,725283352.43,1966682602.43
sz300789,唐源电气,2021-01-08,43.01,44.41,41.8,43.9,42.77,542100.0,23553854.0,744445620.0999999,2018643120.1
sz300789,唐源电气,2021-01-11,43.9,44.3,42.01,42.17,43.9,415700.0,17758393.0,715108697.0300001,1939092947.03
sz300789,唐源电气,2021-01-12,42.8,44.15,42.5,42.97,42.17,364600.0,15759624.0,728674904.2299999,1975879154.23
sz300789,唐源电气,2021-01-13,42.57,43.1,41.71,41.98,42.97,311200.0,13142438.0,711886722.82,1930356222.82
sz300789,唐源电气,2021-01-14,42.11,43.19,40.8,42.7,41.98,454900.0,19189130.0,724096309.3,1963463809.3
sz300789,唐源电气,2021-01-15,42.5,44.74,42.5,44.1,42.7,513200.0,22417937.0,747837171.9,2027839671.9
sz300789,唐源电气,2021-01-18,44.1,44.95,43.84,44.28,44.1,328200.0,14561636.0,750889568.52,2036116568.52
sz300789,唐源电气,2021-01-19,44.13,45.6,43.92,45.37,44.28,383000.0,17206650.0,769373525.83,2086237775.83
sz300789,唐源电气,2021-01-20,44.96,45.5,43.71,44.76,45.37,385600.0,17166208.0,759029292.84,2058188292.84
sz300789,唐源电气,2021-01-21,44.1,45.25,44.08,44.49,44.76,259200.0,11572038.0,754450697.91,2045772947.91
sz300789,唐源电气,2021-01-22,44.23,44.46,43.28,43.94,44.49,290300.0,12700246.0,745123930.4599999,2020482430.46
sz300789,唐源电气,2021-01-25,43.51,43.89,42.0,42.23,43.94,375400.0,15911518.0,716126162.57,1941851912.57
sz300789,唐源电气,2021-01-26,42.59,43.29,41.77,42.78,42.23,241900.0,10337303.0,725452930.0200001,1967142430.02
sz300789,唐源电气,2021-01-27,43.8,44.02,42.08,42.47,42.78,238700.0,10184884.0,720196024.73,1952887774.73
sz300789,唐源电气,2021-01-28,42.05,42.96,42.05,42.19,42.47,161400.0,6856350.0,715447852.21,1940012602.21
sz300789,唐源电气,2021-01-29,42.67,42.67,40.88,41.41,42.19,300400.0,12458184.0,702220800.19,1904146050.19
sz300789,唐源电气,2021-02-01,41.45,42.36,41.01,42.19,41.41,184514.0,7701406.0,715447852.21,1940012602.21
sz300789,唐源电气,2021-02-02,42.0,42.5,41.23,41.67,42.19,173314.0,7226157.0,706629817.53,1916101567.53
sz300789,唐源电气,2021-02-03,41.85,41.9,39.9,39.93,41.67,290600.0,11747771.0,677123316.87,1836091566.87
sz300789,唐源电气,2021-02-04,39.64,40.07,38.71,39.18,39.93,246216.0,9651945.0,664404997.6200001,1801604497.62
sz300789,唐源电气,2021-02-05,39.2,40.15,38.07,38.11,39.18,246300.0,9554831.0,646260195.49,1752402945.4900002
sz300789,唐源电气,2021-02-08,38.18,38.68,37.1,37.19,38.11,225400.0,8486637.0,630659057.21,1710098807.21
sz300789,唐源电气,2021-02-09,37.33,38.19,37.3,38.1,37.19,163700.0,6199639.0,646090617.9,1751943117.9
sz300789,唐源电气,2021-02-10,38.12,38.73,37.91,38.29,38.1,138100.0,5287115.0,649312592.11,1760679842.11
sz300789,唐源电气,2021-02-18,38.69,40.18,38.36,39.9,38.29,222700.0,8845364.0,676614584.1,1834712084.1
sz300789,唐源电气,2021-02-19,39.95,40.88,39.8,40.81,39.9,225501.0,9119964.0,692046144.79,1876556394.79
sz300789,唐源电气,2021-02-22,41.45,42.08,40.61,40.61,40.81,315708.0,13049889.0,688654592.9899999,1867359842.99
sz300789,唐源电气,2021-02-23,40.51,41.28,40.0,41.28,40.61,170900.0,6954096.0,700016291.52,1898168291.52
sz300789,唐源电气,2021-02-24,41.24,41.98,40.83,41.25,41.28,180500.0,7463484.0,699507558.75,1896788808.75
sz300789,唐源电气,2021-02-25,41.25,41.29,40.49,40.88,41.25,136100.0,5566885.0,693233187.9200001,1879775187.92
sz300789,唐源电气,2021-02-26,40.12,41.87,40.08,41.51,40.88,261300.0,10763380.0,703916576.09,1908744326.09
sz300789,唐源电气,2021-03-01,41.9,42.5,41.58,42.32,41.51,231000.0,9752663.0,717652360.88,1945990360.88
sz300789,唐源电气,2021-03-02,42.32,42.52,41.51,41.78,42.32,162300.0,6800949.0,708495171.02,1921159671.02
sz300789,唐源电气,2021-03-03,41.85,42.77,41.85,42.62,41.78,222200.0,9434369.0,722739688.5799999,1959785188.58
sz300789,唐源电气,2021-03-04,42.5,43.15,42.03,42.32,42.62,246100.0,10490519.0,717652360.88,1945990360.88
sz300789,唐源电气,2021-03-05,42.32,43.09,42.32,42.98,42.32,191600.0,8194438.0,728844481.8199999,1976338981.82
sz300789,唐源电气,2021-03-08,43.44,43.78,42.39,42.39,42.98,245185.0,10612499.0,718839404.01,1949209154.01
sz300789,唐源电气,2021-03-09,42.46,43.29,41.16,41.47,42.39,309400.0,13098488.0,703238265.73,1906905015.73
sz300789,唐源电气,2021-03-10,41.48,41.94,39.84,40.2,41.47,229600.0,9315005.0,681701911.8,1848506911.8
sz300789,唐源电气,2021-03-11,40.5,41.4,39.52,41.12,40.2,172227.0,6992874.0,697303050.0799999,1890811050.08
sz300789,唐源电气,2021-03-12,41.26,41.49,40.25,40.57,41.12,109703.0,4445413.0,687976282.6300001,1865520532.63
sz300789,唐源电气,2021-03-15,40.57,41.28,40.14,40.21,40.57,132595.0,5382184.0,681871489.3900001,1848966739.39
sz300789,唐源电气,2021-03-16,40.21,40.95,40.03,40.6,40.21,225291.0,9112737.0,688485015.4,1866900015.4
sz300789,唐源电气,2021-03-17,40.68,41.99,40.53,41.81,40.6,347398.0,14315291.0,709003903.7900001,1922539153.79
sz300789,唐源电气,2021-03-18,41.21,49.89,41.21,45.86,41.81,1397700.0,64103451.0,777682827.74,2108769327.74
sz300789,唐源电气,2021-03-19,44.13,45.22,43.8,44.08,45.86,857158.0,38038758.0,747498016.72,2026920016.72
sz300789,唐源电气,2021-03-22,43.53,44.66,43.5,44.33,44.08,490670.0,21623522.0,751737456.47,2038415706.47
sz300789,唐源电气,2021-03-23,44.18,44.98,43.0,43.16,44.33,430800.0,18761189.0,731896878.44,1984615878.44
sz300789,唐源电气,2021-03-24,42.99,43.79,42.93,43.06,43.16,246500.0,10677832.0,730201102.54,1980017602.54
sz300789,唐源电气,2021-03-25,43.39,44.67,42.65,44.32,43.06,468500.0,20588928.0,751567878.8800001,2037955878.88
sz300789,唐源电气,2021-03-26,44.3,44.9,43.83,44.15,44.32,339122.0,14966794.0,748685059.8499999,2030138809.85
sz300789,唐源电气,2021-03-29,44.19,44.8,43.51,43.55,44.15,287910.0,12661090.0,738510404.45,2002549154.45
sz300789,唐源电气,2021-03-30,43.5,43.5,42.01,42.05,43.55,348400.0,14789653.0,713073765.9499999,1933575015.95
sz300789,唐源电气,2021-03-31,42.01,42.25,41.66,42.21,42.05,192305.0,8079841.0,715787007.3900001,1940932257.39
sz300789,唐源电气,2021-04-01,42.04,42.2,41.16,41.29,42.21,238200.0,9889684.0,700185869.11,1898628119.11
sz300789,唐源电气,2021-04-02,41.29,41.88,41.01,41.75,41.29,186400.0,7736933.0,707986438.2500001,1919780188.25
sz300789,唐源电气,2021-04-06,41.76,43.28,41.51,42.93,41.75,277112.0,11842669.0,727996593.8700001,1974039843.87
sz300789,唐源电气,2021-04-07,42.5,43.65,42.5,43.6,42.93,204600.0,8818763.0,739358292.4000001,2004848292.4
sz300789,唐源电气,2021-04-08,43.54,43.69,42.73,42.76,43.6,234500.0,10119359.0,725113774.8399999,1966222774.84
sz300789,唐源电气,2021-04-09,42.98,43.0,42.32,42.5,42.76,174500.0,7442633.0,720704757.5,1954267257.5
sz300789,唐源电气,2021-04-12,42.5,42.99,41.66,41.77,42.5,157900.0,6666315.0,708325593.4300001,1920699843.43
sz300789,唐源电气,2021-04-13,41.74,41.96,41.11,41.45,41.77,114000.0,4737323.0,702899110.5500001,1905985360.55
sz300789,唐源电气,2021-04-14,41.58,42.74,41.3,42.59,41.45,163400.0,6879678.0,722230955.8100001,1958405705.81
sz300789,唐源电气,2021-04-15,42.49,43.14,42.07,42.15,42.59,208600.0,8868062.0,714769541.8499999,1938173291.85
sz300789,唐源电气,2021-04-16,42.23,42.88,42.2,42.84,42.15,150500.0,6424995.0,726470395.5600001,1969901395.56
sz300789,唐源电气,2021-04-19,42.78,43.28,42.74,43.24,42.84,228600.0,9851894.0,733253499.1600001,1988294499.16
sz300789,唐源电气,2021-04-20,43.24,43.7,42.68,42.82,43.24,199289.0,8590448.0,726131240.38,1968981740.38
sz300789,唐源电气,2021-04-21,42.51,43.08,42.22,42.63,42.82,138400.0,5900271.0,722909266.1700001,1960245016.17
sz300789,唐源电气,2021-04-22,42.35,42.92,42.35,42.65,42.63,118000.0,5035667.0,723248421.35,1961164671.35
sz300789,唐源电气,2021-04-23,42.5,44.56,41.51,43.7,42.65,519766.0,22400282.0,741054068.3000001,2009446568.3
sz300789,唐源电气,2021-04-26,44.3,45.57,43.58,43.9,43.7,736252.0,32595044.0,751517910.1,2018643120.1
sz300789,唐源电气,2021-04-27,43.91,45.39,43.37,44.93,43.9,585989.0,26127612.0,769150334.8699999,2066005361.87
sz300789,唐源电气,2021-04-28,44.43,45.24,43.81,45.1,44.93,437300.0,19461523.0,772060540.9000001,2073822430.9
sz300789,唐源电气,2021-04-29,44.98,45.27,44.41,44.52,45.1,335800.0,15086785.0,762131602.6800001,2047152430.68
sz300789,唐源电气,2021-04-30,44.51,44.62,43.25,43.5,44.52,301200.0,13149273.0,744670366.5,2000250016.5
sz300789,唐源电气,2021-05-06,43.34,43.89,42.25,43.14,43.5,233989.0,10129471.0,738507577.26,1983696223.26
sz300789,唐源电气,2021-05-07,42.82,43.88,42.5,42.54,43.14,177630.0,7596950.0,728236261.8599999,1956106567.86
sz300789,唐源电气,2021-05-10,42.54,42.89,42.0,42.86,42.54,133100.0,5647638.0,733714296.74,1970821050.74
sz300789,唐源电气,2021-05-11,42.57,43.17,42.15,43.1,42.86,104600.0,4483411.0,737822822.9,1981856912.9
sz300789,唐源电气,2021-05-12,43.15,43.78,42.65,43.71,43.1,169103.0,7312674.0,748265326.89,2009906395.89
sz300789,唐源电气,2021-05-13,43.2,44.45,43.18,43.61,43.71,209400.0,9182554.0,746553440.9899999,2005308119.99
sz300789,唐源电气,2021-05-14,43.4,44.58,43.4,44.47,43.61,209905.0,9268680.0,761275659.73,2044853292.73
sz300789,唐源电气,2021-05-17,44.2,44.98,43.8,44.88,44.47,267489.0,11915220.0,768294391.9200001,2063706223.92
sz300789,唐源电气,2021-05-18,44.66,44.99,43.85,44.22,44.88,222600.0,9867414.0,756995944.98,2033357602.98
sz300789,唐源电气,2021-05-19,44.2,44.75,43.81,44.58,44.22,192900.0,8546484.0,763158734.22,2049911396.22
sz300789,唐源电气,2021-05-20,44.58,44.9,44.13,44.73,44.58,200400.0,8945029.0,765726563.0699999,2056808810.07
sz300789,唐源电气,2021-05-21,44.49,46.4,44.34,45.99,44.73,497500.0,22613192.0,787296325.41,2114747086.41
sz300789,唐源电气,2021-05-24,45.58,47.47,45.2,47.25,45.99,551444.0,25653437.0,808866087.75,2172685362.75
sz300789,唐源电气,2021-05-25,47.4,47.76,45.91,46.69,47.25,583601.0,27263768.0,799279526.71,2146935017.71
sz300789,唐源电气,2021-05-26,46.69,46.69,45.95,46.4,46.69,356401.0,16473307.0,794315057.6,2133600017.6
sz300789,唐源电气,2021-05-27,46.2,47.07,46.2,46.44,46.4,364300.0,16970844.0,794999811.9599999,2135439327.96
sz300789,唐源电气,2021-05-28,46.36,46.6,45.51,45.6,46.44,397401.0,18226751.0,780619970.4,2096813810.4
sz300789,唐源电气,2021-05-31,25.05,25.56,24.73,25.43,25.18,625705.0,15716099.0,783598646.78,2104814805.38
sz300789,唐源电气,2021-06-01,25.35,26.25,25.11,25.98,25.43,646320.0,16698853.0,800546317.08,2150337736.6800003
sz300789,唐源电气,2021-06-02,25.99,26.1,25.32,25.49,25.98,531320.0,13599225.0,785447483.54,2109780943.34
sz300789,唐源电气,2021-06-03,25.73,25.78,24.8,24.92,25.49,495040.0,12509172.0,767883534.32,2062602632.72
sz300789,唐源电气,2021-06-04,24.74,25.16,24.1,24.26,24.92,522580.0,12850332.0,747546329.96,2007975115.16
sz300789,唐源电气,2021-06-07,24.46,24.73,24.1,24.64,24.26,382880.0,9325430.0,759255629.44,2039427322.24
sz300789,唐源电气,2021-06-08,24.62,24.92,24.21,24.82,24.64,456234.0,11179482.0,764802139.72,2054325736.12
sz300789,唐源电气,2021-06-09,24.82,24.92,24.25,24.36,24.82,286300.0,7013880.0,750627724.5600001,2016252011.76
sz300789,唐源电气,2021-06-10,24.12,25.48,24.12,25.44,24.36,719534.0,18046322.0,783906786.2399999,2105642495.04
sz300789,唐源电气,2021-06-11,25.44,25.65,25.15,25.24,25.44,629260.0,15989328.0,777743997.04,2089088701.84
sz300789,唐源电气,2021-06-15,25.01,25.4,24.53,24.76,25.24,437080.0,10839907.0,762953302.96,2049359598.16
sz300789,唐源电气,2021-06-16,24.64,25.34,24.52,25.2,24.76,510020.0,12751756.0,776511439.2,2085777943.2
sz300789,唐源电气,2021-06-17,25.2,25.25,24.58,24.72,25.2,346140.0,8571046.0,761720745.1200001,2046048839.52
sz300789,唐源电气,2021-06-18,24.56,24.92,24.05,24.81,24.72,396894.0,9691492.0,764494000.26,2053498046.46
sz300789,唐源电气,2021-06-21,24.79,25.89,24.79,25.89,24.81,790180.0,20143692.0,797773061.94,2142888529.74
sz300789,唐源电气,2021-06-22,26.23,26.23,25.32,25.8,25.89,728449.0,18747968.0,794999806.8,2135439322.8
sz300789,唐源电气,2021-06-23,26.0,26.0,25.41,25.61,25.8,504940.0,12952468.0,789145157.0600001,2119713219.26
sz300789,唐源电气,2021-06-24,25.42,26.0,25.15,25.92,25.61,617813.0,15845949.0,798697480.32,2145371598.72
sz300789,唐源电气,2021-06-25,25.98,25.99,25.04,25.2,25.92,627900.0,15879094.0,776511439.2,2085777943.2
sz300789,唐源电气,2021-06-28,25.02,25.2,24.7,24.8,25.2,391060.0,9717549.0,764185860.8,2052670356.8
sz300789,唐源电气,2021-06-29,24.75,24.95,24.49,24.84,24.8,340360.0,8406236.0,765418418.64,2055981115.44
sz300789,唐源电气,2021-06-30,24.9,24.95,24.34,24.44,24.84,388197.0,9527229.0,753092840.2399999,2022873529.04
sz300789,唐源电气,2021-07-01,24.63,24.63,23.97,23.99,24.44,336720.0,8147922.0,739226564.54,1985627494.34
sz300789,唐源电气,2021-07-02,24.02,24.2,23.19,23.48,23.99,338980.0,7991291.0,723511452.08,1943415321.68
sz300789,唐源电气,2021-07-05,23.5,24.6,23.35,24.57,23.48,497620.0,11973883.0,757098653.22,2033633494.62
sz300789,唐源电气,2021-07-06,24.57,24.64,23.86,24.23,24.57,318137.0,7674753.0,746621911.58,2005492046.18
sz300789,唐源电气,2021-07-07,23.99,24.54,23.5,24.45,24.23,225900.0,5485103.0,753400979.7,2023701218.7
sz300789,唐源电气,2021-07-08,24.2,24.59,23.89,24.01,24.45,322492.0,7778731.0,739842843.46,1987282873.66
sz300789,唐源电气,2021-07-09,23.98,24.08,23.6,23.84,24.01,230080.0,5481739.0,734604472.64,1973212149.44
sz300789,唐源电气,2021-07-12,24.21,24.38,23.8,24.24,23.84,307720.0,7406247.0,746930051.04,2006319735.84
sz300789,唐源电气,2021-07-13,24.22,24.43,23.88,24.12,24.24,281900.0,6775520.0,743232377.52,1996387459.92
sz300789,唐源电气,2021-07-14,24.13,24.27,23.61,23.84,24.12,331460.0,7869107.0,734604472.64,1973212149.44
sz300789,唐源电气,2021-07-15,23.84,23.84,22.17,22.28,23.84,846431.0,19134100.0,686534716.88,1844092562.48
sz300789,唐源电气,2021-07-16,22.35,22.48,21.89,21.94,22.28,361752.0,7984224.0,676057975.2399999,1815951114.04
sz300789,唐源电气,2021-07-19,22.01,22.2,21.58,22.0,21.94,270000.0,5912754.0,677906812.0000001,1820917252.0
sz300789,唐源电气,2021-07-20,22.03,22.47,21.94,22.24,22.0,209820.0,4670505.0,685302159.04,1840781803.84
sz300789,唐源电气,2021-07-21,22.11,22.96,22.1,22.66,22.24,306171.0,6956268.0,698244016.3599999,1875544769.56
sz300789,唐源电气,2021-07-22,23.0,23.0,22.27,22.76,22.66,264280.0,5955758.0,701325410.96,1883821666.16
sz300789,唐源电气,2021-07-23,22.76,22.95,21.86,22.0,22.76,389800.0,8679525.0,677906812.0000001,1820917252.0
sz300789,唐源电气,2021-07-26,22.0,22.27,21.08,21.5,22.0,319551.0,6887621.0,662499839.0000001,1779532769.0
sz300789,唐源电气,2021-07-27,21.5,21.97,21.32,21.66,21.5,300036.0,6498914.0,667430070.3599999,1792775803.56
sz300789,唐源电气,2021-07-28,21.4,21.78,20.74,21.5,21.66,257180.0,5506946.0,662499839.0000001,1779532769.0
sz300789,唐源电气,2021-07-29,21.6,21.99,21.28,21.9,21.5,239500.0,5218808.0,674825417.4,1812640355.4
sz300789,唐源电气,2021-07-30,21.9,23.67,21.87,23.1,21.9,773600.0,17712745.0,711802152.6,1911963114.6
sz300789,唐源电气,2021-08-02,23.0,23.88,22.61,23.68,23.1,759900.0,17812653.0,729674241.28,1959969114.88
sz300789,唐源电气,2021-08-03,23.61,24.37,23.38,23.48,23.68,759540.0,18105675.0,723511452.08,1943415321.68
sz300789,唐源电气,2021-08-04,23.41,24.37,23.4,24.12,23.48,613600.0,14810249.0,743232377.52,1996387459.92
sz300789,唐源电气,2021-08-05,23.97,24.38,23.79,24.2,24.12,616320.0,14846942.0,745697493.2,2003008977.2
sz300789,唐源电气,2021-08-06,24.2,24.4,23.6,23.87,24.2,375600.0,8985905.0,735528891.02,1975695218.42
sz300789,唐源电气,2021-08-09,23.8,24.5,23.52,24.44,23.87,621500.0,15096020.0,753092840.2399999,2022873529.04
sz300789,唐源电气,2021-08-10,24.3,25.86,24.2,25.2,24.44,884656.0,22372331.0,776511439.2,2085777943.2
sz300789,唐源电气,2021-08-11,24.82,26.13,24.78,26.05,25.2,1173835.0,30051644.0,802703293.3,2156131564.3
sz300789,唐源电气,2021-08-12,25.61,26.2,25.03,25.11,26.05,840620.0,21445620.0,773738184.0600001,2078328736.26
sz300789,唐源电气,2021-08-13,25.22,26.29,25.11,25.49,25.11,828562.0,21338348.0,785447483.54,2109780943.34
sz300789,唐源电气,2021-08-16,25.17,29.97,25.1,29.06,25.49,3682062.0,104582584.0,895453270.76,2405266151.96
sz300789,唐源电气,2021-08-17,28.11,28.6,26.69,27.06,29.06,2559104.0,69850133.0,833825378.76,2239728219.96
sz300789,唐源电气,2021-08-18,26.72,27.39,25.76,26.3,27.06,1671360.0,43629309.0,810406779.8,2176823805.8
sz300789,唐源电气,2021-08-19,26.3,26.3,24.51,25.29,26.3,1501420.0,37928788.0,779284694.34,2093227150.14
sz300789,唐源电气,2021-08-20,25.29,25.5,24.08,24.31,25.29,1010283.0,24717903.0,749087027.26,2012113563.46
sz300789,唐源电气,2021-08-23,24.29,24.87,24.05,24.71,24.31,1064166.0,26231863.0,761412605.66,2045221149.86
sz300789,唐源电气,2021-08-24,24.58,25.01,24.58,24.91,24.71,795560.0,19755150.0,767575394.8599999,2061774943.06
sz300789,唐源电气,2021-08-25,24.99,25.88,24.99,25.61,24.91,1159340.0,29501511.0,789145157.0600001,2119713219.26
sz300789,唐源电气,2021-08-26,25.61,25.61,24.4,24.55,25.61,899740.0,22345807.0,756482374.3,2031978115.3
sz300789,唐源电气,2021-08-27,24.38,24.41,23.4,23.8,24.55,988414.0,23527580.0,733371914.8,1969901390.8
sz300789,唐源电气,2021-08-30,23.8,24.1,23.14,23.34,23.8,581220.0,13657886.0,719197499.64,1931827666.44
sz300789,唐源电气,2021-08-31,23.26,23.32,22.85,23.24,23.34,393820.0,9066086.0,716116105.04,1923550769.84
sz300789,唐源电气,2021-09-01,23.01,23.84,22.73,23.6,23.24,633832.0,14728944.0,727209125.6,1953347597.6
sz300789,唐源电气,2021-09-02,23.45,24.06,23.23,23.94,23.6,511927.0,12098501.0,737685867.2399999,1981489046.04
sz300789,唐源电气,2021-09-03,23.94,24.34,23.7,23.94,23.94,529024.0,12719129.0,737685867.2399999,1981489046.04
sz300789,唐源电气,2021-09-06,23.9,24.0,23.31,23.84,23.94,481196.0,11385620.0,734604472.64,1973212149.44
sz300789,唐源电气,2021-09-07,23.78,24.13,23.52,24.11,23.84,439980.0,10551693.0,742924238.0600001,1995559770.26
sz300789,唐源电气,2021-09-08,24.02,24.34,23.98,24.22,24.11,425400.0,10282153.0,746313772.1200001,2004664356.52
sz300789,唐源电气,2021-09-09,24.29,24.63,23.95,24.55,24.22,565856.0,13752943.0,756482374.3,2031978115.3
sz300789,唐源电气,2021-09-10,24.01,24.39,23.75,23.75,24.55,649364.0,15577433.0,731831217.5,1965762942.5
sz300789,唐源电气,2021-09-13,23.75,23.89,23.3,23.37,23.75,436169.0,10218742.0,720121918.02,1934310735.42
sz300789,唐源电气,2021-09-14,23.57,23.94,23.13,23.33,23.37,434100.0,10224025.0,718889360.18,1930999976.78
sz300789,唐源电气,2021-09-15,23.3,23.45,22.89,23.37,23.33,300116.0,6939812.0,720121918.02,1934310735.42
sz300789,唐源电气,2021-09-16,23.4,23.73,22.9,23.0,23.37,381420.0,8891528.0,708720758.0000001,1903686218.0
sz300789,唐源电气,2021-09-17,22.95,23.45,22.77,23.4,23.0,365020.0,8420445.0,721046336.4,1936793804.4
sz300789,唐源电气,2021-09-22,23.19,23.68,22.99,23.68,23.4,361882.0,8487240.0,729674241.28,1959969114.88
sz300789,唐源电气,2021-09-23,24.25,28.42,24.25,28.42,23.68,2441899.0,68160480.0,875732345.32,2352294013.72
sz300789,唐源电气,2021-09-24,27.76,31.0,26.4,28.92,28.42,6485588.0,185934429.0,891139318.32,2393678496.7200003
sz300789,唐源电气,2021-09-27,28.0,33.33,26.66,31.24,28.92,6526993.0,196114689.0,962627673.04,2585702497.84
sz300789,唐源电气,2021-09-28,30.0,30.5,28.51,29.9,31.24,3915815.0,115617523.0,921336985.4,2474792083.4
sz300789,唐源电气,2021-09-29,29.55,29.55,27.0,27.3,29.9,3283045.0,91366904.0,841220725.8,2259592771.8
sz300789,唐源电气,2021-09-30,27.63,29.36,27.1,28.94,27.3,3555735.0,101341217.0,891755597.24,2395333876.04
sz300789,唐源电气,2021-10-08,29.15,29.4,27.64,28.38,28.94,2418640.0,67982788.0,874499787.4799999,2348983255.08
sz300789,唐源电气,2021-10-11,28.23,28.45,26.76,27.04,28.38,1990140.0,54289069.0,833209099.84,2238072840.64
sz300789,唐源电气,2021-10-12,26.93,27.08,25.9,26.52,27.04,1470020.0,38790256.0,817185847.92,2195032978.32
sz300789,唐源电气,2021-10-13,26.48,27.58,26.38,27.25,26.52,1882780.0,50892467.0,839680028.5,2255454323.5
sz300789,唐源电气,2021-10-14,26.92,26.92,25.12,25.58,27.25,2096580.0,53635952.0,788220738.6800001,2117230150.28
sz300789,唐源电气,2021-10-15,25.45,26.0,25.21,25.89,25.58,1309180.0,33562961.0,797773061.94,2142888529.74
sz300789,唐源电气,2021-10-18,25.57,26.49,24.86,26.43,25.89,1224343.0,31627952.0,814412592.78,2187583771.38
sz300789,唐源电气,2021-10-19,26.17,26.34,25.55,26.2,26.43,980160.0,25367044.0,807325385.2,2168546909.2
sz300789,唐源电气,2021-10-20,26.01,26.55,25.35,25.38,26.2,1248101.0,32049286.0,782057949.4799999,2100676357.08
sz300789,唐源电气,2021-10-21,25.22,25.96,25.13,25.96,25.38,1281780.0,32913368.0,799930038.16,2148682357.36
sz300789,唐源电气,2021-10-22,25.96,29.24,25.52,27.72,25.96,3057981.0,84288971.0,854162583.12,2294355737.52
sz300789,唐源电气,2021-10-25,27.0,29.02,26.51,29.02,27.72,3372095.0,94024544.0,894220712.92,2401955393.32
sz300789,唐源电气,2021-10-26,28.49,28.58,27.52,27.88,29.02,2061287.0,57729026.0,859092814.4799999,2307598772.08
sz300789,唐源电气,2021-10-27,27.47,27.48,25.95,27.14,27.88,2017060.0,53821729.0,836290494.44,2246349737.24
sz300789,唐源电气,2021-10-28,26.9,30.5,26.0,29.28,27.14,3405609.0,96669275.0,902232338.88,2423475324.48
sz300789,唐源电气,2021-10-29,28.7,30.0,28.21,28.54,29.28,2626391.0,75940766.0,879430018.84,2362226289.64
sz300789,唐源电气,2021-11-01,28.43,29.5,27.59,29.35,28.54,2276832.0,65168357.0,904389315.1,2429269152.1
sz300789,唐源电气,2021-11-02,29.0,29.26,27.1,27.9,29.35,2131160.0,60306990.0,859709093.4,2309254151.4
sz300789,唐源电气,2021-11-03,27.9,28.6,27.5,28.29,27.9,1496076.0,41955205.0,871726532.34,2341534048.14
sz300789,唐源电气,2021-11-04,29.0,29.85,28.01,28.85,28.29,1758340.0,51162718.0,888982342.0999999,2387884669.1
sz300789,唐源电气,2021-11-05,28.15,28.89,27.67,28.88,28.85,1682149.0,47399950.0,889906760.4799999,2390367738.08
sz300789,唐源电气,2021-11-08,28.8,29.46,27.9,28.38,28.88,1264140.0,35850712.0,874499787.4799999,2348983255.08
sz300789,唐源电气,2021-11-09,28.05,28.35,26.8,26.95,28.38,2094600.0,57493862.0,830435844.7,2230623633.7000003
sz300789,唐源电气,2021-11-10,26.76,31.0,26.36,29.55,26.95,4028278.0,116678318.0,910552104.3,2445822945.3
sz300789,唐源电气,2021-11-11,29.2,29.67,28.9,29.5,29.55,2637134.0,77068109.0,909011407.0,2441684497.0
sz300789,唐源电气,2021-11-12,29.56,30.28,29.3,30.19,29.5,3039496.0,90968440.0,930273029.74,2498795083.54
sz300789,唐源电气,2021-11-15,30.19,31.39,29.78,30.98,30.19,3196038.0,98025025.0,954616047.08,2564182566.68
sz300789,唐源电气,2021-11-16,30.98,32.47,29.73,30.4,30.98,3025015.0,93697439.0,936743958.4,2516176566.4
sz300789,唐源电气,2021-11-17,30.62,31.8,29.11,31.59,30.4,2606170.0,80945141.0,973412554.14,2614671635.94
sz300789,唐源电气,2021-11-18,31.59,31.77,29.76,29.88,31.59,2289720.0,69974551.0,920720706.48,2473136704.08
sz300789,唐源电气,2021-11-19,29.89,30.68,29.71,29.76,29.88,1404300.0,42276249.0,917023032.96,2463204428.16
sz300789,唐源电气,2021-11-22,30.01,30.6,29.37,30.18,29.76,1544100.0,46259059.0,929964890.28,2497967393.8799996
sz300789,唐源电气,2021-11-23,30.02,30.1,28.89,29.08,30.18,1575900.0,46139059.0,896069549.6800001,2406921531.28
sz300789,唐源电气,2021-11-24,28.96,29.59,28.96,29.49,29.08,1138680.0,33401546.0,908703267.54,2440856807.34
sz300789,唐源电气,2021-11-25,30.0,31.0,29.55,30.1,29.49,1822780.0,54946541.0,927499774.5999999,2491345876.6
sz300789,唐源电气,2021-11-26,29.93,30.09,28.45,28.5,30.1,1779240.0,51581633.0,878197461.0,2358915531.0
sz300789,唐源电气,2021-11-29,28.01,29.2,27.67,28.9,28.5,953740.0,27389992.0,890523039.4,2392023117.4
sz300789,唐源电气,2021-11-30,28.96,29.61,28.72,28.87,28.9,1073300.0,31291549.0,889598621.02,2389540048.42
sz300789,唐源电气,2021-12-01,28.81,29.97,28.7,29.92,28.87,1393560.0,41277810.0,921953264.32,2476447462.72
sz300789,唐源电气,2021-12-02,29.92,30.26,28.65,28.66,29.92,1103480.0,32281489.0,883127692.3599999,2372158565.56
sz300789,唐源电气,2021-12-03,28.95,29.1,28.14,28.31,28.66,730480.0,20754982.0,872342811.26,2343189427.46
sz300789,唐源电气,2021-12-06,28.38,28.38,26.85,26.86,28.31,1286633.0,35093604.0,827662589.5600001,2223174426.76
sz300789,唐源电气,2021-12-07,26.91,27.43,26.5,27.13,26.86,577948.0,15531537.0,835982354.9799999,2245522047.58
sz300789,唐源电气,2021-12-08,27.13,27.37,26.82,27.09,27.13,507308.0,13740832.0,834749797.14,2242211288.94
sz300789,唐源电气,2021-12-09,27.09,27.35,26.93,27.05,27.09,433340.0,11774328.0,833517239.3,2238900530.3
sz300789,唐源电气,2021-12-10,27.05,27.29,26.87,27.16,27.05,404500.0,10967929.0,836906773.3599999,2248005116.56
sz300789,唐源电气,2021-12-13,27.2,27.68,27.1,27.55,27.16,565040.0,15543741.0,848924212.3000001,2280285013.3
sz300789,唐源电气,2021-12-14,27.28,27.99,27.28,27.63,27.55,568620.0,15732997.0,851389327.9799999,2286906530.58
sz300789,唐源电气,2021-12-15,27.47,28.66,27.32,28.21,27.63,1070720.0,30275524.0,869261416.66,2334912530.86
sz300789,唐源电气,2021-12-16,28.2,28.52,27.8,28.21,28.21,769240.0,21586749.0,869261416.66,2334912530.86
sz300789,唐源电气,2021-12-17,28.09,28.2,27.25,27.31,28.21,783700.0,21566671.0,841528865.26,2260420461.46
sz300789,唐源电气,2021-12-20,27.22,27.46,26.46,26.46,27.31,681860.0,18350235.0,815337011.16,2190066840.36
sz300789,唐源电气,2021-12-21,26.8,26.83,26.36,26.58,26.46,488400.0,13013378.0,819034684.6800001,2199999116.28
sz300789,唐源电气,2021-12-22,26.78,27.0,26.51,26.9,26.58,476080.0,12744990.0,828895147.4,2226485185.4
sz300789,唐源电气,2021-12-23,27.17,27.17,26.01,26.05,26.9,902280.0,23772696.0,802703293.3,2156131564.3
sz300789,唐源电气,2021-12-24,26.28,26.56,25.06,25.1,26.05,767848.0,19619314.0,773430044.6,2077501046.6000001
sz300789,唐源电气,2021-12-27,25.35,25.58,24.78,25.36,25.1,376322.0,9508459.0,781441670.5600001,2099020977.76
sz300789,唐源电气,2021-12-28,25.43,25.91,25.14,25.69,25.36,360200.0,9231500.0,791610272.7399999,2126334736.54
sz300789,唐源电气,2021-12-29,25.77,25.94,25.35,25.83,25.69,403280.0,10341673.0,795924225.1800001,2137922391.78
sz300789,唐源电气,2021-12-30,25.8,26.09,25.63,25.71,25.83,450720.0,11672590.0,792226551.66,2127990115.8600001
sz300789,唐源电气,2021-12-31,25.73,26.05,25.66,25.69,25.71,324240.0,8373338.0,791610272.7399999,2126334736.54
sz300789,唐源电气,2022-01-04,25.98,26.85,25.77,26.53,25.69,815360.0,21461345.0,817493987.38,2195860667.98
sz300789,唐源电气,2022-01-05,26.35,26.88,25.86,26.13,26.53,484740.0,12748838.0,805168408.9799999,2162753081.58
sz300789,唐源电气,2022-01-06,26.0,26.63,25.9,26.18,26.13,494940.0,13034310.0,806709106.28,2166891529.8799996
sz300789,唐源电气,2022-01-07,26.11,26.6,25.82,25.85,26.18,525788.0,13787493.0,796540504.0999999,2139577771.1
sz300789,唐源电气,2022-01-10,25.7,26.69,25.69,26.42,25.85,572497.0,15091517.0,814104453.32,2186756081.7200003
sz300789,唐源电气,2022-01-11,26.44,27.1,26.44,26.7,26.42,645961.0,17308620.0,822732358.2,2209931392.2000003
sz300789,唐源电气,2022-01-12,26.66,27.26,26.56,27.01,26.7,568360.0,15288967.0,832284681.46,2235589771.66
sz300789,唐源电气,2022-01-13,26.88,27.23,26.69,26.93,27.01,434800.0,11702357.0,829819565.78,2228968254.38
sz300789,唐源电气,2022-01-14,26.91,27.14,26.22,26.34,26.93,564180.0,15044795.0,811639337.64,2180134564.44
