数据由邢不行整理
股票代码,股票名称,交易日期,开盘价,最高价,最低价,收盘价,前收盘价,成交量,成交额,流通市值,总市值
sz300997,N欢乐家,2021-06-02,31.0,33.17,29.87,31.0,4.94,63310816.0,1980035312.0,2619747814.0,13950000000.0
sz300997,C欢乐家,2021-06-03,32.0,32.88,25.97,26.0,31.0,49118003.0,1387563989.0,2197207844.0,11700000000.0
sz300997,C欢乐家,2021-06-04,24.4,25.5,22.8,22.95,26.0,36698076.0,875084455.0,1939458462.3,10327500000.0
sz300997,C欢乐家,2021-06-07,22.35,24.09,21.7,22.5,22.95,30086610.0,690427848.0,1901429865.0,10125000000.0
sz300997,C欢乐家,2021-06-08,22.4,22.4,20.82,20.95,22.5,29044436.0,625793904.0,1770442474.3,9427500000.0
sz300997,欢乐家,2021-06-09,21.01,21.55,20.76,20.95,20.95,17427059.0,367516136.0,1770442474.3,9427500000.0
sz300997,欢乐家,2021-06-10,20.8,20.95,20.03,20.08,20.95,20286103.0,413717886.0,1696920519.52,9036000000.0
sz300997,欢乐家,2021-06-11,19.99,20.88,19.9,20.44,20.08,21114220.0,433112681.0,1727343397.36,9198000000.0
sz300997,欢乐家,2021-06-15,20.5,20.5,18.98,19.1,20.44,19349648.0,377408795.0,1614102685.4,8595000000.0
sz300997,欢乐家,2021-06-16,19.0,19.91,18.9,19.69,19.1,17260412.0,336938519.0,1663962401.86,8860500000.0
sz300997,欢乐家,2021-06-17,19.37,20.66,19.12,19.82,19.69,18232647.0,363846289.0,1674948441.08,8919000000.0
sz300997,欢乐家,2021-06-18,20.2,22.76,19.55,21.01,19.82,28684088.0,607051182.0,1775512953.9399998,9454500000.0
sz300997,欢乐家,2021-06-21,20.81,21.69,20.65,20.76,21.01,21403442.0,450866029.0,1754385955.44,9342000000.0
sz300997,欢乐家,2021-06-22,20.3,21.35,20.06,20.94,20.76,18816041.0,391901116.0,1769597394.36,9423000000.0
sz300997,欢乐家,2021-06-23,20.79,20.79,19.72,19.75,20.94,18385162.0,367772476.0,1669032881.5,8887500000.0
sz300997,欢乐家,2021-06-24,19.61,19.67,19.05,19.05,19.75,11848351.0,228278981.0,1609877285.7,8572500000.0
sz300997,欢乐家,2021-06-25,18.99,19.47,18.95,19.44,19.05,9938773.0,191814318.0,1642835403.36,8748000000.0
sz300997,欢乐家,2021-06-28,19.39,19.9,19.0,19.71,19.44,10160553.0,198993879.0,1665652561.74,8869500000.0
sz300997,欢乐家,2021-06-29,19.67,20.02,19.1,19.56,19.71,11494162.0,224544413.0,1652976362.64,8802000000.0
sz300997,欢乐家,2021-06-30,19.37,19.47,18.73,18.76,19.56,12541627.0,238615068.0,1585369967.44,8442000000.0
sz300997,欢乐家,2021-07-01,18.7,21.59,18.42,20.67,18.76,27405311.0,552910462.0,1746780235.98,9301500000.0
sz300997,欢乐家,2021-07-02,20.26,20.82,19.35,19.37,20.67,17619930.0,351101317.0,1636919843.78,8716500000.0
sz300997,欢乐家,2021-07-05,19.19,19.75,18.89,19.35,19.37,10944502.0,211741466.0,1635229683.9,8707500000.0
sz300997,欢乐家,2021-07-06,19.15,19.61,18.92,19.37,19.35,11065242.0,213046898.0,1636919843.78,8716500000.0
sz300997,欢乐家,2021-07-07,19.25,23.24,19.13,23.24,19.37,48830199.0,1104411943.0,1963965780.56,10458000000.0
sz300997,欢乐家,2021-07-08,21.74,21.85,20.42,20.67,23.24,37454555.0,789388101.0,1746780235.98,9301500000.0
sz300997,欢乐家,2021-07-09,20.48,20.95,20.24,20.75,20.67,17588599.0,362576777.0,1753540875.5,9337500000.0
sz300997,欢乐家,2021-07-12,20.66,21.22,20.38,20.98,20.75,16070839.0,335149509.0,1772977714.12,9441000000.0
sz300997,欢乐家,2021-07-13,20.84,22.33,20.84,21.13,20.98,21712358.0,467498257.0,1785653913.22,9508500000.0
sz300997,欢乐家,2021-07-14,20.79,21.6,20.28,20.95,21.13,16665199.0,350311552.0,1770442474.3,9427500000.0
sz300997,欢乐家,2021-07-15,20.7,21.93,20.3,21.51,20.95,21102310.0,446180257.0,1817766950.94,9679500000.0
sz300997,欢乐家,2021-07-16,21.23,21.36,20.44,20.47,21.51,15217549.0,316224965.0,1729878637.18,9211500000.0
sz300997,欢乐家,2021-07-19,20.2,20.2,19.26,19.31,20.47,12392175.0,242716337.0,1631849364.14,8689500000.0
sz300997,欢乐家,2021-07-20,19.18,19.95,19.0,19.46,19.31,8888994.0,173894998.0,1644525563.24,8757000000.0
sz300997,欢乐家,2021-07-21,19.2,19.69,19.2,19.66,19.46,8300125.0,161601718.0,1661427162.04,8847000000.0
sz300997,欢乐家,2021-07-22,19.68,19.68,19.05,19.14,19.66,9360112.0,179824818.0,1617483005.1599998,8613000000.0
sz300997,欢乐家,2021-07-23,19.12,19.29,18.39,18.39,19.14,9742152.0,183082542.0,1554102009.66,8275500000.0
sz300997,欢乐家,2021-07-26,18.08,18.33,16.59,17.08,18.39,12892095.0,223589786.0,1443396537.5200002,7686000000.0
sz300997,欢乐家,2021-07-27,17.11,17.34,16.34,16.48,17.08,8087855.0,136396055.0,1392691741.12,7416000000.0
sz300997,欢乐家,2021-07-28,16.42,16.7,15.64,16.17,16.48,7500162.0,120842846.0,1366494262.98,7276500000.0
sz300997,欢乐家,2021-07-29,16.26,17.23,16.26,16.9,16.17,9171280.0,154090163.0,1428185098.6,7605000000.0
sz300997,欢乐家,2021-07-30,16.8,16.88,16.22,16.49,16.9,6825331.0,112608824.0,1393536821.06,7420500000.0
sz300997,欢乐家,2021-08-02,16.33,17.17,16.18,17.0,16.49,8237539.0,139257507.0,1436635897.9999998,7650000000.0
sz300997,欢乐家,2021-08-03,16.9,17.26,16.71,17.25,17.0,8916922.0,152476950.0,1457762896.5,7762500000.0
sz300997,欢乐家,2021-08-04,17.05,17.29,16.68,16.99,17.25,7617089.0,128929873.0,1435790818.06,7645500000.0
sz300997,欢乐家,2021-08-05,16.9,17.23,16.51,16.77,16.99,7640304.0,128882251.0,1417199059.38,7546500000.0
sz300997,欢乐家,2021-08-06,16.6,16.68,16.2,16.24,16.77,6805624.0,111216716.0,1372409822.56,7308000000.0
sz300997,欢乐家,2021-08-09,16.21,17.23,16.19,17.15,16.24,11021310.0,187155364.0,1449312097.1,7717500000.0
sz300997,欢乐家,2021-08-10,16.98,17.95,16.88,17.37,17.15,13176188.0,228255511.0,1467903855.78,7816500000.0
sz300997,欢乐家,2021-08-11,17.36,17.58,17.06,17.14,17.37,8383663.0,144457987.0,1448467017.16,7713000000.0
sz300997,欢乐家,2021-08-12,17.09,17.28,16.68,16.77,17.14,6809089.0,115144999.0,1417199059.38,7546500000.0
sz300997,欢乐家,2021-08-13,16.79,17.07,16.55,16.87,16.77,6212158.0,104347789.0,1425649858.78,7591500000.0
sz300997,欢乐家,2021-08-16,16.78,17.38,16.66,17.36,16.87,10293478.0,176148220.0,1467058775.84,7812000000.0
sz300997,欢乐家,2021-08-17,17.2,17.79,16.79,16.85,17.36,10851300.0,186577262.0,1423959698.9,7582500000.0
sz300997,欢乐家,2021-08-18,16.66,17.25,16.4,17.2,16.85,8216062.0,138602187.0,1453537496.8000002,7740000000.0
sz300997,欢乐家,2021-08-19,17.03,17.49,16.8,17.0,17.2,7633526.0,131174922.0,1436635897.9999998,7650000000.0
sz300997,欢乐家,2021-08-20,16.75,16.75,16.04,16.17,17.0,8154259.0,132902087.0,1366494262.98,7276500000.0
sz300997,欢乐家,2021-08-23,16.16,16.48,16.11,16.37,16.17,4765595.0,77924566.0,1383395861.78,7366500000.0
sz300997,欢乐家,2021-08-24,16.32,17.2,16.31,17.13,16.37,10445077.0,176342909.0,1447621937.22,7708500000.0
sz300997,欢乐家,2021-08-25,17.04,17.65,16.9,16.95,17.13,9717706.0,166980869.0,1432410498.3,7627500000.0
sz300997,欢乐家,2021-08-26,16.77,17.0,16.56,16.56,16.95,6968600.0,116194700.0,1399452380.64,7452000000.0
sz300997,欢乐家,2021-08-27,16.52,16.72,16.24,16.29,16.56,5780967.0,94842111.0,1376635222.26,7330500000.0
sz300997,欢乐家,2021-08-30,16.21,16.77,16.12,16.57,16.29,6705478.0,109988707.0,1400297460.58,7456500000.0
sz300997,欢乐家,2021-08-31,16.45,16.54,15.77,15.98,16.57,6198203.0,99728085.0,1350437744.12,7191000000.0
sz300997,欢乐家,2021-09-01,15.88,16.48,15.68,16.27,15.98,5638883.0,91101955.0,1374945062.38,7321500000.0
sz300997,欢乐家,2021-09-02,16.2,16.26,15.98,16.1,16.27,4575100.0,73596781.0,1360578703.4,7245000000.0
sz300997,欢乐家,2021-09-03,15.95,16.5,15.83,16.28,16.1,6102996.0,99252260.0,1375790142.32,7326000000.0
sz300997,欢乐家,2021-09-06,16.31,17.0,16.11,16.8,16.28,8781000.0,146754410.0,1419734299.2,7560000000.0
sz300997,欢乐家,2021-09-07,16.62,17.1,16.45,16.74,16.8,6781694.0,113532845.0,1414663819.56,7533000000.0
sz300997,欢乐家,2021-09-08,16.73,17.07,16.6,16.9,16.74,5911184.0,99603111.0,1428185098.6,7605000000.0
sz300997,欢乐家,2021-09-09,16.8,17.66,16.77,17.2,16.9,11584673.0,199492957.0,1453537496.8000002,7740000000.0
sz300997,欢乐家,2021-09-10,17.05,17.14,16.64,16.68,17.2,8279088.0,139539501.0,1409593339.92,7506000000.0
sz300997,欢乐家,2021-09-13,16.6,16.73,16.42,16.5,16.68,4224151.0,69778567.0,1394381901.0,7425000000.0
sz300997,欢乐家,2021-09-14,16.36,16.78,16.18,16.26,16.4,4716302.0,77659615.0,1374099982.4399998,7317000000.0
sz300997,欢乐家,2021-09-15,16.13,16.31,16.01,16.22,16.26,3359869.0,54305269.0,1370719662.6799998,7299000000.0
sz300997,欢乐家,2021-09-16,16.26,17.46,16.15,16.73,16.22,11891903.0,200006252.0,1413818739.62,7528500000.0
sz300997,欢乐家,2021-09-17,16.6,17.24,16.31,16.89,16.73,10954726.0,183593999.0,1427340018.66,7600500000.0
sz300997,欢乐家,2021-09-22,16.57,16.85,16.17,16.3,16.89,7164395.0,117557283.0,1377480302.1999998,7335000000.0
sz300997,欢乐家,2021-09-23,16.31,17.12,16.31,17.08,16.3,10856270.0,182525863.0,1443396537.5200002,7686000000.0
sz300997,欢乐家,2021-09-24,16.95,18.59,16.84,17.47,17.08,19785013.0,350120659.0,1476354655.18,7861500000.0
sz300997,欢乐家,2021-09-27,17.31,19.05,17.2,18.02,17.47,21544324.0,391016606.0,1522834051.88,8109000000.0
sz300997,欢乐家,2021-09-28,17.42,17.42,16.5,17.09,18.02,12504220.0,211832687.0,1444241617.46,7690500000.0
sz300997,欢乐家,2021-09-29,16.8,19.38,16.71,18.09,17.09,24208473.0,440721566.0,1528749611.4599998,8140500000.0
sz300997,欢乐家,2021-09-30,17.75,18.44,17.73,17.84,18.09,15632449.0,281411533.0,1507622612.96,8028000000.0
sz300997,欢乐家,2021-10-08,17.75,18.78,17.57,18.29,17.84,13902902.0,254140553.0,1545651210.26,8230500000.0
sz300997,欢乐家,2021-10-11,18.1,19.35,18.04,19.1,18.29,20031359.0,377847673.0,1614102685.4,8595000000.0
sz300997,欢乐家,2021-10-12,18.84,19.98,18.28,19.85,19.1,26803338.0,518151794.0,1677483680.9,8932500000.0
sz300997,欢乐家,2021-10-13,19.8,22.99,19.5,20.95,19.85,37283102.0,795967292.0,1770442474.3,9427500000.0
sz300997,欢乐家,2021-10-14,20.04,20.9,19.37,20.37,20.95,28117626.0,560699731.0,1721427837.7800002,9166500000.0
sz300997,欢乐家,2021-10-15,19.8,19.87,18.22,18.29,20.37,22840742.0,430103678.0,1545651210.26,8230500000.0
sz300997,欢乐家,2021-10-18,17.99,18.35,17.76,18.22,18.29,12900179.0,232481500.0,1539735650.68,8199000000.0
sz300997,欢乐家,2021-10-19,18.0,18.27,17.6,17.86,18.22,12855764.0,230367311.0,1509312772.8400002,8037000000.0
sz300997,欢乐家,2021-10-20,17.81,18.1,17.32,17.55,17.86,13281369.0,233401211.0,1483115294.7,7897500000.0
sz300997,欢乐家,2021-10-21,17.49,17.95,17.3,17.91,17.55,12934342.0,228245789.0,1513538172.54,8059500000.0
sz300997,欢乐家,2021-10-22,17.8,18.33,17.49,18.29,17.91,15487708.0,279583778.0,1545651210.26,8230500000.0
sz300997,欢乐家,2021-10-25,18.34,18.5,17.51,17.51,18.29,12889585.0,230170607.0,1479734974.94,7879500000.0
sz300997,欢乐家,2021-10-26,17.23,17.32,16.37,16.45,17.51,15219601.0,255994913.0,1390156501.3,7402500000.0
sz300997,欢乐家,2021-10-27,16.25,16.32,15.81,15.92,16.45,8690416.0,139197190.0,1345367264.48,7164000000.0
sz300997,欢乐家,2021-10-28,15.9,16.34,15.9,16.16,15.92,7400575.0,119413102.0,1365649183.04,7272000000.0
sz300997,欢乐家,2021-10-29,16.25,16.72,16.12,16.29,16.16,8254545.0,135625817.0,1376635222.26,7330500000.0
sz300997,欢乐家,2021-11-01,15.98,16.52,15.72,16.35,16.29,6855658.0,110641743.0,1381705701.9,7357500000.0
sz300997,欢乐家,2021-11-02,16.3,17.0,16.15,16.85,16.35,11928393.0,198689468.0,1423959698.9,7582500000.0
sz300997,欢乐家,2021-11-03,16.65,16.77,16.35,16.4,16.85,7830469.0,129410145.0,1385931101.6,7380000000.0
sz300997,欢乐家,2021-11-04,16.25,17.14,16.22,16.86,16.4,9902228.0,165799115.0,1424804778.84,7587000000.0
sz300997,欢乐家,2021-11-05,16.75,17.08,16.6,16.76,16.86,8976191.0,151353291.0,1416353979.44,7542000000.0
sz300997,欢乐家,2021-11-08,16.6,16.71,16.26,16.3,16.76,5951418.0,97491913.0,1377480302.1999998,7335000000.0
sz300997,欢乐家,2021-11-09,16.31,16.61,16.29,16.4,16.3,4575462.0,75119664.0,1385931101.6,7380000000.0
sz300997,欢乐家,2021-11-10,16.33,16.45,15.82,16.24,16.4,7370220.0,118500255.0,1372409822.56,7308000000.0
sz300997,欢乐家,2021-11-11,16.13,16.55,16.08,16.53,16.24,6487236.0,106350343.0,1396917140.82,7438500000.0
sz300997,欢乐家,2021-11-12,16.55,16.71,16.3,16.63,16.53,6953671.0,114812087.0,1405367940.2199998,7483500000.0
sz300997,欢乐家,2021-11-15,16.71,17.52,16.61,17.52,16.63,14339515.0,245964434.0,1480580054.88,7884000000.0
sz300997,欢乐家,2021-11-16,17.52,17.75,17.2,17.34,17.52,12039085.0,210283011.0,1465368615.96,7803000000.0
sz300997,欢乐家,2021-11-17,17.15,17.76,17.1,17.67,17.34,10083517.0,176139510.0,1493256253.98,7951500000.0
sz300997,欢乐家,2021-11-18,17.66,17.66,16.85,17.0,17.67,9942999.0,170412301.0,1436635897.9999998,7650000000.0
sz300997,欢乐家,2021-11-19,16.99,17.19,16.82,17.02,17.0,5769649.0,98028509.0,1438326057.88,7659000000.0
sz300997,欢乐家,2021-11-22,16.94,17.17,16.85,16.99,17.02,4899156.0,83249437.0,1435790818.06,7645500000.0
sz300997,欢乐家,2021-11-23,16.91,17.12,16.66,16.75,16.99,6656481.0,112133824.0,1415508899.5,7537500000.0
sz300997,欢乐家,2021-11-24,16.75,17.64,16.7,17.63,16.75,15304122.0,264974835.0,1489875934.22,7933500000.0
sz300997,欢乐家,2021-11-25,17.72,18.0,17.42,17.8,17.63,10711625.0,189774845.0,1504242293.2,8010000000.0
sz300997,欢乐家,2021-11-26,17.7,18.44,17.43,17.96,17.8,13623744.0,244367912.0,1517763572.24,8082000000.0
sz300997,欢乐家,2021-11-29,17.64,17.88,17.55,17.69,17.96,7447629.0,131895134.0,1494946413.8600001,7960500000.0
sz300997,欢乐家,2021-11-30,17.62,17.73,17.17,17.47,17.69,8548430.0,148859546.0,1476354655.18,7861500000.0
sz300997,欢乐家,2021-12-01,17.33,18.11,17.3,17.76,17.47,9240004.0,163502143.0,1500861973.4399998,7992000000.0
sz300997,欢乐家,2021-12-02,17.5,18.85,17.49,18.0,17.76,17435282.0,317211125.0,1620000000.0,8100000000.0
sz300997,欢乐家,2021-12-03,17.76,18.59,17.7,18.29,18.0,15583295.0,284835632.0,1646100000.0,8230500000.0
sz300997,欢乐家,2021-12-06,18.33,18.33,17.36,17.44,18.29,12062967.0,214296391.0,1569600000.0,7848000000.0
sz300997,欢乐家,2021-12-07,17.55,18.96,17.55,18.8,17.44,23719973.0,440108135.0,1692000000.0,8460000000.0
sz300997,欢乐家,2021-12-08,18.46,19.1,18.45,18.88,18.8,19219124.0,360145113.0,1699200000.0,8496000000.0
sz300997,欢乐家,2021-12-09,18.7,19.48,18.55,18.55,18.88,20439498.0,388050738.0,1669500000.0,8347500000.0
sz300997,欢乐家,2021-12-10,18.38,18.95,18.26,18.69,18.55,13731797.0,254751183.0,1682100000.0,8410500000.0
sz300997,欢乐家,2021-12-13,18.71,19.2,18.47,18.72,18.69,12221333.0,229769832.0,1684800000.0,8424000000.0
sz300997,欢乐家,2021-12-14,18.5,19.2,18.18,19.1,18.72,14665524.0,275457593.0,1719000000.0,8595000000.0
sz300997,欢乐家,2021-12-15,18.96,19.0,18.53,18.69,19.1,9792603.0,183470152.0,1682100000.0,8410500000.0
sz300997,欢乐家,2021-12-16,18.62,18.96,18.28,18.37,18.69,9648315.0,178500330.0,1653300000.0,8266500000.0
sz300997,欢乐家,2021-12-17,18.36,18.6,18.12,18.44,18.37,6538772.0,120074474.0,1659600000.0,8298000000.0
sz300997,欢乐家,2021-12-20,18.48,19.41,18.47,18.89,18.44,14647471.0,277529858.0,1700100000.0,8500500000.0
sz300997,欢乐家,2021-12-21,18.73,18.93,18.38,18.52,18.89,8145215.0,151197490.0,1666800000.0,8334000000.0
sz300997,欢乐家,2021-12-22,18.52,18.57,17.91,18.06,18.52,8792960.0,159288647.0,1625400000.0,8127000000.0
sz300997,欢乐家,2021-12-23,18.0,18.28,17.76,18.21,18.06,6872733.0,123876381.0,1638900000.0,8194500000.0
sz300997,欢乐家,2021-12-24,18.19,18.3,17.0,17.26,18.21,11786572.0,207899847.0,1553400000.0,7767000000.0
sz300997,欢乐家,2021-12-27,17.18,17.5,16.68,17.49,17.26,5594557.0,95983141.0,1574100000.0,7870500000.0
sz300997,欢乐家,2021-12-28,17.32,17.7,17.25,17.34,17.49,3780016.0,65895563.0,1560600000.0,7803000000.0
sz300997,欢乐家,2021-12-29,17.71,17.71,17.02,17.13,17.34,4312471.0,75001705.0,1541700000.0,7708500000.0
sz300997,欢乐家,2021-12-30,17.19,17.32,17.05,17.22,17.13,3443583.0,59207060.0,1549800000.0,7749000000.0
sz300997,欢乐家,2021-12-31,17.23,17.48,17.11,17.33,17.22,3619496.0,62669859.0,1559700000.0,7798500000.0
sz300997,欢乐家,2022-01-04,17.3,17.8,17.22,17.8,17.33,5959552.0,104876994.0,1602000000.0,8010000000.0
sz300997,欢乐家,2022-01-05,17.92,18.22,17.53,18.17,17.8,10481623.0,188677428.0,1635300000.0,8176500000.0
sz300997,欢乐家,2022-01-06,18.0,18.32,17.82,18.05,18.17,5988195.0,107974819.0,1624500000.0,8122500000.0
sz300997,欢乐家,2022-01-07,18.04,18.18,17.25,17.28,18.05,6991135.0,123240430.0,1555200000.0,7776000000.0
sz300997,欢乐家,2022-01-10,17.22,17.53,16.79,17.39,17.28,3952726.0,67993297.0,1565100000.0,7825500000.0
sz300997,欢乐家,2022-01-11,17.37,17.7,17.13,17.2,17.39,3816910.0,66376326.0,1548000000.0,7740000000.0
sz300997,欢乐家,2022-01-12,17.2,18.31,17.2,18.05,17.2,10407297.0,185291155.0,1624500000.0,8122500000.0
sz300997,欢乐家,2022-01-13,18.0,18.55,18.0,18.2,18.05,11016744.0,201747779.0,1638000000.0,8190000000.0
sz300997,欢乐家,2022-01-14,18.17,18.51,17.76,17.85,18.2,8063949.0,146357751.0,1606500000.0,8032500000.0
