数据由邢不行整理
股票代码,股票名称,交易日期,开盘价,最高价,最低价,收盘价,前收盘价,成交量,成交额,流通市值,总市值
sz300856,N科思,2020-07-22,36.67,44.01,36.67,44.01,30.56,80919.0,3558676.0,1241962200.0,4967848800.0
sz300856,科思股份,2020-07-23,48.41,48.41,48.41,48.41,44.01,17947.0,868814.0,1366130200.0,5464520800.0
sz300856,科思股份,2020-07-24,53.25,53.25,53.25,53.25,48.41,38127.0,2030263.0,1502715000.0,6010860000.0
sz300856,科思股份,2020-07-27,58.58,58.58,58.58,58.58,53.25,92484.0,5417713.0,1653127600.0,6612510400.0
sz300856,科思股份,2020-07-28,64.44,64.44,64.44,64.44,58.58,58488.0,3768967.0,1818496800.0,7273987200.0
sz300856,科思股份,2020-07-29,70.88,70.88,70.88,70.88,64.44,163980.0,11622902.0,2000233600.0,8000934399.999999
sz300856,科思股份,2020-07-30,77.97,77.97,74.97,77.97,70.88,5723421.0,446148114.0,2200313400.0,8801253600.0
sz300856,科思股份,2020-07-31,80.77,85.77,79.97,85.77,77.97,13520268.0,1121493742.0,2420429400.0,9681717600.0
sz300856,科思股份,2020-08-03,85.0,91.8,79.97,87.01,85.77,16739389.0,1411006398.0,2455422200.0,9821688800.0
sz300856,科思股份,2020-08-04,85.9,95.71,85.0,95.71,87.01,14262120.0,1296593145.0,2700936200.0,10803744800.0
sz300856,科思股份,2020-08-05,98.1,101.0,87.11,93.99,95.71,11410287.0,1086902602.0,2652397800.0000005,10609591200.000002
sz300856,科思股份,2020-08-06,98.5,102.97,96.08,99.0,93.99,8922963.0,882732918.0,2793780000.0,11175120000.0
sz300856,科思股份,2020-08-07,101.0,107.5,98.08,106.5,99.0,8467166.0,862430177.0,3005430000.0,12021720000.0
sz300856,科思股份,2020-08-10,102.4,103.49,95.85,95.85,106.5,8449865.0,829552802.0,2704887000.0,10819548000.0
sz300856,科思股份,2020-08-11,93.0,96.59,91.85,93.76,95.85,6018358.0,566652412.0,2645907199.9999995,10583628799.999998
sz300856,科思股份,2020-08-12,92.76,93.76,85.15,86.57,93.76,6113037.0,541105893.0,2443005400.0,9772021600.0
sz300856,科思股份,2020-08-13,85.56,87.35,81.24,81.55,86.57,5915878.0,496008890.0,2301341000.0,9205364000.0
sz300856,科思股份,2020-08-14,80.54,85.63,80.21,84.15,81.55,5357825.0,449380916.0,2374713000.0,9498852000.0
sz300856,科思股份,2020-08-17,84.41,88.85,84.41,85.5,84.15,4384519.0,379367775.0,2412810000.0,9651240000.0
sz300856,科思股份,2020-08-18,85.01,86.69,83.01,84.4,85.5,3577865.0,302673300.0,2381768000.0,9527072000.0
sz300856,科思股份,2020-08-19,85.02,86.67,84.16,85.64,84.4,4042833.0,345684841.0,2416760800.0,9667043200.0
sz300856,科思股份,2020-08-20,84.78,89.45,82.11,87.55,85.64,4196084.0,359503210.0,2470661000.0,9882644000.0
sz300856,科思股份,2020-08-21,87.55,95.0,86.77,93.1,87.55,5361026.0,490310198.0,2627282000.0,10509128000.0
sz300856,科思股份,2020-08-24,94.02,94.08,89.0,90.94,93.1,3858229.0,353069833.0,2566326800.0,10265307200.0
sz300856,科思股份,2020-08-25,89.91,93.47,89.12,91.72,90.94,4117911.0,376195775.0,2588338400.0,10353353600.0
sz300856,科思股份,2020-08-26,91.99,91.99,81.25,81.34,91.72,5694141.0,487519894.0,2295414800.0,9181659200.0
sz300856,科思股份,2020-08-27,80.66,83.78,78.9,82.7,81.34,3007245.0,244526070.0,2333794000.0,9335176000.0
sz300856,科思股份,2020-08-28,81.01,85.6,80.62,84.06,82.7,2465061.0,206690241.0,2372173200.0,9488692800.0
sz300856,科思股份,2020-08-31,84.21,98.0,84.21,94.84,84.06,7014038.0,654844362.0,2676384800.0,10705539200.0
sz300856,科思股份,2020-09-01,93.01,99.0,93.01,96.03,94.84,4466744.0,430635115.0,2709966599.9999995,10839866399.999998
sz300856,科思股份,2020-09-02,97.0,98.77,94.5,97.51,96.03,2840945.0,274622718.0,2751732199.9999995,11006928799.999998
sz300856,科思股份,2020-09-03,97.71,101.99,94.28,97.87,97.51,3945990.0,387027442.0,2761891400.0,11047565600.0
sz300856,科思股份,2020-09-04,94.5,100.63,93.51,94.88,97.87,3967958.0,383338445.0,2677513600.0,10710054400.0
sz300856,科思股份,2020-09-07,93.61,96.45,91.68,93.1,94.88,3279564.0,308346555.0,2627282000.0,10509128000.0
sz300856,科思股份,2020-09-08,93.0,93.94,85.0,86.74,93.1,3419182.0,301074275.0,2447802800.0,9791211200.0
sz300856,科思股份,2020-09-09,85.0,88.0,84.0,85.12,86.74,2245052.0,193433215.0,2402086400.0,9608345600.0
sz300856,科思股份,2020-09-10,86.59,88.68,83.23,83.23,85.12,2148138.0,184923758.0,2348750600.0,9395002400.0
sz300856,科思股份,2020-09-11,82.45,87.95,82.45,87.7,83.23,2122117.0,180439656.0,2474894000.0,9899576000.0
sz300856,科思股份,2020-09-14,88.68,92.35,86.5,92.12,87.7,3507845.0,316065969.0,2599626400.0,10398505600.0
sz300856,科思股份,2020-09-15,93.8,93.8,89.4,89.7,92.12,2580477.0,234449155.0,2531334000.0,10125336000.0
sz300856,科思股份,2020-09-16,90.02,101.8,89.0,101.4,89.7,6458217.0,622234135.0,2861508000.0,11446032000.0
sz300856,科思股份,2020-09-17,104.84,107.7,95.63,95.99,101.4,8026297.0,818672341.0,2708837800.0000005,10835351200.000002
sz300856,科思股份,2020-09-18,93.5,97.98,93.03,93.51,95.99,3606816.0,342370298.0,2638852199.9999995,10555408799.999998
sz300856,科思股份,2020-09-21,93.56,96.33,92.02,95.0,93.51,2622921.0,247280760.0,2680900000.0,10723600000.0
sz300856,科思股份,2020-09-22,94.06,96.5,92.4,94.98,95.0,2269261.0,214664193.0,2680335600.0,10721342400.0
sz300856,科思股份,2020-09-23,94.62,97.5,92.5,94.7,94.98,2938860.0,277637300.0,2672434000.0,10689736000.0
sz300856,科思股份,2020-09-24,93.16,95.2,90.17,93.2,94.7,3094534.0,285824965.0,2630104000.0,10520416000.0
sz300856,科思股份,2020-09-25,93.75,93.8,85.69,85.69,93.2,3708638.0,329275739.0,2418171800.0,9672687200.0
sz300856,科思股份,2020-09-28,86.01,86.6,82.66,84.09,85.69,2803756.0,236598287.0,2373019800.0,9492079200.0
sz300856,科思股份,2020-09-29,85.0,85.97,82.93,83.68,84.09,2245174.0,188439572.0,2361449600.0,9445798400.0
sz300856,科思股份,2020-09-30,83.14,86.01,81.88,81.98,83.68,2509618.0,210332781.0,2313475600.0,9253902400.0
sz300856,科思股份,2020-10-09,83.5,84.49,81.8,84.29,81.98,3603279.0,298586519.0,2378663800.0,9514655200.0
sz300856,科思股份,2020-10-12,83.8,86.95,82.22,86.73,84.29,3050711.0,260543451.0,2447520600.0,9790082400.0
sz300856,科思股份,2020-10-13,87.0,87.69,84.3,87.04,86.73,3014397.0,258950173.0,2456268800.0,9825075200.0
sz300856,科思股份,2020-10-14,86.46,86.59,83.1,83.55,87.04,3538257.0,299822195.0,2357781000.0,9431124000.0
sz300856,科思股份,2020-10-15,83.3,86.46,81.82,85.5,83.55,2944208.0,249080929.0,2412810000.0,9651240000.0
sz300856,科思股份,2020-10-16,84.32,84.84,82.31,82.49,85.5,2330912.0,194386655.0,2327867800.0,9311471200.0
sz300856,科思股份,2020-10-19,82.0,82.89,79.9,79.99,82.49,2136341.0,173176375.0,2257317800.0,9029271200.0
sz300856,科思股份,2020-10-20,80.0,81.94,79.2,81.81,79.99,1649020.0,133356569.0,2308678200.0,9234712800.0
sz300856,科思股份,2020-10-21,81.57,84.49,79.99,84.0,81.81,2784172.0,229973922.0,2370480000.0,9481920000.0
sz300856,科思股份,2020-10-22,83.3,83.5,81.7,82.3,84.0,1858932.0,153468926.0,2322506000.0,9290024000.0
sz300856,科思股份,2020-10-23,77.87,78.0,68.3,68.73,82.3,6973955.0,501682243.0,1939560600.0,7758242400.0
sz300856,科思股份,2020-10-26,66.66,68.25,65.2,67.9,68.73,2856930.0,191329126.0,1916138000.0,7664552000.0
sz300856,科思股份,2020-10-27,67.17,69.55,67.17,68.14,67.9,1921542.0,131221140.0,1922910800.0,7691643199.999999
sz300856,科思股份,2020-10-28,68.14,68.8,66.02,66.85,68.14,2277631.0,153486862.0,1886507000.0,7546028000.0
sz300856,科思股份,2020-10-29,65.16,66.59,64.13,65.23,66.85,2041677.0,133685924.0,1840790600.0,7363162400.0
sz300856,科思股份,2020-10-30,65.03,66.29,62.4,62.4,65.23,2415657.0,154727432.0,1760928000.0,7043712000.0
sz300856,科思股份,2020-11-02,62.4,63.9,62.1,63.47,62.4,1495963.0,94389374.0,1791123400.0,7164493600.0
sz300856,科思股份,2020-11-03,63.54,65.98,63.3,65.8,63.47,1876233.0,122097478.0,1856876000.0,7427504000.0
sz300856,科思股份,2020-11-04,65.92,66.51,65.4,65.96,65.8,1478113.0,97495613.0,1861391200.0,7445564800.0
sz300856,科思股份,2020-11-05,66.4,70.21,66.31,69.56,65.96,2692939.0,184576063.0,1962983200.0,7851932800.0
sz300856,科思股份,2020-11-06,69.03,69.84,67.72,68.13,69.41,1570687.0,107498843.0,1922628600.0,7690514399.999999
sz300856,科思股份,2020-11-09,68.1,70.46,68.1,69.65,68.13,1872087.0,129901467.0,1965523000.0,7862092000.0
sz300856,科思股份,2020-11-10,70.68,72.27,68.8,69.63,69.65,1719631.0,120713380.0,1964958600.0,7859834399.999999
sz300856,科思股份,2020-11-11,69.0,69.99,67.5,68.29,69.63,1319543.0,90573858.0,1927143800.0,7708575200.0
sz300856,科思股份,2020-11-12,68.45,69.59,66.91,67.3,68.29,1142930.0,77831180.0,1899206000.0,7596824000.0
sz300856,科思股份,2020-11-13,67.13,67.86,66.71,67.05,67.3,927061.0,62342418.0,1892151000.0,7568604000.0
sz300856,科思股份,2020-11-16,67.14,71.89,67.05,70.44,67.05,2961356.0,207000279.0,1987816800.0,7951267200.0
sz300856,科思股份,2020-11-17,70.28,70.9,65.03,66.48,70.44,2642421.0,177821204.0,1876065600.0,7504262400.0
sz300856,科思股份,2020-11-18,66.9,70.78,66.48,68.98,66.48,2681983.0,185225415.0,1946615600.0,7786462400.0
sz300856,科思股份,2020-11-19,69.31,72.2,68.3,70.97,68.98,2998408.0,210563621.0,2002773400.0,8011093600.0
sz300856,科思股份,2020-11-20,70.96,70.96,68.8,68.89,70.97,2217849.0,154578806.0,1944075800.0,7776303199.999999
sz300856,科思股份,2020-11-23,69.08,69.69,66.7,66.85,68.89,2067510.0,139312358.0,1886507000.0,7546028000.0
sz300856,科思股份,2020-11-24,66.72,66.81,64.11,65.82,66.85,2189369.0,142568938.0,1857440400.0,7429761600.0
sz300856,科思股份,2020-11-25,65.51,66.0,63.71,63.72,65.82,1481315.0,95599612.0,1798178400.0,7192713600.0
sz300856,科思股份,2020-11-26,63.7,64.49,62.8,63.04,63.72,1119669.0,70830213.0,1778988800.0,7115955200.0
sz300856,科思股份,2020-11-27,63.06,63.98,62.23,63.0,63.04,995547.0,62701935.0,1777860000.0,7111440000.0
sz300856,科思股份,2020-11-30,63.0,63.85,61.5,63.5,63.0,1255347.0,79028199.0,1791970000.0,7167880000.0
sz300856,科思股份,2020-12-01,63.36,64.0,62.76,63.5,63.5,1465300.0,92921107.0,1791970000.0,7167880000.0
sz300856,科思股份,2020-12-02,63.59,64.45,62.97,63.79,63.5,1273156.0,81107152.0,1800153800.0,7200615200.0
sz300856,科思股份,2020-12-03,63.43,64.45,63.0,63.0,63.79,1317800.0,83867297.0,1777860000.0,7111440000.0
sz300856,科思股份,2020-12-04,62.95,64.43,62.1,64.28,63.0,1358012.0,86338998.0,1813981600.0,7255926400.0
sz300856,科思股份,2020-12-07,64.3,66.49,63.59,63.7,64.28,1765477.0,114873457.0,1797614000.0,7190456000.0
sz300856,科思股份,2020-12-08,64.21,66.86,64.21,65.29,63.7,2065568.0,135369338.0,1842483800.0,7369935200.0
sz300856,科思股份,2020-12-09,64.88,65.74,63.6,64.16,65.29,1493656.0,96385841.0,1810595200.0,7242380800.0
sz300856,科思股份,2020-12-10,64.2,64.68,62.0,62.04,64.16,1682489.0,105790253.0,1750768800.0,7003075200.0
sz300856,科思股份,2020-12-11,61.98,62.25,58.8,59.23,62.04,2179705.0,130396353.0,1671470600.0,6685882400.0
sz300856,科思股份,2020-12-14,59.23,59.83,57.39,59.67,59.23,1047165.0,61417051.0,1683887400.0,6735549600.0
sz300856,科思股份,2020-12-15,59.06,60.62,59.06,59.45,59.67,1013600.0,60744224.0,1677679000.0,6710716000.0
sz300856,科思股份,2020-12-16,60.31,68.0,60.31,65.82,59.45,4410126.0,286626203.0,1857440400.0,7429761600.0
sz300856,科思股份,2020-12-17,64.5,65.19,62.74,64.61,65.82,2883423.0,184475262.0,1823294200.0,7293176800.000001
sz300856,科思股份,2020-12-18,64.0,64.37,61.33,61.33,64.61,1957820.0,122871182.0,1730732600.0,6922930400.0
sz300856,科思股份,2020-12-21,61.01,62.24,59.88,60.62,61.33,1606420.0,97877673.0,1710696400.0000002,6842785600.000001
sz300856,科思股份,2020-12-22,59.97,60.93,58.59,58.91,60.62,1760641.0,104909112.0,1662440200.0,6649760800.0
sz300856,科思股份,2020-12-23,59.74,59.74,57.52,57.74,58.91,1585107.0,92117085.0,1629422800.0,6517691200.0
sz300856,科思股份,2020-12-24,57.16,57.3,54.6,54.95,57.74,1757456.0,98057532.0,1550689000.0,6202756000.0
sz300856,科思股份,2020-12-25,54.3,56.1,54.3,55.8,54.95,898523.0,49661049.0,1574676000.0,6298704000.0
sz300856,科思股份,2020-12-28,55.55,55.97,52.3,53.57,55.8,1666734.0,89130964.0,1511745400.0,6046981600.0
sz300856,科思股份,2020-12-29,53.8,54.18,52.18,52.18,53.57,1265687.0,67073465.0,1472519600.0,5890078400.0
sz300856,科思股份,2020-12-30,51.97,52.88,51.23,52.31,52.18,1113835.0,57894750.0,1476188200.0,5904752800.0
sz300856,科思股份,2020-12-31,52.5,55.1,52.35,54.57,52.31,1422323.0,76671628.0,1539965400.0,6159861600.0
sz300856,科思股份,2021-01-04,54.1,55.28,53.8,54.79,54.57,1247654.0,68211925.0,1546173800.0,6184695200.0
sz300856,科思股份,2021-01-05,54.5,56.67,54.2,55.17,54.79,1510854.0,83401375.0,1556897400.0,6227589600.0
sz300856,科思股份,2021-01-06,55.19,55.56,52.52,52.65,55.17,1538271.0,82462432.0,1485783000.0,5943132000.0
sz300856,科思股份,2021-01-07,52.31,53.5,49.4,49.54,52.65,1895917.0,96321240.0,1398018800.0,5592075200.0
sz300856,科思股份,2021-01-08,49.11,51.44,47.76,50.29,49.54,1388601.0,69110444.0,1419183800.0,5676735200.0
sz300856,科思股份,2021-01-11,50.09,50.51,48.03,48.25,50.29,1205367.0,58962065.0,1361615000.0,5446460000.0
sz300856,科思股份,2021-01-12,48.55,50.8,48.13,50.28,48.25,1337567.0,66862929.0,1418901600.0,5675606400.0
sz300856,科思股份,2021-01-13,50.25,50.69,48.5,49.4,50.28,1142460.0,56387330.0,1394068000.0,5576272000.0
sz300856,科思股份,2021-01-14,49.0,50.72,48.74,50.01,49.4,1205620.0,60207655.0,1411282200.0,5645128800.0
sz300856,科思股份,2021-01-15,50.1,53.52,49.9,52.52,50.01,1680840.0,87596694.0,1482114400.0,5928457600.0
sz300856,科思股份,2021-01-18,51.99,53.06,51.81,52.66,52.52,1294694.0,67717612.0,1486065200.0,5944260800.0
sz300856,科思股份,2021-01-19,52.19,55.68,51.8,53.7,52.66,1858552.0,100827309.0,1515414000.0,6061656000.0
sz300856,科思股份,2021-01-20,54.01,55.49,52.88,54.59,53.7,1513389.0,81913061.0,1540529800.0,6162119200.0
sz300856,科思股份,2021-01-21,54.1,55.86,53.8,54.13,54.59,1525749.0,83844101.0,1527548599.9999998,6110194399.999999
sz300856,科思股份,2021-01-22,54.14,55.54,52.5,55.0,54.13,1748447.0,94519353.0,1552100000.0,6208400000.0
sz300856,科思股份,2021-01-25,54.88,55.01,50.92,51.14,55.0,1910779.0,99473495.0,1443170799.9999998,5772683199.999999
sz300856,科思股份,2021-01-26,50.48,53.5,50.16,51.36,51.14,1262312.0,66076221.0,1449379200.0000002,5797516800.000001
sz300856,科思股份,2021-01-27,51.7,52.32,50.8,51.58,51.36,722900.0,37237071.0,1455587600.0,5822350400.0
sz300856,科思股份,2021-01-28,51.48,53.87,50.84,51.19,51.58,1354088.0,70986060.0,1444581800.0,5778327200.0
sz300856,科思股份,2021-01-29,51.22,52.96,48.29,49.27,51.19,1351300.0,66890374.0,1390399400.0,5561597600.0
sz300856,科思股份,2021-02-01,48.57,51.15,48.16,50.42,49.27,875100.0,43811664.0,1422852400.0,5691409600.0
sz300856,科思股份,2021-02-02,50.38,51.4,49.58,50.04,50.42,702400.0,35319244.0,1412128800.0,5648515200.0
sz300856,科思股份,2021-02-03,50.5,50.5,48.2,48.27,50.04,788167.0,38474963.0,1362179400.0,5448717600.0
sz300856,科思股份,2021-02-04,48.16,48.89,46.27,47.28,48.27,935967.0,44380429.0,1334241600.0,5336966400.0
sz300856,科思股份,2021-02-05,47.27,49.97,47.21,47.86,47.28,1108569.0,53848148.0,1350609200.0000002,5402436800.000001
sz300856,科思股份,2021-02-08,47.86,48.79,46.89,46.95,47.86,925400.0,44170466.0,1324929000.0,5299716000.0
sz300856,科思股份,2021-02-09,46.8,49.41,46.74,49.01,46.95,1123160.0,54229596.0,1383062200.0,5532248800.0
sz300856,科思股份,2021-02-10,49.02,53.5,48.5,52.6,49.01,2423230.0,124719175.0,1484372000.0,5937488000.0
sz300856,科思股份,2021-02-18,53.06,54.65,52.0,53.38,52.6,2063844.0,109775263.0,1506383599.9999998,6025534399.999999
sz300856,科思股份,2021-02-19,53.38,53.8,52.2,53.62,53.38,1435080.0,76296174.0,1513156400.0000002,6052625600.000001
sz300856,科思股份,2021-02-22,53.62,56.42,53.35,56.1,53.62,2584620.0,143373393.0,1583142000.0,6332568000.0
sz300856,科思股份,2021-02-23,55.1,56.1,53.65,54.25,56.1,1571149.0,85591207.0,1530935000.0,6123740000.0
sz300856,科思股份,2021-02-24,54.01,55.56,52.66,53.19,54.25,1550589.0,83862514.0,1501021800.0,6004087200.0
sz300856,科思股份,2021-02-25,53.5,54.3,52.25,52.51,53.19,1032500.0,54599738.0,1481832200.0,5927328800.0
sz300856,科思股份,2021-02-26,51.83,52.87,51.3,51.5,52.51,996400.0,51713271.0,1453330000.0,5813320000.0
sz300856,科思股份,2021-03-01,51.91,54.1,51.71,54.01,51.5,1392727.0,74181583.0,1524162200.0,6096648800.0
sz300856,科思股份,2021-03-02,54.15,54.16,51.46,52.09,54.01,1176780.0,61920810.0,1469979800.0,5879919200.0
sz300856,科思股份,2021-03-03,52.01,53.78,51.75,53.16,52.09,881067.0,46731389.0,1500175200.0,6000700800.0
sz300856,科思股份,2021-03-04,53.0,54.16,52.27,53.58,53.16,1157313.0,61690470.0,1512027600.0,6048110400.0
sz300856,科思股份,2021-03-05,53.64,54.35,52.26,53.21,53.58,1141405.0,60582772.0,1501586200.0,6006344800.0
sz300856,科思股份,2021-03-08,53.58,59.68,53.29,58.22,53.21,4905668.0,283104798.0,1642968400.0,6571873600.0
sz300856,科思股份,2021-03-09,58.21,58.22,54.91,55.31,58.22,2661911.0,150184898.0,1560848200.0,6243392800.0
sz300856,科思股份,2021-03-10,55.68,56.22,52.27,52.36,55.31,2078067.0,111834674.0,1477599200.0000002,5910396800.000001
sz300856,科思股份,2021-03-11,53.6,55.48,51.56,54.6,52.36,2021694.0,109319733.0,1540812000.0,6163248000.0
sz300856,科思股份,2021-03-12,54.7,55.28,50.0,50.7,54.6,2478273.0,129170529.0,1430754000.0,5723016000.0
sz300856,科思股份,2021-03-15,50.4,50.4,48.4,48.85,50.7,1368083.0,67237030.0,1378547000.0,5514188000.0
sz300856,科思股份,2021-03-16,48.86,49.86,48.38,49.3,48.85,885599.0,43583127.0,1391246000.0,5564984000.0
sz300856,科思股份,2021-03-17,49.26,51.49,48.72,51.41,49.3,1281712.0,64751201.0,1450790200.0,5803160800.0
sz300856,科思股份,2021-03-18,51.19,55.29,51.19,55.21,51.41,2949501.0,159381017.0,1558026200.0,6232104800.0
sz300856,科思股份,2021-03-19,54.5,55.98,54.13,55.0,55.21,2054720.0,112954457.0,1552100000.0,6208400000.0
sz300856,科思股份,2021-03-22,54.52,55.96,54.4,55.6,55.0,1417007.0,78413722.0,1569032000.0,6276128000.0
sz300856,科思股份,2021-03-23,55.9,56.06,53.77,54.32,55.6,1398900.0,76282183.0,1532910400.0,6131641600.0
sz300856,科思股份,2021-03-24,54.32,55.14,53.12,55.04,54.32,1280920.0,69544476.0,1553228800.0,6212915200.0
sz300856,科思股份,2021-03-25,54.2,55.75,53.6,53.72,55.04,1274580.0,69595111.0,1515978400.0,6063913600.0
sz300856,科思股份,2021-03-26,53.99,54.76,53.4,54.16,53.72,993128.0,53777045.0,1528395200.0,6113580800.0
sz300856,科思股份,2021-03-29,54.16,55.77,53.51,55.07,54.16,1288520.0,70601193.0,1554075400.0,6216301600.0
sz300856,科思股份,2021-03-30,55.07,55.2,53.8,53.85,55.07,948520.0,51402261.0,1519647000.0,6078588000.0
sz300856,科思股份,2021-03-31,53.35,53.79,50.99,51.15,53.85,1447620.0,74983385.0,1443453000.0,5773812000.0
sz300856,科思股份,2021-04-01,51.15,51.85,50.95,51.56,51.15,680400.0,34954430.0,1455023200.0,5820092800.0
sz300856,科思股份,2021-04-02,51.11,55.0,51.11,54.4,51.56,1791255.0,96202097.0,1535168000.0,6140672000.0
sz300856,科思股份,2021-04-06,55.2,56.5,54.34,56.13,54.4,1727487.0,96261266.0,1583988599.9999998,6335954399.999999
sz300856,科思股份,2021-04-07,55.8,56.75,55.22,56.26,56.13,1267100.0,70863054.0,1587657200.0,6350628800.0
sz300856,科思股份,2021-04-08,56.1,56.6,55.13,55.29,56.26,916220.0,51154496.0,1560283800.0,6241135200.0
sz300856,科思股份,2021-04-09,55.22,57.8,55.02,57.15,55.29,2142413.0,121411686.0,1612773000.0,6451092000.0
sz300856,科思股份,2021-04-12,57.08,57.6,55.18,56.2,57.15,1558220.0,87554104.0,1585964000.0,6343856000.0
sz300856,科思股份,2021-04-13,55.68,57.6,54.87,55.26,56.2,1357567.0,76245393.0,1559437200.0,6237748800.0
sz300856,科思股份,2021-04-14,55.2,56.69,53.37,56.69,55.26,2143990.0,118132768.0,1599791800.0,6399167200.0
sz300856,科思股份,2021-04-15,56.27,56.27,51.15,51.75,56.69,2912712.0,154591447.0,1460385000.0,5841540000.0
sz300856,科思股份,2021-04-16,51.77,55.5,51.34,54.03,51.75,2051325.0,109460308.0,1524726600.0,6098906400.0
sz300856,科思股份,2021-04-19,52.06,54.0,51.1,53.11,54.03,1622265.0,85909692.0,1498764200.0000002,5995056800.000001
sz300856,科思股份,2021-04-20,53.38,54.48,52.2,52.95,53.11,1607790.0,85409868.0,1494249000.0,5976996000.0
sz300856,科思股份,2021-04-21,52.88,54.1,51.7,52.75,52.95,1211287.0,63786664.0,1488605000.0,5954420000.0
sz300856,科思股份,2021-04-22,52.76,54.64,51.27,51.68,52.75,2588133.0,136607389.0,1458409600.0,5833638400.0
sz300856,科思股份,2021-04-23,51.06,52.19,50.35,51.94,51.68,1418727.0,73060190.0,1465746800.0,5862987200.0
sz300856,科思股份,2021-04-26,52.62,54.95,52.12,52.85,51.94,1898157.0,101391756.0,1491427000.0,5965708000.0
sz300856,科思股份,2021-04-27,52.59,52.67,50.47,51.28,52.85,1391341.0,71415601.0,1447121600.0,5788486400.0
sz300856,科思股份,2021-04-28,50.71,53.14,50.71,52.45,51.28,1076177.0,55965805.0,1480139000.0,5920556000.0
sz300856,科思股份,2021-04-29,52.37,52.58,51.0,51.47,52.45,943320.0,48687276.0,1452483400.0,5809933600.0
sz300856,科思股份,2021-04-30,51.32,51.66,50.22,50.29,51.47,968100.0,49149268.0,1419183800.0,5676735200.0
sz300856,科思股份,2021-05-06,50.5,51.58,50.01,50.49,50.29,747667.0,38061746.0,1424827800.0,5699311200.0
sz300856,科思股份,2021-05-07,50.29,50.65,48.5,48.6,50.49,1202820.0,59446285.0,1371492000.0,5485968000.0
sz300856,科思股份,2021-05-10,48.71,49.3,47.0,47.38,48.6,950296.0,45610776.0,1337063599.9999998,5348254399.999999
sz300856,科思股份,2021-05-11,47.38,48.29,47.04,48.13,47.38,569200.0,27175817.0,1358228599.9999998,5432914399.999999
sz300856,科思股份,2021-05-12,48.16,49.7,47.58,49.59,48.13,724536.0,35331418.0,1399429800.0,5597719200.0
sz300856,科思股份,2021-05-13,49.29,50.68,49.0,49.33,49.59,852124.0,42552984.0,1392092600.0,5568370400.0
sz300856,科思股份,2021-05-14,49.57,49.98,49.01,49.94,49.33,553204.0,27490300.0,1409306800.0,5637227200.0
sz300856,科思股份,2021-05-17,50.0,50.94,49.51,50.18,49.94,793114.0,39828547.0,1416079600.0,5664318400.0
sz300856,科思股份,2021-05-18,50.66,50.88,49.87,50.19,50.18,533600.0,26818630.0,1416361800.0,5665447200.0
sz300856,科思股份,2021-05-19,49.92,51.93,49.57,51.42,50.19,1266967.0,64884025.0,1451072400.0,5804289600.0
sz300856,科思股份,2021-05-20,51.12,51.82,50.5,50.89,51.42,791487.0,40412104.0,1436115799.9999998,5744463199.999999
sz300856,科思股份,2021-05-21,50.76,51.01,49.88,50.24,50.89,618323.0,31086838.0,1417772800.0,5671091200.0
sz300856,科思股份,2021-05-24,49.8,50.0,48.6,49.05,50.24,848539.0,41661191.0,1384191000.0,5536764000.0
sz300856,科思股份,2021-05-25,49.18,52.0,49.02,51.65,49.05,1632860.0,83724274.0,1457563000.0,5830252000.0
sz300856,科思股份,2021-05-26,51.27,51.65,50.86,51.6,51.65,873303.0,44872320.0,1456152000.0,5824608000.0
sz300856,科思股份,2021-05-27,51.32,52.5,51.09,51.76,51.6,854199.0,44367508.0,1460667200.0,5842668800.0
sz300856,科思股份,2021-05-28,51.5,52.3,50.85,50.9,51.76,945594.0,48610038.0,1436398000.0,5745592000.0
sz300856,科思股份,2021-05-31,51.0,51.78,50.56,51.49,50.9,941561.0,48209848.0,1453047800.0,5812191200.0
sz300856,科思股份,2021-06-01,51.51,51.95,50.86,51.52,51.49,736700.0,37877596.0,1453894400.0,5815577600.0
sz300856,科思股份,2021-06-02,51.22,51.4,50.3,50.46,51.37,750890.0,38049032.0,1423981200.0,5695924800.0
sz300856,科思股份,2021-06-03,50.48,54.5,50.48,52.35,50.46,2131164.0,112425384.0,1477317000.0,5909268000.0
sz300856,科思股份,2021-06-04,51.52,53.19,51.37,52.3,52.35,1094253.0,57327310.0,1475906000.0,5903624000.0
sz300856,科思股份,2021-06-07,52.29,56.53,52.0,55.59,52.3,2971891.0,163055809.0,1568749800.0,6274999200.0
sz300856,科思股份,2021-06-08,54.86,55.6,53.81,54.04,55.59,1782223.0,97092967.0,1525008800.0,6100035200.0
sz300856,科思股份,2021-06-09,54.04,54.5,53.17,53.7,54.04,1048667.0,56469664.0,1515414000.0,6061656000.0
sz300856,科思股份,2021-06-10,53.72,54.24,53.1,53.83,53.7,911520.0,49030777.0,1519082600.0,6076330400.0
sz300856,科思股份,2021-06-11,53.59,53.83,52.66,52.66,53.83,1011912.0,53781844.0,1486065200.0,5944260800.0
sz300856,科思股份,2021-06-15,52.65,53.11,50.88,51.12,52.66,980081.0,50663349.0,1442606400.0000002,5770425600.000001
sz300856,科思股份,2021-06-16,51.12,51.58,49.7,49.9,51.12,847729.0,42755713.0,1408178000.0,5632712000.0
sz300856,科思股份,2021-06-17,49.98,51.0,49.89,50.89,49.9,536400.0,27083076.0,1436115799.9999998,5744463199.999999
sz300856,科思股份,2021-06-18,50.65,51.5,50.47,51.07,50.89,682600.0,34716960.0,1441195400.0,5764781600.0
sz300856,科思股份,2021-06-21,51.0,51.65,50.5,51.61,51.07,642700.0,32957021.0,1456434200.0000002,5825736800.000001
sz300856,科思股份,2021-06-22,51.51,51.97,51.05,51.45,51.61,511167.0,26318871.0,1451919000.0,5807676000.0
sz300856,科思股份,2021-06-23,51.72,51.79,50.6,50.85,51.45,722050.0,36795065.0,1434987000.0,5739948000.0
sz300856,科思股份,2021-06-24,50.72,50.85,49.84,49.88,50.85,725540.0,36363698.0,1407613599.9999998,5630454399.999999
sz300856,科思股份,2021-06-25,49.74,51.24,49.74,50.24,49.88,607424.0,30656804.0,1417772800.0,5671091200.0
sz300856,科思股份,2021-06-28,50.3,50.46,49.8,50.08,50.24,566920.0,28370268.0,1413257600.0,5653030400.0
sz300856,科思股份,2021-06-29,49.81,50.44,49.66,49.66,50.08,490621.0,24478109.0,1401405200.0,5605620800.0
sz300856,科思股份,2021-06-30,49.67,50.9,49.67,50.31,49.66,592967.0,29752744.0,1419748200.0,5678992800.0
sz300856,科思股份,2021-07-01,50.33,51.97,49.9,50.92,50.31,1277491.0,65445430.0,1436962400.0,5747849600.0
sz300856,科思股份,2021-07-02,50.48,50.5,47.91,48.37,50.92,1464823.0,71798001.0,1365001400.0000002,5460005600.000001
sz300856,科思股份,2021-07-05,48.41,48.91,48.0,48.69,48.37,512396.0,24849722.0,1374031800.0,5496127200.0
sz300856,科思股份,2021-07-06,48.55,49.19,48.4,49.06,48.69,469500.0,22903659.0,1384473200.0,5537892800.0
sz300856,科思股份,2021-07-07,49.22,49.22,48.47,48.67,49.06,497800.0,24213066.0,1373467400.0,5493869600.0
sz300856,科思股份,2021-07-08,48.52,48.76,47.46,47.65,48.67,711421.0,34091110.0,1344683000.0,5378732000.0
sz300856,科思股份,2021-07-09,47.51,48.17,47.38,47.97,47.65,531632.0,25373384.0,1353713400.0,5414853600.0
sz300856,科思股份,2021-07-12,48.21,48.58,47.88,48.19,47.97,491500.0,23713896.0,1359921800.0,5439687200.0
sz300856,科思股份,2021-07-13,48.47,48.47,47.5,48.32,48.19,527400.0,25275078.0,1363590400.0,5454361600.0
sz300856,科思股份,2021-07-14,47.85,48.51,47.65,47.99,48.32,439220.0,21078024.0,1354277800.0,5417111200.0
sz300856,科思股份,2021-07-15,47.96,47.96,46.51,46.86,47.99,846800.0,39730482.0,1322389200.0000002,5289556800.000001
sz300856,科思股份,2021-07-16,46.51,47.19,46.25,46.29,46.86,586020.0,27241371.0,1306303800.0,5225215200.0
sz300856,科思股份,2021-07-19,46.02,46.05,44.66,44.7,46.29,894200.0,40346988.0,1261434000.0,5045736000.0
sz300856,科思股份,2021-07-20,44.65,45.59,44.28,45.35,44.7,428900.0,19299322.0,1279777000.0,5119108000.0
sz300856,科思股份,2021-07-21,45.45,46.18,45.28,45.74,45.35,472620.0,21679026.0,1290782800.0,5163131200.0
sz300856,科思股份,2021-07-22,46.2,46.2,45.55,46.07,45.74,402600.0,18494537.0,1788437400.0,5200381600.0
sz300856,科思股份,2021-07-23,44.8,45.8,41.6,41.9,46.07,2021553.0,86456627.0,1626558000.0,4729672000.0
sz300856,科思股份,2021-07-26,41.99,42.08,40.7,40.91,41.9,701767.0,28843700.0,1588126200.0,4617920800.0
sz300856,科思股份,2021-07-27,40.99,41.58,40.11,40.26,40.91,524535.0,21315820.0,1562893200.0,4544548800.0
sz300856,科思股份,2021-07-28,40.49,40.49,39.01,39.16,40.26,613600.0,24231638.0,1520191200.0,4420380800.0
sz300856,科思股份,2021-07-29,39.41,40.2,39.36,39.56,39.16,504035.0,20044756.0,1535719200.0000002,4465532800.0
sz300856,科思股份,2021-07-30,39.88,41.03,38.69,40.88,39.56,640922.0,25793092.0,1586961600.0,4614534400.0
sz300856,科思股份,2021-08-02,40.87,41.23,40.08,41.19,40.88,580555.0,23617107.0,1598995799.9999998,4649527200.0
sz300856,科思股份,2021-08-03,40.78,42.03,40.78,41.5,41.19,611820.0,25491843.0,1611030000.0,4684520000.0
sz300856,科思股份,2021-08-04,41.15,41.79,41.15,41.4,41.5,394109.0,16345974.0,1607148000.0,4673232000.0
sz300856,科思股份,2021-08-05,41.21,41.38,39.71,40.02,41.4,714700.0,28742290.0,1553576400.0000002,4517457600.0
sz300856,科思股份,2021-08-06,40.02,40.9,39.72,40.09,40.02,461469.0,18553803.0,1556293800.0,4525359200.0
sz300856,科思股份,2021-08-09,39.95,43.3,39.9,42.23,40.09,1094569.0,45961052.0,1639368599.9999998,4766922400.0
sz300856,科思股份,2021-08-10,42.54,42.54,41.5,42.23,42.23,644500.0,27062391.0,1639368599.9999998,4766922400.0
sz300856,科思股份,2021-08-11,41.99,42.39,41.6,41.84,42.23,464146.0,19458245.0,1624228800.0,4722899200.0
sz300856,科思股份,2021-08-12,41.86,43.43,41.82,42.27,41.84,671900.0,28581915.0,1640921400.0000002,4771437600.0
sz300856,科思股份,2021-08-13,42.27,42.29,40.75,41.2,42.27,784728.0,32515140.0,1599384000.0,4650656000.0
sz300856,科思股份,2021-08-16,41.33,42.25,41.15,41.2,41.2,724900.0,30069392.0,1599384000.0,4650656000.0
sz300856,科思股份,2021-08-17,41.2,41.21,39.8,40.05,41.2,902820.0,36456054.0,1554741000.0,4520844000.0
sz300856,科思股份,2021-08-18,40.07,40.45,39.8,40.17,40.05,487000.0,19514579.0,1559399400.0,4534389600.0
sz300856,科思股份,2021-08-19,40.17,40.79,39.86,40.29,40.17,610900.0,24605845.0,1564057800.0,4547935200.0
sz300856,科思股份,2021-08-20,40.22,40.25,38.72,39.13,40.29,927600.0,36329924.0,1519026600.0,4416994400.0
sz300856,科思股份,2021-08-23,38.78,40.88,38.78,40.74,39.13,1305100.0,52437133.0,1581526800.0,4598731200.0
sz300856,科思股份,2021-08-24,40.5,42.23,40.5,40.83,40.74,963800.0,39693930.0,1585020600.0,4608890400.0
sz300856,科思股份,2021-08-25,40.67,40.99,40.16,40.37,40.83,602300.0,24355390.0,1567163400.0,4556965600.0
sz300856,科思股份,2021-08-26,40.56,40.56,39.58,39.6,40.37,624667.0,24980318.0,1537272000.0,4470048000.0
sz300856,科思股份,2021-08-27,39.6,41.29,39.5,40.78,39.6,933300.0,37842556.0,1583079600.0,4603246400.0
sz300856,科思股份,2021-08-30,40.58,41.9,40.1,41.36,40.78,1054200.0,43414333.0,1605595200.0,4668716800.0
sz300856,科思股份,2021-08-31,41.89,41.89,40.24,40.75,41.36,807200.0,33097379.0,1581915000.0,4599860000.0
sz300856,科思股份,2021-09-01,40.87,41.39,39.58,40.35,40.75,852572.0,34443114.0,1566387000.0,4554708000.0
sz300856,科思股份,2021-09-02,40.35,40.53,39.88,40.09,40.35,521900.0,20971902.0,1556293800.0,4525359200.0
sz300856,科思股份,2021-09-03,40.25,42.9,39.77,41.97,40.09,1588120.0,65764668.0,1629275400.0,4737573600.0
sz300856,科思股份,2021-09-06,42.3,42.38,41.06,42.06,41.97,1198409.0,50037196.0,1632769200.0000002,4747732800.0
sz300856,科思股份,2021-09-07,41.7,42.53,41.65,42.15,42.06,766000.0,32270400.0,1636263000.0,4757892000.0
sz300856,科思股份,2021-09-08,42.25,42.34,41.69,42.02,42.15,531500.0,22296695.0,1631216400.0000002,4743217600.0
sz300856,科思股份,2021-09-09,41.98,43.78,41.7,43.12,42.02,1213924.0,52305243.0,1673918400.0,4867385600.0
sz300856,科思股份,2021-09-10,43.23,43.37,42.05,42.19,43.12,836528.0,35415228.0,1637815799.9999998,4762407200.0
sz300856,科思股份,2021-09-13,42.03,42.7,41.57,42.14,42.19,545400.0,22891269.0,1635874800.0,4756763200.0
sz300856,科思股份,2021-09-14,42.07,42.62,41.68,41.87,42.14,507509.0,21346315.0,1625393400.0,4726285600.0
sz300856,科思股份,2021-09-15,41.95,43.5,41.5,42.78,41.87,921928.0,39348879.0,1660719600.0,4829006400.0
sz300856,科思股份,2021-09-16,42.78,44.58,42.25,43.91,42.78,1594148.0,69884602.0,1704586200.0,4956560800.0
sz300856,科思股份,2021-09-17,43.9,44.36,42.5,43.41,43.91,1039287.0,44882196.0,1685176200.0,4900120800.0
sz300856,科思股份,2021-09-22,42.8,43.15,41.65,42.05,43.41,816095.0,34387847.0,1632381000.0,4746604000.0
sz300856,科思股份,2021-09-23,42.27,42.75,41.88,41.97,42.05,615700.0,26026152.0,1629275400.0,4737573600.0
sz300856,科思股份,2021-09-24,41.99,43.2,41.61,42.33,41.97,807500.0,34206728.0,1643250600.0,4778210400.0
sz300856,科思股份,2021-09-27,42.14,42.3,40.07,40.11,42.33,824387.0,33838271.0,1557070200.0,4527616800.0
sz300856,科思股份,2021-09-28,40.15,40.34,39.26,40.16,40.11,517796.0,20662173.0,1559011200.0,4533260800.0
sz300856,科思股份,2021-09-29,40.0,40.16,39.4,39.45,40.16,350320.0,13905876.0,1531449000.0,4453116000.0
sz300856,科思股份,2021-09-30,41.0,41.78,40.34,40.34,39.45,598220.0,24560349.0,1565998800.0,4553579200.0
sz300856,科思股份,2021-10-08,40.94,41.41,40.1,40.8,40.34,550740.0,22474512.0,1583856000.0,4605504000.0
sz300856,科思股份,2021-10-11,40.87,41.3,40.53,40.53,40.8,394020.0,16095933.0,1573374600.0,4575026400.0
sz300856,科思股份,2021-10-12,40.51,40.61,39.0,39.48,40.53,568248.0,22576111.0,1532613599.9999998,4456502400.0
sz300856,科思股份,2021-10-13,39.48,40.15,39.45,39.82,39.48,346020.0,13749289.0,1545812400.0,4494881600.0
sz300856,科思股份,2021-10-14,40.0,40.26,39.62,39.86,39.82,276900.0,11053775.0,1547365200.0,4499396800.0
sz300856,科思股份,2021-10-15,39.86,40.25,39.42,39.51,39.86,390400.0,15512959.0,1533778200.0,4459888800.0
sz300856,科思股份,2021-10-18,39.51,39.52,38.88,39.3,39.51,349300.0,13693537.0,1525626000.0,4436184000.0
sz300856,科思股份,2021-10-19,39.33,39.88,39.22,39.37,39.3,286200.0,11279700.0,1528343400.0,4444085600.0
sz300856,科思股份,2021-10-20,39.38,39.84,39.11,39.63,39.37,274207.0,10828191.0,1538436600.0,4473434400.0
sz300856,科思股份,2021-10-21,39.63,39.63,39.12,39.27,39.63,268820.0,10557821.0,1524461400.0000002,4432797600.0
sz300856,科思股份,2021-10-22,39.06,40.8,38.9,40.28,39.27,674920.0,26989566.0,1563669600.0,4546806400.0
sz300856,科思股份,2021-10-25,43.1,47.84,43.05,47.09,40.28,5039667.0,231281758.0,1828033800.0,5315519200.0
sz300856,科思股份,2021-10-26,45.89,49.3,45.59,47.97,47.09,4366220.0,207555966.0,1862195400.0,5414853600.0
sz300856,科思股份,2021-10-27,46.9,48.02,46.1,47.09,47.97,2503335.0,118148079.0,1828033800.0,5315519200.0
sz300856,科思股份,2021-10-28,46.94,51.17,46.3,49.87,47.09,4467880.0,220450576.0,1935953400.0,5629325600.000001
sz300856,科思股份,2021-10-29,49.2,51.91,48.51,48.97,49.87,3506841.0,174713064.0,1901015400.0,5527733600.0
sz300856,科思股份,2021-11-01,48.8,52.15,47.82,51.63,48.97,3555366.0,179420196.0,2004276600.0,5827994399.999999
sz300856,科思股份,2021-11-02,51.11,51.88,49.86,51.35,51.63,2491029.0,126497745.0,1993407000.0,5796388000.0
sz300856,科思股份,2021-11-03,51.35,51.85,50.02,50.36,51.35,1542020.0,77844612.0,1954975200.0,5684636800.000001
sz300856,科思股份,2021-11-04,50.26,51.22,49.23,51.17,50.36,2030149.0,102063938.0,1986419400.0,5776069600.0
sz300856,科思股份,2021-11-05,50.98,51.73,50.36,51.11,51.17,1448001.0,73871598.0,1984090200.0,5769296800.000001
sz300856,科思股份,2021-11-08,50.93,51.47,48.58,50.81,51.11,1861630.0,92583111.0,1972444200.0,5735432800.0
sz300856,科思股份,2021-11-09,51.21,56.18,50.81,55.21,50.81,3331374.0,181331952.0,2143252200.0,6232104800.0
sz300856,科思股份,2021-11-10,54.7,55.45,54.01,54.66,55.21,1572715.0,86162710.0,2121901200.0,6170020800.0
sz300856,科思股份,2021-11-11,54.9,55.35,52.9,53.06,54.66,1780820.0,95504722.0,2059789200.0,5989412800.0
sz300856,科思股份,2021-11-12,52.95,54.19,52.36,53.4,53.06,1435660.0,76604134.0,2072988000.0,6027792000.0
sz300856,科思股份,2021-11-15,53.69,54.89,51.45,51.96,53.4,1924300.0,100455004.0,2017087200.0,5865244800.0
sz300856,科思股份,2021-11-16,52.0,52.42,50.75,52.06,51.96,1316393.0,68127605.0,2020969200.0,5876532800.0
sz300856,科思股份,2021-11-17,52.07,53.36,51.11,53.17,52.06,1604524.0,83582502.0,2064059400.0,6001829600.0
sz300856,科思股份,2021-11-18,53.17,54.9,51.6,53.4,53.17,2078900.0,111481355.0,2072988000.0,6027792000.0
sz300856,科思股份,2021-11-19,53.1,54.68,52.35,53.5,53.4,1468800.0,78141534.0,2076870000.0,6039080000.0
sz300856,科思股份,2021-11-22,52.99,54.5,52.0,53.34,53.5,1588918.0,84322627.0,2070658800.0,6021019200.0
sz300856,科思股份,2021-11-23,53.97,55.83,53.08,53.85,53.34,1982626.0,108396356.0,2090457000.0,6078588000.0
sz300856,科思股份,2021-11-24,53.8,53.8,52.5,52.7,53.85,1311439.0,69460246.0,2045814000.0,5948776000.0
sz300856,科思股份,2021-11-25,52.59,54.69,51.61,54.4,52.7,1905635.0,101976923.0,2111808000.0,6140672000.0
sz300856,科思股份,2021-11-26,54.36,55.47,53.51,54.46,54.4,1140900.0,62115532.0,2114137200.0,6147444800.0
sz300856,科思股份,2021-11-29,53.68,53.88,52.48,52.81,54.46,1115500.0,59127120.0,2050084200.0000002,5961192800.0
sz300856,科思股份,2021-11-30,52.81,54.33,52.16,53.22,52.81,1240300.0,66342562.0,2066000400.0,6007473600.0
sz300856,科思股份,2021-12-01,53.03,53.86,52.37,53.86,53.22,1066046.0,56704498.0,2090845200.0,6079716800.000001
sz300856,科思股份,2021-12-02,53.5,55.18,50.3,51.02,53.86,2237654.0,115930971.0,1980596400.0000002,5759137600.0
sz300856,科思股份,2021-12-03,50.75,51.7,50.15,51.05,51.02,923007.0,46959863.0,1981761000.0,5762524000.0
sz300856,科思股份,2021-12-06,51.39,51.4,48.67,49.01,51.05,1233600.0,60834130.0,1902568200.0,5532248800.0
sz300856,科思股份,2021-12-07,49.99,52.84,49.21,51.29,49.01,2096954.0,108012047.0,1991077800.0,5789615200.0
sz300856,科思股份,2021-12-08,50.55,58.68,50.3,55.28,51.29,4210136.0,233807820.0,2145969600.0,6240006400.0
sz300856,科思股份,2021-12-09,56.66,57.14,54.0,57.0,55.28,2918818.0,163392870.0,2212740000.0,6434160000.0
sz300856,科思股份,2021-12-10,56.78,59.86,56.5,58.85,57.0,2588380.0,151211829.0,2284557000.0,6642988000.0
sz300856,科思股份,2021-12-13,58.45,58.66,57.0,57.91,58.85,1675900.0,96548514.0,2248066200.0,6536880800.0
sz300856,科思股份,2021-12-14,57.63,58.53,57.35,57.84,57.91,892710.0,51734560.0,2245348800.0,6528979200.0
sz300856,科思股份,2021-12-15,58.5,59.19,57.0,58.4,57.84,1223687.0,71074820.0,2267088000.0,6592192000.0
sz300856,科思股份,2021-12-16,58.02,58.33,56.22,56.4,58.4,979589.0,55631687.0,2189448000.0,6366432000.0
sz300856,科思股份,2021-12-17,56.56,57.38,55.26,55.61,56.4,954800.0,53523834.0,2158780200.0,6277256800.000001
sz300856,科思股份,2021-12-20,55.66,56.35,54.85,56.18,55.61,784167.0,43712662.0,2180907600.0,6341598400.0
sz300856,科思股份,2021-12-21,56.04,56.68,55.35,55.83,56.18,760414.0,42472279.0,2167320600.0,6302090400.0
sz300856,科思股份,2021-12-22,55.53,57.36,55.53,56.2,55.83,570200.0,32138946.0,2181684000.0,6343856000.0
sz300856,科思股份,2021-12-23,56.32,56.5,55.11,55.29,56.2,502108.0,27812700.0,2146357800.0,6241135200.0
sz300856,科思股份,2021-12-24,55.35,55.64,52.15,54.99,55.29,951087.0,51438935.0,2134711800.0,6207271200.0
sz300856,科思股份,2021-12-27,54.77,56.25,53.8,55.94,54.99,652796.0,36275674.0,2171590800.0,6314507200.0
sz300856,科思股份,2021-12-28,56.0,56.79,54.2,54.88,55.94,693000.0,38312882.0,2130441600.0,6194854399.999999
sz300856,科思股份,2021-12-29,54.93,56.45,54.5,54.99,54.88,925900.0,51564445.0,2134711800.0,6207271200.0
sz300856,科思股份,2021-12-30,54.61,55.99,54.48,54.76,54.99,616774.0,33923987.0,2125783200.0,6181308800.0
sz300856,科思股份,2021-12-31,55.5,64.46,55.5,63.17,54.76,4690954.0,286359820.0,2452259400.0,7130629600.0
sz300856,科思股份,2022-01-04,61.74,62.59,59.47,60.04,63.17,2511967.0,151706931.0,2330752800.0,6777315200.0
sz300856,科思股份,2022-01-05,59.91,60.03,58.2,59.15,60.04,1414177.0,83485505.0,2296203000.0,6676852000.0
sz300856,科思股份,2022-01-06,58.82,62.98,58.82,62.0,59.15,1984220.0,121417872.0,2406840000.0,6998560000.0
sz300856,科思股份,2022-01-07,61.36,64.2,60.81,64.1,62.0,2619278.0,165020306.0,2488362000.0,7235608000.0
sz300856,科思股份,2022-01-10,63.01,63.15,59.68,61.1,64.1,1893380.0,115012861.0,2371902000.0,6896968000.0
sz300856,科思股份,2022-01-11,61.0,61.21,59.28,60.73,61.1,1061485.0,63795110.0,2357538600.0,6855202400.0
sz300856,科思股份,2022-01-12,60.41,60.73,59.51,60.3,60.73,780300.0,46920858.0,2340846000.0,6806664000.0
sz300856,科思股份,2022-01-13,60.65,60.65,58.3,58.3,60.3,861700.0,50920641.0,2263206000.0,6580904000.0
sz300856,科思股份,2022-01-14,58.5,60.46,58.0,58.22,58.3,961900.0,57017794.0,2260100400.0,6571873600.0
