数据由邢不行整理
股票代码,股票名称,交易日期,开盘价,最高价,最低价,收盘价,前收盘价,成交量,成交额,流通市值,总市值
sz300564,N筑博,2019-11-08,27.23,32.67,27.23,32.67,22.69,162951.0,5300423.0,816750000.0,3267000000.0
sz300564,筑博设计,2019-11-11,35.94,35.94,35.94,35.94,32.67,69410.0,2494595.0,898500000.0,3594000000.0
sz300564,筑博设计,2019-11-12,39.53,39.53,39.53,39.53,35.94,109229.0,4317822.0,988250000.0,3953000000.0
sz300564,筑博设计,2019-11-13,43.48,43.48,43.48,43.48,39.53,175309.0,7622435.0,1087000000.0,4348000000.0
sz300564,筑博设计,2019-11-14,47.83,47.83,47.83,47.83,43.48,220501.0,10546562.0,1195750000.0,4783000000.0
sz300564,筑博设计,2019-11-15,52.48,52.61,52.2,52.61,47.83,6012807.0,316128833.0,1315250000.0,5261000000.0
sz300564,筑博设计,2019-11-18,52.87,56.0,48.41,49.99,52.61,17262662.0,894402306.0,1249750000.0,4999000000.0
sz300564,筑博设计,2019-11-19,47.0,52.0,47.0,51.71,49.99,12753429.0,636451615.0,1292750000.0,5171000000.0
sz300564,筑博设计,2019-11-20,50.88,51.89,46.56,46.57,51.71,10761005.0,528179042.0,1164250000.0,4657000000.0
sz300564,筑博设计,2019-11-21,45.09,45.09,42.85,43.92,46.57,9716191.0,427511943.0,1098000000.0,4392000000.0
sz300564,筑博设计,2019-11-22,43.7,45.45,42.45,44.62,43.92,9446331.0,418347122.0,1115500000.0,4462000000.0
sz300564,筑博设计,2019-11-25,44.05,44.34,41.22,41.44,44.62,7584462.0,324766014.0,1036000000.0,4144000000.0
sz300564,筑博设计,2019-11-26,40.5,41.2,38.13,38.37,41.44,7473406.0,294829299.0,959250000.0,3837000000.0
sz300564,筑博设计,2019-11-27,38.22,38.94,37.77,38.79,38.37,4588339.0,176517915.0,969750000.0,3879000000.0
sz300564,筑博设计,2019-11-28,38.7,40.12,38.36,38.76,38.79,5223594.0,205395243.0,969000000.0,3876000000.0
sz300564,筑博设计,2019-11-29,38.38,39.87,38.12,39.4,38.76,4950150.0,194025588.0,985000000.0,3940000000.0
sz300564,筑博设计,2019-12-02,39.4,39.6,37.62,38.3,39.4,4811693.0,184625421.0,957500000.0,3830000000.0
sz300564,筑博设计,2019-12-03,37.75,37.78,36.68,37.21,38.3,4003172.0,148475601.0,930250000.0,3721000000.0
sz300564,筑博设计,2019-12-04,36.95,37.36,36.73,37.08,37.21,2937331.0,108862734.0,927000000.0,3708000000.0
sz300564,筑博设计,2019-12-05,37.22,37.59,37.08,37.37,37.08,3479391.0,130021404.0,934250000.0,3737000000.0
sz300564,筑博设计,2019-12-06,37.11,37.25,36.1,36.29,37.37,4150289.0,151757288.0,907250000.0,3629000000.0
sz300564,筑博设计,2019-12-09,36.39,36.98,36.18,36.93,36.29,3022187.0,110839884.0,923250000.0,3693000000.0
sz300564,筑博设计,2019-12-10,36.7,38.06,36.63,37.53,36.93,4856892.0,182321149.0,938250000.0,3753000000.0
sz300564,筑博设计,2019-12-11,37.8,40.24,37.68,39.22,37.53,7294018.0,284402660.0,980500000.0,3922000000.0
sz300564,筑博设计,2019-12-12,38.62,38.88,36.66,36.9,39.22,4893514.0,183406032.0,922500000.0,3690000000.0
sz300564,筑博设计,2019-12-13,36.8,37.75,36.75,37.16,36.9,3185891.0,118830850.0,929000000.0,3716000000.0
sz300564,筑博设计,2019-12-16,37.49,37.68,37.16,37.62,37.16,2906020.0,108771058.0,940500000.0,3762000000.0
sz300564,筑博设计,2019-12-17,37.6,38.28,37.58,37.95,37.62,3729483.0,141092715.0,948750000.0,3795000000.0
sz300564,筑博设计,2019-12-18,38.64,38.92,37.81,38.18,37.95,4326658.0,165920364.0,954500000.0,3818000000.0
sz300564,筑博设计,2019-12-19,37.66,38.12,37.01,37.41,38.18,3555022.0,133473124.0,935250000.0,3741000000.0
sz300564,筑博设计,2019-12-20,37.6,37.73,37.08,37.49,37.41,2633612.0,98663783.0,937250000.0,3749000000.0
sz300564,筑博设计,2019-12-23,37.2,37.47,35.9,35.98,37.49,3008780.0,110485687.0,899500000.0,3598000000.0
sz300564,筑博设计,2019-12-24,36.14,36.31,35.45,36.29,35.98,2324132.0,83423746.0,907250000.0,3629000000.0
sz300564,筑博设计,2019-12-25,36.01,36.25,35.68,35.81,36.29,1889739.0,67813874.0,895250000.0,3581000000.0
sz300564,筑博设计,2019-12-26,35.82,36.3,35.74,36.28,35.81,2094855.0,75526227.0,907000000.0,3628000000.0
sz300564,筑博设计,2019-12-27,36.33,37.05,36.02,36.57,36.28,2925234.0,106865606.0,914250000.0,3657000000.0
sz300564,筑博设计,2019-12-30,36.18,37.49,35.16,37.4,36.57,3595455.0,131293127.0,935000000.0,3740000000.0
sz300564,筑博设计,2019-12-31,37.2,37.93,36.9,37.22,37.4,2818749.0,105098055.0,930500000.0,3722000000.0
sz300564,筑博设计,2020-01-02,37.4,37.59,36.96,37.52,37.22,2827341.0,105618219.0,938000000.0,3752000000.0
sz300564,筑博设计,2020-01-03,37.5,37.52,36.77,36.8,37.52,2987778.0,110676065.0,920000000.0,3680000000.0
sz300564,筑博设计,2020-01-06,36.36,36.7,35.86,36.41,36.8,2371921.0,86016389.0,910250000.0,3641000000.0
sz300564,筑博设计,2020-01-07,36.37,36.88,36.37,36.85,36.41,2098544.0,76867489.0,921250000.0,3685000000.0
sz300564,筑博设计,2020-01-08,36.6,37.5,36.32,36.51,36.85,3055194.0,113048943.0,912750000.0,3651000000.0
sz300564,筑博设计,2020-01-09,36.66,37.1,36.58,36.8,36.51,2070699.0,76167925.0,920000000.0,3680000000.0
sz300564,筑博设计,2020-01-10,37.07,37.5,36.82,37.3,36.8,2903963.0,108048943.0,932500000.0,3730000000.0
sz300564,筑博设计,2020-01-13,37.5,38.56,37.49,37.91,37.3,3588368.0,136367399.0,947750000.0,3791000000.0
sz300564,筑博设计,2020-01-14,37.94,38.39,37.37,38.39,37.91,3495542.0,132245634.0,959750000.0,3839000000.0
sz300564,筑博设计,2020-01-15,38.49,38.76,38.0,38.13,38.39,3429463.0,131654426.0,953250000.0,3813000000.0
sz300564,筑博设计,2020-01-16,38.0,38.19,37.32,37.36,38.13,2661995.0,100268291.0,934000000.0,3736000000.0
sz300564,筑博设计,2020-01-17,37.38,37.76,36.81,36.85,37.36,1994112.0,74374766.0,921250000.0,3685000000.0
sz300564,筑博设计,2020-01-20,36.56,37.12,36.28,36.87,36.85,1998457.0,73428489.0,921750000.0,3687000000.0
sz300564,筑博设计,2020-01-21,36.76,37.0,36.3,36.7,36.87,2047836.0,74955771.0,917500000.0,3670000000.0
sz300564,筑博设计,2020-01-22,36.69,36.79,36.06,36.14,36.7,2251858.0,82052284.0,903500000.0,3614000000.0
sz300564,筑博设计,2020-01-23,35.79,35.98,33.64,34.0,36.14,2350153.0,81914661.0,850000000.0,3400000000.0
sz300564,筑博设计,2020-02-03,30.6,30.6,30.6,30.6,34.0,347200.0,10624320.0,765000000.0,3060000000.0
sz300564,筑博设计,2020-02-04,27.55,29.1,27.55,28.5,30.6,3156086.0,89796092.0,712500000.0,2850000000.0
sz300564,筑博设计,2020-02-05,28.4,29.47,28.4,28.92,28.5,2069560.0,59992732.0,723000000.0,2892000000.0
sz300564,筑博设计,2020-02-06,29.0,29.45,28.65,29.36,28.92,2109922.0,61457860.0,734000000.0,2936000000.0
sz300564,筑博设计,2020-02-07,29.43,29.64,29.09,29.47,29.36,2147554.0,63040550.0,736750000.0,2947000000.0
sz300564,筑博设计,2020-02-10,29.5,30.58,29.31,30.4,29.47,2385697.0,71735546.0,760000000.0,3040000000.0
sz300564,筑博设计,2020-02-11,30.2,30.7,29.81,30.15,30.4,1814745.0,54852563.0,753750000.0,3015000000.0
sz300564,筑博设计,2020-02-12,30.01,30.65,29.87,30.55,30.15,1831194.0,55566527.0,763750000.0,3055000000.0
sz300564,筑博设计,2020-02-13,30.42,30.63,29.88,29.93,30.55,1872115.0,56517492.0,748250000.0,2993000000.0
sz300564,筑博设计,2020-02-14,29.75,30.24,29.52,30.09,29.93,1564836.0,46843463.0,752250000.0,3009000000.0
sz300564,筑博设计,2020-02-17,30.03,31.29,30.01,31.02,30.09,2382792.0,73313211.0,775500000.0,3102000000.0
sz300564,筑博设计,2020-02-18,31.01,31.8,30.83,31.72,31.02,2643695.0,82641886.0,793000000.0,3172000000.0
sz300564,筑博设计,2020-02-19,31.6,31.77,31.11,31.22,31.72,1898163.0,59696445.0,780500000.0,3122000000.0
sz300564,筑博设计,2020-02-20,31.22,31.65,30.88,31.61,31.22,1915548.0,60067443.0,790250000.0,3161000000.0
sz300564,筑博设计,2020-02-21,31.56,32.19,31.5,31.77,31.61,2079426.0,66115219.0,794250000.0,3177000000.0
sz300564,筑博设计,2020-02-24,31.63,32.09,31.0,31.97,31.77,2378437.0,74838875.0,799250000.0,3197000000.0
sz300564,筑博设计,2020-02-25,31.1,31.7,30.12,31.04,31.97,2597286.0,80591912.0,776000000.0,3104000000.0
sz300564,筑博设计,2020-02-26,30.5,33.64,30.18,32.65,31.04,5143326.0,166702323.0,816250000.0,3265000000.0
sz300564,筑博设计,2020-02-27,32.65,34.96,32.02,34.44,32.65,5673207.0,191628119.0,861000000.0,3444000000.0
sz300564,筑博设计,2020-02-28,32.86,34.19,31.31,31.43,34.44,3859480.0,126766648.0,785750000.0,3143000000.0
sz300564,筑博设计,2020-03-02,31.54,34.57,31.53,34.57,31.43,1830827.0,61438052.0,864250000.0,3457000000.0
sz300564,筑博设计,2020-03-03,36.94,38.03,35.5,36.04,34.57,9380242.0,346753765.0,901000000.0,3604000000.0
sz300564,筑博设计,2020-03-04,35.03,37.85,34.88,37.26,36.04,6326208.0,231838621.0,931500000.0,3726000000.0
sz300564,筑博设计,2020-03-05,37.18,37.18,35.7,36.19,37.26,5111540.0,185957769.0,904750000.0,3619000000.0
sz300564,筑博设计,2020-03-06,36.1,36.25,34.71,34.86,36.19,3495503.0,123136542.0,871500000.0,3486000000.0
sz300564,筑博设计,2020-03-09,33.67,34.15,32.45,32.48,34.86,3168544.0,105070392.0,812000000.0,3248000000.0
sz300564,筑博设计,2020-03-10,32.4,33.39,32.03,33.36,32.48,2367295.0,77771204.0,834000000.0,3336000000.0
sz300564,筑博设计,2020-03-11,33.3,33.53,32.4,32.41,33.36,2320398.0,76434092.0,810250000.0,3241000000.0
sz300564,筑博设计,2020-03-12,31.54,31.75,30.08,31.13,32.41,2144329.0,66987602.0,778250000.0,3113000000.0
sz300564,筑博设计,2020-03-13,29.6,30.6,29.01,30.25,31.13,2065406.0,61464789.0,756250000.0,3025000000.0
sz300564,筑博设计,2020-03-16,30.58,31.29,29.4,29.5,30.25,1975053.0,60359103.0,737500000.0,2950000000.0
sz300564,筑博设计,2020-03-17,30.01,30.47,28.96,29.94,29.5,1452067.0,43082422.0,748500000.0,2994000000.0
sz300564,筑博设计,2020-03-18,30.18,30.99,29.9,29.9,29.94,1677586.0,51102906.0,747500000.0,2990000000.0
sz300564,筑博设计,2020-03-19,29.85,30.4,29.31,30.27,29.9,1227623.0,36816113.0,756750000.0,3027000000.0
sz300564,筑博设计,2020-03-20,30.49,30.88,30.2,30.73,30.27,1349810.0,41214930.0,768250000.0,3073000000.0
sz300564,筑博设计,2020-03-23,29.95,30.18,29.31,29.35,30.73,1149521.0,34256467.0,733750000.0,2935000000.0
sz300564,筑博设计,2020-03-24,29.89,30.18,29.3,29.93,29.35,906332.0,26989454.0,748250000.0,2993000000.0
sz300564,筑博设计,2020-03-25,30.49,30.64,30.15,30.5,29.93,1193362.0,36340929.0,762500000.0,3050000000.0
sz300564,筑博设计,2020-03-26,30.43,30.43,29.85,29.88,30.5,988336.0,29801730.0,747000000.0,2988000000.0
sz300564,筑博设计,2020-03-27,30.3,31.6,30.05,30.72,29.88,2480882.0,76788995.0,768000000.0,3072000000.0
sz300564,筑博设计,2020-03-30,30.34,31.68,30.06,31.46,30.72,2284882.0,71067666.0,786500000.0,3146000000.0
sz300564,筑博设计,2020-03-31,31.6,31.8,30.62,31.01,31.46,1715286.0,53143164.0,775250000.0,3101000000.0
sz300564,筑博设计,2020-04-01,31.04,31.29,30.08,30.08,31.01,1414872.0,43460750.0,752000000.0,3008000000.0
sz300564,筑博设计,2020-04-02,29.83,30.35,29.67,30.35,30.08,1194926.0,35826344.0,758750000.0,3035000000.0
sz300564,筑博设计,2020-04-03,30.2,30.3,29.7,29.73,30.35,1075686.0,32172611.0,743250000.0,2973000000.0
sz300564,筑博设计,2020-04-07,30.25,30.47,30.08,30.47,29.73,1242222.0,37615510.0,761750000.0,3047000000.0
sz300564,筑博设计,2020-04-08,30.35,30.77,30.2,30.67,30.47,991286.0,30261184.0,766750000.0,3067000000.0
sz300564,筑博设计,2020-04-09,30.74,30.94,30.63,30.72,30.67,1033858.0,31772458.0,768000000.0,3072000000.0
sz300564,筑博设计,2020-04-10,30.85,30.94,29.9,29.93,30.72,1326308.0,40202542.0,748250000.0,2993000000.0
sz300564,筑博设计,2020-04-13,29.08,29.08,27.18,27.39,29.93,2037772.0,56630307.0,684750000.0,2739000000.0
sz300564,筑博设计,2020-04-14,27.5,27.95,27.5,27.91,27.39,801212.0,22217301.0,697750000.0,2791000000.0
sz300564,筑博设计,2020-04-15,27.96,27.96,27.6,27.67,27.91,809186.0,22483605.0,691750000.0,2767000000.0
sz300564,筑博设计,2020-04-16,27.55,27.78,27.34,27.69,27.67,694483.0,19179372.0,692250000.0,2769000000.0
sz300564,筑博设计,2020-04-17,27.81,28.23,27.62,28.23,27.69,1425686.0,39930511.0,705750000.0,2823000000.0
sz300564,筑博设计,2020-04-20,28.4,29.35,28.24,29.18,28.23,1771197.0,51302467.0,729500000.0,2918000000.0
sz300564,筑博设计,2020-04-21,28.93,29.98,28.4,29.53,29.18,1821800.0,53285540.0,738250000.0,2953000000.0
sz300564,筑博设计,2020-04-22,29.11,29.34,28.86,29.04,29.53,1088058.0,31584391.0,726000000.0,2904000000.0
sz300564,筑博设计,2020-04-23,29.19,29.19,28.23,28.35,29.04,1218508.0,34828357.0,708750000.0,2835000000.0
sz300564,筑博设计,2020-04-24,28.0,28.0,27.5,27.62,28.35,1102358.0,30542035.0,690500000.0,2762000000.0
sz300564,筑博设计,2020-04-27,27.62,27.62,26.85,26.86,27.62,984797.0,26765772.0,671500000.0,2686000000.0
sz300564,筑博设计,2020-04-28,26.81,26.96,24.18,24.92,26.86,1433574.0,36363755.0,623000000.0,2492000000.0
sz300564,筑博设计,2020-04-29,24.87,25.29,24.73,24.93,24.92,562674.0,14072615.0,623250000.0,2493000000.0
sz300564,筑博设计,2020-04-30,25.07,25.47,25.07,25.31,24.93,673769.0,17053765.0,632750000.0,2531000000.0
sz300564,筑博设计,2020-05-06,25.3,25.78,25.11,25.72,25.31,694497.0,17735072.0,643000000.0,2572000000.0
sz300564,筑博设计,2020-05-07,25.78,26.28,25.61,26.08,25.72,937081.0,24320437.0,652000000.0,2608000000.0
sz300564,筑博设计,2020-05-08,26.08,26.88,26.01,26.52,26.08,935081.0,24739666.0,663000000.0,2652000000.0
sz300564,筑博设计,2020-05-11,26.52,28.5,26.24,26.92,26.52,1484968.0,40262721.0,673000000.0,2692000000.0
sz300564,筑博设计,2020-05-12,26.9,26.9,26.25,26.72,26.92,1006408.0,26730089.0,668000000.0,2672000000.0
sz300564,筑博设计,2020-05-13,26.52,27.88,26.44,27.59,26.72,1837120.0,50279132.0,689750000.0,2759000000.0
sz300564,筑博设计,2020-05-14,27.14,27.66,26.68,26.76,27.59,1159372.0,31421496.0,669000000.0,2676000000.0
sz300564,筑博设计,2020-05-15,26.81,27.07,26.51,26.64,26.76,593983.0,15883818.0,666000000.0,2664000000.0
sz300564,筑博设计,2020-05-18,29.3,29.3,28.92,29.3,26.64,3021192.0,88513991.0,732500000.0,2930000000.0
sz300564,筑博设计,2020-05-19,29.95,30.0,28.46,29.0,29.3,5260835.0,154144603.0,725000000.0,2900000000.0
sz300564,筑博设计,2020-05-20,28.53,28.97,27.85,28.1,29.0,2860677.0,80846769.0,702500000.0,2810000000.0
sz300564,筑博设计,2020-05-21,28.18,28.36,27.16,27.18,28.1,1868186.0,51490410.0,679500000.0,2718000000.0
sz300564,筑博设计,2020-05-22,27.2,27.58,26.27,26.3,27.18,1336969.0,35970581.0,657500000.0,2630000000.0
sz300564,筑博设计,2020-05-25,26.3,26.75,25.9,26.4,26.3,785007.0,20591805.0,660000000.0,2640000000.0
sz300564,筑博设计,2020-05-26,26.27,26.67,26.25,26.63,26.4,826249.0,21934830.0,665750000.0,2663000000.0
sz300564,筑博设计,2020-05-27,26.73,28.73,26.61,28.28,26.63,2999460.0,83677714.0,707000000.0,2828000000.0
sz300564,筑博设计,2020-05-28,28.22,28.22,27.15,27.2,28.28,1310304.0,36180931.0,680000000.0,2720000000.0
sz300564,筑博设计,2020-05-29,27.0,27.45,26.88,27.12,27.2,669897.0,18205236.0,678000000.0,2712000000.0
sz300564,筑博设计,2020-06-01,27.38,27.71,27.1,27.66,27.12,1001938.0,27542252.0,691500000.0,2766000000.0
sz300564,筑博设计,2020-06-02,27.8,28.1,27.53,27.88,27.66,1054210.0,29298740.0,697000000.0,2788000000.0
sz300564,筑博设计,2020-06-03,27.86,28.4,27.2,27.33,27.88,1489800.0,41137433.0,683250000.0,2733000000.0
sz300564,筑博设计,2020-06-04,27.57,27.7,27.3,27.54,27.33,766600.0,21068916.0,688500000.0,2754000000.0
sz300564,筑博设计,2020-06-05,27.54,27.67,26.52,26.73,27.54,1515686.0,40823770.0,668250000.0,2673000000.0
sz300564,筑博设计,2020-06-08,26.8,26.97,26.62,26.91,26.73,645473.0,17305486.0,672750000.0,2691000000.0
sz300564,筑博设计,2020-06-09,26.9,27.01,26.73,26.78,26.91,485727.0,13028974.0,669500000.0,2678000000.0
sz300564,筑博设计,2020-06-10,26.94,26.94,26.34,26.39,26.78,626700.0,16629606.0,659750000.0,2639000000.0
sz300564,筑博设计,2020-06-11,26.39,26.62,26.18,26.26,26.39,546986.0,14435421.0,656500000.0,2626000000.0
sz300564,筑博设计,2020-06-12,25.75,26.24,25.6,26.16,26.26,632300.0,16379434.0,654000000.0,2616000000.0
sz300564,筑博设计,2020-06-15,25.91,26.48,25.91,26.03,26.16,440152.0,11540158.0,650750000.0,2603000000.0
sz300564,筑博设计,2020-06-16,26.18,26.5,26.16,26.4,26.03,516893.0,13598406.0,660000000.0,2640000000.0
sz300564,筑博设计,2020-06-17,26.35,26.55,26.2,26.46,26.4,517000.0,13636022.0,661500000.0,2646000000.0
sz300564,筑博设计,2020-06-18,26.46,26.78,26.4,26.73,26.46,646444.0,17240669.0,668250000.0,2673000000.0
sz300564,筑博设计,2020-06-19,26.74,26.78,26.53,26.78,26.73,605800.0,16161316.0,669500000.0,2678000000.0
sz300564,筑博设计,2020-06-22,26.84,27.14,26.6,26.72,26.78,615053.0,16479970.0,668000000.0,2672000000.0
sz300564,筑博设计,2020-06-23,26.58,26.72,26.36,26.53,26.72,564086.0,14932039.0,663250000.0,2653000000.0
sz300564,筑博设计,2020-06-24,26.55,26.65,26.47,26.57,26.53,432800.0,11490389.0,664250000.0,2657000000.0
sz300564,筑博设计,2020-06-29,26.36,26.44,25.82,25.91,26.57,566636.0,14765449.0,647750000.0,2591000000.0
sz300564,筑博设计,2020-06-30,25.93,26.49,25.93,26.3,25.91,484027.0,12728705.0,657500000.0,2630000000.0
sz300564,筑博设计,2020-07-01,26.7,27.14,26.4,26.6,26.3,711970.0,19005603.0,665000000.0,2660000000.0
sz300564,筑博设计,2020-07-02,26.6,27.04,26.55,26.93,26.6,752870.0,20210609.0,673250000.0,2693000000.0
sz300564,筑博设计,2020-07-03,26.83,27.44,26.7,27.29,26.93,1156633.0,31460388.0,682250000.0,2729000000.0
sz300564,筑博设计,2020-07-06,27.48,28.07,27.28,28.03,27.29,1622841.0,45098617.0,700750000.0,2803000000.0
sz300564,筑博设计,2020-07-07,28.0,28.39,27.69,28.13,28.03,1809418.0,50837491.0,703250000.0,2813000000.0
sz300564,筑博设计,2020-07-08,27.9,28.9,27.48,28.45,27.78,2392965.0,67212749.0,711250000.0,2845000000.0
sz300564,筑博设计,2020-07-09,28.24,28.9,28.0,28.74,28.45,2145627.0,61228424.0,718500000.0,2874000000.0
sz300564,筑博设计,2020-07-10,28.46,28.81,28.16,28.25,28.74,1692075.0,48267789.0,706250000.0,2825000000.0
sz300564,筑博设计,2020-07-13,28.26,29.24,28.26,29.01,28.25,1941672.0,55949239.0,725250000.0,2901000000.0
sz300564,筑博设计,2020-07-14,28.99,29.88,28.75,29.79,29.01,2679830.0,79058756.0,744750000.0,2979000000.0
sz300564,筑博设计,2020-07-15,29.55,29.9,28.3,28.33,29.79,2090234.0,60920063.0,708250000.0,2833000000.0
sz300564,筑博设计,2020-07-16,28.56,28.56,27.14,27.29,28.33,1232185.0,34332932.0,682250000.0,2729000000.0
sz300564,筑博设计,2020-07-17,27.28,27.62,26.7,26.7,27.29,1339699.0,36322868.0,667500000.0,2670000000.0
sz300564,筑博设计,2020-07-20,26.86,27.71,26.81,27.6,26.7,1237286.0,33869458.0,690000000.0,2760000000.0
sz300564,筑博设计,2020-07-21,27.53,28.9,27.53,28.02,27.6,1290186.0,36315462.0,700500000.0,2802000000.0
sz300564,筑博设计,2020-07-22,27.9,28.27,27.82,27.93,28.02,1051900.0,29509816.0,698250000.0,2793000000.0
sz300564,筑博设计,2020-07-23,27.71,28.09,27.02,27.72,27.93,1078700.0,29693098.0,693000000.0,2772000000.0
sz300564,筑博设计,2020-07-24,27.73,28.27,26.7,26.7,27.72,1265200.0,34712675.0,667500000.0,2670000000.0
sz300564,筑博设计,2020-07-27,26.89,27.16,26.18,26.4,26.7,655100.0,17337530.0,660000000.0,2640000000.0
sz300564,筑博设计,2020-07-28,26.42,28.08,26.42,27.69,26.4,1216582.0,33183930.0,692250000.0,2769000000.0
sz300564,筑博设计,2020-07-29,27.41,27.87,27.25,27.83,27.69,902453.0,24962608.0,695750000.0,2783000000.0
sz300564,筑博设计,2020-07-30,27.8,28.25,27.58,27.82,27.83,832700.0,23260582.0,695500000.0,2782000000.0
sz300564,筑博设计,2020-07-31,27.82,29.27,27.78,28.88,27.82,2240853.0,64288033.0,722000000.0,2888000000.0
sz300564,筑博设计,2020-08-03,28.96,29.7,28.85,29.2,28.88,1979045.0,57670180.0,730000000.0,2920000000.0
sz300564,筑博设计,2020-08-04,29.19,29.48,28.7,29.04,29.2,1660994.0,48357521.0,726000000.0,2904000000.0
sz300564,筑博设计,2020-08-05,28.9,29.8,28.81,29.22,29.04,1590972.0,46732134.0,730500000.0,2922000000.0
sz300564,筑博设计,2020-08-06,29.01,29.55,28.85,29.19,29.22,1123053.0,32747579.0,729750000.0,2919000000.0
sz300564,筑博设计,2020-08-07,29.32,29.33,28.3,28.84,29.19,941977.0,27052259.0,721000000.0,2884000000.0
sz300564,筑博设计,2020-08-10,28.85,30.58,28.72,30.04,28.84,2660426.0,79491633.0,751000000.0,3004000000.0
sz300564,筑博设计,2020-08-11,30.11,31.4,29.76,30.58,30.04,4623963.0,141819197.0,764500000.0,3058000000.0
sz300564,筑博设计,2020-08-12,30.58,30.58,28.48,29.05,30.58,2679697.0,78274524.0,726250000.0,2905000000.0
sz300564,筑博设计,2020-08-13,29.28,29.78,28.55,28.66,29.05,1360886.0,39496405.0,716500000.0,2866000000.0
sz300564,筑博设计,2020-08-14,28.67,29.85,28.18,29.69,28.66,1675953.0,48827222.0,742250000.0,2969000000.0
sz300564,筑博设计,2020-08-17,29.6,29.76,29.11,29.56,29.69,1332383.0,39188206.0,739000000.0,2956000000.0
sz300564,筑博设计,2020-08-18,29.46,29.55,29.0,29.18,29.56,1052800.0,30809943.0,729500000.0,2918000000.0
sz300564,筑博设计,2020-08-19,29.37,30.87,29.1,29.13,29.18,1593686.0,47360329.0,728250000.0,2913000000.0
sz300564,筑博设计,2020-08-20,29.08,29.15,28.25,28.91,29.13,915072.0,26277803.0,722750000.0,2891000000.0
sz300564,筑博设计,2020-08-21,28.91,29.77,28.8,29.46,28.91,1018959.0,29944853.0,736500000.0,2946000000.0
sz300564,筑博设计,2020-08-24,29.64,30.7,29.33,30.13,29.46,2182100.0,65723314.0,753250000.0,3013000000.0
sz300564,筑博设计,2020-08-25,30.25,31.3,29.92,30.81,30.13,2455588.0,75246335.0,770250000.0,3081000000.0
sz300564,筑博设计,2020-08-26,30.59,31.55,29.79,31.0,30.81,3862886.0,119067417.0,775000000.0,3100000000.0
sz300564,筑博设计,2020-08-27,30.42,35.58,29.82,33.04,31.0,6597118.0,213230403.0,826000000.0,3304000000.0
sz300564,筑博设计,2020-08-28,32.5,34.03,32.15,32.3,33.04,4592450.0,152213366.0,807500000.0,3230000000.0
sz300564,筑博设计,2020-08-31,36.0,38.76,35.76,35.81,32.3,12450768.0,468817345.0,895250000.0,3581000000.0
sz300564,筑博设计,2020-09-01,33.4,35.26,33.04,34.6,35.81,8735684.0,296924846.0,865000000.0,3460000000.0
sz300564,筑博设计,2020-09-02,33.89,35.75,33.8,34.4,34.6,6803553.0,235629115.0,860000000.0,3440000000.0
sz300564,筑博设计,2020-09-03,33.32,33.5,31.3,31.52,34.4,6320843.0,204454639.0,788000000.0,3152000000.0
sz300564,筑博设计,2020-09-04,30.58,32.18,30.45,31.86,31.52,2942045.0,92557347.0,796500000.0,3186000000.0
sz300564,筑博设计,2020-09-07,31.56,32.62,31.4,31.61,31.86,3309058.0,105624374.0,790250000.0,3161000000.0
sz300564,筑博设计,2020-09-08,31.99,32.0,30.7,31.06,31.61,2635953.0,82257716.0,776500000.0,3106000000.0
sz300564,筑博设计,2020-09-09,30.9,32.55,30.5,31.35,31.06,4117600.0,129748192.0,783750000.0,3135000000.0
sz300564,筑博设计,2020-09-10,31.2,31.29,27.7,28.23,31.35,3676032.0,108461841.0,705750000.0,2823000000.0
sz300564,筑博设计,2020-09-11,27.86,29.44,27.86,28.99,28.23,1681500.0,48371604.0,724750000.0,2899000000.0
sz300564,筑博设计,2020-09-14,28.76,30.46,28.56,29.98,28.99,2097800.0,62406743.0,749500000.0,2998000000.0
sz300564,筑博设计,2020-09-15,30.0,30.74,29.55,30.05,29.98,1685100.0,50635227.0,751250000.0,3005000000.0
sz300564,筑博设计,2020-09-16,30.05,30.35,29.2,29.73,30.05,1270900.0,37672679.0,743250000.0,2973000000.0
sz300564,筑博设计,2020-09-17,29.89,30.77,29.51,30.19,29.73,1788883.0,54158664.0,754750000.0,3019000000.0
sz300564,筑博设计,2020-09-18,30.01,31.35,29.76,30.91,30.19,2146782.0,65833475.0,772750000.0,3091000000.0
sz300564,筑博设计,2020-09-21,30.69,32.89,30.63,32.16,30.91,4181014.0,133915073.0,804000000.0,3216000000.0
sz300564,筑博设计,2020-09-22,31.63,32.24,31.01,31.3,32.16,3161190.0,99779438.0,782500000.0,3130000000.0
sz300564,筑博设计,2020-09-23,31.3,31.48,30.7,31.0,31.3,1520083.0,47176013.0,775000000.0,3100000000.0
sz300564,筑博设计,2020-09-24,31.0,31.01,30.08,30.17,31.0,1293797.0,39319802.0,754250000.0,3017000000.0
sz300564,筑博设计,2020-09-25,30.11,30.53,29.6,29.76,30.17,1033886.0,30965582.0,744000000.0,2976000000.0
sz300564,筑博设计,2020-09-28,29.76,30.15,29.36,29.75,29.76,831124.0,24754641.0,743750000.0,2975000000.0
sz300564,筑博设计,2020-09-29,29.81,30.4,29.76,30.06,29.75,806703.0,24294727.0,751500000.0,3006000000.0
sz300564,筑博设计,2020-09-30,29.84,30.53,29.76,29.81,30.06,825586.0,24848294.0,745250000.0,2981000000.0
sz300564,筑博设计,2020-10-09,30.3,30.69,30.11,30.57,29.81,821642.0,25022415.0,764250000.0,3057000000.0
sz300564,筑博设计,2020-10-12,30.92,31.8,30.68,31.63,30.57,1530628.0,47908609.0,790750000.0,3163000000.0
sz300564,筑博设计,2020-10-13,31.63,31.87,31.0,31.3,31.63,1230924.0,38520503.0,782500000.0,3130000000.0
sz300564,筑博设计,2020-10-14,31.3,31.94,31.02,31.92,31.3,1871971.0,59280104.0,798000000.0,3192000000.0
sz300564,筑博设计,2020-10-15,31.9,32.65,30.85,30.93,31.92,2313710.0,73585447.0,773250000.0,3093000000.0
sz300564,筑博设计,2020-10-16,31.5,32.43,30.7,31.8,30.93,2304106.0,73094668.0,795000000.0,3180000000.0
sz300564,筑博设计,2020-10-19,32.38,32.38,31.2,31.66,31.8,2362110.0,75226967.0,791500000.0,3166000000.0
sz300564,筑博设计,2020-10-20,31.71,32.29,31.2,32.21,31.66,1791200.0,57269842.0,805250000.0,3221000000.0
sz300564,筑博设计,2020-10-21,32.49,32.99,31.8,32.58,32.21,2662400.0,86267665.0,814500000.0,3258000000.0
sz300564,筑博设计,2020-10-22,32.42,33.86,31.58,33.51,32.58,4559096.0,150748262.0,837750000.0,3351000000.0
sz300564,筑博设计,2020-10-23,33.46,33.93,32.65,33.15,33.51,3941794.0,130735987.0,828750000.0,3315000000.0
sz300564,筑博设计,2020-10-26,33.08,33.28,32.22,32.58,33.15,2780586.0,91065482.0,814500000.0,3258000000.0
sz300564,筑博设计,2020-10-27,32.67,33.36,31.41,31.92,32.58,2835316.0,92020336.0,798000000.0,3192000000.0
sz300564,筑博设计,2020-10-28,32.16,32.69,31.38,32.35,31.92,2107369.0,67521689.0,808750000.0,3235000000.0
sz300564,筑博设计,2020-10-29,32.3,33.35,31.77,33.18,32.35,2964900.0,97439377.0,829500000.0,3318000000.0
sz300564,筑博设计,2020-10-30,32.88,33.6,31.25,31.28,33.18,3119683.0,101353336.0,782000000.0,3128000000.0
sz300564,筑博设计,2020-11-02,31.62,33.66,30.8,33.27,31.28,4105531.0,132783626.0,831750000.0,3327000000.0
sz300564,筑博设计,2020-11-03,33.0,35.28,33.0,34.23,33.27,4932058.0,166867482.0,855750000.0,3423000000.0
sz300564,筑博设计,2020-11-04,34.01,35.95,33.98,35.0,34.23,5671508.0,198471384.0,875000000.0,3500000000.0
sz300564,筑博设计,2020-11-05,34.84,35.52,34.02,34.85,35.0,4128551.0,143417321.0,871250000.0,3485000000.0
sz300564,筑博设计,2020-11-06,34.8,35.9,33.55,35.12,34.85,5522372.0,191989169.0,878000000.0,3512000000.0
sz300564,筑博设计,2020-11-09,35.3,36.15,34.22,36.15,35.12,5993048.0,211946535.0,903750000.0,3615000000.0
sz300564,筑博设计,2020-11-10,36.09,36.09,34.57,34.92,36.15,3276244.0,114975128.0,873000000.0,3492000000.0
sz300564,筑博设计,2020-11-11,34.65,36.7,34.14,34.14,34.92,4558186.0,161165249.0,853500000.0,3414000000.0
sz300564,筑博设计,2020-11-12,33.9,36.26,32.65,36.05,34.14,5148727.0,180530086.0,901250000.0,3605000000.0
sz300564,筑博设计,2020-11-13,36.5,36.5,34.38,34.71,36.05,3522575.0,123505410.0,867750000.0,3471000000.0
sz300564,筑博设计,2020-11-16,34.33,34.98,33.2,33.38,34.71,3620719.0,122595825.0,834500000.0,3338000000.0
sz300564,筑博设计,2020-11-17,33.35,33.84,32.45,32.5,33.38,2143386.0,70637722.0,934375000.0,3250000000.0
sz300564,筑博设计,2020-11-18,32.62,34.2,32.26,33.28,32.5,3023444.0,100818871.0,956800000.0,3328000000.0
sz300564,筑博设计,2020-11-19,32.89,33.44,32.6,32.9,33.28,1848172.0,60863662.0,945875000.0,3290000000.0
sz300564,筑博设计,2020-11-20,32.65,32.86,31.55,31.73,32.9,2175686.0,69816663.0,912237500.0,3173000000.0
sz300564,筑博设计,2020-11-23,31.7,31.91,30.4,30.63,31.73,2454587.0,75714865.0,925944900.0,3063000000.0
sz300564,筑博设计,2020-11-24,30.63,30.91,30.16,30.23,30.63,1583600.0,48260931.0,913852900.0,3023000000.0
sz300564,筑博设计,2020-11-25,30.23,30.84,30.09,30.5,30.23,1350100.0,41083648.0,922015000.0,3050000000.0
sz300564,筑博设计,2020-11-26,30.31,30.42,29.5,29.77,30.5,1663301.0,49577282.0,899947100.0000001,2977000000.0
sz300564,筑博设计,2020-11-27,29.72,30.08,29.35,29.84,29.77,859700.0,25572929.0,902063200.0,2984000000.0
sz300564,筑博设计,2020-11-30,29.89,30.33,29.61,29.75,29.84,984397.0,29499109.0,899342500.0,2975000000.0
sz300564,筑博设计,2020-12-01,29.74,30.13,29.61,30.0,29.75,1106000.0,33116403.0,906900000.0,3000000000.0
sz300564,筑博设计,2020-12-02,30.0,30.43,29.81,30.15,30.0,1183900.0,35583673.0,911434500.0,3015000000.0
sz300564,筑博设计,2020-12-03,30.0,30.45,28.85,28.88,30.15,3089200.0,91189209.0,873042400.0,2888000000.0
sz300564,筑博设计,2020-12-04,28.88,28.93,28.3,28.79,28.88,1553100.0,44424921.0,870321700.0,2879000000.0
sz300564,筑博设计,2020-12-07,28.87,28.95,28.28,28.3,28.79,1130203.0,32332598.0,855509000.0,2830000000.0
sz300564,筑博设计,2020-12-08,28.39,28.54,28.0,28.12,28.3,990000.0,27981389.0,850067600.0,2812000000.0
sz300564,筑博设计,2020-12-09,28.3,28.66,27.8,27.92,28.12,1330800.0,37523292.0,844021600.0,2792000000.0
sz300564,筑博设计,2020-12-10,27.8,28.1,27.7,27.89,27.92,711400.0,19841195.0,843114700.0,2789000000.0
sz300564,筑博设计,2020-12-11,27.99,27.99,26.71,27.04,27.89,1307986.0,35503448.0,817419200.0,2704000000.0
sz300564,筑博设计,2020-12-14,27.05,27.75,27.0,27.44,27.04,716200.0,19663310.0,829511200.0,2744000000.0
sz300564,筑博设计,2020-12-15,27.6,28.33,27.59,27.82,27.44,934800.0,26092629.0,840998600.0,2782000000.0
sz300564,筑博设计,2020-12-16,27.88,27.91,27.02,27.2,27.82,837597.0,22831414.0,822256000.0,2720000000.0
sz300564,筑博设计,2020-12-17,27.15,27.75,26.82,27.57,27.2,733398.0,20082384.0,833441100.0,2757000000.0
sz300564,筑博设计,2020-12-18,27.5,27.88,27.2,27.24,27.57,727200.0,20030931.0,823465200.0,2724000000.0
sz300564,筑博设计,2020-12-21,27.02,27.36,26.83,27.2,27.24,659442.0,17893857.0,822256000.0,2720000000.0
sz300564,筑博设计,2020-12-22,27.02,27.1,26.06,26.07,27.2,1158700.0,30677914.0,788096100.0,2607000000.0
sz300564,筑博设计,2020-12-23,26.07,26.33,25.55,25.63,26.07,790594.0,20457117.0,774794900.0,2563000000.0
sz300564,筑博设计,2020-12-24,25.63,25.69,24.58,24.64,25.63,1187486.0,29782782.0,744867200.0,2464000000.0
sz300564,筑博设计,2020-12-25,25.0,25.47,24.56,24.9,24.64,1101742.0,27676675.0,752727000.0,2490000000.0
sz300564,筑博设计,2020-12-28,24.69,24.89,24.01,24.03,24.9,1125600.0,27332158.0,726426900.0,2403000000.0
sz300564,筑博设计,2020-12-29,24.39,24.5,23.88,24.26,24.03,750900.0,18178970.0,733379800.0,2426000000.0
sz300564,筑博设计,2020-12-30,24.26,24.75,24.1,24.19,24.26,981914.0,23912924.0,731263700.0,2419000000.0
sz300564,筑博设计,2020-12-31,24.25,24.66,24.21,24.5,24.19,866900.0,21160159.0,740635000.0,2450000000.0
sz300564,筑博设计,2021-01-04,24.54,24.98,24.38,24.92,24.5,1146000.0,28355104.0,753331600.0,2492000000.0
sz300564,筑博设计,2021-01-05,24.92,24.92,24.4,24.55,24.92,1069427.0,26233191.0,742146500.0,2455000000.0
sz300564,筑博设计,2021-01-06,24.31,24.52,23.7,23.72,24.55,1416000.0,33949437.0,717055600.0,2372000000.0
sz300564,筑博设计,2021-01-07,23.61,23.65,21.92,22.0,23.72,2251300.0,50816559.0,665060000.0,2200000000.0
sz300564,筑博设计,2021-01-08,22.21,23.18,21.32,22.55,22.0,1838900.0,41048716.0,681686500.0,2255000000.0
sz300564,筑博设计,2021-01-11,22.48,22.49,21.36,21.48,22.55,1656522.0,36042245.0,649340400.0,2148000000.0
sz300564,筑博设计,2021-01-12,21.31,22.24,21.25,21.8,21.48,897900.0,19610073.0,659014000.0,2180000000.0
sz300564,筑博设计,2021-01-13,21.64,22.5,21.44,22.23,21.8,1356876.0,29770930.0,672012899.9999999,2223000000.0
sz300564,筑博设计,2021-01-14,22.09,23.55,21.94,23.12,22.23,2385600.0,54667922.0,698917600.0,2312000000.0
sz300564,筑博设计,2021-01-15,23.13,23.86,22.74,23.22,23.12,1938118.0,45323693.0,701940600.0,2322000000.0
sz300564,筑博设计,2021-01-18,23.22,24.35,23.2,23.83,23.22,1840300.0,44042320.0,720380900.0,2383000000.0
sz300564,筑博设计,2021-01-19,23.7,24.78,23.68,24.49,23.83,1946500.0,47279662.0,740332700.0,2449000000.0
sz300564,筑博设计,2021-01-20,24.53,24.67,23.81,24.13,24.49,1373886.0,33113526.0,729449900.0,2413000000.0
sz300564,筑博设计,2021-01-21,24.0,24.84,23.58,23.63,24.13,1832400.0,44276189.0,714334900.0,2363000000.0
sz300564,筑博设计,2021-01-22,23.37,23.85,22.93,23.2,23.63,1365400.0,31719447.0,701336000.0,2320000000.0
sz300564,筑博设计,2021-01-25,22.97,23.8,22.73,23.46,23.2,1265536.0,29596917.0,709195800.0,2346000000.0
sz300564,筑博设计,2021-01-26,23.38,24.46,23.18,23.99,23.46,1643636.0,39454105.0,725217700.0,2399000000.0
sz300564,筑博设计,2021-01-27,23.7,24.76,23.33,24.27,23.99,2055018.0,49858512.0,733682100.0000001,2427000000.0
sz300564,筑博设计,2021-01-28,23.95,25.49,23.95,25.1,24.27,2598822.0,64690411.0,847125000.0,2510000000.0
sz300564,筑博设计,2021-01-29,25.03,26.0,24.61,24.88,25.1,2879836.0,72774798.0,839700000.0,2488000000.0
sz300564,筑博设计,2021-02-01,24.7,24.79,24.01,24.24,24.88,1766000.0,43111277.0,818100000.0,2424000000.0
sz300564,筑博设计,2021-02-02,24.11,25.52,24.11,24.8,24.24,1727100.0,43043518.0,837000000.0,2480000000.0
sz300564,筑博设计,2021-02-03,24.52,24.99,24.18,24.66,24.8,1365986.0,33573993.0,832275000.0,2466000000.0
sz300564,筑博设计,2021-02-04,24.5,25.5,24.35,25.38,24.66,2365672.0,59645015.0,856575000.0,2538000000.0
sz300564,筑博设计,2021-02-05,25.4,25.99,24.93,25.3,25.38,2204273.0,56077609.0,853875000.0,2530000000.0
sz300564,筑博设计,2021-02-08,25.2,26.25,24.65,25.85,25.3,2255101.0,57649049.0,872437500.0,2585000000.0
sz300564,筑博设计,2021-02-09,25.8,26.75,25.67,26.2,25.85,2375503.0,62445097.0,884250000.0,2620000000.0
sz300564,筑博设计,2021-02-10,26.2,26.69,25.6,25.76,26.2,1949827.0,50596782.0,869400000.0,2576000000.0
sz300564,筑博设计,2021-02-18,26.07,26.43,25.67,26.0,25.76,1530938.0,39850828.0,877500000.0,2600000000.0
sz300564,筑博设计,2021-02-19,25.82,26.33,25.75,26.25,26.0,1529602.0,39928763.0,885937500.0,2625000000.0
sz300564,筑博设计,2021-02-22,26.25,26.91,26.1,26.25,26.25,2104011.0,55653988.0,885937500.0,2625000000.0
sz300564,筑博设计,2021-02-23,26.12,26.29,25.01,25.02,26.25,2083800.0,53131823.0,844425000.0,2502000000.0
sz300564,筑博设计,2021-02-24,24.85,25.4,24.77,24.79,25.02,1687486.0,42222389.0,836662500.0,2479000000.0
sz300564,筑博设计,2021-02-25,24.81,27.29,24.65,26.9,24.79,4464386.0,117410259.0,907875000.0,2690000000.0
sz300564,筑博设计,2021-02-26,26.03,27.03,25.94,26.3,26.9,2909486.0,76846014.0,887625000.0,2630000000.0
sz300564,筑博设计,2021-03-01,26.2,26.57,26.12,26.31,26.3,1531342.0,40293443.0,887962500.0,2631000000.0
sz300564,筑博设计,2021-03-02,26.32,26.67,25.89,26.4,26.31,1686900.0,44313715.0,891000000.0,2640000000.0
sz300564,筑博设计,2021-03-03,26.4,26.61,26.09,26.26,26.4,1280800.0,33677519.0,886275000.0,2626000000.0
sz300564,筑博设计,2021-03-04,26.36,26.36,25.4,25.5,26.26,1511500.0,39075686.0,860625000.0,2550000000.0
sz300564,筑博设计,2021-03-05,25.5,26.53,25.43,26.09,25.5,1532500.0,39844406.0,880537500.0,2609000000.0
sz300564,筑博设计,2021-03-08,26.03,26.9,25.95,26.24,26.09,2190100.0,58007661.0,885600000.0,2624000000.0
sz300564,筑博设计,2021-03-09,26.25,27.79,26.12,26.85,26.24,4726636.0,128030900.0,906187500.0,2685000000.0
sz300564,筑博设计,2021-03-10,26.3,26.58,25.7,25.93,26.85,2682807.0,70128893.0,875137500.0,2593000000.0
sz300564,筑博设计,2021-03-11,25.94,26.66,25.72,26.3,25.93,1535700.0,40321070.0,887625000.0,2630000000.0
sz300564,筑博设计,2021-03-12,26.07,26.29,25.4,25.4,26.3,2175400.0,55976499.0,857250000.0,2540000000.0
sz300564,筑博设计,2021-03-15,25.4,25.68,24.28,24.47,25.4,1834900.0,45684075.0,825862500.0,2447000000.0
sz300564,筑博设计,2021-03-16,24.4,25.93,24.35,25.86,24.47,2553700.0,65096930.0,872775000.0,2586000000.0
sz300564,筑博设计,2021-03-17,25.78,26.24,25.61,26.11,25.86,1411000.0,36586228.0,881212500.0,2611000000.0
sz300564,筑博设计,2021-03-18,26.11,26.76,25.81,26.55,26.11,1679056.0,44329931.0,896062500.0,2655000000.0
sz300564,筑博设计,2021-03-19,26.32,27.24,26.29,26.35,26.55,1778956.0,47531907.0,889312500.0,2635000000.0
sz300564,筑博设计,2021-03-22,26.85,27.05,26.4,26.61,26.35,1275900.0,34040551.0,898087500.0,2661000000.0
sz300564,筑博设计,2021-03-23,26.58,26.98,26.4,26.8,26.61,1270800.0,33859457.0,904500000.0,2680000000.0
sz300564,筑博设计,2021-03-24,26.51,26.86,25.93,26.19,26.8,1522900.0,40168045.0,883912500.0,2619000000.0
sz300564,筑博设计,2021-03-25,26.26,26.37,25.72,25.73,26.19,1169256.0,30384617.0,868387500.0,2573000000.0
sz300564,筑博设计,2021-03-26,25.85,26.24,25.61,26.12,25.73,925700.0,24106417.0,881550000.0,2612000000.0
sz300564,筑博设计,2021-03-29,26.09,26.65,25.95,26.21,26.12,1093156.0,28762276.0,884587500.0,2621000000.0
sz300564,筑博设计,2021-03-30,26.21,27.42,25.72,26.6,26.21,1964514.0,52281983.0,897750000.0,2660000000.0
sz300564,筑博设计,2021-03-31,26.34,27.13,26.16,27.09,26.6,2320100.0,62414480.0,914287500.0,2709000000.0
sz300564,筑博设计,2021-04-01,26.91,27.09,26.31,26.51,27.09,1511400.0,40269901.0,894712500.0,2651000000.0
sz300564,筑博设计,2021-04-02,26.51,26.83,26.2,26.4,26.51,939800.0,24784837.0,891000000.0,2640000000.0
sz300564,筑博设计,2021-04-06,26.4,26.56,26.26,26.42,26.4,874700.0,23106260.0,891675000.0,2642000000.0
sz300564,筑博设计,2021-04-07,26.36,26.61,26.23,26.36,26.42,854400.0,22519279.0,889650000.0,2636000000.0
sz300564,筑博设计,2021-04-08,26.27,26.41,25.8,25.8,26.36,1194400.0,31068824.0,870750000.0,2580000000.0
sz300564,筑博设计,2021-04-09,25.59,25.97,25.56,25.72,25.8,680000.0,17529146.0,868050000.0,2572000000.0
sz300564,筑博设计,2021-04-12,25.75,26.08,25.48,25.81,25.72,682186.0,17584879.0,871087500.0,2581000000.0
sz300564,筑博设计,2021-04-13,25.97,25.97,25.51,25.64,25.81,540500.0,13914304.0,865350000.0,2564000000.0
sz300564,筑博设计,2021-04-14,25.43,25.86,25.43,25.76,25.64,468200.0,12035550.0,869400000.0,2576000000.0
sz300564,筑博设计,2021-04-15,25.77,26.3,25.71,26.09,25.76,782341.0,20380224.0,880537500.0,2609000000.0
sz300564,筑博设计,2021-04-16,26.09,26.24,26.0,26.22,26.09,637000.0,16660763.0,884925000.0,2622000000.0
sz300564,筑博设计,2021-04-19,26.23,26.44,26.15,26.22,26.22,848400.0,22252601.0,884925000.0,2622000000.0
sz300564,筑博设计,2021-04-20,26.14,26.59,26.13,26.27,26.22,884500.0,23325693.0,886612500.0,2627000000.0
sz300564,筑博设计,2021-04-21,26.27,26.56,26.1,26.38,26.27,841700.0,22235578.0,890325000.0,2638000000.0
sz300564,筑博设计,2021-04-22,26.37,26.53,25.36,25.4,26.38,1834000.0,47416208.0,857250000.0,2540000000.0
sz300564,筑博设计,2021-04-23,25.51,25.52,23.4,23.8,25.4,2851390.0,68592120.0,803250000.0,2380000000.0
sz300564,筑博设计,2021-04-26,23.78,23.78,23.41,23.78,23.8,1324705.0,31218499.0,802575000.0,2378000000.0
sz300564,筑博设计,2021-04-27,23.85,23.85,22.75,23.07,23.78,1168380.0,27014825.0,778612500.0,2307000000.0
sz300564,筑博设计,2021-04-28,23.0,23.0,22.0,22.2,23.07,1772100.0,39802014.0,749250000.0,2220000000.0
sz300564,筑博设计,2021-04-29,22.06,22.78,22.06,22.42,22.2,910186.0,20488766.0,756675000.0,2242000000.0
sz300564,筑博设计,2021-04-30,22.49,22.67,22.14,22.3,22.42,703700.0,15716758.0,752625000.0,2230000000.0
sz300564,筑博设计,2021-05-06,22.48,23.14,22.13,22.67,22.3,671786.0,15221263.0,765112500.0,2267000000.0
sz300564,筑博设计,2021-05-07,22.65,22.68,22.2,22.25,22.67,571600.0,12822919.0,750937500.0,2225000000.0
sz300564,筑博设计,2021-05-10,22.26,22.27,21.36,21.53,22.25,1106019.0,24045255.0,726637500.0,2153000000.0
sz300564,筑博设计,2021-05-11,21.31,21.86,21.31,21.64,21.53,522800.0,11295295.0,730350000.0,2164000000.0
sz300564,筑博设计,2021-05-12,21.61,22.01,21.39,22.01,21.64,492600.0,10698176.0,742837500.0,2201000000.0
sz300564,筑博设计,2021-05-13,21.9,22.6,21.8,22.21,22.01,790000.0,17550131.0,749587500.0,2221000000.0
sz300564,筑博设计,2021-05-14,22.3,22.47,22.2,22.33,22.21,494986.0,11044844.0,753637500.0,2233000000.0
sz300564,筑博设计,2021-05-17,22.3,22.3,21.5,21.57,22.33,984900.0,21374546.0,727987500.0,2157000000.0
sz300564,筑博设计,2021-05-18,21.55,22.24,21.52,22.06,21.57,914800.0,20101825.0,744525000.0,2206000000.0
sz300564,筑博设计,2021-05-19,21.96,22.22,21.7,22.11,22.06,742200.0,16298924.0,746212500.0,2211000000.0
sz300564,筑博设计,2021-05-20,22.0,22.33,21.7,21.73,22.11,706800.0,15533518.0,733387500.0,2173000000.0
sz300564,筑博设计,2021-05-21,21.93,22.05,21.7,21.82,21.73,509400.0,11135813.0,736425000.0,2182000000.0
sz300564,筑博设计,2021-05-24,21.79,21.79,21.33,21.53,21.82,610449.0,13141683.0,726637500.0,2153000000.0
sz300564,筑博设计,2021-05-25,21.43,21.83,21.43,21.74,21.53,525900.0,11381613.0,733725000.0,2174000000.0
sz300564,筑博设计,2021-05-26,21.76,21.92,21.57,21.81,21.74,537300.0,11711245.0,736087500.0,2181000000.0
sz300564,筑博设计,2021-05-27,21.99,22.3,21.9,22.06,21.81,784700.0,17327836.0,744525000.0,2206000000.0
sz300564,筑博设计,2021-05-28,22.0,22.22,21.8,21.91,22.06,723200.0,15865397.0,739462500.0,2191000000.0
sz300564,筑博设计,2021-05-31,21.92,21.93,21.65,21.79,21.91,673267.0,14632778.0,735412500.0,2179000000.0
sz300564,筑博设计,2021-06-01,21.79,22.59,21.79,22.28,21.79,1037700.0,23048377.0,751950000.0,2228000000.0
sz300564,筑博设计,2021-06-02,22.28,22.64,22.18,22.35,22.28,896697.0,20084737.0,754312500.0,2235000000.0
sz300564,筑博设计,2021-06-03,22.4,22.56,22.3,22.4,22.35,547486.0,12267548.0,756000000.0,2240000000.0
sz300564,筑博设计,2021-06-04,22.4,22.4,21.98,22.23,22.4,767900.0,17017752.0,750262500.0,2223000000.0
sz300564,筑博设计,2021-06-07,21.9,21.9,21.65,21.83,21.73,495600.0,10807315.0,736762500.0,2183000000.0
sz300564,筑博设计,2021-06-08,21.94,21.94,21.56,21.67,21.83,598000.0,12949964.0,731362500.0,2167000000.0
sz300564,筑博设计,2021-06-09,21.61,21.79,21.57,21.76,21.67,501586.0,10862002.0,734400000.0,2176000000.0
sz300564,筑博设计,2021-06-10,21.75,21.78,21.61,21.74,21.76,540200.0,11713705.0,733725000.0,2174000000.0
sz300564,筑博设计,2021-06-11,21.74,22.08,21.66,21.81,21.74,720000.0,15752778.0,736087500.0,2181000000.0
sz300564,筑博设计,2021-06-15,21.82,21.9,21.36,21.42,21.81,608349.0,13090623.0,722925000.0,2142000000.0
sz300564,筑博设计,2021-06-16,21.35,21.39,20.84,20.92,21.42,841586.0,17725695.0,706050000.0,2092000000.0
sz300564,筑博设计,2021-06-17,20.84,21.17,20.84,20.97,20.92,376400.0,7889394.0,707737500.0,2097000000.0
sz300564,筑博设计,2021-06-18,20.97,21.66,20.86,21.42,20.97,639686.0,13632538.0,722925000.0,2142000000.0
sz300564,筑博设计,2021-06-21,21.59,21.65,21.27,21.31,21.42,512800.0,10984587.0,719212500.0,2131000000.0
sz300564,筑博设计,2021-06-22,21.34,21.54,21.33,21.51,21.31,458486.0,9825461.0,725962500.0,2151000000.0
sz300564,筑博设计,2021-06-23,21.53,21.53,21.32,21.42,21.51,443200.0,9491312.0,722925000.0,2142000000.0
sz300564,筑博设计,2021-06-24,21.36,22.79,21.35,22.3,21.42,2682846.0,59722863.0,752625000.0,2295339000.0
sz300564,筑博设计,2021-06-25,22.09,23.6,21.81,23.18,22.3,3545800.0,81232573.0,782325000.0,2385917400.0
sz300564,筑博设计,2021-06-28,22.86,23.16,22.35,22.39,23.18,2059400.0,46399046.0,755662500.0,2304602700.0
sz300564,筑博设计,2021-06-29,22.39,22.86,22.04,22.67,22.39,1450400.0,32614908.0,765112500.0,2333423100.0
sz300564,筑博设计,2021-06-30,22.6,22.6,22.13,22.26,22.67,900300.0,20097343.0,751275000.0,2291221800.0
sz300564,筑博设计,2021-07-01,22.32,22.51,21.88,21.97,22.26,812249.0,17993936.0,741487500.0,2261372100.0
sz300564,筑博设计,2021-07-02,22.05,22.66,21.97,22.36,21.97,1184500.0,26503536.0,754650000.0,2301514800.0
sz300564,筑博设计,2021-07-05,22.42,22.45,22.13,22.33,22.36,760346.0,16937374.0,753637500.0,2298426900.0
sz300564,筑博设计,2021-07-06,22.16,22.77,22.04,22.32,22.33,879146.0,19681072.0,753300000.0,2297397600.0
sz300564,筑博设计,2021-07-07,22.37,22.45,21.99,22.09,22.32,979086.0,21650582.0,745537500.0,2273723700.0
sz300564,筑博设计,2021-07-08,22.14,22.14,21.5,21.69,22.09,971200.0,21084699.0,732037500.0,2232551700.0
sz300564,筑博设计,2021-07-09,21.61,21.83,21.55,21.73,21.69,481846.0,10453383.0,733387500.0,2236668900.0
sz300564,筑博设计,2021-07-12,21.88,22.23,21.8,22.05,21.73,858997.0,18937338.0,744187500.0,2269606500.0
sz300564,筑博设计,2021-07-13,21.91,22.54,21.91,22.49,22.05,1258846.0,28115201.0,759037500.0,2314895700.0
sz300564,筑博设计,2021-07-14,22.38,22.79,22.25,22.78,22.49,1261047.0,28440598.0,768825000.0,2344745400.0
sz300564,筑博设计,2021-07-15,22.87,23.49,22.36,22.82,22.78,1595283.0,36495212.0,770175000.0,2348862600.0
sz300564,筑博设计,2021-07-16,22.71,22.97,22.21,22.5,22.82,1390386.0,31339136.0,759375000.0,2315925000.0
sz300564,筑博设计,2021-07-19,22.29,22.49,21.58,21.69,22.5,1296600.0,28365077.0,732037500.0,2232551700.0
sz300564,筑博设计,2021-07-20,21.4,21.93,21.39,21.8,21.69,376200.0,8164355.0,735750000.0,2243874000.0
sz300564,筑博设计,2021-07-21,21.95,23.39,21.95,22.98,21.8,2940983.0,67459280.0,775575000.0,2365331400.0
sz300564,筑博设计,2021-07-22,23.51,24.66,23.28,23.55,22.98,5189229.0,123788446.0,794812500.0,2424001500.0
sz300564,筑博设计,2021-07-23,23.47,23.88,22.71,22.71,23.55,2999900.0,69603096.0,766462500.0,2337540300.0
sz300564,筑博设计,2021-07-26,22.61,22.92,21.9,22.08,22.71,1735825.0,38712596.0,745200000.0,2272694400.0
sz300564,筑博设计,2021-07-27,21.96,22.48,21.54,21.63,22.08,1370600.0,30180186.0,730012500.0,2226375900.0
sz300564,筑博设计,2021-07-28,21.63,21.63,20.58,20.64,21.63,1460000.0,30547757.0,696600000.0,2124475200.0
sz300564,筑博设计,2021-07-29,20.9,21.13,20.77,20.96,20.64,812097.0,17002144.0,707400000.0,2157412800.0
sz300564,筑博设计,2021-07-30,20.81,21.24,20.81,20.98,20.96,654000.0,13711743.0,708075000.0,2159471400.0
sz300564,筑博设计,2021-08-02,20.94,21.33,20.73,21.24,20.98,861700.0,18110818.0,716850000.0,2186233200.0
sz300564,筑博设计,2021-08-03,21.01,21.45,21.01,21.26,21.24,661400.0,14093093.0,717525000.0,2188291800.0
sz300564,筑博设计,2021-08-04,21.11,21.52,21.11,21.36,21.26,649900.0,13906390.0,720900000.0,2198584800.0
sz300564,筑博设计,2021-08-05,21.4,21.5,20.9,21.02,21.36,778300.0,16436955.0,709425000.0,2163588600.0
sz300564,筑博设计,2021-08-06,21.02,21.02,20.81,20.93,21.02,512300.0,10697281.0,706387500.0,2154324900.0
sz300564,筑博设计,2021-08-09,20.81,21.29,20.81,21.21,20.93,475600.0,10048938.0,715837500.0,2183145300.0
sz300564,筑博设计,2021-08-10,21.29,21.43,21.11,21.33,21.21,572700.0,12210535.0,719887500.0,2195496900.0
sz300564,筑博设计,2021-08-11,21.41,21.55,21.33,21.37,21.33,705200.0,15123626.0,721237500.0,2199614100.0
sz300564,筑博设计,2021-08-12,21.37,21.42,21.1,21.14,21.37,770386.0,16337175.0,713475000.0,2175940200.0
sz300564,筑博设计,2021-08-13,21.15,21.27,21.08,21.24,21.14,598100.0,12652979.0,716850000.0,2186233200.0
sz300564,筑博设计,2021-08-16,21.19,21.53,21.09,21.44,21.24,709700.0,15194889.0,723600000.0,2206819200.0
sz300564,筑博设计,2021-08-17,21.44,22.31,21.3,21.45,21.44,1590100.0,34515562.0,723937500.0,2207848500.0
sz300564,筑博设计,2021-08-18,21.44,22.14,21.28,22.03,21.45,1499757.0,32832909.0,743512500.0,2267547900.0
sz300564,筑博设计,2021-08-19,21.78,22.02,21.6,21.82,22.03,955700.0,20823833.0,736425000.0,2245932600.0
sz300564,筑博设计,2021-08-20,21.8,21.8,21.08,21.15,21.82,1103400.0,23501332.0,713812500.0,2176969500.0
sz300564,筑博设计,2021-08-23,21.16,21.73,21.16,21.55,21.15,724500.0,15578017.0,727312500.0,2218141500.0
sz300564,筑博设计,2021-08-24,21.98,21.99,21.37,21.45,21.55,704200.0,15169753.0,723937500.0,2207848500.0
sz300564,筑博设计,2021-08-25,21.45,21.87,21.45,21.81,21.45,846700.0,18413706.0,736087500.0,2244903300.0
sz300564,筑博设计,2021-08-26,21.81,22.09,21.63,21.82,21.81,893900.0,19532107.0,736425000.0,2245932600.0
sz300564,筑博设计,2021-08-27,22.14,22.66,21.91,22.47,21.82,1845397.0,41161148.0,758362500.0,2312837100.0
sz300564,筑博设计,2021-08-30,22.46,22.75,22.13,22.17,22.47,1311597.0,29241774.0,748237500.0,2281958100.0
sz300564,筑博设计,2021-08-31,22.18,23.09,22.18,22.79,22.17,1996130.0,45462383.0,769162500.0,2345774700.0
sz300564,筑博设计,2021-09-01,22.6,23.43,22.41,23.38,22.79,2646086.0,60933028.0,789075000.0,2406503400.0
sz300564,筑博设计,2021-09-02,23.66,24.14,22.98,23.42,23.38,3009600.0,70737507.0,790425000.0,2410620600.0
sz300564,筑博设计,2021-09-03,23.13,23.47,22.75,23.11,23.42,2243886.0,51792405.0,779962500.0,2378712300.0
sz300564,筑博设计,2021-09-06,23.21,23.28,22.85,23.12,23.11,1135036.0,26190437.0,780300000.0,2379741600.0
sz300564,筑博设计,2021-09-07,23.26,23.36,22.95,23.13,23.12,1146636.0,26455496.0,780637500.0,2380770900.0
sz300564,筑博设计,2021-09-08,22.99,23.42,22.93,23.01,23.13,1069600.0,24706100.0,776587500.0,2368419300.0
sz300564,筑博设计,2021-09-09,23.09,23.27,22.84,23.2,23.01,915257.0,21122919.0,783000000.0,2387976000.0
sz300564,筑博设计,2021-09-10,23.26,23.26,22.45,22.52,23.2,1514457.0,34358673.0,760050000.0,2317983600.0
sz300564,筑博设计,2021-09-13,22.6,22.81,22.36,22.69,22.52,732300.0,16549182.0,765787500.0,2335481700.0
sz300564,筑博设计,2021-09-14,22.65,22.7,22.15,22.19,22.69,877500.0,19633212.0,748912500.0,2284016700.0
sz300564,筑博设计,2021-09-15,22.28,23.37,22.19,23.12,22.19,2283015.0,52510350.0,780300000.0,2379741600.0
sz300564,筑博设计,2021-09-16,22.88,23.23,22.52,22.54,23.12,1223700.0,27974172.0,760725000.0,2320042200.0
sz300564,筑博设计,2021-09-17,22.6,22.84,21.81,22.1,22.54,1229600.0,27374150.0,745875000.0,2274753000.0
sz300564,筑博设计,2021-09-22,21.79,22.07,21.6,21.97,22.1,766300.0,16732763.0,741487500.0,2261372100.0
sz300564,筑博设计,2021-09-23,22.04,22.36,21.96,22.05,21.97,691500.0,15294082.0,744187500.0,2269606500.0
sz300564,筑博设计,2021-09-24,22.05,22.1,21.43,21.43,22.05,844200.0,18286950.0,723262500.0,2205789900.0
sz300564,筑博设计,2021-09-27,21.64,21.68,20.83,20.98,21.43,912600.0,19251248.0,708075000.0,2159471400.0
sz300564,筑博设计,2021-09-28,20.99,21.17,20.83,21.06,20.98,500100.0,10507975.0,710775000.0,2167705800.0
sz300564,筑博设计,2021-09-29,20.9,21.03,20.59,20.63,21.06,694800.0,14410604.0,696262500.0,2123445900.0
sz300564,筑博设计,2021-09-30,20.66,21.07,20.66,20.84,20.63,403713.0,8433582.0,703350000.0,2145061200.0
sz300564,筑博设计,2021-10-08,20.97,21.59,20.97,21.38,20.84,588000.0,12559933.0,721575000.0,2200643400.0
sz300564,筑博设计,2021-10-11,21.38,21.63,21.2,21.43,21.38,434172.0,9307219.0,723262500.0,2205789900.0
sz300564,筑博设计,2021-10-12,21.31,21.48,21.07,21.13,21.43,547900.0,11616761.0,713137500.0,2174910900.0
sz300564,筑博设计,2021-10-13,21.1,21.48,21.05,21.41,21.13,437000.0,9325419.0,722587500.0,2203731300.0
sz300564,筑博设计,2021-10-14,21.33,21.58,21.33,21.45,21.41,331300.0,7096645.0,723937500.0,2207848500.0
sz300564,筑博设计,2021-10-15,21.37,21.68,21.26,21.26,21.45,431772.0,9268558.0,717525000.0,2188291800.0
sz300564,筑博设计,2021-10-18,21.26,21.62,21.26,21.42,21.26,465300.0,9995930.0,722925000.0,2204760600.0
sz300564,筑博设计,2021-10-19,21.3,21.43,21.27,21.33,21.42,391800.0,8360281.0,719887500.0,2195496900.0
sz300564,筑博设计,2021-10-20,21.57,21.57,21.08,21.15,21.33,401800.0,8542681.0,713812500.0,2176969500.0
sz300564,筑博设计,2021-10-21,21.17,21.54,21.11,21.21,21.15,457100.0,9738307.0,715837500.0,2183145300.0
sz300564,筑博设计,2021-10-22,21.4,21.43,20.89,20.89,21.21,554600.0,11691092.0,705037500.0,2150207700.0
sz300564,筑博设计,2021-10-25,20.83,21.1,20.65,20.82,20.89,411800.0,8590454.0,702675000.0,2143002600.0
sz300564,筑博设计,2021-10-26,20.82,20.97,20.49,20.53,20.82,676202.0,13955872.0,692887500.0,2113152900.0
sz300564,筑博设计,2021-10-27,20.5,20.51,19.98,19.99,20.53,637300.0,12859691.0,674662500.0,2057570700.0
sz300564,筑博设计,2021-10-28,20.0,20.18,19.58,19.73,19.99,492100.0,9733214.0,665887500.0,2030808900.0
sz300564,筑博设计,2021-10-29,19.53,19.83,19.01,19.79,19.73,1109606.0,21562140.0,667912500.0,2036984700.0
sz300564,筑博设计,2021-11-01,19.59,19.87,19.51,19.75,19.79,450800.0,8888874.0,666562500.0,2032867500.0
sz300564,筑博设计,2021-11-02,19.73,19.86,19.2,19.26,19.75,570300.0,11128159.0,650025000.0,1982431800.0
sz300564,筑博设计,2021-11-03,19.5,19.57,19.26,19.53,19.26,261200.0,5080915.0,659137500.0,2010222900.0
sz300564,筑博设计,2021-11-04,19.56,19.75,19.46,19.72,19.53,316100.0,6216887.0,665550000.0,2029779600.0
sz300564,筑博设计,2021-11-05,19.71,19.79,19.58,19.74,19.72,351305.0,6914832.0,666225000.0,2031838200.0
sz300564,筑博设计,2021-11-08,19.5,19.83,19.5,19.74,19.74,305700.0,6030350.0,666225000.0,2031838200.0
sz300564,筑博设计,2021-11-09,19.8,20.08,19.71,20.08,19.74,478300.0,9545934.0,677700000.0,2066834400.0
sz300564,筑博设计,2021-11-10,19.9,20.11,19.77,20.11,20.08,464600.0,9271794.0,678712500.0,2069922300.0
sz300564,筑博设计,2021-11-11,20.0,20.8,20.0,20.63,20.11,1036942.0,21227633.0,696262500.0,2123445900.0
sz300564,筑博设计,2021-11-12,20.3,20.59,20.16,20.5,20.63,805435.0,16401239.0,691875000.0,2110065000.0
sz300564,筑博设计,2021-11-15,20.49,20.89,20.31,20.79,20.5,762342.0,15779098.0,701662500.0,2139914700.0
sz300564,筑博设计,2021-11-16,20.79,20.97,20.67,20.97,20.79,818600.0,17055135.0,707737500.0,2158442100.0
sz300564,筑博设计,2021-11-17,20.8,22.15,20.78,21.46,20.97,1865466.0,39992421.0,724275000.0,2208877800.0
sz300564,筑博设计,2021-11-18,21.4,21.4,20.87,20.92,21.46,1205873.0,25422762.0,706050000.0,2153295600.0
sz300564,筑博设计,2021-11-19,20.84,21.28,20.8,21.15,20.92,798559.0,16856107.0,713812500.0,2176969500.0
sz300564,筑博设计,2021-11-22,21.06,21.2,20.86,20.99,21.15,480300.0,10080552.0,708412500.0,2160500700.0
sz300564,筑博设计,2021-11-23,21.04,21.32,20.92,21.16,20.99,548300.0,11604360.0,714150000.0,2177998800.0
sz300564,筑博设计,2021-11-24,21.0,21.42,20.88,21.26,21.16,673300.0,14227062.0,717525000.0,2188291800.0
sz300564,筑博设计,2021-11-25,21.34,21.49,21.17,21.21,21.26,581459.0,12392634.0,715837500.0,2183145300.0
sz300564,筑博设计,2021-11-26,21.21,21.35,21.04,21.13,21.21,468200.0,9923988.0,713137500.0,2174910900.0
sz300564,筑博设计,2021-11-29,20.76,21.75,20.76,21.45,21.13,1463246.0,31412344.0,723937500.0,2207848500.0
sz300564,筑博设计,2021-11-30,21.66,22.07,21.28,21.38,21.45,1388031.0,30053544.0,721575000.0,2200643400.0
sz300564,筑博设计,2021-12-01,21.44,22.0,21.34,21.92,21.38,1162632.0,25343373.0,739800000.0,2256225600.0
sz300564,筑博设计,2021-12-02,21.91,22.0,21.61,21.66,21.92,744400.0,16212718.0,731025000.0,2229463800.0
sz300564,筑博设计,2021-12-03,21.67,22.18,21.6,22.06,21.66,852700.0,18737245.0,744525000.0,2270635800.0
sz300564,筑博设计,2021-12-06,22.0,22.78,21.46,21.5,22.06,1971836.0,43681220.0,725625000.0,2212995000.0
sz300564,筑博设计,2021-12-07,21.68,24.47,21.68,23.22,21.5,6043196.0,139947333.0,783675000.0,2390034600.0
sz300564,筑博设计,2021-12-08,22.51,22.96,22.17,22.37,23.22,4120869.0,92369740.0,754987500.0,2302544100.0
sz300564,筑博设计,2021-12-09,22.06,22.77,22.06,22.07,22.37,2106832.0,47053906.0,744862500.0,2271665100.0
sz300564,筑博设计,2021-12-10,21.95,22.24,21.55,22.09,22.07,1647546.0,36040035.0,745537500.0,2273723700.0
sz300564,筑博设计,2021-12-13,22.27,22.4,21.88,22.27,22.09,1452905.0,32198947.0,751612500.0,2292251100.0
sz300564,筑博设计,2021-12-14,22.03,22.39,21.94,22.26,22.27,1252307.0,27751189.0,751275000.0,2291221800.0
sz300564,筑博设计,2021-12-15,22.24,22.79,22.07,22.6,22.26,1876600.0,42345414.0,762750000.0,2326218000.0
sz300564,筑博设计,2021-12-16,22.7,22.77,22.45,22.55,22.6,1258800.0,28417275.0,761062500.0,2321071500.0
sz300564,筑博设计,2021-12-17,22.66,22.68,22.18,22.23,22.55,1100800.0,24577847.0,750262500.0,2288133900.0
sz300564,筑博设计,2021-12-20,22.22,22.43,22.08,22.09,22.23,866200.0,19271116.0,745537500.0,2273723700.0
sz300564,筑博设计,2021-12-21,22.06,22.66,22.06,22.49,22.09,822500.0,18483969.0,759037500.0,2314895700.0
sz300564,筑博设计,2021-12-22,22.63,22.77,22.27,22.33,22.49,756900.0,17016571.0,753637500.0,2298426900.0
sz300564,筑博设计,2021-12-23,22.6,23.94,22.5,22.68,22.33,2465800.0,56553332.0,765450000.0,2334452400.0
sz300564,筑博设计,2021-12-24,22.52,22.75,21.59,21.62,22.68,1849485.0,40774423.0,729675000.0,2225346600.0
sz300564,筑博设计,2021-12-27,21.5,21.79,21.21,21.59,21.62,717900.0,15439072.0,728662500.0,2222258700.0
sz300564,筑博设计,2021-12-28,21.75,22.18,21.6,22.02,21.59,793200.0,17397057.0,743175000.0,2266518600.0
sz300564,筑博设计,2021-12-29,22.22,22.22,21.75,21.84,22.02,533472.0,11696781.0,737100000.0,2247991200.0
sz300564,筑博设计,2021-12-30,21.68,22.18,21.68,22.1,21.84,724000.0,15965133.0,745875000.0,2274753000.0
sz300564,筑博设计,2021-12-31,22.1,22.35,21.95,21.95,22.1,670107.0,14829950.0,740812500.0,2259313500.0
sz300564,筑博设计,2022-01-04,21.98,23.2,21.92,22.9,21.95,2166102.0,49277373.0,772875000.0,2357097000.0
sz300564,筑博设计,2022-01-05,23.07,23.4,22.77,23.03,22.9,1578800.0,36428877.0,777262500.0,2370477900.0
sz300564,筑博设计,2022-01-06,22.87,23.44,22.87,23.19,23.03,1220036.0,28358507.0,782662500.0,2386946700.0
sz300564,筑博设计,2022-01-07,23.6,23.68,22.64,22.68,23.19,1046986.0,24079733.0,765450000.0,2334452400.0
sz300564,筑博设计,2022-01-10,22.84,23.35,22.43,23.31,22.68,1096400.0,25321915.0,786712500.0,2399298300.0
sz300564,筑博设计,2022-01-11,23.3,23.82,23.19,23.33,23.31,1354400.0,31770512.0,787387500.0,2401356900.0
sz300564,筑博设计,2022-01-12,23.36,23.55,23.18,23.34,23.33,830400.0,19403800.0,787725000.0,2402386200.0
sz300564,筑博设计,2022-01-13,23.67,23.74,23.02,23.11,23.34,803800.0,18722577.0,779962500.0,2378712300.0
sz300564,筑博设计,2022-01-14,23.37,23.37,22.6,22.66,23.11,963835.0,22003833.0,764775000.0,2332393800.0
