数据由邢不行整理
股票代码,股票名称,交易日期,开盘价,最高价,最低价,收盘价,前收盘价,成交量,成交额,流通市值,总市值
sz300868,N杰美特,2020-08-24,67.94,81.49,60.2,75.27,41.26,16350606.0,1118691046.0,2284470242.34,9634560000.0
sz300868,C杰美特,2020-08-25,70.01,95.6,70.01,86.08,75.27,17427548.0,1379761172.0,2612557439.36,11018240000.0
sz300868,C杰美特,2020-08-26,81.0,92.41,77.77,77.88,86.08,13425402.0,1119608739.0,2363684634.96,9968640000.0
sz300868,C杰美特,2020-08-27,74.01,76.88,66.0,66.2,77.88,11577855.0,805794915.0,2009192640.4,8473600000.0
sz300868,C杰美特,2020-08-28,64.5,65.4,58.49,58.6,66.2,9016497.0,551177789.0,1778530041.2,7500800000.0
sz300868,杰美特,2020-08-31,58.99,60.0,57.0,59.18,58.6,6085556.0,357461760.0,1796133239.5600002,7575040000.0
sz300868,杰美特,2020-09-01,58.0,58.59,54.92,55.6,59.18,6616708.0,374757593.0,1687479015.2,7116800000.0
sz300868,杰美特,2020-09-02,56.08,56.48,54.04,55.41,55.6,5011920.0,277348748.0,1681712450.2199998,7092480000.0
sz300868,杰美特,2020-09-03,55.42,55.44,51.34,51.4,55.41,5964507.0,315943896.0,1560007578.8,6579200000.0
sz300868,杰美特,2020-09-04,49.64,53.0,49.38,51.66,51.4,4265583.0,219356227.0,1567898667.72,6612480000.0
sz300868,杰美特,2020-09-07,51.18,52.18,49.88,50.34,51.66,4118820.0,209631854.0,1527836216.28,6443520000.0
sz300868,杰美特,2020-09-08,50.65,51.65,50.28,50.37,50.34,3008721.0,152584971.0,1528746726.54,6447360000.0
sz300868,杰美特,2020-09-09,49.82,49.82,46.49,46.49,50.37,4754054.0,227004216.0,1410987399.58,5950720000.0
sz300868,杰美特,2020-09-10,46.92,47.38,43.1,43.15,46.49,4139377.0,185964776.0,1309617257.3,5523200000.0
sz300868,杰美特,2020-09-11,42.96,47.37,42.96,46.44,43.15,4755567.0,215946723.0,1409469882.48,5944320000.0
sz300868,杰美特,2020-09-14,45.8,49.98,45.75,49.51,46.44,5823604.0,278468923.0,1502645432.42,6337280000.0
sz300868,杰美特,2020-09-15,49.0,52.08,47.5,49.16,49.51,6992402.0,347582610.0,1492022812.72,6292480000.0
sz300868,杰美特,2020-09-16,48.1,56.87,47.37,54.54,49.16,10277372.0,530824941.0,1655307652.6799998,6981120000.0
sz300868,杰美特,2020-09-17,52.67,58.25,52.31,53.5,54.54,12210177.0,673701938.0,1623743297.0,6848000000.0
sz300868,杰美特,2020-09-18,52.22,54.47,50.81,51.65,53.5,6127786.0,319418163.0,1567595164.3,6611200000.0
sz300868,杰美特,2020-09-21,51.06,52.94,50.11,52.21,51.65,4055223.0,209554630.0,1584591355.82,6682880000.0
sz300868,杰美特,2020-09-22,51.0,51.8,49.73,49.75,52.21,3493774.0,177312446.0,1509929514.5,6368000000.0
sz300868,杰美特,2020-09-23,49.75,52.0,49.75,51.64,49.75,4196824.0,215495425.0,1567291660.88,6609920000.0
sz300868,杰美特,2020-09-24,51.24,54.9,51.15,52.6,51.64,7082088.0,374816830.0,1596427989.2,6732800000.0
sz300868,杰美特,2020-09-25,52.5,54.8,51.78,54.16,52.6,7055356.0,378084321.0,1643774522.72,6932480000.0
sz300868,杰美特,2020-09-28,54.22,56.86,49.0,49.1,54.16,7193291.0,383953426.0,1490201792.1999998,6284800000.0
sz300868,杰美特,2020-09-29,48.1,51.78,48.1,48.58,49.1,4124312.0,204656476.0,1474419614.36,6218240000.0
sz300868,杰美特,2020-09-30,48.5,49.4,46.68,47.0,48.58,3914670.0,186647143.0,1426466074.0,6016000000.0
sz300868,杰美特,2020-10-09,48.18,51.46,47.5,51.3,47.0,5654385.0,283038944.0,1556972544.6,6566400000.0
sz300868,杰美特,2020-10-12,53.27,53.64,51.48,53.47,51.3,5275047.0,278851298.0,1622832786.74,6844160000.0
sz300868,杰美特,2020-10-13,52.91,56.9,52.48,54.36,53.47,7557694.0,414423445.0,1649844591.12,6958080000.0
sz300868,杰美特,2020-10-14,53.03,57.55,53.03,56.34,54.36,9344399.0,519611949.0,1709938268.28,7211520000.0
sz300868,杰美特,2020-10-15,55.51,56.04,52.5,54.15,56.34,6753859.0,365809494.0,1643471019.3,6931200000.0
sz300868,杰美特,2020-10-16,53.56,55.77,53.01,54.4,54.15,4212441.0,229559195.0,1651058604.8,6963200000.0
sz300868,杰美特,2020-10-19,55.5,56.5,52.7,53.52,54.4,4030953.0,219506959.0,1624350303.8400002,6850560000.0
sz300868,杰美特,2020-10-20,53.14,57.39,53.14,57.3,53.52,7979001.0,446075692.0,1739074596.6,7334400000.0
sz300868,杰美特,2020-10-21,58.3,60.69,57.3,58.17,57.3,10955561.0,643243403.0,1765479394.14,7445760000.0
sz300868,杰美特,2020-10-22,56.51,59.77,56.26,56.63,58.17,7849578.0,454312271.0,1718739867.46,7248640000.0
sz300868,杰美特,2020-10-23,56.63,58.9,55.7,57.62,56.63,6872326.0,394958126.0,1748786706.0400002,7375360000.0
sz300868,杰美特,2020-10-26,56.56,57.59,54.0,56.61,57.62,4739657.0,265357863.0,1718132860.62,7246080000.0
sz300868,杰美特,2020-10-27,55.9,56.56,54.0,55.38,56.61,4322275.0,238609000.0,1680801939.9599998,7088640000.0
sz300868,杰美特,2020-10-28,55.2,59.8,55.2,59.35,55.38,8944219.0,519585026.0,1801292797.7,7596800000.0
sz300868,杰美特,2020-10-29,56.62,59.07,56.62,57.09,59.35,7377428.0,426478300.0,1732701024.78,7307520000.0
sz300868,杰美特,2020-10-30,57.18,58.2,52.03,52.05,57.09,6183467.0,337644206.0,1579735301.1,6662400000.0
sz300868,杰美特,2020-11-02,51.14,52.9,50.76,51.94,52.05,3347391.0,173275665.0,1576396763.48,6648320000.0
sz300868,杰美特,2020-11-03,52.0,52.78,51.7,52.5,51.94,2749325.0,143702862.0,1593392955.0,6720000000.0
sz300868,杰美特,2020-11-04,52.8,52.8,49.5,50.83,52.5,2945336.0,150704573.0,1542707883.86,6506240000.0
sz300868,杰美特,2020-11-05,51.65,56.67,51.45,56.5,50.83,7014710.0,380601325.0,1714794322.9999998,7232000000.0
sz300868,杰美特,2020-11-06,56.01,58.21,55.55,57.57,56.5,7123006.0,405673529.0,1747269188.94,7368960000.0
sz300868,杰美特,2020-11-09,57.54,58.97,56.54,58.93,57.57,7217136.0,418766012.0,1788545654.0600002,7543040000.0
sz300868,杰美特,2020-11-10,58.61,58.65,56.38,57.48,58.93,4613333.0,265071436.0,1744537658.16,7357440000.0
sz300868,杰美特,2020-11-11,56.91,57.7,55.7,56.1,57.48,3586206.0,202962156.0,1702654186.2,7180800000.0
sz300868,杰美特,2020-11-12,56.39,56.85,53.36,54.73,56.1,3675261.0,202444397.0,1661074217.66,7005440000.0
sz300868,杰美特,2020-11-13,54.0,57.5,53.2,56.99,54.73,5103548.0,285808029.0,1729665990.58,7294720000.0
sz300868,杰美特,2020-11-16,57.21,57.87,55.9,57.24,56.99,4750243.0,270209800.0,1737253576.08,7326720000.0
sz300868,杰美特,2020-11-17,56.87,58.0,53.3,54.28,57.24,4470941.0,246209299.0,1647416563.76,6947840000.0
sz300868,杰美特,2020-11-18,54.0,54.33,52.66,53.0,54.28,3017425.0,160706270.0,1608568126.0,6784000000.0
sz300868,杰美特,2020-11-19,52.88,53.55,52.2,53.5,53.0,1984881.0,105231341.0,1623743297.0,6848000000.0
sz300868,杰美特,2020-11-20,53.0,53.26,51.61,52.34,53.5,2478605.0,129580298.0,1588536900.2800002,6699520000.0
sz300868,杰美特,2020-11-23,52.02,52.33,51.39,52.12,52.34,1852816.0,96160632.0,1581859825.0400002,6671360000.0
sz300868,杰美特,2020-11-24,52.16,52.95,51.81,51.82,52.12,1803589.0,94660061.0,1572754722.44,6632960000.0
sz300868,杰美特,2020-11-25,51.7,51.7,49.7,49.75,51.82,2627723.0,132559411.0,1509929514.5,6368000000.0
sz300868,杰美特,2020-11-26,50.05,50.28,49.0,50.16,49.75,1606193.0,79942341.0,1522373154.7199998,6420480000.0
sz300868,杰美特,2020-11-27,49.82,50.2,48.01,48.25,50.16,1805546.0,88149097.0,1464404001.5,6176000000.0
sz300868,杰美特,2020-11-30,48.0,48.5,46.98,47.58,48.25,1510520.0,72139445.0,1444069272.36,6090240000.0
sz300868,杰美特,2020-12-01,47.58,48.8,47.58,48.3,47.58,1373664.0,66400814.0,1465921518.6,6182400000.0
sz300868,杰美特,2020-12-02,48.68,48.85,48.1,48.77,48.3,1343800.0,65234851.0,1480186179.3400002,6242560000.0
sz300868,杰美特,2020-12-03,48.65,49.5,48.02,48.88,48.77,1607668.0,78630528.0,1483524716.96,6256640000.0
sz300868,杰美特,2020-12-04,48.6,48.87,47.7,47.74,48.88,1366200.0,65835416.0,1448925327.0800002,6110720000.0
sz300868,杰美特,2020-12-07,47.7,47.85,46.88,46.88,47.74,1207329.0,57131140.0,1422824032.96,6000640000.0
sz300868,杰美特,2020-12-08,46.23,46.91,45.14,45.25,46.88,2505229.0,114972128.0,1373352975.5,5792000000.0
sz300868,杰美特,2020-12-09,45.4,45.8,44.15,45.22,45.25,2052221.0,92494097.0,1372442465.2399998,5788160000.0
sz300868,杰美特,2020-12-10,44.7,45.96,44.38,45.04,45.22,1416914.0,64116534.0,1366979403.68,5765120000.0
sz300868,杰美特,2020-12-11,45.09,45.27,43.44,43.82,45.04,1620784.0,71621746.0,1329951986.4399998,5608960000.0
sz300868,杰美特,2020-12-14,43.77,44.64,43.6,44.03,43.82,1048601.0,46322726.0,1336325558.26,5635840000.0
sz300868,杰美特,2020-12-15,44.03,44.37,43.81,44.0,44.03,866727.0,38162201.0,1335415048.0,5632000000.0
sz300868,杰美特,2020-12-16,44.0,44.21,42.55,42.6,44.0,1371636.0,59262143.0,1292924569.2,5452800000.0
sz300868,杰美特,2020-12-17,42.39,43.65,42.36,43.39,42.6,1223678.0,52720220.0,1316901339.38,5553920000.0
sz300868,杰美特,2020-12-18,43.3,43.69,42.75,42.82,43.39,973201.0,41976163.0,1299601644.44,5480960000.0
sz300868,杰美特,2020-12-21,42.65,43.23,42.35,42.95,42.82,1003259.0,43074666.0,1303547188.9,5497600000.0
sz300868,杰美特,2020-12-22,42.95,44.4,42.45,43.06,42.95,1891828.0,82082159.0,1306885726.52,5511680000.0
sz300868,杰美特,2020-12-23,42.75,44.35,42.7,44.24,43.06,2060835.0,90033305.0,1342699130.08,5662720000.0
sz300868,杰美特,2020-12-24,43.89,44.48,42.66,42.67,44.24,1836000.0,79917383.0,1295049093.14,5461760000.0
sz300868,杰美特,2020-12-25,42.67,44.0,42.49,43.68,42.67,1363300.0,59305224.0,1325702938.56,5591040000.0
sz300868,杰美特,2020-12-28,43.21,44.49,43.1,44.26,43.68,1721241.0,75808361.0,1343306136.92,5665280000.0
sz300868,杰美特,2020-12-29,44.35,46.49,44.08,45.76,44.26,2807427.0,128000955.0,1388831649.92,5857280000.0
sz300868,杰美特,2020-12-30,45.49,45.5,44.3,44.9,45.76,2048624.0,91723185.0,1362730355.8,5747200000.0
sz300868,杰美特,2020-12-31,45.0,45.48,44.39,44.65,44.9,1688193.0,75831129.0,1355142770.3,5715200000.0
sz300868,杰美特,2021-01-04,44.5,45.68,44.17,45.44,44.65,1797936.0,81185734.0,1379119540.4800005,5816320000.0
sz300868,杰美特,2021-01-05,45.25,45.6,44.5,44.72,45.44,1821033.0,81767656.0,1357267294.24,5724160000.0
sz300868,杰美特,2021-01-06,44.48,44.48,41.54,41.74,44.72,3147147.0,133857970.0,1266823275.08,5342720000.0
sz300868,杰美特,2021-01-07,41.59,41.6,38.1,38.62,41.74,2840968.0,112371266.0,1172130208.04,4943360000.0
sz300868,杰美特,2021-01-08,38.88,39.7,37.38,38.18,38.62,1499793.0,57914455.0,1158776057.56,4887040000.0
sz300868,杰美特,2021-01-11,38.2,38.4,35.5,36.44,38.18,2288153.0,84258809.0,1105966462.48,4664320000.0
sz300868,杰美特,2021-01-12,36.44,37.24,35.91,36.75,36.44,1205526.0,44206577.0,1115375068.5,4704000000.0
sz300868,杰美特,2021-01-13,36.72,36.72,35.1,35.17,36.75,1530240.0,54320285.0,1067421528.14,4501760000.0
sz300868,杰美特,2021-01-14,35.0,37.37,35.0,36.51,35.17,2083596.0,75825390.0,1108090986.42,4673280000.0
sz300868,杰美特,2021-01-15,36.44,39.99,36.18,38.92,36.51,3050782.0,117986404.0,1181235310.64,4981760000.0
sz300868,杰美特,2021-01-18,38.8,39.86,38.3,38.55,38.92,1950012.0,75784443.0,1170005684.1,4934400000.0
sz300868,杰美特,2021-01-19,38.56,40.18,38.25,39.1,38.55,2089779.0,82318591.0,1186698372.2,5004800000.0
sz300868,杰美特,2021-01-20,38.9,39.67,38.6,38.85,39.1,1309524.0,50954841.0,1179110786.7,4972800000.0
sz300868,杰美特,2021-01-21,38.89,39.48,37.98,38.38,38.85,1439029.0,55397276.0,1164846125.96,4912640000.0
sz300868,杰美特,2021-01-22,38.28,39.09,37.6,37.6,38.38,1464282.0,55990577.0,1141172859.2,4812800000.0
sz300868,杰美特,2021-01-25,37.48,37.48,36.02,36.05,37.6,1398290.0,51184632.0,1094129829.1,4614400000.0
sz300868,杰美特,2021-01-26,36.01,37.75,35.95,36.34,36.05,1560296.0,57727814.0,1102931428.28,4651520000.0
sz300868,杰美特,2021-01-27,36.11,37.25,36.11,36.93,36.34,1301318.0,47808327.0,1120838130.06,4727040000.0
sz300868,杰美特,2021-01-28,36.49,37.48,35.91,36.04,36.93,1199932.0,44016441.0,1093826325.68,4613120000.0
sz300868,杰美特,2021-01-29,36.39,36.7,35.33,36.3,36.04,1224700.0,44183854.0,1101717414.6,4646400000.0
sz300868,杰美特,2021-02-01,36.3,37.96,36.11,37.96,36.3,1915697.0,71621965.0,1152098982.3200002,4858880000.0
sz300868,杰美特,2021-02-02,37.74,38.49,36.45,36.59,37.96,1836362.0,68673911.0,1110519013.78,4683520000.0
sz300868,杰美特,2021-02-03,36.5,36.62,35.35,35.38,36.59,1362001.0,48850984.0,1073795099.96,4528640000.0
sz300868,杰美特,2021-02-04,35.07,38.38,35.07,37.58,35.38,2804253.0,103590606.0,1140565852.36,4810240000.0
sz300868,杰美特,2021-02-05,37.5,37.56,35.4,35.58,37.58,1901877.0,69454378.0,1079865168.36,4554240000.0
sz300868,杰美特,2021-02-08,35.69,36.3,33.55,33.56,35.58,1817922.0,62393855.0,1018557477.52,4295680000.0
sz300868,杰美特,2021-02-09,33.54,34.35,33.53,33.8,33.56,1015932.0,34530184.0,1025841559.6,4326400000.0
sz300868,杰美特,2021-02-10,33.96,34.3,33.55,33.56,33.8,1014551.0,34397272.0,1018557477.52,4295680000.0
sz300868,杰美特,2021-02-18,34.02,34.97,34.02,34.64,33.56,1298404.0,44899081.0,1051335846.88,4433920000.0
sz300868,杰美特,2021-02-19,34.64,35.74,34.32,35.61,34.64,1341071.0,47211170.0,1080775678.62,4558080000.0
sz300868,杰美特,2021-02-22,35.9,36.48,35.52,35.6,35.61,1650692.0,59470802.0,1080472175.2,4556800000.0
sz300868,杰美特,2021-02-23,35.32,35.8,34.69,35.41,35.6,1110039.0,39070327.0,1074705610.22,4532480000.0
sz300868,杰美特,2021-02-24,35.03,36.2,34.77,35.59,35.41,1912882.0,67767926.0,1138862205.0,4555520000.0
sz300868,杰美特,2021-02-25,35.72,35.72,34.11,34.21,35.59,1887656.0,65430073.0,1094702895.0,4378880000.0
sz300868,杰美特,2021-02-26,33.99,34.53,33.73,34.1,34.21,1091117.0,37311306.0,1091182950.0,4364800000.0
sz300868,杰美特,2021-03-01,34.19,35.13,34.15,35.13,34.1,1512794.0,52708304.0,1124142435.0,4496640000.0
sz300868,杰美特,2021-03-02,35.16,35.37,34.43,34.86,35.13,1158329.0,40247817.0,1115502570.0,4462080000.0
sz300868,杰美特,2021-03-03,34.57,35.17,34.57,35.15,34.86,1167383.0,40835815.0,1124782425.0,4499200000.0
sz300868,杰美特,2021-03-04,34.82,36.59,34.81,35.84,35.15,2983949.0,107163651.0,1146862080.0,4587520000.0
sz300868,杰美特,2021-03-05,35.84,36.54,35.4,36.25,35.84,2467133.0,89212557.0,1159981875.0,4640000000.0
sz300868,杰美特,2021-03-08,36.35,37.34,36.0,36.49,36.25,2564308.0,94280789.0,1167661755.0,4670720000.0
sz300868,杰美特,2021-03-09,36.23,36.54,33.79,35.11,36.49,2261132.0,79981728.0,1123502445.0,4494080000.0
sz300868,杰美特,2021-03-10,35.57,35.79,34.14,34.25,35.11,1479371.0,51298346.0,1095982875.0,4384000000.0
sz300868,杰美特,2021-03-11,34.45,34.64,33.91,34.55,34.25,1113948.0,38300579.0,1105582725.0,4422400000.0
sz300868,杰美特,2021-03-12,34.8,34.8,33.54,33.72,34.55,1695190.0,57397589.0,1079023140.0,4316160000.0
sz300868,杰美特,2021-03-15,33.75,33.98,33.57,33.92,33.72,894051.0,30207473.0,1085423040.0,4341760000.0
sz300868,杰美特,2021-03-16,33.91,34.35,33.68,34.31,33.92,1056555.0,35952881.0,1097902845.0,4391680000.0
sz300868,杰美特,2021-03-17,34.31,35.27,34.11,35.04,34.31,1591377.0,55400310.0,1121262480.0,4485120000.0
sz300868,杰美特,2021-03-18,35.07,35.72,34.65,35.39,35.04,1738790.0,61449837.0,1132462305.0,4529920000.0
sz300868,杰美特,2021-03-19,35.12,36.5,35.08,35.89,35.39,2277956.0,81915888.0,1148462055.0,4593920000.0
sz300868,杰美特,2021-03-22,35.81,36.63,35.81,36.18,35.89,1952452.0,70762290.0,1157741910.0,4631040000.0
sz300868,杰美特,2021-03-23,36.09,36.55,35.34,35.76,36.18,1818355.0,65254161.0,1144302120.0,4577280000.0
sz300868,杰美特,2021-03-24,35.47,35.98,35.4,35.61,35.76,1082246.0,38571331.0,1139502195.0,4558080000.0
sz300868,杰美特,2021-03-25,35.7,35.7,34.81,34.92,35.61,1236140.0,43500451.0,1117422540.0,4469760000.0
sz300868,杰美特,2021-03-26,34.82,35.34,34.71,35.17,34.92,1006157.0,35221009.0,1125422415.0,4501760000.0
sz300868,杰美特,2021-03-29,35.19,35.37,34.4,34.63,35.17,1236357.0,43002339.0,1108142685.0,4432640000.0
sz300868,杰美特,2021-03-30,34.7,34.7,34.08,34.28,34.63,917970.0,31492075.0,1096942860.0,4387840000.0
sz300868,杰美特,2021-03-31,34.5,35.2,34.26,35.06,34.28,1272785.0,44364715.0,1121902470.0,4487680000.0
sz300868,杰美特,2021-04-01,35.18,35.18,34.38,34.71,35.06,919037.0,31900272.0,1110702645.0,4442880000.0
sz300868,杰美特,2021-04-02,34.78,35.66,34.6,35.64,34.71,1459275.0,51645796.0,1140462180.0,4561920000.0
sz300868,杰美特,2021-04-06,35.65,35.98,35.37,35.82,35.64,1307450.0,46711865.0,1146222090.0,4584960000.0
sz300868,杰美特,2021-04-07,35.86,36.32,35.31,36.27,35.82,1916611.0,68778569.0,1160621865.0,4642560000.0
sz300868,杰美特,2021-04-08,36.25,37.24,36.02,36.33,36.27,3188970.0,117052780.0,1162541835.0,4650240000.0
sz300868,杰美特,2021-04-09,36.25,36.75,36.02,36.65,36.33,1802120.0,65766323.0,1172781675.0,4691200000.0
sz300868,杰美特,2021-04-12,36.69,36.69,35.56,35.56,36.65,1632838.0,58699549.0,1137902220.0,4551680000.0
sz300868,杰美特,2021-04-13,35.98,35.98,34.9,35.05,35.56,1107380.0,39298080.0,1121582475.0,4486400000.0
sz300868,杰美特,2021-04-14,34.9,37.81,34.78,37.46,35.05,4338308.0,160413446.0,1198701270.0,4794880000.0
sz300868,杰美特,2021-04-15,37.07,37.55,36.5,36.92,37.46,2373330.0,87634892.0,1181421540.0,4725760000.0
sz300868,杰美特,2021-04-16,37.07,37.72,36.7,37.27,36.92,2366908.0,88400845.0,1192621365.0,4770560000.0
sz300868,杰美特,2021-04-19,37.26,37.97,36.92,37.69,37.27,2365039.0,88973658.0,1206061155.0,4824320000.0
sz300868,杰美特,2021-04-20,37.58,37.58,36.4,36.5,37.69,2471184.0,91221916.0,1167981750.0,4672000000.0
sz300868,杰美特,2021-04-21,36.59,36.9,36.25,36.41,36.5,1329720.0,48612727.0,1165101795.0,4660480000.0
sz300868,杰美特,2021-04-22,36.41,37.35,36.38,37.05,36.41,1688189.0,62432696.0,1185581475.0,4742400000.0
sz300868,杰美特,2021-04-23,37.05,37.08,35.7,36.36,37.05,2021644.0,73229871.0,1163501820.0,4654080000.0
sz300868,杰美特,2021-04-26,34.8,34.8,31.77,31.82,36.36,4742262.0,154058260.0,1018240000.0,4072960000.0
sz300868,杰美特,2021-04-27,31.47,31.76,30.52,30.7,31.82,2082053.0,64494761.0,982400000.0,3929600000.0
sz300868,杰美特,2021-04-28,30.73,31.28,30.33,31.01,30.7,1154204.0,35657593.0,992320000.0,3969280000.0
sz300868,杰美特,2021-04-29,31.01,31.04,30.1,30.14,31.01,1376398.0,42080765.0,964480000.0,3857920000.0
sz300868,杰美特,2021-04-30,30.16,30.34,29.19,29.34,30.14,1383349.0,41018254.0,938880000.0,3755520000.0
sz300868,杰美特,2021-05-06,29.34,29.78,29.24,29.56,29.34,899329.0,26552168.0,945920000.0,3783680000.0
sz300868,杰美特,2021-05-07,29.54,29.91,29.07,29.17,29.56,903819.0,26687143.0,933440000.0,3733760000.0
sz300868,杰美特,2021-05-10,29.17,29.37,28.68,28.85,29.17,800512.0,23157243.0,923200000.0,3692800000.0
sz300868,杰美特,2021-05-11,28.84,29.43,28.6,29.42,28.85,827859.0,24113565.0,941440000.0,3765760000.0
sz300868,杰美特,2021-05-12,29.19,29.71,29.0,29.63,29.42,756770.0,22257394.0,948160000.0,3792640000.0
sz300868,杰美特,2021-05-13,29.5,30.11,29.33,29.34,29.63,912536.0,27035695.0,938880000.0,3755520000.0
sz300868,杰美特,2021-05-14,29.41,29.95,29.36,29.79,29.34,744427.0,22088764.0,953280000.0,3813120000.0
sz300868,杰美特,2021-05-17,29.79,30.36,29.21,30.17,29.79,1156594.0,34484198.0,965440000.0,3861760000.0
sz300868,杰美特,2021-05-18,29.99,30.34,29.85,30.22,30.17,754154.0,22719543.0,967040000.0,3868160000.0
sz300868,杰美特,2021-05-19,30.26,30.26,29.59,29.63,30.22,842483.0,25175180.0,948160000.0,3792640000.0
sz300868,杰美特,2021-05-20,29.58,29.85,29.39,29.42,29.63,681093.0,20121214.0,941440000.0,3765760000.0
sz300868,杰美特,2021-05-21,29.43,29.77,29.4,29.45,29.42,596275.0,17644752.0,942400000.0,3769600000.0
sz300868,杰美特,2021-05-24,29.65,29.65,29.27,29.41,29.45,552934.0,16273015.0,941120000.0,3764480000.0
sz300868,杰美特,2021-05-25,29.34,29.54,29.21,29.4,29.41,754881.0,22152599.0,940800000.0,3763200000.0
sz300868,杰美特,2021-05-26,29.5,30.28,29.4,30.09,29.4,1463445.0,43904875.0,962880000.0,3851520000.0
sz300868,杰美特,2021-05-27,29.99,30.48,29.9,30.38,30.09,1059041.0,32081989.0,972160000.0,3888640000.0
sz300868,杰美特,2021-05-28,30.38,30.54,29.78,29.95,30.38,1062221.0,31990186.0,958400000.0,3833600000.0
sz300868,杰美特,2021-05-31,29.93,30.58,29.8,30.58,29.95,1021480.0,30953400.0,978560000.0,3914240000.0
sz300868,杰美特,2021-06-01,31.06,31.67,30.75,30.77,30.58,1854299.0,57722923.0,984640000.0,3938560000.0
sz300868,杰美特,2021-06-02,30.5,31.39,30.28,31.16,30.77,1739503.0,53648066.0,997120000.0,3988480000.0
sz300868,杰美特,2021-06-03,31.16,31.58,30.75,30.75,31.16,1469963.0,45940095.0,984000000.0,3936000000.0
sz300868,杰美特,2021-06-04,30.6,30.99,30.39,30.43,30.75,965392.0,29585493.0,973760000.0,3895040000.0
sz300868,杰美特,2021-06-07,30.42,30.82,30.3,30.6,30.43,751341.0,22934433.0,979200000.0,3916800000.0
sz300868,杰美特,2021-06-08,30.31,30.75,30.18,30.26,30.6,757293.0,23002276.0,968320000.0,3873280000.0
sz300868,杰美特,2021-06-09,30.36,30.6,30.11,30.41,30.26,708639.0,21540552.0,973120000.0,3892480000.0
sz300868,杰美特,2021-06-10,30.43,30.78,30.22,30.72,30.41,1100302.0,33665032.0,983040000.0,3932160000.0
sz300868,杰美特,2021-06-11,30.65,31.08,30.31,30.38,30.72,1180750.0,36290892.0,972160000.0,3888640000.0
sz300868,杰美特,2021-06-15,30.47,30.8,30.03,30.06,30.38,768424.0,23205741.0,961920000.0,3847680000.0
sz300868,杰美特,2021-06-16,29.85,30.36,29.62,29.79,30.06,897661.0,26889305.0,953280000.0,3813120000.0
sz300868,杰美特,2021-06-17,29.98,30.38,29.72,30.22,29.79,884723.0,26538379.0,967040000.0,3868160000.0
sz300868,杰美特,2021-06-18,30.44,30.75,30.04,30.72,30.22,1220807.0,37172453.0,983040000.0,3932160000.0
sz300868,杰美特,2021-06-21,30.59,30.95,30.46,30.9,30.72,1091415.0,33610978.0,988800000.0,3955200000.0
sz300868,杰美特,2021-06-22,30.9,31.09,30.7,30.82,30.9,901784.0,27805632.0,986240000.0,3944960000.0
sz300868,杰美特,2021-06-23,31.4,32.69,31.11,31.63,30.82,2851100.0,91029989.0,1012160000.0,4048640000.0
sz300868,杰美特,2021-06-24,31.15,32.06,31.15,31.88,31.63,1870417.0,59036104.0,1020160000.0,4080640000.0
sz300868,杰美特,2021-06-25,31.65,31.85,31.16,31.25,31.88,1180979.0,37090025.0,1000000000.0,4000000000.0
sz300868,杰美特,2021-06-28,31.11,31.5,30.94,31.17,31.25,847772.0,26442308.0,997440000.0,3989760000.0
sz300868,杰美特,2021-06-29,31.1,31.25,30.32,30.36,31.17,1016419.0,31247747.0,971520000.0,3886080000.0
sz300868,杰美特,2021-06-30,30.29,30.9,30.21,30.61,30.36,797938.0,24431646.0,979520000.0,3918080000.0
sz300868,杰美特,2021-07-01,30.7,30.7,29.91,29.96,30.61,988444.0,29949120.0,958720000.0,3834880000.0
sz300868,杰美特,2021-07-02,30.0,30.06,29.23,29.3,29.96,976486.0,28805631.0,937600000.0,3750400000.0
sz300868,杰美特,2021-07-05,29.3,29.71,29.22,29.71,29.3,614271.0,18125257.0,950720000.0,3802880000.0
sz300868,杰美特,2021-07-06,29.71,29.88,29.44,29.84,29.71,595256.0,17673877.0,954880000.0,3819520000.0
sz300868,杰美特,2021-07-07,29.8,30.18,29.73,30.15,29.84,726002.0,21798642.0,964800000.0,3859200000.0
sz300868,杰美特,2021-07-08,30.19,30.4,29.6,29.84,30.15,695443.0,20866095.0,954880000.0,3819520000.0
sz300868,杰美特,2021-07-09,29.84,30.27,29.79,29.99,29.84,746526.0,22388137.0,959680000.0,3838720000.0
sz300868,杰美特,2021-07-12,30.1,30.86,29.92,30.45,29.99,1517341.0,46078690.0,974400000.0,3897600000.0
sz300868,杰美特,2021-07-13,30.3,30.47,30.17,30.42,30.45,736840.0,22335833.0,973440000.0,3893760000.0
sz300868,杰美特,2021-07-14,30.43,30.65,30.16,30.21,30.42,889986.0,27017539.0,966720000.0,3866880000.0
sz300868,杰美特,2021-07-15,30.05,30.19,29.27,29.5,30.21,1075832.0,31791378.0,944000000.0,3776000000.0
sz300868,杰美特,2021-07-16,29.02,29.36,28.83,28.89,29.12,766659.0,22214738.0,924480000.0,3697920000.0
sz300868,杰美特,2021-07-19,28.89,29.14,28.58,28.74,28.89,578728.0,16644574.0,919680000.0,3678720000.0
sz300868,杰美特,2021-07-20,28.41,28.98,28.41,28.69,28.74,441000.0,12609455.0,918080000.0,3672320000.0
sz300868,杰美特,2021-07-21,28.69,29.2,28.69,28.79,28.69,668324.0,19336195.0,921280000.0,3685120000.0
sz300868,杰美特,2021-07-22,28.77,29.18,28.54,29.0,28.79,709307.0,20478218.0,928000000.0,3712000000.0
sz300868,杰美特,2021-07-23,29.17,29.18,28.29,28.3,29.0,984754.0,28149519.0,905600000.0,3622400000.0
sz300868,杰美特,2021-07-26,28.02,28.38,27.52,27.82,28.3,702912.0,19652651.0,890240000.0,3560960000.0
sz300868,杰美特,2021-07-27,28.18,28.18,27.62,27.69,27.82,658095.0,18349835.0,886080000.0,3544320000.0
sz300868,杰美特,2021-07-28,27.66,27.66,26.0,26.75,27.69,1024733.0,27400078.0,856000000.0,3424000000.0
sz300868,杰美特,2021-07-29,26.98,27.28,26.83,27.05,26.75,619854.0,16812817.0,865600000.0,3462400000.0
sz300868,杰美特,2021-07-30,26.86,27.48,26.86,27.33,27.05,723744.0,19723437.0,874560000.0,3498240000.0
sz300868,杰美特,2021-08-02,27.11,28.19,27.11,28.14,27.33,904155.0,25098541.0,900480000.0,3601920000.0
sz300868,杰美特,2021-08-03,27.76,28.55,27.68,28.14,28.14,716293.0,20276308.0,900480000.0,3601920000.0
sz300868,杰美特,2021-08-04,28.09,28.32,28.01,28.32,28.14,585586.0,16518104.0,906240000.0,3624960000.0
sz300868,杰美特,2021-08-05,28.32,28.66,28.0,28.4,28.32,719149.0,20319784.0,908800000.0,3635200000.0
sz300868,杰美特,2021-08-06,28.28,28.38,27.5,27.8,28.4,719955.0,20005488.0,889600000.0,3558400000.0
sz300868,杰美特,2021-08-09,27.62,28.89,27.62,28.61,27.8,1064900.0,30281403.0,915520000.0,3662080000.0
sz300868,杰美特,2021-08-10,28.62,29.14,28.52,28.67,28.61,804000.0,23121159.0,917440000.0,3669760000.0
sz300868,杰美特,2021-08-11,28.67,29.19,28.34,29.0,28.67,862146.0,24885791.0,928000000.0,3712000000.0
sz300868,杰美特,2021-08-12,28.81,29.33,28.81,29.01,29.0,848160.0,24659554.0,928320000.0,3713280000.0
sz300868,杰美特,2021-08-13,29.03,29.29,28.75,29.03,29.01,806326.0,23390447.0,928960000.0,3715840000.0
sz300868,杰美特,2021-08-16,28.89,29.85,28.89,29.69,29.03,1472746.0,43537048.0,950080000.0,3800320000.0
sz300868,杰美特,2021-08-17,29.69,29.73,28.1,28.14,29.69,1811804.0,52064936.0,900480000.0,3601920000.0
sz300868,杰美特,2021-08-18,26.7,27.35,26.68,27.25,28.14,1666069.0,45030023.0,872000000.0,3488000000.0
sz300868,杰美特,2021-08-19,27.2,27.42,26.8,26.96,27.25,1040681.0,28204586.0,862720000.0,3450880000.0
sz300868,杰美特,2021-08-20,27.08,27.08,26.3,26.48,26.96,1063272.0,28168874.0,847360000.0,3389440000.0
sz300868,杰美特,2021-08-23,26.36,27.46,26.36,27.05,26.48,1000528.0,27061731.0,865600000.0,3462400000.0
sz300868,杰美特,2021-08-24,26.8,27.85,26.7,26.81,27.05,2514776.0,68276099.0,1346467369.8,3431680000.0
sz300868,杰美特,2021-08-25,26.74,27.14,26.54,26.77,26.81,914278.0,24530184.0,1344458466.6,3426560000.0
sz300868,杰美特,2021-08-26,26.84,26.86,26.17,26.18,26.77,1399000.0,36994283.0,1314827144.4,3351040000.0
sz300868,杰美特,2021-08-27,26.33,26.37,25.11,25.14,26.18,2378682.0,60257420.0,1262595661.2,3217920000.0
sz300868,杰美特,2021-08-30,25.18,25.36,24.9,24.97,25.14,1199300.0,30150201.0,1254057822.6,3196160000.0
sz300868,杰美特,2021-08-31,24.85,24.85,24.11,24.21,24.97,1784484.0,43389506.0,1215888661.8,3098880000.0
sz300868,杰美特,2021-09-01,24.11,24.64,23.93,24.51,24.21,1368684.0,33200448.0,1230955435.8,3137280000.0
sz300868,杰美特,2021-09-02,24.5,24.5,24.23,24.4,24.51,780000.0,18978970.0,1225430952.0,3123200000.0
sz300868,杰美特,2021-09-03,24.35,24.95,24.35,24.73,24.4,1144416.0,28273316.0,1242004403.4,3165440000.0
sz300868,杰美特,2021-09-06,24.8,25.01,24.52,24.98,24.73,782332.0,19473524.0,1254560048.4,3197440000.0
sz300868,杰美特,2021-09-07,25.05,25.13,24.74,25.05,24.98,1169101.0,29129153.0,1258075629.0,3206400000.0
sz300868,杰美特,2021-09-08,25.07,25.33,24.95,25.23,25.05,1085593.0,27325941.0,1267115693.4,3229440000.0
sz300868,杰美特,2021-09-09,25.23,25.23,25.0,25.04,25.23,855393.0,21436372.0,1257573403.2,3205120000.0
sz300868,杰美特,2021-09-10,25.06,25.15,24.86,24.99,25.04,862560.0,21569886.0,1255062274.2,3198720000.0
sz300868,杰美特,2021-09-13,24.97,25.02,24.78,25.0,24.99,779140.0,19372152.0,1255564500.0,3200000000.0
sz300868,杰美特,2021-09-14,25.01,25.14,24.53,24.53,25.0,933840.0,23176313.0,1231959887.4,3139840000.0
sz300868,杰美特,2021-09-15,24.58,24.8,24.28,24.63,24.53,750599.0,18414482.0,1236982145.4,3152640000.0
sz300868,杰美特,2021-09-16,24.63,25.1,24.5,24.71,24.63,1212443.0,30062665.0,1240999951.8,3162880000.0
sz300868,杰美特,2021-09-17,24.82,25.16,24.29,25.05,24.71,1125967.0,27894759.0,1258075629.0,3206400000.0
sz300868,杰美特,2021-09-22,25.25,25.88,25.11,25.68,25.05,1857394.0,47592872.0,1289715854.4,3287040000.0
sz300868,杰美特,2021-09-23,25.4,26.08,25.3,26.04,25.68,1859737.0,48113845.0,1307795983.2,3333120000.0
sz300868,杰美特,2021-09-24,25.86,26.0,25.38,25.62,26.04,1159844.0,29704611.0,1286702499.6,3279360000.0
sz300868,杰美特,2021-09-27,25.8,25.89,24.9,25.11,25.62,969741.0,24550962.0,1261088983.8,3214080000.0
sz300868,杰美特,2021-09-28,24.91,25.29,24.91,24.94,25.11,473208.0,11849821.0,1252551145.2,3192320000.0
sz300868,杰美特,2021-09-29,24.93,24.93,24.13,24.13,24.94,787500.0,19221647.0,1211870855.4,3088640000.0
sz300868,杰美特,2021-09-30,24.16,24.6,24.16,24.41,24.13,390690.0,9557492.0,1225933177.8,3124480000.0
sz300868,杰美特,2021-10-08,24.57,25.3,24.57,25.23,24.41,1011498.0,25378630.0,1267115693.4,3229440000.0
sz300868,杰美特,2021-10-11,25.23,25.58,24.96,25.38,25.23,842990.0,21322073.0,1274649080.4,3248640000.0
sz300868,杰美特,2021-10-12,25.23,25.85,25.06,25.51,25.38,1248737.0,31926381.0,1281178015.8,3265280000.0
sz300868,杰美特,2021-10-13,25.47,25.78,25.28,25.61,25.51,807492.0,20679748.0,1286200273.8,3278080000.0
sz300868,杰美特,2021-10-14,25.51,25.69,25.16,25.31,25.61,644687.0,16329163.0,1271133499.8,3239680000.0
sz300868,杰美特,2021-10-15,25.35,26.1,25.14,25.62,25.31,1389024.0,35701941.0,1286702499.6,3279360000.0
sz300868,杰美特,2021-10-18,25.6,25.8,25.02,25.06,25.62,898073.0,22655278.0,1258577854.8,3207680000.0
sz300868,杰美特,2021-10-19,25.3,25.3,24.99,25.05,25.06,506800.0,12734968.0,1258075629.0,3206400000.0
sz300868,杰美特,2021-10-20,25.05,25.2,24.64,24.69,25.05,541100.0,13426881.0,1239995500.2,3160320000.0
sz300868,杰美特,2021-10-21,24.8,24.85,24.51,24.55,24.69,506400.0,12474108.0,1232964339.0,3142400000.0
sz300868,杰美特,2021-10-22,24.65,24.68,24.27,24.35,24.55,545814.0,13354922.0,1222919823.0,3116800000.0
sz300868,杰美特,2021-10-25,24.36,24.45,23.6,23.8,24.35,1131983.0,27051774.0,1195297404.0,3046400000.0
sz300868,杰美特,2021-10-26,23.83,23.92,23.43,23.48,23.8,849100.0,20037472.0,1179226178.4,3005440000.0
sz300868,杰美特,2021-10-27,23.47,23.55,22.89,22.94,23.48,699200.0,16168644.0,1152105985.2,2936320000.0
sz300868,杰美特,2021-10-28,23.18,23.96,23.12,23.24,22.94,1026480.0,24138419.0,1167172759.2,2974720000.0
sz300868,杰美特,2021-10-29,23.28,23.77,23.01,23.7,23.24,867875.0,20407665.0,1190275146.0,3033600000.0
sz300868,杰美特,2021-11-01,23.58,23.94,23.44,23.7,23.7,658981.0,15626277.0,1190275146.0,3033600000.0
sz300868,杰美特,2021-11-02,23.6,24.18,23.4,23.6,23.7,772851.0,18354097.0,1185252888.0,3020800000.0
sz300868,杰美特,2021-11-03,23.4,23.96,23.4,23.83,23.6,650775.0,15481572.0,1196804081.4,3050240000.0
sz300868,杰美特,2021-11-04,23.87,24.08,23.85,23.95,23.83,548400.0,13137892.0,1202830791.0,3065600000.0
sz300868,杰美特,2021-11-05,23.99,24.29,23.89,24.11,23.95,678993.0,16362732.0,1210866403.8,3086080000.0
sz300868,杰美特,2021-11-08,24.2,24.2,23.77,23.86,24.11,575700.0,13731723.0,1198310758.8,3054080000.0
sz300868,杰美特,2021-11-09,23.86,24.2,23.86,24.11,23.86,665636.0,16009217.0,1210866403.8,3086080000.0
sz300868,杰美特,2021-11-10,24.19,24.58,23.96,24.54,24.11,982400.0,23932781.0,1232462113.2,3141120000.0
sz300868,杰美特,2021-11-11,24.4,24.89,24.4,24.65,24.54,904400.0,22374817.0,1237986597.0,3155200000.0
sz300868,杰美特,2021-11-12,24.65,24.95,24.58,24.89,24.65,762606.0,18900056.0,1250040016.2,3185920000.0
sz300868,杰美特,2021-11-15,24.89,25.62,24.89,25.45,24.89,1492174.0,37821138.0,1278164661.0,3257600000.0
sz300868,杰美特,2021-11-16,25.62,25.75,25.13,25.16,25.45,1060365.0,26834437.0,1263600112.8,3220480000.0
sz300868,杰美特,2021-11-17,25.03,25.49,25.03,25.38,25.16,707763.0,17957976.0,1274649080.4,3248640000.0
sz300868,杰美特,2021-11-18,25.5,25.55,24.9,25.0,25.38,892763.0,22476897.0,1255564500.0,3200000000.0
sz300868,杰美特,2021-11-19,25.01,25.42,25.0,25.37,25.0,1102566.0,27851739.0,1274146854.6,3247360000.0
sz300868,杰美特,2021-11-22,25.35,25.61,25.28,25.48,25.37,847471.0,21567607.0,1279671338.3999999,3261440000.0
sz300868,杰美特,2021-11-23,25.45,25.95,25.28,25.63,25.48,1323119.0,33938711.0,1287204725.4,3280640000.0
sz300868,杰美特,2021-11-24,25.53,26.09,25.5,26.02,25.63,1181000.0,30617971.0,1306791531.6,3330560000.0
sz300868,杰美特,2021-11-25,26.13,26.15,25.7,26.0,26.02,948300.0,24609859.0,1305787080.0,3328000000.0
sz300868,杰美特,2021-11-26,25.95,26.18,25.57,25.92,26.0,969600.0,25065567.0,1301769273.6,3317760000.0
sz300868,杰美特,2021-11-29,25.58,25.73,25.26,25.49,25.92,1145755.0,29160262.0,1280173564.2,3262720000.0
sz300868,杰美特,2021-11-30,25.69,26.69,25.69,26.0,25.49,1731529.0,45421011.0,1305787080.0,3328000000.0
sz300868,杰美特,2021-12-01,25.92,26.36,25.89,26.24,26.0,1181093.0,30948017.0,1317840499.1999998,3358720000.0
sz300868,杰美特,2021-12-02,26.21,26.39,25.58,25.6,26.24,1006993.0,26021748.0,1285698048.0,3276800000.0
sz300868,杰美特,2021-12-03,25.79,25.95,25.4,25.75,25.6,772200.0,19817258.0,1293231435.0,3296000000.0
sz300868,杰美特,2021-12-06,25.97,25.97,24.98,24.98,25.75,1055293.0,26615441.0,1254560048.3999999,3197440000.0
sz300868,杰美特,2021-12-07,25.06,25.23,24.7,24.87,24.98,762700.0,18966899.0,1249035564.6000001,3183360000.0
sz300868,杰美特,2021-12-08,25.05,25.38,24.94,25.15,24.87,560600.0,14110476.0,1263097887.0,3219200000.0
sz300868,杰美特,2021-12-09,25.19,25.9,25.01,25.72,25.15,1157457.0,29505456.0,1291724757.6,3292160000.0
sz300868,杰美特,2021-12-10,25.75,26.23,25.54,26.02,25.72,1650754.0,42839782.0,1306791531.6,3330560000.0
sz300868,杰美特,2021-12-13,26.07,26.07,25.71,25.98,26.02,942293.0,24397329.0,1304782628.3999999,3325440000.0
sz300868,杰美特,2021-12-14,25.98,26.52,25.75,26.52,25.98,1563208.0,41101282.0,1331902821.6000001,3394560000.0
sz300868,杰美特,2021-12-15,26.48,27.78,26.48,27.28,26.52,3912950.0,107033000.0,1370071982.4,3491840000.0
sz300868,杰美特,2021-12-16,27.18,27.38,26.72,26.98,27.28,1773004.0,47671858.0,1355005208.4,3453440000.0
sz300868,杰美特,2021-12-17,26.81,26.97,26.17,26.17,26.98,1684800.0,44402119.0,1314324918.6000001,3349760000.0
sz300868,杰美特,2021-12-20,26.3,26.57,25.89,25.98,26.17,958700.0,25136869.0,1304782628.3999999,3325440000.0
sz300868,杰美特,2021-12-21,25.95,26.49,25.88,26.49,25.98,894900.0,23566836.0,1330396144.2,3390720000.0
sz300868,杰美特,2021-12-22,26.6,26.9,26.33,26.81,26.49,1057488.0,28197965.0,1346467369.8,3431680000.0
sz300868,杰美特,2021-12-23,26.98,26.98,26.22,26.34,26.81,1118700.0,29642346.0,1322862757.2,3371520000.0
sz300868,杰美特,2021-12-24,26.31,26.32,25.45,25.45,26.34,962232.0,24781787.0,1278164661.0,3257600000.0
sz300868,杰美特,2021-12-27,25.52,25.9,25.32,25.58,25.45,600425.0,15390345.0,1284693596.3999999,3274240000.0
sz300868,杰美特,2021-12-28,25.75,25.88,25.51,25.62,25.58,753342.0,19309609.0,1286702499.6,3279360000.0
sz300868,杰美特,2021-12-29,25.6,25.75,25.06,25.16,25.62,1414642.0,35708841.0,1263600112.8,3220480000.0
sz300868,杰美特,2021-12-30,25.37,26.38,25.37,25.87,25.16,1866181.0,48393113.0,1299258144.6,3311360000.0
sz300868,杰美特,2021-12-31,25.85,26.18,25.68,25.76,25.87,949700.0,24532799.0,1293733660.8,3297280000.0
sz300868,杰美特,2022-01-04,25.81,26.5,25.78,26.35,25.76,1299600.0,34098920.0,1323364983.0,3372800000.0
sz300868,杰美特,2022-01-05,26.39,26.57,26.01,26.51,26.35,1301800.0,34218136.0,1331400595.8,3393280000.0
sz300868,杰美特,2022-01-06,26.4,26.78,26.3,26.67,26.51,1540344.0,40997161.0,1339436208.6,3413760000.0
sz300868,杰美特,2022-01-07,26.68,26.94,26.06,26.14,26.67,1189335.0,31382553.0,1312818241.2,3345920000.0
sz300868,杰美特,2022-01-10,26.06,26.73,25.8,26.59,26.14,1283676.0,33953056.0,1335418402.2,3403520000.0
sz300868,杰美特,2022-01-11,26.66,27.05,26.41,26.45,26.59,949093.0,25293289.0,1328387241.0,3385600000.0
sz300868,杰美特,2022-01-12,26.38,27.11,26.38,26.84,26.45,1098924.0,29517956.0,1347974047.1999998,3435520000.0
sz300868,杰美特,2022-01-13,27.0,27.0,26.65,26.67,26.84,911094.0,24416947.0,1339436208.6,3413760000.0
sz300868,杰美特,2022-01-14,26.8,26.88,26.26,26.26,26.67,897981.0,23829594.0,1318844950.8,3361280000.0
