数据由邢不行整理
股票代码,股票名称,交易日期,开盘价,最高价,最低价,收盘价,前收盘价,成交量,成交额,流通市值,总市值
sz300841,N康华,2020-06-16,84.44,101.33,84.44,101.33,70.37,25000.0,2526493.0,1519950000.0,6079800000.0
sz300841,康华生物,2020-06-17,111.46,111.46,111.46,111.46,101.33,8000.0,891680.0,1671900000.0,6687600000.0
sz300841,康华生物,2020-06-18,122.61,122.61,122.61,122.61,111.46,13092.0,1605210.0,1839150000.0,7356600000.0
sz300841,康华生物,2020-06-19,134.87,134.87,134.87,134.87,122.61,22200.0,2994114.0,2023050000.0,8092200000.0
sz300841,康华生物,2020-06-22,148.36,148.36,148.36,148.36,134.87,24400.0,3619984.0,2225400000.0,8901600000.0
sz300841,康华生物,2020-06-23,163.2,163.2,163.2,163.2,148.36,22200.0,3623040.0,2448000000.0,9792000000.0
sz300841,康华生物,2020-06-24,179.52,179.52,179.52,179.52,163.2,37004.0,6642958.0,2692800000.0,10771200000.0
sz300841,康华生物,2020-06-29,197.47,197.47,197.47,197.47,179.52,39906.0,7880238.0,2962050000.0,11848200000.0
sz300841,康华生物,2020-06-30,217.22,217.22,217.22,217.22,197.47,59753.0,12979547.0,3258300000.0,13033200000.0
sz300841,康华生物,2020-07-01,238.94,238.94,238.94,238.94,217.22,55765.0,13324489.0,3584100000.0,14336400000.0
sz300841,康华生物,2020-07-02,262.83,262.83,262.83,262.83,238.94,39105.0,10277967.0,3942450000.0,15769800000.0
sz300841,康华生物,2020-07-03,289.11,289.11,289.11,289.11,262.83,428296.0,123824657.0,4336650000.0,17346600000.0
sz300841,康华生物,2020-07-06,318.02,318.02,318.02,318.02,289.11,177679.0,56505476.0,4770300000.0,19081200000.0
sz300841,康华生物,2020-07-07,349.82,349.82,349.82,349.82,318.02,205900.0,72027938.0,5247300000.0,20989200000.0
sz300841,康华生物,2020-07-08,384.8,384.8,384.8,384.8,349.82,164806.0,63417349.0,5772000000.0,23088000000.0
sz300841,康华生物,2020-07-09,423.28,423.28,423.28,423.28,384.8,35400.0,14984112.0,6349200000.0,25396800000.0
sz300841,康华生物,2020-07-10,465.61,465.61,465.61,465.61,423.28,62499.0,29100159.0,6984150000.0,27936600000.0
sz300841,康华生物,2020-07-13,512.17,512.17,512.17,512.17,465.61,96800.0,49578056.0,7682550000.0,30730200000.0
sz300841,康华生物,2020-07-14,563.39,563.39,563.39,563.39,512.17,77503.0,43664415.0,8450850000.0,33803400000.0
sz300841,康华生物,2020-07-15,619.73,619.73,619.73,619.73,563.39,53400.0,33093582.0,9295950000.0,37183800000.0
sz300841,康华生物,2020-07-16,659.97,659.97,557.76,557.76,619.73,5354013.0,3175652562.0,8366400000.0,33465600000.0
sz300841,康华生物,2020-07-17,526.96,611.0,526.96,599.0,557.76,7578505.0,4261213908.0,8985000000.0,35940000000.0
sz300841,康华生物,2020-07-20,585.0,585.0,539.1,566.87,599.0,4368883.0,2414188608.0,8503050000.0,34012200000.0
sz300841,康华生物,2020-07-21,573.0,616.66,548.6,595.0,566.87,3453079.0,2002561882.0,8925000000.0,35700000000.0
sz300841,康华生物,2020-07-22,578.0,654.5,575.0,626.09,595.0,4379394.0,2789744883.0,9391350000.0,37565400000.0
sz300841,康华生物,2020-07-23,628.1,688.7,628.1,688.7,626.09,2786307.0,1838083164.0,10330500000.0,41322000000.0
sz300841,康华生物,2020-07-24,718.9,757.57,670.0,672.0,688.7,4739830.0,3458848704.0,10080000000.0,40320000000.0
sz300841,康华生物,2020-07-27,706.0,739.2,678.0,739.2,672.0,3644771.0,2618709323.0,11088000000.0,44352000000.0
sz300841,康华生物,2020-07-28,764.0,768.65,700.0,734.96,739.2,2456494.0,1797133634.0,11024400000.0,44097600000.0
sz300841,康华生物,2020-07-29,720.0,798.0,711.0,770.02,734.96,2080987.0,1585848635.0,11550300000.0,46201200000.0
sz300841,康华生物,2020-07-30,783.0,847.02,760.0,797.1,770.02,2261756.0,1822729147.0,11956500000.0,47826000000.0
sz300841,康华生物,2020-07-31,788.87,876.6,760.02,865.0,797.1,2068056.0,1679267437.0,12975000000.0,51900000000.0
sz300841,康华生物,2020-08-03,850.03,951.5,848.08,951.5,865.0,1826934.0,1659630887.0,14272500000.0,57090000000.0
sz300841,康华生物,2020-08-04,951.0,996.0,858.0,887.0,951.5,2708385.0,2523341489.0,13305000000.0,53220000000.0
sz300841,康华生物,2020-08-05,864.97,933.0,830.81,897.0,887.0,1646777.0,1468018950.0,13455000000.0,53820000000.0
sz300841,康华生物,2020-08-06,879.01,893.0,807.3,807.3,897.0,1967766.0,1624710701.0,12109500000.0,48438000000.0
sz300841,康华生物,2020-08-07,800.0,802.0,726.57,730.0,807.3,3528760.0,2649176900.0,10950000000.0,43800000000.0
sz300841,康华生物,2020-08-10,728.0,739.0,684.48,711.98,730.0,2303261.0,1643568861.0,10679700000.0,42718800000.0
sz300841,康华生物,2020-08-11,712.5,726.7,685.0,688.88,711.98,1942101.0,1363160379.0,10333200000.0,41332800000.0
sz300841,康华生物,2020-08-12,691.0,694.44,619.99,628.0,688.88,2847733.0,1821967910.0,9420000000.0,37680000000.0
sz300841,康华生物,2020-08-13,624.0,645.55,600.0,631.98,628.0,2130385.0,1327158321.0,9479700000.0,37918800000.0
sz300841,康华生物,2020-08-14,629.0,630.0,590.18,617.98,631.98,2007913.0,1224011725.0,9269700000.0,37078800000.0
sz300841,康华生物,2020-08-17,616.0,632.44,605.01,623.39,617.98,1489960.0,924720424.0,9350850000.0,37403400000.0
sz300841,康华生物,2020-08-18,620.0,635.6,605.0,614.0,623.39,1492774.0,923301267.0,9210000000.0,36840000000.0
sz300841,康华生物,2020-08-19,610.0,610.0,569.9,579.5,614.0,2353698.0,1373604693.0,8692500000.0,34770000000.0
sz300841,康华生物,2020-08-20,575.01,590.0,571.03,583.65,579.5,1177167.0,685114856.0,8754750000.0,35019000000.0
sz300841,康华生物,2020-08-21,590.0,595.5,566.47,567.48,583.65,1124824.0,653907295.0,8512200000.0,34048800000.0
sz300841,康华生物,2020-08-24,571.12,623.77,555.0,608.02,567.48,1970099.0,1162643888.0,9120300000.0,36481200000.0
sz300841,康华生物,2020-08-25,595.02,597.0,573.0,580.0,608.02,1487630.0,867376231.0,8700000000.0,34800000000.0
sz300841,康华生物,2020-08-26,580.01,598.5,530.05,541.05,580.0,1757919.0,996455762.0,8115750000.0,32463000000.0
sz300841,康华生物,2020-08-27,541.2,544.5,514.04,535.07,541.05,1514141.0,801007921.0,8026050000.0,32104200000.0
sz300841,康华生物,2020-08-28,532.0,588.0,522.8,581.92,535.07,2024765.0,1124969156.0,8728800000.0,34915200000.0
sz300841,康华生物,2020-08-31,575.08,581.0,556.1,557.7,581.92,1199013.0,678208768.0,8365500000.0,33462000000.0
sz300841,康华生物,2020-09-01,557.69,562.0,536.04,544.49,557.7,972125.0,529710910.0,8167350000.0,32669400000.0
sz300841,康华生物,2020-09-02,545.0,547.98,534.0,542.9,544.49,675070.0,364922999.0,8143500000.0,32574000000.0
sz300841,康华生物,2020-09-03,539.0,573.0,529.08,547.63,542.9,1157004.0,642109682.0,8214450000.0,32857800000.0
sz300841,康华生物,2020-09-04,531.5,575.44,529.38,561.4,547.63,1148914.0,643461049.0,8421000000.0,33684000000.0
sz300841,康华生物,2020-09-07,557.0,572.0,496.0,500.0,561.4,2066896.0,1093880694.0,7500000000.0,30000000000.0
sz300841,康华生物,2020-09-08,497.01,505.0,480.82,504.0,500.0,1421489.0,702995921.0,7560000000.0,30240000000.0
sz300841,康华生物,2020-09-09,491.0,491.0,451.81,463.51,504.0,1553451.0,731548595.0,6952650000.0,27810600000.0
sz300841,康华生物,2020-09-10,465.01,475.66,456.0,460.19,463.51,901380.0,421604595.0,6902850000.0,27611400000.0
sz300841,康华生物,2020-09-11,455.0,471.77,453.01,468.86,460.19,666800.0,308413775.0,7032900000.0,28131600000.0
sz300841,康华生物,2020-09-14,468.09,493.99,450.18,454.9,468.86,1186615.0,557420769.0,6823500000.0,27294000000.0
sz300841,康华生物,2020-09-15,455.0,508.0,451.5,507.65,454.9,1782937.0,862805144.0,7614750000.0,30459000000.0
sz300841,康华生物,2020-09-16,500.0,504.99,475.01,480.82,507.65,1418111.0,686693569.0,7212300000.0,28849200000.0
sz300841,康华生物,2020-09-17,477.28,498.58,472.0,486.5,480.82,978519.0,478068675.0,7297500000.0,29190000000.0
sz300841,康华生物,2020-09-18,539.9,568.0,531.0,546.0,486.5,2225502.0,1213086254.0,8190000000.0,32760000000.0
sz300841,康华生物,2020-09-21,540.0,545.9,527.93,536.7,546.0,1013275.0,544716822.0,8050500000.0,32202000000.0
sz300841,康华生物,2020-09-22,532.01,552.6,531.5,544.0,536.7,1064467.0,580967869.0,8160000000.0,32640000000.0
sz300841,康华生物,2020-09-23,549.0,588.88,533.08,565.39,544.0,1729341.0,975608640.0,8480850000.0,33923400000.0
sz300841,康华生物,2020-09-24,558.0,558.0,529.0,537.53,565.39,1198834.0,648018163.0,8062950000.0,32251800000.0
sz300841,康华生物,2020-09-25,536.58,548.0,505.01,507.5,537.53,1036587.0,541875299.0,7612500000.0,30450000000.0
sz300841,康华生物,2020-09-28,503.12,513.0,490.0,501.06,507.5,787807.0,392617988.0,7515900000.0,30063600000.0
sz300841,康华生物,2020-09-29,503.01,505.53,493.07,493.98,501.06,537884.0,267852890.0,7409700000.0,29638800000.0
sz300841,康华生物,2020-09-30,496.01,507.0,491.5,496.03,493.98,644947.0,321932589.0,7440450000.0,29761800000.0
sz300841,康华生物,2020-10-09,502.01,508.99,492.06,507.0,496.03,829271.0,415121447.0,7605000000.0,30420000000.0
sz300841,康华生物,2020-10-12,509.49,529.8,507.61,528.5,507.0,955924.0,497188173.0,7927500000.0,31710000000.0
sz300841,康华生物,2020-10-13,525.01,549.0,520.18,544.01,528.5,1091517.0,583193253.0,8160150000.0,32640600000.0
sz300841,康华生物,2020-10-14,540.4,549.0,521.08,522.0,544.01,1095831.0,586702753.0,7830000000.0,31320000000.0
sz300841,康华生物,2020-10-15,519.0,519.2,497.18,499.0,522.0,1044237.0,527595470.0,7485000000.0,29940000000.0
sz300841,康华生物,2020-10-16,500.01,504.8,496.78,502.51,499.0,476018.0,238390757.0,7537650000.0,30150600000.0
sz300841,康华生物,2020-10-19,503.3,507.87,497.58,501.2,502.51,414851.0,208330458.0,7518000000.0,30072000000.0
sz300841,康华生物,2020-10-20,501.2,508.9,498.02,508.9,501.2,510467.0,257604755.0,7633500000.0,30534000000.0
sz300841,康华生物,2020-10-21,508.8,536.95,508.8,527.4,508.9,1109318.0,584048224.0,7911000000.0,31644000000.0
sz300841,康华生物,2020-10-22,500.0,500.0,468.17,472.0,527.4,1795109.0,861953924.0,7080000000.0,28320000000.0
sz300841,康华生物,2020-10-23,470.0,474.0,451.0,457.85,472.0,1133160.0,524731284.0,6867750000.0,27471000000.0
sz300841,康华生物,2020-10-26,455.0,469.8,445.0,467.25,457.85,612620.0,281609140.0,7008750000.0,28035000000.0
sz300841,康华生物,2020-10-27,461.01,471.0,461.0,468.87,467.25,465980.0,217556075.0,7033050000.0,28132200000.0
sz300841,康华生物,2020-10-28,468.95,471.66,457.12,468.66,468.87,487007.0,226671779.0,7029900000.0,28119600000.0
sz300841,康华生物,2020-10-29,460.03,473.86,460.01,471.79,468.66,538287.0,253129720.0,7076850000.0,28307400000.0
sz300841,康华生物,2020-10-30,470.0,473.4,461.35,462.0,471.79,634566.0,296287274.0,6930000000.0,27720000000.0
sz300841,康华生物,2020-11-02,460.0,462.0,441.1,446.0,462.0,979326.0,438487470.0,6690000000.0,26760000000.0
sz300841,康华生物,2020-11-03,446.93,474.96,444.0,472.2,446.0,997362.0,464495192.0,7083000000.0,28332000000.0
sz300841,康华生物,2020-11-04,475.01,485.8,467.01,481.45,472.2,703709.0,335604307.0,7221750000.0,28887000000.0
sz300841,康华生物,2020-11-05,481.0,488.6,475.03,476.51,481.45,564384.0,270907898.0,7147650000.0,28590600000.0
sz300841,康华生物,2020-11-06,477.01,484.97,458.31,462.39,476.51,707406.0,330295316.0,6935850000.0,27743400000.0
sz300841,康华生物,2020-11-09,467.44,513.3,463.14,510.25,462.39,1290434.0,636686229.0,7653750000.0,30615000000.0
sz300841,康华生物,2020-11-10,519.0,527.92,498.21,508.98,510.25,1021251.0,523047563.0,7634700000.0,30538800000.0
sz300841,康华生物,2020-11-11,511.01,515.59,488.66,492.9,508.98,680010.0,337993709.0,7393500000.0,29574000000.0
sz300841,康华生物,2020-11-12,493.99,506.77,493.0,503.02,492.9,532940.0,266792076.0,7545300000.0,30181200000.0
sz300841,康华生物,2020-11-13,500.21,503.0,490.0,497.5,503.02,393028.0,194943167.0,7462500000.0,29850000000.0
sz300841,康华生物,2020-11-16,500.02,512.45,497.51,504.7,497.5,588200.0,297983292.0,7570500000.0,30282000000.0
sz300841,康华生物,2020-11-17,501.49,502.12,481.12,487.63,504.7,743094.0,362610090.0,7314450000.0,29257800000.0
sz300841,康华生物,2020-11-18,488.08,494.69,486.0,489.38,487.63,288060.0,141035242.0,7340700000.0,29362800000.0
sz300841,康华生物,2020-11-19,489.33,507.8,480.0,502.17,489.38,713290.0,356368573.0,7532550000.0,30130200000.0
sz300841,康华生物,2020-11-20,502.17,506.52,496.28,498.34,502.17,410834.0,205605472.0,7475100000.0,29900400000.0
sz300841,康华生物,2020-11-23,496.99,501.0,488.15,492.7,498.34,410400.0,202223198.0,7390500000.0,29562000000.0
sz300841,康华生物,2020-11-24,492.71,497.5,487.19,494.88,492.7,353300.0,174028406.0,7423200000.0,29692800000.0
sz300841,康华生物,2020-11-25,495.1,498.3,488.01,489.28,494.88,477502.0,235554088.0,7339200000.0,29356800000.0
sz300841,康华生物,2020-11-26,491.2,493.07,458.0,461.98,489.28,821817.0,387071101.0,6929700000.0,27718800000.0
sz300841,康华生物,2020-11-27,461.0,466.4,455.5,459.0,461.98,392000.0,180358728.0,6885000000.0,27540000000.0
sz300841,康华生物,2020-11-30,459.01,475.48,459.01,469.98,459.0,534349.0,250435616.0,7049700000.0,28198800000.0
sz300841,康华生物,2020-12-01,468.41,483.0,466.88,480.09,469.98,446800.0,213805673.0,7201350000.0,28805400000.0
sz300841,康华生物,2020-12-02,479.99,484.78,475.2,480.17,480.09,414657.0,199198151.0,7202550000.0,28810200000.0
sz300841,康华生物,2020-12-03,479.09,499.65,479.08,491.0,480.17,679610.0,333621386.0,7365000000.0,29460000000.0
sz300841,康华生物,2020-12-04,488.4,492.99,485.28,488.16,491.0,355859.0,173797043.0,7322400000.0,29289600000.0
sz300841,康华生物,2020-12-07,486.04,486.54,471.99,472.0,488.16,620709.0,296514677.0,7080000000.0,28320000000.0
sz300841,康华生物,2020-12-08,473.8,475.56,468.84,470.93,472.0,357050.0,168572307.0,7063950000.0,28255800000.0
sz300841,康华生物,2020-12-09,471.51,475.42,459.88,459.93,470.93,580592.0,270868483.0,6898950000.0,27595800000.0
sz300841,康华生物,2020-12-10,459.89,465.99,453.15,463.09,459.93,415812.0,191364893.0,6946350000.0,27785400000.0
sz300841,康华生物,2020-12-11,464.08,464.58,447.77,452.41,463.09,571712.0,259500457.0,6786150000.0,27144600000.0
sz300841,康华生物,2020-12-14,450.49,457.57,446.25,455.51,452.41,378025.0,171277863.0,6832650000.0,27330600000.0
sz300841,康华生物,2020-12-15,460.0,475.0,458.11,463.89,455.51,481441.0,224950103.0,6958350000.0,27833400000.0
sz300841,康华生物,2020-12-16,463.32,465.66,456.5,458.14,463.89,354104.0,162918953.0,6872100000.0,27488400000.0
sz300841,康华生物,2020-12-17,461.92,480.0,461.92,479.99,458.14,814744.0,386184079.0,7199850000.0,28799400000.0
sz300841,康华生物,2020-12-18,475.0,482.79,470.8,472.8,479.99,542500.0,258048938.0,7092000000.0,28368000000.0
sz300841,康华生物,2020-12-21,474.99,487.7,468.05,485.3,472.8,664601.0,319331011.0,7279500000.0,29118000000.0
sz300841,康华生物,2020-12-22,485.55,493.88,468.0,469.39,485.3,757912.0,364616327.0,7040850000.0,28163400000.0
sz300841,康华生物,2020-12-23,469.99,475.98,465.0,466.8,469.39,452311.0,212216984.0,7002000000.0,28008000000.0
sz300841,康华生物,2020-12-24,467.0,479.88,465.03,470.0,466.8,606644.0,287192961.0,7050000000.0,28200000000.0
sz300841,康华生物,2020-12-25,467.51,467.51,454.0,455.71,470.0,698194.0,320380889.0,6835650000.0,27342600000.0
sz300841,康华生物,2020-12-28,456.01,457.79,428.28,430.0,455.71,1039510.0,458588839.0,6450000000.0,25800000000.0
sz300841,康华生物,2020-12-29,430.01,435.4,417.08,429.39,430.0,676000.0,288431577.0,6440850000.0,25763400000.0
sz300841,康华生物,2020-12-30,428.43,461.0,426.03,455.06,429.39,816160.0,363304306.0,6825900000.0,27303600000.0
sz300841,康华生物,2020-12-31,455.01,480.5,455.0,468.24,455.06,979871.0,458914752.0,7023600000.0,28094400000.0
sz300841,康华生物,2021-01-04,470.0,509.0,468.0,499.01,468.24,1356692.0,667270016.0,7485150000.0,29940600000.0
sz300841,康华生物,2021-01-05,507.96,590.18,500.0,588.0,499.01,2428083.0,1336692489.0,8820000000.0,35280000000.0
sz300841,康华生物,2021-01-06,572.11,578.88,548.8,560.01,588.0,1295080.0,725959616.0,8400150000.0,33600600000.0
sz300841,康华生物,2021-01-07,562.25,572.88,534.52,541.1,560.01,1179438.0,648583564.0,8116500000.0,32466000000.0
sz300841,康华生物,2021-01-08,540.0,548.99,508.51,517.0,541.1,1056652.0,555754479.0,7755000000.0,31020000000.0
sz300841,康华生物,2021-01-11,516.01,539.74,501.0,526.68,517.0,1072204.0,560501089.0,7900200000.0,31600800000.0
sz300841,康华生物,2021-01-12,527.2,531.85,513.03,519.0,526.68,684050.0,355172322.0,7785000000.0,31140000000.0
sz300841,康华生物,2021-01-13,520.59,522.99,490.87,496.0,519.0,982601.0,495454013.0,7440000000.0,29760000000.0
sz300841,康华生物,2021-01-14,491.09,494.99,470.11,482.0,496.0,921000.0,443367118.0,7230000000.0,28920000000.0
sz300841,康华生物,2021-01-15,478.01,509.1,478.01,502.5,482.0,791788.0,393782447.0,7537500000.0,30150000000.0
sz300841,康华生物,2021-01-18,502.97,507.98,487.0,490.81,502.5,724088.0,356570306.0,7362150000.0,29448600000.0
sz300841,康华生物,2021-01-19,489.98,504.2,485.15,490.55,490.81,558975.0,277128502.0,7358250000.0,29433000000.0
sz300841,康华生物,2021-01-20,491.02,522.0,486.0,519.88,490.55,1040024.0,528578184.0,7798200000.0,31192800000.0
sz300841,康华生物,2021-01-21,521.0,525.8,507.0,515.0,519.88,818351.0,421265139.0,7725000000.0,30900000000.0
sz300841,康华生物,2021-01-22,507.99,539.88,500.06,533.75,515.0,1276394.0,667787711.0,8006250000.0,32025000000.0
sz300841,康华生物,2021-01-25,533.7,533.7,511.51,517.13,533.75,1049600.0,546991385.0,7756950000.0,31027800000.0
sz300841,康华生物,2021-01-26,510.01,516.8,493.5,493.6,517.13,733150.0,366209996.0,7404000000.0,29616000000.0
sz300841,康华生物,2021-01-27,490.0,494.99,460.0,465.69,493.6,1262767.0,593560186.0,6985350000.0,27941400000.0
sz300841,康华生物,2021-01-28,464.8,472.59,456.33,461.98,465.69,570760.0,265997796.0,6929700000.0,27718800000.0
sz300841,康华生物,2021-01-29,464.2,467.01,442.78,454.5,461.98,708360.0,321699454.0,6817500000.0,27270000000.0
sz300841,康华生物,2021-02-01,454.0,466.22,450.0,461.59,454.5,534710.0,246382496.0,6923850000.0,27695400000.0
sz300841,康华生物,2021-02-02,460.0,460.0,446.0,451.98,461.59,502038.0,227359910.0,6779700000.0,27118800000.0
sz300841,康华生物,2021-02-03,451.99,475.5,449.2,464.19,451.98,672379.0,313336415.0,6962850000.0,27851400000.0
sz300841,康华生物,2021-02-04,458.02,465.0,448.22,455.54,464.19,500803.0,227743159.0,6833100000.0,27332400000.0
sz300841,康华生物,2021-02-05,460.0,471.22,455.11,468.0,455.54,498277.0,230801940.0,7020000000.0,28080000000.0
sz300841,康华生物,2021-02-08,466.0,497.8,462.3,495.6,468.0,866666.0,419672885.0,7434000000.0,29736000000.0
sz300841,康华生物,2021-02-09,490.0,503.96,483.88,492.5,495.6,561453.0,276088026.0,7387500000.0,29550000000.0
sz300841,康华生物,2021-02-10,491.81,520.2,485.5,517.51,492.5,1050349.0,534910885.0,7762650000.0,31050600000.0
sz300841,康华生物,2021-02-18,520.0,525.81,495.3,505.0,517.51,924150.0,468321741.0,7575000000.0,30300000000.0
sz300841,康华生物,2021-02-19,499.99,499.99,478.15,491.5,505.0,761128.0,371723673.0,7372500000.0,29490000000.0
sz300841,康华生物,2021-02-22,491.0,491.0,471.29,471.96,491.5,652702.0,311251369.0,7079400000.0,28317600000.0
sz300841,康华生物,2021-02-23,469.0,476.0,467.26,472.4,471.96,424602.0,200721839.0,7086000000.0,28344000000.0
sz300841,康华生物,2021-02-24,472.4,475.61,451.4,454.0,472.4,569509.0,262200324.0,6810000000.0,27240000000.0
sz300841,康华生物,2021-02-25,458.0,469.9,458.0,462.39,454.0,378565.0,175610671.0,6935850000.0,27743400000.0
sz300841,康华生物,2021-02-26,453.0,463.0,444.0,458.0,462.39,401250.0,181949765.0,6870000000.0,27480000000.0
sz300841,康华生物,2021-03-01,458.0,464.74,452.31,460.0,458.0,353271.0,162264439.0,6900000000.0,27600000000.0
sz300841,康华生物,2021-03-02,460.01,464.64,453.4,463.19,460.0,335254.0,154040369.0,6947850000.0,27791400000.0
sz300841,康华生物,2021-03-03,462.29,468.99,455.66,468.1,463.19,346958.0,161394288.0,7021500000.0,28086000000.0
sz300841,康华生物,2021-03-04,465.0,465.25,438.88,439.0,468.1,698896.0,312838844.0,6585000000.0,26340000000.0
sz300841,康华生物,2021-03-05,429.98,446.8,426.66,441.43,439.0,327410.0,143577052.0,6621450000.0,26485800000.0
sz300841,康华生物,2021-03-08,447.83,447.83,421.98,422.71,441.43,401378.0,173618888.0,6340650000.0,25362600000.0
sz300841,康华生物,2021-03-09,420.0,425.58,405.0,411.0,422.71,424890.0,177377933.0,6165000000.0,24660000000.0
sz300841,康华生物,2021-03-10,416.0,418.99,408.96,415.39,411.0,348289.0,144717535.0,6230850000.0,24923400000.0
sz300841,康华生物,2021-03-11,413.07,424.0,412.17,417.21,415.39,333885.0,139443996.0,6258150000.0,25032600000.0
sz300841,康华生物,2021-03-12,416.98,422.4,397.0,397.0,417.21,614487.0,249663054.0,5955000000.0,23820000000.0
sz300841,康华生物,2021-03-15,391.03,394.02,369.0,372.9,397.0,779490.0,294574832.0,5593500000.0,22374000000.0
sz300841,康华生物,2021-03-16,375.01,377.77,371.0,376.3,372.9,360152.0,135199967.0,5644500000.0,22578000000.0
sz300841,康华生物,2021-03-17,374.16,379.88,370.01,378.68,376.3,276100.0,103999702.0,5680200000.0,22720800000.0
sz300841,康华生物,2021-03-18,380.0,383.08,376.6,380.37,378.68,310810.0,117880501.0,5705550000.0,22822200000.0
sz300841,康华生物,2021-03-19,374.0,394.89,373.99,384.72,380.37,434220.0,167337196.0,5770800000.0,23083200000.0
sz300841,康华生物,2021-03-22,383.5,389.95,378.46,384.99,384.72,292619.0,112322069.0,5774850000.0,23099400000.0
sz300841,康华生物,2021-03-23,382.2,387.6,376.6,384.4,384.99,329965.0,126699191.0,5766000000.0,23064000000.0
sz300841,康华生物,2021-03-24,381.04,386.5,371.0,373.0,384.4,336470.0,126855054.0,5595000000.0,22380000000.0
sz300841,康华生物,2021-03-25,375.58,382.41,370.1,373.54,373.0,296400.0,111645634.0,5603100000.0,22412400000.0
sz300841,康华生物,2021-03-26,373.88,391.0,373.88,391.0,373.54,452430.0,174019637.0,5865000000.0,23460000000.0
sz300841,康华生物,2021-03-29,387.32,388.78,381.53,383.7,391.0,296700.0,113964617.0,5755500000.0,23022000000.0
sz300841,康华生物,2021-03-30,381.6,388.9,381.6,383.4,383.7,253200.0,97437908.0,5751000000.0,23004000000.0
sz300841,康华生物,2021-03-31,381.46,384.2,375.3,377.0,383.4,264880.0,100086698.0,5655000000.0,22620000000.0
sz300841,康华生物,2021-04-01,376.78,388.96,375.33,386.99,377.0,389252.0,149139348.0,5804850000.0,23219400000.0
sz300841,康华生物,2021-04-02,384.99,387.95,382.0,384.59,386.99,330599.0,127044522.0,5768850000.0,23075400000.0
sz300841,康华生物,2021-04-06,385.0,386.96,382.06,385.7,384.59,230098.0,88534154.0,5785500000.0,23142000000.0
sz300841,康华生物,2021-04-07,384.56,391.8,381.2,387.0,385.7,382310.0,147619353.0,5805000000.0,23220000000.0
sz300841,康华生物,2021-04-08,386.98,419.88,384.03,416.79,387.0,814872.0,330844837.0,6251850000.0,25007400000.0
sz300841,康华生物,2021-04-09,416.8,425.1,409.98,419.78,416.79,550698.0,230021354.0,6296700000.0,25186800000.0
sz300841,康华生物,2021-04-12,418.0,418.0,394.0,395.34,419.78,545439.0,220371318.0,5930100000.0,23720400000.0
sz300841,康华生物,2021-04-13,391.15,412.4,391.13,403.41,395.34,402803.0,162688600.0,6051150000.0,24204600000.0
sz300841,康华生物,2021-04-14,408.88,409.5,398.5,403.8,403.41,254043.0,102440542.0,6057000000.0,24228000000.0
sz300841,康华生物,2021-04-15,400.0,401.19,380.03,391.74,403.8,450882.0,175862897.0,5876100000.0,23504400000.0
sz300841,康华生物,2021-04-16,391.36,395.3,383.77,395.2,391.74,289718.0,113270299.0,5928000000.0,23712000000.0
sz300841,康华生物,2021-04-19,395.19,409.99,390.7,408.19,395.2,405103.0,164306562.0,6122850000.0,24491400000.0
sz300841,康华生物,2021-04-20,432.0,445.55,410.09,414.32,408.19,1318911.0,565434123.0,6214800000.0,24859200000.0
sz300841,康华生物,2021-04-21,411.68,465.85,411.68,454.98,414.32,1658904.0,740523648.0,6824700000.0,27298800000.0
sz300841,康华生物,2021-04-22,451.0,463.85,446.51,457.18,454.98,792133.0,360624572.0,6857700000.0,27430800000.0
sz300841,康华生物,2021-04-23,456.5,471.23,448.0,450.54,457.18,667427.0,306384014.0,6758100000.0,27032400000.0
sz300841,康华生物,2021-04-26,451.35,473.95,451.01,456.0,450.54,890032.0,414114986.0,6840000000.0,27360000000.0
sz300841,康华生物,2021-04-27,453.1,462.87,448.0,455.85,456.0,482075.0,219310530.0,6837750000.0,27351000000.0
sz300841,康华生物,2021-04-28,449.0,454.0,438.86,450.0,455.85,573638.0,256435082.0,6750000000.0,27000000000.0
sz300841,康华生物,2021-04-29,445.46,448.89,433.33,439.98,450.0,592205.0,260177431.0,6599700000.0,26398800000.0
sz300841,康华生物,2021-04-30,439.97,445.99,428.66,435.25,439.98,527752.0,229474676.0,6528750000.0,26115000000.0
sz300841,康华生物,2021-05-06,430.88,430.88,411.0,413.14,435.25,548500.0,229235040.0,6197100000.0,24788400000.0
sz300841,康华生物,2021-05-07,417.5,420.88,398.0,398.06,413.14,414265.0,168879420.0,5970900000.0,23883600000.0
sz300841,康华生物,2021-05-10,399.0,405.3,390.27,394.03,398.06,406418.0,161413987.0,5910450000.0,23641800000.0
sz300841,康华生物,2021-05-11,390.5,395.1,382.0,395.1,394.03,353010.0,137260747.0,5926500000.0,23706000000.0
sz300841,康华生物,2021-05-12,395.0,395.28,383.34,394.46,395.1,306818.0,119670068.0,5916900000.0,23667600000.0
sz300841,康华生物,2021-05-13,389.0,413.6,385.35,407.85,394.46,572223.0,229516416.0,6117750000.0,24471000000.0
sz300841,康华生物,2021-05-14,405.33,437.85,405.01,436.05,407.85,953713.0,405964666.0,6540750000.0,26163000000.0
sz300841,康华生物,2021-05-17,431.0,456.0,430.95,449.89,436.05,821933.0,368428495.0,6748350000.0,26993400000.0
sz300841,康华生物,2021-05-18,451.18,452.68,437.01,442.8,449.89,447908.0,198557081.0,6642000000.0,26568000000.0
sz300841,康华生物,2021-05-19,443.8,448.74,437.18,439.19,442.8,309391.0,136803188.0,6587850000.0,26351400000.0
sz300841,康华生物,2021-05-20,439.25,480.0,439.25,471.03,439.19,908800.0,423682437.0,7065450000.0,28261800000.0
sz300841,康华生物,2021-05-21,475.2,484.8,463.01,475.0,471.03,668855.0,317148093.0,7125000000.0,28500000000.0
sz300841,康华生物,2021-05-24,473.72,477.9,453.65,469.01,475.0,598900.0,279009784.0,7035150000.0,28140600000.0
sz300841,康华生物,2021-05-25,477.21,485.49,472.04,478.08,469.01,587934.0,281487296.0,7171200000.0,28684800000.0
sz300841,康华生物,2021-05-26,478.98,480.98,466.0,476.0,478.08,419413.0,198768873.0,7140000000.0,28560000000.0
sz300841,康华生物,2021-05-27,315.0,328.58,315.0,315.79,316.33,832292.0,267794249.0,7105275000.0,28421100000.0
sz300841,康华生物,2021-05-28,312.0,318.54,299.58,302.18,315.79,1052966.0,323978162.0,6799050000.0,27196200000.0
sz300841,康华生物,2021-05-31,309.69,333.28,306.23,321.47,302.18,1138700.0,367090183.0,7233075000.0,28932300000.0
sz300841,康华生物,2021-06-01,321.0,327.93,314.02,327.0,321.47,756650.0,243772563.0,7357500000.0,29430000000.0
sz300841,康华生物,2021-06-02,327.0,327.5,308.13,311.27,327.0,815763.0,257487882.0,7003575000.0,28014300000.0
sz300841,康华生物,2021-06-03,309.0,314.88,306.08,306.08,311.27,404255.0,125232392.0,6886800000.0,27547200000.0
sz300841,康华生物,2021-06-04,305.95,309.94,302.12,304.89,306.08,386100.0,118009170.0,6860025000.0,27440100000.0
sz300841,康华生物,2021-06-07,305.9,311.01,301.1,306.12,304.89,447077.0,137429445.0,6887700000.0,27550800000.0
sz300841,康华生物,2021-06-08,306.16,307.89,300.01,300.55,306.12,438541.0,133078518.0,6762375000.0,27049500000.0
sz300841,康华生物,2021-06-09,300.0,305.4,289.0,294.0,300.55,500240.0,148168712.0,6615000000.0,26460000000.0
sz300841,康华生物,2021-06-10,293.59,309.69,293.01,304.86,294.0,512533.0,155706385.0,6859350000.0,27437400000.0
sz300841,康华生物,2021-06-11,303.92,314.4,297.7,311.16,304.86,776441.0,237782855.0,7001100000.0,28004400000.0
sz300841,康华生物,2021-06-15,310.98,310.98,291.1,292.9,311.16,923505.0,275062375.0,6590250000.0,26361000000.0
sz300841,康华生物,2021-06-16,293.22,297.0,286.68,287.58,292.9,385683.0,111933778.0,6470550000.0,25882200000.0
sz300841,康华生物,2021-06-17,289.0,291.89,275.0,278.3,287.58,673861.0,189791360.0,17568122482.9,25047000000.0
sz300841,康华生物,2021-06-18,277.85,283.88,274.65,274.7,278.3,615533.0,171016684.0,17340866856.100002,24723000000.0
sz300841,康华生物,2021-06-21,273.93,282.82,271.12,281.7,274.7,595354.0,165999833.0,17782752797.1,25353000000.0
sz300841,康华生物,2021-06-22,280.59,291.0,280.59,284.5,281.7,479199.0,136767454.0,17959507173.5,25605000000.0
sz300841,康华生物,2021-06-23,284.29,284.3,277.0,281.17,284.5,493453.0,138169298.0,17749295718.710003,25305300000.0
sz300841,康华生物,2021-06-24,281.17,281.2,271.9,274.75,281.17,615330.0,168975102.0,17344023184.25,24727500000.0
sz300841,康华生物,2021-06-25,275.01,279.69,273.0,275.77,274.75,465950.0,129022197.0,17408412278.51,24819300000.0
sz300841,康华生物,2021-06-28,275.74,279.8,273.01,277.92,275.77,439500.0,121538574.0,17544134388.96,25012800000.0
sz300841,康华生物,2021-06-29,277.92,278.05,267.1,267.99,277.92,879850.0,238893637.0,16917287618.37,24119100000.0
sz300841,康华生物,2021-06-30,267.5,272.4,266.03,268.8,267.99,417400.0,112246933.0,16968420134.4,24192000000.0
sz300841,康华生物,2021-07-01,269.01,278.6,269.01,274.42,268.8,661950.0,181840802.0,17323191418.46,24697800000.0
sz300841,康华生物,2021-07-02,272.72,272.72,261.67,262.88,274.42,686428.0,182213689.0,16594710881.44,23659200000.0
sz300841,康华生物,2021-07-05,263.88,272.0,255.24,269.01,262.88,1094412.0,288477162.0,16981676712.63,24210900000.0
sz300841,康华生物,2021-07-06,268.98,269.0,258.13,263.15,269.01,645996.0,169637179.0,16611755053.45,23683500000.0
sz300841,康华生物,2021-07-07,263.69,265.5,259.2,263.07,263.15,536553.0,140449139.0,16606704928.41,23676300000.0
sz300841,康华生物,2021-07-08,262.01,263.47,245.89,245.97,263.07,1587679.0,401240275.0,15527240701.11,22137300000.0
sz300841,康华生物,2021-07-09,246.85,246.88,233.5,236.02,245.97,1277747.0,302343267.0,14899131399.26,21241800000.0
sz300841,康华生物,2021-07-12,236.83,239.12,233.84,236.55,236.02,768650.0,181994045.0,14932588477.650002,21289500000.0
sz300841,康华生物,2021-07-13,237.66,238.87,232.51,238.42,236.55,703799.0,166203950.0,15050635150.46,21457800000.0
sz300841,康华生物,2021-07-14,238.37,245.68,236.85,238.86,238.42,730968.0,176473322.0,15078410838.18,21497400000.0
sz300841,康华生物,2021-07-15,237.0,238.85,230.54,235.76,238.86,644401.0,150681904.0,14882718492.88,21218400000.0
sz300841,康华生物,2021-07-16,238.0,254.0,238.0,245.14,235.76,1227368.0,303129810.0,15474845653.82,22062600000.0
sz300841,康华生物,2021-07-19,245.99,247.66,236.01,238.5,245.14,920370.0,220668919.0,15055685275.5,21465000000.0
sz300841,康华生物,2021-07-20,236.0,239.0,233.69,236.8,238.5,447300.0,105542860.0,14948370118.4,21312000000.0
sz300841,康华生物,2021-07-21,222.11,236.6,222.01,234.98,236.8,1275756.0,292214047.0,14833479773.74,21148200000.0
sz300841,康华生物,2021-07-22,232.73,235.88,227.0,228.34,234.98,722650.0,166510025.0,14414319395.42,20550600000.0
sz300841,康华生物,2021-07-23,228.55,230.99,222.2,222.73,228.34,584958.0,131259857.0,14060179376.99,20045700000.0
sz300841,康华生物,2021-07-26,222.73,222.73,201.0,206.35,222.73,1642330.0,342211596.0,13026166275.05,18571500000.0
sz300841,康华生物,2021-07-27,206.88,217.96,206.87,210.04,206.35,1021208.0,216931988.0,13259103292.52,18903600000.0
sz300841,康华生物,2021-07-28,210.02,215.02,205.55,206.68,210.04,776663.0,162244553.0,13046998040.84,18601200000.0
sz300841,康华生物,2021-07-29,209.0,212.68,206.7,211.2,206.68,644885.0,135397303.0,13332330105.6,19008000000.0
sz300841,康华生物,2021-07-30,210.04,214.5,205.08,212.53,211.2,682555.0,143367797.0,13416288434.39,19127700000.0
sz300841,康华生物,2021-08-02,213.59,217.0,204.5,216.17,212.53,860190.0,182817520.0,13646069123.71,19455300000.0
sz300841,康华生物,2021-08-03,217.0,227.87,212.02,225.48,216.17,1388141.0,309954204.0,14233777425.24,20293200000.0
sz300841,康华生物,2021-08-04,222.0,222.0,215.0,215.79,225.48,1268658.0,275479947.0,13622081029.77,19421100000.0
sz300841,康华生物,2021-08-05,214.26,217.0,209.9,212.12,215.79,822328.0,175328493.0,13390406543.56,19090800000.0
sz300841,康华生物,2021-08-06,212.29,212.98,202.55,204.61,212.12,733471.0,150921285.0,12916326055.429998,18414900000.0
sz300841,康华生物,2021-08-09,202.71,216.57,202.0,214.35,204.61,869856.0,184032148.0,13531178779.05,19291500000.0
sz300841,康华生物,2021-08-10,215.0,215.53,209.3,213.89,214.35,527036.0,111811479.0,13502140560.07,19250100000.0
sz300841,康华生物,2021-08-11,216.0,216.0,206.88,210.23,213.89,766736.0,160821595.0,13271097339.49,18920700000.0
sz300841,康华生物,2021-08-12,209.98,210.82,204.55,204.91,210.23,655694.0,135245723.0,12935264024.33,18441900000.0
sz300841,康华生物,2021-08-13,204.9,208.8,203.08,207.57,204.91,643558.0,132654553.0,13103180681.91,18681300000.0
sz300841,康华生物,2021-08-16,207.38,208.3,204.3,206.16,207.57,521072.0,107490513.0,13014172228.08,18554400000.0
sz300841,康华生物,2021-08-17,206.15,206.15,196.01,196.25,206.16,957748.0,192285740.0,12388587988.75,17662500000.0
sz300841,康华生物,2021-08-18,195.06,197.18,190.23,191.7,196.25,807265.0,155470787.0,12101362127.1,17253000000.0
sz300841,康华生物,2021-08-19,192.0,194.88,187.47,189.82,191.7,946611.0,180200645.0,11982684188.66,17083800000.0
sz300841,康华生物,2021-08-20,188.02,188.1,180.0,181.39,189.82,991017.0,181277963.0,11450527262.57,16325100000.0
sz300841,康华生物,2021-08-23,183.39,191.89,183.37,190.55,181.39,1012763.0,191608202.0,12028766579.65,17149500000.0
sz300841,康华生物,2021-08-24,191.17,192.01,186.49,187.01,190.55,743296.0,139596697.0,11805298546.63,16830900000.0
sz300841,康华生物,2021-08-25,187.0,190.78,185.0,190.1,187.01,598503.0,113074436.0,12000359626.3,17109000000.0
sz300841,康华生物,2021-08-26,189.99,190.0,182.13,183.08,190.1,755319.0,139616071.0,11557211154.04,16477200000.0
sz300841,康华生物,2021-08-27,183.08,185.57,181.01,181.56,183.08,655803.0,119400056.0,11461258778.28,16340400000.0
sz300841,康华生物,2021-08-30,180.9,182.28,177.0,179.56,181.56,828375.0,148480111.0,11335005652.28,16160400000.0
sz300841,康华生物,2021-08-31,180.91,180.91,172.11,173.6,179.56,834705.0,145989191.0,10958771336.8,15624000000.0
sz300841,康华生物,2021-09-01,172.04,181.36,172.04,177.2,173.6,888808.0,157290642.0,11186026963.6,15948000000.0
sz300841,康华生物,2021-09-02,181.0,188.6,178.58,182.3,177.2,1378034.0,255143100.0,11507972434.9,16407000000.0
sz300841,康华生物,2021-09-03,179.0,180.09,171.99,178.35,182.3,801357.0,141574749.0,11258622511.05,16051500000.0
sz300841,康华生物,2021-09-06,176.67,186.79,175.88,185.5,178.35,879398.0,160871308.0,11709977436.5,16695000000.0
sz300841,康华生物,2021-09-07,184.96,187.19,182.56,184.62,185.5,621349.0,114542922.0,11654426061.06,16615800000.0
sz300841,康华生物,2021-09-08,183.6,186.0,180.0,181.4,184.62,562150.0,102575019.0,11451158528.2,16326000000.0
sz300841,康华生物,2021-09-09,182.94,183.39,179.38,181.39,181.4,391572.0,70782056.0,11450527262.57,16325100000.0
sz300841,康华生物,2021-09-10,180.01,181.6,177.68,178.39,181.39,561398.0,100423109.0,11261147573.57,16055100000.0
sz300841,康华生物,2021-09-13,179.47,182.87,176.28,177.05,178.39,438643.0,78517090.0,11176557979.15,15934500000.0
sz300841,康华生物,2021-09-14,176.96,179.3,173.88,174.31,177.05,699650.0,122933189.0,11003591196.53,15687900000.0
sz300841,康华生物,2021-09-15,176.11,176.5,171.01,171.9,174.31,628900.0,108662864.0,10851456179.7,15471000000.0
sz300841,康华生物,2021-09-16,171.99,174.8,169.0,172.2,171.9,834580.0,143689307.0,10870394148.599998,15498000000.0
sz300841,康华生物,2021-09-17,172.2,173.19,166.1,170.26,172.2,876742.0,148664070.0,10747928616.38,15323400000.0
sz300841,康华生物,2021-09-22,168.98,170.76,166.0,169.09,170.26,805300.0,134876592.0,10674070537.67,15218100000.0
sz300841,康华生物,2021-09-23,169.51,175.47,168.31,173.0,169.09,950851.0,163933991.0,10920895399.0,15570000000.0
sz300841,康华生物,2021-09-24,173.58,173.99,168.93,170.91,173.0,787292.0,134247578.0,10788960882.33,15381900000.0
sz300841,康华生物,2021-09-27,170.43,176.22,169.03,173.98,170.91,1019825.0,177216996.0,10982759430.74,15658200000.0
sz300841,康华生物,2021-09-28,174.0,174.1,168.33,169.0,173.98,865753.0,147172585.0,10668389147.0,15210000000.0
sz300841,康华生物,2021-09-29,167.88,168.73,164.0,165.12,169.0,667756.0,110531161.0,10423458082.56,14860800000.0
sz300841,康华生物,2021-09-30,165.12,167.46,163.75,166.8,165.12,459250.0,76026463.0,10529510708.4,15012000000.0
sz300841,康华生物,2021-10-08,166.0,171.7,165.0,169.86,166.8,640754.0,108209168.0,10722677991.18,15287400000.0
sz300841,康华生物,2021-10-11,170.8,188.3,170.03,187.7,169.86,2530425.0,458193910.0,11848855875.1,16893000000.0
sz300841,康华生物,2021-10-12,185.82,205.33,185.2,199.12,187.7,2865800.0,567468213.0,12569761224.56,17920800000.0
sz300841,康华生物,2021-10-13,199.01,203.36,195.6,201.02,199.12,1359780.0,271744837.0,12689701694.26,18091800000.0
sz300841,康华生物,2021-10-14,201.11,203.0,191.66,193.0,201.02,1390730.0,272507815.0,12183426659.0,17370000000.0
sz300841,康华生物,2021-10-15,194.99,197.44,188.17,191.69,193.0,979055.0,188290951.0,12100730861.47,17252100000.0
sz300841,康华生物,2021-10-18,193.0,193.16,181.79,183.95,191.69,1228875.0,226375635.0,11612131263.85,16555500000.0
sz300841,康华生物,2021-10-19,183.11,188.0,182.05,184.98,183.95,779688.0,144807088.0,11677151623.74,16648200000.0
sz300841,康华生物,2021-10-20,185.98,185.98,179.0,183.05,184.98,619678.0,113041007.0,11555317357.15,16474500000.0
sz300841,康华生物,2021-10-21,183.99,184.3,179.14,180.54,183.05,552693.0,99796994.0,11396869684.02,16248600000.0
sz300841,康华生物,2021-10-22,180.8,187.1,179.59,187.1,180.54,771437.0,142184858.0,11810979937.3,16839000000.0
sz300841,康华生物,2021-10-25,185.8,189.8,181.05,182.54,187.1,810265.0,148804409.0,11523122810.02,16428600000.0
sz300841,康华生物,2021-10-26,177.96,178.0,166.9,172.22,182.54,2150265.0,367713980.0,10580694262.04,15499800000.0
sz300841,康华生物,2021-10-27,170.01,170.6,165.0,165.03,172.22,1003109.0,166653622.0,10417776691.89,14852700000.0
sz300841,康华生物,2021-10-28,165.0,165.0,156.0,156.12,165.03,1278665.0,202642368.0,9591557241.84,14050800000.0
sz300841,康华生物,2021-10-29,158.99,163.25,158.12,159.7,156.12,992978.0,159339420.0,9811501995.4,14373000000.0
sz300841,康华生物,2021-11-01,160.9,162.35,156.11,161.52,159.7,661788.0,105413615.0,9923317484.64,14536800000.0
sz300841,康华生物,2021-11-02,160.51,162.98,157.0,157.18,161.52,624607.0,99685506.0,9656680548.76,14146200000.0
sz300841,康华生物,2021-11-03,160.32,163.44,159.0,161.13,157.18,700522.0,113072364.0,9899357022.66,14501700000.0
sz300841,康华生物,2021-11-04,161.47,164.23,160.24,162.63,161.13,658350.0,106998701.0,9991512645.66,14636700000.0
sz300841,康华生物,2021-11-05,162.26,172.59,161.3,167.33,162.63,1380273.0,231868228.0,10280266931.06,15059700000.0
sz300841,康华生物,2021-11-08,167.34,167.97,162.88,164.96,167.33,665742.0,109454209.0,10134661046.72,14846400000.0
sz300841,康华生物,2021-11-09,164.59,167.32,163.6,166.01,164.96,483050.0,80030870.0,10199169982.82,14940900000.0
sz300841,康华生物,2021-11-10,165.0,171.85,165.0,170.96,166.01,885679.0,149695436.0,10503283538.72,15386400000.0
sz300841,康华生物,2021-11-11,170.0,171.21,167.05,168.91,170.96,549620.0,92660597.0,10377337520.62,15201900000.0
sz300841,康华生物,2021-11-12,168.85,169.81,165.22,166.01,168.91,530950.0,88463984.0,10199169982.82,14940900000.0
sz300841,康华生物,2021-11-15,165.45,169.6,165.01,168.38,166.01,563552.0,94677566.0,10344775867.16,15154200000.0
sz300841,康华生物,2021-11-16,169.0,172.24,166.67,169.91,168.38,1020150.0,173486004.0,10438774602.62,15291900000.0
sz300841,康华生物,2021-11-17,169.91,170.0,165.58,167.85,169.91,743674.0,124242485.0,10312214213.7,15106500000.0
sz300841,康华生物,2021-11-18,168.13,168.54,163.3,164.02,167.85,654001.0,108220117.0,10076910189.64,14761800000.0
sz300841,康华生物,2021-11-19,165.2,167.44,164.55,165.95,164.02,477618.0,79321692.0,10195483757.9,14935500000.0
sz300841,康华生物,2021-11-22,165.58,166.9,163.08,164.16,165.95,613548.0,100720269.0,10085511381.119999,14774400000.0
sz300841,康华生物,2021-11-23,164.11,166.99,163.61,165.48,164.16,648030.0,107293163.0,10166608329.359999,14893200000.0
sz300841,康华生物,2021-11-24,166.38,170.68,164.81,169.95,165.48,1190458.0,200581101.0,10441232085.9,15295500000.0
sz300841,康华生物,2021-11-25,170.69,172.8,167.51,171.33,169.95,1013676.0,172592710.0,10526015259.060001,15419700000.0
sz300841,康华生物,2021-11-26,170.0,174.97,169.5,170.99,171.33,954903.0,164226554.0,10505126651.18,15389100000.0
sz300841,康华生物,2021-11-29,171.05,176.5,168.5,171.04,170.99,1147322.0,197257238.0,10508198505.279999,15393600000.0
sz300841,康华生物,2021-11-30,168.8,169.97,166.67,168.02,171.04,844050.0,141770362.0,10322658517.64,15121800000.0
sz300841,康华生物,2021-12-01,167.97,167.97,166.0,166.14,168.02,567300.0,94550163.0,10207156803.48,14952600000.0
sz300841,康华生物,2021-12-02,166.0,166.8,161.18,161.88,166.14,913610.0,149982058.0,9945434834.16,14569200000.0
sz300841,康华生物,2021-12-03,162.5,163.47,161.6,163.2,161.88,459566.0,74695623.0,10026531782.4,14688000000.0
sz300841,康华生物,2021-12-06,162.61,163.79,160.3,160.36,163.2,538200.0,86829732.0,9852050469.52,14432400000.0
sz300841,康华生物,2021-12-07,161.51,162.02,159.18,160.28,160.36,521920.0,83713783.0,9847135502.96,14425200000.0
sz300841,康华生物,2021-12-08,160.5,161.42,159.0,161.4,160.28,494357.0,79445230.0,9915945034.8,14526000000.0
sz300841,康华生物,2021-12-09,161.49,164.29,160.3,164.07,161.4,1025486.0,166919920.0,10079982043.74,14766300000.0
sz300841,康华生物,2021-12-10,164.88,177.0,164.09,170.77,164.07,1735650.0,297803972.0,10491610493.14,15369300000.0
sz300841,康华生物,2021-12-13,170.69,171.57,168.1,169.72,170.77,943752.0,160053129.0,10427101557.04,15274800000.0
sz300841,康华生物,2021-12-14,170.0,174.39,169.72,172.9,169.72,1039004.0,179015358.0,10622471477.8,15561000000.0
sz300841,康华生物,2021-12-15,172.99,173.78,170.03,170.14,172.9,851852.0,146313204.0,10452905131.48,15312600000.0
sz300841,康华生物,2021-12-16,169.94,170.86,167.49,168.04,170.14,582920.0,98101509.0,10323887259.28,15123600000.0
sz300841,康华生物,2021-12-17,168.8,173.95,166.82,172.81,168.04,1065282.0,182086909.0,10616942140.42,15552900000.0
sz300841,康华生物,2021-12-20,172.91,173.94,168.1,168.51,172.81,914980.0,156818016.0,10352762687.82,15165900000.0
sz300841,康华生物,2021-12-21,168.44,170.06,165.98,168.19,168.51,549916.0,92138695.0,10333102821.58,15137100000.0
sz300841,康华生物,2021-12-22,168.4,172.22,167.52,171.09,168.19,670744.0,114096480.0,10511270359.380001,15398100000.0
sz300841,康华生物,2021-12-23,171.08,172.53,167.5,171.1,171.09,654450.0,110797405.0,10511884730.199999,15399000000.0
sz300841,康华生物,2021-12-24,172.87,176.67,169.09,171.71,171.1,978270.0,169310854.0,10549361350.22,15453900000.0
sz300841,康华生物,2021-12-27,171.7,176.93,169.8,175.83,171.71,973864.0,168954401.0,10802482128.06,15824700000.0
sz300841,康华生物,2021-12-28,184.88,193.11,179.0,187.99,175.83,2902573.0,539566362.0,11549557045.179998,16919100000.0
sz300841,康华生物,2021-12-29,185.04,188.0,180.0,180.0,187.99,1740439.0,320096406.0,11058674760.0,16200000000.0
sz300841,康华生物,2021-12-30,180.89,188.88,177.5,188.05,180.0,1630973.0,298864109.0,11553243270.099998,16924500000.0
sz300841,康华生物,2021-12-31,190.0,222.19,189.0,212.72,188.05,4356856.0,901685291.0,13068896083.039999,19144800000.0
sz300841,康华生物,2022-01-04,211.0,228.87,210.1,227.21,212.72,3818103.0,849431742.0,13959119401.22,20448900000.0
sz300841,康华生物,2022-01-05,227.9,247.88,227.36,228.77,227.21,4430675.0,1052106436.0,14054961249.140001,20589300000.0
sz300841,康华生物,2022-01-06,228.0,247.0,223.32,243.58,228.77,3148589.0,757516694.0,14964844433.56,21922200000.0
sz300841,康华生物,2022-01-07,243.0,243.0,233.2,240.38,243.58,1769494.0,423267623.0,14768245771.16,21634200000.0
sz300841,康华生物,2022-01-10,238.0,256.95,226.5,251.49,240.38,2970372.0,725647902.0,15450811752.18,22634100000.0
sz300841,康华生物,2022-01-11,251.39,255.0,241.0,244.7,251.49,1572809.0,388890551.0,15033653965.400002,22023000000.0
sz300841,康华生物,2022-01-12,244.7,264.87,244.69,260.58,244.7,2104110.0,543149472.0,16009274827.56,23452200000.0
sz300841,康华生物,2022-01-13,259.19,259.19,242.0,242.0,260.58,2095261.0,521934920.0,14867773844.000002,21780000000.0
sz300841,康华生物,2022-01-14,239.8,253.5,239.0,243.82,242.0,1946810.0,479007570.0,14979589333.240002,21943800000.0
