数据由邢不行整理
股票代码,股票名称,交易日期,开盘价,最高价,最低价,收盘价,前收盘价,成交量,成交额,流通市值,总市值
sz300845,N捷安,2020-07-03,21.16,25.39,21.16,25.39,17.63,34780.0,879893.0,586255100.0,2344918840.0
sz300845,捷安高科,2020-07-06,27.93,27.93,27.93,27.93,25.39,8725.0,243689.0,644903700.0,2579503080.0
sz300845,捷安高科,2020-07-07,30.72,30.72,30.72,30.72,27.93,11040.0,339149.0,709324800.0,2837176320.0
sz300845,捷安高科,2020-07-08,33.79,33.79,33.79,33.79,30.72,17303.0,584668.0,780211100.0,3120709240.0
sz300845,捷安高科,2020-07-09,37.17,37.17,37.17,37.17,33.79,24488.0,910219.0,858255300.0,3432872520.0
sz300845,捷安高科,2020-07-10,40.89,40.89,40.89,40.89,37.17,45894.0,1876606.0,944150100.0,3776436840.0
sz300845,捷安高科,2020-07-13,44.98,44.98,44.98,44.98,40.89,91772.0,4127905.0,1038588200.0,4154172880.0
sz300845,捷安高科,2020-07-14,49.48,49.48,49.48,49.48,44.98,62062.0,3070828.0,1142493200.0,4569774880.0
sz300845,捷安高科,2020-07-15,54.43,54.43,54.43,54.43,49.48,52747.0,2871019.0,1256788700.0,5026937080.0
sz300845,捷安高科,2020-07-16,59.87,59.87,59.87,59.87,54.43,184304.0,11034280.0,1382398299.9999998,5529353720.0
sz300845,捷安高科,2020-07-17,53.88,56.88,53.88,53.88,59.87,2822461.0,152419417.0,1244089200.0,4976141280.0
sz300845,捷安高科,2020-07-20,48.49,52.5,48.49,50.28,53.88,9990289.0,493988732.0,1160965200.0,4643659680.0
sz300845,捷安高科,2020-07-21,48.48,49.68,48.01,49.05,50.28,7076823.0,345245227.0,1132564500.0,4530061800.0
sz300845,捷安高科,2020-07-22,48.49,51.3,47.25,50.59,49.05,7952309.0,390692736.0,1168123100.0,4672290040.0
sz300845,捷安高科,2020-07-23,49.5,50.5,48.12,49.91,50.59,5777013.0,285639765.0,1152421900.0,4609487960.0
sz300845,捷安高科,2020-07-24,49.5,53.4,49.5,51.0,49.91,8334656.0,431473750.0,1177590000.0,4710156000.0
sz300845,捷安高科,2020-07-27,53.0,54.55,47.94,48.36,51.0,7137622.0,361387414.0,1116632400.0,4466336160.0
sz300845,捷安高科,2020-07-28,45.02,46.35,44.72,45.39,48.36,6550775.0,297658434.0,1048055100.0,4192038840.0
sz300845,捷安高科,2020-07-29,44.82,46.77,44.52,46.34,45.39,4438392.0,202980471.0,1069990600.0,4279777040.000001
sz300845,捷安高科,2020-07-30,46.01,47.44,45.63,46.89,46.34,4646667.0,216547953.0,1082690100.0,4330572840.0
sz300845,捷安高科,2020-07-31,46.49,46.77,45.45,45.8,46.89,4120032.0,189622784.0,1057522000.0,4229904800.0
sz300845,捷安高科,2020-08-03,46.04,49.48,45.66,48.94,45.8,5888872.0,280350069.0,1130024600.0,4519902640.0
sz300845,捷安高科,2020-08-04,48.12,51.3,47.81,49.77,48.94,6760506.0,334220726.0,1149189300.0,4596558120.0
sz300845,捷安高科,2020-08-05,49.0,49.0,47.0,48.38,49.77,4574128.0,220329401.0,1117094200.0,4468183280.0
sz300845,捷安高科,2020-08-06,48.0,49.48,47.5,47.99,48.38,4219440.0,204597348.0,1108089100.0,4432164440.0
sz300845,捷安高科,2020-08-07,47.55,47.94,43.81,44.33,47.99,4982905.0,226424541.0,1023579700.0,4094141480.0
sz300845,捷安高科,2020-08-10,43.92,45.14,43.36,44.49,44.33,2231512.0,99059771.0,1027274100.0,4108918440.0
sz300845,捷安高科,2020-08-11,44.49,44.7,41.68,42.13,44.49,3075365.0,133487072.0,972781700.0,3890958280.0
sz300845,捷安高科,2020-08-12,42.12,42.69,40.36,41.42,42.13,2266850.0,93827041.0,956387800.0,3825385520.000001
sz300845,捷安高科,2020-08-13,41.6,41.66,40.88,40.93,41.42,1729205.0,71292213.0,945073700.0,3780131080.0
sz300845,捷安高科,2020-08-14,41.25,41.44,40.38,41.29,40.93,1433957.0,58734993.0,953386100.0,3813379240.0
sz300845,捷安高科,2020-08-17,41.36,42.32,41.13,42.22,41.29,1845870.0,77315072.0,974859800.0,3899270320.0
sz300845,捷安高科,2020-08-18,42.1,42.42,41.5,42.33,42.22,2268567.0,95249403.0,977399700.0,3909429480.0
sz300845,捷安高科,2020-08-19,42.48,42.66,40.76,40.78,42.33,1881538.0,78492875.0,941610200.0,3766277680.0
sz300845,捷安高科,2020-08-20,40.44,40.82,39.5,39.91,40.78,1624339.0,64899951.0,921521900.0,3685927960.0
sz300845,捷安高科,2020-08-21,40.58,41.56,40.5,41.12,39.91,1931490.0,79230062.0,949460800.0,3797678720.0
sz300845,捷安高科,2020-08-24,40.79,40.8,38.0,40.2,41.12,2143804.0,84868196.0,928218000.0,3712711200.0
sz300845,捷安高科,2020-08-25,40.24,42.36,39.93,41.64,40.2,2746680.0,113975449.0,961467600.0,3845703840.0
sz300845,捷安高科,2020-08-26,41.64,42.5,40.9,41.49,41.64,2396891.0,100297783.0,958004100.0,3831850440.0
sz300845,捷安高科,2020-08-27,41.93,41.93,39.25,40.23,41.49,2113639.0,84671585.0,928910700.0,3715481880.0
sz300845,捷安高科,2020-08-28,39.95,41.5,39.7,41.35,40.23,1877736.0,76625806.0,954771500.0,3818920600.0
sz300845,捷安高科,2020-08-31,41.08,44.58,40.92,43.64,41.35,4172253.0,179088099.0,1007647600.0,4030415840.0
sz300845,捷安高科,2020-09-01,43.14,45.88,42.88,45.8,43.64,4595302.0,204770330.0,1057522000.0,4229904800.0
sz300845,捷安高科,2020-09-02,45.81,45.81,43.52,44.9,45.8,3343961.0,148852743.0,1036741000.0,4146784400.0
sz300845,捷安高科,2020-09-03,44.6,44.66,42.74,42.87,44.9,3012155.0,131663534.0,989868300.0,3959301720.0
sz300845,捷安高科,2020-09-04,41.99,43.4,41.19,42.98,42.87,1724048.0,73019206.0,992408200.0,3969460880.0
sz300845,捷安高科,2020-09-07,42.99,43.8,41.5,41.75,42.98,1735931.0,74300745.0,964007500.0,3855863000.0
sz300845,捷安高科,2020-09-08,41.75,41.88,39.81,40.27,41.75,2494507.0,101010733.0,929834300.0,3719176120.0
sz300845,捷安高科,2020-09-09,39.62,40.95,38.0,40.1,40.27,3703677.0,144927364.0,925909000.0,3703475600.0
sz300845,捷安高科,2020-09-10,39.8,39.97,36.1,36.21,40.1,3032032.0,115103671.0,836088900.0,3344210760.0
sz300845,捷安高科,2020-09-11,36.14,36.99,35.22,36.5,36.21,1581643.0,57138262.0,842785000.0,3370994000.0
sz300845,捷安高科,2020-09-14,36.8,37.48,36.45,37.48,36.5,1411280.0,52401930.0,865413200.0000001,3461502880.0
sz300845,捷安高科,2020-09-15,37.0,38.48,36.83,37.91,37.48,1691322.0,64123726.0,875341900.0,3501215960.0
sz300845,捷安高科,2020-09-16,37.35,38.79,37.06,38.7,37.91,2177881.0,83285853.0,893583000.0,3574177199.9999995
sz300845,捷安高科,2020-09-17,38.78,41.48,38.37,39.54,38.7,3518374.0,140413215.0,912978600.0,3651756240.0
sz300845,捷安高科,2020-09-18,39.16,39.99,38.51,38.77,39.54,2269731.0,88499657.0,895199299.9999999,3580642120.0
sz300845,捷安高科,2020-09-21,38.82,39.97,38.3,39.31,38.77,1653909.0,64886600.0,907667900.0,3630514360.0
sz300845,捷安高科,2020-09-22,38.64,39.2,38.08,38.34,39.31,1383771.0,53418485.0,885270600.0,3540929040.0
sz300845,捷安高科,2020-09-23,38.11,39.25,38.11,38.7,38.34,938552.0,36449404.0,893583000.0,3574177199.9999995
sz300845,捷安高科,2020-09-24,38.37,39.0,37.61,37.92,38.7,1088361.0,41580146.0,875572800.0,3502139520.0
sz300845,捷安高科,2020-09-25,38.08,38.69,37.8,37.83,37.92,750234.0,28724738.0,873494700.0,3493827480.0
sz300845,捷安高科,2020-09-28,37.85,38.4,37.0,37.33,37.83,832730.0,31315689.0,861949700.0,3447649479.9999995
sz300845,捷安高科,2020-09-29,37.6,39.36,37.33,39.25,37.33,1452830.0,56244070.0,906282500.0,3624973000.0
sz300845,捷安高科,2020-09-30,39.07,39.2,38.05,38.1,39.25,997048.0,38449657.0,879729000.0,3518763600.0
sz300845,捷安高科,2020-10-09,38.22,39.27,38.22,39.1,38.1,1129518.0,44006665.0,902819000.0,3611119600.0
sz300845,捷安高科,2020-10-12,39.1,40.45,38.81,40.34,39.1,2336594.0,93356240.0,931450600.0,3725641040.0
sz300845,捷安高科,2020-10-13,40.31,40.92,39.51,39.8,40.34,1897644.0,75826610.0,918982000.0,3675768800.0
sz300845,捷安高科,2020-10-14,39.99,40.84,39.41,40.78,39.8,2667916.0,107588611.0,941610200.0,3766277680.0
sz300845,捷安高科,2020-10-15,40.6,40.6,39.18,39.3,40.78,2156088.0,85553707.0,907437000.0,3629590800.0
sz300845,捷安高科,2020-10-16,39.1,39.6,38.8,38.81,39.3,1432610.0,56010787.0,896122899.9999999,3584336360.0
sz300845,捷安高科,2020-10-19,38.7,40.61,38.7,40.3,38.81,2542126.0,101352893.0,930527000.0,3721946800.0
sz300845,捷安高科,2020-10-20,40.0,41.21,39.22,40.9,40.3,2935905.0,118422647.0,944381000.0,3777360400.0
sz300845,捷安高科,2020-10-21,40.58,41.26,40.41,40.96,40.9,2683013.0,109724769.0,945766400.0,3782901760.0
sz300845,捷安高科,2020-10-22,40.9,41.4,39.25,40.71,40.96,2539093.0,102827010.0,939993900.0,3759812760.0
sz300845,捷安高科,2020-10-23,41.46,44.2,40.89,44.2,40.71,6903967.0,296230063.0,1020578000.0,4082135200.0
sz300845,捷安高科,2020-10-26,43.0,48.51,42.06,46.69,44.2,8199484.0,377321058.0,1078072100.0,4312101640.0
sz300845,捷安高科,2020-10-27,47.0,47.0,42.77,43.27,46.69,5920333.0,264727307.0,999104300.0,3996244120.0
sz300845,捷安高科,2020-10-28,42.59,42.93,40.01,42.57,43.27,4754532.0,196799349.0,982941300.0,3931594920.000001
sz300845,捷安高科,2020-10-29,40.6,41.74,40.2,40.38,42.57,3170435.0,129695817.0,932374200.0,3729335280.0
sz300845,捷安高科,2020-10-30,40.62,41.14,37.7,37.8,40.38,3532909.0,139593002.0,872802000.0,3491056800.0
sz300845,捷安高科,2020-11-02,37.89,38.96,37.6,38.96,37.8,2050567.0,78599271.0,899586400.0,3598189760.0000005
sz300845,捷安高科,2020-11-03,39.05,40.38,38.67,39.9,38.96,1907299.0,75706504.0,921291000.0,3685004400.0
sz300845,捷安高科,2020-11-04,40.2,45.8,39.39,43.2,39.9,4998903.0,210639747.0,997488000.0,3989779200.0
sz300845,捷安高科,2020-11-05,42.5,44.83,42.5,43.49,43.2,4628918.0,201395171.0,1004184100.0,4016562440.0
sz300845,捷安高科,2020-11-06,44.0,44.0,41.9,42.9,43.49,3265446.0,140118588.0,990561000.0,3962072400.0
sz300845,捷安高科,2020-11-09,43.01,44.46,42.82,44.0,42.9,3595115.0,157253799.0,1015960000.0,4063664000.0
sz300845,捷安高科,2020-11-10,44.21,44.66,43.22,44.5,44.0,2967071.0,130155013.0,1027505000.0,4109842000.0
sz300845,捷安高科,2020-11-11,44.34,44.34,42.55,42.81,44.5,2229226.0,96331753.0,988482900.0,3953760360.0
sz300845,捷安高科,2020-11-12,43.03,44.0,42.58,42.94,42.81,1793371.0,77637202.0,991484600.0,3965766640.0
sz300845,捷安高科,2020-11-13,42.63,45.22,42.17,45.1,42.94,4322756.0,192104988.0,1041359000.0,4165255600.0
sz300845,捷安高科,2020-11-16,44.7,45.8,43.75,44.2,45.1,2954111.0,131134230.0,1020578000.0,4082135200.0
sz300845,捷安高科,2020-11-17,43.77,45.6,41.6,41.95,44.2,3679944.0,160239825.0,968625500.0,3874334200.0
sz300845,捷安高科,2020-11-18,40.4,41.77,39.98,41.53,41.95,2452388.0,100255839.0,958927700.0,3835544680.0
sz300845,捷安高科,2020-11-19,41.0,42.2,40.8,41.67,41.53,1424278.0,59218709.0,962160300.0,3848474520.0
sz300845,捷安高科,2020-11-20,41.43,44.97,41.43,43.91,41.67,3798203.0,166009499.0,1013881900.0,4055351960.0
sz300845,捷安高科,2020-11-23,45.01,45.38,42.51,42.91,43.91,2380116.0,102999639.0,990791900.0,3962995960.0
sz300845,捷安高科,2020-11-24,42.96,45.3,42.8,44.94,42.91,3950863.0,175931617.0,1037664600.0,4150478640.0
sz300845,捷安高科,2020-11-25,44.39,44.88,43.4,43.91,44.94,2258578.0,99093484.0,1013881900.0,4055351960.0
sz300845,捷安高科,2020-11-26,43.89,46.2,43.11,45.73,43.91,4771873.0,215697880.0,1055905700.0,4223439880.0
sz300845,捷安高科,2020-11-27,44.99,46.18,41.5,41.91,45.73,5241497.0,229868745.0,967701900.0,3870639960.0
sz300845,捷安高科,2020-11-30,41.2,45.45,41.19,44.5,41.91,4193484.0,182271406.0,1027505000.0,4109842000.0
sz300845,捷安高科,2020-12-01,44.42,44.88,43.56,44.33,44.5,2512078.0,110749527.0,1023579700.0,4094141480.0
sz300845,捷安高科,2020-12-02,44.19,44.62,40.81,41.53,44.33,4758856.0,199428226.0,958927700.0,3835544680.0
sz300845,捷安高科,2020-12-03,41.0,41.4,39.83,39.87,41.53,3057096.0,123584993.0,920598300.0,3682233720.0
sz300845,捷安高科,2020-12-04,39.84,40.5,39.6,40.19,39.87,1452700.0,58268832.0,927987100.0,3711787640.000001
sz300845,捷安高科,2020-12-07,39.87,40.5,39.11,39.19,40.19,1616278.0,64205157.0,904897100.0,3619431640.0
sz300845,捷安高科,2020-12-08,39.19,39.53,38.81,39.25,39.19,960678.0,37618054.0,906282500.0,3624973000.0
sz300845,捷安高科,2020-12-09,39.78,39.78,37.86,37.95,39.25,1557700.0,60053272.0,876265500.0,3504910200.0
sz300845,捷安高科,2020-12-10,37.71,38.38,37.66,37.91,37.95,802978.0,30482028.0,875341900.0,3501215960.0
sz300845,捷安高科,2020-12-11,38.01,38.1,36.05,36.53,37.91,1484634.0,54576404.0,843477700.0,3373764680.0
sz300845,捷安高科,2020-12-14,36.26,36.97,36.1,36.65,36.53,597720.0,21905166.0,846248500.0,3384847400.0
sz300845,捷安高科,2020-12-15,36.5,37.22,36.3,36.82,36.65,713300.0,26280846.0,850173800.0,3400547920.0
sz300845,捷安高科,2020-12-16,36.81,36.83,35.08,35.16,36.82,1037000.0,37076513.0,811844400.0,3247236960.0
sz300845,捷安高科,2020-12-17,35.0,35.7,33.84,35.65,35.16,1384960.0,48171784.0,823158500.0,3292491400.0
sz300845,捷安高科,2020-12-18,35.61,35.8,34.33,34.33,35.65,972612.0,33938113.0,792679700.0,3170581480.0
sz300845,捷安高科,2020-12-21,34.33,35.0,33.91,34.38,34.33,708407.0,24525290.0,793834200.0,3175199280.0
sz300845,捷安高科,2020-12-22,34.38,34.43,32.2,32.34,34.38,1546021.0,51459778.0,746730600.0,2986793040.0
sz300845,捷安高科,2020-12-23,32.54,33.38,32.2,32.67,32.34,1052007.0,34340932.0,754350300.0,3017270520.0000005
sz300845,捷安高科,2020-12-24,33.0,33.0,31.21,31.31,32.67,1242378.0,39435689.0,722947899.9999999,2891666360.0
sz300845,捷安高科,2020-12-25,31.3,32.17,31.01,31.69,31.31,912956.0,29072442.0,731722100.0000001,2926761640.0
sz300845,捷安高科,2020-12-28,31.35,31.9,30.08,30.48,31.69,1173848.0,36066495.0,703783200.0000001,2815010880.0
sz300845,捷安高科,2020-12-29,30.73,31.28,30.31,30.46,30.48,935200.0,28839017.0,703321400.0,2813163760.0
sz300845,捷安高科,2020-12-30,30.69,30.97,30.14,30.73,30.46,668970.0,20496752.0,709555700.0000001,2838099880.0
sz300845,捷安高科,2020-12-31,30.54,31.95,30.53,31.64,30.73,1001519.0,31638737.0,730567600.0,2922143840.0
sz300845,捷安高科,2021-01-04,31.82,32.71,31.66,32.13,31.64,1052148.0,33876714.0,741881700.0,2967398280.0
sz300845,捷安高科,2021-01-05,31.99,32.8,31.8,32.75,32.13,1046670.0,33873364.0,756197500.0,3024659000.0
sz300845,捷安高科,2021-01-06,32.72,32.73,31.2,31.26,32.75,1149978.0,36378783.0,721793400.0,2887048560.0000005
sz300845,捷安高科,2021-01-07,30.91,31.96,28.8,29.03,31.26,1530100.0,45707118.0,670302700.0,2681094680.0
sz300845,捷安高科,2021-01-08,28.99,29.89,28.2,28.86,29.03,989436.0,28746588.0,666377400.0,2665394160.0000005
sz300845,捷安高科,2021-01-11,28.69,29.08,27.57,27.98,28.86,1171454.0,32909814.0,646058200.0,2584120880.0
sz300845,捷安高科,2021-01-12,28.0,28.8,27.68,28.22,27.98,764134.0,21572482.0,651599800.0,2606286320.0
sz300845,捷安高科,2021-01-13,28.19,28.19,26.36,26.47,28.22,1299792.0,35026149.0,611192300.0,2444663320.0
sz300845,捷安高科,2021-01-14,26.75,27.45,26.11,26.95,26.47,1203500.0,32460609.0,622275500.0,2488994200.0
sz300845,捷安高科,2021-01-15,26.95,29.21,26.51,28.9,26.95,1861489.0,52573806.0,667301000.0,2669088400.0000005
sz300845,捷安高科,2021-01-18,28.9,29.78,28.5,29.05,28.9,1197278.0,34981109.0,670764500.0,2682941800.0
sz300845,捷安高科,2021-01-19,28.94,29.88,28.36,29.45,29.05,1120507.0,33017622.0,680000500.0,2719884200.0
sz300845,捷安高科,2021-01-20,29.16,30.9,28.8,29.75,29.45,1518300.0,45306293.0,686927500.0,2747591000.0
sz300845,捷安高科,2021-01-21,29.02,29.67,28.7,28.72,29.75,1340244.0,38974205.0,663144800.0,2652464319.9999995
sz300845,捷安高科,2021-01-22,29.21,30.49,28.42,28.45,28.72,1173500.0,34327676.0,656910500.0,2627528200.0
sz300845,捷安高科,2021-01-25,28.26,28.5,26.95,27.1,28.45,1062001.0,29098117.0,625739000.0,2502847600.0
sz300845,捷安高科,2021-01-26,26.8,27.99,26.75,27.1,27.1,731578.0,20097862.0,625739000.0,2502847600.0
sz300845,捷安高科,2021-01-27,27.08,27.83,26.8,27.61,27.1,738900.0,20240043.0,637514900.0,2549949160.0
sz300845,捷安高科,2021-01-28,27.5,28.83,27.16,28.03,27.61,1256800.0,35496478.0,647212700.0,2588738680.0
sz300845,捷安高科,2021-01-29,28.11,28.28,26.64,27.1,28.03,897278.0,24384753.0,625739000.0,2502847600.0
sz300845,捷安高科,2021-02-01,26.97,28.8,26.97,28.5,27.1,1182826.0,33243893.0,658065000.0,2632146000.0
sz300845,捷安高科,2021-02-02,28.4,28.7,27.43,27.83,28.5,977078.0,27220358.0,642594700.0,2570267480.0
sz300845,捷安高科,2021-02-03,27.52,27.83,26.4,26.53,27.83,831300.0,22416654.0,612577700.0,2450204680.0
sz300845,捷安高科,2021-02-04,26.01,26.57,25.1,25.81,26.53,805900.0,20714016.0,595952900.0,2383708360.0
sz300845,捷安高科,2021-02-05,25.8,26.66,24.86,24.99,25.81,643478.0,16541248.0,577019100.0,2307976440.0
sz300845,捷安高科,2021-02-08,25.11,25.14,24.1,24.18,24.99,629500.0,15381932.0,558316200.0,2233168080.0
sz300845,捷安高科,2021-02-09,24.0,24.69,24.0,24.51,24.18,490776.0,11945682.0,565935900.0,2263645560.0
sz300845,捷安高科,2021-02-10,24.5,25.13,24.5,24.68,24.51,409400.0,10117000.0,569861200.0,2279346080.0
sz300845,捷安高科,2021-02-18,24.9,26.07,24.86,25.72,24.68,751070.0,19281363.0,593874800.0,2375396320.0
sz300845,捷安高科,2021-02-19,25.45,26.45,25.45,26.38,25.72,571402.0,14953513.0,609114200.0,2436351280.0
sz300845,捷安高科,2021-02-22,26.38,27.0,26.3,26.34,26.38,716000.0,19111321.0,608190600.0,2432657040.0
sz300845,捷安高科,2021-02-23,26.26,26.95,25.71,26.53,26.34,800378.0,21097865.0,612577700.0,2450204680.0
sz300845,捷安高科,2021-02-24,26.55,27.65,26.55,26.86,26.53,824412.0,22343593.0,620197400.0,2480682160.0
sz300845,捷安高科,2021-02-25,26.85,27.26,26.11,26.43,26.86,511878.0,13534170.0,610268700.0,2440969080.0
sz300845,捷安高科,2021-02-26,25.82,27.17,25.81,26.8,26.43,632148.0,16853795.0,618812000.0,2475140800.0
sz300845,捷安高科,2021-03-01,26.83,27.47,26.83,27.31,26.8,674400.0,18375260.0,630587900.0,2522242360.0
sz300845,捷安高科,2021-03-02,27.47,27.51,26.72,27.15,27.31,537948.0,14540195.0,626893500.0,2507465400.0
sz300845,捷安高科,2021-03-03,26.71,27.28,26.71,27.2,27.15,422570.0,11442821.0,628048000.0,2512083200.0
sz300845,捷安高科,2021-03-04,27.2,27.62,26.7,26.87,27.2,637978.0,17330182.0,620428300.0,2481605720.0
sz300845,捷安高科,2021-03-05,26.88,27.56,26.88,27.52,26.87,646300.0,17667066.0,635436800.0,2541637120.0
sz300845,捷安高科,2021-03-08,27.68,28.38,27.06,27.34,27.52,809846.0,22613174.0,631280600.0,2525013040.0
sz300845,捷安高科,2021-03-09,27.1,27.32,25.87,26.0,27.34,842670.0,22247608.0,600340000.0,2401256000.0
sz300845,捷安高科,2021-03-10,26.11,26.37,25.09,25.1,26.0,589678.0,15019622.0,579559000.0,2318135600.0
sz300845,捷安高科,2021-03-11,25.05,25.48,24.9,25.37,25.1,409978.0,10353022.0,585793300.0,2343071720.0
sz300845,捷安高科,2021-03-12,25.4,25.4,24.8,25.07,25.37,420456.0,10522148.0,578866300.0,2315364920.0
sz300845,捷安高科,2021-03-15,24.87,25.2,24.67,24.91,25.07,318300.0,7926990.0,575171900.0,2300587960.0
sz300845,捷安高科,2021-03-16,24.92,25.65,24.92,25.65,24.91,484200.0,12266481.0,592258500.0,2368931400.0
sz300845,捷安高科,2021-03-17,25.7,27.65,25.36,27.04,25.65,1231250.0,32829583.0,624353600.0,2497306240.0
sz300845,捷安高科,2021-03-18,26.86,28.12,26.86,27.5,27.04,1453070.0,40073286.0,634975000.0,2539790000.0
sz300845,捷安高科,2021-03-19,27.22,28.95,27.21,28.36,27.5,1966748.0,55694382.0,654832400.0,2619216160.0
sz300845,捷安高科,2021-03-22,28.08,28.82,28.08,28.68,28.36,1658646.0,47298098.0,662221200.0,2648770079.9999995
sz300845,捷安高科,2021-03-23,28.44,28.9,28.0,28.38,28.68,1240100.0,35159127.0,655294200.0,2621063280.0
sz300845,捷安高科,2021-03-24,28.01,28.6,27.95,28.49,28.38,908700.0,25721510.0,657834100.0,2631222440.0
sz300845,捷安高科,2021-03-25,28.51,28.83,28.04,28.16,28.49,1101200.0,31358092.0,650214400.0,2600744960.0
sz300845,捷安高科,2021-03-26,27.6,27.9,27.04,27.44,28.16,1293400.0,35383083.0,633589600.0,2534248640.0
sz300845,捷安高科,2021-03-29,27.43,27.63,26.93,27.14,27.44,701900.0,19094912.0,626662600.0,2506541840.0
sz300845,捷安高科,2021-03-30,26.96,27.35,26.2,26.32,27.14,752978.0,19952054.0,607728800.0,2430809920.0
sz300845,捷安高科,2021-03-31,26.32,26.68,26.28,26.48,26.32,431625.0,11429329.0,611423200.0,2445586880.0
sz300845,捷安高科,2021-04-01,26.53,26.68,26.08,26.12,26.48,453903.0,11919722.0,603110800.0,2412338720.0
sz300845,捷安高科,2021-04-02,26.38,27.4,26.07,27.18,26.12,991025.0,26663485.0,627586200.0,2510236080.0
sz300845,捷安高科,2021-04-06,27.38,28.17,27.37,27.93,27.18,1019127.0,28327834.0,644903700.0,2579503080.0
sz300845,捷安高科,2021-04-07,27.93,28.23,27.49,28.1,27.93,1055700.0,29402042.0,648829000.0,2595203600.0
sz300845,捷安高科,2021-04-08,28.15,28.47,27.52,27.61,28.1,1034430.0,29015300.0,637514900.0,2549949160.0
sz300845,捷安高科,2021-04-09,27.45,28.03,27.33,27.88,27.61,626600.0,17396196.0,643749200.0,2574885280.0
sz300845,捷安高科,2021-04-12,27.5,28.16,27.26,27.29,27.88,648767.0,17908732.0,630126100.0,2520395240.0
sz300845,捷安高科,2021-04-13,27.25,28.46,27.25,28.01,27.29,1105456.0,30796694.0,646750900.0,2586891560.0
sz300845,捷安高科,2021-04-14,27.81,27.96,27.07,27.62,28.01,1072100.0,29408290.0,637745800.0,2550872720.0
sz300845,捷安高科,2021-04-15,26.6,26.6,24.21,24.45,27.62,2808320.0,69362372.0,564550500.0,2258104200.0
sz300845,捷安高科,2021-04-16,24.4,24.89,24.1,24.88,24.45,1381974.0,34004504.0,574479200.0,2297817280.0
sz300845,捷安高科,2021-04-19,25.01,26.12,25.01,25.44,24.88,1225042.0,31267311.0,587409600.0,2349536640.0
sz300845,捷安高科,2021-04-20,25.24,26.3,25.24,25.52,25.44,1166946.0,30150992.0,589256800.0,2356925120.0
sz300845,捷安高科,2021-04-21,25.42,25.64,25.11,25.21,25.52,625400.0,15794928.0,582098900.0,2328294760.0
sz300845,捷安高科,2021-04-22,25.21,25.74,25.1,25.39,25.21,565000.0,14330724.0,586255100.0,2344918840.0
sz300845,捷安高科,2021-04-23,25.39,25.47,24.4,24.62,25.39,942500.0,23324223.0,568475800.0,2273804720.0
sz300845,捷安高科,2021-04-26,24.63,24.92,24.27,24.47,24.62,591985.0,14482743.0,565012300.0,2259951320.0
sz300845,捷安高科,2021-04-27,24.01,24.01,22.62,22.97,23.87,958434.0,22057477.0,530377300.00000006,2121417320.0
sz300845,捷安高科,2021-04-28,23.07,23.07,22.15,22.22,22.97,896140.0,20066141.0,513059800.00000006,2052150320.0
sz300845,捷安高科,2021-04-29,22.17,22.5,21.96,22.1,22.22,558886.0,12443917.0,510289000.0,2041067600.0
sz300845,捷安高科,2021-04-30,22.16,22.33,21.21,21.31,22.1,885678.0,19042057.0,492047900.0,1968106360.0
sz300845,捷安高科,2021-05-06,21.31,21.93,21.12,21.86,21.31,417670.0,9082949.0,504747400.0,2018902160.0
sz300845,捷安高科,2021-05-07,21.9,22.0,21.25,21.41,21.86,431400.0,9287256.0,494356900.0,1977341960.0
sz300845,捷安高科,2021-05-10,21.3,21.74,21.2,21.34,21.41,386470.0,8271512.0,492740600.0,1970877040.0
sz300845,捷安高科,2021-05-11,21.4,21.69,21.21,21.65,21.34,439378.0,9445857.0,499898500.0,1999507400.0
sz300845,捷安高科,2021-05-12,21.63,21.88,21.46,21.83,21.65,403967.0,8762181.0,504054700.0,2016131480.0
sz300845,捷安高科,2021-05-13,21.76,21.96,21.47,21.53,21.83,551500.0,11989543.0,497127700.0,1988424680.0
sz300845,捷安高科,2021-05-14,21.54,21.87,21.35,21.85,21.53,464478.0,10115822.0,504516500.0,2017978600.0
sz300845,捷安高科,2021-05-17,21.83,21.83,21.12,21.34,21.85,727278.0,15491993.0,492740600.0,1970877040.0
sz300845,捷安高科,2021-05-18,21.25,21.73,21.1,21.7,21.34,704836.0,15094494.0,501053000.0,2004125200.0
sz300845,捷安高科,2021-05-19,21.65,22.15,21.5,21.78,21.7,724670.0,15849964.0,502900200.0,2011513680.0
sz300845,捷安高科,2021-05-20,21.9,22.54,21.74,21.95,21.78,957500.0,21233726.0,506825500.0,2027214200.0
sz300845,捷安高科,2021-05-21,21.85,21.95,21.52,21.67,21.95,586400.0,12696001.0,500360300.0,2001354520.0
sz300845,捷安高科,2021-05-24,21.68,21.78,21.42,21.78,21.67,461878.0,9980242.0,502900200.0,2011513680.0
sz300845,捷安高科,2021-05-25,21.76,22.0,21.6,21.95,21.78,632278.0,13774576.0,506825500.0,2027214200.0
sz300845,捷安高科,2021-05-26,21.95,22.46,21.83,22.32,21.95,797158.0,17750070.0,515368800.0,2061385920.0
sz300845,捷安高科,2021-05-27,22.28,22.72,22.05,22.43,22.32,644400.0,14469093.0,517908700.0,2071545080.0
sz300845,捷安高科,2021-05-28,22.42,22.87,22.14,22.21,22.43,830877.0,18707553.0,512828900.0,2051226760.0
sz300845,捷安高科,2021-05-31,22.04,22.7,22.04,22.7,22.21,736643.0,16576035.0,524143000.0,2096481200.0
sz300845,捷安高科,2021-06-01,22.6,23.15,22.42,23.07,22.7,781012.0,17840392.0,532686300.0,2130652920.0
sz300845,捷安高科,2021-06-02,23.04,23.88,22.76,23.26,23.07,1372771.0,32046937.0,537073400.0,2148200560.0
sz300845,捷安高科,2021-06-03,22.9,23.5,22.82,22.84,23.26,934770.0,21568637.0,527375600.0,2109411040.0
sz300845,捷安高科,2021-06-04,22.81,23.0,22.2,22.22,22.84,829452.0,18612130.0,513059800.00000006,2052150320.0
sz300845,捷安高科,2021-06-07,22.23,22.98,22.06,22.93,22.22,733800.0,16600281.0,529453700.0,2117723080.0
sz300845,捷安高科,2021-06-08,22.89,22.98,22.4,22.6,22.93,702300.0,15940236.0,521834000.0,2087245600.0
sz300845,捷安高科,2021-06-09,22.55,23.2,22.45,22.6,22.6,559800.0,12763370.0,521834000.0,2087245600.0
sz300845,捷安高科,2021-06-10,22.5,23.64,22.31,23.44,22.6,1769300.0,41161340.0,541229600.0,2164824640.0
sz300845,捷安高科,2021-06-11,23.3,24.14,23.12,23.96,23.44,2171280.0,51729777.0,553236400.0,2212849760.0
sz300845,捷安高科,2021-06-15,23.8,25.07,23.0,25.07,23.96,3042174.0,73426146.0,578866300.0,2315364920.0
sz300845,捷安高科,2021-06-16,24.55,25.42,24.01,25.42,25.07,2329726.0,57054476.0,586947800.0,2347689520.0
sz300845,捷安高科,2021-06-17,24.81,25.3,24.6,24.83,25.42,1720821.0,42919327.0,573324700.0,2293199480.0
sz300845,捷安高科,2021-06-18,25.01,25.01,24.0,24.62,24.83,1526738.0,37287484.0,568475800.0,2273804720.0
sz300845,捷安高科,2021-06-21,24.5,24.69,24.05,24.26,24.62,1525990.0,36966399.0,560163400.0,2240556560.0
sz300845,捷安高科,2021-06-22,24.26,24.58,23.8,24.25,24.26,1312556.0,31668171.0,559932500.0,2239633000.0
sz300845,捷安高科,2021-06-23,24.11,24.44,23.91,24.08,24.25,1012068.0,24450521.0,556007200.0,2223932480.0
sz300845,捷安高科,2021-06-24,24.08,24.3,23.71,23.75,24.08,913156.0,21863598.0,548387500.0,2193455000.0
sz300845,捷安高科,2021-06-25,23.71,23.93,23.61,23.73,23.75,651078.0,15459426.0,547925700.0,2191607880.0
sz300845,捷安高科,2021-06-28,23.72,23.72,22.83,22.88,23.73,1306456.0,30093832.0,528299200.0,2113105280.0
sz300845,捷安高科,2021-06-29,22.9,23.3,22.51,22.57,22.88,854000.0,19546048.0,521141300.0,2084474920.0
sz300845,捷安高科,2021-06-30,22.42,22.92,22.42,22.8,22.57,558112.0,12684261.0,526452000.0,2105716800.0
sz300845,捷安高科,2021-07-01,22.81,22.81,21.95,21.99,22.8,1039911.0,23058900.0,507749100.00000006,2030908440.0
sz300845,捷安高科,2021-07-02,22.13,22.25,21.71,21.78,21.99,647978.0,14238565.0,502900200.0,2011513680.0
sz300845,捷安高科,2021-07-05,20.74,21.67,20.54,21.5,21.78,1738900.0,36961886.0,1252676172.0,1985654000.0
sz300845,捷安高科,2021-07-06,21.29,21.66,21.0,21.4,21.5,1074174.0,22784955.0,1246849771.2,1976418400.0
sz300845,捷安高科,2021-07-07,21.25,21.48,21.23,21.3,21.4,717556.0,15287155.0,1241023370.4,1967182800.0
sz300845,捷安高科,2021-07-08,21.14,21.69,21.14,21.29,21.3,983118.0,21023077.0,1240440730.32,1966259240.0
sz300845,捷安高科,2021-07-09,21.03,21.31,20.68,21.13,21.29,1267100.0,26540007.0,1231118489.04,1951482280.0
sz300845,捷安高科,2021-07-12,21.15,21.57,21.01,21.54,21.13,2079900.0,44438925.0,1255006732.32,1989348240.0
sz300845,捷安高科,2021-07-13,21.5,21.62,21.15,21.3,21.54,1818833.0,38826618.0,1241023370.4,1967182800.0
sz300845,捷安高科,2021-07-14,21.32,21.35,20.91,20.94,21.3,1122333.0,23690019.0,1220048327.52,1933934640.0
sz300845,捷安高科,2021-07-15,21.11,21.12,20.1,20.27,20.94,1057833.0,21637293.0,1181011442.16,1872056120.0
sz300845,捷安高科,2021-07-16,20.32,20.32,19.8,19.84,20.27,1030800.0,20614036.0,1155957918.72,1832343040.0
sz300845,捷安高科,2021-07-19,19.84,20.09,19.38,20.01,19.84,724278.0,14240479.0,1165862800.08,1848043560.0
sz300845,捷安高科,2021-07-20,20.0,20.0,19.55,19.75,20.01,595200.0,11747116.0,1150714158.0,1824031000.0
sz300845,捷安高科,2021-07-21,19.74,19.96,19.54,19.64,19.75,951400.0,18807842.0,1144305117.12,1813871840.0
sz300845,捷安高科,2021-07-22,19.62,19.75,19.48,19.69,19.64,828578.0,16256187.0,1147218317.52,1818489640.0
sz300845,捷安高科,2021-07-23,19.69,19.77,19.01,19.1,19.69,1355227.0,26064889.0,1112842552.8,1763999600.0
sz300845,捷安高科,2021-07-26,19.0,19.07,18.25,18.4,19.1,1073978.0,19925116.0,1072057747.2,1699350400.0
sz300845,捷安高科,2021-07-27,18.47,18.98,18.18,18.57,18.4,1276578.0,23796159.0,1081962628.56,1715050920.0
sz300845,捷安高科,2021-07-28,18.58,18.58,17.6,17.8,18.57,1309100.0,23470090.0,1037099342.4,1643936800.0
sz300845,捷安高科,2021-07-29,17.96,18.16,17.84,18.01,17.8,754400.0,13590413.0,1049334784.08,1663331560.0
sz300845,捷安高科,2021-07-30,18.04,18.7,17.79,18.55,18.01,1007656.0,18388817.0,1080797348.4,1713203800.0
sz300845,捷安高科,2021-08-02,18.85,18.85,18.29,18.75,18.55,986504.0,18373344.0,1092450150.0,1731675000.0
sz300845,捷安高科,2021-08-03,18.73,19.32,18.53,19.02,18.75,1321604.0,25164451.0,1108181432.16,1756611120.0
sz300845,捷安高科,2021-08-04,19.0,19.23,18.75,19.2,19.02,1023903.0,19513576.0,1118668953.6,1773235200.0
sz300845,捷安高科,2021-08-05,19.04,19.15,18.85,18.99,19.2,703500.0,13351791.0,1106433511.92,1753840440.0
sz300845,捷安高科,2021-08-06,18.83,18.95,18.61,18.81,18.99,608070.0,11402469.0,1095945990.48,1737216360.0
sz300845,捷安高科,2021-08-09,18.71,19.36,18.69,19.25,18.81,757933.0,14518312.0,1121582154.0,1777853000.0
sz300845,捷安高科,2021-08-10,19.3,19.76,19.05,19.6,19.25,1067910.0,20780646.0,1141974556.8,1810177600.0
sz300845,捷安高科,2021-08-11,19.55,20.22,19.45,20.12,19.6,1806882.0,35811941.0,1172271840.96,1858202720.0
sz300845,捷安高科,2021-08-12,19.99,20.05,19.61,19.72,20.12,1029799.0,20381826.0,1148966237.76,1821260320.0
sz300845,捷安高科,2021-08-13,19.64,20.19,19.64,19.98,19.72,1095900.0,21897625.0,1164114879.8400002,1845272880.0
sz300845,捷安高科,2021-08-16,20.0,20.07,19.76,19.95,19.98,880800.0,17541190.0,1162366959.6,1842502200.0
sz300845,捷安高科,2021-08-17,20.0,20.0,19.15,19.19,19.95,1014937.0,19785192.0,1118086313.52,1772311640.0
sz300845,捷安高科,2021-08-18,19.23,19.62,19.05,19.62,19.19,900125.0,17399858.0,1143139836.96,1812024720.0
sz300845,捷安高科,2021-08-19,19.6,20.22,19.32,19.76,19.62,1248696.0,24824399.0,1151296798.08,1824954560.0
sz300845,捷安高科,2021-08-20,19.75,19.75,19.1,19.45,19.76,948100.0,18327794.0,1133234955.6,1796324200.0000002
sz300845,捷安高科,2021-08-23,19.31,20.32,19.31,20.13,19.45,1289008.0,25780694.0,1172854481.04,1859126280.0
sz300845,捷安高科,2021-08-24,20.38,20.38,19.84,19.99,20.13,967086.0,19366178.0,1164697519.92,1846196440.0
sz300845,捷安高科,2021-08-25,20.15,20.52,19.91,20.28,19.99,1159878.0,23417141.0,1181594082.24,1872979680.0
sz300845,捷安高科,2021-08-26,20.28,20.38,19.55,19.62,20.28,1184800.0,23515058.0,1143139836.96,1812024720.0
sz300845,捷安高科,2021-08-27,19.62,20.34,19.15,19.81,19.62,1502623.0,29390182.0,1154209998.48,1829572360.0
sz300845,捷安高科,2021-08-30,19.86,20.3,19.49,19.65,19.81,1136604.0,22639394.0,1144887757.2,1814795400.0
sz300845,捷安高科,2021-08-31,19.48,20.28,19.16,20.28,19.65,1669034.0,33319960.0,1181594082.24,1872979680.0
sz300845,捷安高科,2021-09-01,20.47,22.28,20.47,20.87,20.28,4176115.0,88353737.0,1215969846.96,1927469720.0
sz300845,捷安高科,2021-09-02,20.5,21.55,20.22,21.44,20.87,3990053.0,84164642.0,1249180331.52,1980112640.0
sz300845,捷安高科,2021-09-03,21.17,24.0,20.74,22.78,21.44,6876708.0,152112635.0,1327254102.24,2103869680.0
sz300845,捷安高科,2021-09-06,22.61,23.58,22.05,22.86,22.78,5620741.0,128384424.0,1331915222.88,2111258160.0
sz300845,捷安高科,2021-09-07,22.55,22.89,22.03,22.25,22.86,3795610.0,84574094.0,1296374178.0,2054921000.0
sz300845,捷安高科,2021-09-08,22.0,22.78,21.68,22.66,22.25,3689275.0,81451282.0,1320262421.2800002,2092786960.0
sz300845,捷安高科,2021-09-09,22.37,22.48,21.56,21.6,22.66,3063400.0,66836117.0,1258502572.8,1994889600.0
sz300845,捷安高科,2021-09-10,21.61,21.81,21.03,21.03,21.6,1790110.0,38225227.0,1225292088.24,1942246680.0
sz300845,捷安高科,2021-09-13,20.71,21.38,20.55,20.96,21.03,1706742.0,35884160.0,1221213607.68,1935781760.0
sz300845,捷安高科,2021-09-14,20.96,21.18,20.25,20.34,20.96,1873778.0,38742213.0,1185089922.72,1878521040.0
sz300845,捷安高科,2021-09-15,20.3,20.67,20.15,20.38,20.34,1077100.0,21981325.0,1187420483.04,1882215280.0
sz300845,捷安高科,2021-09-16,20.58,20.7,19.9,19.93,20.38,1377800.0,27942120.0,1161201679.44,1840655080.0
sz300845,捷安高科,2021-09-17,19.88,20.05,19.18,19.41,19.93,1383649.0,26925042.0,1130904395.28,1792629960.0000002
sz300845,捷安高科,2021-09-22,19.45,19.57,19.12,19.4,19.41,759100.0,14661580.0,1130321755.2,1791706400.0000002
sz300845,捷安高科,2021-09-23,19.47,19.73,19.36,19.5,19.4,772309.0,15078444.0,1136148156.0,1800942000.0
sz300845,捷安高科,2021-09-24,19.6,19.6,18.92,18.98,19.5,928600.0,17797576.0,1105850871.8400002,1752916880.0
sz300845,捷安高科,2021-09-27,19.01,19.14,18.6,18.76,18.98,762378.0,14402646.0,1093032790.08,1732598560.0
sz300845,捷安高科,2021-09-28,18.71,18.98,18.62,18.9,18.76,411834.0,7759727.0,1101189751.2,1745528400.0
sz300845,捷安高科,2021-09-29,18.66,18.94,18.37,18.37,18.9,607582.0,11303815.0,1070309826.96,1696579720.0
sz300845,捷安高科,2021-09-30,18.42,18.82,18.41,18.7,18.37,511700.0,9549322.0,1089536949.6,1727057200.0
sz300845,捷安高科,2021-10-08,18.98,19.16,18.65,19.1,18.7,619604.0,11799289.0,1112842552.8,1763999600.0
sz300845,捷安高科,2021-10-11,19.17,19.17,18.84,19.04,19.1,514978.0,9782645.0,1109346712.32,1758458240.0
sz300845,捷安高科,2021-10-12,19.04,19.04,18.51,18.69,19.04,492238.0,9210331.0,1088954309.52,1726133640.0
sz300845,捷安高科,2021-10-13,19.58,20.09,19.22,19.34,18.69,2768695.0,54411276.0,1126825914.72,1786165039.9999998
sz300845,捷安高科,2021-10-14,19.01,20.37,18.36,20.08,19.34,3756171.0,73586957.0,1169941280.64,1854508480.0
sz300845,捷安高科,2021-10-15,19.71,20.39,19.53,20.25,20.08,2378400.0,47524804.0,1179846162.0,1870209000.0
sz300845,捷安高科,2021-10-18,19.88,24.3,19.65,24.3,20.25,17463478.0,406958341.0,1415815394.4,2244250800.0
sz300845,捷安高科,2021-10-19,22.8,23.08,22.0,22.39,24.3,13683792.0,308469968.0,1304531139.12,2067850840.0
sz300845,捷安高科,2021-10-20,21.83,22.36,21.58,22.11,22.39,7511206.0,164422618.0,1288217216.88,2041991160.0
sz300845,捷安高科,2021-10-21,21.6,21.9,21.1,21.2,22.11,5625336.0,120290789.0,1235196969.6,1957947200.0
sz300845,捷安高科,2021-10-22,21.1,21.8,21.0,21.0,21.2,5394313.0,115293844.0,1223544168.0,1939476000.0
sz300845,捷安高科,2021-10-25,20.71,21.18,20.29,21.18,21.0,3578349.0,74144871.0,1234031689.44,1956100080.0
sz300845,捷安高科,2021-10-26,21.1,21.13,20.1,20.22,21.18,3846010.0,78795209.0,1178098241.76,1867438320.0
sz300845,捷安高科,2021-10-27,20.08,20.37,18.55,18.6,20.22,5091112.0,97563359.0,1176320246.4,1717821600.0
sz300845,捷安高科,2021-10-28,18.6,18.72,18.04,18.63,18.6,2659048.0,48913343.0,1085458469.04,1720592280.0
sz300845,捷安高科,2021-10-29,18.55,18.96,18.5,18.95,18.63,2603919.0,48946127.0,1104102951.6,1750146200.0
sz300845,捷安高科,2021-11-01,18.77,19.13,18.53,18.89,18.95,2251797.0,42437911.0,1100607111.12,1744604840.0
sz300845,捷安高科,2021-11-02,18.9,19.31,18.38,18.69,18.89,2386465.0,45065016.0,1088954309.52,1726133640.0
sz300845,捷安高科,2021-11-03,18.6,19.18,18.6,19.06,18.69,2061869.0,39098929.0,1110511992.48,1760305360.0
sz300845,捷安高科,2021-11-04,19.1,19.42,18.9,19.38,19.06,2322995.0,44555874.0,1129156475.04,1789859280.0000002
sz300845,捷安高科,2021-11-05,19.38,20.14,19.37,19.79,19.38,3700204.0,73162667.0,1153044718.32,1827725240.0
sz300845,捷安高科,2021-11-08,19.7,20.08,19.51,20.01,19.79,2711217.0,53796982.0,1165862800.08,1848043560.0
sz300845,捷安高科,2021-11-09,19.9,20.88,19.78,20.65,20.01,3802335.0,78219090.0,1203151765.2,1907151400.0
sz300845,捷安高科,2021-11-10,20.46,21.44,20.46,21.18,20.65,4339800.0,91058172.0,1234031689.44,1956100080.0
sz300845,捷安高科,2021-11-11,21.2,21.4,20.6,21.27,21.18,3985204.0,83945526.0,1239275450.16,1964412120.0
sz300845,捷安高科,2021-11-12,21.12,21.65,20.8,21.39,21.27,3768313.0,79975581.0,1246267131.12,1975494840.0
sz300845,捷安高科,2021-11-15,21.42,22.11,21.22,21.94,21.39,3666978.0,79710957.0,1278312335.52,2026290640.0
sz300845,捷安高科,2021-11-16,22.16,22.36,21.59,21.61,21.94,3717009.0,81330647.0,1259085212.88,1995813160.0
sz300845,捷安高科,2021-11-17,21.53,22.14,21.4,21.77,21.61,2858200.0,62430061.0,1268407454.16,2010590120.0
sz300845,捷安高科,2021-11-18,22.2,22.24,21.03,21.09,21.77,2843785.0,60770962.0,1228787928.72,1947788040.0
sz300845,捷安高科,2021-11-19,21.65,21.77,20.71,21.12,21.09,1919100.0,40613196.0,1230535848.96,1950558720.0
sz300845,捷安高科,2021-11-22,21.31,21.34,20.65,20.95,21.12,1998900.0,41726887.0,1220630967.6,1934858200.0
sz300845,捷安高科,2021-11-23,21.2,21.63,20.76,21.29,20.95,2367000.0,50228264.0,1240440730.32,1966259240.0
sz300845,捷安高科,2021-11-24,21.29,22.48,21.02,22.48,21.29,5023270.0,110067876.0,1309774899.84,2076162880.0
sz300845,捷安高科,2021-11-25,23.9,24.69,21.63,21.96,22.48,10987291.0,252156863.0,1279477615.68,2028137760.0000002
sz300845,捷安高科,2021-11-26,21.51,21.82,20.82,20.82,21.96,6243078.0,131766559.0,1213056646.56,1922851920.0
sz300845,捷安高科,2021-11-29,20.34,21.26,20.34,20.84,20.82,3251800.0,67774657.0,1214221926.72,1924699040.0
sz300845,捷安高科,2021-11-30,20.86,22.47,20.86,21.75,20.84,5737960.0,125265552.0,1267242174.0,2008743000.0
sz300845,捷安高科,2021-12-01,21.56,22.08,21.41,21.88,21.75,3291478.0,71823243.0,1274816495.04,2020749280.0000002
sz300845,捷安高科,2021-12-02,22.0,22.33,20.99,20.99,21.88,3311300.0,71113324.0,1222961527.9199998,1938552440.0
sz300845,捷安高科,2021-12-03,20.88,21.62,20.88,21.25,20.99,2166200.0,45887541.0,1238110170.0,1962565000.0
sz300845,捷安高科,2021-12-06,21.3,21.3,19.96,20.05,21.25,2900652.0,59036206.0,1168193360.3999999,1851737800.0
sz300845,捷安高科,2021-12-07,20.05,20.29,19.64,19.81,20.05,1594500.0,31638800.0,1154209998.48,1829572360.0
sz300845,捷安高科,2021-12-08,19.82,20.1,19.75,20.02,19.81,1223500.0,24441294.0,1166445440.16,1848967120.0
sz300845,捷安高科,2021-12-09,20.3,20.55,20.01,20.41,20.02,1733500.0,35234982.0,1189168403.28,1884985960.0
sz300845,捷安高科,2021-12-10,20.34,20.66,20.21,20.55,20.41,1380100.0,28214193.0,1197325364.3999999,1897915799.9999998
sz300845,捷安高科,2021-12-13,20.54,22.2,20.45,22.1,20.55,5788265.0,125452899.0,1287634576.8,2041067600.0
sz300845,捷安高科,2021-12-14,22.31,26.52,22.3,26.52,22.1,19551927.0,498761138.0,1545161492.1599998,2449281120.0
sz300845,捷安高科,2021-12-15,25.69,27.85,24.69,26.65,26.52,19053739.0,495562415.0,1552735813.2,2461287400.0
sz300845,捷安高科,2021-12-16,26.48,30.55,26.19,28.98,26.65,17339325.0,489737328.0,1688490951.8400002,2676476880.0
sz300845,捷安高科,2021-12-17,28.11,28.5,26.32,27.08,28.98,13205996.0,356951831.0,1577789336.64,2501000480.0
sz300845,捷安高科,2021-12-20,26.05,26.65,25.64,26.52,27.08,8095398.0,211989804.0,1545161492.1599998,2449281120.0
sz300845,捷安高科,2021-12-21,26.9,26.9,25.74,26.15,26.52,6606600.0,173522126.0,1523603809.2,2415109400.0
sz300845,捷安高科,2021-12-22,26.1,26.46,25.7,26.1,26.15,5592200.0,145720117.0,1520690608.8,2410491600.0
sz300845,捷安高科,2021-12-23,26.16,26.31,24.94,25.0,26.1,7072912.0,179560736.0,1456600200.0,2308900000.0
sz300845,捷安高科,2021-12-24,25.06,25.37,24.33,24.4,25.0,6591443.0,163644574.0,1421641795.2,2253486400.0
sz300845,捷安高科,2021-12-27,24.41,24.74,24.02,24.74,24.4,3819643.0,93332185.0,1441451557.92,2284887440.0
sz300845,捷安高科,2021-12-28,24.75,25.08,24.38,24.93,24.74,3977978.0,98692101.0,1452521719.44,2302435080.0
sz300845,捷安高科,2021-12-29,25.02,25.5,24.21,25.4,24.93,4681100.0,117330176.0,1479905803.2,2345842400.0
sz300845,捷安高科,2021-12-30,26.0,27.5,25.21,25.9,25.4,9767410.0,257844863.0,1509037807.2,2392020400.0
sz300845,捷安高科,2021-12-31,25.81,25.9,24.3,25.01,25.9,7367969.0,184376932.0,1457182840.08,2309823560.0
sz300845,捷安高科,2022-01-04,24.74,25.23,24.4,25.2,25.01,4432843.0,110471989.0,1468253001.6000001,2327371200.0
sz300845,捷安高科,2022-01-05,25.0,25.5,23.6,23.99,25.2,5997115.0,145868226.0,1397753551.9199998,2215620440.0
sz300845,捷安高科,2022-01-06,23.9,24.39,23.79,24.15,23.99,2503400.0,60289948.0,1407075793.1999998,2230397400.0
sz300845,捷安高科,2022-01-07,24.16,24.56,23.04,23.05,24.15,3970662.0,93890060.0,1342985384.4,2128805799.9999998
sz300845,捷安高科,2022-01-10,23.1,24.05,22.85,23.81,23.05,3114300.0,73586844.0,1387266030.4799998,2198996360.0
sz300845,捷安高科,2022-01-11,24.09,24.45,23.67,23.85,23.81,3099100.0,74308616.0,1389596590.8000002,2202690600.0
sz300845,捷安高科,2022-01-12,23.9,24.6,23.72,24.27,23.85,2756700.0,67009346.0,1414067474.16,2241480120.0
sz300845,捷安高科,2022-01-13,24.2,24.58,24.0,24.12,24.27,2249448.0,54612048.0,1405327872.96,2227626720.0
sz300845,捷安高科,2022-01-14,24.04,24.75,23.77,24.31,24.12,2918760.0,71266743.0,1416398034.48,2245174360.0
