数据由邢不行整理
股票代码,股票名称,交易日期,开盘价,最高价,最低价,收盘价,前收盘价,成交量,成交额,流通市值,总市值
sz300871,N回盛,2020-08-24,63.9,64.0,49.78,61.85,33.61,12501149.0,717119522.0,1624912561.8,6834859063.3
sz300871,C回盛,2020-08-25,58.0,87.99,56.8,78.11,61.85,15181840.0,1030435159.0,2052092485.08,8631703175.980001
sz300871,C回盛,2020-08-26,75.0,81.98,71.01,72.2,78.11,12008633.0,911750423.0,1896825981.6,7978606699.599999
sz300871,C回盛,2020-08-27,71.0,71.0,60.6,60.93,72.2,9709232.0,626247983.0,1600742480.04,6733192606.74
sz300871,C回盛,2020-08-28,59.48,60.6,52.84,53.46,60.93,7965727.0,445516400.0,1404491924.88,5907705182.280001
sz300871,回盛生物,2020-08-31,54.0,55.16,52.02,54.04,53.46,5529559.0,297849418.0,1419729585.12,5971799252.72
sz300871,回盛生物,2020-09-01,52.99,53.21,50.11,50.9,54.04,6051636.0,312325405.0,1337236045.2,5624807216.2
sz300871,回盛生物,2020-09-02,51.0,52.49,50.98,51.0,50.9,4703224.0,243190071.0,1339863228.0,5635857918.0
sz300871,回盛生物,2020-09-03,51.0,51.0,49.09,49.5,51.0,4484184.0,222839639.0,1300455486.0,5470097391.0
sz300871,回盛生物,2020-09-04,48.82,56.3,48.52,53.21,49.5,7057720.0,369735195.0,1397923967.88,5880078427.780001
sz300871,回盛生物,2020-09-07,51.75,52.98,50.19,51.62,53.21,5015693.0,258923569.0,1356151761.36,5704372269.16
sz300871,回盛生物,2020-09-08,51.1,52.55,50.5,50.58,51.62,3716750.0,191208067.0,1328829060.24,5589444970.44
sz300871,回盛生物,2020-09-09,49.1,49.88,47.03,47.05,50.58,4318525.0,207848999.0,1236089507.4,5199355196.9
sz300871,回盛生物,2020-09-10,47.26,48.16,43.75,44.2,47.05,3324367.0,152955828.0,1161214797.6,4884410195.599999
sz300871,回盛生物,2020-09-11,43.98,48.15,43.35,46.84,44.2,3701611.0,169991605.0,1230572423.52,5176148723.12
sz300871,回盛生物,2020-09-14,46.01,48.88,46.01,48.08,46.84,3407291.0,162051738.0,1263149490.24,5313177425.440001
sz300871,回盛生物,2020-09-15,47.68,50.73,46.78,48.47,48.08,4847319.0,236982922.0,1273395503.1599998,5356275162.459999
sz300871,回盛生物,2020-09-16,48.0,54.1,47.03,53.02,48.47,7778760.0,397042084.0,1392932320.5600002,5859082094.36
sz300871,回盛生物,2020-09-17,51.95,56.6,50.9,51.0,53.02,9750253.0,524255864.0,1339863228.0,5635857918.0
sz300871,回盛生物,2020-09-18,49.55,52.59,48.4,50.0,51.0,4975374.0,249553062.0,1313591400.0000002,5525350900.0
sz300871,回盛生物,2020-09-21,49.52,50.45,48.71,49.65,50.0,3029158.0,150249163.0,1304396260.2,5486673443.7
sz300871,回盛生物,2020-09-22,49.15,52.0,48.87,51.4,49.65,5373933.0,274104236.0,1350371959.2,5680060725.200001
sz300871,回盛生物,2020-09-23,51.25,54.45,50.06,53.45,51.4,6603135.0,349653648.0,1404229206.6,5906600112.1
sz300871,回盛生物,2020-09-24,52.3,55.79,51.3,53.76,53.45,7217742.0,386159656.0,1412373473.28,5940857287.68
sz300871,回盛生物,2020-09-25,54.5,58.99,52.65,52.68,53.76,8333344.0,465618396.0,1383999899.04,5821509708.24
sz300871,回盛生物,2020-09-28,52.29,52.29,47.39,47.45,52.68,6030853.0,300173794.0,1246598238.6,5243558004.1
sz300871,回盛生物,2020-09-29,47.61,48.27,46.11,46.7,47.45,3127582.0,147875502.0,1226894367.6,5160677740.6
sz300871,回盛生物,2020-09-30,46.89,47.6,45.76,45.9,46.7,2829350.0,132040864.0,1205876905.2,5072272126.2
sz300871,回盛生物,2020-10-09,46.54,49.2,46.54,48.73,45.9,3630182.0,174429155.0,1280226178.4399998,5385006987.14
sz300871,回盛生物,2020-10-12,48.81,51.4,48.81,50.7,48.73,3613169.0,181231175.0,1331981679.6,5602705812.6
sz300871,回盛生物,2020-10-13,51.0,52.38,50.45,51.04,50.7,4307362.0,221066956.0,1340914101.12,5640278198.72
sz300871,回盛生物,2020-10-14,50.99,54.19,50.55,53.17,51.04,6224599.0,328462041.0,1396873094.76,5875658147.06
sz300871,回盛生物,2020-10-15,52.31,53.99,50.15,51.9,53.17,5150587.0,267711323.0,1363507873.2,5735314234.2
sz300871,回盛生物,2020-10-16,51.5,54.99,51.04,54.17,51.9,5817277.0,308792123.0,1423144922.76,5986165165.059999
sz300871,回盛生物,2020-10-19,53.5,53.5,50.9,51.11,54.17,4529591.0,235877258.0,1342753129.08,5648013689.9800005
sz300871,回盛生物,2020-10-20,50.95,54.16,50.48,53.95,51.11,5219543.0,277306316.0,1417365120.6,5961853621.099999
sz300871,回盛生物,2020-10-21,53.9,55.99,53.3,54.3,53.95,7388191.0,404488798.0,1426560260.4,6000531077.4
sz300871,回盛生物,2020-10-22,53.51,56.0,52.42,52.65,54.3,6194508.0,336804957.0,1383211744.2,5818194497.7
sz300871,回盛生物,2020-10-23,52.6,55.15,52.05,52.81,52.65,5130754.0,274161909.0,1387415236.68,5835875620.58
sz300871,回盛生物,2020-10-26,52.87,55.26,51.5,55.26,52.81,4903649.0,264277726.0,1451781215.28,6106617814.68
sz300871,回盛生物,2020-10-27,54.5,55.6,52.9,55.43,55.26,5123225.0,278787175.0,1456247426.04,6125404007.74
sz300871,回盛生物,2020-10-28,57.22,58.0,55.53,55.98,55.43,6945113.0,391645219.0,1470696931.4399998,6186182867.639999
sz300871,回盛生物,2020-10-29,53.63,55.58,53.5,54.68,55.98,4453077.0,243174362.0,1436543555.04,6042523744.240001
sz300871,回盛生物,2020-10-30,54.75,54.75,50.3,51.75,54.68,4685177.0,245159156.0,1359567098.9999998,5718738181.499999
sz300871,回盛生物,2020-11-02,51.0,52.1,50.66,51.83,51.75,2282685.0,117397098.0,1361668845.24,5727578742.94
sz300871,回盛生物,2020-11-03,52.0,52.74,51.8,52.65,51.83,2611629.0,136620854.0,1383211744.2,5818194497.7
sz300871,回盛生物,2020-11-04,52.91,52.91,50.05,50.94,52.65,2806514.0,143906219.0,1338286918.3200002,5629227496.92
sz300871,回盛生物,2020-11-05,51.18,54.03,51.18,53.87,50.94,4113426.0,217308966.0,1415263374.36,5953013059.66
sz300871,回盛生物,2020-11-06,54.0,54.84,52.5,53.08,53.87,4478086.0,240410065.0,1394508630.24,5865712515.44
sz300871,回盛生物,2020-11-09,53.36,54.55,52.6,54.27,53.08,4135766.0,222554467.0,1425772105.56,5997215866.86
sz300871,回盛生物,2020-11-10,54.25,54.66,51.89,52.69,54.27,3942449.0,209872827.0,1384262617.3200002,5822614778.42
sz300871,回盛生物,2020-11-11,52.26,54.29,52.0,52.51,52.69,3369400.0,179771666.0,1379533688.28,5802723515.18
sz300871,回盛生物,2020-11-12,52.18,52.29,48.87,49.37,52.51,4065657.0,203698418.0,1297040148.36,5455731478.66
sz300871,回盛生物,2020-11-13,49.16,50.34,48.2,49.96,49.37,2081528.0,103139907.0,1312540526.88,5520930619.28
sz300871,回盛生物,2020-11-16,50.06,50.85,49.92,50.25,49.96,1687328.0,84927525.0,1320159357.0,5552977654.499999
sz300871,回盛生物,2020-11-17,50.25,50.48,48.74,49.13,50.25,2034236.0,100662556.0,1290734909.64,5429209794.34
sz300871,回盛生物,2020-11-18,49.21,49.45,48.56,49.21,49.13,1439928.0,70658223.0,1292836655.88,5438050355.78
sz300871,回盛生物,2020-11-19,49.21,49.45,48.58,49.08,49.21,1370527.0,67305530.0,1289421318.24,5423684443.44
sz300871,回盛生物,2020-11-20,49.01,49.29,48.42,48.88,49.08,1423273.0,69396892.0,1284166952.64,5401583039.84
sz300871,回盛生物,2020-11-23,48.87,49.86,48.5,49.7,48.88,1702123.0,83896984.0,1305709851.6,5492198794.599999
sz300871,回盛生物,2020-11-24,49.48,50.09,48.43,48.47,49.7,1771753.0,87378074.0,1273395503.1599998,5356275162.459999
sz300871,回盛生物,2020-11-25,48.5,48.7,47.0,47.0,48.47,2049141.0,97347904.0,1234775916.0,5193829846.0
sz300871,回盛生物,2020-11-26,46.77,47.32,46.76,46.95,47.0,1039873.0,48898004.0,1233462324.6,5188304495.1
sz300871,回盛生物,2020-11-27,47.06,47.35,45.87,46.63,46.95,1449600.0,67511359.0,1225055339.64,5152942249.34
sz300871,回盛生物,2020-11-30,46.65,47.74,46.65,47.28,46.63,1210000.0,57299635.0,1242132027.84,5224771811.04
sz300871,回盛生物,2020-12-01,47.0,48.7,47.0,48.22,47.28,1727196.0,82875896.0,1266827546.16,5328648407.96
sz300871,回盛生物,2020-12-02,48.21,48.48,47.7,47.82,48.22,1261024.0,60462707.0,1256318814.96,5284445600.76
sz300871,回盛生物,2020-12-03,48.02,48.95,47.72,48.27,47.82,1644100.0,79735665.0,1268141137.56,5334173758.86
sz300871,回盛生物,2020-12-04,48.01,49.54,47.25,48.95,48.27,2253394.0,108912131.0,1286005980.6,5409318531.1
sz300871,回盛生物,2020-12-07,48.98,49.99,48.35,48.47,48.95,2024945.0,99708230.0,1273395503.1599998,5356275162.459999
sz300871,回盛生物,2020-12-08,48.11,50.04,47.68,49.48,48.47,2720793.0,133928693.0,1299930049.44,5467887250.64
sz300871,回盛生物,2020-12-09,49.47,49.47,47.67,47.67,49.48,1976612.0,96004696.0,1252378040.76,5267869548.059999
sz300871,回盛生物,2020-12-10,47.19,47.97,47.11,47.82,47.67,1184685.0,56332438.0,1256318814.96,5284445600.76
sz300871,回盛生物,2020-12-11,47.6,47.7,44.78,45.36,47.82,1946713.0,89596774.0,1191690118.08,5012598336.4800005
sz300871,回盛生物,2020-12-14,45.2,46.17,45.2,45.99,45.36,855800.0,39204827.0,1208241369.72,5082217757.82
sz300871,回盛生物,2020-12-15,45.98,46.26,45.38,45.59,45.99,783018.0,35839127.0,1197732638.52,5038014950.62
sz300871,回盛生物,2020-12-16,45.37,45.77,43.88,43.99,45.59,1391600.0,61812697.0,1155697713.72,4861203721.820001
sz300871,回盛生物,2020-12-17,44.05,44.68,43.6,44.45,43.99,1057812.0,46751051.0,1167782754.6,4912036950.1
sz300871,回盛生物,2020-12-18,44.38,44.38,42.8,42.89,44.45,1477437.0,64339500.0,1126798702.92,4739646002.02
sz300871,回盛生物,2020-12-21,42.8,43.65,42.79,43.42,42.89,1043500.0,45116410.0,1140722771.76,4798214721.559999
sz300871,回盛生物,2020-12-22,43.2,44.15,42.9,43.17,43.42,1343340.0,58515949.0,1134154814.76,4770587967.059999
sz300871,回盛生物,2020-12-23,43.09,43.2,41.62,41.8,43.17,1683478.0,70890814.0,1098162410.4,4619193352.4
sz300871,回盛生物,2020-12-24,41.79,41.79,39.71,39.95,41.8,1834096.0,74199010.0,1049559528.6,4414755369.1
sz300871,回盛生物,2020-12-25,39.61,40.74,39.61,40.44,39.95,981900.0,39580938.0,1062432724.32,4468903807.92
sz300871,回盛生物,2020-12-28,40.36,40.36,39.15,39.16,40.44,1245300.0,49247192.0,1028804784.48,4327454824.88
sz300871,回盛生物,2020-12-29,39.21,40.06,39.13,39.18,39.16,1080853.0,42741999.0,1029330221.04,4329664965.24
sz300871,回盛生物,2020-12-30,39.02,39.64,38.62,39.34,39.18,969503.0,38013498.0,1033533713.52,4347346088.12
sz300871,回盛生物,2020-12-31,39.45,40.48,39.45,39.93,39.34,988978.0,39633916.0,1049034092.04,4412545228.74
sz300871,回盛生物,2021-01-04,39.96,41.88,39.96,41.79,39.93,1740301.0,71798664.0,1097899692.12,4618088282.22
sz300871,回盛生物,2021-01-05,41.82,42.39,41.19,41.8,41.79,1544407.0,64691443.0,1098162410.4,4619193352.4
sz300871,回盛生物,2021-01-06,41.7,41.79,39.9,40.17,41.8,1842469.0,74967267.0,1055339330.76,4439066913.059999
sz300871,回盛生物,2021-01-07,40.08,40.36,37.59,37.82,40.17,1855165.0,71692876.0,993600534.96,4179375420.76
sz300871,回盛生物,2021-01-08,37.8,38.21,36.18,37.29,37.82,1289265.0,48007092.0,979676466.12,4120806701.22
sz300871,回盛生物,2021-01-11,37.49,37.49,35.31,35.82,37.29,1686544.0,60891521.0,941056878.96,3958361384.76
sz300871,回盛生物,2021-01-12,38.2,41.41,38.11,40.18,35.82,3736943.0,149916566.0,1055602049.04,4440171983.24
sz300871,回盛生物,2021-01-13,39.51,40.1,38.41,38.99,40.18,2286301.0,89527318.0,1024338573.72,4308668631.82
sz300871,回盛生物,2021-01-14,38.39,42.18,37.7,40.61,38.99,3115829.0,126228428.0,1066898935.08,4487690000.98
sz300871,回盛生物,2021-01-15,40.56,44.17,40.0,42.91,40.61,3705495.0,158239356.0,1127324139.48,4741856142.38
sz300871,回盛生物,2021-01-18,42.68,43.7,41.71,42.15,42.91,2667596.0,113282289.0,1107357550.2,4657870808.7
sz300871,回盛生物,2021-01-19,42.14,43.44,41.51,42.13,42.15,2252974.0,95959144.0,1106832113.64,4655660668.34
sz300871,回盛生物,2021-01-20,41.9,42.36,40.74,41.31,42.13,1838830.0,76206853.0,1085289214.68,4565044913.58
sz300871,回盛生物,2021-01-21,41.21,41.76,40.9,41.36,41.31,1436000.0,59431790.0,1086602806.08,4570570264.48
sz300871,回盛生物,2021-01-22,41.19,42.38,40.65,41.66,41.36,1933946.0,80615406.0,1094484354.48,4603722369.88
sz300871,回盛生物,2021-01-25,41.35,41.35,39.0,40.19,41.66,1796966.0,71888716.0,1055864767.32,4441277053.42
sz300871,回盛生物,2021-01-26,39.99,42.78,39.78,41.03,40.19,1866022.0,77749653.0,1077933102.8400002,4534102948.54
sz300871,回盛生物,2021-01-27,40.41,42.59,39.62,42.58,41.03,2057092.0,85163898.0,1118654436.24,4705388826.44
sz300871,回盛生物,2021-01-28,42.43,44.15,42.05,42.86,42.58,2755824.0,118663641.0,1126010548.08,4736330791.48
sz300871,回盛生物,2021-01-29,43.51,44.88,42.53,44.0,42.86,3109424.0,136226448.0,1155960432.0,4862308792.0
sz300871,回盛生物,2021-02-01,43.92,46.29,42.95,45.36,44.0,3257764.0,146698731.0,1191690118.08,5012598336.4800005
sz300871,回盛生物,2021-02-02,45.14,45.24,42.82,43.93,45.36,2786820.0,122331764.0,1154121404.04,4854573300.74
sz300871,回盛生物,2021-02-03,43.39,44.88,42.41,43.18,43.93,2068768.0,90182915.0,1134417533.04,4771693037.24
sz300871,回盛生物,2021-02-04,42.75,43.44,41.13,42.04,43.18,1605022.0,67834541.0,1104467649.12,4645715036.72
sz300871,回盛生物,2021-02-05,42.41,49.0,42.23,45.44,42.04,4384766.0,201341069.0,1193791864.32,5021438897.92
sz300871,回盛生物,2021-02-08,44.08,45.19,43.29,43.99,45.44,2750127.0,121481473.0,1155697713.72,4861203721.820001
sz300871,回盛生物,2021-02-09,43.6,44.98,43.2,44.58,43.99,2065124.0,91458718.0,1171198092.24,4926402862.440001
sz300871,回盛生物,2021-02-10,44.59,44.89,42.76,43.74,44.58,2080765.0,90887075.0,1149129756.72,4833576967.32
sz300871,回盛生物,2021-02-18,44.1,45.71,44.1,44.66,43.74,1753754.0,78494577.0,1173299838.48,4935243423.88
sz300871,回盛生物,2021-02-19,44.58,46.68,44.14,46.1,44.66,2136000.0,97603245.0,1211131270.8,5094373529.8
sz300871,回盛生物,2021-02-22,46.5,46.98,44.45,44.49,46.1,2896886.0,132485340.0,1168833627.72,4916457230.82
sz300871,回盛生物,2021-02-23,44.07,44.43,42.44,43.13,44.49,1804617.0,77904192.0,1133103941.64,4766167686.34
sz300871,回盛生物,2021-02-24,42.67,43.68,42.28,43.26,43.13,1899881.0,81603799.0,1198302000.0,4780533598.68
sz300871,回盛生物,2021-02-25,43.07,43.36,40.97,41.08,43.26,2348381.0,98289721.0,1137916000.0,4539628299.44
sz300871,回盛生物,2021-02-26,40.5,40.88,39.7,40.43,41.08,964509.0,38935813.0,1119911000.0,4467798737.74
sz300871,回盛生物,2021-03-01,40.43,41.48,40.0,41.3,40.43,799159.0,32839867.0,1144010000.0,4563939843.400001
sz300871,回盛生物,2021-03-02,41.3,41.47,40.31,41.11,41.3,837869.0,34232893.0,1138747000.0,4542943509.9800005
sz300871,回盛生物,2021-03-03,41.1,41.74,40.35,41.58,41.11,748942.0,31021394.0,1151766000.0,4594881808.440001
sz300871,回盛生物,2021-03-04,41.25,41.91,40.67,40.72,41.58,939573.0,38852576.0,1127944000.0,4499845772.96
sz300871,回盛生物,2021-03-05,40.48,41.26,40.35,40.92,40.72,597727.0,24458764.0,1133484000.0,4521947176.559999
sz300871,回盛生物,2021-03-08,41.31,42.08,41.12,41.12,40.92,1012923.0,42133176.0,1139024000.0,4544048580.16
sz300871,回盛生物,2021-03-09,41.22,41.64,39.0,39.06,41.12,1262533.0,50223602.0,1081962000.0,4316404123.08
sz300871,回盛生物,2021-03-10,39.5,39.78,38.68,38.89,39.06,669035.0,26150963.0,1077253000.0,4297617930.02
sz300871,回盛生物,2021-03-11,39.0,39.26,38.4,39.17,38.89,622240.0,24243545.0,1085009000.0,4328559895.06
sz300871,回盛生物,2021-03-12,39.22,39.29,38.0,38.13,39.17,926568.0,35678632.0,1056201000.0,4213632596.34
sz300871,回盛生物,2021-03-15,38.1,38.46,37.5,38.08,38.13,580909.0,22033251.0,1054816000.0,4208107245.44
sz300871,回盛生物,2021-03-16,38.08,39.2,38.08,39.0,38.08,879523.0,34133809.0,1080300000.0,4309773702.0
sz300871,回盛生物,2021-03-17,39.17,41.04,38.8,40.41,39.0,1456045.0,58388271.0,1119357000.0,4465588597.38
sz300871,回盛生物,2021-03-18,40.01,41.41,40.01,41.07,40.41,1389060.0,56866688.0,1137639000.0,4538523229.26
sz300871,回盛生物,2021-03-19,40.81,42.86,40.6,42.06,41.07,1843027.0,77541896.0,1165062000.0,4647925177.08
sz300871,回盛生物,2021-03-22,41.88,43.05,41.81,42.97,42.06,1733633.0,73763915.0,1190269000.0,4748486563.46
sz300871,回盛生物,2021-03-23,42.62,43.47,42.22,42.99,42.97,1608111.0,69020041.0,1190823000.0,4750696703.82
sz300871,回盛生物,2021-03-24,42.7,43.43,42.3,43.22,42.99,1380952.0,59245757.0,1197194000.0,4776113317.96
sz300871,回盛生物,2021-03-25,43.1,43.88,42.87,43.75,43.22,1849203.0,80228214.0,1211875000.0,4834682037.5
sz300871,回盛生物,2021-03-26,43.45,45.79,43.45,44.4,43.75,3596954.0,160653309.0,1229880000.0,4906511599.2
sz300871,回盛生物,2021-03-29,44.5,46.39,42.58,44.94,44.4,3768857.0,169339786.0,1244838000.0,4966185388.92
sz300871,回盛生物,2021-03-30,44.77,44.83,43.34,43.52,44.94,1888495.0,82930849.0,1205504000.0,4809265423.36
sz300871,回盛生物,2021-03-31,43.92,44.3,43.25,43.4,43.52,1153553.0,50354410.0,1202180000.0,4796004581.2
sz300871,回盛生物,2021-04-01,43.19,43.84,43.19,43.32,43.4,918829.0,39989912.0,1199964000.0,4787164019.76
sz300871,回盛生物,2021-04-02,43.27,44.76,42.51,44.49,43.32,1470902.0,64802393.0,1232373000.0,4916457230.82
sz300871,回盛生物,2021-04-06,44.37,45.25,44.06,45.06,44.49,1135663.0,50870131.0,1248162000.0,4979446231.08
sz300871,回盛生物,2021-04-07,45.06,45.55,44.64,45.44,45.06,1157158.0,52266000.0,1258688000.0,5021438897.92
sz300871,回盛生物,2021-04-08,45.45,47.29,45.0,46.65,45.44,1831900.0,85309539.0,1292205000.0,5155152389.7
sz300871,回盛生物,2021-04-09,46.0,47.3,45.9,46.5,46.65,1258818.0,58670998.0,1288050000.0,5138576337.0
sz300871,回盛生物,2021-04-12,46.58,46.9,44.55,44.65,46.5,1455153.0,65967599.0,1236805000.0,4934138353.7
sz300871,回盛生物,2021-04-13,44.8,46.4,44.67,45.03,44.65,1018956.0,46469118.0,1247331000.0,4976131020.54
sz300871,回盛生物,2021-04-14,44.9,45.56,44.31,45.25,45.03,772253.0,34657296.0,1253425000.0,5000442564.5
sz300871,回盛生物,2021-04-15,45.01,45.8,43.56,44.97,45.25,1244285.0,55321772.0,1245669000.0,4969500599.46
sz300871,回盛生物,2021-04-16,45.0,47.2,44.88,47.0,44.97,1558217.0,72332027.0,1301900000.0,5193829846.0
sz300871,回盛生物,2021-04-19,46.7,47.38,46.5,46.82,47.0,1197132.0,56048417.0,1296914000.0,5173938582.76
sz300871,回盛生物,2021-04-20,46.89,48.38,46.61,46.61,46.82,1843738.0,87466126.0,1291097000.0,5150732108.98
sz300871,回盛生物,2021-04-21,46.39,46.97,45.93,46.17,46.61,1019827.0,47280465.0,1278909000.0,5102109021.059999
sz300871,回盛生物,2021-04-22,46.16,46.93,45.62,46.85,46.17,1032497.0,47722290.0,1297745000.0,5177253793.3
sz300871,回盛生物,2021-04-23,46.66,46.79,45.59,46.18,46.85,843325.0,38885700.0,1279186000.0,5103214091.24
sz300871,回盛生物,2021-04-26,46.18,49.19,45.81,48.35,46.18,2370623.0,113999561.0,1339295000.0,5343014320.3
sz300871,回盛生物,2021-04-27,48.45,50.56,47.39,50.05,48.35,4148972.0,205094483.0,1386385000.0,5530876250.9
sz300871,回盛生物,2021-04-28,49.99,51.4,48.98,48.99,50.05,3162595.0,159004386.0,1357023000.0,5413738811.820001
sz300871,回盛生物,2021-04-29,49.78,51.28,49.21,49.9,48.99,2529481.0,127695445.0,1382230000.0,5514300198.200001
sz300871,回盛生物,2021-04-30,49.9,53.28,49.48,52.92,49.9,3347209.0,173749595.0,1465884000.0,5848031392.56
sz300871,回盛生物,2021-05-06,53.15,54.3,51.9,52.62,52.92,2798815.0,148569945.0,1457574000.0,5814879287.160001
sz300871,回盛生物,2021-05-07,52.11,52.57,49.53,49.96,52.62,2522208.0,127569461.0,1383892000.0,5520930619.28
sz300871,回盛生物,2021-05-10,33.03,33.79,31.68,33.5,33.03,2791193.0,91381205.0,1391925000.0,5552977654.499999
sz300871,回盛生物,2021-05-11,33.4,33.4,31.71,32.1,33.5,2498529.0,80778597.0,1333755000.0,5320912916.7
sz300871,回盛生物,2021-05-12,31.79,32.3,31.01,32.18,32.1,2428653.0,76754329.0,1337079000.0,5334173758.86
sz300871,回盛生物,2021-05-13,31.66,35.8,31.66,34.37,32.18,4391321.0,150635842.0,1428073500.0,5697189312.990001
sz300871,回盛生物,2021-05-14,34.4,35.0,33.64,34.43,34.37,2593227.0,89278531.0,1430566500.0,5707134944.61
sz300871,回盛生物,2021-05-17,34.44,36.14,34.15,35.13,34.43,2813715.0,98718441.0,1459651500.0,5823167313.51
sz300871,回盛生物,2021-05-18,35.06,38.0,35.0,37.61,35.13,5617859.0,208252922.0,1562695500.0,6234253420.469999
sz300871,回盛生物,2021-05-19,37.23,37.51,36.2,36.64,37.61,3161960.0,116381615.0,1522392000.0,6073465709.280001
sz300871,回盛生物,2021-05-20,36.36,37.68,36.1,37.02,36.64,2473527.0,91702804.0,1538181000.0,6136454709.54
sz300871,回盛生物,2021-05-21,36.82,37.34,35.7,37.03,37.02,3304861.0,120921539.0,1538596500.0,6138112314.809999
sz300871,回盛生物,2021-05-24,37.02,41.98,37.01,40.6,37.03,5487269.0,220693008.0,1686930000.0,6729877396.2
sz300871,回盛生物,2021-05-25,41.0,42.65,40.95,42.33,40.6,4763493.0,200507736.0,1758811500.0,7016643107.91
sz300871,回盛生物,2021-05-26,42.33,43.54,41.67,42.88,42.33,3113065.0,133026503.0,1781664000.0,7107811397.76
sz300871,回盛生物,2021-05-27,42.87,43.29,41.68,42.95,42.88,2311378.0,98604886.0,1784572500.0,7119414634.650001
sz300871,回盛生物,2021-05-28,42.36,43.58,41.99,42.5,42.95,2146001.0,91308874.0,1765875000.0,7044822397.499999
sz300871,回盛生物,2021-05-31,42.8,44.07,42.4,43.75,42.5,3158281.0,136767445.0,1817812500.0,7252023056.25
sz300871,回盛生物,2021-06-01,43.6,46.2,43.13,44.4,43.75,4299623.0,191220081.0,1844820000.0,7359767398.8
sz300871,回盛生物,2021-06-02,43.82,44.0,40.81,41.9,44.4,4158888.0,174581832.0,1740945000.0,6945366081.299999
sz300871,回盛生物,2021-06-03,42.08,45.45,41.8,44.7,41.9,4228084.0,186478903.0,1857285000.0,7409495556.9
sz300871,回盛生物,2021-06-04,44.01,47.55,44.01,46.96,44.7,3704759.0,170171146.0,1951188000.0,7784114347.92
sz300871,回盛生物,2021-06-07,47.0,51.43,46.39,51.38,46.96,4417918.0,219247120.0,2134839000.0,8516775877.26
sz300871,回盛生物,2021-06-08,51.0,51.58,49.49,50.6,51.38,2919163.0,147172225.0,2102430000.0,8387482666.2
sz300871,回盛生物,2021-06-09,50.55,52.4,47.03,47.47,50.6,4407047.0,215108268.0,1972378500.0,7868652216.69
sz300871,回盛生物,2021-06-10,48.72,48.74,46.5,47.35,47.47,2965218.0,140258806.0,1967392500.0,7848760953.450001
sz300871,回盛生物,2021-06-11,47.7,47.9,43.5,43.73,47.35,4290327.0,193449905.0,1816981500.0,7248707845.71
sz300871,回盛生物,2021-06-15,44.23,44.23,41.0,43.28,43.73,3325508.0,141779785.0,1798284000.0,7174115608.56
sz300871,回盛生物,2021-06-16,43.32,43.32,41.55,42.0,43.28,1651500.0,69670027.0,1745100000.0,6961942134.0
sz300871,回盛生物,2021-06-17,41.95,42.58,41.47,41.98,42.0,1323314.0,55549691.0,1744269000.0,6958626923.46
sz300871,回盛生物,2021-06-18,41.95,43.06,41.22,42.42,41.98,1539801.0,65312998.0,1762551000.0,7031561555.34
sz300871,回盛生物,2021-06-21,42.39,43.85,41.8,42.77,42.42,1723199.0,74064604.0,1777093500.0,7089577739.790001
sz300871,回盛生物,2021-06-22,42.4,43.08,38.92,39.57,42.77,4812162.0,193220576.0,1644133500.0,6559144053.39
sz300871,回盛生物,2021-06-23,39.0,39.77,38.25,39.12,39.57,3494719.0,135856952.0,1625436000.0,6484551816.24
sz300871,回盛生物,2021-06-24,38.98,40.49,38.4,39.48,39.12,2390116.0,94637596.0,1640394000.0,6544225605.960001
sz300871,回盛生物,2021-06-25,39.3,39.6,38.5,39.33,39.48,1804865.0,70374087.0,1634161500.0,6519361526.91
sz300871,回盛生物,2021-06-28,39.67,42.1,39.4,41.9,39.33,3178581.0,130152725.0,1740945000.0,6945366081.299999
sz300871,回盛生物,2021-06-29,41.85,41.85,38.01,38.09,41.9,3929959.0,153560755.0,1582639500.0,6313818473.43
sz300871,回盛生物,2021-06-30,38.27,39.79,38.12,39.0,38.09,1783851.0,69365311.0,1620450000.0,6464660553.0
sz300871,回盛生物,2021-07-01,38.82,39.29,38.3,38.6,39.0,1314961.0,51085863.0,1603830000.0,6398356342.2
sz300871,回盛生物,2021-07-02,38.57,38.71,37.3,37.74,38.6,1329191.0,50208730.0,1568097000.0,6255802288.98
sz300871,回盛生物,2021-07-05,38.49,38.49,36.9,37.65,37.74,1363448.0,51109194.0,1564357500.0,6240883841.55
sz300871,回盛生物,2021-07-06,37.71,38.76,37.02,37.8,37.65,1437441.0,54188039.0,1570590000.0,6265747920.6
sz300871,回盛生物,2021-07-07,37.62,38.93,37.49,38.26,37.8,1735875.0,66463885.0,1589703000.0,6341997763.02
sz300871,回盛生物,2021-07-08,38.7,38.7,35.35,36.35,38.26,2783774.0,100967952.0,1510342500.0,6025395156.450001
sz300871,回盛生物,2021-07-09,36.09,36.55,34.4,34.5,36.35,3485009.0,122523013.0,1433475000.0,5718738181.499999
sz300871,回盛生物,2021-07-12,34.72,35.35,34.31,35.02,34.5,2454556.0,85554068.0,1455081000.0,5804933655.54
sz300871,回盛生物,2021-07-13,35.08,35.09,33.95,34.73,35.02,1723727.0,59349354.0,1443031500.0,5756863102.71
sz300871,回盛生物,2021-07-14,34.65,36.37,34.35,35.61,34.73,2527736.0,89904524.0,1479595500.0,5902732366.469999
sz300871,回盛生物,2021-07-15,35.54,36.2,34.43,36.1,35.61,1905780.0,67442746.0,1499955000.0,5983955024.7
sz300871,回盛生物,2021-07-16,35.73,35.83,34.6,34.67,36.1,1795175.0,62917584.0,1440538500.0,5746917471.09
sz300871,回盛生物,2021-07-19,34.6,35.28,34.38,35.2,34.67,1045154.0,36483486.0,1462560000.0,5834770550.4
sz300871,回盛生物,2021-07-20,35.1,36.79,35.03,36.07,35.2,1910826.0,68855663.0,1498708500.0,5978982208.89
sz300871,回盛生物,2021-07-21,36.49,36.49,35.21,35.52,36.07,1596827.0,56929816.0,1475856000.0,5887813919.04
sz300871,回盛生物,2021-07-22,35.4,36.78,35.27,35.81,35.52,1696803.0,61130426.0,1487905500.0,5935884471.87
sz300871,回盛生物,2021-07-23,35.8,35.8,34.5,34.94,35.81,1346852.0,47206242.0,1451757000.0,5791672813.38
sz300871,回盛生物,2021-07-26,34.71,35.6,33.35,33.55,34.94,1697098.0,57363467.0,1394002500.0,5561265680.85
sz300871,回盛生物,2021-07-27,33.57,33.89,32.35,32.35,33.55,1180926.0,39093231.0,1344142500.0,5362353048.450001
sz300871,回盛生物,2021-07-28,32.35,32.85,31.15,32.05,32.35,977574.0,31197058.0,1331677500.0,5312624890.349999
sz300871,回盛生物,2021-07-29,32.68,34.55,32.46,34.55,32.05,1700803.0,57095777.0,1435552500.0,5727026207.85
sz300871,回盛生物,2021-07-30,34.48,35.85,33.48,35.49,34.55,1852978.0,64263233.0,1474609500.0,5882841103.23
sz300871,回盛生物,2021-08-02,33.0,34.51,32.12,34.51,35.49,3033093.0,102020681.0,1433890500.0,5720395786.77
sz300871,回盛生物,2021-08-03,34.4,36.06,34.05,35.58,34.51,2855860.0,100897945.0,1478349000.0,5897759550.66
sz300871,回盛生物,2021-08-04,35.6,35.6,34.58,35.22,35.58,1831377.0,64169655.0,1463391000.0,5838085760.940001
sz300871,回盛生物,2021-08-05,35.02,36.89,34.69,35.67,35.22,2341055.0,84263216.0,1482088500.0,5912677998.09
sz300871,回盛生物,2021-08-06,35.68,36.0,34.71,35.07,35.67,1414772.0,49622108.0,1457158500.0,5813221681.89
sz300871,回盛生物,2021-08-09,34.96,38.38,34.5,38.11,35.07,3894502.0,143659911.0,1583470500.0,6317133683.97
sz300871,回盛生物,2021-08-10,38.1,38.1,36.63,37.21,38.11,2779523.0,103339310.0,1546075500.0,6167949209.669999
sz300871,回盛生物,2021-08-11,37.2,37.2,36.05,36.87,37.21,1526724.0,55915100.0,1531948500.0,6111590630.49
sz300871,回盛生物,2021-08-12,36.85,37.98,36.51,37.02,36.87,1943478.0,72599611.0,1538181000.0,6136454709.54
sz300871,回盛生物,2021-08-13,37.3,37.3,35.5,35.84,37.02,1908950.0,68914259.0,1489152000.0,5940857287.68
sz300871,回盛生物,2021-08-16,35.5,36.58,35.45,35.85,35.84,1056077.0,38054558.0,1489567500.0,5942514892.95
sz300871,回盛生物,2021-08-17,35.65,35.83,34.08,34.18,35.85,1449658.0,50598401.0,1420179000.0,5665694812.86
sz300871,回盛生物,2021-08-18,34.27,34.67,33.48,34.26,34.18,848662.0,28914585.0,1423503000.0,5678955655.02
sz300871,回盛生物,2021-08-19,34.27,34.6,33.48,34.23,34.26,905674.0,30788097.0,1422256500.0,5673982839.21
sz300871,回盛生物,2021-08-20,34.52,36.77,33.67,35.95,34.23,2295126.0,81081790.0,1493722500.0,5959090945.650001
sz300871,回盛生物,2021-08-23,36.12,36.59,35.0,35.97,35.95,2057437.0,73850027.0,1494553500.0,5962406156.190001
sz300871,回盛生物,2021-08-24,36.17,38.85,35.77,37.94,35.97,2910159.0,109900699.0,2987775000.0,6288954394.38
sz300871,回盛生物,2021-08-25,38.45,40.57,37.3,39.6,37.94,3290914.0,128658759.0,3118500000.0,6564116869.2
sz300871,回盛生物,2021-08-26,39.69,40.88,38.62,39.65,39.6,2470357.0,98028460.0,3122437500.0,6572404895.55
sz300871,回盛生物,2021-08-27,39.65,39.9,38.3,38.99,39.65,1506010.0,58701993.0,3070462500.0,6463002947.73
sz300871,回盛生物,2021-08-30,38.9,40.49,38.0,38.47,38.99,2587576.0,100132978.0,3029512500.0,6376807473.69
sz300871,回盛生物,2021-08-31,36.28,37.96,33.8,36.08,38.47,3485731.0,126485021.0,2841300000.0,5980639814.160001
sz300871,回盛生物,2021-09-01,36.98,37.24,33.98,36.21,36.08,3330529.0,118237960.0,2851537500.0,6002188682.669999
sz300871,回盛生物,2021-09-02,35.66,36.15,35.01,35.1,36.21,1254650.0,44553095.0,2764125000.0,5818194497.7
sz300871,回盛生物,2021-09-03,34.73,35.37,34.2,34.23,35.1,1091050.0,37928952.0,2695612500.0,5673982839.21
sz300871,回盛生物,2021-09-06,34.27,35.31,33.91,35.19,34.23,1158354.0,40286670.0,2771212500.0,5833112945.129999
sz300871,回盛生物,2021-09-07,34.81,35.34,34.5,34.98,35.19,956550.0,33410145.0,2754675000.0,5798303234.46
sz300871,回盛生物,2021-09-08,35.25,35.88,34.38,35.59,34.98,1490448.0,52378807.0,2802712500.0,5899417155.929999
sz300871,回盛生物,2021-09-09,35.58,35.58,34.75,35.24,35.59,1054335.0,37010178.0,2775150000.0,5841400971.4800005
sz300871,回盛生物,2021-09-10,35.24,35.24,34.65,34.77,35.24,606853.0,21182865.0,2738137500.0,5780461283.79
sz300871,回盛生物,2021-09-13,34.55,35.44,34.51,35.37,34.77,842954.0,29496253.0,2785387500.0,5880210399.990001
sz300871,回盛生物,2021-09-14,35.47,37.38,35.47,35.77,35.37,1550041.0,56244255.0,2816887500.0,5946709810.790001
sz300871,回盛生物,2021-09-15,35.55,35.87,34.21,34.27,35.77,1383254.0,48032895.0,2698762500.0,5697337020.29
sz300871,回盛生物,2021-09-16,34.17,34.74,33.16,33.3,34.27,1402208.0,47697918.0,2622375000.0,5536075949.099999
sz300871,回盛生物,2021-09-17,33.25,33.43,32.2,33.4,33.3,1047852.0,34307381.0,2630250000.0,5552700801.8
sz300871,回盛生物,2021-09-22,32.99,33.0,31.48,32.11,33.4,1302140.0,41849784.0,2528662500.0,5338240201.97
sz300871,回盛生物,2021-09-23,31.99,32.78,31.9,32.65,32.11,809700.0,26246446.0,2571187500.0,5428014406.55
sz300871,回盛生物,2021-09-24,32.6,32.73,32.0,32.31,32.65,505195.0,16333717.0,2544412500.0,5371489907.37
sz300871,回盛生物,2021-09-27,32.1,32.52,31.6,31.86,32.31,838595.0,26905204.0,2508975000.0,5296678070.219999
sz300871,回盛生物,2021-09-28,31.97,31.97,31.27,31.6,31.86,410495.0,12965066.0,2488500000.0,5253453453.2
sz300871,回盛生物,2021-09-29,31.6,33.6,31.03,32.99,31.6,1115250.0,36050555.0,2597962500.0,5484538905.73
sz300871,回盛生物,2021-09-30,32.18,32.87,32.18,32.35,32.99,705099.0,22864878.0,2547562500.0,5378139848.45
sz300871,回盛生物,2021-10-08,32.36,33.35,32.36,32.85,32.35,1076224.0,35533565.0,2586937500.0,5461264111.950001
sz300871,回盛生物,2021-10-11,33.06,33.2,32.5,32.99,32.85,680137.0,22356395.0,2597962500.0,5484538905.73
sz300871,回盛生物,2021-10-12,32.98,32.98,31.6,32.03,32.99,657950.0,21168979.0,2522362500.0,5324940319.809999
sz300871,回盛生物,2021-10-13,32.04,32.64,31.69,32.35,32.03,376245.0,12080337.0,2547562500.0,5378139848.45
sz300871,回盛生物,2021-10-14,32.35,32.44,32.08,32.27,32.35,289227.0,9346895.0,2541262500.0,5364839966.289999
sz300871,回盛生物,2021-10-15,32.33,32.75,31.73,32.35,32.27,467727.0,15071385.0,2547562500.0,5378139848.45
sz300871,回盛生物,2021-10-18,32.4,32.4,31.21,31.48,32.35,655650.0,20755962.0,2479050000.0,5233503629.96
sz300871,回盛生物,2021-10-19,31.48,32.38,31.48,31.79,31.48,618850.0,19752237.0,2503462500.0,5285040673.33
sz300871,回盛生物,2021-10-20,31.76,32.17,31.23,31.33,31.79,731600.0,23135961.0,2467237500.0,5208566350.91
sz300871,回盛生物,2021-10-21,31.33,31.71,31.05,31.25,31.33,449336.0,14046553.0,2460937500.0,5195266468.75
sz300871,回盛生物,2021-10-22,31.47,31.49,30.4,30.43,31.25,744200.0,22860856.0,2396362500.0,5058942676.610001
sz300871,回盛生物,2021-10-25,31.15,31.15,30.02,30.68,30.43,454829.0,13825675.0,2416050000.0,5100504808.36
sz300871,回盛生物,2021-10-26,30.99,30.99,30.07,30.15,30.68,479313.0,14546138.0,2374312500.0,5012393089.05
sz300871,回盛生物,2021-10-27,30.15,30.15,26.63,27.86,30.15,3191530.0,88575938.0,2193975000.0,4631683962.22
sz300871,回盛生物,2021-10-28,27.86,28.55,26.46,26.7,27.86,1857827.0,50630393.0,2102625000.0,4438835670.900001
sz300871,回盛生物,2021-10-29,26.64,28.48,26.52,27.78,26.7,1272588.0,35068429.0,2187675000.0,4618384080.059999
sz300871,回盛生物,2021-11-01,27.87,27.87,26.75,27.11,27.78,1491130.0,40416970.0,2134912500.0,4506997566.97
sz300871,回盛生物,2021-11-02,27.7,27.79,26.03,26.8,27.11,1799100.0,48185424.0,2110500000.0,4455460523.599999
sz300871,回盛生物,2021-11-03,26.86,27.41,26.67,27.19,26.8,1008641.0,27344305.0,2141212500.0,4520297449.13
sz300871,回盛生物,2021-11-04,27.04,27.45,26.92,27.3,27.19,824077.0,22414699.0,2149875000.0,4538584787.1
sz300871,回盛生物,2021-11-05,27.68,27.68,26.62,26.75,27.3,926500.0,24927506.0,2106562500.0,4447148097.25
sz300871,回盛生物,2021-11-08,26.84,27.09,26.01,26.48,26.75,747540.0,19661614.0,2085300000.0,4402260994.96
sz300871,回盛生物,2021-11-09,26.48,27.08,26.42,26.95,26.48,895260.0,24056943.0,2122312500.0,4480397802.65
sz300871,回盛生物,2021-11-10,26.95,27.18,26.33,27.0,26.95,901067.0,24114060.0,2126250000.0,4488710229.0
sz300871,回盛生物,2021-11-11,27.06,27.66,26.84,27.66,27.0,1371650.0,37509868.0,2178225000.0,4598434256.82
sz300871,回盛生物,2021-11-12,27.33,27.73,27.3,27.59,27.66,924850.0,25463288.0,2172712500.0,4586796859.93
sz300871,回盛生物,2021-11-15,27.72,28.0,27.5,27.86,27.59,1471300.0,40726251.0,2193975000.0,4631683962.22
sz300871,回盛生物,2021-11-16,27.88,28.63,27.7,28.49,27.86,2046000.0,57989881.0,2243587500.0,4736420534.23
sz300871,回盛生物,2021-11-17,28.49,28.5,27.66,28.29,28.49,1305103.0,36660032.0,2227837500.0,4703170828.83
sz300871,回盛生物,2021-11-18,28.0,28.3,27.66,27.75,28.29,1021835.0,28510072.0,2185312500.0,4613396624.25
sz300871,回盛生物,2021-11-19,27.58,27.94,27.29,27.76,27.75,957597.0,26428175.0,2186100000.0,4615059109.52
sz300871,回盛生物,2021-11-22,27.77,27.78,27.28,27.56,27.76,982593.0,27024651.0,2170350000.0,4581809404.12
sz300871,回盛生物,2021-11-23,27.6,27.76,27.39,27.74,27.56,1001600.0,27629316.0,2184525000.0,4611734138.9800005
sz300871,回盛生物,2021-11-24,27.8,28.47,27.53,28.17,27.74,1722581.0,48245001.0,2218387500.0,4683221005.59
sz300871,回盛生物,2021-11-25,28.17,29.2,27.96,29.0,28.17,2602016.0,74361749.0,2283750000.0,4821207283.0
sz300871,回盛生物,2021-11-26,29.0,29.2,28.57,28.76,29.0,1635527.0,47144003.0,2264850000.0,4781307636.5199995
sz300871,回盛生物,2021-11-29,28.45,29.08,28.24,28.72,28.76,1209658.0,34754943.0,2261700000.0,4774657695.44
sz300871,回盛生物,2021-11-30,28.72,29.02,28.38,28.59,28.72,1078627.0,30943722.0,2251462500.0,4753045386.929999
sz300871,回盛生物,2021-12-01,28.8,29.04,28.42,29.04,28.59,1706315.0,49247161.0,2286900000.0,4827857224.08
sz300871,回盛生物,2021-12-02,29.11,29.12,28.42,28.42,29.04,1256300.0,36056273.0,2238075000.0,4724783137.34
sz300871,回盛生物,2021-12-03,28.5,28.67,27.81,27.92,28.42,1515980.0,42720705.0,2198700000.0,4641658873.84
sz300871,回盛生物,2021-12-06,27.95,28.03,26.78,26.88,27.92,2106662.0,57391448.0,2116800000.0,4468760405.76
sz300871,回盛生物,2021-12-07,26.99,27.11,26.5,26.7,26.88,1140450.0,30457339.0,2102625000.0,4438835670.900001
sz300871,回盛生物,2021-12-08,26.7,27.78,26.68,27.1,26.7,1638324.0,44615236.0,2134125000.0,4505335081.7
sz300871,回盛生物,2021-12-09,27.11,27.7,27.02,27.33,27.1,1727327.0,47209121.0,2152237500.0,4543572242.91
sz300871,回盛生物,2021-12-10,27.3,27.77,27.17,27.45,27.33,1362976.0,37497917.0,2161687500.0,4563522066.15
sz300871,回盛生物,2021-12-13,27.81,28.38,27.73,28.01,27.45,2459755.0,68912592.0,2205787500.0,4656621241.2699995
sz300871,回盛生物,2021-12-14,28.03,28.54,27.9,28.36,28.01,1862703.0,52745809.0,2233350000.0,4714808225.719999
sz300871,回盛生物,2021-12-15,29.82,30.6,28.9,29.23,28.36,6440682.0,188596440.0,2301862500.0,4859444444.21
sz300871,回盛生物,2021-12-16,29.17,29.47,28.9,29.35,29.23,4661692.0,136202511.0,2311312500.0,4879394267.45
sz300871,回盛生物,2021-12-17,28.26,28.57,28.21,28.23,29.35,2315779.0,65582993.0,2223112500.0,4693195917.21
sz300871,回盛生物,2021-12-20,28.01,28.34,27.8,27.82,28.23,1243950.0,34922266.0,2190825000.0,4625034021.14
sz300871,回盛生物,2021-12-21,27.99,28.27,27.78,28.06,27.82,994022.0,27879672.0,2209725000.0,4664933667.62
sz300871,回盛生物,2021-12-22,28.11,28.24,27.77,28.08,28.06,984167.0,27476277.0,2211300000.0,4668258638.16
sz300871,回盛生物,2021-12-23,28.1,28.14,27.36,27.39,28.08,1542787.0,42630406.0,2156962500.0,4553547154.53
sz300871,回盛生物,2021-12-24,27.7,27.7,26.86,27.18,27.39,1353183.0,36724620.0,2140425000.0,4518634963.860001
sz300871,回盛生物,2021-12-27,27.2,27.94,27.2,27.78,27.18,1377753.0,38097286.0,2304643440.06,4618384080.059999
sz300871,回盛生物,2021-12-28,27.94,28.05,27.61,28.01,27.78,1021027.0,28507404.0,2323724361.27,4656621241.2699995
sz300871,回盛生物,2021-12-29,27.95,28.49,27.72,28.3,28.01,1564717.0,44131752.0,2347782914.1,4704833314.099999
sz300871,回盛生物,2021-12-30,28.1,28.66,28.1,28.56,28.3,1384806.0,39408554.0,2369352651.12,4748057931.12
sz300871,回盛生物,2021-12-31,28.41,28.77,28.31,28.48,28.56,1452181.0,41496775.0,2362715808.96,4734758048.96
sz300871,回盛生物,2022-01-04,28.76,29.26,28.67,29.09,28.48,3178257.0,92331545.0,2413321730.43,4836169650.43
sz300871,回盛生物,2022-01-05,29.0,29.93,28.76,29.71,29.09,4172901.0,122421692.0,2464757257.17,4939243737.17
sz300871,回盛生物,2022-01-06,29.35,30.25,28.9,29.48,29.71,2612899.0,77011464.0,2445676335.96,4901006575.96
sz300871,回盛生物,2022-01-07,29.8,29.89,28.8,28.81,29.48,3241919.0,95187471.0,2390092782.87,4789620062.87
sz300871,回盛生物,2022-01-10,29.11,31.07,28.83,31.01,28.81,6371194.0,192666865.0,2572605942.27,5155366822.27
sz300871,回盛生物,2022-01-11,30.59,30.89,29.88,30.2,31.01,3714247.0,112378297.0,2505407915.4,5020705515.400001
sz300871,回盛生物,2022-01-12,30.1,30.53,29.7,30.28,30.2,2189766.0,66040909.0,2512044757.56,5034005397.559999
sz300871,回盛生物,2022-01-13,30.33,30.5,29.5,29.56,30.28,2296743.0,68523885.0,2452313178.12,4914306458.12
sz300871,回盛生物,2022-01-14,29.45,30.36,29.43,29.63,29.56,2247602.0,67296648.0,2458120415.01,4925943855.01
