数据由邢不行整理
股票代码,股票名称,交易日期,开盘价,最高价,最低价,收盘价,前收盘价,成交量,成交额,流通市值,总市值
sz300887,N谱尼,2020-09-16,106.0,120.0,106.0,110.9,44.47,12778342.0,1414274759.0,1798729463.8000002,8428400000.0
sz300887,C谱尼,2020-09-17,115.99,130.9,114.6,115.6,110.9,11466945.0,1378412960.0,1874960559.2,8785600000.0
sz300887,C谱尼,2020-09-18,112.0,118.6,107.18,114.89,115.6,8558528.0,954581802.0,1863444797.98,8731640000.0
sz300887,C谱尼,2020-09-21,112.78,117.5,109.01,110.0,114.89,5996505.0,678890329.0,1784132020.0,8360000000.0
sz300887,C谱尼,2020-09-22,107.0,113.98,106.87,111.0,110.0,5404779.0,597687746.0,1800351402.0,8436000000.0
sz300887,谱尼测试,2020-09-23,111.72,119.0,105.0,119.0,111.0,8038430.0,891279350.0,1930106458.0,9044000000.0
sz300887,谱尼测试,2020-09-24,115.21,117.82,110.7,110.7,119.0,6104350.0,699744972.0,1795485587.4,8413200000.0
sz300887,谱尼测试,2020-09-25,110.0,112.87,104.7,104.7,110.7,4408676.0,477453442.0,1698169295.4,7957200000.0
sz300887,谱尼测试,2020-09-28,102.2,103.44,92.34,93.35,104.7,5587406.0,548197339.0,1514079309.6999998,7094600000.0
sz300887,谱尼测试,2020-09-29,93.79,96.45,90.0,92.15,93.35,3885736.0,361534349.0,1494616051.3000002,7003400000.0
sz300887,谱尼测试,2020-09-30,92.0,93.15,87.64,88.02,92.15,2913465.0,263382502.0,1427630003.64,6689520000.0
sz300887,谱尼测试,2020-10-09,89.9,93.5,89.33,92.08,88.02,3101258.0,283790221.0,1493480694.56,6998080000.0
sz300887,谱尼测试,2020-10-12,95.72,96.74,92.56,95.9,92.08,3345345.0,316929489.0,1555438733.8,7288400000.0
sz300887,谱尼测试,2020-10-13,95.0,98.5,93.66,95.5,95.9,3240193.0,310145111.0,1548950981.0,7258000000.0
sz300887,谱尼测试,2020-10-14,95.25,102.88,95.0,99.8,95.5,4034715.0,401808757.0,1618694323.6,7584800000.0
sz300887,谱尼测试,2020-10-15,99.0,99.9,94.89,96.33,99.8,2977185.0,288670546.0,1562413068.0600002,7321080000.0
sz300887,谱尼测试,2020-10-16,95.15,101.8,93.9,97.52,96.33,2951498.0,286225367.0,1581714132.64,7411520000.0
sz300887,谱尼测试,2020-10-19,98.31,102.97,98.02,98.75,97.52,3133450.0,313638941.0,1601663972.5,7505000000.0
sz300887,谱尼测试,2020-10-20,97.02,101.65,95.64,101.12,98.75,3445889.0,341880274.0,1640103907.84,7685120000.0
sz300887,谱尼测试,2020-10-21,101.0,102.68,98.28,98.3,101.12,3673389.0,369310876.0,1594365250.6,7470800000.0
sz300887,谱尼测试,2020-10-22,96.71,99.41,92.3,94.0,98.3,3778473.0,362904380.0,1524621908.0,7144000000.0
sz300887,谱尼测试,2020-10-23,93.12,96.9,93.06,95.3,94.0,2766783.0,262159389.0,1545707104.6,7242800000.0
sz300887,谱尼测试,2020-10-26,95.37,97.2,92.99,95.36,95.3,2375350.0,226411846.0,1546680267.52,7247360000.0
sz300887,谱尼测试,2020-10-27,93.8,95.3,91.5,92.9,95.36,2081882.0,194290926.0,1506780587.8,7060400000.0
sz300887,谱尼测试,2020-10-28,93.5,97.5,93.04,96.56,92.9,3357582.0,321127380.0,1566143525.92,7338560000.0
sz300887,谱尼测试,2020-10-29,94.59,104.68,94.39,99.25,96.56,4586696.0,459499648.0,1609773663.5,7543000000.0
sz300887,谱尼测试,2020-10-30,100.0,102.1,96.85,99.7,99.25,3989932.0,397879059.0,1617072385.4,7577200000.0
sz300887,谱尼测试,2020-11-02,101.0,102.0,98.19,101.24,99.7,2798336.0,280482409.0,1642050233.6799998,7694240000.0
sz300887,谱尼测试,2020-11-03,100.98,101.1,98.68,100.11,101.24,2738875.0,273858522.0,1623722332.02,7608360000.0
sz300887,谱尼测试,2020-11-04,99.6,100.98,96.71,96.71,100.11,2234259.0,219720514.0,1568576433.2199998,7349960000.0
sz300887,谱尼测试,2020-11-05,96.66,98.88,96.08,98.15,96.71,2217786.0,217127580.0,1591932343.3,7459400000.0
sz300887,谱尼测试,2020-11-06,98.29,98.58,93.35,94.21,98.15,2324923.0,221373486.0,1528027978.22,7159960000.0
sz300887,谱尼测试,2020-11-09,95.11,101.5,94.52,100.94,94.21,3851975.0,379534249.0,1637184419.0800002,7671440000.0
sz300887,谱尼测试,2020-11-10,100.0,102.8,98.73,100.95,100.94,3336626.0,333949311.0,1637346612.9,7672200000.0
sz300887,谱尼测试,2020-11-11,100.01,105.3,99.2,103.9,100.95,4586633.0,471721633.0,1685193789.8000002,7896400000.0
sz300887,谱尼测试,2020-11-12,103.93,106.72,100.45,102.23,103.9,3199769.0,330960804.0,1658107421.86,7769480000.0
sz300887,谱尼测试,2020-11-13,100.11,100.3,96.0,98.15,102.23,2342067.0,229302967.0,1591932343.3,7459400000.0
sz300887,谱尼测试,2020-11-16,99.41,100.48,96.4,100.12,98.15,2528866.0,249196945.0,1623884525.8400002,7609120000.0
sz300887,谱尼测试,2020-11-17,98.88,99.88,96.58,97.45,100.12,2056485.0,200770273.0,1580578775.9,7406200000.0
sz300887,谱尼测试,2020-11-18,99.56,111.0,99.56,103.92,97.45,4607052.0,483295093.0,1685518177.44,7897920000.0
sz300887,谱尼测试,2020-11-19,101.0,103.79,100.01,100.98,103.92,3064433.0,310234905.0,1637833194.36,7674480000.0
sz300887,谱尼测试,2020-11-20,100.95,101.12,98.26,100.0,100.98,2119204.0,210969003.0,1621938200.0,7600000000.0
sz300887,谱尼测试,2020-11-23,101.9,104.51,100.82,102.85,100.0,2852108.0,292676441.0,1668163438.7,7816600000.0
sz300887,谱尼测试,2020-11-24,102.5,102.5,99.58,101.95,102.85,2080308.0,209840284.0,1653565994.9,7748200000.0
sz300887,谱尼测试,2020-11-25,101.54,102.0,99.61,99.96,101.95,1626339.0,163325188.0,1621289424.72,7596960000.0
sz300887,谱尼测试,2020-11-26,99.3,99.85,96.15,97.0,99.96,2103584.0,204724697.0,1573280054.0,7372000000.0
sz300887,谱尼测试,2020-11-27,97.8,97.8,93.53,94.1,97.0,1682815.0,159958847.0,1526243846.2,7151600000.0
sz300887,谱尼测试,2020-11-30,94.5,95.45,93.4,94.57,94.1,1114983.0,105399996.0,1533866955.74,7187320000.0
sz300887,谱尼测试,2020-12-01,94.3,95.39,93.61,94.83,94.57,1065855.0,101017004.0,1538083995.06,7207080000.0
sz300887,谱尼测试,2020-12-02,94.46,94.8,92.2,92.8,94.83,1577220.0,146958342.0,1505158649.6,7052800000.0
sz300887,谱尼测试,2020-12-03,92.5,93.79,91.0,93.07,92.8,1235938.0,114755395.0,1509537882.74,7073320000.0
sz300887,谱尼测试,2020-12-04,92.5,93.6,91.84,93.3,93.07,822822.0,76335065.0,1513268340.6,7090800000.0
sz300887,谱尼测试,2020-12-07,94.01,96.42,94.0,95.29,93.3,1543654.0,147217498.0,1545544910.78,7242040000.0
sz300887,谱尼测试,2020-12-08,96.0,96.31,94.0,94.32,95.29,1125016.0,106767771.0,1529812110.24,7168320000.0
sz300887,谱尼测试,2020-12-09,94.05,94.8,90.51,90.69,94.32,1392784.0,128135918.0,1470935753.58,6892440000.0
sz300887,谱尼测试,2020-12-10,90.54,91.66,89.16,89.21,90.69,942398.0,85183239.0,1446931068.22,6779960000.0
sz300887,谱尼测试,2020-12-11,89.62,90.15,86.1,86.78,89.21,1514169.0,132905499.0,1407517969.9599998,6595280000.0
sz300887,谱尼测试,2020-12-14,87.8,88.28,86.61,87.61,86.78,812657.0,70940175.0,1420980057.02,6658360000.0
sz300887,谱尼测试,2020-12-15,86.7,87.84,86.69,87.01,87.61,652022.0,56901867.0,1411248427.82,6612760000.0
sz300887,谱尼测试,2020-12-16,86.9,87.18,82.58,82.66,87.01,1405407.0,117891967.0,1340694116.12,6282160000.0
sz300887,谱尼测试,2020-12-17,82.49,83.75,81.0,83.15,82.66,964423.0,79675911.0,1348641613.3,6319400000.0
sz300887,谱尼测试,2020-12-18,82.83,83.2,81.6,82.05,83.15,907490.0,74721755.0,1330800293.1,6235800000.0
sz300887,谱尼测试,2020-12-21,82.37,86.38,82.37,84.06,82.05,1185284.0,100326641.0,1363401250.92,6388560000.0
sz300887,谱尼测试,2020-12-22,83.83,88.25,82.4,85.01,84.06,1598000.0,136728616.0,1378809663.8200002,6460760000.0
sz300887,谱尼测试,2020-12-23,84.21,84.73,81.0,82.0,85.01,1281938.0,106011712.0,1329989324.0,6232000000.0
sz300887,谱尼测试,2020-12-24,81.6,81.76,79.11,79.5,82.0,1189276.0,95323287.0,1289440869.0,6042000000.0
sz300887,谱尼测试,2020-12-25,79.28,81.15,78.38,80.36,79.5,874039.0,69887111.0,1303389537.52,6107360000.0
sz300887,谱尼测试,2020-12-28,82.0,82.96,78.7,78.75,80.36,867921.0,70173515.0,1277276332.5,5985000000.0
sz300887,谱尼测试,2020-12-29,77.01,77.9,75.8,75.8,78.75,1030928.0,79050943.0,1229429155.6,5760800000.0
sz300887,谱尼测试,2020-12-30,75.8,77.44,74.65,76.33,75.8,1027650.0,78377454.0,1238025428.06,5801080000.0
sz300887,谱尼测试,2020-12-31,77.03,79.93,76.93,77.89,76.33,974261.0,76326072.0,1263327663.98,5919640000.0
sz300887,谱尼测试,2021-01-04,77.37,81.47,77.37,80.42,77.89,1037961.0,82710615.0,1304362700.44,6111920000.0
sz300887,谱尼测试,2021-01-05,80.04,81.6,79.5,80.91,80.42,936107.0,75507671.0,1312310197.62,6149160000.0
sz300887,谱尼测试,2021-01-06,84.99,91.0,83.51,87.4,80.91,2955327.0,257113945.0,1417573986.8000002,6642400000.0
sz300887,谱尼测试,2021-01-07,89.0,89.48,83.57,84.03,87.4,1703518.0,145507372.0,1362914669.46,6386280000.0
sz300887,谱尼测试,2021-01-08,85.0,91.47,84.6,88.25,84.03,1885266.0,166984540.0,1431360461.5,6707000000.0
sz300887,谱尼测试,2021-01-11,89.58,89.9,86.12,88.3,88.25,1300173.0,114391069.0,1432171430.6,6710800000.0
sz300887,谱尼测试,2021-01-12,88.4,90.95,84.68,85.0,88.3,1429705.0,123845927.0,1378647470.0,6460000000.0
sz300887,谱尼测试,2021-01-13,84.9,85.3,78.0,79.52,85.0,1806959.0,146611519.0,1289765256.64,6043520000.0
sz300887,谱尼测试,2021-01-14,79.0,82.95,78.85,80.11,79.52,1053096.0,85454851.0,1299334692.02,6088360000.0
sz300887,谱尼测试,2021-01-15,80.88,86.19,79.53,84.82,80.11,1689027.0,141870829.0,1375727981.24,6446320000.0
sz300887,谱尼测试,2021-01-18,83.52,86.57,83.52,84.7,84.82,1071323.0,90887137.0,1373781655.4,6437200000.0
sz300887,谱尼测试,2021-01-19,84.58,87.05,83.41,83.93,84.7,1140267.0,97043821.0,1361292731.2599998,6378680000.0
sz300887,谱尼测试,2021-01-20,84.6,86.58,81.3,82.81,83.93,1286495.0,107957830.0,1343127023.42,6293560000.0
sz300887,谱尼测试,2021-01-21,89.0,92.86,86.11,90.56,82.81,3440035.0,309013712.0,1468827233.92,6882560000.0
sz300887,谱尼测试,2021-01-22,89.0,94.32,88.55,93.85,90.56,3255887.0,300209470.0,1522189000.7,7132600000.0
sz300887,谱尼测试,2021-01-25,94.0,94.74,88.34,88.76,93.85,2332583.0,210941067.0,1439632346.3200002,6745760000.0
sz300887,谱尼测试,2021-01-26,87.7,87.7,84.01,85.13,88.76,1575320.0,134556216.0,1380755989.6599998,6469880000.0
sz300887,谱尼测试,2021-01-27,86.25,87.87,84.55,85.8,85.13,1124302.0,96601794.0,1391622975.6,6520800000.0
sz300887,谱尼测试,2021-01-28,85.2,85.39,81.67,82.12,85.8,1273787.0,106484334.0,1331935649.84,6241120000.0
sz300887,谱尼测试,2021-01-29,83.13,83.85,79.8,83.58,82.12,1250848.0,101995064.0,1355615947.56,6352080000.0
sz300887,谱尼测试,2021-02-01,82.29,85.57,81.13,85.39,83.58,1331835.0,112278343.0,1384973028.98,6489640000.0
sz300887,谱尼测试,2021-02-02,84.78,84.95,81.7,82.0,85.39,1221897.0,101514119.0,1329989324.0,6232000000.0
sz300887,谱尼测试,2021-02-03,81.9,81.98,78.3,80.2,82.0,1156666.0,92156928.0,1300794436.4,6095200000.0
sz300887,谱尼测试,2021-02-04,79.9,80.14,76.25,77.51,80.2,921863.0,71615245.0,1257164298.82,5890760000.0
sz300887,谱尼测试,2021-02-05,77.98,78.29,74.27,74.27,77.51,876724.0,66816753.0,1204613501.14,5644520000.0
sz300887,谱尼测试,2021-02-08,74.3,74.96,71.35,71.82,74.27,709171.0,51435999.0,1164876015.24,5458320000.0
sz300887,谱尼测试,2021-02-09,72.26,73.72,71.77,72.84,71.82,605998.0,44142938.0,1181419784.88,5535840000.0
sz300887,谱尼测试,2021-02-10,72.66,75.15,72.3,73.46,72.84,776094.0,57232605.0,1191475801.72,5582960000.0
sz300887,谱尼测试,2021-02-18,73.91,75.9,73.88,74.95,73.46,728452.0,54590723.0,1215642680.9,5696200000.0
sz300887,谱尼测试,2021-02-19,74.28,76.83,74.0,76.4,74.95,647927.0,49080546.0,1239160784.8,5806400000.0
sz300887,谱尼测试,2021-02-22,76.27,77.77,75.1,75.1,76.4,746511.0,57129518.0,1218075588.2,5707600000.0
sz300887,谱尼测试,2021-02-23,75.0,75.0,72.98,73.34,75.1,678000.0,50046880.0,1189529475.88,5573840000.0
sz300887,谱尼测试,2021-02-24,73.35,74.33,72.64,73.04,73.34,433824.0,31878544.0,1184663661.28,5551040000.0
sz300887,谱尼测试,2021-02-25,73.8,74.14,71.8,73.17,73.04,517230.0,37635928.0,1186772180.94,5560920000.0
sz300887,谱尼测试,2021-02-26,72.49,72.88,71.78,72.19,73.17,401855.0,29031170.0,1170877186.58,5486440000.0
sz300887,谱尼测试,2021-03-01,72.72,75.76,72.72,75.48,72.19,747048.0,55881465.0,1224238953.36,5736480000.0
sz300887,谱尼测试,2021-03-02,75.78,78.39,74.5,78.21,75.48,1175322.0,90076652.0,1268517866.22,5943960000.0
sz300887,谱尼测试,2021-03-03,78.0,83.85,76.1,82.2,78.21,1703343.0,134936646.0,1333233200.4,6247200000.0
sz300887,谱尼测试,2021-03-04,80.01,82.87,79.05,79.45,82.2,1519726.0,122860079.0,1288629899.9,6038200000.0
sz300887,谱尼测试,2021-03-05,80.33,81.8,77.98,78.17,79.45,1115884.0,88760443.0,1267869090.94,5940920000.0
sz300887,谱尼测试,2021-03-08,77.37,85.58,77.3,81.26,78.17,1881697.0,154041625.0,1317986981.32,6175760000.0
sz300887,谱尼测试,2021-03-09,80.21,80.68,75.15,75.33,81.26,1347713.0,104697034.0,1221806046.06,5725080000.0
sz300887,谱尼测试,2021-03-10,76.18,83.98,73.9,79.23,75.33,1925941.0,153236266.0,1285061635.86,6021480000.0
sz300887,谱尼测试,2021-03-11,79.5,82.54,78.49,79.36,79.23,1768249.0,141726591.0,1287170155.52,6031360000.0
sz300887,谱尼测试,2021-03-12,80.2,83.66,77.63,80.89,79.36,2273391.0,184888771.0,1311985809.98,6147640000.0
sz300887,谱尼测试,2021-03-15,80.74,80.74,76.38,77.02,80.89,1903160.0,148388495.0,1249216801.64,5853520000.0
sz300887,谱尼测试,2021-03-16,76.07,83.8,76.0,82.97,77.02,2975551.0,239020735.0,1419147172.77,6305720000.0
sz300887,谱尼测试,2021-03-17,81.99,89.36,81.3,87.44,82.97,3822062.0,327142643.0,1495603577.04,6645440000.0
sz300887,谱尼测试,2021-03-18,89.0,93.83,87.2,92.85,87.44,4429617.0,401320146.0,1588138061.85,7056600000.0
sz300887,谱尼测试,2021-03-19,90.89,95.9,88.8,88.8,92.85,5125854.0,471998258.0,1518865480.8000002,6748800000.0
sz300887,谱尼测试,2021-03-22,89.01,95.2,89.01,93.25,88.8,4272939.0,393545611.0,1594979798.2499998,7087000000.0
sz300887,谱尼测试,2021-03-23,93.23,99.69,90.68,93.5,93.25,5267693.0,499449934.0,1599255883.5,7106000000.0
sz300887,谱尼测试,2021-03-24,92.62,99.2,92.11,93.5,93.5,3727805.0,356097388.0,1599255883.5,7106000000.0
sz300887,谱尼测试,2021-03-25,92.0,93.37,88.01,91.15,93.5,2544554.0,231650281.0,1559060682.15,6927400000.0
sz300887,谱尼测试,2021-03-26,91.68,94.78,90.5,92.87,91.15,1956538.0,182014189.0,1588480148.6699998,7058120000.0
sz300887,谱尼测试,2021-03-29,92.44,93.34,90.68,90.82,92.87,2015017.0,184694768.0,1553416249.62,6902320000.0
sz300887,谱尼测试,2021-03-30,89.7,91.28,87.31,89.93,90.82,1995745.0,178463069.0,1538193386.13,6834680000.0
sz300887,谱尼测试,2021-03-31,89.7,91.2,88.32,89.46,89.93,1629817.0,146364139.0,1530154345.86,6798960000.0
sz300887,谱尼测试,2021-04-01,89.86,89.88,87.1,88.2,89.46,1542106.0,136214540.0,1508602876.1999998,6703200000.0
sz300887,谱尼测试,2021-04-02,88.7,89.21,87.59,88.35,88.2,1337756.0,118266565.0,1511168527.35,6714600000.0
sz300887,谱尼测试,2021-04-06,88.02,90.51,88.01,89.89,88.35,1588752.0,142145245.0,1537509212.49,6831640000.0
sz300887,谱尼测试,2021-04-07,89.8,94.41,87.89,94.02,89.89,2453734.0,224387923.0,1608150140.8200002,7145520000.0
sz300887,谱尼测试,2021-04-08,93.69,93.97,90.88,90.91,94.02,1509354.0,139126821.0,1554955640.31,6909160000.0
sz300887,谱尼测试,2021-04-09,91.26,93.68,90.54,91.25,90.91,1338564.0,123696626.0,1560771116.25,6935000000.0
sz300887,谱尼测试,2021-04-12,92.15,93.77,86.21,87.03,91.25,1636324.0,146544351.0,1488590797.23,6614280000.0
sz300887,谱尼测试,2021-04-13,86.23,90.88,86.23,90.69,87.03,1636484.0,146188179.0,1551192685.29,6892440000.0
sz300887,谱尼测试,2021-04-14,90.62,93.17,88.99,91.79,90.69,1297669.0,119039618.0,1570007460.39,6976040000.0
sz300887,谱尼测试,2021-04-15,91.7,93.78,90.52,93.19,91.79,1310324.0,121355042.0,1593953537.79,7082440000.0
sz300887,谱尼测试,2021-04-16,94.0,94.87,90.47,91.6,93.19,1471490.0,135537335.0,1566757635.6,6961600000.0
sz300887,谱尼测试,2021-04-19,91.26,95.55,91.26,94.76,91.6,1538424.0,143844825.0,1620807353.16,7201760000.0
sz300887,谱尼测试,2021-04-20,93.8,97.11,93.55,93.95,94.76,1638630.0,155798774.0,1606952836.9499998,7140200000.0
sz300887,谱尼测试,2021-04-21,94.52,96.8,92.22,94.8,93.95,1497159.0,142246431.0,1621491526.8,7204800000.0
sz300887,谱尼测试,2021-04-22,53.0,59.71,52.56,58.79,52.39,6045455.0,339770477.0,1810015585.06,8042472000.0
sz300887,谱尼测试,2021-04-23,57.5,58.85,55.08,58.52,58.79,5887441.0,334512183.0,1801702875.28,8005536000.0
sz300887,谱尼测试,2021-04-26,58.02,62.72,56.01,61.6,58.52,5618089.0,334742770.0,1896529342.4,8426880000.0
sz300887,谱尼测试,2021-04-27,57.0,57.0,50.5,51.17,61.6,6796986.0,361919986.0,1575412442.38,7000056000.0
sz300887,谱尼测试,2021-04-28,50.5,58.88,50.5,56.22,51.17,5868777.0,321944650.0,1730890903.0800002,7690896000.0
sz300887,谱尼测试,2021-04-29,56.04,56.47,53.0,53.16,56.22,3917064.0,212630726.0,1636680192.2399998,7272288000.0
sz300887,谱尼测试,2021-04-30,53.28,54.78,51.68,53.55,53.16,3042569.0,161561206.0,1648687439.7,7325640000.0
sz300887,谱尼测试,2021-05-06,53.98,56.9,53.71,55.85,53.55,3158796.0,176316156.0,1719499411.9,7640280000.0
sz300887,谱尼测试,2021-05-07,55.5,56.6,54.73,55.13,55.85,2701815.0,150247959.0,1697332185.82,7541784000.0
sz300887,谱尼测试,2021-05-10,55.5,57.5,53.39,53.65,55.13,2468609.0,136994827.0,1651766221.1,7339320000.0
sz300887,谱尼测试,2021-05-11,52.94,54.7,52.51,53.91,53.65,1881676.0,100857720.0,1659771052.74,7374888000.0
sz300887,谱尼测试,2021-05-12,53.69,55.5,52.26,54.3,53.91,2097345.0,112835015.0,1671778300.2,7428240000.0
sz300887,谱尼测试,2021-05-13,53.93,56.56,52.8,56.56,54.3,2962835.0,164128489.0,1741358759.8400002,7737408000.0
sz300887,谱尼测试,2021-05-14,57.0,61.61,56.64,60.63,56.56,4720492.0,282519019.0,1866665162.82,8294184000.0
sz300887,谱尼测试,2021-05-17,59.5,64.5,59.06,61.98,60.63,4115078.0,256908945.0,1908228711.72,8478864000.0
sz300887,谱尼测试,2021-05-18,61.86,62.3,59.86,61.67,61.98,2703027.0,164757674.0,1898684489.38,8436456000.0
sz300887,谱尼测试,2021-05-19,61.01,65.96,60.65,65.01,61.67,3420387.0,219454128.0,2001515788.14,8893368000.0
sz300887,谱尼测试,2021-05-20,65.0,66.7,64.04,64.9,65.01,2864592.0,186819107.0,1998129128.6,8878320000.0
sz300887,谱尼测试,2021-05-21,65.42,65.99,63.65,65.1,64.9,2001200.0,129360870.0,2004286691.4,8905680000.0
sz300887,谱尼测试,2021-05-24,65.2,67.0,62.5,62.8,65.1,3018733.0,193267657.0,1933474719.2,8591040000.0
sz300887,谱尼测试,2021-05-25,63.3,64.0,61.88,62.7,62.8,2147815.0,135105543.0,1930395937.8,8577360000.0
sz300887,谱尼测试,2021-05-26,65.79,69.89,63.52,67.78,62.7,4885956.0,326707990.0,2086798032.92,9272304000.0
sz300887,谱尼测试,2021-05-27,67.89,69.86,65.35,68.26,67.78,3976084.0,270560280.0,2101576183.64,9337968000.0
sz300887,谱尼测试,2021-05-28,67.97,69.49,66.5,67.0,68.26,2162495.0,146242840.0,2062783538.0,9165600000.0
sz300887,谱尼测试,2021-05-31,67.23,72.45,67.23,71.88,67.0,2668573.0,189104880.0,2213028070.32,9833184000.0
sz300887,谱尼测试,2021-06-01,71.98,73.97,71.06,71.8,71.88,2495970.0,180134936.0,2210565045.2,9822240000.0
sz300887,谱尼测试,2021-06-02,71.8,77.23,71.31,74.4,71.8,3149563.0,236894985.0,2290613361.6,10177920000.0
sz300887,谱尼测试,2021-06-03,74.98,79.85,72.45,78.83,74.4,2970532.0,228844712.0,2427003377.62,10783944000.0
sz300887,谱尼测试,2021-06-04,78.49,80.15,76.68,79.67,78.83,2324426.0,182129068.0,2452865141.38,10898856000.0
sz300887,谱尼测试,2021-06-07,78.78,79.62,74.4,76.9,79.67,2504031.0,193564481.0,2367582896.6,10519920000.0
sz300887,谱尼测试,2021-06-08,76.9,76.9,73.85,74.66,76.9,2156649.0,161699207.0,2298618193.24,10213488000.0
sz300887,谱尼测试,2021-06-09,74.66,78.62,74.0,74.8,74.66,1852070.0,141707502.0,2302928487.2000003,10232640000.0
sz300887,谱尼测试,2021-06-10,74.81,75.88,73.4,75.2,74.8,1553023.0,115683056.0,2315243612.8,10287360000.0
sz300887,谱尼测试,2021-06-11,74.96,79.09,74.96,76.69,75.2,2134397.0,165290734.0,2361117455.66,10491192000.0
sz300887,谱尼测试,2021-06-15,77.0,78.0,73.1,73.5,76.69,1878104.0,140331863.0,2262904329.0,10054800000.0
sz300887,谱尼测试,2021-06-16,73.71,74.28,71.6,73.0,73.5,1372554.0,99886280.0,2247510422.0,9986400000.0
sz300887,谱尼测试,2021-06-17,74.22,87.6,74.02,87.6,73.0,3999730.0,332263155.0,2697012506.4,11983680000.0
sz300887,谱尼测试,2021-06-18,88.7,91.67,86.68,89.38,87.6,3515196.0,314548735.0,2751814815.32,12227184000.0
sz300887,谱尼测试,2021-06-21,91.5,92.6,89.1,90.81,89.38,2236604.0,203803274.0,2795841389.34,12422808000.0
sz300887,谱尼测试,2021-06-22,91.47,92.0,87.2,89.47,90.81,1882532.0,169244093.0,2754585718.58,12239496000.0
sz300887,谱尼测试,2021-06-23,90.0,94.4,88.6,88.9,89.47,1645449.0,149678639.0,2737036664.6,12161520000.0
sz300887,谱尼测试,2021-06-24,90.09,90.11,85.02,85.98,88.9,1751691.0,151555652.0,2647136247.7200003,11762064000.0
sz300887,谱尼测试,2021-06-25,85.96,88.55,85.0,87.8,85.98,1392782.0,121562620.0,2703170069.2000003,12011040000.0
sz300887,谱尼测试,2021-06-28,87.7,94.6,85.28,93.04,87.8,2028058.0,184459886.0,2864498214.56,12727872000.0
sz300887,谱尼测试,2021-06-29,92.35,93.58,89.54,90.31,93.04,1459264.0,132630166.0,2780447482.34,12354408000.0
sz300887,谱尼测试,2021-06-30,90.0,91.5,88.1,89.39,90.31,1022265.0,91464672.0,2752122693.46,12228552000.0
sz300887,谱尼测试,2021-07-01,89.42,91.18,87.22,87.8,89.39,985419.0,87239381.0,2703170069.2000003,12011040000.0
sz300887,谱尼测试,2021-07-02,87.79,89.93,86.51,88.45,87.8,1081275.0,95577914.0,2723182148.3,12099960000.0
sz300887,谱尼测试,2021-07-05,88.71,92.95,87.81,89.76,88.45,1314754.0,118856389.0,2763514184.64,12279168000.0
sz300887,谱尼测试,2021-07-06,89.91,97.0,88.0,89.1,89.76,2177148.0,199075910.0,2743194227.4,12188880000.0
sz300887,谱尼测试,2021-07-07,88.23,94.89,87.16,92.41,89.1,2028193.0,187549001.0,2845101891.74,12641688000.0
sz300887,谱尼测试,2021-07-08,93.34,96.2,87.7,89.26,92.41,1883526.0,172240760.0,2748120277.64,12210768000.0
sz300887,谱尼测试,2021-07-09,90.23,90.8,77.22,80.1,89.26,4516405.0,365648943.0,2466103901.4,10957680000.0
sz300887,谱尼测试,2021-07-12,80.1,80.1,75.44,75.88,80.1,4254801.0,328194192.0,2336179326.32,10380384000.0
sz300887,谱尼测试,2021-07-13,76.1,78.54,73.82,78.18,75.88,3446664.0,264502431.0,2406991298.52,10695024000.0
sz300887,谱尼测试,2021-07-14,80.0,85.88,79.0,83.49,78.18,3602262.0,299676266.0,2570474590.86,11421432000.0
sz300887,谱尼测试,2021-07-15,82.0,82.94,79.11,80.65,83.49,2310363.0,186904924.0,2483037199.1000004,11032920000.0
sz300887,谱尼测试,2021-07-16,82.0,82.5,79.07,81.01,80.65,1682211.0,136318442.0,2494120812.14,11082168000.0
sz300887,谱尼测试,2021-07-19,80.82,82.87,77.0,79.91,81.01,1751999.0,139145351.0,2460254216.74,10931688000.0
sz300887,谱尼测试,2021-07-20,79.9,81.88,77.67,78.75,79.91,1117748.0,88263700.0,2424540352.5,10790369887.5
sz300887,谱尼测试,2021-07-21,78.63,80.5,77.0,79.3,78.75,1930284.0,151920533.0,2441473650.2,10865731201.0
sz300887,谱尼测试,2021-07-22,79.04,79.06,75.8,77.6,79.3,1622786.0,125536655.0,2389134366.4,10632796232.0
sz300887,谱尼测试,2021-07-23,77.59,78.32,74.45,77.0,77.6,1470697.0,111766305.0,2370661678.0,10550583890.0
sz300887,谱尼测试,2021-07-26,76.98,76.99,72.52,74.88,77.0,1568446.0,116615880.0,2305391512.32,10260100281.6
sz300887,谱尼测试,2021-07-27,74.8,75.66,72.06,72.5,74.88,1617225.0,118997394.0,2232116515.0,9933991325.0
sz300887,谱尼测试,2021-07-28,71.99,73.96,68.16,72.51,72.5,1287763.0,92269378.0,2232424393.14,9935361530.7
sz300887,谱尼测试,2021-07-29,73.44,75.15,72.8,73.18,72.51,1314773.0,97024992.0,2253052228.52,10027165312.6
sz300887,谱尼测试,2021-07-30,71.31,73.0,69.6,72.39,73.18,1472205.0,104576103.0,2228729855.46,9918919062.3
sz300887,谱尼测试,2021-08-02,72.3,74.83,71.51,74.11,72.39,1329776.0,97360112.0,2281684895.54,10154594442.7
sz300887,谱尼测试,2021-08-03,74.11,88.88,73.76,87.99,74.11,4490376.0,374661260.0,2709019753.86,12056439954.3
sz300887,谱尼测试,2021-08-04,84.0,84.2,80.16,83.4,87.99,3215109.0,265179400.0,2567703687.6,11427515538.000002
sz300887,谱尼测试,2021-08-05,81.99,87.0,78.89,78.94,83.4,2983332.0,243070377.0,2430390037.16,10816403795.8
sz300887,谱尼测试,2021-08-06,78.01,78.56,72.88,73.26,78.94,2891147.0,216058447.0,2255515253.64,10038126958.2
sz300887,谱尼测试,2021-08-09,75.0,75.95,72.17,73.59,73.26,1427318.0,105257393.0,2265675232.26,10083343746.3
sz300887,谱尼测试,2021-08-10,73.56,74.28,72.18,74.14,73.59,1246050.0,91467040.0,2282608529.96,10158705059.8
sz300887,谱尼测试,2021-08-11,73.0,74.0,70.8,72.11,74.14,1519343.0,109343954.0,2220109267.54,9880553302.7
sz300887,谱尼测试,2021-08-12,70.85,72.66,70.8,71.51,72.11,994164.0,71379455.0,2201636579.14,9798340960.7
sz300887,谱尼测试,2021-08-13,71.0,71.88,70.0,70.02,71.51,805852.0,56964297.0,2155762736.28,9594180311.4
sz300887,谱尼测试,2021-08-16,70.5,73.0,69.48,72.09,70.02,1237219.0,89055274.0,2219493511.26,9877812891.3
sz300887,谱尼测试,2021-08-17,71.12,72.36,67.82,67.97,72.09,1316016.0,91330960.0,2092647717.58,9313288142.9
sz300887,谱尼测试,2021-08-18,67.5,68.38,65.05,65.86,67.97,1049849.0,69612196.0,2027685430.04,9024174740.2
sz300887,谱尼测试,2021-08-19,65.37,67.43,65.01,66.44,65.86,718385.0,47850833.0,2045542362.16,9103646670.8
sz300887,谱尼测试,2021-08-20,67.34,70.85,66.7,67.69,66.44,1222635.0,83743042.0,2084027129.66,9274922383.3
sz300887,谱尼测试,2021-08-23,67.09,68.3,65.0,67.89,67.69,1182972.0,78840121.0,2090184692.46,9302326497.3
sz300887,谱尼测试,2021-08-24,67.77,67.9,66.6,67.5,67.89,779244.0,52294030.0,2078177445.0,9248888475.0
sz300887,谱尼测试,2021-08-25,67.0,69.96,66.7,68.91,67.5,1458657.0,100096023.0,2121588262.74,9442087478.7
sz300887,谱尼测试,2021-08-26,68.7,68.7,64.66,65.0,68.91,1405327.0,92180241.0,2001207910.0,8906337050.0
sz300887,谱尼测试,2021-08-27,64.99,65.4,61.72,62.01,65.0,1428293.0,89912987.0,1909152346.14,8496645545.700001
sz300887,谱尼测试,2021-08-30,63.18,65.5,62.5,65.39,62.01,1674404.0,108572429.0,2011515017.46,8959775072.3
sz300887,谱尼测试,2021-08-31,65.38,66.0,63.7,63.99,65.39,870455.0,56190449.0,1968448477.86,8767946274.3
sz300887,谱尼测试,2021-09-01,64.25,64.7,61.76,62.99,63.99,1070388.0,67031281.0,1937686663.86,8630925704.3
sz300887,谱尼测试,2021-09-02,62.78,64.3,61.61,61.94,62.99,840393.0,52378763.0,1905386759.16,8487054105.8
sz300887,谱尼测试,2021-09-03,62.3,63.98,61.8,62.85,61.94,809477.0,51056298.0,1933380009.9,8611742824.5
sz300887,谱尼测试,2021-09-06,62.56,64.99,61.88,64.85,62.85,821435.0,52397368.0,1994903637.9,8885783964.5
sz300887,谱尼测试,2021-09-07,65.21,69.29,63.65,68.5,64.85,1635909.0,109592013.0,2107184259.0,9385909045.0
sz300887,谱尼测试,2021-09-08,68.0,69.8,67.11,69.5,68.5,1452412.0,100144529.0,2137946073.0,9522929615.0
sz300887,谱尼测试,2021-09-09,68.68,72.47,68.68,70.23,69.5,1629561.0,115734613.0,2160402197.2200003,9622954631.1
sz300887,谱尼测试,2021-09-10,72.62,74.99,71.09,71.81,70.23,1560446.0,114055632.0,2209005863.34,9839447131.7
sz300887,谱尼测试,2021-09-13,70.34,73.28,70.34,71.59,71.81,1021193.0,73285709.0,2202238264.26,9809302606.3
sz300887,谱尼测试,2021-09-14,72.62,74.63,69.82,69.91,71.59,1033413.0,74546518.0,2150558416.74,9579108048.7
sz300887,谱尼测试,2021-09-15,70.21,71.48,68.24,69.28,69.91,816759.0,56668955.0,2131178473.92,9492785089.6
sz300887,谱尼测试,2021-09-16,68.01,68.97,66.33,66.96,69.28,772978.0,51972327.0,2060246305.44,9174897367.2
sz300887,谱尼测试,2021-09-17,66.87,69.0,65.7,68.12,66.96,740550.0,49619169.0,2328375660.0,9333841228.4
sz300887,谱尼测试,2021-09-22,67.99,70.98,66.74,70.11,68.12,847164.0,58984917.0,2396394855.0,9606512162.7
sz300887,谱尼测试,2021-09-23,70.5,70.5,67.11,68.08,70.11,978959.0,66906019.0,2327008440.0,9328360405.6
sz300887,谱尼测试,2021-09-24,68.26,72.2,66.82,70.4,68.08,1589754.0,111472053.0,2406307200.0,9646248128.0
sz300887,谱尼测试,2021-09-27,70.7,70.7,65.85,66.88,70.4,1107075.0,74857088.0,2285991840.0,9163935721.6
sz300887,谱尼测试,2021-09-28,66.0,66.0,57.62,59.91,66.88,1972812.0,119208016.0,2047753755.0,8208902348.700001
sz300887,谱尼测试,2021-09-29,60.88,62.6,58.9,59.01,59.91,1141502.0,69345145.0,2016991305.0,8085583835.7
sz300887,谱尼测试,2021-09-30,59.22,64.33,59.22,63.82,59.01,1307378.0,82058597.0,2181399510.0,8744652777.4
sz300887,谱尼测试,2021-10-08,64.33,66.29,62.88,63.4,63.82,829997.0,53398275.0,2167043700.0,8687104138.0
sz300887,谱尼测试,2021-10-11,68.5,72.88,67.7,68.26,63.4,2460110.0,171957055.0,2333160930.0,9353024108.2
sz300887,谱尼测试,2021-10-12,69.65,71.8,65.55,67.2,68.26,1600192.0,108934039.0,2296929600.0,9207782304.0
sz300887,谱尼测试,2021-10-13,66.26,68.3,65.26,66.42,67.2,996010.0,66618332.0,2270268810.0,9100906259.4
sz300887,谱尼测试,2021-10-14,66.73,66.73,64.5,64.99,66.42,684296.0,44661693.0,2221390695.0,8904966844.300001
sz300887,谱尼测试,2021-10-15,64.01,65.72,63.0,63.48,64.99,886397.0,56608579.0,2169778140.0,8698065783.6
sz300887,谱尼测试,2021-10-18,63.2,64.28,62.5,63.88,63.48,463493.0,29440114.0,2183450340.0,8752874011.6
sz300887,谱尼测试,2021-10-19,63.9,65.7,62.75,65.7,63.88,592047.0,38151621.0,2245658850.0,9002251449.0
sz300887,谱尼测试,2021-10-20,65.01,65.63,64.1,64.86,65.7,555820.0,36003846.0,2216947230.0,8887154170.2
sz300887,谱尼测试,2021-10-21,64.5,65.49,63.5,63.9,64.86,694106.0,44648180.0,2184133950.0,8755614423.0
sz300887,谱尼测试,2021-10-22,63.9,65.68,63.4,65.0,63.9,576780.0,37377516.0,2221732500.0,8906337050.0
sz300887,谱尼测试,2021-10-25,65.23,66.5,63.2,63.52,65.0,779824.0,50053184.0,2171145360.0,8703546606.4
sz300887,谱尼测试,2021-10-26,64.56,64.86,62.89,64.0,63.52,891548.0,56822510.0,2187552000.0,8769316480.0
sz300887,谱尼测试,2021-10-27,64.0,67.68,63.61,66.6,64.0,1545616.0,101474926.0,2276421300.0,9125569962.0
sz300887,谱尼测试,2021-10-28,67.51,70.5,65.39,67.99,66.6,1743727.0,118640205.0,2323932195.0,9316028554.3
sz300887,谱尼测试,2021-10-29,68.17,70.4,66.89,69.64,67.99,1255819.0,86954640.0,2380330020.0,9542112494.8
sz300887,谱尼测试,2021-11-01,69.94,71.1,68.65,69.9,69.64,1098820.0,76997448.0,2389216950.0,9577737843.0
sz300887,谱尼测试,2021-11-02,69.37,73.99,69.37,72.84,69.9,1874659.0,136040879.0,2489707620.0,9980578318.8
sz300887,谱尼测试,2021-11-03,73.16,75.94,69.2,69.48,72.84,2149376.0,154505849.0,2374861140.0,9520189203.6
sz300887,谱尼测试,2021-11-04,70.17,71.12,68.89,70.68,69.48,1286595.0,89955002.0,2415877740.0,9684613887.6
sz300887,谱尼测试,2021-11-05,70.69,71.54,68.96,69.25,70.68,839900.0,58734970.0,2366999625.0,9488674472.5
sz300887,谱尼测试,2021-11-08,69.3,69.69,67.3,68.45,69.25,908132.0,62184868.0,2339655225.0,9379058016.5
sz300887,谱尼测试,2021-11-09,68.46,69.4,67.9,69.16,68.45,900918.0,61984177.0,2363923380.0,9476342621.2
sz300887,谱尼测试,2021-11-10,69.45,69.45,67.34,67.81,69.16,1023691.0,69486335.0,2317779705.0,9291364851.7
sz300887,谱尼测试,2021-11-11,67.83,69.93,67.4,69.22,67.81,927066.0,63779207.0,2365974210.0,9484563855.4
sz300887,谱尼测试,2021-11-12,68.21,69.39,68.0,69.1,69.22,638506.0,43850587.0,2361872550.0,9468121387.0
sz300887,谱尼测试,2021-11-15,69.14,71.34,69.11,69.99,69.1,1271562.0,89530651.0,2392293195.0,9590069694.3
sz300887,谱尼测试,2021-11-16,70.99,70.99,68.01,69.29,69.99,1102820.0,76014252.0,2368366845.0,9494155295.3
sz300887,谱尼测试,2021-11-17,69.24,74.48,69.24,72.63,69.29,2211563.0,160458939.0,2482529715.0,9951803999.1
sz300887,谱尼测试,2021-11-18,72.55,73.2,71.39,72.41,72.63,891943.0,64439837.0,2475010005.0,9921659473.7
sz300887,谱尼测试,2021-11-19,72.3,72.3,65.82,68.88,72.41,2232220.0,152297870.0,2354352840.0,9437976861.6
sz300887,谱尼测试,2021-11-22,68.32,68.7,67.01,68.45,68.88,924202.0,62764113.0,2339655225.0,9379058016.5
sz300887,谱尼测试,2021-11-23,68.14,68.15,66.84,66.84,68.45,897230.0,60271560.0,2284624620.0,9158454898.8
sz300887,谱尼测试,2021-11-24,67.0,67.43,65.9,67.27,66.84,691240.0,46099224.0,2299322235.0,9217373743.9
sz300887,谱尼测试,2021-11-25,67.24,68.5,66.03,67.85,67.27,704760.0,47573335.0,2319146925.0,9296845674.5
sz300887,谱尼测试,2021-11-26,67.8,68.64,66.3,66.48,67.85,644423.0,43271047.0,2272319640.0,9109127493.6
sz300887,谱尼测试,2021-11-29,67.48,71.0,66.66,67.18,66.48,1176154.0,80020921.0,2296245990.0,9205041892.6
sz300887,谱尼测试,2021-11-30,66.63,68.28,65.88,68.09,67.18,1248495.0,83356313.0,2327350245.0,9329730611.300001
sz300887,谱尼测试,2021-12-01,67.95,70.46,67.41,68.67,68.09,1211925.0,83383453.0,2347174935.0,9409202541.9
sz300887,谱尼测试,2021-12-02,68.66,69.4,66.87,66.87,68.67,914340.0,62160820.0,2285650035.0,9162565515.9
sz300887,谱尼测试,2021-12-03,66.38,68.19,66.28,66.86,66.87,552978.0,37079250.0,2285308230.0,9161195310.2
sz300887,谱尼测试,2021-12-06,66.69,66.8,63.0,63.22,66.86,1278795.0,82313867.0,2160891210.0,8662440435.4
sz300887,谱尼测试,2021-12-07,63.56,64.91,63.51,64.17,63.22,693227.0,44487748.0,2193362685.0,8792609976.9
sz300887,谱尼测试,2021-12-08,64.7,64.97,63.96,64.48,64.17,433656.0,27996050.0,2203958640.0,8835086353.6
sz300887,谱尼测试,2021-12-09,64.67,65.47,64.36,65.13,64.48,436527.0,28388038.0,2226175965.0,8924149724.1
sz300887,谱尼测试,2021-12-10,65.39,65.39,64.52,64.88,65.13,382312.0,24808881.0,2217630840.0,8889894581.6
sz300887,谱尼测试,2021-12-13,65.11,67.58,65.11,66.6,64.88,766167.0,51044109.0,2276421300.0,9125569962.0
sz300887,谱尼测试,2021-12-14,66.5,68.85,66.0,68.08,66.6,978467.0,66520458.0,2327008440.0,9328360405.6
sz300887,谱尼测试,2021-12-15,67.5,68.48,66.45,66.45,68.08,688484.0,46169672.0,2271294225.0,9105016876.5
sz300887,谱尼测试,2021-12-16,66.45,67.1,65.66,65.9,66.45,552251.0,36465913.0,2252494950.0,9029655563.0
sz300887,谱尼测试,2021-12-17,65.7,66.14,64.48,64.87,65.9,519155.0,33743454.0,2217289035.0,8888524375.9
sz300887,谱尼测试,2021-12-20,64.87,65.87,63.38,64.02,64.87,519084.0,33222814.0,2188235610.0,8772056891.4
sz300887,谱尼测试,2021-12-21,64.4,64.41,62.81,63.66,64.02,666213.0,42201431.0,2175930630.0,8722729486.2
sz300887,谱尼测试,2021-12-22,63.18,65.38,63.18,65.18,63.66,750840.0,48345633.0,2227884990.0,8931000752.6
sz300887,谱尼测试,2021-12-23,64.84,64.89,63.21,63.33,65.18,593523.0,37831885.0,2164651065.0,8677512698.1
sz300887,谱尼测试,2021-12-24,63.33,66.52,63.01,65.09,63.33,1138319.0,73534155.0,2224808745.0,8918668901.3
sz300887,谱尼测试,2021-12-27,63.8,64.73,62.1,64.73,65.09,864811.0,54840573.0,2212503765.0,8869341496.1
sz300887,谱尼测试,2021-12-28,64.2,64.5,63.09,64.0,64.73,407476.0,25999073.0,2187552000.0,8769316480.0
sz300887,谱尼测试,2021-12-29,64.01,66.4,63.78,65.8,64.0,934682.0,61033841.0,2249076900.0,9015953506.0
sz300887,谱尼测试,2021-12-30,66.1,67.48,65.05,66.13,65.8,831074.0,55170820.0,2260356465.0,9061170294.1
sz300887,谱尼测试,2021-12-31,66.39,68.5,65.53,67.7,66.13,1494639.0,101295150.0,2314019850.0,9276292589.0
sz300887,谱尼测试,2022-01-04,68.43,68.43,64.65,64.98,67.7,1197215.0,78515870.0,2221048890.0,8903596638.6
sz300887,谱尼测试,2022-01-05,64.59,66.36,63.61,65.81,64.98,1149213.0,74852679.0,2249418705.0,9017323711.7
sz300887,谱尼测试,2022-01-06,65.15,68.44,64.64,67.95,65.81,1087102.0,72883783.0,2322564975.0,9310547731.5
sz300887,谱尼测试,2022-01-07,70.65,73.65,68.2,69.22,67.95,2838621.0,201982409.0,2365974210.0,9484563855.4
sz300887,谱尼测试,2022-01-10,70.15,79.78,69.23,77.8,69.22,5948343.0,447166425.0,2659242900.0,10660200345.999998
sz300887,谱尼测试,2022-01-11,76.0,77.68,71.79,74.6,77.8,4450574.0,330925470.0,2549865300.0,10221734522.0
sz300887,谱尼测试,2022-01-12,74.3,75.29,71.78,74.03,74.6,2495511.0,184058153.0,2530382415.0,10143632797.1
sz300887,谱尼测试,2022-01-13,73.84,78.89,70.72,75.5,74.03,4026343.0,296488439.0,2580627750.0,10345053035.0
sz300887,谱尼测试,2022-01-14,73.55,79.39,71.02,79.03,75.5,4461501.0,339273059.0,2701284915.0,10828735647.1
