数据由邢不行整理
股票代码,股票名称,交易日期,开盘价,最高价,最低价,收盘价,前收盘价,成交量,成交额,流通市值,总市值
sz300782,N卓胜微,2019-06-18,42.35,50.82,42.35,50.82,35.29,39796.0,2012694.0,1270500000.0,5082000000.0
sz300782,卓胜微,2019-06-19,55.9,55.9,55.9,55.9,50.82,18272.0,1021404.0,1397500000.0,5590000000.0
sz300782,卓胜微,2019-06-20,61.49,61.49,61.49,61.49,55.9,17991.0,1106266.0,1537250000.0,6149000000.0
sz300782,卓胜微,2019-06-21,67.64,67.64,67.64,67.64,61.49,34593.0,2339870.0,1691000000.0,6764000000.0
sz300782,卓胜微,2019-06-24,74.4,74.4,74.4,74.4,67.64,147502.0,10974148.0,1860000000.0,7440000000.0
sz300782,卓胜微,2019-06-25,81.84,81.84,81.84,81.84,74.4,136930.0,11206351.0,2046000000.0,8184000000.0
sz300782,卓胜微,2019-06-26,90.02,90.02,90.02,90.02,81.84,87662.0,7891333.0,2250500000.0,9002000000.0
sz300782,卓胜微,2019-06-27,99.02,99.02,99.02,99.02,90.02,121686.0,12049347.0,2475500000.0,9902000000.0
sz300782,卓胜微,2019-06-28,108.92,108.92,108.92,108.92,99.02,282635.0,30784604.0,2723000000.0,10892000000.0
sz300782,卓胜微,2019-07-01,119.81,119.81,119.81,119.81,108.92,158228.0,18957296.0,2995250000.0,11981000000.0
sz300782,卓胜微,2019-07-02,131.79,131.79,131.79,131.79,119.81,306093.0,40339996.0,3294750000.0,13179000000.0
sz300782,卓胜微,2019-07-03,144.97,144.97,136.81,144.97,131.79,16198740.0,2315985768.0,3624250000.0,14497000000.0
sz300782,卓胜微,2019-07-04,150.0,159.47,148.2,159.47,144.97,11131589.0,1715228304.0,3986750000.0,15947000000.0
sz300782,卓胜微,2019-07-05,175.42,175.42,175.42,175.42,159.47,762628.0,133780203.0,4385500000.0,17542000000.0
sz300782,卓胜微,2019-07-08,186.98,192.96,176.1,185.19,175.42,10873114.0,2017805818.0,4629750000.0,18519000000.0
sz300782,卓胜微,2019-07-09,188.0,188.1,176.02,180.0,185.19,6372042.0,1157555662.0,4500000000.0,18000000000.0
sz300782,卓胜微,2019-07-10,184.31,190.5,180.7,189.5,180.0,6594697.0,1226946380.0,4737500000.0,18950000000.0
sz300782,卓胜微,2019-07-11,186.0,193.79,183.51,189.0,189.5,5889802.0,1109264141.0,4725000000.0,18900000000.0
sz300782,卓胜微,2019-07-12,184.86,187.5,180.14,184.4,189.0,4407673.0,809670187.0,4610000000.0,18440000000.0
sz300782,卓胜微,2019-07-15,202.84,202.84,198.0,202.84,184.4,3486170.0,706833353.0,5071000000.0,20284000000.0
sz300782,卓胜微,2019-07-16,213.09,223.12,209.0,223.12,202.84,3511858.0,761070184.0,5578000000.0,22312000000.0
sz300782,卓胜微,2019-07-17,227.58,239.0,215.25,217.2,223.12,7305301.0,1655747676.0,5430000000.0,21720000000.0
sz300782,卓胜微,2019-07-18,218.0,221.8,210.11,215.35,217.2,5273356.0,1141398704.0,5383750000.0,21535000000.0
sz300782,卓胜微,2019-07-19,215.35,216.88,205.01,206.05,215.35,5185652.0,1096301156.0,5151250000.0,20605000000.0
sz300782,卓胜微,2019-07-22,211.0,216.58,203.0,208.75,206.05,5532280.0,1162459190.0,5218750000.0,20875000000.0
sz300782,卓胜微,2019-07-23,204.21,228.99,204.11,224.03,208.75,4711614.0,1026972576.0,5600750000.0,22403000000.0
sz300782,卓胜微,2019-07-24,224.03,246.43,224.03,244.3,224.03,5017896.0,1198837771.0,6107500000.0,24430000000.0
sz300782,卓胜微,2019-07-25,242.0,246.0,225.55,231.0,244.3,4504140.0,1060885546.0,5775000000.0,23100000000.0
sz300782,卓胜微,2019-07-26,229.0,233.3,224.6,233.0,231.0,2624917.0,600163813.0,5825000000.0,23300000000.0
sz300782,卓胜微,2019-07-29,231.5,240.2,226.31,231.96,233.0,2863722.0,667760446.0,5799000000.0,23196000000.0
sz300782,卓胜微,2019-07-30,230.0,235.0,225.01,230.95,231.96,2131011.0,489587569.0,5773750000.0,23095000000.0
sz300782,卓胜微,2019-07-31,230.5,244.8,228.0,242.5,230.95,3895526.0,926301991.0,6062500000.0,24250000000.0
sz300782,卓胜微,2019-08-01,239.71,245.94,236.0,242.0,242.5,2315166.0,555305769.0,6050000000.0,24200000000.0
sz300782,卓胜微,2019-08-02,231.0,243.7,230.0,231.2,242.0,2798845.0,661978123.0,5780000000.0,23120000000.0
sz300782,卓胜微,2019-08-05,227.95,236.66,226.62,230.5,231.2,2045640.0,474583680.0,5762500000.0,23050000000.0
sz300782,卓胜微,2019-08-06,225.01,234.86,220.62,231.12,230.5,2036473.0,465289559.0,5778000000.0,23112000000.0
sz300782,卓胜微,2019-08-07,231.29,245.0,226.1,236.03,231.12,2495278.0,590331236.0,5900750000.0,23603000000.0
sz300782,卓胜微,2019-08-08,240.0,259.63,236.17,257.01,236.03,3697922.0,933356021.0,6425250000.0,25701000000.0
sz300782,卓胜微,2019-08-09,251.0,260.83,244.6,253.01,257.01,3111226.0,785200240.0,6325250000.0,25301000000.0
sz300782,卓胜微,2019-08-12,251.99,278.31,250.1,278.31,253.01,2831011.0,765874139.0,6957750000.0,27831000000.0
sz300782,卓胜微,2019-08-13,274.0,287.51,268.0,284.0,278.31,2461933.0,687922434.0,7100000000.0,28400000000.0
sz300782,卓胜微,2019-08-14,284.0,296.23,264.11,267.91,284.0,3595227.0,999241996.0,6697750000.0,26791000000.0
sz300782,卓胜微,2019-08-15,258.08,273.5,256.98,270.8,267.91,2079946.0,553792807.0,6770000000.0,27080000000.0
sz300782,卓胜微,2019-08-16,270.0,294.03,268.32,282.0,270.8,2612934.0,735586531.0,7050000000.0,28200000000.0
sz300782,卓胜微,2019-08-19,283.62,300.88,283.62,291.35,282.0,2336659.0,687231812.0,7283750000.0,29135000000.0
sz300782,卓胜微,2019-08-20,291.0,296.9,285.88,296.9,291.35,1602068.0,465761124.0,7422500000.0,29690000000.0
sz300782,卓胜微,2019-08-21,295.0,317.55,291.0,313.2,296.9,2309767.0,698344337.0,7830000000.0,31320000000.0
sz300782,卓胜微,2019-08-22,312.01,318.2,289.0,295.55,313.2,2668604.0,806395070.0,7388750000.0,29555000000.0
sz300782,卓胜微,2019-08-23,293.01,298.69,287.22,294.77,295.55,1785091.0,522602021.0,7369250000.0,29477000000.0
sz300782,卓胜微,2019-08-26,289.01,295.8,283.7,291.53,294.77,1535209.0,444249943.0,7288250000.0,29153000000.0
sz300782,卓胜微,2019-08-27,295.0,302.47,288.0,295.4,291.53,1643483.0,486626561.0,7385000000.0,29540000000.0
sz300782,卓胜微,2019-08-28,294.0,308.8,292.0,304.67,295.4,1990960.0,602789503.0,7616750000.0,30467000000.0
sz300782,卓胜微,2019-08-29,308.0,323.4,304.7,320.0,304.67,1945482.0,615004886.0,8000000000.0,32000000000.0
sz300782,卓胜微,2019-08-30,309.96,319.5,303.03,304.0,320.0,3117976.0,963538751.0,7600000000.0,30400000000.0
sz300782,卓胜微,2019-09-02,303.02,333.0,302.04,331.0,304.0,2434936.0,778178676.0,8275000000.0,33100000000.0
sz300782,卓胜微,2019-09-03,328.2,338.8,323.91,335.0,331.0,1904207.0,628938924.0,8375000000.0,33500000000.0
sz300782,卓胜微,2019-09-04,334.0,348.88,323.35,330.0,335.0,2043489.0,681982439.0,8250000000.0,33000000000.0
sz300782,卓胜微,2019-09-05,330.0,338.5,324.0,327.4,330.0,1664284.0,547890053.0,8185000000.0,32740000000.0
sz300782,卓胜微,2019-09-06,325.7,327.57,305.2,318.89,327.4,2332571.0,737960689.0,7972250000.0,31889000000.0
sz300782,卓胜微,2019-09-09,319.9,346.08,315.0,345.4,318.89,2612650.0,863996355.0,8635000000.0,34540000000.0
sz300782,卓胜微,2019-09-10,341.17,348.1,332.0,341.9,345.4,1857118.0,630470830.0,8547500000.0,34190000000.0
sz300782,卓胜微,2019-09-11,343.97,348.58,331.0,337.5,341.9,1605134.0,544878638.0,8437500000.0,33750000000.0
sz300782,卓胜微,2019-09-12,338.8,346.46,330.12,338.33,337.5,1228678.0,416025307.0,8458250000.0,33833000000.0
sz300782,卓胜微,2019-09-16,337.0,345.97,332.03,341.0,338.33,1278186.0,434245918.0,8525000000.0,34100000000.0
sz300782,卓胜微,2019-09-17,341.99,345.88,328.11,334.45,341.0,1504355.0,506385151.0,8361250000.0,33445000000.0
sz300782,卓胜微,2019-09-18,335.0,341.0,322.0,336.8,334.45,1781317.0,591258641.0,8420000000.0,33680000000.0
sz300782,卓胜微,2019-09-19,331.17,351.88,330.0,344.8,336.8,1917329.0,657221150.0,8620000000.0,34480000000.0
sz300782,卓胜微,2019-09-20,343.11,359.83,341.99,354.57,344.8,1825719.0,640818457.0,8864250000.0,35457000000.0
sz300782,卓胜微,2019-09-23,353.94,387.83,350.1,385.99,354.57,2124652.0,785100877.0,9649750000.0,38599000000.0
sz300782,卓胜微,2019-09-24,382.05,399.97,380.01,385.06,385.99,1798805.0,699215525.0,9626500000.0,38506000000.0
sz300782,卓胜微,2019-09-25,381.55,388.0,369.01,379.7,385.06,1398726.0,528839711.0,9492500000.0,37970000000.0
sz300782,卓胜微,2019-09-26,378.0,388.45,344.5,347.71,378.7,2792537.0,1014727631.0,8692750000.0,34771000000.0
sz300782,卓胜微,2019-09-27,349.0,382.48,348.0,382.48,347.71,2860225.0,1051761420.0,9562000000.0,38248000000.0
sz300782,卓胜微,2019-09-30,383.0,389.3,362.5,374.95,382.48,1691295.0,633952054.0,9373750000.0,37495000000.0
sz300782,卓胜微,2019-10-08,368.5,381.0,337.46,337.46,374.95,3070333.0,1079373432.0,8436500000.0,33746000000.0
sz300782,卓胜微,2019-10-09,324.05,343.0,313.5,335.48,337.46,2557293.0,836967082.0,8387000000.0,33548000000.0
sz300782,卓胜微,2019-10-10,330.08,357.09,326.02,354.3,335.48,2295966.0,788673009.0,8857500000.0,35430000000.0
sz300782,卓胜微,2019-10-11,355.5,368.49,350.0,364.33,354.3,1945753.0,703748500.0,9108250000.0,36433000000.0
sz300782,卓胜微,2019-10-14,380.0,393.83,377.02,382.5,364.33,2470548.0,949830419.0,9562500000.0,38250000000.0
sz300782,卓胜微,2019-10-15,381.76,395.2,368.56,383.5,382.5,2227320.0,848868632.0,9587500000.0,38350000000.0
sz300782,卓胜微,2019-10-16,382.8,384.51,370.11,373.85,383.5,1433799.0,538761821.0,9346250000.0,37385000000.0
sz300782,卓胜微,2019-10-17,375.0,379.5,370.01,375.72,373.85,929968.0,349260590.0,9393000000.0,37572000000.0
sz300782,卓胜微,2019-10-18,375.84,381.0,371.2,373.9,375.72,1329265.0,500406790.0,9347500000.0,37390000000.0
sz300782,卓胜微,2019-10-21,368.0,369.49,344.0,360.08,373.9,1688853.0,604943695.0,9002000000.0,36008000000.0
sz300782,卓胜微,2019-10-22,362.07,379.0,362.06,376.5,360.08,1664428.0,619868845.0,9412500000.0,37650000000.0
sz300782,卓胜微,2019-10-23,378.0,378.0,358.0,364.78,376.5,1349391.0,497479356.0,9119500000.0,36478000000.0
sz300782,卓胜微,2019-10-24,358.0,365.78,347.65,352.76,364.78,1303499.0,462046767.0,8819000000.0,35276000000.0
sz300782,卓胜微,2019-10-25,354.0,365.0,348.3,360.04,352.76,1225393.0,437417489.0,9001000000.0,36004000000.0
sz300782,卓胜微,2019-10-28,354.0,376.05,353.0,372.7,360.04,1515783.0,559503608.0,9317500000.0,37270000000.0
sz300782,卓胜微,2019-10-29,369.66,373.9,356.0,366.5,372.7,1704369.0,620423299.0,9162500000.0,36650000000.0
sz300782,卓胜微,2019-10-30,362.0,389.53,357.0,377.46,366.5,2149592.0,813201642.0,9436500000.0,37746000000.0
sz300782,卓胜微,2019-10-31,375.66,382.0,372.01,375.72,377.46,1155110.0,435417285.0,9393000000.0,37572000000.0
sz300782,卓胜微,2019-11-01,360.0,372.0,358.0,364.95,375.72,1734663.0,628963905.0,9123750000.0,36495000000.0
sz300782,卓胜微,2019-11-04,362.52,378.2,359.0,374.2,364.95,1860723.0,684790376.0,9355000000.0,37420000000.0
sz300782,卓胜微,2019-11-05,370.0,411.62,369.0,411.62,374.2,2707661.0,1062120131.0,10290500000.0,41162000000.0
sz300782,卓胜微,2019-11-06,411.51,416.77,393.4,398.0,411.62,2162848.0,877220553.0,9950000000.0,39800000000.0
sz300782,卓胜微,2019-11-07,396.97,418.6,391.79,408.53,398.0,1786110.0,722005821.0,10213250000.0,40853000000.0
sz300782,卓胜微,2019-11-08,411.0,418.85,405.7,406.0,408.53,1395754.0,575317218.0,10150000000.0,40600000000.0
sz300782,卓胜微,2019-11-11,402.01,421.0,398.08,415.29,406.0,1450470.0,600140670.0,10382250000.0,41529000000.0
sz300782,卓胜微,2019-11-12,414.06,419.0,403.49,419.0,415.29,1191552.0,490626251.0,10475000000.0,41900000000.0
sz300782,卓胜微,2019-11-13,416.02,455.0,415.98,440.5,419.0,2068993.0,906973163.0,11012500000.0,44050000000.0
sz300782,卓胜微,2019-11-14,443.5,456.7,437.22,446.5,440.5,1418181.0,632044278.0,11162500000.0,44650000000.0
sz300782,卓胜微,2019-11-15,443.8,456.88,440.55,446.07,446.5,1330792.0,597684999.0,11151750000.0,44607000000.0
sz300782,卓胜微,2019-11-18,439.0,449.96,419.28,440.5,446.07,2144408.0,923401773.0,11012500000.0,44050000000.0
sz300782,卓胜微,2019-11-19,435.95,445.0,432.18,442.8,440.5,1410387.0,620618766.0,11070000000.0,44280000000.0
sz300782,卓胜微,2019-11-20,442.8,445.45,433.22,437.0,442.8,1103597.0,484927247.0,10925000000.0,43700000000.0
sz300782,卓胜微,2019-11-21,433.0,438.0,425.0,428.22,437.0,1139476.0,490353764.0,10705500000.0,42822000000.0
sz300782,卓胜微,2019-11-22,431.84,439.5,402.52,407.91,428.22,2078796.0,871359001.0,10197750000.0,40791000000.0
sz300782,卓胜微,2019-11-25,409.02,418.49,398.1,408.5,407.91,1631518.0,666327313.0,10212500000.0,40850000000.0
sz300782,卓胜微,2019-11-26,411.64,417.65,406.0,412.38,408.5,1056881.0,435799071.0,10309500000.0,41238000000.0
sz300782,卓胜微,2019-11-27,408.0,430.68,405.0,427.0,412.38,1498447.0,633097130.0,10675000000.0,42700000000.0
sz300782,卓胜微,2019-11-28,422.0,428.0,418.35,420.44,427.0,834903.0,352675608.0,10511000000.0,42044000000.0
sz300782,卓胜微,2019-11-29,420.0,422.98,404.68,412.09,420.44,1106426.0,455518333.0,10302250000.0,41209000000.0
sz300782,卓胜微,2019-12-02,410.5,420.2,406.01,413.61,412.09,917660.0,380252537.0,10340250000.0,41361000000.0
sz300782,卓胜微,2019-12-03,409.95,435.01,405.2,432.19,413.61,1559457.0,656821567.0,10804750000.0,43219000000.0
sz300782,卓胜微,2019-12-04,429.0,439.88,424.48,429.15,432.19,1260612.0,541580542.0,10728750000.0,42915000000.0
sz300782,卓胜微,2019-12-05,427.81,442.25,427.8,432.0,429.15,1433216.0,624430047.0,10800000000.0,43200000000.0
sz300782,卓胜微,2019-12-06,431.31,433.7,421.22,425.45,432.0,1286495.0,547589446.0,10636250000.0,42545000000.0
sz300782,卓胜微,2019-12-09,427.0,436.66,425.0,428.19,425.45,1125967.0,485932003.0,10704750000.0,42819000000.0
sz300782,卓胜微,2019-12-10,425.0,435.65,416.9,433.99,428.19,1394999.0,596087623.0,10849750000.0,43399000000.0
sz300782,卓胜微,2019-12-11,432.93,449.79,430.06,435.0,433.99,1494381.0,658559387.0,10875000000.0,43500000000.0
sz300782,卓胜微,2019-12-12,440.0,446.0,436.0,439.55,435.0,1303427.0,574716599.0,10988750000.0,43955000000.0
sz300782,卓胜微,2019-12-13,441.0,449.2,435.0,449.2,439.55,1492851.0,658715786.0,11230000000.0,44920000000.0
sz300782,卓胜微,2019-12-16,449.94,475.88,449.2,473.56,449.2,1701996.0,791201194.0,11839000000.0,47356000000.0
sz300782,卓胜微,2019-12-17,468.12,478.88,468.12,473.1,473.56,999968.0,472912895.0,11827500000.0,47310000000.0
sz300782,卓胜微,2019-12-18,470.01,472.34,460.0,465.02,473.1,990105.0,459570928.0,11625500000.0,46502000000.0
sz300782,卓胜微,2019-12-19,465.02,465.02,422.0,431.96,465.02,2279104.0,998321317.0,10799000000.0,43196000000.0
sz300782,卓胜微,2019-12-20,431.89,440.0,424.11,431.15,431.96,1250272.0,540864345.0,10778750000.0,43115000000.0
sz300782,卓胜微,2019-12-23,410.0,426.88,407.37,419.03,431.15,1496836.0,626549151.0,10475750000.0,41903000000.0
sz300782,卓胜微,2019-12-24,421.17,425.5,414.8,424.03,419.03,933904.0,393130301.0,10600750000.0,42403000000.0
sz300782,卓胜微,2019-12-25,420.5,437.86,420.5,426.5,424.03,1703672.0,730720261.0,10662500000.0,42650000000.0
sz300782,卓胜微,2019-12-26,424.0,429.5,408.0,421.47,426.5,1416493.0,590509446.0,10536750000.0,42147000000.0
sz300782,卓胜微,2019-12-27,418.0,421.0,411.14,415.8,421.47,1020752.0,425110339.0,10395000000.0,41580000000.0
sz300782,卓胜微,2019-12-30,414.0,425.0,408.2,418.52,415.8,1174353.0,490421295.0,10463000000.0,41852000000.0
sz300782,卓胜微,2019-12-31,417.94,421.0,402.1,410.37,418.52,1498584.0,615367994.0,10259250000.0,41037000000.0
sz300782,卓胜微,2020-01-02,412.9,419.0,404.01,409.66,410.37,1660683.0,682965037.0,10241500000.0,40966000000.0
sz300782,卓胜微,2020-01-03,409.57,409.57,368.69,395.2,409.66,3611860.0,1386377887.0,9880000000.0,39520000000.0
sz300782,卓胜微,2020-01-06,380.5,395.5,378.13,387.0,395.2,1844767.0,717876435.0,9675000000.0,38700000000.0
sz300782,卓胜微,2020-01-07,387.0,388.9,375.0,377.99,387.0,1670131.0,636629534.0,9449750000.0,37799000000.0
sz300782,卓胜微,2020-01-08,378.0,412.0,375.0,408.8,377.99,2826048.0,1112892140.0,10220000000.0,40880000000.0
sz300782,卓胜微,2020-01-09,403.26,414.9,400.0,412.6,408.8,1672696.0,684810219.0,10315000000.0,41260000000.0
sz300782,卓胜微,2020-01-10,412.76,438.68,412.76,426.4,412.6,2245707.0,959225758.0,10660000000.0,42640000000.0
sz300782,卓胜微,2020-01-13,426.1,452.41,426.1,450.0,426.4,2027673.0,896221078.0,11250000000.0,45000000000.0
sz300782,卓胜微,2020-01-14,463.0,466.0,426.0,432.93,450.0,2109930.0,931225008.0,10823250000.0,43293000000.0
sz300782,卓胜微,2020-01-15,431.0,436.0,421.0,433.73,432.93,1327823.0,570602041.0,10843250000.0,43373000000.0
sz300782,卓胜微,2020-01-16,431.0,431.9,419.99,425.3,433.73,1469947.0,624939187.0,10632500000.0,42530000000.0
sz300782,卓胜微,2020-01-17,426.23,432.0,423.0,426.89,425.3,1044733.0,447700784.0,10672250000.0,42689000000.0
sz300782,卓胜微,2020-01-20,427.0,450.8,423.7,450.8,426.89,1749009.0,774586423.0,11270000000.0,45080000000.0
sz300782,卓胜微,2020-01-21,444.0,455.05,438.6,454.8,450.8,1366631.0,611059699.0,11370000000.0,45480000000.0
sz300782,卓胜微,2020-01-22,450.06,490.0,435.1,477.64,454.8,2016882.0,935041568.0,11941000000.0,47764000000.0
sz300782,卓胜微,2020-01-23,470.99,495.0,451.8,469.0,477.64,1643180.0,777213015.0,11725000000.0,46900000000.0
sz300782,卓胜微,2020-02-03,422.1,422.1,422.1,422.1,469.0,317800.0,134143380.0,10552500000.0,42210000000.0
sz300782,卓胜微,2020-02-04,410.0,441.9,410.0,427.0,422.1,2029986.0,869100180.0,10675000000.0,42700000000.0
sz300782,卓胜微,2020-02-05,432.26,432.26,398.0,401.8,427.0,3142973.0,1298136340.0,10045000000.0,40180000000.0
sz300782,卓胜微,2020-02-06,394.0,426.0,391.0,421.9,401.8,2303591.0,953465861.0,10547500000.0,42190000000.0
sz300782,卓胜微,2020-02-07,417.0,429.99,415.55,428.0,421.9,1471405.0,622947268.0,10700000000.0,42800000000.0
sz300782,卓胜微,2020-02-10,424.0,426.0,406.95,411.8,428.0,2031556.0,838252834.0,10295000000.0,41180000000.0
sz300782,卓胜微,2020-02-11,410.0,426.77,408.0,420.2,411.8,1420289.0,592939603.0,10505000000.0,42020000000.0
sz300782,卓胜微,2020-02-12,416.5,428.96,416.0,419.0,420.2,1301716.0,548183997.0,10475000000.0,41900000000.0
sz300782,卓胜微,2020-02-13,417.84,460.9,414.61,460.9,419.0,3344432.0,1481555882.0,11522500000.0,46090000000.0
sz300782,卓胜微,2020-02-14,461.0,485.5,453.12,463.01,460.9,2583893.0,1217278774.0,11575250000.0,46301000000.0
sz300782,卓胜微,2020-02-17,471.99,485.64,465.13,477.99,463.01,1957833.0,931418514.0,11949750000.0,47799000000.0
sz300782,卓胜微,2020-02-18,478.8,525.79,476.0,525.0,477.99,1841732.0,926235824.0,13125000000.0,52500000000.0
sz300782,卓胜微,2020-02-19,511.0,549.0,502.0,520.0,525.0,1746885.0,920402165.0,13000000000.0,52000000000.0
sz300782,卓胜微,2020-02-20,511.2,565.0,511.2,551.09,520.0,1673598.0,905395668.0,13777250000.0,55109000000.0
sz300782,卓胜微,2020-02-21,549.9,606.0,546.68,603.99,551.09,1680866.0,975500178.0,15099750000.0,60399000000.0
sz300782,卓胜微,2020-02-24,587.81,659.4,581.0,650.0,603.99,2068807.0,1262287764.0,16250000000.0,65000000000.0
sz300782,卓胜微,2020-02-25,623.0,686.56,590.01,675.12,650.0,2529922.0,1628029977.0,16878000000.0,67512000000.0
sz300782,卓胜微,2020-02-26,671.9,718.0,618.83,640.0,675.12,3079691.0,2060562168.0,16000000000.0,64000000000.0
sz300782,卓胜微,2020-02-27,650.0,664.0,578.0,586.0,640.0,3406730.0,2080271499.0,14650000000.0,58600000000.0
sz300782,卓胜微,2020-02-28,552.0,619.97,533.2,583.0,586.0,3295779.0,1894080059.0,14575000000.0,58300000000.0
sz300782,卓胜微,2020-03-02,592.0,602.0,556.05,583.55,583.0,2119369.0,1229367691.0,14588750000.0,58355000000.0
sz300782,卓胜微,2020-03-03,590.5,630.0,584.0,593.0,583.55,2210989.0,1334200586.0,14825000000.0,59300000000.0
sz300782,卓胜微,2020-03-04,585.0,592.99,541.0,574.9,593.0,2646825.0,1498248868.0,14372500000.0,57490000000.0
sz300782,卓胜微,2020-03-05,584.9,588.55,551.55,567.0,574.9,1791272.0,1018748974.0,14175000000.0,56700000000.0
sz300782,卓胜微,2020-03-06,554.11,578.0,554.11,563.0,567.0,1374122.0,777082797.0,14075000000.0,56300000000.0
sz300782,卓胜微,2020-03-09,549.0,557.36,510.0,512.74,563.0,1815906.0,965920022.0,12818500000.0,51274000000.0
sz300782,卓胜微,2020-03-10,495.88,546.47,495.88,543.1,512.74,2325212.0,1220659920.0,13577500000.0,54310000000.0
sz300782,卓胜微,2020-03-11,541.99,546.13,515.0,516.43,543.1,1541880.0,815941185.0,12910750000.0,51643000000.0
sz300782,卓胜微,2020-03-12,511.53,523.04,503.13,510.11,516.43,1259244.0,646152052.0,12752750000.0,51011000000.0
sz300782,卓胜微,2020-03-13,492.0,528.88,485.99,520.0,510.11,1897694.0,972683495.0,13000000000.0,52000000000.0
sz300782,卓胜微,2020-03-16,520.01,520.01,471.0,474.21,520.0,1958875.0,970219924.0,11855250000.0,47421000000.0
sz300782,卓胜微,2020-03-17,483.7,495.0,446.07,476.95,474.21,1826446.0,858756140.0,11923750000.0,47695000000.0
sz300782,卓胜微,2020-03-18,477.0,499.5,473.38,479.79,476.95,1694592.0,824825642.0,11994750000.0,47979000000.0
sz300782,卓胜微,2020-03-19,478.0,496.0,470.78,491.01,479.79,1584689.0,763921815.0,12275250000.0,49101000000.0
sz300782,卓胜微,2020-03-20,497.0,498.86,472.99,478.0,491.01,1317013.0,636259643.0,11950000000.0,47800000000.0
sz300782,卓胜微,2020-03-23,456.0,465.0,432.58,436.2,478.0,1939131.0,866337805.0,10905000000.0,43620000000.0
sz300782,卓胜微,2020-03-24,446.0,452.0,420.97,444.0,436.2,1508045.0,665315783.0,11100000000.0,44400000000.0
sz300782,卓胜微,2020-03-25,462.0,462.8,446.56,454.55,444.0,1389420.0,633412199.0,11363750000.0,45455000000.0
sz300782,卓胜微,2020-03-26,452.97,475.77,444.97,461.5,454.55,1359209.0,627497684.0,11537500000.0,46150000000.0
sz300782,卓胜微,2020-03-27,469.66,474.0,448.0,448.02,461.5,1114714.0,510533238.0,11200500000.0,44802000000.0
sz300782,卓胜微,2020-03-30,431.13,435.89,411.7,424.1,448.02,1640949.0,694565448.0,10602500000.0,42410000000.0
sz300782,卓胜微,2020-03-31,432.99,435.6,420.88,426.0,424.1,1101689.0,471446097.0,10650000000.0,42600000000.0
sz300782,卓胜微,2020-04-01,425.41,446.79,423.5,433.8,426.0,1354674.0,591480932.0,10845000000.0,43380000000.0
sz300782,卓胜微,2020-04-02,432.72,477.18,431.1,477.18,433.8,2303779.0,1064368978.0,11929500000.0,47718000000.0
sz300782,卓胜微,2020-04-03,486.0,522.67,481.11,512.95,477.18,2979146.0,1501365428.0,12823750000.0,51295000000.0
sz300782,卓胜微,2020-04-07,516.01,537.0,513.18,522.0,512.95,1905953.0,997403086.0,13050000000.0,52200000000.0
sz300782,卓胜微,2020-04-08,537.8,565.0,517.17,527.0,522.0,2734065.0,1464077435.0,13175000000.0,52700000000.0
sz300782,卓胜微,2020-04-09,524.9,530.27,510.0,523.2,527.0,1627467.0,844548498.0,13080000000.0,52320000000.0
sz300782,卓胜微,2020-04-10,520.0,522.98,483.39,487.2,523.2,2088321.0,1042475408.0,12180000000.0,48720000000.0
sz300782,卓胜微,2020-04-13,480.01,487.2,457.0,459.53,487.2,2011166.0,943547734.0,11488250000.0,45953000000.0
sz300782,卓胜微,2020-04-14,466.78,476.58,460.89,474.1,459.53,1522687.0,715171084.0,11852500000.0,47410000000.0
sz300782,卓胜微,2020-04-15,477.0,513.5,471.0,497.79,474.1,2465859.0,1218039088.0,12444750000.0,49779000000.0
sz300782,卓胜微,2020-04-16,484.31,533.65,483.33,528.0,497.79,2562992.0,1314058777.0,13200000000.0,52800000000.0
sz300782,卓胜微,2020-04-17,540.0,558.0,521.02,526.0,528.0,2817212.0,1524394331.0,13150000000.0,52600000000.0
sz300782,卓胜微,2020-04-20,526.0,538.0,515.88,528.81,526.0,1657333.0,870267701.0,13220250000.0,52881000000.0
sz300782,卓胜微,2020-04-21,521.32,536.18,515.02,535.7,528.81,1588686.0,838401271.0,13392500000.0,53570000000.0
sz300782,卓胜微,2020-04-22,526.88,536.7,522.63,532.01,535.7,1221546.0,647716997.0,13300250000.0,53201000000.0
sz300782,卓胜微,2020-04-23,531.0,535.0,517.53,517.7,532.01,1383416.0,727625329.0,12942500000.0,51770000000.0
sz300782,卓胜微,2020-04-24,518.0,526.2,506.0,513.47,517.7,1099938.0,567054856.0,12836750000.0,51347000000.0
sz300782,卓胜微,2020-04-27,515.9,522.24,503.11,519.81,513.47,1098740.0,563081343.0,12995250000.0,51981000000.0
sz300782,卓胜微,2020-04-28,529.0,571.79,525.0,571.79,519.81,3371776.0,1864240014.0,14294750000.0,57179000000.0
sz300782,卓胜微,2020-04-29,570.0,585.8,559.88,581.05,571.79,2470851.0,1420238937.0,14526250000.0,58105000000.0
sz300782,卓胜微,2020-04-30,589.71,639.16,582.06,637.61,581.05,2655502.0,1654528912.0,15940250000.0,63761000000.0
sz300782,卓胜微,2020-05-06,632.74,665.0,629.99,655.0,637.61,2330521.0,1505236536.0,16375000000.0,65500000000.0
sz300782,卓胜微,2020-05-07,652.0,654.0,620.0,635.77,655.0,2174886.0,1382898148.0,15894250000.0,63577000000.0
sz300782,卓胜微,2020-05-08,642.0,665.5,640.01,647.5,635.77,1701206.0,1110429325.0,16187500000.0,64750000000.0
sz300782,卓胜微,2020-05-11,648.02,668.0,634.78,650.58,647.5,1478828.0,960829663.0,16264500000.0,65058000000.0
sz300782,卓胜微,2020-05-12,650.0,663.8,628.66,652.35,650.58,1545247.0,996191784.0,16308750000.0,65235000000.0
sz300782,卓胜微,2020-05-13,656.0,667.88,641.05,661.0,652.35,1504154.0,988254703.0,16525000000.0,66100000000.0
sz300782,卓胜微,2020-05-14,659.0,668.0,644.89,644.89,661.0,1666872.0,1089144003.0,16122250000.0,64489000000.0
sz300782,卓胜微,2020-05-15,649.0,706.0,642.04,689.25,644.89,2494368.0,1685030335.0,17231250000.0,68925000000.0
sz300782,卓胜微,2020-05-18,692.43,696.0,620.33,620.33,689.25,3606954.0,2338900121.0,15508250000.0,62033000000.0
sz300782,卓胜微,2020-05-19,620.0,651.69,606.84,649.4,620.33,2682294.0,1704773378.0,16235000000.0,64940000000.0
sz300782,卓胜微,2020-05-20,654.98,654.98,585.21,599.99,649.4,3345907.0,2049258394.0,14999750000.0,59999000000.0
sz300782,卓胜微,2020-05-21,593.05,607.02,572.9,583.8,599.99,2179907.0,1283975813.0,14595000000.0,58380000000.0
sz300782,卓胜微,2020-05-22,577.14,585.77,550.0,561.37,583.8,2119822.0,1201734297.0,14034250000.0,56137000000.0
sz300782,卓胜微,2020-05-25,556.99,561.0,542.0,555.88,561.37,1288000.0,711135543.0,13897000000.0,55588000000.0
sz300782,卓胜微,2020-05-26,558.01,587.99,558.01,586.21,555.88,2031583.0,1169107103.0,14655250000.0,58621000000.0
sz300782,卓胜微,2020-05-27,580.0,580.88,550.0,553.78,586.21,1720726.0,968800985.0,13844500000.0,55378000000.0
sz300782,卓胜微,2020-05-28,545.01,567.66,538.0,566.0,553.78,1576326.0,875454270.0,14150000000.0,56600000000.0
sz300782,卓胜微,2020-05-29,560.0,563.81,545.0,548.62,566.0,1219378.0,673269802.0,13715500000.0,54862000000.0
sz300782,卓胜微,2020-06-01,560.0,579.99,553.34,572.93,548.62,2225202.0,1265779789.0,14323250000.0,57293000000.0
sz300782,卓胜微,2020-06-02,573.09,575.92,555.0,570.52,572.93,1777709.0,1005297292.0,14263000000.0,57052000000.0
sz300782,卓胜微,2020-06-03,570.99,575.0,556.59,561.01,570.52,1753094.0,989639606.0,14025250000.0,56101000000.0
sz300782,卓胜微,2020-06-04,558.0,558.79,550.0,552.57,561.01,952760.0,527537891.0,13814250000.0,55257000000.0
sz300782,卓胜微,2020-06-05,555.26,578.0,555.26,570.57,552.57,1663968.0,951008712.0,14264250000.0,57057000000.0
sz300782,卓胜微,2020-06-08,575.0,589.0,571.0,580.18,570.57,1577346.0,915620937.0,14504500000.0,58018000000.0
sz300782,卓胜微,2020-06-09,580.2,619.6,568.51,615.25,580.18,2102505.0,1261553342.0,15381250000.0,61525000000.0
sz300782,卓胜微,2020-06-10,609.1,619.79,597.52,618.33,615.25,1663757.0,1015707951.0,15458250000.0,61833000000.0
sz300782,卓胜微,2020-06-11,612.0,619.78,601.55,604.3,618.33,1456837.0,888287129.0,15107500000.0,60430000000.0
sz300782,卓胜微,2020-06-12,586.01,630.0,583.13,628.5,604.3,2135771.0,1312953175.0,15712500000.0,62850000000.0
sz300782,卓胜微,2020-06-15,619.0,621.99,606.6,608.08,628.5,1636571.0,1004248371.0,15202000000.0,60808000000.0
sz300782,卓胜微,2020-06-16,613.45,619.66,562.0,584.98,608.08,2426087.0,1427891191.0,14624500000.0,58498000000.0
sz300782,卓胜微,2020-06-17,578.16,586.67,567.0,576.84,584.98,1230143.0,709720757.0,14421000000.0,57684000000.0
sz300782,卓胜微,2020-06-18,587.1,634.52,585.01,634.52,576.84,2621105.0,1622297292.0,37290802582.96,63452000000.0
sz300782,卓胜微,2020-06-19,636.0,637.9,622.4,624.0,634.52,2330592.0,1465875989.0,36672541152.0,62400000000.0
sz300782,卓胜微,2020-06-22,635.29,648.66,617.57,644.8,624.0,2482558.0,1579704267.0,37894959190.4,64480000000.0
sz300782,卓胜微,2020-06-23,645.0,656.16,632.0,654.0,644.8,2056015.0,1329365564.0,38435644092.0,65400000000.0
sz300782,卓胜微,2020-06-24,655.01,718.4,655.01,712.85,654.0,2964254.0,2060149568.0,41894264359.3,71285000000.0
sz300782,卓胜微,2020-06-29,682.01,687.99,650.0,686.81,712.85,3315609.0,2230240010.0,40363891007.380005,68681000000.0
sz300782,卓胜微,2020-06-30,383.36,415.88,378.0,405.77,381.01,4968720.0,1981999382.0,42924856635.52,73038600000.0
sz300782,卓胜微,2020-07-01,409.0,424.78,401.3,409.77,405.77,4954848.0,2033519144.0,43348001339.52,73758600000.0
sz300782,卓胜微,2020-07-02,409.74,414.5,402.08,405.35,409.77,3109427.0,1263601356.0,42880426441.6,72963000000.0
sz300782,卓胜微,2020-07-03,392.0,403.79,385.0,400.9,405.35,3441577.0,1360484344.0,42409677958.4,72162000000.0
sz300782,卓胜微,2020-07-06,405.0,423.0,393.9,419.04,400.9,5624783.0,2317345289.0,44328639191.03999,75427200000.0
sz300782,卓胜微,2020-07-07,422.0,460.8,421.0,439.0,419.04,5150489.0,2294734209.0,46440131264.00001,79020000000.0
sz300782,卓胜微,2020-07-08,438.8,449.51,430.0,444.18,439.0,3504644.0,1548419165.0,46988103655.68,79952400000.0
sz300782,卓胜微,2020-07-09,439.6,459.99,439.2,445.43,444.18,4344753.0,1949750540.0,47120336375.68,80177400000.0
sz300782,卓胜微,2020-07-10,460.0,488.0,460.0,476.61,445.43,5178859.0,2462245832.0,50418749343.36,85789800000.0
sz300782,卓胜微,2020-07-13,473.01,491.5,469.0,490.05,476.61,4208918.0,2023430566.0,51840515548.8,88209000000.0
sz300782,卓胜微,2020-07-14,493.0,537.0,479.0,521.91,490.05,5174565.0,2566521760.0,55210863116.16,93943800000.0
sz300782,卓胜微,2020-07-15,513.5,535.86,497.22,507.0,521.91,5249566.0,2690912210.0,53633591232.0,91260000000.0
sz300782,卓胜微,2020-07-16,499.97,510.0,456.3,456.3,507.0,5619100.0,2692467123.0,48270232108.8,82134000000.0
sz300782,卓胜微,2020-07-17,455.0,478.03,437.58,465.3,456.3,4217074.0,1949998445.0,49222307692.8,83754000000.0
sz300782,卓胜微,2020-07-20,465.0,472.97,440.21,454.88,465.3,4240622.0,1918029818.0,48120015738.88,81878400000.0
sz300782,卓胜微,2020-07-21,448.0,463.4,443.37,452.0,454.88,3026137.0,1374055906.0,47815351552.0,81360000000.0
sz300782,卓胜微,2020-07-22,447.48,463.0,447.01,450.39,452.0,3344048.0,1517705622.0,47645035808.64,81070200000.0
sz300782,卓胜微,2020-07-23,446.65,452.49,417.89,429.77,450.39,4964046.0,2147749251.0,45463724859.52,77358600000.0
sz300782,卓胜微,2020-07-24,425.0,434.9,401.69,404.5,429.77,4704444.0,1965893639.0,42790508192.0,72810000000.0
sz300782,卓胜微,2020-07-27,417.0,425.0,410.66,420.4,404.5,3648199.0,1531539189.0,44472508390.4,75672000000.0
sz300782,卓胜微,2020-07-28,429.9,433.65,416.3,424.96,420.4,3069726.0,1302047789.0,44954893352.96001,76492800000.0
sz300782,卓胜微,2020-07-29,424.5,439.67,422.0,439.0,424.96,3824129.0,1657344233.0,46440131264.00001,79020000000.0
sz300782,卓胜微,2020-07-30,439.0,441.9,424.6,429.12,439.0,3240615.0,1391768452.0,45394963845.12,77241600000.0
sz300782,卓胜微,2020-07-31,423.32,444.43,423.32,438.8,429.12,3198986.0,1398967249.0,46418974028.8,78984000000.0
sz300782,卓胜微,2020-08-03,448.0,470.58,439.0,468.65,438.8,4513295.0,2052653029.0,49576691382.4,84357000000.0
sz300782,卓胜微,2020-08-04,467.9,473.0,455.01,457.32,468.65,2839963.0,1312926280.0,48378134008.32,82317600000.0
sz300782,卓胜微,2020-08-05,481.0,482.87,458.0,460.69,457.32,3186793.0,1490128855.0,48734633421.44,82924200000.0
sz300782,卓胜微,2020-08-06,457.0,457.0,442.22,444.5,460.69,2885397.0,1289971530.0,47021955232.0,80010000000.0
sz300782,卓胜微,2020-08-07,444.0,448.3,406.0,420.11,444.5,4317168.0,1823998461.0,44441830399.35999,75619800000.0
sz300782,卓胜微,2020-08-10,419.0,423.99,408.37,417.97,420.11,2327460.0,964821850.0,44215447982.71999,75234600000.0
sz300782,卓胜微,2020-08-11,419.89,424.0,409.0,409.2,417.97,1898393.0,792494294.0,43287703219.2,73656000000.0
sz300782,卓胜微,2020-08-12,409.53,418.0,392.0,417.08,409.2,3143483.0,1270789022.0,44121298286.08,75074400000.0
sz300782,卓胜微,2020-08-13,417.0,417.02,406.0,406.86,417.08,2010540.0,823703168.0,43040163567.36,73234800000.0
sz300782,卓胜微,2020-08-14,407.0,414.77,402.6,413.93,406.86,1810201.0,743744853.0,43788071831.67999,74507400000.0
sz300782,卓胜微,2020-08-17,411.15,413.8,402.9,411.1,413.93,2233916.0,913524524.0,43488696953.600006,73998000000.0
sz300782,卓胜微,2020-08-18,408.2,408.2,390.7,398.8,411.1,5198954.0,2059359899.0,42187526988.8,71784000000.0
sz300782,卓胜微,2020-08-19,394.01,394.02,387.82,388.09,398.8,2434179.0,951075297.0,41054557043.84,69856200000.0
sz300782,卓胜微,2020-08-20,392.0,394.44,380.0,380.0,388.09,2053948.0,792239306.0,40198746880.0,68400000000.0
sz300782,卓胜微,2020-08-21,383.01,386.81,371.64,373.46,380.0,3320512.0,1251767471.0,39506905288.96,67222800000.0
sz300782,卓胜微,2020-08-24,373.0,395.0,364.85,382.67,373.46,3606909.0,1376412842.0,40481195969.92,68880600000.0
sz300782,卓胜微,2020-08-25,382.01,390.49,378.57,385.73,382.67,2917823.0,1124933472.0,40804901668.48,69431400000.0
sz300782,卓胜微,2020-08-26,384.0,384.0,371.0,373.82,385.73,2186651.0,824647195.0,39544988312.32,67287600000.0
sz300782,卓胜微,2020-08-27,373.5,406.66,373.0,399.53,373.82,4319527.0,1702353189.0,42264750897.28,71915400000.0
sz300782,卓胜微,2020-08-28,401.0,401.99,385.02,392.51,399.53,3052143.0,1190234180.0,41522131941.76,70651800000.0
sz300782,卓胜微,2020-08-31,395.94,400.5,389.01,393.0,392.51,2744060.0,1079400811.0,41573967168.0,70740000000.0
sz300782,卓胜微,2020-09-01,389.0,390.0,375.0,383.89,393.0,2214314.0,845593905.0,40610255104.64,69100200000.0
sz300782,卓胜微,2020-09-02,384.09,387.4,380.18,381.61,383.89,1346784.0,515960835.0,40369062623.36,68689800000.0
sz300782,卓胜微,2020-09-03,380.12,400.89,375.0,393.59,381.61,3502024.0,1368814223.0,41636381011.84,70846200000.0
sz300782,卓胜微,2020-09-04,391.0,410.2,389.2,405.2,393.59,4348660.0,1758730382.0,42864558515.2,72936000000.0
sz300782,卓胜微,2020-09-07,405.0,405.0,380.0,382.73,405.2,3425280.0,1339522727.0,40487543140.48,68891400000.0
sz300782,卓胜微,2020-09-08,385.0,385.0,365.0,369.0,382.73,2470191.0,920395359.0,39035098944.0,66420000000.0
sz300782,卓胜微,2020-09-09,362.0,362.0,337.0,337.8,369.0,3476319.0,1203753542.0,35734570252.8,60804000000.0
sz300782,卓胜微,2020-09-10,343.0,347.19,330.15,331.71,337.8,2180020.0,738370479.0,35090332440.96,59707800000.0
sz300782,卓胜微,2020-09-11,334.1,342.98,331.7,341.86,331.71,2093352.0,708440660.0,36164062127.36,61534800000.0
sz300782,卓胜微,2020-09-14,346.0,355.69,341.0,350.5,341.86,2273782.0,795262636.0,37078054688.0,63090000000.0
sz300782,卓胜微,2020-09-15,348.0,375.0,346.01,367.95,350.5,2800659.0,1013747309.0,38924023459.200005,66231000000.0
sz300782,卓胜微,2020-09-16,365.0,373.97,360.51,367.08,367.95,1731815.0,637135446.0,38831989486.08,66074400000.0
sz300782,卓胜微,2020-09-17,365.5,396.29,363.51,389.11,367.08,3131810.0,1189675358.0,41162458943.36,70039800000.0
sz300782,卓胜微,2020-09-18,385.61,392.78,382.8,392.65,389.11,2116348.0,823233750.0,41536942006.4,70677000000.0
sz300782,卓胜微,2020-09-21,390.99,401.0,384.33,385.5,392.65,1772497.0,695425861.0,40780570848.0,69390000000.0
sz300782,卓胜微,2020-09-22,380.06,392.5,376.06,378.95,385.5,1860469.0,713968068.0,40087671395.200005,68211000000.0
sz300782,卓胜微,2020-09-23,382.0,391.7,375.5,385.3,378.95,1799877.0,690088880.0,40759413612.8,69354000000.0
sz300782,卓胜微,2020-09-24,380.15,386.0,379.5,380.01,385.3,1158640.0,442678974.0,40199804741.76,68401800000.0
sz300782,卓胜微,2020-09-25,384.0,384.4,363.36,364.3,380.01,2060156.0,765152970.0,38537903916.8,65574000000.0
sz300782,卓胜微,2020-09-28,364.3,370.0,356.0,365.5,364.3,1469805.0,534636108.0,38664847328.0,65790000000.0
sz300782,卓胜微,2020-09-29,368.0,374.86,366.0,367.02,365.5,1169359.0,433014074.0,38825642315.52,66063600000.0
sz300782,卓胜微,2020-09-30,371.56,385.88,369.14,377.8,367.02,2076543.0,788101902.0,39966017292.8,68004000000.0
sz300782,卓胜微,2020-10-09,383.0,395.98,379.0,393.82,377.8,2315639.0,905155995.0,41660711832.32,70887600000.0
sz300782,卓胜微,2020-10-12,400.0,420.02,395.02,419.89,393.82,2828593.0,1164828637.0,44418557440.64001,75580200000.0
sz300782,卓胜微,2020-10-13,440.88,445.0,422.36,425.09,419.89,4103418.0,1781367519.0,44968645555.84,76516200000.0
sz300782,卓胜微,2020-10-14,425.22,433.56,421.0,421.0,425.09,1942399.0,826146215.0,44535980096.00001,75780000000.0
sz300782,卓胜微,2020-10-15,421.0,435.0,416.8,420.0,421.0,1657977.0,705937714.0,44430193920.0,75600000000.0
sz300782,卓胜微,2020-10-16,426.71,427.78,417.56,424.8,420.0,1350350.0,570503032.0,44937967564.8,76464000000.0
sz300782,卓胜微,2020-10-19,427.1,428.0,418.18,424.82,424.8,1282614.0,544158510.0,44940083288.31999,76467600000.0
sz300782,卓胜微,2020-10-20,420.01,425.8,412.6,425.0,424.82,1302196.0,546349161.0,44959124800.00001,76500000000.0
sz300782,卓胜微,2020-10-21,425.8,428.7,409.0,412.38,425.0,1519682.0,634744750.0,43624103258.880005,74228400000.0
sz300782,卓胜微,2020-10-22,410.0,417.5,405.0,413.0,412.38,1065013.0,438844991.0,43689690687.99999,74340000000.0
sz300782,卓胜微,2020-10-23,417.0,418.88,390.1,390.9,413.0,1738525.0,697200580.0,41351816198.4,70362000000.0
sz300782,卓胜微,2020-10-26,387.0,410.0,380.4,407.01,390.9,1934017.0,769842904.0,43056031493.76,73261800000.0
sz300782,卓胜微,2020-10-27,408.0,422.0,407.0,420.33,407.01,1747819.0,729629421.0,44465103358.08,75659400000.0
sz300782,卓胜微,2020-10-28,419.98,431.7,418.29,423.96,420.33,1918589.0,818124200.0,44849107176.96,76312800000.0
sz300782,卓胜微,2020-10-29,419.0,430.0,413.8,427.8,423.96,1971623.0,835634858.0,45255326092.8,77004000000.0
sz300782,卓胜微,2020-10-30,428.63,448.0,426.01,433.75,427.8,3298290.0,1446391808.0,45884753839.99999,78075000000.0
sz300782,卓胜微,2020-11-02,441.66,452.52,434.55,449.81,433.75,4430726.0,1970686777.0,47583679826.560005,80965800000.0
sz300782,卓胜微,2020-11-03,451.0,482.66,451.0,463.98,449.81,3872010.0,1805742643.0,49082669940.48,83516400000.0
sz300782,卓胜微,2020-11-04,461.66,467.38,452.08,460.53,463.98,2443630.0,1125167893.0,48717707633.28,82895400000.0
sz300782,卓胜微,2020-11-05,474.98,474.98,460.05,469.99,460.53,2190804.0,1027700206.0,49718444858.24,84598200000.0
sz300782,卓胜微,2020-11-06,474.86,486.18,465.5,483.0,469.99,3381253.0,1619432607.0,51094723008.0,86940000000.0
sz300782,卓胜微,2020-11-09,491.8,579.6,491.67,571.12,483.0,6348037.0,3447139080.0,60416600837.12,102801600000.0
sz300782,卓胜微,2020-11-10,560.0,560.0,526.0,538.0,571.12,4707628.0,2552743215.0,56912962688.0,96840000000.0
sz300782,卓胜微,2020-11-11,535.3,536.0,502.01,503.0,538.0,3798096.0,1957521558.0,53210446528.0,90540000000.0
sz300782,卓胜微,2020-11-12,516.22,537.9,512.08,523.0,503.0,2929341.0,1530199205.0,55326170048.0,94140000000.0
sz300782,卓胜微,2020-11-13,523.03,555.5,518.01,542.39,523.0,3149967.0,1695399191.0,57377364000.64,97630200000.0
sz300782,卓胜微,2020-11-16,541.3,544.84,511.48,522.37,542.39,3799372.0,2008068469.0,55259524757.12,94026600000.0
sz300782,卓胜微,2020-11-17,523.97,551.0,520.08,547.96,522.37,3549382.0,1896803535.0,57966593000.96,98632800000.0
sz300782,卓胜微,2020-11-18,544.9,575.0,536.0,553.76,547.96,3313536.0,1840897412.0,58580152821.76,99676800000.0
sz300782,卓胜微,2020-11-19,545.0,575.11,535.01,550.18,553.76,2932951.0,1638795812.0,58201438311.68,99032400000.0
sz300782,卓胜微,2020-11-20,551.01,563.56,544.66,550.28,550.18,1700942.0,939325300.0,58212016929.28001,99050400000.0
sz300782,卓胜微,2020-11-23,547.0,565.21,541.28,554.0,550.28,1935936.0,1073142733.0,58605541504.0,99720000000.0
sz300782,卓胜微,2020-11-24,549.98,563.49,540.0,540.0,554.0,2377498.0,1311120779.0,57124535040.0,97200000000.0
sz300782,卓胜微,2020-11-25,532.06,547.92,532.06,535.8,540.0,1822338.0,983134777.0,56680233100.8,96444000000.0
sz300782,卓胜微,2020-11-26,537.72,563.0,537.71,548.0,535.8,1670795.0,921563747.0,57970824448.0,98640000000.0
sz300782,卓胜微,2020-11-27,550.57,559.97,525.76,537.6,548.0,1954976.0,1057238313.0,56870648217.6,96768000000.0
sz300782,卓胜微,2020-11-30,545.41,563.0,532.62,563.0,537.6,2453222.0,1353177112.0,59557617088.0,101340000000.0
sz300782,卓胜微,2020-12-01,558.0,566.75,548.0,560.41,563.0,2521424.0,1401660225.0,59283630892.16,100873800000.0
sz300782,卓胜微,2020-12-02,556.95,564.88,535.01,545.0,560.41,2322832.0,1270301070.0,57653465920.0,98100000000.0
sz300782,卓胜微,2020-12-03,537.08,542.56,470.0,506.07,545.0,5831495.0,2930071813.0,53535210088.32,91092600000.0
sz300782,卓胜微,2020-12-04,506.1,516.2,501.05,511.93,506.07,2602572.0,1326942310.0,54155117079.68,92147400000.0
sz300782,卓胜微,2020-12-07,515.02,539.99,515.02,533.82,511.93,2323680.0,1230510873.0,56470776472.32,96087600000.0
sz300782,卓胜微,2020-12-08,533.94,546.5,528.0,544.82,533.82,1560961.0,843904870.0,57634424408.32,98067600000.0
sz300782,卓胜微,2020-12-09,544.82,555.13,539.88,549.66,544.82,2150051.0,1181038599.0,58146429500.16,98938800000.0
sz300782,卓胜微,2020-12-10,549.66,561.98,545.0,558.0,549.66,2180768.0,1214535331.0,59028686208.0,100440000000.0
sz300782,卓胜微,2020-12-11,560.0,599.05,558.0,591.32,558.0,4099869.0,2399871426.0,62553481592.32,106437600000.0
sz300782,卓胜微,2020-12-14,589.6,599.8,582.56,597.55,591.32,2179129.0,1290409429.0,63212529468.8,107559000000.0
sz300782,卓胜微,2020-12-15,600.0,613.9,571.0,582.0,597.55,2667291.0,1568170056.0,61567554432.0,104760000000.0
sz300782,卓胜微,2020-12-16,583.0,609.68,578.88,607.52,582.0,1930473.0,1155182768.0,64267217643.52,109353600000.0
sz300782,卓胜微,2020-12-17,607.53,613.5,588.0,595.2,607.52,1693112.0,1013074708.0,62963931955.2,107136000000.0
sz300782,卓胜微,2020-12-18,602.01,605.97,575.0,576.0,595.2,2178081.0,1275788322.0,60932837376.0,103680000000.0
sz300782,卓胜微,2020-12-21,581.96,591.58,571.61,589.0,576.0,2149884.0,1258013398.0,62308057664.0,106020000000.0
sz300782,卓胜微,2020-12-22,585.0,594.59,563.17,568.0,589.0,1997335.0,1141234868.0,60086547968.0,102240000000.0
sz300782,卓胜微,2020-12-23,572.61,598.85,572.6,592.0,568.0,2032735.0,1200418829.0,62625416191.99999,106560000000.0
sz300782,卓胜微,2020-12-24,590.27,601.0,585.0,601.0,592.0,1789942.0,1067147453.0,63577491776.0,108180000000.0
sz300782,卓胜微,2020-12-25,601.06,605.39,575.63,583.3,601.0,1982798.0,1163196076.0,61705076460.8,104994000000.0
sz300782,卓胜微,2020-12-28,580.0,594.31,572.58,594.31,583.3,1598117.0,937558385.0,62869782258.56,106975800000.0
sz300782,卓胜微,2020-12-29,598.24,598.25,563.0,579.74,594.31,1683329.0,973952872.0,61328477674.240005,104353200000.0
sz300782,卓胜微,2020-12-30,571.87,588.78,566.0,579.35,579.74,1392224.0,805692583.0,61287221065.6,104283000000.0
sz300782,卓胜微,2020-12-31,580.0,581.98,554.51,570.54,579.35,1895503.0,1078087028.0,60355244855.04,102697200000.0
sz300782,卓胜微,2021-01-04,574.0,616.55,570.0,614.9,570.54,2788508.0,1668509046.0,65047919622.4,110682000000.0
sz300782,卓胜微,2021-01-05,610.02,678.26,608.01,659.96,614.9,3326720.0,2129137380.0,69814644712.96,118792800000.0
sz300782,卓胜微,2021-01-06,663.01,667.98,646.01,665.0,659.96,2266648.0,1492765987.0,70347807040.0,119700000000.0
sz300782,卓胜微,2021-01-07,658.0,664.0,633.08,649.0,665.0,2282365.0,1478461220.0,68655228224.0,116820000000.0
sz300782,卓胜微,2021-01-08,651.01,654.6,615.01,630.9,649.0,2626432.0,1642535106.0,66740498438.4,113562000000.0
sz300782,卓胜微,2021-01-11,631.0,670.78,626.0,637.0,630.9,2778404.0,1797097542.0,67385794112.0,114660000000.0
sz300782,卓胜微,2021-01-12,637.62,651.0,623.01,644.37,637.0,1671048.0,1070518505.0,68165438229.12,115986600000.0
sz300782,卓胜微,2021-01-13,669.0,685.0,610.0,628.98,644.37,4052721.0,2593994394.0,66537388980.48,113216400000.0
sz300782,卓胜微,2021-01-14,633.0,657.0,622.23,629.0,628.98,2723012.0,1746837357.0,66539504704.0,113220000000.0
sz300782,卓胜微,2021-01-15,620.0,656.98,620.0,642.99,629.0,2308384.0,1489445369.0,68019453306.240005,115738200000.0
sz300782,卓胜微,2021-01-18,642.99,682.08,618.0,667.3,642.99,3121939.0,2030620948.0,70591115244.8,120114000000.0
sz300782,卓胜微,2021-01-19,668.0,679.6,656.0,660.0,667.3,1906943.0,1269927093.0,69818876160.0,118800000000.0
sz300782,卓胜微,2021-01-20,668.0,678.0,651.0,666.01,660.0,1721227.0,1144461705.0,70454651077.76,119881800000.0
sz300782,卓胜微,2021-01-21,666.01,690.0,657.0,684.44,666.01,2706291.0,1825743485.0,72404290301.44,123199200000.0
sz300782,卓胜微,2021-01-22,680.0,687.8,654.77,669.0,684.44,2475583.0,1664517423.0,70770951744.0,120420000000.0
sz300782,卓胜微,2021-01-25,655.14,712.0,655.14,700.0,669.0,2827634.0,1947424592.0,74050323200.0,126000000000.0
sz300782,卓胜微,2021-01-26,700.0,707.0,660.0,660.0,700.0,2557878.0,1727310682.0,69818876160.0,118800000000.0
sz300782,卓胜微,2021-01-27,656.0,662.81,631.01,652.0,660.0,1773129.0,1151545199.0,68972586752.0,117360000000.0
sz300782,卓胜微,2021-01-28,640.01,653.0,625.0,638.52,652.0,1453471.0,929082291.0,67546589099.52,114933600000.0
sz300782,卓胜微,2021-01-29,654.9,659.99,618.0,632.0,638.52,2023512.0,1298232981.0,66856863232.00001,113760000000.0
sz300782,卓胜微,2021-02-01,631.63,652.98,627.0,635.0,632.0,1350489.0,865702137.0,67174221760.0,114300000000.0
sz300782,卓胜微,2021-02-02,637.0,668.0,635.81,661.04,635.0,1597806.0,1045610839.0,69928893783.04,118987200000.0
sz300782,卓胜微,2021-02-03,652.3,668.0,636.84,638.47,661.04,1640640.0,1065367827.0,67541299790.72,114924600000.0
sz300782,卓胜微,2021-02-04,628.0,640.08,602.1,622.4,638.47,2515245.0,1551652995.0,65841315942.4,112032000000.0
sz300782,卓胜微,2021-02-05,625.7,651.2,625.7,637.31,622.4,1752886.0,1125758133.0,67662693489.31,114715800000.0
sz300782,卓胜微,2021-02-08,640.0,663.8,640.0,648.56,637.31,1607150.0,1048999192.0,68857097000.56,120185654976.64
sz300782,卓胜微,2021-02-09,650.61,652.6,637.0,644.54,648.56,1421855.0,915118147.0,68430296812.54,119440702569.76
sz300782,卓胜微,2021-02-10,649.8,654.84,631.12,647.88,644.54,1747709.0,1123411702.0,68784901943.88,120059643126.72
sz300782,卓胜微,2021-02-18,659.0,661.0,633.55,652.01,647.88,2267150.0,1465074827.0,69223380744.01,120824979803.44
sz300782,卓胜微,2021-02-19,645.5,646.0,600.3,625.8,652.01,2723544.0,1684026067.0,66440685985.8,115967964235.2
sz300782,卓胜微,2021-02-22,620.2,635.97,600.0,602.0,625.8,2076983.0,1282842904.0,63913859002.0,111557549488.0
sz300782,卓胜微,2021-02-23,589.94,606.8,581.53,592.0,602.0,1570486.0,933634687.0,62852166992.0,109704434048.0
sz300782,卓胜微,2021-02-24,601.0,619.98,581.0,599.0,592.0,2151702.0,1298831590.0,63595351399.0,111001614856.0
sz300782,卓胜微,2021-02-25,600.0,632.01,596.56,622.5,599.0,1970145.0,1222457714.0,66090327622.5,115356436140.0
sz300782,卓胜微,2021-02-26,618.99,638.5,593.78,630.0,622.5,1950904.0,1213045648.0,66886596630.0,116746272720.0
sz300782,卓胜微,2021-03-01,635.0,637.0,601.5,623.49,630.0,1831096.0,1125250929.0,66195435131.49,115539894568.56
sz300782,卓胜微,2021-03-02,623.48,656.6,620.95,645.98,623.49,2531091.0,1635938602.0,68583180461.98,119707551193.12
sz300782,卓胜微,2021-03-03,639.08,669.38,638.01,667.0,645.98,2289110.0,1517584927.0,70814857067.0,123602799848.0
sz300782,卓胜微,2021-03-04,661.0,671.47,631.91,642.67,667.0,1924049.0,1250935883.0,68231760406.670006,119094169982.48
sz300782,卓胜微,2021-03-05,627.47,630.49,585.0,612.0,642.67,2969406.0,1801269329.0,64975551012.00001,113410664927.99998
sz300782,卓胜微,2021-03-08,609.97,616.12,587.88,587.88,612.0,1897650.0,1139490725.0,62414749883.88,108940950486.72
sz300782,卓胜微,2021-03-09,580.0,580.24,525.0,526.0,587.88,2474658.0,1362026881.0,55844999726.0,97473872144.00002
sz300782,卓胜微,2021-03-10,540.52,587.68,540.52,580.0,526.0,2696549.0,1536381549.0,61578136580.0,107480695519.99998
sz300782,卓胜微,2021-03-11,572.01,609.87,572.01,591.92,580.0,1622017.0,958953426.0,62843673455.92,109689609124.48
sz300782,卓胜微,2021-03-12,596.02,596.02,572.19,591.0,591.92,1414590.0,827697162.0,62745997791.0,109519122504.0
sz300782,卓胜微,2021-03-15,576.68,596.5,557.09,561.99,591.0,1529923.0,876383202.0,59666029269.99,104143234612.56
sz300782,卓胜微,2021-03-16,566.01,586.97,566.01,580.88,561.99,1319921.0,763363336.0,61671565476.88,107643769678.72
sz300782,卓胜微,2021-03-17,580.84,608.0,570.0,598.0,580.88,1314918.0,784106284.0,63489182198.0,110816303312.0
sz300782,卓胜微,2021-03-18,597.69,603.51,591.65,595.02,598.0,963102.0,574342372.0,63172797979.02,110264074910.88
sz300782,卓胜微,2021-03-19,584.93,600.0,584.93,586.66,595.02,1217089.0,718832949.0,62285223458.66,108714870403.04
sz300782,卓胜微,2021-03-22,584.95,599.58,576.52,579.86,586.66,920488.0,538094815.0,61563272891.86,107454751903.84
sz300782,卓胜微,2021-03-23,580.35,591.98,561.2,570.98,579.86,1307905.0,751158729.0,60620490386.98,105809185393.12
sz300782,卓胜微,2021-03-24,558.0,573.0,550.5,566.0,570.98,1352643.0,756287430.0,60091767766.00001,104886333904.0
sz300782,卓胜微,2021-03-25,559.12,580.0,553.03,571.01,566.0,1179493.0,668595844.0,60623675463.01,105814744739.44
sz300782,卓胜微,2021-03-26,579.0,591.0,571.01,590.59,571.01,1294532.0,756505030.0,62702468418.59,109443144770.96
sz300782,卓胜微,2021-03-29,595.0,609.99,591.0,600.34,590.59,1222639.0,737029049.0,63737618128.34,111249932324.96
sz300782,卓胜微,2021-03-30,603.0,604.97,589.0,603.5,600.34,1201948.0,719108987.0,64073112803.5,111835516804.00002
sz300782,卓胜微,2021-03-31,613.0,619.58,596.07,609.0,603.5,1630235.0,994695411.0,64657043409.0,112854730296.0
sz300782,卓胜微,2021-04-01,609.0,650.0,608.0,642.01,609.0,1910614.0,1219878378.0,68161688734.01,118971864363.44
sz300782,卓胜微,2021-04-02,654.99,683.5,648.0,681.66,642.01,2459151.0,1649938638.0,72371297553.66,126319467083.04
sz300782,卓胜微,2021-04-06,683.0,704.0,669.96,699.0,681.66,1943498.0,1338074228.0,74212271499.0,129532769256.0
sz300782,卓胜微,2021-04-07,699.0,707.2,688.88,696.86,699.0,1649684.0,1148437734.0,73985069408.86,129136202551.84
sz300782,卓胜微,2021-04-08,694.77,719.9,690.07,701.54,696.86,1705233.0,1202588179.0,74481941269.54001,130003460577.76
sz300782,卓胜微,2021-04-09,703.0,722.88,700.0,708.01,701.54,1513366.0,1079958939.0,75168856000.01,131202426267.44
sz300782,卓胜微,2021-04-12,745.0,790.3,736.71,738.0,708.01,4162647.0,3149192042.0,78352870338.0,136759919472.0
sz300782,卓胜微,2021-04-13,745.8,754.45,722.9,723.01,738.0,2311730.0,1708381959.0,76761394015.01,133982099427.44
sz300782,卓胜微,2021-04-14,723.44,740.0,716.58,726.65,723.01,1992218.0,1452205641.0,77147849906.65,134656633447.6
sz300782,卓胜微,2021-04-15,719.01,732.0,709.0,717.0,726.65,1362072.0,981651024.0,76123317117.0,132868377048.0
sz300782,卓胜微,2021-04-16,726.89,726.97,671.01,710.89,717.0,1952003.0,1371293847.0,75474623298.89,131736123514.16
sz300782,卓胜微,2021-04-19,711.01,716.03,690.27,711.2,710.89,1829660.0,1291470363.0,75507535751.2,131793570092.8
sz300782,卓胜微,2021-04-20,706.0,721.8,699.0,714.6,711.2,1382689.0,987702250.0,75868511034.6,132423629342.4
sz300782,卓胜微,2021-04-21,711.34,724.99,707.78,718.51,714.6,1287558.0,923925903.0,76283632610.51,133148197479.44
sz300782,卓胜微,2021-04-22,727.77,749.77,718.8,745.6,718.51,2304284.0,1695401643.0,79159756265.59999,138168287206.4
sz300782,卓胜微,2021-04-23,740.03,750.0,736.0,739.31,745.6,1462153.0,1083643985.0,78491951991.31,137002677594.64
sz300782,卓胜微,2021-04-26,756.48,763.47,736.0,738.0,739.31,1878462.0,1408834676.0,78352870338.0,136759919472.0
sz300782,卓胜微,2021-04-27,745.0,751.51,736.5,750.88,738.0,1331438.0,991141240.0,79720329646.88,139146732158.72
sz300782,卓胜微,2021-04-28,745.21,758.99,731.33,756.56,750.88,1688133.0,1264274971.0,80323370708.56,140199301728.63998
sz300782,卓胜微,2021-04-29,758.51,762.96,741.77,755.0,756.56,1535988.0,1157211635.0,80157746755.0,139910215720.0
sz300782,卓胜微,2021-04-30,423.3,431.68,420.99,427.22,418.89,4066060.0,1734045987.0,81643690977.64,142503836004.38
sz300782,卓胜微,2021-05-06,425.06,425.89,390.0,399.01,427.22,5389824.0,2159895444.0,76252631283.62,133094086428.79
sz300782,卓胜微,2021-05-07,408.0,409.77,370.8,371.1,399.01,4667290.0,1794138869.0,70918902958.2,123784405086.9
sz300782,卓胜微,2021-05-10,371.18,375.5,358.0,362.21,371.1,3495801.0,1281547285.0,69219983402.02,120819049761.59
sz300782,卓胜微,2021-05-11,357.08,361.8,350.1,358.0,362.21,3499163.0,1245237922.0,68415433196.0,119414758882.0
sz300782,卓胜微,2021-05-12,357.8,379.96,348.1,377.0,358.0,4471043.0,1626113193.0,72046419874.0,125752413683.0
sz300782,卓胜微,2021-05-13,369.89,385.69,366.0,377.17,377.0,3279221.0,1234151869.0,72078907649.54,125809119015.43
sz300782,卓胜微,2021-05-14,375.0,382.97,366.66,380.5,377.17,2833142.0,1066036548.0,72715285841.0,126919876409.5
sz300782,卓胜微,2021-05-17,380.98,394.0,380.97,384.24,380.5,3031524.0,1173767932.0,73430016902.88,128167393722.96
sz300782,卓胜微,2021-05-18,382.0,382.88,365.2,370.92,384.24,3874373.0,1437301182.0,70884504137.04001,123724364146.68
sz300782,卓胜微,2021-05-19,368.75,392.38,368.0,389.44,370.92,3939854.0,1521823326.0,74423760625.28,129901909773.76
sz300782,卓胜微,2021-05-20,389.66,409.8,389.66,408.43,389.44,3596325.0,1454144326.0,78052836257.66,136236228966.97
sz300782,卓胜微,2021-05-21,408.32,417.59,404.62,410.84,408.43,3925811.0,1617777733.0,78513398252.08,137040110444.36
sz300782,卓胜微,2021-05-24,411.72,415.83,401.03,409.0,410.84,2514170.0,1022771032.0,78161765858.0,136426358611.0
sz300782,卓胜微,2021-05-25,409.0,419.8,407.88,412.01,409.0,3521792.0,1459988772.0,78736990589.62,137430376555.79
sz300782,卓胜微,2021-05-26,410.83,417.01,406.06,413.07,412.01,2140807.0,882597587.0,78939561425.34,137783950981.53
sz300782,卓胜微,2021-05-27,411.73,423.27,409.01,420.0,413.07,3431592.0,1431594457.0,80263916040.0,140095527180.0
sz300782,卓胜微,2021-05-28,418.01,424.99,409.0,411.3,420.0,3358628.0,1395003527.0,78601306350.6,137193548402.7
sz300782,卓胜微,2021-05-31,411.31,427.58,411.19,425.88,411.3,3731678.0,1566221639.0,81387610864.56,142056864560.52
sz300782,卓胜微,2021-06-01,425.0,425.01,410.0,419.3,425.88,4152331.0,1732978838.0,80130142846.6,139862034634.7
sz300782,卓胜微,2021-06-02,419.7,421.18,410.8,415.01,419.3,2458158.0,1021838096.0,79310304275.62,138431058892.79
sz300782,卓胜微,2021-06-03,415.5,416.8,406.0,407.1,415.01,2661252.0,1087871741.0,77798667190.2,135792593130.9
sz300782,卓胜微,2021-06-04,408.62,419.9,408.02,414.51,407.1,2422289.0,1002610707.0,79214751994.62001,138264278503.29
sz300782,卓胜微,2021-06-07,422.24,425.0,416.02,418.8,414.51,2485398.0,1044787314.0,80034590565.6,139695254245.2
sz300782,卓胜微,2021-06-08,420.23,427.0,416.88,426.7,418.8,3344052.0,1416308284.0,81544316605.4,142330384399.3
sz300782,卓胜微,2021-06-09,429.99,454.6,418.36,453.0,426.7,5104423.0,2254288279.0,86570366586.0,151103032887.0
sz300782,卓胜微,2021-06-10,453.0,465.0,446.88,463.0,453.0,4841517.0,2214555363.0,88481412206.0,154438640677.0
sz300782,卓胜微,2021-06-11,467.0,483.79,458.2,477.0,463.0,4529099.0,2131078599.0,91156876074.0,159108491583.0
sz300782,卓胜微,2021-06-15,478.0,491.9,475.58,478.3,477.0,3953097.0,1910220234.0,91405312004.6,159542120595.69998
sz300782,卓胜微,2021-06-16,478.29,488.0,456.0,456.0,478.3,3925998.0,1839771407.0,87143680272.0,152103715224.0
sz300782,卓胜微,2021-06-17,462.18,498.2,460.03,490.81,456.0,5616571.0,2727168928.0,93796030075.22,163714965940.99
sz300782,卓胜微,2021-06-18,493.12,498.49,481.01,494.17,490.81,4867428.0,2392335007.0,94438141403.54,164835730158.43
sz300782,卓胜微,2021-06-21,486.56,491.23,471.25,487.0,494.17,4636234.0,2245991276.0,93067921693.99998,162444099373.0
sz300782,卓胜微,2021-06-22,490.24,491.0,465.88,482.5,487.0,3535900.0,1684121783.0,92207951165.0,160943075867.5
sz300782,卓胜微,2021-06-23,485.0,499.96,483.01,493.9,482.5,3705729.0,1829060487.0,94386543171.8,164745668748.1
sz300782,卓胜微,2021-06-24,491.98,503.88,489.62,490.0,493.9,2890238.0,1432462993.0,93641235380.0,163444781710.0
sz300782,卓胜微,2021-06-25,489.02,498.0,480.0,494.67,490.0,2423164.0,1186993346.0,94533693684.54,165002510547.93
sz300782,卓胜微,2021-06-28,494.5,519.38,490.87,515.47,494.67,3447347.0,1752994430.0,98508668574.14,171940574751.13
sz300782,卓胜微,2021-06-29,512.51,524.7,501.0,513.0,515.47,3918228.0,2008524864.0,98036640306.0,171116679626.99997
sz300782,卓胜微,2021-06-30,515.55,544.68,509.0,537.5,513.0,4886303.0,2585678881.0,102718702075.0,179288918712.5
sz300782,卓胜微,2021-07-01,533.0,544.6,530.12,533.0,537.5,3416605.0,1840708459.0,101858731546.0,177787895207.0
sz300782,卓胜微,2021-07-02,523.1,525.01,507.0,509.71,533.0,4186217.0,2155709753.0,97407906297.02,170019264664.09003
sz300782,卓胜微,2021-07-05,520.51,528.18,507.88,511.81,509.71,4291524.0,2220543359.0,97809225877.22,170719742299.99
sz300782,卓胜微,2021-07-06,514.44,520.0,476.0,493.6,511.81,5998216.0,2973029587.0,94329211803.2,164645600514.4
sz300782,卓胜微,2021-07-07,492.0,511.5,485.0,509.5,493.6,4026415.0,2026642172.0,97367774339.0,169949216900.49997
sz300782,卓胜微,2021-07-08,512.01,521.0,512.01,516.53,509.5,3219188.0,1665249040.0,98711239409.86,172294149176.87
sz300782,卓胜微,2021-07-09,511.9,511.9,468.7,485.8,516.53,6335885.0,3067904857.0,92838596219.6,162043826438.2
sz300782,卓胜微,2021-07-12,490.0,490.0,459.0,481.94,485.8,6109920.0,2898628825.0,92100932610.28,160756281831.26
sz300782,卓胜微,2021-07-13,462.0,465.0,417.68,419.9,481.94,15442300.0,6646539120.0,80244805583.8,140062171102.1
sz300782,卓胜微,2021-07-14,421.0,434.97,417.0,430.82,419.9,6806382.0,2909715828.0,82331667400.84,143704654808.78
sz300782,卓胜微,2021-07-15,427.0,437.76,422.38,431.0,430.82,4745170.0,2039742239.0,82366066222.0,143764695749.0
sz300782,卓胜微,2021-07-16,430.86,431.0,405.16,408.0,431.0,7045777.0,2922694265.0,77970661296.0,136092797832.0
sz300782,卓胜微,2021-07-19,407.08,412.88,402.01,409.3,408.0,3828970.0,1562080966.0,78219097226.6,136526426844.7
sz300782,卓胜微,2021-07-20,407.0,428.5,399.0,427.3,409.3,6888421.0,2880400775.0,81658979342.59999,142530520866.7
sz300782,卓胜微,2021-07-21,429.0,454.77,425.95,441.87,427.3,6868912.0,3048198235.0,84443372810.94,147390501416.73
sz300782,卓胜微,2021-07-22,444.98,447.0,421.13,423.12,441.87,6431600.0,2770333390.0,80860162273.44,141136236810.48
sz300782,卓胜微,2021-07-23,418.49,423.12,405.8,409.0,423.12,5557321.0,2282929725.0,78161765858.0,136426358611.0
sz300782,卓胜微,2021-07-26,405.06,427.0,400.33,420.0,409.0,6637983.0,2747571049.0,80263916040.0,140095527180.0
sz300782,卓胜微,2021-07-27,418.02,459.0,417.29,426.5,420.0,8874791.0,3858448111.0,81506095693.0,142263672243.5
sz300782,卓胜微,2021-07-28,410.89,424.7,388.0,412.79,426.5,6574091.0,2678781933.0,78886052147.98,137690553963.41
sz300782,卓胜微,2021-07-29,419.04,430.28,406.02,422.8,412.79,7167664.0,2994574650.0,80799008813.6,141029497361.2
sz300782,卓胜微,2021-07-30,416.81,419.64,400.59,403.15,422.8,6697832.0,2729698254.0,77043804170.3,134475028053.85
sz300782,卓胜微,2021-08-02,395.0,407.0,375.3,396.17,403.15,6847527.0,2664074396.0,75709894327.54,132146773816.43
sz300782,卓胜微,2021-08-03,400.47,410.81,389.81,393.78,396.17,5350521.0,2133203222.0,75253154424.36,131349563554.62
sz300782,卓胜微,2021-08-04,397.5,411.67,394.5,405.5,393.78,5296393.0,2150471015.0,77492899891.0,135258895884.5
sz300782,卓胜微,2021-08-05,400.0,429.6,393.85,421.95,405.5,6882275.0,2879555297.0,80636569935.9,140745970699.05
sz300782,卓胜微,2021-08-06,426.0,428.0,407.08,407.99,421.95,4018654.0,1657300722.0,77968750250.38,136089462224.21
sz300782,卓胜微,2021-08-09,400.0,409.93,395.0,407.0,407.99,4088570.0,1648404576.0,81670793787.0,135759237053.0
sz300782,卓胜微,2021-08-10,407.0,425.0,406.02,413.75,407.0,4184130.0,1732051939.0,83025284838.75,138010772311.25
sz300782,卓胜微,2021-08-11,416.01,434.0,412.58,425.0,413.75,5111624.0,2172675621.0,85282769925.0,141763331075.0
sz300782,卓胜微,2021-08-12,423.0,436.0,418.0,421.0,425.0,3882090.0,1659303595.0,84480108561.0,140429087959.0
sz300782,卓胜微,2021-08-13,417.88,420.51,410.2,413.09,421.0,2574908.0,1066094610.0,82892845713.69,137790622197.11002
sz300782,卓胜微,2021-08-16,417.0,421.2,410.0,413.46,413.09,2963638.0,1230036462.0,82967091889.86,137914039685.34
sz300782,卓胜微,2021-08-17,411.5,418.7,400.0,403.28,413.46,3932301.0,1604306396.0,80924318718.48,134518390955.12
sz300782,卓胜微,2021-08-18,404.5,427.36,403.03,417.03,403.28,5004858.0,2089095196.0,83683467157.23,139104851666.37
sz300782,卓胜微,2021-08-19,419.94,432.81,415.54,429.84,417.03,4585643.0,1958331814.0,86253990175.43999,143377765245.36002
sz300782,卓胜微,2021-08-20,429.95,431.9,408.68,419.01,429.84,4091282.0,1715586762.0,84080784532.41,139765302008.79
sz300782,卓胜微,2021-08-23,419.16,421.98,409.0,412.59,419.01,3693913.0,1526406729.0,82792513043.19,137623841807.61002
sz300782,卓胜微,2021-08-24,415.01,453.64,412.6,439.0,412.59,8268977.0,3596185119.0,88092084699.00002,146433181981.0
sz300782,卓胜微,2021-08-25,439.24,453.35,432.5,440.24,439.0,4455355.0,1964831526.0,88340909721.84001,146846797346.96002
sz300782,卓胜微,2021-08-26,444.0,444.0,410.5,410.78,440.24,8216073.0,3424992849.0,82429308775.98,137020096797.62
sz300782,卓胜微,2021-08-27,409.0,414.88,401.12,403.53,410.78,4431918.0,1800358601.0,80974485053.73,134601781149.87
sz300782,卓胜微,2021-08-30,403.94,408.0,380.3,386.07,403.53,7140574.0,2782209569.0,77470868199.87,128777809948.53
sz300782,卓胜微,2021-08-31,382.0,383.57,357.5,379.0,386.07,6866097.0,2538705987.0,76052164239.0,126419535241.0
sz300782,卓胜微,2021-09-01,377.0,395.5,366.76,392.06,379.0,5481265.0,2084438698.0,78672853592.45999,130775839014.74
sz300782,卓胜微,2021-09-02,386.02,391.0,368.0,368.0,392.06,4318723.0,1619288763.0,73844845488.0,122750366671.99998
sz300782,卓胜微,2021-09-03,370.0,375.99,358.0,359.6,368.0,3602362.0,1312500843.0,72159256623.6,119948456128.4
sz300782,卓胜微,2021-09-06,359.6,372.6,359.5,364.19,359.6,3945735.0,1441333565.0,73080310538.79001,121479500104.01
sz300782,卓胜微,2021-09-07,363.58,366.11,359.02,362.8,364.19,2875081.0,1040341279.0,72801385714.8,121015850621.2
sz300782,卓胜微,2021-09-08,362.6,365.24,348.85,351.0,362.8,4641580.0,1645781657.0,70433534691.0,117079833429.0
sz300782,卓胜微,2021-09-09,349.0,354.82,341.69,352.6,351.0,3957561.0,1376784478.0,70754599236.6,117613530675.4
sz300782,卓胜微,2021-09-10,350.3,366.0,347.52,362.81,352.6,4630819.0,1662696751.0,72803392368.21,121019186228.99
sz300782,卓胜微,2021-09-13,360.0,360.92,342.3,346.16,362.81,4526526.0,1581745785.0,69462314440.56,115465399258.64
sz300782,卓胜微,2021-09-14,345.17,355.93,344.33,353.0,346.16,3750975.0,1324161016.0,70834865373.0,117746954987.0
sz300782,卓胜微,2021-09-15,351.31,351.85,333.33,339.5,353.0,5299073.0,1808018883.0,68125883269.5,113243884470.5
sz300782,卓胜微,2021-09-16,341.0,348.98,332.13,333.51,339.5,3784354.0,1283501932.0,66923897876.91,111245855404.29
sz300782,卓胜微,2021-09-17,334.22,335.64,322.02,331.01,333.51,3820771.0,1251575995.0,66422234524.41,110411953456.79
sz300782,卓胜微,2021-09-22,325.0,330.0,321.15,325.71,331.01,1875327.0,610844712.0,65358708217.11,108644081328.09
sz300782,卓胜微,2021-09-23,330.01,344.56,324.01,341.41,325.71,4776456.0,1613893195.0,68509154070.81,113880985558.39
sz300782,卓胜微,2021-09-24,341.0,358.0,336.1,350.88,341.41,5104929.0,1791838031.0,70409454850.08,117039806135.52
sz300782,卓胜微,2021-09-27,355.0,363.36,348.0,352.56,350.88,3143474.0,1112551855.0,70746572622.95999,117600188244.24
sz300782,卓胜微,2021-09-28,351.42,363.62,341.5,354.47,352.56,3281828.0,1168711715.0,71129843424.27,118237289332.13
sz300782,卓胜微,2021-09-29,349.97,363.08,345.77,356.51,354.47,2878080.0,1020920464.0,71539200719.91,118917753321.29
sz300782,卓胜微,2021-09-30,355.0,360.3,351.3,352.0,356.51,2431665.0,863546102.0,70634200032.0,117413394208.0
sz300782,卓胜微,2021-10-08,354.0,365.5,353.91,358.78,352.0,2996623.0,1080943964.0,71994711043.98,119674936289.62
sz300782,卓胜微,2021-10-11,348.8,348.8,318.0,318.3,358.78,7991597.0,2612895526.0,63871778040.3,106172395955.7
sz300782,卓胜微,2021-10-12,320.53,322.5,294.82,298.79,318.3,7315755.0,2217556503.0,59956797237.39,99664625157.41
sz300782,卓胜微,2021-10-13,298.65,304.5,291.2,304.0,298.79,5281470.0,1574790363.0,61002263664.0,101402476816.0
sz300782,卓胜微,2021-10-14,302.0,307.62,298.1,305.3,304.0,2822881.0,859442083.0,61263128607.3,101836105828.7
sz300782,卓胜微,2021-10-15,305.83,317.5,299.03,312.25,305.3,4655852.0,1452400496.0,62657752727.25,104154353242.75
sz300782,卓胜微,2021-10-18,309.0,309.0,296.19,301.83,312.25,4627529.0,1392798784.0,60566819874.03,100678649925.57
sz300782,卓胜微,2021-10-19,303.0,312.0,299.1,308.47,301.83,3244648.0,995729937.0,61899237738.27,102893493498.13
sz300782,卓胜微,2021-10-20,308.77,312.12,305.01,305.42,308.47,2506315.0,770508753.0,61287208448.22,101876133122.18
sz300782,卓胜微,2021-10-21,305.0,308.7,301.37,305.79,305.42,2369749.0,720229750.0,61361454624.39,101999550610.41
sz300782,卓胜微,2021-10-22,306.0,335.68,305.88,329.92,305.79,8935275.0,2921271864.0,66203509302.72,110048372207.68
sz300782,卓胜微,2021-10-25,330.04,331.99,317.31,323.53,329.92,4528468.0,1462042145.0,64921257773.73,107916918829.87
sz300782,卓胜微,2021-10-26,320.01,326.98,317.58,321.0,323.53,3151221.0,1012898257.0,64413574461.0,107073010059.0
sz300782,卓胜微,2021-10-27,321.06,323.48,316.0,318.88,321.0,2233164.0,712226816.0,63988163938.08,106365861207.52
sz300782,卓胜微,2021-10-28,316.89,323.88,306.12,308.31,318.88,4493596.0,1406209730.0,61867131283.71001,102840123773.49
sz300782,卓胜微,2021-10-29,310.08,317.0,303.96,309.19,308.31,3636151.0,1125823168.0,62043716783.79,103133657259.01
sz300782,卓胜微,2021-11-01,305.49,312.78,302.1,307.77,309.19,3087625.0,951542534.0,61758771999.57,102660000952.83
sz300782,卓胜微,2021-11-02,308.0,319.88,305.21,315.02,307.77,5629387.0,1781058019.0,63213595721.82,105078316600.58
sz300782,卓胜微,2021-11-03,315.01,317.9,298.91,301.6,315.02,6031552.0,1835766546.0,60520666845.6,100601930946.4
sz300782,卓胜微,2021-11-04,304.12,317.08,303.21,312.35,301.6,5664627.0,1776992544.0,62677819261.35,104187709320.65
sz300782,卓胜微,2021-11-05,317.0,322.89,312.81,313.91,312.35,3668917.0,1160821536.0,62990857193.31,104708064135.89
sz300782,卓胜微,2021-11-08,312.99,312.99,303.03,307.0,313.91,3375358.0,1031570859.0,61604259687.0,102403159153.0
sz300782,卓胜微,2021-11-09,306.0,311.28,301.0,308.5,307.0,4063398.0,1242542131.0,61905257698.5,102903500321.5
sz300782,卓胜微,2021-11-10,306.8,307.6,295.0,301.49,308.5,4894669.0,1467399735.0,60498593658.09,100565239260.71
sz300782,卓胜微,2021-11-11,300.0,309.0,296.68,303.03,301.49,4701293.0,1422210581.0,60807618283.23,101078922860.37
sz300782,卓胜微,2021-11-12,302.0,307.3,297.7,298.46,303.03,4733509.0,1426483059.0,59890577674.86,99554550100.34
sz300782,卓胜微,2021-11-15,298.41,302.8,294.3,302.5,298.46,4392913.0,1313748158.0,60701265652.5,100902135647.50002
sz300782,卓胜微,2021-11-16,301.5,310.0,299.02,302.89,302.5,5007012.0,1528721296.0,60779525135.49,101032224351.31
sz300782,卓胜微,2021-11-17,304.68,307.0,298.8,305.76,302.89,3419124.0,1037180873.0,61355434664.16,101989543787.04
sz300782,卓胜微,2021-11-18,305.88,308.82,303.61,303.85,305.76,3040768.0,931103239.0,60972163862.85,101352442699.15
sz300782,卓胜微,2021-11-19,302.0,306.78,299.0,300.36,303.85,3952040.0,1190721478.0,60271841822.76,100188315580.44
sz300782,卓胜微,2021-11-22,300.01,327.5,300.0,325.67,300.36,11179015.0,3567479469.0,65350681603.47,108630738896.93
sz300782,卓胜微,2021-11-23,328.21,332.32,322.67,330.0,325.67,5732307.0,1886298108.0,66219562529.99999,110075057070.0
sz300782,卓胜微,2021-11-24,330.0,349.37,327.88,338.91,330.0,7722990.0,2612940220.0,68007490718.31,113047083610.89
sz300782,卓胜微,2021-11-25,349.57,385.0,343.19,382.93,338.91,12506376.0,4624575555.0,76840779029.13,127730429102.47
sz300782,卓胜微,2021-11-26,376.39,376.48,360.09,365.02,382.93,7261334.0,2662456391.0,73246862771.81999,121756355550.58
sz300782,卓胜微,2021-11-29,358.8,377.28,356.5,375.14,365.02,6140949.0,2265708279.0,75277596022.73999,125131990634.06
sz300782,卓胜微,2021-11-30,375.32,384.45,371.3,374.8,375.14,4395974.0,1657278503.0,75209369806.8,125018579969.20001
sz300782,卓胜微,2021-12-01,374.95,377.77,366.66,368.99,374.8,3324006.0,1230801165.0,74043504175.59,123080591843.20999
sz300782,卓胜微,2021-12-02,366.04,375.3,366.0,369.01,368.99,2364486.0,876332009.0,74047517482.41,123087263058.79001
sz300782,卓胜微,2021-12-03,372.2,385.0,371.35,372.62,369.01,4234293.0,1602544016.0,74771919363.42,124291417470.98001
sz300782,卓胜微,2021-12-06,370.28,374.96,365.05,365.26,372.62,2877822.0,1064510924.0,73295022453.66,121836410137.54001
sz300782,卓胜微,2021-12-07,371.73,373.0,353.81,357.83,365.26,3541919.0,1272465803.0,71804078970.03,119358053549.56999
sz300782,卓胜微,2021-12-08,355.02,369.5,355.02,363.27,357.83,2826646.0,1027707003.0,72895698425.07,121172624187.33
sz300782,卓胜微,2021-12-09,362.47,369.99,358.99,363.1,363.27,2579737.0,940961085.0,72861585317.09999,121115918854.90001
sz300782,卓胜微,2021-12-10,361.08,374.2,356.66,363.09,363.1,4533305.0,1643043529.0,72859578663.69,121112583247.11
sz300782,卓胜微,2021-12-13,371.0,372.18,359.01,364.0,363.09,3157186.0,1153462543.0,73042184124.0,121416123556.0
sz300782,卓胜微,2021-12-14,364.0,369.88,361.2,364.95,364.0,2454916.0,897650211.0,73232816197.95,121733006296.05
sz300782,卓胜微,2021-12-15,362.8,367.8,355.88,357.0,364.95,2915318.0,1048615942.0,71637526737.0,119081198103.0
sz300782,卓胜微,2021-12-16,356.9,358.3,340.03,341.89,357.0,4005646.0,1385814870.0,68605473434.490005,114041094732.31001
sz300782,卓胜微,2021-12-17,340.98,352.78,340.0,343.0,341.89,3040980.0,1050102467.0,68828211963.0,114411347197.0
sz300782,卓胜微,2021-12-20,340.01,343.99,336.2,336.7,343.0,2176597.0,738300879.0,67564020314.7,112309914289.29999
sz300782,卓胜微,2021-12-21,338.7,346.0,336.56,342.5,336.7,1924723.0,656907547.0,68727879292.5,114244566807.5
sz300782,卓胜微,2021-12-22,347.8,348.68,334.7,334.97,342.5,2803535.0,954790903.0,67216869274.770004,111732854141.63
sz300782,卓胜微,2021-12-23,334.18,339.8,330.01,337.68,334.97,2291524.0,767690835.0,67760672348.880005,112636803852.72
sz300782,卓胜微,2021-12-24,336.78,345.59,335.08,342.45,337.68,2282259.0,779444874.0,68717846025.45,114227888768.55
sz300782,卓胜微,2021-12-27,342.44,354.6,341.0,346.5,342.45,2156753.0,750270236.0,69530540656.5,115578809923.50002
sz300782,卓胜微,2021-12-28,348.0,351.56,341.2,345.07,346.5,1743368.0,599610626.0,69243589218.87,115101818009.53001
sz300782,卓胜微,2021-12-29,343.0,348.8,332.41,333.6,345.07,3324518.0,1121873411.0,66941957757.6,111275875874.40001
sz300782,卓胜微,2021-12-30,334.88,338.0,331.52,334.92,333.6,2414592.0,807712352.0,67206836007.72,111716176102.68001
sz300782,卓胜微,2021-12-31,335.0,335.8,313.98,326.8,334.92,4162934.0,1342712345.0,65577433438.799995,109007662577.2
sz300782,卓胜微,2022-01-04,324.3,330.93,318.28,328.6,326.8,3041053.0,989830401.0,65938631052.6,109608071979.4
sz300782,卓胜微,2022-01-05,326.31,331.5,316.58,318.0,328.6,2806828.0,900814937.0,63811578438.0,106072327722.0
sz300782,卓胜微,2022-01-06,316.5,322.7,312.05,313.0,318.0,2648519.0,835783768.0,62808251733.0,104404523827.0
sz300782,卓胜微,2022-01-07,314.0,328.68,308.47,322.2,313.0,3304874.0,1056714341.0,64654372870.2,107473282993.8
sz300782,卓胜微,2022-01-10,318.0,322.93,312.2,314.68,322.2,2291490.0,724942817.0,63145369505.88,104964905935.72
sz300782,卓胜微,2022-01-11,315.49,321.5,311.0,316.0,314.68,2272252.0,716771042.0,63410247756.0,105405206164.0
sz300782,卓胜微,2022-01-12,314.0,316.0,297.01,303.9,316.0,6016796.0,1816453132.0,60982197129.9,101369120738.1
sz300782,卓胜微,2022-01-13,303.29,304.5,299.0,300.95,303.9,2059930.0,620219894.0,60390234373.95,100385116440.05
sz300782,卓胜微,2022-01-14,298.02,303.64,297.66,298.02,300.95,2860816.0,858200357.0,59802284924.82,99407783357.58
