数据由邢不行整理
股票代码,股票名称,交易日期,开盘价,最高价,最低价,收盘价,前收盘价,成交量,成交额,流通市值,总市值
sz300840,N酷特,2020-07-08,7.13,8.55,7.13,8.55,5.94,118016.0,1006452.0,513000000.0,2052000000.0
sz300840,酷特智能,2020-07-09,9.41,9.41,9.41,9.41,8.55,19022.0,178997.0,564600000.0,2258400000.0
sz300840,酷特智能,2020-07-10,10.35,10.35,10.35,10.35,9.41,40895.0,423263.0,621000000.0,2484000000.0
sz300840,酷特智能,2020-07-13,11.39,11.39,11.39,11.39,10.35,45073.0,513381.0,683400000.0,2733600000.0
sz300840,酷特智能,2020-07-14,12.53,12.53,12.53,12.53,11.39,116292.0,1457139.0,751800000.0,3007200000.0
sz300840,酷特智能,2020-07-15,13.78,13.78,13.78,13.78,12.53,113086.0,1558325.0,826800000.0,3307200000.0
sz300840,酷特智能,2020-07-16,15.16,15.16,15.16,15.16,13.78,150002.0,2274030.0,909600000.0,3638400000.0
sz300840,酷特智能,2020-07-17,16.68,16.68,16.68,16.68,15.16,286456.0,4778086.0,1000800000.0,4003200000.0
sz300840,酷特智能,2020-07-20,18.35,18.35,18.35,18.35,16.68,270349.0,4960904.0,1101000000.0,4404000000.0
sz300840,酷特智能,2020-07-21,20.19,20.19,20.19,20.19,18.35,225961.0,4562153.0,1211400000.0,4845600000.0
sz300840,酷特智能,2020-07-22,22.21,22.21,22.21,22.21,20.19,196729.0,4369351.0,1332600000.0,5330400000.0
sz300840,酷特智能,2020-07-23,24.43,24.43,24.43,24.43,22.21,323858.0,7911851.0,1465800000.0,5863200000.0
sz300840,酷特智能,2020-07-24,26.87,26.87,21.99,25.79,24.43,44501517.0,1082332706.0,1547400000.0,6189600000.0
sz300840,酷特智能,2020-07-27,24.12,24.55,23.21,23.21,25.79,9978496.0,235461701.0,1392600000.0,5570400000.0
sz300840,酷特智能,2020-07-28,22.0,22.44,20.89,22.2,23.21,25000255.0,536596555.0,1332000000.0,5328000000.0
sz300840,酷特智能,2020-07-29,21.79,24.41,21.53,23.25,22.2,24830456.0,564050540.0,1395000000.0,5580000000.0
sz300840,酷特智能,2020-07-30,22.81,24.25,22.15,23.87,23.25,26075349.0,602568008.0,1432200000.0,5728800000.0
sz300840,酷特智能,2020-07-31,23.61,23.99,22.78,22.8,23.87,21444608.0,499337810.0,1368000000.0,5472000000.0
sz300840,酷特智能,2020-08-03,23.09,23.51,21.81,22.89,22.8,21222520.0,483482448.0,1373400000.0,5493600000.0
sz300840,酷特智能,2020-08-04,22.96,25.18,22.53,25.18,22.89,32955634.0,797145127.0,1510800000.0,6043200000.0
sz300840,酷特智能,2020-08-05,24.2,24.35,22.66,23.17,25.18,28215431.0,650012756.0,1390200000.0,5560800000.0
sz300840,酷特智能,2020-08-06,22.8,23.2,21.65,21.89,23.17,15716817.0,350815225.0,1313400000.0,5253600000.0
sz300840,酷特智能,2020-08-07,21.89,22.0,20.89,21.66,21.89,11751169.0,250907690.0,1299600000.0,5198400000.0
sz300840,酷特智能,2020-08-10,21.39,21.76,21.23,21.56,21.66,6429602.0,138253071.0,1293600000.0,5174400000.0
sz300840,酷特智能,2020-08-11,21.59,21.73,19.85,20.01,21.56,10639239.0,221071560.0,1200600000.0,4802400000.0
sz300840,酷特智能,2020-08-12,19.7,19.8,18.64,18.99,20.01,8391671.0,160066211.0,1139400000.0,4557600000.0
sz300840,酷特智能,2020-08-13,19.0,19.15,18.67,18.67,18.99,5160383.0,97671445.0,1120200000.0,4480800000.0
sz300840,酷特智能,2020-08-14,18.57,18.79,17.84,18.66,18.67,6158186.0,112962602.0,1119600000.0,4478400000.0
sz300840,酷特智能,2020-08-17,18.74,19.45,18.56,19.25,18.66,5996910.0,114641953.0,1155000000.0,4620000000.0
sz300840,酷特智能,2020-08-18,19.19,19.7,19.19,19.52,19.25,5290477.0,103109892.0,1171200000.0,4684800000.0
sz300840,酷特智能,2020-08-19,19.53,20.59,19.35,19.91,19.52,7552474.0,151458581.0,1194600000.0,4778400000.0
sz300840,酷特智能,2020-08-20,19.92,20.0,18.91,19.0,19.91,5130692.0,98680070.0,1140000000.0,4560000000.0
sz300840,酷特智能,2020-08-21,19.18,19.94,19.03,19.4,19.0,5687859.0,110553218.0,1164000000.0,4656000000.0
sz300840,酷特智能,2020-08-24,19.37,19.37,18.0,18.69,19.4,5581718.0,103571346.0,1121400000.0,4485600000.0
sz300840,酷特智能,2020-08-25,18.42,20.51,18.41,20.1,18.69,11142016.0,218127863.0,1206000000.0,4824000000.0
sz300840,酷特智能,2020-08-26,20.15,20.41,18.62,18.81,20.1,9012572.0,175371759.0,1128600000.0,4514400000.0
sz300840,酷特智能,2020-08-27,18.79,18.79,17.84,18.24,18.81,6206266.0,112709215.0,1094400000.0,4377600000.0
sz300840,酷特智能,2020-08-28,18.12,19.62,18.11,19.16,18.24,7823752.0,149387609.0,1149600000.0,4598400000.0
sz300840,酷特智能,2020-08-31,19.29,19.85,18.98,19.06,19.16,5671204.0,109990485.0,1143600000.0,4574400000.0
sz300840,酷特智能,2020-09-01,18.87,19.43,18.87,19.22,19.06,3660922.0,70025319.0,1153200000.0,4612800000.0
sz300840,酷特智能,2020-09-02,19.35,19.53,18.49,19.47,19.22,6485600.0,123240842.0,1168200000.0,4672800000.0
sz300840,酷特智能,2020-09-03,19.38,20.3,19.27,19.72,19.47,8168019.0,160959910.0,1183200000.0,4732800000.0
sz300840,酷特智能,2020-09-04,19.27,19.55,18.73,19.41,19.72,4800119.0,92060802.0,1164600000.0,4658400000.0
sz300840,酷特智能,2020-09-07,19.55,20.09,19.11,19.17,19.41,8503177.0,167182209.0,1150200000.0,4600800000.0
sz300840,酷特智能,2020-09-08,19.0,19.35,18.03,18.81,19.17,7706135.0,143466767.0,1128600000.0,4514400000.0
sz300840,酷特智能,2020-09-09,18.6,22.57,18.41,20.96,18.81,24484411.0,506462079.0,1257600000.0,5030400000.0
sz300840,酷特智能,2020-09-10,20.2,21.21,18.0,18.22,20.96,17126676.0,335381895.0,1093200000.0,4372800000.0
sz300840,酷特智能,2020-09-11,17.09,17.5,15.34,16.96,18.22,12014876.0,200537541.0,1017600000.0,4070400000.0
sz300840,酷特智能,2020-09-14,16.8,18.18,16.7,17.31,16.96,7491947.0,130175280.0,1038600000.0,4154400000.0
sz300840,酷特智能,2020-09-15,18.01,20.77,18.01,20.77,17.31,10322163.0,208432266.0,1246200000.0,4984800000.0
sz300840,酷特智能,2020-09-16,24.71,24.92,21.65,24.92,20.77,45021490.0,1066352944.0,1495200000.0,5980800000.0
sz300840,酷特智能,2020-09-17,24.0,28.8,23.61,25.34,24.92,45547856.0,1188123321.0,1520400000.0,6081600000.0
sz300840,酷特智能,2020-09-18,24.12,25.0,22.85,23.1,25.34,28923179.0,689568951.0,1386000000.0,5544000000.0
sz300840,酷特智能,2020-09-21,23.56,24.48,22.11,24.04,23.1,24419257.0,576639853.0,1442400000.0,5769600000.0
sz300840,酷特智能,2020-09-22,23.1,28.55,23.08,26.4,24.04,33329233.0,868506597.0,1584000000.0,6336000000.0
sz300840,酷特智能,2020-09-23,26.02,27.0,25.13,26.95,26.4,24121459.0,633911629.0,1617000000.0,6468000000.0
sz300840,酷特智能,2020-09-24,25.66,26.0,22.2,22.46,26.95,23705042.0,560604922.0,1347600000.0,5390400000.0
sz300840,酷特智能,2020-09-25,22.33,22.78,20.69,21.3,22.46,17442461.0,372843685.0,1278000000.0,5112000000.0
sz300840,酷特智能,2020-09-28,21.14,21.38,18.55,19.03,21.3,15782762.0,309059285.0,1141800000.0,4567200000.0
sz300840,酷特智能,2020-09-29,19.07,19.69,18.55,18.84,19.03,10975265.0,209517633.0,1130400000.0,4521600000.0
sz300840,酷特智能,2020-09-30,18.89,19.17,18.12,18.28,18.84,9185418.0,171303293.0,1096800000.0,4387200000.0
sz300840,酷特智能,2020-10-09,18.82,19.63,18.58,19.56,18.28,10424493.0,199324980.0,1173600000.0,4694400000.0
sz300840,酷特智能,2020-10-12,19.72,21.33,19.3,20.79,19.56,13922941.0,282240857.0,1247400000.0,4989600000.0
sz300840,酷特智能,2020-10-13,20.58,21.78,19.81,21.39,20.79,17414794.0,362870639.0,1283400000.0,5133600000.0
sz300840,酷特智能,2020-10-14,21.0,25.67,20.8,25.67,21.39,32194202.0,785628203.0,1540200000.0,6160800000.0
sz300840,酷特智能,2020-10-15,25.0,30.39,23.77,27.83,25.67,39356079.0,1019848745.0,1669800000.0,6679200000.0
sz300840,酷特智能,2020-10-16,26.01,28.88,25.51,25.69,27.83,31058019.0,831713620.0,1541400000.0,6165600000.0
sz300840,酷特智能,2020-10-19,25.68,27.5,25.03,25.86,25.69,22702130.0,596720067.0,1551600000.0,6206400000.0
sz300840,酷特智能,2020-10-20,25.62,28.47,25.6,27.31,25.86,25588570.0,692970182.0,1638600000.0,6554400000.0
sz300840,酷特智能,2020-10-21,26.66,31.97,26.66,28.43,27.31,33263800.0,964926717.0,1705800000.0,6823200000.0
sz300840,酷特智能,2020-10-22,27.25,29.6,25.11,28.31,28.43,24574941.0,673958903.0,1698600000.0,6794400000.0
sz300840,酷特智能,2020-10-23,28.4,29.1,26.0,26.5,28.31,19713576.0,536735048.0,1590000000.0,6360000000.0
sz300840,酷特智能,2020-10-26,25.59,26.99,25.02,26.32,26.5,13799357.0,358512689.0,1579200000.0,6316800000.0
sz300840,酷特智能,2020-10-27,25.74,27.48,25.58,26.13,26.32,14768814.0,391685822.0,1567800000.0,6271200000.0
sz300840,酷特智能,2020-10-28,25.51,26.8,24.7,25.91,26.13,13919126.0,358275142.0,1554600000.0,6218400000.0
sz300840,酷特智能,2020-10-29,25.02,27.79,25.02,26.2,25.91,15856932.0,422066168.0,1572000000.0,6288000000.0
sz300840,酷特智能,2020-10-30,25.29,26.65,23.1,23.12,26.2,15527877.0,388765322.0,1387200000.0,5548800000.0
sz300840,酷特智能,2020-11-02,22.94,25.97,22.81,24.9,23.12,14340504.0,355154059.0,1494000000.0,5976000000.0
sz300840,酷特智能,2020-11-03,25.39,27.43,25.11,26.35,24.9,14133729.0,373149058.0,1581000000.0,6324000000.0
sz300840,酷特智能,2020-11-04,27.0,27.3,25.31,26.53,26.35,11557455.0,301694168.0,1591800000.0,6367200000.0
sz300840,酷特智能,2020-11-05,26.69,28.25,26.21,27.49,26.53,15645864.0,426608037.0,1649400000.0,6597600000.0
sz300840,酷特智能,2020-11-06,27.33,27.72,25.51,25.69,27.49,10838519.0,285773842.0,1541400000.0,6165600000.0
sz300840,酷特智能,2020-11-09,25.79,26.84,25.69,26.14,25.69,8616863.0,225750274.0,1568400000.0,6273600000.0
sz300840,酷特智能,2020-11-10,26.0,26.0,24.12,24.31,26.14,9205950.0,227289263.0,1458600000.0,5834400000.0
sz300840,酷特智能,2020-11-11,24.06,24.5,23.2,23.28,24.31,5361015.0,126991275.0,1396800000.0,5587200000.0
sz300840,酷特智能,2020-11-12,23.53,24.33,23.39,23.86,23.28,5823052.0,138834333.0,1431600000.0,5726400000.0
sz300840,酷特智能,2020-11-13,23.52,23.95,23.32,23.55,23.86,3608176.0,85242496.0,1413000000.0,5652000000.0
sz300840,酷特智能,2020-11-16,24.4,25.1,23.55,23.84,23.55,7588385.0,183626223.0,1430400000.0,5721600000.0
sz300840,酷特智能,2020-11-17,23.11,23.67,22.6,23.26,23.84,7142364.0,164895705.0,1395600000.0,5582400000.0
sz300840,酷特智能,2020-11-18,23.3,23.78,23.12,23.26,23.26,5218604.0,122296383.0,1395600000.0,5582400000.0
sz300840,酷特智能,2020-11-19,22.9,24.23,22.65,23.8,23.26,8453458.0,200395175.0,1428000000.0,5712000000.0
sz300840,酷特智能,2020-11-20,23.35,24.18,23.03,23.16,23.8,6856446.0,160040355.0,1389600000.0,5558400000.0
sz300840,酷特智能,2020-11-23,23.34,23.34,21.54,22.02,23.16,8898324.0,196589431.0,1321200000.0,5284800000.0
sz300840,酷特智能,2020-11-24,21.81,22.07,21.21,21.36,22.02,5681385.0,122489012.0,1281600000.0,5126400000.0
sz300840,酷特智能,2020-11-25,21.5,21.51,20.58,20.61,21.36,4865600.0,101925052.0,1236600000.0,4946400000.0
sz300840,酷特智能,2020-11-26,20.61,20.85,20.18,20.83,20.61,4094168.0,84285521.0,1249800000.0,4999200000.0
sz300840,酷特智能,2020-11-27,20.9,20.99,20.19,20.3,20.83,3737100.0,76325160.0,1218000000.0,4872000000.0
sz300840,酷特智能,2020-11-30,20.18,20.63,19.85,19.98,20.3,3691826.0,74664205.0,1198800000.0,4795200000.0
sz300840,酷特智能,2020-12-01,19.84,21.25,19.81,21.23,19.98,7491380.0,156926034.0,1273800000.0,5095200000.0
sz300840,酷特智能,2020-12-02,21.4,21.4,20.8,20.91,21.23,4255900.0,89474814.0,1254600000.0,5018400000.0
sz300840,酷特智能,2020-12-03,20.84,22.3,20.84,21.88,20.91,6886126.0,149162966.0,1312800000.0,5251200000.0
sz300840,酷特智能,2020-12-04,21.63,21.77,21.17,21.45,21.88,3891847.0,83263954.0,1287000000.0,5148000000.0
sz300840,酷特智能,2020-12-07,21.25,21.4,20.63,20.89,21.45,4218278.0,88351957.0,1253400000.0,5013600000.0
sz300840,酷特智能,2020-12-08,21.0,21.16,20.67,20.67,20.89,2603800.0,54407305.0,1240200000.0,4960800000.0
sz300840,酷特智能,2020-12-09,20.48,20.99,20.0,20.0,20.67,3365978.0,69182855.0,1200000000.0,4800000000.0
sz300840,酷特智能,2020-12-10,19.97,20.86,19.97,20.5,20.0,3214605.0,65868797.0,1230000000.0,4920000000.0
sz300840,酷特智能,2020-12-11,20.64,20.65,19.4,19.73,20.5,4309372.0,85630414.0,1183800000.0,4735200000.0
sz300840,酷特智能,2020-12-14,20.1,21.43,19.91,20.64,19.73,6390711.0,132632351.0,1238400000.0,4953600000.0
sz300840,酷特智能,2020-12-15,20.7,21.94,20.62,20.65,20.64,9084885.0,192694752.0,1239000000.0,4956000000.0
sz300840,酷特智能,2020-12-16,20.32,20.56,19.21,19.35,20.65,7505185.0,148621154.0,1161000000.0,4644000000.0
sz300840,酷特智能,2020-12-17,18.31,19.6,18.31,19.28,19.35,5590365.0,106241700.0,1156800000.0,4627200000.0
sz300840,酷特智能,2020-12-18,19.32,19.5,18.67,18.77,19.28,3796800.0,71987065.0,1126200000.0,4504800000.0
sz300840,酷特智能,2020-12-21,18.82,19.15,18.39,18.49,18.77,4081348.0,75850650.0,1109400000.0,4437600000.0
sz300840,酷特智能,2020-12-22,18.8,19.3,18.42,18.76,18.49,7116683.0,135233620.0,1125600000.0,4502400000.0
sz300840,酷特智能,2020-12-23,19.06,19.95,18.41,18.59,18.76,6732061.0,127903614.0,1115400000.0,4461600000.0
sz300840,酷特智能,2020-12-24,18.14,18.31,17.38,17.46,18.59,7050631.0,124854637.0,1047600000.0,4190400000.0
sz300840,酷特智能,2020-12-25,17.41,18.13,17.39,17.66,17.46,4057490.0,72007081.0,1059600000.0,4238400000.0
sz300840,酷特智能,2020-12-28,17.99,18.28,17.49,17.61,17.66,3318926.0,58913250.0,1056600000.0,4226400000.0
sz300840,酷特智能,2020-12-29,17.44,17.83,17.09,17.1,17.61,4069875.0,70903687.0,1026000000.0,4104000000.0
sz300840,酷特智能,2020-12-30,17.1,17.18,16.73,16.84,17.1,3763785.0,63755610.0,1010400000.0,4041600000.0
sz300840,酷特智能,2020-12-31,16.86,17.46,16.84,16.92,16.84,3908207.0,66877785.0,1015200000.0,4060800000.0
sz300840,酷特智能,2021-01-04,16.92,17.32,16.86,17.25,16.92,3755411.0,64275389.0,1035000000.0,4140000000.0
sz300840,酷特智能,2021-01-05,17.21,17.38,16.73,17.29,17.25,4347085.0,74215432.0,1037400000.0,4149600000.0
sz300840,酷特智能,2021-01-06,17.28,17.97,16.74,17.62,17.29,6960592.0,121358463.0,1057200000.0,4228800000.0
sz300840,酷特智能,2021-01-07,17.2,17.5,16.01,16.21,17.62,7386812.0,121359830.0,972600000.0,3890400000.0
sz300840,酷特智能,2021-01-08,15.96,16.34,15.42,15.92,16.21,4396437.0,70189590.0,955200000.0,3820800000.0
sz300840,酷特智能,2021-01-11,16.15,16.38,15.07,15.15,15.92,4921700.0,76140404.0,909000000.0,3636000000.0
sz300840,酷特智能,2021-01-12,14.99,15.63,14.5,14.74,15.15,5227178.0,77702643.0,884400000.0,3537600000.0
sz300840,酷特智能,2021-01-13,14.83,14.83,13.76,13.8,14.74,6110300.0,85817868.0,828000000.0,3312000000.0
sz300840,酷特智能,2021-01-14,14.08,14.5,13.8,14.09,13.8,5188526.0,73456009.0,845400000.0,3381600000.0
sz300840,酷特智能,2021-01-15,14.03,15.45,13.98,15.01,14.09,7892864.0,117459720.0,900600000.0,3602400000.0
sz300840,酷特智能,2021-01-18,15.02,15.55,14.9,15.26,15.01,4956826.0,75645543.0,915600000.0,3662400000.0
sz300840,酷特智能,2021-01-19,15.55,15.98,15.31,15.92,15.26,5742752.0,90259551.0,955200000.0,3820800000.0
sz300840,酷特智能,2021-01-20,15.83,16.18,15.34,15.51,15.92,4266800.0,66693625.0,930600000.0,3722400000.0
sz300840,酷特智能,2021-01-21,15.65,15.88,15.29,15.5,15.51,3238116.0,50380830.0,930000000.0,3720000000.0
sz300840,酷特智能,2021-01-22,15.6,15.63,15.09,15.2,15.5,2923942.0,44540651.0,912000000.0,3648000000.0
sz300840,酷特智能,2021-01-25,15.5,15.55,14.52,14.68,15.2,2968200.0,43825154.0,880800000.0,3523200000.0
sz300840,酷特智能,2021-01-26,14.66,15.05,14.46,14.54,14.68,2385900.0,35174673.0,872400000.0,3489600000.0
sz300840,酷特智能,2021-01-27,14.5,14.94,14.38,14.7,14.54,2384226.0,34886055.0,882000000.0,3528000000.0
sz300840,酷特智能,2021-01-28,14.33,15.25,14.33,14.37,14.7,3549785.0,52540241.0,862200000.0,3448800000.0
sz300840,酷特智能,2021-01-29,14.45,14.63,14.0,14.31,14.37,2641815.0,37655264.0,858600000.0,3434400000.0
sz300840,酷特智能,2021-02-01,14.29,14.95,14.14,14.95,14.31,3218712.0,47226117.0,897000000.0,3588000000.0
sz300840,酷特智能,2021-02-02,14.88,15.09,14.6,14.64,14.95,2485200.0,36758220.0,878400000.0,3513600000.0
sz300840,酷特智能,2021-02-03,14.64,14.64,13.75,13.81,14.64,2820485.0,39593423.0,828600000.0,3314400000.0
sz300840,酷特智能,2021-02-04,13.69,13.83,12.8,13.08,13.81,2928426.0,38760313.0,784800000.0,3139200000.0
sz300840,酷特智能,2021-02-05,13.08,13.5,12.88,12.88,13.08,1863900.0,24580334.0,772800000.0,3091200000.0
sz300840,酷特智能,2021-02-08,13.05,13.55,12.88,12.92,12.88,1913182.0,25196114.0,775200000.0,3100800000.0
sz300840,酷特智能,2021-02-09,12.72,13.24,12.55,13.0,12.92,2031615.0,26250260.0,780000000.0,3120000000.0
sz300840,酷特智能,2021-02-10,13.11,13.35,13.05,13.17,13.0,1544726.0,20349346.0,790200000.0,3160800000.0
sz300840,酷特智能,2021-02-18,13.4,13.67,13.21,13.49,13.17,2025685.0,27339736.0,809400000.0,3237600000.0
sz300840,酷特智能,2021-02-19,13.52,13.88,13.45,13.84,13.49,2275485.0,31100829.0,830400000.0,3321600000.0
sz300840,酷特智能,2021-02-22,13.77,14.28,13.7,14.13,13.84,2834116.0,39812116.0,847800000.0,3391200000.0
sz300840,酷特智能,2021-02-23,13.92,14.16,13.6,13.71,14.13,2197299.0,30322232.0,822600000.0,3290400000.0
sz300840,酷特智能,2021-02-24,13.66,14.06,13.65,13.88,13.71,2006195.0,27863418.0,832800000.0,3331200000.0
sz300840,酷特智能,2021-02-25,13.88,15.93,13.69,14.86,13.88,9295074.0,139305540.0,891600000.0,3566400000.0
sz300840,酷特智能,2021-02-26,14.68,15.33,14.33,15.28,14.86,8039704.0,121087396.0,916800000.0,3667200000.0
sz300840,酷特智能,2021-03-01,15.08,15.28,14.59,14.93,15.28,5893611.0,87525937.0,895800000.0,3583200000.0
sz300840,酷特智能,2021-03-02,14.87,14.93,14.19,14.43,14.93,4318170.0,62595799.0,865800000.0,3463200000.0
sz300840,酷特智能,2021-03-03,14.16,14.46,14.08,14.33,14.43,3040600.0,43338108.0,859800000.0,3439200000.0
sz300840,酷特智能,2021-03-04,14.39,14.57,13.47,13.51,14.33,4798600.0,66757181.0,810600000.0,3242400000.0
sz300840,酷特智能,2021-03-05,13.34,14.88,13.28,14.53,13.51,7011070.0,99064530.0,871800000.0,3487200000.0
sz300840,酷特智能,2021-03-08,14.4,14.8,14.01,14.07,14.53,3723500.0,53494818.0,844200000.0,3376800000.0
sz300840,酷特智能,2021-03-09,14.08,15.09,13.91,15.02,14.07,8622270.0,126480553.0,901200000.0,3604800000.0
sz300840,酷特智能,2021-03-10,14.89,15.19,14.4,14.84,15.02,6944244.0,102525949.0,890400000.0,3561600000.0
sz300840,酷特智能,2021-03-11,14.73,14.84,13.82,14.5,14.84,5991855.0,85383018.0,870000000.0,3480000000.0
sz300840,酷特智能,2021-03-12,14.24,14.4,13.71,13.9,14.5,5135116.0,71581770.0,834000000.0,3336000000.0
sz300840,酷特智能,2021-03-15,13.78,13.87,13.36,13.6,13.9,2780585.0,37671611.0,816000000.0,3264000000.0
sz300840,酷特智能,2021-03-16,13.51,13.81,13.5,13.6,13.6,2220400.0,30247030.0,816000000.0,3264000000.0
sz300840,酷特智能,2021-03-17,13.64,14.56,13.41,14.28,13.6,6063212.0,85477480.0,856800000.0,3427200000.0
sz300840,酷特智能,2021-03-18,14.82,16.12,14.56,14.6,14.28,10639085.0,161153538.0,876000000.0,3504000000.0
sz300840,酷特智能,2021-03-19,14.43,17.25,14.43,16.13,14.6,20159030.0,322904822.0,967800000.0,3871200000.0
sz300840,酷特智能,2021-03-22,15.9,16.13,15.54,15.73,16.13,12955101.0,204304824.0,943800000.0,3775200000.0
sz300840,酷特智能,2021-03-23,15.66,15.78,14.78,14.93,15.73,8767100.0,133064346.0,895800000.0,3583200000.0
sz300840,酷特智能,2021-03-24,14.86,15.68,14.82,15.33,14.93,8801223.0,133943883.0,919800000.0,3679200000.0
sz300840,酷特智能,2021-03-25,16.75,16.89,15.45,15.51,15.33,11158764.0,178825994.0,930600000.0,3722400000.0
sz300840,酷特智能,2021-03-26,15.39,16.98,15.39,16.15,15.51,12223675.0,198340919.0,969000000.0,3876000000.0
sz300840,酷特智能,2021-03-29,15.95,16.27,15.5,15.77,16.15,9012326.0,142196560.0,946200000.0,3784800000.0
sz300840,酷特智能,2021-03-30,15.6,15.69,14.84,15.04,15.77,7842526.0,118786644.0,902400000.0,3609600000.0
sz300840,酷特智能,2021-03-31,14.91,15.22,14.65,14.97,15.04,4899100.0,72629954.0,898200000.0,3592800000.0
sz300840,酷特智能,2021-04-01,14.96,15.1,14.5,14.52,14.97,4514419.0,66125342.0,871200000.0,3484800000.0
sz300840,酷特智能,2021-04-02,14.42,15.05,14.14,14.96,14.52,6427519.0,93869942.0,897600000.0,3590400000.0
sz300840,酷特智能,2021-04-06,14.8,15.95,14.71,15.82,14.96,8849245.0,136744837.0,949200000.0,3796800000.0
sz300840,酷特智能,2021-04-07,15.64,17.0,15.55,16.99,15.82,11977226.0,195778722.0,1019400000.0,4077600000.0
sz300840,酷特智能,2021-04-08,16.81,17.1,16.27,17.06,16.99,9078426.0,150568001.0,1023600000.0,4094400000.0
sz300840,酷特智能,2021-04-09,17.14,19.3,16.52,17.2,17.06,17697400.0,315628544.0,1032000000.0,4128000000.0
sz300840,酷特智能,2021-04-12,16.49,17.89,16.06,16.4,17.2,12244926.0,204438326.0,984000000.0,3936000000.0
sz300840,酷特智能,2021-04-13,16.61,16.8,15.64,15.84,16.4,8962781.0,144808946.0,950400000.0,3801600000.0
sz300840,酷特智能,2021-04-14,15.7,15.85,15.3,15.75,15.84,5677381.0,88663047.0,945000000.0,3780000000.0
sz300840,酷特智能,2021-04-15,15.7,15.85,15.05,15.06,15.75,5385547.0,82046137.0,903600000.0,3614400000.0
sz300840,酷特智能,2021-04-16,15.0,16.01,14.98,15.77,15.06,5385100.0,83886621.0,946200000.0,3784800000.0
sz300840,酷特智能,2021-04-19,15.77,16.0,15.5,15.66,15.77,4554091.0,71505034.0,939600000.0,3758400000.0
sz300840,酷特智能,2021-04-20,15.65,16.25,15.27,15.36,15.66,5411300.0,84948853.0,921600000.0,3686400000.0
sz300840,酷特智能,2021-04-21,15.23,15.84,15.13,15.57,15.36,4291491.0,66373441.0,934200000.0,3736800000.0
sz300840,酷特智能,2021-04-22,15.5,15.73,15.23,15.25,15.57,3479885.0,53564914.0,915000000.0,3660000000.0
sz300840,酷特智能,2021-04-23,15.27,15.3,14.73,14.8,15.25,3582500.0,53463712.0,888000000.0,3552000000.0
sz300840,酷特智能,2021-04-26,14.55,14.55,13.95,14.02,14.8,4737000.0,67040159.0,841198598.0,3364800000.0
sz300840,酷特智能,2021-04-27,14.01,14.36,13.83,14.23,14.02,3073726.0,43461263.0,853798576.9999999,3415200000.0
sz300840,酷特智能,2021-04-28,14.13,14.2,13.82,13.88,14.23,2526452.0,35337524.0,832798612.0,3331200000.0
sz300840,酷特智能,2021-04-29,13.81,14.06,13.33,13.35,13.88,3021700.0,41329547.0,800998665.0,3204000000.0
sz300840,酷特智能,2021-04-30,13.37,13.63,13.26,13.56,13.35,2016900.0,27141608.0,813598644.0,3254400000.0
sz300840,酷特智能,2021-05-06,13.62,13.87,13.5,13.7,13.56,1670566.0,23001575.0,821998630.0,3288000000.0
sz300840,酷特智能,2021-05-07,13.8,13.83,13.35,13.39,13.7,1970500.0,26519002.0,803398661.0,3213600000.0
sz300840,酷特智能,2021-05-10,13.4,13.45,13.08,13.14,13.39,1401652.0,18557229.0,788398686.0,3153600000.0
sz300840,酷特智能,2021-05-11,13.15,13.42,13.14,13.33,13.14,1304496.0,17351273.0,799798667.0,3199200000.0
sz300840,酷特智能,2021-05-12,13.33,13.59,13.17,13.5,13.33,1708796.0,22796220.0,809998650.0,3240000000.0
sz300840,酷特智能,2021-05-13,13.33,13.75,13.32,13.5,13.5,1752172.0,23703682.0,809998650.0,3240000000.0
sz300840,酷特智能,2021-05-14,13.94,14.31,13.84,13.86,13.5,3195500.0,44897789.0,831598614.0,3326400000.0
sz300840,酷特智能,2021-05-17,13.65,13.95,13.33,13.84,13.86,2606600.0,35426959.0,830398616.0,3321600000.0
sz300840,酷特智能,2021-05-18,13.77,13.93,13.61,13.68,13.84,1607000.0,22076244.0,820798632.0000001,3283200000.0
sz300840,酷特智能,2021-05-19,13.78,13.81,13.4,13.41,13.68,1837400.0,24890645.0,804598659.0,3218400000.0
sz300840,酷特智能,2021-05-20,13.38,13.47,13.15,13.21,13.41,1500700.0,19877151.0,792598679.0,3170400000.0
sz300840,酷特智能,2021-05-21,13.21,13.7,13.21,13.41,13.21,1908300.0,25734236.0,804598659.0,3218400000.0
sz300840,酷特智能,2021-05-24,13.31,13.56,13.3,13.53,13.41,1179291.0,15873015.0,811798647.0,3247200000.0
sz300840,酷特智能,2021-05-25,13.65,13.65,13.4,13.56,13.53,1605852.0,21685785.0,813598644.0,3254400000.0
sz300840,酷特智能,2021-05-26,13.57,15.1,13.51,14.44,13.56,6236000.0,89361104.0,866398556.0,3465600000.0
sz300840,酷特智能,2021-05-27,14.45,14.45,14.0,14.16,14.44,4119885.0,58299933.0,849598584.0,3398400000.0
sz300840,酷特智能,2021-05-28,14.1,14.55,14.1,14.32,14.16,3434076.0,49155347.0,859198568.0,3436800000.0
sz300840,酷特智能,2021-05-31,14.41,14.97,14.38,14.88,14.32,5926976.0,87541390.0,892798512.0,3571200000.0
sz300840,酷特智能,2021-06-01,15.0,15.5,14.73,14.74,14.88,7589834.0,114452979.0,884398526.0,3537600000.0
sz300840,酷特智能,2021-06-02,14.53,15.44,14.53,15.25,14.74,8004076.0,121090963.0,914998475.0,3660000000.0
sz300840,酷特智能,2021-06-03,14.77,14.98,14.36,14.5,15.25,6227589.0,91199041.0,869998550.0,3480000000.0
sz300840,酷特智能,2021-06-04,14.39,14.59,14.03,14.21,14.5,3710891.0,52825387.0,852598579.0,3410400000.0
sz300840,酷特智能,2021-06-07,14.2,14.26,14.01,14.18,14.21,2119400.0,29855616.0,850798582.0,3403200000.0
sz300840,酷特智能,2021-06-08,14.2,14.63,14.06,14.36,14.18,3036891.0,43398048.0,861598564.0,3446400000.0
sz300840,酷特智能,2021-06-09,14.23,14.27,13.85,13.94,14.36,3079191.0,43304493.0,836398606.0,3345600000.0
sz300840,酷特智能,2021-06-10,13.94,14.53,13.81,14.36,13.92,4030591.0,57256899.0,861598564.0,3446400000.0
sz300840,酷特智能,2021-06-11,15.41,17.02,15.22,15.25,14.36,15035596.0,237945899.0,914998475.0,3660000000.0
sz300840,酷特智能,2021-06-15,14.96,15.98,14.73,15.53,15.25,10064996.0,154937836.0,931798447.0,3727200000.0
sz300840,酷特智能,2021-06-16,15.05,15.33,14.31,14.49,15.53,7746526.0,113694876.0,869398551.0,3477600000.0
sz300840,酷特智能,2021-06-17,14.47,14.73,14.32,14.56,14.49,3615726.0,52591812.0,873598544.0,3494400000.0
sz300840,酷特智能,2021-06-18,14.35,14.68,14.03,14.64,14.56,4123526.0,58991990.0,878398536.0,3513600000.0
sz300840,酷特智能,2021-06-21,14.37,14.9,14.33,14.8,14.64,3777526.0,55291205.0,887998520.0,3552000000.0
sz300840,酷特智能,2021-06-22,14.81,15.33,14.7,14.85,14.8,4225200.0,63366206.0,890998515.0,3564000000.0
sz300840,酷特智能,2021-06-23,14.76,15.1,14.55,15.06,14.85,3573726.0,52974700.0,903598494.0,3614400000.0
sz300840,酷特智能,2021-06-24,15.06,15.09,14.39,14.46,15.06,3565717.0,52119428.0,867598554.0,3470400000.0
sz300840,酷特智能,2021-06-25,14.5,15.18,14.3,14.97,14.46,5359658.0,79891635.0,898198503.0,3592800000.0
sz300840,酷特智能,2021-06-28,14.8,14.89,14.54,14.58,14.97,3379867.0,49533130.0,874798542.0,3499200000.0
sz300840,酷特智能,2021-06-29,14.6,15.23,14.31,14.87,14.58,5193026.0,76488977.0,892198513.0,3568800000.0
sz300840,酷特智能,2021-06-30,15.02,15.09,14.48,14.68,14.87,3634126.0,53334202.0,880798532.0,3523200000.0
sz300840,酷特智能,2021-07-01,14.55,15.65,14.38,15.3,14.68,10733818.0,163253011.0,917998470.0,3672000000.0
sz300840,酷特智能,2021-07-02,15.03,15.46,14.71,15.02,15.3,6649452.0,99903600.0,901198498.0,3604800000.0
sz300840,酷特智能,2021-07-05,15.01,15.14,14.4,14.65,15.02,5283926.0,77363028.0,878998535.0,3516000000.0
sz300840,酷特智能,2021-07-06,14.5,14.5,13.7,13.76,14.65,5882300.0,81861581.0,825598624.0,3302400000.0
sz300840,酷特智能,2021-07-07,13.69,14.1,13.62,13.84,13.76,2905952.0,40223290.0,830398616.0,3321600000.0
sz300840,酷特智能,2021-07-08,13.62,13.85,13.33,13.36,13.84,4040552.0,54556055.0,801598664.0,3206400000.0
sz300840,酷特智能,2021-07-09,13.31,13.53,13.25,13.41,13.36,2085700.0,27881272.0,2069343203.58,3218400000.0
sz300840,酷特智能,2021-07-12,13.54,13.67,13.4,13.63,13.41,1964389.0,26655208.0,2103292159.94,3271200000.0
sz300840,酷特智能,2021-07-13,13.7,13.77,13.49,13.66,13.63,2339258.0,31872406.0,2107921563.08,3278400000.0
sz300840,酷特智能,2021-07-14,13.63,13.77,13.55,13.67,13.66,1625800.0,22244419.0,2109464697.46,3280800000.0
sz300840,酷特智能,2021-07-15,13.67,14.36,13.66,13.96,13.67,3369926.0,47166387.0,2154215594.48,3350400000.0
sz300840,酷特智能,2021-07-16,13.78,13.78,13.45,13.45,13.96,2622600.0,35591618.0,2075515741.1,3228000000.0
sz300840,酷特智能,2021-07-19,13.5,13.55,13.21,13.26,13.45,1468600.0,19520170.0,2046196187.88,3182400000.0
sz300840,酷特智能,2021-07-20,13.18,13.39,13.11,13.36,13.26,1137685.0,15101729.0,2061627531.68,3206400000.0
sz300840,酷特智能,2021-07-21,13.44,13.48,13.28,13.39,13.36,1364526.0,18231730.0,2066256934.82,3213600000.0
sz300840,酷特智能,2021-07-22,13.4,13.4,13.08,13.18,13.39,2601911.0,34254086.0,2033851112.84,3163200000.0
sz300840,酷特智能,2021-07-23,13.21,13.23,12.68,12.71,13.18,2860900.0,36758089.0,1961323796.98,3050400000.0
sz300840,酷特智能,2021-07-26,12.61,12.83,12.54,12.55,12.71,1342100.0,16974116.0,1936633646.9,3012000000.0
sz300840,酷特智能,2021-07-27,12.55,12.66,12.17,12.22,12.55,1925326.0,23747489.0,1885710212.36,2932800000.0
sz300840,酷特智能,2021-07-28,12.22,12.65,11.69,12.33,12.22,2224433.0,26928359.0,1902684690.54,2959200000.0
sz300840,酷特智能,2021-07-29,12.3,12.44,12.18,12.44,12.33,1369400.0,16952082.0,1919659168.72,2985600000.0
sz300840,酷特智能,2021-07-30,12.3,12.85,12.17,12.6,12.44,2207759.0,27580249.0,1944349318.8,3024000000.0
sz300840,酷特智能,2021-08-02,12.5,12.86,12.32,12.8,12.6,1996711.0,25234873.0,1975212006.4,3072000000.0
sz300840,酷特智能,2021-08-03,12.8,13.12,12.73,12.85,12.8,2654385.0,34363524.0,1982927678.3,3084000000.0
sz300840,酷特智能,2021-08-04,12.75,13.0,12.73,12.83,12.85,1341059.0,17225544.0,1979841409.54,3079200000.0
sz300840,酷特智能,2021-08-05,12.66,12.98,12.4,12.4,12.83,1692500.0,21267397.0,1913486631.2,2976000000.0
sz300840,酷特智能,2021-08-06,12.5,12.5,12.25,12.32,12.4,912700.0,11261693.0,1901141556.16,2956800000.0
sz300840,酷特智能,2021-08-09,12.26,12.7,12.26,12.63,12.32,1516200.0,19051598.0,1948978721.94,3031200000.0
sz300840,酷特智能,2021-08-10,12.68,12.83,12.51,12.74,12.63,1858885.0,23542093.0,1965953200.12,3057600000.0
sz300840,酷特智能,2021-08-11,12.74,12.79,12.63,12.7,12.74,1211885.0,15388602.0,1959780662.6,3048000000.0
sz300840,酷特智能,2021-08-12,12.71,12.8,12.68,12.75,12.7,1166169.0,14878918.0,1967496334.5,3060000000.0
sz300840,酷特智能,2021-08-13,12.75,12.83,12.55,12.56,12.75,1340270.0,16968929.0,1938176781.28,3014400000.0
sz300840,酷特智能,2021-08-16,12.56,12.79,12.49,12.74,12.56,1469422.0,18611927.0,1965953200.12,3057600000.0
sz300840,酷特智能,2021-08-17,12.7,12.97,12.6,12.7,12.74,2637726.0,33759716.0,1959780662.6,3048000000.0
sz300840,酷特智能,2021-08-18,12.75,12.76,12.35,12.57,12.7,1409400.0,17710019.0,1939719915.66,3016800000.0
sz300840,酷特智能,2021-08-19,12.57,12.65,12.41,12.42,12.57,1211200.0,15140608.0,1916572899.96,2980800000.0
sz300840,酷特智能,2021-08-20,12.42,12.42,11.96,12.05,12.42,1522600.0,18509371.0,1859476927.9,2892000000.0
sz300840,酷特智能,2021-08-23,12.09,12.47,12.09,12.42,12.05,1377469.0,17044842.0,1916572899.96,2980800000.0
sz300840,酷特智能,2021-08-24,12.6,12.6,12.31,12.39,12.42,973300.0,12091131.0,1911943496.82,2973600000.0
sz300840,酷特智能,2021-08-25,12.45,12.55,12.3,12.38,12.39,1204300.0,14915451.0,1910400362.44,2971200000.0
sz300840,酷特智能,2021-08-26,12.38,12.45,12.13,12.15,12.38,1233026.0,15066798.0,1874908271.7,2916000000.0
sz300840,酷特智能,2021-08-27,12.15,12.18,11.96,11.99,12.15,1158500.0,13927274.0,1850218121.62,2877600000.0
sz300840,酷特智能,2021-08-30,12.02,12.06,11.61,11.64,11.99,1735026.0,20443537.0,1796208418.3200002,2793600000.0
sz300840,酷特智能,2021-08-31,11.56,11.73,11.46,11.63,11.64,1295426.0,14993601.0,1794665283.9399998,2791200000.0
sz300840,酷特智能,2021-09-01,11.75,11.8,11.44,11.78,11.63,1364826.0,15877587.0,1817812299.64,2827200000.0
sz300840,酷特智能,2021-09-02,11.77,11.91,11.62,11.8,11.78,1163703.0,13700699.0,1820898568.4,2832000000.0
sz300840,酷特智能,2021-09-03,11.85,12.03,11.74,11.91,11.8,1334803.0,15874629.0,1837873046.58,2858400000.0
sz300840,酷特智能,2021-09-06,11.86,12.24,11.86,12.13,11.91,1642000.0,19887024.0,1871822002.94,2911200000.0
sz300840,酷特智能,2021-09-07,12.15,12.15,11.99,12.1,12.13,976100.0,11765177.0,1867192599.8,2904000000.0
sz300840,酷特智能,2021-09-08,12.03,12.21,12.03,12.19,12.1,1170405.0,14206741.0,1881080809.22,2925600000.0
sz300840,酷特智能,2021-09-09,12.11,12.17,11.94,11.97,12.19,1365769.0,16436468.0,1847131852.86,2872800000.0
sz300840,酷特智能,2021-09-10,11.98,12.04,11.82,11.84,11.97,1339885.0,15939718.0,1827071105.92,2841600000.0
sz300840,酷特智能,2021-09-13,11.8,12.15,11.75,11.99,11.84,1161101.0,13858790.0,1850218121.62,2877600000.0
sz300840,酷特智能,2021-09-14,12.06,12.14,11.75,11.83,11.99,1129164.0,13467880.0,1825527971.54,2839200000.0
sz300840,酷特智能,2021-09-15,11.75,11.83,11.6,11.78,11.83,854464.0,10032713.0,1817812299.64,2827200000.0
sz300840,酷特智能,2021-09-16,11.8,11.88,11.53,11.58,11.78,996468.0,11649134.0,1786949612.04,2779200000.0
sz300840,酷特智能,2021-09-17,11.64,11.8,11.44,11.69,11.58,1033511.0,11994683.0,1803924090.22,2805600000.0
sz300840,酷特智能,2021-09-22,11.6,11.75,11.51,11.62,11.69,817200.0,9508319.0,1793122149.5600002,2788800000.0
sz300840,酷特智能,2021-09-23,11.64,12.06,11.62,11.92,11.62,1669953.0,19844602.0,1839416180.96,2860800000.0
sz300840,酷特智能,2021-09-24,11.92,11.99,11.68,11.72,11.92,1171252.0,13798857.0,1808553493.36,2812800000.0
sz300840,酷特智能,2021-09-27,11.9,12.03,11.61,11.67,11.72,1265116.0,14914139.0,1800837821.46,2800800000.0
sz300840,酷特智能,2021-09-28,11.95,12.93,11.95,12.27,11.67,4738410.0,59131967.0,1893425884.26,2944800000.0
sz300840,酷特智能,2021-09-29,11.8,11.97,11.7,11.81,12.27,2897720.0,34268521.0,1822441702.78,2834400000.0
sz300840,酷特智能,2021-09-30,11.79,11.91,11.68,11.76,11.81,1364884.0,16110818.0,1814726030.88,2822400000.0
sz300840,酷特智能,2021-10-08,11.86,12.88,11.76,12.48,11.76,4879600.0,60377611.0,1925831706.24,2995200000.0
sz300840,酷特智能,2021-10-11,12.27,12.82,12.21,12.77,12.48,4884952.0,61596311.0,1970582603.26,3064800000.0
sz300840,酷特智能,2021-10-12,12.7,12.99,12.44,12.48,12.77,4318526.0,54960352.0,1925831706.24,2995200000.0
sz300840,酷特智能,2021-10-13,12.48,12.88,12.36,12.55,12.48,3248526.0,41036511.0,1936633646.9,3012000000.0
sz300840,酷特智能,2021-10-14,12.47,13.14,12.4,13.07,12.55,6079900.0,78092666.0,2016876634.66,3136800000.0
sz300840,酷特智能,2021-10-15,12.94,13.05,12.61,12.76,13.07,3834885.0,49042357.0,1969039468.88,3062400000.0
sz300840,酷特智能,2021-10-18,12.67,12.86,12.48,12.58,12.76,2640726.0,33288377.0,1941263050.04,3019200000.0
sz300840,酷特智能,2021-10-19,12.44,12.88,12.3,12.56,12.58,3558700.0,44585255.0,1938176781.28,3014400000.0
sz300840,酷特智能,2021-10-20,12.46,12.47,12.14,12.17,12.56,2841900.0,34855009.0,1877994540.46,2920800000.0
sz300840,酷特智能,2021-10-21,12.17,12.38,12.03,12.04,12.17,1729000.0,21079277.0,1857933793.52,2889600000.0
sz300840,酷特智能,2021-10-22,12.0,12.14,11.79,11.85,12.04,1943620.0,23226850.0,1828614240.3,2844000000.0
sz300840,酷特智能,2021-10-25,11.76,11.95,11.63,11.86,11.85,1121361.0,13198716.0,1830157374.68,2846400000.0
sz300840,酷特智能,2021-10-26,11.91,11.91,11.15,11.21,11.86,3130302.0,35899370.0,1729853639.9799998,2690400000.0
sz300840,酷特智能,2021-10-27,11.18,11.23,10.92,10.99,11.21,1878485.0,20779402.0,1695904408.87,2637600000.0
sz300840,酷特智能,2021-10-28,11.01,11.34,11.01,11.1,10.99,1599111.0,17898413.0,1712879161.8,2664000000.0
sz300840,酷特智能,2021-10-29,11.01,11.21,10.96,11.14,11.1,1101600.0,12201702.0,1719051699.32,2673600000.0
sz300840,酷特智能,2021-11-01,11.14,11.28,11.0,11.24,11.14,1019177.0,11383643.0,1734483043.12,2697600000.0
sz300840,酷特智能,2021-11-02,11.22,11.3,10.78,10.8,11.24,1814200.0,19912657.0,1666585130.4,2592000000.0
sz300840,酷特智能,2021-11-03,10.85,11.17,10.8,11.07,10.8,941184.0,10350958.0,1708249758.6599998,2656800000.0
sz300840,酷特智能,2021-11-04,11.19,11.84,10.97,11.36,11.07,2743511.0,31327848.0,1753000655.6799998,2726400000.0
sz300840,酷特智能,2021-11-05,11.2,11.42,11.16,11.36,11.36,2012110.0,22738240.0,1753000655.6799998,2726400000.0
sz300840,酷特智能,2021-11-08,11.34,11.37,11.21,11.33,11.36,1034526.0,11674913.0,1748371252.5400002,2719200000.0
sz300840,酷特智能,2021-11-09,11.33,11.52,11.25,11.47,11.33,1578126.0,18002122.0,1769975133.86,2752800000.0
sz300840,酷特智能,2021-11-10,11.39,11.63,11.31,11.55,11.47,1513000.0,17377353.0,1782320208.9,2772000000.0
sz300840,酷特智能,2021-11-11,11.71,11.95,11.58,11.84,11.55,3340300.0,39305497.0,1827071105.92,2841600000.0
sz300840,酷特智能,2021-11-12,11.81,11.81,11.52,11.63,11.84,2124226.0,24676316.0,1794665283.9399998,2791200000.0
sz300840,酷特智能,2021-11-15,11.38,11.75,11.38,11.73,11.63,2438678.0,28310322.0,1810096627.74,2815200000.0
sz300840,酷特智能,2021-11-16,11.76,12.28,11.5,11.86,11.73,4511123.0,53898381.0,1830157374.68,2846400000.0
sz300840,酷特智能,2021-11-17,11.71,11.99,11.69,11.93,11.86,3256800.0,38584569.0,1840959315.34,2863200000.0
sz300840,酷特智能,2021-11-18,11.86,11.98,11.58,11.58,11.93,2063852.0,24294471.0,1786949612.04,2779200000.0
sz300840,酷特智能,2021-11-19,11.58,11.73,11.57,11.71,11.58,1096200.0,12788168.0,1807010358.98,2810400000.0
sz300840,酷特智能,2021-11-22,11.62,11.77,11.4,11.56,11.71,1299100.0,15012282.0,1783863343.28,2774400000.0
sz300840,酷特智能,2021-11-23,11.6,11.66,11.48,11.6,11.56,862800.0,9974351.0,1790035880.8,2784000000.0
sz300840,酷特智能,2021-11-24,11.6,12.14,11.52,12.03,11.6,5139385.0,61419767.0,1856390659.14,2887200000.0
sz300840,酷特智能,2021-11-25,11.96,12.05,11.8,12.03,12.03,3239611.0,38676501.0,1856390659.14,2887200000.0
sz300840,酷特智能,2021-11-26,11.99,12.13,11.83,12.02,12.03,2512026.0,30140971.0,1854847524.76,2884800000.0
sz300840,酷特智能,2021-11-29,12.0,12.0,11.74,11.77,12.02,1510500.0,17871564.0,1816269165.2599998,2824800000.0
sz300840,酷特智能,2021-11-30,11.8,11.97,11.73,11.76,11.77,1742100.0,20643907.0,1814726030.88,2822400000.0
sz300840,酷特智能,2021-12-01,11.8,12.19,11.8,12.14,11.76,4713426.0,56882795.0,1873365137.32,2913600000.0
sz300840,酷特智能,2021-12-02,12.1,12.3,11.79,11.83,12.14,2774400.0,33215820.0,1825527971.54,2839200000.0
sz300840,酷特智能,2021-12-03,11.84,11.95,11.65,11.69,11.83,1842626.0,21610590.0,1803924090.22,2805600000.0
sz300840,酷特智能,2021-12-06,11.71,11.71,11.24,11.26,11.69,2793900.0,31835900.0,1737569311.8799999,2702400000.0
sz300840,酷特智能,2021-12-07,11.26,11.4,11.13,11.22,11.26,1184376.0,13285880.0,1731396774.36,2692800000.0
sz300840,酷特智能,2021-12-08,11.29,11.35,11.19,11.28,11.22,790300.0,8911565.0,1740655580.64,2707200000.0
sz300840,酷特智能,2021-12-09,11.36,11.64,11.36,11.41,11.28,1865400.0,21416638.0,1760716327.58,2738400000.0
sz300840,酷特智能,2021-12-10,11.35,11.5,11.28,11.34,11.41,1542696.0,17558892.0,1749914386.92,2721600000.0
sz300840,酷特智能,2021-12-13,11.33,11.49,11.29,11.42,11.34,1361200.0,15513648.0,1762259461.96,2740800000.0
sz300840,酷特智能,2021-12-14,11.4,11.61,11.32,11.56,11.42,1976098.0,22747619.0,1783863343.28,2774400000.0
sz300840,酷特智能,2021-12-15,11.71,11.99,11.56,11.59,11.56,4697511.0,54943547.0,1788492746.42,2781600000.0
sz300840,酷特智能,2021-12-16,11.5,12.2,11.5,12.08,11.59,9172726.0,109367971.0,1864106331.04,2899200000.0
sz300840,酷特智能,2021-12-17,12.05,13.13,12.05,12.68,12.08,16101793.0,203148813.0,1956694393.84,3043200000.0
sz300840,酷特智能,2021-12-20,12.35,12.6,11.78,11.95,12.68,10609623.0,128839424.0,1844045584.1,2868000000.0
sz300840,酷特智能,2021-12-21,12.03,12.13,11.8,12.05,11.95,4696300.0,56214011.0,1859476927.9,2892000000.0
sz300840,酷特智能,2021-12-22,12.01,12.16,11.8,11.88,12.05,3384800.0,40493727.0,1833243643.44,2851200000.0
sz300840,酷特智能,2021-12-23,11.88,11.94,11.44,11.47,11.88,4532500.0,52688760.0,1769975133.8600001,2752800000.0
sz300840,酷特智能,2021-12-24,11.48,11.59,11.25,11.32,11.47,3623800.0,41128830.0,1746828118.16,2716800000.0
sz300840,酷特智能,2021-12-27,11.42,11.47,11.27,11.46,11.32,2215100.0,25230970.0,1768431999.48,2750400000.0
sz300840,酷特智能,2021-12-28,11.41,11.63,11.39,11.5,11.46,2375700.0,27376805.0,1774604537.0000002,2760000000.0
sz300840,酷特智能,2021-12-29,11.47,11.57,11.38,11.5,11.5,2223083.0,25531155.0,1774604537.0000002,2760000000.0
sz300840,酷特智能,2021-12-30,11.44,11.74,11.44,11.56,11.5,2628753.0,30469269.0,1783863343.28,2774400000.0
sz300840,酷特智能,2021-12-31,11.54,11.66,11.52,11.58,11.56,1549000.0,17926365.0,1786949612.04,2779200000.0
sz300840,酷特智能,2022-01-04,11.64,11.88,11.52,11.85,11.58,3410200.0,40086475.0,1828614240.3,2844000000.0
sz300840,酷特智能,2022-01-05,11.82,12.18,11.81,12.04,11.85,6040000.0,72393374.0,1857933793.52,2889600000.0
sz300840,酷特智能,2022-01-06,11.84,12.16,11.82,12.04,12.04,4460200.0,53694282.0,1857933793.52,2889600000.0
sz300840,酷特智能,2022-01-07,12.04,12.16,11.76,11.77,12.04,3442469.0,41225167.0,1816269165.2599998,2824800000.0
sz300840,酷特智能,2022-01-10,11.98,12.08,11.74,11.99,11.77,2451769.0,29289961.0,1850218121.62,2877600000.0
sz300840,酷特智能,2022-01-11,11.99,12.18,11.91,11.96,11.99,2596600.0,31320629.0,1845588718.48,2870400000.0
sz300840,酷特智能,2022-01-12,11.97,12.25,11.97,12.18,11.96,3257269.0,39637840.0,1879537674.8400002,2923200000.0
sz300840,酷特智能,2022-01-13,12.15,12.46,12.09,12.12,12.18,2719000.0,33240484.0,1870278868.56,2908800000.0
sz300840,酷特智能,2022-01-14,12.12,12.25,11.93,11.94,12.12,2462661.0,29742484.0,1842502449.7199998,2865600000.0
