数据由邢不行整理
股票代码,股票名称,交易日期,开盘价,最高价,最低价,收盘价,前收盘价,成交量,成交额,流通市值,总市值
sz300825,N阿尔特,2020-03-27,7.37,8.84,7.37,8.84,6.14,228389.0,2014395.0,675508600.0,2702023288.12
sz300825,阿尔特,2020-03-30,9.72,9.72,9.72,9.72,8.84,112353.0,1092071.0,742753800.0,2971002981.96
sz300825,阿尔特,2020-03-31,10.69,10.69,10.69,10.69,9.72,93317.0,997558.0,816876350.0,3267491962.67
sz300825,阿尔特,2020-04-01,11.76,11.76,11.76,11.76,10.69,112229.0,1319813.0,898640400.0,3594546817.68
sz300825,阿尔特,2020-04-02,12.94,12.94,12.94,12.94,11.76,214117.0,2770673.0,988810100.0,3955224134.42
sz300825,阿尔特,2020-04-03,14.23,14.23,14.23,14.23,12.94,375867.0,5348587.0,1087385450.0,4349523912.89
sz300825,阿尔特,2020-04-07,15.65,15.65,15.65,15.65,14.23,1189107.0,18609524.0,1195894750.0,4783559327.95
sz300825,阿尔特,2020-04-08,17.22,17.22,17.22,17.22,15.65,1952926.0,33629385.0,1315866300.0,5263443554.46
sz300825,阿尔特,2020-04-09,18.94,18.94,18.94,18.94,17.22,1121602.0,21243141.0,1447300100.0,5789176592.42
sz300825,阿尔特,2020-04-10,20.7,20.83,19.3,20.83,18.94,59192803.0,1202328242.0,1591724450.0,6366871616.69
sz300825,阿尔特,2020-04-13,18.75,18.75,18.75,18.75,20.83,2115500.0,39665625.0,1432781250.0,5731101431.25
sz300825,阿尔特,2020-04-14,18.1,19.73,17.38,19.39,18.75,42886555.0,786316447.0,1481686850.0,5926723026.77
sz300825,阿尔特,2020-04-15,18.7,19.29,18.03,18.08,19.39,29951502.0,558608489.0,1381583200.0,5526310073.44
sz300825,阿尔特,2020-04-16,17.9,19.89,17.6,19.89,18.08,19611338.0,376638470.0,1519894350.0,6079552398.27
sz300825,阿尔特,2020-04-17,21.11,21.5,17.9,17.9,19.89,41319601.0,794971209.0,1367828500.0,5471291499.7
sz300825,阿尔特,2020-04-20,16.83,17.33,16.49,17.32,17.9,24922965.0,420847067.0,1323507800.0,5294009428.76
sz300825,阿尔特,2020-04-21,17.15,17.62,16.84,17.03,17.32,16436640.0,282469212.0,1301347450.0,5205368393.29
sz300825,阿尔特,2020-04-22,16.59,17.16,16.4,16.75,17.03,14905852.0,249315194.0,1279951250.0,5119783945.25
sz300825,阿尔特,2020-04-23,16.98,17.48,16.78,17.08,16.75,18116126.0,309812344.0,1305168200.0,5220651330.44
sz300825,阿尔特,2020-04-24,17.1,18.43,17.1,17.26,17.08,20781543.0,365232801.0,1318922900.0,5275669904.18
sz300825,阿尔特,2020-04-27,17.59,18.84,17.37,18.21,17.26,26495364.0,479363547.0,1391517150.0,5566045710.03
sz300825,阿尔特,2020-04-28,18.21,18.26,16.39,16.39,18.21,24108308.0,398502900.0,1252441850.0,5009746797.77
sz300825,阿尔特,2020-04-29,16.5,17.2,16.1,16.61,16.39,19926460.0,333705406.0,1269253150.0,5076991721.23
sz300825,阿尔特,2020-04-30,16.7,16.85,15.5,16.64,16.61,22217312.0,360396896.0,1271545600.0,5086161483.52
sz300825,阿尔特,2020-05-06,16.25,17.37,15.8,17.31,16.64,20367588.0,343043805.0,1322743650.0,5290952841.33
sz300825,阿尔特,2020-05-07,17.51,19.04,17.29,19.04,17.31,23576099.0,433141263.0,1454941600.0,5819742466.72
sz300825,阿尔特,2020-05-08,19.1,19.9,18.35,19.34,19.04,40143450.0,765703894.0,1477866100.0,5911440089.62
sz300825,阿尔特,2020-05-11,19.01,20.89,18.9,19.1,19.34,37120896.0,736220046.0,1459526500.0,5838081991.3
sz300825,阿尔特,2020-05-12,18.89,21.01,18.89,21.01,19.1,22796802.0,464099144.0,1605479150.0,6421890190.43
sz300825,阿尔特,2020-05-13,22.0,23.06,20.31,20.4,21.01,48381257.0,1053381830.0,1558866000.0,6235438357.2
sz300825,阿尔特,2020-05-14,19.05,19.91,18.67,19.15,20.4,31447359.0,606482058.0,1463347250.0,5853364928.45
sz300825,阿尔特,2020-05-15,19.64,20.26,19.34,19.74,19.15,27355031.0,543054429.0,1508432100.0,6033703586.82
sz300825,阿尔特,2020-05-18,19.14,19.77,18.35,18.64,19.74,24263110.0,463174401.0,1424375600.0,5697478969.52
sz300825,阿尔特,2020-05-19,18.96,19.54,18.6,19.49,18.64,19069318.0,364355515.0,1489328350.0,5957288901.07
sz300825,阿尔特,2020-05-20,19.44,20.96,19.09,20.26,19.49,29839181.0,604545295.0,1548167900.0,6192646133.18
sz300825,阿尔特,2020-05-21,20.36,20.82,19.52,19.66,20.26,23498632.0,475136230.0,1502318900.0,6009250887.38
sz300825,阿尔特,2020-05-22,19.58,20.47,18.86,18.97,19.66,18480391.0,363963797.0,1449592550.0,5798346354.71
sz300825,阿尔特,2020-05-25,19.17,19.42,17.07,17.15,18.97,24143148.0,427527978.0,1310517250.0,5242047442.45
sz300825,阿尔特,2020-05-26,17.02,17.79,16.9,17.66,17.15,15173097.0,263727937.0,1349488900.0,5397933401.38
sz300825,阿尔特,2020-05-27,17.53,18.85,17.26,18.33,17.66,15405093.0,277774467.0,1400686950.0,5602724759.19
sz300825,阿尔特,2020-05-28,18.16,18.35,17.07,17.61,18.33,11676013.0,205307195.0,1345668150.0,5382650464.23
sz300825,阿尔特,2020-05-29,17.42,17.76,17.29,17.3,17.61,8626392.0,150806577.0,1321979500.0,5287896253.9
sz300825,阿尔特,2020-06-01,17.2,17.96,17.17,17.9,17.3,9161386.0,161782529.0,1367828500.0,5471291499.7
sz300825,阿尔特,2020-06-02,18.01,19.69,17.81,19.69,17.9,23655729.0,456096643.0,1504611350.0,6018420649.67
sz300825,阿尔特,2020-06-03,19.98,19.98,18.98,19.57,19.69,19429157.0,375584634.0,1495441550.0,5981741600.51
sz300825,阿尔特,2020-06-04,19.58,21.0,18.98,19.02,19.57,17266486.0,339375522.0,1453413300.0,5813629291.86
sz300825,阿尔特,2020-06-05,19.87,20.1,18.96,19.51,19.02,17774467.0,347142493.0,1490856650.0,5963402075.93
sz300825,阿尔特,2020-06-08,19.3,20.65,19.08,20.37,19.51,22760494.0,455449134.0,1556573550.0,6226268594.91
sz300825,阿尔特,2020-06-09,20.0,20.1,19.28,19.46,20.37,17380781.0,339767157.0,1487035900.0,5948119138.78
sz300825,阿尔特,2020-06-10,19.46,20.93,19.3,20.21,19.46,27545541.0,559943986.0,1544347150.0,6177363196.03
sz300825,阿尔特,2020-06-11,20.99,21.88,20.07,20.5,20.21,28937447.0,599949872.0,1566507500.0,6266004231.5
sz300825,阿尔特,2020-06-12,20.01,21.48,19.48,21.25,20.5,28368366.0,577877567.0,1623818750.0,6495248288.75
sz300825,阿尔特,2020-06-15,20.81,21.49,20.3,20.43,21.25,21386814.0,444801597.0,1561158450.0,6244608119.49
sz300825,阿尔特,2020-06-16,20.76,20.92,19.81,20.09,20.43,15159051.0,305421976.0,1535177349.9999998,6140684146.87
sz300825,阿尔特,2020-06-17,19.99,19.99,18.7,19.35,20.09,18086849.0,348383099.0,1478630250.0,5914496677.05
sz300825,阿尔特,2020-06-18,19.18,19.28,18.91,19.16,19.35,7848830.0,149861500.0,1464111400.0000002,5856421515.88
sz300825,阿尔特,2020-06-19,19.35,19.63,19.12,19.23,19.16,8838707.0,171045158.0,1469460450.0000002,5877817627.889999
sz300825,阿尔特,2020-06-22,19.17,19.46,18.9,19.41,19.23,9113716.0,174638708.0,1483215150.0000002,5932836201.629999
sz300825,阿尔特,2020-06-23,19.38,19.38,18.68,18.72,19.41,9720321.0,183928698.0,1430488800.0,5721931668.96
sz300825,阿尔特,2020-06-24,18.74,19.25,18.74,19.0,18.72,6432494.0,122250838.0,1451885000.0,5807516117.0
sz300825,阿尔特,2020-06-29,19.0,19.08,18.29,18.56,19.0,5745806.0,106583519.0,1418262400.0,5673026270.08
sz300825,阿尔特,2020-06-30,18.59,19.17,18.56,19.05,18.56,7250401.0,136840360.0,1455705750.0,5822799054.150001
sz300825,阿尔特,2020-07-01,19.35,19.53,18.73,18.86,19.05,8162579.0,156078264.0,1441186900.0,5764723892.9800005
sz300825,阿尔特,2020-07-02,18.69,18.92,18.35,18.91,18.86,8092404.0,150386720.0,1445007650.0000002,5780006830.129999
sz300825,阿尔特,2020-07-03,19.01,19.38,18.75,19.1,18.91,10012013.0,191328460.0,1459526500.0,5838081991.299999
sz300825,阿尔特,2020-07-06,19.0,19.79,18.79,19.71,19.1,14223898.0,275858968.0,1506139650.0,6024533824.530001
sz300825,阿尔特,2020-07-07,20.03,20.63,19.43,20.18,19.71,18788944.0,380270939.0,1542054700.0,6168193433.740001
sz300825,阿尔特,2020-07-08,20.01,21.23,19.91,21.07,20.18,20429426.0,424937758.0,1610064050.0,6440229715.01
sz300825,阿尔特,2020-07-09,21.88,21.88,20.5,21.65,21.07,23779244.0,504117238.0,1654384750.0,6617511785.95
sz300825,阿尔特,2020-07-10,22.31,23.82,21.83,23.82,21.65,22190145.0,508751490.0,1820205300.0,7280791258.26
sz300825,阿尔特,2020-07-13,24.0,25.0,23.22,23.99,23.82,29419585.0,709493991.0,1833195850.0,7332753244.57
sz300825,阿尔特,2020-07-14,23.26,23.84,21.66,22.15,23.99,20871817.0,475320103.0,1692592250.0,6770341157.45
sz300825,阿尔特,2020-07-15,22.0,22.23,20.7,20.82,22.15,13616299.0,291870561.0,1590960300.0,6363815029.26
sz300825,阿尔特,2020-07-16,21.01,21.15,19.4,19.66,20.82,10370341.0,210985259.0,1502318900.0000002,6009250887.38
sz300825,阿尔特,2020-07-17,19.66,19.94,19.38,19.82,19.66,6348158.0,124849181.0,1514545300.0,6058156286.26
sz300825,阿尔特,2020-07-20,19.97,20.28,19.65,20.2,19.82,7107647.0,142096679.0,1543583000.0,6174306608.599999
sz300825,阿尔特,2020-07-21,20.3,20.5,19.88,20.03,20.2,6541290.0,132139264.0,1530592450.0,6122344622.290001
sz300825,阿尔特,2020-07-22,19.85,20.72,19.72,20.64,20.03,8696237.0,176495983.0,1577205600.0,6308796455.52
sz300825,阿尔特,2020-07-23,20.42,21.53,20.36,21.4,20.64,12807782.0,268984048.0,1635281000.0,6541097100.2
sz300825,阿尔特,2020-07-24,21.2,22.1,20.71,21.38,21.4,15461220.0,332818037.0,1633752700.0,6534983925.34
sz300825,阿尔特,2020-07-27,22.17,22.48,21.09,22.16,21.38,14077916.0,308608096.0,1693356400.0000002,6773397744.88
sz300825,阿尔特,2020-07-28,22.18,22.19,21.21,21.57,22.16,10348295.0,223755003.0,1648271550.0,6593059086.51
sz300825,阿尔特,2020-07-29,21.13,21.97,20.81,21.82,21.57,9565848.0,205466712.0,1667375300.0,6669473772.259999
sz300825,阿尔特,2020-07-30,21.72,21.98,21.19,21.44,21.82,7117976.0,153108087.0,1638337600.0,6553323449.92
sz300825,阿尔特,2020-07-31,21.38,21.65,20.93,21.32,21.44,8338588.0,177921547.0,1629167800.0,6516644400.76
sz300825,阿尔特,2020-08-03,21.42,22.15,21.37,21.96,21.32,9258795.0,201873094.0,1678073400.0,6712265996.280001
sz300825,阿尔特,2020-08-04,22.0,23.45,21.7,22.81,21.96,12982621.0,295595071.0,1743026150.0,6972075927.83
sz300825,阿尔特,2020-08-05,22.73,24.17,22.19,23.91,22.81,14135845.0,331652089.0,1827082650.0,7308300545.129999
sz300825,阿尔特,2020-08-06,23.55,24.3,23.1,23.27,23.91,11565460.0,272578398.0,1778177049.9999998,7112678949.61
sz300825,阿尔特,2020-08-07,23.29,25.35,23.28,23.96,23.27,16069803.0,391073659.0,1830903400.0,7323583482.28
sz300825,阿尔特,2020-08-10,23.5,24.5,22.61,24.46,23.96,9979788.0,236032255.0,1869110900.0,7476412853.78
sz300825,阿尔特,2020-08-11,24.72,26.47,24.11,25.33,24.46,15293950.0,391331621.0,1935591950.0,7742335960.190001
sz300825,阿尔特,2020-08-12,24.91,26.23,23.45,24.44,25.33,12651570.0,312354767.0,1867582600.0,7470299678.92
sz300825,阿尔特,2020-08-13,24.65,24.88,23.55,24.19,24.44,7352924.0,176511427.0,1848478850.0,7393884993.17
sz300825,阿尔特,2020-08-14,23.94,24.35,22.85,23.48,24.19,8300429.0,194640029.0,1794224200.0000002,7176867285.64
sz300825,阿尔特,2020-08-17,23.5,24.14,23.24,23.32,23.48,7020975.0,165197532.0,1781997800.0,7127961886.76
sz300825,阿尔特,2020-08-18,23.5,24.16,23.28,23.56,23.32,7133351.0,169907841.0,1800337400.0,7201319985.080001
sz300825,阿尔特,2020-08-19,23.6,24.17,22.99,23.61,23.56,7697954.0,182459288.0,1804158150.0,7216602922.23
sz300825,阿尔特,2020-08-20,23.5,24.8,23.2,24.46,23.61,8745300.0,210527234.0,1869110900.0,7476412853.78
sz300825,阿尔特,2020-08-21,24.5,25.12,23.52,23.85,24.46,8855200.0,213790470.0,1822497750.0,7289961020.55
sz300825,阿尔特,2020-08-24,23.25,23.28,19.88,21.75,23.85,11632255.0,255052821.0,1662026250.0,6648077660.25
sz300825,阿尔特,2020-08-25,21.51,22.68,21.4,22.02,21.75,8054169.0,177047101.0,1682658299.9999998,6730605520.86
sz300825,阿尔特,2020-08-26,22.19,22.33,20.71,21.03,22.02,6681195.0,143081961.0,1607007450.0,6428003365.29
sz300825,阿尔特,2020-08-27,20.97,22.96,20.5,22.33,21.03,8753126.0,192698072.0,1706346950.0,6825359731.19
sz300825,阿尔特,2020-08-28,21.98,22.78,21.78,22.49,22.33,5642118.0,125353111.0,1718573350.0,6874265130.07
sz300825,阿尔特,2020-08-31,22.66,24.09,22.29,23.24,22.49,7255699.0,168739799.0,1775884600.0,7103509187.320001
sz300825,阿尔特,2020-09-01,23.29,23.88,22.85,23.25,23.24,5598542.0,130212997.0,1776648750.0,7106565774.750001
sz300825,阿尔特,2020-09-02,23.3,23.71,22.92,23.56,23.25,5703422.0,133643893.0,1800337400.0,7201319985.080001
sz300825,阿尔特,2020-09-03,23.33,24.13,22.9,23.67,23.56,7004951.0,164888888.0,1808743050.0,7234942446.81
sz300825,阿尔特,2020-09-04,23.5,24.27,23.3,23.44,23.67,5075160.0,120116081.0,1791167600.0,7164640935.92
sz300825,阿尔特,2020-09-07,23.58,24.99,23.35,23.56,23.44,8048370.0,194354417.0,1800337400.0,7201319985.080001
sz300825,阿尔特,2020-09-08,23.99,25.87,23.93,24.45,23.56,10029570.0,247305560.0,1868346750.0,7473356266.35
sz300825,阿尔特,2020-09-09,24.14,26.37,24.14,25.13,24.45,15799538.0,401425106.0,1920308950.0,7681204211.59
sz300825,阿尔特,2020-09-10,23.6,23.6,20.2,21.07,25.13,12624753.0,277838445.0,1610064050.0,6440229715.01
sz300825,阿尔特,2020-09-11,20.33,21.8,20.31,21.55,21.07,5865635.0,125106075.0,1646743250.0,6586945911.65
sz300825,阿尔特,2020-09-14,21.33,22.38,21.33,22.24,21.55,5199914.0,114417315.0,1699469600.0,6797850444.320001
sz300825,阿尔特,2020-09-15,22.24,24.95,21.94,24.09,22.24,11841442.0,280432967.0,1840837350.0,7363319118.87
sz300825,阿尔特,2020-09-16,24.5,24.5,23.7,24.06,24.09,8517122.0,205114329.0,1838544900.0,7354149356.579999
sz300825,阿尔特,2020-09-17,24.54,25.38,23.65,24.96,24.06,8946061.0,219785915.0,1907318400.0,7629242225.28
sz300825,阿尔特,2020-09-18,24.79,24.97,24.1,24.53,24.96,6738922.0,165448533.0,1874459950.0,7497808965.790001
sz300825,阿尔特,2020-09-21,24.7,25.15,24.29,24.5,24.53,4609988.0,113747374.0,1872167500.0,7488639203.5
sz300825,阿尔特,2020-09-22,24.18,24.5,23.55,23.79,24.5,4656209.0,111489610.0,1817912850.0,7271621495.97
sz300825,阿尔特,2020-09-23,23.86,24.85,23.77,24.61,23.79,5305900.0,129302577.0,1880573150.0,7522261665.23
sz300825,阿尔特,2020-09-24,24.22,24.95,24.12,24.67,24.61,5312573.0,130550346.0,1885158050.0,7540601189.81
sz300825,阿尔特,2020-09-25,24.83,24.83,24.24,24.57,24.67,4431500.0,108542618.0,1877516550.0,7510035315.509999
sz300825,阿尔特,2020-09-28,24.48,24.91,24.09,24.28,24.57,3823253.0,93416207.0,1855356200.0,7421394280.04
sz300825,阿尔特,2020-09-29,24.28,24.76,24.0,24.25,24.28,4276142.0,103790932.0,1853063750.0,7412224517.75
sz300825,阿尔特,2020-09-30,24.25,24.94,24.1,24.23,24.25,4513542.0,110277782.0,1851535450.0,7406111342.889999
sz300825,阿尔特,2020-10-09,24.41,25.66,24.37,25.48,24.23,7229598.0,181488217.0,1947054200.0,7788184771.64
sz300825,阿尔特,2020-10-12,26.39,27.98,25.52,27.5,25.48,14459215.0,391385586.0,2101412500.0,8405615432.5
sz300825,阿尔特,2020-10-13,27.0,27.75,26.51,27.35,27.5,10548500.0,285466097.0,2089950250.0,8359766621.05
sz300825,阿尔特,2020-10-14,27.19,28.7,26.75,27.15,27.35,11017142.0,302359905.0,2074667250.0,8298634872.45
sz300825,阿尔特,2020-10-15,28.02,28.55,27.05,27.23,27.15,10775588.0,296555314.0,2080780450.0,8323087571.89
sz300825,阿尔特,2020-10-16,26.23,27.96,26.1,27.4,27.23,8432900.0,228845556.0,2093771000.0,8375049558.200001
sz300825,阿尔特,2020-10-19,27.42,27.77,26.85,26.98,27.4,5989500.0,162724348.0,2061676700.0,8246672886.139999
sz300825,阿尔特,2020-10-20,27.03,27.41,26.51,27.38,26.98,5207142.0,140733541.0,2092242700.0,8368936383.34
sz300825,阿尔特,2020-10-21,27.4,28.11,26.89,28.11,27.38,7177543.0,197191346.0,2148025650.0,8592067265.73
sz300825,阿尔特,2020-10-22,28.09,28.3,26.5,26.72,28.11,10383300.0,283567174.0,2041808800.0,8167201612.96
sz300825,阿尔特,2020-10-23,26.59,27.35,26.28,26.78,26.72,7472370.0,201638865.0,2046393700.0,8185541137.540001
sz300825,阿尔特,2020-10-26,26.76,27.28,26.36,27.03,26.78,4213691.0,112799480.0,2065497450.0,8261955823.29
sz300825,阿尔特,2020-10-27,26.86,27.3,25.98,26.92,27.03,4381037.0,116881252.0,2057091800.0,8228333361.56
sz300825,阿尔特,2020-10-28,27.0,27.21,26.36,26.51,26.92,4587769.0,123008725.0,2025761650.0,8103013276.929999
sz300825,阿尔特,2020-10-29,26.02,27.3,25.61,26.9,26.51,6469750.0,172061001.0,2055563500.0,8222220186.7
sz300825,阿尔特,2020-10-30,26.98,27.5,26.45,26.97,26.9,5899900.0,158705176.0,2060912550.0,8243616298.709999
sz300825,阿尔特,2020-11-02,26.97,28.05,26.5,27.93,26.97,11421912.0,313060745.0,2134270950.0,8537048691.99
sz300825,阿尔特,2020-11-03,28.21,28.24,26.6,27.45,27.93,9609607.0,262288554.0,2097591750.0,8390332495.349999
sz300825,阿尔特,2020-11-04,27.28,29.16,27.02,29.1,27.45,16822536.0,478789655.0,2223676500.0,8894669421.3
sz300825,阿尔特,2020-11-05,28.89,30.0,28.42,28.98,29.1,12395906.0,359585714.0,2214506700.0,8857990372.14
sz300825,阿尔特,2020-11-06,28.58,28.6,27.08,27.1,28.98,11429836.0,314754482.0,2070846500.0,8283351935.3
sz300825,阿尔特,2020-11-09,27.0,27.63,26.38,27.32,27.1,9303384.0,252551339.0,2087657800.0,8350596858.759999
sz300825,阿尔特,2020-11-10,27.3,27.3,26.6,26.95,27.32,4233241.0,113604988.0,2059384250.0,8237503123.85
sz300825,阿尔特,2020-11-11,26.77,27.4,26.56,26.93,26.95,3591042.0,96230840.0,2057855950.0,8231389948.990001
sz300825,阿尔特,2020-11-12,26.95,27.32,26.81,27.05,26.93,3639314.0,98501408.0,2067025750.0,8268068998.150001
sz300825,阿尔特,2020-11-13,27.3,27.83,27.02,27.83,27.05,5658972.0,155395677.0,2126629450.0,8506482817.69
sz300825,阿尔特,2020-11-16,27.85,28.85,27.45,28.8,27.83,8528700.0,241079739.0,2200752000.0,8802971798.4
sz300825,阿尔特,2020-11-17,29.27,30.3,28.5,29.1,28.8,10899486.0,319289854.0,2223676500.0,8894669421.3
sz300825,阿尔特,2020-11-18,28.69,29.5,28.21,29.16,29.1,5662853.0,163658386.0,2228261400.0,8913008945.880001
sz300825,阿尔特,2020-11-19,28.97,30.05,28.81,29.88,29.16,9097442.0,269580419.0,2283280200.0,9133083240.84
sz300825,阿尔特,2020-11-20,29.74,30.36,29.0,29.6,29.88,7625044.0,225917573.0,2261884000.0,9047498792.8
sz300825,阿尔特,2020-11-23,29.4,30.19,28.83,29.18,29.6,5590372.0,164879437.0,2229789700.0,8919122120.74
sz300825,阿尔特,2020-11-24,29.45,29.95,29.06,29.28,29.18,4262072.0,125294650.0,2237431200.0,8949687995.039999
sz300825,阿尔特,2020-11-25,29.04,29.73,29.0,29.3,29.28,4197900.0,122857952.0,2238959500.0,8955801169.9
sz300825,阿尔特,2020-11-26,29.1,29.5,28.05,28.49,29.3,5109240.0,144944925.0,2177063350.0,8708217588.07
sz300825,阿尔特,2020-11-27,28.3,29.18,28.21,29.08,28.49,4694572.0,134951376.0,2222148200.0,8888556246.44
sz300825,阿尔特,2020-11-30,29.15,29.68,28.8,29.4,29.08,5135489.0,150639689.0,2246601000.0,8986367044.199999
sz300825,阿尔特,2020-12-01,29.39,29.8,29.14,29.24,29.4,4868211.0,143202961.0,2234374600.0,8937461645.32
sz300825,阿尔特,2020-12-02,29.18,29.25,28.4,28.53,29.24,3844542.0,110183090.0,2180119950.0,8720443937.79
sz300825,阿尔特,2020-12-03,28.31,28.9,28.2,28.41,28.53,2703342.0,77137058.0,2170950150.0,8683764888.63
sz300825,阿尔特,2020-12-04,28.5,28.79,28.1,28.44,28.41,2080211.0,59098119.0,2173242600.0,8692934650.92
sz300825,阿尔特,2020-12-07,28.44,28.8,28.2,28.75,28.44,3237653.0,92541184.0,2196931250.0,8787688861.25
sz300825,阿尔特,2020-12-08,28.87,30.13,28.68,29.8,28.75,8374991.0,249047923.0,2277167000.0,9108630541.4
sz300825,阿尔特,2020-12-09,30.0,30.5,29.4,29.87,29.8,5234094.0,156190503.0,2282516050.0,9130026653.41
sz300825,阿尔特,2020-12-10,29.87,30.2,29.0,29.2,29.87,4083700.0,120666495.0,2231318000.0,8925235295.6
sz300825,阿尔特,2020-12-11,29.27,29.72,27.48,28.0,29.2,4244942.0,120446062.0,2139620000.0,8558444804.0
sz300825,阿尔特,2020-12-14,27.95,28.39,27.29,28.0,28.0,3602553.0,100011909.0,2139620000.0,8558444804.0
sz300825,阿尔特,2020-12-15,27.86,28.3,27.48,27.62,28.0,2237242.0,62176526.0,2110582300.0,8442294481.66
sz300825,阿尔特,2020-12-16,27.53,27.96,27.25,27.71,27.62,3173600.0,87973809.0,2117459650.0,8469803768.530001
sz300825,阿尔特,2020-12-17,27.73,28.09,27.0,27.96,27.71,4814600.0,133967382.0,2136563400.0,8546218454.28
sz300825,阿尔特,2020-12-18,27.91,28.6,27.68,28.25,27.96,4354863.0,122881990.0,2158723750.0,8634859489.75
sz300825,阿尔特,2020-12-21,28.25,28.62,27.9,28.4,28.25,4449200.0,125722657.0,2170186000.0,8680708301.2
sz300825,阿尔特,2020-12-22,28.38,28.38,27.21,27.59,28.4,4517400.0,125405078.0,2108289850.0,8433124719.370001
sz300825,阿尔特,2020-12-23,27.67,28.16,27.25,27.92,27.59,5373053.0,149798793.0,2133506800.0,8533992104.559999
sz300825,阿尔特,2020-12-24,28.5,29.3,27.66,27.7,27.92,4432100.0,124971929.0,2116695500.0,8466747181.1
sz300825,阿尔特,2020-12-25,27.23,27.26,25.65,26.76,27.7,4861500.0,128628932.0,2044865400.0,8179427962.68
sz300825,阿尔特,2020-12-28,26.75,27.2,25.5,26.02,26.76,2711900.0,70713135.0,1988318300.0,7953240492.86
sz300825,阿尔特,2020-12-29,26.02,26.38,25.41,25.96,26.02,1761589.0,45518798.0,1983733400.0,7934900968.280001
sz300825,阿尔特,2020-12-30,26.1,26.98,26.0,26.6,25.96,2407673.0,63966603.0,2032639000.0,8130522563.8
sz300825,阿尔特,2020-12-31,26.7,27.75,26.45,27.6,26.6,4768473.0,130071894.0,2109054000.0,8436181306.799999
sz300825,阿尔特,2021-01-04,27.69,28.2,27.33,27.73,27.6,3333528.0,92507083.0,2118987950.0,8475916943.39
sz300825,阿尔特,2021-01-05,27.8,27.8,26.75,27.49,27.73,2849107.0,77455836.0,2100648350.0,8402558845.07
sz300825,阿尔特,2021-01-06,27.49,28.15,26.6,26.6,27.49,2196200.0,59627406.0,2032639000.0,8130522563.8
sz300825,阿尔特,2021-01-07,26.54,27.8,25.8,27.54,26.6,5533600.0,149259096.0,2104469100.0,8417841782.22
sz300825,阿尔特,2021-01-08,27.54,28.1,26.89,27.91,27.54,4706953.0,130134311.0,2132742650.0,8530935517.13
sz300825,阿尔特,2021-01-11,28.7,30.8,26.88,26.96,27.91,10466848.0,303099874.0,2060148400.0,8240559711.28
sz300825,阿尔特,2021-01-12,26.08,26.97,25.68,26.19,26.96,4745100.0,123666941.0,2001308850.0,8005202479.17
sz300825,阿尔特,2021-01-13,25.88,26.36,24.33,25.0,26.19,4047953.0,102610697.0,1910375000.0,7641468575.0
sz300825,阿尔特,2021-01-14,25.08,25.08,23.11,23.91,25.0,3117265.0,74554902.0,1827082650.0,7308300545.129999
sz300825,阿尔特,2021-01-15,23.99,24.24,23.35,24.05,23.91,1900250.0,45435110.0,1837780750.0,7351092769.150001
sz300825,阿尔特,2021-01-18,24.02,24.39,23.66,24.06,24.05,2284420.0,55092327.0,1838544900.0,7354149356.579999
sz300825,阿尔特,2021-01-19,24.08,24.19,23.28,23.65,24.06,2281300.0,54332494.0,1807214750.0,7228829271.95
sz300825,阿尔特,2021-01-20,23.64,24.17,23.61,23.83,23.65,3079353.0,73465839.0,1820969450.0,7283847845.690001
sz300825,阿尔特,2021-01-21,23.8,24.31,23.48,24.3,23.83,4981941.0,119878666.0,1856884500.0,7427507454.9
sz300825,阿尔特,2021-01-22,24.35,24.47,23.9,23.93,24.3,3041200.0,73284723.0,1828610950.0,7314413719.99
sz300825,阿尔特,2021-01-25,23.89,24.96,23.5,24.78,23.93,5253000.0,128184090.0,1893563700.0,7574223651.54
sz300825,阿尔特,2021-01-26,25.5,25.5,24.0,25.16,24.78,4688053.0,116428385.0,1922601400.0,7690373973.88
sz300825,阿尔特,2021-01-27,25.16,25.25,24.46,24.77,25.16,3544653.0,88126432.0,1892799550.0,7571167064.11
sz300825,阿尔特,2021-01-28,24.76,24.76,23.53,23.8,24.77,2257200.0,54401331.0,1818677000.0,7274678083.4
sz300825,阿尔特,2021-01-29,23.57,24.4,23.57,23.82,23.8,2984900.0,71825894.0,1820205300.0,7280791258.26
sz300825,阿尔特,2021-02-01,23.58,24.35,23.5,23.99,23.82,3041300.0,72866713.0,1833195850.0,7332753244.57
sz300825,阿尔特,2021-02-02,23.99,24.22,23.48,23.53,23.99,2497400.0,59380982.0,1798044950.0,7192150222.79
sz300825,阿尔特,2021-02-03,23.55,23.56,18.94,21.8,23.53,3519300.0,78396563.0,1665847000.0,6663360597.400001
sz300825,阿尔特,2021-02-04,21.67,22.12,21.21,21.98,21.8,3671200.0,79840175.0,1679601700.0000002,6718379171.139999
sz300825,阿尔特,2021-02-05,22.08,22.75,21.68,22.0,21.98,3310800.0,73708566.0,1681130000.0,6724492346.0
sz300825,阿尔特,2021-02-08,21.79,22.26,21.03,21.44,22.0,3239900.0,70050047.0,1638337600.0,6553323449.92
sz300825,阿尔特,2021-02-09,21.6,21.6,20.44,20.5,21.44,2961442.0,61658371.0,1566507500.0,6266004231.5
sz300825,阿尔特,2021-02-10,20.59,20.8,19.57,19.81,20.5,2639000.0,52551096.0,1513781150.0,6055099698.83
sz300825,阿尔特,2021-02-18,20.0,20.44,19.79,19.86,19.81,2262700.0,45157114.0,1517601900.0,6070382635.9800005
sz300825,阿尔特,2021-02-19,20.45,21.6,19.9,21.6,19.86,5537042.0,115238162.0,1650564000.0,6602228848.8
sz300825,阿尔特,2021-02-22,21.7,21.7,21.01,21.12,21.6,2551453.0,54321815.0,1613884800.0,6455512652.16
sz300825,阿尔特,2021-02-23,21.5,22.0,21.12,21.89,21.12,3627600.0,78380237.0,1672724350.0,6690869884.27
sz300825,阿尔特,2021-02-24,21.41,21.77,21.3,21.41,21.89,2189200.0,46965056.0,1636045150.0000002,6544153687.63
sz300825,阿尔特,2021-02-25,21.25,21.45,20.68,20.95,21.41,1543500.0,32469710.0,1600894250.0,6403550665.85
sz300825,阿尔特,2021-02-26,20.86,21.69,20.68,21.38,20.95,2288800.0,48781993.0,1633752700.0,6534983925.34
sz300825,阿尔特,2021-03-01,21.56,21.61,21.02,21.15,21.38,1748551.0,37089505.0,1616177250.0,6464682414.450001
sz300825,阿尔特,2021-03-02,21.05,21.05,20.25,20.25,21.15,1505309.0,30942217.0,1547403750.0,6189589545.75
sz300825,阿尔特,2021-03-03,20.25,20.87,20.14,20.48,20.25,1930000.0,39613841.0,1564979200.0000002,6259891056.64
sz300825,阿尔特,2021-03-04,20.45,20.52,19.82,19.82,20.48,1592300.0,31924428.0,1514545300.0,6058156286.26
sz300825,阿尔特,2021-03-05,19.82,20.16,19.71,20.0,19.82,1322105.0,26421062.0,1528300000.0,6113174860.0
sz300825,阿尔特,2021-03-08,20.0,20.2,19.69,20.01,20.0,1773583.0,35376220.0,1529064150.0,6116231447.43
sz300825,阿尔特,2021-03-09,20.05,20.09,19.02,19.47,20.01,1256000.0,24426362.0,1487800050.0,5951175726.21
sz300825,阿尔特,2021-03-10,19.48,19.68,19.17,19.18,19.47,837800.0,16175975.0,1465639700.0,5862534690.74
sz300825,阿尔特,2021-03-11,19.38,19.9,19.08,19.52,19.18,1769616.0,34588708.0,1491620799.9999998,5966458663.360001
sz300825,阿尔特,2021-03-12,19.53,19.58,19.12,19.28,19.52,786716.0,15125082.0,1473281200.0,5893100565.04
sz300825,阿尔特,2021-03-15,19.26,19.33,18.6,19.04,19.28,1057202.0,19992658.0,1454941600.0,5819742466.72
sz300825,阿尔特,2021-03-16,19.07,19.54,18.81,19.1,19.04,1082500.0,20791176.0,1459526500.0,5838081991.299999
sz300825,阿尔特,2021-03-17,19.1,19.4,18.81,19.35,19.1,1252163.0,24001192.0,1478630250.0,5914496677.05
sz300825,阿尔特,2021-03-18,19.4,19.81,19.1,19.14,19.35,1283600.0,24879070.0,1462583100.0,5850308341.02
sz300825,阿尔特,2021-03-19,19.16,19.3,18.92,18.92,19.14,1115500.0,21276420.0,1445771800.0,5783063417.559999
sz300825,阿尔特,2021-03-22,19.0,19.29,18.8,18.97,18.92,2378093.0,45293259.0,1449592550.0,5798346354.71
sz300825,阿尔特,2021-03-23,18.92,19.02,18.11,18.49,18.97,2213900.0,40945049.0,1412913350.0,5651630158.07
sz300825,阿尔特,2021-03-24,18.18,18.28,17.71,18.01,18.49,1527002.0,27462315.0,1376234150.0,5504913961.43
sz300825,阿尔特,2021-03-25,18.01,18.07,17.66,17.7,18.01,1051700.0,18716933.0,1352545500.0,5410159751.1
sz300825,阿尔特,2021-03-26,17.71,18.01,17.58,17.93,17.7,1187555.0,21199055.0,1370120950.0,5480461261.990001
sz300825,阿尔特,2021-03-29,17.56,17.79,16.47,16.91,17.93,5631153.0,95193097.0,4137047953.43,5168689344.13
sz300825,阿尔特,2021-03-30,16.39,17.15,16.39,16.62,16.91,3866840.0,65212519.0,4066099171.26,5080048308.66
sz300825,阿尔特,2021-03-31,16.8,17.99,16.7,17.54,16.62,4898100.0,85373523.0,4291178066.42,5361254352.22
sz300825,阿尔特,2021-04-01,17.45,17.61,17.04,17.53,17.54,2032400.0,35377939.0,4288731556.69,5358197764.79
sz300825,阿尔特,2021-04-02,17.68,17.75,17.3,17.6,17.53,2046400.0,35975817.0,4305857124.8,5379593876.8
sz300825,阿尔特,2021-04-06,17.51,18.7,17.51,18.42,17.6,4658400.0,85584147.0,4506470922.66,5630234046.06
sz300825,阿尔特,2021-04-07,18.3,18.58,18.12,18.36,18.42,2695100.0,49536273.0,4491791864.28,5611894521.4800005
sz300825,阿尔特,2021-04-08,18.37,18.93,18.1,18.69,18.36,2762500.0,51552795.0,4572526685.37,5712761906.67
sz300825,阿尔特,2021-04-09,18.69,22.1,18.5,21.38,18.69,11274360.0,230762781.0,5230637802.74,6534983925.34
sz300825,阿尔特,2021-04-12,21.0,21.61,20.54,20.65,21.38,5823710.0,122703904.0,5052042592.45,6311853042.950001
sz300825,阿尔特,2021-04-13,20.64,21.22,20.15,20.18,20.65,3521910.0,72803800.0,4937056635.14,6168193433.740001
sz300825,阿尔特,2021-04-14,20.42,21.99,20.35,21.18,20.18,7078866.0,151253376.0,5181707608.139999,6473852176.74
sz300825,阿尔特,2021-04-15,20.99,21.7,20.73,21.17,21.18,3527240.0,74599566.0,5179261098.41,6470795589.309999
sz300825,阿尔特,2021-04-16,21.01,21.46,20.4,20.58,21.17,4740883.0,98343839.0,5034917024.34,6290456930.94
sz300825,阿尔特,2021-04-19,20.61,22.2,20.61,21.51,20.58,10513283.0,225688183.0,5262442429.2300005,6574719561.929999
sz300825,阿尔特,2021-04-20,21.58,25.14,21.51,24.3,21.51,17871310.0,413264515.0,5945018643.9,7427507454.9
sz300825,阿尔特,2021-04-21,23.05,24.53,22.21,24.29,24.3,11186084.0,265884194.0,5942572134.17,7424450867.47
sz300825,阿尔特,2021-04-22,24.95,25.68,24.4,24.53,24.29,9497300.0,237153048.0,6001288367.690001,7497808965.790001
sz300825,阿尔特,2021-04-23,24.69,25.79,24.6,25.1,24.53,9463400.0,238967478.0,6140739422.3,7672034449.3
sz300825,阿尔特,2021-04-26,25.1,25.8,24.22,24.7,25.1,8549331.0,213361177.0,6042879033.099999,7549770952.1
sz300825,阿尔特,2021-04-27,24.83,25.66,23.5,25.31,24.7,9417287.0,232605448.0,6192116126.63,7736222785.33
sz300825,阿尔特,2021-04-28,25.8,28.0,25.41,27.52,25.31,15701674.0,422559400.0,6732794776.96,8411728607.36
sz300825,阿尔特,2021-04-29,27.44,28.8,26.9,27.01,27.52,12938706.0,360808092.0,6608022780.7300005,8255842648.429999
sz300825,阿尔特,2021-04-30,27.38,27.38,26.0,26.65,27.01,8943136.0,239413170.0,6519948430.45,8145805500.95
sz300825,阿尔特,2021-05-06,26.65,29.17,26.34,28.93,26.65,14541242.0,414998157.0,7077752648.889999,8842707434.99
sz300825,阿尔特,2021-05-07,28.94,29.27,27.5,27.81,28.93,7234800.0,204909586.0,6803743559.129999,8500369642.83
sz300825,阿尔特,2021-05-10,27.81,29.9,27.6,29.54,27.81,8835500.0,256581542.0,7226989742.42,9029159268.22
sz300825,阿尔特,2021-05-11,29.36,29.47,27.37,27.53,29.54,6301088.0,176597450.0,6735241286.69,8414785194.79
sz300825,阿尔特,2021-05-12,27.33,28.35,26.2,27.4,27.53,8693567.0,236832186.0,6703436660.2,8375049558.200001
sz300825,阿尔特,2021-05-13,27.29,28.76,26.7,28.0,27.4,6474200.0,181214119.0,6850227243.999999,8558444804.0
sz300825,阿尔特,2021-05-14,27.76,30.18,26.68,29.0,28.0,14897953.0,427723293.0,7094878217.0,8864103547.0
sz300825,阿尔特,2021-05-17,30.01,32.78,29.13,29.83,29.0,16878810.0,512895665.0,7297938524.589999,9117800303.69
sz300825,阿尔特,2021-05-18,29.68,30.7,28.8,29.73,29.83,12628300.0,376316708.0,7273473427.29,9087234429.39
sz300825,阿尔特,2021-05-19,29.3,29.67,27.68,27.93,29.73,10798820.0,304948621.0,6833101675.889999,8537048691.99
sz300825,阿尔特,2021-05-20,27.48,28.42,26.71,27.9,27.93,7879653.0,216712215.0,6825762146.7,8527878929.700001
sz300825,阿尔特,2021-05-21,28.04,28.67,26.6,26.84,27.9,7000700.0,190144991.0,6566432115.32,8203880662.12
sz300825,阿尔特,2021-05-24,26.91,27.25,25.86,25.97,26.84,5683400.0,149456546.0,6353585768.809999,7937957555.71
sz300825,阿尔特,2021-05-25,26.21,27.75,25.67,27.39,25.97,7608925.0,204120860.0,6700990150.47,8371992970.77
sz300825,阿尔特,2021-05-26,27.45,29.2,27.09,27.16,27.39,8087824.0,227606712.0,6644720426.679999,8301691459.88
sz300825,阿尔特,2021-05-27,27.7,28.1,26.3,26.96,27.16,4686600.0,126893656.0,6595790232.08,8240559711.28
sz300825,阿尔特,2021-05-28,27.36,28.52,27.0,27.8,26.96,6893920.0,193192301.0,6801297049.4,8497313055.4
sz300825,阿尔特,2021-05-31,27.8,28.88,27.5,28.67,27.8,6908500.0,197005918.0,7014143395.91,8763236161.81
sz300825,阿尔特,2021-06-01,28.64,28.67,27.88,27.91,28.67,4648300.0,131018130.0,6828208656.43,8530935517.13
sz300825,阿尔特,2021-06-02,28.0,28.11,26.75,27.35,27.91,5971101.0,162661998.0,6691204111.55,8359766621.05
sz300825,阿尔特,2021-06-03,27.44,27.8,25.8,25.83,27.35,7656300.0,202959688.0,6319334632.59,7895165331.69
sz300825,阿尔特,2021-06-04,25.81,27.63,25.7,27.0,25.83,7328132.0,196072976.0,6605576271.0,8252786061.0
sz300825,阿尔特,2021-06-07,27.12,27.68,26.66,27.49,27.0,6556100.0,178136063.0,6725455247.77,8402558845.07
sz300825,阿尔特,2021-06-08,27.64,27.95,27.07,27.7,27.49,4055100.0,111951991.0,6776831952.1,8466747181.1
sz300825,阿尔特,2021-06-09,27.33,27.8,27.11,27.65,27.7,2317100.0,63758481.0,6764599403.45,8451464243.95
sz300825,阿尔特,2021-06-10,27.88,28.8,27.32,28.3,27.65,5646100.0,159792739.0,6923622535.9,8650142426.9
sz300825,阿尔特,2021-06-11,28.11,28.29,27.35,27.59,28.3,3794788.0,104661648.0,6749920345.07,8433124719.370001
sz300825,阿尔特,2021-06-15,27.53,28.2,27.11,27.7,27.59,4197590.0,116887047.0,6776831952.1,8466747181.1
sz300825,阿尔特,2021-06-16,27.98,27.98,26.82,27.07,27.7,2932477.0,79793712.0,6622701839.110001,8274182173.01
sz300825,阿尔特,2021-06-17,27.07,27.4,26.72,27.2,27.07,2471953.0,66968539.0,6654506465.6,8313917809.6
sz300825,阿尔特,2021-06-18,26.5,27.87,26.5,27.24,27.2,4307500.0,117805839.0,6664292504.52,8326144159.320001
sz300825,阿尔特,2021-06-21,27.1,28.38,26.85,28.05,27.24,6685425.0,186499163.0,6862459792.65,8573727741.150001
sz300825,阿尔特,2021-06-22,28.25,28.85,27.9,28.14,28.05,8979075.0,256220885.0,6884478380.22,8601237028.02
sz300825,阿尔特,2021-06-23,28.56,29.2,27.99,28.59,28.14,7198653.0,205825492.0,6994571318.070001,8738783462.369999
sz300825,阿尔特,2021-06-24,28.79,28.94,26.89,27.04,28.59,9135214.0,250130492.0,6615362309.92,8265012410.72
sz300825,阿尔特,2021-06-25,27.19,27.9,26.66,26.77,27.04,5255900.0,142520448.0,6549306547.21,8182484550.110001
sz300825,阿尔特,2021-06-28,26.85,27.15,26.33,26.49,26.77,7422700.0,198329969.0,6480804274.77,8096900102.07
sz300825,阿尔特,2021-06-29,26.37,27.36,26.37,26.56,26.49,4682453.0,125762491.0,6497929842.88,8118296214.08
sz300825,阿尔特,2021-06-30,26.4,27.07,26.4,26.48,26.56,2924000.0,77904085.0,6478357765.04,8093843514.639999
sz300825,阿尔特,2021-07-01,26.65,27.09,25.85,26.22,26.48,4167100.0,110785187.0,6414748512.059999,8014372241.46
sz300825,阿尔特,2021-07-02,26.07,26.38,25.87,26.22,26.22,4207200.0,109844197.0,6414748512.059999,8014372241.46
sz300825,阿尔特,2021-07-05,26.37,28.6,25.66,28.5,26.22,12566383.0,352346870.0,6972552730.5,8711274175.5
sz300825,阿尔特,2021-07-06,28.7,30.36,28.51,29.73,28.5,17649079.0,526390837.0,7273473427.29,9087234429.39
sz300825,阿尔特,2021-07-07,29.84,30.3,28.1,29.0,29.73,11820117.0,344341428.0,7094878217.0,8864103547.0
sz300825,阿尔特,2021-07-08,29.98,30.38,28.06,28.27,29.0,9275195.0,268276421.0,6916283006.71,8640972664.609999
sz300825,阿尔特,2021-07-09,28.31,28.46,27.0,27.32,28.27,8365260.0,229275828.0,6683864582.360001,8350596858.759999
sz300825,阿尔特,2021-07-12,27.49,28.45,27.34,28.14,27.32,7960620.0,222963367.0,6884478380.22,8601237028.02
sz300825,阿尔特,2021-07-13,28.16,28.47,27.4,28.43,28.14,4588420.0,128139086.0,6955427162.389999,8689878063.49
sz300825,阿尔特,2021-07-14,28.28,29.28,27.99,28.08,28.43,5701295.0,162838315.0,6869799321.84,8582897503.44
sz300825,阿尔特,2021-07-15,28.24,28.4,27.31,28.23,28.08,5071905.0,140933489.0,6906496967.79,8628746314.890001
sz300825,阿尔特,2021-07-16,28.03,29.32,27.77,28.78,28.23,8343708.0,240866172.0,7041055002.940001,8796858623.539999
sz300825,阿尔特,2021-07-19,28.8,29.99,28.02,29.0,28.78,6968020.0,203697495.0,7094878217.0,8864103547.0
sz300825,阿尔特,2021-07-20,29.0,29.72,27.9,28.6,29.0,8337100.0,238406167.0,6997017827.8,8741840049.8
sz300825,阿尔特,2021-07-21,28.6,30.0,28.49,29.98,28.6,11054715.0,325896695.0,7334636170.54,9163649115.14
sz300825,阿尔特,2021-07-22,30.2,30.3,27.71,27.71,29.98,17009308.0,483832612.0,6779278461.83,8469803768.530001
sz300825,阿尔特,2021-07-23,27.37,28.34,27.3,27.75,27.71,5422906.0,150564856.0,6789064500.749999,8482030118.250001
sz300825,阿尔特,2021-07-26,28.0,30.38,27.97,29.71,27.75,17181969.0,502763224.0,7268580407.83,9081121254.53
sz300825,阿尔特,2021-07-27,30.12,30.6,28.62,28.85,29.71,16851124.0,500341912.0,7058180571.05,8818254735.550001
sz300825,阿尔特,2021-07-28,28.54,29.68,27.41,28.29,28.85,10500932.0,299294994.0,6921176026.17,8647085839.47
sz300825,阿尔特,2021-07-29,28.52,30.0,28.52,29.58,28.29,9876400.0,291283654.0,7236775781.339999,9041385617.94
sz300825,阿尔特,2021-07-30,29.45,30.2,28.99,29.62,29.58,9798195.0,290785477.0,7246561820.26,9053611967.66
sz300825,阿尔特,2021-08-02,29.88,33.7,29.87,33.4,29.62,24672240.0,794586295.0,8171342498.2,10209002016.2
sz300825,阿尔特,2021-08-03,33.81,36.39,33.25,34.9,33.4,27291723.0,949481304.0,8538318957.7,10667490130.7
sz300825,阿尔特,2021-08-04,36.26,36.79,34.25,35.12,34.9,22356014.0,789437516.0,8592142171.76,10734735054.16
sz300825,阿尔特,2021-08-05,34.8,34.88,33.18,34.02,35.12,14201260.0,480718501.0,8323026101.46,10398510436.86
sz300825,阿尔特,2021-08-06,34.27,35.48,33.68,34.44,34.02,11993723.0,414924164.0,8425779510.12,10526887108.92
sz300825,阿尔特,2021-08-09,35.23,35.23,33.01,33.87,34.44,10681364.0,363032035.0,8286328455.51,10352661625.41
sz300825,阿尔特,2021-08-10,34.19,34.49,33.52,34.0,33.87,7749449.0,263676638.0,8318133082.0,10392397262.0
sz300825,阿尔特,2021-08-11,34.15,34.35,33.35,34.0,34.0,7884753.0,266641234.0,8318133082.0,10392397262.0
sz300825,阿尔特,2021-08-12,33.88,34.28,31.8,31.9,34.0,15819038.0,514132872.0,7804366038.7,9750513901.7
sz300825,阿尔特,2021-08-13,31.81,32.5,31.51,32.24,31.9,7248973.0,231979181.0,7887547369.519999,9854437874.32
sz300825,阿尔特,2021-08-16,31.8,33.99,31.8,32.36,32.24,7463939.0,245033367.0,7916905486.28,9891116923.48
sz300825,阿尔特,2021-08-17,31.51,32.2,29.91,30.3,32.36,10663600.0,329504174.0,7412924481.900001,9261459912.9
sz300825,阿尔特,2021-08-18,30.15,30.56,28.91,29.17,30.3,10078300.0,296426614.0,7136468882.41,8916065533.31
sz300825,阿尔特,2021-08-19,29.18,29.44,28.28,28.7,29.17,9805454.0,281695061.0,7021482925.1,8772405924.1
sz300825,阿尔特,2021-08-20,28.88,29.96,27.97,29.92,28.7,10740256.0,315224548.0,7319957112.16,9145309590.56
sz300825,阿尔特,2021-08-23,30.01,32.65,30.01,31.67,29.92,11463959.0,360647202.0,7748096314.91,9680212390.81
sz300825,阿尔特,2021-08-24,31.7,32.5,31.12,31.78,31.67,7104012.0,225334659.0,7775007921.94,9713834852.54
sz300825,阿尔特,2021-08-25,32.08,32.1,30.69,31.21,31.78,6450398.0,201101746.0,7635556867.33,9539609369.03
sz300825,阿尔特,2021-08-26,30.22,31.45,30.05,30.77,31.21,7038325.0,217290932.0,7527910439.21,9405119522.11
sz300825,阿尔特,2021-08-27,31.2,33.0,30.81,32.89,30.77,11869700.0,382247439.0,8046570501.97,10053116057.27
sz300825,阿尔特,2021-08-30,33.0,33.45,32.07,32.93,32.89,9844854.0,322067772.0,8056356540.889999,10065342406.99
sz300825,阿尔特,2021-08-31,32.63,33.85,32.51,33.63,32.93,11201715.0,374318622.0,8227612221.99,10279303527.09
sz300825,阿尔特,2021-09-01,33.36,35.48,33.15,33.63,33.63,14427915.0,494373973.0,8227612221.99,10279303527.09
sz300825,阿尔特,2021-09-02,33.49,34.47,32.6,33.09,33.63,9858600.0,330162685.0,8095500696.57,10114247805.87
sz300825,阿尔特,2021-09-03,32.8,33.33,31.81,32.72,33.09,7895100.0,257166810.0,8004979836.56,10001154070.96
sz300825,阿尔特,2021-09-06,32.73,35.35,32.5,34.95,32.72,13980345.0,479462012.0,8550551506.349999,10682773067.85
sz300825,阿尔特,2021-09-07,34.94,36.75,34.52,36.48,34.95,14164054.0,510501954.0,8924867495.039999,11150430944.64
sz300825,阿尔特,2021-09-08,36.22,37.58,36.16,36.31,36.48,11729400.0,430612790.0,8883276829.630001,11098468958.33
sz300825,阿尔特,2021-09-09,36.37,36.37,34.17,34.33,36.31,13224396.0,461954187.0,8398867903.089999,10493264647.19
sz300825,阿尔特,2021-09-10,34.41,35.2,34.06,34.38,34.33,8167719.0,283481465.0,8411100451.74,10508547584.34
sz300825,阿尔特,2021-09-13,34.77,36.23,34.3,35.21,34.38,8414218.0,297994703.0,8614160759.33,10762244341.03
sz300825,阿尔特,2021-09-14,35.45,36.9,34.28,35.35,35.21,9880808.0,355254758.0,8648411895.550001,10805036565.05
sz300825,阿尔特,2021-09-15,35.54,37.61,34.86,37.48,35.35,15261500.0,557704499.0,9169518468.04,11456089687.64
sz300825,阿尔特,2021-09-16,37.04,37.45,34.48,35.7,37.48,19550957.0,693925422.0,8734039736.1,10912017125.1
sz300825,阿尔特,2021-09-17,35.34,35.88,34.27,34.65,35.7,10054354.0,350234411.0,8477156214.450001,10591075444.95
sz300825,阿尔特,2021-09-22,33.8,34.26,32.4,33.0,34.65,12968410.0,429198561.0,8073482108.999999,10086738519.0
sz300825,阿尔特,2021-09-23,33.48,33.75,32.3,32.88,33.0,7170600.0,235769562.0,8044123992.240001,10050059469.84
sz300825,阿尔特,2021-09-24,32.98,33.26,32.59,32.69,32.88,5760450.0,189476365.0,7997640307.370001,9991984308.67
sz300825,阿尔特,2021-09-27,32.55,32.55,30.33,30.63,32.69,8041620.0,251596954.0,7493659302.99,9362327298.09
sz300825,阿尔特,2021-09-28,30.5,32.8,30.27,31.96,30.63,7017800.0,224295442.0,7819045097.08,9768853426.28
sz300825,阿尔特,2021-09-29,31.8,31.97,31.0,31.64,31.96,6090500.0,191807006.0,7740756785.72,9671042628.52
sz300825,阿尔特,2021-09-30,32.8,33.98,32.13,32.81,31.64,10548200.0,348969598.0,8026998424.129999,10028663357.83
sz300825,阿尔特,2021-10-08,33.49,33.49,31.45,31.9,32.81,6503100.0,209006107.0,7804366038.7,9750513901.7
sz300825,阿尔特,2021-10-11,32.23,34.17,32.0,32.69,31.9,10365442.0,343680846.0,7997640307.370001,9991984308.67
sz300825,阿尔特,2021-10-12,32.61,32.88,30.3,30.74,32.69,7458837.0,233335652.0,7520570910.02,9395949759.82
sz300825,阿尔特,2021-10-13,30.98,31.5,30.3,31.5,30.74,3036335.0,94361974.0,7706505649.5,9628250404.5
sz300825,阿尔特,2021-10-14,31.78,32.51,31.2,32.3,31.5,4265988.0,136853490.0,7902226427.9,9872777398.9
sz300825,阿尔特,2021-10-15,32.76,33.3,32.01,32.9,32.3,5604670.0,183657932.0,8049017011.7,10056172644.7
sz300825,阿尔特,2021-10-18,29.6,32.68,28.65,32.54,32.9,12191542.0,380311911.0,7960942661.42,9946135497.22
sz300825,阿尔特,2021-10-19,32.05,32.56,30.68,30.72,32.54,10255742.0,320693870.0,7515677890.559999,9389836584.96
sz300825,阿尔特,2021-10-20,30.62,30.89,29.69,30.0,30.72,6372478.0,191664237.0,7339529190.0,9169762290.0
sz300825,阿尔特,2021-10-21,29.97,30.45,29.56,29.69,30.0,3705500.0,111112863.0,7263687388.37,9075008079.67
sz300825,阿尔特,2021-10-22,29.6,30.09,28.83,28.99,29.69,4960510.0,145281200.0,7092431707.27,8861046959.57
sz300825,阿尔特,2021-10-25,29.07,29.69,28.48,29.48,28.99,4769466.0,138192058.0,7212310684.04,9010819743.64
sz300825,阿尔特,2021-10-26,29.9,31.34,29.22,31.1,29.48,9169915.0,276851488.0,7608645260.299999,9505986907.3
sz300825,阿尔特,2021-10-27,30.88,32.49,30.57,31.25,31.1,10875162.0,341553637.0,7645342906.25,9551835718.75
sz300825,阿尔特,2021-10-28,30.84,31.25,30.2,30.25,31.25,6697700.0,204700222.0,7400691933.25,9246176975.75
sz300825,阿尔特,2021-10-29,30.53,30.73,29.91,30.42,30.25,4221888.0,127711984.0,7442282598.660001,10027936938.24
sz300825,阿尔特,2021-11-01,30.18,30.75,29.9,30.5,30.42,4833884.0,146923287.0,7461854676.5,10054308896.0
sz300825,阿尔特,2021-11-02,30.49,32.1,30.01,31.2,30.5,6740792.0,211086371.0,7633110357.6,10285063526.4
sz300825,阿尔特,2021-11-03,31.31,31.99,30.81,31.18,31.2,4619000.0,145325681.0,7628217338.14,10278470536.96
sz300825,阿尔特,2021-11-04,31.18,31.92,31.18,31.77,31.18,4362415.0,138331457.0,7772561412.21,10472963725.44
sz300825,阿尔特,2021-11-05,31.56,32.15,31.33,32.15,31.77,5996815.0,190633300.0,7865528781.95,10598230524.8
sz300825,阿尔特,2021-11-08,32.0,32.0,30.77,30.88,32.15,5103382.0,158653629.0,7554822046.24,10179575695.36
sz300825,阿尔特,2021-11-09,30.8,32.37,30.77,31.8,30.88,5974954.0,190048305.0,7779900941.4,10482853209.6
sz300825,阿尔特,2021-11-10,31.8,32.4,31.45,32.01,31.8,4665264.0,148905432.0,7831277645.73,10552079598.72
sz300825,阿尔特,2021-11-11,32.36,32.37,31.6,31.66,32.01,3473000.0,110766405.0,7745649805.179999,10436702283.52
sz300825,阿尔特,2021-11-12,31.66,32.9,31.02,32.45,31.66,7534296.0,242033597.0,7938924073.85,10697125366.400002
sz300825,阿尔特,2021-11-15,33.19,33.85,31.9,32.0,32.45,7124329.0,233452040.0,7828831136.0,10548783104.0
sz300825,阿尔特,2021-11-16,31.88,32.58,31.11,31.14,32.0,4956247.0,156583263.0,7683980999.219999,10330834258.08
sz300825,阿尔特,2021-11-17,31.0,31.25,30.05,31.11,31.14,4946542.0,151401337.0,7675411695.03,10320881623.92
sz300825,阿尔特,2021-11-18,31.01,31.05,30.33,30.51,31.11,4134374.0,126431568.0,7527380611.23,10121828940.72
sz300825,阿尔特,2021-11-19,30.6,31.38,30.15,31.2,30.51,3740900.0,115622862.0,7697616357.599999,10350739526.4
sz300825,阿尔特,2021-11-22,31.55,34.5,31.55,34.43,31.2,18211995.0,606526181.0,8494517025.389999,11422306470.96
sz300825,阿尔特,2021-11-23,34.44,34.92,33.8,34.38,34.43,10066039.0,345892186.0,8482181101.740001,11405718747.36
sz300825,阿尔特,2021-11-24,34.36,35.1,34.03,34.68,34.38,8323553.0,287436288.0,8556196643.639999,11505245088.96
sz300825,阿尔特,2021-11-25,35.0,35.8,34.03,34.38,34.68,6803422.0,235874850.0,8482181101.740001,11405718747.36
sz300825,阿尔特,2021-11-26,35.12,35.4,34.12,34.4,34.38,6154200.0,212678341.0,8487115471.2,11412353836.8
sz300825,阿尔特,2021-11-29,33.88,34.56,33.13,33.57,34.4,6280301.0,212159892.0,8282339138.61,11136997625.039999
sz300825,阿尔特,2021-11-30,33.61,35.23,33.3,34.94,33.57,9966305.0,343692488.0,8620343446.619999,11591501251.68
sz300825,阿尔特,2021-12-01,34.8,35.88,34.0,35.22,34.94,10613173.0,371481521.0,8689424619.06,11684392503.839998
sz300825,阿尔特,2021-12-02,35.22,35.5,34.1,34.35,35.22,7322700.0,252889096.0,8474779547.549999,11395766113.199999
sz300825,阿尔特,2021-12-03,34.34,34.68,33.2,33.48,34.35,5923425.0,200728415.0,8260134476.04,11107139722.56
sz300825,阿尔特,2021-12-06,33.38,33.91,31.5,31.61,33.48,7864129.0,254086931.0,7798770931.53,10486758859.920002
sz300825,阿尔特,2021-12-07,31.96,32.27,30.2,30.47,31.61,7509800.0,231945774.0,7517511872.31,10108558761.84
sz300825,阿尔特,2021-12-08,30.48,31.7,30.38,31.6,30.47,4838905.0,151166059.0,7796303746.8,10483441315.2
sz300825,阿尔特,2021-12-09,31.57,31.97,30.69,31.7,31.6,6251353.0,195466476.0,7820975594.099999,10516616762.4
sz300825,阿尔特,2021-12-10,31.45,31.9,31.02,31.12,31.7,3692300.0,115588278.0,7677878879.759999,10324199168.64
sz300825,阿尔特,2021-12-13,31.05,31.36,30.6,30.98,31.12,3603200.0,111549926.0,7643338293.540001,10277753542.56
sz300825,阿尔特,2021-12-14,30.82,31.2,30.5,31.16,30.98,3086100.0,95161330.0,7687747618.68,10337469347.52
sz300825,阿尔特,2021-12-15,31.25,31.29,30.03,30.05,31.16,5902821.0,179532942.0,7413890113.650001,9969221883.6
sz300825,阿尔特,2021-12-16,30.3,30.48,29.91,30.17,30.05,4453700.0,134266548.0,7443496330.41,10009032420.24
sz300825,阿尔特,2021-12-17,30.18,30.45,29.43,29.93,30.17,4264310.0,127115666.0,7384283896.889999,9929411346.960001
sz300825,阿尔特,2021-12-20,29.96,30.16,29.21,29.29,29.93,3438480.0,101756192.0,7226384074.17,9717088484.88
sz300825,阿尔特,2021-12-21,29.45,29.69,28.58,29.01,29.29,4084420.0,118291165.0,7157302901.73,9624197232.72
sz300825,阿尔特,2021-12-22,29.3,29.63,28.91,29.48,29.01,2958096.0,86724901.0,7273260584.04,9780121834.560001
sz300825,阿尔特,2021-12-23,29.39,30.38,29.28,29.84,29.48,3820066.0,114312156.0,7362079234.32,9899553444.48
sz300825,阿尔特,2021-12-24,29.87,30.08,28.6,28.65,29.84,3900182.0,113042445.0,7068484251.45,9504765622.8
sz300825,阿尔特,2021-12-27,28.8,29.18,28.58,28.74,28.65,2230697.0,64279584.0,7090688914.0199995,9534623525.28
sz300825,阿尔特,2021-12-28,28.71,29.18,27.86,28.6,28.74,4342800.0,124029617.0,7056148327.8,9488177899.2
sz300825,阿尔特,2021-12-29,28.58,28.58,27.19,27.8,28.6,6701887.0,186039322.0,6858773549.4,9222774321.6
sz300825,阿尔特,2021-12-30,27.82,28.74,27.69,28.27,27.8,3708295.0,105052850.0,6974731231.71,9378698923.44
sz300825,阿尔特,2021-12-31,28.27,28.61,27.79,28.01,28.27,2819600.0,79075556.0,6910584428.7300005,9292442760.720001
sz300825,阿尔特,2022-01-04,28.01,28.53,27.86,28.32,28.01,2960500.0,83549651.0,6987067155.36,9395286647.039999
sz300825,阿尔特,2022-01-05,28.56,28.57,26.11,26.5,28.32,7908345.0,213789511.0,6538039534.5,8791493508.0
sz300825,阿尔特,2022-01-06,26.4,26.8,25.86,26.43,26.5,4454325.0,117194098.0,6520769241.39,8768270694.96
sz300825,阿尔特,2022-01-07,26.66,26.66,25.51,25.62,26.43,3872526.0,100644711.0,6320927278.259999,8499549572.639999
sz300825,阿尔特,2022-01-10,25.18,26.14,25.0,25.9,25.62,4630341.0,119012580.0,6390008450.700001,8592440824.8
sz300825,阿尔特,2022-01-11,25.99,26.92,25.71,26.0,25.9,5090800.0,133390757.0,6414680298.0,8625616272.0
sz300825,阿尔特,2022-01-12,26.05,27.3,25.9,26.96,26.0,4934878.0,132424320.0,6651530032.08,8944100565.12
sz300825,阿尔特,2022-01-13,26.87,27.16,26.58,26.61,26.96,3075876.0,82664507.0,6565178566.53,8827986499.92
sz300825,阿尔特,2022-01-14,26.52,26.75,26.26,26.59,26.61,2621500.0,69386347.0,6560244197.070001,8821351410.48
