数据由邢不行整理
股票代码,股票名称,交易日期,开盘价,最高价,最低价,收盘价,前收盘价,成交量,成交额,流通市值,总市值
sz300762,N瀚讯,2019-03-14,19.54,23.44,19.54,23.44,16.28,14400.0,336915.0,781958400.0,3125958400.0
sz300762,上海瀚讯,2019-03-15,25.78,25.78,25.78,25.78,23.44,5641.0,145424.0,860020800.0,3438020800.0
sz300762,上海瀚讯,2019-03-18,28.36,28.36,28.36,28.36,25.78,11953.0,338987.0,946089600.0,3782089600.0
sz300762,上海瀚讯,2019-03-19,31.2,31.2,31.2,31.2,28.36,12251.0,382231.0,1040832000.0,4160832000.0
sz300762,上海瀚讯,2019-03-20,34.32,34.32,34.32,34.32,31.2,16050.0,550836.0,1144915200.0,4576915200.0
sz300762,上海瀚讯,2019-03-21,37.75,37.75,37.75,37.75,34.32,31342.0,1183160.0,1259340000.0,5034340000.0
sz300762,上海瀚讯,2019-03-22,41.53,41.53,41.53,41.53,37.75,50650.0,2103494.0,1385440800.0,5538440800.0
sz300762,上海瀚讯,2019-03-25,45.68,45.68,45.68,45.68,41.53,78027.0,3564273.0,1523884800.0,6091884800.0
sz300762,上海瀚讯,2019-03-26,50.25,50.25,50.25,50.25,45.68,96984.0,4873446.0,1676340000.0,6701340000.0
sz300762,上海瀚讯,2019-03-27,55.28,55.28,55.28,55.28,50.25,102703.0,5677421.0,1844140800.0,7372140800.0
sz300762,上海瀚讯,2019-03-28,60.81,60.81,60.81,60.81,55.28,186571.0,11345382.0,2028621600.0,8109621600.0
sz300762,上海瀚讯,2019-03-29,66.89,66.89,66.89,66.89,60.81,360586.0,24119597.0,2231450400.0,8920450400.0
sz300762,上海瀚讯,2019-04-01,73.58,73.58,73.58,73.58,66.89,168972.0,12432959.0,2454628800.0,9812628800.0
sz300762,上海瀚讯,2019-04-02,80.94,80.94,80.94,80.94,73.58,151031.0,12224449.0,2700158400.0,10794158400.0
sz300762,上海瀚讯,2019-04-03,89.03,89.03,89.03,89.03,80.94,2898950.0,258093518.0,2970040800.0,11873040800.0
sz300762,上海瀚讯,2019-04-04,96.0,97.93,94.12,97.93,89.03,15126467.0,1457229577.0,3266944800.0,13059944800.0
sz300762,上海瀚讯,2019-04-08,98.0,98.99,91.6,94.9,97.93,17284304.0,1651689816.0,3165864000.0,12655864000.0
sz300762,上海瀚讯,2019-04-09,93.55,96.97,88.83,90.11,94.9,11848229.0,1098093154.0,3006069600.0,12017069600.0
sz300762,上海瀚讯,2019-04-10,91.5,92.83,87.17,88.88,90.11,7653609.0,691360709.0,2965036800.0,11853036800.0
sz300762,上海瀚讯,2019-04-11,87.2,92.58,86.06,88.98,88.88,7913105.0,711304999.0,2968372800.0,11866372800.0
sz300762,上海瀚讯,2019-04-12,86.99,89.6,85.88,87.6,88.98,6053131.0,528665292.0,2922336000.0,11682336000.0
sz300762,上海瀚讯,2019-04-15,87.75,91.3,81.38,81.38,87.6,8638118.0,747881691.0,2714836800.0,10852836800.0
sz300762,上海瀚讯,2019-04-16,80.01,81.94,76.58,80.3,81.38,8421169.0,669118497.0,2678808000.0,10708808000.0
sz300762,上海瀚讯,2019-04-17,80.3,82.68,80.0,80.0,80.3,6671797.0,542350179.0,2668800000.0,10668800000.0
sz300762,上海瀚讯,2019-04-18,78.8,82.5,77.5,79.7,80.0,6407066.0,512962942.0,2658792000.0,10628792000.0
sz300762,上海瀚讯,2019-04-19,79.88,81.6,79.1,81.08,79.7,5729765.0,461704087.0,2704828800.0,10812828800.0
sz300762,上海瀚讯,2019-04-22,80.0,81.85,79.0,80.15,81.08,5554602.0,447461521.0,2673804000.0,10688804000.0
sz300762,上海瀚讯,2019-04-23,79.82,83.47,79.38,79.38,80.15,8195825.0,667551476.0,2648116800.0,10586116800.0
sz300762,上海瀚讯,2019-04-24,76.5,77.99,71.44,72.1,79.38,9821834.0,720341005.0,2405256000.0,9615256000.0
sz300762,上海瀚讯,2019-04-25,71.96,72.8,69.7,69.9,72.1,4502734.0,320255588.0,2331864000.0,9321864000.0
sz300762,上海瀚讯,2019-04-26,69.88,70.8,68.49,68.49,69.9,4090824.0,284373626.0,2284826400.0,9133826400.0
sz300762,上海瀚讯,2019-04-29,68.06,68.73,61.64,61.64,68.49,5709232.0,365662155.0,2056310400.0,8220310400.0
sz300762,上海瀚讯,2019-04-30,60.99,62.1,60.23,61.6,61.64,3212351.0,197056099.0,2054976000.0,8214976000.0
sz300762,上海瀚讯,2019-05-06,59.0,60.5,55.77,56.2,61.6,3860997.0,224660218.0,1874832000.0,7494832000.0
sz300762,上海瀚讯,2019-05-07,57.38,60.5,56.52,59.6,56.2,4372235.0,256094432.0,1988256000.0,7948256000.0
sz300762,上海瀚讯,2019-05-08,57.43,60.9,57.25,59.36,59.6,3642818.0,215474843.0,1980249600.0,7916249600.0
sz300762,上海瀚讯,2019-05-09,58.75,62.66,58.75,60.0,59.36,4179870.0,254785674.0,2001600000.0,8001600000.0
sz300762,上海瀚讯,2019-05-10,60.91,62.55,59.0,62.4,60.0,5403948.0,330855969.0,2081664000.0,8321664000.0
sz300762,上海瀚讯,2019-05-13,61.0,62.11,60.7,61.1,62.4,3166031.0,194141482.0,2038296000.0,8148296000.0
sz300762,上海瀚讯,2019-05-14,60.26,63.5,60.01,61.6,61.1,4075556.0,253250868.0,2054976000.0,8214976000.0
sz300762,上海瀚讯,2019-05-15,62.68,62.92,60.63,61.32,61.6,3787291.0,232597233.0,2045635200.0,8177635200.0
sz300762,上海瀚讯,2019-05-16,61.59,61.6,60.03,60.19,61.32,3253876.0,196953231.0,2007938400.0,8026938400.0
sz300762,上海瀚讯,2019-05-17,60.36,62.45,58.2,58.9,60.19,4509124.0,275211914.0,1964904000.0,7854904000.0
sz300762,上海瀚讯,2019-05-20,58.1,58.88,54.0,57.2,58.9,4036092.0,226633356.0,1908192000.0,7628192000.0
sz300762,上海瀚讯,2019-05-21,56.78,58.28,56.41,57.39,57.2,2762291.0,158588486.0,1914530400.0,7653530400.0
sz300762,上海瀚讯,2019-05-22,56.98,59.84,56.68,57.5,57.39,3489260.0,203032972.0,1918200000.0,7668200000.0
sz300762,上海瀚讯,2019-05-23,58.0,58.0,54.9,54.98,57.5,3241207.0,182208721.0,1834132800.0,7332132800.0
sz300762,上海瀚讯,2019-05-24,54.81,56.5,54.78,55.44,54.98,2489283.0,138508662.0,1849478400.0,7393478400.0
sz300762,上海瀚讯,2019-05-27,56.0,57.98,55.2,57.93,55.44,3295896.0,187479850.0,1932544800.0,7725544800.0
sz300762,上海瀚讯,2019-05-28,57.83,59.3,57.05,57.67,57.93,3657179.0,212825278.0,1923871200.0,7690871200.0
sz300762,上海瀚讯,2019-05-29,57.3,63.44,57.08,63.44,57.67,5854721.0,364835964.0,2116358400.0,8460358400.0
sz300762,上海瀚讯,2019-05-30,63.5,67.64,62.51,65.7,63.44,9970643.0,647558348.0,2191752000.0,8761752000.0
sz300762,上海瀚讯,2019-05-31,64.59,70.66,64.51,68.76,65.7,9039561.0,612377716.0,2293833600.0,9169833600.0
sz300762,上海瀚讯,2019-06-03,69.74,71.66,64.88,65.17,68.76,7178882.0,483003007.0,2174071200.0,8691071200.0
sz300762,上海瀚讯,2019-06-04,64.29,64.6,61.76,62.45,65.17,5415358.0,341174142.0,2083332000.0,8328332000.0
sz300762,上海瀚讯,2019-06-05,63.45,63.69,61.0,61.0,62.45,4320221.0,269190186.0,2034960000.0,8134960000.0
sz300762,上海瀚讯,2019-06-06,61.08,61.4,54.9,55.02,61.0,6137150.0,349362779.0,1835467200.0,7337467200.0
sz300762,上海瀚讯,2019-06-10,55.59,56.3,55.0,55.36,55.02,2682076.0,149206088.0,1846809600.0,7382809600.0
sz300762,上海瀚讯,2019-06-11,55.36,58.17,53.3,58.0,55.36,4188170.0,234761443.0,1934880000.0,7734880000.0
sz300762,上海瀚讯,2019-06-12,57.03,58.55,56.84,56.97,58.0,3236649.0,186224190.0,1900519200.0,7597519200.0
sz300762,上海瀚讯,2019-06-13,57.22,58.35,56.6,57.3,56.97,2694406.0,154927188.0,1911528000.0,7641528000.0
sz300762,上海瀚讯,2019-06-14,57.11,59.4,56.11,56.13,57.3,3395879.0,196749805.0,1872496800.0,7485496800.0
sz300762,上海瀚讯,2019-06-17,55.9,55.9,54.5,55.25,56.13,2183106.0,120531635.0,1843140000.0,7368140000.0
sz300762,上海瀚讯,2019-06-18,55.66,58.25,54.54,57.47,55.25,3463320.0,196829230.0,1917199200.0,7664199200.0
sz300762,上海瀚讯,2019-06-19,58.96,59.16,57.55,58.51,57.47,4170813.0,244076478.0,1951893600.0,7802893600.0
sz300762,上海瀚讯,2019-06-20,58.0,59.99,57.28,58.85,58.51,4344128.0,255666104.0,1963236000.0,7848236000.0
sz300762,上海瀚讯,2019-06-21,59.81,61.08,59.3,60.14,58.85,3655629.0,219244820.0,2006270400.0,8020270400.0
sz300762,上海瀚讯,2019-06-24,61.0,61.3,58.05,58.59,60.14,3285461.0,195645400.0,1954562400.0,7813562400.0
sz300762,上海瀚讯,2019-06-25,57.92,62.62,57.9,60.34,58.59,4833940.0,292420076.0,2012942400.0,8046942400.0
sz300762,上海瀚讯,2019-06-26,59.5,60.88,59.3,60.69,60.34,2929744.0,175508806.0,2024618400.0,8093618400.0
sz300762,上海瀚讯,2019-06-27,60.25,62.48,60.0,60.94,60.69,3735934.0,228354752.0,2032958400.0,8126958400.0
sz300762,上海瀚讯,2019-06-28,61.08,61.1,58.0,58.0,60.94,3159665.0,187345971.0,1934880000.0,7734880000.0
sz300762,上海瀚讯,2019-07-01,59.11,60.5,58.68,59.81,58.0,3189286.0,190211924.0,1995261600.0,7976261600.0
sz300762,上海瀚讯,2019-07-02,59.81,61.8,59.64,59.96,59.81,2819198.0,170487665.0,2000265600.0,7996265600.0
sz300762,上海瀚讯,2019-07-03,59.72,60.5,58.5,58.9,59.96,2332425.0,138255878.0,1964904000.0,7854904000.0
sz300762,上海瀚讯,2019-07-04,59.0,61.3,58.99,60.2,58.9,3481393.0,209728664.0,2008272000.0,8028272000.0
sz300762,上海瀚讯,2019-07-05,62.0,64.39,62.0,62.3,60.2,6041647.0,380940672.0,2078328000.0,8308328000.0
sz300762,上海瀚讯,2019-07-08,62.3,63.5,59.3,59.68,62.3,4712879.0,288928355.0,1990924800.0,7958924800.0
sz300762,上海瀚讯,2019-07-09,58.6,58.76,56.42,57.08,59.68,3755391.0,215994509.0,1904188800.0,7612188800.0
sz300762,上海瀚讯,2019-07-10,57.67,57.85,56.54,56.65,57.08,2002546.0,114523529.0,1889844000.0,7554844000.0
sz300762,上海瀚讯,2019-07-11,56.84,57.3,55.2,55.7,56.65,2335676.0,131152632.0,1858152000.0,7428152000.0
sz300762,上海瀚讯,2019-07-12,55.88,56.0,55.19,55.8,55.7,1350269.0,75101049.0,1861488000.0,7441488000.0
sz300762,上海瀚讯,2019-07-15,56.03,57.96,56.0,57.96,55.8,2591998.0,148010214.0,1933545600.0,7729545600.0
sz300762,上海瀚讯,2019-07-16,57.8,61.39,57.29,60.3,57.96,4030523.0,239662517.0,2011608000.0,8041608000.0
sz300762,上海瀚讯,2019-07-17,59.8,60.58,58.7,59.04,60.3,3182342.0,189677403.0,1969574400.0,7873574400.0
sz300762,上海瀚讯,2019-07-18,58.43,58.96,57.21,57.3,59.04,2200854.0,127651432.0,1911528000.0,7641528000.0
sz300762,上海瀚讯,2019-07-19,57.24,58.3,57.16,57.45,57.3,1721070.0,99291420.0,1916532000.0,7661532000.0
sz300762,上海瀚讯,2019-07-22,57.46,58.15,54.02,54.27,57.45,2495084.0,137288520.0,1810447200.0,7237447200.0
sz300762,上海瀚讯,2019-07-23,54.08,55.54,54.05,55.26,54.27,1332478.0,73368224.0,1843473600.0,7369473600.0
sz300762,上海瀚讯,2019-07-24,55.46,59.29,55.44,58.58,55.26,3640279.0,212555272.0,1954228800.0,7812228800.0
sz300762,上海瀚讯,2019-07-25,58.21,59.0,57.5,58.28,58.58,2951337.0,171948904.0,1944220800.0,7772220800.0
sz300762,上海瀚讯,2019-07-26,58.32,60.89,58.32,58.98,58.28,3339512.0,198647998.0,1967572800.0,7865572800.0
sz300762,上海瀚讯,2019-07-29,58.76,59.98,58.3,59.47,58.98,2490500.0,147134898.0,1983919200.0,7930919200.0
sz300762,上海瀚讯,2019-07-30,59.3,59.65,58.5,58.52,59.47,2330471.0,137633887.0,1952227200.0,7804227200.0
sz300762,上海瀚讯,2019-07-31,58.49,58.84,57.91,58.55,58.52,1883499.0,109914460.0,1953228000.0,7808228000.0
sz300762,上海瀚讯,2019-08-01,58.5,58.5,56.51,57.3,58.55,2444880.0,140054740.0,1911528000.0,7641528000.0
sz300762,上海瀚讯,2019-08-02,56.0,56.48,55.39,56.18,57.3,2383771.0,133362091.0,1874164800.0,7492164800.0
sz300762,上海瀚讯,2019-08-05,55.98,58.11,55.98,56.55,56.18,2489154.0,142397015.0,1886508000.0,7541508000.0
sz300762,上海瀚讯,2019-08-06,55.2,57.84,54.41,57.35,56.55,3211609.0,180481785.0,1913196000.0,7648196000.0
sz300762,上海瀚讯,2019-08-07,57.8,58.09,55.1,55.1,57.35,2731001.0,153828221.0,1838136000.0,7348136000.0
sz300762,上海瀚讯,2019-08-08,55.18,56.33,55.01,55.49,55.1,2066364.0,115163654.0,1851146400.0,7400146400.0
sz300762,上海瀚讯,2019-08-09,55.8,55.94,53.58,53.65,55.49,2329450.0,127159835.0,1789764000.0,7154764000.0
sz300762,上海瀚讯,2019-08-12,53.93,55.48,53.71,55.45,53.65,1626752.0,89134172.0,1849812000.0,7394812000.0
sz300762,上海瀚讯,2019-08-13,55.11,55.66,54.6,55.27,55.45,1381051.0,76217416.0,1843807200.0,7370807200.0
sz300762,上海瀚讯,2019-08-14,56.0,56.4,55.44,55.52,55.27,1558318.0,86978707.0,1852147200.0,7404147200.0
sz300762,上海瀚讯,2019-08-15,53.9,55.43,53.8,55.17,55.52,1689646.0,92178728.0,1840471200.0,7357471200.0
sz300762,上海瀚讯,2019-08-16,55.13,56.28,55.06,55.38,55.17,2035088.0,112975313.0,1847476800.0,7385476800.0
sz300762,上海瀚讯,2019-08-19,56.1,57.82,55.71,57.79,55.38,3310488.0,188421927.0,1927874400.0,7706874400.0
sz300762,上海瀚讯,2019-08-20,57.82,58.48,57.41,58.18,57.79,3450281.0,199889979.0,1940884800.0,7758884800.0
sz300762,上海瀚讯,2019-08-21,57.8,58.1,57.48,57.53,58.18,2062261.0,119133415.0,1919200800.0,7672200800.0
sz300762,上海瀚讯,2019-08-22,57.61,62.8,57.61,60.42,57.53,5689531.0,343325840.0,2015611200.0,8057611200.0
sz300762,上海瀚讯,2019-08-23,60.63,61.45,59.68,61.0,60.42,3991119.0,241760239.0,2034960000.0,8134960000.0
sz300762,上海瀚讯,2019-08-26,59.98,61.93,59.71,61.0,61.0,3354749.0,204942241.0,2034960000.0,8134960000.0
sz300762,上海瀚讯,2019-08-27,61.64,62.62,61.06,62.24,61.0,3689673.0,228275323.0,2076326400.0,8300326400.0
sz300762,上海瀚讯,2019-08-28,61.73,64.57,61.53,64.41,62.24,5346347.0,339031073.0,2148717600.0,8589717600.0
sz300762,上海瀚讯,2019-08-29,65.02,65.5,62.76,62.76,64.41,4858403.0,310732737.0,2093673600.0,8369673600.0
sz300762,上海瀚讯,2019-08-30,63.7,64.8,61.51,61.75,62.76,4290851.0,271295880.0,2059980000.0,8234980000.0
sz300762,上海瀚讯,2019-09-02,62.0,66.66,62.0,65.74,61.75,4908067.0,319761741.0,2193086400.0,8767086400.0
sz300762,上海瀚讯,2019-09-03,65.02,68.43,64.55,67.49,65.74,5964300.0,396186132.0,2251466400.0,9000466400.0
sz300762,上海瀚讯,2019-09-04,67.0,68.14,65.67,66.93,67.49,3935436.0,262860300.0,2232784800.0,8925784800.0
sz300762,上海瀚讯,2019-09-05,66.93,67.98,66.06,66.88,66.93,3978663.0,267396095.0,2231116800.0,8919116800.0
sz300762,上海瀚讯,2019-09-06,67.26,69.49,66.62,67.6,66.88,4049397.0,275653930.0,2255136000.0,9015136000.0
sz300762,上海瀚讯,2019-09-09,68.12,68.58,66.51,68.37,67.6,3440876.0,232852328.0,2280823200.0,9117823200.0
sz300762,上海瀚讯,2019-09-10,67.9,69.65,66.38,66.43,68.37,3820052.0,259412559.0,2216104800.0,8859104800.0
sz300762,上海瀚讯,2019-09-11,67.31,67.66,66.18,66.2,66.43,2696163.0,180541471.0,2208432000.0,8828432000.0
sz300762,上海瀚讯,2019-09-12,66.82,66.9,65.07,66.15,66.2,2577398.0,170208072.0,2206764000.0,8821764000.0
sz300762,上海瀚讯,2019-09-16,66.4,67.23,65.28,65.88,66.15,2590251.0,171535119.0,2197756800.0,8785756800.0
sz300762,上海瀚讯,2019-09-17,65.8,65.85,62.5,63.21,65.88,3502266.0,224472001.0,2108685600.0,8429685600.0
sz300762,上海瀚讯,2019-09-18,63.67,63.88,62.0,62.6,63.21,2240556.0,141003265.0,2088336000.0,8348336000.0
sz300762,上海瀚讯,2019-09-19,62.64,63.88,62.3,63.51,62.6,2069963.0,130573905.0,2118693600.0,8469693600.0
sz300762,上海瀚讯,2019-09-20,63.48,64.4,62.48,62.52,63.51,2600017.0,164407500.0,2085667200.0,8337667200.0
sz300762,上海瀚讯,2019-09-23,62.55,63.48,61.03,63.24,62.52,2184577.0,136340231.0,2109686400.0,8433686400.0
sz300762,上海瀚讯,2019-09-24,63.0,63.99,63.0,63.5,63.24,2319882.0,147201547.0,2118360000.0,8468360000.0
sz300762,上海瀚讯,2019-09-25,63.5,63.5,60.56,60.56,63.5,2536184.0,156361367.0,2020281600.0,8076281600.0
sz300762,上海瀚讯,2019-09-26,60.99,61.2,57.44,57.67,60.56,2958257.0,173894432.0,1923871200.0,7690871200.0
sz300762,上海瀚讯,2019-09-27,57.33,58.46,57.31,57.72,57.67,1541079.0,89333869.0,1925539200.0,7697539200.0
sz300762,上海瀚讯,2019-09-30,57.56,58.35,56.2,56.2,57.72,1219752.0,69994704.0,1874832000.0,7494832000.0
sz300762,上海瀚讯,2019-10-08,57.0,58.9,56.57,56.97,56.2,1543128.0,89173614.0,1900519200.0,7597519200.0
sz300762,上海瀚讯,2019-10-09,57.0,59.8,56.5,59.57,56.97,2184370.0,127900219.0,1987255200.0,7944255200.0
sz300762,上海瀚讯,2019-10-10,59.6,61.06,59.19,60.58,59.57,1868331.0,112972086.0,2020948800.0,8078948800.0
sz300762,上海瀚讯,2019-10-11,60.5,60.78,59.22,59.8,60.58,1274506.0,76467604.0,1994928000.0,7974928000.0
sz300762,上海瀚讯,2019-10-14,60.57,60.9,60.03,60.9,59.8,1330675.0,80516792.0,2031624000.0,8121624000.0
sz300762,上海瀚讯,2019-10-15,59.0,59.0,57.19,57.89,60.9,2252420.0,130639139.0,1931210400.0,7720210400.0
sz300762,上海瀚讯,2019-10-16,58.48,59.26,57.9,57.9,57.89,1225068.0,71859696.0,1931544000.0,7721544000.0
sz300762,上海瀚讯,2019-10-17,58.27,58.84,57.5,57.92,57.9,882205.0,51269922.0,1932211200.0,7724211200.0
sz300762,上海瀚讯,2019-10-18,57.77,58.4,56.9,56.9,57.92,1113912.0,64010872.0,1898184000.0,7588184000.0
sz300762,上海瀚讯,2019-10-21,56.51,56.91,55.31,56.8,56.9,1245025.0,69632958.0,1894848000.0,7574848000.0
sz300762,上海瀚讯,2019-10-22,57.0,57.59,56.52,57.55,56.8,887400.0,50778869.0,1919868000.0,7674868000.0
sz300762,上海瀚讯,2019-10-23,57.45,57.8,57.07,57.1,57.55,764648.0,43936376.0,1904856000.0,7614856000.0
sz300762,上海瀚讯,2019-10-24,56.86,57.36,56.55,57.01,57.1,681386.0,38829537.0,1901853600.0,7602853600.0
sz300762,上海瀚讯,2019-10-25,57.01,57.85,56.82,57.54,57.01,788509.0,45208352.0,1919534400.0,7673534400.0
sz300762,上海瀚讯,2019-10-28,57.03,58.38,56.8,57.59,57.54,1683036.0,96840271.0,1921202400.0,7680202400.0
sz300762,上海瀚讯,2019-10-29,57.5,57.78,55.33,55.46,57.59,1937927.0,108698559.0,1850145600.0,7396145600.0
sz300762,上海瀚讯,2019-10-30,55.11,55.8,54.6,55.1,55.46,946802.0,52175998.0,1838136000.0,7348136000.0
sz300762,上海瀚讯,2019-10-31,55.0,55.6,54.67,54.74,55.1,936000.0,51487982.0,1826126400.0,7300126400.0
sz300762,上海瀚讯,2019-11-01,54.68,55.02,53.63,54.73,54.74,955584.0,52032475.0,1825792800.0,7298792800.0
sz300762,上海瀚讯,2019-11-04,54.98,55.6,54.63,54.77,54.73,666987.0,36759530.0,1827127200.0,7304127200.0
sz300762,上海瀚讯,2019-11-05,55.13,55.36,54.55,54.95,54.77,786207.0,43228591.0,1833132000.0,7328132000.0
sz300762,上海瀚讯,2019-11-06,54.97,55.77,54.7,54.9,54.95,1007130.0,55545549.0,1831464000.0,7321464000.0
sz300762,上海瀚讯,2019-11-07,54.78,55.38,54.25,55.04,54.9,736079.0,40462370.0,1836134400.0,7340134400.0
sz300762,上海瀚讯,2019-11-08,55.09,55.88,54.81,55.67,55.04,1303207.0,72212142.0,1857151200.0,7424151200.0
sz300762,上海瀚讯,2019-11-11,55.3,55.3,52.9,52.97,55.67,1520966.0,82157288.0,1767079200.0,7064079200.0
sz300762,上海瀚讯,2019-11-12,53.2,53.3,50.5,51.74,52.97,1582980.0,81621548.0,1726046400.0,6900046400.0
sz300762,上海瀚讯,2019-11-13,51.25,51.96,51.24,51.5,51.74,619399.0,31922456.0,1718040000.0,6868040000.0
sz300762,上海瀚讯,2019-11-14,52.15,53.76,51.93,52.9,51.5,1267979.0,67306190.0,1764744000.0,7054744000.0
sz300762,上海瀚讯,2019-11-15,52.68,53.48,52.4,52.4,52.9,907746.0,47924148.0,1748064000.0,6988064000.0
sz300762,上海瀚讯,2019-11-18,52.04,52.5,51.5,51.9,52.4,800314.0,41580460.0,1731384000.0,6921384000.0
sz300762,上海瀚讯,2019-11-19,51.95,52.82,51.6,52.7,51.9,807591.0,42325679.0,1758072000.0,7028072000.0
sz300762,上海瀚讯,2019-11-20,52.48,53.7,52.48,52.67,52.7,1048916.0,55644551.0,1757071200.0,7024071200.0
sz300762,上海瀚讯,2019-11-21,52.5,53.5,52.2,52.63,52.67,806316.0,42662877.0,1755736800.0,7018736800.0
sz300762,上海瀚讯,2019-11-22,52.2,53.19,51.5,51.9,52.63,1012453.0,52947534.0,1731384000.0,6921384000.0
sz300762,上海瀚讯,2019-11-25,51.9,52.19,50.3,50.31,51.9,1075217.0,54642755.0,1678341600.0,6709341600.0
sz300762,上海瀚讯,2019-11-26,50.35,51.51,49.79,49.92,50.31,657935.0,33093076.0,1665331200.0,6657331200.0
sz300762,上海瀚讯,2019-11-27,50.05,50.34,49.58,49.92,49.92,558671.0,27933471.0,1665331200.0,6657331200.0
sz300762,上海瀚讯,2019-11-28,50.12,50.46,49.68,49.7,49.92,556411.0,27838965.0,1657992000.0,6627992000.0
sz300762,上海瀚讯,2019-11-29,49.51,49.6,45.32,48.44,49.7,910087.0,43954172.0,1615958400.0,6459958400.0
sz300762,上海瀚讯,2019-12-02,48.39,48.83,47.8,47.93,48.44,632717.0,30551073.0,1598944800.0,6391944800.0
sz300762,上海瀚讯,2019-12-03,47.87,48.4,47.5,48.39,47.93,504219.0,24212240.0,1614290400.0,6453290400.0
sz300762,上海瀚讯,2019-12-04,48.35,48.45,47.7,48.45,48.39,550433.0,26498141.0,1616292000.0,6461292000.0
sz300762,上海瀚讯,2019-12-05,48.7,49.36,48.5,49.3,48.45,734183.0,36039283.0,1644648000.0,6574648000.0
sz300762,上海瀚讯,2019-12-06,49.44,50.7,49.1,50.22,49.3,928704.0,46494836.0,1675339200.0,6697339200.0
sz300762,上海瀚讯,2019-12-09,50.33,50.56,49.8,50.41,50.22,734726.0,36875515.0,1681677600.0,6722677600.0
sz300762,上海瀚讯,2019-12-10,49.99,50.74,49.75,50.7,50.41,887971.0,44719130.0,1691352000.0,6761352000.0
sz300762,上海瀚讯,2019-12-11,50.7,50.7,49.9,50.0,50.7,676550.0,33895720.0,1668000000.0,6668000000.0
sz300762,上海瀚讯,2019-12-12,50.01,50.58,49.87,49.87,50.0,667133.0,33503560.0,1663663200.0,6650663200.0
sz300762,上海瀚讯,2019-12-13,50.03,50.8,50.02,50.5,49.87,1084027.0,54783318.0,1684680000.0,6734680000.0
sz300762,上海瀚讯,2019-12-16,50.9,52.99,50.62,52.72,50.5,1767877.0,91852878.0,1758739200.0,7030739200.0
sz300762,上海瀚讯,2019-12-17,52.52,53.95,52.52,53.06,52.72,1524172.0,81073304.0,1770081600.0,7076081600.0
sz300762,上海瀚讯,2019-12-18,53.16,53.68,52.75,53.06,53.06,1238760.0,65934767.0,1770081600.0,7076081600.0
sz300762,上海瀚讯,2019-12-19,53.1,53.52,52.59,53.2,53.06,981887.0,52034500.0,1774752000.0,7094752000.0
sz300762,上海瀚讯,2019-12-20,53.2,53.45,51.91,52.09,53.2,995766.0,52332234.0,1737722400.0,6946722400.0
sz300762,上海瀚讯,2019-12-23,52.27,52.38,50.46,50.49,52.09,1102703.0,56725181.0,1684346400.0,6733346400.0
sz300762,上海瀚讯,2019-12-24,50.54,51.77,50.54,51.51,50.49,733202.0,37561881.0,1718373600.0,6869373600.0
sz300762,上海瀚讯,2019-12-25,51.76,52.42,51.28,52.35,51.51,923179.0,47949463.0,1746396000.0,6981396000.0
sz300762,上海瀚讯,2019-12-26,52.4,52.44,51.62,52.17,52.35,759354.0,39486394.0,1740391200.0,6957391200.0
sz300762,上海瀚讯,2019-12-27,52.15,52.27,51.11,51.31,52.17,775765.0,40249748.0,1711701600.0,6842701600.0
sz300762,上海瀚讯,2019-12-30,50.95,51.09,49.42,50.7,51.31,1225220.0,61764726.0,1691352000.0,6761352000.0
sz300762,上海瀚讯,2019-12-31,50.58,54.88,50.58,53.9,50.7,2770308.0,148105049.0,1798104000.0,7188104000.0
sz300762,上海瀚讯,2020-01-02,54.09,54.29,53.52,54.08,53.9,2238936.0,120810486.0,1804108800.0,7212108800.0
sz300762,上海瀚讯,2020-01-03,54.12,54.97,53.86,54.12,54.08,2010312.0,109177470.0,1805443200.0,7217443200.0
sz300762,上海瀚讯,2020-01-06,54.93,55.84,54.19,54.3,54.12,2434871.0,134201711.0,1811448000.0,7241448000.0
sz300762,上海瀚讯,2020-01-07,53.83,54.83,53.61,54.73,54.3,1308067.0,71068344.0,1825792800.0,7298792800.0
sz300762,上海瀚讯,2020-01-08,54.3,56.43,54.29,55.91,54.73,2883936.0,160498840.0,1865157600.0,7456157600.0
sz300762,上海瀚讯,2020-01-09,54.95,55.6,54.7,55.3,55.91,1973510.0,108713965.0,1844808000.0,7374808000.0
sz300762,上海瀚讯,2020-01-10,55.2,55.53,53.9,54.22,55.3,1424716.0,77489139.0,1808779200.0,7230779200.0
sz300762,上海瀚讯,2020-01-13,53.99,55.11,53.11,55.09,54.22,1288057.0,69665972.0,1837802400.0,7346802400.0
sz300762,上海瀚讯,2020-01-14,54.73,55.37,53.88,53.95,55.09,1107031.0,60497673.0,1799772000.0,7194772000.0
sz300762,上海瀚讯,2020-01-15,53.85,54.62,53.56,54.43,53.95,914752.0,49440228.0,1815784800.0,7258784800.0
sz300762,上海瀚讯,2020-01-16,54.54,57.46,54.2,56.98,54.43,3716295.0,209591468.0,1900852800.0,7598852800.0
sz300762,上海瀚讯,2020-01-17,56.89,57.33,56.12,56.32,56.98,1854136.0,105041775.0,1878835200.0,7510835200.0
sz300762,上海瀚讯,2020-01-20,56.26,56.79,55.29,56.43,56.32,1506493.0,84532218.0,1882504800.0,7525504800.0
sz300762,上海瀚讯,2020-01-21,56.43,57.19,55.58,55.6,56.43,1485925.0,83744624.0,1854816000.0,7414816000.0
sz300762,上海瀚讯,2020-01-22,55.05,56.29,54.33,55.78,55.6,1523708.0,84028013.0,1860820800.0,7438820800.0
sz300762,上海瀚讯,2020-01-23,55.1,56.56,52.66,53.64,55.78,1599470.0,87147240.0,1789430400.0,7153430400.0
sz300762,上海瀚讯,2020-02-03,48.28,48.28,48.28,48.28,53.64,255200.0,12321056.0,1610620800.0,6438620800.0
sz300762,上海瀚讯,2020-02-04,43.5,46.81,43.5,45.86,48.28,2386282.0,109149149.0,1529889600.0,6115889600.0
sz300762,上海瀚讯,2020-02-05,46.0,48.8,45.51,48.08,45.86,1933462.0,91870058.0,1603948800.0,6411948800.0
sz300762,上海瀚讯,2020-02-06,47.66,48.9,47.6,48.28,48.08,1761358.0,85180907.0,1610620800.0,6438620800.0
sz300762,上海瀚讯,2020-02-07,48.39,49.4,48.2,49.0,48.28,1561550.0,76042626.0,1634640000.0,6534640000.0
sz300762,上海瀚讯,2020-02-10,48.9,49.93,48.76,49.69,49.0,1364831.0,67471093.0,1657658400.0,6626658400.0
sz300762,上海瀚讯,2020-02-11,49.73,49.99,48.83,49.05,49.69,1225912.0,60269513.0,1636308000.0,6541308000.0
sz300762,上海瀚讯,2020-02-12,49.05,49.97,48.18,49.85,49.05,1412895.0,70046876.0,1662996000.0,6647996000.0
sz300762,上海瀚讯,2020-02-13,50.19,50.2,49.09,49.48,49.85,1420762.0,70435809.0,1650652800.0,6598652800.0
sz300762,上海瀚讯,2020-02-14,49.28,51.89,49.11,50.51,49.48,2370996.0,120414063.0,1685013600.0,6736013600.0
sz300762,上海瀚讯,2020-02-17,50.73,52.87,50.5,52.81,50.51,2193639.0,114224093.0,1761741600.0,7042741600.0
sz300762,上海瀚讯,2020-02-18,52.4,55.15,52.21,54.98,52.81,2752846.0,148456511.0,1834132800.0,7332132800.0
sz300762,上海瀚讯,2020-02-19,54.85,57.44,53.95,55.22,54.98,3751182.0,208407990.0,1842139200.0,7364139200.0
sz300762,上海瀚讯,2020-02-20,54.93,60.74,54.58,60.4,55.22,7254822.0,426441324.0,2014944000.0,8054944000.0
sz300762,上海瀚讯,2020-02-21,59.0,61.45,57.53,59.62,60.4,6493349.0,384825464.0,1988923200.0,7950923200.0
sz300762,上海瀚讯,2020-02-24,58.9,61.97,58.0,60.8,59.62,5046789.0,302810610.0,2028288000.0,8108288000.0
sz300762,上海瀚讯,2020-02-25,58.48,59.97,55.39,58.92,60.8,4743459.0,276801513.0,1965571200.0,7857571200.0
sz300762,上海瀚讯,2020-02-26,57.59,58.4,55.46,55.97,58.92,3158240.0,180768620.0,1867159200.0,7464159200.0
sz300762,上海瀚讯,2020-02-27,56.0,56.85,54.66,55.34,55.97,2165506.0,120770810.0,1846142400.0,7380142400.0
sz300762,上海瀚讯,2020-02-28,53.1,53.88,50.67,50.8,55.34,2886294.0,150433550.0,1694688000.0,6774688000.0
sz300762,上海瀚讯,2020-03-02,51.35,53.29,51.35,52.9,50.8,1680005.0,88224512.0,1764744000.0,7054744000.0
sz300762,上海瀚讯,2020-03-03,53.98,56.68,53.81,54.81,52.9,2633637.0,144834778.0,1828461600.0,7309461600.0
sz300762,上海瀚讯,2020-03-04,54.3,55.75,53.55,55.6,54.81,1836374.0,100116323.0,1854816000.0,7414816000.0
sz300762,上海瀚讯,2020-03-05,56.43,58.62,56.22,57.66,55.6,3281966.0,188273953.0,1923537600.0,7689537600.0
sz300762,上海瀚讯,2020-03-06,56.03,57.77,56.0,57.7,57.66,2084741.0,119111408.0,1924872000.0,7694872000.0
sz300762,上海瀚讯,2020-03-09,56.95,59.09,56.19,57.58,57.7,2808198.0,161351686.0,1920868800.0,7678868800.0
sz300762,上海瀚讯,2020-03-10,55.99,60.09,55.51,60.08,57.58,4952668.0,289293269.0,2004268800.0,8012268800.0
sz300762,上海瀚讯,2020-03-11,60.23,60.41,58.73,58.77,60.08,3281601.0,195281273.0,1960567200.0,7837567200.0
sz300762,上海瀚讯,2020-03-12,56.83,57.58,54.23,54.68,58.77,2991329.0,167333156.0,1824124800.0,7292124800.0
sz300762,上海瀚讯,2020-03-13,50.68,55.6,50.68,54.85,54.68,2438037.0,130480671.0,1829796000.0,7314796000.0
sz300762,上海瀚讯,2020-03-16,55.5,60.2,54.85,57.36,54.85,6021888.0,351803354.0,3872587839.6,7649529600.0
sz300762,上海瀚讯,2020-03-17,59.11,60.76,57.08,59.6,57.36,5554162.0,330486976.0,4023818606.0,7948256000.0
sz300762,上海瀚讯,2020-03-18,57.95,61.5,53.64,54.4,59.6,7206401.0,425397309.0,3672747184.0,7254784000.0
sz300762,上海瀚讯,2020-03-19,54.31,55.22,49.9,51.97,54.4,5673970.0,296433401.0,3508688807.95,6930719200.0
sz300762,上海瀚讯,2020-03-20,52.6,52.78,48.11,49.91,51.97,3909523.0,198156060.0,3369610513.85,6655997600.0
sz300762,上海瀚讯,2020-03-23,48.2,49.22,46.25,46.31,49.91,2667723.0,127383830.0,3126561067.85,6175901600.0
sz300762,上海瀚讯,2020-03-24,47.5,47.87,44.81,47.26,46.31,2126882.0,99040808.0,3190699116.1,6302593600.0
sz300762,上海瀚讯,2020-03-25,48.21,49.52,47.63,48.99,47.26,2125809.0,103271720.0,3307497877.65,6533306400.0
sz300762,上海瀚讯,2020-03-26,48.88,51.15,48.35,49.3,48.99,2007109.0,100091010.0,3328427135.5,6574648000.0
sz300762,上海瀚讯,2020-03-27,50.0,50.3,48.21,48.49,49.3,1200196.0,58726454.0,3273741010.15,6466626400.0
sz300762,上海瀚讯,2020-03-30,48.0,48.0,46.03,47.25,48.49,1225994.0,57437252.0,3190023978.75,6301260000.0
sz300762,上海瀚讯,2020-03-31,48.48,49.2,47.23,48.0,47.25,999859.0,48248539.0,3240659280.0,6401280000.0
sz300762,上海瀚讯,2020-04-01,47.05,48.65,47.05,47.51,48.0,778637.0,37372032.0,3207577549.85,6335933600.0
sz300762,上海瀚讯,2020-04-02,47.06,48.66,47.0,48.64,47.51,1086701.0,52118251.0,3283868070.4,6486630400.0
sz300762,上海瀚讯,2020-04-03,48.47,49.43,47.68,47.85,48.64,973337.0,46978517.0,3230532219.75,6381276000.0
sz300762,上海瀚讯,2020-04-07,48.56,49.29,48.48,49.15,47.85,1194188.0,58504133.0,3318300075.25,6554644000.0
sz300762,上海瀚讯,2020-04-08,48.9,49.88,48.7,49.25,49.15,1454995.0,71799526.0,3325051448.75,6567980000.0
sz300762,上海瀚讯,2020-04-09,49.4,50.18,49.0,49.94,49.25,1416100.0,70467384.0,3371635925.9,6659998400.0
sz300762,上海瀚讯,2020-04-10,49.42,49.9,47.44,47.66,49.94,1704061.0,82318252.0,3217704610.1,6355937600.0
sz300762,上海瀚讯,2020-04-13,47.0,47.39,45.98,46.74,47.66,847077.0,39403514.0,3155591973.9,6233246400.0
sz300762,上海瀚讯,2020-04-14,47.26,47.55,46.66,47.42,46.74,584401.0,27565966.0,3201501313.7,6323931200.0
sz300762,上海瀚讯,2020-04-15,47.76,47.77,47.12,47.22,47.42,688152.0,32563627.0,3187998566.7,6297259200.0
sz300762,上海瀚讯,2020-04-16,46.9,47.64,46.6,47.3,47.22,668523.0,31592228.0,3193399665.5,6307928000.0
sz300762,上海瀚讯,2020-04-17,47.38,47.99,47.32,47.36,47.3,859311.0,40928956.0,3197450489.6,6315929600.0
sz300762,上海瀚讯,2020-04-20,47.8,48.9,47.38,48.59,47.36,989112.0,47477953.0,3280492383.65,6479962400.0
sz300762,上海瀚讯,2020-04-21,48.29,48.29,47.78,48.14,48.59,699278.0,33564135.0,3250111202.9,6419950400.0
sz300762,上海瀚讯,2020-04-22,47.81,48.58,47.26,48.15,48.14,738419.0,35430662.0,3250786340.25,6421284000.0
sz300762,上海瀚讯,2020-04-23,48.39,48.86,47.87,48.28,48.15,932589.0,45144164.0,3259563125.8,6438620800.0
sz300762,上海瀚讯,2020-04-24,48.56,48.94,48.01,48.44,48.28,1079628.0,52415069.0,3270365323.4,6459958400.0
sz300762,上海瀚讯,2020-04-27,48.94,49.18,47.08,47.36,48.44,949182.0,45872540.0,3197450489.6,6315929600.0
sz300762,上海瀚讯,2020-04-28,47.37,47.8,42.68,45.32,47.36,2203191.0,98243990.0,3059722470.2,6043875200.0
sz300762,上海瀚讯,2020-04-29,44.68,47.04,44.44,46.03,45.32,1221089.0,56117476.0,3107657222.05,6138560800.0
sz300762,上海瀚讯,2020-04-30,46.3,48.88,46.3,48.6,46.03,1736300.0,82861981.0,3281167521.0,6481296000.0
sz300762,上海瀚讯,2020-05-06,48.18,49.72,48.18,49.14,48.6,1723444.0,84567094.0,3317624937.9,6553310400.0
sz300762,上海瀚讯,2020-05-07,49.7,49.94,49.0,49.18,49.14,1402016.0,69450604.0,3320325487.3,6558644800.0
sz300762,上海瀚讯,2020-05-08,49.66,51.45,49.66,50.39,49.18,1898679.0,95812139.0,3402017106.65,6720010400.0
sz300762,上海瀚讯,2020-05-11,50.39,51.84,50.13,51.05,50.39,1973473.0,100835752.0,3446576171.75,6808028000.0
sz300762,上海瀚讯,2020-05-12,51.04,51.43,50.6,51.1,51.05,1477506.0,75465469.0,3449951858.5,6814696000.0
sz300762,上海瀚讯,2020-05-13,51.11,51.6,50.62,51.11,51.1,1274755.0,65109266.0,3450626995.85,6816029600.0
sz300762,上海瀚讯,2020-05-14,50.91,52.74,50.0,51.52,51.11,2225005.0,114930050.0,3478307627.2,6870707200.0
sz300762,上海瀚讯,2020-05-15,51.43,51.95,51.07,51.55,51.52,1477550.0,76106997.0,3480333039.25,6874708000.0
sz300762,上海瀚讯,2020-05-18,51.18,52.52,51.0,51.1,51.55,1685112.0,87265202.0,3449951858.5,6814696000.0
sz300762,上海瀚讯,2020-05-19,51.56,51.75,50.58,51.58,51.1,1696689.0,86975313.0,3482358451.3,6878708800.0
sz300762,上海瀚讯,2020-05-20,51.56,52.5,51.28,51.97,51.58,2049332.0,106486450.0,3508688807.95,6930719200.0
sz300762,上海瀚讯,2020-05-21,51.8,52.09,50.11,50.87,51.97,2024100.0,103411441.0,3434423699.45,6784023200.0
sz300762,上海瀚讯,2020-05-22,50.87,51.12,49.04,49.59,50.87,1246477.0,62320666.0,3348006118.65,6613322400.0
sz300762,上海瀚讯,2020-05-25,49.85,50.08,48.5,48.65,49.59,920347.0,45351418.0,3284543207.75,6487964000.0
sz300762,上海瀚讯,2020-05-26,48.88,49.8,48.67,49.72,48.65,783219.0,38725926.0,3356782904.2,6630659200.0
sz300762,上海瀚讯,2020-05-27,50.0,50.0,48.8,48.86,49.72,913916.0,45063644.0,3298721092.1,6515969600.0
sz300762,上海瀚讯,2020-05-28,48.97,49.21,47.28,48.47,48.86,1156266.0,55586713.0,3272390735.45,6463959200.0
sz300762,上海瀚讯,2020-05-29,48.01,48.73,47.95,48.05,48.47,1036444.0,50058631.0,3244034966.75,6407948000.0
sz300762,上海瀚讯,2020-06-01,48.11,50.18,48.11,49.68,48.05,1670300.0,82494832.0,3354082354.8,6625324800.0
sz300762,上海瀚讯,2020-06-02,50.61,51.47,50.26,50.8,49.68,1932224.0,98081120.0,3429697738.0,6774688000.0
sz300762,上海瀚讯,2020-06-03,50.92,51.25,50.4,50.66,50.8,1256810.0,63858032.0,3420245815.1,6756017600.0
sz300762,上海瀚讯,2020-06-04,50.78,50.87,50.35,50.61,50.66,819266.0,41454181.0,3416870128.35,6749349600.0
sz300762,上海瀚讯,2020-06-05,50.7,50.95,50.36,50.74,50.61,1281253.0,64926406.0,3425646913.9,6766686400.0
sz300762,上海瀚讯,2020-06-08,32.0,32.2,31.16,31.26,31.67,2483067.0,78294526.0,3376766969.76,6670133760.0
sz300762,上海瀚讯,2020-06-09,31.26,32.87,31.02,32.8,31.26,3858323.0,123540929.0,3543120812.8,6998732800.0
sz300762,上海瀚讯,2020-06-10,32.51,33.1,31.8,32.69,32.8,3520081.0,113694341.0,3531238395.44,6975261440.0
sz300762,上海瀚讯,2020-06-11,32.7,33.95,32.69,33.14,32.69,4614680.0,154178328.0,3579848284.64,7071280640.0
sz300762,上海瀚讯,2020-06-12,32.71,34.4,32.5,33.54,33.14,5160217.0,174203969.0,3623057075.04,7156631040.0
sz300762,上海瀚讯,2020-06-15,34.25,34.25,32.16,32.18,33.54,3993527.0,131865456.0,3476147187.6800003,6866439680.0
sz300762,上海瀚讯,2020-06-16,32.47,33.79,32.47,33.26,32.18,3742126.0,124575198.0,3592810921.76,7096885760.0
sz300762,上海瀚讯,2020-06-17,33.46,33.65,32.96,33.45,33.26,2550933.0,85068968.0,3613335097.2,7137427200.0
sz300762,上海瀚讯,2020-06-18,33.32,33.37,32.6,33.05,33.45,2156879.0,71013800.0,3570126306.8,7052076800.000002
sz300762,上海瀚讯,2020-06-19,33.05,33.3,32.9,33.06,33.05,1553892.0,51432916.0,3571206526.56,7054210560.0
sz300762,上海瀚讯,2020-06-22,33.13,33.69,33.02,33.08,33.06,1986141.0,65955597.0,3573366966.080001,7058478080.0
sz300762,上海瀚讯,2020-06-23,32.95,33.17,32.29,32.79,33.08,2770360.0,90512004.0,3542040593.04,6996599040.0
sz300762,上海瀚讯,2020-06-24,32.67,32.79,31.0,32.1,32.79,2742958.0,88248586.0,3467505429.6,6849369600.0
sz300762,上海瀚讯,2020-06-29,32.0,32.67,31.54,31.66,32.1,2807390.0,90136124.0,3419975760.16,6755484160.0
sz300762,上海瀚讯,2020-06-30,31.85,32.15,31.5,31.9,31.66,1850030.0,59071295.0,3445901034.4,6806694399.999999
sz300762,上海瀚讯,2020-07-01,31.98,35.09,31.83,35.09,31.9,11421937.0,389141971.0,3790491137.84,7487363840.0
sz300762,上海瀚讯,2020-07-02,34.97,36.97,34.6,36.26,35.09,10350418.0,371982385.0,3916876849.76,7737013760.0
sz300762,上海瀚讯,2020-07-03,35.72,37.06,35.65,36.9,36.26,6191014.0,225192125.0,3986010914.4,7873574399.999999
sz300762,上海瀚讯,2020-07-06,36.97,38.31,36.47,38.0,36.9,6915120.0,260513117.0,4104835088.0,8108288000.0
sz300762,上海瀚讯,2020-07-07,38.0,39.74,37.41,37.79,38.0,6707586.0,257983397.0,4082150473.04,8063479040.0
sz300762,上海瀚讯,2020-07-08,37.6,41.19,37.46,40.68,37.79,6711214.0,265786982.0,4394333983.68,8680135680.0
sz300762,上海瀚讯,2020-07-09,40.33,40.99,39.46,40.5,40.68,6324476.0,254007965.0,4374890028.0,8641728000.0
sz300762,上海瀚讯,2020-07-10,40.39,41.47,39.8,40.0,40.5,4594415.0,186431852.0,4320879040.0,8535040000.0
sz300762,上海瀚讯,2020-07-13,39.86,41.38,39.85,40.35,40.0,3993032.0,162229531.0,4358686731.6,8609721600.0
sz300762,上海瀚讯,2020-07-14,40.44,43.15,40.44,42.8,40.35,7277195.0,304245336.0,4623340572.8,9132492800.0
sz300762,上海瀚讯,2020-07-15,42.96,42.96,40.5,40.82,42.8,5198840.0,214069738.0,4409457060.32,8710008320.0
sz300762,上海瀚讯,2020-07-16,40.83,42.88,38.85,40.76,40.82,5103112.0,208873312.0,4402975741.76,8697205760.0
sz300762,上海瀚讯,2020-07-17,40.76,41.89,39.01,40.89,40.76,4244735.0,173142763.0,4417018598.64,8724944640.0
sz300762,上海瀚讯,2020-07-20,41.72,42.5,40.8,42.22,40.89,3740790.0,155967434.0,4560687826.72,9008734720.0
sz300762,上海瀚讯,2020-07-21,42.22,44.3,41.62,43.66,42.22,6188649.0,266630923.0,4716239472.16,9315996160.0
sz300762,上海瀚讯,2020-07-22,43.17,44.56,42.61,43.21,43.66,3804983.0,164415426.0,4667629582.96,9219976960.0
sz300762,上海瀚讯,2020-07-23,43.08,45.58,42.88,44.9,43.21,6413828.0,286813916.0,4850186722.4,9580582400.0
sz300762,上海瀚讯,2020-07-24,45.35,47.48,41.99,44.26,44.9,7242143.0,325096783.0,4781052657.76,9444021760.0
sz300762,上海瀚讯,2020-07-27,43.06,43.96,41.41,41.71,44.26,4393419.0,185424472.0,4505596618.96,8899912960.0
sz300762,上海瀚讯,2020-07-28,42.06,42.49,40.75,41.82,41.71,3057001.0,127466874.0,4517479036.32,8923384320.0
sz300762,上海瀚讯,2020-07-29,41.88,43.37,41.88,43.25,41.82,2721953.0,116311776.0,4671950462.0,9228512000.0
sz300762,上海瀚讯,2020-07-30,43.5,43.88,42.32,42.49,43.25,2941607.0,125885686.0,4589853760.24,9066346240.0
sz300762,上海瀚讯,2020-07-31,42.39,42.9,41.41,42.13,42.49,2979727.0,125383240.0,4550965848.88,8989530880.0
sz300762,上海瀚讯,2020-08-03,42.6,44.64,42.6,44.44,42.13,5248873.0,231468902.0,4800496613.440001,9482429440.0
sz300762,上海瀚讯,2020-08-04,45.0,45.0,43.21,44.08,44.44,3655034.0,160749285.0,4761608702.08,9405614080.0
sz300762,上海瀚讯,2020-08-05,45.0,46.36,43.91,45.82,44.08,4676710.0,211624701.0,4949566940.320001,9776888320.0
sz300762,上海瀚讯,2020-08-06,45.85,46.25,44.8,45.3,45.82,2916713.0,132710120.0,4893395512.8,9665932800.0
sz300762,上海瀚讯,2020-08-07,45.01,46.37,44.03,45.38,45.3,3829718.0,172805737.0,4902037270.88,9683002880.0
sz300762,上海瀚讯,2020-08-10,44.6,46.99,44.25,45.0,45.38,4055437.0,184145564.0,4860988920.0,9601920000.0
sz300762,上海瀚讯,2020-08-11,44.9,46.5,44.0,44.83,45.0,4056095.0,184320665.0,4842625184.08,9565646080.0
sz300762,上海瀚讯,2020-08-12,44.8,45.19,42.6,43.95,44.83,3162901.0,138142326.0,4747565845.2,9377875200.0
sz300762,上海瀚讯,2020-08-13,44.14,44.56,43.52,43.57,43.95,1842932.0,80844180.0,4706517494.32,9296792320.0
sz300762,上海瀚讯,2020-08-14,43.6,44.36,42.94,44.06,43.57,1998551.0,87396616.0,4759448262.559999,9401346560.0
sz300762,上海瀚讯,2020-08-17,44.39,47.45,44.25,46.52,44.06,4666752.0,216116907.0,5025182323.52,9926251520.0
sz300762,上海瀚讯,2020-08-18,46.8,47.73,46.05,47.55,46.52,3174284.0,149482352.0,5136444958.8,10146028800.0
sz300762,上海瀚讯,2020-08-19,47.66,48.96,46.46,46.52,47.55,4174604.0,198965350.0,5025182323.52,9926251520.0
sz300762,上海瀚讯,2020-08-20,46.62,47.28,44.01,44.26,46.52,3667240.0,166732543.0,4781052657.76,9444021760.0
sz300762,上海瀚讯,2020-08-21,44.42,45.74,44.21,44.46,44.26,2524119.0,113363718.0,4802657052.96,9486696960.0
sz300762,上海瀚讯,2020-08-24,45.0,45.68,44.18,44.41,44.46,1791029.0,79952611.0,4797255954.16,9476028160.0
sz300762,上海瀚讯,2020-08-25,44.42,47.23,44.21,46.15,44.41,3753507.0,172795052.0,4985214192.400001,9847302400.0
sz300762,上海瀚讯,2020-08-26,46.8,46.93,44.8,45.26,46.15,2993194.0,137699681.0,4889074633.76,9657397760.0
sz300762,上海瀚讯,2020-08-27,44.0,46.46,43.99,45.61,45.26,2375948.0,108350812.0,4926882325.360001,9732079360.0
sz300762,上海瀚讯,2020-08-28,45.75,47.34,45.34,46.61,45.61,2424620.0,112593073.0,5034904301.36,9945455360.0
sz300762,上海瀚讯,2020-08-31,47.08,50.45,46.99,49.8,46.61,5382368.0,266032747.0,5379494404.8,10626124800.0
sz300762,上海瀚讯,2020-09-01,49.7,50.35,49.0,49.95,49.8,3197383.0,159122801.0,5395697701.2,10658131200.000002
sz300762,上海瀚讯,2020-09-02,50.0,50.0,48.0,49.5,49.95,3091960.0,152223343.0,5347087812.0,10562112000.0
sz300762,上海瀚讯,2020-09-03,49.8,49.9,47.73,48.06,49.5,2590589.0,125881619.0,5191536166.56,10254850560.0
sz300762,上海瀚讯,2020-09-04,47.4,48.12,46.8,47.5,48.06,1735357.0,82249310.0,5131043860.0,10135360000.0
sz300762,上海瀚讯,2020-09-07,47.85,47.88,45.5,45.78,47.5,2417729.0,113072790.0,4945246061.28,9768353280.0
sz300762,上海瀚讯,2020-09-08,45.91,46.62,45.0,46.47,45.78,1986857.0,91323066.0,5019781224.72,9915582720.0
sz300762,上海瀚讯,2020-09-09,45.98,46.36,42.57,42.99,46.47,4206247.0,185551718.0,4643864748.24,9173034240.0
sz300762,上海瀚讯,2020-09-10,43.01,43.97,40.71,40.95,42.99,2911455.0,121986658.0,4423499917.2,8737747200.0
sz300762,上海瀚讯,2020-09-11,41.13,41.69,39.9,41.48,40.95,1994710.0,81446163.0,4480751564.48,8850836480.0
sz300762,上海瀚讯,2020-09-14,41.48,43.1,41.47,42.06,41.48,1653467.0,69961501.0,4543404310.56,8974594560.0
sz300762,上海瀚讯,2020-09-15,41.81,42.66,41.19,41.5,42.06,1627431.0,67953683.0,4482912004.0,8855104000.0
sz300762,上海瀚讯,2020-09-16,41.33,41.82,40.2,40.44,41.5,1876562.0,76468850.0,4368408709.440001,8628925440.0
sz300762,上海瀚讯,2020-09-17,40.1,41.4,40.1,40.93,40.44,1411093.0,57662959.0,4421339477.68,8733479680.0
sz300762,上海瀚讯,2020-09-18,40.93,41.66,40.52,41.36,40.93,1341279.0,55135193.0,4467788927.36,8825231360.0
sz300762,上海瀚讯,2020-09-21,41.32,43.0,40.88,41.32,41.36,2435109.0,102033115.0,4463468048.32,8816696320.0
sz300762,上海瀚讯,2020-09-22,40.96,41.58,40.12,40.69,41.32,1355112.0,55564467.0,4395414203.44,8682269440.0
sz300762,上海瀚讯,2020-09-23,40.76,42.19,40.4,41.59,40.69,1793731.0,74342332.0,4492633981.84,8874307840.0
sz300762,上海瀚讯,2020-09-24,41.79,41.92,39.66,39.78,41.59,1646793.0,66297374.0,4297114205.28,8488097280.0
sz300762,上海瀚讯,2020-09-25,39.9,40.23,39.0,39.5,39.78,1321760.0,52271107.0,4266868052.0,8428352000.0
sz300762,上海瀚讯,2020-09-28,39.5,39.8,37.98,38.6,39.5,1857128.0,72139530.0,4169648273.6,8236313600.0
sz300762,上海瀚讯,2020-09-29,38.63,40.05,38.38,39.79,38.6,2071315.0,81344626.0,4298194425.04,8490231040.000001
sz300762,上海瀚讯,2020-09-30,39.45,40.2,39.2,39.3,39.79,1257122.0,49929127.0,4245263656.8,8385676800.000001
sz300762,上海瀚讯,2020-10-09,40.0,40.75,39.58,39.89,39.3,2062368.0,82398071.0,4308996622.639999,8511568639.999999
sz300762,上海瀚讯,2020-10-12,40.16,41.09,40.16,40.95,39.89,2021218.0,82210420.0,4423499917.2,8737747200.0
sz300762,上海瀚讯,2020-10-13,40.85,41.11,40.41,40.82,40.95,972967.0,39662676.0,4409457060.32,8710008320.0
sz300762,上海瀚讯,2020-10-14,40.82,41.6,40.04,40.7,40.82,2210040.0,89996782.0,4396494423.2,8684403200.0
sz300762,上海瀚讯,2020-10-15,40.31,40.59,38.93,39.08,40.7,1891700.0,74975284.0,4221498822.08,8338734080.000001
sz300762,上海瀚讯,2020-10-16,38.79,39.49,37.0,37.89,39.08,3541260.0,134325394.0,4092952670.64,8084816640.0
sz300762,上海瀚讯,2020-10-19,38.4,39.26,38.1,38.17,37.89,2057635.0,79589568.0,4123198823.92,8144561920.0
sz300762,上海瀚讯,2020-10-20,37.9,39.08,37.58,38.89,38.17,2232783.0,85673652.0,4200974646.64,8298192640.0
sz300762,上海瀚讯,2020-10-21,39.0,39.47,37.61,37.9,38.89,1284846.0,49253609.0,4094032890.4,8086950400.0
sz300762,上海瀚讯,2020-10-22,37.78,38.08,37.12,37.7,37.9,1349498.0,50649798.0,4072428495.2,8044275200.0
sz300762,上海瀚讯,2020-10-23,37.65,38.19,36.58,36.68,37.7,1508945.0,56447264.0,3962246079.68,7826631679.999999
sz300762,上海瀚讯,2020-10-26,36.65,37.04,35.81,36.51,36.68,1219859.0,44419181.0,3943882343.76,7790357760.0
sz300762,上海瀚讯,2020-10-27,36.31,37.37,36.05,36.65,36.51,1591151.0,58214022.0,3959005420.4,7820230400.0
sz300762,上海瀚讯,2020-10-28,36.42,36.77,35.95,36.52,36.65,1272823.0,46236736.0,3944962563.52,7792491520.0
sz300762,上海瀚讯,2020-10-29,36.17,37.0,35.65,36.73,36.52,1460390.0,53167776.0,3967647178.48,7837300479.999999
sz300762,上海瀚讯,2020-10-30,37.0,37.92,36.0,37.0,36.73,2276187.0,84246663.0,3996813112.0,7894912000.0
sz300762,上海瀚讯,2020-11-02,36.77,36.78,35.4,36.13,37.0,2127125.0,76704622.0,3902833992.88,7709274880.0
sz300762,上海瀚讯,2020-11-03,36.14,37.21,35.73,37.21,36.13,1997063.0,73420291.0,4019497726.96,7939720960.0
sz300762,上海瀚讯,2020-11-04,37.85,37.94,35.92,36.35,37.21,3067667.0,112647362.0,3926598827.6,7756217600.0
sz300762,上海瀚讯,2020-11-05,36.35,37.87,36.35,37.72,36.35,3126339.0,116293253.0,4074588934.72,8048542720.0
sz300762,上海瀚讯,2020-11-06,38.0,38.4,37.23,38.12,37.72,2411296.0,91460026.0,4117797725.12,8133893120.0
sz300762,上海瀚讯,2020-11-09,38.22,42.29,38.0,42.2,38.12,6094420.0,248806733.0,4558527387.2,9004467200.0
sz300762,上海瀚讯,2020-11-10,41.5,43.9,41.42,43.75,42.2,6248092.0,269389759.0,4725961450.0,9335200000.0
sz300762,上海瀚讯,2020-11-11,43.25,43.67,41.91,42.79,43.75,3925444.0,167039600.0,4622260353.04,9130359040.0
sz300762,上海瀚讯,2020-11-12,42.9,43.55,42.09,43.25,42.79,3031345.0,130261353.0,4671950462.0,9228512000.0
sz300762,上海瀚讯,2020-11-13,42.91,44.81,42.68,44.18,43.25,4135248.0,181585337.0,4772410899.68,9426951680.0
sz300762,上海瀚讯,2020-11-16,44.65,46.86,44.65,46.22,44.18,4958996.0,228017624.0,4992775730.72,9862238720.0
sz300762,上海瀚讯,2020-11-17,46.07,46.52,44.2,45.36,46.22,3301503.0,148724912.0,4899876831.36,9678735360.0
sz300762,上海瀚讯,2020-11-18,44.77,45.13,43.46,44.11,45.36,2901869.0,128110129.0,4764849361.36,9412015360.0
sz300762,上海瀚讯,2020-11-19,44.0,46.7,43.58,46.13,44.11,4062803.0,185597818.0,4983053752.88,9843034880.0
sz300762,上海瀚讯,2020-11-20,46.56,47.33,45.5,45.81,46.13,3311163.0,153706044.0,4948486720.559999,9774754560.0
sz300762,上海瀚讯,2020-11-23,45.8,46.1,44.56,45.5,45.81,3024123.0,137527582.0,4914999908.0,9708608000.0
sz300762,上海瀚讯,2020-11-24,45.47,46.79,44.8,45.88,45.5,3493957.0,161094329.0,4956048258.88,9789690880.0
sz300762,上海瀚讯,2020-11-25,46.47,48.35,45.79,45.79,45.88,2831792.0,131920817.0,4946326281.04,9770487040.0
sz300762,上海瀚讯,2020-11-26,45.39,46.19,44.61,44.63,45.79,2975660.0,134389025.0,4821020788.88,9522970880.0
sz300762,上海瀚讯,2020-11-27,45.0,45.71,43.97,45.35,44.63,2574006.0,116008254.0,4898796611.6,9676601600.0
sz300762,上海瀚讯,2020-11-30,45.38,46.0,44.0,44.27,45.35,2451235.0,110215960.0,4782132877.52,9446155520.0
sz300762,上海瀚讯,2020-12-01,44.5,46.6,44.27,45.65,44.27,2553828.0,116439370.0,4931203204.4,9740614400.0
sz300762,上海瀚讯,2020-12-02,45.38,46.3,44.81,45.19,45.65,1505782.0,68074002.0,4881513095.440001,9642461440.0
sz300762,上海瀚讯,2020-12-03,44.72,45.18,43.75,43.75,45.19,1858130.0,82246110.0,4725961450.0,9371228125.0
sz300762,上海瀚讯,2020-12-04,43.88,44.35,42.91,44.21,43.75,1625872.0,71088471.0,4775651558.96,9469759895.0
sz300762,上海瀚讯,2020-12-07,44.21,46.87,43.8,45.95,44.21,3718753.0,170477208.0,4963609797.2,9842467025.0
sz300762,上海瀚讯,2020-12-08,46.43,46.5,45.5,46.01,45.95,1769826.0,81454256.0,4970091115.76,9855318995.0
sz300762,上海瀚讯,2020-12-09,46.35,46.66,44.31,44.32,46.01,2035235.0,92616742.0,4787533976.32,9493321840.0
sz300762,上海瀚讯,2020-12-10,43.98,45.98,43.6,45.35,44.32,1648319.0,73973572.0,4898796611.6,9713947325.0
sz300762,上海瀚讯,2020-12-11,44.94,45.3,41.94,42.94,45.35,3427771.0,148161567.0,4638463649.44,9197726530.0
sz300762,上海瀚讯,2020-12-14,43.0,43.68,42.24,43.2,42.94,1691436.0,72734707.0,4666549363.2,9253418400.0
sz300762,上海瀚讯,2020-12-15,43.3,43.89,42.7,43.29,43.2,1085376.0,46890652.0,4676271341.04,9272696355.0
sz300762,上海瀚讯,2020-12-16,43.49,43.5,42.0,42.7,43.29,1427731.0,60773855.0,4612538375.2,9146318650.0
sz300762,上海瀚讯,2020-12-17,42.5,45.8,42.1,45.44,42.7,3360782.0,149000307.0,4908518589.44,9733225280.0
sz300762,上海瀚讯,2020-12-18,45.8,47.6,45.8,46.0,45.44,3748774.0,174689769.0,4969010896.0,9853177000.0
sz300762,上海瀚讯,2020-12-21,45.95,46.55,43.95,44.39,46.0,3863823.0,173668301.0,4795095514.64,9508315805.0
sz300762,上海瀚讯,2020-12-22,44.2,44.67,41.5,41.7,44.39,3386992.0,144902923.0,4504516399.2,8932119150.0
sz300762,上海瀚讯,2020-12-23,41.69,42.58,40.98,42.0,41.7,2369886.0,98966354.0,4536922992.0,8996379000.0
sz300762,上海瀚讯,2020-12-24,42.07,43.35,41.62,42.4,42.0,2662725.0,113320351.0,4580131782.4,9082058800.0
sz300762,上海瀚讯,2020-12-25,42.08,42.18,39.83,41.0,42.4,2156515.0,88077062.0,4428901016.0,8782179500.0
sz300762,上海瀚讯,2020-12-28,40.44,41.1,38.8,39.45,41.0,3080012.0,122334114.0,4261466953.2,8450170275.0
sz300762,上海瀚讯,2020-12-29,38.9,41.7,38.81,40.05,39.45,2421316.0,98370392.0,4326280138.8,8578689975.000001
sz300762,上海瀚讯,2020-12-30,40.0,43.0,39.41,42.13,40.05,3439683.0,142267331.0,4550965848.88,9024224935.0
sz300762,上海瀚讯,2020-12-31,42.13,43.55,41.9,43.3,42.13,2943164.0,125964953.0,4677351560.8,9274838350.0
sz300762,上海瀚讯,2021-01-04,44.07,51.96,44.06,51.96,43.3,8987748.0,446277447.0,5612821872.96,11129806020.0
sz300762,上海瀚讯,2021-01-05,54.77,62.15,54.15,56.33,51.96,15842505.0,901354432.0,6084877908.08,12065857834.999998
sz300762,上海瀚讯,2021-01-06,54.47,56.0,52.95,54.3,56.33,10715458.0,581077655.0,5865593296.799999,11631032850.0
sz300762,上海瀚讯,2021-01-07,54.1,56.84,52.7,56.2,54.3,11162021.0,616573141.0,6070835051.2,12038011900.0
sz300762,上海瀚讯,2021-01-08,55.0,59.25,54.6,57.1,56.2,8701364.0,499320495.0,6168054829.6,12230791450.0
sz300762,上海瀚讯,2021-01-11,55.51,60.88,55.51,56.7,57.1,7929962.0,460650935.0,6124846039.2,12145111650.0
sz300762,上海瀚讯,2021-01-12,58.15,59.58,56.3,57.54,56.7,6840877.0,395063895.0,6215584499.04,12325039230.0
sz300762,上海瀚讯,2021-01-13,57.54,58.58,54.2,55.0,57.54,7257437.0,405843901.0,5941208680.0,11780972500.0
sz300762,上海瀚讯,2021-01-14,55.49,57.5,53.5,53.6,55.0,7237976.0,403139570.0,5789977913.6,11481093200.0
sz300762,上海瀚讯,2021-01-15,53.01,55.17,53.01,54.36,53.6,4502052.0,244545322.0,5872074615.360001,11643884820.0
sz300762,上海瀚讯,2021-01-18,55.0,56.77,54.23,55.91,54.36,4103026.0,227785427.0,6039508678.16,11975894045.0
sz300762,上海瀚讯,2021-01-19,55.41,55.48,53.01,53.02,55.91,5669456.0,306451242.0,5727325167.52,11356857490.0
sz300762,上海瀚讯,2021-01-20,53.7,56.38,52.88,56.32,53.02,6188765.0,340651847.0,6083797688.32,12063715840.0
sz300762,上海瀚讯,2021-01-21,55.8,56.3,54.2,55.17,56.32,4360086.0,240902659.0,5959572415.92,11817386415.0
sz300762,上海瀚讯,2021-01-22,55.0,55.0,53.3,54.0,55.17,3377688.0,182057222.0,5833186703.999999,11566773000.0
sz300762,上海瀚讯,2021-01-25,53.7,54.78,52.2,53.03,54.0,4210081.0,225423085.0,5728405387.28,11358999485.0
sz300762,上海瀚讯,2021-01-26,52.53,52.66,47.71,48.68,53.03,6323969.0,313704562.0,5258509791.68,10427231660.0
sz300762,上海瀚讯,2021-01-27,48.3,49.35,48.0,48.9,48.68,2616602.0,127288857.0,5282274626.400001,10474355550.0
sz300762,上海瀚讯,2021-01-28,47.97,52.3,47.89,50.1,48.9,3975287.0,201619210.0,5411900997.6,10731394950.000002
sz300762,上海瀚讯,2021-01-29,50.21,51.37,48.53,49.38,50.1,2161947.0,106807042.0,5334125174.88,10577171310.0
sz300762,上海瀚讯,2021-02-01,49.7,52.14,49.39,51.55,49.38,2850526.0,146399182.0,5568532862.8,11041984225.000002
sz300762,上海瀚讯,2021-02-02,51.76,51.77,50.7,51.03,51.55,1880897.0,95954379.0,5512361435.28,10930600485.0
sz300762,上海瀚讯,2021-02-03,50.85,52.49,49.1,49.11,51.03,2264314.0,114827061.0,5304959241.36,10519337445.0
sz300762,上海瀚讯,2021-02-04,49.0,49.95,47.8,49.3,49.11,1848874.0,90284581.0,5325483416.799999,10560035350.0
sz300762,上海瀚讯,2021-02-05,49.14,49.66,45.88,45.98,49.3,3168919.0,149628167.0,4966850456.4800005,9848893010.0
sz300762,上海瀚讯,2021-02-08,46.15,46.55,44.89,45.53,45.98,2132990.0,97349892.0,4918240567.28,9752503235.0
sz300762,上海瀚讯,2021-02-09,45.8,48.2,45.4,47.78,45.53,2042990.0,96269077.0,5161290013.28,10234452110.0
sz300762,上海瀚讯,2021-02-10,47.7,47.8,46.26,47.09,47.78,1606928.0,75652139.0,5086754849.84,10086654455.0
sz300762,上海瀚讯,2021-02-18,47.58,48.79,46.72,47.13,47.09,2135520.0,101755286.0,5091075728.88,10095222435.0
sz300762,上海瀚讯,2021-02-19,47.13,47.82,46.41,47.8,47.13,2260241.0,106843019.0,5163450452.8,10238736100.0
sz300762,上海瀚讯,2021-02-22,47.52,48.2,46.48,46.48,47.8,3007382.0,142865742.0,5020861444.4800005,9955992760.0
sz300762,上海瀚讯,2021-02-23,46.46,47.93,44.75,47.39,46.48,3135271.0,145761962.0,5119161442.64,10150914305.0
sz300762,上海瀚讯,2021-02-24,48.99,49.3,45.5,46.14,47.39,3071186.0,145405507.0,4984133972.64,9883164930.0
sz300762,上海瀚讯,2021-02-25,46.19,47.38,45.0,45.32,46.14,2878183.0,132406427.0,4895555952.32,9707521340.0
sz300762,上海瀚讯,2021-02-26,44.86,45.78,44.4,44.48,45.32,2341551.0,105312302.0,4804817492.48,9527593760.0
sz300762,上海瀚讯,2021-03-01,44.88,47.12,44.67,45.9,44.48,2484742.0,113684359.0,4958208698.4,9831757050.0
sz300762,上海瀚讯,2021-03-02,45.91,46.23,45.15,46.0,45.9,1717514.0,78319750.0,4969010896.0,9853177000.0
sz300762,上海瀚讯,2021-03-03,45.61,46.34,45.37,46.1,46.0,1750377.0,80265335.0,4979813093.6,9874596950.0
sz300762,上海瀚讯,2021-03-04,46.1,46.66,44.75,44.85,46.1,2086271.0,94810667.0,4844785623.599999,9606847575.0
sz300762,上海瀚讯,2021-03-05,44.48,45.11,43.92,44.34,44.85,1688287.0,75092700.0,4789694415.84,9497605830.0
sz300762,上海瀚讯,2021-03-08,44.44,44.9,43.08,43.91,44.34,2812229.0,123384555.0,4743244966.16,9405500045.0
sz300762,上海瀚讯,2021-03-09,43.96,43.96,40.5,40.7,43.91,3824478.0,159885184.0,4396494423.2,8717919650.0
sz300762,上海瀚讯,2021-03-10,41.4,41.9,39.0,39.88,40.7,3416041.0,136829921.0,4307916402.88,8542276060.0
sz300762,上海瀚讯,2021-03-11,39.61,41.78,39.52,41.43,39.88,2916105.0,119276726.0,4475350465.68,8874285285.0
sz300762,上海瀚讯,2021-03-12,41.7,42.04,39.89,40.48,41.43,2544111.0,103402037.0,4372729588.48,8670795760.0
sz300762,上海瀚讯,2021-03-15,40.01,40.67,39.64,39.86,40.48,1307728.0,52364973.0,4305755963.360001,8537992070.000001
sz300762,上海瀚讯,2021-03-16,40.2,40.37,39.43,39.66,39.86,1627006.0,64921954.0,4284151568.16,8495152169.999999
sz300762,上海瀚讯,2021-03-17,39.7,40.49,39.36,40.14,39.66,1355566.0,54271264.0,4336002116.64,8597967930.0
sz300762,上海瀚讯,2021-03-18,40.3,40.48,39.53,39.68,40.14,1475243.0,58913988.0,4286312007.68,8499436160.0
sz300762,上海瀚讯,2021-03-19,39.67,40.51,39.5,39.7,39.68,1859579.0,74157715.0,4288472447.2,8503720150.0
sz300762,上海瀚讯,2021-03-22,39.55,40.29,38.88,40.2,39.7,1652953.0,65923558.0,4342483435.2,8610819900.0
sz300762,上海瀚讯,2021-03-23,40.12,40.33,39.34,39.72,40.2,1321203.0,52618994.0,4290632886.72,8508004140.0
sz300762,上海瀚讯,2021-03-24,39.7,39.7,38.64,38.78,39.72,1481565.0,57734215.0,4189092229.28,8306656610.0
sz300762,上海瀚讯,2021-03-25,38.82,39.56,38.4,38.96,38.78,1084504.0,42464275.0,4208536184.96,8345212520.0
sz300762,上海瀚讯,2021-03-26,39.19,40.26,38.76,40.06,38.96,1705893.0,67568616.0,4327360358.559999,8580831970.0
sz300762,上海瀚讯,2021-03-29,40.06,40.7,39.81,40.53,40.06,1579324.0,63671685.0,4378130687.28,8681505735.0
sz300762,上海瀚讯,2021-03-30,41.54,42.33,40.08,41.12,40.53,3721555.0,152854373.0,4441863653.12,8807883440.0
sz300762,上海瀚讯,2021-03-31,40.72,41.15,38.86,38.9,41.12,3186691.0,125906812.0,4202054866.4,8332360550.000001
sz300762,上海瀚讯,2021-04-01,38.85,42.27,38.85,41.41,38.9,3749277.0,154081504.0,4473190026.16,8870001295.0
sz300762,上海瀚讯,2021-04-02,41.39,42.09,40.84,42.08,41.41,1885515.0,78382543.0,4545564750.08,9013514960.0
sz300762,上海瀚讯,2021-04-06,42.15,43.11,42.08,42.2,42.08,1830188.0,77755158.0,4558527387.2,9039218900.0
sz300762,上海瀚讯,2021-04-07,42.13,42.97,41.63,42.9,42.2,1814303.0,76862302.0,4634142770.400001,9189158550.0
sz300762,上海瀚讯,2021-04-08,42.5,42.96,42.06,42.38,42.9,1029556.0,43810166.0,4577971342.88,9077774810.0
sz300762,上海瀚讯,2021-04-09,42.29,42.56,41.81,42.34,42.38,1027643.0,43337828.0,4573650463.84,9069206830.0
sz300762,上海瀚讯,2021-04-12,42.49,43.44,41.85,42.1,42.34,1491632.0,63396678.0,4547725189.6,9017798950.0
sz300762,上海瀚讯,2021-04-13,42.01,42.59,41.38,41.7,42.1,1444323.0,60584464.0,4504516399.2,8932119150.0
sz300762,上海瀚讯,2021-04-14,41.88,43.28,41.82,43.06,41.7,1714427.0,73389618.0,4651426286.56,9223430470.0
sz300762,上海瀚讯,2021-04-15,42.9,43.43,42.3,43.35,43.06,1359396.0,58309615.0,4682752659.599999,9285548325.0
sz300762,上海瀚讯,2021-04-16,43.0,43.85,42.79,43.08,43.35,1824677.0,78974059.0,4653586726.08,9227714460.0
sz300762,上海瀚讯,2021-04-19,43.13,44.4,42.93,43.89,43.08,1911686.0,83773732.0,4741084526.639999,9401216055.0
sz300762,上海瀚讯,2021-04-20,44.17,44.94,43.83,44.48,43.89,1831257.0,81432785.0,4804817492.48,9527593760.0
sz300762,上海瀚讯,2021-04-21,44.41,44.74,43.53,44.5,44.48,1424970.0,63078049.0,4806977932.0,9531877750.0
sz300762,上海瀚讯,2021-04-22,44.67,45.93,44.12,45.45,44.5,1955496.0,88407046.0,4909598809.2,9735367275.0
sz300762,上海瀚讯,2021-04-23,45.41,46.41,44.91,45.37,45.45,1984077.0,90673306.0,4900957051.12,9718231315.0
sz300762,上海瀚讯,2021-04-26,45.37,45.53,43.5,43.6,45.37,2275859.0,100920236.0,4709758153.6,9339098200.0
sz300762,上海瀚讯,2021-04-27,44.3,44.44,42.9,43.87,43.6,1674993.0,73169001.0,4738924087.12,9396932065.0
sz300762,上海瀚讯,2021-04-28,44.01,45.18,43.79,44.68,43.87,1530471.0,68264496.0,4826421887.68,9570433660.0
sz300762,上海瀚讯,2021-04-29,44.84,45.0,42.5,42.71,44.68,2429814.0,105337284.0,4613618594.96,9148460645.0
sz300762,上海瀚讯,2021-04-30,42.78,43.31,41.56,42.35,42.71,2310135.0,97764966.0,4574730683.599999,9071348825.0
sz300762,上海瀚讯,2021-05-06,42.3,43.39,42.18,43.09,42.35,1671648.0,71646212.0,4654666945.84,9229856455.0
sz300762,上海瀚讯,2021-05-07,43.13,43.44,42.31,42.38,43.09,1038329.0,44486030.0,4577971342.88,9077774810.0
sz300762,上海瀚讯,2021-05-10,42.21,42.3,40.21,40.46,42.38,2361713.0,96476997.0,4370569148.96,8666511770.0
sz300762,上海瀚讯,2021-05-11,40.39,40.96,39.8,40.6,40.46,1617263.0,65181881.0,4385692225.6,8696499700.0
sz300762,上海瀚讯,2021-05-12,40.36,41.55,40.11,41.38,40.6,1009932.0,41406692.0,4469949366.88,8863575310.0
sz300762,上海瀚讯,2021-05-13,41.31,42.7,41.07,41.7,41.38,1161317.0,48690330.0,4504516399.2,10215196041.0
sz300762,上海瀚讯,2021-05-14,41.68,42.7,41.55,42.58,41.7,863941.0,36455164.0,4599575738.08,10430768523.4
sz300762,上海瀚讯,2021-05-17,42.54,43.4,42.4,43.3,42.58,1682248.0,72446271.0,4677351560.8,10607146009.0
sz300762,上海瀚讯,2021-05-18,43.0,43.62,42.71,43.0,43.3,1185382.0,51132593.0,4644944968.0,10533655390.000002
sz300762,上海瀚讯,2021-05-19,42.99,43.99,42.99,43.62,43.0,1430658.0,62280971.0,4711918593.12,10685536002.6
sz300762,上海瀚讯,2021-05-20,43.21,43.62,42.67,42.92,43.62,1218405.0,52475709.0,4636303209.92,10514057891.599998
sz300762,上海瀚讯,2021-05-21,42.92,43.36,42.6,42.63,42.92,825786.0,35493927.0,4604976836.88,10443016959.9
sz300762,上海瀚讯,2021-05-24,42.68,43.49,42.12,43.25,42.63,1222838.0,52732113.0,4671950462.0,10594897572.5
sz300762,上海瀚讯,2021-05-25,43.13,43.7,42.61,43.5,43.25,1522536.0,65975615.0,4698955956.0,10656139755.0
sz300762,上海瀚讯,2021-05-26,43.69,45.0,43.44,43.53,43.5,1866225.0,82580482.0,4702196615.280001,10663488816.9
sz300762,上海瀚讯,2021-05-27,43.59,44.33,43.28,43.94,43.53,1524206.0,66791167.0,4746485625.44,10763925996.2
sz300762,上海瀚讯,2021-05-28,43.88,44.19,43.38,43.5,43.94,1115422.0,48654181.0,4698955956.0,10656139755.0
sz300762,上海瀚讯,2021-05-31,43.31,44.14,43.25,44.01,43.5,2621911.0,114710083.0,4754047163.76,10781073807.3
sz300762,上海瀚讯,2021-06-01,44.16,46.59,44.13,45.6,44.01,5107162.0,231790247.0,4925802105.599999,11170574088.0
sz300762,上海瀚讯,2021-06-02,45.38,45.98,43.0,43.3,45.6,3750109.0,165499108.0,4677351560.8,10607146009.0
sz300762,上海瀚讯,2021-06-03,27.0,27.81,26.84,26.89,27.02,3666738.0,99930548.0,4647537506.18,10539534639.52
sz300762,上海瀚讯,2021-06-04,26.8,26.84,25.3,26.15,26.89,4268057.0,110851572.0,4519639486.3,10249491663.2
sz300762,上海瀚讯,2021-06-07,26.5,28.36,26.25,28.35,26.15,7597025.0,210915897.0,4899876842.7,11111781592.8
sz300762,上海瀚讯,2021-06-08,28.3,28.53,27.66,28.27,28.35,5099008.0,143403556.0,4886050029.74,11080425595.36
sz300762,上海瀚讯,2021-06-09,28.7,29.3,27.33,27.65,28.27,6748894.0,189201970.0,4778892229.3,10837416615.2
sz300762,上海瀚讯,2021-06-10,27.42,28.25,27.18,28.2,27.65,5106065.0,142559279.0,4873951568.400001,11052989097.6
sz300762,上海瀚讯,2021-06-11,28.22,28.24,26.0,26.89,28.2,8427947.0,227279809.0,4647537506.18,10539534639.52
sz300762,上海瀚讯,2021-06-15,26.72,27.7,26.49,27.2,26.89,4115325.0,112427696.0,4701116406.4,10661039129.6
sz300762,上海瀚讯,2021-06-16,27.2,27.54,26.24,26.31,27.2,3546028.0,94749327.0,4547293112.22,10312203658.08
sz300762,上海瀚讯,2021-06-17,26.28,26.78,26.0,26.48,26.31,3116706.0,82272707.0,4576675089.76,10378835152.64
sz300762,上海瀚讯,2021-06-18,26.47,28.3,26.29,28.06,26.48,7161181.0,197048589.0,4849754645.72,10998116102.08
sz300762,上海瀚讯,2021-06-21,28.02,28.8,27.86,28.38,28.06,7168690.0,203437693.0,4905061897.56,11123540091.84
sz300762,上海瀚讯,2021-06-22,28.84,28.84,27.85,28.5,28.38,6177016.0,174922023.0,4925802117.0,11170574088.0
sz300762,上海瀚讯,2021-06-23,28.5,31.28,28.18,30.0,28.5,13782200.0,409671110.0,5185054860.0,11758499040.000002
sz300762,上海瀚讯,2021-06-24,30.0,30.18,29.03,29.28,30.0,7720553.0,226988819.0,5060613543.36,11476295063.04
sz300762,上海瀚讯,2021-06-25,29.3,29.34,28.36,28.64,29.28,5618754.0,161374994.0,4949999039.68,11225447083.52
sz300762,上海瀚讯,2021-06-28,28.61,29.23,28.4,28.58,28.64,4914735.0,140895375.0,4939628929.96,11201930085.44
sz300762,上海瀚讯,2021-06-29,28.47,28.87,27.38,27.67,28.58,5339944.0,149486702.0,4782348932.54,10845255614.56
sz300762,上海瀚讯,2021-06-30,27.67,28.25,27.54,28.25,27.67,3597549.0,100031182.0,4882593326.5,11072586595.999998
sz300762,上海瀚讯,2021-07-01,28.24,28.24,26.76,26.83,28.25,5144878.0,140619024.0,4637167396.46,10516017641.44
sz300762,上海瀚讯,2021-07-02,26.81,27.09,26.18,26.21,26.83,2884449.0,76197095.0,4530009596.02,10273008661.28
sz300762,上海瀚讯,2021-07-05,26.31,26.64,26.05,26.58,26.21,2545829.0,67033443.0,4593958605.96,10418030149.44
sz300762,上海瀚讯,2021-07-06,26.59,26.74,26.21,26.45,26.58,2775708.0,73399879.0,4571490034.9,10367076653.6
sz300762,上海瀚讯,2021-07-07,26.22,27.58,26.2,27.35,26.45,4003380.0,108073905.0,4727041680.7,10719831624.8
sz300762,上海瀚讯,2021-07-08,27.15,29.18,27.0,28.37,27.35,7598037.0,216097206.0,4903333545.94,11119620592.16
sz300762,上海瀚讯,2021-07-09,28.32,28.5,27.87,27.96,28.37,4795104.0,134650062.0,4832471129.52,10958921105.28
sz300762,上海瀚讯,2021-07-12,28.02,28.68,27.76,28.21,27.96,4557457.0,128699935.0,4875679920.02,11056908597.28
sz300762,上海瀚讯,2021-07-13,28.08,28.63,27.46,27.84,28.21,4465322.0,124604689.0,4811730910.08,10911887109.12
sz300762,上海瀚讯,2021-07-14,27.55,28.08,27.0,27.04,27.84,4198370.0,115402720.0,4673462780.4800005,10598327134.72
sz300762,上海瀚讯,2021-07-15,27.07,27.28,26.0,26.7,27.04,4771205.0,126656752.0,4614698825.400001,10465064145.6
sz300762,上海瀚讯,2021-07-16,26.3,27.07,26.03,26.72,26.7,3759865.0,99957829.0,4618155528.64,10472903144.96
sz300762,上海瀚讯,2021-07-19,26.67,27.2,26.3,26.9,26.72,3192874.0,85378480.0,4649265857.8,10543454139.2
sz300762,上海瀚讯,2021-07-20,26.97,27.22,26.63,27.1,26.9,3077219.0,83255456.0,4683832890.2,10621844132.8
sz300762,上海瀚讯,2021-07-21,27.1,27.39,26.78,26.88,27.1,3905529.0,105392325.0,4645809154.56,10535615139.84
sz300762,上海瀚讯,2021-07-22,26.81,27.05,26.37,26.73,26.88,3655394.0,97750819.0,4619883880.26,10476822644.64
sz300762,上海瀚讯,2021-07-23,26.86,26.87,24.68,25.13,26.73,8564610.0,217479368.0,4343347621.059999,9849702695.84
sz300762,上海瀚讯,2021-07-26,25.29,30.16,25.13,30.16,25.13,25500488.0,749635452.0,5212708485.92,11821211034.88
sz300762,上海瀚讯,2021-07-27,30.31,31.98,29.14,30.31,30.16,31098231.0,944230432.0,5238633760.22,11880003530.08
sz300762,上海瀚讯,2021-07-28,29.3,29.77,26.71,28.79,30.31,16867311.0,482121116.0,4975924313.98,11284239578.72
sz300762,上海瀚讯,2021-07-29,29.6,31.8,29.13,31.13,28.79,21286701.0,650904804.0,5380358593.06,12201402503.839998
sz300762,上海瀚讯,2021-07-30,31.2,35.58,30.7,34.3,31.13,26728801.0,898306668.0,5928246056.6,13443883902.400002
sz300762,上海瀚讯,2021-08-02,34.0,36.7,33.61,34.43,34.3,24892318.0,871561377.0,5950714627.66,13494837398.24
sz300762,上海瀚讯,2021-08-03,35.07,35.59,32.8,33.13,34.43,22270165.0,757884963.0,5726028917.059999,12985302439.84
sz300762,上海瀚讯,2021-08-04,33.1,35.48,32.8,33.55,33.13,19492324.0,666123301.0,5798619685.1,13149921426.4
sz300762,上海瀚讯,2021-08-05,33.23,36.5,32.2,35.48,33.55,27001247.0,927935939.0,6132191547.759999,13906384864.64
sz300762,上海瀚讯,2021-08-06,34.65,34.78,32.6,34.4,35.48,16750342.0,568438545.0,5945529572.8,13483078899.2
sz300762,上海瀚讯,2021-08-09,34.85,35.01,33.11,33.55,34.4,11046344.0,371887615.0,5798619685.1,13149921426.4
sz300762,上海瀚讯,2021-08-10,33.25,36.24,33.2,34.95,33.55,18243086.0,629709914.0,6040588911.9,13698651381.6
sz300762,上海瀚讯,2021-08-11,34.04,35.17,33.72,33.95,34.95,11205726.0,383185224.0,5867753749.900001,13306701413.6
sz300762,上海瀚讯,2021-08-12,33.6,33.78,32.33,32.7,33.95,13334237.0,438576730.0,5651709797.4,12816763953.6
sz300762,上海瀚讯,2021-08-13,32.41,33.2,32.01,32.04,32.7,10241976.0,332513205.0,5537638590.48,12558076974.72
sz300762,上海瀚讯,2021-08-16,32.0,32.76,31.54,31.82,32.04,7866587.0,251980815.0,5499614854.839999,12471847981.759998
sz300762,上海瀚讯,2021-08-17,31.9,32.3,30.3,30.8,31.82,11186003.0,352539419.0,5323322989.6,12072059014.4
sz300762,上海瀚讯,2021-08-18,30.36,32.58,30.32,32.1,30.8,11683451.0,369805124.0,5548008700.200001,12581593972.8
sz300762,上海瀚讯,2021-08-19,32.46,33.53,31.18,32.68,32.1,14451046.0,467022165.0,5648253094.160001,12808924954.240002
sz300762,上海瀚讯,2021-08-20,32.13,33.8,31.29,33.56,32.68,16550692.0,542092130.0,5800348036.719999,13153840926.08
sz300762,上海瀚讯,2021-08-23,33.72,36.2,33.72,34.57,33.56,17783213.0,622966989.0,5974911550.34,13549710393.76
sz300762,上海瀚讯,2021-08-24,33.11,33.5,32.01,32.95,34.57,18114818.0,591630082.0,5694918587.9,12914751445.599998
sz300762,上海瀚讯,2021-08-25,33.25,33.38,31.78,32.16,32.95,8906608.0,288220851.0,5558378809.92,12605110970.88
sz300762,上海瀚讯,2021-08-26,32.2,32.73,31.78,32.4,32.16,7804021.0,252009228.0,5599859248.799999,12699178963.2
sz300762,上海瀚讯,2021-08-27,31.98,32.75,30.9,32.36,32.4,8481527.0,268903393.0,5592945842.320001,12683500964.48
sz300762,上海瀚讯,2021-08-30,32.0,34.88,32.0,33.41,32.36,15136248.0,512325353.0,5774422762.42,13095048430.88
sz300762,上海瀚讯,2021-08-31,33.48,33.49,32.3,33.18,33.41,8287054.0,272386671.0,5734670675.16,13004899938.24
sz300762,上海瀚讯,2021-09-01,33.19,33.19,28.28,30.57,33.18,17727703.0,542124090.0,5283570902.34,11981910521.76
sz300762,上海瀚讯,2021-09-02,30.23,32.16,29.5,31.67,30.57,9125852.0,284200925.0,5473689580.540001,12413055486.56
sz300762,上海瀚讯,2021-09-03,31.35,31.92,30.43,31.2,31.67,7380103.0,228967974.0,5392457054.400001,12228839001.6
sz300762,上海瀚讯,2021-09-06,31.1,32.01,30.45,31.4,31.2,5448639.0,170673678.0,5427024086.8,12307228995.2
sz300762,上海瀚讯,2021-09-07,31.0,32.95,31.0,32.25,31.4,7417432.0,240249274.0,5573933974.5,12640386468.0
sz300762,上海瀚讯,2021-09-08,32.29,32.79,31.12,31.42,32.25,5801656.0,184343257.0,5430480790.040001,12315067994.56
sz300762,上海瀚讯,2021-09-09,31.48,33.47,30.52,33.21,31.42,13261910.0,426205614.0,5739855730.02,13016658437.28
sz300762,上海瀚讯,2021-09-10,32.84,33.18,31.88,32.23,33.21,9111448.0,295293611.0,5570477271.26,12632547468.64
sz300762,上海瀚讯,2021-09-13,31.98,31.98,30.11,30.66,32.23,9245529.0,284627298.0,5299126066.919999,12017186018.88
sz300762,上海瀚讯,2021-09-14,30.77,31.12,29.4,29.65,30.66,10147222.0,306258958.0,5124562553.3,11621316551.2
sz300762,上海瀚讯,2021-09-15,29.49,30.11,28.94,29.7,29.65,5308750.0,157145070.0,5133204311.4,11640914049.6
sz300762,上海瀚讯,2021-09-16,29.7,29.9,27.36,27.44,29.7,12166890.0,344596839.0,4742596845.28,10755107121.919998
sz300762,上海瀚讯,2021-09-17,27.64,28.15,27.3,27.67,27.44,5058537.0,140471049.0,4782348932.54,10845255614.56
sz300762,上海瀚讯,2021-09-22,27.45,28.5,27.3,27.85,27.67,4460759.0,125454250.0,4813459261.7,10915806608.8
sz300762,上海瀚讯,2021-09-23,27.74,28.15,27.63,27.88,27.85,3967744.0,110778552.0,4818644316.559999,10927565107.84
sz300762,上海瀚讯,2021-09-24,28.0,28.0,27.02,27.06,27.88,5106321.0,140362068.0,4676919483.72,10606166134.08
sz300762,上海瀚讯,2021-09-27,27.07,27.49,25.9,26.27,27.06,5060562.0,134514419.0,4540379705.74,10296525659.36
sz300762,上海瀚讯,2021-09-28,26.48,26.75,26.01,26.5,26.27,3836821.0,101682494.0,4580131793.0,10386674152.0
sz300762,上海瀚讯,2021-09-29,26.5,26.5,25.46,25.5,26.5,3566369.0,92316085.0,4407296631.0,9994724184.0
sz300762,上海瀚讯,2021-09-30,25.72,25.93,25.55,25.64,25.5,3167586.0,81514885.0,4431493553.68,10049597179.52
sz300762,上海瀚讯,2021-10-08,25.92,26.45,25.66,25.75,25.64,3168303.0,82168883.0,4450505421.5,10092711676.0
sz300762,上海瀚讯,2021-10-11,25.95,26.96,25.69,26.16,25.75,4449781.0,117170887.0,4521367837.92,10253411162.88
sz300762,上海瀚讯,2021-10-12,25.98,26.18,24.99,25.25,26.16,3909201.0,99229326.0,4364087840.5,9896736692.0
sz300762,上海瀚讯,2021-10-13,25.15,25.73,25.02,25.53,25.25,2389557.0,60608721.0,4412481685.86,10006482683.04
sz300762,上海瀚讯,2021-10-14,25.53,26.09,25.5,25.85,25.53,2394011.0,61860473.0,4467788937.7,10131906672.8
sz300762,上海瀚讯,2021-10-15,25.76,26.25,25.7,25.9,25.85,3374450.0,87570901.0,4476430695.8,10151504171.2
sz300762,上海瀚讯,2021-10-18,25.75,26.22,25.75,25.92,25.9,2674841.0,69605358.0,4479887399.04,10159343170.56
sz300762,上海瀚讯,2021-10-19,26.05,26.75,25.9,26.48,25.92,3680653.0,96987707.0,4576675089.76,10378835152.64
sz300762,上海瀚讯,2021-10-20,26.7,26.97,26.28,26.48,26.48,3032148.0,80719350.0,4576675089.76,10378835152.64
sz300762,上海瀚讯,2021-10-21,26.38,26.67,25.9,25.97,26.48,2842805.0,74472511.0,4488529157.14,10178940668.96
sz300762,上海瀚讯,2021-10-22,26.0,26.46,25.72,25.84,25.97,2523212.0,65702557.0,4466060586.08,10127987173.12
sz300762,上海瀚讯,2021-10-25,26.03,26.6,25.82,26.54,25.84,3380978.0,88705578.0,4587045199.48,10402352150.72
sz300762,上海瀚讯,2021-10-26,26.41,27.45,26.38,27.2,26.54,4329265.0,117286361.0,4701116406.4,10661039129.6
sz300762,上海瀚讯,2021-10-27,27.41,27.5,26.1,26.13,27.2,4166189.0,110738852.0,4516182783.06,10241652663.84
sz300762,上海瀚讯,2021-10-28,26.25,27.28,26.15,26.27,26.13,3260700.0,86701542.0,4540379705.74,10296525659.36
sz300762,上海瀚讯,2021-10-29,25.83,25.83,24.05,25.31,26.27,7460063.0,185162817.0,4374457950.219999,9920253690.08
sz300762,上海瀚讯,2021-11-01,25.23,26.65,25.18,26.38,25.31,4976893.0,129600187.0,4559391573.559999,10339640155.84
sz300762,上海瀚讯,2021-11-02,26.38,27.31,26.38,26.96,26.38,6513132.0,175449725.0,4659635967.52,10566971137.28
sz300762,上海瀚讯,2021-11-03,27.1,27.1,25.77,26.08,26.96,4936651.0,129248091.0,4507541024.96,10222055165.44
sz300762,上海瀚讯,2021-11-04,26.0,26.31,25.53,26.16,26.08,3775696.0,97759040.0,4521367837.92,10253411162.88
sz300762,上海瀚讯,2021-11-05,26.11,26.28,25.26,25.34,26.16,4582809.0,117249593.0,4379643005.08,9932012189.12
sz300762,上海瀚讯,2021-11-08,25.4,25.4,24.65,25.21,25.34,2655971.0,66417544.0,4357174434.02,9881058693.28
sz300762,上海瀚讯,2021-11-09,25.21,25.91,25.07,25.69,25.21,3630767.0,92938860.0,4440135311.78,10069194677.92
sz300762,上海瀚讯,2021-11-10,25.5,26.58,25.38,26.0,25.69,4643080.0,120793107.0,4493714212.0,10190699168.0
sz300762,上海瀚讯,2021-11-11,25.97,26.24,25.26,25.89,26.0,3908221.0,100743202.0,4474702344.179999,10147584671.52
sz300762,上海瀚讯,2021-11-12,25.78,28.29,25.77,27.79,25.89,14682021.0,400421870.0,4803089151.98,10892289610.72
sz300762,上海瀚讯,2021-11-15,27.67,28.38,25.65,26.76,27.79,20347636.0,545833292.0,5942484286.8,10488581143.68
sz300762,上海瀚讯,2021-11-16,26.26,27.5,26.2,26.43,26.76,11235372.0,301504097.0,5869202529.9,10359237654.24
sz300762,上海瀚讯,2021-11-17,26.6,26.66,25.65,26.36,26.43,8206298.0,214493749.0,5853657914.8,10331801156.48
sz300762,上海瀚讯,2021-11-18,26.24,26.72,25.81,26.22,26.36,8535963.0,224560256.0,5822568684.6,10276928160.96
sz300762,上海瀚讯,2021-11-19,26.07,26.39,25.85,26.0,26.22,7780067.0,203194310.0,5773714179.999999,10190699168.0
sz300762,上海瀚讯,2021-11-22,26.0,26.84,25.85,26.5,26.0,10601344.0,280106101.0,5884747145.0,10386674152.0
sz300762,上海瀚讯,2021-11-23,26.7,27.65,25.88,26.86,26.5,15883347.0,423978785.0,5964690879.799999,10527776140.48
sz300762,上海瀚讯,2021-11-24,26.7,27.5,26.6,27.35,26.86,14417687.0,391180620.0,6073503185.5,10719831624.8
sz300762,上海瀚讯,2021-11-25,27.39,27.53,26.83,26.92,27.35,9993255.0,270523935.0,5978014835.599999,10551293138.560001
sz300762,上海瀚讯,2021-11-26,26.9,27.13,26.52,26.74,26.92,6138914.0,164554715.0,5938042968.200001,10480742144.32
sz300762,上海瀚讯,2021-11-29,26.3,27.15,26.1,27.0,26.74,7690994.0,206598616.0,5995780110.000001,10582649136.0
sz300762,上海瀚讯,2021-11-30,27.09,29.97,27.01,28.88,27.0,27457629.0,786997724.0,6413264058.400001,11319515075.84
sz300762,上海瀚讯,2021-12-01,29.0,29.11,28.38,28.58,28.88,10825728.0,310077386.0,6346644279.4,11201930085.44
sz300762,上海瀚讯,2021-12-02,28.58,28.9,27.77,28.0,28.58,8902789.0,250383307.0,6217846040.000001,10974599104.0
sz300762,上海瀚讯,2021-12-03,28.12,29.56,28.12,29.25,28.0,12989190.0,377009235.0,6495428452.5,11464536564.0
sz300762,上海瀚讯,2021-12-06,29.55,29.79,28.72,29.14,29.25,11708877.0,341472386.0,6471001200.200001,11421422067.519999
sz300762,上海瀚讯,2021-12-07,29.16,29.36,27.38,28.04,29.14,10803516.0,303224398.0,6226728677.2,10990277102.72
sz300762,上海瀚讯,2021-12-08,27.93,28.5,27.93,28.11,28.04,5835405.0,164664564.0,6242273292.3,11017713600.48
sz300762,上海瀚讯,2021-12-09,28.09,28.35,27.68,27.95,28.11,5735012.0,160584583.0,6206742743.5,10955001605.6
sz300762,上海瀚讯,2021-12-10,27.94,28.24,27.62,28.05,27.95,5064511.0,141631810.0,6228949336.5,10994196602.400002
sz300762,上海瀚讯,2021-12-13,27.91,28.35,27.6,28.11,28.05,5459161.0,152355654.0,6242273292.3,11017713600.48
sz300762,上海瀚讯,2021-12-14,28.08,28.55,27.8,28.3,28.11,5518994.0,155809747.0,6284465819.0,11092184094.400002
sz300762,上海瀚讯,2021-12-15,28.11,28.9,28.02,28.02,28.3,5164778.0,146655377.0,6237055019.4,10982438103.36
sz300762,上海瀚讯,2021-12-16,28.08,28.97,28.03,28.82,28.02,7912504.0,226753986.0,6415129395.400001,11295998077.759998
sz300762,上海瀚讯,2021-12-17,28.82,28.84,27.75,27.83,28.82,7428865.0,208609304.0,6194762355.1,10907967609.44
sz300762,上海瀚讯,2021-12-20,27.72,27.83,26.98,27.0,27.83,5202437.0,141888527.0,6010010190.0,10582649136.0
sz300762,上海瀚讯,2021-12-21,26.91,27.46,26.91,27.26,27.0,3081388.0,83988839.0,6067884362.200001,10684556127.68
sz300762,上海瀚讯,2021-12-22,27.3,27.5,27.18,27.2,27.26,3100985.0,84650945.0,6054528784.0,10661039129.6
sz300762,上海瀚讯,2021-12-23,27.21,27.3,26.6,26.69,27.2,5422212.0,145472778.0,5941006369.3,10461144645.92
sz300762,上海瀚讯,2021-12-24,26.71,26.92,26.21,26.26,26.69,3978350.0,105173210.0,5845291392.2,10292606159.68
sz300762,上海瀚讯,2021-12-27,26.17,26.67,26.16,26.29,26.26,1842251.0,48631125.0,5851969181.3,10304364658.72
sz300762,上海瀚讯,2021-12-28,26.31,27.1,26.3,27.0,26.29,3407214.0,91353972.0,6010010190.0,10582649136.0
sz300762,上海瀚讯,2021-12-29,27.1,27.27,26.74,26.76,27.0,3567945.0,96365755.0,5956587877.2,10488581143.68
sz300762,上海瀚讯,2021-12-30,26.71,27.43,26.7,27.2,26.76,4647172.0,126331870.0,6054528784.0,10661039129.6
sz300762,上海瀚讯,2021-12-31,27.29,27.78,27.23,27.42,27.2,3566591.0,97981864.0,6103499237.4,10747268122.56
sz300762,上海瀚讯,2022-01-04,27.24,27.56,27.1,27.48,27.42,3375930.0,92417307.0,6116854815.599999,10770785120.64
sz300762,上海瀚讯,2022-01-05,27.38,27.55,26.83,27.17,27.48,4126861.0,112012589.0,6047850994.900001,10649280630.560001
sz300762,上海瀚讯,2022-01-06,26.95,27.28,26.81,27.16,27.17,2730585.0,73907844.0,6045625065.200001,10645361130.880001
sz300762,上海瀚讯,2022-01-07,27.16,27.28,26.69,26.76,27.16,3168206.0,85423898.0,5956587877.2,10488581143.68
sz300762,上海瀚讯,2022-01-10,26.75,26.92,26.29,26.85,26.76,2732213.0,72743324.0,5976621244.5,10523856640.8
sz300762,上海瀚讯,2022-01-11,26.78,27.31,26.39,26.56,26.85,4507337.0,121118946.0,5912069283.2,10410191150.08
sz300762,上海瀚讯,2022-01-12,26.73,26.82,26.47,26.62,26.56,2488710.0,66244049.0,5925424861.400001,10433708148.16
sz300762,上海瀚讯,2022-01-13,26.7,26.77,25.85,25.87,26.62,4995463.0,130893360.0,5758480133.9,10139745672.16
sz300762,上海瀚讯,2022-01-14,25.86,26.14,25.76,25.82,25.87,2470274.0,64132228.0,5747350485.4,10120148173.76
