数据由邢不行整理
股票代码,股票名称,交易日期,开盘价,最高价,最低价,收盘价,前收盘价,成交量,成交额,流通市值,总市值
sz300767,N震安,2019-03-29,23.03,27.63,23.03,27.63,19.19,9700.0,266401.0,552600000.0,2210400000.0
sz300767,震安科技,2019-04-01,30.39,30.39,30.39,30.39,27.63,3545.0,107732.0,607800000.0,2431200000.0
sz300767,震安科技,2019-04-02,33.43,33.43,33.43,33.43,30.39,4100.0,137063.0,668600000.0,2674400000.0
sz300767,震安科技,2019-04-03,36.77,36.77,36.77,36.77,33.43,5800.0,213266.0,735400000.0,2941600000.0
sz300767,震安科技,2019-04-04,40.45,40.45,40.45,40.45,36.77,26700.0,1080015.0,809000000.0,3236000000.0
sz300767,震安科技,2019-04-08,44.5,44.5,44.5,44.5,40.45,42200.0,1877900.0,890000000.0,3560000000.0
sz300767,震安科技,2019-04-09,48.95,48.95,48.95,48.95,44.5,68804.0,3367955.0,979000000.0,3916000000.0
sz300767,震安科技,2019-04-10,53.85,53.85,53.85,53.85,48.95,132100.0,7113585.0,1077000000.0,4308000000.0
sz300767,震安科技,2019-04-11,57.5,57.5,52.9,54.03,53.85,11298357.0,620198599.0,1080600000.0,4322400000.0
sz300767,震安科技,2019-04-12,54.6,54.88,49.81,50.8,54.03,6905423.0,358732199.0,1016000000.0,4064000000.0
sz300767,震安科技,2019-04-15,50.8,51.49,49.3,49.3,50.8,4742983.0,240861842.0,986000000.0,3944000000.0
sz300767,震安科技,2019-04-16,48.5,49.47,47.38,49.4,49.3,4440436.0,214667942.0,988000000.0,3952000000.0
sz300767,震安科技,2019-04-17,49.0,49.95,48.4,48.89,49.4,3695412.0,181443601.0,977800000.0,3911200000.0
sz300767,震安科技,2019-04-18,48.42,53.78,47.8,51.4,48.89,7223356.0,367920557.0,1028000000.0,4112000000.0
sz300767,震安科技,2019-04-19,49.88,50.8,49.0,50.15,51.4,4368973.0,218010274.0,1003000000.0,4012000000.0
sz300767,震安科技,2019-04-22,49.89,51.58,49.38,50.49,50.15,4164029.0,210500951.0,1009800000.0,4039200000.0
sz300767,震安科技,2019-04-23,50.63,53.49,49.29,49.41,50.49,5917330.0,303890457.0,988200000.0,3952800000.0
sz300767,震安科技,2019-04-24,47.5,47.75,44.61,45.17,49.41,5800770.0,266706374.0,903400000.0,3613600000.0
sz300767,震安科技,2019-04-25,44.68,45.34,42.97,43.41,45.17,3525661.0,155857217.0,868200000.0,3472800000.0
sz300767,震安科技,2019-04-26,43.1,44.5,43.1,43.9,43.41,2701864.0,118863087.0,878000000.0,3512000000.0
sz300767,震安科技,2019-04-29,43.99,44.59,39.91,40.2,43.9,3097742.0,128832704.0,804000000.0,3216000000.0
sz300767,震安科技,2019-04-30,40.2,41.3,40.13,40.45,40.2,1689641.0,68817133.0,809000000.0,3236000000.0
sz300767,震安科技,2019-05-06,39.76,44.4,39.33,41.13,40.45,3693199.0,153001050.0,822600000.0,3290400000.0
sz300767,震安科技,2019-05-07,40.0,42.51,39.8,42.51,41.13,2886828.0,119539885.0,850200000.0,3400800000.0
sz300767,震安科技,2019-05-08,41.51,42.63,41.0,41.46,42.51,2098068.0,87701355.0,829200000.0,3316800000.0
sz300767,震安科技,2019-05-09,41.15,42.15,39.81,39.9,41.46,2279544.0,93971131.0,798000000.0,3192000000.0
sz300767,震安科技,2019-05-10,40.08,41.7,39.07,41.0,39.9,2596049.0,105792070.0,820000000.0,3280000000.0
sz300767,震安科技,2019-05-13,40.69,40.69,39.5,39.95,41.0,2021134.0,80812920.0,799000000.0,3196000000.0
sz300767,震安科技,2019-05-14,39.38,39.82,37.81,38.49,39.95,2489702.0,96617018.0,769800000.0,3079200000.0
sz300767,震安科技,2019-05-15,38.9,39.5,38.51,39.26,38.49,1929316.0,75515221.0,785200000.0,3140800000.0
sz300767,震安科技,2019-05-16,39.1,40.19,39.03,39.42,39.26,1917032.0,75747375.0,788400000.0,3153600000.0
sz300767,震安科技,2019-05-17,39.44,39.68,37.09,37.39,39.42,2165232.0,82883578.0,747800000.0,2991200000.0
sz300767,震安科技,2019-05-20,37.39,37.86,36.22,36.63,37.39,1242620.0,45590894.0,732600000.0,2930400000.0
sz300767,震安科技,2019-05-21,36.75,37.23,36.7,36.94,36.63,1244975.0,46006142.0,738800000.0,2955200000.0
sz300767,震安科技,2019-05-22,37.0,37.08,35.85,36.02,36.94,1354434.0,49208224.0,720400000.0,2881600000.0
sz300767,震安科技,2019-05-23,35.84,35.84,34.49,34.88,36.02,1575268.0,55136181.0,697600000.0,2790400000.0
sz300767,震安科技,2019-05-24,34.87,35.85,34.65,35.25,34.88,1416394.0,50009835.0,705000000.0,2820000000.0
sz300767,震安科技,2019-05-27,35.38,36.09,35.2,35.86,35.25,1380133.0,49152407.0,717200000.0,2868800000.0
sz300767,震安科技,2019-05-28,35.8,36.3,35.36,35.5,35.86,1398327.0,50149651.0,710000000.0,2840000000.0
sz300767,震安科技,2019-05-29,35.48,36.88,35.22,36.26,35.5,1766934.0,64171838.0,725200000.0,2900800000.0
sz300767,震安科技,2019-05-30,36.09,37.43,35.33,37.39,36.26,2095500.0,76176533.0,747800000.0,2991200000.0
sz300767,震安科技,2019-05-31,37.48,41.13,37.27,41.13,37.39,6221383.0,248912926.0,822600000.0,3290400000.0
sz300767,震安科技,2019-06-03,40.67,40.67,38.15,38.66,41.13,4088633.0,159980912.0,773200000.0,3092800000.0
sz300767,震安科技,2019-06-04,38.15,39.66,38.14,39.1,38.66,2569184.0,99848412.0,782000000.0,3128000000.0
sz300767,震安科技,2019-06-05,39.56,39.77,37.28,37.32,39.1,2650146.0,101287216.0,746400000.0,2985600000.0
sz300767,震安科技,2019-06-06,37.32,37.32,34.89,35.2,37.32,2025824.0,72324220.0,704000000.0,2816000000.0
sz300767,震安科技,2019-06-10,35.51,35.78,35.08,35.32,35.2,865224.0,30635061.0,706400000.0,2825600000.0
sz300767,震安科技,2019-06-11,35.32,37.13,35.32,37.02,35.32,1730400.0,63141063.0,740400000.0,2961600000.0
sz300767,震安科技,2019-06-12,36.98,37.68,36.65,36.73,37.02,1536401.0,56903511.0,734600000.0,2938400000.0
sz300767,震安科技,2019-06-13,36.79,38.0,36.79,37.74,36.73,1699098.0,63475222.0,754800000.0,3019200000.0
sz300767,震安科技,2019-06-14,37.55,38.06,35.4,35.66,37.74,1846313.0,67809238.0,713200000.0,2852800000.0
sz300767,震安科技,2019-06-17,35.26,35.87,35.12,35.55,35.66,808100.0,28652039.0,711000000.0,2844000000.0
sz300767,震安科技,2019-06-18,39.11,39.11,38.12,39.11,35.55,5269232.0,205445528.0,782200000.0,3128800000.0
sz300767,震安科技,2019-06-19,41.06,42.0,38.51,39.46,39.11,6842169.0,276214724.0,789200000.0,3156800000.0
sz300767,震安科技,2019-06-20,38.03,39.23,38.02,38.5,39.46,4288163.0,165071436.0,770000000.0,3080000000.0
sz300767,震安科技,2019-06-21,38.35,39.69,38.0,38.87,38.5,3455863.0,134626096.0,777400000.0,3109600000.0
sz300767,震安科技,2019-06-24,38.85,38.85,38.01,38.38,38.87,1926668.0,73916781.0,767600000.0,3070400000.0
sz300767,震安科技,2019-06-25,38.06,38.38,36.71,36.9,38.38,2280649.0,85152368.0,738000000.0,2952000000.0
sz300767,震安科技,2019-06-26,36.58,37.39,36.38,37.2,36.9,1321314.0,48969779.0,744000000.0,2976000000.0
sz300767,震安科技,2019-06-27,37.12,37.42,36.83,37.01,37.2,1207383.0,44824606.0,740200000.0,2960800000.0
sz300767,震安科技,2019-06-28,37.25,37.27,36.51,37.27,37.01,1116469.0,41171777.0,745400000.0,2981600000.0
sz300767,震安科技,2019-07-01,38.0,38.97,37.71,38.78,37.27,2256714.0,86538392.0,775600000.0,3102400000.0
sz300767,震安科技,2019-07-02,38.78,38.78,38.04,38.44,38.78,1467714.0,56253522.0,768800000.0,3075200000.0
sz300767,震安科技,2019-07-03,38.01,38.3,37.45,37.76,38.44,1300700.0,49100694.0,755200000.0,3020800000.0
sz300767,震安科技,2019-07-04,37.8,39.36,37.57,38.24,37.76,2036013.0,78209776.0,764800000.0,3059200000.0
sz300767,震安科技,2019-07-05,37.96,39.77,37.62,39.77,38.24,3799862.0,148577721.0,795400000.0,3181600000.0
sz300767,震安科技,2019-07-08,39.7,39.7,37.65,37.69,39.77,2621390.0,100369929.0,753800000.0,3015200000.0
sz300767,震安科技,2019-07-09,37.72,38.78,37.72,38.69,37.69,1888416.0,72271177.0,773800000.0,3095200000.0
sz300767,震安科技,2019-07-10,38.47,38.84,36.66,36.95,38.69,2178800.0,82065692.0,739000000.0,2956000000.0
sz300767,震安科技,2019-07-11,36.95,37.28,35.81,35.89,36.95,1601964.0,58301037.0,717800000.0,2871200000.0
sz300767,震安科技,2019-07-12,35.81,36.39,35.81,36.09,35.89,845391.0,30528768.0,721800000.0,2887200000.0
sz300767,震安科技,2019-07-15,35.01,35.02,32.55,34.12,36.09,2556252.0,86228554.0,682400000.0,2729600000.0
sz300767,震安科技,2019-07-16,33.89,34.4,33.61,34.3,34.12,1345657.0,45779411.0,686000000.0,2744000000.0
sz300767,震安科技,2019-07-17,34.2,34.38,33.79,33.97,34.3,922754.0,31390728.0,679400000.0,2717600000.0
sz300767,震安科技,2019-07-18,33.68,33.86,33.01,33.03,33.97,995021.0,33147432.0,660600000.0,2642400000.0
sz300767,震安科技,2019-07-19,33.3,33.56,32.88,33.08,33.03,817064.0,27109868.0,661600000.0,2646400000.0
sz300767,震安科技,2019-07-22,33.17,33.31,31.52,31.8,33.08,1179802.0,37695002.0,636000000.0,2544000000.0
sz300767,震安科技,2019-07-23,31.75,32.34,31.71,32.27,31.8,645233.0,20709870.0,645400000.0,2581600000.0
sz300767,震安科技,2019-07-24,32.39,32.95,32.24,32.49,32.27,698900.0,22810812.0,649800000.0,2599200000.0
sz300767,震安科技,2019-07-25,32.56,32.99,32.41,32.82,32.49,689290.0,22571635.0,656400000.0,2625600000.0
sz300767,震安科技,2019-07-26,32.8,33.0,32.51,32.78,32.82,647300.0,21222505.0,655600000.0,2622400000.0
sz300767,震安科技,2019-07-29,32.78,32.89,32.63,32.83,32.78,485014.0,15895825.0,656600000.0,2626400000.0
sz300767,震安科技,2019-07-30,32.84,33.32,32.83,32.91,32.83,733900.0,24289843.0,658200000.0,2632800000.0
sz300767,震安科技,2019-07-31,32.91,32.91,32.22,32.39,32.91,695852.0,22569630.0,647800000.0,2591200000.0
sz300767,震安科技,2019-08-01,32.08,32.64,32.08,32.63,32.39,539752.0,17508925.0,652600000.0,2610400000.0
sz300767,震安科技,2019-08-02,32.16,32.16,31.57,31.94,32.63,878500.0,28000995.0,638800000.0,2555200000.0
sz300767,震安科技,2019-08-05,31.85,32.64,31.82,32.13,31.94,818140.0,26454791.0,642600000.0,2570400000.0
sz300767,震安科技,2019-08-06,31.5,33.39,30.69,33.31,32.13,2145749.0,69164897.0,666200000.0,2664800000.0
sz300767,震安科技,2019-08-07,33.12,33.58,32.23,32.31,33.31,1348706.0,44223177.0,646200000.0,2584800000.0
sz300767,震安科技,2019-08-08,32.4,33.2,31.95,32.98,32.31,1102131.0,35917134.0,659600000.0,2638400000.0
sz300767,震安科技,2019-08-09,33.55,33.55,32.12,33.2,32.98,1420300.0,46805543.0,664000000.0,2656000000.0
sz300767,震安科技,2019-08-12,33.0,33.98,33.0,33.77,33.2,1710100.0,57584990.0,675400000.0,2701600000.0
sz300767,震安科技,2019-08-13,33.37,33.4,32.6,33.02,33.77,1250700.0,41257387.0,660400000.0,2641600000.0
sz300767,震安科技,2019-08-14,33.2,33.5,32.79,32.79,33.02,861876.0,28485314.0,655800000.0,2623200000.0
sz300767,震安科技,2019-08-15,31.99,32.27,31.44,32.11,32.79,900461.0,28756530.0,642200000.0,2568800000.0
sz300767,震安科技,2019-08-16,32.05,32.42,31.88,31.9,32.11,795461.0,25557062.0,638000000.0,2552000000.0
sz300767,震安科技,2019-08-19,32.16,32.62,31.5,32.57,31.9,942600.0,30413181.0,651400000.0,2605600000.0
sz300767,震安科技,2019-08-20,32.6,33.07,32.33,33.05,32.57,1198892.0,39308747.0,661000000.0,2644000000.0
sz300767,震安科技,2019-08-21,32.93,33.1,32.41,33.05,33.05,1199608.0,39277734.0,661000000.0,2644000000.0
sz300767,震安科技,2019-08-22,32.91,33.8,32.85,33.43,33.05,1583432.0,52918904.0,668600000.0,2674400000.0
sz300767,震安科技,2019-08-23,33.43,33.53,32.6,32.71,33.43,1010678.0,33301452.0,654200000.0,2616800000.0
sz300767,震安科技,2019-08-26,31.99,32.36,31.65,32.09,32.71,888422.0,28331440.0,641800000.0,2567200000.0
sz300767,震安科技,2019-08-27,32.39,32.98,32.18,32.42,32.09,970253.0,31499374.0,648400000.0,2593600000.0
sz300767,震安科技,2019-08-28,32.42,33.19,32.28,33.19,32.42,1315100.0,43260943.0,663800000.0,2655200000.0
sz300767,震安科技,2019-08-29,33.29,33.49,32.81,33.17,33.19,1083022.0,35800042.0,663400000.0,2653600000.0
sz300767,震安科技,2019-08-30,33.18,33.2,31.81,31.94,33.17,1611500.0,52078895.0,638800000.0,2555200000.0
sz300767,震安科技,2019-09-02,31.8,32.39,31.78,32.34,31.94,775600.0,24957388.0,646800000.0,2587200000.0
sz300767,震安科技,2019-09-03,32.31,32.53,32.23,32.5,32.34,872130.0,28273925.0,650000000.0,2600000000.0
sz300767,震安科技,2019-09-04,32.45,33.05,32.4,32.96,32.5,1259822.0,41371392.0,659200000.0,2636800000.0
sz300767,震安科技,2019-09-05,33.2,33.94,33.01,33.6,32.96,2176911.0,72971105.0,672000000.0,2688000000.0
sz300767,震安科技,2019-09-06,36.0,36.8,34.79,35.16,33.6,4156491.0,148145100.0,703200000.0,2812800000.0
sz300767,震安科技,2019-09-09,35.6,35.89,34.85,35.67,35.16,2411691.0,85492245.0,713400000.0,2853600000.0
sz300767,震安科技,2019-09-10,35.6,35.74,35.01,35.27,35.67,1515590.0,53493674.0,705400000.0,2821600000.0
sz300767,震安科技,2019-09-11,35.7,37.8,35.2,36.84,35.27,3578330.0,130999747.0,736800000.0,2947200000.0
sz300767,震安科技,2019-09-12,36.75,40.52,36.67,40.52,36.84,6577339.0,262294882.0,810400000.0,3241600000.0
sz300767,震安科技,2019-09-16,40.93,41.2,39.05,39.74,40.52,4537069.0,181180324.0,794800000.0,3179200000.0
sz300767,震安科技,2019-09-17,39.85,40.41,38.3,39.7,39.74,3418260.0,134384378.0,794000000.0,3176000000.0
sz300767,震安科技,2019-09-18,39.4,41.96,39.05,41.22,39.7,4542006.0,184618062.0,824400000.0,3297600000.0
sz300767,震安科技,2019-09-19,41.0,41.37,40.05,40.96,41.22,2088900.0,84808417.0,819200000.0,3276800000.0
sz300767,震安科技,2019-09-20,41.05,42.99,39.51,40.44,40.96,2688235.0,109825164.0,808800000.0,3235200000.0
sz300767,震安科技,2019-09-23,40.5,41.49,39.5,41.19,40.44,2325105.0,94311237.0,823800000.0,3295200000.0
sz300767,震安科技,2019-09-24,40.56,43.88,40.56,42.09,41.19,3644015.0,155755009.0,841800000.0,3367200000.0
sz300767,震安科技,2019-09-25,41.45,43.58,41.36,43.0,42.09,2447704.0,105062316.0,860000000.0,3440000000.0
sz300767,震安科技,2019-09-26,43.36,47.3,43.01,46.16,43.0,4261599.0,195032212.0,923200000.0,3692800000.0
sz300767,震安科技,2019-09-27,45.53,45.88,43.8,44.96,46.16,2223874.0,99946371.0,899200000.0,3596800000.0
sz300767,震安科技,2019-09-30,45.02,46.66,44.51,45.06,44.96,1467853.0,66645114.0,901200000.0,3604800000.0
sz300767,震安科技,2019-10-08,44.9,47.01,44.86,46.34,45.06,2084661.0,96135060.0,926800000.0,3707200000.0
sz300767,震安科技,2019-10-09,46.34,46.34,41.71,41.71,46.34,2753400.0,118812188.0,834200000.0,3336800000.0
sz300767,震安科技,2019-10-10,43.5,45.88,43.0,45.88,41.71,3295794.0,146733114.0,917600000.0,3670400000.0
sz300767,震安科技,2019-10-11,45.88,47.85,45.65,47.3,45.88,3140390.0,146709058.0,946000000.0,3784000000.0
sz300767,震安科技,2019-10-14,48.0,48.29,45.27,46.2,47.3,2398777.0,110597052.0,924000000.0,3696000000.0
sz300767,震安科技,2019-10-15,45.41,45.49,43.17,44.8,46.2,1876094.0,83292145.0,896000000.0,3584000000.0
sz300767,震安科技,2019-10-16,44.49,44.99,41.5,41.88,44.8,2051000.0,88322727.0,837600000.0,3350400000.0
sz300767,震安科技,2019-10-17,41.88,42.84,41.22,41.5,41.88,1045900.0,43817755.0,830000000.0,3320000000.0
sz300767,震安科技,2019-10-18,41.63,41.7,40.0,40.53,41.5,1448390.0,58930776.0,810600000.0,3242400000.0
sz300767,震安科技,2019-10-21,40.72,41.38,38.82,40.62,40.53,1377774.0,55165204.0,812400000.0,3249600000.0
sz300767,震安科技,2019-10-22,40.77,40.97,39.98,40.3,40.62,1054900.0,42678323.0,806000000.0,3224000000.0
sz300767,震安科技,2019-10-23,40.5,40.5,39.38,39.52,40.3,944000.0,37612622.0,790400000.0,3161600000.0
sz300767,震安科技,2019-10-24,39.88,41.99,39.7,40.4,39.52,1309800.0,53677664.0,808000000.0,3232000000.0
sz300767,震安科技,2019-10-25,39.93,40.45,39.35,40.12,40.4,899600.0,35927584.0,802400000.0,3209600000.0
sz300767,震安科技,2019-10-28,39.64,41.08,39.55,40.88,40.12,993200.0,39919924.0,817600000.0,3270400000.0
sz300767,震安科技,2019-10-29,40.41,40.65,39.7,39.86,40.88,929930.0,37155093.0,797200000.0,3188800000.0
sz300767,震安科技,2019-10-30,39.65,40.6,38.79,39.95,39.86,1007063.0,39855500.0,799000000.0,3196000000.0
sz300767,震安科技,2019-10-31,40.33,40.33,39.48,39.66,39.95,506400.0,20170463.0,793200000.0,3172800000.0
sz300767,震安科技,2019-11-01,39.87,39.91,39.39,39.66,39.66,603400.0,23950799.0,793200000.0,3172800000.0
sz300767,震安科技,2019-11-04,39.88,40.19,39.55,40.1,39.66,603163.0,24048537.0,802000000.0,3208000000.0
sz300767,震安科技,2019-11-05,40.3,40.34,39.71,39.92,40.1,611800.0,24447247.0,798400000.0,3193600000.0
sz300767,震安科技,2019-11-06,40.0,43.91,39.52,42.33,39.92,2454550.0,103311403.0,846600000.0,3386400000.0
sz300767,震安科技,2019-11-07,42.4,44.88,42.4,44.18,42.33,2529235.0,110949196.0,883600000.0,3534400000.0
sz300767,震安科技,2019-11-08,44.17,44.28,43.01,43.6,44.18,1525735.0,66769554.0,872000000.0,3488000000.0
sz300767,震安科技,2019-11-11,43.3,46.1,42.5,45.51,43.6,2380356.0,107113121.0,910200000.0,3640800000.0
sz300767,震安科技,2019-11-12,45.52,46.53,44.69,46.51,45.51,1467900.0,67030556.0,930200000.0,3720800000.0
sz300767,震安科技,2019-11-13,46.5,47.5,45.68,45.9,46.51,1242084.0,57429450.0,918000000.0,3672000000.0
sz300767,震安科技,2019-11-14,46.89,46.89,45.75,45.9,45.9,1559984.0,72208310.0,918000000.0,3672000000.0
sz300767,震安科技,2019-11-15,46.44,46.44,45.4,46.06,45.9,1286100.0,59038081.0,921200000.0,3684800000.0
sz300767,震安科技,2019-11-18,45.95,46.1,44.52,45.73,46.06,1040640.0,47302027.0,914600000.0,3658400000.0
sz300767,震安科技,2019-11-19,45.9,46.55,45.0,46.0,45.73,1229900.0,56394402.0,920000000.0,3680000000.0
sz300767,震安科技,2019-11-20,46.0,46.66,43.68,44.3,46.0,2224800.0,98870578.0,886000000.0,3544000000.0
sz300767,震安科技,2019-11-21,43.93,44.78,43.54,44.0,44.3,911740.0,40304576.0,880000000.0,3520000000.0
sz300767,震安科技,2019-11-22,44.47,48.4,44.0,47.16,44.0,5566309.0,265522023.0,943200000.0,3772800000.0
sz300767,震安科技,2019-11-25,46.15,46.38,42.44,42.45,47.16,3981843.0,172096412.0,849000000.0,3396000000.0
sz300767,震安科技,2019-11-26,42.88,46.7,41.3,46.7,42.45,2725800.0,122047061.0,934000000.0,3736000000.0
sz300767,震安科技,2019-11-27,47.6,48.8,46.11,47.68,46.7,2978424.0,142009168.0,953600000.0,3814400000.0
sz300767,震安科技,2019-11-28,47.67,47.95,45.6,46.14,47.68,2632376.0,122883529.0,922800000.0,3691200000.0
sz300767,震安科技,2019-11-29,47.51,50.58,47.18,49.3,46.14,3359770.0,163829607.0,986000000.0,3944000000.0
sz300767,震安科技,2019-12-02,50.97,51.48,48.5,49.1,49.3,2663703.0,132537746.0,982000000.0,3928000000.0
sz300767,震安科技,2019-12-03,48.18,51.45,48.18,50.91,49.1,2166712.0,107311224.0,1018200000.0,4072800000.0
sz300767,震安科技,2019-12-04,50.42,55.63,50.08,54.0,50.91,2449446.0,130530664.0,1080000000.0,4320000000.0
sz300767,震安科技,2019-12-05,55.0,56.3,53.08,54.83,54.0,2265400.0,124353843.0,1096600000.0,4386400000.0
sz300767,震安科技,2019-12-06,54.3,56.76,54.15,56.56,54.83,1835300.0,102105082.0,1131200000.0,4524800000.0
sz300767,震安科技,2019-12-09,55.82,57.79,54.45,54.91,56.56,2091681.0,116512812.0,1098200000.0,4392800000.0
sz300767,震安科技,2019-12-10,54.21,55.26,52.33,53.72,54.91,2354807.0,125947411.0,1074400000.0,4297600000.0
sz300767,震安科技,2019-12-11,54.0,55.4,52.88,54.5,53.72,1900530.0,102771170.0,1090000000.0,4360000000.0
sz300767,震安科技,2019-12-12,53.95,54.71,52.41,53.3,54.5,1766067.0,93589191.0,1066000000.0,4264000000.0
sz300767,震安科技,2019-12-13,54.0,56.8,53.22,56.11,53.3,2540346.0,141028542.0,1122200000.0,4488800000.0
sz300767,震安科技,2019-12-16,56.1,56.38,54.72,56.3,56.11,1590963.0,88504871.0,1126000000.0,4504000000.0
sz300767,震安科技,2019-12-17,55.77,58.8,54.72,58.5,56.3,2540537.0,142249956.0,1170000000.0,4680000000.0
sz300767,震安科技,2019-12-18,58.18,59.8,57.26,57.44,58.5,1578100.0,91652632.0,1148800000.0,4595200000.0
sz300767,震安科技,2019-12-19,56.95,61.89,55.8,60.48,57.44,2284220.0,133788414.0,1209600000.0,4838400000.0
sz300767,震安科技,2019-12-20,59.92,61.88,58.8,60.0,60.48,1561220.0,94342605.0,1200000000.0,4800000000.0
sz300767,震安科技,2019-12-23,59.82,61.66,59.34,60.3,60.0,1223800.0,73908013.0,1206000000.0,4824000000.0
sz300767,震安科技,2019-12-24,59.47,65.01,59.11,64.55,60.3,1923000.0,121294080.0,1291000000.0,5164000000.0
sz300767,震安科技,2019-12-25,65.0,65.0,62.5,63.95,64.55,1721900.0,108824008.0,1279000000.0,5116000000.0
sz300767,震安科技,2019-12-26,63.95,64.88,63.31,64.73,63.95,1078000.0,69089391.0,1294600000.0,5178400000.0
sz300767,震安科技,2019-12-27,65.34,65.97,60.25,61.25,64.73,1875131.0,117522518.0,1225000000.0,4900000000.0
sz300767,震安科技,2019-12-30,59.18,61.18,57.01,59.92,61.25,1454801.0,86404448.0,1198400000.0,4793600000.0
sz300767,震安科技,2019-12-31,59.69,60.89,58.49,60.51,59.92,1141147.0,68452877.0,1210200000.0,4840800000.0
sz300767,震安科技,2020-01-02,60.28,61.1,58.86,60.9,60.51,1386212.0,83344527.0,1218000000.0,4872000000.0
sz300767,震安科技,2020-01-03,60.51,60.51,57.8,59.11,60.9,1893100.0,111904268.0,1182200000.0,4728800000.0
sz300767,震安科技,2020-01-06,58.0,59.45,56.62,58.49,59.11,1446557.0,83897913.0,1169800000.0,4679200000.0
sz300767,震安科技,2020-01-07,58.11,60.25,57.61,57.88,58.49,1865202.0,109745221.0,1157600000.0,4630400000.0
sz300767,震安科技,2020-01-08,58.51,58.51,55.65,55.96,57.88,1673500.0,95103448.0,1119200000.0,4476800000.0
sz300767,震安科技,2020-01-09,56.25,57.89,56.0,57.23,55.96,1783111.0,101970751.0,1144600000.0,4578400000.0
sz300767,震安科技,2020-01-10,57.2,58.39,56.81,57.48,57.23,1422052.0,81884863.0,1149600000.0,4598400000.0
sz300767,震安科技,2020-01-13,57.44,58.6,56.08,58.4,57.48,1372538.0,79072092.0,1168000000.0,4672000000.0
sz300767,震安科技,2020-01-14,58.35,58.35,56.31,56.57,58.4,1398400.0,79824929.0,1131400000.0,4525600000.0
sz300767,震安科技,2020-01-15,56.8,58.43,56.6,57.66,56.57,1087400.0,62804469.0,1153200000.0,4612800000.0
sz300767,震安科技,2020-01-16,57.9,58.4,55.9,56.53,57.66,1170874.0,66358914.0,1130600000.0,4522400000.0
sz300767,震安科技,2020-01-17,56.55,57.41,56.34,56.85,56.53,895989.0,50960192.0,1137000000.0,4548000000.0
sz300767,震安科技,2020-01-20,56.37,57.49,55.51,56.9,56.85,877700.0,49517679.0,1138000000.0,4552000000.0
sz300767,震安科技,2020-01-21,56.86,62.59,56.52,62.59,56.9,3264292.0,199129100.0,1251800000.0,5007200000.0
sz300767,震安科技,2020-01-22,61.2,61.88,58.13,61.58,62.59,2794751.0,166814482.0,1231600000.0,4926400000.0
sz300767,震安科技,2020-01-23,59.83,60.93,55.55,58.8,61.58,1453430.0,85037771.0,1176000000.0,4704000000.0
sz300767,震安科技,2020-02-03,52.92,58.02,52.92,58.02,58.8,1796550.0,97702486.0,1160400000.0,4641600000.0
sz300767,震安科技,2020-02-04,57.0,57.9,55.8,57.69,58.02,1124761.0,63971095.0,1153800000.0,4615200000.0
sz300767,震安科技,2020-02-05,58.0,58.67,56.1,56.75,57.69,1047252.0,60158448.0,1135000000.0,4540000000.0
sz300767,震安科技,2020-02-06,56.27,58.47,55.27,58.17,56.75,1044852.0,59520884.0,1163400000.0,4653600000.0
sz300767,震安科技,2020-02-07,58.0,63.63,56.9,63.28,58.17,1936373.0,116789995.0,1265600000.0,5062400000.0
sz300767,震安科技,2020-02-10,61.59,63.86,61.55,62.18,63.28,958421.0,59809197.0,1243600000.0,4974400000.0
sz300767,震安科技,2020-02-11,62.0,62.8,60.3,61.47,62.18,773551.0,47324843.0,1229400000.0,4917600000.0
sz300767,震安科技,2020-02-12,61.4,63.5,61.4,62.68,61.47,1094054.0,68189271.0,1253600000.0,5014400000.0
sz300767,震安科技,2020-02-13,61.99,62.88,60.8,61.69,62.68,762900.0,46942590.0,1233800000.0,4935200000.0
sz300767,震安科技,2020-02-14,61.69,62.08,59.31,61.04,61.69,809700.0,49260492.0,1220800000.0,4883200000.0
sz300767,震安科技,2020-02-17,60.0,63.5,59.52,62.87,61.04,959500.0,59731985.0,1257400000.0,5029600000.0
sz300767,震安科技,2020-02-18,64.03,68.49,64.01,67.69,62.87,1840200.0,123068933.0,1353800000.0,5415200000.0
sz300767,震安科技,2020-02-19,66.3,69.78,66.0,67.07,67.69,1405001.0,94926006.0,1341400000.0,5365600000.0
sz300767,震安科技,2020-02-20,68.01,68.27,66.1,67.9,67.07,798301.0,53799800.0,1358000000.0,5432000000.0
sz300767,震安科技,2020-02-21,68.5,74.69,67.88,74.69,67.9,1855441.0,134426353.0,1493800000.0,5975200000.0
sz300767,震安科技,2020-02-24,77.0,82.16,76.19,80.06,74.69,2525455.0,200392298.0,1601200000.0,6404800000.0
sz300767,震安科技,2020-02-25,77.9,88.07,77.9,88.07,80.06,2275401.0,194131500.0,1761400000.0,7045600000.0
sz300767,震安科技,2020-02-26,88.07,96.8,85.88,89.95,88.07,3070280.0,289373667.0,1799000000.0,7196000000.0
sz300767,震安科技,2020-02-27,92.0,98.45,90.01,96.0,89.95,2369600.0,227026990.0,1920000000.0,7680000000.0
sz300767,震安科技,2020-02-28,91.45,93.53,86.88,90.56,96.0,1909109.0,174007099.0,1811200000.0,7244800000.0
sz300767,震安科技,2020-03-02,91.0,97.0,87.0,93.95,90.56,1851700.0,172559411.0,1879000000.0,7516000000.0
sz300767,震安科技,2020-03-03,95.26,95.9,91.22,94.0,93.95,1067200.0,100131684.0,1880000000.0,7520000000.0
sz300767,震安科技,2020-03-04,93.5,93.99,89.01,92.4,94.0,1000400.0,91247617.0,1848000000.0,7392000000.0
sz300767,震安科技,2020-03-05,92.73,95.88,92.44,94.8,92.4,1224966.0,115863390.0,1896000000.0,7584000000.0
sz300767,震安科技,2020-03-06,92.8,99.15,92.0,92.82,94.8,1137900.0,109073879.0,1856400000.0,7425600000.0
sz300767,震安科技,2020-03-09,91.97,95.0,86.03,89.5,92.82,1715951.0,156530994.0,1790000000.0,7160000000.0
sz300767,震安科技,2020-03-10,88.12,91.0,84.28,86.5,89.5,1608666.0,139186291.0,1730000000.0,6920000000.0
sz300767,震安科技,2020-03-11,88.3,89.44,83.68,83.85,86.5,1161043.0,99480020.0,1677000000.0,6708000000.0
sz300767,震安科技,2020-03-12,84.68,84.68,80.1,80.72,83.85,1428900.0,116619212.0,1614400000.0,6457600000.0
sz300767,震安科技,2020-03-13,75.39,79.4,75.34,77.68,80.72,1090801.0,84610109.0,1553600000.0,6214400000.0
sz300767,震安科技,2020-03-16,78.69,79.38,71.26,72.1,77.68,1542518.0,115286293.0,1442000000.0,5768000000.0
sz300767,震安科技,2020-03-17,72.47,76.0,68.47,70.97,72.1,1009300.0,71873524.0,1419400000.0,5677600000.0
sz300767,震安科技,2020-03-18,72.04,77.0,72.04,72.5,70.97,1353863.0,101393688.0,1450000000.0,5800000000.0
sz300767,震安科技,2020-03-19,72.51,74.99,70.06,74.0,72.5,987099.0,71777635.0,1480000000.0,5920000000.0
sz300767,震安科技,2020-03-20,74.92,79.6,73.02,77.96,74.0,1324063.0,101393254.0,1559200000.0,6236800000.0
sz300767,震安科技,2020-03-23,75.0,75.52,70.16,70.16,77.96,1176118.0,85341262.0,1403200000.0,5612800000.0
sz300767,震安科技,2020-03-24,72.0,72.99,68.0,71.92,70.16,818100.0,57879181.0,1438400000.0,5753600000.0
sz300767,震安科技,2020-03-25,74.92,74.92,72.0,73.3,71.92,649500.0,47463664.0,1466000000.0,5864000000.0
sz300767,震安科技,2020-03-26,72.59,73.97,70.69,71.36,73.3,446049.0,32171775.0,1427200000.0,5708800000.0
sz300767,震安科技,2020-03-27,71.6,73.79,70.39,71.4,71.36,559400.0,40384904.0,1428000000.0,5712000000.0
sz300767,震安科技,2020-03-30,71.08,72.0,65.9,69.19,71.4,1077749.0,73621251.0,3296792796.0,5535200000.0
sz300767,震安科技,2020-03-31,71.29,71.87,69.04,71.2,69.19,919700.0,65446363.0,3392566080.0,5696000000.0
sz300767,震安科技,2020-04-01,71.49,77.17,71.31,75.5,71.2,1806619.0,135437994.0,3597454200.0,6040000000.0
sz300767,震安科技,2020-04-02,74.97,81.37,74.5,80.0,75.5,1870363.0,145929133.0,3811872000.0,6400000000.0
sz300767,震安科技,2020-04-03,79.0,79.74,74.6,76.64,80.0,1711503.0,131594902.0,3651773376.0,6131200000.0
sz300767,震安科技,2020-04-07,78.0,83.98,78.0,82.43,76.64,1883249.0,153474077.0,3927657612.0,6594400000.0
sz300767,震安科技,2020-04-08,82.43,82.43,75.26,75.26,82.43,2978600.0,230968744.0,3586018584.0,6020800000.0
sz300767,震安科技,2020-04-09,75.39,78.2,72.8,77.3,75.26,1341016.0,102276882.0,3683221320.0,6184000000.0
sz300767,震安科技,2020-04-10,79.43,79.89,74.69,75.1,77.3,1084000.0,82859920.0,3578394840.0,6008000000.0
sz300767,震安科技,2020-04-13,73.41,75.5,73.0,74.95,75.1,635600.0,46982865.0,3571247580.0,5996000000.0
sz300767,震安科技,2020-04-14,76.0,78.19,75.01,77.82,74.95,697052.0,53850799.0,3707998488.0,6225600000.0
sz300767,震安科技,2020-04-15,78.1,78.98,76.8,77.38,77.82,453300.0,35184818.0,3687033192.0,6190400000.0
sz300767,震安科技,2020-04-16,77.42,78.45,75.2,77.9,77.38,531400.0,41009862.0,3711810360.0,6232000000.0
sz300767,震安科技,2020-04-17,77.91,80.5,77.2,78.49,77.9,841359.0,66148177.0,3739922916.0,6279200000.0
sz300767,震安科技,2020-04-20,78.66,80.99,78.3,79.5,78.49,662949.0,52726579.0,3788047800.0,6360000000.0
sz300767,震安科技,2020-04-21,78.5,79.4,77.07,78.02,79.5,401700.0,31372556.0,3717528168.0,6241600000.0
sz300767,震安科技,2020-04-22,77.5,78.58,76.17,78.51,78.02,451649.0,35214412.0,3740875884.0,6280800000.0
sz300767,震安科技,2020-04-23,78.3,79.69,76.16,76.16,78.51,592582.0,45819692.0,3628902144.0,6092800000.0
sz300767,震安科技,2020-04-24,76.0,76.73,71.0,72.38,76.16,1148000.0,83984043.0,3448791192.0,5790400000.0
sz300767,震安科技,2020-04-27,72.6,73.47,70.11,72.43,72.38,640500.0,46191940.0,3451173612.0,5794400000.0
sz300767,震安科技,2020-04-28,77.0,77.0,69.21,75.7,72.43,1288948.0,95309870.0,3606983880.0,6056000000.0
sz300767,震安科技,2020-04-29,75.99,81.0,75.45,77.35,75.7,1899099.0,149248227.0,3685603740.0,6188000000.0
sz300767,震安科技,2020-04-30,77.36,78.85,77.0,78.13,77.35,980500.0,76467210.0,3722769492.0,6250400000.0
sz300767,震安科技,2020-05-06,77.5,78.09,76.58,78.0,78.13,1018790.0,78732354.0,3716575200.0,6240000000.0
sz300767,震安科技,2020-05-07,77.96,85.8,77.45,83.0,78.0,3390114.0,281444468.0,3954817200.0,6640000000.0
sz300767,震安科技,2020-05-08,83.66,85.87,82.17,85.69,83.0,2571073.0,216938452.0,4082991396.0,6855200000.0
sz300767,震安科技,2020-05-11,85.29,88.8,84.71,88.3,85.69,1576900.0,136992399.0,4207353720.0,7064000000.0
sz300767,震安科技,2020-05-12,88.95,97.13,87.87,97.13,88.3,2248706.0,210104631.0,4628089092.0,7770400000.0
sz300767,震安科技,2020-05-13,96.94,99.0,94.95,95.6,97.13,1484390.0,142774674.0,4555187040.0,7648000000.0
sz300767,震安科技,2020-05-14,94.03,97.4,91.52,91.8,95.6,1563400.0,146660896.0,4374123120.0,7344000000.0
sz300767,震安科技,2020-05-15,92.74,95.8,92.05,93.11,91.8,1497200.0,140408664.0,4436542524.0,7448800000.0
sz300767,震安科技,2020-05-18,95.25,102.42,92.2,102.42,93.11,1964301.0,193899410.0,4880149128.0,8193600000.0
sz300767,震安科技,2020-05-19,105.0,111.42,103.01,107.57,102.42,2433325.0,260381539.0,5125538388.0,8605600000.0
sz300767,震安科技,2020-05-20,109.04,111.0,97.93,98.85,107.57,2213320.0,227423607.0,4710044340.0,7908000000.0
sz300767,震安科技,2020-05-21,99.55,101.9,92.0,92.1,98.85,2039800.0,196640322.0,4388417640.0,7368000000.0
sz300767,震安科技,2020-05-22,93.55,98.49,90.91,91.74,92.1,2054329.0,192553818.0,4371264216.0,7339200000.0
sz300767,震安科技,2020-05-25,94.0,94.65,88.53,89.68,91.74,1588762.0,144204065.0,4273108512.0,7174400000.0
sz300767,震安科技,2020-05-26,90.22,98.65,89.06,98.21,89.68,1956544.0,185907079.0,4679549364.0,7856800000.0
sz300767,震安科技,2020-05-27,97.27,98.88,94.48,96.6,98.21,1518152.0,146545093.0,4602835440.0,7728000000.0
sz300767,震安科技,2020-05-28,96.0,97.38,93.0,96.9,96.6,1088790.0,104012155.0,4617129960.0,7752000000.0
sz300767,震安科技,2020-05-29,96.69,104.8,94.9,103.1,96.9,1258406.0,125336724.0,4912550040.0,8248000000.0
sz300767,震安科技,2020-06-01,105.38,107.0,102.12,106.15,103.1,1288997.0,134750763.0,5057877660.0,8492000000.0
sz300767,震安科技,2020-06-02,105.11,106.14,101.82,102.55,106.15,955298.0,98340159.0,4886343420.0,8204000000.0
sz300767,震安科技,2020-06-03,102.7,112.81,102.7,112.81,102.55,1672287.0,184853611.0,5375216004.0,9024800000.0
sz300767,震安科技,2020-06-04,112.15,114.5,111.56,112.99,112.81,970747.0,109729207.0,5383792716.0,9039200000.0
sz300767,震安科技,2020-06-05,114.87,114.87,110.0,114.1,112.99,811100.0,91188005.0,5436682440.0,9128000000.0
sz300767,震安科技,2020-06-08,114.11,117.68,112.88,113.81,114.1,934700.0,107363835.0,5422864404.0,9104800000.0
sz300767,震安科技,2020-06-09,117.29,117.3,102.43,102.43,113.81,2004362.0,211412873.0,4880625612.0,8194400000.0
sz300767,震安科技,2020-06-10,97.01,102.0,95.26,97.81,102.43,2153790.0,211540953.0,4660490004.0,7824800000.0
sz300767,震安科技,2020-06-11,99.08,107.59,97.8,102.08,97.81,2068700.0,212921439.0,4863948672.0,8166400000.0
sz300767,震安科技,2020-06-12,100.0,112.29,98.2,112.29,102.08,1858326.0,197907678.0,5350438836.0,8983200000.0
sz300767,震安科技,2020-06-15,62.89,68.23,59.88,64.85,62.26,5126115.0,334375775.0,5355754498.799999,9338400000.0
sz300767,震安科技,2020-06-16,64.88,69.45,64.24,68.5,64.85,2628609.0,175851236.0,5657196279.5,9864000000.0
sz300767,震安科技,2020-06-17,68.23,68.38,63.5,65.88,68.5,3433140.0,225540171.0,5440818845.160001,9486720000.0
sz300767,震安科技,2020-06-18,65.88,66.66,62.5,63.3,65.88,2263210.0,143822936.0,5227744883.099999,9115200000.0
sz300767,震安科技,2020-06-19,64.0,65.66,62.32,62.9,63.3,2748980.0,174598936.0,5194710160.3,9057600000.0
sz300767,震安科技,2020-06-22,62.0,63.5,61.0,62.05,62.9,2428827.0,150449632.0,5124511374.349999,8935200000.0
sz300767,震安科技,2020-06-23,61.9,65.89,61.55,64.96,62.05,3050073.0,196492008.0,5364838982.72,9354240000.0
sz300767,震安科技,2020-06-24,64.66,65.82,63.0,64.19,64.96,1826076.0,116842795.0,5301247141.33,9243360000.0
sz300767,震安科技,2020-06-29,64.57,67.2,63.54,66.68,64.19,2477300.0,162722044.0,5506888290.76,9601920000.0
sz300767,震安科技,2020-06-30,66.68,68.97,65.43,65.95,66.68,2369768.0,158689169.0,5446599921.65,9496800000.0
sz300767,震安科技,2020-07-01,66.03,68.13,63.0,64.26,65.95,3093140.0,200804293.0,5307028217.82,9253440000.0
sz300767,震安科技,2020-07-02,63.99,64.55,62.9,63.25,64.26,2420607.0,153809280.0,5223615542.75,9108000000.0
sz300767,震安科技,2020-07-03,63.45,64.55,61.59,63.2,63.25,2499324.0,157400689.0,5219486202.400001,9100800000.0
sz300767,震安科技,2020-07-06,62.0,65.0,61.5,63.22,63.2,3777230.0,238807147.0,5221137938.54,9103680000.0
sz300767,震安科技,2020-07-07,63.44,66.39,62.19,66.39,63.22,4427216.0,283649333.0,5482938116.73,9560160000.0
sz300767,震安科技,2020-07-08,69.84,69.84,64.46,65.3,66.39,5142610.0,342823961.0,5392918497.099999,9403200000.0
sz300767,震安科技,2020-07-09,66.5,71.83,66.5,71.83,65.3,2647441.0,186652884.0,5932210346.81,10343520000.0
sz300767,震安科技,2020-07-10,75.57,79.01,72.27,79.01,71.83,6010757.0,466496993.0,6525183621.07,11377440000.0
sz300767,震安科技,2020-07-13,84.0,86.91,79.5,86.91,79.01,4689186.0,393343777.0,7177619396.37,12515040000.0
sz300767,震安科技,2020-07-14,88.0,94.2,82.5,89.45,86.91,4915955.0,427747183.0,7387389886.150001,12880800000.0
sz300767,震安科技,2020-07-15,89.45,89.99,82.56,84.21,89.45,3478420.0,296508440.0,6954635017.47,12126240000.0
sz300767,震安科技,2020-07-16,82.03,86.93,76.0,76.1,84.21,3829985.0,310941357.0,6284856012.7,10958400000.0
sz300767,震安科技,2020-07-17,77.02,83.71,77.02,83.71,76.1,3495529.0,285321666.0,6913341613.969999,12054240000.0
sz300767,震安科技,2020-07-20,87.0,87.26,81.2,84.5,83.71,2998202.0,250632965.0,6978585191.499999,12168000000.0
sz300767,震安科技,2020-07-21,84.5,88.49,82.4,87.2,84.5,2252683.0,193895062.0,7201569570.4,12556800000.0
sz300767,震安科技,2020-07-22,86.0,88.63,86.0,86.83,87.2,2047110.0,178844049.0,7171012451.809999,12503520000.0
sz300767,震安科技,2020-07-23,86.28,87.12,82.66,85.49,86.83,2558813.0,217645675.0,7060346130.43,12310560000.0
sz300767,震安科技,2020-07-24,84.0,84.38,79.3,79.61,85.49,2856860.0,233523039.0,6574735705.27,11463840000.0
sz300767,震安科技,2020-07-27,80.02,83.91,79.9,80.78,79.61,2131093.0,173939735.0,6671362269.46,11632320000.0
sz300767,震安科技,2020-07-28,82.5,82.5,78.85,80.0,80.78,1676083.0,134094099.0,6606944560.0,11520000000.0
sz300767,震安科技,2020-07-29,80.51,86.6,78.62,83.02,80.0,3902860.0,322744071.0,6856356717.14,11954880000.0
sz300767,震安科技,2020-07-30,83.17,83.45,79.15,81.11,83.02,2409100.0,195522094.0,6698615915.77,11679840000.0
sz300767,震安科技,2020-07-31,81.56,83.9,79.9,82.26,81.11,2604360.0,213192309.0,6793590743.820001,11845440000.0
sz300767,震安科技,2020-08-03,83.0,83.0,81.18,82.85,82.26,2899087.0,238025218.0,6842316959.95,11930400000.0
sz300767,震安科技,2020-08-04,82.54,88.0,82.5,85.98,82.85,4557755.0,390690734.0,7100813665.86,12381120000.0
sz300767,震安科技,2020-08-05,85.78,94.0,83.79,91.04,85.98,5061766.0,458015787.0,7518702909.28,13109760000.0
sz300767,震安科技,2020-08-06,90.31,91.97,86.53,89.5,91.04,3315940.0,294546779.0,7391519226.5,12888000000.0
sz300767,震安科技,2020-08-07,88.09,91.3,86.58,88.2,89.5,2176775.0,193741079.0,7284156377.400001,12700800000.0
sz300767,震安科技,2020-08-10,85.77,87.9,85.77,87.04,88.2,2146270.0,186822144.0,7188355681.28,12533760000.0
sz300767,震安科技,2020-08-11,88.64,92.98,86.5,86.95,87.04,3804380.0,342495134.0,7180922868.650001,12520800000.0
sz300767,震安科技,2020-08-12,85.62,89.2,80.08,82.82,86.95,2742540.0,229467359.0,6839839355.74,11926080000.0
sz300767,震安科技,2020-08-13,83.0,85.3,81.7,83.87,82.82,1637880.0,136946436.0,6926555503.089999,12077280000.0
sz300767,震安科技,2020-08-14,83.69,87.66,81.89,83.0,83.87,3039680.0,255346326.0,6854704981.0,11952000000.0
sz300767,震安科技,2020-08-17,81.69,83.0,78.0,82.4,83.0,2548540.0,205842432.0,6805152896.8,11865600000.0
sz300767,震安科技,2020-08-18,82.68,87.8,81.84,87.21,82.4,4093459.0,349494318.0,7202395438.47,12558240000.0
sz300767,震安科技,2020-08-19,88.0,89.86,86.1,87.7,87.21,2685140.0,235409936.0,7242862973.9,12628800000.0
sz300767,震安科技,2020-08-20,86.51,87.51,85.32,86.72,87.7,2067640.0,178423958.0,7161927903.04,12487680000.0
sz300767,震安科技,2020-08-21,88.88,89.98,86.22,88.45,86.72,2428580.0,215223809.0,7304803079.150001,12736800000.0
sz300767,震安科技,2020-08-24,88.0,96.61,85.68,93.85,88.45,3592449.0,324045480.0,7750771836.95,13514400000.0
sz300767,震安科技,2020-08-25,94.08,95.6,89.9,90.58,93.85,2581540.0,238312405.0,7480712978.059999,13043520000.0
sz300767,震安科技,2020-08-26,90.93,91.3,87.28,89.18,90.58,2011880.0,178915574.0,7365091448.259999,12841920000.0
sz300767,震安科技,2020-08-27,86.51,92.66,85.41,90.1,89.18,2162540.0,193118973.0,7441071310.7,12974400000.0
sz300767,震安科技,2020-08-28,90.5,101.4,89.73,98.97,90.1,3447921.0,332084968.0,8173616288.79,14251680000.0
sz300767,震安科技,2020-08-31,98.9,102.96,95.88,96.3,98.97,3237985.0,319889922.0,7953109514.099999,13867200000.0
sz300767,震安科技,2020-09-01,97.7,98.75,94.7,96.8,96.3,2163560.0,208650188.0,7994402917.6,13939200000.0
sz300767,震安科技,2020-09-02,97.0,98.74,95.8,96.63,96.8,1555200.0,150587274.0,7980363160.41,13914720000.0
sz300767,震安科技,2020-09-03,97.39,97.4,91.79,92.19,96.63,1854752.0,174613801.0,7613677737.33,13275360000.0
sz300767,震安科技,2020-09-04,90.94,93.8,90.1,91.06,92.19,1654140.0,151159928.0,7520354645.42,13112640000.0
sz300767,震安科技,2020-09-07,91.06,95.38,88.18,91.5,91.06,2108388.0,194848967.0,7556692840.5,13176000000.0
sz300767,震安科技,2020-09-08,91.82,94.9,90.59,93.52,91.5,1507900.0,139796110.0,7723518190.64,13466880000.0
sz300767,震安科技,2020-09-09,92.71,92.71,85.55,86.45,93.52,2736930.0,241101912.0,7139629465.15,12448800000.0
sz300767,震安科技,2020-09-10,87.0,89.2,82.9,82.9,86.45,2034280.0,174608969.0,6846446300.3,11937600000.0
sz300767,震安科技,2020-09-11,83.19,86.46,82.08,85.88,82.9,1558220.0,132249686.0,7092554985.16,12366720000.0
sz300767,震安科技,2020-09-14,86.41,89.2,85.29,86.5,85.88,1317625.0,114428297.0,7143758805.5,12456000000.0
sz300767,震安科技,2020-09-15,86.73,87.0,84.08,84.88,86.5,1060671.0,89914544.0,7009968178.16,12222720000.0
sz300767,震安科技,2020-09-16,84.92,85.43,82.37,83.5,84.88,1275282.0,106553962.0,6895998384.5,12024000000.0
sz300767,震安科技,2020-09-17,83.47,83.9,80.88,82.0,83.5,1518400.0,124393634.0,6772118174.000001,11808000000.0
sz300767,震安科技,2020-09-18,80.97,83.99,79.22,82.76,82.0,1689929.0,138513508.0,6834884147.32,11917440000.0
sz300767,震安科技,2020-09-21,83.58,83.98,79.67,81.02,82.76,1875052.0,152219033.0,6691183103.14,11666880000.0
sz300767,震安科技,2020-09-22,80.04,81.68,80.04,80.2,81.02,1074899.0,86899107.0,6623461921.400001,11548800000.0
sz300767,震安科技,2020-09-23,80.84,81.81,79.56,81.24,80.2,1143320.0,92371507.0,6709352200.68,11698560000.0
sz300767,震安科技,2020-09-24,81.24,81.65,78.78,78.9,81.24,1077260.0,85916164.0,6516099072.3,11361600000.0
sz300767,震安科技,2020-09-25,80.49,80.49,78.1,78.26,78.9,945600.0,74774591.0,6463243515.820001,11269440000.0
sz300767,震安科技,2020-09-28,78.12,78.7,76.11,77.65,78.26,1042360.0,80768683.0,6412865563.55,11181600000.0
sz300767,震安科技,2020-09-29,78.69,78.89,76.83,77.88,77.65,845120.0,65960618.0,6431860529.16,11214720000.0
sz300767,震安科技,2020-09-30,78.55,82.42,77.65,79.72,77.88,1409360.0,112743574.0,6583820254.04,11479680000.0
sz300767,震安科技,2020-10-09,81.8,81.87,79.15,79.36,79.72,1552429.0,124073419.0,6554089003.52,11427840000.0
sz300767,震安科技,2020-10-12,78.8,80.24,73.03,78.43,79.36,4854861.0,370155928.0,6477283273.01,11293920000.0
sz300767,震安科技,2020-10-13,77.62,84.5,77.04,83.99,78.43,3562337.0,290449027.0,6936465919.93,12094560000.0
sz300767,震安科技,2020-10-14,83.0,83.0,76.83,79.81,83.99,3916449.0,309547208.0,6591253066.67,11492640000.0
sz300767,震安科技,2020-10-15,79.95,79.95,76.3,77.99,79.81,2501660.0,193906370.0,6440945077.929999,11230560000.0
sz300767,震安科技,2020-10-16,77.0,78.59,76.06,76.83,77.99,1521189.0,117138079.0,6345144381.809999,11063520000.0
sz300767,震安科技,2020-10-19,76.92,77.91,74.72,75.58,76.83,1376000.0,103902492.0,6241910873.059999,10883520000.0
sz300767,震安科技,2020-10-20,74.53,76.57,72.54,75.82,75.58,1295260.0,97242746.0,6261731706.740001,10918080000.0
sz300767,震安科技,2020-10-21,75.44,77.09,75.08,75.35,75.82,823400.0,62543453.0,6222915907.450001,10850400000.0
sz300767,震安科技,2020-10-22,74.86,75.99,73.6,74.7,75.35,943500.0,70557101.0,6169234482.9,10756800000.0
sz300767,震安科技,2020-10-23,75.64,75.98,71.21,71.77,74.7,1485859.0,108777700.0,5927255138.39,10334880000.0
sz300767,震安科技,2020-10-26,69.5,72.49,67.8,71.91,71.77,1732176.0,122167086.0,5938817291.370001,10355040000.0
sz300767,震安科技,2020-10-27,71.9,74.5,71.29,73.14,71.91,1235540.0,90139059.0,6040399063.98,10532160000.0
sz300767,震安科技,2020-10-28,73.18,74.65,71.8,74.25,73.14,1096120.0,80533865.0,6132070419.749999,10692000000.0
sz300767,震安科技,2020-10-29,73.2,74.91,72.87,74.59,74.25,1021180.0,75797386.0,6160149934.13,10740960000.0
sz300767,震安科技,2020-10-30,74.97,76.35,72.22,72.22,74.59,1583719.0,117220337.0,5964419201.540001,10399680000.0
sz300767,震安科技,2020-11-02,73.3,74.0,71.8,73.39,72.22,1592749.0,116493790.0,6061045765.7300005,10568160000.0
sz300767,震安科技,2020-11-03,72.93,73.99,72.6,73.25,73.39,899446.0,65815010.0,6049483612.75,10548000000.0
sz300767,震安科技,2020-11-04,73.32,75.6,72.5,72.73,73.25,1389580.0,102361093.0,6006538473.11,10473120000.0
sz300767,震安科技,2020-11-05,73.51,75.55,72.8,74.9,72.73,1925209.0,143280315.0,6185751844.3,10785600000.0
sz300767,震安科技,2020-11-06,74.52,75.0,72.63,73.02,74.9,1440389.0,105433558.0,6030488647.14,10514880000.0
sz300767,震安科技,2020-11-09,72.27,74.3,71.68,73.28,73.02,1227122.0,89935883.0,6051961216.96,10552320000.0
sz300767,震安科技,2020-11-10,73.3,80.11,72.9,78.03,73.28,3424040.0,263872138.0,6444248550.21,11236320000.0
sz300767,震安科技,2020-11-11,78.6,79.66,75.19,76.3,78.03,1612500.0,124435344.0,6301373374.1,10987200000.0
sz300767,震安科技,2020-11-12,75.84,76.0,73.48,74.08,76.3,1307319.0,97107618.0,6118030662.559999,10667520000.0
sz300767,震安科技,2020-11-13,74.27,74.35,68.58,69.02,74.08,3525000.0,248242737.0,5700141419.14,9938880000.0
sz300767,震安科技,2020-11-16,70.01,70.65,66.25,67.99,69.02,3702232.0,250347083.0,5615077007.93,9790560000.0
sz300767,震安科技,2020-11-17,68.02,68.06,65.6,66.3,67.99,1432248.0,94782240.0,5475505304.1,9547200000.0
sz300767,震安科技,2020-11-18,66.4,70.47,66.22,68.06,66.3,2553580.0,175573095.0,5620858084.419999,9800640000.0
sz300767,震安科技,2020-11-19,67.8,70.34,66.2,69.6,68.06,2103959.0,145011326.0,5748041767.2,10022400000.0
sz300767,震安科技,2020-11-20,69.7,70.88,68.9,70.12,69.6,1733280.0,121323786.0,5790986906.84,10097280000.0
sz300767,震安科技,2020-11-23,71.0,71.0,67.61,69.18,70.12,1645720.0,113706951.0,5713355308.26,9961920000.0
sz300767,震安科技,2020-11-24,69.01,73.9,69.01,73.6,69.18,3377359.0,242744226.0,6078388995.2,10598400000.0
sz300767,震安科技,2020-11-25,72.77,73.47,70.65,71.4,73.6,2081940.0,149544568.0,5896698019.8,10281600000.0
sz300767,震安科技,2020-11-26,71.09,71.18,68.7,70.08,71.4,1403320.0,97866784.0,5787683434.559999,10091520000.0
sz300767,震安科技,2020-11-27,71.0,71.98,69.6,71.57,70.08,1292100.0,91726164.0,5910737776.99,10306080000.0
sz300767,震安科技,2020-11-30,72.0,72.0,68.88,69.29,71.57,1418020.0,98610408.0,5722439857.03,9977760000.0
sz300767,震安科技,2020-12-01,69.05,73.5,68.81,72.1,69.29,1997080.0,142617066.0,5954508784.7,10382400000.0
sz300767,震安科技,2020-12-02,73.0,73.0,69.8,70.6,72.1,1820860.0,128572033.0,5830628574.2,10166400000.0
sz300767,震安科技,2020-12-03,70.62,71.0,69.16,70.0,70.6,790880.0,55355242.0,5781076490.0,10080000000.0
sz300767,震安科技,2020-12-04,69.61,71.6,68.9,70.5,70.0,1057620.0,74334563.0,5822369893.5,10152000000.0
sz300767,震安科技,2020-12-07,70.5,72.85,69.89,72.65,70.5,1853320.0,133080496.0,5999931528.55,10461600000.0
sz300767,震安科技,2020-12-08,72.29,75.0,71.8,74.24,72.65,1981900.0,146165539.0,6131244551.679999,10690560000.0
sz300767,震安科技,2020-12-09,75.0,75.45,72.4,72.4,74.24,961369.0,71153755.0,5979284826.8,10425600000.0
sz300767,震安科技,2020-12-10,72.66,75.0,72.66,72.9,72.4,1465942.0,108078961.0,6020578230.299999,10497600000.0
sz300767,震安科技,2020-12-11,72.57,73.8,71.2,72.48,72.9,1466322.0,106287421.0,5985891771.36,10437120000.0
sz300767,震安科技,2020-12-14,72.47,74.87,72.03,74.73,72.48,1268862.0,94016512.0,6171712087.110001,10761120000.0
sz300767,震安科技,2020-12-15,74.67,78.0,74.67,76.96,74.73,2092960.0,160308632.0,6355880666.72,11082240000.0
sz300767,震安科技,2020-12-16,76.83,76.83,71.92,73.79,76.96,1506720.0,112619297.0,6094080488.530001,10625760000.0
sz300767,震安科技,2020-12-17,72.5,76.95,72.02,76.1,73.79,2496260.0,187741006.0,6284856012.7,10958400000.0
sz300767,震安科技,2020-12-18,76.4,76.95,74.68,75.35,76.1,853200.0,64422828.0,6222915907.450001,10850400000.0
sz300767,震安科技,2020-12-21,75.34,76.5,74.7,74.9,75.35,1027800.0,77748566.0,6185751844.3,10785600000.0
sz300767,震安科技,2020-12-22,74.13,75.51,72.7,72.96,74.9,1295892.0,95923280.0,6025533438.72,10506240000.0
sz300767,震安科技,2020-12-23,72.59,73.5,71.65,71.7,72.96,1787880.0,129522978.0,5921474061.9,10324800000.0
sz300767,震安科技,2020-12-24,71.98,72.0,68.78,69.34,71.7,1971230.0,137446783.0,5726569197.38,9984960000.0
sz300767,震安科技,2020-12-25,69.29,70.48,67.8,69.33,69.34,1070071.0,74089782.0,5725743329.31,9983520000.0
sz300767,震安科技,2020-12-28,68.92,74.12,68.15,71.95,69.33,1671263.0,119610628.0,5942120763.65,10360800000.0
sz300767,震安科技,2020-12-29,71.0,72.69,69.62,71.3,71.95,1054993.0,74905790.0,5888439339.1,10267200000.0
sz300767,震安科技,2020-12-30,71.36,71.89,70.2,71.48,71.3,611426.0,43409269.0,5903304964.36,10293120000.0
sz300767,震安科技,2020-12-31,70.82,73.35,70.52,73.0,71.48,1595518.0,115581977.0,6028836911.000001,10512000000.0
sz300767,震安科技,2021-01-04,73.5,76.3,72.9,74.3,73.0,2334448.0,174697807.0,6136199760.099999,10699200000.0
sz300767,震安科技,2021-01-05,75.22,77.2,74.24,76.7,74.3,2966832.0,225752736.0,6334408096.900001,11044800000.0
sz300767,震安科技,2021-01-06,77.02,79.46,76.2,77.8,76.7,1618876.0,125789444.0,6425253584.6,11203200000.0
sz300767,震安科技,2021-01-07,80.0,92.36,78.0,88.58,77.8,5374309.0,461952520.0,7315539364.06,12755520000.0
sz300767,震安科技,2021-01-08,88.8,94.28,84.8,86.91,88.58,5410221.0,480589686.0,7177619396.37,12515040000.0
sz300767,震安科技,2021-01-11,86.91,92.3,84.2,90.35,86.91,3328980.0,297094000.0,7461718012.45,13010400000.0
sz300767,震安科技,2021-01-12,89.3,92.87,88.5,92.18,90.35,2111195.0,192852019.0,7612851869.26,13273920000.0
sz300767,震安科技,2021-01-13,92.18,94.9,91.31,92.1,92.18,2047667.0,191126984.0,7606244924.700001,13262400000.0
sz300767,震安科技,2021-01-14,91.01,94.03,90.53,92.89,92.1,2187799.0,202627549.0,7671488502.23,13376160000.0
sz300767,震安科技,2021-01-15,92.0,97.5,92.0,97.08,92.89,2904384.0,277613954.0,8017527223.559999,13979520000.0
sz300767,震安科技,2021-01-18,97.48,100.57,95.47,97.53,97.08,2938423.0,287106307.0,8054691286.71,14044320000.0
sz300767,震安科技,2021-01-19,97.51,102.6,97.0,101.97,97.53,2413947.0,242822591.0,8421376709.790001,14683680000.0
sz300767,震安科技,2021-01-20,98.18,101.5,93.13,101.47,101.97,4259926.0,416021052.0,8380083306.29,14611680000.0
sz300767,震安科技,2021-01-21,101.01,102.44,97.36,99.99,101.47,2185138.0,217793082.0,8257854831.929999,14398560000.0
sz300767,震安科技,2021-01-22,99.1,100.43,97.14,98.98,99.99,1738273.0,171786871.0,8174442156.86,14253120000.0
sz300767,震安科技,2021-01-25,98.96,105.0,98.01,100.73,98.98,2052277.0,208619029.0,8318969069.110001,14505120000.0
sz300767,震安科技,2021-01-26,100.73,101.49,96.78,98.7,100.73,1140728.0,112485824.0,8151317850.900001,14212800000.0
sz300767,震安科技,2021-01-27,98.13,99.95,94.43,97.71,98.7,1542465.0,149904274.0,8069556911.969999,14070240000.0
sz300767,震安科技,2021-01-28,98.0,98.73,93.7,93.99,97.71,1389485.0,133106967.0,7762333989.93,13534560000.0
sz300767,震安科技,2021-01-29,95.0,96.9,88.88,90.6,93.99,2019236.0,186116038.0,7482364714.2,13046400000.0
sz300767,震安科技,2021-02-01,90.63,91.7,88.88,89.76,90.6,2053022.0,185188471.0,7412991796.320001,12925440000.0
sz300767,震安科技,2021-02-02,91.4,92.33,87.83,91.18,89.76,1418300.0,127966884.0,7530265062.26,13129920000.0
sz300767,震安科技,2021-02-03,92.5,92.5,88.66,88.73,91.18,1166644.0,104321362.0,7327927385.11,12777120000.0
sz300767,震安科技,2021-02-04,86.87,89.1,84.33,85.33,88.73,1695174.0,145948783.0,7047132241.31,12287520000.0
sz300767,震安科技,2021-02-05,85.2,87.5,83.7,84.02,85.33,1310180.0,111969305.0,6938943524.139999,12098880000.0
sz300767,震安科技,2021-02-08,84.07,86.5,82.12,82.92,84.02,1063444.0,88696575.0,6848098036.44,11940480000.0
sz300767,震安科技,2021-02-09,82.95,86.65,82.3,85.8,82.92,1239522.0,105283853.0,7085948040.6,12355200000.0
sz300767,震安科技,2021-02-10,85.81,89.6,84.01,87.16,85.8,1485697.0,129389786.0,7198266098.12,12551040000.0
sz300767,震安科技,2021-02-18,91.0,91.0,84.6,85.01,87.16,1262008.0,109250269.0,7020704463.07,12241440000.0
sz300767,震安科技,2021-02-19,83.87,86.75,82.0,86.0,85.01,1304283.0,110389150.0,7102465402.0,12384000000.0
sz300767,震安科技,2021-02-22,86.66,86.66,81.9,82.01,86.0,1517508.0,126732120.0,6772944042.070001,11809440000.0
sz300767,震安科技,2021-02-23,81.1,82.88,80.68,81.05,82.01,1012868.0,82917024.0,6693660707.349999,11671200000.0
sz300767,震安科技,2021-02-24,80.88,82.28,77.0,78.64,81.05,1870275.0,147466070.0,6494626502.4800005,11324160000.0
sz300767,震安科技,2021-02-25,79.5,79.54,75.34,76.01,78.64,1395563.0,107115473.0,6277423200.07,10945440000.0
sz300767,震安科技,2021-02-26,75.37,76.77,74.12,75.2,76.01,1313216.0,98801613.0,6210527886.400001,10828800000.0
sz300767,震安科技,2021-03-01,75.09,76.35,74.4,75.66,75.2,1678289.0,126623459.0,6248517817.620001,10895040000.0
sz300767,震安科技,2021-03-02,75.89,77.55,75.04,76.59,75.66,1662821.0,127171870.0,6325323548.129999,11028960000.0
sz300767,震安科技,2021-03-03,76.49,77.18,74.7,75.3,76.59,1327422.0,100364942.0,6218786567.1,10843200000.0
sz300767,震安科技,2021-03-04,76.0,76.0,72.61,73.18,75.3,1484309.0,109640680.0,6043702536.26,10537920000.0
sz300767,震安科技,2021-03-05,71.66,74.15,71.66,73.65,73.18,1256737.0,91559192.0,6082518335.55,10605600000.0
sz300767,震安科技,2021-03-08,73.76,74.3,70.58,70.58,73.65,1145156.0,83345614.0,5828976838.06,10163520000.0
sz300767,震安科技,2021-03-09,69.97,71.82,67.9,68.48,70.58,1462520.0,101493445.0,5655544543.360001,9861120000.0
sz300767,震安科技,2021-03-10,72.0,72.5,68.59,71.44,68.48,1768130.0,125328900.0,5900001492.080001,10287360000.0
sz300767,震安科技,2021-03-11,72.03,80.5,72.0,77.19,71.44,2568999.0,197557649.0,6374875632.33,11115360000.0
sz300767,震安科技,2021-03-12,75.5,78.5,73.4,77.53,77.19,2899121.0,220573975.0,6402955146.709999,11164320000.0
sz300767,震安科技,2021-03-15,77.01,77.01,71.6,72.1,77.53,1756768.0,129424080.0,5954508784.7,10382400000.0
sz300767,震安科技,2021-03-16,72.81,75.81,72.32,75.1,72.1,1224480.0,91107340.0,6202269205.7,10814400000.0
sz300767,震安科技,2021-03-17,76.78,76.78,74.2,75.94,75.1,870937.0,65771048.0,6271642123.58,10935360000.0
sz300767,震安科技,2021-03-18,75.8,76.24,74.35,74.84,75.94,771488.0,57926212.0,6180796635.88,10776960000.0
sz300767,震安科技,2021-03-19,73.57,78.9,73.13,76.11,74.84,1252210.0,95622141.0,6285681880.77,10959840000.0
sz300767,震安科技,2021-03-22,76.0,77.3,75.56,77.0,76.11,747984.0,57114731.0,6359184139.0,11088000000.0
sz300767,震安科技,2021-03-23,76.0,77.49,75.0,75.37,77.0,728477.0,55236575.0,6224567643.59,10853280000.0
sz300767,震安科技,2021-03-24,75.0,75.82,74.65,74.87,75.37,444938.0,33446757.0,6183274240.089999,10781280000.0
sz300767,震安科技,2021-03-25,74.59,77.77,74.3,76.29,74.87,617610.0,47141174.0,6300547506.030001,10985760000.0
sz300767,震安科技,2021-03-26,76.28,77.17,75.31,76.0,76.29,639050.0,48563674.0,6276602804.0,10944000000.0
sz300767,震安科技,2021-03-29,76.51,79.7,76.48,79.44,76.0,1318430.0,103752950.0,6560701667.76,11439360000.0
sz300767,震安科技,2021-03-30,79.88,82.39,79.0,81.65,79.44,1263573.0,102548792.0,6743218670.35,11757600000.0
sz300767,震安科技,2021-03-31,81.69,83.1,80.3,82.79,81.65,1092182.0,89428673.0,6837367712.410001,11921760000.0
sz300767,震安科技,2021-04-01,83.38,84.67,81.52,82.28,82.79,910793.0,75366953.0,6795248404.12,11848320000.0
sz300767,震安科技,2021-04-02,82.0,84.38,81.6,82.16,82.28,778571.0,64333229.0,6785337978.639999,11831040000.0
sz300767,震安科技,2021-04-06,83.0,83.0,79.57,80.6,82.16,1081329.0,86980412.0,6656502447.4,11606400000.0
sz300767,震安科技,2021-04-07,81.58,81.65,79.0,79.95,80.6,838163.0,66870632.0,6602820976.05,11512800000.0
sz300767,震安科技,2021-04-08,79.95,80.49,78.61,79.2,79.95,678331.0,53995669.0,6540880816.799999,11404800000.0
sz300767,震安科技,2021-04-09,78.77,80.03,78.11,78.47,79.2,568116.0,44746812.0,6480592395.13,11299680000.0
sz300767,震安科技,2021-04-12,78.47,80.0,76.3,76.63,78.47,703490.0,54588144.0,6328632537.77,11034720000.0
sz300767,震安科技,2021-04-13,76.5,77.93,73.81,74.47,76.63,889877.0,66722281.0,6150244879.13,10723680000.0
sz300767,震安科技,2021-04-14,74.47,78.16,74.32,77.38,74.47,832580.0,63947563.0,6390572697.02,11142720000.0
sz300767,震安科技,2021-04-15,77.57,78.0,75.92,77.26,77.38,549234.0,42418872.0,6380662271.54,11125440000.0
sz300767,震安科技,2021-04-16,77.03,78.45,76.6,77.3,77.26,506066.0,39201715.0,6383965746.7,11131200000.0
sz300767,震安科技,2021-04-19,77.98,83.31,77.02,82.42,77.3,1480278.0,120590858.0,6806810567.179999,11868480000.0
sz300767,震安科技,2021-04-20,81.8,84.6,81.48,83.33,82.42,1068810.0,89357905.0,6881964627.07,11999520000.0
sz300767,震安科技,2021-04-21,83.08,85.0,82.6,84.65,83.33,877267.0,73942246.0,6990979307.349999,12189600000.0
sz300767,震安科技,2021-04-22,84.55,84.55,82.59,83.0,84.65,1035035.0,86385244.0,6854710956.999999,11952000000.0
sz300767,震安科技,2021-04-23,83.17,83.99,81.0,81.84,83.0,1352868.0,111323852.0,6758910177.36,11784960000.0
sz300767,震安科技,2021-04-26,80.2,83.86,79.5,82.48,81.84,1972549.0,161730371.0,6811765779.92,11877120000.0
sz300767,震安科技,2021-04-27,82.44,84.38,82.0,84.03,82.48,1070990.0,89415153.0,6939775442.370001,12100320000.0
sz300767,震安科技,2021-04-28,83.5,87.49,83.21,86.79,84.03,1202753.0,103730454.0,7167715228.41,12497760000.0
sz300767,震安科技,2021-04-29,86.62,91.74,85.81,89.68,86.79,1633888.0,145618020.0,7406391308.72,12913920000.0
sz300767,震安科技,2021-04-30,89.3,91.81,88.7,90.18,89.68,1295747.0,116965451.0,7447684748.22,12985920000.0
sz300767,震安科技,2021-05-06,90.4,97.0,89.29,91.9,90.18,2395081.0,223414048.0,7589734180.1,13233600000.0
sz300767,震安科技,2021-05-07,92.78,94.0,88.2,89.1,91.9,1918868.0,173863241.0,7358490918.900001,12830400000.0
sz300767,震安科技,2021-05-10,89.1,95.05,89.1,91.88,89.1,2961377.0,273768878.0,7588082442.52,13230720000.0
sz300767,震安科技,2021-05-11,92.3,99.23,92.3,99.0,91.88,5611163.0,544979869.0,8176101021.0,14256000000.0
sz300767,震安科技,2021-05-12,100.9,114.56,98.0,112.7,99.0,5777074.0,606792883.0,9307541263.3,16228800000.0
sz300767,震安科技,2021-05-13,120.2,123.0,102.73,110.27,112.7,8449105.0,959008925.0,9106855147.33,15878880000.0
sz300767,震安科技,2021-05-14,110.26,132.32,108.76,132.32,110.27,7204028.0,900752682.0,10927895829.28,19054080000.0
sz300767,震安科技,2021-05-17,127.0,131.95,121.82,123.29,132.32,5670773.0,715286944.0,10182136311.91,17753760000.0
sz300767,震安科技,2021-05-18,123.0,123.3,116.0,121.45,123.29,3512081.0,421613844.0,10030176454.55,17488800000.0
sz300767,震安科技,2021-05-19,125.11,129.5,119.16,121.21,121.45,3677715.0,459947952.0,10010355603.59,17454240000.0
sz300767,震安科技,2021-05-20,119.8,122.9,113.98,116.0,121.21,3326038.0,390596634.0,9580077964.0,16704000000.0
sz300767,震安科技,2021-05-21,117.16,117.47,110.39,111.58,116.0,3264162.0,367191856.0,9215043958.82,16067520000.0
sz300767,震安科技,2021-05-24,115.01,116.39,105.86,107.49,111.58,4462700.0,489079113.0,8877263623.71,15478560000.0
sz300767,震安科技,2021-05-25,106.95,108.5,103.5,107.71,107.49,3265832.0,347730988.0,8895432737.09,15510240000.0
sz300767,震安科技,2021-05-26,107.46,109.79,104.91,106.29,107.71,2531657.0,272703977.0,8778159368.91,15305760000.0
sz300767,震安科技,2021-05-27,107.14,108.1,105.0,107.47,106.29,1852393.0,197535238.0,8875611886.13,15475680000.0
sz300767,震安科技,2021-05-28,108.27,112.0,105.85,109.42,107.47,2790453.0,306861713.0,9036656300.18,15756480000.0
sz300767,震安科技,2021-05-31,109.67,111.14,106.88,108.27,109.42,1567348.0,169915895.0,8941681389.33,15590880000.0
sz300767,震安科技,2021-06-01,107.21,108.0,102.5,104.41,108.27,3190040.0,333482977.0,8622896036.39,15035040000.0
sz300767,震安科技,2021-06-02,104.96,105.18,98.02,98.12,104.41,3781520.0,378567355.0,8103424567.48,14129280000.0
sz300767,震安科技,2021-06-03,98.02,103.49,97.33,100.96,98.12,2632781.0,264998054.0,8337971303.84,14538240000.0
sz300767,震安科技,2021-06-04,100.49,102.4,99.4,102.1,100.96,1594925.0,160910716.0,8432120345.900001,14702400000.0
sz300767,震安科技,2021-06-07,102.99,106.9,101.71,105.5,102.1,2730788.0,286630196.0,8870433037.0,15192000000.0
sz300767,震安科技,2021-06-08,105.52,106.3,100.97,103.46,105.5,1932348.0,200048199.0,8698909971.64,14898240000.0
sz300767,震安科技,2021-06-09,103.99,105.8,101.15,105.1,103.46,1852030.0,192230388.0,8836801063.4,15134400000.0
sz300767,震安科技,2021-06-10,104.99,105.88,102.8,105.03,105.1,1740665.0,181584293.0,8830915468.02,15124320000.0
sz300767,震安科技,2021-06-11,75.55,75.78,73.27,74.39,74.86,2391712.0,178001348.0,8756588761.73,14997024000.0
sz300767,震安科技,2021-06-15,74.38,75.26,72.38,73.06,74.39,1788802.0,131486613.0,8600031925.42,14728896000.0
sz300767,震安科技,2021-06-16,72.95,73.0,67.65,67.7,73.06,4211932.0,293134013.0,7969096103.900001,13648320000.0
sz300767,震安科技,2021-06-17,68.01,71.78,68.0,70.66,67.7,3147561.0,221088400.0,8317523348.62,14245056000.0
sz300767,震安科技,2021-06-18,70.29,71.18,68.77,69.16,70.66,1709609.0,118851145.0,8140955488.12,13942656000.0
sz300767,震安科技,2021-06-21,69.31,69.84,67.28,68.9,69.16,2642217.0,181318043.0,8110350392.3,13890240000.0
sz300767,震安科技,2021-06-22,69.24,75.38,67.81,73.86,68.9,5029691.0,363933211.0,8694201451.02,14890176000.0
sz300767,震安科技,2021-06-23,74.41,77.4,73.31,77.16,73.86,3526878.0,267786507.0,9082650744.12,15555456000.0
sz300767,震安科技,2021-06-24,77.2,79.66,76.01,76.12,77.16,2557226.0,197396845.0,8960230360.84,15345792000.0
sz300767,震安科技,2021-06-25,76.01,77.92,75.26,77.55,76.12,2217763.0,170504735.0,9128558387.85,15634080000.0
sz300767,震安科技,2021-06-28,77.55,77.86,74.68,75.3,77.55,2327249.0,176157003.0,8863706597.1,15180480000.0
sz300767,震安科技,2021-06-29,75.89,76.31,74.69,75.5,75.3,1443491.0,109320489.0,8887248978.5,15220800000.0
sz300767,震安科技,2021-06-30,75.61,83.2,75.61,83.05,75.5,4327555.0,351549517.0,9775973876.35,16742880000.0
sz300767,震安科技,2021-07-01,83.58,84.8,81.6,82.85,83.05,2413731.0,201055499.0,9752431494.95,16702560000.0
sz300767,震安科技,2021-07-02,82.5,82.84,79.64,82.1,82.85,2652858.0,215698810.0,9664147564.7,16551360000.0
sz300767,震安科技,2021-07-05,82.79,88.2,82.45,86.75,82.1,3763444.0,324461849.0,10211507932.25,17488800000.0
sz300767,震安科技,2021-07-06,86.32,86.68,81.99,83.33,86.75,2745951.0,231217683.0,9808933210.31,16799328000.0
sz300767,震安科技,2021-07-07,82.19,84.48,81.96,82.24,83.33,1771483.0,146793732.0,9680627231.68,16579584000.0
sz300767,震安科技,2021-07-08,82.12,84.0,81.2,83.04,82.24,2277780.0,188955561.0,9774796757.28,16740864000.0
sz300767,震安科技,2021-07-09,82.3,82.99,78.11,79.98,83.04,3604812.0,287577120.0,9414598321.86,16123968000.0
sz300767,震安科技,2021-07-12,80.0,81.2,77.71,80.38,79.98,2350774.0,187505558.0,9461683084.66,16204608000.0
sz300767,震安科技,2021-07-13,80.38,85.45,79.47,82.7,80.38,2285810.0,190930839.0,9734774708.9,16672320000.0
sz300767,震安科技,2021-07-14,81.89,82.5,79.63,80.6,82.7,2731838.0,221019029.0,9487579704.2,16248960000.0
sz300767,震安科技,2021-07-15,81.97,86.4,81.51,85.78,80.6,5217335.0,444789030.0,10097327382.46,17293248000.0
sz300767,震安科技,2021-07-16,85.56,89.35,85.5,87.0,85.78,3697642.0,324103698.0,10240935909.0,17539200000.0
sz300767,震安科技,2021-07-19,87.0,88.45,82.3,83.25,87.0,4388304.0,370070155.0,9799516257.75,16783200000.0
sz300767,震安科技,2021-07-20,83.01,84.09,81.11,83.78,83.25,1999527.0,165645168.0,9861903568.46,16890048000.0
sz300767,震安科技,2021-07-21,84.5,89.34,84.3,88.09,83.78,3139982.0,274335584.0,10369241887.63,17758944000.0
sz300767,震安科技,2021-07-22,88.07,89.16,86.88,87.9,88.09,2253416.0,198410268.0,10346876625.3,17720640000.0
sz300767,震安科技,2021-07-23,87.5,87.99,83.79,84.96,87.9,2690351.0,229614264.0,10000803618.72,17127936000.0
sz300767,震安科技,2021-07-26,84.11,87.01,81.65,84.5,84.96,2823050.0,238527287.0,9946656141.5,17035200000.0
sz300767,震安科技,2021-07-27,86.31,89.98,84.9,87.3,84.5,4300015.0,376175610.0,10276249481.1,17599680000.0
sz300767,震安科技,2021-07-28,85.88,87.94,83.01,86.49,87.3,3306661.0,284092175.0,10180902836.43,17436384000.0
sz300767,震安科技,2021-07-29,85.88,86.79,82.01,84.86,86.49,4144771.0,349232353.0,9989032428.02,17107776000.0
sz300767,震安科技,2021-07-30,84.37,84.86,80.5,80.51,84.86,3931508.0,322613504.0,9476985632.57,16230816000.0
sz300767,震安科技,2021-08-02,80.25,87.6,78.02,87.42,80.51,4845449.0,406723317.0,10290374909.94,17623872000.0
sz300767,震安科技,2021-08-03,88.0,88.0,85.5,87.78,87.42,2642604.0,230175737.0,10332751196.46,17696448000.0
sz300767,震安科技,2021-08-04,87.8,100.16,87.8,94.29,87.78,9319343.0,881594345.0,11099055711.03,19008864000.0
sz300767,震安科技,2021-08-05,94.3,99.54,93.4,93.4,94.29,5946743.0,567356350.0,10994292113.8,18829440000.0
sz300767,震安科技,2021-08-06,93.02,94.59,85.93,86.25,93.4,6520656.0,577519549.0,10152651978.75,17388000000.0
sz300767,震安科技,2021-08-09,85.2,86.38,84.11,84.75,86.25,3267876.0,278055580.0,9976084118.25,17085600000.0
sz300767,震安科技,2021-08-10,84.81,85.6,80.53,82.4,84.75,5658232.0,464377094.0,9699461136.8,16611840000.0
sz300767,震安科技,2021-08-11,82.5,88.5,81.5,87.13,82.4,3771040.0,325688570.0,10256238456.91,17565408000.0
sz300767,震安科技,2021-08-12,88.3,103.0,87.99,101.7,87.13,10242861.0,1003303804.0,11971300941.900002,20502720000.0
sz300767,震安科技,2021-08-13,101.7,108.38,100.0,106.88,101.7,6951277.0,726990457.0,12581048620.160002,21547008000.0
sz300767,震安科技,2021-08-16,102.0,106.88,101.82,103.74,106.88,4901846.0,512494273.0,12211433232.179998,20913984000.0
sz300767,震安科技,2021-08-17,106.5,113.88,105.3,106.07,103.74,5928601.0,641895403.0,12485701975.49,21383712000.0
sz300767,震安科技,2021-08-18,109.0,109.86,101.49,103.4,106.07,4515682.0,469699565.0,12171411183.8,20845440000.0
sz300767,震安科技,2021-08-19,107.0,120.75,102.8,117.58,103.4,8500622.0,967583372.0,13840566025.06,23704128000.0
sz300767,震安科技,2021-08-20,117.52,121.0,115.22,119.1,117.58,4486154.0,531176257.0,14019488123.7,24010560000.0
sz300767,震安科技,2021-08-23,117.8,118.64,114.58,117.38,119.1,4533950.0,529313768.0,13817023643.66,23663808000.0
sz300767,震安科技,2021-08-24,116.21,116.61,112.24,114.56,117.38,4224939.0,482036908.0,13485076065.92,23095296000.0
sz300767,震安科技,2021-08-25,114.98,116.58,110.21,115.51,114.56,3299289.0,375496214.0,13596902377.57,23286816000.0
sz300767,震安科技,2021-08-26,115.5,117.78,112.01,112.7,115.51,2613814.0,297915197.0,13266131918.9,22720320000.0
sz300767,震安科技,2021-08-27,113.24,115.68,109.5,112.7,112.7,3171272.0,357544236.0,13266131918.9,22720320000.0
sz300767,震安科技,2021-08-30,105.0,127.35,105.0,117.89,112.7,8063593.0,957573549.0,13877056716.23,23766624000.0
sz300767,震安科技,2021-08-31,120.48,120.48,112.35,113.77,117.89,4196314.0,478426641.0,13392083659.39,22936032000.0
sz300767,震安科技,2021-09-01,113.78,115.26,107.0,112.51,113.77,4238313.0,470167977.0,13243766656.57,22682016000.0
sz300767,震安科技,2021-09-02,113.0,116.8,110.12,110.32,112.51,3255846.0,367343363.0,12985977580.240002,22240512000.0
sz300767,震安科技,2021-09-03,107.77,111.0,103.99,105.5,110.32,4864921.0,517504011.0,12418606188.5,21268800000.0
sz300767,震安科技,2021-09-06,105.0,105.0,97.02,102.66,105.5,4020593.0,407110851.0,12084304372.62,20696256000.0
sz300767,震安科技,2021-09-07,103.35,106.27,101.0,102.0,102.66,2960904.0,304427292.0,12006614513.999998,20563200000.0
sz300767,震安科技,2021-09-08,104.0,104.0,99.13,100.77,102.0,3055396.0,307344018.0,11861828868.39,20315232000.0
sz300767,震安科技,2021-09-09,102.01,102.88,97.65,100.96,100.77,2639812.0,263526009.0,11884194130.72,20353536000.0
sz300767,震安科技,2021-09-10,100.48,101.96,97.81,101.3,100.96,2653897.0,265099340.0,11924216179.1,20422080000.0
sz300767,震安科技,2021-09-13,100.72,101.18,98.3,100.12,101.3,1960512.0,195282475.0,11785316128.84,20184192000.0
sz300767,震安科技,2021-09-14,100.12,103.9,99.1,101.39,100.12,2351244.0,239736370.0,11934810250.73,20440224000.0
sz300767,震安科技,2021-09-15,100.5,102.37,97.0,100.49,101.39,2717536.0,269489559.0,11828869534.43,20258784000.0
sz300767,震安科技,2021-09-16,102.88,105.98,97.58,97.97,100.49,3198253.0,323556063.0,11532235528.79,19750752000.0
sz300767,震安科技,2021-09-17,99.39,102.5,96.99,101.54,97.97,2367396.0,236344456.0,11952467036.78,20470464000.0
sz300767,震安科技,2021-09-22,100.0,101.01,97.6,98.24,101.54,1670801.0,165444208.0,11564017743.68,19805184000.0
sz300767,震安科技,2021-09-23,99.5,103.59,97.7,100.0,98.24,1970544.0,198029134.0,11771190700.0,20160000000.0
sz300767,震安科技,2021-09-24,99.49,102.69,96.59,101.38,100.0,2441312.0,244163881.0,11933633131.66,20438208000.0
sz300767,震安科技,2021-09-27,103.0,104.6,99.0,103.0,101.38,2058797.0,209557998.0,12124326421.0,20764800000.0
sz300767,震安科技,2021-09-28,100.81,110.3,100.81,106.61,103.0,3773848.0,402753877.0,12549266405.27,21492576000.0
sz300767,震安科技,2021-09-29,105.13,111.9,104.5,109.48,106.61,2909486.0,318488411.0,12887099578.36,22071168000.0
sz300767,震安科技,2021-09-30,111.08,111.98,109.0,109.0,109.48,2421881.0,267095633.0,12830597863.0,21974400000.0
sz300767,震安科技,2021-10-08,111.5,116.01,108.0,110.5,109.0,2305641.0,257612305.0,13007165723.5,22276800000.0
sz300767,震安科技,2021-10-11,109.3,110.96,105.61,105.97,110.5,1667475.0,179289217.0,12500799372.32,21390420587.530003
sz300767,震安科技,2021-10-12,105.73,107.49,101.49,103.44,105.97,2294225.0,239084782.0,12202346768.64,20879731108.56
sz300767,震安科技,2021-10-13,103.44,104.75,102.11,103.86,103.44,1001023.0,103765760.0,12251892260.16,20964509599.14
sz300767,震安科技,2021-10-14,103.89,104.81,101.0,101.0,103.86,1085263.0,111803469.0,11914511055.999998,20387208449.0
sz300767,震安科技,2021-10-15,101.28,102.97,97.0,101.7,101.0,2671427.0,266825383.0,11997086875.2,20528505933.3
sz300767,震安科技,2021-10-18,100.59,102.0,98.57,100.3,101.7,1641984.0,164443660.0,11831935236.8,20245910964.7
sz300767,震安科技,2021-10-19,100.3,103.7,99.27,102.51,100.3,1435087.0,145797787.0,12092638894.56,20692007307.99
sz300767,震安科技,2021-10-20,102.51,102.99,94.24,97.0,102.51,4910159.0,478732824.0,11442649232.0,19579794253.0
sz300767,震安科技,2021-10-21,98.0,98.96,93.2,93.58,97.0,3483043.0,331516356.0,11039207372.48,18889455115.42
sz300767,震安科技,2021-10-22,93.08,95.3,90.6,91.6,93.58,3053996.0,281895533.0,10805635769.6,18489785088.4
sz300767,震安科技,2021-10-25,91.79,92.8,90.18,92.5,91.6,1725417.0,158106960.0,10911804680.000002,18671453282.5
sz300767,震安科技,2021-10-26,92.54,94.98,92.54,93.69,92.5,1553701.0,145599326.0,11052183572.64,18911659005.81
sz300767,震安科技,2021-10-27,93.74,96.65,92.32,94.0,93.69,1810495.0,171123696.0,11088752864.0,18974233606.0
sz300767,震安科技,2021-10-28,93.09,96.0,90.85,92.07,94.0,1989912.0,183561171.0,10861079533.92,18584656256.43
sz300767,震安科技,2021-10-29,90.64,101.33,89.5,98.9,92.07,5089939.0,492797547.0,11666783598.4,19963315996.1
sz300767,震安科技,2021-11-01,98.67,101.5,96.46,96.7,98.9,2354336.0,232692292.0,11407259595.2,19519238188.3
sz300767,震安科技,2021-11-02,96.46,98.14,95.0,97.09,96.7,1460154.0,141190443.0,11453266123.04,19597961072.41
sz300767,震安科技,2021-11-03,97.09,98.82,95.2,96.76,97.09,1208525.0,116704675.0,11414337522.56,19531349401.24
sz300767,震安科技,2021-11-04,96.76,99.27,96.13,96.8,96.76,1194999.0,116065862.0,11419056140.8,19539423543.2
sz300767,震安科技,2021-11-05,96.8,97.99,94.91,95.0,96.8,1933038.0,186146157.0,11206718320.0,19176087155.0
sz300767,震安科技,2021-11-08,95.51,96.9,94.7,95.99,95.0,1228836.0,117308460.0,11323504121.44,19375922168.51
sz300767,震安科技,2021-11-09,97.0,98.0,95.4,97.69,95.99,1804179.0,174863073.0,11524045396.64,19719073201.81
sz300767,震安科技,2021-11-10,97.59,98.44,94.01,94.21,97.69,1377569.0,131141482.0,11113525609.76,19016622851.29
sz300767,震安科技,2021-11-11,94.2,95.49,93.0,93.43,94.21,1287140.0,121074888.0,11021512554.08,18859177083.07
sz300767,震安科技,2021-11-12,92.16,94.63,92.02,93.9,93.43,1383639.0,129868971.0,11076956318.4,18954048251.1
sz300767,震安科技,2021-11-15,93.0,95.21,92.68,92.91,93.9,1144806.0,107299138.0,10960170516.96,18754213237.59
sz300767,震安科技,2021-11-16,92.7,93.0,89.67,90.01,92.91,2509709.0,226888607.0,10618070694.56,18168837945.49
sz300767,震安科技,2021-11-17,90.0,94.66,89.06,91.33,90.01,2130595.0,194213503.0,10773785096.48,18435284630.17
sz300767,震安科技,2021-11-18,91.15,91.33,85.85,87.28,91.33,3467777.0,303800671.0,10296024999.68,17617777756.719997
sz300767,震安科技,2021-11-19,87.26,87.96,83.73,86.8,87.28,3093426.0,263673479.0,10239401580.8,17520888053.2
sz300767,震安科技,2021-11-22,86.04,89.52,85.7,87.52,86.8,1787859.0,156254074.0,10324336709.12,17666222608.48
sz300767,震安科技,2021-11-23,87.52,88.36,84.3,84.6,87.52,2248007.0,192562473.0,9979877577.6,17076810245.4
sz300767,震安科技,2021-11-24,84.61,92.58,84.61,90.68,84.6,4946081.0,440807066.0,10697107550.08,18304079823.32
sz300767,震安科技,2021-11-25,89.96,90.99,86.7,90.93,90.68,2587799.0,229535353.0,10726598914.08,18354543210.57
sz300767,震安科技,2021-11-26,90.9,91.38,88.15,90.06,90.93,1767468.0,159279506.0,10623968967.36,18178930622.940002
sz300767,震安科技,2021-11-29,88.6,90.89,88.1,89.27,90.06,1119140.0,100184140.0,10530776257.12,18019466319.23
sz300767,震安科技,2021-11-30,89.59,94.88,88.82,94.36,89.27,3464991.0,320490850.0,11131220428.16,19046900883.64
sz300767,震安科技,2021-12-01,94.0,95.52,92.16,95.26,94.36,1937903.0,182464594.0,11237389338.56,19228569077.739998
sz300767,震安科技,2021-12-02,94.94,95.93,93.28,93.59,95.26,964160.0,90695756.0,11040387027.04,18891473650.91
sz300767,震安科技,2021-12-03,92.81,93.88,89.9,90.33,93.59,1761135.0,160916065.0,10655819640.480001,18233431081.17
sz300767,震安科技,2021-12-06,89.5,90.8,86.83,86.9,90.33,1294340.0,114425100.0,10251198126.4,17541073408.1
sz300767,震安科技,2021-12-07,88.13,91.06,85.02,89.85,86.9,2092510.0,184691337.0,10599196221.6,18136541377.65
sz300767,震安科技,2021-12-08,90.07,93.98,89.0,93.58,89.85,1707105.0,158123775.0,11039207372.48,18889455115.420002
sz300767,震安科技,2021-12-09,93.32,94.48,92.37,93.77,93.58,1113661.0,104350278.0,11061620809.12,18927807289.73
sz300767,震安科技,2021-12-10,93.02,95.49,92.7,94.98,93.77,1292588.0,122056077.0,11204359010.880001,19172050084.02
sz300767,震安科技,2021-12-13,95.19,100.0,94.68,98.16,94.98,2404299.0,235934857.0,11579489160.96,19813944369.84
sz300767,震安科技,2021-12-14,97.68,98.68,94.57,95.44,98.16,1533240.0,147566193.0,11258623120.64,19264902716.56
sz300767,震安科技,2021-12-15,95.19,97.86,93.86,96.47,95.44,1187891.0,114465113.0,11380127540.32,19472811872.03
sz300767,震安科技,2021-12-16,96.46,99.93,95.56,99.17,96.47,1405720.0,138501738.0,11698634271.519999,20017816454.33
sz300767,震安科技,2021-12-17,97.99,100.0,97.08,97.33,99.17,1178320.0,115346600.0,11481577832.480001,19646405924.170002
sz300767,震安科技,2021-12-20,97.7,103.54,95.61,100.06,97.33,2870359.0,287803293.0,11803623527.36,20197466112.94
sz300767,震安科技,2021-12-21,100.06,104.2,99.0,104.0,100.06,2086345.0,213284365.0,12268407424.000002,20992769096.0
sz300767,震安科技,2021-12-22,104.01,105.8,102.03,105.16,104.0,1500691.0,156595903.0,12405247352.960001,21226919212.84
sz300767,震安科技,2021-12-23,106.99,107.44,103.72,105.5,105.16,1290585.0,136442748.0,12445355608.0,21295549419.5
sz300767,震安科技,2021-12-24,105.2,106.25,101.4,103.23,105.5,898251.0,92872952.0,12177574022.880001,20837341863.27
sz300767,震安科技,2021-12-27,103.24,104.42,100.0,102.82,103.23,1235812.0,126162496.0,12129208185.92,20754581908.18
sz300767,震安科技,2021-12-28,106.0,108.0,104.0,105.0,102.82,1334110.0,140845768.0,12386372880.0,21194622645.0
sz300767,震安科技,2021-12-29,105.51,109.7,104.51,107.31,105.0,1467922.0,157851452.0,12658873083.359999,21660904343.190002
sz300767,震安科技,2021-12-30,108.39,108.39,104.3,104.77,107.31,1234980.0,130363085.0,12359240825.12,21148196328.73
sz300767,震安科技,2021-12-31,104.75,106.0,103.51,104.35,104.77,864091.0,90149014.0,12309695333.6,21063417838.15
sz300767,震安科技,2022-01-04,105.43,106.24,102.82,103.36,104.35,958961.0,100304759.0,12192909532.16,20863582824.64
sz300767,震安科技,2022-01-05,103.04,103.58,95.56,96.4,103.36,2589858.0,254368334.0,11402445821.199999,19489257986.399998
sz300767,震安科技,2022-01-06,94.47,99.0,93.01,97.88,96.4,1793288.0,172414273.0,11577504118.039999,19788470660.88
sz300767,震安科技,2022-01-07,97.21,97.87,93.51,94.35,97.88,1185791.0,113059029.0,11159966423.55,19074807998.1
sz300767,震安科技,2022-01-10,93.43,98.88,93.43,97.61,94.35,1106380.0,107027086.0,11545567807.130001,19733884564.86
sz300767,震安科技,2022-01-11,97.41,99.54,95.73,96.8,97.61,685920.0,66572699.0,11449758874.4,19570126276.8
sz300767,震安科技,2022-01-12,96.92,98.3,96.23,97.6,96.8,658972.0,63975608.0,11544384980.800001,19731862857.600002
sz300767,震安科技,2022-01-13,98.46,98.46,93.62,94.3,97.6,995594.0,94609804.0,11154052291.900002,19064699461.8
sz300767,震安科技,2022-01-14,94.17,94.97,90.63,91.44,94.3,1239586.0,114147338.0,10815763961.519999,18486491185.44
