数据由邢不行整理
股票代码,股票名称,交易日期,开盘价,最高价,最低价,收盘价,前收盘价,成交量,成交额,流通市值,总市值
sz300644,N聚隆,2018-02-06,21.64,25.96,21.64,25.96,18.03,6797.0,174938.0,415360000.0,1661440000.0
sz300644,南京聚隆,2018-02-07,28.56,28.56,28.56,28.56,25.96,4900.0,139944.0,456960000.0,1827840000.0
sz300644,南京聚隆,2018-02-08,31.42,31.42,31.42,31.42,28.56,6000.0,188520.0,502720000.0,2010880000.0
sz300644,南京聚隆,2018-02-09,34.56,34.56,34.56,34.56,31.42,98800.0,3414528.0,552960000.0,2211840000.0
sz300644,南京聚隆,2018-02-12,38.02,38.02,38.02,38.02,34.56,105100.0,3995902.0,608320000.0,2433280000.0
sz300644,南京聚隆,2018-02-13,41.82,41.82,41.82,41.82,38.02,54209.0,2267020.0,669120000.0,2676480000.0
sz300644,南京聚隆,2018-02-14,46.0,46.0,38.23,38.51,41.82,7798060.0,315317051.0,616160000.0,2464640000.0
sz300644,南京聚隆,2018-02-22,39.42,42.36,36.5,40.45,38.51,7985605.0,313943782.0,647200000.0,2588800000.0
sz300644,南京聚隆,2018-02-23,39.88,44.5,39.8,44.5,40.45,6917950.0,302277348.0,712000000.0,2848000000.0
sz300644,南京聚隆,2018-02-26,48.95,48.95,46.1,48.95,44.5,5818394.0,280710567.0,783200000.0,3132800000.0
sz300644,南京聚隆,2018-02-27,51.4,53.85,50.9,53.85,48.95,5992629.0,314261261.0,861600000.0,3446400000.0
sz300644,南京聚隆,2018-02-28,52.0,53.68,50.08,52.17,53.85,9766113.0,507025010.0,834720000.0,3338880000.0
sz300644,南京聚隆,2018-03-01,51.3,57.39,50.56,54.7,52.17,11227619.0,604347025.0,875200000.0,3500800000.0
sz300644,南京聚隆,2018-03-02,50.0,51.7,49.23,49.23,54.7,7057342.0,352243439.0,787680000.0,3150720000.0
sz300644,南京聚隆,2018-03-05,48.1,51.56,48.05,50.66,49.23,6941047.0,344973306.0,810560000.0,3242240000.0
sz300644,南京聚隆,2018-03-06,50.0,53.0,48.7,51.03,50.66,7154009.0,364259713.0,816480000.0,3265920000.0
sz300644,南京聚隆,2018-03-07,49.46,52.53,48.15,49.98,51.03,7087862.0,354687748.0,799680000.0,3198720000.0
sz300644,南京聚隆,2018-03-08,48.88,53.56,48.5,51.81,49.98,8107723.0,417548891.0,828960000.0,3315840000.0
sz300644,南京聚隆,2018-03-09,51.0,56.8,50.5,54.0,51.81,8719386.0,470434985.0,864000000.0,3456000000.0
sz300644,南京聚隆,2018-03-12,54.78,58.99,53.02,53.51,54.0,8690637.0,479906897.0,856160000.0,3424640000.0
sz300644,南京聚隆,2018-03-13,52.13,52.5,49.8,50.2,53.51,5989065.0,305717395.0,803200000.0,3212800000.0
sz300644,南京聚隆,2018-03-14,49.44,51.29,49.07,49.32,50.2,4444473.0,222562985.0,789120000.0,3156480000.0
sz300644,南京聚隆,2018-03-15,48.12,48.15,44.44,45.1,49.32,5180133.0,237461958.0,721600000.0,2886400000.0
sz300644,南京聚隆,2018-03-16,45.64,46.49,45.3,45.4,45.1,3413977.0,156598758.0,726400000.0,2905600000.0
sz300644,南京聚隆,2018-03-19,46.05,46.8,45.61,46.15,45.4,2730593.0,126190763.0,738400000.0,2953600000.0
sz300644,南京聚隆,2018-03-20,45.0,47.49,44.46,47.4,46.15,3790100.0,174617520.0,758400000.0,3033600000.0
sz300644,南京聚隆,2018-03-21,47.9,48.86,45.5,45.8,47.4,4120622.0,195931993.0,732800000.0,2931200000.0
sz300644,南京聚隆,2018-03-22,44.74,46.65,44.74,45.73,45.8,2908702.0,133235193.0,731680000.0,2926720000.0
sz300644,南京聚隆,2018-03-23,42.6,43.9,41.16,41.16,45.73,3250413.0,137486205.0,658560000.0,2634240000.0
sz300644,南京聚隆,2018-03-26,40.5,42.57,38.28,42.14,41.16,3022313.0,122946361.0,674240000.0,2696960000.0
sz300644,南京聚隆,2018-03-27,42.3,45.29,42.3,43.32,42.14,3433920.0,150028518.0,693120000.0,2772480000.0
sz300644,南京聚隆,2018-03-28,41.9,44.85,41.88,43.68,43.32,3247534.0,141721936.0,698880000.0,2795520000.0
sz300644,南京聚隆,2018-03-29,43.51,48.05,43.42,46.87,43.68,5782729.0,266831888.0,749920000.0,2999680000.0
sz300644,南京聚隆,2018-03-30,46.55,47.89,46.31,47.05,46.87,5238730.0,246440308.0,752800000.0,3011200000.0
sz300644,南京聚隆,2018-04-02,46.5,51.0,46.1,48.2,47.05,5289591.0,251971746.0,771200000.0,3084800000.0
sz300644,南京聚隆,2018-04-03,46.8,49.86,46.1,47.3,48.2,4526689.0,217339855.0,756800000.0,3027200000.0
sz300644,南京聚隆,2018-04-04,47.38,49.3,47.2,47.65,47.3,3967512.0,191175864.0,762400000.0,3049600000.0
sz300644,南京聚隆,2018-04-09,50.04,52.42,48.86,49.83,47.65,6082492.0,307826069.0,797280000.0,3189120000.0
sz300644,南京聚隆,2018-04-10,48.53,54.81,47.8,54.81,49.83,9431356.0,489320741.0,876960000.0,3507840000.0
sz300644,南京聚隆,2018-04-11,52.16,54.74,51.5,52.75,54.81,8059323.0,426989813.0,844000000.0,3376000000.0
sz300644,南京聚隆,2018-04-12,51.66,52.4,48.7,49.3,52.75,5313526.0,267454090.0,788800000.0,3155200000.0
sz300644,南京聚隆,2018-04-13,49.4,50.48,48.68,49.48,49.3,3412727.0,169198375.0,791680000.0,3166720000.0
sz300644,南京聚隆,2018-04-16,48.66,49.47,44.7,46.03,49.48,3447200.0,162637020.0,736480000.0,2945920000.0
sz300644,南京聚隆,2018-04-17,46.26,46.88,43.81,44.01,46.03,2860466.0,129959493.0,704160000.0,2816640000.0
sz300644,南京聚隆,2018-04-18,44.5,45.2,42.5,45.17,44.01,2417580.0,106383505.0,722720000.0,2890880000.0
sz300644,南京聚隆,2018-04-19,45.14,45.92,44.11,44.2,45.17,2444625.0,110606996.0,707200000.0,2828800000.0
sz300644,南京聚隆,2018-04-20,43.11,43.99,41.2,41.5,44.2,2298245.0,97557060.0,664000000.0,2656000000.0
sz300644,南京聚隆,2018-04-23,41.73,42.85,41.5,42.77,41.5,1568955.0,66496083.0,684320000.0,2737280000.0
sz300644,南京聚隆,2018-04-24,42.76,47.0,42.76,45.73,42.77,3113453.0,141224616.0,731680000.0,2926720000.0
sz300644,南京聚隆,2018-04-25,45.06,46.45,44.31,45.8,45.73,2544328.0,115294871.0,732800000.0,2931200000.0
sz300644,南京聚隆,2018-04-26,45.33,45.99,42.7,42.76,45.8,2129855.0,94087261.0,684160000.0,2736640000.0
sz300644,南京聚隆,2018-04-27,43.19,44.2,42.7,43.48,42.76,1305199.0,56712915.0,695680000.0,2782720000.0
sz300644,南京聚隆,2018-05-02,43.27,44.35,41.03,41.91,43.48,1287299.0,55042349.0,670560000.0,2682240000.0
sz300644,南京聚隆,2018-05-03,42.1,43.65,41.5,43.45,41.91,1485100.0,63662115.0,695200000.0,2780800000.0
sz300644,南京聚隆,2018-05-04,43.0,43.6,42.0,42.3,43.45,1281700.0,54843874.0,676800000.0,2707200000.0
sz300644,南京聚隆,2018-05-07,42.55,44.83,42.55,44.02,42.3,2561300.0,112172029.0,704320000.0,2817280000.0
sz300644,南京聚隆,2018-05-08,44.34,44.34,43.4,44.04,44.02,1988611.0,87071635.0,704640000.0,2818560000.0
sz300644,南京聚隆,2018-05-09,43.81,45.47,43.65,45.36,44.04,3078346.0,137538789.0,725760000.0,2903040000.0
sz300644,南京聚隆,2018-05-10,45.88,46.2,44.61,45.34,45.36,2552000.0,115562440.0,725440000.0,2901760000.0
sz300644,南京聚隆,2018-05-11,45.04,45.82,43.08,43.33,45.34,1971446.0,87757582.0,693280000.0,2773120000.0
sz300644,南京聚隆,2018-05-14,42.82,44.0,42.15,42.9,43.33,1565200.0,67574851.0,686400000.0,2745600000.0
sz300644,南京聚隆,2018-05-15,43.01,45.1,43.01,44.84,42.9,2300362.0,101702267.0,717440000.0,2869760000.0
sz300644,南京聚隆,2018-05-16,44.6,46.08,44.21,44.59,44.84,3085900.0,139740395.0,713440000.0,2853760000.0
sz300644,南京聚隆,2018-05-17,43.79,49.05,42.7,49.05,44.59,4789792.0,225273639.0,784800000.0,3139200000.0
sz300644,南京聚隆,2018-05-18,53.96,53.96,53.96,53.96,49.05,2895703.0,156252133.0,863360000.0,3453440000.0
sz300644,南京聚隆,2018-05-21,59.36,59.36,59.36,59.36,53.96,707500.0,41997200.0,949760000.0,3799040000.0
sz300644,南京聚隆,2018-05-22,64.9,65.3,62.65,65.3,59.36,3371979.0,218064608.0,1044800000.0,4179200000.0
sz300644,南京聚隆,2018-05-23,71.83,71.83,67.28,71.83,65.3,7851750.0,558456380.0,1149280000.0,4597120000.0
sz300644,南京聚隆,2018-05-29,79.01,79.01,66.0,67.23,71.83,13444160.0,1012192446.0,1075680000.0,4302720000.0
sz300644,南京聚隆,2018-05-30,63.0,65.5,60.51,60.51,67.23,8523340.0,535570872.0,968160000.0,3872640000.0
sz300644,南京聚隆,2018-05-31,60.3,61.93,58.95,61.71,60.51,7711694.0,468081049.0,987360000.0,3949440000.0
sz300644,南京聚隆,2018-06-01,58.0,59.49,55.54,56.01,61.71,8132842.0,464731715.0,896160000.0,3584640000.0
sz300644,南京聚隆,2018-06-04,57.03,57.14,54.68,56.3,56.01,4696571.0,263863340.0,900800000.0,3603200000.0
sz300644,南京聚隆,2018-06-05,56.58,58.65,55.6,57.71,56.3,5641421.0,322227411.0,923360000.0,3693440000.0
sz300644,南京聚隆,2018-06-06,58.11,59.5,56.8,57.27,57.71,5857991.0,340134558.0,916320000.0,3665280000.0
sz300644,南京聚隆,2018-06-07,57.23,59.98,55.2,55.59,57.27,6041194.0,348962401.0,889440000.0,3557760000.0
sz300644,南京聚隆,2018-06-08,55.0,56.88,54.62,56.77,55.59,4473422.0,250329916.0,908320000.0,3633280000.0
sz300644,南京聚隆,2018-06-11,56.17,57.15,53.73,54.05,56.77,4282909.0,236257150.0,864800000.0,3459200000.0
sz300644,南京聚隆,2018-06-12,54.77,54.88,51.58,53.87,54.05,3820710.0,203476226.0,861920000.0,3447680000.0
sz300644,南京聚隆,2018-06-13,53.74,55.56,52.0,52.18,53.87,3814621.0,206829754.0,834880000.0,3339520000.0
sz300644,南京聚隆,2018-06-14,51.02,53.4,50.55,52.57,52.18,3227717.0,168833061.0,841120000.0,3364480000.0
sz300644,南京聚隆,2018-06-15,53.0,54.44,50.15,50.6,52.57,3482020.0,181345445.0,809600000.0,3238400000.0
sz300644,南京聚隆,2018-06-19,50.88,54.66,46.01,49.48,50.6,4429323.0,225430557.0,791680000.0,3166720000.0
sz300644,南京聚隆,2018-06-20,49.5,53.98,47.88,52.96,49.48,5214200.0,266782051.0,847360000.0,3389440000.0
sz300644,南京聚隆,2018-06-21,52.0,52.49,49.32,50.57,52.96,3760922.0,192058099.0,809120000.0,3236480000.0
sz300644,南京聚隆,2018-06-22,49.8,55.63,48.03,55.63,50.57,7475985.0,400653586.0,890080000.0,3560320000.0
sz300644,南京聚隆,2018-06-25,55.0,57.28,54.13,55.66,55.63,7610308.0,425070952.0,890560000.0,3562240000.0
sz300644,南京聚隆,2018-06-26,53.96,57.13,53.6,56.01,55.66,5575013.0,309837032.0,896160000.0,3584640000.0
sz300644,南京聚隆,2018-06-27,55.98,58.38,55.39,55.49,56.01,5954400.0,338860175.0,887840000.0,3551360000.0
sz300644,南京聚隆,2018-06-28,54.1,61.0,54.1,56.81,55.49,7004815.0,405390225.0,908960000.0,3635840000.0
sz300644,南京聚隆,2018-06-29,55.32,56.58,51.13,56.25,56.81,5723169.0,312350094.0,900000000.0,3600000000.0
sz300644,南京聚隆,2018-07-02,56.26,58.76,56.21,57.7,56.25,5880061.0,337189050.0,923200000.0,3692800000.0
sz300644,南京聚隆,2018-07-03,56.91,59.18,55.01,58.82,57.7,5329546.0,305997795.0,941120000.0,3764480000.0
sz300644,南京聚隆,2018-07-04,58.4,58.4,52.94,52.94,58.82,4676400.0,260783089.0,847040000.0,3388160000.0
sz300644,南京聚隆,2018-07-05,50.3,51.95,47.65,47.65,52.94,4613900.0,228177151.0,762400000.0,3049600000.0
sz300644,南京聚隆,2018-07-06,46.8,49.75,46.26,47.46,47.35,3726496.0,178427596.0,759360000.0,3037440000.0
sz300644,南京聚隆,2018-07-09,47.35,50.44,47.32,49.28,47.46,3354518.0,163779315.0,788480000.0,3153920000.0
sz300644,南京聚隆,2018-07-10,49.45,51.73,49.0,51.37,49.28,4247061.0,214333626.0,821920000.0,3287680000.0
sz300644,南京聚隆,2018-07-11,49.48,50.18,46.8,49.76,51.37,4121737.0,201270133.0,796160000.0,3184640000.0
sz300644,南京聚隆,2018-07-12,49.12,53.5,49.12,51.16,49.76,4582960.0,235763990.0,818560000.0,3274240000.0
sz300644,南京聚隆,2018-07-13,50.85,56.28,50.2,53.59,51.16,6183218.0,331383645.0,857440000.0,3429760000.0
sz300644,南京聚隆,2018-07-16,51.15,52.18,50.11,51.54,53.59,4143521.0,212495611.0,824640000.0,3298560000.0
sz300644,南京聚隆,2018-07-17,50.03,53.0,50.02,52.8,51.54,4059700.0,210931998.0,844800000.0,3379200000.0
sz300644,南京聚隆,2018-07-18,53.0,53.59,50.2,50.26,52.8,3689470.0,190237166.0,804160000.0,3216640000.0
sz300644,南京聚隆,2018-07-19,50.2,51.5,48.03,48.63,50.26,2486900.0,122658486.0,778080000.0,3112320000.0
sz300644,南京聚隆,2018-07-20,48.84,49.29,47.8,49.06,48.63,1904033.0,92924395.0,784960000.0,3139840000.0
sz300644,南京聚隆,2018-07-23,49.06,49.35,46.6,47.63,49.06,2602425.0,124459815.0,762080000.0,3048320000.0
sz300644,南京聚隆,2018-07-24,48.2,48.36,47.5,48.35,47.63,1858361.0,89295324.0,773600000.0,3094400000.0
sz300644,南京聚隆,2018-07-25,48.49,48.97,46.8,47.2,48.35,2124370.0,101964389.0,755200000.0,3020800000.0
sz300644,南京聚隆,2018-07-26,47.0,47.44,43.53,44.0,47.2,3051900.0,136934859.0,704000000.0,2816000000.0
sz300644,南京聚隆,2018-07-27,43.6,44.96,43.6,43.98,44.0,1841400.0,81661919.0,703680000.0,2814720000.0
sz300644,南京聚隆,2018-07-30,43.85,44.61,42.72,42.99,43.98,1924658.0,84252165.0,687840000.0,2751360000.0
sz300644,南京聚隆,2018-07-31,43.42,44.95,43.33,44.26,42.99,2185033.0,96689934.0,708160000.0,2832640000.0
sz300644,南京聚隆,2018-08-01,44.49,44.95,43.1,43.38,44.26,1642764.0,72192372.0,694080000.0,2776320000.0
sz300644,南京聚隆,2018-08-02,42.73,43.2,40.0,41.15,43.38,1974230.0,81255976.0,658400000.0,2633600000.0
sz300644,南京聚隆,2018-08-03,41.4,41.72,40.15,40.47,41.15,1234568.0,50575163.0,647520000.0,2590080000.0
sz300644,南京聚隆,2018-08-06,40.47,41.12,38.18,38.62,40.47,1752068.0,69514194.0,617920000.0,2471680000.0
sz300644,南京聚隆,2018-08-07,38.9,40.28,38.9,40.15,38.62,1843010.0,73364368.0,642400000.0,2569600000.0
sz300644,南京聚隆,2018-08-08,40.55,42.98,40.38,40.59,40.15,2827801.0,117388218.0,649440000.0,2597760000.0
sz300644,南京聚隆,2018-08-09,39.47,41.7,39.47,41.7,40.59,2670567.0,109121254.0,667200000.0,2668800000.0
sz300644,南京聚隆,2018-08-10,41.7,41.77,40.55,41.36,41.7,2045691.0,84126290.0,661760000.0,2647040000.0
sz300644,南京聚隆,2018-08-13,40.1,41.57,39.21,41.25,41.36,1714865.0,69515045.0,660000000.0,2640000000.0
sz300644,南京聚隆,2018-08-14,41.53,41.86,40.86,41.59,41.25,1619339.0,66979697.0,665440000.0,2661760000.0
sz300644,南京聚隆,2018-08-15,41.5,41.63,39.5,39.75,41.59,1510866.0,61144337.0,636000000.0,2544000000.0
sz300644,南京聚隆,2018-08-16,39.02,40.26,38.51,39.41,39.75,1198500.0,47413418.0,630560000.0,2522240000.0
sz300644,南京聚隆,2018-08-17,40.01,40.19,36.85,37.08,39.41,1742538.0,66937412.0,593280000.0,2373120000.0
sz300644,南京聚隆,2018-08-20,37.08,37.8,36.4,37.7,37.08,1454000.0,54038444.0,603200000.0,2412800000.0
sz300644,南京聚隆,2018-08-21,38.08,38.77,37.81,38.38,37.7,1568344.0,60201897.0,614080000.0,2456320000.0
sz300644,南京聚隆,2018-08-22,38.21,42.22,38.21,39.9,38.38,3487040.0,141741191.0,638400000.0,2553600000.0
sz300644,南京聚隆,2018-08-23,38.81,40.14,38.81,39.66,39.9,2367700.0,93284964.0,634560000.0,2538240000.0
sz300644,南京聚隆,2018-08-24,39.65,39.85,38.05,38.16,39.66,1813400.0,70239625.0,610560000.0,2442240000.0
sz300644,南京聚隆,2018-08-27,38.69,39.15,38.16,38.95,38.16,1430150.0,55384291.0,623200000.0,2492800000.0
sz300644,南京聚隆,2018-08-28,39.0,39.47,38.55,38.94,38.95,1324460.0,51719829.0,623040000.0,2492160000.0
sz300644,南京聚隆,2018-08-29,38.83,38.99,37.9,38.19,38.94,1137554.0,43507079.0,611040000.0,2444160000.0
sz300644,南京聚隆,2018-08-30,37.8,39.4,37.7,37.8,38.19,1443360.0,55648291.0,604800000.0,2419200000.0
sz300644,南京聚隆,2018-08-31,37.5,37.51,35.8,35.8,37.8,1568700.0,57160653.0,572800000.0,2291200000.0
sz300644,南京聚隆,2018-09-03,35.78,36.67,35.4,36.27,35.8,1268888.0,45690169.0,580320000.0,2321280000.0
sz300644,南京聚隆,2018-09-04,36.06,36.81,36.06,36.55,36.27,985899.0,35997760.0,584800000.0,2339200000.0
sz300644,南京聚隆,2018-09-05,36.5,37.02,35.42,35.8,36.55,1218100.0,44198558.0,572800000.0,2291200000.0
sz300644,南京聚隆,2018-09-06,35.5,36.9,35.4,36.55,35.8,1311869.0,47524423.0,584800000.0,2339200000.0
sz300644,南京聚隆,2018-09-07,36.52,36.89,35.33,36.18,36.55,1266700.0,45912146.0,578880000.0,2315520000.0
sz300644,南京聚隆,2018-09-10,36.18,36.29,34.82,35.09,36.18,1092288.0,38550948.0,561440000.0,2245760000.0
sz300644,南京聚隆,2018-09-11,35.1,35.7,34.88,35.37,35.09,724400.0,25492195.0,565920000.0,2263680000.0
sz300644,南京聚隆,2018-09-12,35.4,37.08,35.02,36.02,35.37,1653214.0,59668385.0,576320000.0,2305280000.0
sz300644,南京聚隆,2018-09-13,36.3,36.56,35.56,36.18,36.02,1001400.0,36059762.0,578880000.0,2315520000.0
sz300644,南京聚隆,2018-09-14,36.25,37.33,35.59,35.6,36.18,1556000.0,56652390.0,569600000.0,2278400000.0
sz300644,南京聚隆,2018-09-17,35.0,35.09,32.05,32.11,35.6,1622688.0,53364057.0,513760000.0,2055040000.0
sz300644,南京聚隆,2018-09-18,31.8,32.78,31.7,32.54,32.11,987300.0,31901262.0,520640000.0,2082560000.0
sz300644,南京聚隆,2018-09-19,32.33,33.54,32.3,32.88,32.54,1268857.0,41789216.0,526080000.0,2104320000.0
sz300644,南京聚隆,2018-09-20,32.88,33.35,32.49,32.54,32.88,1001043.0,32911468.0,520640000.0,2082560000.0
sz300644,南京聚隆,2018-09-21,32.62,33.38,32.61,33.12,32.54,1046357.0,34618837.0,529920000.0,2119680000.0
sz300644,南京聚隆,2018-09-25,33.32,33.79,32.92,33.15,33.12,837029.0,27894000.0,530400000.0,2121600000.0
sz300644,南京聚隆,2018-09-26,33.5,33.7,32.8,33.39,33.15,919389.0,30569306.0,534240000.0,2136960000.0
sz300644,南京聚隆,2018-09-27,33.39,33.39,31.5,31.57,33.39,1659000.0,53318184.0,505120000.0,2020480000.0
sz300644,南京聚隆,2018-09-28,32.0,33.33,31.81,33.0,31.57,1498088.0,49118783.0,528000000.0,2112000000.0
sz300644,南京聚隆,2018-10-08,32.63,35.66,31.93,33.8,33.0,2752583.0,93399273.0,540800000.0,2163200000.0
sz300644,南京聚隆,2018-10-09,33.59,37.18,33.59,37.18,33.8,2467556.0,87985333.0,594880000.0,2379520000.0
sz300644,南京聚隆,2018-10-10,40.9,40.9,40.9,40.9,37.18,569768.0,23303511.0,654400000.0,2617600000.0
sz300644,南京聚隆,2018-10-11,42.5,44.93,40.01,40.7,40.9,9188929.0,391588970.0,651200000.0,2604800000.0
sz300644,南京聚隆,2018-10-12,36.93,40.79,36.63,38.6,40.7,6488384.0,247598016.0,617600000.0,2470400000.0
sz300644,南京聚隆,2018-10-15,36.99,38.0,35.93,37.9,38.6,4461997.0,165518619.0,606400000.0,2425600000.0
sz300644,南京聚隆,2018-10-16,37.0,37.57,34.11,34.11,37.9,4805323.0,169199202.0,545760000.0,2183040000.0
sz300644,南京聚隆,2018-10-17,34.0,34.43,31.52,32.92,34.11,3781702.0,125108208.0,526720000.0,2106880000.0
sz300644,南京聚隆,2018-10-18,32.11,32.39,29.8,30.27,32.92,3139311.0,97310431.0,484320000.0,1937280000.0
sz300644,南京聚隆,2018-10-19,29.62,31.02,29.52,30.8,30.27,2332302.0,71137232.0,492800000.0,1971200000.0
sz300644,南京聚隆,2018-10-22,31.01,32.77,30.7,32.53,30.8,3008859.0,96168006.0,520480000.0,2081920000.0
sz300644,南京聚隆,2018-10-23,33.08,34.2,31.85,32.02,32.53,3503609.0,115600751.0,512320000.0,2049280000.0
sz300644,南京聚隆,2018-10-24,32.3,32.49,31.46,31.77,32.02,2160809.0,69062244.0,508320000.0,2033280000.0
sz300644,南京聚隆,2018-10-25,30.56,30.93,29.6,30.87,31.77,2258011.0,68456541.0,493920000.0,1975680000.0
sz300644,南京聚隆,2018-10-26,31.2,31.68,30.62,31.25,30.87,1630009.0,50624743.0,500000000.0,2000000000.0
sz300644,南京聚隆,2018-10-29,31.0,31.14,29.91,30.24,31.25,1465010.0,44683516.0,483840000.0,1935360000.0
sz300644,南京聚隆,2018-10-30,30.05,31.25,29.97,30.99,30.24,1786001.0,54789133.0,495840000.0,1983360000.0
sz300644,南京聚隆,2018-10-31,31.28,31.9,31.0,31.59,30.99,2123523.0,66774164.0,505440000.0,2021760000.0
sz300644,南京聚隆,2018-11-01,31.55,34.65,31.55,32.64,31.59,3226109.0,105856056.0,522240000.0,2088960000.0
sz300644,南京聚隆,2018-11-02,32.5,33.48,32.48,33.15,32.64,2690101.0,88605351.0,530400000.0,2121600000.0
sz300644,南京聚隆,2018-11-05,33.38,33.6,32.02,32.79,33.15,2584510.0,84891089.0,524640000.0,2098560000.0
sz300644,南京聚隆,2018-11-06,32.09,32.3,30.8,31.4,32.79,2385300.0,74968960.0,502400000.0,2009600000.0
sz300644,南京聚隆,2018-11-07,31.4,31.69,31.12,31.5,31.4,1463703.0,46056678.0,504000000.0,2016000000.0
sz300644,南京聚隆,2018-11-08,31.55,32.38,31.55,32.16,31.5,2132903.0,68160325.0,514560000.0,2058240000.0
sz300644,南京聚隆,2018-11-09,31.95,34.69,31.0,33.6,32.16,4426600.0,148349749.0,537600000.0,2150400000.0
sz300644,南京聚隆,2018-11-12,33.21,34.93,32.58,34.8,33.6,4225972.0,143765658.0,556800000.0,2227200000.0
sz300644,南京聚隆,2018-11-13,34.0,34.79,33.6,34.31,34.8,3523600.0,120576816.0,548960000.0,2195840000.0
sz300644,南京聚隆,2018-11-14,34.26,37.74,34.15,37.74,34.31,3549172.0,126534180.0,603840000.0,2415360000.0
sz300644,南京聚隆,2018-11-15,41.51,41.51,41.51,41.51,37.74,414200.0,17193442.0,664160000.0,2656640000.0
sz300644,南京聚隆,2018-11-16,44.0,45.66,41.2,41.32,41.51,10456845.0,462115662.0,661120000.0,2644480000.0
sz300644,南京聚隆,2018-11-19,39.5,40.91,39.21,39.7,41.32,6144303.0,244971525.0,635200000.0,2540800000.0
sz300644,南京聚隆,2018-11-20,39.01,39.33,37.12,37.5,39.7,4711307.0,180171626.0,600000000.0,2400000000.0
sz300644,南京聚隆,2018-11-21,37.25,38.69,37.01,37.91,37.5,3498906.0,133126095.0,606560000.0,2426240000.0
sz300644,南京聚隆,2018-11-22,38.81,39.6,37.4,37.4,37.91,3533400.0,136318823.0,598400000.0,2393600000.0
sz300644,南京聚隆,2018-11-23,37.07,38.06,35.0,35.71,37.4,3300773.0,120146292.0,571360000.0,2285440000.0
sz300644,南京聚隆,2018-11-26,35.62,35.67,33.34,33.61,35.71,2922099.0,100565075.0,537760000.0,2151040000.0
sz300644,南京聚隆,2018-11-27,34.02,34.5,33.35,33.7,33.61,1983091.0,67436579.0,539200000.0,2156800000.0
sz300644,南京聚隆,2018-11-28,33.67,34.59,33.67,34.37,33.7,2252692.0,77050940.0,549920000.0,2199680000.0
sz300644,南京聚隆,2018-11-29,34.4,34.9,32.03,32.12,34.37,2452130.0,82539557.0,513920000.0,2055680000.0
sz300644,南京聚隆,2018-11-30,32.3,33.16,31.91,33.0,32.12,2029427.0,66314658.0,528000000.0,2112000000.0
sz300644,南京聚隆,2018-12-03,33.66,34.95,33.66,34.27,33.0,2627592.0,90136222.0,548320000.0,2193280000.0
sz300644,南京聚隆,2018-12-04,34.35,34.8,33.87,34.57,34.27,2416042.0,82983542.0,553120000.0,2212480000.0
sz300644,南京聚隆,2018-12-05,33.73,33.94,33.3,33.8,34.57,1872624.0,63046023.0,540800000.0,2163200000.0
sz300644,南京聚隆,2018-12-06,34.13,37.18,34.13,37.18,33.8,5537028.0,198989642.0,594880000.0,2379520000.0
sz300644,南京聚隆,2018-12-07,36.88,38.27,36.03,37.04,37.18,5353369.0,199147020.0,592640000.0,2370560000.0
sz300644,南京聚隆,2018-12-10,36.73,36.85,34.95,35.6,37.04,3145557.0,112583087.0,569600000.0,2278400000.0
sz300644,南京聚隆,2018-12-11,35.74,38.19,35.74,37.97,35.6,4825882.0,180321518.0,607520000.0,2430080000.0
sz300644,南京聚隆,2018-12-12,37.47,38.48,37.01,37.1,37.97,3740269.0,140291034.0,593600000.0,2374400000.0
sz300644,南京聚隆,2018-12-13,37.05,37.3,36.03,36.93,37.1,2800533.0,102637753.0,590880000.0,2363520000.0
sz300644,南京聚隆,2018-12-14,36.89,38.2,35.88,35.88,36.93,3238263.0,120569380.0,574080000.0,2296320000.0
sz300644,南京聚隆,2018-12-17,36.14,37.37,36.01,37.04,35.88,2449593.0,89968862.0,592640000.0,2370560000.0
sz300644,南京聚隆,2018-12-18,36.46,36.95,35.05,35.44,37.04,2260558.0,81079760.0,567040000.0,2268160000.0
sz300644,南京聚隆,2018-12-19,35.49,36.43,34.18,34.63,35.44,2196600.0,77307948.0,554080000.0,2216320000.0
sz300644,南京聚隆,2018-12-20,34.37,35.49,34.21,35.3,34.63,1742100.0,60795023.0,564800000.0,2259200000.0
sz300644,南京聚隆,2018-12-21,35.27,37.71,34.63,37.02,35.3,4407037.0,160894594.0,592320000.0,2369280000.0
sz300644,南京聚隆,2018-12-24,37.0,39.06,36.53,38.2,37.02,4282306.0,162154387.0,611200000.0,2444800000.0
sz300644,南京聚隆,2018-12-25,37.43,38.32,36.13,37.94,38.2,3395000.0,126062763.0,607040000.0,2428160000.0
sz300644,南京聚隆,2018-12-26,38.18,39.8,36.55,36.72,37.94,3845011.0,147413477.0,587520000.0,2350080000.0
sz300644,南京聚隆,2018-12-27,37.41,39.25,36.73,36.95,36.72,3664948.0,139332719.0,591200000.0,2364800000.0
sz300644,南京聚隆,2018-12-28,35.92,36.95,35.09,35.4,36.95,2852150.0,101963146.0,566400000.0,2265600000.0
sz300644,南京聚隆,2019-01-02,34.9,35.93,34.9,35.77,35.4,1430400.0,50831894.0,572320000.0,2289280000.0
sz300644,南京聚隆,2019-01-03,35.95,35.95,32.69,32.88,35.77,2485537.0,84575042.0,526080000.0,2104320000.0
sz300644,南京聚隆,2019-01-04,32.11,33.8,31.6,33.55,32.88,1729549.0,56915504.0,536800000.0,2147200000.0
sz300644,南京聚隆,2019-01-07,34.1,35.86,34.1,34.65,33.55,2345300.0,81811563.0,554400000.0,2217600000.0
sz300644,南京聚隆,2019-01-08,34.56,35.39,34.11,34.2,34.65,1668100.0,57895576.0,547200000.0,2188800000.0
sz300644,南京聚隆,2019-01-09,34.57,35.36,34.22,34.24,34.2,1965461.0,68325182.0,547840000.0,2191360000.0
sz300644,南京聚隆,2019-01-10,34.2,34.58,33.37,33.47,34.24,1492400.0,50384220.0,535520000.0,2142080000.0
sz300644,南京聚隆,2019-01-11,33.32,34.87,33.16,34.84,33.47,2324210.0,78992280.0,557440000.0,2229760000.0
sz300644,南京聚隆,2019-01-14,34.67,34.76,33.26,33.64,34.84,1752500.0,59182758.0,538240000.0,2152960000.0
sz300644,南京聚隆,2019-01-15,33.64,34.12,33.33,33.97,33.64,1295110.0,43845303.0,543520000.0,2174080000.0
sz300644,南京聚隆,2019-01-16,33.68,34.5,33.56,34.09,33.97,1424047.0,48470581.0,545440000.0,2181760000.0
sz300644,南京聚隆,2019-01-17,33.99,34.24,33.25,33.52,34.09,1102800.0,37130663.0,536320000.0,2145280000.0
sz300644,南京聚隆,2019-01-18,33.45,33.58,32.8,32.98,33.52,1082901.0,35834997.0,527680000.0,2110720000.0
sz300644,南京聚隆,2019-01-21,33.35,34.8,33.35,34.34,32.98,2564853.0,88004540.0,549440000.0,2197760000.0
sz300644,南京聚隆,2019-01-22,34.09,35.99,33.34,34.96,34.34,3059853.0,105739741.0,559360000.0,2237440000.0
sz300644,南京聚隆,2019-01-23,34.41,36.36,34.31,36.36,34.96,4007154.0,142494470.0,581760000.0,2327040000.0
sz300644,南京聚隆,2019-01-24,35.87,36.24,35.32,35.79,36.36,2538839.0,90568656.0,572640000.0,2290560000.0
sz300644,南京聚隆,2019-01-25,35.7,35.72,33.41,33.6,35.79,2708225.0,93290893.0,537600000.0,2150400000.0
sz300644,南京聚隆,2019-01-28,33.73,34.35,33.2,33.24,33.6,1319548.0,44571291.0,531840000.0,2127360000.0
sz300644,南京聚隆,2019-01-29,32.32,32.92,30.01,30.9,33.24,1795203.0,56333747.0,494400000.0,1977600000.0
sz300644,南京聚隆,2019-01-30,30.9,30.9,28.88,28.91,30.9,2032903.0,59993566.0,462560000.0,1850240000.0
sz300644,南京聚隆,2019-01-31,28.93,29.89,26.1,26.5,28.91,1873626.0,52010246.0,424000000.0,1696000000.0
sz300644,南京聚隆,2019-02-01,25.9,27.37,25.9,27.02,26.5,1343500.0,36066220.0,432320000.0,1729280000.0
sz300644,南京聚隆,2019-02-11,27.05,27.96,27.05,27.92,27.02,1115989.0,30816363.0,1119472558.24,1786880000.0
sz300644,南京聚隆,2019-02-12,28.01,28.65,27.92,28.33,27.92,1199089.0,33856414.0,1135911804.26,1813120000.0
sz300644,南京聚隆,2019-02-13,28.26,28.88,28.12,28.77,28.33,1962025.0,55889312.0,1153553921.94,1841280000.0
sz300644,南京聚隆,2019-02-14,28.55,29.0,28.25,28.8,28.77,1703700.0,48707832.0,1154756793.6,1843200000.0
sz300644,南京聚隆,2019-02-15,29.05,29.23,28.6,28.62,28.8,1536680.0,44475966.0,1147539563.64,1831680000.0
sz300644,南京聚隆,2019-02-18,28.62,29.75,28.62,29.74,28.62,2175225.0,63716215.0,1192446772.28,1903360000.0
sz300644,南京聚隆,2019-02-19,29.7,30.22,29.0,30.22,29.74,2602690.0,77213993.0,1211692718.84,1934080000.0
sz300644,南京聚隆,2019-02-20,29.91,30.08,29.4,29.8,30.22,1620040.0,48255799.0,1194852515.6,1907200000.0
sz300644,南京聚隆,2019-02-21,29.66,30.49,29.31,29.41,29.8,2187817.0,65231246.0,1179215184.02,1882240000.0
sz300644,南京聚隆,2019-02-22,29.31,29.96,29.15,29.85,29.41,1739098.0,51492575.0,1196857301.7,1910400000.0
sz300644,南京聚隆,2019-02-25,30.15,31.5,29.97,31.11,29.85,2794600.0,85826150.0,1247377911.42,1991040000.0
sz300644,南京聚隆,2019-02-26,31.4,32.49,30.62,31.21,31.11,3423281.0,107523504.0,1251387483.62,1997440000.0
sz300644,南京聚隆,2019-02-27,31.5,31.73,30.5,30.79,31.21,2184835.0,68230937.0,1234547280.38,1970560000.0
sz300644,南京聚隆,2019-02-28,30.8,31.59,30.51,31.37,30.79,1712532.0,53186777.0,1257802799.14,2007680000.0
sz300644,南京聚隆,2019-03-01,31.84,31.9,30.75,30.99,31.37,1744810.0,54291066.0,1242566424.78,1983360000.0
sz300644,南京聚隆,2019-03-04,31.11,31.7,30.82,31.5,30.99,2632297.0,82441842.0,1263015243.0,2016000000.0
sz300644,南京聚隆,2019-03-05,31.5,31.88,31.3,31.88,31.5,3016528.0,95301651.0,1278251617.36,2040320000.0
sz300644,南京聚隆,2019-03-06,32.0,33.58,31.71,32.76,31.88,3972143.0,129260140.0,1313535852.72,2096640000.0
sz300644,南京聚隆,2019-03-07,32.33,34.06,31.98,34.06,32.76,5167438.0,170997758.0,1365660291.32,2179840000.0
sz300644,南京聚隆,2019-03-08,33.2,33.48,31.8,31.82,34.06,3658812.0,119601188.0,1275845874.04,2036480000.0
sz300644,南京聚隆,2019-03-11,31.93,33.0,31.9,32.98,31.82,2289863.0,74478876.0,1322356911.56,2110720000.0
sz300644,南京聚隆,2019-03-12,33.7,34.02,32.8,33.56,32.98,3752763.0,125674193.0,1345612430.32,2147840000.0
sz300644,南京聚隆,2019-03-13,33.4,33.97,32.22,33.09,33.56,2907846.0,96620294.0,1326767440.98,2117760000.0
sz300644,南京聚隆,2019-03-14,32.55,33.0,30.7,31.4,33.09,2587183.0,81849609.0,1259005670.8,2009600000.0
sz300644,南京聚隆,2019-03-15,31.21,31.88,30.96,31.48,31.4,2111803.0,66481126.0,1262213328.56,2014720000.0
sz300644,南京聚隆,2019-03-18,31.22,32.2,31.02,32.1,31.48,2026800.0,64522644.0,1287072676.2,2054400000.0
sz300644,南京聚隆,2019-03-19,32.5,32.63,31.88,31.98,32.1,1639200.0,52767597.0,1282261189.56,2046720000.0
sz300644,南京聚隆,2019-03-20,32.36,32.47,31.24,31.95,31.98,1643683.0,52510658.0,1281058317.9,2044800000.0
sz300644,南京聚隆,2019-03-21,32.2,32.33,31.31,32.14,31.95,1809168.0,58031242.0,1288676505.08,2056960000.0
sz300644,南京聚隆,2019-03-22,32.5,32.5,31.5,31.9,32.14,1796500.0,57302862.0,1279053531.8,2041600000.0
sz300644,南京聚隆,2019-03-25,31.6,32.36,31.41,32.09,31.9,1851300.0,59136448.0,1286671718.98,2053760000.0
sz300644,南京聚隆,2019-03-26,31.96,32.25,29.71,29.95,32.09,2315300.0,71376889.0,1200866873.9,1916800000.0
sz300644,南京聚隆,2019-03-27,30.38,30.9,29.95,30.35,29.95,1590600.0,48304975.0,1216905162.7,1942400000.0
sz300644,南京聚隆,2019-03-28,30.14,30.29,29.33,29.72,30.35,1505946.0,44910753.0,1191644857.84,1902080000.0
sz300644,南京聚隆,2019-03-29,29.82,30.34,29.36,30.34,29.72,1326500.0,39747253.0,1216504205.48,1941760000.0
sz300644,南京聚隆,2019-04-01,30.5,31.22,30.43,31.15,30.34,1745730.0,54057896.0,1248981740.3,1993600000.0
sz300644,南京聚隆,2019-04-02,31.39,32.3,30.52,31.74,31.15,2844439.0,89654027.0,1272638216.28,2031360000.0
sz300644,南京聚隆,2019-04-03,31.56,32.25,31.32,32.17,31.74,2498738.0,79885943.0,1289879376.74,2058880000.0
sz300644,南京聚隆,2019-04-04,32.15,32.88,31.88,32.33,32.17,2631038.0,85053779.0,1296294692.26,2069120000.0
sz300644,南京聚隆,2019-04-08,32.91,33.29,31.61,32.01,32.33,2780045.0,90357870.0,1283464061.22,2048640000.0
sz300644,南京聚隆,2019-04-09,31.81,34.1,31.8,32.94,32.01,4214107.0,139281212.0,1320753082.68,2108160000.0
sz300644,南京聚隆,2019-04-10,32.41,32.49,31.5,32.08,32.94,2626600.0,83901457.0,1286270761.76,2053120000.0
sz300644,南京聚隆,2019-04-11,32.08,32.66,31.7,32.09,32.08,2464400.0,79661326.0,1286671718.98,2053760000.0
sz300644,南京聚隆,2019-04-12,32.0,32.61,31.7,31.87,32.09,1696271.0,54425653.0,1277850660.14,2039680000.0
sz300644,南京聚隆,2019-04-15,32.02,33.22,31.94,32.41,31.87,2838278.0,92357759.0,1299502350.02,2074240000.0
sz300644,南京聚隆,2019-04-16,32.33,33.1,32.06,33.07,32.41,3049681.0,99737799.0,1325965526.54,2116480000.0
sz300644,南京聚隆,2019-04-17,32.87,33.0,32.46,32.88,33.07,2720553.0,89063879.0,1318347339.36,2104320000.0
sz300644,南京聚隆,2019-04-18,33.4,33.72,32.23,32.38,32.88,3142938.0,103959975.0,1298299478.36,2072320000.0
sz300644,南京聚隆,2019-04-19,32.26,32.8,31.8,32.69,32.38,1970215.0,63848336.0,1310729152.18,2092160000.0
sz300644,南京聚隆,2019-04-22,32.71,32.79,31.69,31.76,32.69,1967316.0,63067908.0,1273440130.72,2032640000.0
sz300644,南京聚隆,2019-04-23,31.63,31.78,30.69,30.74,31.76,1552000.0,48499967.0,1232542494.28,1967360000.0
sz300644,南京聚隆,2019-04-24,30.8,31.07,30.46,31.04,30.74,1159700.0,35694838.0,1244571210.88,1986560000.0
sz300644,南京聚隆,2019-04-25,30.94,30.94,28.28,28.95,31.04,1591400.0,47900717.0,1160771151.9,1852800000.0
sz300644,南京聚隆,2019-04-26,28.94,29.3,28.72,28.89,28.95,964176.0,27920045.0,1158365408.58,1848960000.0
sz300644,南京聚隆,2019-04-29,28.95,29.28,27.8,27.94,28.89,1062900.0,30456127.0,1120274472.68,1788160000.0
sz300644,南京聚隆,2019-04-30,28.04,28.7,28.03,28.39,27.94,469900.0,13316017.0,1138317547.58,1816960000.0
sz300644,南京聚隆,2019-05-06,27.29,28.0,26.0,26.21,28.39,998700.0,26933943.0,1050908873.62,1677440000.0
sz300644,南京聚隆,2019-05-07,26.5,26.94,26.24,26.71,26.21,784207.0,20881535.0,1070956734.62,1709440000.0
sz300644,南京聚隆,2019-05-08,26.18,26.95,25.62,26.68,26.71,718363.0,19018698.0,1069753862.96,1707520000.0
sz300644,南京聚隆,2019-05-09,26.5,26.84,26.47,26.7,26.68,623000.0,16623439.0,1070555777.4,1708800000.0
sz300644,南京聚隆,2019-05-10,26.98,27.45,26.52,27.33,26.7,858063.0,23306733.0,1095816082.26,1749120000.0
sz300644,南京聚隆,2019-05-13,27.18,30.06,26.99,30.06,27.33,3030900.0,88377182.0,1205277403.32,1923840000.0
sz300644,南京聚隆,2019-05-14,30.06,30.95,28.69,30.08,30.06,3601276.0,107435960.0,1206079317.76,1925120000.0
sz300644,南京聚隆,2019-05-15,30.34,30.34,29.49,29.96,30.08,2193800.0,65290703.0,1201267831.12,1917440000.0
sz300644,南京聚隆,2019-05-16,29.65,29.79,28.01,28.63,29.96,2303022.0,66617374.0,1147940520.86,1832320000.0
sz300644,南京聚隆,2019-05-17,28.58,28.8,26.71,27.0,28.63,1712400.0,47727408.0,1082584494.0,1728000000.0
sz300644,南京聚隆,2019-05-20,26.8,27.32,26.12,27.31,27.0,1049876.0,28073243.0,1095014167.82,1747840000.0
sz300644,南京聚隆,2019-05-21,27.01,27.62,27.01,27.37,27.31,957700.0,26169558.0,1097419911.14,1751680000.0
sz300644,南京聚隆,2019-05-22,27.32,27.39,26.79,26.79,27.37,759710.0,20578592.0,1074164392.38,1714560000.0
sz300644,南京聚隆,2019-05-23,26.77,27.1,26.42,26.53,26.79,616200.0,16478482.0,1063739504.66,1697920000.0
sz300644,南京聚隆,2019-05-24,26.78,26.9,26.21,26.5,26.53,555400.0,14701084.0,1062536633.0,1696000000.0
sz300644,南京聚隆,2019-05-27,26.5,27.45,26.5,27.28,26.5,856100.0,23195253.0,1093811296.16,1745920000.0
sz300644,南京聚隆,2019-05-28,27.13,27.66,27.13,27.16,27.28,826410.0,22606101.0,1088999809.52,1738240000.0
sz300644,南京聚隆,2019-05-29,27.4,27.89,27.1,27.41,27.16,956700.0,26317808.0,1099023740.02,1754240000.0
sz300644,南京聚隆,2019-05-30,27.36,30.15,27.17,30.15,27.41,2978300.0,89454177.0,1208886018.3,1929600000.0
sz300644,南京聚隆,2019-05-31,30.2,31.94,29.35,30.56,30.15,6229460.0,188916861.0,1225325264.32,1955840000.0
sz300644,南京聚隆,2019-06-03,29.54,29.96,28.27,28.79,30.56,2840600.0,82592327.0,1154355836.38,1842560000.0
sz300644,南京聚隆,2019-06-04,28.52,29.45,28.0,29.19,28.79,2194900.0,63430876.0,1170394125.18,1868160000.0
sz300644,南京聚隆,2019-06-05,29.22,29.4,28.63,28.79,29.19,1642000.0,47604006.0,1154355836.38,1842560000.0
sz300644,南京聚隆,2019-06-06,28.73,28.78,27.3,27.6,28.79,1466700.0,40945718.0,1106641927.2,1766400000.0
sz300644,南京聚隆,2019-06-10,28.1,28.1,27.46,27.95,27.6,1072300.0,29848937.0,1120675429.9,1788800000.0
sz300644,南京聚隆,2019-06-11,28.15,28.98,27.61,28.88,27.95,1834600.0,52375096.0,1157964451.36,1848320000.0
sz300644,南京聚隆,2019-06-12,28.81,29.23,28.58,28.88,28.88,2062660.0,59744062.0,1157964451.36,1848320000.0
sz300644,南京聚隆,2019-06-13,28.86,29.23,28.06,28.93,28.88,1334700.0,38344100.0,1159969237.46,1851520000.0
sz300644,南京聚隆,2019-06-14,28.88,29.13,27.66,27.66,28.93,1222900.0,34702453.0,1109047670.52,1770240000.0
sz300644,南京聚隆,2019-06-17,27.65,28.48,27.33,28.13,27.66,745500.0,20828710.0,1127892659.86,1800320000.0
sz300644,南京聚隆,2019-06-18,28.08,28.78,27.81,28.64,28.13,1131900.0,32189333.0,1148341478.08,1832960000.0
sz300644,南京聚隆,2019-06-19,29.18,29.26,28.51,28.6,28.64,1552500.0,44711442.0,1146737649.2,1830400000.0
sz300644,南京聚隆,2019-06-20,28.61,28.87,28.0,28.82,28.6,1511373.0,42979204.0,1155558708.04,1844480000.0
sz300644,南京聚隆,2019-06-21,29.71,30.25,29.02,29.5,28.82,3118360.0,92026734.0,1182823799.0,1888000000.0
sz300644,南京聚隆,2019-06-24,29.33,29.52,28.85,29.16,29.5,1647000.0,47931852.0,1169191253.52,1866240000.0
sz300644,南京聚隆,2019-06-25,28.88,29.2,28.48,29.16,29.16,1193060.0,34430112.0,1169191253.52,1866240000.0
sz300644,南京聚隆,2019-06-26,28.87,29.33,28.87,28.99,29.16,823800.0,23957808.0,1162374980.78,1855360000.0
sz300644,南京聚隆,2019-06-27,29.19,29.7,28.87,29.16,28.99,1029738.0,30110039.0,1169191253.52,1866240000.0
sz300644,南京聚隆,2019-06-28,29.06,29.16,28.2,28.27,29.16,1286338.0,36615376.0,1133506060.94,1809280000.0
sz300644,南京聚隆,2019-07-01,28.59,28.98,28.51,28.87,28.27,1278100.0,36835858.0,1157563494.14,1847680000.0
sz300644,南京聚隆,2019-07-02,28.83,29.72,28.76,28.99,28.87,1668601.0,48732229.0,1162374980.78,1855360000.0
sz300644,南京聚隆,2019-07-03,29.0,30.1,28.3,29.87,28.99,2764127.0,80976146.0,1197659216.14,1911680000.0
sz300644,南京聚隆,2019-07-04,29.95,30.01,28.9,29.35,29.87,1812916.0,53302183.0,1176809440.7,1878400000.0
sz300644,南京聚隆,2019-07-05,29.34,30.7,29.05,30.07,29.35,2448539.0,73295079.0,1205678360.54,1924480000.0
sz300644,南京聚隆,2019-07-08,29.5,31.1,29.33,30.53,30.07,4129343.0,125382455.0,1224122392.66,1953920000.0
sz300644,南京聚隆,2019-07-09,29.98,30.6,29.35,30.4,30.53,2534644.0,76122293.0,1218909948.8,1945600000.0
sz300644,南京聚隆,2019-07-10,30.15,31.8,29.0,29.69,30.25,2068527.0,61860886.0,1190441986.18,1900160000.0
sz300644,南京聚隆,2019-07-11,29.35,30.31,29.15,29.69,29.69,1443227.0,42855976.0,1190441986.18,1900160000.0
sz300644,南京聚隆,2019-07-12,29.5,30.0,28.6,28.7,29.69,1587560.0,46335220.0,1150747221.4,1836800000.0
sz300644,南京聚隆,2019-07-15,28.59,29.57,28.38,29.37,28.7,1291960.0,37639554.0,1177611355.14,1879680000.0
sz300644,南京聚隆,2019-07-16,29.1,30.28,29.1,30.22,29.37,1839300.0,54937652.0,1211692718.84,1934080000.0
sz300644,南京聚隆,2019-07-17,30.01,30.67,29.72,30.09,30.22,1628173.0,49073053.0,1206480274.98,1925760000.0
sz300644,南京聚隆,2019-07-18,29.99,30.44,29.3,29.3,30.09,1160900.0,34508285.0,1174804654.6,1875200000.0
sz300644,南京聚隆,2019-07-19,29.31,29.74,28.89,28.9,29.3,1174700.0,34300302.0,1158766365.8,1849600000.0
sz300644,南京聚隆,2019-07-22,28.9,29.08,27.0,27.1,28.9,1208200.0,33337734.0,1086594066.2,1734400000.0
sz300644,南京聚隆,2019-07-23,27.02,28.28,26.0,28.1,27.1,1552673.0,43282666.0,1126689788.2,1798400000.0
sz300644,南京聚隆,2019-07-24,28.03,28.95,28.03,28.11,28.1,993173.0,28266030.0,1127090745.42,1799040000.0
sz300644,南京聚隆,2019-07-25,28.3,28.73,28.1,28.41,28.11,685628.0,19481660.0,1139119462.02,1818240000.0
sz300644,南京聚隆,2019-07-26,28.43,28.6,27.72,28.03,28.41,680604.0,19074041.0,1123883087.66,1793920000.0
sz300644,南京聚隆,2019-07-29,28.59,28.6,27.9,27.95,28.03,562062.0,15812303.0,1120675429.9,1788800000.0
sz300644,南京聚隆,2019-07-30,27.93,28.29,27.81,27.9,27.95,604006.0,16933022.0,1118670643.8,1785600000.0
sz300644,南京聚隆,2019-07-31,27.98,27.98,27.27,27.7,27.9,583396.0,16138462.0,1110651499.4,1772800000.0
sz300644,南京聚隆,2019-08-01,27.6,27.93,27.35,27.65,27.7,481100.0,13320384.0,1108646713.3,1769600000.0
sz300644,南京聚隆,2019-08-02,27.19,27.83,26.83,27.52,27.65,961396.0,26389597.0,1103434269.44,1761280000.0
sz300644,南京聚隆,2019-08-05,27.52,27.85,27.09,27.2,27.52,568896.0,15608113.0,1090603638.4,1740800000.0
sz300644,南京聚隆,2019-08-06,26.95,27.2,26.25,26.69,27.2,833000.0,22190760.0,1070154820.18,1708160000.0
sz300644,南京聚隆,2019-08-07,27.0,27.19,26.75,26.97,26.69,516700.0,13958285.0,1081381622.34,1726080000.0
sz300644,南京聚隆,2019-08-08,27.17,27.22,26.8,26.82,26.97,699600.0,18885627.0,1075367264.04,1716480000.0
sz300644,南京聚隆,2019-08-09,26.82,27.21,26.23,26.38,26.82,619622.0,16503979.0,1057725146.36,1688320000.0
sz300644,南京聚隆,2019-08-12,26.48,26.97,26.22,26.79,26.38,435487.0,11612355.0,1074164392.38,1714560000.0
sz300644,南京聚隆,2019-08-13,26.55,26.92,26.4,26.87,26.79,323473.0,8656138.0,1077372050.14,1719680000.0
sz300644,南京聚隆,2019-08-14,27.08,27.33,26.7,26.89,26.87,633228.0,17107244.0,1078173964.58,1720960000.0
sz300644,南京聚隆,2019-08-15,26.23,26.78,26.13,26.67,26.89,481300.0,12771796.0,1069352905.74,1706880000.0
sz300644,南京聚隆,2019-08-16,26.65,27.1,26.53,26.91,26.67,629312.0,16959835.0,1078975879.02,1722240000.0
sz300644,南京聚隆,2019-08-19,27.12,27.53,27.12,27.48,26.91,748206.0,20462597.0,1101830440.56,1758720000.0
sz300644,南京聚隆,2019-08-20,27.31,27.66,27.31,27.37,27.48,563704.0,15453982.0,1097419911.14,1751680000.0
sz300644,南京聚隆,2019-08-21,27.32,27.62,27.2,27.52,27.37,628566.0,17275642.0,1103434269.44,1761280000.0
sz300644,南京聚隆,2019-08-22,27.55,27.67,27.26,27.61,27.52,648600.0,17798602.0,1107042884.42,1767040000.0
sz300644,南京聚隆,2019-08-23,27.59,27.72,27.21,27.32,27.61,462100.0,12670997.0,1095415125.04,1748480000.0
sz300644,南京聚隆,2019-08-26,26.61,27.68,26.61,27.37,27.32,557100.0,15197127.0,1097419911.14,1751680000.0
sz300644,南京聚隆,2019-08-27,27.66,27.89,27.38,27.89,27.37,806819.0,22408681.0,1118269686.58,1784960000.0
sz300644,南京聚隆,2019-08-28,28.05,28.94,27.96,28.2,27.89,1284100.0,36586622.0,1130699360.4,1804800000.0
sz300644,南京聚隆,2019-08-29,27.8,28.36,27.75,27.78,28.2,809100.0,22680725.0,1113859157.16,1777920000.0
sz300644,南京聚隆,2019-08-30,27.83,28.4,27.19,27.29,27.78,751801.0,20899373.0,1094212253.38,1746560000.0
sz300644,南京聚隆,2019-09-02,27.9,27.9,27.1,27.73,27.29,659700.0,18238757.0,1111854371.06,1774720000.0
sz300644,南京聚隆,2019-09-03,27.91,28.03,27.55,27.83,27.73,577166.0,16009238.0,1115863943.26,1781120000.0
sz300644,南京聚隆,2019-09-04,27.78,28.12,27.77,28.12,27.83,822800.0,22998992.0,1127491702.64,1799680000.0
sz300644,南京聚隆,2019-09-05,28.19,28.58,28.01,28.15,28.12,1122500.0,31784500.0,1128694574.3,1801600000.0
sz300644,南京聚隆,2019-09-06,28.19,28.57,27.99,28.33,28.15,893704.0,25289579.0,1135911804.26,1813120000.0
sz300644,南京聚隆,2019-09-09,28.57,28.85,28.29,28.83,28.33,1029270.0,29447368.0,1155959665.26,1845120000.0
sz300644,南京聚隆,2019-09-10,29.1,29.79,28.83,29.24,28.83,1553100.0,45397410.0,1172398911.28,1871360000.0
sz300644,南京聚隆,2019-09-11,29.01,29.29,28.77,28.8,29.24,823566.0,23802322.0,1154756793.6,1843200000.0
sz300644,南京聚隆,2019-09-12,28.84,29.25,28.55,28.99,28.8,621800.0,17921900.0,1162374980.78,1855360000.0
sz300644,南京聚隆,2019-09-16,29.15,29.28,28.99,29.04,28.99,789092.0,23002980.0,1164379766.88,1858560000.0
sz300644,南京聚隆,2019-09-17,28.96,29.5,28.41,28.42,29.04,881700.0,25501493.0,1139520419.24,1818880000.0
sz300644,南京聚隆,2019-09-18,28.69,28.85,28.36,28.77,28.42,684800.0,19618072.0,1153553921.94,1841280000.0
sz300644,南京聚隆,2019-09-19,28.77,29.36,28.76,29.25,28.77,815100.0,23725216.0,1172799868.5,1872000000.0
sz300644,南京聚隆,2019-09-20,29.67,31.58,29.26,29.35,29.25,2546500.0,76652993.0,1176809440.7,1878400000.0
sz300644,南京聚隆,2019-09-23,28.94,29.19,28.43,28.76,29.35,1371900.0,39391654.0,1153152964.72,1840640000.0
sz300644,南京聚隆,2019-09-24,28.7,28.88,28.45,28.53,28.76,996538.0,28584641.0,1143930948.66,1825920000.0
sz300644,南京聚隆,2019-09-25,28.49,28.49,27.8,28.11,28.53,700196.0,19760743.0,1127090745.42,1799040000.0
sz300644,南京聚隆,2019-09-26,27.14,30.92,27.14,30.92,28.11,6511669.0,198626844.0,1289416038.36,1978880000.0
sz300644,南京聚隆,2019-09-27,32.95,34.01,29.71,31.48,30.92,9878767.0,321655050.0,1312768980.84,2014720000.0
sz300644,南京聚隆,2019-09-30,31.48,31.48,28.4,28.97,31.48,4838512.0,144308431.0,1208097756.51,1854080000.0
sz300644,南京聚隆,2019-10-08,29.58,31.87,29.51,31.87,28.97,3175387.0,98809732.0,1329032637.21,2039680000.0
sz300644,南京聚隆,2019-10-09,31.87,35.06,31.07,35.06,31.87,7553242.0,246775771.0,1462061005.98,2243840000.0
sz300644,南京聚隆,2019-10-10,34.95,34.95,31.55,31.99,35.06,11024837.0,357145281.0,1334036839.17,2047360000.0
sz300644,南京聚隆,2019-10-11,31.07,33.5,31.07,31.85,31.99,7773102.0,251696686.0,1328198603.55,2038400000.0
sz300644,南京聚隆,2019-10-14,31.47,32.5,31.11,32.15,31.85,4260917.0,135536146.0,1340709108.45,2057600000.0
sz300644,南京聚隆,2019-10-15,31.55,31.73,30.27,30.85,32.15,3620100.0,111426750.0,1286496920.55,1974400000.0
sz300644,南京聚隆,2019-10-16,30.87,31.5,30.35,31.06,30.85,3097800.0,96179875.0,1295254273.98,1987840000.0
sz300644,南京聚隆,2019-10-17,30.65,31.17,29.82,30.01,31.06,2445243.0,74544262.0,1251467506.83,1920640000.0
sz300644,南京聚隆,2019-10-18,30.02,30.82,29.3,29.55,30.01,2103700.0,63169643.0,1232284732.65,1891200000.0
sz300644,南京聚隆,2019-10-21,29.85,29.95,28.63,29.66,29.55,1472117.0,43001869.0,1236871917.78,1898240000.0
sz300644,南京聚隆,2019-10-22,29.65,30.66,29.1,30.39,29.66,1903017.0,57366161.0,1267314146.37,1944960000.0
sz300644,南京聚隆,2019-10-23,30.01,30.54,29.36,29.77,30.39,1508400.0,45250772.0,1241459102.91,1905280000.0
sz300644,南京聚隆,2019-10-24,29.53,29.85,29.05,29.21,29.77,1257217.0,36943511.0,1218106160.43,1869440000.0
sz300644,南京聚隆,2019-10-25,29.25,29.57,29.06,29.41,29.21,988459.0,28985089.0,1226446497.03,1882240000.0
sz300644,南京聚隆,2019-10-28,29.25,29.95,29.22,29.82,29.41,1254300.0,37234590.0,1243544187.06,1908480000.0
sz300644,南京聚隆,2019-10-29,29.8,29.82,28.48,28.5,29.82,1959300.0,56828417.0,1188497965.5,1824000000.0
sz300644,南京聚隆,2019-10-30,28.39,28.59,27.7,27.98,28.5,1425300.0,40038784.0,1166813090.34,1790720000.0
sz300644,南京聚隆,2019-10-31,27.4,28.39,27.4,27.69,27.98,826600.0,23120568.0,1154719602.27,1772160000.0
sz300644,南京聚隆,2019-11-01,27.72,28.04,27.5,27.86,27.69,582900.0,16227514.0,1161808888.38,1783040000.0
sz300644,南京聚隆,2019-11-04,27.86,28.3,27.81,27.82,27.86,645700.0,18113887.0,1160140821.06,1780480000.0
sz300644,南京聚隆,2019-11-05,28.09,28.13,27.65,27.93,27.82,636800.0,17769967.0,1164728006.19,1787520000.0
sz300644,南京聚隆,2019-11-06,27.8,28.29,27.8,28.03,27.93,638900.0,17944671.0,1168898174.49,1793920000.0
sz300644,南京聚隆,2019-11-07,28.06,28.52,27.82,28.41,28.03,887100.0,25050408.0,1184744814.03,1818240000.0
sz300644,南京聚隆,2019-11-08,28.37,28.67,28.1,28.2,28.41,843300.0,23954407.0,1175987460.6,1804800000.0
sz300644,南京聚隆,2019-11-11,28.16,28.16,26.9,27.27,28.2,1228900.0,33545772.0,1137204895.41,1745280000.0
sz300644,南京聚隆,2019-11-12,27.22,27.71,27.09,27.6,27.27,728300.0,20001293.0,1150966450.8,1766400000.0
sz300644,南京聚隆,2019-11-13,27.6,28.38,27.4,28.12,27.6,1083200.0,30264592.0,1172651325.96,1799680000.0
sz300644,南京聚隆,2019-11-14,28.18,29.35,27.95,28.55,28.12,2009200.0,57733205.0,1190583049.65,1827200000.0
sz300644,南京聚隆,2019-11-15,28.5,28.58,28.0,28.2,28.55,863000.0,24379514.0,1175987460.6,1804800000.0
sz300644,南京聚隆,2019-11-18,27.75,27.9,27.25,27.3,28.2,999200.0,27433820.0,1138455945.9,1747200000.0
sz300644,南京聚隆,2019-11-19,27.36,28.49,27.36,28.35,27.3,1197300.0,33580432.0,1182242713.05,1814400000.0
sz300644,南京聚隆,2019-11-20,28.36,28.74,28.0,28.11,28.35,854900.0,24241850.0,1172234309.13,1799040000.0
sz300644,南京聚隆,2019-11-21,28.54,29.6,27.81,28.48,28.11,1790200.0,51606893.0,1187663931.84,1822720000.0
sz300644,南京聚隆,2019-11-22,28.24,28.85,27.86,28.02,28.48,1139000.0,32321162.0,1168481157.66,1793280000.0
sz300644,南京聚隆,2019-11-25,27.91,28.0,27.05,27.34,28.02,881400.0,24141291.0,1140124013.22,1749760000.0
sz300644,南京聚隆,2019-11-26,27.35,27.78,27.16,27.55,27.34,714566.0,19632217.0,1148881366.65,1763200000.0
sz300644,南京聚隆,2019-11-27,27.52,27.7,27.28,27.32,27.55,470866.0,12926838.0,1139289979.56,1748480000.0
sz300644,南京聚隆,2019-11-28,27.32,27.58,26.8,26.8,27.32,610100.0,16557087.0,1117605104.4,1715200000.0
sz300644,南京聚隆,2019-11-29,26.92,27.3,26.92,27.22,26.8,532800.0,14454664.0,1135119811.26,1742080000.0
sz300644,南京聚隆,2019-12-02,27.32,27.37,27.0,27.04,27.22,375300.0,10194421.0,1127613508.32,1730560000.0
sz300644,南京聚隆,2019-12-03,27.06,27.06,26.56,26.97,27.04,653166.0,17493057.0,1124694390.51,1726080000.0
sz300644,南京聚隆,2019-12-04,27.26,28.28,27.26,27.37,26.97,1038600.0,28770997.0,1141375063.71,1751680000.0
sz300644,南京聚隆,2019-12-05,27.1,27.65,27.09,27.43,27.37,701100.0,19180912.0,1143877164.69,1755520000.0
sz300644,南京聚隆,2019-12-06,27.44,27.66,27.28,27.54,27.43,603566.0,16578639.0,1148464349.82,1762560000.0
sz300644,南京聚隆,2019-12-09,27.79,28.07,27.62,27.64,27.54,648566.0,18025080.0,1152634518.12,1768960000.0
sz300644,南京聚隆,2019-12-10,27.64,27.97,27.64,27.79,27.64,688000.0,19146086.0,1158889770.57,1778560000.0
sz300644,南京聚隆,2019-12-11,27.84,27.84,27.41,27.54,27.79,640500.0,17661287.0,1148464349.82,1762560000.0
sz300644,南京聚隆,2019-12-12,27.6,28.18,27.54,27.9,27.54,756100.0,21114405.0,1163476955.7,1785600000.0
sz300644,南京聚隆,2019-12-13,28.36,28.45,27.83,28.04,27.9,637400.0,17841400.0,1169315191.32,1794560000.0
sz300644,南京聚隆,2019-12-16,28.47,28.97,28.13,28.8,28.04,1243059.0,35508666.0,1201008470.4,1843200000.0
sz300644,南京聚隆,2019-12-17,28.68,29.34,28.68,29.16,28.8,1314459.0,38201014.0,1216021076.28,1866240000.0
sz300644,南京聚隆,2019-12-18,29.16,29.47,28.76,29.42,29.16,1468866.0,42758972.0,1226863513.86,1882880000.0
sz300644,南京聚隆,2019-12-19,29.38,29.83,29.06,29.58,29.42,1215759.0,35760049.0,1233535783.14,1893120000.0
sz300644,南京聚隆,2019-12-20,29.75,29.88,28.92,28.98,29.58,1124259.0,32875338.0,1208514773.34,1854720000.0
sz300644,南京聚隆,2019-12-23,28.74,29.2,28.56,28.56,28.98,846000.0,24443479.0,1191000066.48,1827840000.0
sz300644,南京聚隆,2019-12-24,28.5,30.8,28.44,29.99,28.56,1750466.0,51800040.0,1250633473.17,1919360000.0
sz300644,南京聚隆,2019-12-25,29.99,30.6,29.55,29.99,29.99,1625759.0,48792338.0,1250633473.17,1919360000.0
sz300644,南京聚隆,2019-12-26,29.88,30.09,29.57,29.89,29.99,1128125.0,33572930.0,1246463304.87,1912960000.0
sz300644,南京聚隆,2019-12-27,30.01,30.17,29.41,29.5,29.89,1058202.0,31583639.0,1230199648.5,1888000000.0
sz300644,南京聚隆,2019-12-30,29.59,29.93,29.0,29.62,29.5,960164.0,28349875.0,1235203850.46,1895680000.0
sz300644,南京聚隆,2019-12-31,29.6,30.16,29.54,29.66,29.62,843000.0,25114783.0,1236871917.78,1898240000.0
sz300644,南京聚隆,2020-01-02,29.69,30.12,29.69,29.94,29.66,1346925.0,40335722.0,1248548389.02,1916160000.0
sz300644,南京聚隆,2020-01-03,29.83,30.15,29.83,30.05,29.94,1037200.0,31074634.0,1253135574.15,1923200000.0
sz300644,南京聚隆,2020-01-06,29.9,31.26,29.7,30.49,30.05,1912025.0,58284179.0,1271484314.67,1951360000.0
sz300644,南京聚隆,2020-01-07,30.65,31.28,30.3,30.6,30.49,1638300.0,50314260.0,1276071499.8,1958400000.0
sz300644,南京聚隆,2020-01-08,30.59,32.8,30.48,31.16,30.6,2758275.0,86952542.0,1299424442.28,1994240000.0
sz300644,南京聚隆,2020-01-09,31.48,31.88,30.78,31.26,31.16,1964275.0,61249313.0,1303594610.58,2000640000.0
sz300644,南京聚隆,2020-01-10,31.05,31.7,30.61,30.63,31.26,1354825.0,41808123.0,1277322550.29,1960320000.0
sz300644,南京聚隆,2020-01-13,30.69,30.98,30.5,30.87,30.63,792425.0,24349522.0,1287330954.21,1975680000.0
sz300644,南京聚隆,2020-01-14,30.93,31.29,30.66,30.74,30.87,1076000.0,33270757.0,1281909735.42,1967360000.0
sz300644,南京聚隆,2020-01-15,30.67,30.78,30.06,30.37,30.74,965700.0,29264482.0,1266480112.71,1943680000.0
sz300644,南京聚隆,2020-01-16,30.34,30.51,29.81,29.82,30.37,774900.0,23288816.0,1243544187.06,1908480000.0
sz300644,南京聚隆,2020-01-17,29.95,30.18,29.8,29.99,29.82,575425.0,17241228.0,1250633473.17,1919360000.0
sz300644,南京聚隆,2020-01-20,30.05,30.86,30.03,30.67,29.99,962600.0,29334111.0,1278990617.61,1962880000.0
sz300644,南京聚隆,2020-01-21,30.56,30.56,29.95,29.95,30.67,655900.0,19801440.0,1248965405.85,1916800000.0
sz300644,南京聚隆,2020-01-22,29.71,30.19,28.81,29.92,29.95,929875.0,27507794.0,1247714355.36,1914880000.0
sz300644,南京聚隆,2020-01-23,29.89,30.87,29.62,29.93,29.92,1356600.0,41060572.0,1248131372.19,1915520000.0
sz300644,南京聚隆,2020-02-03,26.94,27.37,26.94,26.94,29.93,891700.0,24054909.0,1123443340.02,1724160000.0
sz300644,南京聚隆,2020-02-04,26.62,28.5,26.6,27.38,26.94,1135300.0,31263406.0,1141792080.54,1752320000.0
sz300644,南京聚隆,2020-02-05,27.55,28.51,27.55,28.0,27.38,1346225.0,37842989.0,1167647124.0,1792000000.0
sz300644,南京聚隆,2020-02-06,27.63,28.37,27.31,28.07,28.0,1323900.0,36963669.0,1170566241.81,1796480000.0
sz300644,南京聚隆,2020-02-07,27.96,28.6,27.72,28.59,28.07,1331300.0,37638530.0,1192251116.97,1829760000.0
sz300644,南京聚隆,2020-02-10,28.87,29.45,28.55,29.38,28.59,1353289.0,39367284.0,1225195446.54,1880320000.0
sz300644,南京聚隆,2020-02-11,29.08,29.45,28.7,28.87,29.38,1004800.0,29117413.0,1203927588.21,1847680000.0
sz300644,南京聚隆,2020-02-12,28.65,29.5,28.62,29.35,28.87,1151300.0,33626790.0,1223944396.05,1878400000.0
sz300644,南京聚隆,2020-02-13,29.1,29.5,28.61,28.82,29.35,1022289.0,29585204.0,1201842504.06,1844480000.0
sz300644,南京聚隆,2020-02-14,28.9,29.25,28.63,28.86,28.82,817700.0,23710017.0,1203510571.38,1847040000.0
sz300644,南京聚隆,2020-02-17,28.87,30.95,28.87,30.3,28.86,1981114.0,59275830.0,1263560994.9,1939200000.0
sz300644,南京聚隆,2020-02-18,30.01,30.68,29.85,30.43,30.3,1639700.0,49654862.0,1268982213.69,1947520000.0
sz300644,南京聚隆,2020-02-19,30.43,31.42,30.2,30.8,30.43,2132274.0,66088429.0,1284411836.4,1971200000.0
sz300644,南京聚隆,2020-02-20,30.71,31.91,30.6,31.75,30.8,2268604.0,71472856.0,1324028435.25,2032000000.0
sz300644,南京聚隆,2020-02-21,31.42,31.6,31.1,31.22,31.75,2003389.0,62742746.0,1301926543.26,1998080000.0
sz300644,南京聚隆,2020-02-24,31.0,32.54,30.8,32.4,31.22,2510664.0,79999753.0,1351134529.2,2073600000.0
sz300644,南京聚隆,2020-02-25,31.02,31.4,29.82,31.39,32.4,2742954.0,84823170.0,1309015829.37,2008960000.0
sz300644,南京聚隆,2020-02-26,30.7,31.23,30.2,30.38,31.39,1456653.0,44860064.0,1266897129.54,1944320000.0
sz300644,南京聚隆,2020-02-27,30.38,30.65,29.86,30.27,30.38,1025189.0,31001888.0,1262309944.41,1937280000.0
sz300644,南京聚隆,2020-02-28,29.3,33.3,29.06,31.6,30.27,7943208.0,256448905.0,1317773182.8,2022400000.0
sz300644,南京聚隆,2020-03-02,31.6,34.76,31.12,34.28,31.6,11222447.0,376375004.0,1429533693.24,2193920000.0
sz300644,南京聚隆,2020-03-03,33.1,36.16,32.61,34.14,34.28,10271860.0,349294288.0,1423695457.62,2184960000.0
sz300644,南京聚隆,2020-03-04,33.86,35.99,33.32,35.17,34.14,7902202.0,274911058.0,1466648191.11,2250880000.0
sz300644,南京聚隆,2020-03-05,36.8,38.69,35.6,38.69,35.17,8526770.0,317461104.0,1613438115.27,2476160000.0
sz300644,南京聚隆,2020-03-06,42.0,42.56,40.7,42.56,38.69,3905250.0,164349920.0,1774823628.48,2723840000.0
sz300644,南京聚隆,2020-03-09,45.36,46.82,43.9,46.82,42.56,9737887.0,449034667.0,1952472798.06,2996480000.0
sz300644,南京聚隆,2020-03-10,42.14,43.45,42.14,42.14,46.82,9478506.0,400155321.0,1757308921.62,2696960000.0
sz300644,南京聚隆,2020-03-11,41.03,41.93,37.93,37.95,42.14,10665363.0,421227974.0,1582578869.85,2428800000.0
sz300644,南京聚隆,2020-03-12,38.57,39.14,34.63,35.3,37.95,9781276.0,355374647.0,1472069409.9,2259200000.0
sz300644,南京聚隆,2020-03-13,32.31,33.99,32.31,33.12,35.3,7512102.0,248156696.0,1381159740.96,2119680000.0
sz300644,南京聚隆,2020-03-16,33.48,35.94,33.28,34.22,33.12,9629476.0,333362741.0,1427031592.26,2190080000.0
sz300644,南京聚隆,2020-03-17,33.34,33.96,31.18,32.4,34.22,6673426.0,214738168.0,1351134529.2,2073600000.0
sz300644,南京聚隆,2020-03-18,32.39,33.8,31.7,33.11,32.4,6709826.0,219911255.0,1380742724.13,2119040000.0
sz300644,南京聚隆,2020-03-19,32.16,33.0,31.63,32.71,33.11,4934796.0,159502157.0,1364062050.93,2093440000.0
sz300644,南京聚隆,2020-03-20,33.3,33.65,32.12,32.48,32.71,4744358.0,155740907.0,1354470663.84,2078720000.0
sz300644,南京聚隆,2020-03-23,31.62,31.63,29.23,29.23,32.48,5204663.0,158165922.0,1218940194.09,1870720000.0
sz300644,南京聚隆,2020-03-24,29.78,29.95,28.18,29.52,29.23,4732445.0,138362366.0,1231033682.16,1889280000.0
sz300644,南京聚隆,2020-03-25,30.06,31.27,29.81,30.88,29.52,4814082.0,147360396.0,1287747971.04,1976320000.0
sz300644,南京聚隆,2020-03-26,30.7,31.3,30.32,30.41,30.88,3887189.0,119617669.0,1268148180.03,1946240000.0
sz300644,南京聚隆,2020-03-27,30.6,31.48,29.9,30.8,30.41,4550300.0,139962553.0,1284411836.4,1971200000.0
sz300644,南京聚隆,2020-03-30,30.91,33.22,30.91,32.87,30.8,7687622.0,246997848.0,1370734320.21,2103680000.0
sz300644,南京聚隆,2020-03-31,32.1,32.9,31.6,31.63,32.87,5512502.0,177277254.0,1319024233.29,2024320000.0
sz300644,南京聚隆,2020-04-01,31.38,32.42,30.46,31.04,31.63,4047092.0,127761964.0,1294420240.32,1986560000.0
sz300644,南京聚隆,2020-04-02,30.71,32.33,30.51,32.29,31.04,4235794.0,134253621.0,1346547344.07,2066560000.0
sz300644,南京聚隆,2020-04-03,31.93,33.26,31.86,32.18,32.29,5252102.0,171241386.0,1341960158.94,2059520000.0
sz300644,南京聚隆,2020-04-07,32.7,33.14,32.29,32.85,32.18,4981902.0,162848501.0,1369900286.55,2102400000.0
sz300644,南京聚隆,2020-04-08,32.86,33.68,32.56,32.95,32.85,4458092.0,146838506.0,1374070454.85,2108800000.0
sz300644,南京聚隆,2020-04-09,32.75,33.28,32.52,33.05,32.95,3892752.0,128170217.0,1378240623.15,2115200000.0
sz300644,南京聚隆,2020-04-10,33.08,33.14,30.77,31.0,33.05,4036100.0,128402056.0,1292752173.0,1984000000.0
sz300644,南京聚隆,2020-04-13,31.2,34.1,31.0,34.1,31.0,8811588.0,296009044.0,1422027390.3,2182400000.0
sz300644,南京聚隆,2020-04-14,35.0,36.42,33.5,34.88,34.1,11155785.0,390255784.0,1454554703.04,2232320000.0
sz300644,南京聚隆,2020-04-15,34.89,37.8,34.28,36.38,34.88,9209004.0,329246578.0,1517107227.54,2328320000.0
sz300644,南京聚隆,2020-04-16,35.11,35.79,34.52,34.62,36.38,6099900.0,213726415.0,1443712265.46,2215680000.0
sz300644,南京聚隆,2020-04-17,34.57,34.96,33.0,33.05,34.62,5491500.0,185913054.0,1378240623.15,2115200000.0
sz300644,南京聚隆,2020-04-20,32.98,33.96,32.62,33.79,33.05,3657700.0,122433566.0,1409099868.57,2162560000.0
sz300644,南京聚隆,2020-04-21,33.89,33.89,30.41,32.98,33.79,3586900.0,117664811.0,1375321505.34,2110720000.0
sz300644,南京聚隆,2020-04-22,32.6,32.95,31.5,32.34,32.98,3248467.0,104628537.0,1348632428.22,2069760000.0
sz300644,南京聚隆,2020-04-23,32.33,32.74,31.4,31.49,32.34,3255700.0,104281289.0,1313185997.67,2015360000.0
sz300644,南京聚隆,2020-04-24,31.49,31.9,30.43,30.45,31.49,3224000.0,100354077.0,1269816247.35,1948800000.0
sz300644,南京聚隆,2020-04-27,30.44,30.76,29.89,29.95,30.45,2201200.0,66577912.0,1248965405.85,1916800000.0
sz300644,南京聚隆,2020-04-28,29.61,30.17,27.63,28.7,29.95,2937500.0,84520707.0,1196838302.1,1836800000.0
sz300644,南京聚隆,2020-04-29,28.44,29.16,28.03,28.07,28.7,2103200.0,59828165.0,1170566241.81,1796480000.0
sz300644,南京聚隆,2020-04-30,28.34,29.72,28.2,29.34,28.07,2731500.0,79403813.0,1223527379.22,1877760000.0
sz300644,南京聚隆,2020-05-06,29.0,30.13,28.95,29.95,29.34,1915700.0,56859038.0,1248965405.85,1916800000.0
sz300644,南京聚隆,2020-05-07,30.19,30.19,29.6,29.62,29.95,1657300.0,49485710.0,1235203850.46,1895680000.0
sz300644,南京聚隆,2020-05-08,29.7,30.18,29.62,29.9,29.62,1714200.0,51352178.0,1246880321.7,1913600000.0
sz300644,南京聚隆,2020-05-11,29.9,30.62,29.9,30.47,29.9,1868400.0,56624978.0,1270650281.01,1950080000.0
sz300644,南京聚隆,2020-05-12,30.47,30.6,29.65,30.07,30.47,1536640.0,46112206.0,1253969607.81,1924480000.0
sz300644,南京聚隆,2020-05-13,29.9,31.27,29.76,31.1,30.07,2799800.0,86534498.0,1296922341.3,1990400000.0
sz300644,南京聚隆,2020-05-14,30.7,30.94,30.2,30.24,31.1,1789100.0,54613673.0,1261058893.92,1935360000.0
sz300644,南京聚隆,2020-05-15,30.67,30.67,29.97,30.16,30.24,1333900.0,40383222.0,1257722759.28,1930240000.0
sz300644,南京聚隆,2020-05-18,33.18,33.18,33.18,33.18,30.16,994000.0,32980920.0,1383661841.94,2123520000.0
sz300644,南京聚隆,2020-05-19,36.5,36.5,34.83,36.5,33.18,12040100.0,430107955.0,1522111429.5,2336000000.0
sz300644,南京聚隆,2020-05-20,37.92,40.15,37.0,40.15,36.5,6892594.0,270712137.0,1674322572.45,2569600000.0
sz300644,南京聚隆,2020-05-21,37.5,37.88,36.14,36.14,40.15,6160433.0,226287727.0,1507098823.62,2312960000.0
sz300644,南京聚隆,2020-05-22,33.02,34.0,32.53,32.53,36.14,8497477.0,280942196.0,1356555747.99,2081920000.0
sz300644,南京聚隆,2020-05-25,31.81,32.18,30.01,30.17,32.53,5449829.0,167400741.0,1258139776.11,1930880000.0
sz300644,南京聚隆,2020-05-26,30.2,30.91,30.2,30.67,30.17,3922745.0,119981059.0,1278990617.61,1962880000.0
sz300644,南京聚隆,2020-05-27,30.47,30.8,29.88,30.1,30.67,3753970.0,113294947.0,1255220658.3,1926400000.0
sz300644,南京聚隆,2020-05-28,30.12,30.3,29.0,29.47,30.1,3233586.0,95528543.0,1228948598.01,1886080000.0
sz300644,南京聚隆,2020-05-29,29.4,30.03,29.36,29.6,29.47,2667256.0,79230658.0,1234369816.8,1894400000.0
sz300644,南京聚隆,2020-06-01,29.79,30.57,29.72,30.48,29.6,3350159.0,101585179.0,1271067297.84,1950720000.0
sz300644,南京聚隆,2020-06-02,30.48,30.98,30.31,30.75,30.48,3376500.0,103406231.0,1282326752.25,1968000000.0
sz300644,南京聚隆,2020-06-03,30.9,31.4,30.6,30.82,30.75,3716200.0,115165089.0,1285245870.06,1972480000.0
sz300644,南京聚隆,2020-06-04,30.85,32.46,30.62,31.98,30.82,5072029.0,160180637.0,1333619822.34,2046720000.0
sz300644,南京聚隆,2020-06-05,31.84,31.84,31.02,31.29,31.98,3135259.0,98093511.0,1304845661.07,2002560000.0
sz300644,南京聚隆,2020-06-08,31.4,31.65,30.78,31.43,31.29,2543099.0,79107791.0,1310683896.69,2011520000.0
sz300644,南京聚隆,2020-06-09,31.47,32.6,31.25,32.43,31.43,4535000.0,145244592.0,1352385579.69,2075520000.0
sz300644,南京聚隆,2020-06-10,32.44,32.44,31.65,31.87,32.43,2889800.0,92182484.0,1329032637.21,2039680000.0
sz300644,南京聚隆,2020-06-11,31.58,32.2,31.25,31.44,31.87,2926359.0,92711046.0,1311100913.52,2012160000.0
sz300644,南京聚隆,2020-06-12,30.51,31.73,30.18,31.08,31.44,2394900.0,74529815.0,1296088307.64,1989120000.0
sz300644,南京聚隆,2020-06-15,31.35,32.49,31.14,32.28,31.08,3831000.0,122173002.0,1334273850.96,2065920000.0
sz300644,南京聚隆,2020-06-16,32.55,32.55,31.86,32.15,32.28,2733800.0,87580663.0,1328900381.3,2057600000.0
sz300644,南京聚隆,2020-06-17,32.12,32.97,31.53,32.66,32.15,3897700.0,125886495.0,1349980916.12,2090240000.0
sz300644,南京聚隆,2020-06-18,32.3,32.4,31.75,31.92,32.66,2139426.0,68573980.0,1319393473.44,2042880000.0
sz300644,南京聚隆,2020-06-19,31.98,32.36,31.71,31.9,31.92,1809000.0,57902206.0,1318566785.8,2041600000.0
sz300644,南京聚隆,2020-06-22,31.6,32.07,31.35,31.74,31.9,1933100.0,61352614.0,1311953284.6799998,2031360000.0
sz300644,南京聚隆,2020-06-23,31.68,32.06,31.42,31.44,31.74,1764820.0,55970435.0,1299552970.08,2012160000.0
sz300644,南京聚隆,2020-06-24,31.3,31.68,30.8,30.9,31.24,1703245.0,53056626.0,1277232403.8,1977600000.0
sz300644,南京聚隆,2020-06-29,30.78,31.49,30.55,31.48,30.9,1687404.0,52615456.0,1301206345.36,2014720000.0
sz300644,南京聚隆,2020-06-30,31.56,32.42,31.17,32.1,31.48,2530094.0,80691209.0,1326833662.2,2054400000.0
sz300644,南京聚隆,2020-07-01,32.46,32.46,31.62,31.88,32.1,2112619.0,67381637.0,1317740098.16,2040320000.0
sz300644,南京聚隆,2020-07-02,31.85,32.38,31.7,32.06,31.88,1964229.0,62926079.0,1325180286.9199998,2051840000.0
sz300644,南京聚隆,2020-07-03,32.28,32.5,32.01,32.19,32.06,2342546.0,75486396.0,1330553756.5800002,2060160000.0
sz300644,南京聚隆,2020-07-06,32.15,33.25,32.15,33.16,32.19,3966813.0,129847072.0,1370648107.12,2122240000.0
sz300644,南京聚隆,2020-07-07,33.38,35.88,32.66,34.06,33.16,5509009.0,186907627.0,1407849050.92,2179840000.0
sz300644,南京聚隆,2020-07-08,33.78,35.4,33.67,34.55,34.06,3983589.0,137238297.0,1428102898.1,2211200000.0
sz300644,南京聚隆,2020-07-09,34.4,35.59,34.36,35.12,34.55,4257624.0,148899065.0,1451663495.8400002,2247680000.0
sz300644,南京聚隆,2020-07-10,34.94,35.5,34.49,34.68,35.12,3946115.0,137958150.0,1433476367.76,2219520000.0
sz300644,南京聚隆,2020-07-13,34.75,35.99,34.68,35.81,34.68,3873543.0,137349131.0,1480184219.4199998,2291840000.0
sz300644,南京聚隆,2020-07-14,35.78,36.28,34.21,34.97,35.81,4012243.0,140752622.0,1445463338.54,2238080000.0
sz300644,南京聚隆,2020-07-15,34.63,35.31,33.56,33.61,34.97,2985147.0,102721352.0,1389248579.02,2151040000.0
sz300644,南京聚隆,2020-07-16,33.87,34.09,32.11,32.6,33.61,2453608.0,81449750.0,1347500853.2,2086400000.0
sz300644,南京聚隆,2020-07-17,32.85,32.88,31.96,32.12,32.6,1829619.0,59113158.0,1327660349.84,2055680000.0
sz300644,南京聚隆,2020-07-20,32.35,33.52,32.33,33.48,32.12,1947207.0,64401022.0,1346544909.36,2142720000.0
sz300644,南京聚隆,2020-07-21,33.5,33.82,32.99,33.25,33.48,1331068.0,44260467.0,1337294451.5000002,2128000000.0
sz300644,南京聚隆,2020-07-22,33.34,33.69,33.2,33.26,33.25,1510200.0,50430185.0,1337696645.32,2128640000.0
sz300644,南京聚隆,2020-07-23,33.13,33.48,32.21,33.25,33.26,1689550.0,55518830.0,1337294451.5000002,2128000000.0
sz300644,南京聚隆,2020-07-24,33.08,34.85,32.32,32.45,33.25,3195325.0,107591397.0,1305118945.9,2076800000.0
sz300644,南京聚隆,2020-07-27,31.99,32.45,30.5,30.74,32.45,2670203.0,82824467.0,1236343802.6799998,1967360000.0
sz300644,南京聚隆,2020-07-28,30.7,31.18,30.55,31.1,30.74,1203190.0,37227088.0,1250822780.2,1990400000.0
sz300644,南京聚隆,2020-07-29,30.8,31.86,30.74,31.75,31.1,1377439.0,43292938.0,1276965378.5,2032000000.0
sz300644,南京聚隆,2020-07-30,31.75,32.4,31.51,31.53,31.75,1351003.0,43018943.0,1268117114.46,2017920000.0
sz300644,南京聚隆,2020-07-31,31.74,32.54,31.56,32.42,31.53,1542071.0,49580811.0,1303912364.44,2074880000.0
sz300644,南京聚隆,2020-08-03,32.74,33.16,32.43,32.95,32.42,1657290.0,54460310.0,1325228636.9,2108800000.0
sz300644,南京聚隆,2020-08-04,33.1,33.18,32.07,32.21,32.95,2119614.0,68765929.0,1295466294.22,2061440000.0
sz300644,南京聚隆,2020-08-05,32.21,32.73,31.8,32.51,32.21,1484449.0,47999040.0,1307532108.82,2080640000.0
sz300644,南京聚隆,2020-08-06,32.51,32.74,31.54,32.0,32.51,1657893.0,53115763.0,1287020224.0,2048000000.0
sz300644,南京聚隆,2020-08-07,31.77,32.0,30.73,31.37,32.0,1555858.0,48649422.0,1261682013.34,2007680000.0
sz300644,南京聚隆,2020-08-10,31.34,32.34,31.2,31.91,31.37,1293377.0,41182874.0,1283400479.62,2042240000.0
sz300644,南京聚隆,2020-08-11,31.92,32.28,31.2,31.26,31.91,1148961.0,36365924.0,1257257881.32,2000640000.0
sz300644,南京聚隆,2020-08-12,31.34,31.36,30.35,30.88,31.26,1373900.0,42139803.0,1241974516.16,1976320000.0
sz300644,南京聚隆,2020-08-13,30.98,31.49,30.8,30.97,30.88,930021.0,28942070.0,1245594260.54,1982080000.0
sz300644,南京聚隆,2020-08-14,31.09,31.68,30.91,31.56,30.97,1084302.0,34010344.0,1269323695.92,2019840000.0
sz300644,南京聚隆,2020-08-17,31.71,31.96,31.35,31.83,31.56,1012055.0,32082971.0,1280182929.06,2037120000.0
sz300644,南京聚隆,2020-08-18,32.0,35.01,31.96,35.01,31.83,2454572.0,83989280.0,1408080563.8200002,2240640000.0
sz300644,南京聚隆,2020-08-19,35.01,35.01,33.49,33.86,35.01,6037040.0,206525523.0,1361828274.52,2167040000.0
sz300644,南京聚隆,2020-08-20,33.2,34.39,33.19,33.31,33.86,2504046.0,83895367.0,1339707614.4199998,2131840000.0
sz300644,南京聚隆,2020-08-21,33.33,34.36,33.02,33.68,33.31,2560595.0,86410301.0,1354588785.76,2155520000.0
sz300644,南京聚隆,2020-08-24,33.6,35.28,32.52,34.21,33.68,3671677.0,124610381.0,1375905058.22,2189440000.0
sz300644,南京聚隆,2020-08-25,34.22,35.28,33.5,35.05,34.21,4963545.0,171662170.0,1409689339.1,2243200000.0
sz300644,南京聚隆,2020-08-26,37.13,39.09,35.41,35.49,35.05,8180513.0,305085044.0,1427385867.18,2271360000.0
sz300644,南京聚隆,2020-08-27,35.56,38.5,35.43,36.68,35.49,7007509.0,260357539.0,1475246931.76,2347520000.0
sz300644,南京聚隆,2020-08-28,36.9,39.9,36.9,38.19,36.68,6932665.0,265761096.0,1535978198.58,2444160000.0
sz300644,南京聚隆,2020-08-31,37.4,38.92,36.81,36.88,38.19,4914213.0,184512316.0,1483290808.16,2360320000.0
sz300644,南京聚隆,2020-09-01,36.3,37.99,36.22,37.7,36.88,3940482.0,146839682.0,1516270701.4,2412800000.0
sz300644,南京聚隆,2020-09-02,37.67,39.0,37.05,38.71,37.7,4850627.0,185631120.0,1556892277.22,2477440000.0
sz300644,南京聚隆,2020-09-03,38.71,38.71,36.7,36.89,38.71,3733052.0,139850800.0,1483693001.98,2360960000.0
sz300644,南京聚隆,2020-09-04,35.84,39.1,35.84,38.35,36.89,5145879.0,195817009.0,1542413299.6999998,2454400000.0
sz300644,南京聚隆,2020-09-07,38.51,40.25,37.8,38.34,38.35,5588962.0,219074070.0,1542011105.88,2453760000.0
sz300644,南京聚隆,2020-09-08,38.79,39.68,38.16,39.6,38.34,4108614.0,159866449.0,1592687527.1999998,2534400000.0
sz300644,南京聚隆,2020-09-09,39.0,39.53,37.0,37.23,39.6,4589543.0,175846219.0,1497367591.86,2382720000.0
sz300644,南京聚隆,2020-09-10,37.88,38.33,35.12,35.13,37.23,3951142.0,143370752.0,1412906889.6599998,2248320000.0
sz300644,南京聚隆,2020-09-11,35.46,42.16,35.26,41.69,35.13,7965136.0,309760738.0,1676746035.58,2668160000.0
sz300644,南京聚隆,2020-09-14,41.0,43.56,39.8,43.0,41.69,7723876.0,324103917.0,1729433426.0,2752000000.0
sz300644,南京聚隆,2020-09-15,42.2,42.53,40.08,40.76,43.0,5591452.0,229943554.0,1639342010.3200002,2608640000.0
sz300644,南京聚隆,2020-09-16,40.29,40.75,39.06,40.17,40.76,3951767.0,157593387.0,1615612574.9399998,2570880000.0
sz300644,南京聚隆,2020-09-17,39.94,39.94,38.4,39.45,40.17,3590883.0,140983835.0,1586654619.9,2524800000.0
sz300644,南京聚隆,2020-09-18,39.25,39.99,38.41,39.51,39.45,3324049.0,130443678.0,1589067782.8200002,2528640000.0
sz300644,南京聚隆,2020-09-21,39.3,40.77,38.52,38.61,39.51,2963874.0,116516900.0,1552870339.02,2471040000.0
sz300644,南京聚隆,2020-09-22,38.0,39.18,37.6,37.82,38.61,2462030.0,94353411.0,1521097027.24,2420480000.0
sz300644,南京聚隆,2020-09-23,38.05,38.94,37.72,38.74,37.82,1973526.0,75906667.0,1558098858.68,2479360000.0
sz300644,南京聚隆,2020-09-24,38.02,38.8,36.88,37.0,38.74,2459252.0,92784024.0,1488117134.0,2368000000.0
sz300644,南京聚隆,2020-09-25,37.2,37.65,36.62,36.91,37.0,1498177.0,55651687.0,1484497389.62,2362240000.0
sz300644,南京聚隆,2020-09-28,37.02,37.54,36.55,37.07,36.91,1283065.0,47600231.0,1490932490.74,2372480000.0
sz300644,南京聚隆,2020-09-29,37.19,37.35,36.36,36.94,37.07,1636056.0,60495635.0,1485703971.0800002,2364160000.0
sz300644,南京聚隆,2020-09-30,36.75,37.9,36.55,37.19,36.94,1770596.0,66037074.0,1495758816.58,2380160000.0
sz300644,南京聚隆,2020-10-09,37.99,38.48,37.68,38.08,37.19,2211100.0,84174305.0,1531554066.5600002,2437120000.0
sz300644,南京聚隆,2020-10-12,39.0,40.25,38.9,39.9,38.08,3404654.0,134617880.0,1604753341.8,2553600000.0
sz300644,南京聚隆,2020-10-13,39.5,40.85,39.28,40.05,39.9,3287344.0,132065488.0,1610786249.1,2563200000.0
sz300644,南京聚隆,2020-10-14,40.05,42.92,39.73,42.14,40.05,5192293.0,216713525.0,1694844757.48,2696960000.0
sz300644,南京聚隆,2020-10-15,41.5,50.57,41.5,48.3,42.14,10067808.0,474621614.0,1942596150.6,3091200000.0
sz300644,南京聚隆,2020-10-16,46.39,57.57,45.77,52.2,48.3,12937769.0,648716866.0,2099451740.4,3340800000.0
sz300644,南京聚隆,2020-10-19,50.1,51.5,47.7,48.3,52.2,9380399.0,460243222.0,1942596150.6,3091200000.0
sz300644,南京聚隆,2020-10-20,48.77,49.7,46.73,49.15,48.3,8008001.0,389200603.0,1976782625.3,3145600000.0
sz300644,南京聚隆,2020-10-21,48.89,49.07,44.78,46.59,49.15,7732064.0,359849106.0,1873821007.38,2981760000.0
sz300644,南京聚隆,2020-10-22,45.8,46.7,45.1,45.9,46.59,4773618.0,219230078.0,1846069633.8,2937600000.0
sz300644,南京聚隆,2020-10-23,46.2,46.98,43.2,43.6,45.9,5675481.0,255893097.0,1753565055.2,2790400000.0
sz300644,南京聚隆,2020-10-26,43.28,45.17,43.13,44.6,43.6,4238186.0,187707544.0,1793784437.2,2854400000.0
sz300644,南京聚隆,2020-10-27,44.5,45.15,43.5,43.82,44.6,3668187.0,161849034.0,1762413319.24,2804480000.0
sz300644,南京聚隆,2020-10-28,42.97,44.3,41.26,43.57,43.82,4981027.0,213018727.0,1752358473.74,2788480000.0
sz300644,南京聚隆,2020-10-29,42.71,43.55,42.3,42.94,43.57,3265229.0,140333482.0,1727020263.08,2748160000.0
sz300644,南京聚隆,2020-10-30,43.99,44.5,41.8,42.1,42.94,4940893.0,212387170.0,1693235982.2,2694400000.0
sz300644,南京聚隆,2020-11-02,42.1,42.75,41.03,42.73,42.1,3309188.0,139677604.0,1718574192.86,2734720000.0
sz300644,南京聚隆,2020-11-03,43.17,44.88,42.52,44.88,42.73,5225059.0,228658526.0,1805045864.16,2872320000.0
sz300644,南京聚隆,2020-11-04,45.0,45.8,43.99,45.17,44.88,4922451.0,220191444.0,1816709484.94,2890880000.0
sz300644,南京聚隆,2020-11-05,45.9,48.0,44.8,47.75,45.17,6399274.0,297806720.0,1920475490.5,3056000000.0
sz300644,南京聚隆,2020-11-06,48.15,52.98,45.15,45.28,47.75,8040929.0,391315106.0,1821133616.96,2897920000.0
sz300644,南京聚隆,2020-11-09,45.0,47.98,44.95,46.05,45.28,5186685.0,237952789.0,1852102541.1,2947200000.0
sz300644,南京聚隆,2020-11-10,45.95,46.0,42.3,42.52,46.05,5188990.0,224777597.0,1710128122.64,2721280000.0
sz300644,南京聚隆,2020-11-11,42.52,42.9,41.01,41.14,42.52,3057061.0,127580212.0,1654625375.48,2632960000.0
sz300644,南京聚隆,2020-11-12,41.33,41.97,40.81,41.75,41.14,1790000.0,74237523.0,1679159198.5,2672000000.0
sz300644,南京聚隆,2020-11-13,42.1,43.45,41.82,43.14,41.75,2862200.0,122639025.0,1735064139.48,2760960000.0
sz300644,南京聚隆,2020-11-16,43.49,43.94,41.33,41.98,43.14,2580635.0,109090540.0,1688409656.36,2686720000.0
sz300644,南京聚隆,2020-11-17,41.89,41.9,40.3,40.93,41.98,2308550.0,94289446.0,1646179305.2600002,2619520000.0
sz300644,南京聚隆,2020-11-18,40.82,42.08,40.67,41.59,40.93,1622700.0,67192505.0,1672724097.38,2661760000.0
sz300644,南京聚隆,2020-11-19,41.82,41.9,40.87,41.61,41.59,1779479.0,73838196.0,1673528485.02,2663040000.0
sz300644,南京聚隆,2020-11-20,41.88,42.82,41.3,42.32,41.61,2570351.0,108459138.0,1702084246.24,2708480000.0
sz300644,南京聚隆,2020-11-23,42.68,45.46,42.02,45.27,42.32,5350358.0,236000103.0,1820731423.14,2897280000.0
sz300644,南京聚隆,2020-11-24,44.88,45.49,43.91,45.25,45.27,4577873.0,204583479.0,1819927035.5,2896000000.0
sz300644,南京聚隆,2020-11-25,45.02,46.68,44.18,45.31,45.25,4263468.0,194870478.0,1822340198.42,2899840000.0
sz300644,南京聚隆,2020-11-26,45.6,45.6,41.75,42.08,45.31,4098955.0,176988907.0,1692431594.56,2693120000.0
sz300644,南京聚隆,2020-11-27,41.75,42.17,39.07,39.6,42.08,3831600.0,154607387.0,1592687527.1999998,2534400000.0
sz300644,南京聚隆,2020-11-30,39.6,40.39,39.02,39.03,39.6,1929500.0,76542340.0,1569762479.4599998,2497920000.0
sz300644,南京聚隆,2020-12-01,39.11,40.17,39.0,39.79,39.03,1752450.0,69458686.0,1600329209.7800002,2546560000.0
sz300644,南京聚隆,2020-12-02,40.0,40.26,39.13,40.01,39.79,2031773.0,80580891.0,1609177473.82,2560640000.0
sz300644,南京聚隆,2020-12-03,39.81,39.95,39.19,39.55,40.01,1422200.0,56313939.0,1590676558.1,2531200000.0
sz300644,南京聚隆,2020-12-04,39.2,40.43,39.2,39.92,39.55,1524671.0,60961440.0,1605557729.44,2554880000.0
sz300644,南京聚隆,2020-12-07,40.19,40.19,39.16,39.19,39.92,1362157.0,53822628.0,1576197580.5800002,2508160000.0
sz300644,南京聚隆,2020-12-08,39.21,40.17,39.1,40.03,39.19,1472795.0,58548637.0,1609981861.46,2561920000.0
sz300644,南京聚隆,2020-12-09,40.28,40.28,38.05,38.09,40.03,1781829.0,69540317.0,1531956260.38,2437760000.0
sz300644,南京聚隆,2020-12-10,37.87,38.4,36.85,37.43,38.09,1690300.0,63096648.0,1505411468.2600002,2395520000.0
sz300644,南京聚隆,2020-12-11,37.43,37.94,35.8,36.35,37.43,1560057.0,57162662.0,1461974535.7,2326400000.0
sz300644,南京聚隆,2020-12-14,36.7,37.29,36.08,36.98,36.35,973234.0,35830539.0,1487312746.36,2366720000.0
sz300644,南京聚隆,2020-12-15,36.86,37.31,36.63,36.8,36.98,711200.0,26245338.0,1480073257.6,2355200000.0
sz300644,南京聚隆,2020-12-16,36.81,37.16,35.63,35.66,36.8,1088111.0,39170841.0,1434223162.12,2282240000.0
sz300644,南京聚隆,2020-12-17,35.65,36.55,34.93,36.23,35.66,1299174.0,46499317.0,1457148209.86,2318720000.0
sz300644,南京聚隆,2020-12-18,36.39,37.8,36.11,37.06,36.23,1804057.0,66899757.0,1490530296.92,2371840000.0
sz300644,南京聚隆,2020-12-21,36.81,38.29,36.5,37.79,37.06,1579302.0,59631413.0,1519890445.78,2418560000.0
sz300644,南京聚隆,2020-12-22,37.97,39.42,37.33,38.83,37.79,2692500.0,103901022.0,1561718603.06,2485120000.0
sz300644,南京聚隆,2020-12-23,38.23,38.92,37.29,37.77,38.83,1931374.0,73274819.0,1519086058.14,2417280000.0
sz300644,南京聚隆,2020-12-24,37.5,37.59,35.63,35.63,37.77,1828392.0,66530235.0,1433016580.66,2280320000.0
sz300644,南京聚隆,2020-12-25,36.0,38.99,35.63,37.6,35.63,2587898.0,97999400.0,1512248763.2,2406400000.0
sz300644,南京聚隆,2020-12-28,37.69,37.96,35.86,36.09,37.6,1977500.0,72377315.0,1451517496.38,2309760000.0
sz300644,南京聚隆,2020-12-29,36.0,36.69,35.38,36.15,36.09,1288900.0,46504989.0,1453930659.3000002,2313600000.0
sz300644,南京聚隆,2020-12-30,36.05,36.29,35.32,35.34,36.15,1375574.0,49201977.0,1421352959.88,2261760000.0
sz300644,南京聚隆,2020-12-31,35.55,36.1,35.45,35.68,35.34,1024862.0,36646659.0,1435027549.76,2283520000.0
sz300644,南京聚隆,2021-01-04,35.79,37.44,35.4,37.36,35.68,1867700.0,68738715.0,1502596111.52,2391040000.0
sz300644,南京聚隆,2021-01-05,37.0,38.15,36.7,36.98,37.36,1551535.0,57713914.0,1487312746.36,2366720000.0
sz300644,南京聚隆,2021-01-06,37.0,37.2,35.68,35.96,36.98,1452400.0,52500407.0,1446288976.72,2301440000.0
sz300644,南京聚隆,2021-01-07,36.21,36.22,32.9,33.04,35.96,2449831.0,83590788.0,1328848381.28,2114560000.0
sz300644,南京聚隆,2021-01-08,33.09,33.55,31.68,32.64,33.04,1436368.0,46685953.0,1312760628.48,2088960000.0
sz300644,南京聚隆,2021-01-11,32.64,33.38,31.18,31.22,32.64,1356700.0,42972104.0,1255649106.04,1998080000.0
sz300644,南京聚隆,2021-01-12,31.28,32.75,31.28,31.81,31.22,1278534.0,41105040.0,1279378541.42,2035840000.0
sz300644,南京聚隆,2021-01-13,31.73,31.8,29.72,30.27,31.81,1785657.0,54361988.0,1217440693.14,1937280000.0
sz300644,南京聚隆,2021-01-14,30.31,31.64,29.95,31.07,30.27,1475581.0,45550489.0,1249616198.74,1988480000.0
sz300644,南京聚隆,2021-01-15,31.02,32.69,30.86,32.27,31.07,1594500.0,51310984.0,1297879457.14,2065280000.0
sz300644,南京聚隆,2021-01-18,32.07,33.75,32.07,33.12,32.27,1449396.0,48167922.0,1332065931.84,2119680000.0
sz300644,南京聚隆,2021-01-19,33.05,34.48,33.01,34.08,33.12,1779850.0,60289119.0,1370676538.56,2181120000.0
sz300644,南京聚隆,2021-01-20,34.09,35.5,33.65,35.06,34.08,2039630.0,70675174.0,1410091532.92,2243840000.0
sz300644,南京聚隆,2021-01-21,34.81,35.34,34.58,34.96,35.06,1473000.0,51431596.0,1406069594.7199998,2237440000.0
sz300644,南京聚隆,2021-01-22,36.0,36.39,34.66,34.66,34.96,2024000.0,71635526.0,1394003780.12,2218240000.0
sz300644,南京聚隆,2021-01-25,33.99,35.5,33.49,34.23,34.66,1524319.0,52445179.0,1376709445.86,2190720000.0
sz300644,南京聚隆,2021-01-26,33.9,35.38,33.74,34.23,34.23,1062119.0,36811615.0,1376709445.86,2190720000.0
sz300644,南京聚隆,2021-01-27,34.34,36.17,34.26,35.66,34.23,1975187.0,69909330.0,1434223162.12,2282240000.0
sz300644,南京聚隆,2021-01-28,35.24,35.48,33.99,33.99,35.66,1434556.0,49735245.0,1367056794.18,2175360000.0
sz300644,南京聚隆,2021-01-29,34.23,34.9,32.18,32.75,33.99,1432400.0,47198792.0,1317184760.5,2096000000.0
sz300644,南京聚隆,2021-02-01,33.24,33.31,32.0,32.84,32.75,942800.0,30736057.0,1320804504.88,2101760000.0
sz300644,南京聚隆,2021-02-02,32.57,33.27,32.25,32.36,32.84,863000.0,28190189.0,1301499201.52,2071040000.0
sz300644,南京聚隆,2021-02-03,32.49,32.56,31.0,31.31,32.36,1065000.0,33582586.0,1262086750.42,2003840000.0
sz300644,南京聚隆,2021-02-04,30.7,31.65,29.9,30.34,31.31,887294.0,26953627.0,1222986649.88,1941760000.0
sz300644,南京聚隆,2021-02-05,30.7,32.58,30.26,32.12,30.34,1681400.0,53439208.0,1294737349.84,2055680000.0
sz300644,南京聚隆,2021-02-08,32.05,32.5,30.64,30.8,32.12,1250300.0,38929619.0,1928317129.2,1971200000.0
sz300644,南京聚隆,2021-02-09,31.0,31.58,30.3,31.27,30.8,945600.0,29410546.0,1778758208.39,2001280000.0
sz300644,南京聚隆,2021-02-10,31.16,31.59,30.69,31.18,31.27,1014300.0,31515064.0,1773638661.26,1995520000.0
sz300644,南京聚隆,2021-02-18,31.79,32.62,31.31,32.2,31.18,1108400.0,35696518.0,1831660195.4,2060800000.0
sz300644,南京聚隆,2021-02-19,32.5,33.85,32.32,33.74,32.2,1733500.0,57916065.0,1919261335.18,2159360000.0
sz300644,南京聚隆,2021-02-22,33.6,35.04,33.28,34.11,33.74,1921000.0,66046425.0,1940308362.27,2183040000.0
sz300644,南京聚隆,2021-02-23,34.36,34.58,32.93,33.01,34.11,1511886.0,50730697.0,1877736119.57,2112640000.0
sz300644,南京聚隆,2021-02-24,33.12,33.67,32.83,33.09,33.01,1218400.0,40531506.0,1882286828.13,2117760000.0
sz300644,南京聚隆,2021-02-25,33.45,33.45,32.22,32.33,33.09,1047500.0,34118832.0,1839055096.81,2069120000.0
sz300644,南京聚隆,2021-02-26,31.97,32.91,31.77,32.35,32.33,889000.0,28894922.0,1840192773.95,2070400000.0
sz300644,南京聚隆,2021-03-01,33.45,33.94,32.64,33.55,32.35,1113600.0,37249201.0,1908453402.35,2147200000.0
sz300644,南京聚隆,2021-03-02,33.7,33.9,32.98,33.29,33.55,804800.0,26709623.0,1893663599.53,2130560000.0
sz300644,南京聚隆,2021-03-03,32.19,33.34,32.19,33.34,33.29,952900.0,31306909.0,1896507792.38,2133760000.0
sz300644,南京聚隆,2021-03-04,32.93,33.7,32.68,32.89,33.34,885931.0,29404551.0,1870910056.73,2104960000.0
sz300644,南京聚隆,2021-03-05,32.82,33.94,32.61,33.73,32.89,1234800.0,41430449.0,1918692496.61,2158720000.0
sz300644,南京聚隆,2021-03-08,34.18,34.57,33.22,33.33,33.73,1180000.0,39959510.0,1895938953.81,2133120000.0
sz300644,南京聚隆,2021-03-09,33.2,33.52,31.56,31.7,33.33,1152200.0,37410467.0,1803218266.9,2028800000.0
sz300644,南京聚隆,2021-03-10,31.99,33.18,31.58,32.82,31.7,1556200.0,50620803.0,1866928186.74,2100480000.0
sz300644,南京聚隆,2021-03-11,32.91,33.92,32.5,33.79,32.82,1292127.0,43187771.0,1922105528.03,2162560000.0
sz300644,南京聚隆,2021-03-12,33.79,34.45,33.5,34.4,33.79,1611000.0,54886865.0,1956804680.8,2201600000.0
sz300644,南京聚隆,2021-03-15,34.77,35.0,33.7,34.03,34.4,1837338.0,63151787.0,1935757653.71,2177920000.0
sz300644,南京聚隆,2021-03-16,34.33,35.28,34.03,34.83,34.03,1350200.0,46865275.0,1981264739.31,2229120000.0
sz300644,南京聚隆,2021-03-17,35.1,35.55,34.35,35.29,34.83,1664550.0,58326689.0,2007431313.53,2258560000.0
sz300644,南京聚隆,2021-03-18,35.25,36.33,34.74,34.92,35.29,1972000.0,69966713.0,1986384286.44,2234880000.0
sz300644,南京聚隆,2021-03-19,34.5,35.6,34.18,35.0,34.92,1340700.0,46931656.0,1990934995.0,2240000000.0
sz300644,南京聚隆,2021-03-22,35.1,35.97,34.66,35.93,35.0,1437857.0,50975010.0,2043836982.01,2299520000.0
sz300644,南京聚隆,2021-03-23,36.0,38.71,35.46,35.94,35.93,3275248.0,121218081.0,2044405820.58,2300160000.0
sz300644,南京聚隆,2021-03-24,35.22,36.0,34.4,35.0,35.94,1711050.0,60108469.0,1990934995.0,2240000000.0
sz300644,南京聚隆,2021-03-25,34.51,35.16,34.14,34.25,35.0,1062200.0,36773833.0,1948272102.25,2192000000.0
sz300644,南京聚隆,2021-03-26,34.33,35.85,34.3,35.65,34.25,1387300.0,48833394.0,2027909502.05,2281600000.0
sz300644,南京聚隆,2021-03-29,35.51,36.13,34.0,34.12,35.65,1797850.0,62470370.0,1940877200.84,2183680000.0
sz300644,南京聚隆,2021-03-30,34.08,34.14,32.54,32.64,34.12,2336327.0,77272587.0,1856689092.48,2088960000.0
sz300644,南京聚隆,2021-03-31,32.63,32.93,31.92,32.24,32.64,1285800.0,41488763.0,1833935549.68,2063360000.0
sz300644,南京聚隆,2021-04-01,32.2,32.29,31.64,31.92,32.24,1186400.0,37853536.0,1815732715.44,2042880000.0
sz300644,南京聚隆,2021-04-02,31.99,32.46,31.81,32.36,31.92,978100.0,31539374.0,1840761612.52,2071040000.0
sz300644,南京聚隆,2021-04-06,32.36,32.86,32.34,32.73,32.36,884300.0,28803811.0,1861808639.61,2094720000.0
sz300644,南京聚隆,2021-04-07,32.74,32.75,32.28,32.59,32.73,741100.0,24058106.0,1853844899.63,2085760000.0
sz300644,南京聚隆,2021-04-08,32.48,32.64,31.98,32.11,32.59,959300.0,31029505.0,1826540648.27,2055040000.0
sz300644,南京聚隆,2021-04-09,32.05,32.47,32.02,32.3,32.11,531688.0,17117342.0,1837348581.1,2067200000.0
sz300644,南京聚隆,2021-04-12,32.45,32.45,31.09,31.35,32.3,985445.0,31151783.0,1783308916.95,2006400000.0
sz300644,南京聚隆,2021-04-13,31.37,31.5,30.8,31.06,31.35,655300.0,20308720.0,1766812598.42,1987840000.0
sz300644,南京聚隆,2021-04-14,31.25,31.88,30.91,31.75,31.06,694100.0,21918283.0,1806062459.75,2032000000.0
sz300644,南京聚隆,2021-04-15,31.6,31.63,31.17,31.44,31.75,630105.0,19785662.0,1788428464.0800002,2012160000.0
sz300644,南京聚隆,2021-04-16,31.4,32.45,31.4,32.33,31.44,1010100.0,32432000.0,1839055096.81,2069120000.0
sz300644,南京聚隆,2021-04-19,32.22,32.94,32.22,32.77,32.33,960200.0,31342942.0,1864083993.89,2097280000.0
sz300644,南京聚隆,2021-04-20,32.63,33.2,32.63,32.73,32.77,915427.0,30076564.0,1861808639.61,2094720000.0
sz300644,南京聚隆,2021-04-21,32.6,33.17,32.43,32.84,32.73,655800.0,21507855.0,1868065863.88,2101760000.0
sz300644,南京聚隆,2021-04-22,32.95,33.64,32.8,33.6,32.84,988357.0,33025766.0,1911297595.2,2150400000.0
sz300644,南京聚隆,2021-04-23,33.55,34.5,33.28,34.28,33.6,2060205.0,70080327.0,1949978617.96,2193920000.0
sz300644,南京聚隆,2021-04-26,35.75,35.75,33.53,33.63,34.28,2051410.0,70665088.0,1913004110.91,2152320000.0
sz300644,南京聚隆,2021-04-27,33.58,34.92,33.58,33.84,33.63,1336865.0,45811905.0,1924949720.88,2165760000.0
sz300644,南京聚隆,2021-04-28,33.7,34.15,33.1,33.69,33.84,951802.0,32088119.0,1916417142.33,2156160000.0
sz300644,南京聚隆,2021-04-29,33.51,34.35,33.51,33.62,33.69,865000.0,29310013.0,1912435272.34,2151680000.0
sz300644,南京聚隆,2021-04-30,33.5,34.35,33.5,34.19,33.62,981702.0,33347475.0,1944859070.83,2188160000.0
sz300644,南京聚隆,2021-05-06,34.8,34.8,33.2,33.38,34.19,1400500.0,47690613.0,1898783146.66,2136320000.0
sz300644,南京聚隆,2021-05-07,33.54,33.94,32.68,32.75,33.38,1008401.0,33317222.0,1862946316.75,2096000000.0
sz300644,南京聚隆,2021-05-10,32.63,33.04,31.88,32.1,32.75,851050.0,27518624.0,1825971809.7,2054400000.0
sz300644,南京聚隆,2021-05-11,32.03,32.4,31.6,32.29,32.1,605980.0,19481419.0,1836779742.53,2066560000.0
sz300644,南京聚隆,2021-05-12,32.32,32.64,31.8,32.48,32.29,598772.0,19323739.0,1847587675.36,2078720000.0
sz300644,南京聚隆,2021-05-13,32.48,33.04,32.3,32.8,32.48,818112.0,26792435.0,1865790509.6,2099200000.0
sz300644,南京聚隆,2021-05-14,32.68,33.27,32.13,32.7,32.8,1097708.0,35871654.0,1860102123.9,2092800000.0
sz300644,南京聚隆,2021-05-17,32.79,32.79,31.86,31.94,32.7,876900.0,28159460.0,1816870392.58,2044160000.0
sz300644,南京聚隆,2021-05-18,32.14,32.22,31.61,32.21,31.94,545448.0,17462249.0,1832229033.97,2061440000.0
sz300644,南京聚隆,2021-05-19,32.37,32.48,32.08,32.29,32.21,616700.0,19920370.0,1836779742.53,2066560000.0
sz300644,南京聚隆,2021-05-20,32.35,32.89,31.92,32.52,32.29,876997.0,28393191.0,1849863029.64,2081280000.0
sz300644,南京聚隆,2021-05-21,32.45,33.52,32.4,33.33,32.52,1268668.0,41955817.0,1895938953.81,2133120000.0
sz300644,南京聚隆,2021-05-24,33.33,33.78,32.9,33.26,33.33,723510.0,24041006.0,1891957083.82,2128640000.0
sz300644,南京聚隆,2021-05-25,33.27,33.6,32.91,33.4,33.26,826000.0,27407470.0,1899920823.8,2137600000.0
sz300644,南京聚隆,2021-05-26,33.68,35.55,33.52,35.34,33.4,3402043.0,118690734.0,2010275506.38,2261760000.0
sz300644,南京聚隆,2021-05-27,35.12,35.14,34.3,34.52,35.34,2102792.0,72671900.0,1963630743.64,2209280000.0
sz300644,南京聚隆,2021-05-28,34.55,34.7,34.17,34.25,34.52,1157541.0,39775932.0,1948272102.25,2192000000.0
sz300644,南京聚隆,2021-05-31,34.19,34.32,33.71,34.26,34.25,1239124.0,42117084.0,1948840940.82,2192640000.0
sz300644,南京聚隆,2021-06-01,34.06,34.66,34.04,34.64,34.26,1171612.0,40283171.0,1970456806.48,2216960000.0
sz300644,南京聚隆,2021-06-02,34.52,34.52,34.15,34.22,34.64,935170.0,32081724.0,1946565586.54,2190080000.0
sz300644,南京聚隆,2021-06-03,34.16,34.87,34.12,34.47,34.22,1170967.0,40530628.0,1960786550.79,2206080000.0
sz300644,南京聚隆,2021-06-04,34.45,35.01,34.2,34.4,34.47,1095807.0,37894774.0,1956804680.8,2201600000.0
sz300644,南京聚隆,2021-06-07,34.4,34.67,34.15,34.65,34.4,861385.0,29641222.0,1971025645.05,2217600000.0
sz300644,南京聚隆,2021-06-08,34.63,35.08,34.51,35.06,34.65,1062472.0,36956252.0,1994348026.42,2243840000.0
sz300644,南京聚隆,2021-06-09,35.0,35.19,34.4,34.51,35.06,893846.0,31063554.0,1963061905.07,2208640000.0
sz300644,南京聚隆,2021-06-10,34.53,35.06,34.4,34.9,34.51,1032028.0,35904376.0,1985246609.3,2233600000.0
sz300644,南京聚隆,2021-06-11,34.9,35.96,34.73,35.91,34.9,2212425.0,78646908.0,2042699304.87,2298240000.0
sz300644,南京聚隆,2021-06-15,35.88,36.66,35.21,35.38,35.91,1651136.0,58823618.0,2012550860.66,2264320000.0
sz300644,南京聚隆,2021-06-16,35.05,36.05,34.91,35.36,35.38,1304673.0,46467728.0,2011413183.52,2263040000.0
sz300644,南京聚隆,2021-06-17,35.26,35.83,34.54,34.96,35.36,1142233.0,40144634.0,1988659640.72,2237440000.0
sz300644,南京聚隆,2021-06-18,34.96,36.11,34.73,36.11,34.96,1412638.0,50172829.0,2054076076.27,2311040000.0
sz300644,南京聚隆,2021-06-21,36.36,36.96,35.81,36.93,36.11,1682043.0,61315132.0,2100720839.01,2363520000.0
sz300644,南京聚隆,2021-06-22,37.0,37.11,36.11,36.32,36.93,1323892.0,48288699.0,2066021686.24,2324480000.0
sz300644,南京聚隆,2021-06-23,36.4,36.99,36.12,36.94,36.32,1242081.0,45575809.0,2101289677.58,2364160000.0
sz300644,南京聚隆,2021-06-24,36.93,36.93,36.16,36.3,36.94,995122.0,36247212.0,2064884009.1,2323200000.0
sz300644,南京聚隆,2021-06-25,36.15,36.5,34.96,35.4,36.3,1469800.0,52017672.0,2013688537.8,2265600000.0
sz300644,南京聚隆,2021-06-28,35.34,35.99,35.34,35.84,35.4,928821.0,33235316.0,1990328345.6,2293760000.0
sz300644,南京聚隆,2021-06-29,36.09,36.33,34.41,34.54,35.84,1945759.0,68423263.0,1918134516.1,2210560000.0
sz300644,南京聚隆,2021-06-30,34.76,35.25,34.5,35.09,34.54,938105.0,32724176.0,1948678059.35,2245760000.0
sz300644,南京聚隆,2021-07-01,35.1,35.1,34.13,34.4,35.09,1028582.0,35543305.0,1910359796.0,2201600000.0
sz300644,南京聚隆,2021-07-02,34.16,34.88,34.15,34.52,34.4,937772.0,32375852.0,1917023841.8,2209280000.0
sz300644,南京聚隆,2021-07-05,34.6,35.53,34.6,34.91,34.52,1845735.0,64641272.0,1938681990.65,2234240000.0
sz300644,南京聚隆,2021-07-06,20.38,20.95,20.12,20.63,20.36,2872296.0,59198017.0,1947189678.45,2244110770.0
sz300644,南京聚隆,2021-07-07,20.28,20.88,20.18,20.42,20.63,2230968.0,45561513.0,1927368552.3,2221267180.0
sz300644,南京聚隆,2021-07-08,20.4,20.47,19.33,19.35,20.42,3191838.0,62944856.0,1826375195.25,2104873650.0
sz300644,南京聚隆,2021-07-09,19.34,19.56,18.74,19.55,19.35,2687621.0,51584846.0,1845252458.25,2126629450.0
sz300644,南京聚隆,2021-07-12,19.45,20.79,19.42,20.7,19.55,4618497.0,93617942.0,1953796720.5,2251725300.0
sz300644,南京聚隆,2021-07-13,20.75,21.27,20.41,21.0,20.7,3745708.0,78518178.0,1982112615.0,2284359000.0
sz300644,南京聚隆,2021-07-14,21.09,21.11,20.6,20.67,21.0,2580003.0,53912510.0,1950965131.05,2248461930.0
sz300644,南京聚隆,2021-07-15,20.6,20.78,19.3,19.48,20.67,3513759.0,69526854.0,1838645416.2,2119014920.0
sz300644,南京聚隆,2021-07-16,19.45,19.68,18.93,19.01,19.48,2578753.0,49581022.0,1794283848.15,2067888790.0
sz300644,南京聚隆,2021-07-19,18.94,19.28,18.8,19.06,19.01,1778665.0,33933170.0,1810489672.9,2073327740.0
sz300644,南京聚隆,2021-07-20,19.06,19.22,18.41,19.1,19.06,2347882.0,44004472.0,1814289231.5,2077678900.0
sz300644,南京聚隆,2021-07-21,19.02,19.42,19.02,19.27,19.1,2144048.0,41157020.0,1830437355.55,2096171330.0
sz300644,南京聚隆,2021-07-22,19.13,19.66,19.1,19.54,19.27,2105314.0,40932619.0,1856084376.1,2125541660.0
sz300644,南京聚隆,2021-07-23,19.54,19.64,18.61,18.75,19.54,2516571.0,47884407.0,1781043093.75,2039606250.0
sz300644,南京聚隆,2021-07-26,18.64,18.96,18.5,18.64,18.75,1625454.0,30413918.0,1770594307.6,2027640560.0
sz300644,南京聚隆,2021-07-27,18.8,19.11,18.4,18.42,18.64,2066076.0,38770253.0,1749696735.3,2003709180.0
sz300644,南京聚隆,2021-07-28,18.41,18.42,17.35,17.65,18.42,1973680.0,34962056.0,1676555232.25,1919949350.0
sz300644,南京聚隆,2021-07-29,17.9,18.12,17.8,17.98,17.65,1385650.0,24867864.0,1707901590.7,1955846420.0
sz300644,南京聚隆,2021-07-30,17.93,18.52,17.82,18.3,17.98,1726494.0,31465719.0,1738298059.5,1990655700.0
sz300644,南京聚隆,2021-08-02,18.09,18.96,17.8,18.77,18.3,2235363.0,41582428.0,1782942873.05,2041781830.0
sz300644,南京聚隆,2021-08-03,18.77,19.82,18.71,19.33,18.77,3355374.0,65118933.0,1836136693.45,2102698070.0
sz300644,南京聚隆,2021-08-04,19.1,20.83,19.1,20.5,19.33,5095820.0,103233264.0,1947273782.5,2229969500.0
sz300644,南京聚隆,2021-08-05,20.29,20.29,19.43,19.79,20.5,3638947.0,72147803.0,1879831617.35,2152736410.0
sz300644,南京聚隆,2021-08-06,19.61,19.89,19.23,19.48,19.79,2165376.0,42164808.0,1850385038.2,2119014920.0
sz300644,南京聚隆,2021-08-09,19.83,23.38,19.78,23.38,19.48,10515006.0,229393151.0,2220842001.7,2543253020.0
sz300644,南京聚隆,2021-08-10,24.46,27.3,24.2,25.08,23.38,23929499.0,609229803.0,2382323242.2000003,2728177320.0
sz300644,南京聚隆,2021-08-11,23.32,24.87,23.15,23.8,25.08,16186939.0,384241114.0,2260737367.0,2588940200.0
sz300644,南京聚隆,2021-08-12,23.71,23.9,22.4,22.48,23.8,12706644.0,290377441.0,2135351933.2,2445351920.0
sz300644,南京聚隆,2021-08-13,22.47,23.22,22.06,22.9,22.48,9734429.0,219991564.0,2175247298.5,2491039100.0
sz300644,南京聚隆,2021-08-16,22.8,22.88,21.61,22.18,22.9,8117463.0,179478270.0,2106855243.7,2412718220.0
sz300644,南京聚隆,2021-08-17,21.88,22.12,20.87,21.14,22.18,6332057.0,135926119.0,2008066720.1,2299588060.0
sz300644,南京聚隆,2021-08-18,21.2,21.71,21.13,21.66,21.14,4961265.0,106652445.0,2057460981.9,2356153140.0
sz300644,南京聚隆,2021-08-19,21.5,22.09,21.01,21.8,21.66,6051458.0,130463976.0,2070759437.0,2371382200.0
sz300644,南京聚隆,2021-08-20,21.08,21.08,19.88,20.22,21.8,7044676.0,143118123.0,1920676872.3,2199511380.0
sz300644,南京聚隆,2021-08-23,20.23,20.69,20.19,20.57,20.22,4443008.0,91056046.0,1953923010.05,2237584030.0
sz300644,南京聚隆,2021-08-24,20.5,21.37,20.37,21.22,20.57,6179597.0,129799932.0,2015665837.3,2308290380.0
sz300644,南京聚隆,2021-08-25,21.48,22.77,20.82,22.24,21.22,9844200.0,215762698.0,2112554581.6,2419244960.0
sz300644,南京聚隆,2021-08-26,21.81,22.2,21.43,21.56,22.24,6602113.0,143854729.0,2047962085.4,2345275240.0
sz300644,南京聚隆,2021-08-27,21.78,22.28,20.62,20.79,21.56,4853393.0,102062675.0,1974820582.35,2261515410.0
sz300644,南京聚隆,2021-08-30,20.97,21.54,20.75,21.21,20.79,3705059.0,77990422.0,2014715947.65,2307202590.0
sz300644,南京聚隆,2021-08-31,21.26,21.27,19.57,19.96,21.21,4895816.0,98695145.0,1895979741.4,2171228840.0
sz300644,南京聚隆,2021-09-01,19.9,20.15,19.16,19.31,19.96,3226292.0,63098684.0,1834236914.15,2100522490.0
sz300644,南京聚隆,2021-09-02,19.31,19.82,19.03,19.77,19.31,2301202.0,45039572.0,1877931838.05,2150560830.0
sz300644,南京聚隆,2021-09-03,19.65,20.08,19.6,19.66,19.77,2250445.0,44562772.0,1867483051.9,2138595140.0
sz300644,南京聚隆,2021-09-06,19.65,20.06,19.47,20.0,19.66,2078791.0,41130951.0,1899779300.0,2175580000.0
sz300644,南京聚隆,2021-09-07,20.17,20.59,20.01,20.1,20.0,2762458.0,56004094.0,1909278196.5,2186457900.0
sz300644,南京聚隆,2021-09-08,20.18,20.65,20.14,20.4,20.1,2916475.0,59410364.0,1937774886.0,2219091600.0
sz300644,南京聚隆,2021-09-09,20.4,20.41,19.5,19.7,20.4,3417083.0,67944070.0,1871282610.5,2142946300.0
sz300644,南京聚隆,2021-09-10,19.75,20.24,19.61,20.19,19.7,2631346.0,52631261.0,1917827203.35,2196248010.0
sz300644,南京聚隆,2021-09-13,20.22,21.47,19.85,21.46,20.19,6621255.0,137841738.0,2038463188.9,2334397340.0
sz300644,南京聚隆,2021-09-14,21.4,21.8,20.71,20.92,21.46,6097920.0,129490056.0,1987169147.8,2275656680.0
sz300644,南京聚隆,2021-09-15,20.65,22.3,20.65,21.71,20.92,6106697.0,131472874.0,2062210430.15,2361592090.0
sz300644,南京聚隆,2021-09-16,22.07,23.85,21.7,21.75,21.71,10668675.0,241564228.0,2066009988.75,2365943250.0
sz300644,南京聚隆,2021-09-17,21.22,21.68,20.76,21.4,21.75,6428890.0,136438333.0,2032763851.0,2327870600.0
sz300644,南京聚隆,2021-09-22,20.81,21.2,20.2,20.54,21.4,4068783.0,83574740.0,1951073341.1,2234320660.0
sz300644,南京聚隆,2021-09-23,20.57,20.96,20.3,20.67,20.54,3455777.0,71368848.0,1963421906.55,2248461930.0
sz300644,南京聚隆,2021-09-24,20.55,20.56,19.2,19.23,20.67,5032673.0,99179825.0,1826637796.95,2091820170.0
sz300644,南京聚隆,2021-09-27,19.3,19.5,18.25,18.41,19.23,2792642.0,52574564.0,1748746845.65,2001682480.0
sz300644,南京聚隆,2021-09-28,18.41,18.87,18.2,18.62,18.41,1449131.0,26907724.0,1768694528.3,2024515360.0
sz300644,南京聚隆,2021-09-29,18.37,18.86,18.28,18.38,18.62,1401763.0,26012941.0,1745897176.7,1998420640.0
sz300644,南京聚隆,2021-09-30,18.4,19.19,18.4,19.05,18.38,1431495.0,27045472.0,1809539783.25,2071268400.0
sz300644,南京聚隆,2021-10-08,19.3,19.37,19.12,19.3,19.05,1123807.0,21649389.0,1833287024.5,2098450400.0
sz300644,南京聚隆,2021-10-11,19.45,19.45,18.91,19.14,19.3,1137764.0,21721270.0,1818088790.1,2081053920.0
sz300644,南京聚隆,2021-10-12,19.2,19.2,18.58,18.84,19.14,1247761.0,23438102.0,1789592100.6,2048435520.0
sz300644,南京聚隆,2021-10-13,18.73,19.12,18.72,19.05,18.84,787332.0,14928851.0,1809539783.25,2071268400.0
sz300644,南京聚隆,2021-10-14,19.11,19.11,18.77,18.95,19.05,833910.0,15781436.0,1800040886.75,2060395600.0
sz300644,南京聚隆,2021-10-15,18.96,19.0,18.39,18.48,18.95,1242348.0,23100467.0,1755396073.2,2009293440.0
sz300644,南京聚隆,2021-10-18,18.48,18.61,18.1,18.61,18.48,852888.0,15669703.0,1767744638.65,2023428080.0
sz300644,南京聚隆,2021-10-19,18.7,18.82,18.5,18.56,18.61,801820.0,14923757.0,1762995190.4,2017991680.0
sz300644,南京聚隆,2021-10-20,18.46,18.77,18.25,18.53,18.56,894346.0,16567457.0,1760145521.45,2014729840.0
sz300644,南京聚隆,2021-10-21,18.53,18.62,18.05,18.08,18.53,1403803.0,25613371.0,1717400487.1999998,1965802240.0
sz300644,南京聚隆,2021-10-22,17.98,17.98,17.37,17.78,18.08,1986033.0,35008885.0,1688067835.44,1933183840.0
sz300644,南京聚隆,2021-10-25,17.78,17.78,17.51,17.65,17.78,1045981.0,18411428.0,1675725382.1999998,1919049200.0
sz300644,南京聚隆,2021-10-26,17.74,18.38,17.7,17.96,17.65,1300551.0,23386716.0,1705157386.0800002,1952754880.0
sz300644,南京聚隆,2021-10-27,17.85,18.66,17.64,18.4,17.96,2041126.0,37123423.0,1747796956.0,2000595200.0
sz300644,南京聚隆,2021-10-28,18.3,18.8,17.66,17.76,18.4,1662601.0,30330165.0,1686168996.48,1931009280.0
sz300644,南京聚隆,2021-10-29,17.85,18.22,17.52,18.2,17.76,1088291.0,19544084.0,1727943453.6,1978849600.0
sz300644,南京聚隆,2021-11-01,18.22,18.55,18.18,18.51,18.2,1324002.0,24303050.0,1757375457.48,2012555280.0
sz300644,南京聚隆,2021-11-02,18.53,18.6,17.79,17.99,18.51,1428712.0,26016712.0,1708005644.52,1956016720.0
sz300644,南京聚隆,2021-11-03,17.88,18.12,17.85,18.02,17.99,844974.0,15200962.0,1710853902.96,1959278560.0
sz300644,南京聚隆,2021-11-04,18.6,18.6,18.07,18.45,18.02,1215322.0,22382055.0,1751678940.6,2006031600.0
sz300644,南京聚隆,2021-11-05,18.58,18.94,18.28,18.9,18.45,2317203.0,43269383.0,1794402817.2,2054959200.0
sz300644,南京聚隆,2021-11-08,18.9,18.92,18.51,18.69,18.9,1225630.0,22908943.0,1774465008.12,2032126320.0
sz300644,南京聚隆,2021-11-09,18.78,19.12,18.69,18.98,18.69,1205213.0,22851321.0,1801998173.04,2063657440.0
sz300644,南京聚隆,2021-11-10,18.87,19.19,18.7,19.02,18.98,1186842.0,22459725.0,1805795850.96,2068006560.0
sz300644,南京聚隆,2021-11-11,19.0,19.44,18.9,19.3,19.02,2034892.0,39006776.0,1832379596.4,2098450400.0
sz300644,南京聚隆,2021-11-12,19.77,19.8,19.16,19.37,19.3,2510196.0,48833769.0,1839025532.76,2106061360.0
sz300644,南京聚隆,2021-11-15,19.6,20.29,19.59,19.87,19.37,3262564.0,65163395.0,1886496506.76,2160425360.0
sz300644,南京聚隆,2021-11-16,19.7,19.75,19.01,19.05,19.87,2735652.0,53014437.0,1808644109.4,2071268400.0
sz300644,南京聚隆,2021-11-17,19.07,19.7,19.07,19.7,19.05,1781178.0,34636671.0,1870356375.6,2141941600.0
sz300644,南京聚隆,2021-11-18,19.49,19.8,19.1,19.24,19.7,2155050.0,41656953.0,1826683079.52,2091926720.0
sz300644,南京聚隆,2021-11-19,19.1,19.66,19.08,19.59,19.24,1496632.0,29061056.0,1859912761.32,2129981520.0
sz300644,南京聚隆,2021-11-22,19.59,20.0,19.32,19.95,19.59,1955322.0,38440607.0,1894091862.6,2169123600.0
sz300644,南京聚隆,2021-11-23,19.88,20.4,19.7,20.32,19.95,2663860.0,53616778.0,1929220383.36,2209352960.0
sz300644,南京聚隆,2021-11-24,20.19,20.26,19.92,20.08,20.32,1830844.0,36707466.0,1906434315.8400002,2183258240.0
sz300644,南京聚隆,2021-11-25,20.0,20.45,19.73,20.23,20.08,2508239.0,50569759.0,1920675608.04,2199567440.0
sz300644,南京聚隆,2021-11-26,20.1,20.67,19.89,20.59,20.23,3357541.0,68486174.0,1954854709.32,2238709520.0
sz300644,南京聚隆,2021-11-29,20.42,20.45,19.94,20.05,20.59,2094350.0,42156522.0,1903586057.4,2179996400.0
sz300644,南京聚隆,2021-11-30,20.06,20.74,20.06,20.45,20.05,2660497.0,54293042.0,1941562836.6,2223487600.0
sz300644,南京聚隆,2021-12-01,20.44,21.55,20.3,20.99,20.45,3936920.0,82611731.0,1992831488.5200002,2282200720.0
sz300644,南京聚隆,2021-12-02,20.96,25.19,20.68,22.99,20.99,17742482.0,418497938.0,2182715384.52,2499656720.0
sz300644,南京聚隆,2021-12-03,22.32,22.33,20.91,21.3,22.99,13318733.0,286065459.0,2022263492.4,2315906400.0
sz300644,南京聚隆,2021-12-06,21.0,21.2,20.0,20.02,21.3,6833352.0,139506605.0,1900737798.96,2176734560.0
sz300644,南京聚隆,2021-12-07,20.1,20.13,19.41,19.44,20.02,4386578.0,86269546.0,1845671469.12,2113672320.0
sz300644,南京聚隆,2021-12-08,19.15,19.53,18.85,19.32,19.44,3818856.0,73353226.0,1834278435.36,2100624960.0000002
sz300644,南京聚隆,2021-12-09,19.32,19.49,19.03,19.18,19.32,2989367.0,57564766.0,1820986562.6399999,2085403040.0
sz300644,南京聚隆,2021-12-10,19.18,19.55,19.11,19.31,19.18,2408071.0,46613873.0,1833329015.88,2099537680.0
sz300644,南京聚隆,2021-12-13,19.32,19.41,19.18,19.24,19.31,2341730.0,45136572.0,1826683079.52,2091926720.0
sz300644,南京聚隆,2021-12-14,19.27,19.73,18.94,19.59,19.24,3000656.0,58216877.0,1859912761.32,2129981520.0
sz300644,南京聚隆,2021-12-15,19.59,19.86,19.38,19.53,19.59,3133818.0,61526272.0,1854216244.4399998,2123457840.0000002
sz300644,南京聚隆,2021-12-16,19.6,19.84,19.45,19.84,19.53,2341828.0,46066354.0,1883648248.3200002,2157163520.0
sz300644,南京聚隆,2021-12-17,19.89,20.76,19.63,20.55,19.84,6221541.0,126900905.0,1951057031.4,2234360400.0
sz300644,南京聚隆,2021-12-20,20.68,20.68,19.87,19.96,20.55,3917656.0,79160881.0,1895041282.0800002,2170210880.0
sz300644,南京聚隆,2021-12-21,19.85,20.18,19.65,20.14,19.96,2323476.0,46411957.0,1912130832.7199998,2189781920.0
sz300644,南京聚隆,2021-12-22,20.15,20.15,19.82,19.88,20.14,2080196.0,41436622.0,1887445926.24,2161512640.0
sz300644,南京聚隆,2021-12-23,19.84,19.97,19.28,19.31,19.88,2683566.0,52107495.0,1833329015.88,2099537680.0
sz300644,南京聚隆,2021-12-24,19.31,19.54,19.01,19.26,19.31,1936494.0,37266405.0,1828581918.4799998,2094101280.0
sz300644,南京聚隆,2021-12-27,19.25,19.35,19.01,19.2,19.26,1094240.0,20995543.0,1822885401.6000001,2087577600.0
sz300644,南京聚隆,2021-12-28,19.25,19.63,19.24,19.63,19.2,1524489.0,29709442.0,1863710439.24,2134330640.0000002
sz300644,南京聚隆,2021-12-29,19.42,20.05,19.42,20.05,19.63,2113114.0,41952411.0,1903586057.4,2179996400.0
sz300644,南京聚隆,2021-12-30,20.01,20.45,19.89,19.94,20.05,2196600.0,44145712.0,1893142443.12,2168036320.0
sz300644,南京聚隆,2021-12-31,19.96,20.11,19.89,20.04,19.94,1233049.0,24657637.0,1902636637.92,2178909120.0
sz300644,南京聚隆,2022-01-04,20.28,20.47,20.04,20.36,20.04,2485595.0,50445891.0,1933018061.28,2213702080.0
sz300644,南京聚隆,2022-01-05,20.28,20.55,20.06,20.43,20.36,2414229.0,49118880.0,1939663997.64,2221313040.0
sz300644,南京聚隆,2022-01-06,20.28,20.81,20.26,20.67,20.43,2821432.0,58201774.0,1962450065.1599998,2247407760.0
sz300644,南京聚隆,2022-01-07,20.77,20.77,20.06,20.09,20.67,2564670.0,52228532.0,1907383735.32,2184345520.0
sz300644,南京聚隆,2022-01-10,20.13,20.44,20.08,20.33,20.09,1325119.0,26905735.0,1930169802.84,2210440240.0
sz300644,南京聚隆,2022-01-11,20.31,20.74,20.31,20.63,20.33,2475270.0,50968754.0,1958652387.24,2243058640.0
sz300644,南京聚隆,2022-01-12,20.68,20.9,20.55,20.71,20.63,1989751.0,41206158.0,1966247743.08,2251756880.0
sz300644,南京聚隆,2022-01-13,20.65,21.04,20.51,20.9,20.71,2922651.0,60807823.0,1984286713.2,2272415200.0
sz300644,南京聚隆,2022-01-14,20.68,21.45,20.4,20.75,20.9,3545391.0,73889895.0,1970045421.0,2256106000.0
