数据由邢不行整理
股票代码,股票名称,交易日期,开盘价,最高价,最低价,收盘价,前收盘价,成交量,成交额,流通市值,总市值
sz300815,N玉禾田,2020-01-23,35.46,42.55,35.46,42.55,29.55,304197.0,12929944.0,1472230000.0,5888920000.0
sz300815,玉禾田,2020-02-03,46.81,46.81,46.81,46.81,42.55,1200968.0,56217312.0,1619626000.0,6478504000.0
sz300815,玉禾田,2020-02-04,51.49,51.49,48.88,51.49,46.81,3002239.0,154135051.0,1781554000.0,7126216000.0
sz300815,玉禾田,2020-02-05,56.64,56.64,51.58,56.64,51.49,16620552.0,909058075.0,1959744000.0,7838976000.0
sz300815,玉禾田,2020-02-06,62.3,62.3,61.18,62.3,56.64,4392889.0,273541621.0,2155580000.0,8622320000.0
sz300815,玉禾田,2020-02-07,68.53,68.53,68.53,68.53,62.3,741028.0,50782648.0,2371138000.0,9484552000.0
sz300815,玉禾田,2020-02-10,75.38,75.38,61.87,70.63,68.53,19475233.0,1360547977.0,2443798000.0,9775192000.0
sz300815,玉禾田,2020-02-11,72.99,74.18,68.86,71.0,70.63,14001635.0,1004378800.0,2456600000.0,9826400000.0
sz300815,玉禾田,2020-02-12,72.97,78.1,68.98,75.69,71.0,15187726.0,1112088527.0,2618874000.0,10475496000.0
sz300815,玉禾田,2020-02-13,74.99,80.91,73.38,77.7,75.69,13480460.0,1042115195.0,2688420000.0,10753680000.0
sz300815,玉禾田,2020-02-14,76.98,78.8,75.5,75.58,77.7,9657474.0,740337231.0,2615068000.0,10460272000.0
sz300815,玉禾田,2020-02-17,74.94,74.94,72.5,74.2,75.58,9351486.0,690799459.0,2567320000.0,10269280000.0
sz300815,玉禾田,2020-02-18,73.8,81.62,73.4,81.62,74.2,10364361.0,808908307.0,2824052000.0,11296208000.0
sz300815,玉禾田,2020-02-19,80.92,89.77,79.12,85.38,81.62,12000540.0,1006775273.0,2954148000.0,11816592000.0
sz300815,玉禾田,2020-02-20,83.2,91.9,83.2,85.98,85.38,7004564.0,609882267.0,2974908000.0,11899632000.0
sz300815,玉禾田,2020-02-21,85.0,87.76,84.01,86.2,85.98,4190165.0,359929803.0,2982520000.0,11930080000.0
sz300815,玉禾田,2020-02-24,85.7,89.59,81.22,84.94,86.2,4072533.0,349504799.0,2938924000.0,11755696000.0
sz300815,玉禾田,2020-02-25,82.5,90.2,82.35,89.0,84.94,5321316.0,460294226.0,3079400000.0,12317600000.0
sz300815,玉禾田,2020-02-26,87.68,97.9,87.68,93.28,89.0,6596445.0,624498681.0,3227488000.0,12909952000.0
sz300815,玉禾田,2020-02-27,92.8,98.88,92.8,93.7,93.28,4995907.0,477515266.0,3242020000.0,12968080000.0
sz300815,玉禾田,2020-02-28,90.8,97.9,88.0,90.58,93.7,4009378.0,375150884.0,3134068000.0,12536272000.0
sz300815,玉禾田,2020-03-02,92.0,99.64,89.46,99.64,90.58,4817928.0,463119237.0,3447544000.0,13790176000.0
sz300815,玉禾田,2020-03-03,102.0,109.6,100.0,106.03,99.64,4351715.0,465843081.0,3668638000.0,14674552000.0
sz300815,玉禾田,2020-03-04,105.09,116.63,105.09,116.63,106.03,3342177.0,373513667.0,4035398000.0,16141592000.0
sz300815,玉禾田,2020-03-05,123.0,126.49,108.3,110.68,116.63,5308455.0,620879492.0,3829528000.0,15318112000.0
sz300815,玉禾田,2020-03-06,105.99,113.2,103.11,108.66,110.68,3678309.0,397795889.0,3759636000.0,15038544000.0
sz300815,玉禾田,2020-03-09,107.99,107.99,102.51,103.0,108.66,2844654.0,298783689.0,3563800000.0,14255200000.0
sz300815,玉禾田,2020-03-10,102.0,111.0,102.0,108.87,103.0,2531339.0,271181576.0,3766902000.0,15067608000.0
sz300815,玉禾田,2020-03-11,108.7,110.88,104.0,106.28,108.87,2007823.0,216600222.0,3677288000.0,14709152000.0
sz300815,玉禾田,2020-03-12,105.0,110.2,104.0,106.34,106.28,2213847.0,236866907.0,3679364000.0,14717456000.0
sz300815,玉禾田,2020-03-13,99.99,105.0,96.0,104.0,106.34,2834914.0,286179299.0,3598400000.0,14393600000.0
sz300815,玉禾田,2020-03-16,103.58,104.98,99.5,99.5,104.0,1615563.0,165338320.0,3442700000.0,13770800000.0
sz300815,玉禾田,2020-03-17,99.99,109.45,97.0,109.45,99.5,2599010.0,272426242.0,3786970000.0,15147880000.0
sz300815,玉禾田,2020-03-18,111.0,120.01,111.0,114.72,109.45,2615170.0,303069340.0,3969312000.0,15877248000.0
sz300815,玉禾田,2020-03-19,116.0,117.15,106.35,112.99,114.72,1720527.0,192924123.0,3909454000.0,15637816000.0
sz300815,玉禾田,2020-03-20,113.82,123.45,113.82,122.5,112.99,2009239.0,239426167.0,4238500000.0,16954000000.0
sz300815,玉禾田,2020-03-23,118.0,129.0,113.01,114.0,122.5,2111185.0,256511797.0,3944400000.0,15777600000.0
sz300815,玉禾田,2020-03-24,117.0,125.0,112.1,123.3,114.0,2297353.0,272566211.0,4266180000.0,17064720000.0
sz300815,玉禾田,2020-03-25,124.3,128.88,118.85,125.64,123.3,2082039.0,259079444.0,4347144000.0,17388576000.0
sz300815,玉禾田,2020-03-26,123.41,131.5,121.0,127.97,125.64,1881610.0,238009170.0,4427762000.0,17711048000.0
sz300815,玉禾田,2020-03-27,128.1,131.17,124.13,124.99,127.97,1634966.0,208755913.0,4324654000.0,17298616000.0
sz300815,玉禾田,2020-03-30,122.26,125.77,113.02,120.0,124.99,1879673.0,225911425.0,4152000000.0,16608000000.0
sz300815,玉禾田,2020-03-31,121.05,123.47,113.58,113.97,120.0,1783861.0,208811085.0,3943362000.0,15773448000.0
sz300815,玉禾田,2020-04-01,112.0,115.95,108.61,110.44,113.97,1846858.0,205585315.0,3821224000.0,15284896000.0
sz300815,玉禾田,2020-04-02,109.62,118.0,104.26,115.4,110.44,2242933.0,247406608.0,3992840000.0,15971360000.0
sz300815,玉禾田,2020-04-03,114.87,117.8,112.86,116.86,115.4,1326860.0,153095775.0,4043356000.0,16173424000.0
sz300815,玉禾田,2020-04-07,119.0,128.55,116.89,128.55,116.86,1674802.0,207975366.0,4447830000.0,17791320000.0
sz300815,玉禾田,2020-04-08,126.42,131.29,125.6,129.29,128.55,1261872.0,161189089.0,4473434000.0,17893736000.0
sz300815,玉禾田,2020-04-09,135.0,142.0,134.01,140.9,129.29,2342810.0,323852018.0,4875140000.0,19500560000.0
sz300815,玉禾田,2020-04-10,140.2,140.95,129.7,137.1,140.9,1474659.0,198986489.0,4743660000.0,18974640000.0
sz300815,玉禾田,2020-04-13,136.0,138.5,134.0,136.78,137.1,1023716.0,139908776.0,4732588000.0,18930352000.0
sz300815,玉禾田,2020-04-14,138.83,144.01,137.35,139.0,136.78,1368765.0,194196818.0,4809400000.0,19237600000.0
sz300815,玉禾田,2020-04-15,137.01,137.7,132.5,133.0,139.0,1394900.0,187607001.0,4601800000.0,18407200000.0
sz300815,玉禾田,2020-04-16,132.5,138.15,131.51,133.69,133.0,1363071.0,183979580.0,4625674000.0,18502696000.0
sz300815,玉禾田,2020-04-17,133.93,134.2,128.13,128.57,133.69,1367332.0,178523287.0,4448522000.0,17794088000.0
sz300815,玉禾田,2020-04-20,128.55,138.0,127.0,136.67,128.57,1393046.0,185737470.0,4728782000.0,18915128000.0
sz300815,玉禾田,2020-04-21,135.31,137.95,131.51,133.48,136.67,1020025.0,137214349.0,4618408000.0,18473632000.0
sz300815,玉禾田,2020-04-22,132.51,137.98,131.05,137.11,133.48,1005212.0,136447487.0,4744006000.0,18976024000.0
sz300815,玉禾田,2020-04-23,137.64,140.99,133.0,133.41,137.11,1407262.0,192694267.0,4615986000.0,18463944000.0
sz300815,玉禾田,2020-04-24,132.21,135.29,130.13,133.85,133.41,832167.0,110967068.0,4631210000.0,18524840000.0
sz300815,玉禾田,2020-04-27,133.92,139.2,133.0,134.94,133.85,914958.0,124300069.0,4668924000.0,18675696000.0
sz300815,玉禾田,2020-04-28,136.0,136.0,127.23,132.72,134.94,1255863.0,166203934.0,4592112000.0,18368448000.0
sz300815,玉禾田,2020-04-29,131.9,134.14,120.7,123.5,132.72,2170331.0,274913550.0,4273100000.0,17092400000.0
sz300815,玉禾田,2020-04-30,122.99,129.75,121.0,124.86,123.5,1870727.0,234865629.0,4320156000.0,17280624000.0
sz300815,玉禾田,2020-05-06,124.02,129.5,122.35,128.58,124.86,1076977.0,135834523.0,4448868000.0,17795472000.0
sz300815,玉禾田,2020-05-07,128.0,131.58,125.33,126.18,128.58,1688595.0,215934585.0,4365828000.0,17463312000.0
sz300815,玉禾田,2020-05-08,126.82,138.5,126.15,136.08,126.18,2812721.0,376016431.0,4708368000.0,18833472000.0
sz300815,玉禾田,2020-05-11,136.57,138.5,131.29,132.28,136.08,2136026.0,285830883.0,4576888000.0,18307552000.0
sz300815,玉禾田,2020-05-12,131.99,134.5,129.7,134.15,132.28,1423413.0,187335793.0,4641590000.0,18566360000.0
sz300815,玉禾田,2020-05-13,133.0,139.66,132.83,138.66,134.15,1755917.0,239920721.0,4797636000.0,19190544000.0
sz300815,玉禾田,2020-05-14,138.47,143.98,133.78,133.9,138.66,1950961.0,269746430.0,4632940000.0,18531760000.0
sz300815,玉禾田,2020-05-15,133.65,136.58,131.5,132.02,133.9,1430766.0,190560708.0,4567892000.0,18271568000.0
sz300815,玉禾田,2020-05-18,132.48,136.88,130.8,133.01,132.02,1071701.0,143354563.0,4602146000.0,18408584000.0
sz300815,玉禾田,2020-05-19,133.02,136.29,131.0,133.91,133.01,1198071.0,159864622.0,4633286000.0,18533144000.0
sz300815,玉禾田,2020-05-20,132.11,132.99,125.3,127.0,133.91,2129569.0,271851778.0,4394200000.0,17576800000.0
sz300815,玉禾田,2020-05-21,125.71,129.29,125.71,127.8,127.0,1167277.0,149356912.0,4421880000.0,17687520000.0
sz300815,玉禾田,2020-05-22,126.6,129.7,126.6,127.78,127.8,1296572.0,166898532.0,4421188000.0,17684752000.0
sz300815,玉禾田,2020-05-25,128.44,135.0,123.12,133.49,127.78,1718472.0,226616075.0,4618754000.0,18475016000.0
sz300815,玉禾田,2020-05-26,133.03,137.4,132.15,137.22,133.49,1640264.0,221791043.0,4747812000.0,18991248000.0
sz300815,玉禾田,2020-05-27,137.88,140.49,131.96,132.15,137.22,1449083.0,196744590.0,4572390000.0,18289560000.0
sz300815,玉禾田,2020-05-28,130.77,131.6,125.0,127.01,132.15,1555481.0,198219914.0,4394546000.0,17578184000.0
sz300815,玉禾田,2020-05-29,125.61,127.86,123.05,123.6,127.01,1682598.0,210928629.0,4276560000.0,17106240000.0
sz300815,玉禾田,2020-06-01,123.7,129.32,123.6,129.0,123.6,1519412.0,192564187.0,4463400000.0,17853600000.0
sz300815,玉禾田,2020-06-02,128.84,129.87,125.0,125.12,129.0,1174477.0,148985816.0,4329152000.0,17316608000.0
sz300815,玉禾田,2020-06-03,125.79,126.95,123.71,124.06,125.12,1234366.0,153831972.0,4292476000.0,17169904000.0
sz300815,玉禾田,2020-06-04,124.36,127.95,123.73,124.68,124.06,1072333.0,134431247.0,4313928000.0,17255712000.0
sz300815,玉禾田,2020-06-05,124.44,124.45,120.0,122.84,124.68,1310570.0,159924405.0,4250264000.0,17001056000.0
sz300815,玉禾田,2020-06-08,122.7,123.78,113.4,114.0,122.84,2295712.0,267099611.0,3944400000.0,15777600000.0
sz300815,玉禾田,2020-06-09,114.31,116.5,113.4,115.49,114.0,1024600.0,117819196.0,3995954000.0,15983816000.0
sz300815,玉禾田,2020-06-10,115.01,116.52,111.2,115.28,115.49,1138681.0,129695355.0,3988688000.0,15954752000.0
sz300815,玉禾田,2020-06-11,115.63,119.19,114.5,118.94,115.28,1711426.0,200475173.0,4115324000.0,16461296000.0
sz300815,玉禾田,2020-06-12,116.12,118.8,114.6,117.3,118.94,992230.0,115973976.0,4058580000.0,16234320000.0
sz300815,玉禾田,2020-06-15,118.0,122.49,116.67,119.19,117.3,1404945.0,169050634.0,4123974000.0,16495896000.0
sz300815,玉禾田,2020-06-16,119.62,122.54,117.77,122.2,119.19,1200110.0,144742850.0,4228120000.0,16912480000.0
sz300815,玉禾田,2020-06-17,121.32,125.2,120.58,124.82,122.2,1128804.0,138976430.0,4318772000.0,17275088000.0
sz300815,玉禾田,2020-06-18,125.2,127.01,119.8,120.77,124.59,1389526.0,169910619.0,4178642000.0,16714568000.0
sz300815,玉禾田,2020-06-19,120.5,122.26,119.08,121.97,120.77,1088906.0,131698035.0,4220162000.0,16880648000.0
sz300815,玉禾田,2020-06-22,122.0,124.31,118.83,119.08,121.97,1211495.0,146277762.0,4120168000.0,16480672000.0
sz300815,玉禾田,2020-06-23,119.32,119.74,117.17,119.14,119.08,1013832.0,120300049.0,4122244000.0,16488976000.0
sz300815,玉禾田,2020-06-24,119.86,121.3,118.28,120.09,119.14,1194066.0,143414477.0,4155114000.0,16620456000.0
sz300815,玉禾田,2020-06-29,119.8,120.5,114.86,116.54,120.09,1387770.0,162182289.0,4032284000.0,16129136000.0
sz300815,玉禾田,2020-06-30,117.23,123.65,116.99,122.64,116.54,1836338.0,222905786.0,4243344000.0,16973376000.0
sz300815,玉禾田,2020-07-01,122.74,126.77,121.22,125.28,122.64,1510456.0,187943490.0,4334688000.0,17338752000.0
sz300815,玉禾田,2020-07-02,124.18,136.05,124.01,132.8,125.28,2491580.0,328541229.0,4594880000.0,18379520000.0
sz300815,玉禾田,2020-07-03,132.42,133.68,123.5,128.91,132.8,1602093.0,206763168.0,4460286000.0,17841144000.0
sz300815,玉禾田,2020-07-06,128.93,135.6,128.93,133.7,128.91,1545866.0,205344746.0,4626020000.0,18504080000.0
sz300815,玉禾田,2020-07-07,133.71,134.76,131.0,132.78,133.7,1930409.0,255964157.0,4594188000.0,18376752000.0
sz300815,玉禾田,2020-07-08,140.0,141.16,132.61,133.98,132.78,3464522.0,470165581.0,4635708000.0,18542832000.0
sz300815,玉禾田,2020-07-09,133.99,139.0,133.0,137.0,133.98,2163788.0,294371990.0,4740200000.0,18960800000.0
sz300815,玉禾田,2020-07-10,136.53,138.5,131.81,131.92,137.0,1930113.0,260086267.0,4564432000.0,18257728000.0
sz300815,玉禾田,2020-07-13,135.96,136.87,133.63,134.6,131.92,2118272.0,286745653.0,4657160000.0,18628640000.0
sz300815,玉禾田,2020-07-14,134.46,140.6,134.46,137.5,134.6,2158860.0,296494834.0,4757500000.0,19030000000.0
sz300815,玉禾田,2020-07-15,138.0,151.25,137.4,149.4,137.5,4301597.0,630963925.0,5169240000.0,20676960000.0
sz300815,玉禾田,2020-07-16,149.0,151.35,134.46,134.46,149.4,3251678.0,466230988.0,4652316000.0,18609264000.0
sz300815,玉禾田,2020-07-17,133.07,139.99,128.67,135.84,134.46,1963420.0,266936675.0,4700064000.0,18800256000.0
sz300815,玉禾田,2020-07-20,137.44,138.47,131.0,135.26,135.84,1936706.0,258518338.0,4679996000.0,18719984000.0
sz300815,玉禾田,2020-07-21,135.0,136.9,131.9,132.88,135.26,1431947.0,191495563.0,4597648000.0,18390592000.0
sz300815,玉禾田,2020-07-22,132.0,133.95,130.59,132.02,132.88,1442315.0,191282114.0,4567892000.0,18271568000.0
sz300815,玉禾田,2020-07-23,130.08,130.7,123.05,126.5,132.02,2061913.0,260892054.0,4376900000.0,17507600000.0
sz300815,玉禾田,2020-07-24,126.05,127.5,116.66,117.8,126.5,1929119.0,235142461.0,4075880000.0,16303520000.0
sz300815,玉禾田,2020-07-27,116.84,118.45,114.25,116.3,117.8,1290040.0,149554684.0,4023980000.0,16095920000.0
sz300815,玉禾田,2020-07-28,116.99,124.56,116.65,123.12,116.3,1765817.0,214290653.0,4259952000.0,17039808000.0
sz300815,玉禾田,2020-07-29,123.89,124.65,121.5,123.19,123.12,1556837.0,191365089.0,4262374000.0,17049496000.0
sz300815,玉禾田,2020-07-30,122.08,125.79,122.08,123.96,123.19,1374948.0,170279512.0,4289016000.0,17156064000.0
sz300815,玉禾田,2020-07-31,122.87,125.5,121.88,122.61,123.96,1381022.0,170442400.0,4242306000.0,16969224000.0
sz300815,玉禾田,2020-08-03,123.11,125.66,121.04,124.23,122.61,1836216.0,226671134.0,4298358000.0,17193432000.0
sz300815,玉禾田,2020-08-04,124.01,125.0,120.28,121.0,124.23,2335935.0,284543734.0,4186600000.0,16746400000.0
sz300815,玉禾田,2020-08-05,120.3,123.57,119.6,123.0,121.0,1573155.0,192025356.0,4255800000.0,17023200000.0
sz300815,玉禾田,2020-08-06,123.31,126.78,122.28,124.11,123.0,1611361.0,200514618.0,4294206000.0,17176824000.0
sz300815,玉禾田,2020-08-07,123.99,129.99,120.78,125.0,124.11,2647059.0,332226278.0,4325000000.0,17300000000.0
sz300815,玉禾田,2020-08-10,124.97,127.58,121.82,126.56,125.0,1602031.0,199988216.0,4378976000.0,17515904000.0
sz300815,玉禾田,2020-08-11,128.48,133.88,126.69,128.29,126.56,2923153.0,379930929.0,4438834000.0,17755336000.0
sz300815,玉禾田,2020-08-12,126.5,129.98,122.6,123.6,128.29,1694959.0,211749352.0,4276560000.0,17106240000.0
sz300815,玉禾田,2020-08-13,124.85,127.85,120.9,121.1,123.6,1433910.0,176861364.0,4190060000.0,16760240000.0
sz300815,玉禾田,2020-08-14,121.95,124.99,119.03,124.9,121.1,1345194.0,164484403.0,4321540000.0,17286160000.0
sz300815,玉禾田,2020-08-17,126.5,133.46,126.0,132.7,124.9,2832214.0,368869527.0,4591420000.0,18365680000.0
sz300815,玉禾田,2020-08-18,133.0,142.5,133.0,140.14,132.7,3696382.0,512225478.0,4848787944.0,19395376000.0
sz300815,玉禾田,2020-08-19,136.99,138.8,126.13,130.03,140.14,3897211.0,510276143.0,4498985988.0,17996152000.0
sz300815,玉禾田,2020-08-20,128.1,130.0,127.22,128.52,130.03,1179091.0,151121129.0,4446740592.0,17787168000.0
sz300815,玉禾田,2020-08-21,128.29,131.65,127.6,128.39,128.52,1308730.0,168717914.0,4442242644.0,17769176000.0
sz300815,玉禾田,2020-08-24,128.4,139.76,128.4,135.08,128.39,2425398.0,326597911.0,4673713968.0,18695072000.0
sz300815,玉禾田,2020-08-25,134.54,138.72,133.2,135.1,135.08,1436916.0,194958934.0,4674405960.0,18697840000.0
sz300815,玉禾田,2020-08-26,137.5,146.92,136.81,139.83,135.1,2850218.0,400071838.0,4838062068.0,19352472000.0
sz300815,玉禾田,2020-08-27,138.97,138.97,130.31,137.09,139.83,1469789.0,200417357.0,4743259164.0,18973256000.0
sz300815,玉禾田,2020-08-28,140.0,147.0,135.88,143.09,137.09,2445111.0,347592497.0,4950856764.0,19803656000.0
sz300815,玉禾田,2020-08-31,142.8,143.97,140.51,141.1,143.09,1534648.0,217671739.0,4882003560.0,19528240000.0
sz300815,玉禾田,2020-09-01,141.8,142.97,136.99,139.18,141.1,1102093.0,153711375.0,4815572328.0,19262512000.0
sz300815,玉禾田,2020-09-02,139.0,145.23,137.3,144.93,139.18,1588848.0,225616224.0,5014520028.0,20058312000.0
sz300815,玉禾田,2020-09-03,145.17,146.97,139.84,139.87,144.93,1274595.0,181897049.0,4839446052.0,19358008000.0
sz300815,玉禾田,2020-09-04,136.88,138.82,134.44,137.73,139.87,1173370.0,160154705.0,4765402908.0,19061832000.0
sz300815,玉禾田,2020-09-07,136.68,137.88,129.8,129.8,137.73,1335748.0,177821085.0,4491028080.0,17964320000.0
sz300815,玉禾田,2020-09-08,129.84,132.41,128.0,130.17,129.8,861114.0,112292410.0,4503829932.0,18015528000.0
sz300815,玉禾田,2020-09-09,129.5,129.98,119.68,120.9,130.17,1944200.0,238973492.0,4183091640.0,16732560000.0
sz300815,玉禾田,2020-09-10,122.06,122.49,118.4,118.68,120.9,880700.0,105917931.0,4106280528.0,16425312000.0
sz300815,玉禾田,2020-09-11,117.22,120.47,116.98,120.11,118.68,616036.0,73515519.0,4155757956.0,16623224000.0
sz300815,玉禾田,2020-09-14,119.37,123.03,117.71,119.88,120.11,1060816.0,127411381.0,4147800048.0,16591392000.0
sz300815,玉禾田,2020-09-15,119.88,120.5,117.32,119.44,119.88,739649.0,87906500.0,4132576224.0,16530496000.0
sz300815,玉禾田,2020-09-16,119.44,121.33,118.45,120.21,119.44,645416.0,77168994.0,4159217916.0,16637064000.0
sz300815,玉禾田,2020-09-17,119.64,119.64,116.1,117.95,120.21,912700.0,107350506.0,4081022820.0,16324280000.0
sz300815,玉禾田,2020-09-18,117.5,119.3,116.2,118.48,117.95,898844.0,105933093.0,4099360608.0,16397632000.0
sz300815,玉禾田,2020-09-21,119.5,119.5,116.65,116.95,118.48,678459.0,79522506.0,4046423220.0,16185880000.0
sz300815,玉禾田,2020-09-22,116.06,117.78,115.14,115.84,116.95,631576.0,73616082.0,4008017664.0,16032256000.0
sz300815,玉禾田,2020-09-23,116.41,118.2,115.62,116.75,115.84,827825.0,96753736.0,4039503300.0,16158200000.0
sz300815,玉禾田,2020-09-24,116.76,116.95,109.0,109.53,116.75,1603010.0,179936000.0,3789694188.0,15158952000.0
sz300815,玉禾田,2020-09-25,109.54,112.96,106.66,112.27,109.53,1052872.0,116626630.0,3884497092.0,15538168000.0
sz300815,玉禾田,2020-09-28,112.07,113.8,110.01,110.26,112.27,644232.0,71890184.0,3814951896.0,15259984000.0
sz300815,玉禾田,2020-09-29,110.14,112.1,109.8,110.5,110.26,413427.0,45821106.0,3823255800.0,15293200000.0
sz300815,玉禾田,2020-09-30,110.99,111.87,108.33,108.99,110.5,409916.0,45022793.0,3771010404.0,15084216000.0
sz300815,玉禾田,2020-10-09,110.99,112.7,110.9,111.38,108.99,647468.0,72253855.0,3853703448.0,15414992000.0
sz300815,玉禾田,2020-10-12,112.23,118.8,112.23,118.8,111.38,1371118.0,159242051.0,4110432480.0,16441920000.0
sz300815,玉禾田,2020-10-13,119.24,119.65,114.5,115.63,118.8,1717400.0,199904238.0,4000751748.0,16003192000.0
sz300815,玉禾田,2020-10-14,115.79,117.86,114.58,115.62,115.63,1112800.0,129211935.0,4000405752.0,16001808000.0
sz300815,玉禾田,2020-10-15,118.51,118.98,112.7,113.47,115.62,1432400.0,164370141.0,3926016612.0,15704248000.0
sz300815,玉禾田,2020-10-16,114.0,114.98,112.5,113.9,113.47,770400.0,87507540.0,3940894440.0,15763760000.0
sz300815,玉禾田,2020-10-19,114.2,114.78,112.0,112.63,113.9,857600.0,96858613.0,3896952948.0,15587992000.0
sz300815,玉禾田,2020-10-20,113.0,113.99,110.51,113.79,112.63,822533.0,92516964.0,3937088484.0,15748536000.0
sz300815,玉禾田,2020-10-21,114.25,117.1,112.78,113.41,113.79,1368337.0,156720194.0,3923940636.0,15695944000.0
sz300815,玉禾田,2020-10-22,112.2,112.27,109.0,109.0,113.41,1158099.0,127576398.0,3771356400.0,15085600000.0
sz300815,玉禾田,2020-10-23,109.88,109.9,103.62,105.35,109.0,1250453.0,133140622.0,3645067860.0,14580440000.0
sz300815,玉禾田,2020-10-26,105.31,107.11,102.17,107.11,105.35,630917.0,66403704.0,3705963156.0,14824024000.0
sz300815,玉禾田,2020-10-27,105.99,109.0,105.0,107.8,107.11,860751.0,92524956.0,3729836880.0,14919520000.0
sz300815,玉禾田,2020-10-28,108.47,108.47,105.23,106.99,107.8,636317.0,67926889.0,3701811204.0,14807416000.0
sz300815,玉禾田,2020-10-29,105.2,107.87,104.0,106.3,106.99,830132.0,87912243.0,3677937480.0,14711920000.0
sz300815,玉禾田,2020-10-30,107.0,107.0,100.0,100.01,106.3,1458517.0,150223974.0,3460305996.0,13841384000.0
sz300815,玉禾田,2020-11-02,101.0,101.0,95.66,98.2,100.01,1282530.0,125483249.0,3397680720.0,13590880000.0
sz300815,玉禾田,2020-11-03,99.88,103.0,98.58,100.0,98.2,1155816.0,115586840.0,3459960000.0,13840000000.0
sz300815,玉禾田,2020-11-04,99.5,100.98,98.0,99.01,100.0,1232852.0,122384479.0,3425706396.0,13702984000.0
sz300815,玉禾田,2020-11-05,99.6,102.57,99.01,102.3,99.01,1127039.0,114220963.0,3539539080.0,14158320000.0
sz300815,玉禾田,2020-11-06,102.99,102.99,98.77,99.8,102.3,795969.0,79698020.0,3453040079.9999995,13812320000.0
sz300815,玉禾田,2020-11-09,100.8,102.9,99.2,102.1,99.8,908235.0,91994980.0,3532619160.0000005,14130640000.0
sz300815,玉禾田,2020-11-10,101.89,106.3,100.52,103.36,102.1,1524691.0,158297308.0,3576214656.0,14305024000.0
sz300815,玉禾田,2020-11-11,103.1,104.5,101.16,101.9,103.36,724716.0,74151415.0,3525699240.0,14102960000.0
sz300815,玉禾田,2020-11-12,102.5,104.0,101.11,102.93,101.9,615017.0,63029073.0,3561336828.0,14245512000.0
sz300815,玉禾田,2020-11-13,102.8,103.83,101.5,103.75,102.93,679000.0,69662979.0,3589708500.0,14359000000.0
sz300815,玉禾田,2020-11-16,103.0,103.99,101.59,102.68,103.75,844200.0,86628793.0,3552686928.0,14210912000.0
sz300815,玉禾田,2020-11-17,102.7,102.71,99.77,100.38,102.68,782229.0,78754579.0,3473107848.0,13892592000.0
sz300815,玉禾田,2020-11-18,100.37,102.28,98.98,102.1,100.38,1152892.0,116020748.0,3532619160.0000005,14130640000.0
sz300815,玉禾田,2020-11-19,101.45,101.88,100.31,100.45,102.1,685300.0,69131751.0,3475529820.0,13902280000.0
sz300815,玉禾田,2020-11-20,100.3,102.5,98.88,99.15,100.45,920500.0,91895733.0,3430550340.0,13722360000.0
sz300815,玉禾田,2020-11-23,99.44,102.25,97.16,102.12,99.15,1734145.0,172701833.0,3533311152.0,14133408000.0
sz300815,玉禾田,2020-11-24,101.4,102.6,98.5,99.1,102.12,1256236.0,124934750.0,3428820360.0,13715440000.0
sz300815,玉禾田,2020-11-25,99.3,99.3,95.0,95.8,99.1,1245217.0,120461369.0,3314641680.0,13258720000.0
sz300815,玉禾田,2020-11-26,96.4,98.32,95.8,96.56,95.8,733621.0,71097269.0,3340937376.0,13363904000.0
sz300815,玉禾田,2020-11-27,97.4,97.4,94.27,94.84,96.56,752000.0,71468948.0,3281426064.0,13125856000.0
sz300815,玉禾田,2020-11-30,94.84,95.28,93.0,94.58,94.84,1061716.0,99754393.0,3272430168.0,13089872000.0
sz300815,玉禾田,2020-12-01,94.31,95.6,93.21,95.38,94.58,1195195.0,113194942.0,3300109848.0,13200592000.0
sz300815,玉禾田,2020-12-02,96.5,98.97,95.51,97.1,95.38,1695883.0,164761516.0,3359621160.0,13438640000.0
sz300815,玉禾田,2020-12-03,96.24,96.9,93.51,95.0,97.1,1974138.0,186646928.0,3286962000.0,13148000000.0
sz300815,玉禾田,2020-12-04,94.5,95.16,93.41,94.83,95.0,1099109.0,103703728.0,3281080067.9999995,13124472000.0
sz300815,玉禾田,2020-12-07,94.98,94.98,93.0,93.14,94.83,1556183.0,145460964.0,3222606744.0,12890576000.0
sz300815,玉禾田,2020-12-08,92.3,92.82,90.46,90.8,93.14,1531888.0,140284503.0,3141643680.0,12566720000.0
sz300815,玉禾田,2020-12-09,90.8,90.8,86.12,86.21,90.8,2136970.0,188232717.0,2982831516.0,11931464000.0
sz300815,玉禾田,2020-12-10,86.0,87.04,84.91,85.06,86.21,1371695.0,117918475.0,2943041976.0,11772304000.0
sz300815,玉禾田,2020-12-11,85.16,85.85,81.3,82.6,85.06,1890922.0,156786633.0,2857926960.0,11431840000.0
sz300815,玉禾田,2020-12-14,82.66,88.85,82.65,88.78,82.6,2552274.0,221385016.0,3071752488.0,12287152000.0
sz300815,玉禾田,2020-12-15,89.0,94.28,88.6,92.6,88.78,2721874.0,251037499.0,3203922959.9999995,12815840000.0
sz300815,玉禾田,2020-12-16,92.5,93.47,91.0,91.97,92.6,1477487.0,136326591.0,3182125212.0,12728648000.0
sz300815,玉禾田,2020-12-17,92.5,92.5,90.01,91.08,91.97,940600.0,85826922.0,3151331568.0,12605472000.0
sz300815,玉禾田,2020-12-18,90.6,93.0,88.85,88.93,91.08,1398000.0,125988591.0,3076942428.0,12307912000.0
sz300815,玉禾田,2020-12-21,89.35,89.88,87.7,89.5,88.93,1062900.0,94530672.0,3096664200.0,12386800000.0
sz300815,玉禾田,2020-12-22,88.73,89.27,85.56,85.58,89.5,1316203.0,114165785.0,2961033768.0000005,11844272000.0
sz300815,玉禾田,2020-12-23,85.85,86.46,83.0,84.71,85.58,883500.0,74637279.0,2930932116.0,11723864000.0
sz300815,玉禾田,2020-12-24,84.81,85.34,82.57,85.05,84.71,949260.0,79878605.0,2942695980.0,11770920000.0
sz300815,玉禾田,2020-12-25,85.03,95.6,84.8,94.99,85.05,2733779.0,251801661.0,3286616004.0,13146616000.0
sz300815,玉禾田,2020-12-28,93.5,94.01,90.39,92.51,94.99,1872983.0,172234520.0,3200808996.0,12803384000.0
sz300815,玉禾田,2020-12-29,92.79,93.1,89.21,89.65,92.51,1424503.0,128843944.0,3101854140.0,12407560000.0
sz300815,玉禾田,2020-12-30,89.74,91.29,86.7,90.0,89.65,1211710.0,107802278.0,3113964000.0,12456000000.0
sz300815,玉禾田,2020-12-31,89.6,93.39,88.0,92.9,90.0,1693662.0,154200559.0,3214302840.0,12857360000.0
sz300815,玉禾田,2021-01-04,92.37,93.38,90.3,90.81,92.9,1849000.0,168461287.0,3141989675.9999995,12568104000.0
sz300815,玉禾田,2021-01-05,90.57,91.0,86.9,87.63,90.81,1541318.0,136324269.0,3031962947.9999995,12127992000.0
sz300815,玉禾田,2021-01-06,87.65,92.38,84.39,90.1,87.63,2148924.0,188981373.0,3117423960.0,12469840000.0
sz300815,玉禾田,2021-01-07,89.5,89.5,85.21,87.28,90.1,1545616.0,134635593.0,3019853088.0,12079552000.0
sz300815,玉禾田,2021-01-08,87.23,94.55,85.03,90.95,87.28,2275714.0,207716646.0,3146833620.0,12587480000.0
sz300815,玉禾田,2021-01-11,92.53,93.8,88.88,89.9,90.95,1673917.0,152221920.0,3110504040.0,12442160000.0
sz300815,玉禾田,2021-01-12,89.08,89.99,87.24,88.95,89.9,1533720.0,135311103.0,3077634420.0,12310680000.0
sz300815,玉禾田,2021-01-13,89.0,91.99,87.47,91.0,88.95,1587083.0,143380688.0,3148563600.0,12594400000.0
sz300815,玉禾田,2021-01-14,90.49,93.88,88.09,93.71,91.0,1741890.0,160456969.0,3242328516.0,12969464000.0
sz300815,玉禾田,2021-01-15,93.35,94.6,89.88,91.6,93.71,1745805.0,160795926.0,3169323360.0,12677440000.0
sz300815,玉禾田,2021-01-18,90.79,91.66,89.78,90.13,91.6,1430000.0,129198351.0,3118461948.0,12473992000.0
sz300815,玉禾田,2021-01-19,90.3,92.6,88.32,88.97,90.13,1291705.0,116675395.0,3078326412.0,12313448000.0
sz300815,玉禾田,2021-01-20,86.9,87.95,83.0,85.8,88.97,2007550.0,171819763.0,2968645680.0000005,11874720000.0
sz300815,玉禾田,2021-01-21,84.34,85.34,82.36,82.65,85.8,2584005.0,214691050.0,2859656940.0,11438760000.0
sz300815,玉禾田,2021-01-22,81.3,81.31,77.18,78.32,82.65,2355671.0,186170053.0,2709840672.0,10839488000.0
sz300815,玉禾田,2021-01-25,77.93,78.4,75.31,76.17,78.32,1680398.0,128447505.0,4439561442.360001,10541928000.0
sz300815,玉禾田,2021-01-26,76.08,80.84,76.01,79.02,76.17,1768106.0,140193150.0,4605673430.16,10936368000.0
sz300815,玉禾田,2021-01-27,79.1,80.47,77.55,79.86,79.02,1160569.0,92285672.0,4654632752.88,11052624000.0
sz300815,玉禾田,2021-01-28,80.66,85.4,80.3,80.8,79.86,1957800.0,162349874.0,4709420566.400001,11182720000.0
sz300815,玉禾田,2021-01-29,81.35,83.9,79.2,82.14,80.8,1467606.0,120291641.0,4787522343.12,11368176000.0
sz300815,玉禾田,2021-02-01,82.56,82.56,78.88,80.49,82.14,1106449.0,88548996.0,4691352244.92,11139816000.0
sz300815,玉禾田,2021-02-02,80.47,82.07,79.0,81.2,80.49,895461.0,72105544.0,4732734529.6,11238080000.0
sz300815,玉禾田,2021-02-03,81.5,82.28,78.18,78.2,81.2,1017682.0,81371982.0,4557879805.6,10822880000.0
sz300815,玉禾田,2021-02-04,76.68,79.18,76.68,77.4,78.2,664300.0,51595166.0,4511251879.2,10712160000.0
sz300815,玉禾田,2021-02-05,77.42,82.0,77.27,78.98,77.4,812100.0,64832702.0,4603342033.84,10930832000.0
sz300815,玉禾田,2021-02-08,78.15,79.99,76.5,76.85,78.98,654700.0,50907544.0,4479195179.8,10636040000.0
sz300815,玉禾田,2021-02-09,77.0,79.33,75.5,78.56,76.85,854668.0,66280818.0,4578862372.48,10872704000.0
sz300815,玉禾田,2021-02-10,78.5,82.5,77.2,81.06,78.56,1323855.0,106525390.0,4724574642.4800005,11218704000.0
sz300815,玉禾田,2021-02-18,81.46,82.58,80.56,81.05,81.06,921813.0,74892656.0,4723991793.4,11217320000.0
sz300815,玉禾田,2021-02-19,81.05,85.22,81.05,84.92,81.05,1327297.0,110910071.0,4949554387.36,11752928000.0
sz300815,玉禾田,2021-02-22,85.19,89.8,84.61,86.52,84.92,1702725.0,148591585.0,5042810240.16,11974368000.0
sz300815,玉禾田,2021-02-23,85.6,90.48,85.53,89.0,86.52,1499433.0,132577640.0,5187356812.0,12317600000.0
sz300815,玉禾田,2021-02-24,89.0,92.0,86.71,87.04,89.0,1740164.0,155292261.0,5073118392.32,12046336000.0
sz300815,玉禾田,2021-02-25,87.16,88.65,82.6,82.8,87.04,1353348.0,114967816.0,4825990382.400001,11459520000.0
sz300815,玉禾田,2021-02-26,82.8,86.22,82.08,85.44,82.8,954041.0,80916320.0,4979862539.52,11824896000.0
sz300815,玉禾田,2021-03-01,85.44,93.0,85.13,92.47,85.44,2097830.0,190186870.0,5389605442.76,12797848000.0
sz300815,玉禾田,2021-03-02,93.45,99.99,91.84,97.97,92.47,3113948.0,301988740.0,5710172436.76,13559048000.0
sz300815,玉禾田,2021-03-03,98.5,101.88,95.0,99.98,97.97,2445600.0,241009943.0,5827325101.84,13837232000.0
sz300815,玉禾田,2021-03-04,98.9,99.7,95.8,95.97,99.98,1519704.0,148280419.0,5593602620.76,13282248000.0
sz300815,玉禾田,2021-03-05,96.16,102.8,96.15,97.6,95.97,1764851.0,174533646.0,5688607020.799999,13507840000.0
sz300815,玉禾田,2021-03-08,97.6,97.81,92.52,95.03,97.6,1911461.0,181060549.0,5538814807.24,13152152000.0
sz300815,玉禾田,2021-03-09,94.7,94.7,87.71,90.01,95.03,1735723.0,157571858.0,5246224569.080001,12457384000.0
sz300815,玉禾田,2021-03-10,90.87,91.5,88.23,89.6,90.01,1045103.0,93891090.0,5222327756.8,12400640000.0
sz300815,玉禾田,2021-03-11,90.27,91.75,87.9,89.23,89.6,1327610.0,118713044.0,5200762340.84,12349432000.0
sz300815,玉禾田,2021-03-12,89.23,94.5,88.78,93.15,89.23,1542313.0,141589434.0,5429239180.2,12891960000.0
sz300815,玉禾田,2021-03-15,92.41,94.49,90.03,91.35,93.15,1126107.0,103482458.0,5324326345.799999,12642840000.0
sz300815,玉禾田,2021-03-16,91.26,97.77,90.4,97.47,91.35,1670610.0,159736705.0,5681029982.76,13489848000.0
sz300815,玉禾田,2021-03-17,96.7,97.2,94.71,96.99,97.47,1151935.0,110469213.0,5653053226.919999,13423416000.0
sz300815,玉禾田,2021-03-18,96.26,99.5,94.81,96.1,96.99,1272511.0,123239822.0,5601179658.8,13300240000.0
sz300815,玉禾田,2021-03-19,95.0,97.25,93.5,95.32,96.1,1098798.0,104943420.0,5555717430.559999,13192288000.0
sz300815,玉禾田,2021-03-22,95.5,104.85,95.48,104.8,95.32,2631026.0,265851916.0,6108258358.4,14504320000.0
sz300815,玉禾田,2021-03-23,104.0,105.48,101.11,104.34,104.8,1776694.0,183965334.0,6081447300.719999,14440656000.0
sz300815,玉禾田,2021-03-24,105.91,105.98,100.0,104.85,104.34,1538875.0,159005621.0,6111172603.8,14511240000.0
sz300815,玉禾田,2021-03-25,103.28,103.31,98.0,98.04,104.85,1234646.0,123770927.0,5714252380.320001,13568736000.0
sz300815,玉禾田,2021-03-26,98.78,104.3,98.78,101.46,98.04,1006793.0,102588215.0,5913586765.68,14042064000.0
sz300815,玉禾田,2021-03-29,102.67,103.84,100.4,102.98,101.46,923140.0,94105011.0,6002179825.84,14252432000.0
sz300815,玉禾田,2021-03-30,110.0,113.88,103.33,104.46,102.98,2743018.0,296437601.0,6088441489.679999,14457264000.0
sz300815,玉禾田,2021-03-31,104.0,104.0,95.78,100.0,104.46,2386349.0,235058904.0,5828490800.0,13840000000.0
sz300815,玉禾田,2021-04-01,97.0,99.76,96.6,96.61,100.0,1515380.0,148012913.0,5630904961.879999,13370824000.0
sz300815,玉禾田,2021-04-02,96.66,97.3,90.48,92.18,96.61,3177919.0,296046515.0,5372702819.440001,12757712000.0
sz300815,玉禾田,2021-04-06,90.5,92.48,90.26,92.2,92.18,1427237.0,130520939.0,5373868517.6,12760480000.0
sz300815,玉禾田,2021-04-07,91.87,93.55,91.38,92.45,92.2,1174758.0,108541069.0,5388439744.6,12795080000.0
sz300815,玉禾田,2021-04-08,91.5,92.5,90.6,90.83,92.45,986810.0,90113246.0,5294018193.64,12570872000.0
sz300815,玉禾田,2021-04-09,90.79,91.81,90.19,90.71,90.83,942736.0,85510923.0,5287024004.679999,12554264000.0
sz300815,玉禾田,2021-04-12,90.51,90.87,85.51,85.57,90.71,1350603.0,118202349.0,4987439577.559999,11842888000.0
sz300815,玉禾田,2021-04-13,84.83,87.49,84.83,86.45,85.57,741620.0,64029280.0,5038730296.6,11964680000.0
sz300815,玉禾田,2021-04-14,86.05,87.49,85.16,86.73,86.45,1013690.0,87675931.0,5055050070.84,12003432000.0
sz300815,玉禾田,2021-04-15,86.3,86.68,83.33,84.41,86.73,1204700.0,101879344.0,4919829084.28,11682344000.0
sz300815,玉禾田,2021-04-16,84.53,86.29,84.53,85.6,84.41,770067.0,65916867.0,4989188124.8,11847040000.0
sz300815,玉禾田,2021-04-19,85.61,88.25,85.25,87.48,85.6,1330233.0,115957928.0,5098763751.84,12107232000.0
sz300815,玉禾田,2021-04-20,87.01,88.2,86.6,86.84,87.48,946714.0,82642150.0,5061461410.72,12018656000.0
sz300815,玉禾田,2021-04-21,86.3,86.99,85.2,86.58,86.84,667102.0,57362819.0,5046307334.64,11982672000.0
sz300815,玉禾田,2021-04-22,86.59,88.5,86.12,88.05,86.58,794819.0,69485691.0,5131986149.4,12186120000.0
sz300815,玉禾田,2021-04-23,87.94,89.58,86.8,88.7,88.05,1083555.0,95629320.0,5169871339.6,12276080000.0
sz300815,玉禾田,2021-04-26,88.66,88.69,86.68,86.79,88.7,902686.0,78832315.0,5058547165.32,12011736000.0
sz300815,玉禾田,2021-04-27,86.5,86.75,82.72,82.78,86.79,1264166.0,106110960.0,4824824684.24,11456752000.0
sz300815,玉禾田,2021-04-28,82.1,85.0,81.05,84.41,82.78,834719.0,69812647.0,4919829084.28,11682344000.0
sz300815,玉禾田,2021-04-29,83.5,84.97,82.8,83.06,84.41,712411.0,59574324.0,4841144458.4800005,11495504000.0
sz300815,玉禾田,2021-04-30,82.5,84.38,82.41,83.67,83.06,788757.0,66211914.0,4876698252.36,11579928000.0
sz300815,玉禾田,2021-05-06,83.31,83.85,81.61,81.78,83.67,700256.0,57611123.0,4766539776.24,11318352000.0
sz300815,玉禾田,2021-05-07,81.79,82.47,81.52,81.69,81.78,450220.0,36863168.0,4761294134.52,11305896000.0
sz300815,玉禾田,2021-05-10,81.5,81.89,78.61,78.85,81.69,702426.0,56275177.0,4595764995.8,10912840000.0
sz300815,玉禾田,2021-05-11,78.32,80.97,78.03,80.21,78.85,496166.0,39733842.0,4675032470.68,11101064000.0
sz300815,玉禾田,2021-05-12,79.82,81.99,79.22,81.98,80.21,483846.0,39084664.0,4778196757.84,11346032000.0
sz300815,玉禾田,2021-05-13,81.36,82.58,81.02,81.7,81.98,468487.0,38370600.0,4761876983.599999,11307280000.0
sz300815,玉禾田,2021-05-14,82.58,85.27,82.58,83.9,81.7,971581.0,81754077.0,4890103781.2,11611760000.0
sz300815,玉禾田,2021-05-17,82.9,84.35,82.1,83.4,83.9,563436.0,46902827.0,4860961327.2,11542560000.0
sz300815,玉禾田,2021-05-18,83.0,83.7,82.25,82.71,83.4,541271.0,44778765.0,4820744740.679999,11447064000.0
sz300815,玉禾田,2021-05-19,82.31,83.3,81.83,81.83,82.71,596896.0,49136906.0,4769454021.64,11325272000.0
sz300815,玉禾田,2021-05-20,81.5,82.29,80.48,81.64,81.83,544900.0,44250818.0,4758379889.12,11298976000.0
sz300815,玉禾田,2021-05-21,81.64,82.44,81.15,81.93,81.64,454140.0,37222009.0,4775282512.44,11339112000.0
sz300815,玉禾田,2021-05-24,81.95,83.5,81.53,82.3,81.93,1003114.0,82884476.0,4796847928.4,11390320000.0
sz300815,玉禾田,2021-05-25,82.06,82.47,80.69,82.25,82.3,799883.0,65082734.0,4793933683.0,11383400000.0
sz300815,玉禾田,2021-05-26,81.98,85.9,81.68,85.39,82.25,1355415.0,114332373.0,4976948294.12,11817976000.0
sz300815,玉禾田,2021-05-27,85.36,85.78,84.3,85.68,85.39,968423.0,82102653.0,4993850917.44,11858112000.0
sz300815,玉禾田,2021-05-28,85.45,86.47,85.11,86.38,85.68,965886.0,83044789.0,5034650353.04,11954992000.0
sz300815,玉禾田,2021-05-31,86.0,87.49,85.7,86.66,86.38,869858.0,75218817.0,5050970127.28,11993744000.0
sz300815,玉禾田,2021-06-01,88.03,88.58,86.19,87.66,86.66,1308826.0,113879084.0,5109255035.28,12132144000.0
sz300815,玉禾田,2021-06-02,87.0,87.0,84.52,85.11,87.66,1026822.0,87997610.0,4960628519.88,11779224000.0
sz300815,玉禾田,2021-06-03,85.3,86.87,85.18,86.11,85.11,927863.0,79817982.0,5018913427.88,11917624000.0
sz300815,玉禾田,2021-06-04,86.21,86.5,84.85,85.56,86.11,867864.0,74097947.0,4986856728.4800005,11841504000.0
sz300815,玉禾田,2021-06-07,86.98,87.01,85.61,85.95,85.56,1300728.0,112138299.0,5009587842.599999,11895480000.0
sz300815,玉禾田,2021-06-08,42.15,42.67,41.07,41.78,42.42,1563530.0,65297224.0,4870286912.4800005,11564704000.0
sz300815,玉禾田,2021-06-09,41.78,41.88,39.0,39.43,41.78,2792040.0,111880189.0,4596347844.88,10914224000.0
sz300815,玉禾田,2021-06-10,39.18,40.46,39.16,40.25,39.43,1670895.0,66945482.0,4691935094.0,11141200000.0
sz300815,玉禾田,2021-06-11,40.0,40.36,39.0,39.39,40.25,1530161.0,60372955.0,4591685052.24,10903152000.0
sz300815,玉禾田,2021-06-15,39.69,39.69,36.16,36.83,39.39,3273717.0,121291244.0,4293266323.28,10194544000.0
sz300815,玉禾田,2021-06-16,36.79,36.8,35.51,35.67,36.83,1788968.0,64496826.0,4158045336.72,9873456000.0
sz300815,玉禾田,2021-06-17,35.57,36.2,35.57,35.75,35.67,1010538.0,36183583.0,4167370922.0,9895600000.0
sz300815,玉禾田,2021-06-18,35.54,35.75,34.6,35.05,35.75,2379488.0,83266972.0,4085772050.8,9701840000.0
sz300815,玉禾田,2021-06-21,35.04,35.69,34.7,35.65,35.05,2122933.0,74692058.0,4155713940.4,9867920000.0
sz300815,玉禾田,2021-06-22,35.65,36.57,35.19,36.3,35.65,2217567.0,79630293.0,4231484320.8,10047840000.0
sz300815,玉禾田,2021-06-23,36.07,36.54,35.75,35.78,36.3,1788141.0,64542558.0,4170868016.48,9903904000.0
sz300815,玉禾田,2021-06-24,35.81,37.3,35.06,36.89,35.78,2550848.0,92092073.0,4300260512.24,10211152000.0
sz300815,玉禾田,2021-06-25,36.4,36.75,36.11,36.34,36.89,1584843.0,57699476.0,4236147113.44,10058912000.0
sz300815,玉禾田,2021-06-28,36.2,36.49,35.67,35.69,36.34,1582501.0,56989121.0,4160376733.04,9878992000.0
sz300815,玉禾田,2021-06-29,35.58,35.7,34.91,35.0,35.69,1441123.0,50734629.0,4079943560.000001,9688000000.0
sz300815,玉禾田,2021-06-30,35.07,35.28,34.83,34.83,35.0,1249958.0,43685221.0,4060126691.28,9640944000.0
sz300815,玉禾田,2021-07-01,34.7,35.72,34.7,34.91,34.83,1468230.0,51703389.0,4069452276.56,9663088000.0
sz300815,玉禾田,2021-07-02,34.8,35.62,34.61,35.02,34.91,1384511.0,48683538.0,4082274956.32,9693536000.0
sz300815,玉禾田,2021-07-05,35.24,35.34,33.96,34.1,35.02,1770935.0,60696650.0,3975030725.6,9438880000.0
sz300815,玉禾田,2021-07-06,34.21,34.22,33.59,34.14,34.1,1378794.0,46625950.0,3979693518.24,9449952000.0
sz300815,玉禾田,2021-07-07,33.81,34.78,33.79,34.16,34.14,1207361.0,41413231.0,3982024914.56,9455488000.0
sz300815,玉禾田,2021-07-08,34.1,34.42,33.61,33.72,34.16,1540956.0,52232896.0,3930734195.52,9333696000.0
sz300815,玉禾田,2021-07-09,33.6,35.38,33.34,34.42,33.72,2811333.0,97414810.0,4012333066.72,9527456000.0
sz300815,玉禾田,2021-07-12,34.45,34.91,33.96,34.68,34.42,1854121.0,63845979.0,4042641218.88,9599424000.0
sz300815,玉禾田,2021-07-13,34.68,35.52,34.26,35.48,34.68,2176867.0,76208462.0,4135897071.68,9820864000.0
sz300815,玉禾田,2021-07-14,36.0,36.0,34.76,35.08,35.48,1815022.0,63762202.0,4089269145.28,9710144000.0
sz300815,玉禾田,2021-07-15,35.1,35.1,33.7,33.79,35.08,1752141.0,59623883.0,3938894082.64,9353072000.0
sz300815,玉禾田,2021-07-16,33.8,34.29,33.6,33.76,33.79,883600.0,29913159.0,3935396988.16,9344768000.0
sz300815,玉禾田,2021-07-19,33.96,33.96,32.36,32.57,33.76,2101345.0,69113783.0,3796678907.12,9015376000.0
sz300815,玉禾田,2021-07-20,32.38,32.5,31.93,32.46,32.57,1152840.0,37130197.0,3783856227.36,8984928000.0
sz300815,玉禾田,2021-07-21,32.48,32.83,32.0,32.58,32.46,1239151.0,40348531.0,3797844605.28,9018144000.0
sz300815,玉禾田,2021-07-22,32.8,32.8,31.73,31.77,32.58,1568588.0,50296278.0,3703423054.32,8793936000.0
sz300815,玉禾田,2021-07-23,31.73,31.77,30.39,30.43,31.77,2151022.0,66298260.0,3547219500.88,8423024000.0
sz300815,玉禾田,2021-07-26,30.51,30.9,29.6,30.01,30.43,1280339.0,38513794.0,3498260178.16,8306768000.0
sz300815,玉禾田,2021-07-27,30.0,30.4,28.88,28.93,30.01,1718957.0,50536362.0,3372364776.88,8007824000.0
sz300815,玉禾田,2021-07-28,28.77,29.5,27.9,29.4,28.93,1974448.0,56925252.0,3427152590.4,8137920000.0
sz300815,玉禾田,2021-07-29,29.52,29.93,29.03,29.25,29.4,1547631.0,45604176.0,3409667118.0,8096400000.0
sz300815,玉禾田,2021-07-30,29.27,29.97,29.09,29.56,29.25,1805533.0,53329947.0,3445803760.96,8182208000.0
sz300815,玉禾田,2021-08-02,29.38,31.18,29.28,31.0,29.56,2629002.0,80180580.0,3613664296.0,8580800000.0
sz300815,玉禾田,2021-08-03,30.79,31.58,30.5,30.66,31.0,1621606.0,50039992.0,3574030558.56,8486688000.0
sz300815,玉禾田,2021-08-04,30.89,30.89,30.21,30.25,30.66,1481890.0,45107589.0,3526236934.0,8373200000.0
sz300815,玉禾田,2021-08-05,30.23,30.55,29.03,29.29,30.25,2161902.0,63929135.0,3414329910.64,8107472000.0
sz300815,玉禾田,2021-08-06,29.71,29.85,28.9,29.43,29.29,1156795.0,33810166.0,3430649684.88,8146224000.0
sz300815,玉禾田,2021-08-09,29.61,34.88,29.42,34.03,29.43,6993980.0,229973948.0,3966870838.48,9419504000.0
sz300815,玉禾田,2021-08-10,33.11,34.84,32.93,34.08,34.03,4970502.0,168361539.0,3972699329.28,9433344000.0
sz300815,玉禾田,2021-08-11,33.9,33.9,33.03,33.51,34.08,2965632.0,98936676.0,3906254534.16,9275568000.0
sz300815,玉禾田,2021-08-12,33.51,34.16,33.08,33.72,33.51,2763168.0,92831861.0,3930734195.52,9333696000.0
sz300815,玉禾田,2021-08-13,33.67,33.68,32.72,32.83,33.72,2305187.0,76093983.0,3826987059.28,9087344000.0
sz300815,玉禾田,2021-08-16,32.68,35.49,32.52,34.95,32.83,4541543.0,157670727.0,4074115069.2,9674160000.0
sz300815,玉禾田,2021-08-17,34.81,37.77,34.15,35.41,34.95,6723048.0,242468629.0,4127737184.56,9801488000.0
sz300815,玉禾田,2021-08-18,34.19,36.63,33.72,36.18,35.41,5565372.0,194615932.0,4217495942.88,10014624000.0
sz300815,玉禾田,2021-08-19,36.0,36.98,34.66,35.18,36.18,3318040.0,117497634.0,4100926126.88,9737824000.0
sz300815,玉禾田,2021-08-20,34.76,35.36,33.18,33.4,35.18,2644972.0,89015911.0,3893431854.4,9245120000.0
sz300815,玉禾田,2021-08-23,33.41,34.8,32.99,33.68,33.4,2249529.0,76251779.0,3926071402.88,9322624000.0
sz300815,玉禾田,2021-08-24,33.68,34.85,33.48,33.97,33.68,2308919.0,79189444.0,3959876649.52,9402896000.0
sz300815,玉禾田,2021-08-25,34.1,35.84,33.5,35.05,33.97,2997723.0,104577841.0,4085772050.8,9701840000.0
sz300815,玉禾田,2021-08-26,34.79,35.0,33.88,34.08,35.05,2211607.0,75883655.0,3972699329.28,9433344000.0
sz300815,玉禾田,2021-08-27,34.04,34.39,33.21,33.45,34.08,1775920.0,59777680.0,3899260345.2,9258960000.0
sz300815,玉禾田,2021-08-30,33.49,34.7,32.44,32.95,33.45,2719498.0,90511685.0,3840975437.2,9120560000.0
sz300815,玉禾田,2021-08-31,32.95,39.54,32.9,39.54,32.95,13160393.0,498205365.0,4609170524.64,10944672000.0
sz300815,玉禾田,2021-09-01,40.0,43.49,39.11,42.3,39.54,17772761.0,737215767.0,4930903216.8,11708640000.0
sz300815,玉禾田,2021-09-02,40.0,41.56,39.13,40.8,42.3,9795787.0,395213451.0,4756048492.8,11293440000.0
sz300815,玉禾田,2021-09-03,40.4,40.4,37.17,37.79,40.8,9381848.0,358511366.0,4405173346.64,10460272000.0
sz300815,玉禾田,2021-09-06,37.75,38.36,37.08,38.2,37.79,5422540.0,205084246.0,4452966971.2,10573760000.0
sz300815,玉禾田,2021-09-07,37.87,38.8,37.5,38.39,38.2,4773680.0,181670495.0,4475115236.24,10626352000.0
sz300815,玉禾田,2021-09-08,38.15,38.35,37.52,37.91,38.39,3381755.0,127714858.0,4419161724.56,10493488000.0
sz300815,玉禾田,2021-09-09,37.6,42.5,36.53,40.58,37.91,9063359.0,358492078.0,4730403133.28,11232544000.0
sz300815,玉禾田,2021-09-10,41.0,42.19,39.46,39.8,40.58,5915354.0,239357683.0,4639478676.8,11016640000.0
sz300815,玉禾田,2021-09-13,39.8,41.98,39.7,40.07,39.8,5059271.0,205865431.0,4670952527.12,11091376000.0
sz300815,玉禾田,2021-09-14,39.53,39.96,37.58,37.95,40.07,4679572.0,180143344.0,4423824517.2,10504560000.0
sz300815,玉禾田,2021-09-15,37.65,38.65,37.3,38.2,37.95,2840711.0,107880342.0,4452966971.2,10573760000.0
sz300815,玉禾田,2021-09-16,38.16,38.53,36.81,36.83,38.2,3032778.0,113872129.0,4293266323.28,10194544000.0
sz300815,玉禾田,2021-09-17,36.8,39.95,36.5,38.75,36.83,3998513.0,151983123.0,4517080370.0,10726000000.0
sz300815,玉禾田,2021-09-22,38.1,40.66,37.97,40.2,38.75,4860736.0,192861119.0,4686106603.2,11127360000.0
sz300815,玉禾田,2021-09-23,40.75,41.7,39.55,41.1,40.2,5715115.0,232405905.0,4791019437.6,11376480000.0
sz300815,玉禾田,2021-09-24,40.56,42.25,39.55,39.55,41.1,4954696.0,202639477.0,4610336222.8,10947440000.0
sz300815,玉禾田,2021-09-27,39.43,40.28,38.08,39.2,39.55,3725997.0,145534245.0,4569536787.2,10850560000.0
sz300815,玉禾田,2021-09-28,39.5,40.5,38.68,39.84,39.2,3215332.0,127709476.0,4644141469.44,11027712000.0
sz300815,玉禾田,2021-09-29,39.22,39.22,37.35,37.51,39.84,3661929.0,139838331.0,4372533798.16,10382768000.0
sz300815,玉禾田,2021-09-30,37.95,38.15,36.77,36.88,37.51,2275932.0,85188877.0,4299094814.08,10208384000.0
sz300815,玉禾田,2021-10-08,37.18,38.13,36.72,37.65,36.88,1952076.0,72783771.0,4388853572.4,10421520000.0
sz300815,玉禾田,2021-10-11,37.3,37.31,34.49,34.55,37.65,3773237.0,133129236.0,4027487142.8,9563440000.0
sz300815,玉禾田,2021-10-12,34.19,34.85,32.6,33.0,34.55,2498092.0,83581982.0,3846803928.0,9134400000.0
sz300815,玉禾田,2021-10-13,33.0,33.5,32.61,33.27,33.0,1519442.0,50209946.0,3878277778.32,9209136000.0
sz300815,玉禾田,2021-10-14,33.01,33.66,32.97,33.42,33.27,1061963.0,35454747.0,3895763250.72,9250656000.0
sz300815,玉禾田,2021-10-15,33.7,33.7,31.81,31.85,33.42,2603482.0,84417252.0,3712748639.6,8816080000.0
sz300815,玉禾田,2021-10-18,31.83,32.5,31.51,32.02,31.85,1104536.0,35460092.0,3732565508.32,8863136000.0
sz300815,玉禾田,2021-10-19,32.22,32.34,31.56,32.0,32.02,1271936.0,40644291.0,3730234112.0,8857600000.0
sz300815,玉禾田,2021-10-20,32.0,32.26,31.45,31.79,32.0,1335907.0,42490090.0,3705754450.64,8799472000.0
sz300815,玉禾田,2021-10-21,31.98,32.0,31.0,31.1,31.79,1529427.0,47994859.0,3625321277.6,8608480000.0
sz300815,玉禾田,2021-10-22,31.3,31.6,30.39,30.5,31.1,1630396.0,50319099.0,3555379388.0,8442400000.0
sz300815,玉禾田,2021-10-25,30.34,30.86,30.2,30.66,30.5,1537516.0,46919318.0,3574030558.56,8486688000.0
sz300815,玉禾田,2021-10-26,30.66,32.15,30.66,31.54,30.66,2745165.0,86718851.0,3676611996.64,8730272000.0
sz300815,玉禾田,2021-10-27,31.19,31.19,28.76,29.27,31.54,4151816.000000001,122262240.0,3411998514.32,8101936000.0
sz300815,玉禾田,2021-10-28,28.89,29.46,28.6,28.71,29.27,1548107.0,44562913.0,3346719417.36,7946928000.0
sz300815,玉禾田,2021-10-29,28.61,29.14,28.31,29.0,28.71,1504492.0,43401985.0,3380524663.9999995,8027200000.0
sz300815,玉禾田,2021-11-01,28.99,29.55,28.8,29.11,29.0,1546523.0,45015144.0,3393347343.76,8057648000.0
sz300815,玉禾田,2021-11-02,29.0,29.24,28.11,28.28,29.11,1939446.0,55526934.0,3296594396.48,7827904000.0
sz300815,玉禾田,2021-11-03,28.7,29.2,28.43,28.87,28.28,1331707.0,38424006.0,3365370587.92,7991216000.0
sz300815,玉禾田,2021-11-04,29.09,29.6,28.75,29.39,28.87,1816706.0,53137573.0,3425986892.24,8135152000.0
sz300815,玉禾田,2021-11-05,29.13,29.5,29.1,29.42,29.39,1416702.0,41559643.0,3429483986.72,8143456000.0
sz300815,玉禾田,2021-11-08,29.96,31.5,29.61,31.13,29.42,3807479.0,117831730.0,3628818372.08,8616784000.0
sz300815,玉禾田,2021-11-09,30.96,30.99,29.93,30.43,31.13,3543515.0,107395394.0,3547219500.88,8423024000.0
sz300815,玉禾田,2021-11-10,30.3,30.44,29.8,30.3,30.43,1880169.0,56487243.0,3532065424.8,8387040000.0
sz300815,玉禾田,2021-11-11,30.2,31.1,30.08,30.55,30.3,2268858.0,69586190.0,3561207878.8,8456240000.0
sz300815,玉禾田,2021-11-12,30.26,30.55,30.02,30.3,30.55,1528867.0,46149095.0,3532065424.8,8387040000.0
sz300815,玉禾田,2021-11-15,30.26,31.19,30.23,30.99,30.3,2341407.0,72231771.0,3612498597.84,8578032000.0
sz300815,玉禾田,2021-11-16,31.16,31.59,30.75,31.46,30.99,2601589.0,81205811.0,3667286411.36,8708128000.0
sz300815,玉禾田,2021-11-17,31.21,31.65,31.21,31.38,31.46,1817710.0,57058029.0,3657960826.08,8685984000.0
sz300815,玉禾田,2021-11-18,31.3,31.3,30.41,30.45,31.38,2087872.0,64108454.0,3549550897.2,8428560000.0
sz300815,玉禾田,2021-11-19,30.63,30.82,30.19,30.69,30.45,1324142.0,40504161.0,3577527653.04,8494992000.0
sz300815,玉禾田,2021-11-22,30.85,30.85,30.08,30.4,30.69,2101597.0,63695446.0,3543722406.3999996,8414720000.0
sz300815,玉禾田,2021-11-23,30.41,33.1,30.33,32.15,30.4,5305740.0,169731849.0,3747719584.4,8899120000.0
sz300815,玉禾田,2021-11-24,32.14,32.47,31.45,32.35,32.15,3432924.0,109728907.0,3771033547.6000004,8954480000.0
sz300815,玉禾田,2021-11-25,32.02,32.96,32.0,32.35,32.35,2372295.0,76904627.0,3771033547.6000004,8954480000.0
sz300815,玉禾田,2021-11-26,32.24,34.08,32.24,33.07,32.35,4634209.0,154527812.0,3854963815.12,9153776000.0
sz300815,玉禾田,2021-11-29,32.72,32.74,31.86,32.17,33.07,2963973.0,95655442.0,3750050980.7200003,8904656000.0
sz300815,玉禾田,2021-11-30,32.25,32.62,31.73,32.13,32.17,1961641.0,63055343.0,3745388188.08,8893584000.0
sz300815,玉禾田,2021-12-01,32.13,32.68,31.96,32.63,32.13,2300031.0,74480525.0,3803673096.08,9031984000.0
sz300815,玉禾田,2021-12-02,32.6,33.41,31.98,32.05,32.63,2350523.0,76188428.0,3736062602.7999997,8871440000.0
sz300815,玉禾田,2021-12-03,32.0,32.18,31.51,32.0,32.05,1866905.0,59390118.0,3730234111.9999995,8857600000.0
sz300815,玉禾田,2021-12-06,32.26,32.29,31.01,31.18,32.0,2120254.0,66854944.0,3634646862.88,8630624000.0
sz300815,玉禾田,2021-12-07,31.25,31.73,30.6,31.12,31.18,1413305.0,43950482.0,3627652673.92,8614016000.0
sz300815,玉禾田,2021-12-08,31.2,31.5,31.08,31.35,31.12,1074650.0,33663372.0,3654463731.6000004,8677680000.0
sz300815,玉禾田,2021-12-09,31.27,31.61,31.17,31.6,31.35,1579062.0,49671532.0,3683606185.6,8746880000.0
sz300815,玉禾田,2021-12-10,31.5,31.78,31.23,31.45,31.6,1234933.0,38924369.0,3666120713.2,8705360000.0
sz300815,玉禾田,2021-12-13,31.57,32.65,31.42,32.22,31.45,2366200.0,75965686.0,3755879471.52,8918496000.0
sz300815,玉禾田,2021-12-14,32.1,33.23,31.86,32.84,32.22,2931777.0,95913480.0,3828152757.44,9090112000.0
sz300815,玉禾田,2021-12-15,33.06,33.89,32.55,32.7,32.84,3516204.0,116393820.0,3811832983.2,9051360000.0
sz300815,玉禾田,2021-12-16,32.86,33.49,32.73,32.79,32.7,2315900.0,76562926.0,3822324266.6400003,9076272000.0
sz300815,玉禾田,2021-12-17,32.76,32.77,32.18,32.31,32.79,2012842.0,65294891.0,3766370754.96,8943408000.0
sz300815,玉禾田,2021-12-20,32.32,32.53,31.83,31.88,32.31,1706363.0,54863900.0,3716245734.08,8824384000.0
sz300815,玉禾田,2021-12-21,31.81,32.2,31.66,32.01,31.88,1183641.0,37771736.0,3731399810.16,8860368000.0
sz300815,玉禾田,2021-12-22,32.08,32.19,31.8,31.97,32.01,1113642.0,35582965.0,3726737017.5200005,8849296000.0
sz300815,玉禾田,2021-12-23,31.97,31.97,30.69,30.69,31.97,2537501.0,78788265.0,3577527653.04,8494992000.0
sz300815,玉禾田,2021-12-24,30.69,30.98,29.85,29.89,30.69,1841527.0,55488890.0,3484271800.2400002,8273552000.0
sz300815,玉禾田,2021-12-27,29.89,30.1,29.8,30.03,29.89,1147627.0,34414130.0,3500591574.48,8312304000.0
sz300815,玉禾田,2021-12-28,30.0,30.28,30.0,30.15,30.03,1149787.0,34626704.0,3514579952.4,8345520000.0
sz300815,玉禾田,2021-12-29,30.1,30.7,29.71,30.32,30.15,1322984.0,40047783.0,3534396821.12,8392576000.0
sz300815,玉禾田,2021-12-30,30.32,30.5,30.05,30.32,30.32,1040866.0,31577390.0,3534396821.12,8392576000.0
sz300815,玉禾田,2021-12-31,30.55,31.13,30.4,30.58,30.32,1284502.0,39461713.0,3564704973.28,8464544000.0
sz300815,玉禾田,2022-01-04,30.81,31.17,30.51,31.05,30.58,1492164.0,46220165.0,3619492786.7999997,8594640000.0
sz300815,玉禾田,2022-01-05,31.05,31.65,30.6,30.9,31.05,1795824.0,55795256.0,3602007314.4,8553120000.0
sz300815,玉禾田,2022-01-06,30.82,31.61,30.71,31.36,30.9,1996387.0,62634855.0,3655629429.76,8680448000.0
sz300815,玉禾田,2022-01-07,31.34,31.7,31.1,31.2,31.36,1611932.0,50506775.0,3636978259.2,8636160000.0
sz300815,玉禾田,2022-01-10,31.5,31.66,30.43,31.21,31.2,1190836.0,37008357.0,3638143957.3599997,8638928000.0
sz300815,玉禾田,2022-01-11,31.31,31.78,31.2,31.21,31.21,1232838.0,38717605.0,3638143957.3599997,8638928000.0
sz300815,玉禾田,2022-01-12,31.1,31.52,31.0,31.21,31.21,1083216.0,33801278.0,3638143957.3599997,8638928000.0
sz300815,玉禾田,2022-01-13,31.21,31.25,30.55,30.58,31.21,1271504.0,39216896.0,3564704973.28,8464544000.0
sz300815,玉禾田,2022-01-14,30.58,30.62,29.91,29.95,30.58,1709954.0,51584184.0,3491265989.2000003,8290160000.0
