数据由邢不行整理
股票代码,股票名称,交易日期,开盘价,最高价,最低价,收盘价,前收盘价,成交量,成交额,流通市值,总市值
sz300805,N电声,2019-11-21,12.24,14.69,12.24,14.69,10.2,152490.0,2233853.0,621827700.0,6217248700.0
sz300805,电声股份,2019-11-22,16.16,16.16,16.16,16.16,14.69,31316.0,506066.0,684052800.0,6839396800.0
sz300805,电声股份,2019-11-25,17.78,17.78,17.78,17.78,16.16,40409.0,718472.0,752627400.0,7525029400.0
sz300805,电声股份,2019-11-26,19.56,19.56,19.56,19.56,17.78,84399.0,1650844.0,827974800.0,8278378800.0
sz300805,电声股份,2019-11-27,21.52,21.52,21.52,21.52,19.56,195742.0,4212367.0,910941600.0,9107909600.0
sz300805,电声股份,2019-11-28,23.67,23.67,23.67,23.67,21.52,302487.0,7159867.0,1001951100.0,10017854100.0
sz300805,电声股份,2019-11-29,26.04,26.04,26.04,26.04,23.67,291117.0,7580686.0,1102273200.0,11020909200.0
sz300805,电声股份,2019-12-02,28.64,28.64,28.64,28.64,26.04,6265267.0,179437246.0,1212331200.0,12121307200.0
sz300805,电声股份,2019-12-03,28.07,30.0,26.66,26.76,28.64,28697294.0,814302900.0,1132750800.0,11325634800.0
sz300805,电声股份,2019-12-04,25.02,26.7,24.5,25.89,26.76,19122197.0,485837398.0,1095923700.0,10957424700.0
sz300805,电声股份,2019-12-05,25.9,26.19,25.4,25.58,25.89,16032224.0,412849387.0,1082801400.0,10826223400.0
sz300805,电声股份,2019-12-06,25.01,25.15,23.68,23.68,25.58,17393597.0,421918047.0,1002374400.0,10022086400.0
sz300805,电声股份,2019-12-09,23.36,24.1,22.89,24.0,23.68,13210511.0,309927521.0,1015920000.0,10157520000.0
sz300805,电声股份,2019-12-10,23.68,24.95,23.56,24.6,24.0,13169101.0,320540830.0,1041318000.0,10411458000.0
sz300805,电声股份,2019-12-11,24.38,25.67,24.22,24.6,24.6,14974487.0,373725923.0,1041318000.0,10411458000.0
sz300805,电声股份,2019-12-12,24.64,24.91,23.4,23.5,24.6,11338092.0,269732613.0,994755000.0,9945905000.0
sz300805,电声股份,2019-12-13,23.8,25.14,23.6,24.45,23.5,13262484.0,324018857.0,1034968500.0,10347973500.0
sz300805,电声股份,2019-12-16,24.08,25.75,24.08,25.6,24.45,14960681.0,374202324.0,1083648000.0,10834688000.0
sz300805,电声股份,2019-12-17,25.31,25.68,24.92,25.59,25.6,12780299.0,322647731.0,1083224700.0,10830455700.0
sz300805,电声股份,2019-12-18,25.41,26.0,24.88,24.99,25.59,12251011.0,311277609.0,1057826700.0,10576517700.0
sz300805,电声股份,2019-12-19,25.25,25.86,24.28,24.6,24.99,11263466.0,282619570.0,1041318000.0,10411458000.0
sz300805,电声股份,2019-12-20,24.44,24.67,23.03,23.1,24.6,11015438.0,260386979.0,977823000.0,9776613000.0
sz300805,电声股份,2019-12-23,22.21,22.64,22.08,22.1,23.1,6456692.0,144178389.0,935493000.0,9353383000.0
sz300805,电声股份,2019-12-24,22.02,22.29,21.8,22.25,22.1,4621412.0,101974298.0,941842500.0,9416867500.0
sz300805,电声股份,2019-12-25,22.35,22.88,22.21,22.25,22.25,5034178.0,113135412.0,941842500.0,9416867500.0
sz300805,电声股份,2019-12-26,22.35,24.48,22.05,24.48,22.25,11443276.0,266473779.0,1036238400.0,10360670400.0
sz300805,电声股份,2019-12-27,25.8,26.93,25.1,26.93,24.48,23460809.0,612977504.0,1139946900.0,11397583900.0
sz300805,电声股份,2019-12-30,26.5,26.51,24.76,24.88,26.93,18226616.0,465262237.0,1053170400.0,10529962400.0
sz300805,电声股份,2019-12-31,24.17,27.37,24.17,27.37,24.88,21971127.0,574548079.0,1158572100.0,11583805100.0
sz300805,电声股份,2020-01-02,27.3,30.11,26.81,30.11,27.37,23508928.0,683701151.0,1274556300.0,12743455300.0
sz300805,电声股份,2020-01-03,30.94,30.95,27.1,27.1,30.11,26450452.0,749967252.0,1147143000.0,11469533000.0
sz300805,电声股份,2020-01-06,25.35,26.15,25.24,25.84,27.1,14416288.0,370253030.0,1093807200.0,10936263200.0
sz300805,电声股份,2020-01-07,25.71,26.77,25.6,26.1,25.84,12608489.0,331202330.0,1104813000.0,11046303000.0
sz300805,电声股份,2020-01-08,25.0,25.41,24.01,24.36,26.1,12079988.0,299679411.0,1031158800.0,10309882800.0
sz300805,电声股份,2020-01-09,24.85,25.07,24.42,24.79,24.36,6776333.0,167930982.0,1049360700.0,10491871700.0
sz300805,电声股份,2020-01-10,25.21,25.21,24.2,24.35,24.79,5830108.0,143287274.0,1030735500.0,10305650500.0
sz300805,电声股份,2020-01-13,24.85,25.98,24.43,25.73,24.35,10839737.0,275517551.0,1089150900.0,10889707900.0
sz300805,电声股份,2020-01-14,25.75,26.55,25.4,25.82,25.73,10998137.0,285669211.0,1092960600.0,10927798600.0
sz300805,电声股份,2020-01-15,26.01,26.87,25.88,26.28,25.82,9432042.0,249418136.0,1112432400.0,11122484400.0
sz300805,电声股份,2020-01-16,26.24,26.43,25.3,26.43,26.28,7942613.0,206052248.0,1118781900.0,11185968900.0
sz300805,电声股份,2020-01-17,26.43,27.47,26.01,26.23,26.43,9787855.0,263320689.0,1110315900.0,11101322900.0
sz300805,电声股份,2020-01-20,25.3,26.18,23.82,25.96,26.23,8434735.0,212944382.0,1098886800.0,10987050800.0
sz300805,电声股份,2020-01-21,26.08,26.18,25.21,25.39,25.96,5702272.0,146686607.0,1074758700.0,10745809700.0
sz300805,电声股份,2020-01-22,24.82,25.57,24.82,25.06,25.39,4647421.0,117372987.0,1060789800.0,10606143800.0
sz300805,电声股份,2020-01-23,24.9,25.54,23.88,24.32,25.06,4612015.0,113970231.0,1029465600.0,10292953600.0
sz300805,电声股份,2020-02-03,21.89,21.89,21.89,21.89,24.32,439000.0,9609710.0,926603700.0,9264504700.0
sz300805,电声股份,2020-02-04,19.7,20.92,19.7,20.78,21.89,6262034.0,127933214.0,879617400.0,8794719400.0
sz300805,电声股份,2020-02-05,20.7,22.15,20.57,21.21,20.78,5040453.0,107831053.0,897819300.0,8976708300.0
sz300805,电声股份,2020-02-06,21.04,23.33,21.02,23.33,21.21,7172176.0,159247419.0,987558900.0,9873955900.0
sz300805,电声股份,2020-02-07,23.02,24.66,22.95,23.88,23.33,5977311.0,142800638.0,1010840400.0,10106732400.0
sz300805,电声股份,2020-02-10,23.69,26.27,22.5,26.27,23.88,9541574.0,238162162.0,1112009100.0,11118252100.0
sz300805,电声股份,2020-02-11,26.0,28.9,25.05,27.98,26.27,11680905.0,320298403.0,1184393400.0,11841975400.0
sz300805,电声股份,2020-02-12,27.8,30.78,27.65,30.78,27.98,8076715.0,240194634.0,1302917400.0,13027019400.0
sz300805,电声股份,2020-02-13,32.01,33.86,31.99,33.86,30.78,8184376.0,271727819.0,1433293800.0,14330567800.0
sz300805,电声股份,2020-02-14,35.19,37.25,32.59,37.25,33.86,13512915.0,476914084.0,1576792500.0,15765317500.0
sz300805,电声股份,2020-02-17,38.5,40.98,36.96,40.98,37.25,10355280.0,403263239.0,1734683400.0,17343965400.0
sz300805,电声股份,2020-02-18,42.0,44.07,36.88,36.88,40.98,28649003.0,1146581954.0,1561130400.0,15608722400.0
sz300805,电声股份,2020-02-19,33.19,33.26,33.19,33.19,36.88,6948766.0,230640628.0,1404932700.0,14047003700.0
sz300805,电声股份,2020-02-20,30.11,31.12,29.87,29.96,33.19,25772474.0,777780217.0,1268206800.0,12679970800.0
sz300805,电声股份,2020-02-21,29.0,30.29,28.5,29.45,29.96,14301518.0,422508767.0,1246618500.0,12464123500.0
sz300805,电声股份,2020-02-24,29.44,30.64,29.44,30.19,29.45,12171892.0,366472657.0,1277942700.0,12777313700.0
sz300805,电声股份,2020-02-25,28.99,32.95,28.68,31.91,30.19,14729867.0,445634671.0,1350750300.0,13505269300.0
sz300805,电声股份,2020-02-26,31.28,32.72,30.0,30.12,31.91,11720807.0,368457043.0,1274979600.0,12747687600.0
sz300805,电声股份,2020-02-27,30.3,30.56,29.42,29.72,30.12,6377981.0,190716081.0,1258047600.0,12578395600.0
sz300805,电声股份,2020-02-28,27.85,28.64,26.75,26.75,29.72,9800034.0,270047037.0,1132327500.0,11321402500.0
sz300805,电声股份,2020-03-02,27.11,28.96,27.05,28.57,26.75,7754874.0,216243245.0,1209368100.0,12091681100.0
sz300805,电声股份,2020-03-03,28.94,29.83,28.32,28.7,28.57,8324216.0,242674156.0,1214871000.0,12146701000.0
sz300805,电声股份,2020-03-04,29.1,31.57,28.62,31.57,28.7,17373697.0,535584145.0,1336358100.0,13361371100.0
sz300805,电声股份,2020-03-05,32.52,33.3,31.17,31.5,31.57,17474394.0,561600186.0,1333395000.0,13331745000.0
sz300805,电声股份,2020-03-06,30.59,30.95,29.4,29.99,31.5,10950288.0,329506539.0,1269476700.0,12692667700.0
sz300805,电声股份,2020-03-09,28.84,29.28,27.3,27.3,29.99,9381581.0,264186569.0,1155609000.0,11554179000.0
sz300805,电声股份,2020-03-10,26.8,28.23,26.01,28.11,27.3,7343836.0,200301126.0,1189896300.0,11896995300.0
sz300805,电声股份,2020-03-11,28.2,28.5,27.08,27.09,28.11,6059772.0,167926169.0,1146719700.0,11465300700.0
sz300805,电声股份,2020-03-12,26.5,27.18,26.1,26.32,27.09,4279950.0,113129687.0,1114125600.0,11139413600.0
sz300805,电声股份,2020-03-13,24.77,25.78,23.69,25.18,26.32,6271330.0,154897232.0,1065869400.0,10656931400.0
sz300805,电声股份,2020-03-16,25.59,26.32,23.91,24.2,25.18,5214000.0,131894326.0,1024386000.0,10242166000.0
sz300805,电声股份,2020-03-17,24.17,25.7,23.01,25.32,24.2,6689187.0,164468444.0,1071795600.0,10716183600.0
sz300805,电声股份,2020-03-18,25.6,25.97,24.25,24.29,25.32,5896444.0,149097100.0,1028195700.0,10280256700.0
sz300805,电声股份,2020-03-19,24.14,24.97,23.81,24.62,24.29,4383830.0,106926830.0,1042164600.0,10419922600.0
sz300805,电声股份,2020-03-20,24.76,27.08,24.62,27.08,24.62,8653321.0,223837486.0,1146296400.0,11461068400.0
sz300805,电声股份,2020-03-23,26.0,29.5,25.96,28.4,27.08,13599239.0,377514161.0,1202172000.0,12019732000.0
sz300805,电声股份,2020-03-24,28.3,29.55,26.5,27.39,28.4,11376441.0,318840916.0,1159418700.0,11592269700.0
sz300805,电声股份,2020-03-25,27.8,29.28,27.52,28.0,27.39,9697664.0,275973882.0,1185240000.0,11850440000.0
sz300805,电声股份,2020-03-26,27.19,27.48,25.69,25.73,28.0,9269560.0,246537203.0,1089150900.0,10889707900.0
sz300805,电声股份,2020-03-27,26.48,28.3,26.16,27.03,25.73,10626561.0,292132739.0,1144179900.0,11439906900.0
sz300805,电声股份,2020-03-30,25.38,26.5,25.2,25.73,27.03,7305493.0,187609731.0,1089150900.0,10889707900.0
sz300805,电声股份,2020-03-31,26.15,26.3,24.61,24.65,25.73,5863200.0,147596642.0,1043434500.0,10432619500.0
sz300805,电声股份,2020-04-01,24.66,25.38,24.25,24.98,24.65,5121849.0,127407849.0,1057403400.0,10572285400.0
sz300805,电声股份,2020-04-02,24.68,26.22,24.68,26.17,24.98,6310564.0,160988059.0,1107776100.0,11075929100.0
sz300805,电声股份,2020-04-03,25.83,26.23,25.51,25.58,26.17,4678518.0,120616342.0,1082801400.0,10826223400.0
sz300805,电声股份,2020-04-07,26.4,26.5,25.81,26.19,25.58,5056134.0,132169283.0,1108622700.0,11084393700.0
sz300805,电声股份,2020-04-08,26.18,27.68,25.85,26.77,26.19,7140255.0,191271269.0,1133174100.0,11329867100.0
sz300805,电声股份,2020-04-09,27.0,28.28,26.77,28.0,26.77,8868508.0,244878120.0,1185240000.0,11850440000.0
sz300805,电声股份,2020-04-10,27.9,27.9,25.51,25.67,28.0,7620849.0,201216597.0,1086611100.0,10864314100.0
sz300805,电声股份,2020-04-13,25.08,25.38,24.5,24.66,25.67,4404379.0,109381554.0,1043857800.0,10436851800.0
sz300805,电声股份,2020-04-14,25.0,25.19,24.74,25.17,24.66,2865988.0,71670031.0,1065446100.0,10652699100.0
sz300805,电声股份,2020-04-15,25.19,25.28,24.5,24.53,25.17,3785074.0,93529303.0,1038354900.0,10381831900.0
sz300805,电声股份,2020-04-16,24.27,24.76,24.09,24.7,24.53,2453060.0,60200471.0,1045551000.0,10453781000.0
sz300805,电声股份,2020-04-17,24.8,24.99,24.29,24.3,24.7,3251408.0,79970377.0,1028619000.0,10284489000.0
sz300805,电声股份,2020-04-20,24.3,24.47,23.8,23.88,24.3,3104208.0,74305507.0,1010840400.0,10106732400.0
sz300805,电声股份,2020-04-21,23.89,24.89,23.89,24.82,23.88,4883969.0,119844786.0,1050630600.0,10504568600.0
sz300805,电声股份,2020-04-22,24.59,25.2,24.37,24.9,24.82,3832174.0,94980489.0,1054017000.0,10538427000.0
sz300805,电声股份,2020-04-23,25.0,25.09,24.1,24.25,24.9,3038937.0,74354134.0,1026502500.0,10263327500.0
sz300805,电声股份,2020-04-24,24.25,24.36,22.8,22.9,24.25,3404411.0,79773743.0,969357000.0,9691967000.0
sz300805,电声股份,2020-04-27,23.07,23.34,22.73,22.91,22.9,1813132.0,41667272.0,969780300.0,9696199300.0
sz300805,电声股份,2020-04-28,23.08,23.16,20.62,21.8,22.91,3495106.0,75568254.0,922794000.0,9226414000.0
sz300805,电声股份,2020-04-29,21.75,22.19,21.01,21.09,21.8,2469645.0,53018838.0,892739700.0,8925920700.0
sz300805,电声股份,2020-04-30,21.32,21.97,21.32,21.75,21.09,2318706.0,50178591.0,920677500.0,9205252500.0
sz300805,电声股份,2020-05-06,21.48,22.35,21.36,22.35,21.75,2163166.0,47689055.0,946075500.0,9459190500.0
sz300805,电声股份,2020-05-07,22.37,22.78,22.09,22.65,22.35,3234792.0,72719109.0,958774500.0,9586159500.0
sz300805,电声股份,2020-05-08,22.46,23.8,22.44,23.35,22.65,4451275.0,103069153.0,988405500.0,9882420500.0
sz300805,电声股份,2020-05-11,23.65,25.02,23.09,24.4,23.35,6694863.0,160881679.0,1032852000.0,10326812000.0
sz300805,电声股份,2020-05-12,24.19,24.19,23.07,23.8,24.4,4952132.0,116757499.0,1007454000.0,10072874000.0
sz300805,电声股份,2020-05-13,23.52,24.86,23.5,24.61,23.8,6170813.0,149996817.0,1041741300.0,10415690300.0
sz300805,电声股份,2020-05-14,24.3,24.6,23.62,23.71,24.61,4866063.0,116844430.0,1003644300.0,10034783300.0
sz300805,电声股份,2020-05-15,24.0,26.08,23.63,26.08,23.71,11454318.0,294216402.0,1103966400.0,11037838400.0
sz300805,电声股份,2020-05-18,26.4,26.77,24.54,24.8,26.08,12421001.0,316872838.0,1049784000.0,10496104000.0
sz300805,电声股份,2020-05-19,24.58,25.34,24.34,24.99,24.8,6875195.0,170266084.0,1057826700.0,10576517700.0
sz300805,电声股份,2020-05-20,24.61,25.67,24.39,24.56,24.99,6754426.0,168476607.0,1039624800.0,10394528800.0
sz300805,电声股份,2020-05-21,24.34,24.7,23.69,23.73,24.56,4881665.0,116708176.0,1004490900.0,10043247900.0
sz300805,电声股份,2020-05-22,23.9,23.9,22.23,22.45,23.73,4126489.0,94211274.0,950308500.0,9501513500.0
sz300805,电声股份,2020-05-25,22.42,22.99,21.99,22.73,22.45,2545216.0,57271403.0,962160900.0,9620017900.0
sz300805,电声股份,2020-05-26,22.97,23.84,22.68,23.52,22.73,3402403.0,79476935.0,995601600.0,9954369600.0
sz300805,电声股份,2020-05-27,23.52,23.85,22.85,22.89,23.52,3213426.0,74831786.0,968933700.0,9687734700.0
sz300805,电声股份,2020-05-28,22.92,23.36,22.3,22.53,22.89,2725698.0,62085480.0,953694900.0,9535371900.0
sz300805,电声股份,2020-05-29,22.53,23.56,22.53,23.06,22.53,3893871.0,90476962.0,976129800.0,9759683800.0
sz300805,电声股份,2020-06-01,23.36,25.37,23.29,25.37,23.06,7878466.0,196610823.0,1073912100.0,10737345100.0
sz300805,电声股份,2020-06-02,26.0,26.0,24.45,24.73,25.37,11162766.0,279907136.0,1046820900.0,10466477900.0
sz300805,电声股份,2020-06-03,24.74,25.33,24.43,24.79,24.73,6529646.0,162412480.0,1049360700.0,10491871700.0
sz300805,电声股份,2020-06-04,24.83,25.58,24.5,25.02,24.79,6565235.0,164186723.0,1059096600.0,10589214600.0
sz300805,电声股份,2020-06-05,24.77,24.91,24.16,24.37,25.02,4404526.0,107947833.0,1031582100.0,10314115100.0
sz300805,电声股份,2020-06-08,24.69,25.07,24.22,24.39,24.37,2589718.0,63363307.0,1032428700.0,10322579700.0
sz300805,电声股份,2020-06-09,24.1,24.99,24.1,24.8,24.29,4781818.0,117924213.0,1049784000.0,10496104000.0
sz300805,电声股份,2020-06-10,24.79,24.8,23.8,23.95,24.8,4100000.0,99129531.0,1013803500.0,10136358500.0
sz300805,电声股份,2020-06-11,24.0,24.45,23.6,23.61,23.95,3087608.0,74006489.0,999411300.0,9992460300.0
sz300805,电声股份,2020-06-12,22.72,23.48,22.7,23.35,23.61,3097308.0,71765980.0,988405500.0,9882420500.0
sz300805,电声股份,2020-06-15,23.21,23.73,23.0,23.32,23.35,2377216.0,55867127.0,987135600.0,9869723600.0
sz300805,电声股份,2020-06-16,23.6,23.83,23.33,23.58,23.32,2153542.0,50712539.0,998141400.0,9979763400.0
sz300805,电声股份,2020-06-17,23.48,23.9,23.05,23.85,23.58,3299008.0,77693320.0,1009570500.0,10094035500.0
sz300805,电声股份,2020-06-18,23.65,23.84,23.3,23.39,23.85,2444816.0,57453696.0,990098700.0,9899349700.0
sz300805,电声股份,2020-06-19,23.25,23.8,23.25,23.4,23.39,2368471.0,55717185.0,990522000.0,9903582000.0
sz300805,电声股份,2020-06-22,23.5,23.58,23.15,23.16,23.4,2702300.0,62879121.0,980362800.0,9802006800.0
sz300805,电声股份,2020-06-23,23.18,23.39,22.82,22.84,23.16,2604200.0,60087883.0,966817200.0,9666573200.0
sz300805,电声股份,2020-06-24,22.8,22.96,22.2,22.38,22.84,2786500.0,62594058.0,947345400.0,9471887400.0
sz300805,电声股份,2020-06-29,22.36,23.0,22.1,22.9,22.38,2288078.0,51847738.0,969357000.0,9691967000.0
sz300805,电声股份,2020-06-30,22.9,23.18,22.75,22.92,22.9,2128000.0,48859435.0,970203600.0,9700431600.0
sz300805,电声股份,2020-07-01,22.87,23.32,22.72,23.32,22.92,2722808.0,62697732.0,987135600.0,9869723600.0
sz300805,电声股份,2020-07-02,23.16,23.44,23.1,23.3,23.32,2475508.0,57571332.0,986289000.0,9861259000.0
sz300805,电声股份,2020-07-03,23.33,23.4,23.2,23.36,23.3,2311200.0,53884064.0,988828800.0,9886652800.0
sz300805,电声股份,2020-07-06,24.5,24.5,23.58,24.02,23.36,4884406.0,117064311.0,1016766600.0,10165984600.0
sz300805,电声股份,2020-07-07,24.06,25.2,23.93,24.71,24.02,7082416.0,174731616.0,1045974300.0,10458013300.0
sz300805,电声股份,2020-07-08,24.71,25.17,24.45,25.0,24.71,5237708.0,130446931.0,1058250000.0,10580750000.0
sz300805,电声股份,2020-07-09,24.84,26.57,24.84,25.9,25.0,8120978.0,208337627.0,1096347000.0,10961657000.0
sz300805,电声股份,2020-07-10,25.68,26.16,24.94,24.98,25.9,5323500.0,135905187.0,1057403400.0,10572285400.0
sz300805,电声股份,2020-07-13,25.02,25.88,25.01,25.54,24.98,4464008.0,113613119.0,1081108200.0,10809294200.0
sz300805,电声股份,2020-07-14,25.87,26.89,25.55,26.09,25.54,7558509.0,197852334.0,1104389700.0,11042070700.0
sz300805,电声股份,2020-07-15,26.18,26.18,24.2,24.46,26.09,5789542.0,145136504.0,1035391800.0,10352205800.0
sz300805,电声股份,2020-07-16,24.7,24.71,23.11,23.12,24.46,3459800.0,82750472.0,978669600.0,9785077600.0
sz300805,电声股份,2020-07-17,23.31,23.68,22.91,23.12,23.12,1940800.0,44992982.0,978669600.0,9785077600.0
sz300805,电声股份,2020-07-20,23.2,23.65,23.12,23.6,23.12,2079000.0,48657467.0,998988000.0,9988228000.0
sz300805,电声股份,2020-07-21,23.6,24.19,23.51,23.62,23.6,2250200.0,53540932.0,999834600.0,9996692600.0
sz300805,电声股份,2020-07-22,23.79,23.88,23.3,23.6,23.62,2311675.0,54528885.0,998988000.0,9988228000.0
sz300805,电声股份,2020-07-23,23.5,23.5,22.4,22.89,23.6,2891524.0,66101296.0,968933700.0,9687734700.0
sz300805,电声股份,2020-07-24,22.75,23.12,21.82,21.88,22.89,2630030.0,58812111.0,926180400.0,9260272400.0
sz300805,电声股份,2020-07-27,21.91,22.09,21.5,21.65,21.88,1483338.0,32310072.0,916444500.0,9162929500.0
sz300805,电声股份,2020-07-28,21.95,22.1,21.78,22.05,21.65,1093100.0,23984084.0,933376500.0,9332221500.0
sz300805,电声股份,2020-07-29,21.92,22.56,21.8,22.54,22.05,1680408.0,37377004.0,954118200.0,9539604200.0
sz300805,电声股份,2020-07-30,22.5,22.6,22.15,22.2,22.54,1495616.0,33383929.0,939726000.0,9395706000.0
sz300805,电声股份,2020-07-31,22.2,22.81,21.91,22.52,22.2,2254916.0,50454179.0,953271600.0,9531139600.0
sz300805,电声股份,2020-08-03,22.5,23.04,22.5,23.03,22.52,2343512.0,53446231.0,974859900.0,9746986900.0
sz300805,电声股份,2020-08-04,23.25,23.25,22.61,22.7,23.03,1835521.0,41900678.0,960891000.0,9607321000.0
sz300805,电声股份,2020-08-05,22.56,22.82,22.33,22.64,22.7,1464508.0,33077749.0,958351200.0,9581927200.0
sz300805,电声股份,2020-08-06,22.69,22.75,22.11,22.27,22.64,1712432.0,38242402.0,942689100.0,9425332100.0
sz300805,电声股份,2020-08-07,22.21,22.35,21.58,21.82,22.27,1658229.0,36334827.0,923640600.0,9234878600.0
sz300805,电声股份,2020-08-10,21.9,22.4,21.82,22.24,21.82,1061200.0,23559309.0,941419200.0,9412635200.0
sz300805,电声股份,2020-08-11,22.15,22.45,21.75,21.75,22.24,1318728.0,29125134.0,920677500.0,9205252500.0
sz300805,电声股份,2020-08-12,21.63,21.94,21.16,21.38,21.75,1528108.0,32624109.0,905015400.0,9048657400.0
sz300805,电声股份,2020-08-13,21.49,21.63,21.37,21.42,21.38,991500.0,21270724.0,906708600.0,9065586600.0
sz300805,电声股份,2020-08-14,21.39,21.5,21.11,21.49,21.42,1121008.0,23908829.0,909671700.0,9095212700.0
sz300805,电声股份,2020-08-17,21.46,21.92,21.45,21.9,21.49,1522600.0,33050773.0,927027000.0,9268737000.0
sz300805,电声股份,2020-08-18,21.94,22.07,21.7,21.87,21.9,1300893.0,28447923.0,925757100.0,9256040100.0
sz300805,电声股份,2020-08-19,21.85,21.87,21.37,21.48,21.87,1341908.0,28909300.0,909248400.0,9090980400.0
sz300805,电声股份,2020-08-20,21.31,21.47,21.16,21.17,21.48,894407.0,19040429.0,896126100.0,8959779100.0
sz300805,电声股份,2020-08-21,21.21,22.2,21.21,21.82,21.17,2115515.0,45933234.0,923640600.0,9234878600.0
sz300805,电声股份,2020-08-24,21.7,21.94,20.83,21.52,21.82,1620885.0,34614620.0,910941600.0,9107909600.0
sz300805,电声股份,2020-08-25,21.79,22.59,21.5,22.34,21.52,3654693.0,81319909.0,945652200.0,9454958200.0
sz300805,电声股份,2020-08-26,22.21,22.49,21.7,21.84,22.34,1974593.0,43329391.0,924487200.0,9243343200.0
sz300805,电声股份,2020-08-27,21.86,22.68,21.5,22.48,21.84,2836014.0,62977477.0,951578400.0,9514210400.0
sz300805,电声股份,2020-08-28,22.36,22.96,22.29,22.37,22.48,2823900.0,63592507.0,946922100.0,9467655100.0
sz300805,电声股份,2020-08-31,22.45,22.78,22.2,22.34,22.37,2341621.0,52558727.0,945652200.0,9454958200.0
sz300805,电声股份,2020-09-01,22.23,22.23,21.75,22.12,22.34,1554200.0,34101677.0,936339600.0,9361847600.0
sz300805,电声股份,2020-09-02,22.12,24.3,22.02,24.06,22.12,7845541.0,183587694.0,1018459800.0,10182913800.0
sz300805,电声股份,2020-09-03,24.14,25.16,23.4,24.45,24.06,9037744.0,219852491.0,1034968500.0,10347973500.0
sz300805,电声股份,2020-09-04,23.78,25.65,23.55,25.03,24.45,7867944.0,195830040.0,1059519900.0,10593446900.0
sz300805,电声股份,2020-09-07,24.83,25.63,24.11,24.5,25.03,6847395.0,170627061.0,1037085000.0,10369135000.0
sz300805,电声股份,2020-09-08,24.21,26.5,24.03,25.7,24.5,8458308.0,215145093.0,1087881000.0,10877011000.0
sz300805,电声股份,2020-09-09,26.09,26.9,25.05,25.38,25.7,11856072.0,309190858.0,1074335400.0,10741577400.0
sz300805,电声股份,2020-09-10,25.18,25.18,22.03,22.12,25.38,7475006.0,174994403.0,936339600.0,9361847600.0
sz300805,电声股份,2020-09-11,22.18,22.99,21.11,22.96,22.12,5055494.0,112404989.0,971896800.0,9717360800.0
sz300805,电声股份,2020-09-14,22.91,24.98,22.53,24.34,22.96,7956008.0,192520027.0,1030312200.0,10301418200.0
sz300805,电声股份,2020-09-15,24.61,25.0,23.69,24.0,24.34,6589200.0,159264100.0,1015920000.0,10157520000.0
sz300805,电声股份,2020-09-16,24.0,24.48,23.3,24.3,24.0,6449702.0,154355343.0,1028619000.0,10284489000.0
sz300805,电声股份,2020-09-17,24.35,24.68,23.86,24.0,24.3,5743987.0,139392411.0,1015920000.0,10157520000.0
sz300805,电声股份,2020-09-18,23.91,24.15,22.8,22.98,24.0,5756168.0,134345545.0,972743400.0,9725825400.0
sz300805,电声股份,2020-09-21,22.96,23.39,22.66,22.67,22.98,3016723.0,69254714.0,959621100.0,9594624100.0
sz300805,电声股份,2020-09-22,22.25,22.69,22.08,22.18,22.67,2149200.0,47997196.0,938879400.0,9387241400.0
sz300805,电声股份,2020-09-23,22.18,22.45,21.93,22.11,22.18,2763586.0,61364707.0,935916300.0,9357615300.0
sz300805,电声股份,2020-09-24,21.99,21.99,21.15,21.63,22.11,2864200.0,61613623.0,915597900.0,9154464900.0
sz300805,电声股份,2020-09-25,21.68,22.16,21.53,21.69,21.63,1911379.0,41743631.0,918137700.0,9179858700.0
sz300805,电声股份,2020-09-28,21.7,21.89,21.24,21.27,21.69,1422595.0,30443367.0,900359100.0,9002102100.0
sz300805,电声股份,2020-09-29,21.35,21.66,21.2,21.27,21.27,1611308.0,34488619.0,900359100.0,9002102100.0
sz300805,电声股份,2020-09-30,21.39,21.42,20.88,20.98,21.27,1516142.0,32002007.0,888083400.0,8879365400.0
sz300805,电声股份,2020-10-09,21.23,21.8,21.22,21.52,20.98,1333900.0,28657339.0,910941600.0,9107909600.0
sz300805,电声股份,2020-10-12,21.68,22.28,21.55,22.19,21.52,2045208.0,44997871.0,939302700.0,9391473700.0
sz300805,电声股份,2020-10-13,22.18,22.18,21.84,22.05,22.19,1945500.0,42696761.0,933376500.0,9332221500.0
sz300805,电声股份,2020-10-14,21.95,21.96,21.5,21.55,22.05,1774600.0,38507797.0,912211500.0,9120606500.0
sz300805,电声股份,2020-10-15,21.6,22.68,21.31,22.45,21.55,3490150.0,77044032.0,950308500.0,9501513500.0
sz300805,电声股份,2020-10-16,22.26,23.47,22.11,23.24,22.45,5521912.0,126283566.0,983749200.0,9835865200.0
sz300805,电声股份,2020-10-19,23.0,24.5,22.67,24.02,23.24,7313339.0,173002389.0,1016766600.0,10165984600.0
sz300805,电声股份,2020-10-20,24.36,24.79,23.66,24.6,24.02,8550033.0,208026529.0,1041318000.0,10411458000.0
sz300805,电声股份,2020-10-21,24.75,29.52,24.52,29.52,24.6,10543037.0,298076306.0,1249581600.0,12493749600.0
sz300805,电声股份,2020-10-22,32.0,35.42,31.71,35.42,29.52,28739166.0,971917700.0,1499328599.9999998,14990806600.0
sz300805,电声股份,2020-10-23,36.08,38.8,33.6,33.7,35.42,30767915.0,1116297154.0,1426521000.0,14262851000.0
sz300805,电声股份,2020-10-26,33.13,34.49,31.81,32.39,33.7,19502444.0,641292178.0,1371068700.0,13708419700.0
sz300805,电声股份,2020-10-27,31.71,33.1,29.99,30.62,32.39,18172483.0,568869095.0,1296144600.0,12959302600.0
sz300805,电声股份,2020-10-28,30.66,30.97,28.88,29.95,30.62,15515714.0,460697285.0,1267783500.0,12675738500.0
sz300805,电声股份,2020-10-29,28.9,30.37,28.05,29.06,29.95,12981263.0,379010831.0,1230109800.0,12299063799.999998
sz300805,电声股份,2020-10-30,29.04,29.3,27.22,27.31,29.06,11457808.0,324773538.0,1156032300.0,11558411299.999998
sz300805,电声股份,2020-11-02,27.5,27.88,26.56,27.34,27.31,7520202.0,203886128.0,1157302200.0,11571108200.0
sz300805,电声股份,2020-11-03,27.28,27.74,26.8,27.71,27.34,8654094.0,237027062.0,1172964300.0,11727703300.0
sz300805,电声股份,2020-11-04,27.71,27.71,25.78,26.17,27.71,10491894.0,276816886.0,1107776100.0,11075929100.0
sz300805,电声股份,2020-11-05,26.56,26.77,26.11,26.68,26.17,7212508.0,191010303.0,1129364400.0,11291776399.999998
sz300805,电声股份,2020-11-06,26.82,27.46,26.05,26.09,26.68,7566800.0,200614356.0,1104389700.0,11042070700.0
sz300805,电声股份,2020-11-09,26.49,27.0,26.1,27.0,26.09,8298700.0,220806873.0,1142910000.0,11427210000.0
sz300805,电声股份,2020-11-10,26.85,27.09,25.41,25.68,27.0,7807400.0,202189902.0,1087034400.0,10868546399.999998
sz300805,电声股份,2020-11-11,25.51,25.67,24.69,24.75,25.68,5746508.0,144455613.0,1047667500.0,10474942500.0
sz300805,电声股份,2020-11-12,24.81,25.38,24.48,25.05,24.75,4432157.0,110581341.0,1060366500.0,10601911500.0
sz300805,电声股份,2020-11-13,24.99,25.36,24.3,24.5,25.05,4316600.0,106743101.0,1037085000.0,10369135000.0
sz300805,电声股份,2020-11-16,24.7,24.9,24.23,24.48,24.5,3362500.0,82591531.0,1036238400.0,10360670400.0
sz300805,电声股份,2020-11-17,24.37,24.4,23.63,24.12,24.48,3916942.0,93993634.0,1020999600.0,10208307600.0
sz300805,电声股份,2020-11-18,24.0,25.17,23.6,24.91,24.12,6598500.0,162838775.0,1054440300.0,10542659300.0
sz300805,电声股份,2020-11-19,24.68,24.96,24.31,24.96,24.91,5156200.0,127205445.0,1056556800.0,10563820800.0
sz300805,电声股份,2020-11-20,24.79,25.45,24.03,24.03,24.96,6503500.0,160261807.0,1017189900.0,10170216900.0
sz300805,电声股份,2020-11-23,23.86,24.29,23.08,23.35,24.03,5401200.0,127906430.0,2989500500.0,9882420500.0
sz300805,电声股份,2020-11-24,23.39,23.58,22.96,22.97,23.35,4565100.0,106109630.0,2940849099.9999995,9721593100.0
sz300805,电声股份,2020-11-25,23.02,23.37,22.93,22.95,22.97,4057716.0,93734431.0,2938288500.0,9713128500.0
sz300805,电声股份,2020-11-26,23.23,26.38,23.23,25.1,22.95,16619300.0,418755555.0,3213553000.0,10623073000.0
sz300805,电声股份,2020-11-27,24.79,24.8,23.71,24.18,25.1,10799100.0,260149570.0,3095765400.0,10233701400.0
sz300805,电声股份,2020-11-30,24.0,24.14,23.21,23.21,24.18,6509500.0,153555473.0,2971576300.0,9823168300.0
sz300805,电声股份,2020-12-01,23.09,23.68,22.99,23.5,23.21,4950000.0,115954732.0,3008705000.0,9945905000.0
sz300805,电声股份,2020-12-02,23.43,23.65,23.06,23.13,23.5,5105000.0,118456192.0,2961333900.0,9789309900.0
sz300805,电声股份,2020-12-03,23.11,23.58,22.92,23.28,23.13,4585300.0,106661861.0,2980538400.0000005,9852794400.0
sz300805,电声股份,2020-12-04,23.42,24.14,23.28,23.6,23.28,5425700.0,128476761.0,3021508000.0,9988228000.0
sz300805,电声股份,2020-12-07,23.7,23.71,22.02,22.02,23.6,8018300.0,182476287.0,2819220600.0,9319524600.0
sz300805,电声股份,2020-12-08,22.25,22.86,22.08,22.29,22.02,4821500.0,107863243.0,2853788700.0,9433796700.0
sz300805,电声股份,2020-12-09,22.16,22.24,21.46,21.47,22.29,4951742.0,107656006.0,2748804099.9999995,9086748100.0
sz300805,电声股份,2020-12-10,21.48,21.7,21.22,21.27,21.47,2948600.0,63180762.0,2723198100.0,9002102100.0
sz300805,电声股份,2020-12-11,21.35,21.8,21.1,21.49,21.27,4281300.0,91807247.0,2751364699.9999995,9095212700.0
sz300805,电声股份,2020-12-14,21.2,21.49,20.8,21.29,21.49,3479900.0,73837658.0,2725758700.0,9010566700.0
sz300805,电声股份,2020-12-15,21.58,21.67,21.2,21.2,21.29,3076242.0,65811097.0,2714236000.0,8972476000.0
sz300805,电声股份,2020-12-16,21.08,21.19,20.19,20.3,21.2,4804800.0,98858037.0,2599009000.0,8591569000.0
sz300805,电声股份,2020-12-17,20.39,20.56,19.85,20.52,20.3,3356765.0,67954706.0,2627175600.0,8684679600.0
sz300805,电声股份,2020-12-18,20.56,20.69,20.03,20.03,20.52,2498200.0,50629120.0,2564440900.0,8477296899.999999
sz300805,电声股份,2020-12-21,20.05,20.25,19.9,19.99,20.03,2239500.0,44880505.0,2559319700.0,8460367700.0
sz300805,电声股份,2020-12-22,19.92,20.33,19.48,19.51,19.99,3688500.0,73057506.0,2497865300.0,8257217300.0
sz300805,电声股份,2020-12-23,19.44,19.59,19.03,19.05,19.51,3698300.0,71095033.0,2438971500.0,8062531500.0
sz300805,电声股份,2020-12-24,19.33,19.33,18.24,18.25,19.05,4166700.0,77407886.0,2336547500.0,7723947500.0
sz300805,电声股份,2020-12-25,18.42,18.83,18.05,18.39,18.25,3135911.0,58013687.0,2354471700.0,7783199700.0
sz300805,电声股份,2020-12-28,19.12,19.91,18.8,18.8,18.39,6149608.0,118488426.0,2406964000.0,7956724000.0
sz300805,电声股份,2020-12-29,18.81,18.98,18.42,18.5,18.8,3440000.0,64175074.0,2368555000.0,7829755000.0
sz300805,电声股份,2020-12-30,18.98,18.98,18.28,18.33,18.5,2958642.0,54870129.0,2346789900.0,7757805900.0
sz300805,电声股份,2020-12-31,18.26,19.19,18.26,18.85,18.33,3644726.0,68501018.0,2413365500.0,7977885500.0
sz300805,电声股份,2021-01-04,18.54,19.28,18.54,19.13,18.85,2823095.0,53592777.0,2449213900.0,8096389900.0
sz300805,电声股份,2021-01-05,19.06,19.27,18.76,18.79,19.13,2894178.0,54770935.0,2405683700.0,7952491700.0
sz300805,电声股份,2021-01-06,18.62,18.93,18.03,18.15,18.79,3234508.0,59285239.0,2323744500.0,7681624500.0
sz300805,电声股份,2021-01-07,18.21,18.21,16.58,16.78,18.15,5083436.0,87108571.0,2148343400.0,7101799399.999999
sz300805,电声股份,2021-01-08,16.78,17.25,16.23,17.0,16.78,2926300.0,49320935.0,2176510000.0,7194910000.0
sz300805,电声股份,2021-01-11,17.13,17.17,16.36,16.42,17.0,2388500.0,39760273.0,2102252600.0,6949436600.0
sz300805,电声股份,2021-01-12,16.58,17.07,16.28,16.56,16.42,1771800.0,29448309.0,2120176800.0,7008688800.0
sz300805,电声股份,2021-01-13,16.39,16.43,15.88,16.05,16.56,2373065.0,38197694.0,2054881500.0,6792841500.0
sz300805,电声股份,2021-01-14,16.23,16.68,16.05,16.41,16.05,2035100.0,33258817.0,2100972300.0,6945204300.000001
sz300805,电声股份,2021-01-15,16.25,17.64,16.25,17.18,16.41,4161049.0,71678252.0,2199555400.0,7271091400.0
sz300805,电声股份,2021-01-18,16.95,17.59,16.87,17.29,17.18,2326100.0,40356127.0,2213638700.0,7317646700.0
sz300805,电声股份,2021-01-19,17.25,18.64,17.16,18.23,17.29,4676795.0,84063527.0,2333986900.0,7715482900.0
sz300805,电声股份,2021-01-20,17.91,18.18,17.6,17.85,18.23,3108808.0,55245894.0,2285335500.0,7554655500.0
sz300805,电声股份,2021-01-21,17.7,18.27,17.49,17.77,17.85,3118100.0,55871194.0,2275093100.0,7520797100.0
sz300805,电声股份,2021-01-22,17.86,17.91,17.32,17.4,17.77,2095500.0,36665681.0,2227722000.0,7364202000.0
sz300805,电声股份,2021-01-25,17.3,17.54,16.75,16.77,17.4,2373800.0,40245519.0,2147063100.0,7097567100.0
sz300805,电声股份,2021-01-26,16.82,17.42,16.72,16.74,16.77,1769700.0,30107026.0,2143222200.0,7084870200.0
sz300805,电声股份,2021-01-27,16.7,17.98,16.55,17.23,16.74,3231308.0,55986087.0,2205956900.0,7292252900.0
sz300805,电声股份,2021-01-28,17.05,18.19,17.02,17.6,17.23,3862065.0,68316038.0,2253328000.0,7448848000.0
sz300805,电声股份,2021-01-29,17.47,17.76,16.26,16.48,17.6,4149500.0,69594991.0,2109934400.0,6974830400.0
sz300805,电声股份,2021-02-01,16.5,17.05,16.43,16.65,16.48,2004300.0,33383210.0,2131699500.0,7046779500.0
sz300805,电声股份,2021-02-02,16.45,16.78,16.05,16.32,16.65,2085300.0,33969454.0,2089449600.0,6907113600.0
sz300805,电声股份,2021-02-03,16.11,16.43,15.9,15.94,16.32,1888400.0,30465317.0,2040798200.0,6746286200.0
sz300805,电声股份,2021-02-04,16.08,16.08,14.94,15.2,15.94,3031665.0,46451954.0,1946056000.0,6433096000.0
sz300805,电声股份,2021-02-05,15.18,15.66,14.74,14.82,15.2,1974200.0,29817551.0,1897404600.0,6272268600.0
sz300805,电声股份,2021-02-08,14.82,15.05,14.51,14.67,14.82,1464800.0,21691679.0,1878200100.0,6208784100.0
sz300805,电声股份,2021-02-09,14.86,15.16,14.64,15.03,14.67,1639800.0,24416080.0,1924290900.0,6361146899.999999
sz300805,电声股份,2021-02-10,15.18,15.26,14.77,14.83,15.03,1377000.0,20569643.0,1898684900.0,6276500900.0
sz300805,电声股份,2021-02-18,15.1,15.77,15.1,15.55,14.83,2215295.0,34352328.0,1990866500.0,6581226500.0
sz300805,电声股份,2021-02-19,15.55,16.08,15.42,16.05,15.55,1926588.0,30588344.0,2054881500.0,6792841500.0
sz300805,电声股份,2021-02-22,16.3,16.78,16.09,16.17,16.05,2749000.0,45123772.0,2070245100.0,6843629100.0
sz300805,电声股份,2021-02-23,16.04,16.42,15.75,15.84,16.17,2099000.0,33503392.0,2027995200.0,6703963199.999999
sz300805,电声股份,2021-02-24,15.94,16.47,15.74,16.31,15.84,2617441.0,42582651.0,2088169300.0,6902881300.0
sz300805,电声股份,2021-02-25,16.29,16.75,16.01,16.11,16.31,2852500.0,46552693.0,2062563300.0,6818235300.0
sz300805,电声股份,2021-02-26,15.89,16.41,15.8,16.25,16.11,2178700.0,35260665.0,2080487500.0,6877487500.0
sz300805,电声股份,2021-03-01,16.29,16.63,16.2,16.52,16.25,2215900.0,36533677.0,2115055600.0,6991759600.0
sz300805,电声股份,2021-03-02,16.74,16.9,16.33,16.52,16.52,2370741.0,39299029.0,2115055600.0,6991759600.0
sz300805,电声股份,2021-03-03,16.4,16.65,16.21,16.46,16.52,2276600.0,37252009.0,2107373800.0,6966365800.0
sz300805,电声股份,2021-03-04,16.3,16.49,15.87,15.92,16.46,2187700.0,35256020.0,2038237600.0,6737821600.0
sz300805,电声股份,2021-03-05,15.88,16.71,15.88,16.66,15.92,3487221.0,57333798.0,2132979800.0,7051011800.000001
sz300805,电声股份,2021-03-08,16.71,17.23,16.44,16.48,16.66,3847352.0,65081066.0,2109934400.0,6974830400.0
sz300805,电声股份,2021-03-09,16.48,16.76,15.36,15.59,16.48,3426945.0,55036034.0,1995987700.0,6598155699.999999
sz300805,电声股份,2021-03-10,15.75,15.9,15.02,15.06,15.59,2633353.0,40226255.0,1928131800.0,6373843800.0
sz300805,电声股份,2021-03-11,15.19,15.32,14.78,15.28,15.06,2054100.0,30961336.0,1956298400.0,6466954399.999999
sz300805,电声股份,2021-03-12,15.34,15.39,14.74,14.8,15.28,2270000.0,33889510.0,1894844000.0,6263804000.0
sz300805,电声股份,2021-03-15,14.84,14.96,14.6,14.74,14.8,1206631.0,17782230.0,1887162200.0,6238410200.0
sz300805,电声股份,2021-03-16,14.76,15.05,14.71,15.0,14.74,1247747.0,18616839.0,1920450000.0,6348450000.0
sz300805,电声股份,2021-03-17,14.96,15.74,14.95,15.34,15.0,2649700.0,40605031.0,1963980200.0,6492348199.999999
sz300805,电声股份,2021-03-18,15.29,15.34,15.02,15.1,15.34,2143700.0,32454408.0,1933253000.0,6390773000.0
sz300805,电声股份,2021-03-19,15.02,15.66,14.92,15.28,15.1,3005589.0,46221967.0,1956298400.0,6466954399.999999
sz300805,电声股份,2021-03-22,15.23,15.58,15.23,15.46,15.28,1752600.0,27044139.0,1979343800.0,6543135800.0
sz300805,电声股份,2021-03-23,15.42,15.53,15.04,15.2,15.46,1660877.0,25266826.0,1946056000.0,6433096000.0
sz300805,电声股份,2021-03-24,15.2,15.46,15.05,15.33,15.2,1889985.0,28928537.0,1962699900.0,6488115900.0
sz300805,电声股份,2021-03-25,15.32,15.5,15.17,15.19,15.33,1648292.0,25197606.0,1944775700.0,6428863700.0
sz300805,电声股份,2021-03-26,15.2,15.46,15.01,15.33,15.19,1849802.0,28195040.0,1962699900.0,6488115900.0
sz300805,电声股份,2021-03-29,15.4,15.46,14.88,14.91,15.33,2008882.0,30384713.0,1908927300.0,6310359300.000001
sz300805,电声股份,2021-03-30,14.92,14.99,14.6,14.65,14.91,1936880.0,28482397.0,1875639500.0,6200319500.0
sz300805,电声股份,2021-03-31,14.5,14.76,14.45,14.68,14.65,1055137.0,15460813.0,1879480400.0,6213016400.0
sz300805,电声股份,2021-04-01,14.63,14.74,14.54,14.67,14.68,1147400.0,16813878.0,1878200100.0,6208784100.0
sz300805,电声股份,2021-04-02,14.68,15.35,14.65,14.97,14.67,2020587.0,30257929.0,1916609100.0,6335753100.000001
sz300805,电声股份,2021-04-06,15.2,15.3,15.0,15.13,14.97,1599100.0,24229190.0,1937093900.0,6403469900.0
sz300805,电声股份,2021-04-07,15.37,15.58,15.15,15.43,15.13,2454037.0,37693880.0,1975502900.0,6530438900.0
sz300805,电声股份,2021-04-08,15.43,15.48,15.05,15.1,15.43,1962229.0,29840830.0,1933253000.0,6390773000.0
sz300805,电声股份,2021-04-09,15.02,16.0,14.82,15.97,15.1,5655719.0,87900207.0,2044639100.0,6758983100.000001
sz300805,电声股份,2021-04-12,16.09,16.3,15.34,15.36,15.97,4603960.0,72420096.0,1966540800.0,6500812800.0
sz300805,电声股份,2021-04-13,15.26,15.45,14.93,15.0,15.36,2110500.0,31906259.0,1920450000.0,6348450000.0
sz300805,电声股份,2021-04-14,15.0,15.55,14.8,15.25,15.0,1948931.0,29615675.0,1952457500.0,6454257500.0
sz300805,电声股份,2021-04-15,15.25,15.38,14.99,15.01,15.25,1467360.0,22140581.0,1921730300.0,6352682300.0
sz300805,电声股份,2021-04-16,14.76,15.33,14.76,15.21,15.01,1924660.0,29179237.0,1947336300.0,6437328300.0
sz300805,电声股份,2021-04-19,15.23,15.44,15.14,15.39,15.21,1770358.0,27127787.0,1970381700.0,6513509700.0
sz300805,电声股份,2021-04-20,15.32,15.57,15.09,15.11,15.39,2188564.0,33518385.0,1934533300.0,6395005300.0
sz300805,电声股份,2021-04-21,15.08,15.11,14.91,14.93,15.11,1427315.0,21401124.0,1911487900.0,6318823900.0
sz300805,电声股份,2021-04-22,14.95,15.23,14.93,14.97,14.93,1096150.0,16438216.0,1916609100.0,6335753100.000001
sz300805,电声股份,2021-04-23,14.97,15.05,14.8,14.81,14.97,1273100.0,18928924.0,1896124300.0,6268036300.0
sz300805,电声股份,2021-04-26,14.76,14.91,14.6,14.88,14.81,1024700.0,15131131.0,1905086400.0,6297662400.0
sz300805,电声股份,2021-04-27,14.95,14.95,14.49,14.64,14.88,1291050.0,18896618.0,1874359200.0,6196087200.0
sz300805,电声股份,2021-04-28,14.64,14.64,13.62,13.68,14.64,3277961.0,45822818.0,1751450400.0,5789786400.0
sz300805,电声股份,2021-04-29,13.75,13.88,13.67,13.68,13.68,1127400.0,15545745.0,1751450400.0,5789786400.0
sz300805,电声股份,2021-04-30,13.72,13.78,13.11,13.19,13.68,1909660.0,25618280.0,1688715700.0,5582403700.0
sz300805,电声股份,2021-05-06,13.23,13.43,13.2,13.22,13.19,801700.0,10670293.0,1692556600.0,5595100600.000001
sz300805,电声股份,2021-05-07,13.26,13.37,13.2,13.24,13.22,921300.0,12219997.0,1695117200.0,5603565200.0
sz300805,电声股份,2021-05-10,13.39,13.39,13.1,13.18,13.24,1106500.0,14610395.0,1687435400.0,5578171400.0
sz300805,电声股份,2021-05-11,13.16,13.31,13.02,13.28,13.18,1117500.0,14777920.0,1700238400.0,5620494399.999999
sz300805,电声股份,2021-05-12,13.28,13.6,13.15,13.54,13.28,1300598.0,17412561.0,1733526200.0,5730534200.0
sz300805,电声股份,2021-05-13,13.41,13.65,13.33,13.43,13.54,1345598.0,18187516.0,1719442900.0,5683978900.0
sz300805,电声股份,2021-05-14,13.48,13.65,13.41,13.62,13.43,1087908.0,14776746.0,1743768599.9999998,5764392600.0
sz300805,电声股份,2021-05-17,13.62,13.66,13.25,13.32,13.62,1351200.0,18015887.0,1705359600.0,5637423600.0
sz300805,电声股份,2021-05-18,13.45,14.26,13.33,14.02,13.32,3139498.0,43809274.0,1794980600.0,5933684600.0
sz300805,电声股份,2021-05-19,13.8,14.02,13.8,13.81,14.02,1590484.0,22057041.0,1768094300.0,5844806300.0
sz300805,电声股份,2021-05-20,13.75,13.97,13.66,13.81,13.81,1420400.0,19665090.0,1768094300.0,5844806300.0
sz300805,电声股份,2021-05-21,14.0,14.19,13.56,13.61,13.81,1848800.0,25480419.0,1742488299.9999998,5760160300.0
sz300805,电声股份,2021-05-24,13.59,13.7,13.45,13.48,13.61,1459998.0,19764045.0,1725844400.0,5705140400.0
sz300805,电声股份,2021-05-25,13.48,13.59,13.29,13.32,13.48,2493516.0,33359047.0,1705359600.0,5637423600.0
sz300805,电声股份,2021-05-26,13.39,14.4,13.37,13.85,13.32,4608146.0,64213421.0,1773215500.0,5861735500.0
sz300805,电声股份,2021-05-27,13.67,14.02,13.58,13.88,13.85,2815682.0,38969019.0,1777056400.0000002,5874432400.0
sz300805,电声股份,2021-05-28,13.88,14.04,13.68,13.72,13.88,1914400.0,26469926.0,1756571600.0,5806715600.000001
sz300805,电声股份,2021-05-31,13.75,14.04,13.66,13.94,13.72,1857260.0,25803619.0,1784738200.0,5899826200.0
sz300805,电声股份,2021-06-01,13.85,14.24,13.84,14.18,13.94,2436100.0,34345098.0,1815465400.0,6001401400.0
sz300805,电声股份,2021-06-02,14.24,14.3,13.8,13.93,14.18,2193600.0,30793491.0,1783457900.0,5895593900.0
sz300805,电声股份,2021-06-03,13.93,14.15,13.81,13.84,13.93,1707600.0,23898722.0,1771935200.0,5857503199.999999
sz300805,电声股份,2021-06-04,13.79,13.95,13.72,13.8,13.84,1339602.0,18489468.0,1766814000.0,5840574000.0
sz300805,电声股份,2021-06-07,13.85,13.92,13.78,13.81,13.8,1245120.0,17219137.0,1768094300.0,5844806300.0
sz300805,电声股份,2021-06-08,13.85,14.08,13.68,14.0,13.81,2119226.0,29473942.0,1792420000.0,5925220000.0
sz300805,电声股份,2021-06-09,14.0,14.23,13.93,14.16,14.0,2248305.0,31760344.0,1812904800.0,5992936800.000001
sz300805,电声股份,2021-06-10,14.36,14.57,14.12,14.21,14.16,3484652.0,49837870.0,1819306300.0,6014098300.0
sz300805,电声股份,2021-06-11,14.14,15.2,13.99,14.76,14.21,6752959.0,98801990.0,1889722800.0,6246874800.0
sz300805,电声股份,2021-06-15,14.61,15.86,14.21,15.58,14.76,8938793.0,135104147.0,1994707400.0,6593923400.0
sz300805,电声股份,2021-06-16,15.27,15.38,14.78,14.92,15.58,5775777.0,86910764.0,1910207600.0,6314591600.0
sz300805,电声股份,2021-06-17,15.05,15.19,14.64,14.82,14.92,4099366.0,61114330.0,1897404600.0,6272268600.0
sz300805,电声股份,2021-06-18,14.82,15.0,14.55,14.99,14.82,3175400.0,46882720.0,1919169700.0,6344217700.0
sz300805,电声股份,2021-06-21,14.99,15.0,14.69,14.78,14.99,2477744.0,36673785.0,1892283400.0,6255339399.999999
sz300805,电声股份,2021-06-22,14.88,14.95,14.55,14.6,14.78,2574160.0,37853368.0,1869238000.0,6179158000.0
sz300805,电声股份,2021-06-23,14.66,14.79,14.53,14.72,14.6,2135360.0,31323769.0,1884601600.0,6229945600.000001
sz300805,电声股份,2021-06-24,14.7,15.08,14.51,15.07,14.72,4008796.0,59718974.0,1929412100.0,6378076100.0
sz300805,电声股份,2021-06-25,15.07,15.07,14.18,14.2,15.07,4456722.0,64633900.0,1818026000.0,6009866000.0
sz300805,电声股份,2021-06-28,14.1,14.18,13.72,13.87,14.2,2523100.0,34912276.0,1775776099.9999998,5870200100.0
sz300805,电声股份,2021-06-29,13.85,13.98,13.66,13.68,13.87,1619344.0,22346926.0,1751450400.0,5789786400.0
sz300805,电声股份,2021-06-30,13.68,13.82,13.65,13.77,13.68,1133200.0,15571953.0,1762973100.0,5827877100.0
sz300805,电声股份,2021-07-01,13.77,13.82,13.3,13.33,13.77,1885300.0,25524904.0,1706639900.0,5641655900.0
sz300805,电声股份,2021-07-02,13.3,13.63,13.3,13.43,13.33,1206068.0,16227983.0,1719442900.0,5683978900.0
sz300805,电声股份,2021-07-05,13.37,13.72,13.36,13.72,13.43,1261200.0,17136097.0,1756571600.0,5806715600.000001
sz300805,电声股份,2021-07-06,13.77,13.77,13.34,13.53,13.72,1240800.0,16816125.0,1732245900.0,5726301899.999999
sz300805,电声股份,2021-07-07,13.46,13.67,13.41,13.65,13.53,921740.0,12534489.0,1747609500.0,5777089500.0
sz300805,电声股份,2021-07-08,13.63,13.66,13.42,13.43,13.6,1111500.0,14990409.0,1719442900.0,5683978900.0
sz300805,电声股份,2021-07-09,13.35,13.57,13.26,13.5,13.43,974530.0,13105667.0,1728405000.0,5713605000.0
sz300805,电声股份,2021-07-12,13.59,13.82,13.52,13.63,13.5,1189300.0,16266188.0,1745048900.0000002,5768624900.0
sz300805,电声股份,2021-07-13,13.63,13.94,13.55,13.76,13.63,1892160.0,26113944.0,1761692800.0,5823644800.0
sz300805,电声股份,2021-07-14,13.75,13.85,13.5,13.54,13.76,1396000.0,18967973.0,1733526200.0,5730534200.0
sz300805,电声股份,2021-07-15,13.5,13.58,13.13,13.23,13.54,1464630.0,19414993.0,1693836900.0,5599332900.0
sz300805,电声股份,2021-07-16,13.26,13.47,13.19,13.21,13.23,917800.0,12172879.0,1691276300.0,5590868300.0
sz300805,电声股份,2021-07-19,13.13,13.2,12.96,13.17,13.21,1117960.0,14616921.0,1686155100.0,5573939100.0
sz300805,电声股份,2021-07-20,13.06,13.25,13.04,13.25,13.17,753642.0,9924230.0,1696397500.0,5607797500.0
sz300805,电声股份,2021-07-21,13.34,13.41,13.2,13.31,13.25,878300.0,11682964.0,1704079300.0,5633191300.0
sz300805,电声股份,2021-07-22,13.31,13.49,13.23,13.38,13.31,1001408.0,13374442.0,1713041400.0000002,5662817400.0
sz300805,电声股份,2021-07-23,13.38,13.38,13.0,13.0,13.38,1329088.0,17408986.0,1664390000.0,5501990000.0
sz300805,电声股份,2021-07-26,12.99,13.09,12.55,12.66,13.0,1607600.0,20483063.0,1620859800.0,5358091800.000001
sz300805,电声股份,2021-07-27,12.79,12.79,12.5,12.5,12.66,998200.0,12610216.0,1600375000.0,5290375000.0
sz300805,电声股份,2021-07-28,12.55,12.75,11.94,12.0,12.5,1491105.0,18084369.0,1536360000.0,5078760000.0
sz300805,电声股份,2021-07-29,12.05,12.28,12.05,12.13,12.0,966172.0,11752179.0,1553003900.0000002,5133779900.0
sz300805,电声股份,2021-07-30,12.12,13.2,12.01,12.47,12.13,2540581.0,32335908.0,1596534100.0,5277678100.000001
sz300805,电声股份,2021-08-02,12.43,12.64,12.35,12.6,12.47,1930336.0,24153766.0,1613178000.0,5332698000.0
sz300805,电声股份,2021-08-03,12.6,12.89,12.48,12.52,12.6,1667130.0,21133115.0,1602935600.0,5298839600.0
sz300805,电声股份,2021-08-04,12.54,12.74,12.49,12.65,12.52,1285660.0,16213214.0,1619579500.0,5353859500.0
sz300805,电声股份,2021-08-05,12.6,12.64,12.32,12.32,12.65,1452123.0,18069669.0,1577329600.0,5214193600.0
sz300805,电声股份,2021-08-06,12.46,12.5,12.06,12.16,12.32,1118320.0,13598809.0,1556844800.0,5146476800.0
sz300805,电声股份,2021-08-09,12.24,12.8,12.15,12.72,12.16,2284132.0,28493130.0,1628541600.0,5383485600.000001
sz300805,电声股份,2021-08-10,12.61,12.81,12.56,12.74,12.72,1459060.0,18547805.0,1631102200.0,5391950200.0
sz300805,电声股份,2021-08-11,12.74,12.86,12.66,12.71,12.74,1309257.0,16671249.0,1627261300.0,5379253300.0
sz300805,电声股份,2021-08-12,12.75,12.95,12.66,12.76,12.71,1280780.0,16390755.0,1633662800.0,5400414800.0
sz300805,电声股份,2021-08-13,12.94,13.32,12.73,13.14,12.76,3027217.0,39314624.0,1682314200.0000002,5561242200.0
sz300805,电声股份,2021-08-16,13.13,13.58,13.03,13.42,13.14,3578568.0,47959653.0,1718162600.0,5679746600.0
sz300805,电声股份,2021-08-17,13.37,13.4,12.78,12.79,13.42,2661561.0,34656853.0,1637503700.0,5413111700.0
sz300805,电声股份,2021-08-18,12.71,13.07,12.71,13.03,12.79,2092385.0,26895435.0,1668230900.0,5514686899.999999
sz300805,电声股份,2021-08-19,13.26,13.26,12.51,12.56,13.03,2358157.0,29965829.0,1608056800.0,5315768800.0
sz300805,电声股份,2021-08-20,12.46,12.55,12.2,12.3,12.56,1521598.0,18675453.0,1574769000.0,5205729000.0
sz300805,电声股份,2021-08-23,12.24,12.72,12.19,12.53,12.3,2644298.0,32998727.0,1604215900.0,5303071899.999999
sz300805,电声股份,2021-08-24,12.53,12.59,12.21,12.25,12.53,2509434.0,30981348.0,1568367500.0,5184567500.0
sz300805,电声股份,2021-08-25,12.25,12.44,12.21,12.28,12.25,1482587.0,18254423.0,1572208400.0,5197264400.0
sz300805,电声股份,2021-08-26,11.95,11.95,11.09,11.16,12.28,6037319.0,68177612.0,1428814800.0,4723246800.0
sz300805,电声股份,2021-08-27,11.13,11.69,10.88,11.35,11.16,3346309.0,37814311.0,1453140500.0,4803660500.0
sz300805,电声股份,2021-08-30,11.34,11.57,11.12,11.22,11.35,1924668.0,21700359.0,1436496600.0,4748640600.0
sz300805,电声股份,2021-08-31,11.22,11.45,11.13,11.26,11.22,1443000.0,16183561.0,1441617800.0,4765569800.0
sz300805,电声股份,2021-09-01,11.27,11.37,11.13,11.37,11.26,1731900.0,19517710.0,1455701099.9999998,4812125100.0
sz300805,电声股份,2021-09-02,11.38,11.43,11.17,11.24,11.37,1220800.0,13709282.0,1439057200.0,4757105200.0
sz300805,电声股份,2021-09-03,11.24,12.21,11.21,11.87,11.24,4590388.0,53794763.0,1519716099.9999998,5023740100.0
sz300805,电声股份,2021-09-06,11.74,11.81,11.55,11.7,11.87,2970308.0,34623060.0,1497951000.0,4951791000.0
sz300805,电声股份,2021-09-07,11.7,12.17,11.58,12.1,11.7,3743000.0,44791999.0,1549163000.0,5121083000.0
sz300805,电声股份,2021-09-08,12.13,12.6,12.02,12.49,12.1,4830124.0,59771040.0,1599094700.0,5286142700.0
sz300805,电声股份,2021-09-09,12.3,12.35,12.02,12.08,12.49,3378200.0,40961628.0,1546602400.0,5112618400.0
sz300805,电声股份,2021-09-10,12.36,12.36,11.85,12.12,12.08,2324114.0,27973663.0,1551723599.9999998,5129547600.0
sz300805,电声股份,2021-09-13,12.12,12.12,11.88,11.97,12.12,1517820.0,18181181.0,1532519100.0,5066063100.0
sz300805,电声股份,2021-09-14,11.99,12.09,11.81,11.82,11.97,1510300.0,18022050.0,1513314600.0,5002578600.0
sz300805,电声股份,2021-09-15,11.86,12.05,11.75,11.88,11.82,1412400.0,16816028.0,1520996400.0000002,5027972400.0
sz300805,电声股份,2021-09-16,11.87,12.08,11.64,11.65,11.88,1675567.0,19784072.0,1491549500.0,4930629500.0
sz300805,电声股份,2021-09-17,11.72,11.77,11.46,11.57,11.65,1335050.0,15436385.0,1481307100.0,4896771100.0
sz300805,电声股份,2021-09-22,11.5,11.5,11.2,11.4,11.57,1290300.0,14639558.0,1459542000.0,4824822000.0
sz300805,电声股份,2021-09-23,11.39,11.76,11.39,11.7,11.4,1977256.0,22963835.0,1497951000.0,4951791000.0
sz300805,电声股份,2021-09-24,11.71,11.75,11.28,11.3,11.7,1375293.0,15741978.0,1446739000.0,4782499000.0
sz300805,电声股份,2021-09-27,11.3,11.35,10.9,10.99,11.3,2056284.0,22758808.0,1407049700.0,4651297700.0
sz300805,电声股份,2021-09-28,11.08,11.1,10.9,11.04,10.99,1147500.0,12616412.0,1413451200.0,4672459200.0
sz300805,电声股份,2021-09-29,10.9,11.0,10.7,10.79,11.04,1276700.0,13920870.0,1381443700.0,4566651700.0
sz300805,电声股份,2021-09-30,10.79,11.09,10.79,11.06,10.79,1081900.0,11861200.0,1416011800.0,4680923800.0
sz300805,电声股份,2021-10-08,11.16,11.3,11.15,11.24,11.06,1487808.0,16720812.0,1439057200.0,4757105200.0
sz300805,电声股份,2021-10-11,11.41,11.48,11.1,11.24,11.24,1254820.0,14135450.0,1439057200.0,4757105200.0
sz300805,电声股份,2021-10-12,11.2,11.27,10.88,11.01,11.24,1365800.0,15102241.0,1409610300.0,4659762300.0
sz300805,电声股份,2021-10-13,10.99,11.34,10.88,11.18,11.01,1777819.0,19746495.0,1431375400.0,4731711400.0
sz300805,电声股份,2021-10-14,11.21,11.8,11.02,11.46,11.18,3795900.0,43461857.0,1467223800.0,4850215800.0
sz300805,电声股份,2021-10-15,11.3,11.39,10.9,11.0,11.46,3084699.0,34349105.0,1408330000.0,4655530000.0
sz300805,电声股份,2021-10-18,11.0,11.15,10.88,11.02,11.0,1194900.0,13139156.0,1410890600.0,4663994600.0
sz300805,电声股份,2021-10-19,11.08,11.1,10.91,10.91,11.02,1556000.0,17074261.0,1396807300.0,4617439300.0
sz300805,电声股份,2021-10-20,10.9,10.99,10.89,10.9,10.91,1228200.0,13428246.0,1395527000.0,4613207000.0
sz300805,电声股份,2021-10-21,10.88,11.17,10.85,11.04,10.9,1890306.0,20809537.0,1413451200.0,4672459200.0
sz300805,电声股份,2021-10-22,11.1,12.29,11.0,11.5,11.04,7704892.0,90377987.0,1472345000.0,4867145000.0
sz300805,电声股份,2021-10-25,11.56,11.6,11.03,11.14,11.5,5441581.0,60738118.0,1426254200.0000002,4714782200.0
sz300805,电声股份,2021-10-26,11.03,11.06,10.76,10.77,11.14,3481289.0,37722429.0,1378883100.0,4558187100.0
sz300805,电声股份,2021-10-27,10.78,10.81,10.14,10.14,10.77,3541319.9999999995,36589784.0,1298224200.0,4291552200.0
sz300805,电声股份,2021-10-28,10.21,10.93,10.11,10.47,10.14,3860636.0,40487364.0,1340474100.0,4431218100.0
sz300805,电声股份,2021-10-29,10.41,10.69,10.28,10.44,10.47,2748515.0,28757010.0,1336633200.0,4418521200.0
sz300805,电声股份,2021-11-01,10.47,10.71,10.47,10.48,10.44,2359359.0,24964528.0,1341754400.0,4435450400.0
sz300805,电声股份,2021-11-02,10.48,10.98,10.41,10.62,10.48,3726694.0,39825560.0,1359678599.9999998,4494702600.0
sz300805,电声股份,2021-11-03,10.73,10.94,10.56,10.7,10.62,3562056.0,38309410.0,1369921000.0,4528561000.0
sz300805,电声股份,2021-11-04,10.76,11.46,10.56,11.2,10.7,6677998.0,73589611.0,1433936000.0,4740176000.0
sz300805,电声股份,2021-11-05,11.03,11.79,11.01,11.69,11.2,9572611.0,110254301.0,1496670700.0,4947558700.0
sz300805,电声股份,2021-11-08,11.5,11.81,11.42,11.59,11.69,5678284.0,65648796.0,1483867700.0,4905235700.0
sz300805,电声股份,2021-11-09,11.42,11.63,11.31,11.48,11.59,3500863.0,40041808.0,1469784400.0,4858680400.0
sz300805,电声股份,2021-11-10,11.42,12.07,11.37,11.75,11.48,6758598.0,79103759.0,1504352500.0,4972952500.0
sz300805,电声股份,2021-11-11,12.39,12.67,11.68,11.74,11.75,11221011.0,134743316.0,1503072200.0,4968720200.0
sz300805,电声股份,2021-11-12,11.79,11.9,11.54,11.59,11.74,5796785.0,67462517.0,1483867700.0,4905235700.0
sz300805,电声股份,2021-11-15,11.59,12.08,11.55,11.98,11.59,6005431.0,71426680.0,1533799400.0,5070295400.0
sz300805,电声股份,2021-11-16,11.7,12.57,11.7,12.33,11.98,10902712.0,132821049.0,1578609900.0,5218425900.0
sz300805,电声股份,2021-11-17,12.24,12.33,11.92,12.09,12.33,6583804.0,79403085.0,1547882700.0,5116850700.0
sz300805,电声股份,2021-11-18,12.05,12.16,11.62,11.63,12.09,4652800.0,54886037.0,1488988900.0000002,4922164900.0
sz300805,电声股份,2021-11-19,11.56,12.17,11.56,11.78,11.63,5469640.0,65341931.0,1508193400.0,4985649400.0
sz300805,电声股份,2021-11-22,11.77,11.85,11.64,11.71,11.78,3182300.0,37264110.0,1499231300.0,4956023300.0
sz300805,电声股份,2021-11-23,11.75,11.78,11.48,11.65,11.71,4074972.0,47309994.0,1491549500.0,4930629500.0
sz300805,电声股份,2021-11-24,11.64,12.19,11.55,12.02,11.65,7665311.0,91820018.0,1538920600.0,5087224600.0
sz300805,电声股份,2021-11-25,12.03,12.21,11.8,11.92,12.02,4881500.0,58213166.0,1526117600.0,5044901600.0
sz300805,电声股份,2021-11-26,11.95,11.96,11.58,11.67,11.92,3853202.0,45023575.0,1494110100.0,4939094100.0
sz300805,电声股份,2021-11-29,11.48,11.64,11.37,11.42,11.67,3295186.0,37733718.0,1462102600.0,4833286600.0
sz300805,电声股份,2021-11-30,11.43,11.77,11.43,11.57,11.42,3684131.0,42768593.0,1481307100.0,4896771100.0
sz300805,电声股份,2021-12-01,11.56,12.1,11.44,12.03,11.57,6863783.0,81509654.0,1540200900.0,5091456900.0
sz300805,电声股份,2021-12-02,12.33,12.35,11.6,11.62,12.03,7051801.0,84149124.0,1487708599.9999998,4917932600.0
sz300805,电声股份,2021-12-03,11.62,12.2,11.62,11.85,11.62,6510866.0,77825046.0,1517155500.0,5015275500.0
sz300805,电声股份,2021-12-06,11.8,11.88,11.22,11.29,11.85,6376672.0,73222312.0,1445458700.0,4778266700.0
sz300805,电声股份,2021-12-07,11.33,11.42,11.11,11.14,11.29,3172609.0,35617983.0,1426254200.0000002,4714782200.0
sz300805,电声股份,2021-12-08,11.14,11.24,11.07,11.23,11.14,1809688.0,20236926.0,1437776900.0,4752872900.0
sz300805,电声股份,2021-12-09,11.23,11.38,11.15,11.19,11.23,3593188.0,40431326.0,1432655700.0,4735943700.0
sz300805,电声股份,2021-12-10,11.25,11.59,11.2,11.53,11.19,5722040.0,65496153.0,1476185900.0,4879841900.0
sz300805,电声股份,2021-12-13,11.63,12.05,11.49,11.97,11.53,8814534.0,104553593.0,1532519100.0,5066063100.0
sz300805,电声股份,2021-12-14,11.99,14.36,11.99,14.36,11.97,25415288.0,348399894.0,1838510799.9999998,6077582800.0
sz300805,电声股份,2021-12-15,13.6,14.09,13.33,13.62,14.36,27446252.0,375662161.0,1743768599.9999998,5764392600.0
sz300805,电声股份,2021-12-16,13.36,14.8,13.11,14.04,13.62,25866596.0,358608304.0,1797541200.0,5942149200.0
sz300805,电声股份,2021-12-17,13.8,15.42,13.4,14.83,14.04,27010246.0,383751936.0,1898684900.0,6276500900.0
sz300805,电声股份,2021-12-20,14.6,16.3,14.5,14.96,14.83,26030267.0,400388297.0,1915328800.0,6331520800.0
sz300805,电声股份,2021-12-21,14.9,14.9,14.08,14.53,14.96,16446568.0,237684648.0,1860275900.0,6149531899.999999
sz300805,电声股份,2021-12-22,14.4,15.63,14.09,15.43,14.53,20934239.0,313522998.0,1975502900.0,6530438900.0
sz300805,电声股份,2021-12-23,15.18,15.42,14.45,14.45,15.43,13842060.0,205057237.0,1850033500.0,6115673500.0
sz300805,电声股份,2021-12-24,14.45,14.72,13.72,13.93,14.45,12400869.0,174852426.0,1783457900.0,5895593900.0
sz300805,电声股份,2021-12-27,14.2,14.2,13.51,14.02,13.93,8875317.0,123419480.0,1794980600.0,5933684600.0
sz300805,电声股份,2021-12-28,13.85,14.26,13.72,13.82,14.02,6451224.0,89681561.0,1769374600.0,5849038600.0
sz300805,电声股份,2021-12-29,13.7,14.04,13.6,13.79,13.82,6147592.0,84992196.0,1765533700.0,5836341700.0
sz300805,电声股份,2021-12-30,13.79,14.64,13.79,14.35,13.79,12921597.0,184293886.0,1837230500.0,6073350500.0
sz300805,电声股份,2021-12-31,14.33,14.7,13.96,13.96,14.35,10019700.0,142885614.0,1787298800.0,5908290800.0
sz300805,电声股份,2022-01-04,13.87,14.49,13.87,14.4,13.96,9237123.0,131798818.0,1843632000.0,6094512000.0
sz300805,电声股份,2022-01-05,14.28,15.11,14.17,15.08,14.4,18697616.0,275578732.0,1930692400.0,6382308400.0
sz300805,电声股份,2022-01-06,14.9,14.9,14.03,14.36,15.08,11238689.0,161872118.0,1838510799.9999998,6077582800.0
sz300805,电声股份,2022-01-07,14.28,14.64,13.3,13.32,14.36,11135343.0,154997657.0,1705359600.0,5637423600.0
sz300805,电声股份,2022-01-10,13.21,13.64,12.86,13.6,13.32,6855100.0,91489292.0,1741208000.0,5755928000.0
sz300805,电声股份,2022-01-11,13.58,14.57,13.12,14.05,13.6,13422875.0,186130375.0,1798821500.0,5946381500.0
sz300805,电声股份,2022-01-12,14.0,14.36,13.74,14.01,14.05,7853151.0,110100083.0,1793700300.0,5929452300.0
sz300805,电声股份,2022-01-13,13.9,14.23,13.61,13.61,14.01,5860400.0,81113894.0,1742488299.9999998,5760160300.0
sz300805,电声股份,2022-01-14,13.61,14.1,13.54,13.63,13.61,6235600.0,85848935.0,1745048900.0000002,5768624900.0
