数据由邢不行整理
股票代码,股票名称,交易日期,开盘价,最高价,最低价,收盘价,前收盘价,成交量,成交额,流通市值,总市值
sz301009,N可靠,2021-06-17,30.0,32.28,25.7,25.85,12.54,40052684.0,1121445494.0,1499539474.4,7027581000.0
sz301009,C可靠,2021-06-18,25.84,27.87,25.8,26.24,25.85,28982841.0,773932540.0,1522163087.36,7133606400.0
sz301009,C可靠,2021-06-21,26.3,31.44,26.3,30.8,26.24,32137177.0,937466543.0,1786685331.2,8373288000.0
sz301009,C可靠,2021-06-22,29.85,33.54,28.7,30.52,30.8,28738461.0,886986842.0,1770442737.28,8297167200.0
sz301009,C可靠,2021-06-23,29.88,32.99,29.3,31.25,30.52,21100843.0,653385023.0,1812789500.0,8495625000.0
sz301009,可靠股份,2021-06-24,32.0,32.15,27.84,28.02,31.25,19425489.0,568544080.0,1625419577.28,7617517200.0
sz301009,可靠股份,2021-06-25,27.56,33.62,27.53,33.62,28.02,23264498.0,709848232.0,1950271455.68,9139933200.0
sz301009,可靠股份,2021-06-28,35.34,38.22,34.31,34.7,33.62,25768206.0,923996162.0,2012921460.8,9433542000.0
sz301009,可靠股份,2021-06-29,34.4,36.18,32.2,34.67,34.7,18811465.0,645309629.0,2011181182.88,9425386200.0
sz301009,可靠股份,2021-06-30,33.99,35.65,32.79,33.68,34.67,15276632.0,519170316.0,1953752011.52,9156244800.0
sz301009,可靠股份,2021-07-01,33.38,33.69,31.6,31.79,33.68,12703928.0,412049247.0,1844114502.56,8642429400.0
sz301009,可靠股份,2021-07-02,31.3,33.15,30.7,31.35,31.79,10973984.0,347395799.0,1818590426.4,8522811000.0
sz301009,可靠股份,2021-07-05,31.35,31.45,28.51,30.65,31.35,12851157.0,384342140.0,1777983941.6,8332509000.0
sz301009,可靠股份,2021-07-06,30.04,31.88,29.74,31.07,30.65,10321241.0,318693502.0,1802347832.48,8446690200.0
sz301009,可靠股份,2021-07-07,31.07,33.15,30.5,32.96,31.07,10482586.0,339324329.0,1911985341.44,8960505600.0
sz301009,可靠股份,2021-07-08,32.35,32.59,30.8,30.92,32.96,8374979.0,264306912.0,1793646442.88,8405911200.0
sz301009,可靠股份,2021-07-09,30.66,31.48,29.4,29.87,30.92,6917917.0,208233422.0,1732736715.6799998,8120458199.999999
sz301009,可靠股份,2021-07-12,29.49,30.76,29.4,30.44,29.87,5962623.0,179012509.0,1765801996.16,8275418400.0
sz301009,可靠股份,2021-07-13,30.98,30.98,29.67,30.37,30.44,6531112.0,198659849.0,1761741347.6799998,8256388199.999999
sz301009,可靠股份,2021-07-14,30.09,32.0,29.71,30.92,30.37,7054434.0,220045146.0,1793646442.88,8405911200.0
sz301009,可靠股份,2021-07-15,30.66,31.59,29.98,31.2,30.92,4294499.0,132868791.0,1809889036.8,8482032000.0
sz301009,可靠股份,2021-07-16,31.0,31.49,29.68,30.01,31.2,4930555.0,149204354.0,1740858012.64,8158518600.0
sz301009,可靠股份,2021-07-19,29.7,30.02,28.45,28.58,30.01,4414659.0,127416625.0,1657904765.12,7769758800.0
sz301009,可靠股份,2021-07-20,27.99,28.78,27.8,28.54,28.58,3548001.0,100175404.0,1655584394.56,7758884399.999999
sz301009,可靠股份,2021-07-21,29.25,29.88,28.04,28.09,28.54,4334358.0,124581397.0,1629480225.76,7636547400.0
sz301009,可靠股份,2021-07-22,27.77,28.0,26.9,27.04,28.09,5533464.0,150752416.0,1568570498.56,7351094399.999999
sz301009,可靠股份,2021-07-23,27.07,27.68,26.31,27.33,27.04,4363231.0,117828521.0,1585393185.12,7429933800.0
sz301009,可靠股份,2021-07-26,27.03,27.3,26.47,27.18,27.33,3545956.0,95276647.0,1576691795.52,7389154800.0
sz301009,可靠股份,2021-07-27,27.0,27.17,26.5,26.56,27.18,2609626.0,70021297.0,1540726051.84,7220601600.0
sz301009,可靠股份,2021-07-28,26.63,29.13,26.61,28.44,26.56,6504650.0,182941915.0,1649783468.16,7731698400.0
sz301009,可靠股份,2021-07-29,28.11,29.0,27.81,28.44,28.44,4854822.0,137516169.0,1649783468.16,7731698400.0
sz301009,可靠股份,2021-07-30,28.0,28.0,26.8,27.26,28.44,5583291.0,152444200.0,1581332536.64,7410903600.0
sz301009,可靠股份,2021-08-02,27.0,27.93,26.46,27.51,27.26,4312674.0,118092214.0,1595834852.64,7478868600.0
sz301009,可靠股份,2021-08-03,27.14,28.83,27.14,28.08,27.51,4646933.0,131179210.0,1628900133.12,7633828800.0
sz301009,可靠股份,2021-08-04,28.0,29.26,27.8,29.01,28.08,4495820.0,128381788.0,1682848748.64,7886658600.0
sz301009,可靠股份,2021-08-05,28.9,28.9,28.08,28.22,29.01,2576830.0,73162341.0,1637021430.0800002,7671889200.0
sz301009,可靠股份,2021-08-06,28.12,28.36,27.21,27.4,28.22,2589726.0,71302587.0,1589453833.6,7448964000.0
sz301009,可靠股份,2021-08-09,27.2,27.98,27.1,27.57,27.4,1648631.0,45483805.0,1599315408.48,7495180200.0
sz301009,可靠股份,2021-08-10,27.4,27.96,27.16,27.69,27.57,2098349.0,57727457.0,1606276520.16,7527803400.0
sz301009,可靠股份,2021-08-11,27.59,27.75,27.32,27.38,27.69,1560353.0,42845798.0,1588293648.32,7443526800.000001
sz301009,可靠股份,2021-08-12,27.48,28.3,27.05,28.02,27.38,3265053.0,90407307.0,1625419577.28,7617517200.0
sz301009,可靠股份,2021-08-13,28.07,29.28,27.96,28.93,28.02,4624613.0,133312498.0,1678208007.5200002,7864909800.0
sz301009,可靠股份,2021-08-16,28.93,31.5,28.4,30.67,28.93,5581436.0,167235647.0,1779144126.88,8337946200.0
sz301009,可靠股份,2021-08-17,30.15,31.3,29.05,29.39,30.67,4742468.0,142255768.0,1704892268.96,7989965400.0
sz301009,可靠股份,2021-08-18,29.88,30.3,28.6,29.1,29.39,2974864.0,87462092.0,1688069582.4,7911126000.0
sz301009,可靠股份,2021-08-19,28.71,29.5,28.22,28.67,29.1,2663249.0,76996013.0,1663125598.88,7794226200.0
sz301009,可靠股份,2021-08-20,28.51,28.51,26.74,26.99,28.67,3603516.0,98371921.0,1565670035.36,7337501400.0
sz301009,可靠股份,2021-08-23,26.0,26.7,25.8,26.35,26.99,4811243.0,126230831.0,1528544106.4,7163511000.0
sz301009,可靠股份,2021-08-24,26.35,26.35,25.6,25.93,26.35,4692387.0,121360040.0,1504180215.52,7049329800.0
sz301009,可靠股份,2021-08-25,25.99,26.15,25.75,25.95,25.93,2623784.0,68065396.0,1505340400.8,7054767000.0
sz301009,可靠股份,2021-08-26,25.75,25.87,24.87,25.01,25.95,3803386.0,95874820.0,1450811692.64,6799218600.0
sz301009,可靠股份,2021-08-27,24.82,25.57,24.63,25.3,25.01,2438508.0,61131016.0,1467634379.2,6878058000.0
sz301009,可靠股份,2021-08-30,25.3,25.52,24.96,25.04,25.3,1771106.0,44675312.0,1452551970.56,6807374399.999999
sz301009,可靠股份,2021-08-31,24.7,25.7,24.7,25.42,25.04,2223364.0,56439100.0,1474595490.88,6910681200.0
sz301009,可靠股份,2021-09-01,25.57,25.93,24.78,25.93,25.42,2837889.0,72140269.0,1504180215.52,7049329800.0
sz301009,可靠股份,2021-09-02,25.94,26.44,25.68,25.71,25.93,2667219.0,69202210.0,1491418177.44,6989520600.000001
sz301009,可靠股份,2021-09-03,25.68,26.11,25.25,25.7,25.71,1946736.0,49891030.0,1490838084.8,6986802000.0
sz301009,可靠股份,2021-09-06,25.66,25.86,25.51,25.85,25.7,1696611.0,43638243.0,1499539474.4,7027581000.0
sz301009,可靠股份,2021-09-07,25.8,25.95,25.6,25.62,25.85,1817924.0,46717829.0,1486197343.68,6965053199.999999
sz301009,可靠股份,2021-09-08,25.75,25.92,25.2,25.42,25.62,2523123.0,64195523.0,1474595490.88,6910681200.0
sz301009,可靠股份,2021-09-09,25.28,25.4,24.68,24.82,25.42,2406595.0,59958789.0,1439789932.48,6747565200.0
sz301009,可靠股份,2021-09-10,24.82,25.16,24.74,24.99,24.82,1433179.0,35795843.0,1449651507.36,6793781400.0
sz301009,可靠股份,2021-09-13,24.98,25.13,24.61,25.06,24.99,1670379.0,41367675.0,1453712155.84,6812811600.0
sz301009,可靠股份,2021-09-14,24.99,25.11,24.79,24.79,25.06,1114221.0,27799951.0,1438049654.56,6739409399.999999
sz301009,可靠股份,2021-09-15,24.79,25.11,24.64,25.05,24.79,968229.0,24173333.0,1453132063.2,6810093000.0
sz301009,可靠股份,2021-09-16,24.9,25.79,24.7,25.46,25.05,3174085.0,80652157.0,1476915861.44,6921555600.000001
sz301009,可靠股份,2021-09-17,25.35,25.35,24.06,24.33,25.46,2704194.0,66575483.0,1411365393.12,6614353800.0
sz301009,可靠股份,2021-09-22,23.71,24.12,22.85,23.02,24.33,3098787.0,71911915.0,1335373257.28,6258217200.0
sz301009,可靠股份,2021-09-23,23.08,27.62,23.0,27.62,23.02,20955850.0,567792437.0,1602215871.68,7508773199.999999
sz301009,可靠股份,2021-09-24,26.0,26.7,24.16,24.2,27.62,17018335.0,426578377.0,1403824188.8000002,6579012000.0
sz301009,可靠股份,2021-09-27,23.75,23.99,23.03,23.16,24.2,8259885.0,193135932.0,1343494554.2400002,6296277600.0
sz301009,可靠股份,2021-09-28,23.03,23.65,21.85,22.22,23.16,7733978.0,174154626.0,1288965846.0800002,6040729200.0
sz301009,可靠股份,2021-09-29,21.76,22.15,20.59,20.6,22.22,5729199.0,121514489.0,1194990838.4,5600316000.0
sz301009,可靠股份,2021-09-30,20.59,21.08,20.52,20.89,20.6,2579082.0,53791181.0,1211813524.96,5679155400.0
sz301009,可靠股份,2021-10-08,21.0,21.47,20.89,21.2,20.89,2861921.0,60581175.0,1229796396.8,5763432000.0
sz301009,可靠股份,2021-10-11,21.31,21.39,20.66,20.98,21.2,2173114.0,45539306.0,1217034358.72,5703622800.0
sz301009,可靠股份,2021-10-12,20.77,22.22,20.77,21.4,20.98,4507213.0,97393513.0,1241398249.6,5817804000.0
sz301009,可靠股份,2021-10-13,21.27,22.0,21.21,21.85,21.4,3256879.0,70603748.0,1267502418.4,5940141000.0
sz301009,可靠股份,2021-10-14,22.08,22.08,21.39,21.57,21.85,2663339.0,57529303.0,1251259824.48,5864020200.0
sz301009,可靠股份,2021-10-15,21.47,21.5,20.8,21.05,21.57,2611945.0,55063282.0,1221095007.2,5722653000.0
sz301009,可靠股份,2021-10-18,20.91,21.34,20.76,20.86,21.05,2678714.0,56197130.0,1210073247.04,5670999600.0
sz301009,可靠股份,2021-10-19,20.99,21.1,20.73,21.05,20.86,2186506.0,45804220.0,1221095007.2,5722653000.0
sz301009,可靠股份,2021-10-20,21.09,21.09,20.64,20.77,21.05,2143100.0,44483517.0,1204852413.28,5646532200.0
sz301009,可靠股份,2021-10-21,20.6,20.92,20.06,20.11,20.77,3144766.0,64184655.0,1166566299.04,5467104600.0
sz301009,可靠股份,2021-10-22,20.1,20.54,20.03,20.19,20.11,1851467.0,37586320.0,1171207040.16,5488853400.0
sz301009,可靠股份,2021-10-25,20.1,20.41,19.56,19.96,20.19,2100685.0,41583644.0,1157864909.44,5426325600.000001
sz301009,可靠股份,2021-10-26,19.77,20.07,19.37,19.4,19.96,2659056.0,52239340.0,1125379721.6,5274084000.0
sz301009,可靠股份,2021-10-27,19.32,19.45,18.51,18.63,19.4,3084890.0,57888336.0,1080712588.32,5064751800.0
sz301009,可靠股份,2021-10-28,17.56,18.29,17.46,17.8,18.63,3681074.0,65574877.0,1032564899.2,4839108000.0
sz301009,可靠股份,2021-10-29,17.79,18.38,17.72,17.9,17.8,2532638.0,45678717.0,1038365825.6,4866294000.0
sz301009,可靠股份,2021-11-01,17.92,18.7,17.74,18.52,17.9,2808159.0,51521262.0,1074331569.28,5034847200.0
sz301009,可靠股份,2021-11-02,18.49,18.72,17.93,18.09,18.52,2449253.0,44707616.0,1049387585.76,4917947400.0
sz301009,可靠股份,2021-11-03,18.09,18.43,18.03,18.31,18.09,1430797.0,26082972.0,1062149623.84,4977756600.0
sz301009,可靠股份,2021-11-04,18.38,18.56,18.1,18.56,18.31,2063126.0,37853902.0,1076651939.84,5045721600.0
sz301009,可靠股份,2021-11-05,18.84,19.67,18.56,18.6,18.56,5685768.0,107963980.0,1078972310.4,5056596000.0
sz301009,可靠股份,2021-11-08,18.6,18.75,18.12,18.51,18.6,2339500.0,43183107.0,1073751476.64,5032128600.0
sz301009,可靠股份,2021-11-09,18.56,18.93,18.29,18.73,18.51,2168700.0,40438032.0,1086513514.72,5091937800.0
sz301009,可靠股份,2021-11-10,18.68,18.87,18.38,18.85,18.73,2197706.0,40923010.0,1093474626.4,5124561000.0
sz301009,可靠股份,2021-11-11,18.85,19.23,18.77,19.07,18.85,2200012.0,41950225.0,1106236664.48,5184370200.0
sz301009,可靠股份,2021-11-12,19.09,19.65,18.88,19.51,19.07,3411053.0,65968798.0,1131760740.64,5303988600.0
sz301009,可靠股份,2021-11-15,19.4,20.29,19.36,20.07,19.51,4141905.0,82301677.0,1164245928.48,5456230200.0
sz301009,可靠股份,2021-11-16,20.1,20.12,19.36,19.53,20.07,3450000.0,67729209.0,1132920925.92,5309425800.0
sz301009,可靠股份,2021-11-17,19.38,19.74,19.36,19.55,19.53,2028623.0,39649050.0,1134081111.2,5314863000.0
sz301009,可靠股份,2021-11-18,19.55,19.65,19.0,19.13,19.55,2341100.0,45242657.0,1109717220.32,5200681800.0
sz301009,可靠股份,2021-11-19,19.21,19.43,19.05,19.33,19.13,1599327.0,30830645.0,1121319073.12,5255053800.0
sz301009,可靠股份,2021-11-22,19.37,19.87,19.24,19.73,19.33,2574868.0,50304014.0,1144522778.72,5363797800.0
sz301009,可靠股份,2021-11-23,19.63,20.12,19.6,19.92,19.73,2866321.0,56964648.0,1155544538.88,5415451200.0
sz301009,可靠股份,2021-11-24,19.86,20.98,19.73,20.83,19.92,5780694.0,119237310.0,1208332969.1200001,5662843800.0
sz301009,可靠股份,2021-11-25,21.62,21.98,20.6,20.9,20.83,6595029.0,139777540.0,1212393617.6,5681874000.0
sz301009,可靠股份,2021-11-26,20.6,21.34,20.4,21.17,20.9,5073246.0,105345267.0,1228056118.8799999,5755276200.0
sz301009,可靠股份,2021-11-29,21.04,21.88,20.88,21.53,21.17,5440415.0,116152774.0,1248939453.9199998,5853145800.0
sz301009,可靠股份,2021-11-30,21.22,21.5,20.66,21.14,21.53,4552200.0,95402562.0,1226315840.96,5747120400.0
sz301009,可靠股份,2021-12-01,20.98,21.5,20.72,21.1,21.14,3411863.0,72231255.0,1223995470.4,5736246000.0
sz301009,可靠股份,2021-12-02,21.2,21.87,21.02,21.82,21.1,6090725.0,131098609.0,1265762140.48,5931985200.0
sz301009,可靠股份,2021-12-03,21.57,21.65,21.0,21.08,21.82,3979712.0,84427342.0,1222835285.1200001,5730808800.0
sz301009,可靠股份,2021-12-06,20.85,20.91,19.75,19.77,21.08,3880675.0,78418011.0,1146843149.28,5374672200.0
sz301009,可靠股份,2021-12-07,19.95,20.09,19.61,19.75,19.77,1657760.0,32796307.0,1145682964.0,5369235000.0
sz301009,可靠股份,2021-12-08,19.75,20.15,19.61,20.13,19.75,1512433.0,30161722.0,1167726484.32,5472541800.000001
sz301009,可靠股份,2021-12-09,20.15,20.46,20.02,20.09,20.13,1729700.0,34944692.0,1165406113.76,5461667400.0
sz301009,可靠股份,2021-12-10,20.1,20.26,19.86,19.91,20.09,1643594.0,32833798.0,1154964446.24,5412732600.0
sz301009,可靠股份,2021-12-13,19.91,19.99,19.45,19.52,19.91,2344652.0,46075123.0,1132340833.28,5306707200.0
sz301009,可靠股份,2021-12-14,19.5,19.88,19.27,19.88,19.52,1905601.0,37577900.0,1153224168.32,5404576800.000001
sz301009,可靠股份,2021-12-15,19.91,20.48,19.6,20.35,19.88,3515355.0,70832184.0,1180488522.3999999,5532351000.0
sz301009,可靠股份,2021-12-16,20.2,20.34,19.92,19.99,20.35,2175158.0,43547643.0,1159605187.36,5434481400.0
sz301009,可靠股份,2021-12-17,19.8,19.81,19.1,19.15,19.99,4216255.0,81355768.0,1171462950.0,5206119000.0
sz301009,可靠股份,2021-12-20,19.13,19.13,18.68,18.71,19.15,2402566.0,45233848.0,1144546830.0,5086500600.0
sz301009,可靠股份,2021-12-21,18.8,19.05,18.66,18.92,18.71,1478065.0,27939883.0,1157393160.0,5143591200.0
sz301009,可靠股份,2021-12-22,18.88,19.06,18.85,18.98,18.92,1595140.0,30241918.0,1161063540.0,5159902800.0
sz301009,可靠股份,2021-12-23,18.98,19.0,18.31,18.37,18.98,2615931.0,48483811.0,1123748010.0,4994068200.0
sz301009,可靠股份,2021-12-24,18.37,18.52,18.13,18.18,18.37,1486832.0,27113013.0,1112125140.0,4942414800.0
sz301009,可靠股份,2021-12-27,18.16,18.28,17.91,18.23,18.18,1633885.0,29663669.0,1115183790.0,4956007800.0
sz301009,可靠股份,2021-12-28,18.36,18.56,18.24,18.46,18.23,1458238.0,26867942.0,1129253580.0,5018535600.0
sz301009,可靠股份,2021-12-29,18.45,18.73,18.29,18.61,18.46,1661858.0,30803257.0,1138429530.0,5059314600.0
sz301009,可靠股份,2021-12-30,18.6,18.68,18.42,18.61,18.61,1254973.0,23366685.0,1138429530.0,5059314600.0
sz301009,可靠股份,2021-12-31,18.61,18.76,18.45,18.45,18.61,1512257.0,28031274.0,1128641850.0,5015817000.0
sz301009,可靠股份,2022-01-04,18.47,18.87,18.47,18.77,18.45,1995723.0,37404427.0,1148217210.0,5102812200.0
sz301009,可靠股份,2022-01-05,18.77,18.83,18.39,18.52,18.77,1443721.0,26762677.0,1132923960.0,5034847200.0
sz301009,可靠股份,2022-01-06,18.54,18.98,18.46,18.7,18.52,3232948.0,60567156.0,1143935100.0,5083782000.0
sz301009,可靠股份,2022-01-07,18.63,18.83,18.25,18.28,18.7,2982324.0,55243513.0,1118242440.0,4969600800.0
sz301009,可靠股份,2022-01-10,18.28,19.19,18.0,18.95,18.28,3405164.0,63728160.0,1159228350.0,5151747000.0
sz301009,可靠股份,2022-01-11,18.88,20.08,18.84,19.64,18.95,6766668.0,132751253.0,1201437720.0,5339330400.0
sz301009,可靠股份,2022-01-12,19.31,19.72,19.21,19.46,19.64,3761997.0,73158404.0,1190426580.0,5290395600.000001
sz301009,可靠股份,2022-01-13,19.35,19.46,19.2,19.23,19.46,2014832.0,38932243.0,1176356790.0,5227867800.0
sz301009,可靠股份,2022-01-14,19.36,20.36,19.15,20.2,19.23,7675073.0,153072578.0,1235694600.0,5491572000.0
